name,frame_0,frame_1,frame_2,frame_3,frame_4,frame_5,frame_6,frame_7,frame_8,frame_9,frame_10,frame_11,frame_12,frame_13,frame_14,frame_15,frame_16,frame_17,frame_18,frame_19,frame_20,frame_21,frame_22,frame_23
nameStamp,Tstart,Tearly,Tearly,Tearly,Tearly,Tearly,Tearly,Tearly,Tearly,Tearly,Tearly,Tearly,Tearly,Tearly,Tearly,Tearly,Tmid,Tmid,Tmid,Tmid,Tmid,Tmid,Tmid,Tmid
timestamp,0,60017,120025,180034,240048,300056,360077,420082,480110,540112,600113,660129,720158,780170,840194,900200,960231,1020241,1080255,1140287,1200309,1260337,1320362,1380362
participant_0_GOLD,500,500,541,857,1015,1333,1512,1840,2122,2322,2600,3032,3356,3632,3958,4305,4648,4870,5153,6085,6451,6777,7464,7829
participant_0_CURRENTGOLD,500,0,41,357,515,833,27,355,637,837,1115,1547,56,332,658,120,463,685,968,1900,2266,327,1014,1479
participant_0_LEVEL,1,1,1,3,4,5,5,6,7,8,8,9,9,10,10,11,11,11,12,13,13,13,14,14
participant_0_MINIONSKILLED,0,0,1,10,12,21,24,33,39,44,50,56,58,67,79,85,94,94,103,111,120,125,136,137
participant_0_KILLS,0,0,0,0,0,0,0,0,0,0,0,0,0,0,0,0,0,0,0,1,1,1,1,1
participant_0_BUY,[],"[1056, 2003, 2003, 3340]",[],[],[],[],"[1052, 1028, 2031]",[],[],[],[],[],[3116],[],[],"[1052, 1028]",[],[],[],[],[],[3151],[],[]
participant_0_SOLD,[],[],[],[],[2003],[2003],[],[],[],[],[],[],"[1052, 1028]",[],[],[],[],[],[],[],[],"[1028, 1052]",[],[]
participant_0_UNDO,[],[],[],[],[],[],[],[],[],[],[],[],[],[],[],[],[],[],[],[],[],[],[],[]
participant_1_GOLD,500,500,605,963,1348,2025,2233,2613,3015,3255,3477,4075,4516,4824,5161,5439,5772,6494,7046,7293,7416,8121,8936,9178
participant_1_CURRENTGOLD,500,0,105,463,848,1525,433,813,1215,1455,402,1000,641,949,1286,314,647,1369,1921,68,191,896,1711,1953
participant_1_LEVEL,1,1,2,3,4,4,5,5,6,6,7,7,8,8,8,9,9,10,10,11,11,11,12,12
participant_1_MINIONSKILLED,0,0,0,0,0,0,0,2,2,5,5,5,5,5,9,9,9,9,10,10,10,10,19,21
participant_1_KILLS,0,0,0,0,0,0,0,0,0,0,0,0,1,1,1,1,1,1,1,1,1,1,1,1
participant_1_BUY,[],"[3854, 3340, 2003, 2003]",[],[],[],[],"[3067, 2031]",[],[],[],[3117],[1029],[],[1031],[],[],"[3109, 1029, 1027]",[],[],"[3024, 1029]",[],[],"[3050, 1028]",[]
participant_1_SOLD,[],[],[],[2010],[2003],"[2003, 2010]",[],[],[],[2010],[2422],[],[],[1029],[],[3854],"[3067, 1031]",[],[],"[1027, 1029]",[],[],"[1029, 3024]",[]
participant_1_UNDO,[],[],[],[],[],[],[],[],[],[],[],[],[],[],[],[],[],[],[],[],[],[],[],[]
participant_2_GOLD,500,500,599,769,904,1143,1299,1555,1739,1894,2068,2278,2498,2812,2947,3218,3368,3666,3850,4558,4707,5318,5726,6270
participant_2_CURRENTGOLD,500,50,149,319,154,393,114,370,554,309,483,693,913,462,597,868,168,466,649,808,157,768,1175,435
participant_2_LEVEL,1,1,1,3,3,5,5,6,7,7,8,8,9,9,9,10,10,10,11,11,12,12,13,13
participant_2_MINIONSKILLED,0,0,4,6,6,13,14,23,26,29,34,40,48,51,51,58,60,66,69,69,70,75,84,84
participant_2_KILLS,0,0,0,0,0,1,1,1,1,1,1,2,3,3,3,3,3,4,5,5,5,6,7,7
participant_2_BUY,[],"[3340, 1039, 2031]",[],[],[],[],"[3706, 1001, 1036]",[],[],[],[1400],[],[3111],[],[],[3044],[],[],[],"[3071, 1036]",[],[],[],[]
participant_2_SOLD,[],[],[],[],[],[],[1039],[],[],[],"[1036, 3706]",[],[1001],[],[],[],[],[],[],[3044],[],[],[],[]
participant_2_UNDO,[],[],[],[],[],[],[],[],[],[],[],[],[],[],[],[],[],[],[],[],[],[],[],[]
participant_3_GOLD,500,500,597,881,1821,2309,2909,3262,3758,4585,4708,5078,5755,6006,6720,7592,7932,8555,9518,10100,10468,11879,12051,12938
participant_3_CURRENTGOLD,500,0,97,381,1321,109,709,1062,1558,2385,58,428,1105,56,770,1642,1982,105,1068,120,489,1899,82,788
participant_3_LEVEL,1,1,1,2,3,4,5,5,6,6,6,7,8,8,8,9,9,10,11,11,12,13,13,13
participant_3_MINIONSKILLED,0,0,4,13,25,30,38,51,65,71,71,81,93,96,103,115,118,118,126,128,132,146,146,150
participant_3_KILLS,0,0,0,0,2,3,4,4,4,5,5,5,5,5,6,7,8,9,12,13,13,16,16,18
participant_3_BUY,[],"[1054, 2003, 3340]",[],[],[],"[1038, 1001, 2003, 2003]",[],[],[],[],"[3031, 1042, 2003]",[],[],"[3006, 2015, 2003, 2003]",[],[],[],"[3087, 1042, 1042]",[],"[1043, 1037, 1052]",[],[],"[3124, 1053, 1042]",[]
participant_3_SOLD,[],[],[],[],[2003],[],[],[2003],[2003],[],[1038],[2003],[],"[1001, 1042]",[],"[2003, 2003]",[],[2015],[],"[1042, 1042, 1054]",[],[],"[1052, 1043, 1037]",[]
participant_3_UNDO,[],[],[],[],[],[],[],[],[],[],[],[],[],[],[],[],[],[],[],[],[],[],[],[]
participant_4_GOLD,500,500,543,692,1158,1450,1585,1733,2004,2234,2389,2653,3101,3316,3729,4309,4450,4590,5055,5245,5414,6290,6630,7041
participant_4_CURRENTGOLD,500,0,43,192,658,950,135,283,554,784,239,203,651,366,779,1359,249,390,855,495,664,1540,430,841
participant_4_LEVEL,1,1,1,2,3,4,4,4,5,5,6,6,7,7,8,8,8,8,9,10,10,11,11,12
participant_4_MINIONSKILLED,0,0,1,2,4,5,5,6,9,10,11,14,15,15,18,19,19,19,22,22,24,27,27,28
participant_4_KILLS,0,0,0,0,0,0,0,0,0,0,0,0,0,0,0,0,0,0,0,1,1,2,2,3
participant_4_BUY,[],"[3854, 2003]",[],[],[1001],[],[1052],[],[],[1028],[],[],[],[3916],[],[],[1026],[],[],[3165],[3020],[],[],"[1026, 1052]"
participant_4_SOLD,[],[],[],[2003],[],[],[],[],[],[],[],[],[],"[1028, 1052]",[],[],[],[],[],"[3916, 1026]",[1001],[],[],[]
participant_4_UNDO,[],[],[],[],[],[],[],[],[],[],[],[],[],[],[],[],[],[],[],[],[],[],[],[]
participant_5_GOLD,500,500,576,846,1179,1406,1784,2032,2370,2719,2981,3104,3521,3790,4120,4312,4760,5084,5485,6248,6622,6794,7116,7458
participant_5_CURRENTGOLD,500,0,76,346,679,906,1284,282,620,969,1231,254,671,940,1270,212,10,334,735,248,622,794,701,-72
participant_5_LEVEL,1,1,1,3,4,5,6,6,7,8,8,8,9,10,10,10,11,11,12,13,13,13,13,14
participant_5_MINIONSKILLED,0,0,3,11,23,29,41,48,58,67,76,76,91,100,108,112,123,131,143,143,151,154,157,163
participant_5_KILLS,0,0,0,0,0,0,1,1,1,1,2,3,3,3,3,3,3,3,3,3,3,3,3,3
participant_5_BUY,[],"[3850, 2003, 2003, 3340]",[],[],[1052],[],[],[3802],[],[],"[3145, 2055]",[],[3030],[],[],[3111],[],[1052],[3108],[],[3364],[],[3113],[]
participant_5_SOLD,[],[],[],[],"[2003, 2010, 2003]",[],[2010],[1052],[],[3850],[],[2010],"[3802, 3145]",[],[],[2422],[],[],[1052],[3851],[3340],[],[],[]
participant_5_UNDO,[],[],[],[],[],[],[],[],[],[],[],[],[],[],[],[],[],[],[],[],[],[],[],[]
participant_6_GOLD,500,500,1020,1333,1962,2384,3033,3345,3510,4287,4584,4876,4999,5340,5866,6089,6452,6574,6759,8666,8838,9042,10514,10623
participant_6_CURRENTGOLD,500,0,520,833,1462,534,1183,170,335,1112,309,601,91,432,958,1181,1544,266,151,1258,390,95,16,65
participant_6_LEVEL,1,1,2,3,4,4,5,5,5,7,7,7,7,8,9,9,9,9,10,10,10,10,11,11
participant_6_MINIONSKILLED,0,0,0,0,1,1,1,1,4,4,4,4,4,4,13,13,13,13,16,21,21,22,25,25
participant_6_KILLS,0,0,1,1,2,3,4,4,4,6,6,6,6,6,7,7,8,8,8,10,10,10,12,12
participant_6_BUY,[],"[1039, 3340, 2031]",[],[],[],"[3057, 1001]",[],"[3044, 2055]",[],[],[3101],[],"[3078, 1029]",[],[],[],[],"[3047, 1053]",[1029],[3105],[3133],[3812],"[3706, 1028, 3751]",[]
participant_6_SOLD,[],[],[],[],[],[],[],[],[2055],[],[],[],"[3101, 3057, 3044]",[],[],[3340],[],"[1001, 1029]",[],"[1029, 3513]",[2031],"[3105, 1053, 3133]","[1039, 1028]",[]
participant_6_UNDO,[],[],[],[],[],[],[],[],[],[],[],[],[],[],[],[],[],[],[],[],[],[],[],[]
participant_7_GOLD,500,500,640,840,1236,1513,1786,1965,2282,2646,2768,3037,3364,3620,3778,4110,4359,4655,4778,5215,5723,5859,6040,6149
participant_7_CURRENTGOLD,500,0,140,340,736,1013,86,265,582,946,118,387,714,120,278,610,859,405,178,615,173,309,489,599
participant_7_LEVEL,1,1,1,3,4,5,6,6,7,7,8,8,9,9,9,10,10,11,11,11,11,12,12,12
participant_7_MINIONSKILLED,0,0,4,8,16,22,23,27,35,41,41,50,59,62,64,73,76,82,82,94,94,95,98,98
participant_7_KILLS,0,0,0,0,0,0,0,0,0,0,0,0,0,0,0,0,0,0,0,1,1,1,1,1
participant_7_BUY,[],"[1056, 2003, 2003, 3340]",[],[],[],[],"[3070, 1027]",[],[],[],[3802],[],[],[1026],[],[],[],"[1028, 1027]",[3010],[],"[3027, 1001]",[],[],[]
participant_7_SOLD,[],[],[],"[2010, 2003, 2003]",[],[],[],"[2010, 2010]",[],[],[1027],[],[],[],[],[],[],[],"[1028, 1027]",[],"[3010, 1026]",[],[],[]
participant_7_UNDO,[],[],[],[],[],[],[],[],[],[],[],[],[],[],[],[],[],[],[],[],[],[],[],[]
participant_8_GOLD,500,500,583,818,1001,1221,1504,1724,1846,2018,2256,2379,2522,2679,2844,2966,3180,3372,3584,3791,3963,4086,4208,4519
participant_8_CURRENTGOLD,500,0,83,318,51,271,554,774,46,218,456,329,472,629,794,41,255,447,659,191,363,486,608,919
participant_8_LEVEL,1,1,1,2,2,3,3,4,4,5,5,5,5,6,6,6,7,7,7,8,8,8,8,9
participant_8_MINIONSKILLED,0,0,3,10,11,16,16,22,22,25,26,26,27,29,31,31,36,40,41,46,46,46,46,54
participant_8_KILLS,0,0,0,0,0,0,0,0,0,0,0,0,0,0,0,0,0,0,0,0,0,0,0,0
participant_8_BUY,[],"[1055, 2003, 3340]",[],[],"[1001, 2003, 2003, 2003]",[],[],[],[3070],[],[],"[2003, 2003, 2003, 2003, 2003]",[],[],[],[1037],[],[],[],[3004],[],[],[],[]
participant_8_SOLD,[],[],[],[2003],[],[],[],[2003],"[2003, 2003]",[],[],[],[],[],[],[],[],[],[],"[3070, 1037]",[],[],[],[]
participant_8_UNDO,[],[],[],[],[],[],[],[],[],[],[],[],[],[],[],[],[],[],[],[],[],[],[],[]
participant_9_GOLD,500,500,602,871,1021,1251,1838,2028,2265,2430,2990,3570,3755,4023,4281,4507,4747,4932,5159,5410,5719,6020,6427,6553
participant_9_CURRENTGOLD,500,0,102,371,86,316,903,228,465,630,65,645,381,648,906,333,572,322,84,335,644,945,503,628
participant_9_LEVEL,1,1,1,2,2,4,4,5,6,6,6,8,8,8,8,9,9,9,9,10,10,11,11,11
participant_9_MINIONSKILLED,0,0,0,1,1,2,6,9,11,11,11,18,18,22,22,26,27,27,31,32,35,45,48,48
participant_9_KILLS,0,0,0,0,0,0,0,0,0,0,0,0,0,0,0,0,0,0,0,1,1,1,1,1
participant_9_BUY,[],"[1054, 2003]",[],[],[],[],[],"[1026, 1028]",[],[],[],[3136],[],[],[],"[3151, 1033, 2003]",[3111],[],[],"[1026, 1028]",[],[],"[1052, 1052]",[3116]
participant_9_SOLD,[],[],[],[],[],[2003],[],[],[],[],[],[1028],[],[],[],"[3136, 1026]",[1033],[],[],[],[],[],"[1054, 2003]","[1026, 1052, 1028]"
participant_9_UNDO,[],[],[],[],[],[],[],[],[],[],[],[],[],[],[],[],[],[],[],[],[],[],"[[0, 1052], [1054, 0]]",[]
team0_KILLS,0,0,0,0,2,4,5,5,5,6,6,7,9,9,10,11,12,14,18,21,21,26,27,30
team0_CURRENTGOLD,2500,50,435,1712,3496,3810,1418,2883,4518,5770,2297,3871,3366,2165,4090,4303,3509,3015,5461,3391,3767,5430,4412,5496
team0_TOTALGOLD,2500,2500,2885,4162,6246,8260,9538,11003,12638,14290,15242,17116,19226,20590,22515,24863,26170,28175,30622,33281,34456,38385,40807,43256
team0_LEVEL,5,5,6,13,17,22,24,26,31,32,35,37,41,42,43,47,47,49,53,56,58,60,63,64
team0_SBIRES,0,0,10,31,47,69,81,115,141,159,171,196,219,234,260,286,300,306,330,340,356,383,412,420
team1_KILLS,0,0,1,1,2,3,5,5,5,7,8,9,9,9,10,10,11,11,11,15,15,15,17,17
team1_CURRENTGOLD,2500,0,921,2208,3014,3040,4010,1719,2048,3875,2179,2216,2329,2769,4206,2377,3240,1774,1807,2647,2192,2629,2317,2139
team1_TOTALGOLD,2500,2500,3421,4708,6399,7775,9945,11094,12273,14100,15579,16966,18161,19452,20889,21984,23498,24617,25765,29330,30865,31801,34305,35302
team1_LEVEL,5,5,6,13,16,21,24,26,29,33,34,36,38,41,42,44,46,47,49,52,52,54,55,57
team1_SBIRES,0,0,10,30,52,70,87,107,130,148,158,174,199,217,238,255,275,293,313,336,347,362,374,388
delta_KILLS,0,0,-1,-1,0,1,0,0,0,-1,-2,-2,0,0,0,1,1,3,7,6,6,11,10,13
delta_CURRENTGOLD,0,50,-486,-496,482,770,-2592,1164,2470,1895,118,1655,1037,-604,-116,1926,269,1241,3654,744,1575,2801,2095,3357
delta_TOTALGOLD,0,0,-536,-546,-153,485,-407,-91,365,190,-337,150,1065,1138,1626,2879,2672,3558,4857,3951,3591,6584,6502,7954
delta_LEVEL,0,0,0,0,1,1,0,0,2,-1,1,1,3,1,1,3,1,2,4,4,6,6,8,7
delta_SBIRES,0,0,0,1,-5,-1,-6,8,11,11,13,22,20,17,22,31,25,13,17,4,9,21,38,32
