name,frame_0,frame_1,frame_2,frame_3,frame_4,frame_5,frame_6,frame_7,frame_8,frame_9,frame_10,frame_11,frame_12,frame_13,frame_14,frame_15,frame_16,frame_17,frame_18,frame_19,frame_20,frame_21,frame_22,frame_23,frame_24,frame_25,frame_26,frame_27,frame_28,frame_29,frame_30,frame_31,frame_32,frame_33,frame_34
nameStamp,Tstart,Tearly,Tearly,Tearly,Tearly,Tearly,Tearly,Tearly,Tearly,Tearly,Tearly,Tearly,Tearly,Tmid,Tmid,Tmid,Tmid,Tmid,Tmid,Tmid,Tmid,Tmid,Tmid,Tend,Tend,Tend,Tend,Tend,Tend,Tend,Tend,Tend,Tend,Tend,Tend
timestamp,0,60008,120028,180037,240055,300066,360086,420093,480104,540112,600113,660124,720147,780163,840178,900184,960192,1020204,1080217,1140234,1200241,1260252,1320263,1380275,1440288,1500296,1560306,1620319,1680332,1740352,1800362,1860378,1920392,1980398,2040403
participant_0_GOLD,500,500,522,757,1215,1349,1574,2445,2579,2854,3260,3480,3642,4435,4793,5469,6003,6204,6419,6580,6869,7085,7811,7951,8688,8968,10587,10966,11654,11845,12535,13021,13329,13824,14090
participant_0_CURRENTGOLD,500,0,22,257,715,99,324,1195,204,129,535,755,167,960,318,994,728,179,394,205,494,360,1086,122,433,363,1982,811,299,490,830,567,874,1370,1635
participant_0_LEVEL,1,1,1,2,3,3,4,5,5,5,6,6,6,7,8,9,9,9,9,9,10,10,11,11,12,12,13,13,14,14,15,15,16,16,16
participant_0_MINIONSKILLED,0,0,0,0,0,0,1,3,3,5,9,9,10,20,22,32,33,33,33,34,36,36,38,38,45,46,51,55,57,57,57,58,63,64,64
participant_0_KILLS,0,0,0,0,0,0,0,0,0,0,1,1,1,1,1,1,1,1,1,1,1,3,4,5,5,5,5,5,5,5,5,5,5,5,7
participant_0_BUY,[],"[1054, 2003, 3340]",[],[],"[1029, 2031]",[],[],"[3076, 1029]",[1001],[],[],"[6660, 6660]",[],"[3111, 3047]","[1029, 1028]",[],[],"[3105, 1029]",[],[3068],[],"[3076, 1011]",[3075],[],[],[],[],"[3082, 3024]",[],[],[3110],[],[3066],[],[]
participant_0_SOLD,[],[],[],[2003],[],[],[],[1029],[],[],[],[],[],"[1001, 1001, 1029]",[2031],[],[],"[3076, 1029]",[],"[6660, 3105]",[],"[1029, 1028]","[1029, 1011]",[],[],[],[],[],[],[],"[3082, 3024]",[],[],[],[]
participant_0_UNDO,[],[],[],[],[],[],[],[],[],[],[],"[[0, 6660]]",[],"[[0, 3111]]",[],[],[],[],[],[],[],"[[0, 3076]]",[],[],[],[],[],[],[],[],[],[],[],[],[]
participant_1_GOLD,500,500,620,948,1071,1640,1983,2295,2552,2810,3657,3965,4543,4865,5029,5393,5898,6105,7747,8261,8515,8645,9298,10125,10261,10719,11147,11911,12558,12731,12853,13300,13588,13822,14089
participant_1_CURRENTGOLD,500,0,120,448,571,1140,108,420,77,260,232,540,1118,1440,1604,1968,748,205,1847,11,265,95,748,1575,411,870,1297,2062,709,591,714,411,698,933,1200
participant_1_LEVEL,1,1,2,3,3,3,4,5,5,5,6,7,8,8,8,9,9,10,10,11,11,11,12,13,13,14,14,15,15,15,15,16,16,16,16
participant_1_MINIONSKILLED,0,0,0,0,0,0,0,0,0,0,0,0,1,1,1,1,1,1,2,3,6,6,9,11,12,24,24,24,25,25,25,25,26,28,28
participant_1_KILLS,0,0,0,0,0,1,1,1,1,1,3,3,4,4,4,4,5,5,7,8,8,8,8,9,9,9,9,10,11,11,11,11,11,11,11
participant_1_BUY,[],"[1035, 3340, 2031, 3364]",[],[],[],[],"[6670, 2055]",[],[1018],[2055],[1037],[],[],[],[],[],"[6672, 3047]","[1036, 1028]",[],[3053],[],[1029],[],[],[1038],[],[],[],"[3026, 1031]",[1036],[],[3133],[],[],[]
participant_1_SOLD,[],[3340],[],[],[],[],[],[],[2055],[],[],[],"[1035, 2055]",[],[],[],"[6670, 1018, 1037]",[],[],"[1028, 1036]",[],[],[],[],[],[],[],[],"[1038, 1029]",[2031],[],[1036],[],[],[]
participant_1_UNDO,[],[],[],[],[],[],[],[],[],[],[],[],[],[],[],[],[],[],[],[],[],[],[],[],[],[],[],[],[],[],[],[],[],[],[]
participant_2_GOLD,500,500,604,1104,1448,1860,2396,2616,2912,3191,3418,3681,4369,4526,4974,5159,5460,5582,6021,6144,6329,6540,7032,7375,7497,7970,8241,8789,9379,9643,10004,10544,10865,11072,11194
participant_2_CURRENTGOLD,500,0,104,119,453,865,101,321,307,576,803,1066,1744,176,614,799,1100,1222,411,134,319,530,622,965,187,660,931,1479,769,1033,279,820,1140,1347,85
participant_2_LEVEL,1,1,1,2,4,5,6,6,7,7,7,8,9,9,9,10,10,10,11,11,11,11,12,13,13,13,14,14,14,15,15,16,16,17,17
participant_2_MINIONSKILLED,0,0,5,9,20,29,35,41,48,54,60,68,79,81,87,91,93,93,99,99,99,100,104,108,108,108,110,114,117,117,118,121,129,131,131
participant_2_KILLS,0,0,0,0,0,0,0,2,2,2,2,2,2,3,3,4,5,5,5,5,5,5,5,5,6,6,9,9,10,10,11,11,11,12,12
participant_2_BUY,[],"[3862, 3862, 2003, 2003]",[],[],[],"[1036, 1036, 2003]",[],[],"[3134, 1001, 1036, 2055, 3364]",[1036],[],[],"[3133, 1036]",[],[6691],[],[3047],[3133],[],[1036],[],[1036],[],"[3134, 1037, 1018]",[6676],[1036],[],"[3133, 1031]",[6333],[],[1036],[3134],[],[],[]
participant_2_SOLD,[],[],[],[2003],[2003],[],[],[2003],"[1036, 1036, 3340]","[2055, 3862]",[],[],"[1036, 1036]",[],"[3134, 3133]",[],[1001],[1036],[3863],[],[],[],[],"[3133, 1036, 1036]","[3134, 1037, 1018]",[],[],[1036],"[1031, 3133]",[],[],[1036],[],[],[]
participant_2_UNDO,[],"[[0, 3862]]",[],[],[],[],[],[],[],[],[],[],[],[],[],[],[],[],[],[],[],[],[],[],[],[],[],[],[],[],[],[],[],[],[]
participant_3_GOLD,500,500,562,818,1760,1910,2267,2599,2791,3064,3931,4239,4424,4882,5643,5929,6204,6570,6996,7377,8531,9263,10397,10742,11068,12020,12525,13401,13663,14409,16264,16848,17165,17517,17689
participant_3_CURRENTGOLD,500,0,62,318,1260,335,692,1024,541,14,881,314,499,957,1718,104,379,545,71,452,1606,714,997,522,528,1480,1985,1011,674,820,2675,3258,476,827,1000
participant_3_LEVEL,1,1,1,2,3,4,5,5,6,6,7,7,8,8,9,9,10,10,11,11,12,12,13,13,14,15,15,15,16,16,17,17,18,18,18
participant_3_MINIONSKILLED,0,0,2,10,18,20,30,37,41,50,56,62,65,75,85,86,91,101,110,121,123,127,128,137,149,161,168,172,172,181,186,188,196,201,201
participant_3_KILLS,0,0,0,0,2,2,2,2,2,2,3,3,3,3,4,4,4,4,4,4,6,7,8,8,8,9,9,10,10,11,15,15,15,15,15
participant_3_BUY,[],"[1055, 2003, 3340]",[],[],[],"[1042, 1036, 1036, 2055]",[],[],"[6670, 1001, 2055]","[3006, 3006]",[],[1037],[],[],[],"[6672, 1042, 1042, 2055, 3363]",[],[6677],"[1018, 1042]",[],[],"[3124, 1033, 2055]",[3140],[1043],[1036],[],[],[3153],[1018],[3086],[],[],"[3046, 3139]",[],[]
participant_3_SOLD,[],[],[],[],[2003],[],[],[2055],"[1036, 1042, 1036]","[2055, 1001, 1001]",[],[],[],[],[],"[6670, 1037, 3340]",[],"[1042, 1042]",[2055],[],[],"[6677, 1018, 1042]",[1033],[1055],[2055],[],[],"[1036, 1043]",[],[1018],[],[],"[3086, 3140]",[],[]
participant_3_UNDO,[],[],[],[],[],[],[],[],[],"[[0, 3006]]",[],[],[],[],[],[],[],[],[],[],[],[],[],[],[],[],[],[],[],[],[],[],[],[],[]
participant_4_GOLD,500,500,583,878,1106,1249,1683,2038,2245,2493,3397,3520,4013,4345,4523,4736,5116,5280,5599,5976,6286,7254,8195,8734,9034,9207,9527,10012,10457,10749,10871,11645,11767,11960,12683
participant_4_CURRENTGOLD,500,0,83,378,156,299,733,288,195,443,1347,470,963,795,333,546,926,150,469,146,456,924,365,904,1204,1377,1697,282,727,1019,342,1115,438,631,1353
participant_4_LEVEL,1,1,1,3,3,4,6,6,6,7,8,8,9,9,10,10,11,11,11,12,12,13,14,14,14,15,15,15,16,16,16,17,17,17,17
participant_4_MINIONSKILLED,0,0,3,11,17,18,34,35,40,47,60,60,70,73,76,81,88,90,101,101,101,102,105,107,109,109,113,113,122,124,124,134,134,135,135
participant_4_KILLS,0,0,0,1,1,1,2,2,2,2,2,2,2,2,2,2,2,2,2,2,2,2,2,2,2,3,3,3,4,4,4,4,4,4,4
participant_4_BUY,[],"[1056, 2003, 2003, 3340]",[],"[1052, 2003]",[],[],"[3802, 1052]",[],[1001],[],[],[],[],"[1026, 3020, 2055]",[],[],[],[],[6655],[1028],[],[],[3067],[],"[3108, 1052]",[],[],[],"[4629, 1052]",[],"[2420, 3191]",[],[],[],"[3157, 1052]"
participant_4_SOLD,[],[],[],"[2003, 2003]",[],[2003],[1052],[],[],[],[],[],[],[1001],[2055],[],[],[],"[3802, 1026]",[],[],[],[1028],[],[1052],[],[],[],"[3108, 3067, 1052]",[],[1052],[],[],[],"[3191, 2420]"
participant_4_UNDO,[],[],[],[],[],[],[],[],[],[],[],[],[],[],[],[],[],[],[],[],[],[],[],[],[],[],[],[],[],[],[],[],[],[],[]
participant_5_GOLD,500,500,562,825,1430,1811,1976,2444,3040,3408,3616,4323,4525,5053,5339,5769,6891,8159,8282,8704,8927,9684,9891,10240,10955,11557,11915,12150,12425,12548,12808,12930,13275,13687,14209
participant_5_CURRENTGOLD,500,0,62,325,930,1311,376,844,340,408,166,873,342,870,306,736,308,1576,299,721,144,901,234,582,1297,125,482,148,423,145,405,528,873,1284,207
participant_5_LEVEL,1,1,1,2,4,5,5,6,7,8,8,9,9,9,10,10,11,12,12,12,12,13,13,13,14,14,15,15,15,15,16,16,16,16,17
participant_5_MINIONSKILLED,0,0,2,10,20,32,34,52,59,72,74,86,87,90,93,107,108,117,117,117,117,119,119,127,134,135,135,138,138,138,138,138,147,151,151
participant_5_KILLS,0,0,0,0,0,0,0,0,0,0,0,1,2,2,2,3,3,3,3,3,3,4,4,4,4,4,4,4,4,5,5,5,5,6,7
participant_5_BUY,[],"[1055, 2003, 3340]",[],[],[1001],"[1042, 2003]",[],"[1036, 2003]",[],[],"[6670, 1042, 2055, 2031]",[],[],[],[6673],[],"[3006, 1042]",[],[],[3086],[],[],[1037],[],[],"[3085, 2055]",[],[],[],[3123],[],[3086],[],[],"[3033, 1031]"
participant_5_SOLD,[],[],[],[2003],[],[],[2003],[],[],[2003],"[1036, 1042]",[2055],[],[],[6670],[],"[1001, 1042]",[],[],[1042],[],[],[],[],[],"[1037, 3086]",[],[2055],[],[],[],[2031],[],[],"[3123, 3086]"
participant_5_UNDO,[],[],[],[],[],[],[],[],[],[],[],[],[],[],[],[],[],[],[],[],[],[],[],[],[],[],[],[],[],[],[],[],[],[],[]
participant_6_GOLD,500,500,725,1018,1546,1745,2350,2577,2824,3951,4210,4522,5055,5896,6368,6815,7427,7753,7945,8218,8340,9090,9263,9805,9928,10575,11028,11229,11533,12125,12425,12647,12960,13096,13268
participant_6_CURRENTGOLD,500,0,225,518,1046,245,850,37,284,1411,137,449,982,1823,2285,2732,644,970,287,235,357,1108,180,722,845,1492,1946,146,450,1043,543,315,628,764,136
participant_6_LEVEL,1,1,2,3,4,4,5,5,6,6,6,7,7,9,9,10,11,11,11,11,11,12,12,12,12,13,14,14,14,15,15,15,15,15,15
participant_6_MINIONSKILLED,0,0,0,0,0,0,0,0,0,1,2,2,6,11,17,22,25,26,30,30,30,31,31,31,31,31,31,33,37,37,37,37,37,38,38
participant_6_KILLS,0,0,0,0,0,0,0,0,0,0,1,1,1,1,1,1,1,1,1,2,3,3,3,4,4,4,4,4,5,5,6,6,6,6,6
participant_6_BUY,[],"[3850, 3340, 2003, 2003]",[],[],"[1001, 2055, 2055]",[],[],[],[3191],[],[3108],"[3364, 2055]",[],[],"[3157, 3009]",[1027],[],[1026],[2055],[],[],[],"[6655, 1028]",[],[],"[3067, 3114]",[],"[3107, 2055]",[],[],[],[3165],[],[],[]
participant_6_SOLD,[],[],[],[],[2010],[2055],[2010],"[2003, 2010]",[2055],[],"[2419, 3850]","[3340, 2003, 2423, 2055]",[],[],"[3191, 3108, 2424, 1001]",[],[],[],[],[3851],[],[],"[1027, 1026]",[],[],"[1028, 2055]",[],"[3067, 3114]",[],[],[],[2055],[],[],[]
participant_6_UNDO,[],[],[],[],[],[],[],[],[],[],[],[],[],[],[],[],[],[],[],[],[],[],[],[],[],[],[],[],[],[],[],[],[],[],[]
participant_7_GOLD,500,500,597,1245,1466,1693,2078,2441,3113,3724,4441,4973,5477,5727,5849,6376,6765,6962,7696,8537,8983,9206,9628,9973,10333,10485,10955,11748,12340,12462,12997,13293,13430,14481,15375
participant_7_CURRENTGOLD,500,0,97,145,366,583,243,596,1258,494,1211,1733,2237,2487,434,361,750,132,866,1707,2153,151,333,678,538,690,1161,713,605,128,662,959,1096,2147,3041
participant_7_LEVEL,1,1,1,2,3,4,5,6,7,8,9,9,10,10,10,11,11,11,12,12,13,13,13,13,13,13,14,14,14,14,14,15,15,15,16
participant_7_MINIONSKILLED,0,0,4,10,16,19,26,37,47,57,65,76,79,83,83,88,91,91,102,115,120,120,120,129,139,139,151,151,151,151,154,160,161,164,174
participant_7_KILLS,0,0,0,0,0,0,1,1,1,3,3,3,3,4,4,4,5,5,5,5,5,6,6,7,7,8,8,8,8,9,9,9,9,9,9
participant_7_BUY,[],"[1035, 2031, 3340]",[],[],[],"[3057, 1001, 3364]",[],[3051],[],[],[3078],[],[],[],[],[],"[3009, 3047, 1031, 3133]",[],[1037],[6333],[],[],[3044],[],[],[],[],[3053],[],[],[1031],[3211],[],[],[3067]
participant_7_SOLD,[],[],[],[],[],[3340],[],[2031],[1035],[],"[3057, 3051]",[],[],"[3364, 3513]",[],[],"[1001, 1001]",[],[],"[1031, 3133, 1037]",[],[],[],[],[],[],[],[3044],[],[],[],[],[],[],[]
participant_7_UNDO,[],[],[],[],[],[],[],[],[],[],[],[],[],[],[],[],"[[0, 3009]]",[],[],[],[],[],[],[],[],[],[],[],[],[],[],"[[0, 1031]]",[],[],[]
participant_8_GOLD,500,500,520,762,941,1231,1452,1616,1982,2381,2759,3382,4279,4654,4927,5442,5736,6011,6534,6777,7225,7893,8065,8392,8801,8937,9199,9371,9625,10336,10721,10844,11186,11704,12577
participant_8_CURRENTGOLD,500,0,20,262,141,81,302,66,432,831,34,657,1554,1929,102,617,111,386,909,252,700,1368,665,992,1401,137,399,601,855,766,1152,134,477,995,367
participant_8_LEVEL,1,1,1,2,3,3,4,4,5,6,6,7,7,8,8,9,10,10,11,11,12,12,12,12,13,13,13,13,14,14,15,15,15,15,16
participant_8_MINIONSKILLED,0,0,0,7,11,19,24,27,38,45,51,59,67,73,78,87,88,93,99,100,101,105,105,106,119,120,124,124,124,127,135,135,135,136,136
participant_8_KILLS,0,0,0,0,1,1,1,1,2,2,2,2,2,3,3,3,6,9,9,9,9,10,10,10,11,12,12,12,12,12,12,12,12,12,13
participant_8_BUY,[],"[1055, 2003, 3340]",[],[],[],[],[3051],[],"[3057, 1028]",[1029],"[3067, 2003]",[],[3078],[],"[3047, 1036]",[],"[3077, 1036]",[],[3074],[],[1031],[],[1037],[],[],"[6333, 1036]",[],[3044],[],[1028],[],[],[],[],[3053]
participant_8_SOLD,[],[],[],[2010],[],[],[],"[2010, 2010]",[2003],[],[1028],[],"[2003, 3057, 3051, 3067]",[],"[1029, 2422]",[],[],[],"[3077, 1036, 1036]",[],[3340],[3513],[],[],[],"[1031, 1037]",[],"[1055, 1036]",[],[],[],[],[],[],"[3044, 1028]"
participant_8_UNDO,[],[],[],[],[],[],[],[],[],[],[],[],[],[],[],[],[],[],[],[],[],[],[],[],[],[],[],[],[],[],[],[],[],[],[]
participant_9_GOLD,500,500,522,771,1021,1155,1330,1599,1869,2214,2870,3264,3855,4065,4225,4420,4744,5234,5615,6537,7146,7826,8017,8636,8957,9173,9390,9793,10684,11313,12516,12657,12807,12990,13355
participant_9_CURRENTGOLD,500,0,22,271,71,205,380,649,19,364,120,459,1050,1260,370,215,539,179,485,1408,2016,2696,287,906,1228,273,490,119,1009,1638,2842,512,662,845,1210
participant_9_LEVEL,1,1,1,2,3,3,4,5,5,6,6,7,7,7,7,8,8,9,10,10,11,12,12,13,13,13,13,14,14,15,15,15,15,16,16
participant_9_MINIONSKILLED,0,0,0,1,4,4,4,6,9,9,10,12,13,13,13,16,19,21,23,25,28,34,34,36,42,42,46,50,50,58,67,67,68,71,71
participant_9_KILLS,0,0,0,1,1,1,1,1,2,2,3,3,3,3,3,4,4,4,5,6,7,7,8,8,8,8,8,9,10,10,11,11,11,12,13
participant_9_BUY,[],"[1055, 2003, 3340]",[],"[1001, 1042]",[],[],"[3006, 2031, 2055]",[],[],"[6670, 2055]",[],[],[],[],"[6672, 2055]",[1018],[],[1037],[],[],[],"[3031, 2055, 2031, 2055]",[1029],[],[1031],[],[],[1038],[3026],[1018],[],[],[],[],[]
participant_9_SOLD,[],[],[],[2003],[],[],"[1001, 1042]",[2055],[],[],[],[2055],[],[],[6670],[],[],[2031],[2055],[],[],"[1037, 1018]",[2031],[],[1029],[],[],"[2055, 2055]","[1038, 1031]",[],[],[],[],[],[]
participant_9_UNDO,[],[],[],[],[],[],[],[],[],[],[],[],[],[],[],[],[],[],[],[],[],[],[],[],[],[],[],[],[],[],[],[],[],[],[]
team0_KILLS,0,0,0,1,3,4,5,7,7,7,11,11,12,13,14,15,17,17,19,20,22,25,27,29,30,32,35,37,40,41,46,46,46,47,49
team0_CURRENTGOLD,2500,0,391,1520,3155,2738,1958,3248,1324,1422,3798,3145,4491,4328,4587,4411,3881,2301,3192,948,3140,2623,3818,4088,2763,4750,7892,5645,3178,3953,4840,6171,3626,5108,5273
team0_TOTALGOLD,2500,2500,2891,4505,6600,8008,9903,11993,13079,14412,17663,18885,20991,23053,24962,26686,28681,29741,32782,34338,36530,38787,42733,44927,46548,48884,52027,55079,57711,59377,62527,65358,66714,68195,69745
team0_LEVEL,5,5,6,12,16,19,25,27,29,30,34,36,40,41,44,47,49,50,52,54,56,57,62,64,66,69,71,72,75,76,78,81,83,84,84
team0_SBIRES,0,0,10,30,55,67,100,116,132,156,185,199,225,250,271,291,306,318,345,358,365,371,384,401,423,448,466,478,493,504,510,526,548,559,559
team1_KILLS,0,0,0,1,2,2,3,3,5,7,9,10,11,13,13,15,19,22,23,25,27,30,31,33,34,36,36,37,39,41,43,43,43,45,48
team1_CURRENTGOLD,2500,0,426,1521,2554,2425,2151,2192,2333,3508,1668,4171,6165,8369,3497,4661,2352,3243,2846,4323,5370,6224,1699,3880,5309,2717,4478,1727,3342,3720,5604,2448,3736,6035,4961
team1_TOTALGOLD,2500,2500,2926,4621,6404,7635,9186,10677,12828,15678,17896,20464,23191,25395,26708,28822,31563,34119,36072,38773,40621,43699,44864,47046,48974,50727,52487,54291,56607,58784,61467,62371,63658,65958,68784
team1_LEVEL,5,5,6,11,17,19,23,26,30,34,35,39,40,43,44,48,51,53,56,56,59,62,62,63,65,66,69,70,71,73,75,76,76,77,80
team1_SBIRES,0,0,6,28,51,74,88,122,153,184,202,235,252,270,284,320,331,348,371,387,396,409,409,429,465,467,487,496,500,511,531,537,548,560,570
delta_KILLS,0,0,0,0,1,2,2,4,2,0,2,1,1,0,1,0,-2,-5,-4,-5,-5,-5,-4,-4,-4,-4,-1,0,1,0,3,3,3,2,1
delta_CURRENTGOLD,0,0,-35,-1,601,313,-193,1056,-1009,-2086,2130,-1026,-1674,-4041,1090,-250,1529,-942,346,-3375,-2230,-3601,2119,208,-2546,2033,3414,3918,-164,233,-764,3723,-110,-927,312
delta_TOTALGOLD,0,0,-35,-116,196,373,717,1316,251,-1266,-233,-1579,-2200,-2342,-1746,-2136,-2882,-4378,-3290,-4435,-4091,-4912,-2131,-2119,-2426,-1843,-460,788,1104,593,1060,2987,3056,2237,961
delta_LEVEL,0,0,0,1,-1,0,2,1,-1,-4,-1,-3,0,-2,0,-1,-2,-3,-4,-2,-3,-5,0,1,1,3,2,2,4,3,3,5,7,7,4
delta_SBIRES,0,0,4,2,4,-7,12,-6,-21,-28,-17,-36,-27,-20,-13,-29,-25,-30,-26,-29,-31,-38,-25,-28,-42,-19,-21,-18,-7,-7,-21,-11,0,-1,-11
