name,frame_0,frame_1,frame_2,frame_3,frame_4,frame_5,frame_6,frame_7,frame_8,frame_9,frame_10,frame_11,frame_12,frame_13,frame_14,frame_15,frame_16,frame_17,frame_18,frame_19,frame_20,frame_21,frame_22,frame_23
nameStamp,Tstart,Tearly,Tearly,Tearly,Tearly,Tearly,Tearly,Tearly,Tearly,Tearly,Tearly,Tearly,Tearly,Tearly,Tearly,Tmid,Tmid,Tmid,Tmid,Tmid,Tmid,Tmid,Tmid,Tmid
timestamp,0,60019,120024,180045,240070,300082,360093,420108,480128,540157,600184,660202,720222,780227,840243,900270,960287,1020287,1080308,1140332,1200359,1260386,1320409,1380409
participant_0_GOLD,500,500,562,727,871,1607,1828,1985,2184,2396,2560,2725,2847,3133,3451,3587,4633,4930,6316,6438,6672,6870,6992,7770
participant_0_CURRENTGOLD,500,0,62,227,371,807,1028,85,284,496,310,475,247,533,451,587,633,930,2316,288,522,720,842,1620
participant_0_LEVEL,1,1,1,3,4,4,5,5,6,6,7,7,7,8,8,8,8,9,10,10,10,10,10,11
participant_0_MINIONSKILLED,0,0,2,5,6,7,13,15,20,21,24,26,26,27,29,30,33,36,39,39,46,46,46,46
participant_0_KILLS,0,0,0,0,0,2,2,2,2,2,2,2,2,2,2,2,2,2,4,4,4,4,4,5
participant_0_BUY,[],"[1054, 2003, 3340]",[],[],[],[1001],[],[3134],[],[],[1036],[],[1036],[],[3133],[],[6691],[],[],"[3117, 3134, 1036]",[],[],[],[]
participant_0_SOLD,[],[],[],[],[],[],[],[],[],[],[],[],[],[],"[1036, 1036]",[],"[3400, 2003, 3134, 3133]",[],[3400],[1001],[],[],[],[3400]
participant_0_UNDO,[],[],[],[],[],[],[],[],[],[],[],[],[],[],[],[],[],[],[],[],[],[],[],[]
participant_1_GOLD,500,500,520,643,787,944,1067,1189,1311,1659,1781,1904,2026,2169,2442,2864,3037,3355,4377,4500,4622,5345,5467,6184
participant_1_CURRENTGOLD,500,0,20,143,287,444,567,39,161,509,631,754,876,1019,57,79,252,570,242,365,487,395,517,1234
participant_1_LEVEL,1,1,1,2,3,4,4,4,5,5,6,6,7,7,8,8,8,9,9,9,10,10,10,11
participant_1_MINIONSKILLED,0,0,0,0,1,3,3,3,3,3,3,3,3,4,4,4,4,5,5,5,5,5,5,6
participant_1_KILLS,0,0,0,0,0,0,0,0,0,0,0,0,0,0,0,1,1,1,2,2,2,3,3,4
participant_1_BUY,[],"[1056, 2003, 2003, 3340]",[],[],[],[],[],"[1001, 1004, 2003, 2003]",[],[],[],[],[],[],"[3020, 1052]",[1028],[],[],"[1026, 1011]",[],[],[4637],[],[]
participant_1_SOLD,[],[],[],[],[],"[2003, 2003]",[],[],[2003],[2003],[],[],[],[],[1001],[],[],[],"[3400, 1028]",[],[],"[1026, 1011, 1052]",[],[3400]
participant_1_UNDO,[],[],[],[],[],[],[],[],[],[],[],[],[],[],[],[],[],[],[],[],[],[],[],[]
participant_2_GOLD,500,500,562,885,1078,1312,1554,1676,1965,2888,3180,3588,4005,4253,5014,5192,5557,6112,6637,7039,7182,7491,7655,7758
participant_2_CURRENTGOLD,500,0,62,385,128,362,604,76,365,338,330,738,1155,1403,64,242,607,1162,87,189,332,641,805,908
participant_2_LEVEL,1,1,1,2,3,3,4,4,4,5,5,6,6,7,7,8,8,9,9,10,10,10,10,10
participant_2_MINIONSKILLED,0,0,2,11,15,21,28,28,35,36,43,56,70,77,83,86,93,104,107,119,120,125,127,127
participant_2_KILLS,0,0,0,0,0,0,0,0,0,2,2,2,2,2,3,3,3,3,3,3,3,3,3,3
participant_2_BUY,[],"[1055, 2003, 3340]",[],[],"[1055, 1042, 2003, 2003, 2003]",[],[],"[1036, 1036, 1001]",[],"[6670, 1042]",[1042],[],[],[],[6672],[],[],[],"[3006, 6677, 1018]",[1042],[],[],[],[]
participant_2_SOLD,[],[],[],[],[],[],[],[],"[2003, 2003, 2003]","[1036, 1042]",[],[],[],[],[6670],[2003],[],[],"[1001, 1042, 1042]",[],[],[],[],[1055]
participant_2_UNDO,[],[],[],[],"[[0, 1055]]",[],[],"[[0, 1036]]",[],[],[],[],[],[],[],[],[],[],[],[],[],[],[],[]
participant_3_GOLD,500,500,620,933,1352,1798,2111,2416,2673,3120,3545,4296,4695,5398,5772,6185,6816,7414,7856,8104,8412,9106,9229,9528
participant_3_CURRENTGOLD,500,0,120,433,852,198,511,816,1073,320,745,1486,1885,2588,52,465,1096,244,686,934,1242,1936,209,528
participant_3_LEVEL,1,1,2,3,4,4,5,6,6,6,7,9,9,10,10,11,12,12,12,13,13,14,14,14
participant_3_MINIONSKILLED,0,0,0,0,0,0,0,1,1,1,4,8,9,9,21,21,25,31,31,31,31,32,32,37
participant_3_KILLS,0,0,0,0,0,0,0,0,0,1,1,2,2,3,3,3,3,4,4,4,4,5,5,5
participant_3_BUY,[],"[1035, 2031, 3340]",[],[],[],[3044],[],[],[],[6029],[],[],[],[],"[6630, 3111, 3067]",[],[],"[3133, 1036]",[],[],[],[],"[3071, 1036, 1033]",[]
participant_3_SOLD,[],[],[],[],[],[],[],[],[1035],[],[],[],[],[],"[6029, 3044]",[],[],[],[],[],[],[],"[3133, 3067, 1036]",[]
participant_3_UNDO,[],[],[],[],[],[],[],[],[],[],[],[],[],[],[],[],[],[],[],[],[],[],[],[]
participant_4_GOLD,500,500,541,755,1043,1207,1850,2174,2373,2778,3235,3649,3933,4104,4462,4584,5538,5821,6021,6422,6635,6786,7041,7165
participant_4_CURRENTGOLD,500,0,41,255,193,357,1000,339,538,943,1400,99,383,554,912,134,1088,371,571,972,1185,686,941,865
participant_4_LEVEL,1,1,1,2,4,4,6,6,7,7,8,8,9,9,9,9,10,10,10,11,11,11,12,12
participant_4_MINIONSKILLED,0,0,1,6,14,16,26,28,32,45,55,59,65,68,78,78,83,85,90,102,108,110,118,119
participant_4_KILLS,0,0,0,0,0,0,1,1,1,1,1,1,1,1,1,1,2,2,2,2,2,2,2,2
participant_4_BUY,[],"[3340, 2033]",[],[],[1036],[],[],"[1053, 1052]",[],[],[],"[3145, 3006]",[],[],[],[3108],[],[1043],[],[],[],[1026],[],[]
participant_4_SOLD,[],[],[],[2010],[],[],[2010],"[2010, 1036]",[],[],[],[1052],[],[],[],[],[],[],[],[],[],[2033],[],[]
participant_4_UNDO,[],[],[],[],[],[],[],[],[],[],[],[],[],[],[],[],[],[],[],[],[],[],[],[]
participant_5_GOLD,500,500,542,677,1292,1446,1676,1850,2055,2890,3068,3301,3481,3741,4252,4633,4926,5127,5417,5917,6058,6512,6728,7471
participant_5_CURRENTGOLD,500,0,42,177,792,136,366,540,745,640,818,1051,1231,1491,352,733,1026,1227,267,768,908,1362,263,986
participant_5_LEVEL,1,1,1,2,3,3,4,4,4,5,5,6,6,7,7,8,8,8,9,9,10,10,10,11
participant_5_MINIONSKILLED,0,0,0,0,0,0,2,2,3,3,5,6,6,6,6,6,6,6,6,7,7,8,8,8
participant_5_KILLS,0,0,0,0,1,1,1,1,1,3,3,3,3,3,4,4,4,4,4,4,4,5,5,6
participant_5_BUY,[],"[3850, 2003, 2003, 3340]",[],[],[],"[1052, 1001, 2055]",[],[],[],"[3802, 2055]",[],[],[],[],"[1026, 3020, 3364]",[],[],[],[6656],[],[],[],"[3191, 1052]",[]
participant_5_SOLD,[],[],[],[],[],[],[],[],[2055],"[2419, 1052]",[2055],[3850],[],[],"[1001, 3340]",[],[],[2003],"[3851, 3802, 1026]",[],[],[],"[2423, 2003]",[]
participant_5_UNDO,[],[],[],[],[],[],[],[],[],[],[],[],[],[],[],[],[],[],[],[],[],[],[],[]
participant_6_GOLD,500,500,569,790,1025,1622,1773,2505,2801,2994,3221,3386,4060,4453,4727,5248,5765,6828,7369,8140,8404,8742,9817,10515
participant_6_CURRENTGOLD,500,0,69,290,525,1112,178,910,331,524,751,66,730,1123,62,583,300,1363,1904,2675,439,777,1852,2590
participant_6_LEVEL,1,1,1,3,4,5,6,6,7,7,8,8,9,9,9,10,10,11,11,12,12,13,13,14
participant_6_MINIONSKILLED,0,0,3,8,14,21,23,23,30,35,41,43,53,61,63,66,79,87,94,98,101,108,116,120
participant_6_KILLS,0,0,0,0,0,1,1,2,2,2,2,2,2,2,2,3,3,4,5,6,6,6,9,10
participant_6_BUY,[],"[2033, 3340]",[],[],[],[],"[1027, 1052, 1001]",[],"[3802, 1082]",[],[],[1026],[],[],"[6655, 2055]",[],[3020],[],[],[],"[3041, 1058]",[],[],[]
participant_6_SOLD,[],[],[],[],[2010],[2010],[],[2010],"[1052, 1027]",[],[],[],[],[],"[3802, 1026]",[2055],[1001],[],[],[],[1082],[],[],[]
participant_6_UNDO,[],[],[],[],[],[],[],[],[],[],[],[],[],[],[],[],[],[],[],[],[],[],[],[]
participant_7_GOLD,500,500,620,948,1233,1631,1754,1897,2394,2667,2979,3421,3863,4408,4928,5137,5677,5949,6466,7574,7710,7908,8230,8842
participant_7_CURRENTGOLD,500,0,120,448,733,1131,154,297,794,367,679,1121,1563,2108,55,264,454,26,143,1251,1387,785,1107,159
participant_7_LEVEL,1,1,2,3,3,4,4,4,5,5,5,6,7,7,7,8,9,9,9,10,10,10,11,12
participant_7_MINIONSKILLED,0,0,0,0,0,1,1,2,3,3,3,6,6,8,10,11,13,13,13,13,14,14,20,21
participant_7_KILLS,0,0,0,0,0,0,0,0,0,0,0,0,1,2,2,2,3,3,4,6,6,6,6,7
participant_7_BUY,[],"[1035, 2031, 3340]",[],[],[],[],[3051],[],[],[3057],[],[],[],[],"[3078, 1001, 3047]",[],[1036],"[1036, 1036]",[3133],[],[],[3067],[],"[3071, 1033]"
participant_7_SOLD,[],[],[],[],[],[],[],[],[1035],[],[],[],[],"[3340, 3513]","[3057, 3051, 2031, 1001]",[],[],[],"[1036, 1036]",[],[3340],[],[3513],"[3133, 3067, 1036]"
participant_7_UNDO,[],[],[],[],[],[],[],[],[],[],[],[],[],[],[],[],[],[],[],[],[],[],[],[]
participant_8_GOLD,500,500,520,706,899,1133,1333,1866,2169,2348,2519,3018,3310,3558,3752,4281,4481,4749,5161,5632,6100,6285,6592,6960
participant_8_CURRENTGOLD,500,0,20,206,399,633,83,616,269,448,219,718,1010,1258,152,681,481,749,1161,832,500,285,592,960
participant_8_LEVEL,1,1,1,3,4,5,5,7,7,8,8,9,9,9,10,11,11,11,12,12,13,13,13,14
participant_8_MINIONSKILLED,0,0,0,4,8,14,19,25,26,30,33,36,36,43,44,51,53,57,64,67,74,78,79,79
participant_8_KILLS,0,0,0,0,0,0,0,1,1,1,1,2,2,2,2,3,3,3,3,3,3,3,3,3
participant_8_BUY,[],"[1055, 1054, 2003, 3340]",[],[],[],[],"[1028, 1036]",[],"[3044, 1001]",[],[1028],[],[],[],"[1057, 3066]",[],"[1028, 3067]",[],[],"[4401, 3047]",[3111],[1028],[],[]
participant_8_SOLD,[],[],[],[2003],[],[],[],[],"[1028, 1036]",[],[],[],[],[],[1028],[],[1028],[],[],"[1057, 1028, 3066, 1001]",[1001],[],[],[]
participant_8_UNDO,[],"[[0, 1055]]",[],[],[],[],[],[],[],[],[],[],[],[],[],[],"[[0, 3067]]",[],[],"[[0, 3047]]",[],[],[],[]
participant_9_GOLD,500,500,555,913,1383,1519,1656,1778,1963,2347,2581,2877,3252,3514,3837,4787,5149,5476,6015,6813,7338,7502,8035,8725
participant_9_CURRENTGOLD,500,0,55,413,883,69,206,328,163,247,481,777,1152,1414,262,1212,1574,476,315,1113,1638,102,635,1325
participant_9_LEVEL,1,1,1,2,3,3,4,4,4,5,5,6,6,7,7,8,8,8,9,10,10,11,11,12
participant_9_MINIONSKILLED,0,0,2,13,21,22,23,23,26,30,37,44,55,63,63,75,76,82,84,97,99,101,117,127
participant_9_KILLS,0,0,0,0,0,0,0,0,0,0,0,0,0,0,0,1,1,1,2,3,4,4,4,5
participant_9_BUY,[],"[1055, 2003, 3340]",[],[],[],"[1036, 1042, 1001]",[],[],[1036],[6670],[],[],[],[],"[1018, 1037]",[],[],"[6672, 3006]","[3057, 1036, 1036]",[],[],"[3057, 3133, 1018]",[],[]
participant_9_SOLD,[],[],[],[],[],[],[],[],[2003],"[1036, 1042, 1036]",[],[],[],[],[],[],[],"[6670, 1018, 1037, 1001]",[],[],[],"[1036, 1036]",[],[]
participant_9_UNDO,[],[],[],[],[],[],[],[],[],[],[],[],[],[],[],[],[],[],"[[0, 3057]]",[],[],[],[],[]
team0_KILLS,0,0,0,0,0,2,3,3,3,6,6,7,7,8,9,10,11,12,15,15,15,17,17,19
team0_CURRENTGOLD,2500,0,305,1443,1831,2168,3710,1355,2421,2606,3416,3552,4546,6097,1536,1507,3676,3277,3902,2748,3768,4378,3314,5155
team0_TOTALGOLD,2500,2500,2805,3943,5131,6868,8410,9440,10506,12841,14301,16162,17506,19057,21141,22412,25581,27632,31207,32503,33523,35598,36384,38405
team0_LEVEL,5,5,6,12,18,19,24,25,28,29,33,36,38,41,42,44,46,49,50,53,54,55,56,58
team0_SBIRES,0,0,5,22,36,47,70,75,91,106,129,152,173,185,215,219,238,261,272,296,310,318,328,335
team1_KILLS,0,0,0,0,1,2,2,4,4,6,6,7,8,9,10,13,14,15,18,22,23,24,27,31
team1_CURRENTGOLD,2500,0,306,1534,3332,3081,987,2691,2302,2226,2948,3733,5686,7394,883,3473,3835,3841,3790,6639,4872,3311,4449,6020
team1_TOTALGOLD,2500,2500,2806,4034,5832,7351,8192,9896,11382,13246,14368,16003,17966,19674,21496,24086,25998,28129,30428,34076,35610,36949,39402,42513
team1_LEVEL,5,5,6,13,17,20,23,25,27,30,31,35,37,39,40,45,46,47,50,53,55,57,58,63
team1_SBIRES,0,0,5,25,43,58,68,75,88,101,119,135,156,181,186,209,227,245,261,282,295,309,340,355
delta_KILLS,0,0,0,0,-1,0,1,-1,-1,0,0,0,-1,-1,-1,-3,-3,-3,-3,-7,-8,-7,-10,-12
delta_CURRENTGOLD,0,0,-1,-91,-1501,-913,2723,-1336,119,380,468,-181,-1140,-1297,653,-1966,-159,-564,112,-3891,-1104,1067,-1135,-865
delta_TOTALGOLD,0,0,-1,-91,-701,-483,218,-456,-876,-405,-67,159,-460,-617,-355,-1674,-417,-497,779,-1573,-2087,-1351,-3018,-4108
delta_LEVEL,0,0,0,-1,1,-1,1,0,1,-1,2,1,1,2,2,-1,0,2,0,0,-1,-2,-2,-5
delta_SBIRES,0,0,0,-3,-7,-11,2,0,3,5,10,17,17,4,29,10,11,16,11,14,15,9,-12,-20
