name,frame_0,frame_1,frame_2,frame_3,frame_4,frame_5,frame_6,frame_7,frame_8,frame_9,frame_10,frame_11,frame_12,frame_13,frame_14,frame_15,frame_16,frame_17,frame_18,frame_19,frame_20,frame_21,frame_22,frame_23
nameStamp,Tstart,Tearly,Tearly,Tearly,Tearly,Tearly,Tearly,Tearly,Tearly,Tearly,Tearly,Tearly,Tearly,Tmid,Tmid,Tmid,Tmid,Tmid,Tmid,Tmid,Tmid,Tmid,Tmid,Tmid
timestamp,0,60003,120024,180041,240064,300094,360120,420139,480155,540173,600183,660212,720227,780243,840253,900273,960285,1020301,1080324,1140353,1200376,1260399,1320417,1380417
participant_0_GOLD,500,500,541,769,948,1238,1424,1716,2381,2720,2905,3271,3435,3697,4281,4404,4708,4858,4981,5103,5623,5949,6071,6127
participant_0_CURRENTGOLD,500,0,41,269,98,388,574,366,1031,95,280,646,210,472,1056,379,683,833,266,388,908,1234,81,-73
participant_0_LEVEL,1,1,1,2,3,4,5,5,7,7,8,8,9,9,9,9,10,10,10,10,11,11,12,12
participant_0_MINIONSKILLED,0,0,1,7,10,17,20,20,30,33,37,48,50,59,65,65,72,74,74,74,78,79,79,79
participant_0_KILLS,0,0,0,0,0,0,0,0,1,1,1,1,1,1,2,2,2,2,2,2,3,3,3,3
participant_0_BUY,[],"[1055, 2003, 3340]",[],[],[1036],[],[],"[1036, 1006]",[],"[3077, 1001, 2033]",[],[],"[1042, 1042]",[],[],[3047],[],[],[1053],[],[],[],[3074],[]
participant_0_SOLD,[],[],[],[],[2003],[],[],[],[],"[1036, 1006, 1036]",[],[],[],[],[],[1001],[],[],[1042],[],[],[],"[3077, 1053]",[]
participant_0_UNDO,[],[],[],[],[],[],[],[],[],[],[],[],[],[],[],[],[],[],[],[],[],[],[],[]
participant_1_GOLD,500,500,620,1033,1291,1810,2472,3036,3272,3395,3702,3872,4522,4644,5070,5192,6304,6846,7164,7456,8172,9408,9715,9771
participant_1_CURRENTGOLD,500,0,120,533,141,660,1322,1886,2122,220,527,697,1347,369,795,167,1279,96,414,206,922,2158,665,721
participant_1_LEVEL,1,1,2,3,3,4,4,5,5,5,6,6,7,7,8,8,9,9,10,10,11,12,12,12
participant_1_MINIONSKILLED,0,0,0,0,0,0,0,1,2,2,2,2,3,3,5,5,11,11,18,18,18,24,30,30
participant_1_KILLS,0,0,0,0,0,1,2,3,3,3,3,3,4,4,4,4,5,6,6,6,7,8,8,8
participant_1_BUY,[],"[1041, 2031, 3340, 2031, 3340]",[],[],[3706],[],[],[],[],"[3077, 1001, 1028]",[],[],[],[1401],[],"[1036, 1028]",[],"[3748, 1042]",[],[3006],[],[],"[1011, 1031]",[]
participant_1_SOLD,[],[],[],[],[1041],[],[],[],[],[],[],[],[],"[1028, 3706]",[],[],[],"[3077, 1028, 1036]",[],"[1001, 1042]",[],[],[],[]
participant_1_UNDO,[],"[[3340, 0], [0, 2031]]",[],[],[],[],[],[],[],[],[],[],[],[],[],[],[],[],[],[],[],[],[],[]
participant_2_GOLD,500,500,597,878,1178,1520,1891,2013,2395,3001,3137,3706,4260,4542,4921,5081,5354,5518,5682,6175,6429,7102,7329,7385
participant_2_CURRENTGOLD,500,0,97,378,678,1020,1391,163,545,1151,87,656,1210,1492,1871,131,54,218,307,50,304,647,399,435
participant_2_LEVEL,1,1,1,3,4,5,6,6,6,7,7,8,9,9,10,10,10,10,10,11,11,12,12,12
participant_2_MINIONSKILLED,0,0,4,11,21,30,41,41,53,60,61,68,75,84,95,98,98,100,103,103,107,109,116,116
participant_2_KILLS,0,0,0,0,0,0,0,0,0,1,1,1,2,2,2,2,2,2,2,3,3,4,4,4
participant_2_BUY,[],"[1036, 2003, 3340, 2003, 2003]",[],[],[],[],[],"[3134, 1001, 2003, 2003, 2003, 2055, 2055]",[],[],"[3111, 1036, 2003]",[],[],[],[],"[3142, 1036, 2003, 2003]",[1036],[],[2055],"[3134, 1036]",[],[1036],"[3133, 2055]",[]
participant_2_SOLD,[],[],[],"[2003, 2003]",[2003],[],[],[1036],"[2003, 2055]",[],[1001],[],[],[2003],[2003],"[2055, 1036, 3134]",[],[2003],[],"[2003, 1036, 1036]",[],[2003],"[1036, 1036]",[]
participant_2_UNDO,[],[],[],[],[],[],[],[],[],[],[],[],[],[],[],[],[],[],[],[],[],[],[],[]
participant_3_GOLD,500,500,611,748,962,1280,1478,1792,1970,2240,2699,2927,3757,3959,4124,4804,5112,5339,5516,5758,6096,6352,6578,6648
participant_3_CURRENTGOLD,500,0,111,148,362,680,128,442,170,440,899,1127,157,359,524,1204,712,939,1116,483,821,1077,258,-32
participant_3_LEVEL,1,1,1,1,2,3,3,4,4,5,6,6,6,7,7,8,8,8,9,9,10,10,10,10
participant_3_MINIONSKILLED,0,0,5,6,11,20,20,28,31,39,46,52,52,52,54,63,71,77,79,86,94,101,103,104
participant_3_KILLS,0,0,0,0,0,0,0,0,0,0,0,0,0,0,0,0,0,0,0,0,0,0,0,0
participant_3_BUY,[],"[1056, 2003, 2003, 3340]",[],[],[],[],[1029],[],[],[],[],[],"[3082, 1001]",[],[],[3024],[],[],[],[],[],[3110],[],[]
participant_3_SOLD,[],[],[],"[2003, 2003]",[],[],[],[],[],[],[],[],[1029],[],[],[],[],[],[],[],[],"[3082, 3024]",[],[]
participant_3_UNDO,[],[],[],[],[],[],[],[],[],[],[],[],[],[],[],[],[],[],[],[],[],[],[],[]
participant_4_GOLD,500,500,520,643,766,888,1106,1228,1371,1508,1630,1783,2226,2426,2549,2841,2964,3086,3208,3331,3453,3576,3698,3775
participant_4_CURRENTGOLD,500,0,20,143,266,388,306,428,571,708,830,983,426,626,749,141,264,386,508,631,753,76,198,275
participant_4_LEVEL,1,1,1,1,2,3,3,4,5,5,6,6,6,7,7,8,9,9,9,9,9,9,9,9
participant_4_MINIONSKILLED,0,0,0,0,0,0,0,0,1,2,2,3,4,5,5,5,5,5,5,5,5,5,5,6
participant_4_KILLS,0,0,0,0,0,0,0,0,0,0,0,0,1,1,1,2,2,2,2,2,2,2,2,2
participant_4_BUY,[],"[1055, 2003, 3340]",[],"[2003, 2003]",[],[],"[1036, 1001, 2003, 2003]",[],"[1036, 2003, 2003]",[],[],[],"[1038, 3133, 2003, 2003]",[],[],[],[3006],[],[],[1037],[],[],"[1018, 3031]",[]
participant_4_SOLD,[],[],[],[2003],"[2003, 2003]",[],[],"[2003, 2003]",[],[],[2003],[2003],"[1036, 1036]",[],[2003],[2003],"[1001, 1055]",[],[],[],[],[],"[1055, 1038, 1037, 1018]",[]
participant_4_UNDO,[],[],[],[],[],[],[],[],[],[],[],[],[],[],[],[],"[[1055, 0]]",[],[],[],[],[],[],[]
participant_5_GOLD,500,500,562,783,1345,1467,1793,2486,2657,2934,3306,3499,4818,5260,5598,6535,7028,7565,8423,9685,10493,10881,11120,11691
participant_5_CURRENTGOLD,500,0,62,283,845,67,393,1086,182,459,831,1024,2343,1085,623,1560,453,990,1848,3110,3919,2706,225,616
participant_5_LEVEL,1,1,1,3,4,4,6,6,6,7,8,8,9,10,10,11,11,12,12,13,13,14,14,14
participant_5_MINIONSKILLED,0,0,2,8,15,15,25,30,33,42,49,53,65,65,71,81,81,81,90,92,104,105,105,105
participant_5_KILLS,0,0,0,0,0,0,0,0,0,0,0,0,0,0,0,0,0,0,0,0,0,0,0,0
participant_5_BUY,[],[1056],[],[],[],[],"[1026, 1052, 1001, 1027]",[],[],[3802],[],[3158],[],[],[],[1026],[],[],[],[],"[3151, 1026]",[],[],[]
participant_5_SOLD,[],[],[],[],[],[],[],[],[],"[1052, 1027]",[],[1001],[],[],[],[],[],[],[],[],[1026],[],[],[]
participant_5_UNDO,[],[],[],[],[],[],"[[0, 1026]]",[],[],[],[],[],[],[],[],[],[],[],[],[],[],[],[],[]
participant_6_GOLD,500,500,620,913,1213,1335,1648,1905,2127,2350,2570,2761,3033,3255,3557,4055,4408,4716,5224,5547,5869,6236,6493,6627
participant_6_CURRENTGOLD,500,500,120,413,713,185,498,55,277,500,720,336,608,155,457,955,208,516,1024,347,669,336,593,727
participant_6_LEVEL,1,1,2,2,3,3,4,5,5,5,6,6,6,7,7,8,8,9,10,10,10,11,11,11
participant_6_MINIONSKILLED,0,0,0,0,0,0,0,0,0,0,0,2,2,2,5,6,6,7,10,10,10,17,17,19
participant_6_KILLS,0,0,0,0,0,0,0,0,0,0,0,0,0,0,0,0,0,0,0,0,0,0,0,0
participant_6_BUY,[],[],"[1039, 2031]",[],[],[3706],[],"[1001, 1028]",[],[],[],"[3751, 2055]",[],"[1401, 2055]",[],[],"[3047, 1028, 1029]",[],[],"[3076, 1029]",[],[3082],[],[]
participant_6_SOLD,[],[],[],[],[],[1039],[],[],[],[],[],[1028],[],"[2055, 3340, 3751, 3706]",[3513],[],[1001],[],[],[1029],[3340],"[3513, 1029]",[],[]
participant_6_UNDO,[],[],[],[],[],[],[],[],[],[],[],[],[],[],[],[],"[[0, 1028]]",[],[],[],[],[],[],[]
participant_7_GOLD,500,500,576,853,1165,1385,1564,1958,2248,2476,2741,2864,3442,3690,3993,4415,5175,5638,5970,6331,6703,6926,7491,7827
participant_7_CURRENTGOLD,500,100,176,453,765,985,79,473,763,476,741,264,842,1090,1393,965,1725,2188,2520,2881,153,376,941,1277
participant_7_LEVEL,1,1,1,3,4,5,5,6,7,7,7,7,8,8,9,9,10,10,11,11,11,11,12,12
participant_7_MINIONSKILLED,0,0,3,12,23,28,31,38,47,53,56,56,67,74,78,78,89,101,106,113,113,113,118,127
participant_7_KILLS,0,0,0,0,1,1,1,1,1,1,1,1,2,3,3,5,6,7,8,11,11,11,11,12
participant_7_BUY,[],"[1054, 2003, 3340]",[],[],[],"[1036, 1053]",[],[],"[3144, 1042, 2055]",[],[],[],[],"[3153, 1001]",[3047],[],"[3052, 1028]",[],[],[],[],[3053],"[3076, 3082, 3075]",[]
participant_7_SOLD,[],[],[],[],[],[1036],[2003],[],[1053],[2055],[],[],[],"[3144, 1042]",[1001],[],[],[],[],[],[],"[3052, 1028]","[1054, 3076, 3082]",[]
participant_7_UNDO,[],[],[],[],[],[],[],[],[],[],[],[],[],[],[],[],[],[],[],[],[],[],[],[]
participant_8_GOLD,500,500,541,1217,1881,2303,2889,3346,3854,4502,4717,5083,5497,6403,6681,6803,7189,7361,7822,9034,9281,10012,10844,11685
participant_8_CURRENTGOLD,500,0,41,717,1381,453,264,721,1229,1877,367,733,347,1253,1531,353,739,11,472,1684,1931,762,1594,2010
participant_8_LEVEL,1,1,1,2,3,3,4,5,6,6,6,7,7,8,8,8,9,9,9,10,11,11,12,12
participant_8_MINIONSKILLED,0,0,1,8,19,19,24,34,44,50,55,66,68,81,87,87,96,96,99,111,111,118,127,127
participant_8_KILLS,0,0,0,0,0,0,0,0,1,1,1,1,2,2,2,2,2,3,3,3,3,3,5,5
participant_8_BUY,[],"[3850, 2003, 2003]",[],[],[],"[1052, 1029]",[],[],[],[],[3136],[],[1026],[],[],[],"[3151, 3020]",[],[],[],[],[3190],[],[]
participant_8_SOLD,[],[],[],"[2003, 2003]",[],[],[],[],[],[],[1052],[],[],[3850],[],[],"[3136, 1026, 2422]",[],[],[],[],[1029],[3851],[]
participant_8_UNDO,[],[],[],[],[],[],[],[],[],[],[],[],[],[],[],[],[],[],[],[],[],[],[],[]
participant_9_GOLD,500,500,522,871,1230,1365,1571,1764,2250,2489,2638,2817,3389,4020,4585,4844,5035,5585,5881,6200,6635,7099,8065,8479
participant_9_CURRENTGOLD,500,0,22,371,730,130,336,529,1015,1254,338,517,238,870,1435,1694,335,885,1181,1500,1935,499,1465,1879
participant_9_LEVEL,1,1,1,2,3,3,4,5,5,6,6,6,7,7,8,8,8,9,9,9,9,10,11,11
participant_9_MINIONSKILLED,0,0,0,0,0,0,3,4,5,5,6,6,9,10,11,18,18,18,24,30,30,32,32,32
participant_9_KILLS,0,0,0,1,2,3,4,4,4,5,5,5,5,6,6,6,6,6,6,7,7,8,9,11
participant_9_BUY,[],"[1055, 2003, 3340]",[],[],[],"[1038, 2003]","[1042, 1001, 2003, 2055, 2003]",[],[],[],"[3006, 1037, 1036]",[],[3031],[],[],[1038],[],"[1036, 1053]",[],[],[],"[3072, 1042, 1042]",[],[]
participant_9_SOLD,[],[],[],[2003],[],[2003],[],[2003],[],[2055],"[1001, 1042]",[],"[1055, 1036, 1038, 1037]",[2003],[],[],[],[1036],[],[],[],"[1038, 1053]",[],[]
participant_9_UNDO,[],[],[],[],[],[],[],[],[],[],[],[],[],[],[],[],[],[],[],[],[],[],[],[]
team0_KILLS,0,0,0,0,0,1,2,3,4,5,5,5,8,8,9,10,11,12,12,13,15,17,17,17
team0_CURRENTGOLD,2500,0,389,1471,1545,3136,3721,3285,4439,2614,2623,4109,3350,3318,4995,2022,2992,2472,2611,1758,3708,5192,1601,1326
team0_TOTALGOLD,2500,2500,2889,4071,5145,6736,8371,9785,11389,12864,14073,15559,18200,19268,20945,22322,24442,25647,26551,27823,29773,32387,33391,33706
team0_LEVEL,5,5,6,10,14,19,21,24,27,29,33,34,37,39,41,43,46,46,48,49,52,54,55,55
team0_SBIRES,0,0,10,24,42,67,81,90,117,136,148,173,184,203,224,236,257,267,279,286,302,318,333,335
team1_KILLS,0,0,0,1,3,4,5,5,6,7,7,7,9,11,11,13,14,16,17,21,21,22,25,28
team1_CURRENTGOLD,2500,600,421,2237,4434,1820,1570,2864,3466,4566,2997,2874,4378,4453,5439,5527,3460,4590,7045,9522,8607,4679,4818,6509
team1_TOTALGOLD,2500,2500,2821,4637,6834,7855,9465,11459,13136,14751,15972,17024,20179,22628,24414,26652,28835,30865,33320,36797,38981,41154,44013,46309
team1_LEVEL,5,5,6,12,17,18,23,27,29,31,33,34,37,40,42,44,46,49,51,53,54,57,60,60
team1_SBIRES,0,0,6,28,57,62,83,106,129,150,166,183,211,232,252,270,290,303,329,356,368,385,399,410
delta_KILLS,0,0,0,-1,-3,-3,-3,-2,-2,-2,-2,-2,-1,-3,-2,-3,-3,-4,-5,-8,-6,-5,-8,-11
delta_CURRENTGOLD,0,-600,-32,-766,-2889,1316,2151,421,973,-1952,-374,1235,-1028,-1135,-444,-3505,-468,-2118,-4434,-7764,-4899,513,-3217,-5183
delta_TOTALGOLD,0,0,68,-566,-1689,-1119,-1094,-1674,-1747,-1887,-1899,-1465,-1979,-3360,-3469,-4330,-4393,-5218,-6769,-8974,-9208,-8767,-10622,-12603
delta_LEVEL,0,0,0,-2,-3,1,-2,-3,-2,-2,0,0,0,-1,-1,-1,0,-3,-3,-4,-2,-3,-5,-5
delta_SBIRES,0,0,4,-4,-15,5,-2,-16,-12,-14,-18,-10,-27,-29,-28,-34,-33,-36,-50,-70,-66,-67,-66,-75
