name,frame_0,frame_1,frame_2,frame_3,frame_4,frame_5,frame_6,frame_7,frame_8,frame_9,frame_10,frame_11,frame_12,frame_13,frame_14,frame_15,frame_16,frame_17,frame_18,frame_19,frame_20,frame_21,frame_22,frame_23,frame_24,frame_25,frame_26,frame_27,frame_28,frame_29,frame_30,frame_31,frame_32,frame_33
nameStamp,Tstart,Tearly,Tearly,Tearly,Tearly,Tearly,Tearly,Tearly,Tearly,Tearly,Tearly,Tearly,Tearly,Tearly,Tmid,Tmid,Tmid,Tmid,Tmid,Tmid,Tmid,Tmid,Tmid,Tmid,Tmid,Tmid,Tmid,Tmid,Tend,Tend,Tend,Tend,Tend,Tend
timestamp,0,60027,120049,180067,240085,300103,360123,420151,480172,540201,600225,660253,720281,780308,840331,900359,960385,1020418,1080451,1140462,1200467,1260475,1320478,1380489,1440493,1500506,1560528,1620554,1680585,1740615,1800630,1860631,1920648,1980658
participant_0_GOLD,500,500,563,860,1095,1420,1564,1945,2457,2750,3019,3322,3932,4648,4978,5803,6416,6864,7062,7209,7380,7503,7779,7902,8114,8556,9619,10362,10676,10899,11536,11658,12618,13258
participant_0_CURRENTGOLD,500,0,63,360,595,920,104,485,997,440,244,547,1157,523,328,1153,1766,14,212,359,95,218,494,617,829,121,1109,282,597,819,641,14,973,1614
participant_0_LEVEL,1,1,1,3,4,5,5,6,7,7,8,8,9,10,10,11,11,12,12,12,12,12,12,12,13,13,13,14,14,14,15,15,15,16
participant_0_MINIONSKILLED,0,0,2,13,19,28,29,45,55,61,70,78,87,99,107,111,119,119,119,119,122,122,125,125,126,126,126,126,129,129,129,129,134,143
participant_0_KILLS,0,0,0,0,0,0,1,1,2,3,3,3,3,3,3,3,3,4,5,5,5,5,5,5,5,5,5,5,6,6,6,6,6,6
participant_0_BUY,[],"[1055, 2003]",[],[],[],"[3070, 1001]",[],"[1036, 3364, 3340, 2031]",[],"[3133, 2055]",[],[],[],[],"[3004, 3047]",[],[3134],[1053],[],[3134],[],[6692],[],[],[3134],[],[],[1037],[3142],[1036],[],[3134],[],[]
participant_0_SOLD,[],[],[],[2003],[],[],[],"[3340, 3364]",[],[1036],[],[],[],[],"[3070, 3133, 1001]",[],[],[],[],[2031],[],"[3134, 1053]",[2055],[],[],[],[],[],"[3004, 3134, 1037]",[],[],[1036],[],[]
participant_0_UNDO,[],[],[],[],[],[],[],[],[],[],[],[],[],[],[],[],"[[0, 3134]]",[],[],[],[],[],[],[],[],[],[],[],[],[],[],[],[],[]
participant_1_GOLD,500,500,640,963,1368,1518,1790,2187,2485,2934,3256,3484,3787,4202,4460,4772,5422,5657,6183,6734,7161,7284,7511,7844,8797,8994,9295,10284,10406,10896,12042,12424,12679,13376
participant_1_CURRENTGOLD,500,500,140,463,868,243,515,912,1210,1659,1981,9,312,727,360,672,1322,67,593,669,1096,69,296,554,1507,654,606,1594,91,582,1727,2110,289,986
participant_1_LEVEL,1,1,2,3,4,4,5,5,6,7,7,8,8,8,8,9,9,10,10,11,11,11,12,12,12,12,13,14,14,14,15,16,16,16
participant_1_MINIONSKILLED,0,0,0,0,0,2,3,3,3,9,9,9,9,9,9,9,11,14,19,21,28,28,35,35,37,37,39,39,39,44,50,50,53,53
participant_1_KILLS,0,0,0,0,0,0,0,0,0,0,0,0,0,0,0,0,0,0,0,1,1,1,1,1,2,2,2,3,3,3,4,4,4,5
participant_1_BUY,[],[],"[1039, 3340, 2031]",[],[],"[1036, 1036, 2055]",[],[],[],[],[],"[3134, 1053, 3111, 1036, 1036]",[],[],"[1053, 2055, 3364]",[],[],"[6692, 1036, 1036]",[],"[3133, 2055]",[],"[3067, 1036]",[],"[2055, 2055]",[],[3071],[1036],[],"[3123, 3044, 2055]",[],[],[],"[3053, 2055]",[]
participant_1_SOLD,[],[],[],[],[],[],[],[],[],[],"[2055, 3340]","[1036, 1036]",[],[3513],"[1039, 1036, 3340]",[],[2055],"[3134, 1036, 1053, 2031]",[],"[1036, 1036]",[],[],[],[2055],[2055],"[3133, 3067, 1036]",[],[],[1036],[2055],[],[],[3044],[]
participant_1_UNDO,[],[],[],[],[],[],[],[],[],[],[],"[[0, 1053]]",[],[],[],[],[],[],[],[],[],[],[],"[[0, 2055]]",[],[],[],[],[],[],[],[],[],[]
participant_2_GOLD,500,500,556,804,1095,1259,1808,1979,2596,3061,3316,3598,3903,4488,4695,5175,5764,6342,7018,7140,7342,7896,8297,8727,9062,9484,9860,10408,11164,11371,12140,12277,12550,13192
participant_2_CURRENTGOLD,500,0,56,304,595,59,608,279,886,526,781,1053,1348,1933,240,720,1309,987,1663,745,947,301,702,1132,367,790,1165,838,570,426,1196,583,855,1498
participant_2_LEVEL,1,1,1,3,4,4,6,6,7,8,8,8,9,9,9,10,11,11,11,11,12,12,13,13,13,14,14,15,15,16,16,16,16,17
participant_2_MINIONSKILLED,0,0,2,9,19,21,28,31,40,43,51,57,65,69,74,82,92,96,101,101,105,122,134,148,152,165,169,169,175,180,195,196,202,209
participant_2_KILLS,0,0,0,0,0,0,0,0,0,0,0,0,1,1,1,3,3,3,3,3,3,3,3,3,3,4,6,7,7,7,8,8,9,9
participant_2_BUY,[],"[1054, 2003, 3340]",[],[],[],[],"[1052, 1028, 2055, 2003]",[],[],[1026],[4635],[],[],"[4633, 1001]","[1033, 2055]",[],[],"[3111, 1043, 1026]",[],[],[1052],[],[],[],[],"[3115, 1052, 1052]",[2055],"[1026, 1011]",[],[],[4637],"[1029, 1033]",[],[]
participant_2_SOLD,[],[],[],[],[],[],[],[2055],"[2003, 2003]",[],"[1028, 1052]",[],[],"[4635, 1026]",[2055],[],[],"[1001, 1033]",[],[],[],[],[],[],[],"[1043, 1026, 1052, 1054]",[2055],[1054],[],[],"[1026, 1011, 1052]",[],[],[]
participant_2_UNDO,[],[],[],[],[],[],[],[],[],[],[],[],[],[],[],[],[],[],[],[],[],[],[],[],[],"[[0, 1052], [1054, 0]]",[],[],[],[],[],[],[],[]
participant_3_GOLD,500,500,521,783,1085,1368,1519,1805,1927,2162,2438,3096,3281,3455,3578,3889,4673,5095,5433,6156,6393,6516,6885,7431,7693,8441,8622,9046,9217,9821,10339,10574,11018,11737
participant_3_CURRENTGOLD,500,500,21,283,585,868,144,430,52,287,563,1221,131,305,128,439,1223,20,358,1081,1318,41,410,956,1218,1966,2148,21,192,796,114,380,823,642
participant_3_LEVEL,1,1,1,2,3,4,4,5,5,5,6,6,7,7,7,7,8,8,8,9,10,10,10,11,11,12,12,13,13,14,14,14,14,15
participant_3_MINIONSKILLED,0,0,0,8,16,22,24,31,31,38,47,56,60,63,63,74,84,84,92,101,102,102,108,121,125,136,140,140,143,156,161,163,174,179
participant_3_KILLS,0,0,0,0,0,0,0,0,0,0,0,1,1,1,1,1,2,2,2,3,3,3,3,3,3,4,4,4,4,4,4,4,4,5
participant_3_BUY,[],[],"[1055, 2003, 3340]",[],[],[],"[1036, 1036, 2003, 2003, 2055]",[],"[3134, 2003, 2003]",[],[],[],"[3133, 2003, 2003, 2055]",[],[1001],[],[],"[6691, 1033, 2055, 3364, 2003, 2003]",[],[],[],"[3111, 1036, 1036, 1036]",[],[],[],[],[],"[3814, 1036, 1036]",[],[],"[3123, 3133]","[3134, 2055, 2055]",[],[1053]
participant_3_SOLD,[],[],[],[],[],[2003],[],[],"[2003, 2003, 2055, 1036, 1036]",[],"[2003, 2003]",[],[],[2055],[],[],[],"[2003, 2003, 3134, 3133, 3340]",[],"[2055, 2003, 2003]",[],"[1001, 1033]",[],[],[],[],[],"[1036, 1036, 1036]",[],[],"[1036, 1036]","[1036, 1055]","[2055, 2055]",[]
participant_3_UNDO,[],[],[],[],[],[],[],[],[],[],[],[],[],[],[],[],[],[],[],[],[],[],[],[],[],[],[],[],[],[],[],"[[0, 3133]]",[],[]
participant_4_GOLD,500,500,523,703,861,1118,1315,1555,1729,1906,2117,2549,2742,2965,3304,3582,4094,4284,4632,5023,5179,5320,5463,5614,5760,6198,6585,7151,7847,7993,8573,8720,8878,9345
participant_4_CURRENTGOLD,500,500,23,203,361,618,815,1055,4,181,392,824,117,340,329,607,1119,159,507,898,979,1120,1263,214,210,649,1035,426,1122,318,899,695,853,1320
participant_4_LEVEL,1,1,1,2,2,3,4,5,5,5,5,6,6,7,7,7,8,8,9,9,9,9,9,10,10,10,11,12,12,12,13,13,13,13
participant_4_MINIONSKILLED,0,0,0,0,0,0,3,4,4,6,8,9,10,11,13,13,15,15,18,23,24,24,24,25,25,26,28,28,32,32,36,36,37,39
participant_4_KILLS,0,0,0,0,0,0,0,0,0,0,0,0,0,0,0,0,0,0,0,0,0,0,0,0,0,0,0,0,1,1,1,1,1,1
participant_4_BUY,[],[],"[3862, 2003, 2003, 3340]",[],[],[],[],[],"[3123, 1036, 2055]",[],[],[],"[3364, 3134, 2055, 2055]",[],[1036],[],[],"[1053, 3009]",[],[],[2055],[],[],[6692],"[2055, 2055]",[],[],"[2055, 3133]",[],"[6609, 2055, 2055]",[],[1036],[],[]
participant_4_SOLD,[],[],[],[],[2003],[],[],[],"[2010, 2003]",[],[2055],"[2010, 3862]","[2010, 3340, 1036]",[],[],[],[],"[1036, 2422]",[],[3863],[2055],[2055],[],"[3134, 1053]",[2055],[],[2055],[],"[2055, 2055]","[3123, 3133]",[],[],[2055],[]
participant_4_UNDO,[],[],[],[],[],[],[],[],[],[],[],[],[],[],[],[],[],[],[],[],[],[],[],[],[],[],[],[],[],[],[],[],[],[]
participant_5_GOLD,500,500,621,1013,1213,1882,2297,2504,2652,2986,3208,3551,3673,3846,4093,4400,4553,5128,5406,6019,6326,6904,7404,7711,7966,8463,8670,8794,9161,9492,9665,9872,10139,10362
participant_5_CURRENTGOLD,500,0,121,513,713,1382,1797,2004,102,436,658,1001,373,471,718,1025,478,253,531,1144,551,1129,344,651,906,288,495,119,86,418,590,297,565,787
participant_5_LEVEL,1,1,2,3,3,4,5,5,6,6,6,7,7,7,8,8,8,9,9,10,10,10,11,11,11,12,12,12,13,13,13,13,14,14
participant_5_MINIONSKILLED,0,0,0,0,0,2,2,2,2,4,4,5,5,5,5,5,6,14,14,15,15,15,23,23,27,27,27,27,27,35,35,35,35,35
participant_5_KILLS,0,0,0,0,0,0,0,0,1,1,1,1,1,1,2,2,2,2,2,2,3,3,3,3,3,3,3,3,3,3,4,4,4,4
participant_5_BUY,[],"[1055, 2003, 3340]",[],[],[],[],[],[],[],[6670],[],[],[1018],[],[],[],"[6672, 1001, 1042]",[],[],"[3006, 1042, 1042]",[],[],[],[],[],[3094],[],[],[],[],[1038],[],[],"[1018, 3031]"
participant_5_SOLD,[],[],[],[],[],[],[],[],[],[],[],[],[],[],[],[],"[6670, 1018]",[],[2003],"[1001, 1042]",[],[],[],[],[],"[1042, 1042]",[],[],[],[],[],[],[],"[1038, 1018]"
participant_5_UNDO,[],[],[],[],[],[],[],[],[],[],[],[],[],[],[],[],[],[],[],[],[],[],[],[],[],[],[],[],[],[],[],[],[],[]
participant_6_GOLD,500,500,563,839,1067,1434,1833,1955,2251,2677,2897,3118,3401,3636,4035,4489,4654,4863,5726,6166,6458,7544,7883,8319,8441,8744,8930,9353,10084,10603,11220,11714,12010,12232
participant_6_CURRENTGOLD,500,0,63,339,567,934,1333,80,376,802,172,393,376,611,1010,1464,144,353,851,1291,383,1469,133,569,41,345,530,353,1085,1603,1196,439,735,958
participant_6_LEVEL,1,1,1,3,4,5,6,6,7,7,8,8,9,9,10,10,10,10,11,11,12,12,12,13,13,13,13,13,14,14,14,15,15,15
participant_6_MINIONSKILLED,0,0,2,10,16,27,41,41,48,63,69,75,84,88,94,108,111,112,117,128,132,133,135,145,145,151,155,155,163,174,182,194,200,200
participant_6_KILLS,0,0,0,0,0,1,2,2,2,3,3,3,3,3,3,3,3,4,4,4,4,4,4,4,4,5,5,5,6,6,6,6,6,6
participant_6_BUY,[],"[1055, 2003]",[],[],[],[],[3006],[6677],[],"[1018, 1042]",[],[],[3124],[1036],[],[6670],[1053],[],[],[],[],[],"[6673, 1038, 1036]",[],[],[],[3072],[],[3133],[],[1031],[],[],[]
participant_6_SOLD,[],[],[],[2003],[],[],[],[],[],[],[],[],"[6677, 1018, 1042]",[],[],[1036],[],[],[],[],[],[],"[6670, 1053]",[],[],[],"[1038, 1036]",[],[],[],[1055],[],[],[]
participant_6_UNDO,[],[],[],[],[],[],[],[],[],[],[],[],[],[],[],[],[],[],[],[],[],[],[],[],[],[],[],[],[],[],[],[],[],[]
participant_7_GOLD,500,500,612,976,1260,2125,2661,2958,3204,3822,4120,4380,4927,5990,6314,6620,6913,7692,8048,8570,8959,9471,9929,10218,10561,11260,11578,12082,13106,13277,13460,13582,14319,15122
participant_7_CURRENTGOLD,500,0,112,466,750,1605,1041,538,784,502,800,1060,507,1210,1534,890,283,1062,1418,1940,2330,2841,449,738,1081,1780,349,852,776,948,510,633,1370,2173
participant_7_LEVEL,1,1,1,3,4,5,6,6,7,7,8,8,9,9,10,10,10,11,11,12,12,13,13,13,14,14,14,15,15,15,15,15,16,16
participant_7_MINIONSKILLED,0,0,5,16,25,34,41,51,53,60,70,78,84,102,111,117,123,127,131,140,143,153,165,171,178,183,188,195,199,202,204,204,219,231
participant_7_KILLS,0,0,0,0,0,1,1,1,1,1,1,1,1,1,1,1,1,2,2,3,3,4,4,4,4,5,5,5,5,5,5,5,5,5
participant_7_BUY,[],"[1035, 2031, 3340]",[],[],[],[],[],[],"[1001, 6660, 1029, 1033]",[],[],[],"[3105, 3364]",[2055],[],[],[3068],[3047],[],[],[1011],[],"[1026, 1052]",[],[],"[4637, 1029]",[],[3076],[1028],[],[],[1011],[],[]
participant_7_SOLD,[],[],[],[],[],[],[],[],[],[],[1035],[],"[1033, 1029, 3340]",[],[2055],[],"[6660, 3105]",[1001],[3364],[3513],[],[],[],[],[],"[1026, 1011, 1052]",[],[1029],[],[],[],[1028],[],[]
participant_7_UNDO,[],[],[],[],[],[],[],[],[],[],[],[],[],[],[],[],[],[],[],[],[],[],[],[],[],[],[],[],[],[],[],[],[],[]
participant_8_GOLD,500,500,521,818,1113,1396,1603,1791,2303,2531,2902,3137,3343,3869,4466,4770,4893,5057,5416,5714,6722,6979,7236,7697,7994,8116,8329,8661,9117,9487,10369,10674,10959,11181
participant_8_CURRENTGOLD,500,0,21,318,613,896,1103,1291,1803,731,1102,1337,943,1469,2066,2370,393,557,916,114,1122,1379,1636,2097,2394,416,629,961,1417,1787,1369,1675,1959,81
participant_8_LEVEL,1,1,1,2,3,4,4,4,5,5,6,6,7,7,8,8,8,8,9,9,10,10,10,11,11,11,11,12,12,13,13,14,14,14
participant_8_MINIONSKILLED,0,0,0,10,18,24,29,30,34,40,50,56,61,67,70,81,81,84,94,95,104,107,107,114,120,120,121,130,141,146,157,163,168,168
participant_8_KILLS,0,0,0,0,0,0,0,0,0,0,0,0,0,0,0,0,0,0,0,0,0,0,0,0,0,0,0,0,0,0,0,0,0,0
participant_8_BUY,[],"[3850, 3340, 2003, 2003, 2055]",[],[],[],[],[],[],[],"[4642, 2055]",[],[],"[1028, 3067]",[],[],[],[6617],[],[],"[3114, 3364, 2055]",[],[],"[1026, 2055, 3363]",[],[],[],[3504],[],[],[],"[3114, 2055, 2055]",[],[],[1026]
participant_8_SOLD,[],[2055],[],[],[],[],[],[],[],[],[],[],"[2055, 3850, 1028]",[],[],[],"[3067, 4642]",[],[],[3340],[2055],[],"[3851, 3364]",[],[],[2055],"[3114, 1026]",[],[],[],[],[],[2055],[]
participant_8_UNDO,[],"[[0, 2003], [0, 2003]]",[],[],[],[],[],[],[],[],[],[],[],[],[],[],[],[],[],[],[],[],[],[],[],[],[],[],[],[],[],[],[],[]
participant_9_GOLD,500,500,523,737,952,1166,1321,1475,1787,1922,2076,2285,2464,2794,3040,3180,3340,3841,4111,4302,4637,5138,5328,5499,5639,5960,6100,6242,6507,6647,6988,7128,7268,7684
participant_9_CURRENTGOLD,500,25,48,262,477,691,846,1000,1312,322,476,685,64,394,640,780,90,591,861,177,512,1013,279,449,589,910,400,542,807,948,338,478,619,184
participant_9_LEVEL,1,1,1,2,3,4,4,4,5,5,6,6,6,6,7,7,7,8,8,8,9,10,10,10,10,11,11,11,12,12,13,13,14,14
participant_9_MINIONSKILLED,0,0,0,0,0,0,0,0,2,2,2,3,3,3,4,4,4,4,4,4,4,4,4,4,4,5,5,5,5,5,5,5,5,5
participant_9_KILLS,0,0,0,0,0,0,0,0,0,0,0,0,0,0,0,0,0,0,1,1,1,4,4,4,4,4,4,5,6,6,7,7,7,7
participant_9_BUY,[],"[1054, 2003]",[],[],[],[],[],"[1026, 4635, 2055]",[],[],[1026],[],[1001],[],[],[],"[4633, 1052]",[],[3916],[],"[3020, 1028]",[],"[3165, 1029, 2055, 3363]",[],[2420],[],[],[3191],[],[],"[3157, 2055]",[1058],[],[]
participant_9_SOLD,[],[],[],[],[2003],[],[],[],[],[],[],[2055],[],[],[],[],"[4635, 1026]",[],[1052],[],[1001],[],"[3916, 1028, 3340, 2055]",[],[],[],[],[1029],[],[],"[3191, 2420]",[2055],[],[]
participant_9_UNDO,[],[],[],[],[],[],[],"[[0, 1026]]",[],[],[],[],[],[],[],[],[],[],[],[],[],[],[],[],[],[],[],[],[],[],[],[],[],[]
team0_KILLS,0,0,0,0,0,0,1,1,2,3,3,4,5,5,5,7,8,9,10,12,12,12,12,12,13,15,17,19,21,21,23,23,24,26
team0_CURRENTGOLD,2500,1500,303,1613,3004,2708,2186,3161,3149,3093,3961,3654,3065,3828,1385,3591,6739,1247,3333,3752,4435,1749,3165,3473,4131,4180,6063,3161,2572,2941,4577,3782,3793,6060
team0_TOTALGOLD,2500,2500,2803,4113,5504,6683,7996,9471,11194,12813,14146,16049,17645,19758,21015,23221,26369,28242,30328,32262,33455,34519,35935,37518,39426,41673,43981,47251,49310,50980,54630,55653,57743,60908
team0_LEVEL,5,5,6,13,17,20,24,27,30,32,34,36,39,41,41,44,47,49,50,52,54,54,56,58,59,61,63,68,68,70,73,74,74,77
team0_SBIRES,0,0,4,30,54,73,87,114,133,157,185,209,231,251,266,289,321,328,349,365,381,398,426,454,465,490,502,502,518,541,571,574,600,623
team1_KILLS,0,0,0,0,0,2,3,3,4,5,5,5,5,5,6,6,6,8,9,10,11,15,15,15,15,17,17,18,20,20,22,22,22,22
team1_CURRENTGOLD,2500,25,365,1898,3120,5508,6120,4913,4377,2793,3208,4476,2263,4155,5968,6529,1388,2816,4577,4666,4898,7831,2841,4504,5011,3739,2403,2827,4171,5704,4003,3522,5248,4183
team1_TOTALGOLD,2500,2500,2840,4383,5605,8003,9715,10683,12197,13938,15203,16471,17808,20135,21948,23459,24353,26581,28707,30771,33102,36036,37780,39444,40601,42543,43607,45132,47975,49506,51702,52970,54695,56581
team1_LEVEL,5,5,6,13,17,22,25,25,30,30,34,35,38,38,43,43,43,46,48,50,53,55,56,58,59,61,61,63,66,67,68,70,73,73
team1_SBIRES,0,0,7,36,59,87,113,124,139,169,195,217,237,265,284,315,325,341,360,382,398,412,434,457,474,486,496,512,535,562,583,601,627,639
delta_KILLS,0,0,0,0,0,-2,-2,-2,-2,-2,-2,-1,0,0,-1,1,2,1,1,2,1,-3,-3,-3,-2,-2,0,1,1,1,1,1,2,4
delta_CURRENTGOLD,0,1475,-62,-285,-116,-2800,-3934,-1752,-1228,300,753,-822,802,-327,-4583,-2938,5351,-1569,-1244,-914,-463,-6082,324,-1031,-880,441,3660,334,-1599,-2763,574,260,-1455,1877
delta_TOTALGOLD,0,0,-37,-270,-101,-1320,-1719,-1212,-1003,-1125,-1057,-422,-163,-377,-933,-238,2016,1661,1621,1491,353,-1517,-1845,-1926,-1175,-870,374,2119,1335,1474,2928,2683,3048,4327
delta_LEVEL,0,0,0,0,0,-2,-1,2,0,2,0,1,1,3,-2,1,4,3,2,2,1,-1,0,0,0,0,2,5,2,3,5,4,1,4
delta_SBIRES,0,0,-3,-6,-5,-14,-26,-10,-6,-12,-10,-8,-6,-14,-18,-26,-4,-13,-11,-17,-17,-14,-8,-3,-9,4,6,-10,-17,-21,-12,-27,-27,-16
