name,frame_0,frame_1,frame_2,frame_3,frame_4,frame_5,frame_6,frame_7,frame_8,frame_9,frame_10,frame_11,frame_12,frame_13,frame_14,frame_15,frame_16,frame_17,frame_18,frame_19,frame_20,frame_21,frame_22,frame_23,frame_24,frame_25,frame_26,frame_27,frame_28,frame_29,frame_30,frame_31
nameStamp,Tstart,Tearly,Tearly,Tearly,Tearly,Tearly,Tearly,Tearly,Tearly,Tearly,Tearly,Tearly,Tearly,Tearly,Tearly,Tearly,Tmid,Tmid,Tmid,Tmid,Tmid,Tmid,Tmid,Tmid,Tmid,Tend,Tend,Tend,Tend,Tend,Tend,Tend
timestamp,0,60013,120024,180031,240047,300055,360067,420077,480098,540111,600135,660144,720164,780172,840187,900198,960222,1020234,1080251,1140257,1200282,1260299,1320312,1380329,1440343,1500354,1560381,1620391,1680403,1740419,1800433,1860455
participant_0_GOLD,500,500,541,796,1032,1378,1501,2111,2393,3149,3462,3925,4483,4999,5526,6613,6785,7328,7916,8241,8675,9186,9574,9996,11028,11151,11373,11772,12278,12772,13186,13825
participant_0_CURRENTGOLD,500,0,41,296,532,878,126,736,43,799,362,825,1383,1899,876,1663,302,45,633,958,1392,1903,2291,414,1446,348,570,970,1476,1969,409,247
participant_0_LEVEL,1,1,1,3,4,5,5,7,7,8,8,9,10,10,11,11,11,12,12,13,13,14,14,15,16,16,16,16,16,16,17,17
participant_0_MINIONSKILLED,0,0,1,8,14,25,25,35,41,51,55,66,78,87,92,96,96,106,111,116,119,125,129,143,154,154,154,159,160,161,162,163
participant_0_KILLS,0,0,0,0,0,0,0,0,0,1,1,1,2,2,3,3,3,3,3,5,6,7,8,8,8,8,8,8,10,10,10,11
participant_0_BUY,[],"[1055, 2003, 3340]",[],[],[],[],"[1043, 2055, 2003]",[],[],[],"[1037, 1053]",[],"[3153, 1042]",[],[],"[3006, 1042]",[],"[3086, 1038]",[],[],[3031],[],[],[1043],[],[1037],[],[3124],[],[3086],[],[]
participant_0_SOLD,[],[],[],[],[],[],[],[],[],[2003],[],[],"[2003, 1053, 1043]","[2010, 2010]",[2055],"[1042, 2422]",[],[],[],[],"[2010, 1038]",[],[],[],[],[],[],"[1043, 1037]",[],[],[],[]
participant_0_UNDO,[],[],[],[],[],[],[],[],[],[],"[[0, 1037]]",[],[],[],[],"[[0, 1042]]",[],"[[0, 3086]]",[],[],[],[],[],[],[],[],[],[],[],[],[],[]
participant_1_GOLD,500,500,620,1032,1241,1448,1676,2008,2140,2468,2600,3072,3449,3687,3959,4245,4647,4819,5217,5578,6000,6398,7095,7323,7895,8328,9006,9194,9748,10661,10823,11930
participant_1_CURRENTGOLD,500,0,120,532,741,223,451,783,915,1243,125,597,974,1212,134,420,822,69,467,278,275,673,1370,1598,420,853,1531,284,839,1751,248,1355
participant_1_LEVEL,1,1,2,3,3,3,4,5,5,6,6,7,7,7,8,8,9,9,9,10,10,11,11,11,12,13,13,13,14,14,14,15
participant_1_MINIONSKILLED,0,0,0,0,0,0,0,0,0,0,1,1,1,1,1,3,5,5,5,10,10,10,10,17,17,17,17,17,17,18,19,19
participant_1_KILLS,0,0,0,0,0,0,0,0,0,0,0,1,1,1,1,1,1,1,1,1,1,1,2,2,2,2,3,3,4,5,5,7
participant_1_BUY,[],"[1041, 2003, 2003, 2003, 3340]",[],[],[],"[3715, 2055]",[],[],[],[],"[3006, 2055, 2055, 3364]",[],[],[],"[1043, 1036]",[],[],"[1419, 1042]",[],[1053],"[1036, 2055]",[],[],[],[3153],[],[],"[1043, 1052]",[],[],[3124],[]
participant_1_SOLD,[],[],[2003],"[2003, 2003]",[],[1041],[2055],[],[],[],"[3340, 2055]",[2055],[],[3364],[],[3513],[],"[1043, 3715]",[],[1036],[2055],[],[],[],"[1053, 1036, 1042]",[],[],[],[],[],"[1052, 1043]",[]
participant_1_UNDO,[],[],[],[],[],[],[],[],[],[],[],[],[],[],[],[],[],[],[],[],[],[],[],[],[],[],[],[],[],[],[],[]
participant_2_GOLD,500,500,597,824,1032,1509,1702,2460,3104,3348,3933,4076,4684,4884,5261,5538,5969,6142,6466,6724,7612,7734,8321,8737,9334,9582,10077,10250,10884,11970,12092,12689
participant_2_CURRENTGOLD,500,0,97,324,532,1009,177,935,1579,423,1008,226,834,1034,1411,388,819,242,566,824,262,384,971,1387,1984,782,1277,125,760,1845,518,1115
participant_2_LEVEL,1,1,1,3,4,5,5,6,7,8,8,9,9,10,10,10,11,11,11,11,11,11,12,12,13,13,14,14,14,15,15,15
participant_2_MINIONSKILLED,0,0,4,10,15,17,22,33,42,46,56,57,67,71,77,83,90,90,98,98,98,98,101,101,107,114,126,126,132,136,136,136
participant_2_KILLS,0,0,0,0,0,1,1,2,3,3,4,4,5,5,5,5,5,5,5,5,6,6,7,8,8,8,8,8,8,10,10,10
participant_2_BUY,[],"[1036, 2033]",[],[],[],[],"[1037, 2055, 2055]",[],[],"[3134, 1001]",[],[3814],[],[],[],"[3117, 1036, 1036]",[],"[3134, 1036]",[],[],[3142],[],[],[],[],"[3134, 1036]",[],"[3133, 3147, 2055, 3364]",[],[],[3035],[]
participant_2_SOLD,[],[],[],[],[],[],[],[],[],[],[2055],"[1037, 3134]",[2055],[],[],[1001],[],"[1036, 1036]",[],[],"[1036, 3134]",[],[],[],[],[],[],"[1036, 2033, 3134, 3133, 3340]",[],[],[2055],[]
participant_2_UNDO,[],"[[0, 1036]]",[],[],[],[],[],[],[],[],[],[],[],[],[],[],[],[],[],[],[],[],[],[],[],[],[],[],[],[],"[[2055, 0]]",[]
participant_3_GOLD,500,500,611,1003,1267,1571,1771,2148,2489,3179,3311,3655,4282,4609,5235,5513,5904,6347,6647,7643,8413,8914,9437,9670,10373,10495,10786,11330,12394,12899,13031,14186
participant_3_CURRENTGOLD,500,0,111,503,767,1071,146,523,864,1554,786,1130,57,384,1010,788,1179,322,622,1618,288,789,1312,545,1248,495,787,105,1169,275,407,1561
participant_3_LEVEL,1,1,1,2,3,4,4,5,5,6,6,7,7,8,8,9,9,9,10,10,11,11,11,11,12,12,13,13,14,14,14,15
participant_3_MINIONSKILLED,0,0,5,18,26,33,38,50,60,71,72,81,86,94,105,111,120,121,126,133,139,144,147,149,156,156,161,167,173,176,177,185
participant_3_KILLS,0,0,0,0,0,0,0,1,1,2,2,2,3,3,4,5,5,5,6,6,6,6,6,6,7,7,7,7,7,7,7,7
participant_3_BUY,[],"[2033, 3340]",[],[],[],[],"[1055, 1036, 2055]",[],[3077],[],"[1028, 1036]",[],[],[],"[3044, 3057]",[1042],"[3078, 1028]",[3052],[],[],[],[],[],"[3053, 1001]",[],"[3111, 2420]",[],[],[],[],[3748],[1031]
participant_3_SOLD,[],[],[],[],[],[],[],[],[1036],[],[],[2055],[],[],"[1028, 1036]",[],"[1042, 3057, 3044]",[1028],[],[],[],[],[],[3052],[],"[1001, 1055]",[],[],[],[2420],"[2033, 3077]",[]
participant_3_UNDO,[],[],[],[],[],[],[],[],[],[],[],[],[],[],[],[],[],[],[],[],[],[],[],[],[],[],[],[],[],[],[],[]
participant_4_GOLD,500,500,522,758,936,1091,1226,1416,1560,1894,2189,2433,2824,2962,3325,3531,3737,3927,4228,4480,4670,4879,5170,5324,5944,6084,6329,6519,7107,7407,7832,8477
participant_4_CURRENTGOLD,500,0,22,258,436,591,51,241,385,719,514,758,274,412,775,261,467,57,357,610,120,329,269,424,494,334,579,369,957,458,482,1127
participant_4_LEVEL,1,1,1,2,3,3,4,4,5,6,6,7,7,8,8,9,9,9,9,9,10,10,10,11,11,11,12,12,13,13,13,14
participant_4_MINIONSKILLED,0,0,0,3,5,6,6,9,10,13,14,17,17,17,21,22,23,23,24,24,24,24,24,25,29,29,31,31,31,31,31,31
participant_4_KILLS,0,0,0,0,0,0,0,0,0,0,0,0,0,0,0,0,0,0,0,0,0,0,0,0,0,0,0,0,0,0,1,1
participant_4_BUY,[],"[2003, 2003, 3340, 3858]",[],[],[],[],"[1001, 1029, 2055]",[],[],[],[1031],[],"[3111, 2055, 3364]",[],[],[1057],[],[2420],[],[],"[3193, 1029]",[],[1027],[],"[3024, 1029]",[1029],[],[3082],[],[3110],[1028],[]
participant_4_SOLD,[],[],[],[],[],"[2003, 2003]",[],[2055],[],[],[1029],[],"[1001, 3340]",[],[2055],[],[3858],[],[],[2420],"[1031, 1057, 2421]",[],[],[],"[1027, 1029]",[],[],"[1029, 1029]",[],"[3082, 3024]",[],[]
participant_4_UNDO,[],[],[],[],[],[],[],[],[],[],[],[],[],[],[],[],[],[],[],[],[],[],[],[],[],[],[],[],[],[],[],[]
participant_5_GOLD,500,500,576,838,1116,1371,1770,1948,2288,2488,2743,2866,2988,3215,3809,3994,4267,4659,4865,5038,5209,5471,5767,6021,6339,6551,6808,6930,7052,7585,8152,8699
participant_5_CURRENTGOLD,500,0,76,338,616,871,1270,1448,313,213,468,591,713,190,284,169,102,494,200,373,144,406,702,956,324,136,43,165,287,820,1387,509
participant_5_LEVEL,1,1,1,3,4,4,6,6,7,7,8,8,8,8,9,9,9,10,10,10,11,11,11,11,12,12,12,12,12,13,14,15
participant_5_MINIONSKILLED,0,0,3,11,20,23,36,39,48,52,60,60,60,66,71,75,75,79,84,84,87,91,97,100,108,109,112,112,112,119,133,135
participant_5_KILLS,0,0,0,0,0,0,0,0,0,0,0,0,0,0,0,0,0,0,0,1,1,1,1,1,1,1,1,1,1,1,1,1
participant_5_BUY,[],"[3858, 2003, 2003, 3340]",[],[],[],[],[],"[1001, 1029, 2031, 2055]",[],[],[],"[3117, 2055]",[],[],[3024],[],[],[],"[1033, 1029, 2055, 3364]",[],"[3050, 2055, 2055]",[],"[1028, 1029, 2055]",[],[],[1031],"[1028, 2055]",[3067],[],[3109],"[2055, 2055]",[]
participant_5_SOLD,[],[],[],[],[],[],[],"[2003, 2003]",[],[],[],[1001],[],[3858],[1029],[],"[2055, 2055]",[],"[2031, 3340]",[2055],"[1033, 1029, 3024]",[2055],[],[2055],[],"[3859, 1029]",[],[1028],[2055],"[3067, 1031]",[2055],[]
participant_5_UNDO,[],[],[],[],[],[],[],[],[],[],[],[],[],[],[],[],[],[],[],[],[],[],"[[0, 1028]]",[],[],[],[],[],[],[],[],[]
participant_6_GOLD,500,500,620,992,1578,1895,2133,2350,2670,2978,3302,3453,3731,4077,4319,4646,5680,7067,7385,7678,8339,8517,8663,9049,9387,9840,10291,11540,11687,12262,12490,12612
participant_6_CURRENTGOLD,500,0,120,492,1078,1395,1633,750,1070,728,1052,1203,956,1302,1544,271,305,1692,2010,2303,864,1042,188,574,12,466,116,1365,323,898,175,298
participant_6_LEVEL,1,1,2,3,4,5,5,5,6,6,7,7,8,8,9,9,10,10,11,11,11,11,11,12,12,13,13,14,14,15,15,15
participant_6_MINIONSKILLED,0,0,0,1,1,5,5,5,5,5,10,12,17,17,17,17,23,25,25,29,32,35,35,40,49,50,59,60,60,64,70,70
participant_6_KILLS,0,0,0,0,1,1,1,1,1,1,1,1,1,1,1,1,1,1,1,1,1,1,1,1,1,1,1,1,1,1,1,1
participant_6_BUY,[],"[1056, 2003, 2003, 3340]",[],[],[],"[1052, 1052]",[],[3802],[],[],[1026],[],[],[],[],[],[3285],[],[1001],[],[3020],[],[],[],[],[1058],[],[],[1058],[],[],[]
participant_6_SOLD,[],[],[],[],[2010],[2003],[],"[1052, 1052]",[],[],[2010],[],[],[],[2010],[],"[3802, 1026]",[],[],[],"[2003, 1001]",[],[],[],[],[],[],[],[],[],[],[]
participant_6_UNDO,[],[],[],[],[],[],[],[],[],[],[],[],[],[],[],[],[],[],[],[],[],[],[],[],[],[],[],[],[],[],[],[]
participant_7_GOLD,500,500,597,852,1418,1624,1817,2002,2152,2515,2742,2900,3101,3314,3595,3948,4221,4503,4778,5029,5221,5421,5655,5819,5998,6312,6525,7185,7307,7749,7871,8158
participant_7_CURRENTGOLD,500,0,97,352,918,254,447,202,352,715,92,250,451,664,945,1298,521,803,778,1029,421,621,855,1019,1198,262,475,1135,7,448,571,858
participant_7_LEVEL,1,1,1,3,4,4,5,5,6,6,7,7,7,8,8,9,9,10,10,10,11,11,11,11,12,12,12,13,13,14,14,14
participant_7_MINIONSKILLED,0,0,4,12,14,16,20,24,26,37,43,45,49,55,61,71,76,78,83,85,89,94,101,104,107,110,111,121,121,129,129,130
participant_7_KILLS,0,0,0,0,0,0,0,0,0,0,0,0,0,0,0,0,0,1,1,2,2,2,2,2,2,5,5,6,6,8,8,8
participant_7_BUY,[],"[1055, 2003, 3340]",[],[],[],[],[],"[1038, 2031]",[],"[1036, 2055]",[],[],[3133],[],[],[1018],[],[],"[3006, 3508, 2055]",[],[1018],[],[],[3086],[],"[3085, 1038]",[],[1018],[],"[3031, 1053]",[],[]
participant_7_SOLD,[],[],[],[],[],[2003],[],[],[],[],[2055],[],[1036],[],[],[],[],[],"[2422, 1038, 3133, 1018]",[],[],[2055],[],[1018],[],[3086],[],[2031],[],"[1038, 1018]",[],[]
participant_7_UNDO,[],[],[],[],[],[],[],[],[],[],[],[],[],[],[],[],[],[],[],[],[],[],[],[],[],[],[],[],[],[],[],[]
participant_8_GOLD,500,500,583,831,1176,1515,1872,2008,2423,2588,2815,2959,3180,3465,3686,3822,4143,4789,5017,5622,5745,5951,6184,6377,6659,8898,9285,9925,10179,11799,12228,13288
participant_8_CURRENTGOLD,500,0,83,331,676,1015,1372,58,473,213,440,584,5,290,511,-203,118,764,-33,572,-155,51,284,-123,109,-202,185,85,339,-240,138,1198
participant_8_LEVEL,1,1,1,2,3,4,4,4,5,5,6,6,6,7,7,7,8,9,9,9,10,10,10,10,11,11,12,12,12,13,14,15
participant_8_MINIONSKILLED,0,0,3,10,20,30,41,42,56,58,64,65,67,76,81,82,89,93,99,103,103,108,110,114,119,122,134,139,143,156,165,194
participant_8_KILLS,0,0,0,0,0,0,0,0,0,0,0,0,0,0,1,1,1,1,1,1,1,1,1,1,1,1,1,1,1,1,1,2
participant_8_BUY,[],"[1054, 2003, 3340]",[],[],[],[],[],[],"[3044, 3077, 2031]",[1001],[],[],[],"[1028, 1036]",[3044],[1029],[1028],[],[3047],[],[3067],[],[],[],[3071],[1028],[1036],[],[],[],[],[3748]
participant_8_SOLD,[],[],[],[],[],[],[],[2003],[],[],[],[],[],[],"[1028, 1036]",[],[2031],[],"[1001, 1029]",[],[1028],[],[],[],"[3044, 3067]",[],[],[],[],[],[],"[3077, 1028, 1036]"
participant_8_UNDO,[],[],[],[],[],[],[],[],"[[0, 3044]]",[],[],[],[],[],[],[],[],[],[],[],[],[],[],[],[],[],[],[],[],[],[],[]
participant_9_GOLD,500,500,543,698,915,1133,1289,1423,1599,1734,2052,2187,2356,2572,2712,2895,3100,3386,3648,4258,4549,4689,4829,5001,5211,5557,5698,5976,6126,6474,6614,6755
participant_9_CURRENTGOLD,500,0,43,198,415,633,789,138,314,449,767,227,396,612,152,335,540,826,323,933,474,614,379,551,761,608,273,151,301,49,39,180
participant_9_LEVEL,1,1,1,2,3,4,4,5,5,6,6,6,7,7,7,8,8,8,9,9,9,10,10,10,10,11,11,12,12,12,12,12
participant_9_MINIONSKILLED,0,0,1,2,4,6,7,7,9,9,16,16,18,22,22,24,30,31,34,38,38,38,38,40,44,47,47,49,50,54,54,54
participant_9_KILLS,0,0,0,0,0,0,0,0,0,0,0,0,0,0,0,0,1,3,3,3,4,4,4,4,4,4,4,6,6,7,7,7
participant_9_BUY,[],"[1041, 2031, 3340]",[],[],[],[],[],[3133],[],[3706],[],[],[1400],[],[],"[3047, 1031]",[1011],[],[],[],"[3742, 3076]",[],[3082],[],[3075],[],[3067],[],[3044],[],[3071],[]
participant_9_SOLD,[],[],[],[],[],[],[],[],[],[1041],[],[],"[3133, 3706]",[],[],[2422],[],[],[],[],"[1031, 1011]",[],[],[],"[3076, 3082]",[],[],[],[2031],[],"[3044, 3067]",[]
participant_9_UNDO,[],[],[],[],[],[],[],[],[],[],[],[],[],[],[],[],[],[],[],[],[],[],[],[],[],[],[],[],[],[],[],[]
team0_KILLS,0,0,0,0,0,1,1,3,4,6,7,8,11,11,13,14,14,14,15,17,19,20,23,24,25,25,26,26,29,32,33,36
team0_CURRENTGOLD,2500,0,391,1913,3008,3772,951,3218,3786,4738,2795,3536,3522,4941,4206,3520,3589,735,2645,4288,2337,4078,6213,4368,5592,2812,4744,1853,5201,6298,2064,5405
team0_TOTALGOLD,2500,2500,2891,4413,5508,6997,7876,10143,11686,14038,15495,17161,19722,21141,23306,25440,27042,28563,30474,32666,35370,37111,39597,41050,44574,45640,47571,49065,52411,55709,56964,61107
team0_LEVEL,5,5,6,13,17,20,22,27,29,34,34,39,40,43,45,47,49,50,51,53,55,57,58,60,64,65,68,68,71,72,73,76
team0_SBIRES,0,0,10,39,60,81,91,127,153,181,198,222,249,270,296,315,334,345,364,381,390,401,411,435,463,470,489,500,513,522,525,534
team1_KILLS,0,0,0,0,1,1,1,1,1,1,1,1,1,1,2,2,3,6,6,8,9,9,9,9,9,12,12,15,15,18,18,19
team1_CURRENTGOLD,2500,0,419,1711,3703,4168,5511,2596,2522,2318,2819,2855,2521,3058,3436,1870,1586,4579,3278,5210,1748,2734,2408,2977,2404,1270,1092,2901,1257,1975,2310,3043
team1_TOTALGOLD,2500,2500,2919,4211,6203,7538,8881,9731,11132,12303,13654,14365,15356,16643,18121,19305,21411,24404,25693,27625,29063,30049,31098,32267,33594,37158,38607,41556,42351,45869,47355,49512
team1_LEVEL,5,5,6,13,18,21,24,25,29,30,34,34,36,38,40,42,44,47,49,49,52,53,53,54,57,59,60,63,63,67,69,71
team1_SBIRES,0,0,11,36,59,80,109,117,144,161,193,198,211,236,252,269,293,306,325,339,349,366,381,398,427,438,463,481,486,522,551,583
delta_KILLS,0,0,0,0,-1,0,0,2,3,5,6,7,10,10,11,12,11,8,9,9,10,11,14,15,16,13,14,11,14,14,15,17
delta_CURRENTGOLD,0,0,-28,202,-695,-396,-4560,622,1264,2420,-24,681,1001,1883,770,1650,2003,-3844,-633,-922,589,1344,3805,1391,3188,1542,3652,-1048,3944,4323,-246,2362
delta_TOTALGOLD,0,0,-28,202,-695,-541,-1005,412,554,1735,1841,2796,4366,4498,5185,6135,5631,4159,4781,5041,6307,7062,8499,8783,10980,8482,8964,7509,10060,9840,9609,11595
delta_LEVEL,0,0,0,0,-1,-1,-2,2,0,4,0,5,4,5,5,5,5,3,2,4,3,4,5,6,7,6,8,5,8,5,4,5
delta_SBIRES,0,0,-1,3,1,1,-18,10,9,20,5,24,38,34,44,46,41,39,39,42,41,35,30,37,36,32,26,19,27,0,-26,-49
