name,frame_0,frame_1,frame_2,frame_3,frame_4,frame_5,frame_6,frame_7,frame_8,frame_9,frame_10,frame_11,frame_12,frame_13,frame_14,frame_15,frame_16,frame_17,frame_18,frame_19,frame_20,frame_21,frame_22,frame_23,frame_24,frame_25,frame_26,frame_27,frame_28,frame_29,frame_30,frame_31,frame_32,frame_33
nameStamp,Tstart,Tearly,Tearly,Tearly,Tearly,Tearly,Tearly,Tearly,Tearly,Tearly,Tearly,Tearly,Tearly,Tearly,Tearly,Tearly,Tmid,Tmid,Tmid,Tmid,Tmid,Tmid,Tmid,Tend,Tend,Tend,Tend,Tend,Tend,Tend,Tend,Tend,Tend,Tend
timestamp,0,60010,120042,180050,240067,300102,360134,420146,480153,540160,600191,660208,720214,780220,840226,900247,960277,1020298,1080302,1140323,1200325,1260341,1320365,1380376,1440385,1500414,1560425,1620446,1680463,1740474,1800492,1860513,1920540,1980540
participant_0_GOLD,500,500,598,839,1387,1691,1975,2097,2478,3213,3377,3683,3868,4004,4727,5325,5666,5809,6273,6521,7233,7405,8340,8904,9368,9651,10441,10680,11254,11915,12233,12803,13825,13873
participant_0_CURRENTGOLD,500,0,98,289,837,366,650,97,478,1213,177,483,668,404,1127,875,1216,559,1023,1271,1983,322,1257,1821,2285,1768,2558,797,1371,2032,1111,1681,2703,315
participant_0_LEVEL,1,1,1,2,4,5,5,5,7,7,8,8,9,9,10,10,11,11,11,11,12,12,13,13,13,13,14,14,15,15,15,16,16,16
participant_0_MINIONSKILLED,0,0,4,11,17,25,34,34,49,58,61,68,72,73,86,93,103,104,120,120,123,123,126,128,129,138,140,141,155,158,162,172,175,175
participant_0_KILLS,0,0,0,0,0,1,1,2,2,2,2,3,3,3,3,4,4,5,6,6,7,7,7,7,7,7,7,7,7,8,9,9,9,9
participant_0_BUY,[],"[2003, 1055, 3340]",[],[],[],[],"[1038, 2003, 2003, 2055]",[],[],"[1037, 1001, 1042, 2003]",[],[],[3031],[],[],[1053],[],[],[],"[1038, 3006, 1018, 3133]",[],[],"[3508, 1036, 3363]",[],[3133],[],[3105],[],[],[],"[3812, 3086]",[1042],[],[]
participant_0_SOLD,[],[],[],[],[2003],[],[],[2055],[],"[2003, 2003]",[],[2003],"[1038, 1037]",[],[2003],[],[],[],[],"[1001, 1042]",[],[],"[1038, 3133, 3340]",[],[1036],[],[1055],[],[],[],"[3105, 1053, 3133]",[],[],[]
participant_0_UNDO,[],[],[],[],[],[],[],[],[],[],[],"[[2003, 0]]",[],[],[],[],[],[],[],"[[0, 1018]]",[],[],[],[],[],[],[],[],[],[],[],[],[],[]
participant_1_GOLD,500,500,521,913,1213,1465,1753,2016,2323,2631,2880,3390,3513,3635,4167,4747,5254,5802,6457,6789,7272,7855,8463,8730,9058,9602,10041,10333,10652,11149,11747,12035,12619,12864
participant_1_CURRENTGOLD,500,0,21,413,713,965,1253,391,698,1006,1255,1765,88,210,742,1322,1829,577,1232,1564,847,630,1238,1505,1833,2377,2816,3108,3428,3924,4523,820,1405,1589
participant_1_LEVEL,1,1,1,2,3,4,4,5,5,6,6,8,8,8,8,9,9,10,10,11,11,12,13,13,14,14,15,15,15,16,16,16,17,17
participant_1_MINIONSKILLED,0,0,0,0,0,0,0,0,0,0,3,10,10,10,13,18,23,23,23,23,24,35,35,40,41,43,47,47,47,47,47,48,53,56
participant_1_KILLS,0,0,0,0,1,1,1,1,1,2,2,2,2,2,2,2,2,2,2,2,4,4,5,7,8,8,10,10,10,11,11,11,13,13
participant_1_BUY,[],"[1055, 2003, 3340]",[],[2003],[],"[1036, 1036, 2055]",[],"[3077, 2003]",[],[],"[3057, 2031]",[],[],[1028],[],[3044],[],[3047],[],[],[],"[3078, 1028]",[],[],[],[3052],[],[3053],[],[],[1038],[],[],"[3026, 1037]"
participant_1_SOLD,[],[],[],"[2003, 2010]",[2003],[],"[2055, 2010]","[1036, 1036]","[2003, 2010]",[],[],[],[],[],[],[1028],[],[2422],[],[],[],"[3057, 3044]",[],[],[],[1028],[],[3052],[],[],[2031],[],[],"[1038, 1055]"
participant_1_UNDO,[],[],[],[],[],[],[],[],[],[],[],[],[],[],[],[],[],[],[],[],[],[],[],[],[],[],[],[],[],[],[],[],[],[]
participant_2_GOLD,500,500,598,1424,1673,2209,3027,3374,3775,4667,4874,5257,5890,6164,6855,7994,8366,8757,9615,9787,9994,10405,10828,11154,11319,11726,11848,12493,13099,13594,13726,14210,14873,15290
participant_2_CURRENTGOLD,500,0,98,174,293,29,847,1194,195,847,154,537,1170,144,835,1974,2346,637,1145,647,854,566,988,1315,1479,1886,109,753,1360,734,867,1351,2014,1750
participant_2_LEVEL,1,1,1,3,4,5,6,7,8,9,9,10,10,10,11,12,12,12,13,13,13,13,14,14,14,15,15,15,15,16,16,16,17,17
participant_2_MINIONSKILLED,0,0,4,18,25,29,44,53,66,77,82,88,96,101,111,120,126,132,136,136,142,142,142,148,150,153,153,161,161,172,173,176,185,196
participant_2_KILLS,0,0,0,0,0,0,0,0,0,0,0,1,1,1,2,2,2,3,4,4,4,5,5,5,5,6,6,6,6,7,7,7,7,7
participant_2_BUY,[],"[1039, 2031, 3340]",[],[],[],[],[],"[3706, 1028, 3364, 2055]",[],[],[],[],"[1401, 1029, 1028]",[],[],[],[],"[3047, 3076, 1029]",[],[],[3075],[3067],[],[],[],[],[],[],[],[],[],"[3083, 3211, 3067]",[],[]
participant_2_SOLD,[],[],[],[],[],[],[],"[1039, 3340]",[2055],[],[],[],"[1028, 3706]",[],[],[],[],"[1029, 2422]",[],[],"[3076, 1028, 1029]",[],[],[],[],[],[],[],[],[],[],"[3067, 2031]",[],[]
participant_2_UNDO,[],[],[],[],[],[],[],[],[],[],[],[],[],[],[],[],[],[],[],[],[],[],[],[],[],[],[],[],[],[],[],[],[],[]
participant_3_GOLD,500,500,570,934,1267,1920,2106,2947,3327,3527,3859,4717,4925,5270,5734,6266,6924,7526,8140,8540,9133,9806,10329,10686,10947,11223,11623,11745,12013,12912,13536,13709,14020,14097
participant_3_CURRENTGOLD,500,0,70,434,767,1420,131,972,1352,27,359,1217,200,545,1009,641,1299,1901,2515,15,608,1281,554,911,422,698,178,301,569,1467,192,65,376,252
participant_3_LEVEL,1,1,1,2,3,4,4,5,6,6,7,7,7,8,8,8,9,9,10,11,11,12,13,13,13,13,14,14,14,15,15,15,15,16
participant_3_MINIONSKILLED,0,0,3,14,26,37,40,53,65,70,82,84,88,95,104,106,117,123,136,140,151,153,153,157,161,166,170,170,170,180,184,186,186,186
participant_3_KILLS,0,0,0,0,0,0,0,0,0,0,0,0,0,0,0,0,0,0,0,0,0,2,2,2,2,2,2,2,2,3,3,3,5,7
participant_3_BUY,[],"[3850, 2003, 2003]",[],[],[],[],"[1001, 1052, 2055, 2055]",[],[],"[1052, 3364]","[2003, 2003]",[],[3802],[],[],"[3020, 2055, 2055]",[],[1026],[],[3285],[],[],[],[],[],"[3916, 2055, 2055]",[],[],[],"[3165, 1052]",[],[],[],[]
participant_3_SOLD,[],[],[],[],[2010],[],[2010],[],"[2003, 2010]","[2003, 3850, 3340]",[2055],[],"[1052, 1052]",[],[2055],"[1001, 2003, 2003]",[3851],[],[2055],"[2055, 3802, 1026]",[],[],[],[],[],[],[],[],[],[3916],[2055],[],[],[]
participant_3_UNDO,[],[],[],[],[],[],[],[],[],[],[],[],[],[],[],[],[],[],[],[],[],[],[],[],[],[],[],[],[],[],[],[],[],[]
participant_4_GOLD,500,500,538,732,987,1277,1486,1715,1909,2122,2262,2655,2837,3141,3531,3870,4230,4520,4893,5179,5404,6360,7012,7274,7519,7708,7988,8231,8417,9079,9229,9474,10455,10826
participant_4_CURRENTGOLD,500,0,38,232,487,777,101,330,524,302,342,735,487,791,1181,570,930,370,743,9,234,1190,1842,2104,2349,788,1068,1311,1497,324,474,719,1701,2041
participant_4_LEVEL,1,1,1,2,3,4,4,4,5,5,5,6,7,7,8,8,8,9,10,10,10,11,12,13,13,13,13,14,14,14,14,15,15,16
participant_4_MINIONSKILLED,0,0,0,0,0,1,2,2,2,2,2,5,7,9,11,11,11,11,11,12,14,16,17,22,22,25,26,28,28,29,29,30,30,30
participant_4_KILLS,0,0,0,1,1,2,3,3,3,5,5,5,6,6,7,8,8,8,10,10,10,11,11,11,11,11,11,12,13,13,13,14,14,14
participant_4_BUY,[],"[1055, 2003, 3340]",[],"[1055, 1042]",[2031],[3006],[],[],[3086],[1042],[3046],[],[],[1038],[],[],[],[3031],[1036],"[1053, 1029]",[],[3082],[],[],[],[],[3143],[],[],"[1038, 3140]",[],[],[],[]
participant_4_SOLD,[],[],[],[],[2003],[1042],[],[],[],[2031],"[2031, 1042, 3086]",[],[],[],[],[],[],[1038],[],"[1036, 1055]",[],[1029],[],[],[1055],[],[3082],[],[],[1055],[],[],[],[]
participant_4_UNDO,[],[],[],[],[],[],[],[],[],[],"[[2031, 0]]",[],[],[],[],[],[],[],[],[],[],[],[],[],"[[1055, 0]]",[],[],[],[],"[[0, 1038]]",[],[],[],[]
participant_5_GOLD,500,500,584,1118,1406,1811,2053,2360,2579,2723,2992,3227,3475,4031,4489,4625,4975,5733,6281,7360,7628,9014,9136,9501,9770,10360,10606,10774,10896,11108,11657,11800,12073,12121
participant_5_CURRENTGOLD,500,0,84,618,256,61,303,60,279,423,692,927,1175,106,564,400,750,1508,656,1735,2003,1319,641,1006,85,675,922,219,341,221,769,563,436,213
participant_5_LEVEL,1,1,1,3,4,5,5,6,6,6,7,8,8,9,9,10,10,11,11,12,13,13,13,14,14,14,15,15,15,15,15,15,15,15
participant_5_MINIONSKILLED,0,0,3,10,17,22,29,37,40,41,50,57,64,69,71,72,81,93,100,103,108,112,112,115,119,128,131,131,131,132,143,144,144,144
participant_5_KILLS,0,0,0,0,0,0,0,0,0,0,0,0,0,0,0,0,0,0,0,0,0,0,0,0,1,1,1,1,1,2,2,2,3,3
participant_5_BUY,[],"[1055, 2003, 3340]",[],[],[],"[1001, 1042]",[1042],[3006],[],[1042],[],"[1018, 3086]",[],[],[],[],[],"[1038, 1037]",[],[],[],[3031],[1042],[1036],[],[],"[3046, 1036]",[],[],"[1038, 1053]",[],[3072],[1036],[1038]
participant_5_SOLD,[],[],[],[2003],[],[],[],"[1001, 1042]",[],[],[],"[1018, 1042]",[],[],[],[],[],[],[],[],[],"[1038, 1037]",[],[1042],[],[],"[1042, 3086]",[],[],"[1055, 1036]",[],"[1038, 1036, 1053]",[],[]
participant_5_UNDO,[],[],[],[],[],[],[],[],[],[],[],[],[],[],[],[],[],[],[],[],[],[],[],[],[],[],[],[],[],[],[],[],[],[]
participant_6_GOLD,500,500,621,1018,1423,2496,2704,2851,3273,4081,4329,4612,4759,5224,5598,5953,6227,6719,6916,7265,7436,7943,8128,8300,8569,8891,9013,9226,9348,9470,9698,9855,10113,10311
participant_6_CURRENTGOLD,500,0,121,518,923,1996,379,1,423,181,429,712,259,724,248,603,477,136,33,382,103,260,445,617,886,608,31,243,365,488,325,213,471,608
participant_6_LEVEL,1,1,2,3,4,5,6,6,7,8,8,9,9,9,10,10,11,11,11,11,12,12,12,12,13,13,13,13,13,13,13,14,14,14
participant_6_MINIONSKILLED,0,0,0,0,0,3,3,3,4,4,5,6,6,6,6,10,12,13,13,13,16,17,21,21,25,25,25,26,26,26,26,28,30,30
participant_6_KILLS,0,0,0,0,0,0,0,0,1,1,1,2,2,2,2,2,2,2,2,2,2,2,2,2,2,2,2,2,2,2,2,2,2,2
participant_6_BUY,[],"[3854, 2003, 2003, 3340]",[],[],[],[1028],[],"[3067, 2055]",[],[],"[3067, 1031, 1001]",[],[],[],"[3109, 1029]",[],"[1028, 1033]",[],[3105],[],[],[],"[1029, 1027]",[3024],[],[3050],[],[],"[3047, 2055]",[],[],[],[2420],[]
participant_6_SOLD,[],[],[],[],"[2003, 2010, 2003]",[2010],[],[1028],[],"[2010, 2055]",[],[],[],[3854],"[3067, 1031]",[],[],[],"[1033, 1029]",[],[],[],[],"[1027, 1029]",[],"[3105, 3024]",[],[],"[3855, 1001]",[],[2055],[],[],[]
participant_6_UNDO,[],[],[],[],[],[],[],[],[],[],"[[0, 3067]]",[],[],[],[],[],"[[0, 1028]]",[],[],[],[],[],[],[],[],[],[],[],[],[],[],[],[],[]
participant_7_GOLD,500,500,612,920,1218,1403,1704,2001,2318,2518,2822,3306,3442,3815,4368,4637,4952,5618,5853,6227,6559,6939,7312,7484,8284,8601,8766,9085,9528,10423,10883,11400,12648,12695
participant_7_CURRENTGOLD,500,0,112,420,718,303,304,101,418,318,622,6,142,515,1068,1337,1652,143,378,752,1084,239,312,344,1144,1461,377,695,1138,364,823,391,1288,-355
participant_7_LEVEL,1,1,1,3,4,4,5,6,7,7,7,8,8,8,9,9,10,10,10,11,11,12,12,12,13,13,13,14,14,14,15,15,16,16
participant_7_MINIONSKILLED,0,0,5,13,23,27,34,44,53,57,68,76,77,82,94,103,110,120,124,135,141,148,158,158,170,178,181,193,207,212,222,230,232,232
participant_7_KILLS,0,0,0,0,0,0,2,2,2,4,4,4,4,4,4,4,4,4,4,4,4,4,4,5,5,5,6,6,6,7,7,8,8,10
participant_7_BUY,[],"[1055, 2003, 3340]",[],[],[],[],[],"[3006, 1053, 2003]",[],[],"[3144, 1043]","[1042, 1042]",[],[],[3153],[],[1043],[],"[1037, 3363]",[],[],[3124],[],[1037],[],[],[],[],[1038],[],"[3031, 1042, 1042]",[],[],[]
participant_7_SOLD,[],[],[],[],[],[2003],[],[],[],[2003],[1053],[],[],[],"[3144, 1043]",[],"[1042, 1042]",[],[3340],[],[],"[1043, 1037]",[],[],[],[],[],[],[],[],"[1038, 1037, 1055]",[],[],[]
participant_7_UNDO,[],[],[],[],[],[],[],[],[],[],[],[],[],[],[],[],[],[],[],[],[],[],[],[],[],[],[],[],[],[],[],[],[],[]
participant_8_GOLD,500,500,563,920,1162,1515,2505,2662,3242,4254,4475,4941,5337,5670,5813,6097,6303,6820,7098,7464,8009,8131,8553,9436,9642,9849,10453,10643,10807,11812,11934,12720,12844,13932
participant_8_CURRENTGOLD,500,0,63,420,662,1015,2005,112,692,1704,225,91,487,820,263,547,353,870,273,639,1184,81,503,511,717,925,1528,1718,583,1587,65,851,974,1882
participant_8_LEVEL,1,1,1,2,3,4,5,5,6,7,7,8,8,8,8,9,9,10,10,10,11,11,11,12,12,13,13,13,13,14,14,15,15,15
participant_8_MINIONSKILLED,0,0,2,13,20,31,42,44,57,69,75,83,96,108,109,118,123,135,141,151,155,155,168,176,181,181,190,192,194,207,207,210,210,210
participant_8_KILLS,0,0,0,1,1,1,1,1,1,1,1,1,1,2,3,3,3,4,4,5,5,7,7,7,7,8,8,8,8,8,8,8,8,8
participant_8_BUY,[],"[1054, 2003, 3340]",[],[],"[1001, 1029, 2003]","[1031, 2003, 2003]",[],"[1028, 2031]",[],[],[],[],[],"[3068, 2055]",[],[1029],[],[],"[3024, 3111]",[],[],"[3025, 1042]",[3101],[],[3044],[],[],[3057],[],[3078],[],"[3067, 1036]",[1028],[]
participant_8_SOLD,[],[],[],[2003],[2003],[1029],"[2003, 2003]",[],[],[],[],[],[],"[1031, 1028]",[],[],[],[],"[1029, 1001]",[],[],"[3024, 2055]",[1042],[],[2031],[],[],[1054],[],"[3101, 3057, 3044]",[],[],[],[]
participant_8_UNDO,[],[],[],[],[],[],[],[],[],[],[],[],[],[],[],[],[],[],[],[],[],[],[],[],[],[],[],[],[],[],[],"[[0, 3067]]",[],[]
participant_9_GOLD,500,500,544,706,904,1038,1431,1565,2082,2409,2574,3009,3221,3382,3673,3813,3953,4144,4334,4607,4768,5033,5174,5364,5526,5816,6031,6172,6402,6556,6712,6852,6994,7199
participant_9_CURRENTGOLD,500,0,44,206,404,138,531,190,707,1034,99,534,746,907,298,438,128,319,159,432,593,858,349,289,451,491,706,847,202,357,512,652,144,349
participant_9_LEVEL,1,1,1,2,3,3,4,4,5,6,6,7,7,7,8,8,8,8,8,8,8,9,9,9,10,11,11,11,11,12,12,13,13,13
participant_9_MINIONSKILLED,0,0,1,3,6,6,9,9,11,13,15,15,16,17,17,17,17,17,17,20,21,21,21,21,22,22,22,22,23,24,25,25,25,25
participant_9_KILLS,0,0,0,0,0,2,2,2,2,3,3,3,3,3,3,3,3,4,4,4,4,5,5,5,5,5,5,5,5,5,5,5,5,5
participant_9_BUY,[],"[2031, 1041, 3340]",[],[],[],[],"[3706, 3133, 2055]",[1400],[],[3057],[],[],"[1042, 1042]",[],"[3101, 1036]",[],[1028],[3078],[1001],[],[1033],[3111],[],[],[],"[1042, 1042]","[1043, 1042]",[],[],[],[1033],[1057],[],[]
participant_9_SOLD,[],[],[],[],[],[],[1041],"[3133, 3706]",[2055],[],[],[],[],[],"[1042, 1042]",[],[3340],"[3101, 3057, 1028, 1036]",[],[],[3513],"[1001, 1033]",[],[],[],[],"[1042, 1042]",[],[],[],[2031],[1033],[],[]
participant_9_UNDO,[],[],[],[],[],[],[],[],[],[],[],[],[],[],[],[],[],[],[],[],[],[],[],[],[],[],[],[],[],[],[],[],[],[]
team0_KILLS,0,0,0,1,2,4,5,6,6,9,9,11,12,12,14,16,16,18,22,22,25,29,30,32,33,34,36,37,38,42,43,44,48,50
team0_CURRENTGOLD,2500,0,325,1542,3097,3557,2982,2984,3247,3395,2287,4737,2613,2094,4894,5382,7620,4044,6658,3506,4526,3989,5879,7656,8368,7517,6729,6270,8225,8481,7167,4636,8199,5947
team0_TOTALGOLD,2500,2500,2825,4842,6527,8562,10347,12149,13812,16160,17252,19702,21033,22214,25014,28202,30440,32414,35378,36816,39036,41831,44972,46748,48211,49910,51941,53482,55435,58649,60471,62231,65792,66950
team0_LEVEL,5,5,5,11,17,22,23,26,31,33,35,39,41,42,45,47,49,51,54,56,57,60,65,66,67,68,71,72,73,76,76,78,80,82
team0_SBIRES,0,0,11,43,68,92,120,142,182,207,230,255,273,288,325,348,380,393,426,431,454,469,473,495,503,525,536,547,561,586,595,612,629,643
team1_KILLS,0,0,0,1,1,3,5,5,6,9,9,10,10,11,12,12,12,14,14,15,15,18,18,19,20,21,22,22,22,24,24,25,26,28
team1_CURRENTGOLD,2500,0,424,2182,2963,3513,3522,464,2519,3660,2067,2270,2809,3072,2441,3325,3360,2976,1499,3940,4967,2757,2250,2767,3283,4160,3564,3722,2629,3017,2494,2670,3313,2697
team1_TOTALGOLD,2500,2500,2924,4682,6113,8263,10397,11439,13494,15985,17192,19095,20234,22122,23941,25125,26410,29034,30482,32923,34400,37060,38303,40085,41791,43517,44869,45900,46981,49369,50884,52627,54672,56258
team1_LEVEL,5,5,6,13,18,21,25,27,31,34,35,40,40,41,44,46,48,50,50,52,55,57,57,59,62,64,65,66,66,68,69,72,73,73
team1_SBIRES,0,0,11,39,66,89,117,137,165,184,213,237,259,282,297,320,343,378,395,422,441,453,480,491,517,534,549,564,581,601,623,637,641,641
delta_KILLS,0,0,0,0,1,1,0,1,0,0,0,1,2,1,2,4,4,4,8,7,10,11,12,13,13,13,14,15,16,18,19,19,22,22
delta_CURRENTGOLD,0,0,-99,-640,134,44,-540,2520,728,-265,220,2467,-196,-978,2453,2057,4260,1068,5159,-434,-441,1232,3629,4889,5085,3357,3165,2548,5596,5464,4673,1966,4886,3250
delta_TOTALGOLD,0,0,-99,160,414,299,-50,710,318,175,60,607,799,92,1073,3077,4030,3380,4896,3893,4636,4771,6669,6663,6420,6393,7072,7582,8454,9280,9587,9604,11120,10692
delta_LEVEL,0,0,-1,-2,-1,1,-2,-1,0,-1,0,-1,1,1,1,1,1,1,4,4,2,3,8,7,5,4,6,6,7,8,7,6,7,9
delta_SBIRES,0,0,0,4,2,3,3,5,17,23,17,18,14,6,28,28,37,15,31,9,13,16,-7,4,-14,-9,-13,-17,-20,-15,-28,-25,-12,2
