name,frame_0,frame_1,frame_2,frame_3,frame_4,frame_5,frame_6,frame_7,frame_8,frame_9,frame_10,frame_11,frame_12,frame_13,frame_14,frame_15,frame_16,frame_17,frame_18,frame_19,frame_20,frame_21,frame_22,frame_23,frame_24,frame_25,frame_26,frame_27,frame_28,frame_29,frame_30,frame_31,frame_32,frame_33,frame_34
nameStamp,Tstart,Tearly,Tearly,Tearly,Tearly,Tearly,Tearly,Tearly,Tearly,Tearly,Tearly,Tearly,Tearly,Tearly,Tmid,Tmid,Tmid,Tmid,Tmid,Tmid,Tmid,Tmid,Tmid,Tmid,Tmid,Tmid,Tmid,Tmid,Tmid,Tmid,Tmid,Tmid,Tmid,Tmid,Tmid
timestamp,0,60017,120018,180057,240072,300100,360100,420108,480121,540126,600135,660139,720144,780155,840163,900190,960214,1020217,1080243,1140249,1200264,1260298,1320315,1380328,1440349,1500361,1560383,1620403,1680418,1740445,1800467,1860497,1920507,1980511,2040511
participant_0_GOLD,500,500,597,853,1359,1649,2363,2562,2769,3094,3457,3745,4577,5163,5534,6011,6503,7263,7560,7866,7989,8111,8415,9146,9418,10037,10603,11015,12356,12562,12872,13204,13549,13727,14000
participant_0_CURRENTGOLD,500,0,97,353,359,649,1363,162,369,694,7,295,1127,138,509,986,328,1088,295,601,324,446,750,1481,278,897,1463,955,296,502,813,344,689,868,900
participant_0_LEVEL,1,1,1,3,4,5,6,7,7,8,8,9,9,10,10,11,11,11,12,12,12,12,13,13,13,14,14,14,15,15,15,16,16,16,16
participant_0_MINIONSKILLED,0,0,4,12,24,30,45,49,54,66,77,84,88,96,107,122,122,137,143,146,146,146,151,156,156,164,165,173,173,179,179,187,190,193,193
participant_0_KILLS,0,0,0,0,0,0,0,0,0,0,0,0,0,0,1,1,2,2,3,3,3,3,3,3,4,4,5,5,5,5,5,5,5,5,5
participant_0_BUY,[],"[1056, 2003, 2003, 3340]",[],[],[],"[1052, 1052, 2055]","[1027, 2003, 2055]",[3802],[],[],[1026],[],"[2003, 2003]",[3020],[],[],[6655],[1052],"[3145, 3145]",[],[1058],[],[4628],[],[],[],[],"[1058, 1058]",[],[],[],[3089],[],[],[]
participant_0_SOLD,[],[],[],[2003],"[2403, 2003]",[2403],[],"[2403, 1052, 1027]",[2003],[],[],[],[2003],[2422],[2055],[],"[3802, 1026]",[],"[1052, 1052]",[],[],[],"[1058, 3145]",[],[],[],[],[],[],[],[],"[1056, 1058, 1058]",[],[],[]
participant_0_UNDO,[],[],[],[],[],"[[0, 2055], [0, 1052]]",[],[],[],[],[],[],"[[0, 2003]]",[],[],[],[],[],"[[0, 3145]]",[],[],[],[],[],[],[],[],[],[],[],[],[],[],[],[]
participant_1_GOLD,500,500,620,913,1818,2043,2251,2779,2901,3307,4014,4237,5077,5614,5949,6306,6629,6836,7059,7421,7628,7796,8173,8467,8611,9038,9598,9940,10262,10444,10626,10751,10874,11010,11454
participant_1_CURRENTGOLD,500,0,120,413,1318,1543,276,804,226,632,939,212,1052,164,99,456,139,346,219,581,38,56,433,727,121,549,1108,1450,1173,179,362,137,259,396,779
participant_1_LEVEL,1,1,2,2,4,4,5,5,5,6,7,7,8,8,8,9,9,9,10,10,10,11,11,12,12,12,13,13,13,13,14,14,14,14,14
participant_1_MINIONSKILLED,0,0,0,0,0,0,0,1,1,1,1,1,6,6,6,6,6,6,6,7,7,7,15,20,21,26,27,27,27,31,32,32,32,33,34
participant_1_KILLS,0,0,0,0,1,1,1,1,1,1,1,1,1,1,1,1,1,1,2,3,3,5,5,5,5,5,6,6,6,6,6,6,6,6,6
participant_1_BUY,[],"[3854, 2003, 2003, 3340]",[],"[2031, 2055]",[],"[1036, 1036]",[],[3134],[],[],[],"[3133, 3364, 2055]",[],[3179],[],"[1036, 2055]",[],[1001],[3134],[],[3047],[],"[1053, 1036]",[],[],[],[6692],"[1036, 1036]",[],[3133],[],"[1029, 1031]",[],[],[]
participant_1_SOLD,[],[],[],"[2003, 2003]",[],[],[],"[1036, 1036]",[],[],[3854],"[3340, 2055]",[2055],"[3134, 3133]",[],[],[3855],[],[1036],[],"[1001, 2055]",[],[2031],[],[],[],"[3134, 1036, 1053]",[],[],"[1036, 1036]",[],[1029],[],[],[]
participant_1_UNDO,[],[],[],[],[],[],[],[],[],[],[],[],[],[],[],[],[],[],[],[],[],[],[],[],[],[],[],[],[],[],[],[],[],[],[]
participant_2_GOLD,500,500,590,929,1233,1474,1782,2110,2350,2999,3205,3411,3592,3806,4473,4736,5540,5973,6757,7065,7439,7862,7984,8236,8771,8893,10272,10548,10870,11048,11479,11691,12251,12621,12743
participant_2_CURRENTGOLD,500,0,90,419,723,529,352,165,405,1044,400,606,737,151,808,1071,625,623,792,1100,224,647,69,321,856,978,2357,133,455,634,1064,136,697,1066,1068
participant_2_LEVEL,1,1,1,3,4,5,6,6,7,8,8,9,9,9,10,10,11,11,11,12,12,13,13,13,13,13,14,14,14,14,15,15,16,16,16
participant_2_MINIONSKILLED,0,0,4,13,23,30,38,50,57,75,80,85,88,91,103,111,119,125,132,140,151,157,157,160,167,167,171,176,176,179,190,191,205,216,216
participant_2_KILLS,0,0,0,1,1,1,1,1,1,1,2,2,2,2,3,3,3,3,3,4,4,5,5,5,5,5,5,6,6,6,8,8,8,8,8
participant_2_BUY,[],"[1055, 2003, 3340]",[],[],"[1036, 1036, 1001]",[],[],"[3134, 1036]",[],[],[3133],[],[],"[6693, 1036]",[1036],[],[],"[3134, 1018]",[],[],[1037],[6676],[1042],[],[3006],[],"[1036, 1036]",[],"[3133, 1018]",[],[6675],[],[],[1018],[]
participant_2_SOLD,[],[],[],[2003],[],[],[],"[1036, 1036]",[],[],[1036],[],[],"[3134, 3133]",[],[],[],"[1036, 1036]",[],[],[],"[3134, 1037, 1018]",[],[],"[1001, 1042]",[],[],[],"[1036, 1036]",[],"[3133, 1018]",[],[],[],[]
participant_2_UNDO,[],[],[],[],[],[],[],[],[],[],[],[],[],[],[],[],[],[],[],[],[],[],[],[],[],[],[],[],[],[],[],[],[],[],[]
participant_3_GOLD,500,500,562,1166,1548,1824,1989,2350,2663,2898,3649,3947,4216,4521,5014,5325,5714,5850,6126,6766,6912,7479,7818,8120,8377,8507,8728,9506,9682,9922,11423,11637,11846,12221,12470
participant_3_CURRENTGOLD,500,0,62,666,48,324,489,100,413,648,649,947,1216,171,314,625,1014,150,426,1066,337,479,518,820,577,707,228,1007,182,422,224,437,647,422,670
participant_3_LEVEL,1,1,1,2,3,3,4,4,5,5,6,6,7,7,7,8,8,8,8,9,9,10,10,11,11,11,11,12,13,13,13,13,14,14,14
participant_3_MINIONSKILLED,0,0,2,11,15,21,23,29,37,43,48,59,65,73,73,80,81,82,87,87,88,88,96,99,103,103,105,117,117,120,121,126,130,136,144
participant_3_KILLS,0,0,0,0,0,0,1,1,1,1,1,1,2,2,2,2,3,4,4,4,4,4,4,5,5,6,7,7,10,10,10,10,10,10,10
participant_3_BUY,[],"[1055, 2003, 3340]",[],[],"[1036, 2031]",[],[],"[3134, 1036, 1001]",[],[],"[3133, 1029]",[],[],"[6693, 3047, 2055]",[],[],"[3123, 1036]",[],"[3133, 1028]",[],[3067],[],[],[],"[3071, 2055]",[],[],[3044],"[1037, 3053]",[],[],[3067],[],[],[]
participant_3_SOLD,[],[],[],[],[2003],[],[],[1036],[],[],[1036],[],[],"[3134, 3133, 1001, 1029]",[],[2055],[],[],"[1036, 2031]",[],[1028],[],[],[],"[3133, 3067]",[],[],"[1055, 2055]","[1037, 3044]",[],[],[],[],[],[]
participant_3_UNDO,[],[],[],[],[],[],[],[],[],[],[],[],[],[],[],[],[],[],[],[],[],[],[],[],[],[],[],[],[],[],[],[],[],[],[]
participant_4_GOLD,500,500,543,807,1378,1666,1842,2139,2370,2505,3094,3263,3505,3730,4038,4283,4571,4711,5342,5932,6105,6985,7125,7512,7662,7806,8326,8634,8960,9160,9582,9896,10042,10183,10323
participant_4_CURRENTGOLD,500,0,43,82,653,241,417,314,535,670,1259,253,495,120,428,248,536,376,257,847,220,1100,50,437,587,731,401,9,335,135,557,71,218,358,448
participant_4_LEVEL,1,1,1,2,3,3,4,4,5,5,6,6,6,7,7,8,8,9,9,10,10,11,11,11,11,12,12,13,13,13,13,14,14,14,14
participant_4_MINIONSKILLED,0,0,1,2,6,12,14,16,19,19,23,25,27,29,32,34,35,35,35,36,37,38,38,39,40,40,41,41,47,49,51,57,57,57,57
participant_4_KILLS,0,0,0,0,2,2,2,3,3,3,4,4,4,4,4,4,4,4,4,4,4,4,4,4,4,4,4,4,4,4,4,4,4,4,5
participant_4_BUY,[],"[1039, 3340, 2031]",[],[],[],[],"[3134, 1001, 2055, 3364]",[],"[1036, 1036]",[],[3133],"[3009, 1036]",[],"[6691, 1036, 2055]",[3134],[],"[1036, 1036]",[],[1036],[],[3035],"[2055, 2055]",[],[],[3133],[],[],[],[3179],"[3133, 2055]",[],[1036],[],[],[]
participant_4_SOLD,[],[],[],[],[],[],[3340],[2055],[],[],"[1036, 1036]",[1001],"[3364, 1039, 3513]","[3134, 3133]","[1036, 1036]",[],[2031],[2055],[],[3364],"[1036, 1036]",[],[],"[3513, 2055]",[1036],[2055],[],[],"[3134, 3133]",[2055],[],[],[],[],[]
participant_4_UNDO,[],[],[],[],[],[],[],[],[],[],[],[],[],[],[],[],[],[],[],[],[],[],[],[],[],[],[],[],[],[],[],[],[],[],[]
participant_5_GOLD,500,500,520,769,1115,1517,1703,2108,2412,2646,3245,3578,3812,4194,4544,4834,5590,5879,6240,6362,6668,7281,7553,8067,8303,8855,8978,9283,9896,10375,11069,11639,12037,12994,14087
participant_5_CURRENTGOLD,500,0,20,269,165,567,53,458,362,596,1195,328,212,594,944,284,1040,229,590,362,668,1281,63,577,813,1365,338,293,907,185,879,1450,372,1330,2062
participant_5_LEVEL,1,1,1,3,3,5,5,6,7,7,8,9,9,10,10,10,11,11,12,12,12,12,12,13,13,14,14,14,14,15,15,16,16,16,17
participant_5_MINIONSKILLED,0,0,0,7,10,23,27,41,48,54,57,69,76,91,101,110,123,129,135,135,140,140,140,159,160,167,167,173,174,180,183,185,193,200,216
participant_5_KILLS,0,0,0,0,0,0,0,0,0,0,1,1,1,1,1,1,1,1,1,1,1,2,2,2,2,2,2,2,3,3,4,5,5,5,6
participant_5_BUY,[],"[1055, 3340, 2003]",[],[],[1055],[],"[1028, 1001]",[],[3067],[],[],[6029],[1036],[],[],[6630],[],[3133],[],[1036],[],[],"[1053, 3077, 3074]",[],[],[],"[3111, 1036]",[1036],[],"[3133, 3067]",[],[],"[3071, 2055]",[],[]
participant_5_SOLD,[],[],[],[],[],[],[],[],[1028],[],[2003],[],[],[],[],"[6029, 1036, 3067]",[],[],[],[],[],[],"[1036, 1055, 1055, 3077, 1053, 3133]",[],[],[],[1001],[],[],"[1036, 1036]",[],[],"[3133, 3067, 2055]",[],[]
participant_5_UNDO,[],[],[],[],[],[],[],[],[],[],[],[],[],[],[],[],[],[],[],[],[],[],[],[],[],[],[],[],[],[],[],[],[],[],[]
participant_6_GOLD,500,500,635,1013,1456,1760,1968,2220,2427,2835,3232,3490,3724,4271,4469,4716,5121,5720,5843,5965,6258,6555,6912,7420,7677,8229,8351,8931,9405,9688,10410,10532,10999,11398,11838
participant_6_CURRENTGOLD,500,0,135,513,81,385,593,845,1052,1460,1857,2115,2349,471,369,616,521,1120,143,265,558,455,812,1320,37,589,711,1291,1765,373,1095,117,585,308,688
participant_6_LEVEL,1,1,2,3,3,4,5,5,6,6,7,7,8,8,8,9,9,10,10,10,10,11,11,12,12,12,12,13,14,14,14,14,15,15,16
participant_6_MINIONSKILLED,0,0,0,0,0,0,0,0,0,0,0,0,0,0,0,0,0,1,1,1,1,1,1,6,6,8,8,13,20,20,20,20,20,20,23
participant_6_KILLS,0,0,0,1,2,2,2,4,4,4,4,4,4,4,4,4,5,5,5,5,6,8,10,11,13,13,13,13,17,17,17,17,17,19,19
participant_6_BUY,[],"[1055, 2003]",[],[],"[3134, 2003, 2003, 2003]",[2055],[],"[1053, 1036]",[],[],[6692],[],[],[],"[3009, 1036, 1036]",[],[],"[3134, 1037]",[],[],[6676],[],[3036],[],[],[],"[3086, 2015]",[3094],[],[1038],[],[],[],"[3031, 2140]",[]
participant_6_SOLD,[],[],[],[],[2003],[],[],[],[],[],"[3134, 1036, 1053]",[],[2055],[],"[2003, 2003, 2003]",[],[],"[1036, 1036]",[],[],"[3134, 1037]",[],[],[],[],[],[1055],"[3086, 2015]",[],[],[],[],[],"[1038, 2140]",[]
participant_6_UNDO,[],[],[],[],[],[],[],[],[],[],[],[],[],[],[],[],[],[],[],[],[],[],[],[],[],[],[],[],[],[],[],[],[],[],[]
participant_7_GOLD,500,500,611,962,1225,1494,2137,2451,2622,2829,3133,3403,3729,4371,4945,5298,5605,6094,6370,6576,6933,7131,7336,7864,8016,8898,9020,9309,9660,9846,11450,11828,12411,13179,14286
participant_7_CURRENTGOLD,500,0,111,452,715,984,177,481,652,124,428,698,549,51,615,968,475,114,390,596,118,316,521,549,701,1583,890,329,680,431,2036,698,1281,2049,3136
participant_7_LEVEL,1,1,1,3,4,5,5,6,7,7,8,8,9,10,10,10,11,11,11,12,12,12,13,13,13,14,14,14,15,15,15,16,16,17,17
participant_7_MINIONSKILLED,0,0,5,16,24,33,37,46,49,54,65,74,82,95,100,110,115,124,129,134,139,139,139,145,146,157,157,163,165,166,173,173,183,194,203
participant_7_KILLS,0,0,0,0,1,1,1,1,1,1,1,1,1,2,2,2,2,3,3,3,3,3,3,3,3,3,3,3,3,3,3,3,3,3,3
participant_7_BUY,[],"[1039, 3340, 2003, 2031]",[],[],[1037],[],[],[],[],[],[],[],[],[6630],[1029],[],[3047],[],"[1037, 3044]",[],[],[1028],[],[],[3053],[],[],[],[],"[1037, 1031]",[],[3133],[],"[6333, 1036]",[]
participant_7_SOLD,[],[],[],[],[],[],[],[],[],[1039],[],[],[],[1037],[],[],"[1029, 2422]",[],[],[],[],[],[],[],"[2031, 3044, 1028]",[],[],[],[],[],[],[],[],"[1031, 3133, 1037]",[]
participant_7_UNDO,[],"[[0, 2003]]",[],[],[],[],[],[],[],[],[],[],[],[],[],[],[],[],"[[0, 1037]]",[],[],[],[],[],[],[],[],[],[],[],[],[],[],[],[]
participant_8_GOLD,500,500,611,1341,1820,2145,2509,3336,3681,3972,4136,4532,4850,5248,5569,5817,6744,6866,7143,7545,8168,9241,10772,11286,12290,12923,13046,13544,15728,16150,16272,16394,16799,17695,17918
participant_8_CURRENTGOLD,500,0,111,841,70,320,684,261,606,897,211,607,925,1323,104,352,1279,126,403,805,403,1476,107,621,1625,2258,661,359,2544,1665,1787,1910,2314,611,593
participant_8_LEVEL,1,1,1,3,3,4,5,5,6,6,6,7,7,8,8,8,9,9,10,10,10,11,11,12,13,13,13,13,14,15,15,15,15,15,16
participant_8_MINIONSKILLED,0,0,5,14,17,26,37,43,53,62,64,76,87,98,101,109,118,118,122,128,129,129,135,142,152,156,156,170,179,185,185,185,189,189,189
participant_8_KILLS,0,0,0,0,0,0,1,1,1,1,1,1,1,1,2,2,2,2,2,2,2,2,2,3,3,4,4,4,4,4,7,7,7,7,9
participant_8_BUY,[],"[1056, 2003, 2003]",[],[],[],[],"[3802, 2031]",[],[],"[1001, 1052]",[],[],[3108],[6653],[],[],[3020],[1026],[],[],"[1052, 1028]",[],[],[1011],[],[],[4637],[1026],[],[1052],[],[3116],[],[],[]
participant_8_SOLD,[],[],[],"[2003, 2003]",[],[],[],[],[],[],[],[],[1052],"[2031, 3802, 3108]",[],[],[1001],[],[],[],[],[],[],[1028],[],[],"[1026, 1011, 1052]",[],[],[],[],"[1026, 1052]",[],[],[]
participant_8_UNDO,[],[],[],[],[],[],[],[],[],[],[],[],[],[],[],[],[],[],[],[],[],[],[],[],[],[],[],[],[],[],[],[],[],[],[]
participant_9_GOLD,500,500,564,851,1178,1375,1597,2052,2186,2363,2539,2800,2960,3253,4074,4237,4927,5157,5298,5460,5675,5891,6137,6428,6889,7129,7270,7411,7677,7868,8239,8402,8622,9012,9321
participant_9_CURRENTGOLD,500,0,64,51,378,175,397,452,136,313,489,750,910,1203,74,237,127,357,198,360,225,441,437,28,489,279,420,111,377,168,539,702,422,812,221
participant_9_LEVEL,1,1,1,2,3,3,4,4,5,5,5,6,6,7,7,8,8,9,9,9,9,9,10,10,11,11,11,11,12,12,13,13,13,14,14
participant_9_MINIONSKILLED,0,0,2,2,5,8,10,11,11,13,15,18,20,23,24,26,26,29,29,31,31,31,33,33,34,34,34,35,36,36,38,40,41,41,41
participant_9_KILLS,0,0,0,0,0,0,0,0,0,0,0,0,0,0,1,1,2,2,2,2,2,2,2,2,2,2,2,2,2,2,2,2,2,2,2
participant_9_BUY,[],"[3858, 2003, 2003, 3340]",[],[1029],[],[1028],[],[3067],[1033],[],[],[],[],[],"[3190, 3047, 3364]",[],[3067],[],[1029],[],[1027],[],[3024],[3050],[],[1033],[],[1057],[],[1028],[],[],[1011],[],[3001]
participant_9_SOLD,[],[],[],[2003],[],[],[],"[2003, 1028]",[],[],[],[],[3858],[],"[3067, 1033, 1029, 2422, 3340]",[],[],[],[],[],[],[],"[1027, 1029]","[3067, 3024]",[],[],[],[1033],[],[3859],[],[],[1028],[],"[1011, 1057]"
participant_9_UNDO,[],[],[],[],[],[],[],[],[],[],[],[],[],[],[],[],[],[],[],[],[],[],[],[],[],[],[],[],[],[],[],[],[],[],[]
team0_KILLS,0,0,0,1,4,4,5,6,6,6,8,8,9,9,11,11,13,14,16,18,18,21,21,22,23,24,27,28,31,31,33,33,33,33,34
team0_CURRENTGOLD,2500,0,412,1933,3101,3286,2897,1545,1948,3688,3254,2313,4627,744,2158,3386,2642,2583,1989,4195,1143,2728,1820,3786,2419,3862,5557,3554,2441,1872,3020,1125,2510,3110,3865
team0_TOTALGOLD,2500,2500,2912,4668,7336,8656,10227,11940,13053,14803,17419,18603,20967,22834,25008,26661,28957,30633,32844,35050,36073,38233,39515,41481,42839,44281,47527,49643,52130,53136,55982,57179,58562,59762,60990
team0_LEVEL,5,5,6,12,18,20,25,26,29,32,35,37,39,41,42,46,47,48,50,53,53,57,58,60,60,62,64,66,68,68,70,72,74,74,74
team0_SBIRES,0,0,11,38,68,93,120,145,168,204,229,254,274,295,321,353,363,385,403,416,429,436,457,474,487,500,509,534,540,558,573,593,614,635,644
team1_KILLS,0,0,0,1,3,3,4,6,6,6,7,7,7,8,10,10,12,13,13,13,14,17,19,21,23,24,24,24,29,29,33,34,34,36,39
team1_CURRENTGOLD,2500,0,441,2126,1409,2431,1904,2497,2808,3390,4180,4498,4945,3642,2106,2457,3442,1946,1724,2388,1972,3969,1940,3095,3665,6074,3020,2383,6273,2822,6336,4877,4974,5110,6700
team1_TOTALGOLD,2500,2500,2941,4936,6794,8291,9914,12167,13328,14645,16285,17803,19075,21337,23601,24902,27987,29716,30894,31908,33702,36099,38710,41065,43175,46034,46665,48478,52366,53927,57440,58795,60868,64278,67450
team1_LEVEL,5,5,6,14,16,21,24,26,31,31,34,37,39,43,43,45,48,50,52,53,53,55,57,60,62,64,64,65,69,71,72,74,75,77,80
team1_SBIRES,0,0,12,39,56,90,111,141,161,183,201,237,265,307,326,355,382,401,416,429,440,440,448,485,498,522,522,554,574,587,599,603,626,644,672
delta_KILLS,0,0,0,0,1,1,1,0,0,0,1,1,2,1,1,1,1,1,3,5,4,4,2,1,0,0,3,4,2,2,0,-1,-1,-3,-5
delta_CURRENTGOLD,0,0,-29,-193,1692,855,993,-952,-860,298,-926,-2185,-318,-2898,52,929,-800,637,265,1807,-829,-1241,-120,691,-1246,-2212,2537,1171,-3832,-950,-3316,-3752,-2464,-2000,-2835
delta_TOTALGOLD,0,0,-29,-268,542,365,313,-227,-275,158,1134,800,1892,1497,1407,1759,970,917,1950,3142,2371,2134,805,416,-336,-1753,862,1165,-236,-791,-1458,-1616,-2306,-4516,-6460
delta_LEVEL,0,0,0,-2,2,-1,1,0,-2,1,1,0,0,-2,-1,1,-1,-2,-2,0,0,2,1,0,-2,-2,0,1,-1,-3,-2,-2,-1,-3,-6
delta_SBIRES,0,0,-1,-1,12,3,9,4,7,21,28,17,9,-12,-5,-2,-19,-16,-13,-13,-11,-4,9,-11,-11,-22,-13,-20,-34,-29,-26,-10,-12,-9,-28
