name,frame_0,frame_1,frame_2,frame_3,frame_4,frame_5,frame_6,frame_7,frame_8,frame_9,frame_10,frame_11,frame_12,frame_13,frame_14,frame_15,frame_16,frame_17,frame_18,frame_19,frame_20,frame_21,frame_22,frame_23,frame_24,frame_25,frame_26
nameStamp,Tstart,Tearly,Tearly,Tearly,Tearly,Tearly,Tearly,Tmid,Tmid,Tmid,Tmid,Tmid,Tmid,Tmid,Tmid,Tmid,Tmid,Tmid,Tmid,Tmid,Tmid,Tmid,Tmid,Tmid,Tmid,Tmid,Tmid
timestamp,0,60005,120034,180056,240085,300103,360119,420138,480162,540183,600203,660227,720243,780261,840283,900300,960319,1020333,1080350,1140374,1200391,1260411,1320427,1380444,1440464,1500488,1560488
participant_0_GOLD,950,950,2095,2565,4043,4298,5795,6558,7058,7990,8936,9364,10035,10341,11457,12322,12867,13106,13482,13750,14884,15389,15662,15986,17100,18519,19323
participant_0_CURRENTGOLD,950,15,1160,1630,3108,598,2095,388,888,1820,2766,1454,2125,1181,1047,1912,1358,1596,672,940,2074,879,1152,676,490,1910,1923
participant_0_LEVEL,3,3,3,4,5,6,7,8,8,9,10,10,11,12,12,13,14,14,14,15,16,16,16,17,17,18,18
participant_0_MINIONSKILLED,0,0,1,4,6,7,12,15,18,19,21,24,33,33,33,38,42,42,46,46,46,46,47,49,52,56,60
participant_0_KILLS,0,0,2,2,4,4,5,6,6,7,8,8,8,8,10,11,11,11,11,11,13,14,14,14,16,18,19
participant_0_BUY,[],"[1056, 2003, 2003, 1052, 3850, 2003, 2003]",[],[],[],"[3802, 3916, 1001]",[],"[3165, 3158, 3020]",[],[],[],[3285],[],[1058],[1058],[],[3089],[],"[1026, 1033]",[],[],[3102],[1026],[3028],"[3174, 3363]",[],[]
participant_0_SOLD,[],[],[2003],[],[2003],[1052],[],"[3916, 1001, 3158]",[],[3850],[],"[3802, 3851]",[],[],[],[],"[1058, 1058]",[],[],[],[],"[1033, 1026]",[],[],"[3028, 3340]",[],[]
participant_0_UNDO,[],"[[0, 2003], [0, 2003], [0, 1056]]",[],[],[],[],[],[],[],[],[],[],[],[],[],[],[],[],[],[],[],[],"[[0, 1026]]",[],[],[],[]
participant_1_GOLD,950,950,954,1711,2240,2534,3365,3681,4053,4528,5332,5739,6761,7121,7517,7733,8099,8491,8899,9118,10390,10606,10918,11403,11731,12057,12382
participant_1_CURRENTGOLD,950,0,4,261,790,1084,1915,256,328,803,1607,314,1336,796,192,408,774,266,674,353,1625,191,503,988,1317,408,672
participant_1_LEVEL,3,3,3,4,6,7,8,9,10,11,11,12,13,13,14,14,14,15,15,16,17,17,17,18,18,18,18
participant_1_MINIONSKILLED,0,0,1,5,13,13,23,28,34,41,41,41,44,47,52,52,52,55,56,57,59,59,61,68,69,69,70
participant_1_KILLS,0,0,0,1,1,1,2,2,2,2,3,4,5,5,5,5,5,5,5,5,7,7,7,7,7,7,7
participant_1_BUY,[],"[1027, 1028, 2003, 2003, 2003, 2003]",[],"[3010, 2031]",[],[],[],"[3001, 2055]",[1001],[],[],"[3111, 1033, 1033]",[],"[3211, 1006]",[3194],[],[],[3108],[],"[1033, 2055, 2055, 3363]",[],[3102],[],[],[],"[3028, 1052]",[]
participant_1_SOLD,[],[],"[2003, 2003, 2003, 2003]","[1028, 1027]",[],[],[],[3010],[],[],[2055],[1001],[],[1033],"[1033, 3211, 1006]",[],[],[],[],"[2031, 3340, 2055]",[],"[3108, 1033]",[],[2055],[],[],[]
participant_1_UNDO,[],[],[],[],[],[],[],[],[],[],[],[],[],[],[],[],[],[],[],[],[],[],[],[],[],[],[]
participant_2_GOLD,950,950,1280,1883,2479,3684,4630,5101,6153,6610,7608,7924,8947,9710,10340,10790,11211,11620,13381,13779,13995,14422,14818,15283,15499,16368,16752
participant_2_CURRENTGOLD,950,0,330,933,229,1434,2380,651,1703,2160,158,474,1497,210,841,1290,621,1030,2791,464,680,1107,138,604,820,1688,1752
participant_2_LEVEL,3,3,3,4,5,6,8,8,9,10,10,11,12,12,13,14,14,14,15,16,16,17,17,17,17,18,18
participant_2_MINIONSKILLED,0,0,5,15,18,28,36,47,55,56,58,63,65,65,77,83,86,90,96,105,105,111,116,121,121,122,124
participant_2_KILLS,0,0,0,0,0,2,2,2,4,4,6,6,8,9,9,9,9,9,12,12,12,12,12,12,12,14,14
participant_2_BUY,[],"[1056, 2003, 2003, 1056, 1056, 1056, 2003, 2003, 2003, 3340]",[],[],[3802],[],[],"[3285, 1001]",[],[],[3165],[],[],"[3020, 1058]",[],[],[1058],[],[],"[3089, 1026, 1052, 2139]",[],[],[3135],[],[],[],[]
participant_2_SOLD,[],[],"[2003, 2003]",[],[2003],[],[],[3802],[],[],[],[],[],[1001],[],[],[1056],[],[],"[1058, 1058, 1056, 2139]",[],[],"[1026, 1052]",[],[],[],[]
participant_2_UNDO,[],"[[0, 1056], [0, 2003], [0, 2003], [0, 1056]]",[],[],[],[],[],[],[],[],[],[],[],[],[],[],[],[],[],[],[],[],[],[],[],[],[]
participant_3_GOLD,950,950,979,1249,1567,2181,2529,2745,3040,3462,3737,4109,4930,5146,5496,5857,6123,7075,7291,7604,7865,8324,9668,9934,10150,10603,10856
participant_3_CURRENTGOLD,950,0,29,299,181,796,279,195,490,62,337,709,1530,56,406,767,183,1135,101,414,675,1134,2478,394,175,628,561
participant_3_LEVEL,3,3,3,4,5,6,7,7,8,8,9,10,11,11,12,12,12,13,13,13,14,14,15,15,15,16,16
participant_3_MINIONSKILLED,0,0,1,3,5,12,16,16,16,19,20,24,27,27,28,28,28,28,28,28,28,28,29,29,29,32,32
participant_3_KILLS,0,0,0,0,0,0,0,0,0,0,0,0,1,1,2,2,2,3,3,3,3,3,5,5,5,5,5
participant_3_BUY,[],"[1056, 1001, 1056, 2003, 2003, 3340, 2003]",[],[],[1052],[],[3802],[1001],[],"[3020, 1026]",[],[],[],"[3285, 3020]",[],[],[1026],[],"[1052, 1058]",[],[],[],[],[3089],[1052],[],[]
participant_3_SOLD,[],[],[],"[2003, 2003, 2003]",[],[],[1052],[],[],[1001],[],[],[],"[3802, 1026, 1056, 1056, 1001]",[],[],[],[],[],[],[],[],[],[1058],[],[],[]
participant_3_UNDO,[],"[[0, 1001]]",[],[],[],[],[],[],[],"[[0, 3020]]",[],[],[],"[[1056, 0]]",[],[],[],[],"[[0, 1052]]",[],[],[],[],[],[],[],[]
participant_4_GOLD,950,950,951,1249,1465,2326,2677,2893,3286,4098,4366,4646,4912,5243,5481,5898,6164,6891,7126,7342,7603,8139,8585,9561,10421,10942,11352
participant_4_CURRENTGOLD,950,0,1,299,115,976,1327,168,561,1373,291,136,327,258,657,148,414,342,576,792,203,740,185,1161,2022,2542,2632
participant_4_LEVEL,3,3,3,4,5,6,7,7,8,9,10,11,11,11,11,12,12,13,13,13,14,15,16,17,18,18,18
participant_4_MINIONSKILLED,0,0,0,3,3,7,12,12,14,18,18,21,21,21,21,30,30,33,34,34,34,38,45,59,66,69,70
participant_4_KILLS,0,0,0,0,0,1,1,1,1,2,2,2,2,2,2,2,2,3,3,3,3,3,3,3,4,4,4
participant_4_BUY,[],"[1026, 2003, 2003, 3340]",[],[],[1056],[],[],"[3802, 2055]",[],[],"[3285, 1001]","[1052, 3363]",[2055],[1028],[],[3916],[],[3020],[3111],[],[1026],[],"[3165, 1033]",[],[],[],[]
participant_4_SOLD,[],[],[],[2003],[],[2003],[],[],[],[2055],"[3802, 1026]",[3340],[],[1056],[1056],"[1028, 1052]",[2055],[1001],[1001],[],[],[],"[3916, 1026]",[],[],[],[]
participant_4_UNDO,[],[],[],[],[],[],[],[],[],[],[],[],[],"[[1056, 0]]",[],"[[1056, 0]]",[],[],"[[0, 3020]]",[],[],[],[],[],[],[],[]
participant_5_GOLD,950,950,951,1204,1447,1663,2080,2342,2594,3278,3512,3792,4053,4367,5533,5767,6028,6244,6488,6704,6919,7190,7513,7849,8065,8281,8434
participant_5_CURRENTGOLD,950,50,51,154,397,178,595,422,674,1418,402,682,943,407,1573,142,403,619,863,729,95,365,688,1024,150,366,139
participant_5_LEVEL,3,3,3,3,4,5,6,7,7,8,9,9,10,10,11,11,11,12,12,13,13,13,13,15,15,15,15
participant_5_MINIONSKILLED,0,0,0,2,3,3,9,11,13,14,15,18,20,20,20,21,21,21,21,21,21,24,25,26,26,26,26
participant_5_KILLS,0,0,0,0,0,0,0,0,0,1,1,1,1,1,2,2,2,2,2,2,2,2,2,2,2,2,2
participant_5_BUY,[],"[2003, 2003, 1056, 1028]",[],[2031],[],[1052],[],[1052],[],[],[1058],[],[],[1026],[],"[3116, 1028, 1027]",[],[],[],[3010],[1026],[],[],[],[1058],[],[]
participant_5_SOLD,[],[],[2003],"[2010, 2003]",[],[2010],[],[],[],"[1056, 2031]",[2010],[],[],[],[],"[1026, 1052, 1028]",[],[],[],"[1028, 1027]",[],[],[],[],[1056],[],[]
participant_5_UNDO,[],[],[],[],[],[],[],[],[],"[[1056, 0]]",[],[],[],[],[],[],[],[],[],[],[],[],[],[],[],[],[]
participant_6_GOLD,950,950,951,1313,2602,2818,3853,4477,5115,5767,6087,6594,6810,8581,9566,10334,10767,11487,11703,12822,13488,13704,14234,15574,15790,16742,16895
participant_6_CURRENTGOLD,950,0,1,363,1652,168,1203,1827,1275,1927,217,725,506,2277,246,1014,597,882,33,1152,1068,84,615,1334,1550,1652,-1305
participant_6_LEVEL,3,3,3,4,5,6,7,8,9,10,10,11,12,13,13,14,15,15,16,16,17,17,17,18,18,18,18
participant_6_MINIONSKILLED,0,0,0,7,15,15,24,30,37,43,44,58,58,64,71,75,79,81,81,86,86,86,88,88,88,97,97
participant_6_KILLS,0,0,0,0,2,2,3,3,3,3,3,3,3,5,6,7,7,8,8,9,10,10,10,12,12,13,13
participant_6_BUY,[],"[1056, 1056, 2031]",[],[],[],"[3041, 1001]",[],[],[1058],[],[3089],[],[1052],[],"[3157, 3111]",[],[1026],[1052],[3136],[],[3151],[3211],[],[3065],[],[1026],[3116]
participant_6_SOLD,[],[],[],[],[],[],[],[2419],[2031],[2423],"[1056, 1056, 1058]",[],[],[],"[1052, 2424, 1001]",[],[],[],[1052],[],"[3136, 1026]",[],[],"[3041, 3211]",[],[],[1026]
participant_6_UNDO,[],[],[],[],[],[],[],[],[],[],[],[],[],[],[],[],[],[],[],[],[],[],[],[],[],[],[]
participant_7_GOLD,950,950,951,1167,1983,2391,2661,2959,3733,3999,5397,5786,6066,6868,7582,7870,8605,8946,9216,9692,9908,10179,10845,11375,11692,11962,12115
participant_7_CURRENTGOLD,950,0,1,217,1033,590,111,409,1183,249,1347,1736,1216,2018,892,531,815,256,527,1002,1218,799,666,1196,312,132,-35
participant_7_LEVEL,3,3,3,3,5,7,7,8,9,10,10,11,11,13,14,14,15,15,15,16,16,16,17,17,18,18,18
participant_7_MINIONSKILLED,0,0,0,0,4,13,15,19,32,32,36,40,43,51,52,56,57,59,61,63,63,66,80,86,91,94,94
participant_7_KILLS,0,0,0,0,1,1,1,1,1,1,2,2,2,2,3,3,4,4,4,4,4,4,4,4,4,4,4
participant_7_BUY,[],"[1056, 1056, 2003, 2003, 2003]",[],[],[],"[1028, 1033]","[3211, 1028]",[],[],[3065],[1001],[],[3111],[],"[3191, 3108]",[3157],[1033],[3108],[],[],[],[1026],[3102],[],[3211],[1033],[]
participant_7_SOLD,[],[],[],[],[2003],[],"[1028, 1033]",[],[],"[3211, 1028]",[],[2419],[1001],"[2003, 2003]",[1056],"[3191, 3108, 2423]",[],[],[],[],[],[1056],"[3108, 1033, 1026]",[],[],[],[]
participant_7_UNDO,[],[],[],[],[],[],[],[],[],[],[],[],[],[],[],[],[],[],[],[],[],[],[],[],[],[],[]
participant_8_GOLD,950,950,951,1277,1990,2288,2743,4590,4901,5177,5393,6404,6620,7949,8240,8571,9914,10338,11059,11415,11721,12035,13505,13803,14019,14325,14478
participant_8_CURRENTGOLD,950,0,1,326,1040,603,1058,2905,501,342,123,254,70,200,491,822,2164,2589,824,1180,171,485,756,1054,610,916,228
participant_8_LEVEL,3,3,3,4,5,6,7,8,9,9,10,10,11,12,12,12,13,14,15,15,15,16,17,17,17,17,17
participant_8_MINIONSKILLED,0,0,0,4,9,13,15,21,22,23,23,25,25,26,26,26,31,37,40,43,43,43,46,50,50,50,50
participant_8_KILLS,0,0,0,0,0,0,0,2,2,2,2,3,3,5,5,5,6,6,7,7,7,7,9,9,9,9,9
participant_8_BUY,[],"[3108, 2003]",[],[],[],"[1001, 1052]",[],[],"[3905, 3158, 3145]",[1052],[1052],[3030],[1028],"[3211, 1028]",[],[],[],[],"[3065, 1026, 1052]",[],[3116],[],[3211],[],[3136],[],[]
participant_8_SOLD,[],[],[2003],[],[],[],[],[],"[3108, 1052, 1001]",[],[],"[1052, 1052, 3145]",[],[1028],[],[],[],[],"[3211, 1028]",[],"[1026, 1052]",[],[],[],[3211],[],[]
participant_8_UNDO,[],[],[],[],[],[],[],[],[],[],[],[],[],[],[],[],[],[],[],[],[],[],[],[],[],[],[]
participant_9_GOLD,950,950,951,1179,1437,1725,1953,2300,2641,3031,3247,3493,3709,4100,4443,4704,5561,5777,6100,6766,7017,7521,7737,7953,8336,8659,8812
participant_9_CURRENTGOLD,950,50,1,229,187,25,253,600,201,591,807,1053,419,810,1153,614,671,887,1210,1876,877,1382,348,564,946,1269,1262
participant_9_LEVEL,3,3,3,4,4,5,6,7,7,8,8,9,9,10,10,11,12,12,12,13,13,14,14,14,15,15,15
participant_9_MINIONSKILLED,0,0,0,0,0,0,0,5,7,8,8,9,9,11,13,15,23,23,24,24,24,30,30,30,30,31,31
participant_9_KILLS,0,0,0,0,0,0,0,0,0,0,0,0,0,0,0,0,1,1,1,2,2,2,2,2,2,2,2
participant_9_BUY,[],"[3850, 1056, 2003]","[2003, 2003]",[],[1001],[1033],[],[],[3108],[],[],[],[1026],[],[],[3102],[3020],[],[],[],[1058],[],[1058],[],[],[],[]
participant_9_SOLD,[],[],[2003],[2003],[],[2003],[],[],[3850],[],[],[],[],[],[],"[3108, 1033, 1026]",[1001],[],[],[],[],[],[],[],[],[],[]
participant_9_UNDO,[],[],[],[],[],[],[],[],[],[],[],[],[],[],[],[],[],[],[],[],[],[],[],[],[],[],[]
team0_KILLS,0,0,2,3,5,8,10,11,13,15,19,20,24,25,28,29,29,31,34,34,38,39,41,41,44,48,49
team0_CURRENTGOLD,4750,15,1524,3422,4423,4888,7996,1658,3970,6218,5159,3087,6815,2501,3143,4525,3350,4369,4814,2963,5257,4051,4456,3823,4824,7176,7540
team0_TOTALGOLD,4750,4750,6259,8657,11794,15023,18996,20978,23590,26688,29979,31782,35585,37561,40291,42600,44464,47183,50179,51593,54737,56880,59651,62167,64901,68489,70665
team0_LEVEL,15,15,15,20,26,31,37,39,43,47,50,54,58,59,62,65,66,69,70,73,77,79,81,84,85,88,88
team0_SBIRES,0,0,8,30,45,67,99,118,137,153,158,173,190,193,211,231,238,248,260,270,272,282,298,326,337,348,356
team1_KILLS,0,0,0,0,3,3,4,6,6,7,8,9,9,13,16,17,20,21,22,24,25,25,27,29,29,30,30
team1_CURRENTGOLD,4750,100,55,1289,4309,1564,3220,6163,3834,4527,2896,4450,3154,5712,4355,3123,4650,5233,3457,5939,3429,3115,3073,5172,3568,4335,289
team1_TOTALGOLD,4750,4750,4755,6140,9459,10885,13290,16668,18984,21252,23636,26069,27258,31865,35364,37246,40875,42792,44566,47399,49053,50629,53834,56554,57902,59969,60734
team1_LEVEL,15,15,15,18,23,29,33,38,41,45,47,50,53,58,60,62,66,68,70,73,74,76,78,81,83,83,83
team1_SBIRES,0,0,0,13,31,44,63,86,111,120,126,150,155,172,182,193,211,221,227,237,237,249,269,280,285,298,298
delta_KILLS,0,0,2,3,2,5,6,5,7,8,11,11,15,12,12,12,9,10,12,10,13,14,14,12,15,18,19
delta_CURRENTGOLD,0,-85,1469,2133,114,3324,4776,-4505,136,1691,2263,-1363,3661,-3211,-1212,1402,-1300,-864,1357,-2976,1828,936,1383,-1349,1256,2841,7251
delta_TOTALGOLD,0,0,1504,2517,2335,4138,5706,4310,4606,5436,6343,5713,8327,5696,4927,5354,3589,4391,5613,4194,5684,6251,5817,5613,6999,8520,9931
delta_LEVEL,0,0,0,2,3,2,4,1,2,2,3,4,5,1,2,3,0,1,0,0,3,3,3,3,2,5,5
delta_SBIRES,0,0,8,17,14,23,36,32,26,33,32,23,35,21,29,38,27,27,33,33,35,33,29,46,52,50,58
