name,frame_0,frame_1,frame_2,frame_3,frame_4,frame_5,frame_6,frame_7,frame_8,frame_9,frame_10,frame_11,frame_12,frame_13,frame_14,frame_15,frame_16,frame_17,frame_18,frame_19,frame_20,frame_21,frame_22,frame_23,frame_24,frame_25,frame_26,frame_27,frame_28,frame_29,frame_30,frame_31,frame_32,frame_33,frame_34
nameStamp,Tstart,Tearly,Tearly,Tearly,Tearly,Tearly,Tearly,Tearly,Tearly,Tearly,Tearly,Tearly,Tearly,Tearly,Tearly,Tmid,Tmid,Tmid,Tmid,Tmid,Tmid,Tmid,Tmid,Tmid,Tmid,Tmid,Tmid,Tend,Tend,Tend,Tend,Tend,Tend,Tend,Tend
timestamp,0,60029,120033,180059,240070,300071,360087,420117,480150,540183,600211,660240,720266,780270,840272,900301,960328,1020360,1080385,1140386,1200415,1260418,1320440,1380443,1440472,1500482,1560509,1620511,1680538,1740569,1800594,1860599,1920611,1980640,2040640
participant_0_GOLD,500,500,577,906,1403,1749,2019,2417,2769,3025,3252,3715,3977,4559,5002,5507,5830,6022,6297,6720,7262,7385,7825,8017,8190,8403,8943,9616,10026,10845,12007,12729,13409,14516,14605
participant_0_CURRENTGOLD,500,0,77,406,903,1249,294,692,1044,125,352,15,277,859,1302,407,355,47,322,745,1287,235,675,867,165,53,594,1266,176,996,2157,1279,1159,2266,2355
participant_0_LEVEL,1,1,1,3,4,5,6,7,7,8,8,8,9,10,10,11,11,11,11,12,12,12,13,13,13,13,14,14,15,15,16,16,16,17,17
participant_0_MINIONSKILLED,0,0,3,12,21,32,40,53,63,71,77,84,92,104,116,120,120,124,129,129,142,142,153,157,157,162,165,177,182,183,196,198,198,204,204
participant_0_KILLS,0,0,0,0,0,0,0,0,0,0,0,0,0,1,1,2,2,3,3,3,3,3,3,3,3,3,3,3,3,3,3,3,4,5,5
participant_0_BUY,[],"[1055, 2003]",[],[],[],"[1036, 1036]",[],[],"[6670, 2003]",[],[],[1037],[],"[1018, 2003]",[],"[6672, 1042]",[],"[3006, 1042]",[],"[1042, 1042, 1018]",[],"[3086, 1042]",[],[],[],[1037],[3085],[1042],[1042],[],"[1043, 1036]",[1053],[],[],[]
participant_0_SOLD,[],[],[],[],[],[2010],[],[2010],"[2010, 2003, 1036, 1036]",[],[],[],[],[],"[2003, 2003]","[6670, 1018, 1037]",[],"[1042, 2422]",[],[],[],"[1018, 1042]",[],[],[],[],"[1037, 3086, 1042]",[],[],[],"[1042, 1042]",[1036],[],[],[]
participant_0_UNDO,[],[],[],[],[],[],[],[],[],[],[],[],[],[],[],[],[],[],[],"[[0, 1042], [0, 1042]]",[],[],[],[],[],[],[],[],[],[],[],[],[],[],[]
participant_1_GOLD,500,500,621,956,1625,1833,2115,2518,2873,3081,3617,3874,4082,4715,4887,5685,6761,6884,7232,7859,7982,8204,8797,8940,9147,9365,9942,10180,10429,11935,12689,12950,13626,13849,13888
participant_1_CURRENTGOLD,500,0,121,456,1125,233,515,918,1273,1481,2017,2274,82,715,87,885,1961,184,532,1159,82,304,897,225,432,650,527,766,1014,2521,3275,236,912,1134,1113
participant_1_LEVEL,1,1,2,3,3,4,4,5,6,6,6,7,7,8,8,9,10,10,10,11,11,11,11,11,11,12,13,13,13,13,14,14,15,15,15
participant_1_MINIONSKILLED,0,0,0,0,0,0,0,0,1,1,3,3,3,3,3,3,8,8,8,10,10,10,10,11,13,13,14,15,15,15,15,15,15,15,15
participant_1_KILLS,0,0,0,0,0,0,0,1,1,1,1,1,1,2,2,3,3,3,3,4,5,5,5,5,5,6,6,6,6,6,7,8,8,9,9
participant_1_BUY,[],"[1056, 2003, 2003, 3340]",[],[],[],[],[],"[3802, 1052]",[2055],[],[],[6653],[],[],[],"[1011, 1026, 3020]",[4637],[2055],[],"[3191, 1052, 2055, 2055]",[],[],[1011],[],[],[],"[3116, 2055]",[],[2420],[],[],"[3157, 1058]",[],[],[]
participant_1_SOLD,[],[],[],[2003],[],[],[],[],[2055],[],[],"[3802, 1052]",[],[],[],"[1056, 2422]","[2003, 1026, 1011]",[2055],[],[],[],[2055],[2055],[],[],[],"[1011, 1052]",[2055],[],[],[],"[3191, 2420]",[],[],[]
participant_1_UNDO,[],[],[],[],[],[],[],[],[],[],[],[],[],[],[],[],[],[],[],[],[],[],[],[],[],[],[],[],[],[],[],[],[],[],[]
participant_2_GOLD,500,500,626,923,1232,1522,1764,2441,2738,3108,3437,4080,4463,5208,6399,7202,7816,8070,8431,9324,10053,10511,10697,11002,11175,11862,12284,12914,13273,13698,14968,15639,15949,16881,16920
participant_2_CURRENTGOLD,500,0,126,423,722,1002,1244,176,398,758,1087,55,428,1173,2354,767,131,310,671,79,808,1267,582,887,1060,1747,430,1059,768,1194,2464,935,1244,2176,2095
participant_2_LEVEL,1,1,1,3,4,5,6,7,8,8,9,9,10,11,11,12,12,12,13,13,14,14,14,14,14,15,15,16,16,16,17,17,17,18,18
participant_2_MINIONSKILLED,0,0,6,16,24,31,37,49,59,70,79,87,98,109,122,132,142,146,154,158,171,180,184,190,190,201,201,216,218,222,234,240,240,251,251
participant_2_KILLS,0,0,0,0,0,0,0,0,0,0,0,0,0,0,0,1,1,1,1,2,2,2,2,2,2,2,2,2,2,3,4,4,5,6,6
participant_2_BUY,[],"[1055, 2003, 3340]",[],[],[],[],"[3044, 2055, 2003]",[],[],"[3067, 1001, 2055]",[],[3111],[],[],[],"[6630, 3363]","[1029, 2055]",[1031],[],[],[],"[3133, 2055]",[],[],[1037],[6333],[],[],"[3044, 1028]",[],[],[3053],[3123],[],[]
participant_2_SOLD,[],[],[],[],[],[],[],[],[2055],[2003],[],[1001],[2055],[],[2003],"[3044, 3067, 3340]",[],"[2055, 1029]",[],[],[],[2055],[],[],[],"[1031, 3133, 1037]",[],[],[],[],[],"[3044, 1028]",[],[],[]
participant_2_UNDO,[],[],[],[],[],[],[],[],[],[],[],[],[],[],[],[],[],[],[],[],[],[],[],[],[],[],[],[],[],[],[],[],[],[],[]
participant_3_GOLD,500,500,584,962,1204,1375,1568,1893,2043,2427,2714,2916,3280,3702,4191,4589,4825,5397,5667,6148,6542,6749,7070,7223,7597,7890,8487,8765,9055,9384,9606,10129,10677,11283,11322
participant_3_CURRENTGOLD,500,0,84,462,704,175,368,693,193,577,864,191,555,327,816,289,525,297,567,448,842,449,770,923,1297,715,287,265,256,584,56,30,577,1183,1222
participant_3_LEVEL,1,1,1,2,3,3,4,4,5,5,6,6,7,7,7,8,8,10,10,10,11,11,12,12,12,12,13,13,13,14,14,14,15,15,15
participant_3_MINIONSKILLED,0,0,3,16,23,26,30,42,44,56,63,63,73,73,91,94,98,103,112,120,131,136,139,140,148,149,155,161,163,168,168,174,174,175,175
participant_3_KILLS,0,0,0,0,1,1,1,1,1,1,2,2,2,3,3,4,5,5,5,6,6,6,7,7,7,7,7,7,7,9,10,10,11,11,11
participant_3_BUY,[],"[1035, 2031, 3340, 3364]",[],[],[],[3134],[],[],[],[],[],[],"[1001, 6693]",[],[3047],[],[],"[1031, 3133]",[],[],[6333],[],[],"[1028, 1028, 2055]",[],[],[3044],[],[],[],[],"[3053, 1057, 3066]",[],[],[]
participant_3_SOLD,[],[3340],[],[],[],[],[],[],[],[1035],[],[],[3134],[],[1001],[],[],[],[],[3364],"[1031, 3133]",[],[],"[2031, 3513]",[],[2055],[1028],[],[],[],[],"[3044, 1028]",[],[],[]
participant_3_UNDO,[],[],[],[],[],[],[],[],[],[],[],[],[],[],[],[],[],[],[],[],[],[],[],[],[],[],[],[],[],[],[],[],[],[],[]
participant_4_GOLD,500,500,523,757,912,1106,1241,1445,1599,1795,2474,2693,3002,3334,3524,3897,4498,4638,4838,5319,5610,5751,5891,6032,6223,6691,7145,7346,7537,7750,8138,8397,8625,8865,8911
participant_4_CURRENTGOLD,500,0,23,257,412,81,216,420,574,770,1449,118,427,334,74,447,1048,438,163,644,135,276,416,557,273,741,696,896,13,225,613,72,300,240,286
participant_4_LEVEL,1,1,1,2,3,3,4,5,5,6,7,7,7,7,8,9,9,9,9,10,11,11,11,11,11,12,12,12,12,13,14,14,14,14,14
participant_4_MINIONSKILLED,0,0,0,0,0,0,0,1,1,2,2,2,3,4,4,8,9,9,9,10,11,11,11,12,12,14,15,17,17,17,21,21,21,21,21
participant_4_KILLS,0,0,0,0,0,0,0,0,0,0,1,1,1,1,1,1,2,2,2,2,2,2,2,2,2,3,3,3,3,3,3,3,3,3,3
participant_4_BUY,[],"[3850, 3340, 2003, 2003]",[],[],[],"[1028, 2055, 2003]",[],[],[],[],[],"[3067, 3047, 2003, 3364]",[],"[1029, 2055, 2003]",[1033],[],[],[3105],"[3190, 2055]",[],[3076],[],[],[],"[1028, 2055]",[],[1011],[],"[3075, 2055]",[],[],"[1033, 1029, 3067]",[],[1029],[]
participant_4_SOLD,[],[],[],[],[],"[2003, 2003]",[],[],[2003],[2055],[],"[3850, 1028, 3340]",[2003],[],[2003],[],[2055],"[1033, 1029]","[3067, 3105]",[3851],[],[],[],[2055],[],[],[1028],[2055],"[3076, 1011]",[2055],[],[],[],[],[]
participant_4_UNDO,[],[],[],[],[],[],[],[],[],[],[],[],[],[],[],[],[],[],[],[],[],[],[],[],[],[],[],[],[],[],[],"[[0, 1029], [0, 1033]]",[],[],[]
participant_5_GOLD,500,500,521,885,1155,1375,1659,1949,2273,2750,2872,3306,3512,3804,4712,5018,7007,7750,8415,8561,9005,9265,9799,10166,10452,10965,11477,11784,12104,12737,12994,13117,13514,13636,13676
participant_5_CURRENTGOLD,500,0,21,385,305,225,59,349,673,1150,172,606,462,4,912,1218,1857,2600,815,161,605,865,199,567,853,1365,677,985,1304,1938,725,847,1245,617,476
participant_5_LEVEL,1,1,1,3,3,4,5,6,7,8,8,8,9,9,10,10,11,12,12,12,13,13,13,14,14,14,15,15,15,16,16,16,16,16,16
participant_5_MINIONSKILLED,0,0,0,11,20,25,33,44,53,61,61,70,75,82,91,101,109,119,119,120,120,120,120,127,127,131,146,146,157,164,164,164,170,170,170
participant_5_KILLS,0,0,0,0,0,1,1,1,1,1,1,1,1,1,1,1,1,1,1,1,1,2,2,2,3,3,3,3,3,3,3,3,3,4,4
participant_5_BUY,[],[],"[3854, 3340, 2003, 2003]",[],[],[],"[3067, 2055, 2003]",[],[],[],[],"[1029, 1001, 2055, 3364]",[],"[1033, 2055, 2055]",[3105],[],[],[],"[3190, 1033, 2055, 2055]",[],"[3111, 2055]",[],[],[],[],"[3801, 3067, 2055, 2055]",[],[2055],[],[],"[2055, 2055]",[3109],[],[1004],[]
participant_5_SOLD,[],[],[],[],[2003],[],[2055],[],[],[],[3854],[3340],[2055],"[2003, 2003]","[1033, 1029]",[2055],[],[2055],"[3067, 3105]",[2055],"[1001, 1033, 3855]",[],[2055],[2055],[],[],[2055],[2055],[],[2055],[],"[3801, 3067]",[],[],[]
participant_5_UNDO,[],[],[],[],[],[],[],[],[],[],[],[],[],[],[],[],[],[],[],[],[],[],[],[],[],[],[],[],[],[],[],[],[],[],[]
participant_6_GOLD,500,500,621,1005,1310,1521,1729,1955,2367,2925,3362,3844,4066,5269,5602,6022,6444,7081,7674,7960,8398,8995,9518,9690,10097,10397,10564,10872,11185,11508,11679,11851,12404,12600,12640
participant_6_CURRENTGOLD,500,0,121,505,810,1021,54,280,692,1250,1687,2169,216,1419,1752,2172,394,1031,1624,10,448,1045,68,240,647,657,825,82,396,719,164,337,889,286,265
participant_6_LEVEL,1,1,2,3,4,4,4,5,5,6,7,8,8,9,9,10,10,11,11,11,11,12,13,13,13,14,14,14,14,15,15,15,15,15,15
participant_6_MINIONSKILLED,0,0,0,0,0,1,1,2,2,3,3,3,3,9,10,10,10,16,21,25,25,25,26,26,27,29,29,30,30,39,41,41,42,43,43
participant_6_KILLS,0,0,0,0,0,0,0,0,0,0,0,0,0,0,0,1,1,1,1,1,2,2,3,3,5,5,5,5,5,5,5,6,6,6,6
participant_6_BUY,[],"[1056, 3340, 2003, 2003]",[],[],[],"[1052, 1052, 2031]",[],"[3802, 2055]",[],[],"[1026, 1001]",[],[],"[3020, 3363]",[],[],[6655],[],[1052],[],[],"[1058, 3145]",[],[],[],"[3089, 2055]",[],[1026],[],[],"[1052, 4630]",[3135],[3108],[1058],[]
participant_6_SOLD,[],[],[],[2003],[],[2003],[],"[1052, 1052]",[2055],[],[],[],[],"[1001, 3340]",[],[2031],"[3802, 1026]",[],[],[],[],[1052],[],[],[],[1058],[2055],[],[],[],"[1056, 1052]","[4630, 1026]",[],[],[]
participant_6_UNDO,[],[],[],[],[],[],[],[],[],[],[],[],[],[],[],[],[],[],[],[],[],[],[],[],[],[],[],[],[],[],[],[],"[[0, 3108]]",[],[]
participant_7_GOLD,500,500,612,961,1245,1591,1924,2182,2547,2978,3205,3577,4019,4384,4755,5226,5461,5925,6327,6612,7252,7719,8570,8827,10006,10213,10715,11164,11863,11994,12116,13370,13633,14117,14157
participant_7_CURRENTGOLD,500,0,112,451,735,71,404,147,502,923,0,372,804,369,740,1271,256,720,687,972,1612,214,1065,1322,2501,83,585,184,884,1014,47,901,1163,398,257
participant_7_LEVEL,1,1,1,3,4,5,6,6,7,8,8,9,9,9,10,10,11,11,11,12,12,13,13,13,14,14,15,15,16,16,16,16,16,17,17
participant_7_MINIONSKILLED,0,0,5,15,24,34,46,51,61,75,81,95,105,106,117,120,127,130,143,145,154,164,176,181,196,196,202,213,226,226,226,244,252,257,257
participant_7_KILLS,0,0,0,0,0,0,0,0,1,1,1,1,1,1,1,1,1,1,1,1,1,1,2,2,2,2,2,2,2,2,2,3,3,5,5
participant_7_BUY,[],"[3070, 2003, 2003, 3340]",[],[],[],[],[3134],[],[],[],"[1053, 1036]",[],[],[],"[6692, 3111]",[1036],[1036],[3133],[],[],[3004],[],[3134],[],[],[1018],[],[],"[1037, 3363]",[],[6676],[],[],[3140],[]
participant_7_SOLD,[],[],[],[2003],[2003],[2010],[],[],[],[],[],[],[],[],"[3134, 1036, 1053, 2422]",[],[2010],"[1036, 1036]",[],[],"[2010, 3070, 3133, 3004]",[],[],[],[],[],[],[],[3340],[],"[3134, 1037, 1018]",[],[],[],[]
participant_7_UNDO,[],[],[],[],[],[],[],[],[],[],[],[],[],[],[],[],[],[],[],[],[],[],[],[],[],[],[],[],[],[],[],[],[],[],[]
participant_8_GOLD,500,500,584,796,1153,1576,1699,2135,2664,3010,3253,3548,3841,4489,4663,5034,5532,5835,6269,6614,6958,7257,8036,8323,8560,8879,9001,9372,9563,9756,9879,10734,11127,12433,12475
participant_8_CURRENTGOLD,500,0,84,296,653,1076,99,535,1064,1410,403,698,991,1639,163,184,332,235,669,1014,288,587,266,553,790,509,631,1002,318,512,209,1064,1458,1463,1475
participant_8_LEVEL,1,1,1,2,3,4,4,5,5,6,6,7,7,8,8,9,10,10,10,11,11,12,12,12,13,13,13,14,14,14,14,15,15,16,16
participant_8_MINIONSKILLED,0,0,3,7,17,26,26,41,44,56,60,66,76,84,87,97,97,97,101,111,118,119,121,127,130,136,136,146,149,150,150,166,168,171,171
participant_8_KILLS,0,0,0,0,0,0,0,0,0,0,0,0,0,0,1,1,4,5,6,6,6,6,6,6,6,7,7,7,7,8,8,8,8,8,8
participant_8_BUY,[],"[1055, 3340, 2003]",[],[],[1036],[1001],[3123],[],[],[],[3134],[],[1036],[3133],[],[],"[6691, 1036]",[],"[3047, 3133, 1053]",[6609],[],[],[3077],[],[],[],[3074],[],[],[],"[3155, 1036]",[],[],[3133],[]
participant_8_SOLD,[],[],[],[],[2003],[],[1036],[],[],[],[],[],[],[1036],[],[],"[3134, 3133]",[],"[1001, 1036]","[3123, 3133]",[],[],[],[],[],[],"[3077, 1053]",[],[],[],[1055],[],[],[1036],[]
participant_8_UNDO,[],[],[],[],[],[],[],[],[],[],[],[],[],[],[],[],[],[],[],[],[],[],[],[],[],[],[],[],[],[],[],[],[],[],[]
participant_9_GOLD,500,500,523,699,876,1415,1560,1795,2148,2325,2583,2738,2929,3240,3483,3684,4021,4372,4602,4769,4915,5414,5629,5880,6462,6613,6768,6939,7082,7273,7413,7603,7834,8399,8445
participant_9_CURRENTGOLD,500,500,23,199,376,915,135,370,723,900,1158,638,829,580,63,264,602,952,182,349,70,569,784,1035,1618,168,323,419,562,753,743,84,314,629,645
participant_9_LEVEL,1,1,1,1,2,3,4,4,5,5,6,6,7,7,7,8,8,9,9,9,9,10,10,10,11,11,11,11,12,12,12,12,12,13,13
participant_9_MINIONSKILLED,0,0,0,2,4,7,8,11,12,14,17,18,20,21,23,26,29,30,30,31,31,37,39,40,41,42,43,44,44,44,44,44,45,45,45
participant_9_KILLS,0,0,0,0,0,0,0,0,0,1,1,2,2,4,4,4,5,6,7,7,8,9,10,10,10,10,10,10,10,10,10,10,11,11,11
participant_9_BUY,[],"[2031, 1035]",[],[],[],[],"[3134, 2055]",[],[],[],[],[],"[6691, 2055]",[],[],[],"[3134, 3111, 3364]",[],[],[3142],[],[],"[3134, 1028]",[],[],[1036],[],[3814],[],[],"[2420, 2055]",[],[],[1031],[]
participant_9_SOLD,[],[],[],[],[],[],[],[2055],[],[1035],[],[],"[3340, 3134]",[3513],[2055],[],[3340],[],[],[3134],[],[],[],[],[],[2031],[],"[1036, 3134, 1028]",[],[],[],[],[2055],[],[]
participant_9_UNDO,[],[],[],[],[],[],[],[],[],[],[],[],[],[],[],[],[],[],[],[],[],[],[],[],[],[],[],[],[],[],[],[],[],[],[]
team0_KILLS,0,0,0,0,1,1,1,2,2,2,4,4,4,7,7,11,13,14,14,17,18,18,19,19,19,21,21,21,21,24,27,28,31,34,34
team0_CURRENTGOLD,2500,0,431,2004,3866,2740,2637,2899,3482,3711,5769,2653,1769,3408,4633,2795,4020,1276,2255,3075,3154,2531,3340,3459,3227,3906,2534,4252,2227,5520,8565,2552,4192,6999,7071
team0_TOTALGOLD,2500,2500,2931,4504,6376,7585,8707,10714,12022,13436,15494,17278,18804,21518,24003,26880,29730,31011,32465,35370,37449,38600,40280,41214,42332,44211,46801,48821,50320,53612,57408,59844,62286,65394,65646
team0_LEVEL,5,5,6,13,17,20,24,28,31,33,36,37,40,43,44,49,50,52,53,56,59,59,61,61,61,64,67,68,69,71,75,75,77,79,79
team0_SBIRES,0,0,12,44,68,89,107,145,168,200,224,239,269,293,336,357,377,390,412,427,465,479,497,510,520,539,550,586,595,605,634,648,648,666,666
team1_KILLS,0,0,0,0,0,1,1,1,2,3,3,4,4,6,7,8,12,14,16,16,18,20,23,23,26,27,27,27,27,28,28,30,31,34,34
team1_CURRENTGOLD,2500,500,361,1836,2879,3308,751,1681,3654,5633,3420,4483,3302,4011,3630,5109,3441,5538,3977,2506,3023,3280,2382,3717,6409,2782,3041,2672,3464,4936,1888,3233,5069,3393,3118
team1_TOTALGOLD,2500,2500,2861,4346,5739,7478,8571,10016,11999,13988,15275,17013,18367,21186,23215,24984,28465,30963,33287,34516,36528,38650,41552,42886,45577,47067,48525,50131,51797,53268,54081,56675,58512,61185,61393
team1_LEVEL,5,5,6,12,16,20,23,26,29,33,35,38,40,42,44,47,50,53,53,55,56,60,61,62,65,66,68,69,71,73,73,74,74,77,77
team1_SBIRES,0,0,8,35,65,93,114,149,172,209,222,252,279,302,328,354,372,392,414,432,448,465,482,501,521,534,556,579,606,623,625,659,677,686,686
delta_KILLS,0,0,0,0,1,0,0,1,0,-1,1,0,0,1,0,3,1,0,-2,1,0,-2,-4,-4,-7,-6,-6,-6,-6,-4,-1,-2,0,0,0
delta_CURRENTGOLD,0,-500,70,168,987,-568,1886,1218,-172,-1922,2349,-1830,-1533,-603,1003,-2314,579,-4262,-1722,569,131,-749,958,-258,-3182,1124,-507,1580,-1237,584,6677,-681,-877,3606,3953
delta_TOTALGOLD,0,0,70,158,637,107,136,698,23,-552,219,265,437,332,788,1896,1265,48,-822,854,921,-50,-1272,-1672,-3245,-2856,-1724,-1310,-1477,344,3327,3169,3774,4209,4253
delta_LEVEL,0,0,0,1,1,0,1,2,2,0,1,-1,0,1,0,2,0,-1,0,1,3,-1,0,-1,-4,-2,-1,-1,-2,-2,2,1,3,2,2
delta_SBIRES,0,0,4,9,3,-4,-7,-4,-4,-9,2,-13,-10,-9,8,3,5,-2,-2,-5,17,14,15,9,-1,5,-6,7,-11,-18,9,-11,-29,-20,-20
