name,frame_0,frame_1,frame_2,frame_3,frame_4,frame_5,frame_6,frame_7,frame_8,frame_9,frame_10,frame_11,frame_12,frame_13,frame_14,frame_15,frame_16,frame_17,frame_18,frame_19,frame_20,frame_21,frame_22,frame_23,frame_24,frame_25
nameStamp,Tstart,Tearly,Tearly,Tearly,Tearly,Tearly,Tearly,Tearly,Tearly,Tearly,Tearly,Tearly,Tmid,Tmid,Tmid,Tmid,Tmid,Tmid,Tmid,Tmid,Tmid,Tmid,Tmid,Tmid,Tmid,Tmid
timestamp,0,60030,120044,180050,240075,300080,360081,420093,480106,540128,600135,660169,720180,780206,840209,900214,960220,1020231,1080263,1140282,1200283,1260285,1320288,1380293,1440295,1500295
participant_0_GOLD,500,500,563,804,955,1245,1431,1595,1940,2091,2213,2962,3234,4087,4295,4452,4905,5481,5604,6222,6542,6692,7245,7405,7561,7589
participant_0_CURRENTGOLD,500,0,63,304,325,615,801,230,575,111,233,82,354,1207,715,872,1325,351,474,1092,1412,62,615,775,931,939
participant_0_LEVEL,1,1,1,3,3,4,5,5,6,6,6,7,7,8,8,8,9,9,9,10,10,10,10,11,11,11
participant_0_MINIONSKILLED,0,0,2,8,10,20,23,25,35,37,37,43,45,53,55,57,60,69,69,70,71,73,73,73,74,74
participant_0_KILLS,0,0,0,1,1,1,1,1,2,2,2,2,2,3,4,4,5,5,5,5,5,5,6,7,7,7
participant_0_BUY,[],"[3340, 2033]",[],[1052],[],[],[],[3802],[],[1082],[],[],[],"[1026, 1001]",[],[],[3285],[],[],[3020],[],[1029],[],[],[],[]
participant_0_SOLD,[],[],[],[],[],[],[],[1052],[],[],[],[],[],[],[],[],"[3802, 1026]",[],[],[1001],[],[],[],[],[],[]
participant_0_UNDO,[],[],[],[],[],[],[],[],[],[],[],[],[],[],[],[],[],[],[],[],[],[],[],[],[],[]
participant_1_GOLD,500,500,621,913,1213,1548,1733,1980,2373,2665,2815,3118,3775,4107,4280,4402,5216,5563,5770,6185,6952,7145,7942,8102,8873,9004
participant_1_CURRENTGOLD,500,0,121,413,713,1048,283,530,923,1215,165,468,1125,1457,230,352,1166,213,420,835,1602,210,1007,102,873,1004
participant_1_LEVEL,1,1,2,3,3,4,4,5,5,6,7,7,7,8,8,8,9,9,9,10,10,11,11,11,11,12
participant_1_MINIONSKILLED,0,0,0,0,0,1,1,1,1,2,4,4,4,6,6,6,9,9,9,12,19,23,23,23,25,27
participant_1_KILLS,0,0,0,0,0,0,0,0,0,0,0,1,1,2,2,2,3,3,3,4,4,4,5,5,5,5
participant_1_BUY,[],"[1054, 2003]",[],[],[2031],[],[],"[1052, 1001]",[],[3145],[],[1053],[],[],[3144],[],[],"[3146, 3020]",[],[],[],[3136],[],[],[],[]
participant_1_SOLD,[],[],[],[],[2003],[],[],[],[],[1052],[],[],[],[],[1053],[],[],"[3144, 3145, 1001]",[],[],[],[],[],[],[],[]
participant_1_UNDO,[],[],[],[],[],[],[],[],[],[],[],[],[],[],[],[],[],[],[],[],[],[],[],[],[],[]
participant_2_GOLD,500,500,591,1034,1227,1489,1612,1769,2282,2447,2569,3039,3182,3693,3991,4114,4534,4706,4933,5106,5440,5562,5984,6533,6690,6718
participant_2_CURRENTGOLD,500,0,91,99,292,554,677,-81,432,247,369,839,982,343,641,764,134,306,533,-144,190,-38,384,933,1090,1268
participant_2_LEVEL,1,1,1,2,3,4,4,5,6,6,6,7,7,8,8,8,9,9,9,9,9,9,10,11,11,11
participant_2_MINIONSKILLED,0,0,4,5,9,15,15,19,25,28,28,35,36,37,37,37,37,37,43,43,45,45,45,46,46,46
participant_2_KILLS,0,0,0,0,0,0,0,0,0,0,0,0,1,1,1,1,3,3,3,3,3,3,5,5,7,7
participant_2_BUY,[],"[1039, 2031, 3340]",[],[],[],[],"[3706, 1001]",[],[],[],"[3751, 1029]",[],[],[],"[1401, 3047, 1029]",[],[],"[3751, 1028]",[],[],[],"[3068, 1052]",[],[3136],[],[]
participant_2_SOLD,[],[],[],[],[],[],[1039],[],[],[],[],[],[],[],"[3751, 3706, 1001, 1029]",[],[],[],[],[],"[3340, 3513]","[1029, 1028, 3751]",[],[1052],[],[]
participant_2_UNDO,[],[],[],[],[],[],[],[],[],[],[],[],[],[],[],[],[],[],[],[],[],[],[],[],[],[]
participant_3_GOLD,500,500,521,783,1338,1628,2066,2258,2492,2691,3141,3879,4234,4828,5290,5462,5741,6337,6460,7700,8163,8286,8464,9386,9651,9999
participant_3_CURRENTGOLD,500,0,21,283,838,1128,1566,1758,192,391,841,1579,484,1078,90,262,491,1087,210,1450,1913,286,464,1386,1202,1549
participant_3_LEVEL,1,1,1,2,3,4,4,5,5,6,6,7,8,8,8,9,9,9,9,10,10,10,10,10,11,11
participant_3_MINIONSKILLED,0,0,0,8,14,24,25,29,33,37,48,53,63,65,65,68,73,75,75,81,84,84,87,92,93,93
participant_3_KILLS,0,0,0,0,1,1,2,2,2,2,2,3,3,4,5,5,5,6,6,8,8,8,8,10,10,11
participant_3_BUY,[],"[2003, 1055, 3340]",[],[],[],[],[],[],"[3086, 1042, 2003, 2003]",[],[],[],"[3085, 1042, 2003, 2003, 2003, 2003, 2003]",[],"[3006, 1053, 2003]",[],[2003],[],"[3144, 1042]",[],[],"[3153, 1036]",[],[],[3123],[]
participant_3_SOLD,[],[],[],[],[2003],[],[],[],[],"[2003, 2003]",[],[],"[1042, 3086]",[2003],"[2003, 1042, 2422]",[],[],[],[1053],[],[],"[3144, 1042]",[],[],[1036],[]
participant_3_UNDO,[],[],[],[],[],[],[],[],[],[],[],[],[],[],[],[],[],[],[],[],[],[],[],[],[],[]
participant_4_GOLD,500,500,538,774,1088,1262,1578,1722,1862,2027,2316,3005,3304,3771,4148,4334,4659,5066,5266,5919,6390,6531,7460,7757,8006,8116
participant_4_CURRENTGOLD,500,0,38,274,588,762,328,472,112,277,566,1255,99,566,943,179,504,911,436,1089,1560,611,1540,337,586,-794
participant_4_LEVEL,1,1,1,2,3,4,4,5,5,5,6,6,6,7,7,7,8,9,9,9,10,10,10,11,11,11
participant_4_MINIONSKILLED,0,0,0,0,0,0,0,0,0,0,0,0,0,4,4,4,4,9,9,9,11,11,11,13,13,13
participant_4_KILLS,0,0,0,0,0,0,0,0,0,0,0,1,1,2,2,2,2,2,2,3,3,3,4,4,4,4
participant_4_BUY,[],"[3862, 2003, 2003, 3340]",[],[],[],[],"[1036, 1028]",[],[3044],[],[],[],"[3067, 1001, 1042, 2055]",[],[],[3071],[],[],"[3009, 2055]",[],[],[1038],[],[3026],[],[]
participant_4_SOLD,[],[],[],[],[],[2003],[],[],"[1028, 1036]",[],[],[],"[3862, 2003]",[2055],[],"[3044, 3067]",[],[],[1001],[3863],[],"[3009, 3009, 1042]",[],[1038],[],[]
participant_4_UNDO,[],[],[],[],[],[],[],[],[],[],[],[],[],[],[],[],[],[],[],[],[],"[[3009, 0], [3009, 0]]",[],[],[],[]
participant_5_GOLD,500,500,626,1232,1492,1656,1847,2218,2444,2849,3272,3744,3888,4310,4432,4555,5288,5543,5817,6099,6306,6536,6659,6809,7008,7036
participant_5_CURRENTGOLD,500,0,126,82,342,156,347,718,119,524,947,669,113,185,307,430,1163,318,592,474,681,911,334,314,513,-1489
participant_5_LEVEL,1,1,1,2,4,4,5,5,6,7,7,8,8,9,9,9,9,9,10,10,10,10,10,10,10,10
participant_5_MINIONSKILLED,0,0,6,10,16,19,19,25,28,36,44,44,45,45,45,45,50,54,58,64,69,76,76,78,82,82
participant_5_KILLS,0,0,0,0,0,0,0,0,0,0,0,0,0,0,0,0,0,0,0,0,0,1,1,3,3,3
participant_5_BUY,[],"[3854, 2003, 2003, 3340]",[],[],[2031],[],[],[1001],[],[],[3117],[1027],[],[1029],[],[],[3024],[],[],[3364],[],[],"[3105, 3050]",[3067],[1031],[]
participant_5_SOLD,[],[],[],[2003],[2003],[],[],[],[],[],[1001],[],[],[],[],[],"[1027, 1029]",[],[],"[3854, 3340]",[],[],"[3105, 3024]",[],"[2010, 2010, 2010]",[]
participant_5_UNDO,[],[],[],[],[],[],[],[],[],[],[],[],[],[],[],[],[],[],[],[],[],[],[],[],[],[]
participant_6_GOLD,500,500,629,963,1386,1607,1819,1972,2249,2795,3148,3844,3967,4439,4561,4714,5161,5454,5676,5798,5921,6284,6406,6702,6950,6978
participant_6_CURRENTGOLD,500,0,129,463,886,1107,1319,122,399,945,1298,1994,2117,469,91,244,691,254,476,148,196,559,31,27,275,303
participant_6_LEVEL,1,1,2,3,3,4,5,5,6,6,6,7,7,7,7,7,8,8,9,9,9,9,9,10,10,10
participant_6_MINIONSKILLED,0,0,0,0,0,1,2,2,2,5,9,14,14,14,14,15,20,20,20,20,20,20,20,26,26,26
participant_6_KILLS,0,0,0,1,1,1,1,1,1,1,1,2,2,3,3,3,4,4,4,4,4,4,4,4,4,4
participant_6_BUY,[],"[1036, 2031, 3340]",[],"[1036, 1001]",[],[1036],[],[],"[3133, 1036, 2055]",[],[],"[3134, 1036]",[3142],[1036],[],[],[],"[3134, 1036, 1036]",[],[3133],[],[],[3142],"[3134, 3133]",[],[]
participant_6_SOLD,[],[],[],[],[],[],[],[],"[1036, 1036]",[],[2055],"[1036, 1036]","[3133, 3134]",[],[],[],[],"[1036, 1036]",[],"[1036, 1036]",[],[],"[3133, 3134]",[3142],[],[]
participant_6_UNDO,[],[],[],[],[],[],[],[],[],[],[],[],[],[],[],[],[],[],[],[],[],[],[],[],[],[]
participant_7_GOLD,500,500,542,839,1169,1418,1947,2410,2783,3069,3435,4214,4336,4628,4751,4873,5066,5188,5631,5774,5896,6084,6207,6424,6547,6595
participant_7_CURRENTGOLD,500,0,42,339,169,418,947,235,608,894,1260,2039,2161,328,151,273,466,88,530,324,446,634,207,424,197,245
participant_7_LEVEL,1,1,1,3,3,4,5,6,7,7,8,8,8,8,8,8,8,8,9,9,9,9,9,9,9,10
participant_7_MINIONSKILLED,0,0,1,10,13,20,27,28,40,47,52,58,58,58,58,58,58,58,58,59,59,59,59,59,59,60
participant_7_KILLS,0,0,0,0,1,1,1,1,1,2,2,2,2,3,3,3,3,3,3,3,3,3,3,3,3,3
participant_7_BUY,[],"[1039, 2031, 3340]",[],[],[],[],[],"[3706, 1028, 1001]",[],[],[],[],[],"[1401, 3111, 1057, 1029]",[1031],[],[],[3193],[],[1033],[2055],[],"[3111, 1029]",[1029],[],[]
participant_7_SOLD,[],[],[],[],[],[],[],[1039],[],[2419],[],[],[],"[1028, 3706, 1001]","[2423, 1029]",[],[],"[1031, 1057, 2424]",[],[],[],[2055],"[1001, 1033]",[],[],[]
participant_7_UNDO,[],[],[],[],[],[],[],[],[],[],[],[],[],"[[0, 3111]]",[],[],[],[],[],[],[],[],[],[],[],[]
participant_8_GOLD,500,500,563,797,969,1245,1487,1609,1968,2495,2645,2881,3172,3392,3536,3658,3851,4126,4311,4448,4584,4772,4895,5228,5379,5462
participant_8_CURRENTGOLD,500,0,63,297,169,445,687,109,468,995,345,581,872,1092,636,758,951,1226,1411,448,584,72,195,528,678,762
participant_8_LEVEL,1,1,1,2,3,4,4,4,5,6,6,6,7,7,7,7,8,8,8,8,8,8,8,9,9,9
participant_8_MINIONSKILLED,0,0,2,8,11,17,24,24,35,39,41,44,50,56,57,57,57,62,65,66,67,67,67,68,70,73
participant_8_KILLS,0,0,0,0,0,0,1,2,2,2,2,2,2,2,2,2,2,2,3,3,3,3,3,3,3,3
participant_8_BUY,[],"[1055, 2003, 3340]",[],[],"[1036, 1006]",[],[],"[3077, 1036]",[],[],[],[],[],"[3748, 1001]",[1029],[],[],[3047],[],[1036],[],[],[1053],[],[1036],[]
participant_8_SOLD,[],[],[],[],[],[],[2003],"[1036, 1006]",[],[],[],[],[],"[3077, 1036]",[],[],[],"[1001, 1029]",[],[],[],[],[1036],[],[],[]
participant_8_UNDO,[],[],[],[],[],[],[],[],[],[],[],[],[],[],[],[],[],[],[],[],[],[],[],[],[],[]
participant_9_GOLD,500,500,523,657,813,1038,1173,1307,1531,1776,1924,2130,2264,2398,2533,2667,2801,3040,3249,3476,3617,4052,4193,5733,5874,5947
participant_9_CURRENTGOLD,500,0,23,157,183,408,543,377,601,846,294,150,284,118,253,387,271,510,719,946,1086,1522,313,1053,483,447
participant_9_LEVEL,1,1,1,2,2,3,4,4,5,5,6,6,6,6,6,6,6,7,7,7,8,8,8,9,9,9
participant_9_MINIONSKILLED,0,0,0,0,1,6,6,6,8,10,11,12,12,12,12,12,12,14,14,15,15,16,16,16,16,18
participant_9_KILLS,0,0,0,0,0,0,0,0,0,1,1,1,1,1,1,1,1,1,1,1,1,1,1,1,1,1
participant_9_BUY,[],"[1055, 2003, 3340]",[],[],[1042],[],[],"[2015, 1001]",[],[],[1018],[],[],[],[3009],[],[],[],[],[3087],[],[2015],[],[],[],[]
participant_9_SOLD,[],[],[],[2003],[],[],[],[1042],[],[],[],[],[],[],[1001],[],[],[],[],"[1018, 2015]",[],[],[],[],[],[]
participant_9_UNDO,[],[],[],[],[],[],[],[],[],[],[],[],[],[],[],[],[],[],[],[],[],[],[],[],[],[]
team0_KILLS,0,0,0,1,2,2,3,3,4,4,4,7,8,12,14,14,18,19,19,23,23,23,28,31,33,34
team0_CURRENTGOLD,2500,0,334,1373,2756,4107,3655,2909,2234,2241,2174,4223,3044,4651,2619,2429,3620,2868,2073,4322,6677,1131,4010,3533,4682,3966
team0_TOTALGOLD,2500,2500,2834,4308,5821,7172,8420,9324,10949,11921,13054,16003,17729,20486,22004,22764,25055,27153,28033,31132,33487,34216,37095,39183,40781,41426
team0_LEVEL,5,5,6,12,15,20,21,25,27,29,31,34,35,39,39,40,44,45,45,48,49,50,51,54,55,56
team0_SBIRES,0,0,6,21,33,60,64,74,94,104,117,135,148,165,167,172,183,199,205,215,230,236,239,247,251,253
team1_KILLS,0,0,0,1,2,2,3,4,4,6,6,7,7,9,9,9,10,10,11,11,11,12,12,14,14,14
team1_CURRENTGOLD,2500,0,383,1338,1749,2534,3843,1561,2195,4204,4144,5433,5547,2192,1438,2092,3542,2396,3728,2340,2993,3698,1080,2346,2146,268
team1_TOTALGOLD,2500,2500,2883,4488,5829,6964,8273,9516,10975,12984,14424,16813,17627,19167,19813,20467,22167,23351,24684,25595,26324,27728,28360,30896,31758,32018
team1_LEVEL,5,5,6,12,15,19,23,24,29,31,33,35,36,37,37,37,39,40,43,43,44,44,44,47,47,48
team1_SBIRES,0,0,9,28,41,63,78,85,113,137,157,172,179,185,186,187,197,208,215,224,230,238,238,247,253,259
delta_KILLS,0,0,0,0,0,0,0,-1,0,-2,-2,0,1,3,5,5,8,9,8,12,12,11,16,17,19,20
delta_CURRENTGOLD,0,0,-49,35,1007,1573,-188,1348,39,-1963,-1970,-1210,-2503,2459,1181,337,78,472,-1655,1982,3684,-2567,2930,1187,2536,3698
delta_TOTALGOLD,0,0,-49,-180,-8,208,147,-192,-26,-1063,-1370,-810,102,1319,2191,2297,2888,3802,3349,5537,7163,6488,8735,8287,9023,9408
delta_LEVEL,0,0,0,0,0,1,-2,1,-2,-2,-2,-1,-1,2,2,3,5,5,2,5,5,6,7,7,8,8
delta_SBIRES,0,0,-3,-7,-8,-3,-14,-11,-19,-33,-40,-37,-31,-20,-19,-15,-14,-9,-10,-9,0,-2,1,0,-2,-6
