name,frame_0,frame_1,frame_2,frame_3,frame_4,frame_5,frame_6,frame_7,frame_8,frame_9,frame_10,frame_11,frame_12,frame_13,frame_14,frame_15,frame_16,frame_17,frame_18,frame_19,frame_20,frame_21,frame_22,frame_23,frame_24,frame_25,frame_26,frame_27
nameStamp,Tstart,Tearly,Tearly,Tearly,Tearly,Tearly,Tearly,Tearly,Tearly,Tearly,Tearly,Tearly,Tearly,Tearly,Tearly,Tearly,Tmid,Tmid,Tmid,Tmid,Tmid,Tmid,Tmid,Tmid,Tmid,Tmid,Tmid,Tmid
timestamp,0,60017,120024,180032,240046,300055,360061,420062,480090,540118,600149,660161,720177,780181,840198,900202,960229,1020247,1080275,1140283,1200291,1260303,1320312,1380328,1440359,1500384,1560389,1620420
participant_0_GOLD,500,500,583,1186,1520,1915,2314,3035,3199,3709,3831,4218,4502,5119,5992,6767,7016,7550,8188,8640,8967,9326,9890,10159,10713,10958,11185,11592
participant_0_CURRENTGOLD,500,0,83,686,245,640,1039,1760,124,634,356,743,327,944,1817,867,1116,300,938,1390,567,927,1490,1759,2314,708,936,1343
participant_0_LEVEL,1,1,1,3,4,5,6,7,7,8,8,8,9,10,10,11,11,11,12,12,13,13,14,14,15,15,15,15
participant_0_MINIONSKILLED,0,0,3,12,24,37,50,57,59,79,79,91,97,107,119,127,134,137,153,163,163,173,185,194,211,211,217,225
participant_0_KILLS,0,0,0,0,0,0,0,0,0,1,2,2,2,2,2,2,2,2,2,2,2,2,2,2,2,2,2,2
participant_0_BUY,[],"[1056, 2003, 2003, 3340]",[],[],[],"[1027, 1004]",[],[],"[1027, 1052]",[3802],[],[3070],[1026],[],[1052],[],[],[1028],[],[],[],[],[],[],[],[],[],[]
participant_0_SOLD,[],[],[],[],[2003],[],[2003],[],[],"[1052, 1027]",[],"[1027, 1004]",[],[],[],[],[],[],[],[],[],[],[],[],[],[],[],[]
participant_0_UNDO,[],[],[],[],[],[],[],[],[],[],[],[],[],[],[],[],[],[],[],[],[],[],[],[],[],[],[],[]
participant_1_GOLD,500,500,620,1177,1506,1798,1921,2203,2625,2853,2975,3353,3665,3787,4010,4352,4594,5064,5228,5458,5792,6014,6310,6517,6741,6888,7220,7405
participant_1_CURRENTGOLD,500,0,120,677,1006,213,336,618,1040,1268,325,703,1015,1137,560,902,294,764,493,723,657,879,410,617,291,438,770,955
participant_1_LEVEL,1,1,2,2,3,4,4,5,5,6,6,6,7,7,7,8,8,9,9,10,10,10,11,11,11,11,12,12
participant_1_MINIONSKILLED,0,0,0,0,0,0,0,0,1,1,1,3,3,3,3,3,4,7,10,16,20,21,24,24,31,31,33,37
participant_1_KILLS,0,0,0,0,0,0,0,0,0,0,0,0,0,0,0,2,2,2,3,3,3,3,4,4,4,5,5,5
participant_1_BUY,[],"[1055, 2003, 3340]",[],[2003],[],[],[],[],[],[],"[1038, 1037, 2003, 2003]",[],[1042],[],[3006],[],"[3031, 2003, 2003]",[],[1018],[],[],[3123],"[3086, 1042]",[],[],[3085],[],[]
participant_1_SOLD,[],[],[],[],[],"[2010, 2010]","[2003, 2003]",[2010],[],[],[],[],[],[],"[1042, 2422]","[2003, 2003]","[1038, 1037]",[],[],[],[],[],"[1018, 2003, 2003]",[],[],"[1042, 3086]",[],[]
participant_1_UNDO,[],[],[],[],[],[],[],[],[],[],[],[],[],[],[],[],[],[],[],[],[],[],[],[],[],[],[],[]
participant_2_GOLD,500,500,611,898,1148,1389,1603,1886,2098,2521,3204,3493,3798,3920,4043,4467,4590,4712,4834,4957,5079,5202,5324,5446,5569,5691,5814,5936
participant_2_CURRENTGOLD,500,0,111,398,648,414,628,911,338,246,929,843,298,420,108,532,655,377,499,622,744,867,989,1111,1234,1356,1479,1601
participant_2_LEVEL,1,1,1,3,4,5,5,6,7,7,9,9,9,9,9,10,10,10,10,10,10,10,10,10,10,10,10,10
participant_2_MINIONSKILLED,0,0,5,12,19,27,32,41,43,43,55,61,68,68,68,79,79,79,79,79,79,79,79,79,79,79,79,79
participant_2_KILLS,0,0,0,1,1,1,1,1,1,1,1,1,1,1,1,1,1,1,1,1,1,1,1,1,1,1,1,1
participant_2_BUY,[],"[1041, 2031, 3340]",[],[],[],"[3706, 1052]",[],[],[],[],[1402],[],[],[],[3020],[],[1026],[],[1052],[],[1028],[],[3916],[],[3165],[],[],[]
participant_2_SOLD,[],[],[],[],[],[1041],[],[],[],[],"[1052, 3706]",[],[],[],[2422],[],[],[],[],[],[],[],"[1028, 1052]",[],"[3916, 1026]",[],[],[]
participant_2_UNDO,[],[],[],[],[],[],[],[],[],[],[],[],[],[],[],[],[],[],[],[],[],[],[],[],[],[],[],[]
participant_3_GOLD,500,500,520,806,1076,1514,1678,2111,2457,2826,2963,3279,3401,3755,3947,5017,5230,5652,6075,6333,6652,6948,7603,7921,8227,8671,9200,9343
participant_3_CURRENTGOLD,500,0,20,256,526,964,1128,1561,1907,2276,138,454,276,630,322,1392,280,702,325,583,902,398,193,511,817,361,890,1033
participant_3_LEVEL,1,1,1,1,2,3,3,4,5,6,6,6,6,7,7,8,8,9,9,10,10,10,11,11,11,12,13,13
participant_3_MINIONSKILLED,0,0,0,4,12,28,30,46,56,67,68,76,76,89,93,101,106,119,119,125,136,142,150,157,162,163,183,184
participant_3_KILLS,0,0,0,0,0,0,0,0,0,0,0,0,0,0,0,0,0,0,0,0,0,0,1,1,1,1,1,1
participant_3_BUY,[],"[3858, 3340, 2003, 2003]",[],[],[],[],"[1029, 1001, 2055]",[],[],[],[],"[3364, 3024, 1029, 2055]",[],[],[],[],"[3050, 1029, 2055]",[],[],[3047],"[1004, 1004]",[],"[3114, 1006]",[],[],"[3801, 2055]",[],[3107]
participant_3_SOLD,[],[],[],"[2003, 2003]",[],[],[],[2055],[],[],[3858],"[3340, 1029]",[2055],[],[],[],"[1029, 3024]",[2055],[],"[1001, 1029]",[],[],"[1004, 1004]",[3859],[],[1006],[],"[3114, 3801]"
participant_3_UNDO,[],[],[],[],[],[],[],[],[],[],[],[],[],[],[],[],[],[],[],[],[],[],[],[],[],[],[],[]
participant_4_GOLD,500,500,522,834,990,1188,1322,1536,1761,1988,2163,2339,2613,2819,3061,3595,3778,4020,4310,4481,4621,4762,5291,5635,5786,6076,6246,6387
participant_4_CURRENTGOLD,500,0,22,334,490,688,147,361,586,813,988,189,463,669,911,1445,203,445,735,406,296,437,266,610,761,476,647,137
participant_4_LEVEL,1,1,1,2,3,4,4,4,5,6,6,6,7,7,8,9,9,9,9,9,10,10,10,11,11,11,11,12
participant_4_MINIONSKILLED,0,0,0,5,6,7,7,9,11,13,15,17,21,24,26,28,30,34,34,34,34,34,35,37,37,37,38,38
participant_4_KILLS,0,0,0,1,1,1,1,2,2,2,2,2,2,3,3,3,3,4,4,4,4,4,4,4,4,4,4,4
participant_4_BUY,[],"[2033, 3340]",[],[],"[1036, 1036, 2055]",[],[],[],"[3144, 1042, 1042, 1001]",[],[1043],[],[3153],[],[],"[3044, 1028, 2055]",[],[3071],[],[],"[3111, 1036]",[],[],[],[],"[3133, 3105]",[],[]
participant_4_SOLD,[],[],[],[2010],[],[2055],[2010],[2010],"[1036, 1036]",[],"[1042, 1042]",[],"[3144, 1043]",[],[],[],[],"[3044, 1028]",[],[],[1001],[2055],[],[],[],[1036],[],[]
participant_4_UNDO,[],[],[],[],[],[],[],[],[],[],[],[],[],[],[],[],[],[],[],[],[],[],[],[],[],[],[],[]
participant_5_GOLD,500,500,562,754,1364,1724,2022,2294,2625,2878,3436,4112,4304,4665,4837,5106,5573,6295,6870,7332,7755,7940,8453,8723,9040,9669,9883,10614
participant_5_CURRENTGOLD,500,0,62,254,864,1224,1522,19,350,603,1161,1837,179,540,237,506,973,245,820,1282,1705,120,633,903,1220,1850,163,894
participant_5_LEVEL,1,1,1,2,3,5,6,6,7,7,8,9,9,10,10,10,11,11,12,12,13,13,14,14,14,15,15,16
participant_5_MINIONSKILLED,0,0,2,6,14,25,35,41,50,51,60,71,75,85,88,96,110,123,130,138,152,156,168,177,185,191,196,199
participant_5_KILLS,0,0,0,0,1,1,1,2,2,2,2,2,3,4,6,6,6,7,8,8,8,8,8,8,8,8,8,10
participant_5_BUY,[],"[1039, 2031, 3340]",[],[],[],[],"[3057, 1001, 2055]",[],[],[],[],"[3047, 3751, 1041]",[],[],[],[],[],"[3078, 3706]",[],[],"[1401, 1029, 1006, 3364]",[],[],[],"[3024, 3801]",[],"[3800, 1033]",[]
participant_5_SOLD,[],[],[],[],[],[],[],[],[2055],"[3340, 3513]",[],[1001],[],[],[],[],[3340],"[3057, 1039, 1041]",[3513],[],"[3751, 3706, 3340]",[],[],[],"[1029, 1006]",[],"[3024, 3801]",[]
participant_5_UNDO,[],[],[],[],[],[],[],[],[],[],[],[],[],[],[],[],[],[],[],[],[],[],[],[],[],[],[],[]
participant_6_GOLD,500,500,660,962,1498,1797,2025,2617,2937,3480,3792,4015,4544,4967,5699,6040,6447,7170,8087,8385,8612,8819,9376,9843,9966,10344,10777,11686
participant_6_CURRENTGOLD,500,0,160,462,998,1297,100,692,1012,1555,1867,40,569,992,1724,2065,2472,212,1129,1427,604,812,1368,1835,858,1236,120,1029
participant_6_LEVEL,1,1,2,3,4,4,5,6,6,7,7,7,8,8,9,9,10,10,11,11,11,11,12,12,12,13,14,14
participant_6_MINIONSKILLED,0,0,0,0,2,2,2,4,4,4,4,4,5,5,6,6,6,6,12,12,12,12,12,17,17,20,20,23
participant_6_KILLS,0,0,0,0,1,1,1,1,1,1,2,2,2,2,2,2,2,2,3,3,3,3,3,3,3,4,4,5
participant_6_BUY,[],"[1054, 2003, 3340]",[],[],[],[],[],"[3751, 1031, 2055]",[],[],[],[],"[3068, 3111]",[],"[1033, 1028, 2055]",[],[],"[3076, 1033]",[],[],[],"[3211, 3067, 3065]",[],[],[],[],[3075],[]
participant_6_SOLD,[],[],[],[2003],[],[],[],[],[],[2055],[],[],"[1031, 3751, 2422]",[],[],[2055],[],[],[],[],[],"[1028, 1033, 1054, 3211, 3067]",[],[],[],[],[3076],[]
participant_6_UNDO,[],[],[],[],[],[],[],[],[],[],[],[],[],[],"[[0, 1033]]",[],[],[],[],[],[],[],[],[],[],[],[],[]
participant_7_GOLD,500,500,597,887,1410,1595,1879,2141,2570,3007,3206,3523,3866,4267,5065,5384,6110,6358,7401,8011,8328,8708,8881,9003,9485,10083,10310,11027
participant_7_CURRENTGOLD,500,0,97,387,910,45,329,591,1020,72,271,588,281,682,1480,584,1310,308,1351,1961,288,668,841,963,1446,793,1020,1737
participant_7_LEVEL,1,1,1,3,4,5,6,6,7,8,8,9,9,10,11,11,12,12,12,13,13,13,13,13,14,14,14,15
participant_7_MINIONSKILLED,0,0,4,14,26,30,39,47,62,63,68,76,81,93,103,111,125,125,132,140,147,158,158,158,167,167,167,172
participant_7_KILLS,0,0,0,0,0,0,0,0,0,0,0,0,1,1,1,1,1,1,1,1,1,1,1,1,1,3,3,3
participant_7_BUY,[],"[2003, 1055, 3340]",[],"[2003, 2003]",[],"[1036, 1036]",[],[],[],[],[1038],"[1036, 3133]",[],"[3508, 2003, 2003, 2003, 2055]",[],[],[1038],[],[3006],[],[],[],[],[],"[1018, 1037]",[],"[3031, 1053, 1036]",[]
participant_7_SOLD,[],[],[],[],[],"[2003, 2003]",[],"[2010, 2010, 2003]",[2010],[],[],"[1036, 1036]",[],"[1038, 3133]",[],[2003],[],[2055],"[2003, 2422]",[],[],[],[],[],[],[],"[1038, 1037, 1018]",[]
participant_7_UNDO,[],[],[],[],[],[],[],[],[],[],[],"[[0, 1036]]",[],"[[0, 2003]]",[],[],[],[],[],[],[],[],[],[],[],[],[],[]
participant_8_GOLD,500,500,644,850,1229,1351,1757,1984,2326,2623,2978,3192,4068,4324,5118,5327,5548,5968,6339,6723,7065,7362,7585,7897,8090,9376,9646,9965
participant_8_CURRENTGOLD,500,0,144,250,629,51,457,684,1026,1323,378,192,1068,249,1043,1252,173,593,164,548,890,1187,1410,1722,240,1526,121,440
participant_8_LEVEL,1,1,1,1,2,2,4,4,5,6,6,7,7,8,8,9,9,9,10,10,10,11,11,11,11,12,12,13
participant_8_MINIONSKILLED,0,0,0,4,16,16,30,36,45,55,66,71,84,92,103,108,111,122,125,125,125,135,135,135,139,151,155,158
participant_8_KILLS,0,0,0,0,0,0,0,0,0,1,1,1,1,1,2,2,2,2,3,3,3,3,3,3,3,4,4,5
participant_8_BUY,[],"[1054, 2003, 3340]",[],[],[],"[3067, 3145]",[],[],[],"[3067, 1052, 2031]",[],[],[3152],[],[],"[3020, 3113]",[],[1058],[],[],"[3907, 1058]",[],[],[],[],[1058],[],[]
participant_8_SOLD,[],[],[],[],[],[],[],[],[],[2003],[],[],"[3145, 3067]",[],[],"[2422, 1052]",[],[],[],[],"[1058, 3113, 2031]",[],[],[],[],[1054],[],[]
participant_8_UNDO,[],[],[],[],[],"[[0, 3067]]",[],[],[],[],[],[],[],[],[],[],[],[],[],[],[],[],[],[],[],"[[1054, 0]]",[],[]
participant_9_GOLD,500,500,922,1090,1328,1462,1632,1787,2004,2174,2322,2957,3384,3620,4108,4248,4438,4738,5211,5534,5764,5935,6125,6289,6440,6800,6971,7730
participant_9_CURRENTGOLD,500,0,422,590,828,137,307,462,679,174,322,607,1034,445,933,723,913,263,736,1059,839,1010,350,514,575,935,606,1365
participant_9_LEVEL,1,1,1,2,3,3,3,4,4,5,5,6,7,7,8,8,8,8,9,9,9,9,9,10,10,11,11,11
participant_9_MINIONSKILLED,0,0,0,1,4,4,6,7,9,11,12,13,16,16,20,20,20,21,22,25,26,27,27,29,30,30,31,33
participant_9_KILLS,0,0,1,1,1,1,1,1,1,1,1,2,2,2,2,2,2,2,2,2,2,2,2,2,2,2,2,2
participant_9_BUY,[],"[3854, 2003, 2003]",[],[],[],"[1001, 1029, 2031, 2055]",[],[],[],"[3009, 2055]",[],[1036],[],"[3134, 2055]",[],"[1036, 3364]",[],[3179],[],[],[1033],[],[3155],[],"[2055, 2055]",[],[1031],[]
participant_9_SOLD,[],[],[2003],[2003],[],[],[2055],[],[],[1001],[],[],"[3854, 2055]",[1036],[2055],[3340],[],"[3134, 1036]",[],[],[],[],[1033],[],"[2031, 2055]",[3855],"[2055, 1029]",[]
participant_9_UNDO,[],[],[],[],[],[],[],[],[],[],[],[],[],[],[],[],[],[],[],[],[],[],[],[],[],[],"[[2055, 0]]",[]
team0_KILLS,0,0,0,2,2,2,2,3,3,4,5,5,5,6,6,8,8,9,10,10,10,10,12,12,12,13,13,13
team0_CURRENTGOLD,2500,0,356,2351,2915,2919,3278,5211,3995,5237,2736,2932,2379,3800,3718,5138,2548,2588,2990,3724,3166,3508,3348,4608,5417,3339,4722,5069
team0_TOTALGOLD,2500,2500,2856,4901,6240,7804,8838,10771,12140,13897,15136,16682,17979,19400,21053,24198,25208,26998,28635,29869,31111,32252,34418,35678,37036,38284,39665,40663
team0_LEVEL,5,5,6,11,16,21,22,26,29,33,35,35,38,40,41,46,46,48,49,51,53,53,56,57,58,59,61,62
team0_SBIRES,0,0,8,33,61,99,119,153,170,203,218,248,265,291,309,338,353,376,395,417,432,449,473,491,520,521,550,563
team1_KILLS,0,0,1,1,3,3,3,4,4,5,6,7,9,10,13,13,13,14,17,17,17,17,17,17,17,21,21,25
team1_CURRENTGOLD,2500,0,885,1943,4229,2754,2715,2448,4087,3727,3999,3264,3131,2908,5417,5130,5841,1621,4200,6277,4326,3797,4602,5937,4339,6340,2030,5465
team1_TOTALGOLD,2500,2500,3385,4543,6829,7929,9315,10823,12462,14162,15734,17799,20166,21843,24827,26105,28116,30529,33908,35985,37524,38764,40420,41755,43021,46272,47587,51022
team1_LEVEL,5,5,6,11,16,19,24,26,29,33,34,38,40,43,46,47,50,50,54,55,56,57,59,60,61,65,66,69
team1_SBIRES,0,0,6,25,62,77,112,135,170,184,210,235,261,291,320,341,372,397,421,440,462,488,500,516,538,559,569,585
delta_KILLS,0,0,-1,1,-1,-1,-1,-1,-1,-1,-1,-2,-4,-4,-7,-5,-5,-5,-7,-7,-7,-7,-5,-5,-5,-8,-8,-12
delta_CURRENTGOLD,0,0,-529,408,-1314,165,563,2763,-92,1510,-1263,-332,-752,892,-1699,8,-3293,967,-1210,-2553,-1160,-289,-1254,-1329,1078,-3001,2692,-396
delta_TOTALGOLD,0,0,-529,358,-589,-125,-477,-52,-322,-265,-598,-1117,-2187,-2443,-3774,-1907,-2908,-3531,-5273,-6116,-6413,-6512,-6002,-6077,-5985,-7988,-7922,-10359
delta_LEVEL,0,0,0,0,0,2,-2,0,0,0,1,-3,-2,-3,-5,-1,-4,-2,-5,-4,-3,-4,-3,-3,-3,-6,-5,-7
delta_SBIRES,0,0,2,8,-1,22,7,18,0,19,8,13,4,0,-11,-3,-19,-21,-26,-23,-30,-39,-27,-25,-18,-38,-19,-22
