name,frame_0,frame_1,frame_2,frame_3,frame_4,frame_5,frame_6,frame_7,frame_8,frame_9,frame_10,frame_11,frame_12,frame_13,frame_14,frame_15,frame_16,frame_17,frame_18,frame_19,frame_20,frame_21,frame_22,frame_23,frame_24,frame_25,frame_26,frame_27,frame_28,frame_29,frame_30,frame_31,frame_32,frame_33,frame_34,frame_35,frame_36,frame_37,frame_38,frame_39,frame_40,frame_41,frame_42
nameStamp,Tstart,Tearly,Tearly,Tearly,Tearly,Tearly,Tearly,Tearly,Tearly,Tearly,Tearly,Tearly,Tearly,Tearly,Tearly,Tearly,Tearly,Tmid,Tmid,Tmid,Tmid,Tmid,Tmid,Tmid,Tmid,Tmid,Tmid,Tmid,Tmid,Tmid,Tmid,Tmid,Tmid,Tmid,Tmid,Tmid,Tmid,Tmid,Tmid,Tmid,Tmid,Tmid,Tend
timestamp,0,60011,120021,180052,240077,300101,360131,420164,480177,540201,600234,660242,720265,780288,840307,900334,960366,1020389,1080412,1140423,1200441,1260461,1320478,1380497,1440526,1500549,1560569,1620587,1680610,1740631,1800648,1860666,1920667,1980690,2040715,2100740,2160755,2220767,2280791,2340818,2400838,2460853,2520853
participant_0_GOLD,500,500,583,895,1130,1448,1746,2095,2454,2717,3042,3401,3565,3799,4242,4602,4971,5135,5382,6363,6805,7269,7391,7855,8048,8723,9635,9876,10158,10447,10786,10908,11051,11174,11409,11837,12243,12555,12955,13219,13426,13847,14021
participant_0_CURRENTGOLD,500,0,83,395,630,948,1246,495,854,1117,1442,1801,45,279,422,782,1151,515,412,1393,210,674,196,660,853,1528,115,356,638,927,916,1038,132,254,489,918,1323,1636,2036,2300,531,953,-79
participant_0_LEVEL,1,1,1,3,4,5,6,6,7,7,8,9,9,9,10,10,11,11,11,12,12,12,12,13,13,14,14,14,14,14,15,15,15,15,15,15,16,16,16,16,17,17,17
participant_0_MINIONSKILLED,0,0,3,14,20,28,38,49,59,67,79,89,91,97,97,107,118,120,123,126,126,137,137,153,157,161,163,166,171,176,184,184,185,185,187,197,204,204,212,217,218,227,230
participant_0_KILLS,0,0,0,0,0,0,0,0,0,0,0,0,0,0,0,0,0,0,0,0,0,0,0,0,0,0,0,0,0,0,0,0,0,0,0,0,0,0,0,0,0,0,0
participant_0_BUY,[],"[3850, 2003, 2003, 3340]",[],[],[],[],[],[],[],[],"[4642, 3067, 3364, 2055]",[],[],[1001],[],[6617],[],[],[],[],[],"[3117, 1028]",[],[],[],[],"[3114, 3067]",[],[],[3107],"[3107, 1028]",[],[],"[3067, 1006]",[],[],[3801],[],[],[],[],[],[]
participant_0_SOLD,[],[],[],[],[],[],[],[],[],[3850],[3340],[],[],[],"[2055, 2003]","[2003, 3851, 3067, 4642]",[],[],[],[],[],[1001],[],[],[],[],[1028],[],[],"[3067, 3114]","[3067, 3114]",[],[],[1028],[],[],[1006],[],[],[],[],[],[]
participant_0_UNDO,[],[],[],[],[],[],[],[],[],[],[],[],[],[],[],[],[],[],[],[],[],[],[],[],[],[],[],[],[],[],"[[0, 3107]]",[],[],[],[],[],[],[],[],[],[],[],[]
participant_1_GOLD,500,500,620,963,1163,1285,1613,1770,1990,2198,2407,2663,2990,3212,3435,4056,4288,4635,4925,5265,5497,5855,6427,6559,7030,7203,7476,8198,8654,8903,9025,9309,9432,9603,9810,10068,10461,10768,10921,11166,11434,11556,11790
participant_1_CURRENTGOLD,500,0,120,463,663,785,1113,1270,1490,248,457,713,1040,1262,435,56,288,635,50,390,272,630,452,584,1055,353,626,323,779,228,350,635,407,578,786,1043,687,994,1146,1391,460,582,815
participant_1_LEVEL,1,1,2,3,3,3,4,4,5,5,5,5,6,6,7,7,7,8,8,9,9,10,10,10,11,11,11,11,12,12,12,13,13,13,13,14,14,14,14,15,15,15,16
participant_1_MINIONSKILLED,0,0,0,0,0,0,0,2,2,2,2,2,2,2,2,5,6,6,10,15,17,17,17,18,30,30,30,30,41,49,49,49,49,52,52,52,59,59,60,60,61,61,61
participant_1_KILLS,0,0,0,0,0,0,0,0,0,0,0,0,0,0,1,1,1,1,1,2,3,3,3,3,3,4,6,6,6,6,6,6,6,6,6,6,6,6,6,6,6,6,6
participant_1_BUY,[],"[1055, 2003, 3340]",[],[],[],[],[],[3134],[],[],[],[],"[1036, 1053, 6692]",[],[1001],[],[],[3047],[1036],[],"[3134, 1037]",[],[1018],[],[],[],"[6676, 3133, 3067]",[],[],[],[1036],[],[3071],[],[],[],[],[],[],[],"[3134, 1037]",[],[3142]
participant_1_SOLD,[],[],[],[],[],[2003],[],[],[],[],[],[],"[1036, 1055, 3134, 1053]",[],[],[],[],[1001],[],[],[1036],[],[],[],[],[],"[3134, 1037, 1018]",[],[],[],[],[],"[3133, 3067, 1036]",[],[],[],[],[],[],[],[],[],"[3134, 1037]"
participant_1_UNDO,[],[],[],[],[],[],[],[],[],[],[],[],[],[],[],[],[],[],[],[],[],[],[],[],[],[],[],[],[],[],[],[],[],[],[],[],[],[],[],[],[],[],[]
participant_2_GOLD,500,500,611,1004,1490,1892,2169,2333,2615,2999,3537,3798,4283,4573,5567,5885,6462,6835,7111,7796,8068,8233,8550,8939,10239,11065,11506,11643,11814,12040,12281,12681,13178,14897,15221,15447,16390,16783,17023,17483,19106,19604,19847
participant_2_CURRENTGOLD,500,0,111,494,70,462,739,38,310,684,272,523,158,448,1442,75,652,1025,1301,1986,118,283,600,989,2289,3115,1056,1193,1364,1591,96,496,994,2712,972,1198,1051,1444,1684,894,2517,3015,3147
participant_2_LEVEL,1,1,1,3,4,5,6,6,7,8,9,9,9,10,11,11,11,12,12,13,13,13,13,13,14,14,14,14,14,15,15,15,15,16,16,16,16,17,17,17,17,18,18
participant_2_MINIONSKILLED,0,0,5,18,21,35,44,47,54,66,71,76,80,90,91,99,108,118,127,137,137,140,147,153,158,160,163,164,167,169,172,180,190,195,202,204,208,216,219,219,219,233,237
participant_2_KILLS,0,0,0,0,1,1,1,1,1,1,2,2,3,3,4,4,4,4,4,4,4,4,4,4,6,7,7,7,7,7,7,7,7,9,9,9,11,11,11,12,14,14,14
participant_2_BUY,[],"[1056, 2003, 3340, 2003]",[],[],"[1052, 1027, 2055, 2003]",[],[],"[3802, 1001, 2003]",[],[],"[1026, 2003, 2003]",[],"[3020, 2003]",[],[],"[6655, 1052]",[],[],[],[],"[3165, 2055]",[],[],[],[],[],"[1058, 1058]",[],[],[],"[3089, 1028, 1052]",[],[],[],[3157],[],[4630],[],[],[3135],[],[],[]
participant_2_SOLD,[],[],[],[2003],[2003],"[2055, 2003]",[],"[1052, 1027]",[],[2003],[],[],[1001],"[2003, 2003]",[2003],"[3802, 1026]",[],[],[],[],[1052],[2055],[],[],[],[],[],[],[],[],"[1058, 1058]",[],[],[],[1052],[],[1056],[],[],[4630],[],[],[]
participant_2_UNDO,[],[],[],[],[],[],[],[],[],[],[],[],[],[],[],[],[],[],[],[],[],[],[],[],[],[],[],[],[],[],"[[0, 1028]]",[],[],[],[],[],[],[],[],[],[],[],[]
participant_3_GOLD,500,500,562,927,1183,1536,1792,1984,2259,2473,2651,2837,3078,3291,3628,3860,4124,4368,4727,5049,5719,5863,6060,6203,6401,6524,6697,6875,7153,7339,7510,7733,7855,8245,8382,8595,8917,9075,9262,9719,9920,10188,10381
participant_3_CURRENTGOLD,500,0,62,427,683,1036,1292,309,584,798,276,62,303,516,853,1085,649,160,519,241,161,155,352,495,693,66,239,417,695,881,702,925,1047,687,824,37,360,517,704,1162,462,731,923
participant_3_LEVEL,1,1,1,2,3,4,4,5,5,6,6,6,7,7,8,8,8,9,9,9,10,10,10,10,10,10,10,11,11,11,12,12,12,12,12,13,14,14,14,14,15,15,15
participant_3_MINIONSKILLED,0,0,2,14,21,32,40,44,50,55,58,62,69,74,83,85,91,94,104,105,111,112,112,113,113,113,113,116,121,124,127,127,127,130,131,137,140,142,144,146,148,152,154
participant_3_KILLS,0,0,0,0,0,0,0,0,0,0,0,0,0,0,0,1,1,1,1,1,1,1,2,2,2,2,2,3,3,3,3,3,3,3,3,3,3,3,3,3,3,3,3
participant_3_BUY,[],"[1039, 2031, 3340]",[],[],[],[],[],[],[],"[3134, 1036]",[],[],[],[],"[3133, 1001]",[6693],[],[],"[3047, 2055, 3364]",[],[1036],[],[3134],[],[],[1037],[],[6676],[],[1031],[],[],[1036],[],[],[],[3133],[],[],[],[6333],[],[]
participant_3_SOLD,[],[],[],[],[],[],[],[],[],[],[],[1039],[],[3340],[1036],"[3134, 3133]",[3513],[],"[1001, 3340]",[],[],[],[1036],[],[],[2055],[],"[3134, 1037]",[],[],[],[],[],[],[],[],[1036],[],[],[],"[1031, 3133]",[],[]
participant_3_UNDO,[],[],[],[],[],[],[],[],[],[],[],[],[],[],[],[],[],[],[],[],[],[],[],[],[],[],[],[],[],[],[],[],[],[],[],[],[],[],[],[],[],[],[]
participant_4_GOLD,500,500,522,711,946,1200,1449,1667,1881,2142,2442,2662,2965,3105,3535,3845,4035,4176,4330,4555,4771,4911,5126,5277,5492,5803,6220,6587,6772,6912,7053,7221,7445,7586,7726,7880,8171,8321,8574,8752,8967,9219,9410
participant_4_CURRENTGOLD,500,0,22,211,446,700,949,1167,1381,1642,17,237,540,380,811,270,460,601,755,980,1196,236,451,602,817,1128,345,713,897,337,78,246,471,61,201,356,146,297,549,727,942,1195,1385
participant_4_LEVEL,1,1,1,2,3,4,4,5,5,6,6,6,7,7,8,8,8,9,9,9,10,10,10,10,10,11,11,12,12,13,13,13,13,13,13,14,14,14,14,15,15,16,16
participant_4_MINIONSKILLED,0,0,0,1,1,1,2,7,7,7,10,10,16,16,18,19,19,19,20,22,22,22,22,22,22,23,23,28,30,30,30,32,37,37,37,38,38,39,46,46,46,54,58
participant_4_KILLS,0,0,0,0,0,0,0,0,0,0,0,0,0,0,0,0,0,0,0,0,1,1,1,1,1,1,1,1,1,1,1,1,1,1,1,1,1,1,1,2,2,2,2
participant_4_BUY,[],"[1055, 2003, 3340]",[],[],[],[],[],"[3051, 2055]",[],[],"[1001, 1028]",[3067],[],[],[],[],[3057],[3078],[],[3158],"[1036, 3070]","[2055, 2055]",[],[],[3364],[3133],[],[],[],[],[1027],[],[],[3004],[],[1043],[],[],[],[],[1053],[],[]
participant_4_SOLD,[],[],[],[],[2010],"[2003, 2010]",[],[2010],[2055],[],[],[1028],[],[],[],[],[],"[3057, 3051, 3067]",[],[1001],[],[],[],[],"[3340, 2055, 2055]",[1036],[],[],[],[],[],[],[],"[3070, 3133, 1027]",[],[],[],[3004],[],[],[],[],[]
participant_4_UNDO,[],[],[],[],[],[],[],[],[],[],[],[],[],[],[],[],[],[],[],[],[],[],[],[],[],[],[],[],[],[],[],[],[],[],[],[],[],[],[],[],[],[],[]
participant_5_GOLD,500,500,586,901,1172,1368,1587,1917,2220,2432,2671,2988,3519,4256,4875,5438,5868,6535,7077,7265,7387,7704,9062,9184,9524,10338,11101,11543,11870,12063,12886,13046,13222,13718,14045,14879,15001,15764,16136,16460,16782,17409,18606
participant_5_CURRENTGOLD,500,0,86,401,672,868,1087,1417,1720,1932,2171,2488,3019,1156,75,638,1068,1735,2277,1365,612,929,2287,284,625,1438,2201,393,721,913,1736,1897,2072,99,426,1260,82,845,1217,1541,263,890,1906
participant_5_LEVEL,1,1,1,3,4,5,5,6,7,8,8,9,10,10,10,11,11,12,12,12,12,12,13,13,14,14,14,14,15,15,15,15,15,16,16,16,16,17,17,17,17,18,18
participant_5_MINIONSKILLED,0,0,3,13,21,25,30,39,46,51,54,61,66,66,71,74,77,82,82,83,83,90,102,102,105,105,105,105,105,105,116,117,119,119,119,125,125,132,132,133,133,133,136
participant_5_KILLS,0,0,0,0,0,0,0,0,0,0,0,0,1,3,4,5,5,6,7,7,7,7,8,8,8,10,11,12,12,12,13,13,13,14,14,15,15,16,16,16,16,16,19
participant_5_BUY,[],"[1083, 2003, 3340]",[],[],[],[],[],[],[],[],[],[],[],"[3134, 1053, 1001, 1042]","[6692, 3006]",[],[],[],[],[3134],[1037],[],[],"[6676, 3134]",[],[],[],"[3181, 1036]",[],[],[],[],[],"[3134, 3142]",[],[],[3140],[],[],[],[3139],[],[]
participant_5_SOLD,[],[],[],[],[],[],[2003],[],[],[],[],[],[],[],"[3134, 1053, 1001, 1042]",[],[],[],[],[],[],[],[],"[3134, 1037]",[],[],[],[3134],[],[],[],[],[],"[1036, 1083, 3134]",[],[],[],[],[],[],[3140],[],[]
participant_5_UNDO,[],[],[],[],[],[],[],[],[],[],[],[],[],[],[],[],[],[],[],[],[],[],[],[],[],[],[],[],[],[],[],[],[],[],[],[],[],[],[],[],[],[],[]
participant_6_GOLD,500,500,620,1018,1318,1583,1761,1939,2296,2819,2941,3249,3671,4036,4416,4538,4962,5633,5919,6092,6635,6783,7561,7984,8396,8519,9961,10221,11081,11543,11816,12343,12465,12799,13021,13381,13629,13752,14224,15120,15836,16258,16419
participant_6_CURRENTGOLD,500,0,120,518,818,1083,1261,1439,1796,2319,241,549,171,536,916,1038,1462,2133,2419,142,285,433,1211,284,696,319,1761,106,966,1429,76,603,726,409,632,992,1240,163,635,1531,1296,1719,1819
participant_6_LEVEL,1,1,2,3,4,4,5,6,6,7,7,7,8,8,9,9,9,10,10,10,10,11,11,12,12,12,13,13,14,14,15,15,15,16,16,16,16,16,16,17,18,18,18
participant_6_MINIONSKILLED,0,0,0,0,0,1,1,4,5,5,5,5,5,5,6,6,6,6,7,7,8,8,9,9,9,9,13,13,24,25,25,25,25,25,25,25,25,25,25,25,28,28,28
participant_6_KILLS,0,0,0,0,0,0,0,0,0,0,0,0,0,1,1,1,1,1,1,1,1,1,1,1,1,1,1,1,1,2,2,2,2,2,2,2,2,2,2,2,2,2,2
participant_6_BUY,[],"[3858, 2003, 2003, 3340]",[],[],[],[],[],"[1029, 1033, 2003, 2003, 2003, 2003]",[],[],"[3024, 2003]",[],"[3111, 2003, 2003, 2003]",[],[],[],[3050],[],[1033],[],[1029],[],"[1031, 2003, 2003, 2003]",[],[],[],[6660],[],[],[],[6662],[],[],[],[],[],"[1057, 1028]",[],[],[],"[3001, 1029]",[],[]
participant_6_SOLD,[],[],[],[],"[2003, 2003]",[],[],[],[],[3858],[1029],"[2003, 2003, 2003]","[1033, 2422]",[],"[2003, 2003]","[2003, 2003, 2003]","[3859, 3024]",[],[],[],[],[],[1029],[],"[2003, 2003, 2003]",[],[],[],[],[],"[6660, 1033, 1031]",[],[],[],[],[],[],[],[],[],"[1028, 1057]",[],[]
participant_6_UNDO,[],[],[],[],[],[],[],[],[],[],[],[],[],[],[],[],[],[],[],[],[],[],[],[],[],[],[],[],[],[],[],[],[],[],[],[],[],[],[],[],[],[],[]
participant_7_GOLD,500,500,625,962,1547,1816,2201,2727,3009,3295,3459,3713,4305,4681,5054,5574,5950,6254,6390,6612,7107,7388,8465,9165,9288,9548,9671,10309,10482,10850,11149,11550,11819,12483,13059,13847,14117,14330,14744,15709,16224,16646,17176
participant_7_CURRENTGOLD,500,0,125,452,587,846,1221,1747,519,795,959,1203,595,971,1344,1864,65,369,505,127,622,903,1980,756,278,538,661,1299,1473,1840,639,1041,1309,1974,2549,3338,808,1020,1435,2400,2915,297,526
participant_7_LEVEL,1,1,1,3,4,5,6,6,7,7,7,8,9,9,10,10,10,11,11,11,11,12,12,13,13,13,13,14,14,14,14,15,15,15,16,16,16,16,17,17,18,18,18
participant_7_MINIONSKILLED,0,0,6,15,17,23,35,40,47,53,56,61,69,74,79,84,88,98,99,102,111,115,122,132,132,134,134,146,148,154,154,167,171,180,192,201,205,206,209,213,221,221,230
participant_7_KILLS,0,0,0,0,0,0,0,0,0,0,1,2,2,2,2,2,2,2,2,2,3,4,4,4,4,4,4,4,4,4,4,4,5,7,7,7,7,7,7,9,9,9,10
participant_7_BUY,[],"[1054, 1055, 2003, 3340]",[],[],[],[],[],"[6670, 2055, 2003]",[],[],[3006],[],[1018],[],[],[],[1037],[],"[6672, 1042, 1042]",[],"[6677, 1018]",[],[1042],[],[3124],[],[],[1042],[],[],"[3086, 1042]",[],[],"[3046, 1033]",[],[],[3140],[],[],[],[3139],[1053],[]
participant_7_SOLD,[],[],[],[],[],[],[2003],[],[],[],[2003],[],[],[2055],[],[],[],[],"[6670, 1018, 1037]",[],"[1042, 1042]",[],[],[],"[6677, 1018, 1042]",[],[],[],[],[],[1042],[],[],"[1042, 3086]",[],[],[1033],[],[],[],[3140],[1055],[]
participant_7_UNDO,[],"[[0, 1054]]",[],[],[],[],[],[],[],[],[],[],[],[],[],[],[],[],[],[],[],[],[],[],[],[],[],[],[],[],[],[],[],[],[],[],[],[],[],[],[],[],[]
participant_8_GOLD,500,500,583,818,1113,1438,1652,1966,2248,2497,3060,3629,3863,4382,4854,4977,5233,5568,5857,6245,6688,7160,7454,7800,7936,8060,8278,8738,9048,9400,9782,10245,11163,11865,12244,12797,12919,13126,13651,14907,15229,15677,16257
participant_8_CURRENTGOLD,500,0,83,318,613,938,1152,41,323,572,35,604,238,757,1229,1352,733,1068,132,520,163,635,629,975,11,135,353,514,823,1175,357,820,1738,790,1169,1722,995,1201,1727,2983,1705,1433,1832
participant_8_LEVEL,1,1,1,2,3,4,4,5,5,6,6,7,7,8,8,8,9,9,9,9,10,10,11,11,11,11,12,12,12,13,13,13,14,15,15,15,15,15,16,16,16,17,17
participant_8_MINIONSKILLED,0,0,3,9,17,26,31,39,45,51,55,61,67,80,92,92,97,99,104,109,109,110,111,117,118,118,119,124,127,132,138,148,165,165,172,179,179,184,189,199,199,199,201
participant_8_KILLS,0,0,0,0,0,0,0,0,0,1,1,1,2,2,2,2,2,4,4,4,5,5,6,7,7,7,10,10,11,11,11,12,12,12,12,12,12,12,12,14,15,15,15
participant_8_BUY,[],"[1039, 2031]",[],[],[],[],[],[],[],[],"[3134, 3133]",[],[3111],[],[],[],[],[],[],"[6691, 3134, 1036]",[1028],[],[],"[3814, 1029]",[],[1031],[],"[3133, 1037]",[],[],"[6333, 1038]",[],[],[2420],[],[],[],"[3026, 1036]",[],[],[3155],[],[]
participant_8_SOLD,[],[],[],[],[],[],[],[],[1039],[],[],[],[2422],[],[],[],[],[],[],"[3134, 3133]",[],[],[],"[1036, 3134, 1028]",[],[1029],[],[2031],[],[],"[1031, 3133, 1037]",[],[],[],[],[],[],"[1038, 2420]",[],[],[1036],[],[]
participant_8_UNDO,[],[],[],[],[],[],[],[],[],[],[],[],[],[],[],[],[],[],[],[],[],[],[],[],[],[],[],[],[],[],[],[],[],[],[],[],[],[],[],[],[],[],[]
participant_9_GOLD,500,500,522,699,915,1133,1289,1510,1734,1914,2277,2629,2812,3315,3638,3883,4207,4484,4655,4970,5110,5326,5616,5921,6061,6428,6643,6858,6999,7439,7580,7741,7881,8259,8400,8899,9081,9222,9612,10057,10568,11008,11136
participant_9_CURRENTGOLD,500,0,22,199,415,633,789,60,284,464,177,529,212,715,1038,1283,107,384,105,420,261,476,116,421,561,928,143,359,499,939,130,291,432,810,950,1449,332,472,862,1307,118,559,686
participant_9_LEVEL,1,1,1,2,3,3,4,4,5,6,6,6,7,7,8,8,8,9,9,9,10,10,10,11,11,11,12,13,13,13,13,13,14,15,15,15,15,16,16,17,17,17,17
participant_9_MINIONSKILLED,0,0,0,2,4,6,7,9,11,13,14,15,17,20,22,24,24,24,25,25,25,25,25,26,26,26,26,26,26,26,26,27,27,27,27,30,32,32,32,35,37,37,37
participant_9_KILLS,0,0,0,0,1,1,1,2,2,2,2,2,2,2,2,3,3,3,3,3,3,3,5,6,6,6,6,7,7,7,7,7,7,8,8,8,8,8,8,9,9,9,9
participant_9_BUY,[],"[1055, 2003]",[],[],[1054],[],[],[],"[3086, 1042]",[],[],[],[3046],[],[],[],"[1038, 1037]",[],[],[1018],[],[],[],"[3031, 6670]",[1018],[],[],[],[],[],[6673],[],[],[],[],[],[3026],[],[],[],[],"[1038, 3072]",[]
participant_9_SOLD,[],[],[],[],[],[2003],[],[],[],[],[],[],"[1042, 3086]",[],[],[],[],[],[],[],[],[],[],"[1038, 1037, 1018]",[],[],[],[],[],[],"[6670, 1018]",[],[],[],[],[],[],[],[],[],[],"[1054, 1055, 1038]",[]
participant_9_UNDO,[],[],[],[],[],[],[],[],[],[],[],[],[],[],[],[],[],[],[],[],[],[],[],[],[],[],[],[],[],[],[],[],[],[],[],[],[],[],[],[],[],[],[]
team0_KILLS,0,0,0,0,1,1,1,1,1,1,2,2,3,3,5,6,6,6,6,7,9,9,10,10,12,14,16,17,17,17,17,17,17,19,19,19,21,21,21,23,25,25,25
team0_CURRENTGOLD,2500,0,398,1990,2492,3931,5339,3279,4619,4489,2464,3336,2086,2885,3963,2268,3200,2936,3037,4990,1957,1978,2051,3330,5707,6190,2381,3002,4373,3964,2142,3340,3051,4292,3272,3552,3567,4888,6119,6474,4912,6476,6191
team0_TOTALGOLD,2500,2500,2898,4500,5912,7361,8769,9849,11199,12529,14079,15361,16881,17980,20407,22248,23880,25149,26475,29028,30860,32131,33554,34833,37210,39318,41534,43179,44551,45641,46655,47852,48961,51505,52548,53827,56182,57502,58735,60339,62853,64414,65449
team0_LEVEL,5,5,6,13,17,21,24,26,29,32,34,35,38,39,44,44,45,49,49,52,54,55,55,56,58,60,60,62,63,65,67,68,68,69,69,72,74,75,75,77,79,81,82
team0_SBIRES,0,0,10,47,63,96,124,149,172,197,220,239,258,279,291,315,342,357,384,405,413,428,435,459,480,487,492,504,530,548,562,572,588,599,609,628,649,660,681,688,692,727,740
team1_KILLS,0,0,0,0,1,1,1,2,2,3,4,5,7,10,11,13,13,16,17,17,19,20,24,26,26,28,32,34,35,36,37,38,39,43,43,44,44,45,45,50,51,51,55
team1_CURRENTGOLD,2500,0,436,1888,3105,4368,5510,4704,4642,6082,3583,5373,4235,4135,4602,6175,3435,5689,5438,2574,1943,3376,6223,2720,2171,3358,5119,2671,4482,6296,2938,4652,6277,4082,5726,8761,3457,3701,5876,9762,6297,4898,6769
team1_TOTALGOLD,2500,2500,2936,4398,6065,7338,8490,10059,11507,12957,14408,16208,18170,20670,22837,24410,26220,28474,29898,31184,32927,34361,38158,40054,41205,42893,45654,47669,49480,51295,53213,54925,56550,59124,60769,63803,64747,66194,68367,72253,74639,76998,79594
team1_LEVEL,5,5,6,13,18,21,24,27,30,34,34,37,41,42,45,46,47,51,51,51,53,55,57,60,61,61,64,66,68,69,70,71,73,77,78,78,78,80,82,84,86,88,88
team1_SBIRES,0,0,12,39,59,81,104,131,154,173,184,203,224,245,270,280,292,309,317,326,336,348,369,386,390,392,397,414,430,442,459,484,507,516,535,560,566,579,587,605,618,618,632
delta_KILLS,0,0,0,0,0,0,0,-1,-1,-2,-2,-3,-4,-7,-6,-7,-7,-10,-11,-10,-10,-11,-14,-16,-14,-14,-16,-17,-18,-19,-20,-21,-22,-24,-24,-25,-23,-24,-24,-27,-26,-26,-30
delta_CURRENTGOLD,0,0,-38,102,-613,-437,-171,-1425,-23,-1593,-1119,-2037,-2149,-1250,-639,-3907,-235,-2753,-2401,2416,14,-1398,-4172,610,3536,2832,-2738,331,-109,-2332,-796,-1312,-3226,210,-2454,-5209,110,1187,243,-3288,-1385,1578,-578
delta_TOTALGOLD,0,0,-38,102,-153,23,279,-210,-308,-428,-329,-847,-1289,-2690,-2430,-2162,-2340,-3325,-3423,-2156,-2067,-2230,-4604,-5221,-3995,-3575,-4120,-4490,-4929,-5654,-6558,-7073,-7589,-7619,-8221,-9976,-8565,-8692,-9632,-11914,-11786,-12584,-14145
delta_LEVEL,0,0,0,0,-1,0,0,-1,-1,-2,0,-2,-3,-3,-1,-2,-2,-2,-2,1,1,0,-2,-4,-3,-1,-4,-4,-5,-4,-3,-3,-5,-8,-9,-6,-4,-5,-7,-7,-7,-7,-6
delta_SBIRES,0,0,-2,8,4,15,20,18,18,24,36,36,34,34,21,35,50,48,67,79,77,80,66,73,90,95,95,90,100,106,103,88,81,83,74,68,83,81,94,83,74,109,108
