name,frame_0,frame_1,frame_2,frame_3,frame_4,frame_5,frame_6,frame_7,frame_8,frame_9,frame_10,frame_11,frame_12,frame_13,frame_14,frame_15,frame_16,frame_17,frame_18,frame_19,frame_20,frame_21,frame_22,frame_23,frame_24
nameStamp,Tstart,Tearly,Tearly,Tearly,Tearly,Tearly,Tearly,Tearly,Tearly,Tearly,Tearly,Tearly,Tearly,Tearly,Tearly,Tmid,Tmid,Tmid,Tmid,Tmid,Tmid,Tmid,Tmid,Tmid,Tmid
timestamp,0,60020,120029,180062,240083,300088,360095,420125,480139,540166,600177,660185,720210,780231,840251,900259,960272,1020285,1080310,1140318,1200344,1260367,1320374,1380387,1440387
participant_0_GOLD,500,500,583,895,1281,1893,2201,2477,2801,3366,3628,3814,4391,4732,5161,5453,6104,7509,7802,8504,9172,10028,10501,11268,11527
participant_0_CURRENTGOLD,500,0,83,395,781,493,426,702,326,891,1153,139,706,197,626,43,694,2099,492,1194,1863,2718,141,908,1177
participant_0_LEVEL,1,1,1,3,4,4,5,6,6,7,8,8,8,9,10,10,11,11,12,12,13,13,14,14,14
participant_0_MINIONSKILLED,0,0,3,14,27,27,35,44,53,66,74,78,85,97,108,108,118,132,132,151,160,169,175,182,184
participant_0_KILLS,0,0,0,0,0,1,1,1,1,1,1,1,1,1,1,1,2,4,4,4,4,5,5,6,6
participant_0_BUY,[],"[1054, 2003, 3340]",[],[],[],[1053],"[1001, 2055]",[],"[1036, 1036]",[],[],"[3134, 1036, 1033]",[],[6692],[],"[3111, 1033, 2055]",[],[],"[3123, 3133]",[],[],[],"[3071, 3155]",[],[]
participant_0_SOLD,[],[],[],[],[2003],[],[],[2055],[],[],[],"[1036, 1036]",[],"[3134, 1036, 1053]",[],"[1001, 1033]",[],[2055],[],[],[],[],"[3133, 1033]",[],[]
participant_0_UNDO,[],[],[],[],[],[],[],[],[],[],[],[],[],[],[],[],[],[],[],[],[],[],[],[],[]
participant_1_GOLD,500,500,662,1048,1348,2052,2387,2649,3355,3682,3925,4084,4606,4903,5618,5845,6267,6869,7381,7553,8101,9172,9431,10303,10460
participant_1_CURRENTGOLD,500,0,162,548,848,1552,1887,374,1080,1407,60,219,741,1038,1753,245,667,1269,96,268,816,457,716,1588,1685
participant_1_LEVEL,1,1,2,3,4,5,5,6,7,7,8,8,8,9,9,10,10,10,11,11,11,12,13,13,13
participant_1_MINIONSKILLED,0,0,0,0,0,6,6,6,11,11,11,12,12,12,14,14,14,14,14,14,14,14,14,17,18
participant_1_KILLS,0,0,0,1,1,1,1,1,1,1,1,1,1,1,1,1,1,1,1,1,1,1,1,1,1
participant_1_BUY,[],"[3858, 2003, 2003, 3340]",[],[],"[1028, 1004]",[],"[3067, 2003, 2003]",[],[],[],"[1033, 1029]",[],[],[],[],"[3190, 2055, 2055, 3364]",[],[],"[3114, 3158, 2055]",[],[],[],"[3504, 2055, 2055]",[],[]
participant_1_SOLD,[],[],[],"[2003, 2003, 2010]",[],[],[1028],[],[2003],[],"[2010, 2010]",[3858],[2003],[],[],"[3067, 1033, 1029, 3340, 2055]",[2055],[3859],"[1004, 2422, 2055]",[],[],[],[3114],[2055],[]
participant_1_UNDO,[],[],[],[],[],[],[],[],[],[],[],[],[],[],[],[],[],[],[],[],[],[],[],[],[]
participant_2_GOLD,500,500,583,927,1204,1529,1893,2127,2831,3073,3572,4129,4506,4768,5969,6673,7093,7615,8246,8831,9305,10059,10681,11345,11632
participant_2_CURRENTGOLD,500,0,83,417,694,534,538,337,1031,323,822,1369,81,343,444,698,1118,290,621,606,1080,1834,816,1481,1757
participant_2_LEVEL,1,1,1,3,4,5,6,6,7,8,8,9,9,9,10,11,11,12,12,13,13,14,14,15,15
participant_2_MINIONSKILLED,0,0,3,13,22,31,42,48,60,67,80,93,99,107,117,124,137,137,145,165,177,191,192,200,203
participant_2_KILLS,0,0,0,0,0,0,0,0,0,0,0,0,0,0,1,2,2,3,4,4,4,5,5,5,6
participant_2_BUY,[],"[1082, 2031]",[],[],[],"[3070, 2055]",[1027],[1052],[],"[3802, 1052]",[],[],[6653],[],[3020],"[1058, 1001]",[],[3003],"[3363, 3364, 1029]",[3191],[],[],"[3020, 3108]",[],[]
participant_2_SOLD,[],[],[],[],[],[],[],[],[],"[1052, 1027]",[2055],[],"[3802, 1052]",[],[],[],[],"[3070, 1058, 3003]","[3340, 3363]",[1029],[],[],"[1001, 2031]",[],[]
participant_2_UNDO,[],[],[],[],[],[],[],[],[],[],[],[],[],[],[],"[[0, 3020]]",[],[],[],[],[],[],[],[],[]
participant_3_GOLD,500,500,523,1312,1530,1776,2046,2486,2789,3204,3437,3821,3964,4332,5008,5263,5462,5960,6319,7069,7459,7631,8050,8771,8861
participant_3_CURRENTGOLD,500,0,23,812,80,326,96,536,839,1254,87,471,614,332,1008,663,862,160,519,1269,759,116,535,1256,1286
participant_3_LEVEL,1,1,1,2,3,3,4,5,5,6,6,7,7,7,8,8,8,9,10,10,11,11,11,12,12
participant_3_MINIONSKILLED,0,0,0,9,12,15,24,40,47,61,67,78,79,90,98,102,107,114,124,126,134,134,137,141,141
participant_3_KILLS,0,0,0,1,1,1,1,1,1,1,1,1,1,1,1,1,1,1,1,3,3,3,3,5,5
participant_3_BUY,[],"[1054, 2003, 3340]",[],[],"[1042, 1036, 1053, 2003]",[],"[2031, 1036]",[],[],[],"[3006, 1042]",[],[],[6670],[],[1018],[],"[6673, 1042, 1042, 1042]",[],[],[3086],"[3363, 1037]",[],[],[]
participant_3_SOLD,[],[],[],[2003],[],[2003],[],[],[],[],[],[],[],"[1036, 1042]",[],[],[],"[6670, 1018, 1053]",[],[],[1042],"[2031, 3340]",[],[],[]
participant_3_UNDO,[],[],[],[],"[[0, 1036], [0, 1042]]",[],[],[],[],[],[],[],[],[],[],[],[],"[[0, 1042]]",[],[],[],[],[],[],[]
participant_4_GOLD,500,500,522,1165,1328,1568,1717,1886,2109,2337,2492,2726,2893,3189,3634,3880,4083,4880,5021,5651,5991,6492,6712,7205,7335
participant_4_CURRENTGOLD,500,0,22,665,178,418,67,236,459,687,152,386,553,849,1294,240,443,1240,156,786,1126,1627,198,690,760
participant_4_LEVEL,1,1,1,2,2,3,3,4,5,5,6,6,6,7,7,8,8,9,9,10,10,11,11,11,12
participant_4_MINIONSKILLED,0,0,0,3,5,7,8,10,12,14,15,17,18,23,25,27,29,32,32,34,34,36,37,39,39
participant_4_KILLS,0,0,0,0,0,1,1,1,2,2,2,2,3,3,4,4,4,5,6,6,6,9,9,11,11
participant_4_BUY,[],"[1039, 2031, 3340]",[],[],[],[],[],"[3145, 1082, 1001, 2055]",[],[],"[1026, 3020]",[],[],[],[],"[4636, 1052]",[],[],"[1058, 1052]",[],[],"[3041, 3145]",[],[],[]
participant_4_SOLD,[],[],[],[],[],[],[],[],[],"[2055, 1039]","[2031, 1001]",[],[],[],[],"[3145, 1026]",[],[],[],[],[],"[1082, 1052, 1052]",[],[],[]
participant_4_UNDO,[],[],[],[],[],[],[],[],[],[],[],[],[],[],[],[],[],[],[],[],[],[],[],[],[]
participant_5_GOLD,500,500,583,846,1071,1605,1812,2154,2722,2971,3570,3936,4780,5091,5407,5843,5966,6163,6438,6561,7192,7415,7893,8186,8226
participant_5_CURRENTGOLD,500,0,83,346,571,255,462,804,22,271,870,196,1040,1351,82,3,126,323,598,286,917,675,1153,246,76
participant_5_LEVEL,1,1,1,3,4,5,5,6,7,8,9,9,10,10,11,11,11,11,11,11,12,12,13,13,13
participant_5_MINIONSKILLED,0,0,3,11,15,22,27,37,50,57,65,76,95,106,114,115,115,115,120,120,135,135,149,152,152
participant_5_KILLS,0,0,0,1,1,1,1,1,1,1,1,1,1,1,2,2,2,3,4,4,5,5,5,5,5
participant_5_BUY,[],"[1055, 2003]",[],"[1083, 2031]",[],[],[],"[1036, 1036, 1042]",[],[],[],"[6670, 1037, 2055]",[],[],[6672],[],"[3111, 3057, 1036, 3363]",[3133],[],[],[3508],[],[3155],[],[]
participant_5_SOLD,[],[],[],"[2010, 2003]",[],[2010],[],[2010],[],[],[],"[1036, 1042, 1036]",[2055],[],"[6670, 1037]",[],"[2422, 1083, 3340]",[1036],[],[],"[3133, 3057]",[],[],[],[]
participant_5_UNDO,[],[],[],[],[],[],[],[],[],[],[],[],[],[],[],[],[],[],[],[],[],[],[],[],[]
participant_6_GOLD,500,500,654,1048,1248,1587,1922,2044,2447,2828,3164,3500,3999,4311,4654,5056,5364,5486,5820,6040,6247,6370,6754,6995,7035
participant_6_CURRENTGOLD,500,0,154,548,748,1087,1422,344,747,1128,1464,325,84,396,739,1141,1449,146,480,225,432,155,539,780,760
participant_6_LEVEL,1,1,2,3,4,4,5,5,6,6,7,7,8,8,9,9,10,10,10,11,11,11,11,12,12
participant_6_MINIONSKILLED,0,0,0,0,0,2,3,3,4,4,6,6,6,6,6,6,7,7,7,9,9,9,19,19,19
participant_6_KILLS,0,0,0,0,0,0,0,0,0,0,0,0,0,0,0,0,0,0,0,0,0,0,0,0,0
participant_6_BUY,[],"[1082, 3340, 2003, 2003, 2003]",[],[],[],[],"[3145, 2003, 2003, 2055]",[],"[1001, 2003, 2003, 2055]",[],[],[],[],[],"[3158, 1026]",[],[],"[1028, 1028]",[],[],[],[4636],[],[],[]
participant_6_SOLD,[],[],[],[2003],[2003],[2003],[],[2055],"[2003, 2003]",[2003],[2003],[2055],[],[],[1001],[],[],[],[],[],[],"[3145, 1028, 1026]",[],[],[]
participant_6_UNDO,[],[],[],[],[],[],[],[],[],[],[],[],[],[],[],[],[],[],[],[],[],[],[],[],[]
participant_7_GOLD,500,500,625,948,1232,1564,1767,2036,2283,2646,2859,3108,3500,3755,3920,4196,4382,4574,4857,5050,5462,5613,5965,6158,6198
participant_7_CURRENTGOLD,500,0,125,438,722,1044,-38,231,-57,296,509,758,1140,1395,110,386,572,-86,197,390,802,53,405,598,848
participant_7_LEVEL,1,1,1,3,4,5,5,6,7,7,8,9,9,10,10,10,10,11,11,11,12,12,12,12,12
participant_7_MINIONSKILLED,0,0,6,15,24,34,36,45,49,60,65,73,77,85,87,92,96,100,109,113,121,123,132,133,133
participant_7_KILLS,0,0,0,0,0,0,0,0,0,0,0,0,1,1,1,1,1,1,1,1,1,1,1,1,1
participant_7_BUY,[],"[1035, 2031, 3340, 3364]",[],[],[],[],[],[6029],[],[],[],"[3044, 1001, 2055]",[3111],[],[],[],[],"[6630, 1036, 2055]",[],"[1028, 2055]",[],[3067],[],[],[]
participant_7_SOLD,[],[3340],[],[],[],[],[],[],[1035],[],[],[],"[2055, 2031, 1001]",[],[],[],[],"[6029, 3044]",[2055],[],[],"[2055, 1028]",[],[],[]
participant_7_UNDO,[],[],[],[],[],[],[],[],[],[],[],[],[],[],[],[],[],[],[],[],[],[],[],[],[]
participant_8_GOLD,500,500,583,1125,1388,1718,2071,2236,2621,2975,3416,3771,4071,4545,5477,6290,6567,7139,8202,8499,9395,9636,9787,10160,10200
participant_8_CURRENTGOLD,500,0,83,25,288,618,971,166,551,905,1346,451,751,1225,932,1745,352,174,1237,1534,1330,1572,422,795,625
participant_8_LEVEL,1,1,1,2,3,4,4,5,5,6,6,7,7,8,8,9,9,10,11,11,12,12,12,12,12
participant_8_MINIONSKILLED,0,0,3,10,17,24,34,36,47,60,75,85,94,104,107,115,124,124,141,147,160,167,169,174,174
participant_8_KILLS,0,0,0,0,0,1,1,1,1,1,2,2,2,2,2,3,3,3,3,3,3,3,3,3,3
participant_8_BUY,[],"[1029, 2003, 2003, 2003, 2003, 3340]",[],[],[],"[1028, 2031, 1001]",[],[],"[1011, 1026]",[],[],[4637],[],[],"[3020, 1052, 1027]",[3802],[],[],[],[1052],[],[3108],[],[6653],[]
participant_8_SOLD,[],[],[],[],"[2003, 2003, 2003, 2003]",[],[],[],[1028],[],[],"[1029, 1026, 1011]",[],[],[1001],"[1052, 1027]",[],[],[],[],[],[1052],[],"[3802, 3108]",[]
participant_8_UNDO,[],[],[],[],[],[],[],[],[],[],[],[],[],[],[],[],[],[],[],[],[],[],[],[],[]
participant_9_GOLD,500,500,582,963,1119,1633,1767,1912,2126,2362,2563,2763,3013,3222,3912,4053,4273,4488,4809,4979,5119,5364,5560,5792,5928
participant_9_CURRENTGOLD,500,0,82,28,184,33,168,312,526,762,963,218,468,677,712,778,998,1063,1384,1404,1469,1714,85,318,303
participant_9_LEVEL,1,1,1,2,2,3,4,4,5,5,6,6,7,7,8,8,8,8,9,9,9,9,9,9,10
participant_9_MINIONSKILLED,0,0,0,0,1,1,1,2,2,2,2,2,2,4,4,4,6,6,7,8,8,10,13,15,16
participant_9_KILLS,0,0,0,0,0,1,1,1,1,1,1,1,1,1,2,2,2,2,2,2,2,2,2,2,2
participant_9_BUY,[],"[3850, 2003, 2003, 3340]",[],[1052],[],"[3916, 1001]",[],[],[],[],[],"[1052, 1052, 2055, 3364]",[],[],"[3145, 2055, 1028]",[2055],[],"[1026, 3020, 2055, 2055]",[],"[2055, 2055]",[2055],[],"[4636, 2055]",[],"[2055, 2055]"
participant_9_SOLD,[],[],[],"[2003, 2003]",[],[1052],[],[],[],[3850],[],"[3340, 2055]",[],[],"[1052, 1052]",[2055],"[2055, 3851]",[1001],"[2055, 2055]",[2055],"[2055, 2055]",[],"[3145, 1028, 2055]",[],[]
participant_9_UNDO,[],[],[],[],[],[],[],[],[],[],[],[],[],[],[],[],[],"[[0, 1026], [0, 3020]]",[],[],[],[],[],[],[]
team0_KILLS,0,0,0,2,2,4,4,4,5,5,5,5,6,6,8,9,10,14,16,18,18,23,23,28,29
team0_CURRENTGOLD,2500,0,373,2837,2581,3323,3014,2185,3735,4562,2274,2584,2695,2759,5125,1889,3784,5058,1884,4123,5644,6752,2406,5923,6665
team0_TOTALGOLD,2500,2500,2873,5347,6691,8818,10244,11625,13885,15662,17054,18574,20360,21924,25390,27114,29009,32833,34769,37608,40028,43382,45375,48892,49815
team0_LEVEL,5,5,6,13,17,20,23,27,30,33,36,38,38,41,44,47,48,51,54,56,58,61,63,65,66
team0_SBIRES,0,0,6,39,66,86,115,148,183,219,247,278,293,329,362,375,405,429,447,490,519,544,555,579,585
team1_KILLS,0,0,0,1,1,3,3,3,3,3,4,4,5,5,7,8,8,9,10,10,11,11,11,11,11
team1_CURRENTGOLD,2500,0,527,1385,2513,3037,2985,1857,1789,3362,5152,1948,3483,5044,2575,4053,3497,1620,3896,3839,4950,4169,2604,2737,2612
team1_TOTALGOLD,2500,2500,3027,4930,6058,8107,9339,10382,12199,13782,15572,17078,19363,20924,23370,25438,26552,27850,30126,31129,33415,34398,35959,37291,37587
team1_LEVEL,5,5,6,13,17,21,23,26,30,32,36,38,41,43,46,47,48,50,52,53,56,56,57,58,59
team1_SBIRES,0,0,12,36,57,83,101,123,152,183,213,242,274,305,318,332,348,352,384,397,433,444,482,493,494
delta_KILLS,0,0,0,1,1,1,1,1,2,2,1,1,1,1,1,1,2,5,6,8,7,12,12,17,18
delta_CURRENTGOLD,0,0,-154,1452,68,286,29,328,1946,1200,-2878,636,-788,-2285,2550,-2164,287,3438,-2012,284,694,2583,-198,3186,4053
delta_TOTALGOLD,0,0,-154,417,633,711,905,1243,1686,1880,1482,1496,997,1000,2020,1676,2457,4983,4643,6479,6613,8984,9416,11601,12228
delta_LEVEL,0,0,0,0,0,-1,0,1,0,1,0,0,-3,-2,-2,0,0,1,2,3,2,5,6,7,7
delta_SBIRES,0,0,-6,3,9,3,14,25,31,36,34,36,19,24,44,43,57,77,63,93,86,100,73,86,91
