name,frame_0,frame_1,frame_2,frame_3,frame_4,frame_5,frame_6,frame_7,frame_8,frame_9,frame_10,frame_11,frame_12,frame_13,frame_14,frame_15,frame_16,frame_17,frame_18,frame_19,frame_20,frame_21,frame_22,frame_23,frame_24,frame_25,frame_26,frame_27,frame_28,frame_29,frame_30,frame_31,frame_32,frame_33,frame_34
nameStamp,Tstart,Tearly,Tearly,Tearly,Tearly,Tearly,Tearly,Tearly,Tearly,Tearly,Tearly,Tearly,Tearly,Tearly,Tearly,Tearly,Tearly,Tmid,Tmid,Tmid,Tmid,Tmid,Tmid,Tmid,Tmid,Tmid,Tmid,Tmid,Tmid,Tmid,Tmid,Tmid,Tend,Tend,Tend
timestamp,0,60024,120028,180040,240062,300074,360099,420100,480103,540110,600119,660134,720145,780166,840167,900188,960207,1020215,1080242,1140275,1200278,1260297,1320329,1380382,1440389,1500400,1560426,1620456,1680484,1740516,1800546,1860561,1920589,1980615,2040615
participant_0_GOLD,500,500,541,762,980,1200,1351,1721,1969,2263,2455,2725,2861,3025,3148,3319,3512,3783,4121,4518,4712,4834,4999,5187,5309,5467,5639,6019,6184,6546,6717,7362,7562,7784,7865
participant_0_CURRENTGOLD,500,0,41,262,480,700,116,486,734,13,205,475,611,775,48,219,412,683,1021,68,262,34,199,387,74,232,404,484,484,845,367,1012,1212,49,130
participant_0_LEVEL,1,1,1,3,4,5,5,6,7,7,7,8,8,9,9,9,9,10,11,11,11,11,11,11,11,11,11,12,12,13,13,14,14,14,14
participant_0_MINIONSKILLED,0,0,1,6,9,12,14,26,33,34,38,47,48,51,51,54,58,61,67,70,71,71,74,74,74,76,76,76,79,83,85,95,100,100,100
participant_0_KILLS,0,0,0,0,1,1,1,1,2,2,3,4,6,7,7,8,8,10,13,14,15,15,17,20,20,21,21,23,23,23,24,25,27,27,27
participant_0_BUY,[],"[3340, 2003, 2003, 2003, 1082]",[],[],[],"[2003, 1001, 1056]",[],"[1028, 1052]",[],[4635],[],"[3020, 3057]",[],"[3113, 1026]",[],[3100],[],[],[4633],"[3108, 3067]",[],[],[4629],[],[1058],[],[],[1058],[],[],[],[3089],[3157],[],[]
participant_0_SOLD,[],[],[],"[2003, 2003]",[],[],"[2003, 2003]",[],[],"[1028, 1052]",[],[1001],[],[1056],[],"[3057, 3113, 1026]",[],[],[4635],[],[],[],"[3108, 3067]",[],[],[],[],[1082],[],[],[],"[1058, 1058]",[],[],[]
participant_0_UNDO,[],[],[],[],[],[],[],[],[],[],[],[],[],[],[],[],[],[],[],[],[],[],[],[],[],[],[],[],[],[],[],[],[],[],[]
participant_1_GOLD,500,500,605,828,1291,1498,2251,2505,2866,3345,3591,3817,4044,4426,5276,5471,5841,6218,6715,7150,7407,7529,7687,8040,8162,8370,8627,8855,9407,10327,11098,11776,12061,12394,12474
participant_1_CURRENTGOLD,500,0,105,328,156,363,1116,1370,1731,2210,466,692,919,1301,2151,146,516,893,1390,1825,2082,19,177,530,652,860,1117,381,932,1852,438,151,437,119,199
participant_1_LEVEL,1,1,2,2,3,3,4,4,6,6,7,7,7,8,9,10,10,10,11,12,12,12,12,12,12,12,13,13,13,14,14,15,16,16,16
participant_1_MINIONSKILLED,0,0,0,0,0,0,0,0,3,6,6,9,9,9,13,13,13,14,21,21,21,21,23,23,23,23,23,24,27,27,29,29,31,33,33
participant_1_KILLS,0,0,0,0,0,0,0,0,0,0,0,0,0,0,0,0,0,0,0,0,0,0,1,1,1,1,1,1,1,2,2,2,2,4,4
participant_1_BUY,[],"[3850, 2003, 2003, 3340]",[],[],[],[],[],"[2031, 1001]",[],[],"[1052, 1052, 1027, 2055]",[],[],[],"[3802, 3020]",[],[],[],[1026],[],[],[],[],"[6655, 1052]",[],[],[],"[3364, 4630]",[],[],[3135],[4632],[],[],[3102]
participant_1_SOLD,[],[],[],[2003],[2003],[],[],[],[],[],[],[2055],[3850],[],"[1052, 1027, 1001]",[],[],[],[],[3851],[],[],[],"[3802, 1026]",[],[],[],"[3340, 1052]",[],[],[4630],[],[],[],[4632]
participant_1_UNDO,[],[],[],[],[],[],[],[],[],[],"[[0, 1052]]",[],[],[],[],[],[],[],[],[],[],[],[],[],[],[],[],[],[],[],[],[],[],[],[]
participant_2_GOLD,500,500,520,811,1283,1475,2055,2247,3138,3316,4058,4494,5665,6087,6452,7000,7293,8262,9322,9896,10473,10595,11487,12529,12652,12950,13122,14348,14470,15045,15592,16662,17448,17670,17801
participant_2_CURRENTGOLD,500,0,20,311,783,225,795,152,1033,746,1478,414,1575,457,812,760,1053,2022,1182,56,633,756,347,1390,262,560,733,849,971,1545,2093,1863,149,371,251
participant_2_LEVEL,1,1,1,3,4,4,6,6,7,7,8,9,10,10,10,11,11,12,12,13,13,13,13,14,14,14,14,15,15,15,16,17,17,17,17
participant_2_MINIONSKILLED,0,0,0,10,13,17,23,27,34,38,49,50,63,63,74,78,85,86,90,92,98,98,102,110,110,110,110,112,112,123,124,136,143,143,143
participant_2_KILLS,0,0,0,0,0,0,0,0,0,0,0,0,0,0,0,0,0,0,0,0,0,0,0,0,0,0,0,0,0,0,0,0,0,0,0
participant_2_BUY,[],"[1082, 2003, 2003, 2003]",[],[],[],[],"[1052, 1001]",[],[],"[3145, 1028]",[],[],[],[],[1026],[],[],[],[],"[4636, 1033]",[],[3111],[],[],[1052],[],[],[1029],[3191],[],[2420],[],[],"[3157, 1052]",[]
participant_2_SOLD,[],[],[],[2003],"[2003, 2003]",[],[],[],[],[1052],[],[],[],[],[],[],[],[],[],"[3145, 1028, 1026]",[],"[1001, 1033]",[],[],[],[],[],[],"[1052, 1029]",[],[],[],[],"[2420, 3191, 2421]",[]
participant_2_UNDO,[],[],[],[],[],[],[],[],[],[],[],[],[],[],[],[],[],[],[],[],[],[],[],[],[],[],[],[],[],[],[],[],[],[],[]
participant_3_GOLD,500,500,541,825,1127,1424,1561,1837,2231,2880,3023,3375,3736,3942,4565,4687,5400,5880,6544,6842,7127,7326,7740,8221,8343,8647,9190,9425,10055,10353,10580,11102,11509,12058,12138
participant_3_CURRENTGOLD,500,0,41,325,627,924,61,337,731,1380,173,525,886,1092,1715,87,800,1280,744,1042,1327,393,457,938,310,614,357,592,1223,1520,377,99,507,705,-1295
participant_3_LEVEL,1,1,1,2,3,4,4,5,5,6,6,7,7,8,8,8,9,10,10,11,11,11,12,12,12,13,13,13,14,14,14,15,15,16,16
participant_3_MINIONSKILLED,0,0,1,10,18,25,26,35,48,58,59,69,79,84,92,92,101,108,109,109,115,119,128,132,132,137,141,143,161,164,166,166,168,174,174
participant_3_KILLS,0,0,0,0,0,0,0,0,0,1,1,1,1,1,2,2,3,3,4,4,4,4,4,4,4,4,4,4,4,4,4,4,4,4,4
participant_3_BUY,[],"[3070, 2003, 2003, 3340]",[],[],[],[],"[1027, 1036, 1001]",[],[],[],"[3133, 3158]",[],[],[],[],"[3004, 3057, 1042]",[],[],"[3051, 1028]",[],[],[3078],[1036],[],[3044],[],[3067],[],[],[],"[3133, 6609]",[1031],[],[1036],[3133]
participant_3_SOLD,[],[],[],[2003],[2003],[],[],[],[],[],"[1036, 1001]",[],[],[],[],"[3070, 3133, 1027]",[],[],"[1042, 3004]",[],[],"[3057, 3051, 1028]",[],[],[1036],[],[],[],[],[],"[3044, 3067, 3133]",[],[],[],[1036]
participant_3_UNDO,[],[],[],[],[],[],[],[],[],[],[],[],[],[],[],[],[],[],[],[],[],[],[],[],[],[],[],[],[],[],[],[],[],[],[]
participant_4_GOLD,500,500,522,731,906,1120,1269,1464,1598,2003,2157,2332,2713,2867,3218,3495,3715,4141,4466,4837,5053,5256,6132,6293,6496,6665,7029,7170,7310,8428,8851,9292,9483,10185,10278
participant_4_CURRENTGOLD,500,0,22,231,406,620,769,514,648,1053,347,522,903,1057,93,370,590,1016,491,863,1078,1281,2157,633,837,1005,1369,695,835,1953,1127,367,558,1260,53
participant_4_LEVEL,1,1,1,2,3,4,4,4,5,6,6,6,6,7,7,8,8,9,9,9,10,10,11,11,12,12,12,12,12,13,13,14,14,14,14
participant_4_MINIONSKILLED,0,0,0,1,1,1,2,3,3,3,3,3,4,5,5,15,15,15,15,16,16,19,21,22,25,27,33,33,33,34,37,37,38,39,39
participant_4_KILLS,0,0,0,0,0,0,2,2,2,3,3,3,3,3,4,4,4,4,4,4,4,4,4,4,4,4,4,4,4,5,7,7,7,7,7
participant_4_BUY,[],"[1039, 2031, 2003, 2003, 2003, 3340, 3364]",[],[],"[1052, 2003, 2055, 2055]",[],[],[],[],[],"[3802, 3108, 2055, 2003, 2003, 2003]",[],[],[],[],"[6653, 3111, 2055, 2055, 2003]",[],[],[],[],[],"[1026, 1052, 1028, 1011]",[],[],[],[],[],"[4637, 2055, 2055]",[],[],"[1026, 1011, 1052]","[3116, 2055, 2055]",[],[2420],[]
participant_4_SOLD,[],[3340],[],[2003],[],[],"[2003, 2003, 2003]",[],[1039],[2055],[1052],"[2055, 2003]","[2003, 2055]",[],[2003],"[3802, 3108, 2422]",[2055],[2055],[],[2003],[],[1028],[],[],[],[],[],"[1026, 1011, 1052]",[2055],[2055],[],"[1026, 1011, 1052]",[],[],[]
participant_4_UNDO,[],"[[0, 2031]]",[],[],[],[],[],[],[],[],[],[],[],[],[],[],[],[],[],[],[],[],[],[],[],[],[],[],[],[],[],[],[],[],[]
participant_5_GOLD,500,500,597,860,1162,1473,1872,2120,2639,3104,3401,3683,3945,4264,4729,5315,6239,6591,6714,6885,7521,8780,9052,9189,10082,10250,10736,11331,11613,12005,12179,13127,14058,14181,14361
participant_5_CURRENTGOLD,500,0,97,360,662,973,1372,220,739,69,366,648,910,1229,129,715,1639,1991,429,135,771,2030,402,104,997,750,1237,731,563,956,379,1328,959,231,211
participant_5_LEVEL,1,1,1,3,4,5,6,6,7,8,8,9,9,10,11,11,12,12,12,12,13,14,14,14,14,15,15,15,15,16,16,16,17,17,17
participant_5_MINIONSKILLED,0,0,4,12,20,29,42,49,60,62,72,78,87,95,98,105,114,123,123,123,133,142,142,143,144,144,145,150,155,159,159,173,180,180,180
participant_5_KILLS,0,0,0,0,0,0,0,0,0,1,1,1,1,1,2,3,3,3,3,3,3,5,5,5,7,7,8,9,9,9,9,9,10,10,10
participant_5_BUY,[],[2033],[],[],[],[],[],"[3006, 1042]",[],"[1043, 1052]",[],[],[],[],[3115],[],[],[],"[1026, 1052, 1028]",[4635],[],[],"[4633, 1026]",[1052],[],[3113],[],[3100],[1033],[],[4632],[],[3102],[1026],[]
participant_5_SOLD,[],[],[],[],[],[],[],[],[],[1042],[],[],[],[],"[1043, 1052]",[],[],[],[],"[1028, 1052]",[],[],"[4635, 1026]",[],[],[1052],[],"[2033, 3113, 1026]",[],[],[1033],[],[4632],[],[]
participant_5_UNDO,[],[],[],[],[],[],[],[],[],[],[],[],[],[],[],[],[],[],[],[],[],[],[],[],[],[],[],[],[],[],[],[],[],[],[]
participant_6_GOLD,500,500,620,948,1591,1818,2018,2165,2520,3263,3669,3992,4114,4706,4959,5670,6133,6368,6490,6655,8105,8902,9411,9638,10899,11208,11852,12269,12391,12894,13198,13420,13802,15909,16121
participant_6_CURRENTGOLD,500,0,120,448,1091,218,68,215,570,863,1269,1592,314,306,559,1270,1733,1968,1590,255,1705,2502,3011,388,84,393,312,29,152,655,958,306,688,869,1021
participant_6_LEVEL,1,1,2,3,3,4,4,4,5,6,7,7,7,8,8,9,9,10,10,10,11,12,12,13,13,14,14,14,14,15,15,15,16,16,17
participant_6_MINIONSKILLED,0,0,0,0,0,0,0,0,2,2,6,6,6,6,7,14,14,16,16,19,22,27,29,35,37,38,45,54,54,59,65,65,71,76,79
participant_6_KILLS,0,0,0,0,0,0,0,0,0,0,0,0,0,0,1,1,1,1,1,1,1,1,1,1,1,1,1,1,1,1,1,1,1,1,1
participant_6_BUY,[],"[3858, 2003, 2003]",[],[],[],[],[],[],[3067],[],[1004],[],[1052],[],[4642],[],[],[],[],[6617],[],[],[],[3009],[],[],[1004],[3114],[],[],[3067],[],[],[3107],[]
participant_6_SOLD,[],[],[],[],[],"[2003, 2003]",[],[],[],[],[],[],[],[],"[1004, 1052]",[],[],[],[],"[3067, 4642, 3858]",[],[],[],[],[],[],[],[1004],[],[],[],[],[],"[3067, 3114]",[3859]
participant_6_UNDO,[],[],[],[],[],[],[],[],[],[],[],[],[],[],[],[],[],[],[],[],[],[],[],[],[],[],[],[],[],[],[],[],[],[],[]
participant_7_GOLD,500,500,583,797,1099,1312,1435,1641,1763,1984,2762,3100,3335,3670,3986,4363,4665,4787,4986,5109,5312,5609,5957,6379,6757,7370,7741,8240,8362,9095,9269,9547,9744,10441,10563
participant_7_CURRENTGOLD,500,0,83,297,589,802,65,271,393,614,802,280,505,540,846,1223,275,397,596,69,272,269,617,1039,182,795,1166,1665,222,955,229,232,430,1126,918
participant_7_LEVEL,1,1,1,3,4,5,5,5,5,6,7,7,8,8,9,10,10,10,10,10,10,11,11,11,12,12,13,13,13,14,14,14,15,16,16
participant_7_MINIONSKILLED,0,0,4,9,17,22,22,27,27,33,36,45,48,52,60,66,70,70,74,74,75,81,87,87,94,102,105,107,107,109,109,112,112,115,118
participant_7_KILLS,0,0,0,0,0,0,0,0,0,0,0,0,0,0,1,1,1,1,1,1,1,1,1,1,1,1,1,1,1,2,2,2,2,3,3
participant_7_BUY,[],"[1055, 2003, 3340]",[],[],[],[],[],[],"[6670, 1001]",[1029],[],[],[3047],[],[],"[1037, 1018]",[],"[6672, 1018]",[1042],[],[],[],"[3086, 1037]",[],[1042],[],[],[],[3085],[],[3133],[],[1018],[],[]
participant_7_SOLD,[],[],[],[2003],[],[],[],[],[],[],[],[],"[1001, 1029]",[],[],[],[],"[6670, 1018, 1037]",[],[],[],[],"[1018, 1042]",[],[],[],[],[],"[1037, 3086, 1042]",[],[],[],[],[],[]
participant_7_UNDO,[],[],[],[],[],[],[],[],[],[],[],[],[],[],[],[],[],[],[],[],[],[],[],[],[],[],[],[],[],[],[],[],[],[],[]
participant_8_GOLD,500,500,583,934,1253,1564,1914,2183,2500,2658,2949,3380,3593,3947,4885,5119,5463,5780,6021,6318,6786,7009,7281,7403,7526,7998,8296,8615,8738,9589,9763,10027,10392,11356,11695
participant_8_CURRENTGOLD,500,0,83,434,753,1064,1414,1683,400,258,549,980,693,1047,1985,744,1088,180,121,418,886,1109,206,328,151,623,921,1240,338,1190,263,527,292,1256,1595
participant_8_LEVEL,1,1,1,2,3,4,4,5,6,6,7,7,8,8,9,9,10,10,10,10,11,11,11,11,11,12,12,13,13,13,13,13,14,15,15
participant_8_MINIONSKILLED,0,0,3,14,25,33,43,51,59,61,68,80,85,95,101,104,110,117,124,130,144,149,149,149,149,154,161,164,164,176,176,178,184,199,205
participant_8_KILLS,0,0,0,0,0,0,0,0,0,0,1,1,1,1,1,1,1,1,1,1,1,1,1,2,2,3,3,4,4,5,5,5,5,5,5
participant_8_BUY,[],"[1056, 2003, 2003, 3340]",[],[],[],[],"[1027, 1052, 2055]",[],[],[],"[3802, 2055]",[1026],[],[1001],[],[],"[6655, 6655]",[],[],"[1052, 2420]",[],[1029],[],[],"[3191, 3020, 1052]",[],[],[],"[3157, 1033]",[],[3108],[1052],[],[],[]
participant_8_SOLD,[],[],[],[2010],[],"[2010, 2003]",[2003],[2055],[2010],[],"[1052, 1027]",[],[],[],[],[],"[1001, 3802, 1026, 3802, 1026]",[],[],[2055],[2420],[],[],[],"[1029, 1001]",[],[],[],"[1052, 1029, 2421]",[],[],[1056],[],[],[]
participant_8_UNDO,[],[],[],[],[],[],[],[],[],[],[],[],[],[],[],[],"[[0, 6655], [1001, 0]]",[],[],"[[0, 1052]]",[],[],[],[],"[[0, 3191]]",[],[],[],[],[],[],[],[],[],[]
participant_9_GOLD,500,500,522,678,855,1087,1288,1436,1570,1726,1910,2045,2179,2313,2762,2896,3081,3236,3370,3519,3814,3975,4266,4406,4546,4687,4827,5060,5230,5510,5852,6224,6365,6505,6688
participant_9_CURRENTGOLD,500,0,22,178,355,587,788,936,270,426,360,495,194,328,412,546,731,886,1020,319,614,775,1066,306,446,587,477,160,330,610,152,524,665,105,288
participant_9_LEVEL,1,1,1,2,3,4,4,5,5,5,6,6,6,7,7,7,8,8,8,8,9,10,10,10,10,10,10,10,10,11,11,12,12,12,12
participant_9_MINIONSKILLED,0,0,0,1,3,6,7,8,8,9,9,9,9,9,10,10,10,11,11,12,14,15,15,15,15,15,15,16,17,18,21,25,25,25,26
participant_9_KILLS,0,0,0,0,1,1,1,1,1,2,2,2,2,3,3,4,4,4,4,4,5,6,6,6,7,7,8,8,8,8,8,8,8,11,11
participant_9_BUY,[],"[1039, 2031]",[],[],[],"[3067, 1042]",[1036],[],[],[3051],[],[],[6631],"[1001, 1029]",[],[],[],[],[3047],"[1053, 1042, 1042]",[],[],[],"[3153, 1031, 1036]","[3133, 1037]",[],"[6333, 1028]",[3044],[],[],[],[1037],[],"[3053, 3066]",[]
participant_9_SOLD,[],[],[],[],[],[],[],[],[],"[1042, 1036]",[1039],[3340],"[3051, 3067]",[],[],[3513],[],[],"[1001, 1029]",[],[],[],[],"[1053, 1042, 1042]","[1036, 2031]",[],"[1031, 3133, 1037]",[1028],[],[],[],[],[],"[1037, 3044]",[]
participant_9_UNDO,[],[],[],[],[],[],[],[],[],[],[],[],[],[],[],[],[],[],[],[],[],[],[],[],[],[],[],[],[],[],[],[],[],[],[]
team0_KILLS,0,0,0,0,1,1,3,3,4,6,7,8,10,11,13,14,15,17,21,22,23,23,26,29,29,30,30,32,32,34,37,38,40,42,42
team0_CURRENTGOLD,2500,0,229,1457,2452,2832,2857,2859,4877,5402,2669,2628,4894,4682,4819,1582,3371,5894,4828,3854,5382,2483,3337,3878,2135,3271,3980,3001,4445,7715,4402,3492,2863,2504,-662
team0_TOTALGOLD,2500,2500,2729,3957,5587,6717,8487,9774,11802,13807,15284,16743,19019,20347,22659,23972,25761,28284,31168,33243,34772,35540,38045,40270,40962,42099,43607,45817,47426,50699,52838,56194,58063,60091,60556
team0_LEVEL,5,5,6,12,17,20,23,25,30,32,34,37,38,42,43,46,47,51,53,56,57,57,59,60,61,62,63,65,66,69,70,75,76,77,77
team0_SBIRES,0,0,2,27,41,55,65,91,121,139,155,178,203,212,235,252,272,284,302,308,321,328,348,361,364,373,383,388,412,431,441,463,480,489,489
team1_KILLS,0,0,0,0,1,1,1,1,1,3,4,4,4,5,8,10,10,10,10,10,11,14,14,15,18,19,21,23,23,25,25,25,26,30,30
team1_CURRENTGOLD,2500,0,405,1717,3450,3644,3707,3325,2372,2230,3346,3995,2616,3450,3931,4498,5466,5422,3756,1196,4248,6685,5302,2165,1860,3148,4113,3825,1605,4366,1981,2917,3034,3587,4033
team1_TOTALGOLD,2500,2500,2905,4217,5960,7254,8527,9545,10992,12735,14691,16200,17166,18900,21321,23363,25581,26762,27581,28486,31538,34275,35967,37015,39810,41513,43452,45515,46334,49093,50261,52345,54361,58392,59428
team1_LEVEL,5,5,6,13,17,22,23,25,28,31,35,36,38,41,44,46,49,50,50,50,54,58,58,59,60,63,64,65,65,69,69,70,74,76,77
team1_SBIRES,0,0,11,36,65,90,114,135,156,167,191,218,235,257,276,299,318,337,348,358,388,414,422,429,439,453,471,491,497,521,530,553,572,595,608
delta_KILLS,0,0,0,0,0,0,2,2,3,3,3,4,6,6,5,4,5,7,11,12,12,9,12,14,11,11,9,9,9,9,12,13,14,12,12
delta_CURRENTGOLD,0,0,-176,-260,-998,-812,-850,-466,2505,3172,-677,-1367,2278,1232,888,-2916,-2095,472,1072,2658,1134,-4202,-1965,1713,275,123,-133,-824,2840,3349,2421,575,-171,-1083,-4695
delta_TOTALGOLD,0,0,-176,-260,-373,-537,-40,229,810,1072,593,543,1853,1447,1338,609,180,1522,3587,4757,3234,1265,2078,3255,1152,586,155,302,1092,1606,2577,3849,3702,1699,1128
delta_LEVEL,0,0,0,-1,0,-2,0,0,2,1,-1,1,0,1,-1,0,-2,1,3,6,3,-1,1,1,1,-1,-1,0,1,0,1,5,2,1,0
delta_SBIRES,0,0,-9,-9,-24,-35,-49,-44,-35,-28,-36,-40,-32,-45,-41,-47,-46,-53,-46,-50,-67,-86,-74,-68,-75,-80,-88,-103,-85,-90,-89,-90,-92,-106,-119
