name,team0,team1
win,Fail,Win
firstBlood,False,True
firstTower,False,True
firstInhibitor,True,False
firstBaron,True,False
firstDragon,False,True
firstRiftHerald,False,False
towerKills,6,11
inhibitorKills,1,4
baronKills,2,0
dragonKills,1,5
riftHeraldKills,0,0
