name,frame_0,frame_1,frame_2,frame_3,frame_4,frame_5,frame_6,frame_7,frame_8,frame_9,frame_10,frame_11,frame_12,frame_13,frame_14,frame_15,frame_16,frame_17,frame_18,frame_19,frame_20,frame_21,frame_22,frame_23
nameStamp,Tstart,Tearly,Tearly,Tearly,Tearly,Tearly,Tearly,Tearly,Tearly,Tmid,Tmid,Tmid,Tmid,Tmid,Tmid,Tmid,Tmid,Tmid,Tmid,Tmid,Tmid,Tmid,Tmid,Tmid
timestamp,0,60025,120038,180043,240061,300086,360106,420127,480153,540181,600214,660243,720259,780285,840302,900335,960353,1020384,1080409,1140433,1200435,1260454,1320476,1380476
participant_0_GOLD,1400,1400,1818,2267,2734,3234,3749,4474,5484,6001,6571,7141,7557,8054,8705,9112,9552,10006,10710,11638,12145,12535,13434,14157
participant_0_CURRENTGOLD,1400,0,68,517,984,1484,149,874,1009,1526,2096,566,382,154,805,612,192,646,1350,2278,885,400,699,1382
participant_0_LEVEL,1,3,4,5,6,6,7,8,9,10,10,11,11,12,13,13,14,14,15,17,17,17,18,18
participant_0_MINIONSKILLED,0,0,1,2,3,8,9,10,12,13,15,15,16,20,21,22,23,24,25,31,38,38,38,40
participant_0_KILLS,0,0,0,0,0,0,0,1,2,2,2,3,3,3,4,4,4,4,4,5,5,5,6,6
participant_0_BUY,[],"[1043, 1001, 2003, 2003]","[1042, 1036]",[],[],[],"[1053, 1037, 3153]",[],[1037],[],[],"[6670, 1018, 3006]",[1018],"[6672, 2003, 2003]",[],"[1042, 1042]",[3086],[],[],[],[3085],[1037],[1018],[]
participant_0_SOLD,[],[],[],[],[2003],[2003],"[1036, 1053, 1043, 1037]",[],[],[],[],[1001],[],"[6670, 1018, 1037]",[],[],"[2003, 2003, 1042]",[2052],[],[],"[3086, 1042]",[],[],[]
participant_0_UNDO,[],[],"[[0, 1042]]",[],[],[],[],[],[],[],[],"[[0, 1018]]",[],[],[],[],[],[],[],[],[],[],[],[]
participant_1_GOLD,1400,1400,1841,2297,2810,3242,3824,4367,5404,6207,6657,7167,7722,8157,8600,9105,9588,10032,10647,11124,11604,12089,12748,13619
participant_1_CURRENTGOLD,1400,0,441,897,1410,342,924,317,1354,2157,2607,3117,187,622,215,720,1203,1647,397,374,854,439,1098,1969
participant_1_LEVEL,1,3,4,5,6,6,7,8,9,10,10,11,12,13,13,14,15,15,16,17,17,18,18,18
participant_1_MINIONSKILLED,0,0,0,0,2,2,2,5,8,8,8,9,13,14,14,17,17,17,17,17,19,20,21,23
participant_1_KILLS,0,0,0,0,0,0,1,1,2,3,3,3,3,3,3,3,3,3,3,3,3,3,4,5
participant_1_BUY,[],"[6660, 2003, 2003, 2003, 2003, 2003, 1001, 2003]",[],[],[],[3105],[],"[3068, 1033]",[],[],[],[],"[3111, 3001, 1052]",[],[1026],[],[],[],"[4637, 1006]",[3801],[],[1011],[],[]
participant_1_SOLD,[],[],"[2003, 2003]",[],[],[],[],"[6660, 3105]",[],[],[],[],"[1001, 1033]",[],[],[],[],[],"[1026, 1052]",[1006],[],[],[],[]
participant_1_UNDO,[],"[[0, 2003], [0, 2003], [0, 2003], [0, 2003]]",[],[],[],[],[],[],[],[],[],[],[],[],[],[],[],[],[],[],[],[],[],[]
participant_2_GOLD,1400,1400,1841,2322,2787,3293,3749,4183,4912,5385,5781,6447,6884,7397,7891,8369,8973,9393,10218,10637,11346,11736,12283,12922
participant_2_CURRENTGOLD,1400,150,591,1072,1537,2043,349,783,1512,1985,2381,997,634,1147,141,619,323,743,1568,387,1096,236,783,1422
participant_2_LEVEL,1,3,4,5,6,6,7,8,9,10,10,11,12,12,13,14,14,15,16,16,17,17,18,18
participant_2_MINIONSKILLED,0,0,0,2,3,8,8,9,9,9,9,11,11,14,14,16,16,16,18,19,21,21,24,24
participant_2_KILLS,0,0,0,0,0,0,0,0,0,0,0,1,1,1,1,1,2,2,3,3,4,4,4,4
participant_2_BUY,[],"[1001, 3112]",[],[],[],[],"[3802, 1026]",[],[],[],[],"[3020, 6655]",[3114],[],[6616],[],[3191],[],[],[3157],[],[1058],[],[]
participant_2_SOLD,[],[2052],[],[],[],[],[],[],[],[],[],"[1001, 3802, 1026]",[2052],[],[3114],[],[],[],[],[3191],[],[],[],[]
participant_2_UNDO,[],[],[],[],[],[],[],[],[],[],[],[],[],[],[],[],[],[],[],[],[],[],[],[]
participant_3_GOLD,1400,1400,1839,2295,2931,3384,3989,4427,4979,5507,6157,6910,7353,7812,8663,9100,9529,9952,10504,11083,11530,12339,12991,13693
participant_3_CURRENTGOLD,1400,200,639,1095,1731,2184,2789,3227,529,1057,1707,2460,503,12,863,700,479,902,504,1083,280,1089,1741,2443
participant_3_LEVEL,1,3,4,5,6,6,7,8,9,10,10,11,12,12,13,13,14,14,15,16,17,17,18,18
participant_3_MINIONSKILLED,0,0,1,1,1,2,7,7,7,9,11,12,12,13,16,17,17,19,19,22,22,23,29,32
participant_3_KILLS,0,0,0,0,1,1,1,1,1,1,2,3,3,3,4,4,4,4,4,4,4,6,6,6
participant_3_BUY,[],"[3145, 2003, 2003, 2003]",[],[],[],[],[],[],"[3152, 3020]",[],[],[],"[3057, 3113, 1026]","[3100, 1029, 2003]",[],[3191],[2420],[],[3157],[],[1058],[],[],[]
participant_3_SOLD,[],[],[],[],[],[],[],[],"[2003, 3145]",[],[2003],[],[],"[2003, 3057, 3113, 1026]",[],[1029],[],[],"[3191, 2420]",[],[],[],[],[]
participant_3_UNDO,[],[],[],[],[],[],[],[],[],[],[],[],[],[],[],[],[],[],[],[],[],[],[],[]
participant_4_GOLD,1400,1400,1904,2463,3020,3386,4172,4559,5453,6284,6804,7435,8337,9011,9605,10183,11002,11447,13013,14498,15153,15877,16363,17187
participant_4_CURRENTGOLD,1400,0,504,1063,1620,286,1072,584,853,1684,2204,2835,3737,211,405,683,702,347,1913,498,1153,1877,263,1087
participant_4_LEVEL,1,3,4,5,6,6,7,8,9,10,10,11,12,13,14,14,15,15,16,17,17,18,18,18
participant_4_MINIONSKILLED,0,0,5,11,17,17,26,27,35,46,52,58,62,65,73,82,93,97,113,114,116,124,129,138
participant_4_KILLS,0,0,0,0,0,0,1,1,2,3,3,3,5,6,6,6,7,7,8,11,12,12,12,12
participant_4_BUY,[],"[6670, 2003, 2003]",[],[],[],"[1018, 3006]",[],[1037],[6672],[],[],[],[],"[3095, 3086, 1042]",[2015],[1042],[3094],[3123],[],"[3033, 1038]",[],[],[3031],[]
participant_4_SOLD,[],[],"[2003, 2003]",[],[],[],[],[],"[6670, 1018, 1037]",[],[],[],[],[],[1042],[],"[3086, 2015]",[],[],"[3123, 1042]",[2052],[],[1038],[]
participant_4_UNDO,[],[],[],[],[],[],[],[],[],[],[],[],[],[],[],[],[],[],[],[],[],[],[],[]
participant_5_GOLD,1400,1400,2142,2726,3211,3849,4378,4873,5233,5593,6317,7322,8122,8823,9593,10153,11537,12148,12726,14258,15032,16117,16881,17130
participant_5_CURRENTGOLD,1400,0,742,1326,1811,2449,2978,3473,3833,193,917,22,822,1523,1693,753,2137,2748,226,958,857,1942,181,430
participant_5_LEVEL,1,3,4,5,6,7,8,9,9,9,10,11,12,13,14,14,16,16,17,18,18,18,18,18
participant_5_MINIONSKILLED,0,0,2,8,12,15,16,19,19,19,29,38,42,47,48,50,60,66,67,77,84,90,106,106
participant_5_KILLS,0,0,1,1,1,2,2,2,2,2,2,4,5,5,6,6,10,10,11,13,14,17,17,17
participant_5_BUY,[],"[3184, 1042, 2003, 2003, 2003]",[],[],[],[],[],[],[],"[6672, 1053]",[],"[1038, 1018]",[],[],[3072],"[3086, 1042, 1042]",[],[],"[3094, 1038, 1018]",[3095],[1037],[],[3031],[]
participant_5_SOLD,[],[],[],[],[],"[2003, 2003]",[2003],[],[],[1042],[],[],[],[],"[1038, 1018, 1053]",[],[],[],"[3086, 1042]","[1038, 1018]",[],[],[1037],[3184]
participant_5_UNDO,[],[],[],[],[],[],[],[],[],[],[],[],[],[],[],"[[0, 1042]]",[],[],[],[],[],[],[],[]
participant_6_GOLD,1400,1400,1915,2473,2940,3707,4398,4833,5205,5704,6076,6862,7256,7688,8360,8933,9323,9845,10325,10957,11548,12061,12551,12823
participant_6_CURRENTGOLD,1400,150,665,1223,1690,2457,3148,383,405,504,936,1722,366,98,770,193,233,755,1235,867,808,1321,1811,173
participant_6_LEVEL,1,3,4,5,6,7,8,9,9,10,10,11,11,12,13,14,14,15,16,16,17,18,18,18
participant_6_MINIONSKILLED,0,0,4,8,10,15,18,18,18,21,21,21,22,22,22,22,22,25,27,29,30,32,34,35
participant_6_KILLS,0,0,0,0,0,1,2,2,2,2,2,3,3,3,4,4,4,4,4,5,6,6,6,6
participant_6_BUY,[],"[3134, 2031]",[],[],[],[],[],"[6693, 3134]",[1036],[1028],[],[],"[3814, 1036, 1036]","[3133, 1001]",[],"[3047, 1036]",[1036],[],[],[3179],[2420],[],[],[3157]
participant_6_SOLD,[],[],[],[],[],[],[2052],[3134],[],[],[2031],[],"[1036, 3134, 1028]","[1036, 1036]",[],[1001],[],[],[],"[1036, 1036, 3133]",[],[],[],[2420]
participant_6_UNDO,[],[],[],[],[],[],[],[],[],[],[],[],[],[],[],[],[],[],[],[],[],[],[],[]
participant_7_GOLD,1400,1400,1858,2354,2802,3409,3891,4594,5223,5630,6299,6770,7223,7864,8419,9159,9656,10169,10598,11444,11918,12392,12752,13047
participant_7_CURRENTGOLD,1400,0,458,954,552,1159,291,994,123,230,899,670,123,764,1319,2059,556,1069,598,344,118,592,952,1247
participant_7_LEVEL,1,3,4,5,6,7,7,9,9,10,11,12,13,13,14,15,15,16,16,17,18,18,18,18
participant_7_MINIONSKILLED,0,0,0,2,5,8,10,12,13,14,15,16,16,18,20,28,29,32,34,36,36,36,36,38
participant_7_KILLS,0,0,0,0,0,0,0,1,2,2,3,3,3,4,4,4,4,4,4,5,5,5,5,5
participant_7_BUY,[],"[4635, 2003, 2003]",[],[],[1026],[],"[4633, 1001]",[],"[3020, 1028, 1029]",[1029],[],"[3076, 1011]",[3075],[],[],[],"[3066, 1031, 1028]",[],[3742],"[3067, 1029]",[3082],[],[],[]
participant_7_SOLD,[],[],"[2003, 2003]",[],[],[],"[4635, 1026]",[],[1001],[],[],"[1029, 1029, 1028]","[3076, 1011]",[],[],[],[],[],"[3066, 1028, 1031]",[],[1029],[],[],[]
participant_7_UNDO,[],[],[],[],[],[],[],[],[],[],[],[],[],[],[],[],[],[],[],[],[],[],[],[]
participant_8_GOLD,1400,1400,1894,2421,2920,3425,4085,5007,5473,6017,6764,7236,7821,9291,10208,11014,11729,12391,12874,13288,13929,14498,14905,15177
participant_8_CURRENTGOLD,1400,0,494,1021,1520,2025,135,1057,73,617,1364,1836,571,2041,2958,3764,4479,5141,5624,488,1129,448,420,692
participant_8_LEVEL,1,3,4,5,6,7,8,9,10,11,12,12,13,14,15,16,17,17,18,18,18,18,18,18
participant_8_MINIONSKILLED,0,0,3,7,10,12,15,17,22,28,36,38,44,54,59,62,66,68,70,70,76,77,78,79
participant_8_KILLS,0,0,0,0,0,0,1,3,3,3,4,4,4,6,8,9,9,10,10,10,10,10,10,10
participant_8_BUY,[],"[3802, 2003, 2003]",[],[],[],[],"[6655, 1001, 2003, 2003, 2003]",[],"[3020, 2420]",[],[],[],[3157],[],[],[],[],[],[],"[3089, 1026, 1011]",[],[3116],[1052],[]
participant_8_SOLD,[],[2003],[2003],[],[],[],[3802],[],[1001],"[2003, 2003]",[2003],[],[2420],[],[],[],[],[],[],[],[],"[1026, 1011]",[],[]
participant_8_UNDO,[],[],[],[],[],[],[],[],[],[],[],[],[],[],[],[],[],[],[],[],[],[],[],[]
participant_9_GOLD,1400,1400,1763,2123,2483,2843,3203,3563,3923,4283,4643,5003,5363,5723,6083,6593,6953,7313,7673,8033,8393,8753,9113,9362
participant_9_CURRENTGOLD,1400,1400,1763,2123,2483,2843,3203,3563,3923,4283,4643,5003,5363,5723,6083,6593,6953,7313,7673,8033,8393,8753,9113,9362
participant_9_LEVEL,1,3,4,4,5,5,6,6,6,7,7,7,8,8,8,9,9,9,9,10,10,10,10,11
participant_9_MINIONSKILLED,0,0,0,0,0,0,0,0,0,0,0,0,0,0,0,0,0,0,0,0,0,0,0,0
participant_9_KILLS,0,0,0,0,0,0,0,0,0,0,0,0,0,0,0,0,0,0,0,0,0,0,0,0
participant_9_BUY,[],[],[],[],[],[],[],[],[],[],[],[],[],[],[],[],[],[],[],[],[],[],[],[]
participant_9_SOLD,[],[],[],[],[],[],[],[],[],[],[],[],[],[],[],[],[],[],[],[],[],[],[],[]
participant_9_UNDO,[],[],[],[],[],[],[],[],[],[],[],[],[],[],[],[],[],[],[],[],[],[],[],[]
team0_KILLS,0,0,0,0,1,1,3,4,7,9,10,13,15,16,18,18,20,20,22,26,28,30,32,33
team0_CURRENTGOLD,7000,350,2243,4644,7282,6339,5283,5785,5257,8409,10995,9975,5443,2146,2429,3334,2899,4285,5732,4620,4268,4041,4584,8303
team0_TOTALGOLD,7000,7000,9243,11644,14282,16539,19483,22010,26232,29384,31970,35100,37853,40431,43464,45869,48644,50830,55092,58980,61778,64576,67819,71578
team0_LEVEL,5,15,20,25,30,30,35,40,45,50,50,55,59,62,66,68,72,73,78,83,85,87,90,90
team0_SBIRES,0,0,7,16,26,37,52,58,71,85,95,105,114,126,138,154,166,173,192,203,216,226,241,257
team1_KILLS,0,0,1,1,1,3,5,8,9,9,11,14,15,18,22,23,27,28,29,33,35,38,38,38
team1_CURRENTGOLD,7000,1550,4122,6647,8056,10933,9755,9470,8357,5827,8759,9253,7245,10149,12823,13362,14358,17026,15356,10690,11305,13056,12477,11904
team1_TOTALGOLD,7000,7000,9572,12097,14356,17233,19955,22870,25057,27227,30099,33193,35785,39389,42663,45852,49198,51866,54196,57980,60820,63821,66202,67539
team1_LEVEL,5,15,20,24,29,33,37,42,43,47,50,53,57,60,64,68,71,73,76,79,81,82,82,83
team1_SBIRES,0,0,9,25,37,50,59,66,72,82,101,113,124,141,149,162,177,191,198,212,226,235,254,258
delta_KILLS,0,0,-1,-1,0,-2,-2,-4,-2,0,-1,-1,0,-2,-4,-5,-7,-8,-7,-7,-7,-8,-6,-5
delta_CURRENTGOLD,0,-1200,-1879,-2003,-774,-4594,-4472,-3685,-3100,2582,2236,722,-1802,-8003,-10394,-10028,-11459,-12741,-9624,-6070,-7037,-9015,-7893,-3601
delta_TOTALGOLD,0,0,-329,-453,-74,-694,-472,-860,1175,2157,1871,1907,2068,1042,801,17,-554,-1036,896,1000,958,755,1617,4039
delta_LEVEL,0,0,0,1,1,-3,-2,-2,2,3,0,2,2,2,2,0,1,0,2,4,4,5,8,7
delta_SBIRES,0,0,-2,-9,-11,-13,-7,-8,-1,3,-6,-8,-10,-15,-11,-8,-11,-18,-6,-9,-10,-9,-13,-1
