name,frame_0,frame_1,frame_2,frame_3,frame_4,frame_5,frame_6,frame_7,frame_8,frame_9,frame_10,frame_11,frame_12,frame_13,frame_14,frame_15,frame_16,frame_17,frame_18,frame_19,frame_20,frame_21,frame_22,frame_23
nameStamp,Tstart,Tearly,Tearly,Tearly,Tearly,Tearly,Tearly,Tearly,Tearly,Tearly,Tearly,Tearly,Tearly,Tearly,Tmid,Tmid,Tmid,Tmid,Tmid,Tmid,Tmid,Tmid,Tmid,Tmid
timestamp,0,60017,120026,180036,240063,300076,360091,420108,480115,540128,600149,660165,720179,780191,840213,900232,960255,1020269,1080280,1140300,1200313,1260332,1320363,1380363
participant_0_GOLD,500,500,562,874,1494,1791,2811,3114,3391,3795,4598,5061,5619,6686,6830,7310,7923,8188,8416,9590,9824,10071,10686,10794
participant_0_CURRENTGOLD,500,0,62,374,119,416,1436,89,366,770,1573,253,811,338,482,162,775,1040,613,1787,121,369,984,786
participant_0_LEVEL,1,1,1,3,3,4,6,6,7,8,9,9,10,10,11,11,12,12,12,13,13,13,13,13
participant_0_MINIONSKILLED,0,0,2,13,18,26,40,41,50,63,72,79,90,94,95,103,109,112,116,126,132,135,147,150
participant_0_KILLS,0,0,0,0,0,0,1,1,1,1,1,2,3,5,5,6,8,8,10,10,10,10,10,11
participant_0_BUY,[],"[3850, 3340, 2003, 2003]",[],[],[],[1052],[],[],"[3802, 1001, 3364]",[],[],[],[6655],[],[3020],[],[],[3041],[],[],[],"[1026, 3916]",[],[]
participant_0_SOLD,[],[],[],"[2003, 2003]",[],[],[],[3850],"[1052, 3340]",[],[],[],[3802],[3851],[1001],[],[],[],[],[],[],[],[],[]
participant_0_UNDO,[],[],[],[],[],[],[],[],[],[],[],[],[],[],[],[],[],[],[],[],[],[],[],[]
participant_1_GOLD,500,500,628,913,1113,1320,1605,1832,2139,2437,2709,2932,3064,3501,3729,4036,4394,4857,5464,5722,6384,6583,6991,7131
participant_1_CURRENTGOLD,500,0,128,413,613,820,1105,1332,1639,1937,209,432,564,1001,1229,336,694,1157,114,372,1034,833,1241,1381
participant_1_LEVEL,1,1,2,2,3,4,5,5,5,6,6,7,7,7,7,7,8,9,9,9,10,11,11,11
participant_1_MINIONSKILLED,0,0,0,0,0,0,0,0,0,0,0,0,1,1,1,1,1,2,2,2,2,2,6,6
participant_1_KILLS,0,0,0,0,0,0,0,0,0,0,0,0,0,0,0,0,0,1,2,2,2,2,2,2
participant_1_BUY,[],"[1035, 2031]",[],[],[],[],[],[],[],[],"[3134, 1053]",[],[],[],[],[6692],[],[],"[1037, 1036, 1036, 2055]",[],[],[3134],[],[]
participant_1_SOLD,[],[],[],[],[],[],[],[],[1035],[],[],[3340],[],[3513],[],"[3134, 1053]",[],[],[],[2055],[],"[1036, 1036]",[],[]
participant_1_UNDO,[],[],[],[],[],[],[],[],[],[],[],[],[],[],[],[],[],[],[],[],[],[],[],[]
participant_2_GOLD,500,500,597,853,1102,1462,1805,2150,2412,2605,2842,3086,3429,3910,4239,4726,4986,5483,5967,6242,6448,6620,7019,7248
participant_2_CURRENTGOLD,500,0,97,353,602,952,1285,1630,1892,200,437,681,1014,1495,1824,2311,81,578,1062,1337,318,490,889,1148
participant_2_LEVEL,1,1,1,3,4,5,6,6,7,7,8,9,9,10,10,10,10,11,12,12,12,12,13,13
participant_2_MINIONSKILLED,0,0,4,12,19,30,40,44,52,56,64,71,80,83,90,94,94,107,117,119,124,127,132,133
participant_2_KILLS,0,0,0,0,0,0,1,1,1,3,3,3,3,3,3,4,4,4,5,5,7,7,7,8
participant_2_BUY,[],"[3340, 2003, 1055]",[],[],[],"[2003, 2003, 1033]",[],[],"[3111, 1036, 2055]",[],[],[],"[1053, 6670]",[],"[1018, 2003]",[],"[6673, 1042, 1018]",[],[],"[3086, 1042]",[],[2015],[],[]
participant_2_SOLD,[],[],[],[2003],[],[],[],[],"[1033, 2055]",[],[],[],[1036],[2003],[],[],"[2003, 2003, 6670, 1018, 1053]",[],[],"[1018, 1042]",[],[1042],[],[]
participant_2_UNDO,[],[],[],[],[],[],[],[],[],[],[],[],[],[],[],[],[],[],[],[],[],[],[],[]
participant_3_GOLD,500,500,562,846,1060,1196,1807,2149,2361,3288,3658,3958,4081,4566,4954,5876,6198,6383,6860,7033,7770,7892,8250,8863
participant_3_CURRENTGOLD,500,0,62,346,560,146,757,1099,236,1162,1533,1833,106,591,329,1251,73,258,735,308,1045,767,1125,1738
participant_3_LEVEL,1,1,1,2,3,3,5,5,5,7,7,8,8,8,9,10,10,10,11,11,11,11,11,12
participant_3_MINIONSKILLED,0,0,2,12,17,18,28,36,38,48,58,64,64,72,79,83,86,89,91,91,91,91,93,96
participant_3_KILLS,0,0,0,0,0,0,0,0,0,0,0,0,0,0,0,0,0,0,0,0,0,0,0,0
participant_3_BUY,[],"[1056, 2003, 3340, 2003]",[],[],[],[],[],[],[],"[3802, 1052, 2055, 2055]",[],[],[],[],[],[],"[6653, 1001, 1033, 2055]",[],[],[],"[3111, 3916, 2055]",[],[],[]
participant_3_SOLD,[],[],[],[],[2010],[],[],"[2010, 2010]",[2003],[],[2055],[],[],[],[2003],[],"[3802, 1052]",[2055],[],[],"[1001, 1033]",[],[],[]
participant_3_UNDO,[],[],[],[],[],[],[],[],[],[],[],[],[],[],[],[],[],[],[],[],[],[],[],[]
participant_4_GOLD,500,500,562,777,1026,1180,1845,2193,2334,2879,3239,3844,4304,4994,5214,5852,6735,6950,7794,8346,8630,8771,9040,9415
participant_4_CURRENTGOLD,500,0,62,277,526,245,910,1258,234,779,1139,1744,104,794,214,852,1735,350,1194,1746,2030,521,790,1165
participant_4_LEVEL,1,1,1,2,3,3,4,5,5,6,6,7,7,8,8,9,9,10,10,11,11,11,11,12
participant_4_MINIONSKILLED,0,0,0,0,1,1,1,2,2,3,3,6,6,6,6,7,10,10,12,12,12,12,14,14
participant_4_KILLS,0,0,0,0,1,1,3,3,3,3,5,5,6,6,6,6,7,7,7,9,9,9,10,10
participant_4_BUY,[],"[1055, 2003]",[],[],"[3057, 2003, 2003, 2055]",[],[],"[3051, 1028, 2031]",[],[],[],"[3078, 1001, 1036]",[],"[3077, 1028]",[],[3111],[],[],"[1011, 1028]",[],"[3748, 3044]",[],[],[]
participant_4_SOLD,[],[],[],[],[],[],"[2003, 2003, 2003]",[],[],[2055],[],"[3057, 3051, 1028]",[],[2031],[],[1001],[],[],"[1028, 1036]",[],"[3077, 1028, 1011]",[],[],[]
participant_4_UNDO,[],[],[],[],[],[],[],[],[],[],[],[],[],[],[],[],[],[],[],[],[],[],[],[]
participant_5_GOLD,500,500,562,853,1081,1413,1550,1951,2205,2419,2683,2979,3129,3306,3543,4175,4326,5553,5675,6098,6220,6495,6742,6857
participant_5_CURRENTGOLD,500,0,62,353,181,513,50,451,705,919,1183,279,429,606,843,1475,676,1903,175,198,245,520,267,382
participant_5_LEVEL,1,1,1,3,4,5,5,6,6,7,7,8,8,8,8,9,9,10,10,10,11,11,11,11
participant_5_MINIONSKILLED,0,0,2,11,17,26,27,35,39,44,49,56,58,58,59,68,70,74,74,74,74,79,82,82
participant_5_KILLS,0,0,0,0,0,0,0,0,0,0,0,0,0,0,0,0,1,1,1,1,2,3,3,4
participant_5_BUY,[],"[1056, 2003, 2003, 3340]",[],[],[],[],[],"[1043, 2055, 2003]",[],[],[],[],[],"[4635, 1001]",[],"[1042, 2031]",[],[3006],[],[1026],[],[4633],[1033],[]
participant_5_SOLD,[],[],[],[2003],[2003],[],[],[2055],[],[2003],[],[],[],[],[],[],[],"[1001, 1042]",[],[],[],"[4635, 1026]",[],[]
participant_5_UNDO,[],[],[],[],[],[],[],[],[],[],[],[],[],[],[],[],[],[],[],[],[],[],[],[]
participant_6_GOLD,500,500,620,843,966,1219,1460,1772,1994,2337,2557,2865,3092,3258,3466,3788,4101,4458,4622,4915,5149,5347,5699,5966
participant_6_CURRENTGOLD,500,0,120,343,166,419,660,672,894,1237,457,765,992,358,566,888,751,1108,522,115,349,112,464,331
participant_6_LEVEL,1,1,2,2,2,3,3,4,4,5,5,6,6,6,7,8,8,9,9,9,9,10,10,11
participant_6_MINIONSKILLED,0,0,0,0,0,0,1,1,1,1,1,1,1,2,2,2,2,2,5,5,7,7,16,20
participant_6_KILLS,0,0,0,0,0,0,0,0,0,0,0,0,0,0,0,0,1,1,1,1,1,1,1,1
participant_6_BUY,[],"[1055, 3340, 2003]",[],[],[],[],[3057],[],[],[3067],[],[],[1036],[1028],[],[3044],[],[],[6632],[1001],[3158],[],[],[]
participant_6_SOLD,[],[],[],[2003],[],[],[],[],[],[],[],[],[],[],[],"[1028, 1036]",[],[],"[3044, 3057, 3067]",[],[1001],[],[],[]
participant_6_UNDO,[],[],[],[],[],[],[],[],[],[],[],[],[],[],[],[],[],[],[],[],[],[],[],[]
participant_7_GOLD,500,500,576,832,1060,1364,1592,1763,2060,2288,2620,2932,3265,3422,3580,3811,4387,4593,4736,5110,5948,6440,6698,7233
participant_7_CURRENTGOLD,500,0,76,332,560,854,1082,128,425,653,985,1297,1620,177,335,116,692,398,541,65,903,345,153,708
participant_7_LEVEL,1,1,1,3,4,5,6,6,7,7,8,9,9,9,10,10,11,11,11,12,12,12,13,13
participant_7_MINIONSKILLED,0,0,3,11,17,25,30,33,43,49,61,72,81,83,85,86,94,99,100,111,116,119,128,128
participant_7_KILLS,0,0,0,0,0,0,0,0,0,0,0,0,0,0,0,0,0,0,0,0,0,0,0,0
participant_7_BUY,[],"[1039, 2031, 3340]",[],[],[1001],[],[],[1029],[],[],[6660],[],[],[3020],[],[],[1033],[],[3105],[3068],[],[1052],[],[1028]
participant_7_SOLD,[],[],[],[],[],[],[],[],[],[1039],[],[],[],[1001],[],[],[],[],"[1033, 1029]","[6660, 3105]",[],[],[],[]
participant_7_UNDO,[],[],[],[],[],[],[],[],[],[],[],[],[],[],[],[],[],[],[],[],[],[],[],[]
participant_8_GOLD,500,500,583,762,990,1336,1459,1686,2059,2245,2367,2546,2952,3088,3432,3645,4068,4277,4399,4536,4708,4942,5064,5129
participant_8_CURRENTGOLD,500,0,83,262,490,836,259,486,859,245,367,546,602,338,682,545,968,1177,599,436,8,242,364,429
participant_8_LEVEL,1,1,1,2,3,4,4,5,6,6,6,6,7,7,8,8,8,9,9,9,9,9,9,9
participant_8_MINIONSKILLED,0,0,3,6,12,22,22,27,39,42,42,45,49,50,59,64,64,64,64,65,65,67,67,67
participant_8_KILLS,0,0,0,0,0,0,0,0,0,0,0,0,1,1,1,1,1,1,1,1,1,1,1,1
participant_8_BUY,[],"[3850, 3340, 2003, 2003]",[],[],[],[],"[1052, 2055]",[1027],[],[],[1052],[],"[3802, 1001, 1052, 3364]",[],[3108],[],[],[6653],[],[],[3020],[],[],"[1052, 1028]"
participant_8_SOLD,[],[],[],"[2003, 2003]",[],[],[],[2055],[],[],[],[3850],"[1052, 1027, 1052, 3340]",[],[1052],[],[],"[3802, 3108]",[3851],[],[1001],[],[],[]
participant_8_UNDO,[],[],[],[],[],[],[],[],[],[],[],[],[],[],[],[],[],[],[],[],[],[],[],"[[0, 1052]]"
participant_9_GOLD,500,500,522,805,1061,1195,1330,1464,1598,1803,1997,2268,3022,3292,3433,3633,4281,4576,4817,5028,5218,5386,5603,5770
participant_9_CURRENTGOLD,500,0,22,305,561,695,320,104,238,443,202,473,412,682,358,558,1206,301,542,753,143,311,528,295
participant_9_LEVEL,1,1,1,1,3,3,4,4,4,5,5,6,6,6,7,7,8,8,8,9,9,10,10,10
participant_9_MINIONSKILLED,0,0,0,2,3,3,3,3,3,4,4,5,6,7,7,7,17,17,18,23,23,25,29,32
participant_9_KILLS,0,0,0,0,0,0,0,0,0,0,0,0,0,0,0,1,1,2,2,3,3,3,3,3
participant_9_BUY,[],[2033],[],[],[1028],[],[6660],[],[],[],[],"[1029, 1029, 1001, 1029]",[],[],[],[],"[3047, 1033]",[],"[3068, 1028]",[3066],[2055],[],[1031],[]
participant_9_SOLD,[],[],[],[],[],[],[1028],[],[],[],[],[],[],[],[],[],"[1001, 1029]",[],"[6660, 1033, 1029]",[1028],[],[],"[1029, 2055]",[]
participant_9_UNDO,[],[],[],[],[],[],[],[],[],[],[],[],[],[],[],[],[],[],[],[],[],[],[],[]
team0_KILLS,0,0,0,0,1,1,5,5,5,7,9,10,12,14,14,16,19,20,24,26,28,28,29,31
team0_CURRENTGOLD,2500,0,411,1763,2420,2579,5493,5408,4367,4848,4891,4943,2599,4219,4078,4912,3358,3383,3718,5550,4548,2980,5029,6218
team0_TOTALGOLD,2500,2500,2911,4263,5795,6949,9873,11438,12637,15004,17046,18881,20497,23657,24966,27800,30236,31861,34501,36933,39056,39937,41986,43451
team0_LEVEL,5,5,6,12,16,19,26,27,29,34,36,40,41,43,45,47,49,52,54,56,57,58,59,61
team0_SBIRES,0,0,8,37,55,75,109,123,142,170,197,220,241,256,271,288,300,320,338,350,361,367,392,399
team1_KILLS,0,0,0,0,0,0,0,0,0,0,0,0,1,1,1,2,4,5,5,6,7,8,8,9
team1_CURRENTGOLD,2500,0,363,1595,1958,3317,2371,1841,3121,3497,3194,3360,4055,2161,2784,3582,4293,4887,2379,1567,1648,1530,1776,2145
team1_TOTALGOLD,2500,2500,2863,4095,5158,6527,7391,8636,9916,11092,12224,13590,15460,16366,17454,19052,21163,23457,24249,25687,27243,28610,29806,30955
team1_LEVEL,5,5,6,11,16,20,22,25,27,30,31,35,36,36,40,42,44,47,47,49,50,52,53,54
team1_SBIRES,0,0,8,30,49,76,83,99,125,140,157,179,195,200,212,227,247,256,261,278,285,297,322,329
delta_KILLS,0,0,0,0,1,1,5,5,5,7,9,10,11,13,13,14,15,15,19,20,21,20,21,22
delta_CURRENTGOLD,0,0,48,168,462,-738,3122,3567,1246,1351,1697,1583,-1456,2058,1294,1330,-935,-1504,1339,3983,2900,1450,3253,4073
delta_TOTALGOLD,0,0,48,168,637,422,2482,2802,2721,3912,4822,5291,5037,7291,7512,8748,9073,8404,10252,11246,11813,11327,12180,12496
delta_LEVEL,0,0,0,1,0,-1,4,2,2,4,5,5,5,7,5,5,5,5,7,7,7,6,6,7
delta_SBIRES,0,0,0,7,6,-1,26,24,17,30,40,41,46,56,59,61,53,64,77,72,76,70,70,70
