name,frame_0,frame_1,frame_2,frame_3,frame_4,frame_5,frame_6,frame_7,frame_8,frame_9,frame_10,frame_11,frame_12,frame_13,frame_14,frame_15,frame_16,frame_17,frame_18,frame_19,frame_20,frame_21,frame_22,frame_23
nameStamp,Tstart,Tearly,Tearly,Tearly,Tearly,Tearly,Tearly,Tearly,Tearly,Tearly,Tearly,Tearly,Tearly,Tearly,Tearly,Tearly,Tearly,Tearly,Tearly,Tmid,Tmid,Tmid,Tmid,Tmid
timestamp,0,60002,120026,180045,240049,300051,360075,420111,480114,540145,600177,660191,720216,780226,840257,900269,960270,1020277,1080283,1140289,1200299,1260305,1320319,1380319
participant_0_GOLD,500,500,725,1312,1570,1877,2639,2839,3395,4274,4818,5218,5452,6020,6533,6826,7117,7351,8418,9281,9703,11013,11571,11897
participant_0_CURRENTGOLD,500,100,325,912,370,677,239,439,995,774,1318,1718,52,620,258,550,842,1076,2143,3006,3428,4738,5296,5622
participant_0_LEVEL,1,1,2,3,3,4,5,5,6,6,7,7,8,8,8,9,9,9,10,11,11,12,12,12
participant_0_MINIONSKILLED,0,0,0,0,0,0,0,0,1,1,3,3,10,10,11,11,11,11,20,23,32,37,37,37
participant_0_KILLS,0,0,0,1,1,1,3,3,4,6,7,7,7,7,8,8,8,8,9,10,10,12,13,14
participant_0_BUY,[],"[1035, 2003, 3340]",[],[],[6677],[],"[1018, 1042, 1001]",[],[],[3124],[],[],"[6670, 1018]",[],[1037],[],[],[],[],[],[],[],[],[]
participant_0_SOLD,[],[],[],[2003],[],[],[],[],[],"[6677, 1018, 1042]",[1035],[3340],[],[3513],[],[],[],[],[],[],[],[],[],[]
participant_0_UNDO,[],[],[],[],[],[],[],[],[],[],[],[],[],[],[],[],[],[],[],[],[],[],[],[]
participant_1_GOLD,500,500,583,1263,1456,1655,2056,2343,2591,3204,3612,3859,4002,4258,4436,4747,5104,5407,6416,6908,7170,7510,7962,8106
participant_1_CURRENTGOLD,500,0,83,763,956,1155,1556,1843,2091,2704,3112,3359,202,458,636,947,1304,1607,2616,3108,3370,810,1262,1406
participant_1_LEVEL,1,1,1,2,4,4,5,6,7,8,8,9,9,9,10,10,11,11,12,12,12,12,13,13
participant_1_MINIONSKILLED,0,0,3,8,12,17,23,30,38,49,57,61,62,70,73,80,90,97,101,101,109,111,112,112
participant_1_KILLS,0,0,0,1,1,1,1,1,1,2,2,2,2,2,2,2,2,2,3,4,4,4,5,5
participant_1_BUY,[],"[1054, 2003, 3340]",[],[],[],[],[],[],[],[],[],[],[6631],[],[],[],[],[],[],[],[],[3742],[],[]
participant_1_SOLD,[],[],[],[],[],[],[],[],[],[],[2003],[],[],[],[],[],[],[],[],[],[],[],[],[]
participant_1_UNDO,[],[],[],[],[],[],[],[],[],[],[],[],[],[],[],[],[],[],[],[],[],[],[],[]
participant_2_GOLD,500,500,589,876,1145,1440,1744,2087,2244,2439,2777,2980,3519,3860,4211,4886,5110,5462,5740,6452,6575,7013,7495,7840
participant_2_CURRENTGOLD,500,0,89,376,645,940,1244,1577,284,44,382,70,609,950,441,1116,1340,1692,720,1432,555,993,1475,1840
participant_2_LEVEL,1,1,1,3,4,5,6,7,7,7,8,8,8,9,9,10,11,11,11,12,12,12,13,13
participant_2_MINIONSKILLED,0,0,3,10,18,26,34,42,44,48,58,62,68,79,87,96,101,109,115,122,122,122,131,131
participant_2_KILLS,0,0,0,0,0,0,0,0,0,0,0,0,1,1,1,2,2,2,2,3,3,3,3,4
participant_2_BUY,[],"[1056, 2003, 2003]",[],[],[],[],[],[],"[3020, 1027]",[1052],[],[3802],[],[],[1026],[],[],[],[6655],[],[1043],[],[],[]
participant_2_SOLD,[],[],[],[2003],[],[],[2003],[],[],[],[],"[1052, 1027]",[],[],[],[],[],[],"[3802, 1026]",[],[],[],[],[]
participant_2_UNDO,[],[],[],[],[],[],[],[],[],[],[],[],[],[],[],[],[],[],[],[],[],[],[],[]
participant_3_GOLD,500,500,522,678,827,961,1096,1230,1514,1649,1825,1960,2094,2228,2703,2837,2986,3176,3511,4189,4323,5007,5246,5353
participant_3_CURRENTGOLD,500,0,22,178,327,461,196,330,614,349,525,660,44,178,653,37,186,376,311,689,823,1507,246,353
participant_3_LEVEL,1,1,1,2,3,4,4,4,4,4,5,5,6,6,7,7,8,8,9,10,10,11,11,11
participant_3_MINIONSKILLED,0,0,0,1,2,2,2,2,2,2,4,4,4,4,7,7,8,11,11,11,11,15,15,15
participant_3_KILLS,0,0,0,0,0,0,0,0,0,0,0,0,0,0,0,0,0,0,0,1,1,1,1,1
participant_3_BUY,[],"[3858, 3340, 2003, 2003]",[],[],[],[],[1028],[],[],[3067],[],[],"[1033, 1029]",[],[],[3105],[],[],[3190],[1001],[],[],"[3047, 1028, 1029]",[]
participant_3_SOLD,[],[],[],[2003],[2003],[],[],[],[],[1028],[],[],[],[],[],"[1033, 1029]",[],[],"[3067, 3105]",[],[],[],[1001],[]
participant_3_UNDO,[],[],[],[],[],[],[],[],[],[],[],[],[],[],[],[],[],[],[],[],[],[],[],[]
participant_4_GOLD,500,500,541,741,948,1154,1319,1682,1915,2271,2942,3107,3229,3718,4563,4686,4941,5099,5786,6292,6582,7698,7820,7907
participant_4_CURRENTGOLD,500,50,91,291,498,704,169,532,765,1121,307,472,594,1083,1928,226,481,339,1026,532,822,1938,660,757
participant_4_LEVEL,1,1,1,1,2,3,3,5,5,6,7,7,7,8,8,8,9,9,10,10,10,11,11,11
participant_4_MINIONSKILLED,0,0,1,5,10,15,17,28,32,35,36,38,38,46,52,52,60,62,69,74,79,81,81,81
participant_4_KILLS,0,0,0,0,0,0,0,0,0,0,1,1,1,1,2,2,2,2,3,3,3,5,5,5
participant_4_BUY,[],[1055],[],[],[],[],"[1036, 1036]",[],[],[],"[6670, 1037]",[],[],[],[],"[6672, 1018]",[],[1042],[],"[3086, 2015]",[],[],"[3094, 1018]",[]
participant_4_SOLD,[],[],[],[],[],[],[],[],[],[],"[1036, 1036]",[],[],[],[],"[6670, 1037]",[],[],[],"[1018, 1042]",[],[],"[3086, 2015]",[]
participant_4_UNDO,[],[],[],[],[],[],[],[],[],[],[],[],[],[],[],[],[],[],[],[],[],[],[],[]
participant_5_GOLD,500,500,522,685,825,990,1189,1368,1602,1745,1924,2060,2725,3217,3367,3679,3927,4134,4256,4406,4619,4919,5056,5088
participant_5_CURRENTGOLD,500,0,22,185,85,250,449,328,562,255,434,170,835,1327,177,489,737,44,166,316,529,179,316,188
participant_5_LEVEL,1,1,1,2,2,3,4,5,5,6,6,7,8,8,8,9,9,10,10,10,10,11,11,11
participant_5_MINIONSKILLED,0,0,0,2,3,6,10,14,21,22,25,26,28,32,34,46,49,54,54,56,57,59,60,60
participant_5_KILLS,0,0,0,0,0,0,0,0,0,0,0,0,1,2,2,2,2,2,2,2,2,2,2,2
participant_5_BUY,[],"[3854, 2003, 2003, 3340]",[],[],[1056],[],[],[1029],[],[1033],[],[1028],[],[],"[3105, 1028, 2003, 2003, 2003]",[],[],"[6660, 3068]",[],[],[],[3801],[],[]
participant_5_SOLD,[],[],[],"[2003, 2003]",[3854],[],[],[],[],[],[],[],[],[],"[1033, 1029]",[],"[2003, 2003]","[1028, 1028, 6660, 3105]",[3340],[],[],[3513],[],[]
participant_5_UNDO,[],[],[],[],[],[],[],[],[],[],[],[],[],[],[],[],[],[],[],[],[],[],[],[]
participant_6_GOLD,500,500,620,878,1086,1413,2218,2340,2551,2673,2796,3188,3446,3766,3888,4356,4527,4970,5192,5467,5590,5712,5984,6016
participant_6_CURRENTGOLD,500,0,120,378,236,563,118,240,451,573,96,488,746,1066,313,781,327,770,192,467,290,112,384,416
participant_6_LEVEL,1,1,2,2,3,3,4,4,4,4,4,5,6,6,6,7,7,8,8,9,9,9,9,9
participant_6_MINIONSKILLED,0,0,0,0,0,0,2,2,2,2,2,2,2,4,4,4,7,7,7,12,12,12,15,15
participant_6_KILLS,0,0,0,0,0,0,2,2,2,2,2,2,2,2,2,3,3,3,3,3,3,3,3,3
participant_6_BUY,[],"[1035, 2031, 3340]",[],[],[1036],[],"[6670, 1001]",[],[],[],[1018],[],[],[],[1037],[],[6672],[],[3006],[],[1042],[1042],[],[]
participant_6_SOLD,[],[],[],[],[],[],[1036],[],[],[],[],[],[],[],[],[],"[6670, 1018, 1037]",[1035],[1001],[],[],[],[],[]
participant_6_UNDO,[],[],[],[],[],[],[],[],[],[],[],[],[],[],[],[],[],[],[],[],[],[],[],[]
participant_7_GOLD,500,500,576,776,969,1513,1794,1916,2067,2789,2982,3453,3715,3852,4645,4913,5436,5635,5786,5992,6227,6391,6667,6714
participant_7_CURRENTGOLD,500,0,76,276,469,1013,1294,1416,1567,989,1182,553,815,552,1345,1613,2136,2335,2486,202,437,601,877,14
participant_7_LEVEL,1,1,1,2,3,4,5,5,6,6,6,7,7,8,8,9,10,10,10,11,11,11,12,12
participant_7_MINIONSKILLED,0,0,3,7,11,17,22,22,24,24,28,31,39,40,41,45,47,51,53,58,64,67,76,77
participant_7_KILLS,0,0,0,0,0,1,1,1,1,2,2,3,3,3,4,4,5,5,5,5,5,5,5,5
participant_7_BUY,[],"[1055, 2003]",[],[],[],[],[],[],[],[1038],[],[3006],[],[1056],[],[],[],[],[],[6673],[],[],[],[]
participant_7_SOLD,[],[],[],[2003],[],[],[],[],[],[],[],[],[],[],[],[],[],[],[],[1038],[],[],[],[]
participant_7_UNDO,[],[],[],[],[],[],[],[],[],[],[],[],[],[],[],[],[],[],[],[],[],[],[],[]
participant_8_GOLD,500,500,583,934,1211,1529,1872,2162,2534,2812,2935,3223,3658,3864,4286,4409,4695,4930,5233,5460,5611,5733,5898,5930
participant_8_CURRENTGOLD,500,0,83,424,701,1009,1342,1632,1994,362,85,363,788,19,441,214,500,735,348,140,291,413,578,520
participant_8_LEVEL,1,1,1,3,4,5,6,6,7,8,8,8,9,9,9,9,10,10,10,11,11,11,11,11
participant_8_MINIONSKILLED,0,0,3,13,21,30,40,49,57,63,63,69,75,80,80,80,85,91,97,103,105,105,107,107
participant_8_KILLS,0,0,0,0,0,0,0,0,0,0,0,0,0,0,1,1,1,1,1,1,1,1,1,1
participant_8_BUY,[],"[1056, 2003, 3340, 2003]",[],[],[],[],[],[],[],"[3145, 1026]",[1028],[],[],"[3152, 2055]",[],"[1001, 2003]",[],[],"[3020, 2003]",[1052],[],[],[],[]
participant_8_SOLD,[],[],[],[],[2003],[2003],[],[],[],[],[],[],[],"[3145, 1028, 1026]",[],[2055],[],[],"[1056, 1001]",[2003],[],[2003],[],[]
participant_8_UNDO,[],[],[],[],[],[],[],[],[],[],[],[],[],[],[],[],[],[],[],[],[],[],[],[]
participant_9_GOLD,500,500,602,1177,1432,1783,2007,2141,2630,2789,2952,3357,3558,3738,4019,4295,4679,4848,5048,5188,5329,5969,6109,6147
participant_9_CURRENTGOLD,500,0,102,677,932,1283,57,191,680,839,202,607,708,888,319,595,979,1148,748,538,129,769,910,947
participant_9_LEVEL,1,1,1,2,3,4,4,4,4,5,5,6,6,7,7,7,8,8,9,9,9,10,10,10
participant_9_MINIONSKILLED,0,0,0,0,0,0,1,1,1,1,3,6,6,6,7,7,8,10,10,10,10,10,10,10
participant_9_KILLS,0,0,0,1,1,1,1,1,2,2,2,2,2,2,2,2,2,2,2,2,2,3,3,3
participant_9_BUY,[],"[3850, 2003, 2003]",[],[],[],[],"[3067, 1001, 2003, 2003, 1004]",[],[],[],[3066],[],"[2003, 2003]",[],[2065],[],[],[],[3009],"[1004, 2003, 2003]",[3114],[],[],[]
participant_9_SOLD,[],[],[2003],[2010],[2003],[2010],[],[],[],[2003],[2003],"[3850, 2010]",[],[],"[3067, 1004, 3066]",[],[2003],[2003],"[3851, 1001]",[],[1004],[],[],[]
participant_9_UNDO,[],[],[],[],[],[],[],[],[],[],[],[],[],[],[],[],[],[],[],[],[],[],[],[]
team0_KILLS,0,0,0,2,2,2,4,4,5,8,10,10,11,11,13,14,14,14,17,21,21,25,27,29
team0_CURRENTGOLD,2500,150,610,2520,2796,3937,3404,4721,4749,4992,5644,6279,1501,3289,3916,2876,4153,5090,6816,8767,8998,9986,8939,9978
team0_TOTALGOLD,2500,2500,2960,4870,5946,7087,8854,10181,11659,13837,15974,17124,18296,20084,22446,23982,25258,26495,29871,33122,34353,38241,40094,41103
team0_LEVEL,5,5,6,11,16,20,23,27,29,31,35,36,38,40,42,44,48,48,52,55,55,58,60,60
team0_SBIRES,0,0,7,24,42,60,76,102,117,135,158,168,182,209,230,246,270,290,316,331,353,366,376,376
team1_KILLS,0,0,0,1,1,2,4,4,5,6,6,7,8,9,11,12,13,13,13,13,13,14,14,14
team1_CURRENTGOLD,2500,0,403,1940,2423,4118,3260,3807,5254,3018,1999,2181,3892,3852,2595,3692,4679,5032,3940,1663,1676,2074,3065,2085
team1_TOTALGOLD,2500,2500,2903,4450,5523,7228,9080,9927,11384,12808,13589,15281,17102,18437,20205,21652,23264,24517,25515,26513,27376,28724,29714,29895
team1_LEVEL,5,5,6,11,15,19,23,24,26,29,29,33,36,38,38,41,44,46,47,50,50,52,53,53
team1_SBIRES,0,0,6,22,35,53,75,88,105,112,121,134,150,162,166,182,196,213,221,239,248,253,268,269
delta_KILLS,0,0,0,1,1,0,0,0,0,2,4,3,3,2,2,2,1,1,4,8,8,11,13,15
delta_CURRENTGOLD,0,150,207,580,373,-181,144,914,-505,1974,3645,4098,-2391,-563,1321,-816,-526,58,2876,7104,7322,7912,5874,7893
delta_TOTALGOLD,0,0,57,420,423,-141,-226,254,275,1029,2385,1843,1194,1647,2241,2330,1994,1978,4356,6609,6977,9517,10380,11208
delta_LEVEL,0,0,0,0,1,1,0,3,3,2,6,3,2,2,4,3,4,2,5,5,5,6,7,7
delta_SBIRES,0,0,1,2,7,7,1,14,12,23,37,34,32,47,64,64,74,77,95,92,105,113,108,107
