name,frame_0,frame_1,frame_2,frame_3,frame_4,frame_5,frame_6,frame_7,frame_8,frame_9,frame_10,frame_11,frame_12,frame_13,frame_14,frame_15,frame_16,frame_17,frame_18,frame_19,frame_20,frame_21,frame_22,frame_23,frame_24,frame_25,frame_26,frame_27,frame_28,frame_29,frame_30,frame_31,frame_32,frame_33,frame_34,frame_35,frame_36,frame_37,frame_38,frame_39,frame_40,frame_41
nameStamp,Tstart,Tearly,Tearly,Tearly,Tearly,Tearly,Tearly,Tearly,Tearly,Tearly,Tearly,Tearly,Tearly,Tearly,Tearly,Tearly,Tearly,Tearly,Tmid,Tmid,Tmid,Tmid,Tmid,Tmid,Tmid,Tmid,Tmid,Tmid,Tmid,Tmid,Tmid,Tmid,Tmid,Tmid,Tmid,Tend,Tend,Tend,Tend,Tend,Tend,Tend
timestamp,0,60031,120034,180059,240092,300119,360136,420165,480186,540210,600223,660251,720274,780297,840318,900335,960358,1020387,1080406,1140437,1200463,1260464,1320486,1380507,1440531,1500555,1560582,1620585,1680608,1740639,1800659,1860689,1920708,1980714,2040745,2100753,2160775,2220805,2280822,2340849,2400874,2460874
participant_0_GOLD,500,500,563,934,1204,1459,1903,2381,3207,3330,4360,5035,5157,5685,6313,6436,6583,6894,8044,8166,8373,8861,9100,9455,9757,9985,10261,11265,11429,11667,12228,12400,12739,12967,13089,14233,14355,15075,17364,17864,17986,18009
participant_0_CURRENTGOLD,500,0,63,434,704,959,453,931,1757,80,1110,1785,57,585,1213,36,183,214,1364,686,893,1381,1620,1975,177,406,681,1685,1850,2087,2649,201,539,768,890,2034,936,1656,125,625,247,-291
participant_0_LEVEL,1,1,1,3,4,5,6,6,7,7,8,9,9,10,10,10,10,11,12,12,12,12,12,13,13,13,13,14,14,15,15,15,15,15,15,16,16,17,18,18,18,18
participant_0_MINIONSKILLED,0,0,2,14,22,28,37,48,59,59,70,83,83,98,101,101,101,105,110,110,115,123,125,129,130,136,141,145,147,148,153,153,159,160,160,174,174,193,202,204,204,204
participant_0_KILLS,0,0,0,0,1,1,1,1,1,1,1,1,1,1,1,1,1,3,3,3,3,3,4,5,6,6,6,7,7,7,7,7,8,8,11,11,11,11,11,12,12,12
participant_0_BUY,[],"[1056, 2003, 2003, 3340]",[],[],[],[],[],"[3802, 2003, 1001]",[2003],[],[],[],[1026],[],[3285],"[3020, 2003]",[],[],[],[],[3916],[],[1026],[3165],[1026],[],[],[],[],[],[1052],[],[],"[3135, 1052]",[3108],[],[],[],[],[],[3102],[]
participant_0_SOLD,[],[],[],[2003],[],[2003],[],[],[],[],[],[],[],[],"[2003, 2003, 3802, 1026]",[1001],[],[],[],[2003],[],[],[],"[3916, 1026]",[],[],[],[],[],[],[],[],[],"[1026, 1052]",[1052],[],[],[],[],[],[3108],[]
participant_0_UNDO,[],[],[],[],[],[],[],[],[],[],[],[],[],[],[],[],[],[],[],[],[],[],[],[],[],[],[],[],[],[],[],[],[],[],[],[],[],[],[],[],[],[]
participant_1_GOLD,500,500,621,1448,1648,1875,1998,2173,2295,2603,3150,3478,3867,3999,5086,5229,5671,6662,7069,7281,7404,7576,7699,7891,8568,8713,8835,8958,9080,9707,9845,10017,10354,10477,10599,10846,11163,11385,12633,12954,13077,13194
participant_1_CURRENTGOLD,500,0,121,948,1148,1375,48,223,345,353,900,403,792,424,1511,404,446,1437,494,706,79,251,374,116,393,538,660,783,90,717,130,302,640,762,234,482,798,221,1469,1790,263,319
participant_1_LEVEL,1,1,2,3,4,4,4,5,5,5,6,6,7,7,8,8,8,9,9,10,10,10,10,10,10,11,11,11,11,11,12,12,12,12,12,12,13,13,14,15,15,15
participant_1_MINIONSKILLED,0,0,0,0,0,0,0,0,0,0,0,0,0,1,1,1,1,1,1,2,2,2,2,2,2,3,3,3,3,3,4,4,5,5,5,5,8,8,9,12,12,12
participant_1_KILLS,0,0,0,0,0,0,0,0,1,1,3,4,4,4,4,4,4,4,6,6,6,6,6,6,6,6,6,8,8,8,8,8,8,8,8,9,9,9,11,11,11,11
participant_1_BUY,[],"[1055, 2003, 3340]",[],[],[],[],"[1055, 1055, 2003]",[],[],"[1038, 1036, 2003, 2003, 2003]",[],[],[3072],[],[],[1038],[],[1001],[],[3111],[],[],[],[],[3031],[],[],[],[],[],[],[3065],[],[],[],[],[3086],[],"[3046, 3026]",[],[2140],[]
participant_1_SOLD,[],[],[],[2003],[],[],[],[2003],[],[],[],[3340],"[1038, 1036]",[2003],"[3513, 2003]",[],[],[2003],[],[1001],[],[],[],[],[1038],[],[],[],[],[],[],[1055],[],[],[],[],[1055],[],"[3086, 1055]",[],[2140],[]
participant_1_UNDO,[],[],[],[],[],[],[],[],[],[],[],[],[],[],[],[],[],[],[],[],[],[],[],[],[],[],[],[],[],[],[],[],[],[],[],[],[],[],[],[],[],[]
participant_2_GOLD,500,500,584,892,1462,1773,2095,2238,2499,2890,3541,3788,4051,4320,4818,4975,5098,6092,6683,6904,7026,7445,7917,8339,8804,8927,9133,9781,9945,10417,10540,10775,11331,11475,12497,12745,12868,12990,13469,14042,14165,14229
participant_2_CURRENTGOLD,500,0,84,392,962,1273,1595,88,299,690,1341,1588,1001,1270,718,25,148,1142,1733,1954,476,895,517,389,4,127,334,981,1145,1618,1305,1541,2097,440,998,1246,1369,1491,1970,2543,566,629
participant_2_LEVEL,1,1,1,3,5,5,6,6,7,8,8,9,9,9,10,10,10,10,11,11,11,11,12,12,12,12,12,13,13,13,13,14,14,14,15,15,15,15,16,16,16,16
participant_2_MINIONSKILLED,0,0,3,12,20,28,37,38,44,56,65,69,74,82,82,84,84,93,103,108,108,113,113,113,116,116,121,121,124,124,124,128,133,134,134,142,142,142,146,152,152,154
participant_2_KILLS,0,0,0,1,1,1,1,1,1,1,2,2,2,2,5,5,6,7,7,7,7,7,7,7,8,8,8,8,8,9,9,9,9,9,9,9,9,9,12,12,12,12
participant_2_BUY,[],"[1041, 2031, 3340]",[],[],[],[],"[3133, 1039]",[],[],[3706],[],"[1400, 1029]",[],[3047],[],[3044],[1028],[],[3071],[],"[1028, 1036]",[],[],[3052],[1028],[],[],[],[1037],[],[3053],[],[],[],[2420],[],[],[1031],[],[],"[3026, 1029]",[]
participant_2_SOLD,[],[],[],[],[],[],[],[],[],"[1039, 1041]",[],"[3133, 3706]",[],"[1029, 2422]",[],[],[],[],"[3044, 1028]",[],[],[],[],"[1036, 1028]",[],[],[],[],[2031],[],"[3052, 1037, 1028]",[],[],[],[],[],[],[2420],[],[],"[1031, 2421]",[]
participant_2_UNDO,[],[],[],[],[],[],[],[],[],[],[],[],[],[],[],[],[],[],[],[],[],[],[],[],[],[],[],[],[],[],[],[],[],[],[],[],[],[],[],[],[],[]
participant_3_GOLD,500,500,563,878,1155,1438,1589,1711,2028,2214,2499,2622,2941,3133,3256,3448,3735,4795,5039,5405,5548,5905,6102,6275,6634,6758,7048,8470,8683,10331,10538,11160,11602,11724,11993,12115,12406,12529,12701,13405,13745,14067
participant_3_CURRENTGOLD,500,0,63,378,655,938,1089,1211,1528,264,549,672,991,1183,431,623,910,1970,314,680,323,680,877,450,809,933,123,1545,558,406,294,915,1357,230,498,621,912,1034,1207,1911,2251,2392
participant_3_LEVEL,1,1,1,2,3,4,4,4,5,6,6,6,7,7,7,7,8,9,9,9,9,10,10,10,11,11,11,11,11,12,12,13,13,13,13,14,14,14,14,15,15,15
participant_3_MINIONSKILLED,0,0,2,11,20,29,31,31,39,43,49,49,57,61,61,65,70,74,75,85,86,91,91,91,100,100,102,102,103,103,103,110,116,116,120,120,123,123,123,137,141,141
participant_3_KILLS,0,0,0,0,0,0,0,0,0,0,0,0,0,0,0,0,0,1,1,1,1,1,1,1,1,1,1,3,3,7,7,7,7,7,7,7,7,7,7,7,7,8
participant_3_BUY,[],"[1055, 2003, 3340]",[],[],[],[],[],[],[],"[1038, 2055, 2055]",[],[],[],[],"[1018, 2055]",[],[],[],"[3031, 1042, 1001]",[],[3006],[],[],"[1042, 1042]",[],[],[3086],[],"[3085, 1042]","[3086, 2015]",[3094],[],[],"[1053, 1036]",[],[],[],[],[],[],[],[]
participant_3_SOLD,[],[],[],[],[],[],[],[],[2003],[],[],[2055],[],[],[],[],[2055],[],"[1038, 1018]",[],"[1001, 1042]",[],[],[],[],[],[1042],[],"[1042, 3086]","[2055, 1042]","[1055, 3086, 2015]",[],[],[],[],[],[],[],[],[],[],[]
participant_3_UNDO,[],[],[],[],[],[],[],[],[],[],[],[],[],[],[],[],[],[],[],[],[],[],[],[],[],[],[],[],[],[],[],[],[],[],[],[],[],[],[],[],[],[]
participant_4_GOLD,500,500,523,701,881,1059,1320,1498,1662,1797,2006,2207,2382,2607,3183,3353,3569,4225,4664,4907,5047,5266,5406,5596,5837,6020,6161,6376,6538,6878,7199,7411,7930,8085,8718,8900,9041,9334,9775,9965,10105,10206
participant_4_CURRENTGOLD,500,0,23,201,381,559,820,998,1162,187,396,157,332,557,233,403,619,625,1064,1307,398,181,321,77,237,421,561,776,938,428,750,961,1480,135,768,301,441,284,75,265,405,506
participant_4_LEVEL,1,1,1,2,3,4,4,4,4,4,5,5,6,6,6,6,7,7,8,8,8,8,8,8,9,9,9,10,10,11,11,11,12,12,13,13,13,13,14,14,14,15
participant_4_MINIONSKILLED,0,0,0,1,1,2,3,4,4,4,4,5,7,7,7,7,8,10,12,14,14,16,16,16,16,19,19,19,20,20,26,27,29,30,33,35,35,40,40,40,40,40
participant_4_KILLS,0,0,0,0,0,0,0,0,0,0,0,0,0,0,1,1,1,1,1,1,1,1,1,1,1,1,1,1,1,1,1,1,1,1,1,1,1,1,1,1,1,1
participant_4_BUY,[],"[3850, 2003, 2003, 3340]",[],[],[],[],[],[],[],"[1001, 1052, 1029, 2055]",[],"[3191, 2055]",[],[],"[3108, 3364]",[],[],[3157],[],[],"[3117, 1027]",[1052],[],[1052],[3802],[],[],[],[],[1026],[],[],[],"[3285, 1033]",[],[3105],[],[1033],[3190],[],[],[]
participant_4_SOLD,[],[],[],[],[],[],"[2003, 2010]",[2010],"[2010, 2003]",[],[2055],"[1029, 1052]","[3850, 2055]",[],"[2419, 2423, 3340]",[],[],"[3191, 3108, 2424]",[],[3851],[1001],[],[],[],"[1052, 1027, 1052]",[],[],[],[],[],[],[],[],"[3802, 1026]",[],[1033],[],[],"[3105, 1033]",[],[],[]
participant_4_UNDO,[],[],[],[],[],[],[],[],[],[],[],[],[],[],[],[],[],[],[],[],[],[],[],[],[],[],[],[],[],[],[],[],[],[],[],[],[],[],[],[],[],[]
participant_5_GOLD,500,500,556,762,885,1447,1618,1838,2016,2351,2473,2767,2973,3123,3271,3393,3820,4193,4460,4715,4941,5134,5351,5728,6123,6429,6927,7202,7324,7501,7644,8035,8470,8750,9211,9382,9712,10540,10938,11190,11774,11902
participant_5_CURRENTGOLD,500,0,56,262,285,847,168,388,166,501,623,42,198,48,196,218,645,1018,1285,990,1216,1409,1626,103,498,303,802,1077,299,476,619,1010,1445,1725,2186,282,262,1090,389,640,1225,1352
participant_5_LEVEL,1,1,1,2,3,4,4,5,6,6,6,7,8,8,8,8,9,9,10,10,10,11,11,11,12,12,13,13,13,13,13,14,14,14,15,15,16,16,16,16,17,17
participant_5_MINIONSKILLED,0,0,2,7,7,12,14,20,23,32,32,33,38,40,44,44,58,68,72,76,78,78,78,78,86,89,92,93,93,93,94,98,108,110,111,114,121,126,127,128,131,137
participant_5_KILLS,0,0,0,0,0,0,0,1,1,1,1,1,1,2,3,4,6,6,7,8,8,8,8,12,16,16,17,17,17,18,18,19,19,19,20,22,24,26,27,29,30,30
participant_5_BUY,[],"[1036, 2031, 3340]",[],[],[],"[1052, 1053]",[],[],"[3144, 1001]",[],[1052],[],[],[],[3146],[],[],"[3020, 1058]",[],[],[],[],"[1058, 2055]","[3089, 1052]",[],"[3191, 2420, 1052]",[],[3157],[],[],[1052],[1026],[],[],[3165],[],[3108],[],[3102],[],[],[]
participant_5_SOLD,[],[],[],[],[],[1036],[],[],[1053],[],[],[],[],[],"[3144, 1052]",[],[],"[1001, 2031]",[],[],[],[],[],"[1058, 1058]",[2055],[1052],[],"[3191, 1052, 2420]",[],[],[],[],[],[],"[1052, 1026]",[],[],[],[3108],[],[],[]
participant_5_UNDO,[],[],[],[],[],"[[0, 1052]]",[],[],[],[],[],[],[],[],[],[],[],[],[],[],[],[],[],[],[],[],[],[],[],[],[],[],[],[],[],[],[],[],[],[],[],[]
participant_6_GOLD,500,500,621,828,1036,1443,1651,2150,2297,2520,2742,3664,3935,4142,4415,4649,4847,4969,5436,5664,6311,6734,6960,7502,7880,8053,8445,8722,8979,9286,9416,9728,9935,10395,10817,10939,11400,11891,12468,12694,12937,12959
participant_6_CURRENTGOLD,500,0,121,328,536,943,1151,1650,1797,70,292,1214,1485,1692,180,414,147,269,736,334,981,1404,280,822,1200,173,565,142,399,706,836,1148,55,515,938,610,670,1162,589,814,1058,1059
participant_6_LEVEL,1,1,2,2,2,3,4,4,5,5,5,6,7,7,7,8,8,8,9,9,9,10,10,11,11,11,12,12,12,12,13,13,13,13,14,14,14,15,15,15,16,16
participant_6_MINIONSKILLED,0,0,0,0,0,0,0,0,0,0,0,1,2,2,2,2,2,2,2,8,8,8,10,10,10,10,13,13,13,13,13,14,14,14,14,14,19,21,26,28,29,29
participant_6_KILLS,0,0,0,0,0,0,1,1,1,1,1,2,2,2,2,2,2,2,2,2,2,2,3,3,3,3,3,4,4,4,5,5,5,5,5,5,5,5,5,5,5,5
participant_6_BUY,[],"[3340, 3854, 2003, 2003]",[],[],[],[],[],[],[],"[1028, 3067, 1029, 1001]",[],[],"[3109, 2055]",[],[1029],"[3364, 1029]",[],[3047],[],[],[],[],"[3024, 1028, 1006]","[3801, 1033]",[],[],[3800],[],[3211],[],[1006],[],[],[],[],"[3194, 1033]",[],[],[3105],[],[],[]
participant_6_SOLD,[],[],[],[],[],[],"[2010, 2003, 2010, 2003]",[],[2010],[1028],[],[3854],"[3067, 1029]",[2055],[],[3340],[],"[1001, 1029]",[],[],[],[3855],[1029],"[1028, 1006]",[],[],"[3024, 3801]",[],[1033],[],[],[],[],[],[],"[3211, 1006]",[],[],[1033],[],[],[]
participant_6_UNDO,[],[],[],[],[],[],[],[],[],[],[],[],[],[],[],[],[],[],[],[],[],[],[],[],[],[],[],[],[],[],[],[],[],[],[],[],[],[],[],[],[],[]
participant_7_GOLD,500,500,626,825,1092,1298,1573,2065,2187,2478,2621,2889,3222,3672,4145,4714,5737,5859,6281,6973,7159,7346,7482,8860,10207,10548,11124,11365,11508,11905,12240,12728,13150,13575,14300,15797,16653,17741,18411,19434,20358,20430
participant_7_CURRENTGOLD,500,0,126,325,592,248,523,1015,137,428,136,404,737,1187,295,864,1887,19,441,1133,1319,1506,317,160,1507,98,674,200,343,740,640,278,701,1126,136,1632,1589,2677,1247,2269,3194,3205
participant_7_LEVEL,1,1,1,3,4,4,5,6,6,7,7,7,8,9,9,10,10,10,11,12,12,12,12,13,13,13,14,14,14,14,14,14,15,15,16,17,17,17,18,18,18,18
participant_7_MINIONSKILLED,0,0,6,10,16,21,25,30,30,40,41,47,56,58,58,63,63,63,63,70,71,72,73,77,77,82,87,87,88,88,92,94,107,112,114,120,124,130,135,135,142,142
participant_7_KILLS,0,0,0,0,0,1,1,1,1,1,1,1,1,1,1,1,1,1,1,1,1,1,1,1,1,1,2,2,2,2,2,2,2,2,2,2,2,3,3,3,3,3
participant_7_BUY,[],"[1054, 2003, 3340]",[],[],"[2003, 2003]",[],"[1001, 2003, 1006, 1036]",[],"[1036, 2003]",[],[],"[3077, 2003, 1036]",[2003],[1029],[],"[2003, 2003]",[],[],[],[1053],[],[],[],"[3133, 3105]",[],[3812],[],[],[1053],[],[],[],[],[],[],"[3074, 3111]",[1036],[],"[3134, 1036]",[],[],[]
participant_7_SOLD,[],[],[],"[2010, 2003]",[],[2010],[2003],"[2010, 2003]",[],[],[2003],"[1036, 1006, 1036, 2003]",[],[2003],[2003],[],[],[],[],[1036],[],[2003],[2003],[1029],[],"[3105, 1053, 3133]",[],[],[],[],[],[],[],[],[],"[3077, 1053, 1001]",[],[],[1036],[],[],[]
participant_7_UNDO,[],[],[],[],[],[],[],[],[],[],[],[],[],[],[],[],[],[],[],[],[],[],[],[],[],[],[],[],[],[],[],[],[],[],[],[],[],[],[],[],[],[]
participant_8_GOLD,500,500,524,831,1086,1372,1629,2002,2158,2302,2656,3397,3616,3924,4321,4619,4774,4952,5457,5649,6221,6420,6661,7137,7826,8159,8430,8945,9188,9993,10115,10702,10973,12370,13071,13214,13497,14235,15177,15415,15587,15610
participant_8_CURRENTGOLD,500,0,24,331,586,872,1129,1502,1658,302,656,1397,441,749,96,394,549,377,882,324,896,1095,486,962,101,434,705,620,863,418,540,1127,1399,936,1636,330,613,1350,1052,1291,1463,1185
participant_8_LEVEL,1,1,1,2,3,4,4,5,5,5,5,6,7,7,7,8,8,8,8,9,9,9,10,10,11,12,12,12,12,12,12,13,13,13,14,14,15,15,16,16,16,16
participant_8_MINIONSKILLED,0,0,0,10,15,22,25,36,38,39,49,56,61,68,68,75,76,79,93,97,101,102,104,109,110,119,123,123,126,133,133,139,144,150,150,151,155,168,170,172,172,172
participant_8_KILLS,0,0,0,0,0,0,0,0,0,0,0,1,1,1,2,2,2,2,2,2,3,3,3,3,4,4,4,5,5,6,6,7,7,9,9,9,9,9,10,10,10,10
participant_8_BUY,[],"[1055, 2003, 3340]",[],[],[],[],[],[],[],"[1037, 1027, 1004, 2003, 2003, 2003]",[],[],"[3004, 2003, 2055]",[],"[3009, 1036, 2003, 2003]",[],[],[1036],[],"[3134, 1036]",[],[],"[3133, 2003, 2003, 3363]",[],"[3147, 2003, 1018]",[],[],[3086],[],"[3094, 2003]",[],[],[],"[1038, 1018]",[],"[3031, 2003, 2003, 2003]",[],[],[3140],[],[],[]
participant_8_SOLD,[],[],[],[],[],[],[2010],[],"[2003, 2010]",[],"[2003, 2010]",[],"[1027, 1004, 1037]","[2003, 2003]",[2422],[2055],[],[],[],"[1036, 1036]",[2003],[2003],"[1036, 3340, 2003]",[],"[3134, 3133]",[],[],"[3004, 1018]",[],"[2003, 3086]",[],[],[],"[2003, 2003, 2003, 1055]",[],"[1038, 1018]",[],[],"[2003, 2003, 2003]",[],[],[]
participant_8_UNDO,[],[],[],[],[],[],[],[],[],[],[],[],[],[],[],[],[],[],[],[],[],[],[],[],[],[],[],[],[],[],[],[],[],[],[],[],[],[],[],[],[],[]
participant_9_GOLD,500,500,523,720,876,1073,1529,1900,2034,2225,2473,3163,3303,3486,3763,3904,4149,4331,4652,4792,5204,5344,5955,6171,6615,7000,7171,7704,7866,8040,8731,9141,9295,9600,10130,10292,10507,11036,11389,11604,11983,12009
participant_9_CURRENTGOLD,500,0,23,220,376,573,1029,1400,1534,325,573,1263,228,411,388,229,474,156,477,617,1029,1169,630,296,740,1126,196,729,141,315,856,1266,1421,1725,2255,517,732,1261,964,1179,1559,1584
participant_9_LEVEL,1,1,1,2,3,4,4,5,5,5,6,7,7,7,7,8,8,8,8,9,9,9,10,10,11,11,11,11,11,12,12,12,13,13,14,14,15,15,15,16,16,16
participant_9_MINIONSKILLED,0,0,0,3,4,5,6,8,8,11,14,16,16,18,18,18,19,21,23,23,27,27,28,28,29,31,32,32,33,33,33,41,42,43,44,45,45,45,45,45,49,49
participant_9_KILLS,0,0,0,0,0,0,0,1,1,1,1,2,2,2,2,2,2,2,2,2,3,4,4,4,4,4,4,4,4,4,4,4,4,5,5,5,5,5,5,5,5,5
participant_9_BUY,[],"[1039, 2003, 2003, 2003, 3340]",[],[],[],[],[],[],[],"[3706, 3108, 1027, 2003]",[],[],[],[],"[1402, 3020, 1052]",[],[3108],[],[],[2420],[],[],[3157],[],[],"[3113, 1027]",[],[3057],[],[],[],[],[3100],[],[],[1033],[1028],[],"[3211, 3067]",[],[],[]
participant_9_SOLD,[],[],[],[],[],[2003],"[2003, 2003]",[],[],[1039],[],[],[],[],"[3108, 1027, 3706]",[],[1052],[],[],[2003],[],[],"[3108, 2420]",[],[],[],[],[1027],[],[],[],[],"[3057, 3113]",[],[],[],[],[],"[1028, 1033]",[],[],[]
participant_9_UNDO,[],[],[],[],[],[],[],[],[],[],[],[],[],[],[],[],[],[],[],[],[],[],[],[],[],[],[],[],[],[],[],[],[],[],[],[],[],[],[],[],[],[]
team0_KILLS,0,0,0,1,2,2,2,2,3,3,6,7,7,7,11,11,12,16,18,18,18,18,19,20,22,22,22,27,27,32,32,32,33,33,36,37,37,37,42,43,43,44
team0_CURRENTGOLD,2500,0,354,2353,3850,5104,4005,3451,5091,1574,4296,4605,3173,4019,4106,1491,2306,5388,4969,5333,2169,3388,3709,3007,1620,2425,2359,5770,4581,5256,5128,3920,6113,2335,3388,4684,4456,4686,4846,7134,3732,3555
team0_TOTALGOLD,2500,2500,2854,4853,6350,7604,8905,10001,11691,12834,15556,17130,18398,19744,22656,23441,24656,28668,31499,32663,33398,35053,36224,37556,39600,40403,41438,44850,45675,49000,50350,51763,53956,54728,56896,58839,59833,61313,65942,68230,69078,69705
team0_LEVEL,5,5,6,13,19,22,24,25,28,30,33,35,38,39,41,41,43,46,49,50,50,51,52,53,55,56,56,59,59,62,63,65,66,66,68,70,71,72,76,78,78,79
team0_SBIRES,0,0,7,38,63,87,108,121,146,162,188,206,221,249,252,258,264,283,301,319,325,345,347,351,364,374,386,390,397,398,410,422,442,445,452,476,482,506,520,545,549,551
team1_KILLS,0,0,0,0,0,1,2,4,4,4,4,7,7,8,10,11,13,13,14,15,17,18,19,23,28,28,30,32,32,34,35,37,37,40,41,43,45,48,50,52,53,53
team1_CURRENTGOLD,2500,0,350,1466,2375,3483,4000,5955,5292,1626,2280,4320,3089,4087,1155,2119,3702,1839,3821,3398,5441,6583,3339,2343,4046,2134,2942,2768,2045,2655,3491,4829,5021,6027,7151,3371,3866,7540,4241,6193,8499,8385
team1_TOTALGOLD,2500,2500,2850,3966,4975,6633,8000,9955,10692,11876,12965,15880,17049,18347,19915,21279,23327,24304,26286,27793,29836,30978,32409,35398,38651,40189,42097,43938,44865,46725,48146,50334,51823,54690,57529,59624,61769,65443,68383,70337,72639,72910
team1_LEVEL,5,5,6,11,15,19,21,25,27,28,29,33,37,38,38,42,43,43,46,49,49,51,53,55,58,59,62,62,62,63,64,66,68,68,73,74,77,78,80,81,83,83
team1_SBIRES,0,0,8,30,42,60,70,94,99,122,136,153,173,186,190,202,218,233,253,274,285,287,293,302,312,331,347,348,353,360,365,386,415,429,433,444,464,490,503,508,523,529
delta_KILLS,0,0,0,1,2,1,0,-2,-1,-1,2,0,0,-1,1,0,-1,3,4,3,1,0,0,-3,-6,-6,-8,-5,-5,-2,-3,-5,-4,-7,-5,-6,-8,-11,-8,-9,-10,-9
delta_CURRENTGOLD,0,0,4,887,1475,1621,5,-2504,-201,-52,2016,285,84,-68,2951,-628,-1396,3549,1148,1935,-3272,-3195,370,664,-2426,291,-583,3002,2536,2601,1637,-909,1092,-3692,-3763,1313,590,-2854,605,941,-4767,-4830
delta_TOTALGOLD,0,0,4,887,1375,971,905,46,999,958,2591,1250,1349,1397,2741,2162,1329,4364,5213,4870,3562,4075,3815,2158,949,214,-659,912,810,2275,2204,1429,2133,38,-633,-785,-1936,-4130,-2441,-2107,-3561,-3205
delta_LEVEL,0,0,0,2,4,3,3,0,1,2,4,2,1,1,3,-1,0,3,3,1,1,0,-1,-2,-3,-3,-6,-3,-3,-1,-1,-1,-2,-2,-5,-4,-6,-6,-4,-3,-5,-4
delta_SBIRES,0,0,-1,8,21,27,38,27,47,40,52,53,48,63,62,56,46,50,48,45,40,58,54,49,52,43,39,42,44,38,45,36,27,16,19,32,18,16,17,37,26,22
