name,frame_0,frame_1,frame_2,frame_3,frame_4,frame_5,frame_6,frame_7,frame_8,frame_9,frame_10,frame_11,frame_12,frame_13,frame_14,frame_15,frame_16,frame_17,frame_18,frame_19,frame_20,frame_21,frame_22,frame_23,frame_24,frame_25,frame_26,frame_27,frame_28,frame_29,frame_30,frame_31,frame_32,frame_33,frame_34
nameStamp,Tstart,Tearly,Tearly,Tearly,Tearly,Tearly,Tearly,Tearly,Tearly,Tearly,Tearly,Tearly,Tearly,Tearly,Tearly,Tearly,Tearly,Tearly,Tearly,Tmid,Tmid,Tmid,Tmid,Tmid,Tmid,Tmid,Tmid,Tmid,Tmid,Tmid,Tmid,Tmid,Tmid,Tmid,Tend
timestamp,0,60014,120016,180049,240054,300057,360061,420066,480068,540098,600131,660131,720140,780171,840198,900215,960244,1020249,1080250,1140252,1200284,1260297,1320323,1380330,1440351,1500383,1560409,1620415,1680419,1740420,1800444,1860465,1920497,1980509,2040509
participant_0_GOLD,500,500,962,1211,1381,1662,1895,2463,2641,2905,3247,3412,3879,4206,4343,4561,4834,5033,5350,5816,6281,6404,6701,6823,7561,7683,8470,8752,9062,9338,9745,10351,10792,11120,11186
participant_0_CURRENTGOLD,500,0,462,711,181,462,695,1263,171,435,777,112,579,906,68,286,559,758,370,471,936,159,456,178,916,238,1025,507,817,293,700,1307,1747,405,81
participant_0_LEVEL,1,1,1,2,3,5,5,6,7,7,8,8,9,9,9,10,10,10,11,12,12,12,13,13,13,13,14,15,15,15,15,16,16,17,17
participant_0_MINIONSKILLED,0,0,2,9,11,17,22,27,30,37,46,49,59,67,68,73,78,82,89,91,104,104,115,115,127,127,149,154,161,166,174,179,189,192,192
participant_0_KILLS,0,0,0,0,0,0,0,0,0,1,1,3,3,3,3,4,4,6,6,7,7,9,9,9,9,9,9,9,9,9,9,10,10,11,11
participant_0_BUY,[],"[1055, 2003, 3340]",[],[],[],"[1036, 1001, 2003]","[1036, 2055]",[],[],[],"[3133, 1038]",[],[],[],"[3508, 1042]",[],[],"[1038, 3006]",[],[],[1037],[],[3031],[],[],[],[3086],[],[],"[3094, 2420]",[],[],[1038],[],[3026]
participant_0_SOLD,[],[],[],[2003],[],[],[],[],[],[],"[1036, 1036, 2003]",[],[],[],"[1038, 1036, 1036]",[],[],"[1001, 1042]",[],[],[],[],"[1038, 1037]",[],[2055],[],[],[],[],[3086],[],[],[1055],[],"[1038, 2420]"
participant_0_UNDO,[],[],[],[],[],[],[],[],[],[],"[[0, 3133]]",[],[],[],[],[],[],[],[],[],[],[],[],[],[],[],[],[],[],[],[],[],[],[],[]
participant_1_GOLD,500,500,650,1033,1233,1533,1741,2138,2446,2827,3127,3335,4114,4236,4679,5449,5642,6069,6201,6374,6701,7211,7333,7668,8020,8932,9205,9406,9848,10086,10323,11079,11546,11760,11827
participant_1_CURRENTGOLD,500,0,150,533,733,1033,241,638,946,1327,52,260,239,286,254,1024,367,794,926,299,626,1136,308,643,195,1107,380,581,1024,221,458,815,82,296,302
participant_1_LEVEL,1,1,2,3,3,4,4,5,6,6,7,7,8,8,8,9,9,10,10,10,10,11,11,12,12,12,13,13,13,14,14,14,15,15,15
participant_1_MINIONSKILLED,0,0,0,0,0,0,0,0,1,2,2,2,2,2,2,4,8,8,9,9,9,9,9,12,12,12,12,16,16,17,23,25,25,31,31
participant_1_KILLS,0,0,1,1,1,1,1,2,2,2,2,2,2,2,2,2,2,2,2,3,3,3,3,3,4,4,4,4,4,4,4,5,5,5,5
participant_1_BUY,[],"[1054, 2003, 3340]",[],[],"[1028, 1001]",[],[],[],"[3067, 1052, 1052]",[],[],[3152],[],[],"[3108, 2055]",[],[],[],"[1052, 1029]",[3191],[],[3157],[],[1028],[],[3211],[],[3067],[],[3065],[],[],[],"[1058, 3158]",[]
participant_1_SOLD,[],[],[],[],[],[2003],[],[],[1028],[],[],"[1052, 1052, 3067]",[],[],[],[],[],[],"[1054, 2055]","[1029, 1052]",[],"[3191, 3108]",[],[],[],[1028],[],[],[],"[3211, 3067]",[],[],[],"[1054, 1001]",[]
participant_1_UNDO,[],[],[],[],[],[],[],[],[],[],[],[],[],[],[],[],[],[],"[[1054, 0]]",[],[],[],[],[],[],[],[],[],[],[],[],[],[],[],[]
participant_2_GOLD,500,500,590,853,1060,1614,1828,2320,2580,2859,3434,3740,3989,4132,4405,4769,5416,5567,5828,6534,7150,7781,7939,8061,8234,8521,9839,10329,10526,10781,10904,11026,11225,11744,11852
participant_2_CURRENTGOLD,500,0,90,353,560,14,228,420,680,959,1534,290,539,332,605,269,116,267,178,884,1500,2131,439,561,284,271,339,829,1026,1282,1404,126,326,844,52
participant_2_LEVEL,1,1,1,3,4,5,6,6,7,8,9,9,9,10,10,11,11,11,12,12,12,13,13,13,13,14,14,15,15,15,15,15,16,16,16
participant_2_MINIONSKILLED,0,0,4,12,17,24,29,33,37,43,51,51,59,60,65,70,70,72,76,77,79,82,84,84,84,84,87,89,89,98,98,98,103,114,116
participant_2_KILLS,0,0,0,0,0,1,2,2,2,2,2,2,2,2,2,2,2,2,2,3,3,4,4,4,4,4,4,4,4,4,4,4,4,4,4
participant_2_BUY,[],"[3850, 2003, 2003, 3340]",[],[],[],"[1001, 2055]",[],"[3117, 2031, 2055]",[],[],[],"[3191, 3364]",[],[],[],[],[],[3157],[],[],[],[3114],[3107],[],[],[],[1033],[],[3105],[],[],[],[],[3190],[]
participant_2_SOLD,[],[],[],[],"[2003, 2003]",[2055],"[2010, 2010]",[1001],[],"[2419, 2010]",[3850],"[2423, 3340]",[],[],[],[],[],"[3191, 2424]",[],[3851],[],[],[3114],[],[],[],[2031],[],[1033],[],[],[],[],[3105],[]
participant_2_UNDO,[],[],[],[],[],[],[],[],[],[],[],[],[],[],[],[],[],[],[],[],[],[],[],[],[],[],[],[],[],[],[],[],[],[],[]
participant_3_GOLD,500,500,583,797,1169,1441,1742,2039,2391,3061,3197,4034,4381,4588,4785,5460,5687,6674,6951,7810,8256,9316,9619,10009,10265,10493,10818,11368,11824,12189,12485,13226,13348,14110,14190
participant_3_CURRENTGOLD,500,0,83,297,669,241,117,414,766,1436,292,1129,1476,1683,280,955,1182,369,646,1505,1076,2136,1214,1604,1860,2088,1014,1563,2019,535,830,1572,574,1335,365
participant_3_LEVEL,1,1,1,2,3,3,3,5,5,6,6,7,7,8,8,8,9,10,10,11,11,12,12,12,12,13,13,13,14,14,14,15,15,15,15
participant_3_MINIONSKILLED,0,0,3,8,20,20,22,32,42,53,54,62,72,77,77,88,94,106,115,125,132,135,142,152,158,161,168,179,190,195,201,210,210,221,222
participant_3_KILLS,0,0,0,0,0,0,0,0,0,0,0,0,1,1,2,3,3,3,3,3,3,3,3,3,3,5,5,5,6,6,6,7,8,8,8
participant_3_BUY,[],"[1041, 2031, 3340]",[],[],[],[],"[3706, 1036]",[],[],[],"[1400, 1001]",[3364],[3111],[2055],"[1028, 2055]",[],[3044],[],[],[3067],[],[],[3071],[],[1031],[],[1011],[],[],[3742],[],[1028],"[3052, 1028]",[],[]
participant_3_SOLD,[],[],[],[],[],[],[1041],[],[],[],"[1036, 3706]",[3340],[1001],[2055],[],[],[1028],[],[],[],[],[2055],"[3044, 3067]",[],[],[],[],[],[],"[2031, 1031, 1011]",[],[],[1028],[],[]
participant_3_UNDO,[],[],[],[],[],[],[],[],[],[],[],[],[],[],[],[],[],[],[],[],[],[],[],[],[],[],[],[],[],[],[],[],[],[],[]
participant_4_GOLD,500,500,567,762,957,1436,1930,2094,2318,2587,2784,3141,3341,3527,3797,4148,4318,4623,4794,5479,5849,6589,6730,6930,7205,7471,7611,8020,8235,8489,8733,9037,9559,9710,9786
participant_4_CURRENTGOLD,500,0,67,262,457,561,1055,294,518,787,984,241,441,627,897,1248,1418,173,344,1029,1399,1339,180,380,655,921,671,1080,645,900,1143,1447,1969,1020,1036
participant_4_LEVEL,1,1,1,2,3,3,4,4,5,5,6,6,7,7,7,8,8,8,9,9,10,11,11,11,12,12,12,13,13,13,14,14,15,16,16
participant_4_MINIONSKILLED,0,0,0,0,0,0,1,1,2,3,3,5,5,5,9,9,9,9,10,10,11,11,11,13,13,13,13,16,16,22,27,28,38,39,39
participant_4_KILLS,0,0,0,0,0,1,1,2,2,2,3,3,3,3,3,3,4,4,4,5,6,7,7,7,7,7,9,10,10,10,10,10,10,10,10
participant_4_BUY,[],"[2033, 3340]",[],[],[],[3134],[],[1001],[],[],[],"[3133, 1033]",[],[3111],[],[3142],[3067],[],[1036],[],[],[],[3071],[],[1033],[1029],"[3105, 1053]",[],[],[],[],[3812],[],[],"[1036, 1036]"
participant_4_SOLD,[],[],[],[],[],[],[],[],[],[],[],[],[],"[1001, 1033]",[],"[3133, 3134]",[],[],[],[],[],[],"[1036, 3067]",[],[],[],"[1033, 1029]",[],[],[],[],"[2033, 3105, 1053]",[],[],[]
participant_4_UNDO,[],[],[],[],[],[],[],[],[],[],[],[],[],[],[],[],[],[],[],[],[],[],[],[],[],[],[],[],[],[],[],[],[],[],[]
participant_5_GOLD,500,500,562,1227,1420,1640,1906,2042,2638,2987,3374,3869,4202,4443,4903,5385,5598,5853,6976,7099,7955,8077,8535,8678,8924,9597,9964,10087,10342,10690,10980,11570,11843,12906,13222
participant_5_CURRENTGOLD,500,0,62,727,920,190,456,107,703,1052,1439,1934,352,593,103,585,298,553,1676,49,165,37,495,203,35,707,1074,1197,202,551,840,1431,603,1167,72
participant_5_LEVEL,1,1,1,3,4,5,6,6,7,8,8,9,9,10,10,11,12,12,13,13,13,13,14,14,14,15,15,15,15,16,16,16,16,18,18
participant_5_MINIONSKILLED,0,0,2,14,18,25,31,32,47,57,63,72,81,88,91,99,104,108,118,118,123,123,138,139,142,148,155,155,163,163,169,177,177,189,189
participant_5_KILLS,0,0,0,0,0,0,0,1,1,1,1,1,1,1,1,1,2,3,3,3,3,3,3,4,5,6,6,6,8,8,8,9,9,9,11
participant_5_BUY,[],"[2033, 3340]",[],[],[],[1027],[],[],"[3070, 1001]",[],[],[3010],[],[],[],[1026],[],[],"[3027, 3020]",[],[],[3802],[],[],[3003],[],"[1026, 1052]",[],[3135],[],[],[],[1058],[],[]
participant_5_SOLD,[],[],[],[],[],[],[],[],[1027],[],[],[],[],[],[],[],[],[],"[3010, 1026, 1001]",[],[],[],[],[],"[3070, 3802]",[],[3003],[],"[1026, 1052]",[],[],[],[],[],[]
participant_5_UNDO,[],[],[],[],[],[],[],[],[],[],[],[],[],[],[],[],[],[],[],[],[],[],[],[],[],[],[],[],[],[],[],[],[],[],[]
participant_6_GOLD,500,500,605,993,1425,1682,1972,2503,2760,3178,3505,4103,4430,5220,6348,6821,7463,8095,8787,9279,10092,10843,11038,11533,12386,14167,14339,15335,15837,16415,16786,17467,18209,18632,19126
participant_6_CURRENTGOLD,500,0,105,143,575,832,322,853,285,703,1030,1628,30,820,1948,271,913,1545,2237,179,993,1743,198,694,1546,3328,600,1595,2098,803,1174,1855,2598,840,-774
participant_6_LEVEL,1,1,2,3,4,4,5,5,6,7,7,8,8,9,10,10,11,12,12,13,14,14,14,15,15,16,16,17,17,17,18,18,18,18,18
participant_6_MINIONSKILLED,0,0,0,0,0,0,0,3,3,4,4,4,4,6,6,8,8,8,8,8,14,22,22,22,22,22,22,36,43,50,60,65,65,65,67
participant_6_KILLS,0,0,0,0,0,0,1,1,1,1,1,1,1,1,2,2,2,2,2,2,2,2,2,2,2,2,2,2,3,3,3,3,3,3,3
participant_6_BUY,[],"[3850, 3858, 2003, 2003, 3340]",[],[],[],[1001],[],"[1052, 2055]",[],[1028],"[3020, 1026]","[1027, 1028]",[],[],[],[3027],[],[1029],[],[3020],[],[],"[1052, 2055, 2055]",[],[],[],[],"[3076, 1028, 3082, 1028, 3136, 3076]",[1029],[],[],[3082],[],[3075],[]
participant_6_SOLD,[],[],[],"[2003, 2003]",[],[],[],[2055],[],[1052],[1001],[],[],[3858],[],"[1028, 1026]",[],[],[],[1001],[],[],[],"[2055, 2055]",[],[3859],[],"[1029, 1052, 1052, 1029]",[],[],[],[1029],[],"[3076, 3082]",[]
participant_6_UNDO,[],"[[0, 3850]]",[],[],[],[],[],[],[],"[[0, 1028]]","[[0, 3020]]","[[0, 1027]]",[],[],[],[],[],[],[],[],[],[],[],[],[],[],[],"[[0, 1028], [0, 1028], [1052, 0], [0, 3082], [0, 3076]]",[],[],[],[],[],[],[]
participant_7_GOLD,500,500,583,832,1053,1217,1445,1979,2199,2434,2747,2926,3165,3435,3642,3963,4756,5347,5672,6073,6505,6702,6971,7598,8104,8876,9048,9405,10491,10613,10812,11560,11682,12105,13111
participant_7_CURRENTGOLD,500,0,83,332,553,367,595,1129,549,784,1097,176,415,685,892,363,1156,1747,622,1023,1455,352,621,1248,704,1476,363,721,441,563,763,1510,383,805,1811
participant_7_LEVEL,1,1,1,3,4,5,6,7,7,8,8,9,9,10,10,10,11,12,12,13,13,13,14,14,15,15,15,15,16,16,16,17,17,17,17
participant_7_MINIONSKILLED,0,0,3,10,17,19,25,31,37,43,51,55,57,62,67,70,79,92,97,109,117,117,122,128,133,136,136,136,139,139,139,144,144,144,145
participant_7_KILLS,0,0,0,0,0,0,0,1,1,1,1,2,2,3,4,5,6,6,7,8,9,10,10,10,11,14,14,15,15,16,16,17,18,18,19
participant_7_BUY,[],"[1039, 2031, 3340, 3364]",[],[1036],[],[],"[1036, 1006, 1001]",[],"[3077, 1041]",[],[],[],[1400],[],[],"[3117, 3134, 1036]",[],[],[],"[3147, 3134]",[],[],[3814],[],[],[],"[3179, 3142]",[],[],[3026],[],[],[],"[2140, 3033]",[]
participant_7_SOLD,[],[3340],[],[],[],[],[],[],"[1036, 1006, 1036]",[],[3364],[],"[1039, 1041]",[],[3513],[1001],[],[],[],"[3134, 1036]",[],[],"[2031, 3134]",[],[],[],[],[],[],[3077],[],[],[],"[2140, 3026]",[]
participant_7_UNDO,[],[],[],[],[],[],[],[],[],[],[],[],[],[],[],[],[],[],[],[],[],[],[],[],[],[],"[[0, 3179]]",[],[],[],[],[],[],[],[]
participant_8_GOLD,500,500,541,913,1071,1368,1669,1990,2384,2549,2832,3107,3607,3841,4770,4983,5291,5804,6136,6273,7017,7307,7499,7837,8093,8841,9201,9373,9545,9878,10154,10703,10826,11458,12017
participant_8_CURRENTGOLD,500,0,41,413,171,468,69,390,784,149,432,307,807,1041,370,583,891,104,436,573,1317,507,699,1037,1293,2041,602,773,945,1278,1554,2104,926,1559,2117
participant_8_LEVEL,1,1,1,2,3,3,4,5,5,6,6,7,7,7,8,8,9,9,9,9,10,10,10,11,11,12,12,13,13,13,14,14,14,15,15
participant_8_MINIONSKILLED,0,0,1,13,15,23,25,33,46,48,57,62,63,70,73,79,86,91,96,97,108,113,117,125,128,133,140,143,143,143,149,157,157,157,160
participant_8_KILLS,0,0,0,1,1,1,1,1,1,1,1,1,1,1,2,3,3,3,4,4,5,5,5,5,5,5,5,5,5,5,5,5,5,6,6
participant_8_BUY,[],"[1056, 2003, 2003, 3340]",[],[],[],"[1026, 2003, 2003]",[],"[1052, 2003]",[],[],[],[],"[3116, 1001, 1001, 1029]",[],"[2420, 1029]",[],[3191],[],[],"[3157, 1058, 2139]",[3108],[3157],[],[1052],[3113],[],[],[],[1058],[],[],[],"[3907, 3089]",[2139],[1058]
participant_8_SOLD,[],[],[],[2003],[2003],"[2003, 2003]",[],[],[],[2003],[],[],"[1026, 1052]",[],[],[],"[1029, 1029]",[],[],"[3191, 2420, 2139]","[2420, 1056]","[3191, 3108, 2421]",[],[],[1052],[],[],[],[],[],[],[],"[1058, 3113, 1058, 1058]",[2139],[]
participant_8_UNDO,[],[],[],[],[],[],[],[],[],[],[],[],"[[0, 1001]]",[],[],[],[],[],[],"[[0, 3157]]",[],[],[],[],[],[],[],[],[],[],[],[],"[[0, 3907]]",[],[]
participant_9_GOLD,500,500,522,720,855,1066,1501,1635,1880,2036,2191,2401,2676,2837,3608,3748,3972,4388,4648,4802,5094,5434,5575,5745,6035,6814,7054,7195,8013,8153,8302,8805,8945,9386,9930
participant_9_CURRENTGOLD,500,0,22,220,355,266,701,325,570,1030,336,145,421,582,1352,142,367,482,743,97,388,729,284,455,745,1523,1764,139,658,798,946,750,890,430,366
participant_9_LEVEL,1,1,1,2,2,3,4,4,5,5,5,5,6,6,7,7,8,8,9,9,9,9,9,9,10,11,11,11,12,12,12,13,13,14,14
participant_9_MINIONSKILLED,0,0,0,3,3,5,5,5,8,9,10,11,16,17,18,18,23,26,30,31,33,36,36,37,37,44,44,44,46,46,46,47,47,47,47
participant_9_KILLS,0,0,0,0,0,0,0,0,0,0,0,0,1,1,2,2,2,3,3,3,3,3,3,3,3,3,3,3,3,3,3,3,3,3,4
participant_9_BUY,[],"[1055, 2003, 3340]",[],[],"[1042, 2003, 2003]",[],"[1001, 1042, 2003, 2003]",[],[],"[3006, 1042]",[],[1043],[],[],[3144],[],[],"[3153, 1042, 1042]",[],[],[],[3086],[],[],[],[],"[3085, 1053]",[],[],[],[],[],[1038],[],[]
participant_9_SOLD,[],[3599],[],[2003],[],[],[],"[2003, 2003]",[],"[2003, 1001, 1042]",[],"[1042, 1042]",[],[],[],[],[],"[3144, 1043]",[],[],[],[1042],[],[],[],[],"[1042, 3086]",[],[],[2003],[],[],[],[],[]
participant_9_UNDO,[],[],[],[],[],[],[],[],[],[],[],[],[],[],[],[],[],[],[],[],[],[],[],[],[],[],[],[],[],[],[],[],[],[],[]
team0_KILLS,0,0,1,1,1,3,4,6,6,7,8,10,11,11,12,14,15,17,17,21,22,26,26,26,27,29,31,32,33,33,33,36,37,38,38
team0_CURRENTGOLD,2500,0,852,2156,2600,2311,2336,3029,3081,4944,3639,2032,3274,3834,2104,3782,3642,2361,2464,4188,5537,6901,2597,3366,3910,4625,3429,4560,5531,3231,4535,5267,4698,3900,1836
team0_TOTALGOLD,2500,2500,3352,4656,5800,7686,9136,11054,12376,14239,15789,17662,19704,20689,22009,24387,25897,27966,29124,32013,34237,37301,38322,39491,41285,43100,45943,47875,49495,50883,52190,54719,56470,58444,58841
team0_LEVEL,5,5,6,12,16,20,22,26,30,32,36,37,40,42,42,46,47,49,52,54,55,59,60,61,62,64,66,69,70,71,72,74,77,79,79
team0_SBIRES,0,0,9,29,48,61,74,93,112,138,156,169,197,211,221,244,259,277,299,312,335,341,361,376,394,397,429,454,472,498,523,540,565,597,600
team1_KILLS,0,0,0,1,1,1,2,4,4,4,4,5,6,7,11,13,15,17,19,20,22,23,23,24,26,30,30,31,34,35,35,37,38,39,43
team1_CURRENTGOLD,2500,0,313,1835,2574,2123,2143,2804,2891,3718,4334,4190,2025,3721,4665,1944,3625,4431,5714,1921,4318,3368,2297,3637,4323,9075,4403,4425,4344,3993,5277,7650,5400,4801,3592
team1_TOTALGOLD,2500,2500,2813,4685,5824,6973,8493,10149,11861,13184,14649,16406,18080,19776,23271,24900,27080,29487,32219,33526,36663,38363,39618,41391,43542,48295,49606,51395,54228,55749,57034,60105,61505,64487,67406
team1_LEVEL,5,5,6,13,17,20,25,27,30,34,34,38,39,42,45,46,51,53,55,57,59,59,61,63,65,69,69,71,73,74,76,78,78,82,82
team1_SBIRES,0,0,6,40,53,72,86,104,141,161,185,204,221,243,255,274,300,325,349,363,395,411,435,451,462,483,497,514,534,541,563,590,590,602,608
delta_KILLS,0,0,1,0,0,2,2,2,2,3,4,5,5,4,1,1,0,0,-2,1,0,3,3,2,1,-1,1,1,-1,-2,-2,-1,-1,-1,-5
delta_CURRENTGOLD,0,0,539,321,26,188,193,225,190,1226,-695,-2158,1249,113,-2561,1838,17,-2070,-3250,2267,1219,3533,300,-271,-413,-4450,-974,135,1187,-762,-742,-2383,-702,-901,-1756
delta_TOTALGOLD,0,0,539,-29,-24,713,643,905,515,1055,1140,1256,1624,913,-1262,-513,-1183,-1521,-3095,-1513,-2426,-1062,-1296,-1900,-2257,-5195,-3663,-3520,-4733,-4866,-4844,-5386,-5035,-6043,-8565
delta_LEVEL,0,0,0,-1,-1,0,-3,-1,0,-2,2,-1,1,0,-3,0,-4,-4,-3,-3,-4,0,-1,-2,-3,-5,-3,-2,-3,-3,-4,-4,-1,-3,-3
delta_SBIRES,0,0,3,-11,-5,-11,-12,-11,-29,-23,-29,-35,-24,-32,-34,-30,-41,-48,-50,-51,-60,-70,-74,-75,-68,-86,-68,-60,-62,-43,-40,-50,-25,-5,-8
