name,frame_0,frame_1,frame_2,frame_3,frame_4,frame_5,frame_6,frame_7,frame_8,frame_9,frame_10,frame_11,frame_12,frame_13,frame_14,frame_15,frame_16,frame_17,frame_18,frame_19,frame_20,frame_21,frame_22,frame_23,frame_24,frame_25,frame_26,frame_27,frame_28
nameStamp,Tstart,Tearly,Tearly,Tearly,Tearly,Tearly,Tearly,Tearly,Tearly,Tearly,Tearly,Tearly,Tearly,Tearly,Tmid,Tmid,Tmid,Tmid,Tmid,Tmid,Tmid,Tmid,Tmid,Tmid,Tend,Tend,Tend,Tend,Tend
timestamp,0,60021,120045,180047,240047,300073,360093,420097,480106,540111,600140,660177,720178,780209,840233,900264,960285,1020310,1080332,1140365,1200388,1260410,1320432,1380452,1440477,1500508,1560536,1620566,1680566
participant_0_GOLD,500,500,577,825,1120,1466,1687,1893,2162,2334,2528,2749,2941,3182,3563,4003,4210,4402,4620,4890,5042,5400,5522,5850,6210,6537,6872,7317,7379
participant_0_CURRENTGOLD,500,0,77,325,170,516,737,143,412,584,428,199,391,632,1013,1453,260,452,370,640,452,810,57,385,445,772,1107,462,-456
participant_0_LEVEL,1,1,1,3,4,5,5,6,6,7,7,8,8,8,9,10,10,10,11,11,11,12,12,12,13,13,14,14,14
participant_0_MINIONSKILLED,0,0,3,10,18,28,33,38,47,50,51,57,61,68,78,88,93,97,98,106,106,114,114,122,132,140,150,160,160
participant_0_KILLS,0,0,0,0,0,0,0,0,1,2,2,3,3,4,5,5,5,6,7,7,7,8,8,8,9,9,10,10,13
participant_0_BUY,[],"[1054, 2003, 3340]",[],[],[],[],[],[],[],"[1038, 3006, 2055, 2055]",[2003],[],[1018],[1042],[],"[3095, 1018]",[],"[3086, 1042]",[2015],[],[3094],[],[1038],[3363],[1037],"[1018, 3031]","[1038, 1036]",[1053],[]
participant_0_SOLD,[],[],[],[],[],[],[],[],[2003],[],"[2003, 2055]",[],[],[2055],[],"[1038, 1018, 1042]",[],[1018],[1042],[],"[3086, 2015]",[],[],[3340],[1054],"[1038, 1037, 1018]",[],[1036],[]
participant_0_UNDO,[],[],[],[],[],[],[],[],[],[],[],[],[],[],[],[],[],[],[],[],[],[],[],[],[],[],[],[],[]
participant_1_GOLD,500,500,521,828,1136,1363,1621,1828,2365,2683,2905,3113,3280,3851,4203,5196,5418,5837,6178,6862,7076,7198,7941,8248,9347,10016,10683,11069,11275
participant_1_CURRENTGOLD,500,0,21,328,636,213,471,78,615,933,1155,228,395,41,393,1086,93,512,853,1537,161,283,126,433,832,1501,2168,405,550
participant_1_LEVEL,1,1,1,2,3,3,4,4,5,5,5,5,6,6,7,7,8,8,9,10,10,10,11,11,12,13,14,14,14
participant_1_MINIONSKILLED,0,0,0,0,0,0,0,0,0,0,0,0,0,0,0,0,0,6,9,9,10,10,10,10,23,36,47,53,53
participant_1_KILLS,0,0,0,0,0,0,0,0,0,0,0,1,1,1,1,1,1,1,1,1,1,1,1,1,1,2,2,2,2
participant_1_BUY,[],"[3850, 2003, 2003, 3340]",[],[],[],"[1001, 1004, 1004, 2055, 2003]",[],[],[],"[3114, 1001, 2003]",[],[],"[3113, 2055, 2003, 3364]",[2003],[],[3504],[],[1052],[],[],"[3117, 2055]",[2055],[3108],[],[1033],[],"[3028, 3174]",[],[]
participant_1_SOLD,[],[],[],[],[],[2003],[2055],[2003],[2003],"[1004, 1004]",[],[2003],[3340],[2003],"[2003, 3850]","[3114, 3113]",[],[],[],[2055],[1001],[],[1052],[],[],[3851],"[1033, 3108, 3028]",[],[]
participant_1_UNDO,[],[],[],[],[],"[[0, 1001]]",[],[],[],[],[],[],[],[],[],[],[],[],[],[],[],[],[],[],[],[],[],[],[]
participant_2_GOLD,500,500,521,678,1150,1405,1671,2156,2341,2669,2875,3307,3935,4549,5025,5222,5345,5467,7147,7389,7596,8796,9068,9274,9397,10255,10781,11126,11217
participant_2_CURRENTGOLD,500,0,21,178,650,245,511,81,266,594,400,832,1460,1024,265,462,170,292,1972,374,131,1331,3,209,332,1190,316,662,692
participant_2_LEVEL,1,1,1,2,3,4,5,6,6,7,7,8,8,9,9,10,10,10,10,11,11,12,13,13,13,13,14,14,14
participant_2_MINIONSKILLED,0,0,0,2,5,10,16,19,23,27,32,38,46,49,57,57,57,57,59,63,68,76,76,81,81,82,87,96,98
participant_2_KILLS,0,0,0,0,0,0,0,0,1,1,1,1,1,2,2,3,3,3,3,4,4,4,5,5,7,7,7,7,7
participant_2_BUY,[],"[1041, 2031, 3340]",[],[],[],[3706],[],"[1001, 1042]",[],[],[],"[1043, 1052]",[],"[1416, 1042]",[],[1042],"[1043, 1037]",[],[],[],"[3124, 3047]",[],[1053],[],"[1036, 1036]",[],[],"[3181, 1028, 1036]",[]
participant_2_SOLD,[],[],[],[],[],[1041],[],[],[],[],[],[1042],[],"[1043, 3706]",[],[],"[1042, 1042, 2031]",[],[],[],"[1052, 1043, 1037, 1001]",[],[],[],[],[],[],"[1036, 1036, 1053]",[]
participant_2_UNDO,[],[],[],[],[],[],[],[],[],[],[],[],[],[],[],[],[],[],[],[],[],[],[],[],[],[],[],[],[]
participant_3_GOLD,500,500,605,821,1018,1350,1643,1835,2539,3094,3216,3792,4044,4559,5961,6112,6664,7126,8004,8253,8542,9104,9471,9593,10804,11597,12747,13299,14275
participant_3_CURRENTGOLD,500,0,105,321,518,850,1143,1335,2039,44,116,692,144,359,1761,312,864,426,904,1153,942,1504,571,693,1209,778,277,279,1075
participant_3_LEVEL,1,1,1,2,2,4,5,5,6,6,6,7,7,7,8,8,9,9,10,10,11,11,12,12,13,13,14,15,15
participant_3_MINIONSKILLED,0,0,5,10,12,22,32,36,40,47,47,49,51,51,65,67,85,88,98,99,104,108,118,118,130,141,152,164,164
participant_3_KILLS,0,0,0,0,0,0,0,0,0,0,0,0,0,0,0,0,0,0,0,0,0,0,0,0,0,0,0,0,0
participant_3_BUY,[],"[2003, 1055, 3364, 3340]",[],[],"[2031, 1001]",[],[],"[1053, 3006]",[],[],[1036],[3123],[],[],[],[],[3086],[],[1042],[],[3046],[],[1037],[],[1042],[],[],[1038],[]
participant_3_SOLD,[],[3364],[],[2003],[],[],[],[1001],[],[],[],[1036],[],[],[],[],[],[],[],[],"[3123, 1042, 3086]",[],[],[],[],[1042],[],[1042],[]
participant_3_UNDO,[],[],[],[],[],[],[],"[[0, 1053]]",[],[],[],[],[],[],[],[],[],[],[],[],[],[],[],[],[],"[[1042, 0]]",[],[],[]
participant_4_GOLD,500,500,523,747,942,1091,1229,1378,1685,1910,2059,2605,2859,3182,3424,3594,3735,4042,4442,4648,4833,5183,5422,5577,5831,6283,6594,6763,7128
participant_4_CURRENTGOLD,500,0,23,247,442,216,354,503,810,135,284,830,109,382,624,144,285,157,557,763,173,448,222,377,181,633,194,363,728
participant_4_LEVEL,1,1,1,2,2,2,3,4,4,4,5,5,6,6,7,7,8,8,9,9,9,10,10,10,11,12,13,13,14
participant_4_MINIONSKILLED,0,0,0,0,0,0,0,0,2,2,2,2,2,2,2,2,2,2,2,2,3,3,10,10,10,10,14,16,16
participant_4_KILLS,0,0,0,0,1,1,1,2,2,2,2,2,3,4,4,4,4,4,7,7,7,9,9,9,9,10,11,11,11
participant_4_BUY,[],"[1056, 2003, 2003, 3340]",[],[],[],"[1052, 2031, 2055]",[],"[3145, 1001]",[],[],[1028],[],[],[3152],"[3020, 1052]",[],[3113],[],[],"[3057, 1026]",[3100],[],[3916],[],[],[],[3165],[],[]
participant_4_SOLD,[],[],[2003],[2003],[],[],[2055],[1052],[],[],[],[],[],"[3145, 1028]",[1001],[],[1052],[],[],[2031],"[3057, 3113, 1026]",[],[],[],[],[],[3916],[],[]
participant_4_UNDO,[],[],[],[],[],[],[],[],[],[],[],[],[],[],[],[],[],[],[],[],[],[],[],[],[],[],[],[],[]
participant_5_GOLD,500,500,567,836,1408,1671,1940,2377,2604,2880,3746,4251,4930,5823,6378,7272,7677,8471,9254,9396,9661,10036,10283,11097,11407,11614,11751,12292,12467
participant_5_CURRENTGOLD,500,0,67,336,908,471,740,1177,154,430,1296,1801,2480,3373,645,689,694,1488,2271,263,528,303,251,1064,1374,382,519,1059,1234
participant_5_LEVEL,1,1,1,3,4,5,6,7,7,8,9,9,10,11,11,11,12,12,13,13,13,13,13,14,14,14,14,15,15
participant_5_MINIONSKILLED,0,0,0,8,14,15,23,32,38,47,61,70,82,91,95,104,117,131,140,140,143,148,148,149,150,150,151,153,156
participant_5_KILLS,0,0,0,0,0,1,1,2,2,2,4,5,6,7,7,7,7,7,8,8,10,10,10,12,12,13,13,15,16
participant_5_BUY,[],"[1039, 2031, 3340]",[],[],[],[3133],[],[],[],"[1400, 1036]","[3134, 1036]",[],[],[],[],"[3147, 1036, 3009]",[],[],"[3134, 1036, 3123]",[],[],[],[3179],[],[3134],[3142],[],[],[]
participant_5_SOLD,[],[],[],[],[],[],[],[],[],"[3133, 1039]",[1036],[],[],"[3340, 3513]",[],"[3134, 1036]",[],[],[1036],[],[],[2031],[3134],[],[2031],[3134],[],[],[]
participant_5_UNDO,[],[],[],[],[],[],[],[],[],[],[],[],[],[],[],"[[0, 1036]]",[],[],[],[],[],[],"[[2031, 0]]",[],[],[],[],[],[]
participant_6_GOLD,500,500,655,954,1408,1886,2258,2823,3188,3388,4245,4853,5411,5984,6629,7092,7839,8176,8568,8889,9967,10139,10623,11799,12337,12733,12857,13965,14452
participant_6_CURRENTGOLD,500,0,155,454,908,286,658,1223,1588,263,20,628,1186,1759,2404,517,1264,1601,93,414,1492,1725,848,2025,1522,119,242,1351,1717
participant_6_LEVEL,1,1,2,2,3,4,4,5,6,6,7,7,8,9,9,10,11,11,11,12,12,12,13,14,15,15,15,16,16
participant_6_MINIONSKILLED,0,0,0,0,0,0,0,4,4,4,5,5,5,5,10,10,10,10,10,10,10,10,10,10,10,10,10,12,12
participant_6_KILLS,0,0,0,0,1,1,1,1,1,1,2,2,2,2,3,4,4,4,5,5,5,5,5,5,5,5,5,6,6
participant_6_BUY,[],"[1054, 2003, 3340]",[],[],[],"[1001, 1028]",[],[],"[3044, 1028]",[],[],[],[],[],"[3078, 3047]",[3044],[1028],[],[],"[3071, 1018]",[],[3086],[1042],[],[],"[3046, 1029]",[],[],[]
participant_6_SOLD,[],[],[],[],[],[],[2003],[],[1028],[],[],[],[],[],"[3044, 1001]",[1028],[],[],[],"[3044, 1028]",[3340],"[3513, 1018]",[],[],[],"[1042, 3086]",[],[],[]
participant_6_UNDO,[],[],[],[],[],[],[],[],[],[],[],[],[],[],[],[],[],[],[],[],[],[],[],[],[],[],[],[],[]
participant_7_GOLD,500,500,561,802,1273,1467,1739,1925,2068,2576,2950,3259,3431,4128,4798,5468,6376,7106,7293,7415,7655,8532,9500,9973,10195,10473,10597,10944,11784
participant_7_CURRENTGOLD,500,0,61,302,473,232,404,590,138,196,570,879,601,213,883,1553,2461,3191,113,235,475,1352,320,793,15,294,417,764,1584
participant_7_LEVEL,1,1,1,2,3,4,5,5,6,6,7,7,7,8,9,10,11,11,11,11,12,12,13,14,14,14,14,14,15
participant_7_MINIONSKILLED,0,0,1,7,10,11,17,21,22,24,30,38,41,51,57,67,70,75,76,76,79,85,86,86,86,87,87,90,92
participant_7_KILLS,0,0,0,0,0,0,0,0,0,0,0,0,0,0,0,0,0,0,0,0,0,0,0,0,0,0,0,0,0
participant_7_BUY,[],"[3850, 2003, 2003, 3340]",[],[],[],[],"[1001, 2055, 1029, 2003, 2003]",[],[],"[2055, 1052, 2003, 3364]",[],[],"[2055, 2420, 3191]",[2055],[],[],"[2055, 3157]",[1027],[],"[2055, 1052]",[],[2055],[3802],[],"[2055, 1026]",[],[],[3117],[]
participant_7_SOLD,[],[],[],[2003],[2003],[],[],[2055],"[2003, 2003]","[3340, 2055]",[3850],[2003],"[1029, 1052, 2055]",[2420],[2055],[],"[3191, 2421]",[],[2055],[2055],[],[3851],"[1052, 1027]",[2055],[],[],[],[1001],[]
participant_7_UNDO,[],[],[],[],[],[],[],[],[],[],[],[],[],[],[],[],[],[],[],[],[],[],[],[],[],[],[],[],[]
participant_8_GOLD,500,500,941,1161,1477,1865,2009,2383,2679,2944,3467,3721,3843,4775,5118,5801,6376,7194,7620,7743,8273,9388,10092,10763,11087,11210,11333,11455,11567
participant_8_CURRENTGOLD,500,0,441,661,977,1365,109,483,429,694,1217,1471,793,1725,393,651,1226,2044,2470,893,1423,2539,3242,3913,37,160,283,406,517
participant_8_LEVEL,1,1,1,2,3,4,4,5,5,6,6,7,7,7,7,8,9,9,10,10,10,11,12,13,13,13,13,13,13
participant_8_MINIONSKILLED,0,0,0,6,15,24,25,40,47,52,61,65,65,65,65,66,72,78,80,80,89,94,95,98,100,100,100,100,100
participant_8_KILLS,0,0,1,1,1,1,1,1,1,1,1,1,1,3,3,4,5,6,6,6,6,8,9,9,9,9,9,9,9
participant_8_BUY,[],"[1055, 2003, 3340]",[],[],[],[],"[1038, 2003, 2003]",[],"[1001, 2003]",[],[],[],[3006],[],"[1037, 1018]",[3031],[],[],[],"[3086, 1042]",[],[],[],[],"[3085, 3153]",[],[],[],[]
participant_8_SOLD,[],[],[],[2003],[],[],[],[],[2003],[],[],[],[1001],[],[],"[1038, 1037, 1018]",[],[],[],[],[],[],[],[],"[1042, 3086]",[],[],[],[]
participant_8_UNDO,[],[],[],[],[],[],[],[],[],[],[],[],[],[],[],[],[],[],[],[],[],[],[],[],[],[],[],[],[]
participant_9_GOLD,500,515,609,773,936,1240,1410,1649,1888,2022,2696,2896,3057,3367,3817,4204,4375,4618,5018,5159,5327,5616,5956,6743,7153,7309,7575,7976,8172
participant_9_CURRENTGOLD,500,15,109,273,436,740,135,374,613,187,861,1061,132,367,818,1204,150,43,443,74,242,456,281,1068,554,709,976,676,872
participant_9_LEVEL,1,1,1,2,3,3,4,4,5,5,6,6,6,6,7,8,8,8,8,8,9,10,10,11,11,11,12,12,13
participant_9_MINIONSKILLED,0,0,0,0,1,2,3,5,5,5,7,7,9,9,18,29,32,35,35,35,37,43,43,50,55,56,59,64,64
participant_9_KILLS,0,0,0,0,1,1,1,1,1,2,2,2,2,2,3,3,5,6,6,6,6,7,9,9,9,9,9,9,10
participant_9_BUY,[],"[1056, 2003, 2003, 3340]",[],[],[1001],[1052],"[2003, 2003]",[],[3145],"[1028, 2003]",[],[],"[3067, 2003]","[3152, 1052]",[],[],[],[],"[3157, 3020]",[],[],[],"[3101, 3108]",[],[3115],[],[],[],[]
participant_9_SOLD,[],[],[],"[2003, 2003]",[],[],[2003],[],"[2003, 1052]",[],[],[2003],[1028],"[3145, 3067]",[],[],[2003],[],"[1052, 1001]",[],[],[],[],[],"[3101, 3108]",[],[],[],[]
participant_9_UNDO,[],[],[],[],[],[],[],[],[],[],[],[],[],[],[],[],[],[],[],[],[],[],[],[],[],[],[],[],[]
team0_KILLS,0,0,0,0,1,1,1,2,4,5,5,7,8,11,12,13,13,14,18,19,19,22,23,23,26,28,30,30,33
team0_CURRENTGOLD,2500,0,247,1399,2416,2040,3216,2140,4142,2290,2383,2781,2499,2438,4056,3457,1672,1839,4656,4467,1859,4376,979,2097,2999,4874,4062,2171,2589
team0_TOTALGOLD,2500,2500,2747,3899,5366,6675,7851,9090,11092,12690,13583,15566,17059,19323,22176,24127,25372,26874,30391,32042,33089,35681,37424,38542,41589,44688,47677,49574,51274
team0_LEVEL,5,5,5,11,14,18,22,25,27,29,30,33,35,36,40,42,45,45,49,51,52,55,58,58,62,64,69,70,71
team0_SBIRES,0,0,8,22,35,60,81,93,112,126,132,146,160,170,202,214,237,250,266,279,291,311,328,341,376,409,450,489,491
team1_KILLS,0,0,1,1,3,4,4,5,5,6,9,10,11,14,16,18,21,23,25,25,27,30,33,35,35,36,36,39,41
team1_CURRENTGOLD,2500,15,833,2026,3702,3094,2046,3847,2922,1770,3964,5840,5192,7437,5143,4614,5795,8367,5390,1879,4160,6375,4942,8863,3502,1664,2437,4256,5924
team1_TOTALGOLD,2500,2515,3333,4526,6502,8129,9356,11157,12427,13810,17104,18980,20672,24077,26740,29837,32643,35565,37753,38602,40883,43711,46454,50375,52179,53339,54113,56632,58442
team1_LEVEL,5,5,6,11,16,20,23,26,29,31,35,36,38,41,43,47,51,51,53,54,56,58,61,66,67,67,68,70,72
team1_SBIRES,0,0,1,21,40,52,68,102,116,132,164,185,202,221,245,276,301,329,341,341,358,380,382,393,401,403,407,419,424
delta_KILLS,0,0,-1,-1,-2,-3,-3,-3,-1,-1,-4,-3,-3,-3,-4,-5,-8,-9,-7,-6,-8,-8,-10,-12,-9,-8,-6,-9,-8
delta_CURRENTGOLD,0,-15,-586,-627,-1286,-1054,1170,-1707,1220,520,-1581,-3059,-2693,-4999,-1087,-1157,-4123,-6528,-734,2588,-2301,-1999,-3963,-6766,-503,3210,1625,-2085,-3335
delta_TOTALGOLD,0,-15,-586,-627,-1136,-1454,-1505,-2067,-1335,-1120,-3521,-3414,-3613,-4754,-4564,-5710,-7271,-8691,-7362,-6560,-7794,-8030,-9030,-11833,-10590,-8651,-6436,-7058,-7168
delta_LEVEL,0,0,-1,0,-2,-2,-1,-1,-2,-2,-5,-3,-3,-5,-3,-5,-6,-6,-4,-3,-4,-3,-3,-8,-5,-3,1,0,-1
delta_SBIRES,0,0,7,1,-5,8,13,-9,-4,-6,-32,-39,-42,-51,-43,-62,-64,-79,-75,-62,-67,-69,-54,-52,-25,6,43,70,67
