name,team0,team1
win,Fail,Win
firstBlood,False,True
firstTower,False,True
firstInhibitor,False,True
firstBaron,False,True
firstDragon,True,False
firstRiftHerald,True,False
towerKills,3,11
inhibitorKills,0,3
baronKills,0,1
dragonKills,3,1
riftHeraldKills,1,0
