name,frame_0,frame_1,frame_2,frame_3,frame_4,frame_5,frame_6,frame_7,frame_8,frame_9,frame_10,frame_11,frame_12,frame_13,frame_14,frame_15,frame_16,frame_17,frame_18,frame_19,frame_20,frame_21,frame_22,frame_23,frame_24,frame_25,frame_26,frame_27,frame_28,frame_29,frame_30,frame_31,frame_32,frame_33,frame_34,frame_35,frame_36
nameStamp,Tstart,Tearly,Tearly,Tearly,Tearly,Tearly,Tearly,Tearly,Tearly,Tearly,Tearly,Tearly,Tearly,Tearly,Tearly,Tearly,Tmid,Tmid,Tmid,Tmid,Tmid,Tmid,Tmid,Tmid,Tmid,Tmid,Tmid,Tmid,Tmid,Tmid,Tmid,Tmid,Tmid,Tmid,Tend,Tend,Tend
timestamp,0,60023,120041,180047,240060,300080,360094,420113,480127,540131,600138,660146,720155,780173,840201,900211,960241,1020258,1080271,1140273,1200305,1260331,1320340,1380365,1440374,1500393,1560396,1620413,1680444,1740447,1800476,1860509,1920540,1980598,2040600,2100611,2160611
participant_0_GOLD,500,500,563,1326,1743,2224,2430,2829,3056,3366,3523,4449,4754,5030,5603,5746,6172,7094,7300,8015,9066,9472,10006,10128,10531,11764,12405,12851,13642,14262,14578,14700,15063,15697,16329,16711,16741
participant_0_CURRENTGOLD,500,0,63,826,93,124,330,729,331,341,98,224,529,805,1378,221,647,1569,1775,315,1366,1772,2306,278,682,94,735,1182,1972,2592,989,411,473,1108,1040,1422,1091
participant_0_LEVEL,1,1,1,3,4,4,5,6,6,7,7,8,8,9,9,9,10,11,11,12,13,13,13,13,14,14,15,15,16,16,16,16,17,17,18,18,18
participant_0_MINIONSKILLED,0,0,2,13,13,21,25,38,44,51,53,54,60,68,80,81,88,97,102,113,128,133,134,134,140,140,154,160,172,181,181,181,185,185,185,193,193
participant_0_KILLS,0,0,0,1,1,2,2,2,3,3,3,3,3,3,3,3,3,3,3,3,3,3,3,3,3,3,3,3,4,4,4,4,4,4,4,4,4
participant_0_BUY,[],"[3303, 2003, 2003, 3340]",[],[],[],"[3098, 1028, 2003, 1028]","[2031, 2055]",[],[],"[1026, 3010, 1026, 1027]",[],[3010],[3027],[],[],[1029],[],[3047],[],[],"[1028, 3092]",[],[],"[1027, 1029]",[3024],[1027],[],[1033],[],[],[3025],[],"[3211, 3364, 3363, 3364]",[],[1028],[],[]
participant_0_SOLD,[],[],[],[],"[2003, 2003]",[3303],[],[],[],[1028],[],"[1028, 1027]","[3010, 1026]",[],[2055],[],[],"[1029, 2422]",[],[],"[3098, 1028]",[],[],[],"[1027, 1029]",[],[],[1027],[],[],[3024],[],"[2031, 1033, 3340, 3364, 3363]",[],[],[],[]
participant_0_UNDO,[],[],[],[],[],"[[0, 2003], [0, 1028]]",[],[],[],"[[0, 1026], [0, 3010]]",[],[],[],[],[],[],[],[],[],[],[],[],[],[],[],[],[],[],[],[],[],[],[],[],[],[],[]
participant_1_GOLD,500,500,633,1115,1527,1779,2176,2689,3186,3890,4013,4433,4598,4880,5115,5337,5890,6683,6825,7155,7327,8117,8415,8537,8785,9248,9585,9799,10174,10654,10936,11280,11403,12062,12574,12717,12748
participant_1_CURRENTGOLD,500,0,133,615,1027,1279,1676,139,636,1340,63,483,648,480,714,237,790,1583,825,354,527,1317,1615,387,35,498,835,1050,1424,1904,271,615,289,197,710,853,23
participant_1_LEVEL,1,1,2,3,4,4,5,5,6,7,7,8,8,8,9,9,10,11,11,11,11,12,12,12,12,13,13,13,14,14,14,15,15,16,16,16,16
participant_1_MINIONSKILLED,0,0,0,0,0,0,0,0,0,4,4,4,7,7,7,7,11,18,18,18,18,20,24,24,24,24,24,27,27,34,34,35,35,35,35,36,36
participant_1_KILLS,0,0,0,1,2,3,3,3,3,3,3,5,5,5,5,5,5,6,6,7,8,8,9,9,9,12,12,12,13,13,13,13,13,13,14,14,14
participant_1_BUY,[],"[1055, 2003, 3340]",[],[],"[1036, 1036, 1055]","[1036, 2003, 2003]",[],[],[3077],[1001],[1028],"[3044, 1029]",[],[],[],"[3047, 3067]",[],[],[],"[3071, 3748]",[],[],[],"[3071, 3052]",[],[3053],[],[],[],[],"[1038, 1031]",[3026],[1029],[],[3076],[],[]
participant_1_SOLD,[],[],[],[2003],[],[],[],[2003],"[2003, 1036, 1036]",[],[],"[1028, 1036]",[],[],[],"[1001, 1029]",[],[],[],"[3044, 3067, 3077]",[],[],[],"[3044, 3067]",[],"[1055, 3052]",[],[],[],[],[1055],"[1038, 1031]",[],[],[1029],[],[]
participant_1_UNDO,[],[],[],[],[],[],[],[],[],[],[],[],[],[],[],[],[],[],[],"[[0, 3071]]",[],[],[],[],[],[],[],[],[],[],[],[],[],[],[],[],[]
participant_2_GOLD,500,500,598,881,1246,1473,1809,2430,2595,2971,3108,3377,3520,4166,4365,4705,5627,5799,6097,7464,7661,7847,8359,8846,9142,9264,9610,10025,10993,11686,11809,12379,12621,13043,13724,13847,14877
participant_2_CURRENTGOLD,500,0,98,381,746,173,509,1130,175,551,288,557,100,746,70,410,207,379,677,2044,616,327,839,726,1022,445,290,705,1674,2367,589,360,601,1024,1705,1827,2677
participant_2_LEVEL,1,1,1,3,4,5,6,6,6,7,7,8,8,8,9,9,10,10,10,11,11,11,11,12,12,12,12,13,13,13,13,14,14,14,15,15,16
participant_2_MINIONSKILLED,0,0,4,14,26,32,42,42,45,57,58,67,68,80,84,93,93,93,103,110,112,113,114,126,132,132,141,147,148,159,159,165,168,168,175,175,175
participant_2_KILLS,0,0,0,0,0,0,0,1,1,1,1,1,1,1,1,1,2,2,2,3,3,3,4,4,4,4,4,4,6,6,6,7,7,7,8,8,9
participant_2_BUY,[],"[1055, 2003, 3340]",[],[],[],[1018],[],[],"[1037, 1038]",[],"[1001, 2003, 2003]",[],[3009],[],[1037],[],"[3031, 1036, 1036]",[],[],[],"[3035, 1037]","[3036, 3036]",[],[2015],[],"[1051, 1042]",[3086],[],[],[],"[3094, 3133, 1036]",[1018],[],[],[],[],[]
participant_2_SOLD,[],[],[],[],[],[2003],[],[],[1055],[],[],[2003],"[2003, 1001]",[],[],[],"[1038, 1037, 1018]",[],[],[],"[1036, 1036]","[3035, 1037, 3035, 1037]",[],[],[],[],"[1051, 1042]",[],[],[],"[3086, 2015]",[],[],[],[],[],[]
participant_2_UNDO,[],[],[],[],[],[],[],[],"[[0, 1037]]",[],[],[],[],[],[],[],[],[],[],[],[],"[[0, 3036]]",[],[],[],[],[],[],[],[],"[[0, 1036]]",[],[],[],[],[],[]
participant_3_GOLD,500,500,577,954,1277,1413,1788,2321,2757,2922,3114,3510,3952,4165,4470,4697,5124,5296,5613,5825,6157,6762,7080,7411,7708,7861,9207,9574,10105,10756,11136,11399,11731,12178,12741,12974,13005
participant_3_CURRENTGOLD,500,0,77,454,777,38,413,946,1382,172,314,710,52,265,570,497,924,296,313,25,357,962,1280,336,633,786,2132,49,580,1231,1062,1324,356,804,1366,300,330
participant_3_LEVEL,1,1,1,2,3,3,4,5,6,6,6,7,7,8,8,8,9,9,9,9,10,10,11,11,11,12,13,13,14,14,14,15,15,15,16,16,16
participant_3_MINIONSKILLED,0,0,3,9,18,19,31,36,41,44,48,60,60,66,73,79,89,89,97,98,98,111,118,126,132,133,145,152,158,166,177,186,194,194,194,196,196
participant_3_KILLS,0,0,0,0,0,0,0,1,1,2,2,2,2,2,2,2,2,2,2,2,2,3,3,3,3,3,3,3,3,3,3,3,3,3,4,4,4
participant_3_BUY,[],"[1039, 2031, 3340]",[],[],[],[],[],"[3706, 1001, 1036, 3133]",[],[],"[1400, 3067, 2055]",[],[],[1033],[],"[3111, 1036]",[],[],[3044],[1031],[],[],[],"[3071, 1028]",[1011],[],[],[],[],[],"[3742, 3067, 2055]",[],[1033],[3211],[],[],[3065]
participant_3_SOLD,[],[],[],[],[],[],[],"[1039, 1036]",[],[],"[3133, 3706]",[],[],[2055],[],"[1001, 1033]",[],[],[1036],[],[],[],[],"[3044, 3067]",[1028],[],[],[],[],[],"[1031, 1011, 2031]",[2055],[],[1033],[],[],"[3211, 3067]"
participant_3_UNDO,[],[],[],[],[],[],[],[],[],[],[],[],[],[],[],[],[],[],[],[],[],[],[],[],[],[],[],[],[],[],[],[],[],[],[],[],[]
participant_4_GOLD,500,500,534,1035,1211,1677,1823,2335,2872,3094,3321,3522,3894,4028,4273,4429,4688,4872,5162,5388,5616,5942,6268,6403,6697,6897,7194,7410,8139,8752,9023,9414,9550,10072,10569,10725,10759
participant_4_CURRENTGOLD,500,0,34,535,711,327,248,760,1297,319,546,397,119,253,498,354,613,297,587,813,91,417,743,227,272,122,419,430,1158,1772,243,634,80,602,699,856,584
participant_4_LEVEL,1,1,1,2,3,3,4,5,6,6,6,6,7,7,7,7,8,8,8,9,9,10,10,11,11,11,11,12,12,13,13,13,13,14,15,15,15
participant_4_MINIONSKILLED,0,0,0,1,2,2,3,4,4,4,7,7,7,7,7,7,8,8,9,15,15,22,22,22,25,25,26,26,29,31,36,39,39,39,39,39,39
participant_4_KILLS,0,0,0,0,0,0,0,1,1,1,1,1,2,2,2,2,2,2,2,2,2,2,2,2,2,2,3,3,3,3,3,3,3,3,4,4,4
participant_4_BUY,[],"[1055, 2003, 3340]",[],[],[],[1037],[],[],[],"[1038, 2055]",[2003],[],[3006],[],[],[1042],[],[1018],[2015],"[3031, 2055]",[],[],[],"[3086, 3363, 2055]",[],[],[],"[3094, 1038, 1036]",[],[],[1053],[],[3072],[],[],[1038],[]
participant_4_SOLD,[],[],[],[2003],[],[],[],[],[],[],[],[2055],[],[],[],[],[2003],[],[1042],"[1038, 1037, 1018]",[],[2055],[],[3340],[],[],[],"[2055, 3086, 2015]",[],[],[1036],[],"[1038, 1053]",[],[],[],[]
participant_4_UNDO,[],[],[],[],[],[],[],[],[],[],[],[],[],[],[],[],[],[],[],[],[],[],[],[],[],[],[],[],[],[],[],[],[],[],[],[],[]
participant_5_GOLD,500,500,542,801,974,1118,1393,1570,2002,2164,2820,3268,3667,4125,4357,4969,5190,5682,5879,6567,7169,7508,7877,8264,8547,9171,9517,9639,9954,10279,10569,11003,11886,12369,12858,13153,13255
participant_5_CURRENTGOLD,500,0,42,-99,74,-132,143,320,752,-136,520,468,517,975,1207,-231,-10,149,346,1054,306,-280,89,476,759,158,504,-224,-258,16,306,-59,823,1307,395,41,622
participant_5_LEVEL,1,1,1,2,2,3,4,5,6,6,7,8,8,9,10,10,11,11,11,12,12,13,13,13,13,14,14,14,14,14,15,15,16,16,16,17,17
participant_5_MINIONSKILLED,0,0,1,3,5,6,14,16,16,17,21,21,26,37,37,44,48,53,53,62,70,80,86,95,98,99,99,99,104,110,118,126,146,146,153,161,162
participant_5_KILLS,0,0,0,0,0,0,0,0,0,0,0,1,1,1,1,1,1,1,1,1,1,2,2,2,3,4,5,5,5,5,5,6,6,6,7,7,7
participant_5_BUY,[],"[3303, 3340, 2003, 2003]",[],[],[],[],[],"[1001, 3098, 2055, 3364]",[],[],[],"[3802, 1004]",[],[],[],[],"[1026, 1052]",[],[],"[3020, 3364, 1028]",[],"[3285, 3092]",[],[1028],[],"[3916, 1026, 3916]",[2420],[1026],[],[],[],[3165],[3108],[],[],[],[]
participant_5_SOLD,[],[],[],[],[2003],[2003],[],"[3303, 3340]",[],[],[],[],[],[],[],[],[1004],[],[],"[1001, 3340, 2055]",[],"[3802, 1026, 3098, 1028]",[],[],[],"[1028, 1052, 1028, 1052]",[],[],[2420],[],[],"[3916, 1026]",[],[],[],[],[]
participant_5_UNDO,[],[],[],[],[],[],[],"[[3364, 0]]",[],[],[],[],[],[],[],[],[],[],[],[],[],[],[],[],[],"[[0, 3916], [0, 1026]]",[],[],[],[],[],[],[],[],[],[],[]
participant_6_GOLD,500,500,621,1029,1837,2329,2638,3230,3352,3761,4948,5070,6014,6137,6683,7056,7598,8215,8757,9125,9318,9541,10097,10415,11090,11699,12241,12638,12860,13281,13986,15594,15998,16552,17178,18387,18418
participant_6_CURRENTGOLD,500,500,121,529,1337,79,388,455,277,686,1873,95,1039,62,608,281,823,190,732,300,494,716,1272,100,775,984,527,923,246,667,71,1680,584,638,1264,2473,2443
participant_6_LEVEL,1,1,2,3,4,5,5,6,6,7,8,8,8,8,9,10,10,10,11,11,11,11,12,12,12,13,14,14,14,14,15,15,16,16,17,18,18
participant_6_MINIONSKILLED,0,0,0,0,7,7,7,7,7,7,16,16,16,16,16,16,16,16,16,16,17,17,20,20,23,23,23,29,29,38,38,44,50,50,62,63,63
participant_6_KILLS,0,0,0,0,0,0,0,0,0,1,1,1,2,2,3,3,3,4,4,4,6,6,6,7,7,7,7,7,7,7,7,7,7,8,8,8,8
participant_6_BUY,[],"[1056, 3340, 2003, 2003]",[],[],[],"[1082, 2031, 2055]",[],[],"[1027, 2055]",[],[],"[3010, 1001]",[],[],[],[],"[3027, 3020]",[],[],[],[],[],[3151],[],[],[],[3916],"[3108, 3191]",[],[],[3157],[1052],[],[],[],[3916],[]
participant_6_SOLD,[],[],[],[2003],[2003],[],[2055],[],[],[],[],[1027],[2055],[],[],[],"[3010, 1001]",[],[],[],[],[],[2031],[],[],[],[],[1056],[],[],"[3191, 3108]",[],[],[],[],[1052],[]
participant_6_UNDO,[],[],[],[],[],[],[],[],[],[],[],[],[],[],[],[],[],[],[],[],[],[],[],[],[],[],"[[0, 3916]]",[],[],[],[],[],[],[],[],[],[]
participant_7_GOLD,500,500,598,846,1141,1801,2116,2588,3031,3415,4144,4454,4984,5282,6019,6408,6680,7513,7922,8094,8858,9326,9448,9872,10115,10885,11007,11658,11822,11986,12624,12871,13169,13676,14009,14131,14161
participant_7_CURRENTGOLD,500,0,98,346,641,1301,566,238,681,1065,1794,304,834,32,769,458,330,1163,1572,169,933,201,323,748,990,1760,58,708,423,587,1224,372,119,627,159,282,311
participant_7_LEVEL,1,1,1,3,4,5,6,6,7,8,9,9,10,10,11,11,11,12,12,12,13,13,13,14,14,15,15,15,15,15,16,16,17,17,17,17,17
participant_7_MINIONSKILLED,0,0,4,11,19,30,39,39,55,67,76,84,89,93,103,112,112,117,130,130,132,139,139,152,156,172,172,189,192,195,207,207,213,218,220,220,220
participant_7_KILLS,0,0,0,0,0,0,0,0,1,1,1,2,2,2,2,3,3,3,3,3,3,3,3,3,3,4,4,4,4,4,4,4,4,5,5,5,5
participant_7_BUY,[],"[1027, 2033, 3340]",[],[1027],[],[1001],[],[],[],"[3057, 1029]",[],[3047],[1036],[],[],"[3044, 3101]",[],[3078],[],[1018],[1038],[1037],[],[],[],[3031],[],[1018],"[3902, 1036]",[],[],[3133],[],[],[3508],"[1042, 2015]",[]
participant_7_SOLD,[],[],[2062],"[2004, 2319]",[],[],[2004],[],[2061],[1027],"[2013, 2419]","[2423, 1001, 1029]",[],[2319],[2004],[1036],[],"[3101, 3057, 3044]",[3340],[2424],[3513],[],"[2013, 2319]",[],[],"[1038, 1037]",[],[],[3902],[],[],[1036],[],[],"[3133, 1018]",[1042],[]
participant_7_UNDO,[],"[[0, 1027]]",[],[],[],[],[],[],[],[],[],[],[],[],[],[],[],[],[],"[[0, 1018]]",[],[],[],[],[],[],[],[],[],[],[],[],[],[],[],[],[]
participant_8_GOLD,500,500,584,825,1004,1210,1406,1643,1849,2342,2698,2821,3510,3961,4461,5106,5334,6004,6370,6792,7630,7853,7975,8793,9084,9773,9895,10130,10348,10470,10920,11192,11582,12202,12514,12636,12667
participant_8_CURRENTGOLD,500,0,84,325,504,135,331,568,349,842,1198,271,960,1411,1911,2556,484,1154,1520,1942,2780,3003,85,903,1194,1883,2005,400,618,741,290,127,518,1138,1449,407,217
participant_8_LEVEL,1,1,1,2,3,4,4,5,5,6,6,6,7,8,8,9,9,10,11,11,12,12,12,12,13,13,13,13,14,14,14,14,15,15,16,16,16
participant_8_MINIONSKILLED,0,0,3,10,13,18,23,27,32,36,45,45,47,54,59,71,77,83,93,102,111,111,111,118,120,126,126,126,127,127,138,138,144,152,153,153,153
participant_8_KILLS,0,0,0,0,0,1,1,2,2,2,3,3,4,4,5,5,5,6,6,6,6,6,6,6,6,6,6,6,6,6,6,6,6,6,6,6,6
participant_8_BUY,[],"[1036, 2003, 2003, 2003]",[],[],[],[],"[1001, 3134]",[3111],[],[],[],[3142],[],[3133],[],"[1036, 1036]","[3133, 3134]",[],[],"[3147, 1037]",[],[3052],[],[],[],[],"[3053, 1036, 1036]",[],[3123],[],[],[3035],[3033],[],[3067],[],[]
participant_8_SOLD,[],[],[],[],"[2003, 2003]",[2003],[1036],[1001],[],[],[],[3134],[],[],[],[],"[1036, 1036, 1036, 1036]",[],[],"[3134, 3133]",[],[],[],[],[],[],"[3052, 1037]",[],[1036],[],[],[1036],"[3035, 3123]",[],[],[],[]
participant_8_UNDO,[],[],[],[],[],[],[],[],[],[],[],[],[],[],[],[],"[[0, 3133]]",[],[],[],[],[],[],[],[],[],[],[],[],[],[],[],[],[],[],[],[]
participant_9_GOLD,500,500,523,734,891,1058,1215,1360,1494,1900,2181,2950,3128,3315,3695,4197,4468,5252,5550,5866,6177,6751,7137,7347,7891,8533,9061,9508,9718,9924,10101,10742,10918,11286,11973,12108,12141
participant_9_CURRENTGOLD,500,0,23,234,391,558,715,35,169,575,856,200,378,565,945,1447,520,1305,1602,749,1059,33,420,229,773,650,578,176,386,591,769,860,136,504,1192,1326,1241
participant_9_LEVEL,1,1,1,2,2,3,4,4,4,5,6,6,6,7,7,8,8,9,9,10,10,10,11,11,11,12,12,13,13,13,13,14,14,15,15,15,15
participant_9_MINIONSKILLED,0,0,0,0,0,0,0,0,0,1,1,4,4,5,6,7,11,24,24,28,29,30,31,31,32,34,40,50,50,53,54,59,61,65,66,66,66
participant_9_KILLS,0,0,0,0,1,2,2,3,3,3,5,5,7,7,8,8,9,10,11,12,12,12,13,13,14,15,16,16,16,16,17,19,19,20,20,23,23
participant_9_BUY,[],[],"[1041, 2031, 3340]",[],[],"[3133, 3706]",[],[1400],[1001],[],[],"[3134, 3117, 3047]",[],[3133],[],[3147],[],[3044],[],[3067],[],[],[],"[3071, 1029, 1029]",[],[3082],[3076],[],[3075],[],[1038],[],[3026],[2138],[],[],[]
participant_9_SOLD,[],[],[],[],[],[1041],[],"[3133, 3706]",[],[],[],"[1001, 1001]",[],[],[],"[3134, 3133]",[],[],[],[],[],[],[],"[3044, 3067, 2031]",[],"[1029, 1029]",[],[],"[3076, 3082]",[],[],[],[1038],[2138],[],[],[]
participant_9_UNDO,[],[],[],[],[],[],[],[],[],[],[],"[[0, 3117]]",[],[],[],[],[],[],[],[],[],[],[],[],[],[],[],[],[],[],[],[],[],[],[],[],[]
team0_KILLS,0,0,0,2,3,5,5,8,9,10,10,12,13,13,13,13,14,15,15,17,18,19,21,21,21,24,25,25,29,29,29,30,30,30,34,34,35
team0_CURRENTGOLD,2500,0,405,2811,3354,1941,3176,3704,3821,2723,1309,2371,1448,2549,3230,1719,3181,4124,4177,3551,2957,4795,6783,1954,2644,1945,4411,3416,6808,9866,3154,3344,1799,3735,5520,5258,4705
team0_TOTALGOLD,2500,2500,2905,5311,7004,8566,10026,12604,14466,16243,17079,19291,20718,22269,23826,24914,27501,29744,30997,33847,35827,38140,40128,41325,42863,45034,48001,49659,53053,56110,57482,59172,60368,63052,65937,66974,68130
team0_LEVEL,5,5,6,13,18,19,24,27,30,33,33,37,38,40,42,42,47,49,49,52,54,56,57,59,60,62,64,66,69,70,70,73,74,76,80,80,81
team0_SBIRES,0,0,9,37,59,74,101,120,134,160,170,192,202,228,251,267,289,305,329,354,371,399,412,432,453,454,490,512,534,571,587,606,621,621,628,639,639
team1_KILLS,0,0,0,0,1,3,3,5,6,7,10,12,16,16,19,20,21,24,25,26,28,29,30,31,33,36,38,38,38,38,39,42,42,45,46,49,49
team1_CURRENTGOLD,2500,500,368,1335,2947,1941,2143,1616,2228,3032,6241,1338,3728,3045,5440,4511,2147,3961,5772,4214,5572,3673,2189,2456,4491,5435,3672,1983,1415,2602,2660,2980,2180,4214,4459,4529,4834
team1_TOTALGOLD,2500,2500,2868,4235,5847,7516,8768,10391,11728,13582,16791,18563,21303,22820,25215,27736,29270,32666,34478,36444,39152,40979,42534,44691,46727,50061,51721,53573,54702,55940,58200,61402,63553,66085,68532,70415,70642
team1_LEVEL,5,5,6,12,15,20,23,26,28,32,36,37,39,42,45,48,49,52,54,56,58,59,61,62,63,67,68,69,70,70,73,74,78,79,81,83,83
team1_SBIRES,0,0,8,24,44,61,83,89,110,128,159,170,182,205,221,250,264,293,316,338,359,377,387,416,429,454,460,493,502,523,555,574,614,631,654,663,664
delta_KILLS,0,0,0,2,2,2,2,3,3,3,0,0,-3,-3,-6,-7,-7,-9,-10,-9,-10,-10,-9,-10,-12,-12,-13,-13,-9,-9,-10,-12,-12,-15,-12,-15,-14
delta_CURRENTGOLD,0,-500,37,1476,407,0,1033,2088,1593,-309,-4932,1033,-2280,-496,-2210,-2792,1034,163,-1595,-663,-2615,1122,4594,-502,-1847,-3490,739,1433,5393,7264,494,364,-381,-479,1061,729,-129
delta_TOTALGOLD,0,0,37,1076,1157,1050,1258,2213,2738,2661,288,728,-585,-551,-1389,-2822,-1769,-2922,-3481,-2597,-3325,-2839,-2406,-3366,-3864,-5027,-3720,-3914,-1649,170,-718,-2230,-3185,-3033,-2595,-3441,-2512
delta_LEVEL,0,0,0,1,3,-1,1,1,2,1,-3,0,-1,-2,-3,-6,-2,-3,-5,-4,-4,-3,-4,-3,-3,-5,-4,-3,-1,0,-3,-1,-4,-3,-1,-3,-2
delta_SBIRES,0,0,1,13,15,13,18,31,24,32,11,22,20,23,30,17,25,12,13,16,12,22,25,16,24,0,30,19,32,48,32,32,7,-10,-26,-24,-25
