name,frame_0,frame_1,frame_2,frame_3,frame_4,frame_5,frame_6,frame_7,frame_8,frame_9,frame_10,frame_11,frame_12,frame_13,frame_14,frame_15,frame_16,frame_17,frame_18,frame_19,frame_20,frame_21,frame_22,frame_23,frame_24,frame_25,frame_26,frame_27,frame_28,frame_29,frame_30
nameStamp,Tstart,Tearly,Tearly,Tearly,Tearly,Tearly,Tearly,Tearly,Tearly,Tearly,Tearly,Tearly,Tearly,Tearly,Tearly,Tearly,Tmid,Tmid,Tmid,Tmid,Tmid,Tmid,Tmid,Tmid,Tmid,Tmid,Tmid,Tmid,Tmid,Tmid,Tend
timestamp,0,60016,120035,180050,240063,300082,360102,420115,480137,540147,600153,660172,720185,780198,840214,900231,960250,1020262,1080273,1140287,1200296,1260303,1320315,1380332,1440361,1500378,1560388,1620404,1680414,1740422,1800422
participant_0_GOLD,500,500,598,927,1510,1681,2014,2405,2652,2852,3046,3412,4001,4306,4562,4853,6428,6725,7317,7829,8239,8377,9116,9429,10471,10767,10980,11547,11898,12400,12600
participant_0_CURRENTGOLD,500,0,98,427,1010,131,464,855,1102,1302,46,412,1001,106,362,653,128,425,217,729,1139,377,1117,229,396,693,485,78,429,580,600
participant_0_LEVEL,1,1,1,3,4,5,6,6,7,7,7,8,9,9,10,10,11,11,12,12,13,13,13,13,14,14,14,14,15,15,15
participant_0_MINIONSKILLED,0,0,4,13,21,24,36,49,54,59,60,70,78,86,94,101,104,110,110,110,120,120,130,136,137,143,144,147,152,164,167
participant_0_KILLS,0,0,0,0,0,0,0,0,0,0,0,0,1,1,1,1,1,1,1,2,2,2,2,2,2,2,2,2,2,2,2
participant_0_BUY,[],"[1055, 2003, 3340]",[],[],[1001],[],"[1029, 1036, 1042]",[],[],[],[6670],[],"[3111, 1036, 1018]",[],[],[],[1037],[],[],"[6671, 1036]",[],[3133],[],[],"[1028, 3067]",[],[],[1036],[],[],[]
participant_0_SOLD,[],[],[],[2003],[],[],[],[],[],[],"[1036, 1042]",[],[1001],[],[],[],[],[],[],"[6670, 1018, 1037]",[],[1036],[],[],[1028],[],[],[],[],[],[]
participant_0_UNDO,[],[],[],[],[],[],"[[0, 1029]]",[],[],[],[],[],"[[0, 1036]]",[],[],[],[],[],[],[],[],[],[],[],[],[],[],[],[],[],[]
participant_1_GOLD,500,500,621,933,1133,1355,1613,2080,2302,2525,2647,3005,3127,3756,4455,4712,5661,5923,6046,6788,7087,7679,7933,8346,8958,9105,9284,9747,9973,10535,10934
participant_1_CURRENTGOLD,500,0,121,433,33,255,513,105,327,550,197,555,677,206,172,429,1378,140,263,205,504,696,950,1363,1975,73,251,24,176,737,141
participant_1_LEVEL,1,1,2,3,3,3,4,4,5,5,5,6,6,7,7,7,8,9,9,9,9,10,10,11,11,12,12,13,13,13,14
participant_1_MINIONSKILLED,0,0,0,0,0,0,0,0,0,0,0,0,0,0,2,2,13,14,14,14,14,14,17,17,17,17,20,21,23,34,34
participant_1_KILLS,0,0,0,0,0,0,0,0,0,0,0,0,0,0,0,0,0,0,0,0,0,0,0,0,0,0,0,0,0,0,0
participant_1_BUY,[],"[3854, 2003, 2003, 3340]",[],[],[],[],[],"[1001, 1033, 1006]",[],[],[3111],[],[],[3067],[3364],"[1033, 1029]",[],[1031],[],[],[],[3211],[],[],[],[],[3065],[],[],[1028],[]
participant_1_SOLD,[],[],[],[],[],"[2003, 2003]",[],[],[],[],"[1001, 1033]",[3854],[],[],[3340],[],[],[1029],[],[],[3855],[1033],[],[],[],[],"[3211, 3067]",[],[],[],[]
participant_1_UNDO,[],[],[],[],[],[],[],[],[],[],[],[],[],[],[],[],[],[],[],[],[],[],[],[],[],[],[],[],[],[],[]
participant_2_GOLD,500,500,563,857,1057,1319,1561,1746,1966,2315,2500,2714,3692,3877,4081,4428,4784,4907,5161,5678,6338,6460,6646,6873,7023,7174,7296,7569,7845,8085,8250
participant_2_CURRENTGOLD,500,0,63,347,247,499,91,276,496,835,370,584,152,337,531,878,359,482,736,278,938,310,496,723,73,224,346,269,545,785,1000
participant_2_LEVEL,1,1,1,3,4,5,5,6,7,7,8,8,9,9,9,10,10,10,10,11,11,11,11,11,12,12,12,13,13,13,13
participant_2_MINIONSKILLED,0,0,2,9,13,18,25,29,36,46,50,56,59,63,64,71,71,71,75,75,85,85,89,95,97,99,99,99,109,112,114
participant_2_KILLS,0,0,0,0,1,1,1,1,1,1,1,1,2,2,2,2,4,4,5,6,6,6,7,7,9,9,9,10,10,10,10
participant_2_BUY,[],"[1055, 2003]",[],[],[],"[1036, 1036, 1042, 2003]",[],[],[],[],"[1038, 2003, 2003, 2003]",[],[],"[6670, 1001, 1042, 1042]",[],[],[6672],[],"[3006, 1042]",[],[],[3086],[],[3046],[1037],[],[1018],"[3031, 1036]",[],[1036],[]
participant_2_SOLD,[],[],[],[],[2003],[],[2003],[],[],[],[],"[2003, 2003, 2003]",[],"[1036, 1042, 1036]",[],[],[6670],[],"[1001, 1042]",[],[],[1042],[],"[1042, 3086]",[],[],[1055],"[1038, 1037, 1018]",[],[],[]
participant_2_UNDO,[],[],[],[],[],[],[],[],[],[],[],[],[],[],[],[],[],[],[],[],[],[],[],[],[],[],[],[],[],[],[]
participant_3_GOLD,500,500,584,825,1433,1604,1853,2208,2511,2867,3017,3392,3821,4113,4488,4965,5309,5508,5672,6090,6422,6545,6709,6935,7133,7443,7587,7779,8381,8539,8676
participant_3_CURRENTGOLD,500,0,84,325,933,1104,1353,1708,111,467,117,492,921,338,713,590,309,508,672,190,522,245,409,635,833,1143,1287,79,681,839,976
participant_3_LEVEL,1,1,1,2,3,4,5,5,6,6,6,7,7,7,8,8,8,9,9,10,10,10,11,11,11,11,12,12,12,13,13
participant_3_MINIONSKILLED,0,0,3,10,17,20,27,31,39,49,51,62,70,70,76,82,89,94,96,96,101,101,103,105,105,112,113,118,133,135,135
participant_3_KILLS,0,0,0,0,0,0,0,1,1,1,1,1,1,2,2,2,3,3,3,4,4,5,5,5,6,6,6,7,7,7,8
participant_3_BUY,[],"[1039, 2031]",[],[],"[1042, 1001]",[],[],"[3051, 2055]",[],[],"[1028, 2055]",[],[],"[3057, 3067]",[3078],[],[],"[1053, 1042, 1042]",[],"[1043, 1033, 3111]",[],[1043],[1043],[],[],"[3153, 1028, 1036]",[],"[3044, 1028]",[2055],[],[1037]
participant_3_SOLD,[],[],[],[],[],[],[],[1042],[1039],"[2055, 3340]",[],[],[2055],"[1028, 3513]","[3057, 3051, 3067]",[],[],[],[],"[1042, 1042, 1001]",[],"[1042, 1042, 2031]","[1042, 1042]",[],[],"[1053, 1043]",[],"[2031, 1028, 1036]",[],[2055],[]
participant_3_UNDO,[],[],[],[],[],[],[],[],[],[],[],[],[],[],[],[],[],[],[],"[[0, 1033], [0, 1043]]",[],"[[2031, 0]]","[[0, 1043]]",[],[],[],[],[],[],[],[]
participant_4_GOLD,500,500,565,720,1065,1199,1404,1587,1742,1970,2118,2365,2665,2806,3056,3509,3913,4053,4293,4484,4764,4914,5069,5223,5439,5600,5754,5895,6077,6238,6367
participant_4_CURRENTGOLD,500,0,65,220,565,699,904,187,342,570,368,615,915,256,506,209,613,253,493,684,964,315,469,623,839,1000,305,445,627,389,517
participant_4_LEVEL,1,1,1,2,3,3,4,4,4,5,5,6,6,7,7,7,8,8,8,8,9,9,9,9,10,10,10,11,11,12,12
participant_4_MINIONSKILLED,0,0,2,3,4,4,8,11,12,14,15,18,18,18,19,22,27,27,29,29,30,31,32,33,33,34,35,35,37,38,38
participant_4_KILLS,0,0,0,0,1,1,1,1,1,1,1,1,1,1,1,1,1,1,1,1,1,1,1,1,1,1,1,1,1,1,1
participant_4_BUY,[],"[2003, 3340, 2003, 1055]",[],[],[],[],[],[],"[6670, 1001, 1042]",[],[3006],[],[],"[1018, 1037]",[],[1018],[6672],[],[],"[1018, 1042]",[],[2015],[],[],[],[],[],[3095],[],[],[]
participant_4_SOLD,[],[],[],[],[],[2003],[],[],[],[],"[1001, 1042]",[],[],[],[],[],"[6670, 1018, 1037]",[],[],[],[],[1042],[],[],[],[],[],"[1018, 2015]",[],[],[]
participant_4_UNDO,[],"[[0, 2003]]",[],[],[],[],[],[],[],[],[],[],[],"[[0, 1018]]",[],[],[],[],[],[],[],[],[],[],[],[],[],[],[],[],[]
participant_5_GOLD,500,500,563,797,1113,1501,1708,1830,2141,2376,2898,3265,3464,3900,4170,4539,4910,5978,6186,6628,6835,7293,7634,8223,9103,9520,10297,10999,11438,11860,12039
participant_5_CURRENTGOLD,500,0,63,297,313,701,908,230,541,776,1298,1665,364,800,1070,1439,710,1778,1986,95,302,760,1101,1690,2570,187,964,66,505,127,306
participant_5_LEVEL,1,1,1,2,4,5,5,5,7,7,8,9,9,9,10,10,11,11,12,12,12,12,13,13,14,14,14,15,15,16,16
participant_5_MINIONSKILLED,0,0,2,8,17,29,34,34,46,53,57,62,67,76,85,90,96,108,108,108,113,113,119,132,142,149,157,158,159,159,159
participant_5_KILLS,0,0,0,0,0,0,0,0,0,0,1,1,1,2,2,2,2,2,2,2,2,2,2,2,2,2,2,2,2,2,3
participant_5_BUY,[],"[3850, 3340, 2003, 2003]",[],[],[],[],[],"[1001, 1052, 2055, 2003, 2003]",[],[],[],[],"[3802, 1026, 2055]",[],[],[],[],[],"[6655, 3020, 1052, 2055, 3364]",[],[],[3145],[],[],[],[],[],[],[4628],[],[]
participant_5_SOLD,[],[],[2003],[],"[2003, 2010]",[2010],[],[2010],[],[2055],"[3850, 2003]",[2003],[1052],[],"[2055, 3851]",[],[],[],"[3802, 1026, 1001, 3340]",[2055],[],[1052],[],[],[],[],[],[],[3145],[],[]
participant_5_UNDO,[],[],[],[],[],[],[],[],[],[],[],[],[],[],[],[],[],[],[],[],[],[],[],[],[],[],[],[],[],[],[]
participant_6_GOLD,500,500,706,1033,1336,1543,1848,2105,2497,2818,3215,3473,3765,3887,4549,5288,5950,6122,6370,6653,6875,7403,7823,8346,8773,9080,9375,9765,9973,10520,10753
participant_6_CURRENTGOLD,500,0,206,533,836,243,548,805,1197,1518,1915,248,540,402,1064,1803,1515,587,835,318,190,718,1138,1661,538,546,840,130,338,885,578
participant_6_LEVEL,1,1,2,3,3,4,4,5,6,6,7,7,8,8,8,9,10,10,10,10,10,11,12,12,13,13,13,14,14,15,15
participant_6_MINIONSKILLED,0,0,0,0,0,0,0,0,0,0,0,0,0,0,0,3,3,3,3,3,3,3,5,5,5,5,6,7,7,7,9
participant_6_KILLS,0,0,0,0,1,1,2,2,2,2,4,5,5,6,7,7,8,9,9,10,11,11,11,12,12,12,13,13,13,13,15
participant_6_BUY,[],"[1056, 3340, 2003, 2003]",[],[],[],[],[],"[3020, 3108]",[],[],"[3802, 1029]",[],[],[],[],[],"[6653, 4632, 1052, 2420, 3191, 1052]",[],[3157],[1052],[],[],"[3057, 3113]",[],[1026],[],[],[3100],[],[],[]
participant_6_SOLD,[],[],[],[2003],[],[2003],[],[],[],[],[],[],[],[],[],[],"[3802, 3108, 1029]",[],"[3191, 2420, 1052]",[],[],[],[1052],[],[1056],[],[],"[3057, 3113, 1026]",[],[],[]
participant_6_UNDO,[],[],[],[],[],[],[],[],[],[],[],[],[],[],[],[],"[[0, 1052], [0, 4632]]",[],[],[],[],[],[],[],[],[],[],[],[],[],[]
participant_7_GOLD,500,500,584,906,1541,1887,2560,2752,3119,3467,4295,4828,4951,5749,6336,6992,7415,7900,8022,8529,8918,9190,9458,9932,10169,10341,10744,10916,11109,11823,12597
participant_7_CURRENTGOLD,500,0,84,396,1031,1367,2030,222,579,917,145,678,801,1599,2186,2842,380,865,472,544,933,1205,358,832,379,552,954,527,719,1433,2097
participant_7_LEVEL,1,1,1,3,4,5,7,7,8,8,9,9,9,10,11,11,11,12,12,12,12,12,12,13,13,13,13,14,14,14,15
participant_7_MINIONSKILLED,0,0,3,12,19,29,42,46,57,67,73,80,80,85,98,103,103,103,103,108,115,115,116,121,121,121,122,122,127,135,138
participant_7_KILLS,0,0,0,0,0,0,0,0,0,0,0,0,0,0,1,2,3,3,3,4,4,5,5,5,5,5,5,6,6,6,6
participant_7_BUY,[],"[1039, 2003, 2003, 2003, 3340]",[],[],[],[3067],[],[],[],[],[],"[6029, 1001, 1036, 2055]",[],[1029],[],[],[6630],[3133],[],[3067],[1036],[],[],[],"[3071, 1031, 1036]","[3047, 1029]",[],[3133],[],[],[1031]
participant_7_SOLD,[],[],[],[],[2003],[],[],[],[],[1039],[],[],[],"[2003, 2003]",[2055],[],"[6029, 1036, 3067]",[],[],[],[],[],[],[],"[3133, 3067, 1036, 1029]","[1001, 1029]",[],[],[],[],[1029]
participant_7_UNDO,[],[],[],[],[],[],[],[],[],[],[],[],[],[],[],[],[],[],[],[],[],[],[],[],"[[0, 1036]]","[[0, 1031]]",[],[],[],[],[]
participant_8_GOLD,500,500,584,846,1329,1696,1966,2158,2315,2678,3104,3398,3766,4484,4914,5485,5733,6005,6644,7409,7783,8317,8655,8841,9821,10112,10813,11581,12053,12490,12913
participant_8_CURRENTGOLD,500,0,84,346,829,1196,1466,1658,140,503,929,173,541,1259,1689,2260,2508,2780,3419,176,550,1084,1422,1608,2588,2879,3580,4348,881,967,1330
participant_8_LEVEL,1,1,1,2,2,4,4,5,5,6,6,7,7,8,8,9,9,10,10,10,11,11,12,12,12,13,13,14,14,15,15
participant_8_MINIONSKILLED,0,0,3,12,13,25,33,37,39,50,58,63,74,77,86,95,102,106,114,114,125,132,137,141,142,149,154,163,163,164,165
participant_8_KILLS,0,0,0,0,0,0,0,0,0,0,0,0,0,0,0,0,0,1,1,1,1,2,2,2,3,3,4,6,6,6,6
participant_8_BUY,[],"[1054, 2003, 3340]",[],[],[1001],[],[],[3006],[],[],[],[],"[3051, 1028]",[],[],[],"[3067, 3057]",[],[],"[3078, 3066, 1031]",[],[],[],[],[],"[3742, 3044, 1028]",[],[3053],[],[3067],[]
participant_8_SOLD,[],[],[],[],[],[],[2003],[1001],[],[],[],[],[],[],[],[],[1028],[],[],"[3057, 3051, 3067]",[],[],[],[],[],"[3066, 1031]",[],"[3044, 1028]",[],[],[]
participant_8_UNDO,[],[],[],[],[],[],[],[],[],[],[],[],[],[],[],[],[],[],[],[],[],[],[],[],[],[],[],[],[],[],[]
participant_9_GOLD,500,500,563,757,1047,1261,1476,1610,1765,2031,2611,3101,3290,4137,4663,5113,5404,5666,5956,6332,6542,6833,7023,7193,7448,7639,7924,8463,8774,9215,9819
participant_9_CURRENTGOLD,500,0,63,257,547,761,976,200,355,621,1201,1691,91,938,1463,1913,2204,2466,196,572,782,458,648,819,1073,1264,1549,2088,449,890,1494
participant_9_LEVEL,1,1,1,2,2,3,4,4,5,5,6,6,7,7,8,9,9,9,10,10,11,11,11,11,11,11,12,13,13,13,14
participant_9_MINIONSKILLED,0,0,0,0,0,0,0,0,1,3,3,3,6,10,10,11,11,13,13,14,14,14,14,14,14,14,15,20,21,21,25
participant_9_KILLS,0,0,0,0,1,1,1,1,1,1,1,1,1,2,2,2,2,2,3,5,5,6,6,6,9,9,10,11,12,12,13
participant_9_BUY,[],"[3070, 2003, 2003, 3340]",[],[],[],[],[],[],"[3133, 1027, 2031, 2055]",[],[],"[3004, 1036, 1001]",[],[],[],[],[],[],[],"[3078, 3158, 2055]",[],[],[],[],[],[],[],[],"[3153, 3123, 3123]",[1036],[]
participant_9_SOLD,[],[],[],[],[],[2003],[2003],[],[],[],[],"[3070, 3133, 1027]",[],[2055],[],[],[],[3004],[],[1001],[],[],[2055],[],[],[],[],[],[2031],[],[]
participant_9_UNDO,[],[],[],[],[],[],[],[],[],[],[],"[[0, 1036]]",[],[],[],[],[],[],[],[],[],[],[],[],[],[],[],[],"[[0, 3123]]",[],[]
team0_KILLS,0,0,0,0,2,2,2,3,3,3,3,3,5,6,6,6,9,9,10,13,13,14,15,15,18,18,18,20,20,20,21
team0_CURRENTGOLD,2500,0,431,1752,2788,2688,3325,3131,2378,3724,1098,2658,3666,1243,2284,2759,2787,1808,2381,2086,4067,1943,3441,3573,4116,3133,2674,895,2458,3330,3234
team0_TOTALGOLD,2500,2500,2931,4262,6198,7158,8445,10026,11173,12529,13328,14888,17306,18858,20642,22467,26095,27116,28489,30869,32850,33975,35473,36806,39024,40089,40901,42537,44174,45797,46827
team0_LEVEL,5,5,6,13,17,20,24,25,29,30,31,35,37,39,41,42,45,47,48,50,52,53,54,55,58,59,60,63,64,66,67
team0_SBIRES,0,0,11,35,55,66,96,120,141,168,176,206,225,237,255,278,304,316,324,324,350,351,371,386,389,405,411,420,454,483,488
team1_KILLS,0,0,0,0,2,2,3,3,3,3,6,7,7,10,12,13,15,17,18,22,23,26,26,27,31,31,34,38,39,39,43
team1_CURRENTGOLD,2500,0,500,1829,3556,4268,5928,3115,2812,4335,5488,4455,2337,4998,7472,10257,7317,8476,6908,1705,2757,4225,4667,6610,7148,5428,7887,7159,2892,4302,5805
team1_TOTALGOLD,2500,2500,3000,4339,6366,7888,9558,10455,11837,13370,16123,18065,19236,22157,24632,27417,29412,31671,33178,35551,36953,39036,40593,42535,45314,46692,49153,51724,53347,55908,58121
team1_LEVEL,5,5,6,12,15,21,24,26,31,32,36,38,40,42,45,48,50,52,54,54,56,57,60,61,63,64,65,70,70,73,75
team1_SBIRES,0,0,8,32,49,83,109,117,143,173,191,208,227,248,279,302,315,333,341,347,370,377,391,413,424,438,454,470,477,486,496
delta_KILLS,0,0,0,0,0,0,-1,0,0,0,-3,-4,-2,-4,-6,-7,-6,-8,-8,-9,-10,-12,-11,-12,-13,-13,-16,-18,-19,-19,-22
delta_CURRENTGOLD,0,0,-69,-77,-768,-1580,-2603,16,-434,-611,-4390,-1797,1329,-3755,-5188,-7498,-4530,-6668,-4527,381,1310,-2282,-1226,-3037,-3032,-2295,-5213,-6264,-434,-972,-2571
delta_TOTALGOLD,0,0,-69,-77,-168,-730,-1113,-429,-664,-841,-2795,-3177,-1930,-3299,-3990,-4950,-3317,-4555,-4689,-4682,-4103,-5061,-5120,-5729,-6290,-6603,-8252,-9187,-9173,-10111,-11294
delta_LEVEL,0,0,0,1,2,-1,0,-1,-2,-2,-5,-3,-3,-3,-4,-6,-5,-5,-6,-4,-4,-4,-6,-6,-5,-5,-5,-7,-6,-7,-8
delta_SBIRES,0,0,3,3,6,-17,-13,3,-2,-5,-15,-2,-2,-11,-24,-24,-11,-17,-17,-23,-20,-26,-20,-27,-35,-33,-43,-50,-23,-3,-8
