name,team0,team1
win,Win,Fail
firstBlood,False,True
firstTower,False,True
firstInhibitor,False,False
firstBaron,False,False
firstDragon,False,True
firstRiftHerald,False,False
towerKills,4,1
inhibitorKills,0,0
baronKills,0,0
dragonKills,3,1
riftHeraldKills,0,0
