name,frame_0,frame_1,frame_2,frame_3,frame_4,frame_5,frame_6,frame_7,frame_8,frame_9,frame_10,frame_11,frame_12,frame_13,frame_14,frame_15,frame_16,frame_17,frame_18,frame_19,frame_20,frame_21,frame_22,frame_23
nameStamp,Tstart,Tearly,Tearly,Tearly,Tearly,Tearly,Tearly,Tearly,Tearly,Tearly,Tearly,Tearly,Tearly,Tmid,Tmid,Tmid,Tmid,Tmid,Tmid,Tmid,Tmid,Tmid,Tmid,Tmid
timestamp,0,60003,120034,180057,240058,300087,360096,420120,480130,540157,600158,660188,720219,780223,840224,900257,960287,1020298,1080329,1140356,1200380,1260412,1320444,1380444
participant_0_GOLD,500,500,563,850,1057,1305,1470,1927,2209,2451,2664,3087,3493,3692,4175,4297,4851,5486,6068,6190,6584,6990,7249,7536
participant_0_CURRENTGOLD,500,0,63,350,557,805,970,1427,389,631,844,517,573,772,1255,197,251,486,568,390,784,490,749,186
participant_0_LEVEL,1,1,1,3,4,5,5,6,7,7,8,9,9,9,10,10,11,11,11,12,12,12,13,13
participant_0_MINIONSKILLED,0,0,2,9,14,19,22,31,38,45,50,59,64,69,78,78,84,90,90,90,94,95,95,97
participant_0_KILLS,0,0,0,0,1,1,2,2,2,2,2,2,3,3,3,3,4,4,5,6,6,6,8,10
participant_0_BUY,[],"[1055, 2003, 3340]",[],[],[],"[1042, 1042, 1042, 2003, 2003]",[],[3006],[],[],[3086],[],[3046],[1018],[],[],[1038],[],[3031],[],[],"[1053, 1036]",[],[]
participant_0_SOLD,[],[],[],[2003],[],[],[2003],[1042],[2003],[],[1042],[],"[1042, 3086]",[],[],[],[],[],"[1038, 1018]",[],[],[],[],[]
participant_0_UNDO,[],[],[],[],[],[],[],[],[],[],[],[],[],[],[],[],[],[],[],[],[],[],[],[]
participant_1_GOLD,500,500,706,963,1311,1716,2165,2627,3625,3872,4080,4500,6041,6354,6586,7020,7426,8274,8987,9400,9958,10969,11176,11607
participant_1_CURRENTGOLD,500,0,206,463,61,466,915,-98,900,1147,-20,400,1941,2254,336,770,1176,2024,2187,2600,3158,4169,977,1557
participant_1_LEVEL,1,1,2,3,4,4,5,5,6,7,7,8,9,9,9,10,10,11,12,12,13,14,14,14
participant_1_MINIONSKILLED,0,0,0,0,0,0,0,0,1,1,1,1,2,3,3,7,17,17,17,19,26,33,33,33
participant_1_KILLS,0,0,0,0,0,0,1,2,4,4,4,4,6,6,6,6,6,8,9,9,9,9,9,10
participant_1_BUY,[],"[1039, 1006, 3364]",[],[],"[1036, 1036]",[],[],"[3077, 1001, 1042, 1036]",[],[],"[3006, 3134, 2055]",[],[],[],"[3147, 1036]",[],[],[],"[3134, 1053]",[],[],[],"[3181, 1038]",[]
participant_1_SOLD,[],[],[],[],[],[],[],"[1036, 1006, 1036]",[],[],"[1001, 1042, 1036]",[3364],[3513],[],[3134],[],[],[],"[1036, 1036]",[2055],[],[],[1053],[]
participant_1_UNDO,[],[],[],[],[],[],[],[],[],[],[],[],[],[],[],[],[],[],"[[0, 3134]]",[],[],[],[],[]
participant_2_GOLD,500,500,577,825,1489,1674,2233,2540,3081,3401,3657,4022,5097,5353,5693,6075,6826,7457,7954,8532,9100,9772,10539,11195
participant_2_CURRENTGOLD,500,0,77,325,989,174,733,240,781,1101,257,622,797,253,593,975,426,1057,254,832,1400,822,1589,2245
participant_2_LEVEL,1,1,1,3,4,5,6,6,7,8,8,9,9,10,10,11,11,11,12,12,13,13,13,14
participant_2_MINIONSKILLED,0,0,3,10,21,25,32,40,52,60,68,79,83,91,97,108,111,114,114,121,135,135,138,140
participant_2_KILLS,0,0,0,0,0,0,0,0,0,0,0,0,0,0,0,0,0,1,2,2,2,3,3,3
participant_2_BUY,[],"[2033, 3340]",[],[],[],[],[],[],"[1057, 1001, 1029]",[],[],"[1028, 1027]",[3010],[],[],[3001],[3047],[1028],[3751],[1029],[],"[1031, 1028]",[3379],"[3068, 3373]"
participant_2_SOLD,[],[],[],[],[],[],[2010],"[2010, 2010]",[],[],[],[],"[1028, 1027]",[],[],"[3010, 1057]","[1001, 1029]",[],[1028],[3340],[3513],"[1029, 2033]",[3001],"[1031, 1028, 3751, 3068]"
participant_2_UNDO,[],[],[],[],[],[],[],[],[],[],[],[],[],[],[],[],[],[],[],[],[],[],[],[]
participant_3_GOLD,500,500,598,1130,1301,1641,1955,2253,2636,2828,3114,3444,4494,4721,5303,5825,6886,7429,7962,8084,8726,9346,9629,9920
participant_3_CURRENTGOLD,500,0,98,630,801,1141,1455,1753,461,653,139,469,1519,71,653,50,1111,354,887,609,1251,971,355,645
participant_3_LEVEL,1,1,1,2,3,4,5,6,6,6,7,7,8,8,9,9,10,10,11,11,12,12,12,12
participant_3_MINIONSKILLED,0,0,4,15,18,27,38,48,54,58,65,74,83,89,98,104,116,120,132,132,134,139,144,146
participant_3_KILLS,0,0,0,0,0,0,0,0,0,0,0,0,1,1,1,2,4,4,4,4,5,6,6,6
participant_3_BUY,[],"[1055, 2003, 3340]",[],[],[],[],[],[],"[1038, 1042, 1001, 2055]",[],[3006],[],[],"[1037, 1018]",[],"[3031, 1036, 1036]",[],[1038],[],[3133],[],[3508],[1053],[]
participant_3_SOLD,[],[],[],[],[2003],[],[],[],[],[2055],[1001],[],[],[],[],"[1038, 1037, 1018]",[],[],[],"[1036, 1036]",[],"[1038, 3133]",[],[]
participant_3_UNDO,[],[],[],[],[],[],[],[],"[[0, 1042]]",[],[],[],[],[],[],[],[],[],[],[],[],[],[],[]
participant_4_GOLD,500,500,523,1117,1312,1491,1793,2007,2142,2369,2563,2698,3548,3703,4123,4263,4958,5209,5519,5905,6588,6935,7597,8063
participant_4_CURRENTGOLD,500,0,23,617,27,206,508,722,57,284,478,103,953,258,678,38,733,134,444,830,1513,375,1037,1503
participant_4_LEVEL,1,1,1,2,2,2,3,4,4,5,5,6,6,7,7,8,9,9,9,10,10,11,11,12
participant_4_MINIONSKILLED,0,0,0,0,0,0,0,2,2,5,5,5,5,5,6,6,7,8,8,12,12,13,16,23
participant_4_KILLS,0,0,0,1,1,1,1,1,1,1,1,1,2,2,3,3,4,4,4,5,6,6,8,8
participant_4_BUY,[],"[3850, 2003, 2003, 3340]",[],[],"[1052, 1001, 2003]",[],[],[],[3020],[],[],"[1052, 2055, 3364]",[],[1026],[],"[3802, 1082]",[],[1026],[],[],[],"[3285, 1052]",[],[]
participant_4_SOLD,[],[],[2003],"[2003, 2010]",[],[2003],[],[],"[2010, 1001]",[],[2010],[3340],[],[3850],[],"[1052, 1052]",[],[2055],[],[],[],"[3802, 1026]",[3851],[]
participant_4_UNDO,[],[],[],[],[],[],[],[],[],[],[],[],[],[],[],[],[],[],[],[],[],[],[],[]
participant_5_GOLD,500,500,598,839,1197,1445,1582,1822,2331,2601,2956,3142,3372,3595,3847,4318,4675,5139,5411,5534,5746,6008,6283,6364
participant_5_CURRENTGOLD,500,0,98,339,697,945,57,247,56,326,681,192,422,645,897,598,455,919,1191,314,126,388,63,-216
participant_5_LEVEL,1,1,1,2,4,5,5,6,7,7,8,8,9,9,9,10,11,11,11,11,12,12,12,12
participant_5_MINIONSKILLED,0,0,4,10,22,27,28,35,46,54,64,68,75,80,80,83,93,109,109,109,110,114,118,118
participant_5_KILLS,0,0,0,0,0,1,1,1,2,2,2,2,2,2,2,2,2,2,2,2,2,2,2,3
participant_5_BUY,[],"[2003, 3850, 2003, 3340]",[],"[2055, 2003, 2003]",[],[],[],[],"[1026, 1001, 2055, 2003]",[],[],[],"[3020, 2055]",[],[],"[1028, 3364, 2055]",[],[1052],[],[],"[3136, 2055]",[],[],[]
participant_5_SOLD,[],[],[],[2010],[],[2003],"[2055, 2010]",[2003],[2003],[],"[2003, 2003]",[2055],[1001],[],[3850],[3340],[2010],[],[2055],[2055],"[1028, 1052]",[],[2055],[]
participant_5_UNDO,[],[],[],[],[],[],[],[],[],[],[],[],[],[],[],[],[],[],[],[],[],[],[],[]
participant_6_GOLD,500,500,636,952,1534,1846,2046,2253,2931,3244,3520,3808,4015,4317,4605,5130,5295,5522,6469,6592,6784,7179,7468,7549
participant_6_CURRENTGOLD,500,0,136,452,1034,46,246,453,1131,1444,1720,433,140,442,730,1255,70,297,1244,117,309,704,993,274
participant_6_LEVEL,1,1,2,3,3,4,4,5,6,6,7,7,7,8,8,9,9,9,10,10,10,11,11,11
participant_6_MINIONSKILLED,0,0,0,0,0,0,0,0,0,0,1,1,1,1,7,9,9,9,10,10,15,27,33,33
participant_6_KILLS,0,0,0,0,0,0,0,0,0,0,0,0,0,0,0,0,0,0,0,0,0,0,0,1
participant_6_BUY,[],"[1055, 2003, 3340]",[],[],[],[],"[2015, 1001, 2031, 2055]",[],[],[3006],[],[],"[1018, 2055]",[],[],[],[1038],[],[],[],"[3095, 1042]",[],[],[2015]
participant_6_SOLD,[],[],[],[2003],[],[],[],[],[],[1001],[2055],[],[],[],[],[2055],[],[],[],[],"[1038, 1018, 2015]",[],[],[1042]
participant_6_UNDO,[],[],[],[],[],[],[],[],[],[],[],[],[],[],[],[],[],[],[],[],[],[],[],[]
participant_7_GOLD,500,500,612,937,1144,1511,1781,1987,2287,2515,2749,3108,3357,3612,3735,4046,4169,4291,4413,4536,4683,4827,4970,5051
participant_7_CURRENTGOLD,500,0,112,437,219,236,506,192,492,720,304,663,412,67,190,501,624,346,468,591,38,182,325,376
participant_7_LEVEL,1,1,1,3,4,5,5,6,6,7,7,8,8,9,9,9,9,9,9,9,9,10,10,10
participant_7_MINIONSKILLED,0,0,5,17,22,33,41,46,48,54,61,71,75,83,83,90,90,90,90,90,91,92,93,93
participant_7_KILLS,0,0,0,0,1,1,1,1,2,2,2,2,2,2,2,2,2,2,3,3,3,3,3,3
participant_7_BUY,[],"[1041, 2031, 3340]",[],[],[],"[3715, 1036, 1001]",[],[],[],[],[],"[1412, 1029]",[3047],[],[],[],"[3057, 1042]",[],[],[3044],[],[],[],[3101]
participant_7_SOLD,[],[],[],[],[],[1041],[],[],[],[],[],"[1036, 3715]","[1001, 1029]",[],[],[],[],[],[],[],[],[],[],[1042]
participant_7_UNDO,[],[],[],[],[],[],[],[],[],[],[],[],[],[],[],[],[],[],[],[],[],[],[],[]
participant_8_GOLD,500,500,584,790,1176,1708,1873,2191,2501,2764,3049,3512,3634,3920,4113,4503,4710,4832,5221,5344,5505,5628,5903,6736
participant_8_CURRENTGOLD,500,0,84,290,676,1208,148,466,776,239,524,987,234,520,713,1103,10,132,521,644,105,228,503,936
participant_8_LEVEL,1,1,1,2,3,4,4,5,5,6,6,7,7,7,7,8,8,8,9,9,9,9,10,10
participant_8_MINIONSKILLED,0,0,3,8,20,32,35,45,53,61,68,75,75,80,84,95,100,100,111,111,116,116,121,121
participant_8_KILLS,0,0,0,0,0,0,0,0,0,0,0,0,0,0,0,0,0,0,0,0,0,0,0,0
participant_8_BUY,[],"[1055, 2003, 3340]",[],[],"[1036, 2055]",[1036],[],[1053],[],[],"[3144, 1042]",[],[3006],"[1042, 1042]",[],[],[],[1043],[],[],[3153],[],[],[]
participant_8_SOLD,[],[],[],[],[],[2055],"[2010, 2003]","[2010, 1036]",[],[],"[1053, 1036]",[],"[1042, 2422]",[],[],[],[],"[1042, 1042]",[],[],"[3144, 1043]",[],[],[]
participant_8_UNDO,[],[],[],[],[],[],[],[],[],[],[],[],[],[],[],[],[],[],[],[],[],[],[],[]
participant_9_GOLD,500,500,523,717,852,1346,1526,1660,2139,2274,2559,2694,2915,3174,3370,3511,3696,3931,4124,4417,4594,4806,4999,6330
participant_9_CURRENTGOLD,500,0,23,42,177,671,851,985,189,324,609,744,90,349,545,211,396,196,389,682,119,331,524,1855
participant_9_LEVEL,1,1,1,2,3,3,4,5,5,5,6,6,7,7,7,8,8,8,8,9,9,9,9,10
participant_9_MINIONSKILLED,0,0,0,0,0,0,0,0,0,0,5,5,7,7,8,8,8,10,14,20,21,24,24,26
participant_9_KILLS,0,0,0,0,0,0,0,0,0,0,0,0,0,0,0,1,1,1,1,1,1,1,1,1
participant_9_BUY,[],"[1054, 2003, 3340]",[],[],[],[],"[3751, 2055, 2003]",[2003],"[1028, 1029]",[],[],"[1031, 2055, 2003, 2003]",[],[],[],"[3068, 1029, 1028]",[3047],[],[],[3076],[1028],[],"[1029, 1029]",[]
participant_9_SOLD,[],[],[],[],[2003],[],[],[2055],"[2003, 2003]",[],[],[1029],[],[],"[2055, 2003]","[2003, 1031, 1028, 3751, 1054, 1054]","[1029, 2422]",[],[],[],[],[],[],[]
participant_9_UNDO,[],[],[],[],[],[],[],[],[],[],[],[],[],[],[],"[[1054, 0], [0, 1028]]",[],[],[],[],[],[],[],[]
team0_KILLS,0,0,0,1,2,2,4,5,7,7,7,7,12,12,13,14,18,21,24,26,28,30,34,37
team0_CURRENTGOLD,2500,0,467,2385,2435,2792,4581,4044,2588,3816,1698,2111,5783,3608,3515,2030,3697,4055,4340,5261,8106,6827,4707,6136
team0_TOTALGOLD,2500,2500,2967,4885,6470,7827,9616,11354,13693,14921,16078,17751,22673,23823,25880,27480,30947,33855,36490,38111,40956,44012,46190,48321
team0_LEVEL,5,5,6,13,17,20,24,27,30,33,35,39,41,43,45,48,51,52,55,57,60,62,63,65
team0_SBIRES,0,0,9,34,53,71,92,121,147,169,189,218,237,257,282,303,335,349,361,374,401,415,426,439
team1_KILLS,0,0,0,0,1,2,2,2,4,4,4,4,4,4,4,5,5,5,6,6,6,6,6,8
team1_CURRENTGOLD,2500,0,453,1560,2803,3106,1808,2343,2644,3053,3838,3019,1298,2023,3075,3668,1555,1890,3813,2348,697,1833,2408,3225
team1_TOTALGOLD,2500,2500,2953,4235,5903,7856,8808,9913,12189,13398,14833,16264,17293,18618,19670,21508,22545,23715,25638,26423,27312,28448,29623,32030
team1_LEVEL,5,5,6,12,17,21,22,27,29,31,34,36,38,40,40,44,45,45,47,48,49,51,52,53
team1_SBIRES,0,0,12,35,64,92,104,126,147,169,199,220,233,251,262,285,300,318,334,340,353,373,389,391
delta_KILLS,0,0,0,1,1,0,2,3,3,3,3,3,8,8,9,9,13,16,18,20,22,24,28,29
delta_CURRENTGOLD,0,0,14,825,-368,-314,2773,1701,-56,763,-2140,-908,4485,1585,440,-1638,2142,2165,527,2913,7409,4994,2299,2911
delta_TOTALGOLD,0,0,14,650,567,-29,808,1441,1504,1523,1245,1487,5380,5205,6210,5972,8402,10140,10852,11688,13644,15564,16567,16291
delta_LEVEL,0,0,0,1,0,-1,2,0,1,2,1,3,3,3,5,4,6,7,8,9,11,11,11,12
delta_SBIRES,0,0,-3,-1,-11,-21,-12,-5,0,0,-10,-2,4,6,20,18,35,31,27,34,48,42,37,48
