name,frame_0,frame_1,frame_2,frame_3,frame_4,frame_5,frame_6,frame_7,frame_8,frame_9,frame_10,frame_11,frame_12,frame_13,frame_14,frame_15,frame_16,frame_17,frame_18,frame_19,frame_20,frame_21,frame_22,frame_23,frame_24,frame_25,frame_26,frame_27,frame_28,frame_29,frame_30,frame_31,frame_32,frame_33,frame_34,frame_35,frame_36,frame_37,frame_38
nameStamp,Tstart,Tearly,Tearly,Tearly,Tearly,Tearly,Tearly,Tearly,Tearly,Tearly,Tearly,Tearly,Tearly,Tearly,Tearly,Tearly,Tmid,Tmid,Tmid,Tmid,Tmid,Tmid,Tmid,Tmid,Tmid,Tmid,Tmid,Tmid,Tmid,Tmid,Tmid,Tmid,Tmid,Tmid,Tmid,Tend,Tend,Tend,Tend
timestamp,0,60001,120024,180049,240080,300106,360124,420124,480151,540180,600195,660224,720240,780270,840293,900318,960335,1020347,1080366,1140373,1200396,1260399,1320415,1380417,1440431,1500448,1560456,1620484,1680496,1740523,1800523,1860535,1920553,1980556,2040587,2100608,2160617,2220629,2280629
participant_0_GOLD,500,500,562,846,1127,1445,1694,2201,2575,2839,3060,3245,3542,3798,4085,4628,4841,5301,5494,6188,6366,6488,7186,7821,7964,8590,8712,8879,9034,9606,9729,10446,10568,10775,12137,12574,12746,12868,13190
participant_0_CURRENTGOLD,500,0,62,346,627,945,1194,401,775,1039,360,545,842,1098,185,728,91,551,309,1003,281,403,1101,120,264,890,1012,280,434,1167,854,1571,828,1036,2397,334,507,629,790
participant_0_LEVEL,1,1,1,3,4,5,6,6,7,8,8,8,9,10,10,11,11,12,12,13,13,13,13,14,14,14,14,14,14,15,15,16,16,16,16,17,17,17,17
participant_0_MINIONSKILLED,0,0,2,11,18,29,36,42,54,61,67,71,81,88,94,102,107,122,123,134,137,137,137,147,148,149,149,151,151,158,158,170,170,170,176,183,183,183,188
participant_0_KILLS,0,0,0,0,0,0,0,0,0,0,0,0,0,0,0,1,1,1,1,3,3,3,6,6,6,7,7,7,9,12,12,12,12,12,13,14,14,15,16
participant_0_BUY,[],"[1056, 2003, 2003, 3340]",[],[],"[1001, 1027]",[2055],[],[],"[3802, 2055]",[],[],[],"[1026, 2003, 2003, 2055]",[],[],[],[6655],[],[],[],"[3020, 3145]",[],[],[4628],[],[],[],"[1026, 1028]",[],[],"[4637, 2055, 1052]",[],[4630],[],[],[],[3135],[],[]
participant_0_SOLD,[],[],[],[],[],[2055],[],[],[1027],[2055],"[2003, 2003]",[],[],[],[2055],[],"[3802, 1026, 2003]",[],[],[],"[2003, 1001]",[],[],[3145],[],[],[],[],[],[],"[1026, 1028, 2055]",[],[1052],[],[],[],[4630],[],[]
participant_0_UNDO,[],[],[],[],[],[],[],[],[],[],[],[],[],[],[],[],[],[],[],[],[],[],[],[],[],[],[],[],[],[],[],[],[],[],[],[],[],[],[]
participant_1_GOLD,500,500,620,948,1426,1639,1936,2193,2415,2773,3335,3623,3745,4177,4400,4522,4835,5196,5368,5730,5866,6166,6553,7071,7378,7553,7675,8097,8394,9018,9366,9589,9847,9969,10527,11035,11207,11704,11976
participant_1_CURRENTGOLD,500,0,120,448,926,-11,286,543,-160,198,760,1048,45,477,200,-78,235,596,318,680,816,1116,1503,581,888,63,185,607,904,228,576,799,1057,80,637,245,-132,364,776
participant_1_LEVEL,1,1,2,3,3,4,4,4,5,5,6,7,7,7,8,8,8,9,9,10,10,10,11,11,12,12,12,12,13,13,13,14,14,14,14,15,15,15,16
participant_1_MINIONSKILLED,0,0,0,0,0,0,0,0,0,0,0,1,1,1,1,1,1,12,12,21,22,26,26,27,27,28,28,28,29,31,31,32,34,34,34,39,39,45,49
participant_1_KILLS,0,0,0,1,1,1,1,2,2,2,2,2,2,2,2,2,2,2,2,2,2,2,2,3,3,3,3,3,3,3,3,3,3,3,3,3,3,3,3
participant_1_BUY,[],"[3850, 2003, 3340, 2003]",[],[],[3067],"[2055, 2003, 2003]",[],[],[4642],[],[],[],[],"[3108, 2055, 3364]",[],[1027],[],[],[],[],"[3802, 6653, 1001, 2055]",[],[],[3117],[],[3145],[],[],[],[],[],[],[4628],[],[],[],[2421],[],[]
participant_1_SOLD,[],[],[],[],[],[],[2003],[2055],[2003],[2003],[3850],[2419],[2003],[3340],[2423],[2424],[],[],[],[3851],"[1027, 4642, 3802, 3108]",[],[],[1001],[2055],[],[],[],[],[],[],[],"[2055, 3145]",[],[],[],[],[],[]
participant_1_UNDO,[],[],[],[],[],[],[],[],[],[],[],[],[],[],[],[],[],[],[],[],[],[],[],[],[],[],[],[],[],[],[],[],[],[],[],[],[],[],[]
participant_2_GOLD,500,500,576,871,1036,1214,1783,1940,2139,2481,2955,3223,3465,3692,4465,4670,4898,5340,5666,5789,6120,6292,7618,7960,8392,8929,9051,9443,9719,10389,10660,11322,11590,11713,12300,12523,13215,13337,14660
participant_2_CURRENTGOLD,500,0,76,361,526,354,923,330,179,511,235,493,375,52,815,1020,1248,140,466,239,570,342,1668,110,542,1079,1202,1594,1869,2540,610,1273,1541,1663,631,853,96,218,1410
participant_2_LEVEL,1,1,1,3,4,4,5,6,6,7,8,8,8,9,9,10,10,10,11,11,11,11,12,12,12,13,13,13,14,14,14,15,15,15,16,16,16,16,17
participant_2_MINIONSKILLED,0,0,3,11,13,17,24,26,31,40,51,56,60,66,74,77,83,83,91,91,99,102,112,112,125,125,125,131,135,140,144,147,151,151,151,151,151,151,152
participant_2_KILLS,0,0,0,0,0,0,1,1,1,1,1,1,1,1,2,2,2,3,3,3,3,3,5,5,5,6,6,6,6,6,6,8,8,8,9,9,10,10,13
participant_2_BUY,[],"[1055, 2003, 3340]",[],[],[],[1036],[],"[1037, 3134]",[1036],[],[3133],[],[1036],[1053],[],[],[],"[6692, 1036]",[],[1036],[],[3134],[],[3142],[],[],[],[],[],[],"[3111, 1031, 3134]",[],[],[],[3814],[],[3035],[],[]
participant_2_SOLD,[],[],[],[],[2003],[],[],[1036],[],[],[1036],[],[],[1036],[],[],[],"[3134, 1053]",[],[],[],"[1036, 1036]",[],[3134],[],[],[],[],[],[],[],[],[],[],"[1055, 3134]",[],[],[],[]
participant_2_UNDO,[],[],[],[],[],[],[],"[[0, 1037]]",[],[],[],[],[],[],[],[],[],[],[],[],[],[],[],[],[],[],[],[],[],[],"[[0, 1031]]",[],[],[],[],[],[],[],[]
participant_3_GOLD,500,500,522,1212,1487,1621,1844,2407,2601,2785,2995,3271,3494,3690,4048,4208,4369,4599,5003,5668,5808,6012,6408,7067,7208,7535,7676,7943,8317,8816,8956,9166,9307,9447,9588,10023,10213,10503,11144
participant_3_CURRENTGOLD,500,0,22,712,187,146,369,932,76,260,470,746,969,190,548,398,559,789,1193,1858,208,412,808,767,908,186,326,593,967,1466,1607,1817,37,178,318,753,293,584,419
participant_3_LEVEL,1,1,1,2,3,3,4,5,5,6,6,7,7,7,8,8,8,8,9,10,10,10,11,11,11,12,12,12,12,13,13,14,14,14,14,14,14,14,15
participant_3_MINIONSKILLED,0,0,0,2,2,2,4,7,7,10,11,13,17,19,25,25,25,26,30,36,36,40,42,42,42,42,42,45,50,54,54,54,54,54,54,62,62,62,63
participant_3_KILLS,0,0,0,0,1,1,1,1,1,1,2,2,2,2,2,2,2,2,2,2,2,2,2,3,3,3,3,4,4,5,5,5,5,5,6,6,6,6,6
participant_3_BUY,[],"[1035, 3340, 2031]",[],[],[],[3051],[],[],[1037],[],[],[],"[6029, 1028, 3067]",[],"[6631, 1001]",[1036],[],[],[3123],[],[],[],[],"[1053, 1042, 1042]",[],"[1043, 3009]",[],[],[],[3153],[],[],[],[3051],[],[1057],[2138],[],[]
participant_3_SOLD,[],[],[],[],[],[],[],[],[],[1035],[],[],"[1037, 1028]",[],"[6029, 3051, 3067]",[],[],[],[1036],[],[],[],[],[2031],[],"[1042, 1042, 1001]",[],[],[],"[1053, 1043]",[],[],[],[],[],[],[2138],[],[]
participant_3_UNDO,[],[],[],[],[],[],[],[],[],[],[],[],[],[],[],[],[],[],[],[],[],[],[],[],[],[],[],[],[],[],[],[],[],[],[],[],[],[],[]
participant_4_GOLD,500,500,520,936,1223,1422,1800,2135,2361,2682,2888,3170,3348,3512,3831,4613,4736,4858,5336,6369,6491,6665,8287,8699,8821,9488,9653,9796,10725,11950,12073,12521,12672,12794,13591,14241,14414,14836,15646
participant_4_CURRENTGOLD,500,0,20,436,73,197,575,910,111,432,638,920,73,237,556,1338,211,333,811,1844,116,290,1912,374,496,1163,1328,221,1150,2376,268,717,52,175,972,1622,544,967,1746
participant_4_LEVEL,1,1,1,2,3,3,4,5,5,6,6,7,7,7,8,9,9,9,9,10,10,10,11,12,12,12,12,12,13,14,14,14,14,14,15,16,16,16,17
participant_4_MINIONSKILLED,0,0,0,7,12,14,26,30,33,42,47,53,56,59,62,70,70,70,76,81,81,83,83,84,84,88,91,92,96,102,102,105,107,107,107,112,112,112,115
participant_4_KILLS,0,0,0,0,0,0,0,1,1,1,1,1,1,1,1,2,2,2,2,3,3,3,3,4,4,5,5,5,5,5,5,6,6,6,8,8,8,8,8
participant_4_BUY,[],"[2055, 2003, 3340, 2003, 1056]",[],[],[],[],[],[3802],[],[],[3108],[],[],[],[6653],[],[1026],[],[1052],[],[1011],[],[],"[4637, 3067]",[],[],[],[3108],[],[],[1052],[],[4629],[],[],[3157],[],[],[]
participant_4_SOLD,[],[],[],[],[],[],[],[],[],"[2003, 2003]",[],[],[],[],"[3802, 3108]",[],[],[],[],[],[],[],[],"[1026, 1011, 1052]",[],[],[],[],[],[1056],[],[],"[3108, 3067, 1052]",[],[],[],[],[],[]
participant_4_UNDO,[],"[[0, 2055]]",[],[],[],[],[],[],[],[],[],[],[],[],[],[],[],[],[],[],[],[],[],[],[],[],[],[],[],[],[],[],[],[],[],[],[],[],[]
participant_5_GOLD,500,500,576,825,1022,1214,1435,1592,1958,2200,2506,2755,3024,3272,3437,3728,3851,4219,5050,5223,5784,5907,6029,6241,6727,7149,7286,7408,7558,7730,8033,8307,8471,9112,9534,9810,10260,10571,10690
participant_5_CURRENTGOLD,500,0,76,325,522,364,585,192,558,800,6,255,524,772,212,503,626,994,1825,273,834,957,379,591,1077,74,211,333,483,655,958,432,246,887,559,835,935,1247,1365
participant_5_LEVEL,1,1,1,3,3,4,5,5,6,6,7,8,8,9,9,9,10,10,11,11,11,11,11,11,12,12,12,12,12,12,12,13,13,13,14,14,15,15,15
participant_5_MINIONSKILLED,0,0,3,10,12,17,23,25,36,43,51,59,67,75,77,84,84,96,101,101,105,105,105,106,110,110,111,111,113,116,123,123,125,125,125,127,133,144,144
participant_5_KILLS,0,0,0,0,0,0,0,0,1,1,1,1,1,3,3,4,4,4,5,5,5,5,5,6,6,6,6,6,6,6,6,6,6,7,7,8,9,9,9
participant_5_BUY,[],"[1036, 2003, 2003, 2003]",[],[],[],[],"[3134, 2031]",[],[],"[1053, 1001]",[1036],[],[],[],"[6692, 3047, 1036]",[],[],"[3133, 3067]",[],[],[],[],"[3071, 1037]",[],"[3077, 1036, 1053]",[],[],[],[],[],[],[3074],[],[],[3044],[],[],[3053],[]
participant_5_SOLD,[],[],[],[2003],[2003],[],"[1036, 2003]",[],[],[],[],[],[],[],"[3134, 1036, 1053, 1001]",[],[],[1036],[],[],[],[],"[3133, 3067]",[],"[1037, 1036]",[],[],[],[],[2031],[],"[3077, 1053]",[],[],[2031],[],[],[3044],[2031]
participant_5_UNDO,[],[],[],[],[],[],[],[],[],[],[],[],[],[],[],[],[],[],[],[],[],[],[],[],[],[],[],[],[],"[[2031, 0]]",[],[],[],[],"[[2031, 0]]",[],[],[],[]
participant_6_GOLD,500,500,620,933,1553,1782,2095,2352,2572,2795,3027,3260,3957,4348,4571,4743,5750,6212,6569,6847,7124,7407,7529,7835,8296,8703,9000,9249,9371,9493,9902,10815,11858,12402,12999,13762,14232,14382,14500
participant_6_CURRENTGOLD,500,0,120,433,1053,1282,1595,327,547,770,227,460,1157,1548,1771,393,1400,1862,2219,197,474,757,54,360,821,178,476,249,371,494,902,1816,158,627,1225,1538,2007,958,1075
participant_6_LEVEL,1,1,2,3,3,4,5,5,5,6,6,6,7,8,8,8,9,10,10,10,11,11,11,11,12,12,12,13,13,13,13,14,14,15,15,16,16,16,16
participant_6_MINIONSKILLED,0,0,0,0,0,1,1,1,1,1,2,2,2,3,3,3,3,7,7,7,7,7,7,8,15,15,16,16,16,16,29,29,29,29,29,30,32,34,34
participant_6_KILLS,0,0,0,0,0,0,0,0,0,0,0,0,0,0,0,0,0,0,1,1,2,2,2,2,3,4,4,4,4,4,4,4,4,5,5,5,5,5,5
participant_6_BUY,[],"[1055, 2003, 3340]",[],[],[],[1036],[],[1053],[],[],[3134],[],[],[],"[1036, 1001, 2055]",[],[],[],[],"[6692, 1037]",[],[],"[1036, 1036]",[],[],"[3134, 3142]",[],[],[],[],[],[3111],[1036],[],[3134],[],[1036],[],[]
participant_6_SOLD,[],[],[],[],[2003],[],[],[1036],[],[],[],[],[],[],[],[2055],[],[],[],"[3134, 1036, 1053]",[],[],[],[],[],"[1036, 1036, 3134, 1037]",[],[],[],[],[],[1001],[],[],[1036],[],[],[],[]
participant_6_UNDO,[],[],[],[],[],[],[],[],[],[],[],[],[],[],[],[],[],[],[],[],[],[],[],[],[],[],[],[],[],[],[],[],[],[],[],[],[],[],[]
participant_7_GOLD,500,500,604,899,1197,1480,1624,1858,2704,2990,3168,3471,3879,4942,5215,6271,6648,6904,7544,8319,8673,8796,8918,10016,10138,10260,10425,10547,10669,10792,11204,11572,11827,12589,13012,13545,14581,14809,14927
participant_7_CURRENTGOLD,500,0,104,389,687,960,224,458,1294,370,198,491,899,1962,225,1281,1658,364,1004,1779,2134,2256,103,1201,98,221,385,507,630,752,1165,333,587,1350,673,1206,2242,470,507
participant_7_LEVEL,1,1,1,3,4,5,5,6,7,8,8,9,9,10,10,11,12,12,13,13,13,13,13,14,14,14,14,14,14,14,14,15,15,15,16,16,17,17,17
participant_7_MINIONSKILLED,0,0,5,12,23,29,30,37,48,55,58,65,73,82,86,96,107,112,121,124,129,129,129,134,134,134,137,137,137,137,137,144,148,150,150,151,157,157,157
participant_7_KILLS,0,0,0,0,0,0,0,0,0,0,0,0,0,0,0,0,0,1,1,1,1,1,1,1,1,1,1,1,1,1,1,1,1,1,1,1,1,1,1
participant_7_BUY,[],"[3850, 3340, 2003, 2003]",[],[],[],[],[],"[1052, 1004, 2003, 2003]",[],[],[],[],"[4642, 1028]",[],[],"[3067, 2003, 2003, 2055]",[],[],"[6617, 1001, 2003, 2003]",[2055],[],[],"[3158, 2055, 3364]",[],[1004],[3114],[],[],[],[],[],[],[1026],[],"[6616, 2003, 2003]",[],[],[],[3114]
participant_7_SOLD,[],[],[],"[2003, 2003]",[],[],[],[],[],[],"[2003, 2003]",[],"[1004, 1052]",[],[],[1028],[2055],[],"[3067, 4642]","[2003, 2003]",[],[2055],"[3850, 1001, 3340]",[],[],[1004],[],[],[],[],[],"[2003, 2003]",[],[],"[3114, 1026]",[2003],[],[2003],[]
participant_7_UNDO,[],[],[],[],[],[],[],[],[],[],[],[],[],[],[],[],[],[],[],[],[],[],[],[],[],[],[],[],[],[],[],[],[],[],[],[],[],[],[]
participant_8_GOLD,500,500,583,790,934,1322,1445,1693,2010,2196,2486,2761,2946,3557,3785,4547,4792,5039,5716,6057,6292,6568,6690,7154,7327,8164,8420,8681,9151,9427,9705,10014,10305,10890,11731,11853,12696,12818,12936
participant_8_CURRENTGOLD,500,0,83,290,434,822,945,1193,1510,46,336,611,46,657,85,147,392,189,866,707,242,518,215,679,102,939,1195,131,601,607,535,845,285,871,961,159,1021,1144,1061
participant_8_LEVEL,1,1,1,2,2,3,4,4,5,5,6,6,7,7,8,9,9,9,10,10,11,11,11,12,12,12,13,13,13,13,14,14,14,15,16,16,16,16,16
participant_8_MINIONSKILLED,0,0,3,8,9,21,21,28,37,41,51,56,60,71,77,85,88,88,96,99,102,107,107,109,109,110,117,121,132,137,140,143,154,160,163,163,167,167,167
participant_8_KILLS,0,0,0,0,0,0,0,0,0,0,0,0,0,1,1,2,2,2,2,2,2,2,2,3,3,4,4,4,4,4,4,4,4,4,5,5,7,7,7
participant_8_BUY,[],"[1055, 2003]",[],[],[],[],[],[],[],"[6670, 1037, 1018, 2055, 2003, 2003]",[],[],"[1036, 1042, 2003, 2003]",[],"[6670, 2003, 2003, 2003]","[6672, 2055, 3363]",[],"[1042, 2003, 2003, 2003]",[],[3006],[3057],[],"[1036, 2003, 2003, 2055]",[],[3133],[],[],"[3508, 2003, 2055, 2003, 2003]",[],[1033],[1036],[],"[3155, 1036]",[],[3133],"[3156, 2055, 2003, 2003, 2003]",[],[],[]
participant_8_SOLD,[],[],[],"[2010, 2003]",[],[],[],"[2010, 2010]",[],[],"[2003, 2003]",[2055],[],"[2003, 2003]","[1036, 1042]","[2003, 6670, 1018, 1037, 3340]",[2003],[2003],"[2003, 2003, 2055]","[2003, 1042, 2422]",[],[],[],[],[1036],[2055],[],"[3133, 3057]",[2003],"[1055, 2003, 2003]",[],[],"[1036, 1033]",[],"[1036, 2055]","[3155, 3133]",[2003],"[2003, 2003, 2055]",[]
participant_8_UNDO,[],[],[],[],[],[],[],[],[],"[[0, 6670]]",[],[],[],[],[],[],[],[],[],[],[],[],"[[0, 2003], [0, 2003]]",[],[],[],[],[],[],[],[],[],[],[],[],[],[],[],[]
participant_9_GOLD,500,500,522,677,840,974,1129,1317,1451,1616,1877,2012,2146,2464,2620,2804,3133,3863,4047,4232,4366,4501,4699,5070,5300,5536,5676,5827,5967,6127,6289,6480,6621,6917,7358,7643,7904,8180,8315
participant_9_CURRENTGOLD,500,0,22,177,340,474,629,32,166,331,592,727,96,414,570,179,508,1238,172,282,416,551,74,445,425,111,251,402,542,702,864,1055,346,642,333,618,879,1155,490
participant_9_LEVEL,1,1,1,2,3,4,4,5,5,6,7,7,7,8,8,8,9,9,10,10,10,10,10,11,11,11,11,11,11,11,12,12,12,13,13,14,14,14,14
participant_9_MINIONSKILLED,0,0,0,0,2,2,2,3,3,4,7,7,7,8,9,9,11,12,12,12,12,12,12,13,13,13,13,14,14,14,15,15,15,15,15,15,15,19,19
participant_9_KILLS,0,0,0,0,1,1,1,1,1,1,1,1,2,2,2,2,4,4,4,4,4,4,4,4,4,4,4,4,4,4,4,6,7,8,8,9,9,9,9
participant_9_BUY,[],"[1039, 2003, 2003, 2003, 3340]",[],[],[],[],[],"[3134, 1001, 2055, 2003]",[],[],"[1036, 1036, 2003, 2055]",[],[],[],[],"[6692, 2055, 2055]",[],[],[],"[3111, 3067, 1036, 1036]",[],[],"[3133, 1036, 2055]",[],[],[3071],[],"[2055, 1028]",[],[],[],[],"[3044, 1028, 3053]",[2055],[],"[1029, 1033]",[],"[3105, 2055, 2055]",[]
participant_9_SOLD,[],[],[2003],[2003],[2003],[],[],[],"[2055, 2003]",[],"[1039, 2055]",[],[],[],[3340],"[3134, 1036, 1036]",[2055],[3513],[],[1001],[2055],[],"[1036, 1036]",[],[],"[3133, 3067, 1036]",[],[],[],[],[],[],"[1028, 2055, 3044, 1028]",[2055],[],[2055],[],[1033],[]
participant_9_UNDO,[],[],[],[],[],[],[],[],[],[],"[[0, 2003]]",[],[],[],[],[],[],[],[],[],[],[],[],[],[],[],[],[],[],[],[],[],[],[],[],"[[0, 1029]]",[],[],[]
team0_KILLS,0,0,0,1,2,2,3,5,5,5,6,6,6,6,7,9,9,10,10,13,13,13,18,21,21,24,24,25,27,31,31,34,34,34,39,40,41,42,46
team0_CURRENTGOLD,2500,0,300,2303,2339,1631,3347,3116,981,2440,2463,3752,2304,2054,2304,3406,2344,2409,3097,5624,1991,2563,6992,1952,3098,3381,4053,3295,5324,7777,3915,6177,3515,3132,4955,3807,1308,2762,5141
team0_TOTALGOLD,2500,2500,2800,4813,6299,7341,9057,10876,12091,13560,15233,16532,17594,18869,20829,22641,23679,25294,26867,29744,30651,31623,36052,38618,39763,42095,42767,44158,46189,49779,50784,53044,53984,54698,58143,60396,61795,63248,66616
team0_LEVEL,5,5,6,13,17,19,23,26,28,32,34,37,38,40,43,46,46,48,50,54,54,54,58,60,61,63,63,63,66,69,69,73,73,73,75,78,78,78,82
team0_SBIRES,0,0,5,31,45,62,90,105,125,153,176,194,215,233,256,275,286,313,332,363,375,388,400,412,426,432,435,447,461,485,489,508,516,516,522,547,547,553,567
team1_KILLS,0,0,0,0,1,1,1,1,2,2,2,2,3,6,6,8,10,11,13,13,14,14,14,16,17,19,19,19,19,19,19,21,22,25,26,28,31,31,31
team1_CURRENTGOLD,2500,0,405,1614,3036,3902,3978,2202,4075,2317,1359,2544,2722,5353,2863,2503,4584,4647,6086,3238,4100,5039,825,3276,2523,1523,2518,1622,2627,3210,4424,4481,1622,4377,3751,4356,7084,4974,4498
team1_TOTALGOLD,2500,2500,2905,4124,5546,6772,7728,8812,10695,11797,13064,14259,15952,18583,19628,22093,24174,26237,28926,30678,32239,33179,33865,36316,37788,39812,40807,41712,42716,43569,45133,47188,49082,51910,54634,56613,59673,60760,61368
team1_LEVEL,5,5,6,13,15,20,23,25,28,31,34,36,38,42,43,45,49,50,54,54,56,56,56,59,61,61,62,63,63,63,65,68,68,71,74,76,78,78,78
team1_SBIRES,0,0,11,30,46,70,77,94,125,144,169,189,209,239,252,277,293,315,337,343,355,360,360,370,381,382,394,399,412,420,444,454,471,479,482,486,504,521,521
delta_KILLS,0,0,0,1,1,1,2,4,3,3,4,4,3,0,1,1,-1,-1,-3,0,-1,-1,4,5,4,5,5,6,8,12,12,13,12,9,13,12,10,11,15
delta_CURRENTGOLD,0,0,-105,689,-697,-2271,-631,914,-3094,123,1104,1208,-418,-3299,-559,903,-2240,-2238,-2989,2386,-2109,-2476,6167,-1324,575,1858,1535,1673,2697,4567,-509,1696,1893,-1245,1204,-549,-5776,-2212,643
delta_TOTALGOLD,0,0,-105,689,753,569,1329,2064,1396,1763,2169,2273,1642,286,1201,548,-495,-943,-2059,-934,-1588,-1556,2187,2302,1975,2283,1960,2446,3473,6210,5651,5856,4902,2788,3509,3783,2122,2488,5248
delta_LEVEL,0,0,0,0,2,-1,0,1,0,1,0,1,0,-2,0,1,-3,-2,-4,0,-2,-2,2,1,0,2,1,0,3,6,4,5,5,2,1,2,0,0,4
delta_SBIRES,0,0,-6,1,-1,-8,13,11,0,9,7,5,6,-6,4,-2,-7,-2,-5,20,20,28,40,42,45,50,41,48,49,65,45,54,45,37,40,61,43,32,46
