name,team0,team1
win,Win,Fail
firstBlood,False,True
firstTower,False,True
firstInhibitor,True,False
firstBaron,False,True
firstDragon,False,True
firstRiftHerald,False,False
towerKills,10,10
inhibitorKills,2,2
baronKills,0,1
dragonKills,1,4
riftHeraldKills,0,0
