name,team0,team1
win,Win,Fail
firstBlood,False,True
firstTower,False,True
firstInhibitor,True,False
firstBaron,False,False
firstDragon,False,True
firstRiftHerald,True,False
towerKills,7,2
inhibitorKills,1,0
baronKills,0,0
dragonKills,2,1
riftHeraldKills,1,0
