name,frame_0,frame_1,frame_2,frame_3,frame_4,frame_5,frame_6,frame_7,frame_8,frame_9,frame_10,frame_11,frame_12,frame_13,frame_14,frame_15,frame_16,frame_17,frame_18,frame_19,frame_20,frame_21,frame_22,frame_23,frame_24,frame_25,frame_26,frame_27,frame_28,frame_29,frame_30,frame_31,frame_32
nameStamp,Tstart,Tearly,Tearly,Tearly,Tearly,Tearly,Tearly,Tearly,Tearly,Tearly,Tearly,Tearly,Tearly,Tearly,Tearly,Tmid,Tmid,Tmid,Tmid,Tmid,Tmid,Tmid,Tmid,Tmid,Tmid,Tmid,Tmid,Tmid,Tmid,Tmid,Tmid,Tend,Tend
timestamp,0,60004,120036,180061,240077,300091,360096,420104,480114,540148,600166,660190,720192,780221,840254,900279,960284,1020287,1080319,1140323,1200325,1260332,1320361,1380374,1440374,1500380,1560396,1620420,1680424,1740438,1800459,1860462,1920462
participant_0_GOLD,500,500,591,790,1113,1410,1715,2004,2273,2396,3068,3466,3651,4721,5103,5986,6555,7091,7617,8094,8565,8924,9248,10556,11042,11669,12294,13251,13773,14273,14395,14622,14640
participant_0_CURRENTGOLD,500,0,91,290,613,910,265,554,823,121,793,1191,226,396,778,61,630,366,602,1079,50,409,733,2041,57,685,1309,366,889,188,311,188,-35
participant_0_LEVEL,1,1,1,3,4,5,6,6,7,7,8,8,8,9,9,10,11,11,12,13,13,13,14,14,14,15,15,16,16,16,16,17,17
participant_0_MINIONSKILLED,0,0,4,9,18,25,37,44,52,52,60,66,70,71,74,79,87,99,104,116,117,127,135,136,143,143,146,153,157,168,168,175,175
participant_0_KILLS,0,0,0,0,0,0,0,0,1,2,2,4,4,4,5,5,5,5,5,5,6,6,6,7,7,7,7,7,7,7,7,7,7
participant_0_BUY,[],"[1035, 2031, 3340]",[],[],[],[],[1043],[],"[1026, 1001, 1042]",[],[],[3115],[3020],[],[],"[3802, 1052]",[],[3108],[],[1082],[],[],"[6653, 1052]",[],[],[1058],[],[],[1058],[],[3363],[],[]
participant_0_SOLD,[],[],[],[],[],[],[],[],[2031],[1035],[],"[1043, 1026]","[1042, 1001]",[3340],[3513],[],[],[1052],[],[],[],[],"[3802, 3108]",[],[],[],[],[],"[1082, 1052]",[],[3340],[],[]
participant_0_UNDO,[],[],[],[],[],[],[],[],[],[],[],[],[],[],[],[],[],[],[],[],[],[],[],[],[],[],[],[],[],[],[],[],[]
participant_1_GOLD,500,500,621,843,1292,1596,1907,2179,2915,3453,3775,4626,4875,5098,6061,6608,6756,6953,7432,7554,8438,8840,9032,9799,10316,10480,10702,10930,11052,11224,11532,11866,11883
participant_1_CURRENTGOLD,500,0,121,343,792,1096,407,679,25,563,885,586,245,468,1431,243,391,123,602,374,1258,1660,217,985,1501,415,638,865,182,354,662,996,298
participant_1_LEVEL,1,1,2,2,3,4,5,5,6,7,7,8,8,9,9,10,10,10,11,11,12,12,13,13,14,14,14,14,14,14,14,15,15
participant_1_MINIONSKILLED,0,0,0,0,3,6,7,7,9,9,12,14,16,16,21,21,21,21,22,22,25,31,35,40,46,48,48,48,48,48,48,53,53
participant_1_KILLS,0,0,0,0,1,1,2,2,2,3,4,4,4,4,4,4,4,5,5,5,6,7,7,9,9,10,10,10,10,11,11,11,11
participant_1_BUY,[],"[1056, 2003, 2003, 3340]",[],[],[],"[1026, 1001, 2003]",[],[],"[1052, 1028, 2055]",[4635],[],[4633],[],[],[],"[1026, 3057, 3020]",[],"[3057, 1052]",[],[3113],[],[],"[3100, 3191]",[3108],[3363],[3157],[],[1026],[],[],[4630],[],[]
participant_1_SOLD,[],[],[],"[2003, 2003]",[],[],[],[2003],[],"[1028, 1052]",[2055],"[4635, 1026]",[],[],[],[1001],[],[],[],[1052],[],[],"[3057, 3113, 1026]",[],[3340],"[3191, 3108]",[],[],[],[],[1056],[],[]
participant_1_UNDO,[],[],[],[],[],[],[],[],[],[],[],[],[],[],[],"[[0, 3057]]",[],[],[],[],[],[],[],[],[],[],[],[],[],[],[],[],[]
participant_2_GOLD,500,500,577,934,1569,1880,2497,2832,2955,3419,3947,4219,4510,4675,5875,6272,6607,7029,7429,7593,8466,9098,9353,10137,10514,10875,11246,11443,11831,12519,12641,13056,13074
participant_2_CURRENTGOLD,500,0,77,424,1059,160,767,1102,315,314,842,64,345,510,1700,447,782,69,469,218,1091,1723,478,362,740,401,771,118,507,1194,227,642,549
participant_2_LEVEL,1,1,1,3,4,5,6,6,6,6,7,7,8,8,9,9,10,10,10,10,11,12,12,12,13,13,13,14,14,14,14,14,14
participant_2_MINIONSKILLED,0,0,3,14,20,28,38,46,46,49,55,55,62,65,71,80,89,89,99,102,110,115,123,126,126,130,133,133,139,140,140,146,146
participant_2_KILLS,0,0,0,0,0,0,0,0,0,0,1,1,1,1,1,1,1,1,1,1,2,2,2,2,2,2,2,2,2,2,2,2,2
participant_2_BUY,[],"[3850, 3340, 2003, 2003]",[],[],[],[],[],"[1052, 1004]",[],[4642],[],[],[],[3067],[],[],[],"[6617, 1004]",[],[],[],[],[],[],"[3504, 1004]",[],[],[],[3114],[],[1026],[],[]
participant_2_SOLD,[],[],[],[],[],[],[],[],[],"[1004, 1052]",[],[2003],[],[],"[3850, 2003]",[],[],"[3067, 4642]",[],[],[],[],[],[3851],[1004],[],[],[],[1004],[],[],[],[]
participant_2_UNDO,[],[],[],[],[],[],[],[],[],[],[],[],[],[],[],[],[],[],[],[],[],[],[],[],[],[],[],[],[],[],[],[],[]
participant_3_GOLD,500,500,542,881,1211,1396,1680,1844,2175,2414,2939,3305,3539,3936,4431,4736,5085,5242,5684,5870,5992,6246,6447,6764,7125,7372,7642,7904,8367,8595,8717,8860,8878
participant_3_CURRENTGOLD,500,0,42,381,711,896,1180,44,375,189,714,1080,64,461,956,1261,1610,259,701,887,259,513,714,1031,642,889,1159,454,917,1145,67,211,-4438
participant_3_LEVEL,1,1,1,2,3,4,4,4,5,5,6,7,7,7,8,8,9,9,9,9,9,10,10,11,11,11,11,12,12,13,13,13,13
participant_3_MINIONSKILLED,0,0,1,13,23,26,35,37,46,47,58,69,75,81,91,98,107,109,119,123,123,125,128,128,132,135,141,145,157,163,163,164,164
participant_3_KILLS,0,0,0,0,0,0,0,0,0,0,0,0,0,0,0,0,0,0,0,0,0,0,0,0,0,0,0,0,0,0,0,0,0
participant_3_BUY,[],"[3070, 2003, 2003]",[],[],[],[],[],"[3057, 1001, 1042]",[],"[1036, 2055]",[],[],"[3051, 3067]",[],[],[],[],"[3078, 1036, 1036, 2055]",[],[],"[3133, 1027]",[],[],[],[3004],[],[],[6632],[],[],"[1043, 3158, 1042, 1042]",[],[]
participant_3_SOLD,[],[],[],[],[2003],[2003],[],[],[],[],[2055],[],"[1042, 1036]",[],[],[],[],"[3057, 3051, 3067]",[],[],"[1036, 1036]",[2055],[],[],"[3070, 3133, 1027, 3004]",[3078],[],[3078],[],[],[1001],[],[]
participant_3_UNDO,[],[],[],[],[],[],[],[],[],[],[],[],[],[],[],[],[],[],[],[],[],[],[],[],[],"[[3078, 0]]",[],[],[],[],"[[0, 1043]]",[],[]
participant_4_GOLD,500,500,523,677,852,1066,1201,1395,1549,1909,2383,2558,2746,2880,3257,3487,3648,3903,4044,4224,4929,5205,5395,5880,6071,6299,6539,6905,7045,7236,7376,7516,7536
participant_4_CURRENTGOLD,500,0,23,177,352,566,701,210,364,359,833,1008,1196,530,907,1137,1298,453,594,774,1479,1755,1945,2431,321,549,790,1155,745,936,226,367,386
participant_4_LEVEL,1,1,1,2,3,4,4,4,5,5,6,6,7,7,7,8,8,8,8,9,10,10,10,11,11,11,12,12,12,13,13,13,13
participant_4_MINIONSKILLED,0,0,0,0,0,0,0,0,0,0,0,0,1,1,2,2,2,2,2,2,2,2,3,3,3,3,3,3,3,3,3,3,3
participant_4_KILLS,0,0,0,0,0,0,0,0,0,0,0,0,0,1,1,2,3,3,4,4,5,5,5,6,6,7,8,10,10,10,10,10,10
participant_4_BUY,[],"[1055, 2003, 3340]",[],[],[],[],"[1037, 2055]",[],[],"[6029, 1036, 2031]",[],[],"[3044, 1028]","[6630, 1029]",[],"[3047, 3133]",[],[3067],[1036],[],"[3071, 1033]",[],[],[],"[3155, 3133, 3156]",[],[],"[3133, 1031]",[],[6333],[],[1036],[]
participant_4_SOLD,[],[],[],"[2003, 2010]",[],[2010],[],"[2055, 2010]",[],[1037],[],[],[1036],"[6029, 3044, 1028]",[],"[1029, 2422]",[],[],[2031],[],"[3133, 3067, 1036]",[],[],[],"[1033, 1055, 3155, 3133]",[],[],[],[],"[1031, 3133]",[],[],[]
participant_4_UNDO,[],[],[],[],[],[],[],[],[],[],[],[],[],[],[],[],[],[],[],[],[],[],[],[],[],[],[],[],[],[],[],[],[]
participant_5_GOLD,500,500,521,734,1053,1364,1543,1822,2146,2648,2800,2979,3340,3797,4000,4593,4737,4929,5227,5560,5768,6156,6484,6606,6983,7219,7426,7898,8020,8409,9152,9604,9621
participant_5_CURRENTGOLD,500,0,21,234,553,864,118,397,721,1223,75,254,615,1072,225,143,287,179,177,435,343,731,1059,271,648,34,241,713,120,509,817,1269,1086
participant_5_LEVEL,1,1,1,2,4,5,5,6,7,8,8,8,9,9,10,10,10,11,11,11,11,12,12,12,13,13,13,13,13,14,15,15,15
participant_5_MINIONSKILLED,0,0,0,5,16,25,28,34,43,53,54,57,67,77,77,83,84,88,95,100,100,112,117,117,124,125,129,129,129,130,141,144,144
participant_5_KILLS,0,0,0,0,0,0,0,0,0,0,0,1,1,2,2,2,2,4,4,4,4,4,4,4,5,5,6,6,7,7,7,7,7
participant_5_BUY,[],"[1035, 2003, 2003, 3340, 2003]",[],[],[],[],[],[],"[3133, 1028]",[],[],[6029],[],[],[],[6630],[],[],[],[],[3071],[],[],[],[3066],[],"[1031, 1028]",[],[],[3742],"[3044, 1028]",[],[]
participant_5_SOLD,[],[],[],[],"[2003, 2003, 2003]",[],[],[],[],[1035],[],[],[],[],[],"[6029, 1028]",[],[],[],[],[3133],[],[],[],[],[],[],[],[],"[3066, 1028, 1031]",[],[],[]
participant_5_UNDO,[],[],[],[],[],[],[],[],[],[],[],[],[],[],[],[],[],[],[],[],[],[],[],[],[],[],[],[],[],[],[],[],[]
participant_6_GOLD,500,500,621,878,1086,1385,1698,1976,2098,2406,2725,3354,3676,4279,4553,4939,5252,6210,6567,7045,7306,7613,7782,7979,8421,8941,9563,9953,10586,11113,11535,11894,11912
participant_6_CURRENTGOLD,500,0,121,378,586,885,1198,1476,98,406,725,154,476,1079,1343,29,342,1300,1657,2135,196,503,672,869,511,1031,453,844,1476,1103,25,385,412
participant_6_LEVEL,1,1,2,3,3,4,4,5,5,5,6,6,7,8,8,9,9,10,10,11,11,11,11,12,12,12,13,13,14,15,15,15,15
participant_6_MINIONSKILLED,0,0,0,0,0,0,0,1,1,1,1,1,1,4,9,10,10,10,10,10,10,10,11,11,11,12,12,15,15,16,16,19,19
participant_6_KILLS,0,0,0,0,0,0,0,0,1,1,1,1,2,2,2,2,2,4,4,5,6,6,6,7,7,7,7,7,7,10,10,11,11
participant_6_BUY,[],"[1055, 2003, 3340]",[],[],[],"[1001, 1042]",[],[6677],[],"[1018, 1042]",[],[3006],[],"[1042, 1033]",[],[],[],"[3124, 6670]",[1036],[],[],"[6673, 1036, 1057, 1036]",[],[3051],[],[3091],[1053],[],[],[],[],"[3072, 3123]",[]
participant_6_SOLD,[],[],[],[2003],[],[],[],[1042],[],[],[],"[1001, 1042]",[],[],[],[],[],"[6677, 1018, 1042]",[],[],[],"[6670, 1036, 1033]",[],[1036],[],"[3051, 1057]",[],[],[],[],[],"[1053, 1055]",[]
participant_6_UNDO,[],[],[],[],[],[],[],[],[],[],[],[],[],[],[],[],[],[],[],[],[],"[[0, 1036]]",[],[],[],[],[],[],[],[],[],[],[]
participant_7_GOLD,500,500,598,853,1151,1371,1613,1819,2261,2724,3114,3237,3898,4131,4254,4699,5063,6539,6948,8054,9468,9632,9785,10627,11040,11820,11956,12313,12539,14174,14979,15756,15773
participant_7_CURRENTGOLD,500,0,98,353,651,271,513,219,661,224,604,227,878,361,484,929,1293,369,428,1534,2948,563,715,807,1220,900,137,493,719,2355,3160,816,673
participant_7_LEVEL,1,1,1,3,4,5,5,6,6,7,8,8,9,9,9,10,10,11,11,12,13,14,14,14,14,15,15,15,15,15,16,17,17
participant_7_MINIONSKILLED,0,0,4,11,21,27,33,38,38,38,51,51,62,67,67,77,87,93,103,120,131,134,135,135,142,153,154,155,157,158,170,172,172
participant_7_KILLS,0,0,0,0,0,0,0,0,0,0,0,0,0,0,0,0,0,0,0,1,1,1,1,1,1,1,1,1,1,1,1,1,1
participant_7_BUY,[],"[3850, 2003, 2003, 3340]",[],"[2003, 2055]",[],[],[],[],"[1052, 1052, 1027]",[3802],[],[1001],[],[],[1026],[],"[3020, 3364, 2055]",[],[],[],"[6655, 1028]",[],[1052],[3916],[],[],[],[1026],[],[],[3165],[],[]
participant_7_SOLD,[],[],[],[],[],"[2003, 2055, 2003, 2003]",[],[],[],"[1052, 1027, 1052]",[],[],[3850],[],[],[],"[1001, 3340]",[],[2055],[3851],"[3802, 1026]",[],[],[1052],[],[],[],[],[],[],"[1026, 3916, 1028]",[],[]
participant_7_UNDO,[],[],[],[],[],[],[],[],[],[],[],[],[],[],[],[],[],[],[],[],[],[],[],[],[],[],[],[],[],[],[],[],[]
participant_8_GOLD,500,500,598,962,1253,1550,1837,2809,3010,4406,4668,4931,5682,6464,6664,7113,7505,7797,8290,8812,9278,9626,10048,10170,10777,11493,11963,12356,12934,14116,14911,16413,16480
participant_8_CURRENTGOLD,500,0,98,462,753,1050,1337,2309,185,1581,243,506,1257,39,239,688,1080,197,690,1212,654,1001,1423,246,852,1569,2039,2431,110,1292,2087,1689,1755
participant_8_LEVEL,1,1,1,3,4,4,5,6,6,7,7,8,8,9,9,10,10,10,11,11,11,12,12,12,13,13,13,14,14,15,16,16,16
participant_8_MINIONSKILLED,0,0,4,15,25,35,41,54,56,63,71,79,93,99,104,119,130,130,141,157,157,165,172,172,186,196,208,215,229,242,245,257,257
participant_8_KILLS,0,0,0,0,0,0,0,0,0,0,0,0,0,0,0,1,1,1,1,1,1,1,1,1,1,1,1,2,2,2,2,2,2
participant_8_BUY,[],"[3340, 2033]",[],[],[],[],"[1026, 2055]",[],[],[],[4635],[],[],[],[4633],"[1001, 1042, 2055]",[],[3006],[1042],[2055],[1042],[],[],"[1043, 1052, 2055]",[],[1026],[],[],[3115],[],[1052],[],[]
participant_8_SOLD,[],[],[],[2010],[],[2010],[],[],[2010],[],[2055],[],[],[],"[4635, 1026]",[],[2055],"[2033, 1001, 1042]",[],[],[],[],[2055],"[1042, 1042]",[2055],[],[],[],"[1043, 1026, 1052]",[],[],[],[]
participant_8_UNDO,[],[],[],[],[],[],[],[],[],[],[],[],[],[],[],[],[],[],[],[],[],[],[],[],[],[],[],[],[],[],[],[],[]
participant_9_GOLD,500,500,523,657,832,1106,1281,1815,1999,2324,2458,2612,2978,3643,3842,4003,4183,4636,4971,5541,5820,6047,6201,6499,6815,7055,7217,7407,7798,8190,8734,9164,9184
participant_9_CURRENTGOLD,500,0,23,32,207,481,656,1190,154,399,533,387,753,1418,767,928,233,686,1021,1591,220,447,166,100,415,655,817,157,549,940,1034,1464,1484
participant_9_LEVEL,1,1,1,1,1,2,3,4,4,4,5,5,6,7,7,8,8,9,9,9,9,10,10,10,11,11,11,12,12,13,13,14,14
participant_9_MINIONSKILLED,0,0,0,0,0,0,0,0,0,0,0,0,0,0,5,5,5,8,8,8,8,12,13,17,23,23,24,24,34,34,36,37,37
participant_9_KILLS,0,0,0,0,0,0,0,2,2,5,5,5,6,7,7,7,7,7,7,7,8,8,8,8,8,8,8,8,8,10,10,13,13
participant_9_BUY,[],"[1055, 2003, 3340]",[],[],[],[],[],[],"[6670, 1053, 2003, 2055]",[],"[6673, 1001, 2003, 2003]",[],[],"[3006, 3086, 3363]",[],[],[],"[1037, 1042]",[],[],[3085],[],[],[1038],[],[],[],[],"[3031, 3123]",[],[],[3033],[]
participant_9_SOLD,[],[],[],[],[],[2003],[],[],[],[2003],"[6670, 1053]",[2003],[],"[1001, 3340]",[2003],[2055],[],[],[],[],"[1037, 3086, 1042]",[],[],[],[],[],[],[],[1038],[],[],[3123],[]
participant_9_UNDO,[],[],[],[],[],[],[],[],[],[],[],[],[],[],[],[],[],[],[],[],[],[],[],[],[],[],[],[],[],[],[],[],[]
team0_KILLS,0,0,0,0,1,1,2,2,3,5,7,9,9,10,11,12,13,14,15,15,19,20,20,24,24,26,27,29,29,30,30,30,30
team0_CURRENTGOLD,2500,0,354,1615,3527,3628,3320,2589,1902,1546,4067,3929,2076,2365,5772,3149,4711,1270,2968,3332,4137,6060,4087,6850,3261,2939,4667,2958,3240,3817,1493,2404,-3240
team0_TOTALGOLD,2500,2500,2854,4125,6037,7348,9000,10254,11867,13591,16112,18174,19321,21310,24727,27089,28651,30218,32206,33335,36390,38313,39475,43136,45068,46695,48423,50433,52068,53847,54661,55920,56011
team0_LEVEL,5,5,6,12,17,22,25,25,29,30,34,36,38,40,42,45,48,48,50,52,55,57,59,61,63,64,65,68,68,70,70,72,72
team0_SBIRES,0,0,8,36,64,85,117,134,153,157,185,204,224,234,259,280,306,320,346,365,377,400,424,433,450,459,471,482,504,522,522,541,541
team1_KILLS,0,0,0,0,0,0,0,2,3,6,6,7,9,11,11,12,12,16,16,18,20,20,20,21,22,22,23,24,25,30,30,34,34
team1_CURRENTGOLD,2500,0,361,1459,2750,3551,3822,5591,1819,3833,2180,1528,3979,3969,3058,2717,3235,2731,3973,6907,4361,3245,4035,2293,3646,4189,3687,4638,2974,6199,7123,5623,5410
team1_TOTALGOLD,2500,2500,2861,4084,5375,6776,7972,10241,11514,14508,15765,17113,19574,22314,23313,25347,26740,30111,32003,35012,37640,39074,40300,41881,44036,46528,48125,49927,51877,56002,59311,62831,62970
team1_LEVEL,5,5,6,12,16,20,22,27,28,31,34,35,39,42,43,47,47,51,52,54,55,59,59,60,63,64,65,67,68,72,75,77,77
team1_SBIRES,0,0,8,31,62,87,102,127,138,155,177,188,223,247,262,294,316,329,357,395,406,433,448,452,486,509,527,538,564,580,608,629,629
delta_KILLS,0,0,0,0,1,1,2,0,0,-1,1,2,0,-1,0,0,1,-2,-1,-3,-1,0,0,3,2,4,4,5,4,0,0,-4,-4
delta_CURRENTGOLD,0,0,-7,156,777,77,-502,-3002,83,-2287,1887,2401,-1903,-1604,2714,432,1476,-1461,-1005,-3575,-224,2815,52,4557,-385,-1250,980,-1680,266,-2382,-5630,-3219,-8650
delta_TOTALGOLD,0,0,-7,41,662,572,1028,13,353,-917,347,1061,-253,-1004,1414,1742,1911,107,203,-1677,-1250,-761,-825,1255,1032,167,298,506,191,-2155,-4650,-6911,-6959
delta_LEVEL,0,0,0,0,1,2,3,-2,1,-1,0,1,-1,-2,-1,-2,1,-3,-2,-2,0,-2,0,1,0,0,0,1,0,-2,-5,-5,-5
delta_SBIRES,0,0,0,5,2,-2,15,7,15,2,8,16,1,-13,-3,-14,-10,-9,-11,-30,-29,-33,-24,-19,-36,-50,-56,-56,-60,-58,-86,-88,-88
