name,frame_0,frame_1,frame_2,frame_3,frame_4,frame_5,frame_6,frame_7,frame_8,frame_9,frame_10,frame_11,frame_12,frame_13,frame_14,frame_15,frame_16,frame_17,frame_18,frame_19,frame_20,frame_21,frame_22,frame_23,frame_24,frame_25,frame_26
nameStamp,Tstart,Tearly,Tearly,Tearly,Tearly,Tearly,Tearly,Tearly,Tearly,Tearly,Tearly,Tearly,Tearly,Tmid,Tmid,Tmid,Tmid,Tmid,Tmid,Tmid,Tmid,Tmid,Tmid,Tmid,Tmid,Tmid,Tend
timestamp,0,60000,120020,180032,240038,300052,360082,420102,480118,540142,600169,660194,720225,780252,840282,900314,960340,1020346,1080347,1140374,1200389,1260395,1320416,1380427,1440446,1500473,1560473
participant_0_GOLD,500,500,586,862,1179,1434,1826,2303,2551,2765,2936,3269,3778,3999,4143,4428,4698,5221,5668,5944,6459,6727,6849,7199,8362,8534,8675
participant_0_CURRENTGOLD,500,0,86,362,679,934,1326,78,326,190,361,694,1203,24,168,453,123,646,1093,519,1034,502,624,574,1737,409,550
participant_0_LEVEL,1,1,1,2,4,4,6,6,7,7,7,8,9,9,9,9,10,10,11,11,12,12,12,13,13,13,13
participant_0_MINIONSKILLED,0,0,0,9,17,24,34,36,43,49,52,64,73,75,76,85,90,106,116,121,127,132,132,136,137,140,142
participant_0_KILLS,0,0,0,0,0,0,0,0,0,0,0,1,1,1,1,1,1,1,1,3,3,3,3,3,3,3,4
participant_0_BUY,[],"[1054, 2003, 3340]",[],[],[],[],[],"[3134, 1001, 2055, 2003]",[],[1036],[2055],"[1053, 1036]",[],[],[],[],"[6692, 1042, 1036, 3363]",[],"[3006, 1036]","[3134, 2055, 1018]",[],[],[],"[1037, 6676]",[],[],"[1036, 1036, 2055, 3134]"
participant_0_SOLD,[],[],[],[],[],[2003],[],[],[2055],[2003],[],"[2055, 1036]",[],[],[],[],"[3134, 1036, 1053, 3340]",[],"[1001, 1042]","[1036, 1036]",[],[2055],[],"[1054, 3134, 1037, 1018]",[],[],"[1036, 1036]"
participant_0_UNDO,[],[],[],[],[],[],[],[],[],[],[],[],[],[],[],[],[],[],[],[],[],[],[],[],[],[],[]
participant_1_GOLD,500,500,686,1008,1367,1798,2173,2380,2647,2870,3312,4083,4445,4808,5096,5403,5691,5993,7305,7821,8218,8426,8667,9109,9408,9530,9781
participant_1_CURRENTGOLD,500,0,186,508,867,1288,38,245,512,335,777,1548,85,48,336,643,931,8,1320,1836,1193,351,142,109,8,130,331
participant_1_LEVEL,1,1,2,3,3,4,5,5,6,6,7,8,8,9,9,9,10,10,11,12,12,12,13,13,13,13,13
participant_1_MINIONSKILLED,0,0,0,0,0,6,6,6,7,7,7,7,7,8,8,8,8,10,12,16,17,17,18,18,19,19,22
participant_1_KILLS,0,0,0,0,0,0,0,0,0,0,0,1,1,1,1,1,1,1,2,2,2,2,2,3,3,3,3
participant_1_BUY,[],"[1039, 3340, 2031]",[],[],[],[],"[6029, 1036, 2055]",[],[],[1028],[],[],"[6630, 1028, 2055]","[3067, 3364]",[],[],[],"[3047, 1036]",[2055],[],"[3133, 1036]",[3071],[1033],"[1028, 2055]",[3211],[],[]
participant_1_SOLD,[],[],[],[],[],[],[],[],[],[1039],[],[],"[6029, 1028, 1036]","[1028, 3340]",[],[2055],[],"[2055, 2422]",[],[],"[2031, 1036]","[3133, 3067, 1036, 2055]",[],[],"[1028, 1033]",[],[]
participant_1_UNDO,[],[],[],[],[],[],[],[],[],[],[],[],[],[],[],[],[],[],[],[],[],[],[],[],[],[],[]
participant_2_GOLD,500,500,820,984,1164,1363,1622,1779,2033,2177,2390,2728,2892,3154,3577,3783,4103,4260,4459,4746,4931,5409,5580,5777,6192,6704,6838
participant_2_CURRENTGOLD,500,0,320,184,364,263,512,19,263,407,185,513,277,539,497,628,148,305,504,791,976,1454,1625,972,1387,1899,363
participant_2_LEVEL,1,1,1,2,3,4,5,5,6,6,6,7,7,8,8,8,9,9,9,10,10,10,11,11,11,12,12
participant_2_MINIONSKILLED,0,0,0,3,6,10,15,17,22,23,28,37,40,48,48,53,60,62,67,70,74,87,90,90,99,113,114
participant_2_KILLS,0,0,1,1,1,1,1,1,1,1,1,1,1,1,2,2,2,2,2,2,2,2,2,2,2,2,2
participant_2_BUY,[],"[1054, 3340, 2003]",[],[1001],[],[1029],[],"[3191, 2003]",[],[],[1052],[],"[3070, 1028]",[],[4635],[2055],[3020],[],[],[],[],[],[],[1026],[],[],"[4633, 2420]"
participant_2_SOLD,[],[],[],[],[2003],[],[],[1029],[],[2003],[],[],[],[],"[1028, 1052]",[],[1001],[],[],[],[],[],[2055],[],[],[],"[4635, 1026]"
participant_2_UNDO,[],[],[],[],[],[],[],[],[],[],[],[],"[[0, 3070]]",[],[],[],[],[],[],[],[],[],[],[],[],[],[]
participant_3_GOLD,500,500,583,901,1218,1578,1918,2211,2508,2771,2991,3414,3692,4060,4372,4676,5141,5580,5940,6823,7175,7577,7845,8099,8530,8945,10058
participant_3_CURRENTGOLD,500,0,83,401,718,1078,1418,186,483,396,541,64,342,710,1022,1326,291,730,240,48,400,802,1070,204,635,1050,808
participant_3_LEVEL,1,1,1,2,3,3,4,5,5,6,6,7,7,7,8,8,9,9,9,10,10,11,11,11,12,12,13
participant_3_MINIONSKILLED,0,0,3,14,23,34,46,54,64,72,78,78,86,96,107,118,130,141,150,155,164,176,181,185,196,209,212
participant_3_KILLS,0,0,0,0,0,0,0,1,1,1,1,1,1,1,1,1,1,1,1,1,2,2,2,2,3,3,3
participant_3_BUY,[],"[1055, 2003, 3340]",[],[],[],[],[],"[3067, 1036, 1028, 2003, 2003, 2055]",[],[3044],[],[],[],"[6029, 6630]",[],[],"[1001, 1029]",[],[],"[3047, 1036]",[],[3076],[],[1028],[],[3075],[]
participant_3_SOLD,[],[],[2003],[],[],[],[],[],[2003],"[1028, 1036]",[],"[2003, 2055]",[],"[6029, 3044, 3067]",[],[],[],[],[],"[1001, 1029]",[],[],[],[],[],"[3076, 1028]",[]
participant_3_UNDO,[],[],[],[],[],[],[],[],[],[],[],[],[],[],[],[],[],[],[],[],[],[],[],[],[],[],[]
participant_4_GOLD,500,500,543,712,908,1147,1303,1533,1781,1958,2092,2227,2394,2655,2795,2936,3116,3475,3706,3946,4305,4505,4675,4816,5006,5176,5381
participant_4_CURRENTGOLD,500,0,43,212,408,647,803,1033,281,458,117,252,119,380,120,261,441,800,506,671,1030,80,250,391,581,276,481
participant_4_LEVEL,1,1,1,2,3,3,4,5,5,5,6,6,6,6,7,7,7,8,8,9,9,10,10,10,11,11,11
participant_4_MINIONSKILLED,0,0,1,3,4,7,8,10,14,16,16,16,17,20,20,20,21,25,26,26,29,31,32,32,32,33,33
participant_4_KILLS,0,0,0,0,0,0,0,0,0,0,0,0,0,0,0,0,0,0,0,0,0,0,0,0,0,0,0
participant_4_BUY,[],"[3858, 2003, 2003, 3340]",[],[],[],[],[],[],"[3117, 3364]",[],"[1028, 2055]",[],[1029],[],[3067],[],[],[],"[1033, 2055]",[2055],[],"[3105, 3190]",[],[],[],"[1028, 2055]",[]
participant_4_SOLD,[],[],[],[2003],[2403],[],[],[],"[3340, 2403, 2003]",[2403],[],[],[3858],[],[1028],[2055],[],[],"[3859, 2055]",[],[],"[1033, 1029, 3067, 3105]",[2055],[],[],[],[2055]
participant_4_UNDO,[],[],[],[],[],[],[],[],[],[],[],[],[],[],[],[],[],[],[],[],[],[],[],[],[],[],[]
participant_5_GOLD,500,500,625,908,1165,1364,1626,2115,2411,2958,3383,3548,3826,4027,4318,4650,5089,5330,5467,5674,5929,6052,6426,7249,7471,8074,8478
participant_5_CURRENTGOLD,500,0,125,408,115,314,576,165,461,158,583,748,196,97,388,720,1159,1400,302,144,399,522,896,869,191,794,978
participant_5_LEVEL,1,1,1,2,3,4,5,6,6,7,8,8,8,8,9,9,10,10,10,10,11,11,11,12,12,13,13
participant_5_MINIONSKILLED,0,0,0,9,16,21,29,30,37,37,52,54,58,59,66,75,85,92,93,95,103,103,111,111,111,118,121
participant_5_KILLS,0,0,0,0,0,0,0,1,1,2,2,2,2,2,2,2,2,2,2,2,2,2,2,4,4,4,4
participant_5_BUY,[],"[1056, 2003, 2003]",[],[],"[1028, 2031]",[],[],[4635],[],[1026],[],[],[4633],[1001],[],[],[],[],"[3020, 1052]",[3916],[],[],[],[1026],[1011],[],[]
participant_5_SOLD,[],[],[],"[2003, 2003]",[],[],[],[1028],[],[],[],[],"[1056, 2031, 4635, 1026]",[],[],[],[],[],[1001],[1052],[],[],[],[],[],[],[]
participant_5_UNDO,[],[],[],[],[],[],[],[],[],[],[],[],[],[],[],[],[],[],[],[],[],[],[],[],[],[],[]
participant_6_GOLD,500,500,625,882,1183,1495,1642,1870,2185,2638,2860,3383,4486,4739,5205,5517,6001,6149,6546,7015,7278,7571,7980,8467,8784,9497,10015
participant_6_CURRENTGOLD,500,0,125,82,383,695,407,235,550,1003,100,623,76,329,795,267,751,899,246,715,978,1271,1680,2167,309,222,680
participant_6_LEVEL,1,1,1,2,3,3,4,4,5,6,6,7,7,7,8,8,9,9,10,10,10,11,11,12,12,13,14
participant_6_MINIONSKILLED,0,0,0,0,0,0,0,4,4,5,5,8,9,9,11,11,12,12,12,13,15,17,20,20,21,21,25
participant_6_KILLS,0,0,0,0,0,0,0,0,0,1,1,3,3,4,4,4,6,6,6,6,6,6,6,6,8,8,9
participant_6_BUY,[],"[1055, 3340, 2003]",[],[],[],[],[6670],[],[],[],"[1037, 1001, 2055]",[],"[6671, 3009, 2055]",[],[],"[3134, 1037]",[],"[6676, 3363, 1036]",[],[],[1038],[],[3123],[1037],[],[3031],[]
participant_6_SOLD,[],[],[],[],[],[],[2003],[],[],[],[],[],"[6670, 1037, 1001]",[],[],[],[2055],"[3134, 1037, 3340]",[],[],[],[],[1036],[1055],[],"[1038, 1037]",[]
participant_6_UNDO,[],[],[],[],[],[],[],[],[],[],[],[],"[[0, 2055]]",[],[],[],[],[],[],[],[],[],[],[],[],[],[]
participant_7_GOLD,500,500,1220,1507,2106,2417,2955,3726,4085,4769,5198,5688,6712,6981,8154,8665,9845,10305,10851,11037,11674,12212,13458,14449,14809,15479,16588
participant_7_CURRENTGOLD,500,0,720,297,896,127,655,1426,375,1049,253,733,997,391,1564,350,1530,1240,586,772,1410,447,1694,135,494,665,1613
participant_7_LEVEL,1,1,1,2,4,4,5,7,7,8,8,9,10,10,10,11,12,12,13,13,14,14,15,15,15,16,16
participant_7_MINIONSKILLED,0,0,0,7,17,26,38,49,60,72,81,94,104,113,117,125,144,154,163,164,177,186,196,206,216,220,222
participant_7_KILLS,0,0,0,0,0,0,0,0,0,0,0,0,1,1,1,1,1,1,1,1,1,1,1,1,1,1,1
participant_7_BUY,[],"[1039, 3340, 2031]",[],"[1001, 3364]",[],[],[1052],[1028],[],[],"[3145, 1052, 2055]",[],"[3145, 1026, 3020]",[],[],[4636],[],[],"[1011, 2055, 2055]",[],[],[],[],[],"[4637, 1052, 2055]","[2420, 2055, 2055]",[]
participant_7_SOLD,[],[],[],[3340],[],[],[],[],[1039],[],"[3364, 1052]","[2055, 3513]","[1052, 1001]",[],[],"[2031, 3145, 1028, 1026]",[],[3364],[],[],"[2055, 2055, 3513]",[],[],[],"[1011, 1052, 2055]",[],"[2055, 2055, 2420]"
participant_7_UNDO,[],[],[],[],[],[],[],[],[],[],[],[],"[[0, 3145]]",[],[],[],[],[],[],[],[],[],[],[],[],[],[]
participant_8_GOLD,500,500,583,996,1253,1627,1813,2134,2507,3163,3327,4303,5034,5748,6823,7183,8095,8402,8845,9343,9639,9977,10413,10854,11627,12074,12860
participant_8_CURRENTGOLD,500,0,83,496,753,1127,13,334,707,1363,277,1253,159,873,1948,333,1245,177,620,1118,114,452,438,185,957,179,785
participant_8_LEVEL,1,1,1,2,3,4,4,5,6,6,7,7,7,8,9,10,10,10,11,11,11,12,12,13,13,13,14
participant_8_MINIONSKILLED,0,0,3,18,26,38,41,50,61,72,74,79,79,90,97,107,117,122,136,146,152,161,168,173,173,173,179
participant_8_KILLS,0,0,2,2,3,3,3,4,4,5,5,5,5,5,8,8,9,9,10,10,10,10,12,13,13,13,15
participant_8_BUY,[],[2033],[],"[1036, 1036]",[],"[3134, 1036, 1036]",[],[],[6692],[],"[3006, 1036, 2055]",[],[3134],[1037],[],"[6676, 1036, 1036]",[],[3035],[3086],[3363],[],[3094],[],"[6694, 3123]",[],[2140],[]
participant_8_SOLD,[],[],[],[],[],"[1036, 1036, 2010]",[],[],"[3134, 1036, 1036]",[2010],"[2422, 2055]",[],[1036],[],[2010],"[3134, 1037]",[],"[1036, 1036]",[],[3340],[],[3086],[],"[3035, 2033]",[],[2140],[]
participant_8_UNDO,[],[],[],[],[],[],[],[],[],[],[],[],[],[],[],[],[],[],[],[],[],[],[],[],[],[],[]
participant_9_GOLD,500,500,522,751,908,1147,1296,1430,1675,2053,2193,2483,2822,3463,3882,4023,4318,4493,4669,4936,5077,5358,5845,6248,6518,6959,7569
participant_9_CURRENTGOLD,500,0,22,251,408,647,796,120,365,743,83,123,22,663,1082,348,643,818,144,411,152,433,920,1323,644,134,744
participant_9_LEVEL,1,1,1,2,3,3,4,4,5,5,6,6,6,7,8,8,8,8,9,9,9,9,10,11,11,12,13
participant_9_MINIONSKILLED,0,0,0,3,4,7,8,8,11,13,13,13,13,15,17,17,18,20,22,26,26,29,30,31,32,32,33
participant_9_KILLS,0,0,0,0,0,0,0,0,0,0,0,0,0,1,1,1,1,1,1,1,1,1,1,1,1,1,1
participant_9_BUY,[],"[3858, 3340, 2003, 2003]",[],[],[],[],[],"[1001, 1052, 2055, 3364]",[],[],"[3009, 2055, 2055, 2003]",[1004],"[4642, 2055]",[],[],"[3067, 2055]",[],[],[4005],[],"[1004, 2055, 2055]",[],[],[],"[3916, 2055, 2055]","[3114, 2055, 2055, 4642, 2055, 2055]",[]
participant_9_SOLD,[],[],[],[],[],[],[],"[3340, 2055]",[2003],[2003],"[3858, 1001]",[2003],"[2055, 1004, 1052]",[2055],[2055],[2055],[],[],"[3067, 4642]",[],[],"[3859, 2055]",[2055],[],"[2055, 2055]","[1004, 1004]","[2055, 2055]"
participant_9_UNDO,[],[],[],[],[],[],[],[],[],[],[],[],[],[],[],[],[],[],[],[],[],[],[],[],[],"[[0, 2055], [0, 2055], [0, 3114]]",[]
team0_KILLS,0,0,1,1,1,1,1,2,2,2,2,4,4,4,5,5,5,5,6,8,9,9,9,10,11,11,12
team0_CURRENTGOLD,2500,0,718,1667,3036,4210,4097,1561,1865,1786,1981,3071,2026,1701,2143,3311,1934,2489,3663,3865,4633,3189,3711,2250,4348,3764,2533
team0_TOTALGOLD,2500,2500,3218,4467,5836,7320,8842,10206,11520,12541,13721,15721,17201,18676,19983,21226,22749,24529,27078,29280,31088,32644,33616,35000,37498,38889,40733
team0_LEVEL,5,5,6,11,16,18,24,26,29,30,32,36,37,39,41,41,45,46,48,52,53,55,57,58,60,61,62
team0_SBIRES,0,0,4,29,50,81,109,123,150,167,181,202,223,247,259,284,309,344,371,388,411,443,453,461,483,514,523
team1_KILLS,0,0,2,2,3,3,3,5,5,8,8,10,11,13,16,16,19,19,20,20,20,20,22,25,27,27,30
team1_CURRENTGOLD,2500,0,1075,1534,2555,2910,2447,2280,2458,4316,1296,3480,1450,2353,5777,2018,5328,4534,1898,3160,3053,3125,5628,4679,2595,1994,4800
team1_TOTALGOLD,2500,2500,3575,5044,6615,8050,9332,11275,12863,15581,16961,19405,22880,24958,28382,30038,33348,34679,36378,38005,39597,41170,44122,47267,49209,52083,55510
team1_LEVEL,5,5,5,10,16,18,22,26,29,32,35,37,38,40,44,46,49,49,53,53,55,57,59,63,63,67,70
team1_SBIRES,0,0,3,37,63,92,116,141,173,199,225,248,263,286,308,335,376,400,426,444,473,496,525,541,553,564,580
delta_KILLS,0,0,-1,-1,-2,-2,-2,-3,-3,-6,-6,-6,-7,-9,-11,-11,-14,-14,-14,-12,-11,-11,-13,-15,-16,-16,-18
delta_CURRENTGOLD,0,0,-357,133,481,1300,1650,-719,-593,-2530,685,-409,576,-652,-3634,1293,-3394,-2045,1765,705,1580,64,-1917,-2429,1753,1770,-2267
delta_TOTALGOLD,0,0,-357,-577,-779,-730,-490,-1069,-1343,-3040,-3240,-3684,-5679,-6282,-8399,-8812,-10599,-10150,-9300,-8725,-8509,-8526,-10506,-12267,-11711,-13194,-14777
delta_LEVEL,0,0,1,1,0,0,2,0,0,-2,-3,-1,-1,-1,-3,-5,-4,-3,-5,-1,-2,-2,-2,-5,-3,-6,-8
delta_SBIRES,0,0,1,-8,-13,-11,-7,-18,-23,-32,-44,-46,-40,-39,-49,-51,-67,-56,-55,-56,-62,-53,-72,-80,-70,-50,-57
