name,frame_0,frame_1,frame_2,frame_3,frame_4,frame_5,frame_6,frame_7,frame_8,frame_9,frame_10,frame_11,frame_12,frame_13,frame_14,frame_15,frame_16,frame_17,frame_18,frame_19,frame_20,frame_21,frame_22,frame_23,frame_24,frame_25,frame_26,frame_27,frame_28,frame_29,frame_30,frame_31,frame_32
nameStamp,Tstart,Tearly,Tearly,Tearly,Tearly,Tearly,Tearly,Tearly,Tearly,Tearly,Tearly,Tearly,Tearly,Tearly,Tearly,Tearly,Tmid,Tmid,Tmid,Tmid,Tmid,Tmid,Tmid,Tmid,Tmid,Tmid,Tend,Tend,Tend,Tend,Tend,Tend,Tend
timestamp,0,60021,120041,180058,240091,300101,360125,420154,480165,540175,600206,660238,720246,780255,840284,900308,960332,1020346,1080375,1140399,1200411,1260442,1320450,1380464,1440464,1500484,1560487,1620512,1680523,1740546,1800548,1860552,1920560
participant_0_GOLD,500,500,584,762,1057,1347,1812,2084,2861,3734,3975,4308,4627,4749,4992,5514,5983,6105,7060,7463,7885,8301,8773,8895,9418,10865,11372,11816,11952,12226,12654,13982,16014
participant_0_CURRENTGOLD,500,0,84,262,557,847,312,584,1361,734,275,608,927,449,692,114,583,705,1660,2063,385,401,873,120,643,2090,2598,216,353,506,234,1563,3594
participant_0_LEVEL,1,1,1,2,3,4,5,6,7,8,9,9,9,9,10,10,11,11,12,13,13,13,13,13,14,15,15,15,15,15,16,17,17
participant_0_MINIONSKILLED,0,0,3,6,14,21,24,30,39,39,46,54,62,62,66,66,78,78,86,95,95,108,108,108,108,108,115,116,117,117,124,130,136
participant_0_KILLS,0,0,0,0,0,0,0,0,0,0,0,0,0,0,0,0,0,0,0,0,0,1,1,1,1,1,1,3,3,3,3,3,4
participant_0_BUY,[],"[3850, 2003, 2003, 3340]",[],[],[],[],[3067],[],[],[],[],[],[4642],[],[],[6617],[],[1001],[],[],"[3009, 1004]",[],[],[1026],[],[1026],[3504],"[3114, 1028]",[],[],[3067],[],[]
participant_0_SOLD,[],[],[],[],[2003],[2010],[],[2003],[2010],[],[],[3850],[],[],[2010],"[3067, 4642]",[],[],[],[],"[1001, 3851]",[],[],[],[],[],"[1004, 1026]",[],[],[],[1028],[],[]
participant_0_UNDO,[],[],[],[],[],[],[],[],[],[],[],[],[],[],[],[],[],[],[],[],[],[],[],[],[],[],"[[0, 1026]]",[],[],[],[],[],[]
participant_1_GOLD,500,500,706,1013,1241,1462,1621,1828,2140,2713,2970,3578,3805,4027,4225,4617,4924,5046,5904,6076,6324,6446,6589,6712,7998,9696,10205,10327,10513,10936,12108,12670,13409
participant_1_CURRENTGOLD,500,0,206,513,741,562,721,928,1240,1813,470,1078,1305,1527,1725,617,924,346,1204,476,724,846,139,262,1548,3246,3755,127,313,336,1009,1570,510
participant_1_LEVEL,1,1,2,3,3,4,4,4,5,6,6,7,7,7,8,8,9,9,9,9,10,10,10,10,11,12,13,13,13,13,14,15,15
participant_1_MINIONSKILLED,0,0,0,0,0,0,0,0,0,0,0,0,0,0,0,0,0,0,0,0,0,0,1,1,2,2,2,2,5,5,5,9,15
participant_1_KILLS,0,0,0,0,2,2,2,2,2,2,2,2,2,2,2,2,2,2,3,3,4,4,5,5,7,7,7,8,8,8,8,8,8
participant_1_BUY,[],"[1055, 2003]",[],[],[],[],"[1001, 1036, 1042, 1036, 2003]",[],[],[],[],"[6670, 1037]",[],[],[],"[6672, 2003]",[],[1042],[],[],"[3006, 2015]",[1042],[],[3094],[],[2015],[1038],[],[],[],[],[],[]
participant_1_SOLD,[],[],[],[],[],[2003],[],[],[],[],[],"[1036, 1042, 1036]",[],[2003],[],"[6670, 1037]",[],[],[],[],"[1001, 1042]",[],[],"[1042, 2015]",[2003],[1055],[],[],[],[],[],[],[]
participant_1_UNDO,[],[],[],[],[],[],[],[],[],[],[],[],[],[],[],[],[],[],[],[],[],[],[],[],[],[],[],[],[],[],[],[],[]
participant_2_GOLD,500,500,577,832,1043,1333,1589,1711,2091,2277,2497,2950,3164,3686,4300,4985,5150,5314,5827,6096,6498,6809,7284,7452,7835,8307,8608,8833,9074,9197,9389,9840,10291
participant_2_CURRENTGOLD,500,0,77,332,98,378,634,56,426,612,832,425,164,686,1290,1975,290,454,967,86,488,799,1274,307,690,147,448,238,314,437,195,645,631
participant_2_LEVEL,1,1,1,3,3,4,5,5,6,7,7,8,8,9,10,10,10,11,12,12,12,13,13,13,14,14,14,15,15,15,15,16,16
participant_2_MINIONSKILLED,0,0,3,10,13,20,27,27,39,43,49,56,58,64,71,77,79,82,86,90,100,107,113,113,114,114,114,116,119,119,119,121,122
participant_2_KILLS,0,0,0,0,0,0,0,0,0,0,0,0,0,1,2,3,3,3,3,3,3,3,3,3,3,3,3,3,3,3,3,3,3
participant_2_BUY,[],"[1056, 1054, 2003]",[],[],[1052],[],[],"[1028, 1001]",[],[],[],[1026],[4635],[],[],[],"[4633, 3020]",[],[],"[1026, 1042]",[],[],[],"[1043, 1052]",[],"[3115, 1029]",[],[1052],[3191],[],[1052],[],[3108]
participant_2_SOLD,[],[],[],[2003],[],[],[],[],[],[],[],[],"[1028, 1052]",[],[],[],"[4635, 1026, 1001]",[],[],[],[],[],[],[1042],[],"[1043, 1026, 1052]",[],[],"[1052, 1029]",[],[],[],[1052]
participant_2_UNDO,[],"[[0, 1056]]",[],[],[],[],[],[],[],[],[],[],[],[],[],[],[],[],[],[],[],[],[],[],[],[],[],[],[],[],[],[],[]
participant_3_GOLD,500,500,521,839,1721,1892,2064,2371,2514,2888,3208,3331,3718,4084,4393,4592,4757,4956,5608,6122,6664,7041,7814,8041,8929,9576,9811,10317,10760,11196,11528,12287,13103
participant_3_CURRENTGOLD,500,0,21,339,1221,1392,214,521,664,1038,1358,306,693,1059,1368,292,457,356,1008,1522,864,941,1714,241,1129,1256,192,697,1140,1577,1908,2668,3483
participant_3_LEVEL,1,1,1,2,3,3,4,5,5,6,6,6,7,8,8,8,9,9,10,10,10,10,11,11,12,13,13,13,14,14,14,15,16
participant_3_MINIONSKILLED,0,0,0,11,18,21,24,33,34,46,55,55,61,66,73,78,81,85,97,105,105,110,116,123,126,132,136,140,154,164,172,178,184
participant_3_KILLS,0,0,0,0,0,0,0,0,0,1,1,2,2,2,2,3,3,3,4,4,4,4,4,4,5,7,8,8,8,9,11,11,11
participant_3_BUY,[],"[1035, 2031, 1035, 2031, 3340]",[],[],[],[1028],[],[],[],[],"[6660, 1001, 3117]",[],[],[],[],[3105],[],[3068],[],[1011],[],[],[1026],[],[],[],[],"[4637, 3165]",[],"[1028, 1028]",[1011],[],[3075]
participant_3_SOLD,[],[],[],[],[],[],[],[],[],[],"[1028, 1001]",[1035],[],[],[],[],[],"[6660, 3105]",[],[],[],[],[],[],[],[],[],"[1026, 1011]",[],[],[1028],[],[1011]
participant_3_UNDO,[],"[[0, 2031], [0, 1035]]",[],[],[],[],[],[],[],[],[],[],[],[],[],[],[],[],[],[],[],[],[],[],[],[],[],[],[],"[[0, 1028]]",[],[],[]
participant_4_GOLD,500,500,523,757,1250,1444,1579,1733,1927,2082,2236,2446,2607,2747,2997,3263,3443,3583,3914,4391,4717,5157,5347,5487,5828,6543,6886,7701,7842,7983,8249,8689,9721
participant_4_CURRENTGOLD,500,0,23,257,750,944,279,433,627,782,936,1146,257,397,648,63,243,83,414,891,367,807,997,288,628,493,486,101,242,383,249,689,1721
participant_4_LEVEL,1,1,1,2,3,4,4,5,5,6,6,7,7,7,8,8,8,8,9,9,9,10,10,10,11,13,13,13,13,13,14,14,15
participant_4_MINIONSKILLED,0,0,0,0,0,0,0,0,0,0,0,1,1,1,1,1,1,1,1,3,3,3,3,3,3,3,5,5,5,5,5,5,5
participant_4_KILLS,0,0,0,0,0,0,1,1,2,4,4,4,4,4,4,5,5,5,6,6,6,6,7,7,8,11,11,11,11,11,11,12,16
participant_4_BUY,[],"[1054, 2003, 3340]",[],[],[],[],[6660],[],[],[3105],[3068],[],[],"[1001, 1029]",[],"[3047, 1029, 1029]",[],[],[],[],"[3076, 3075]",[1028],[],[1037],[],[],[],"[3748, 3067]",[],[1029],[3082],[],[]
participant_4_SOLD,[],[],[],[2003],[],[],[],[],[],[],"[6660, 3105]",[],[],[],[],"[1001, 1029]",[],[],[],[],"[1029, 1029, 3076]",[],[],[],[],[],[],"[1037, 1028]",[],[1054],[1029],[],[]
participant_4_UNDO,[],[],[],[],[],[],[],[],[],[],[],[],[],[],[],[],[],[],[],[],[],[],[],[],[],[],[],[],[],[],[],[],[]
participant_5_GOLD,500,500,584,1333,1579,1785,2128,2306,2428,3107,3626,4062,4240,5090,5525,6510,7117,7590,8062,9489,10325,11036,11158,12852,13233,13356,13478,14250,14394,14848,15378,15585,15708
participant_5_CURRENTGOLD,500,0,84,833,1079,1285,328,506,103,182,701,1137,1315,365,650,1635,142,615,47,1474,2311,3021,343,2037,2419,1541,1664,2436,2579,834,444,651,773
participant_5_LEVEL,1,1,1,3,3,4,5,6,6,7,7,8,8,9,10,10,11,12,12,13,14,15,15,15,15,15,15,16,16,17,17,17,17
participant_5_MINIONSKILLED,0,0,3,12,14,16,27,30,30,32,37,52,55,61,76,89,90,108,108,108,125,135,135,139,145,145,145,165,166,172,172,172,172
participant_5_KILLS,0,0,0,1,1,1,1,1,1,2,2,2,2,3,3,3,4,4,4,8,9,10,10,14,14,14,14,14,14,14,15,15,15
participant_5_BUY,[],"[1055, 2003]",[],[],[],[],[6670],[],"[1001, 2031, 2055]",[1018],[],[],[],"[6672, 1042]","[2055, 2055]",[],"[3006, 1038, 1042]",[],"[2015, 1018, 3095]",[],[],[],[3124],[],[],[1043],[],[],[],[3153],[3044],[],[]
participant_5_SOLD,[],[],[],[2003],[],[],[],[],[],[],[2055],[],[],"[6670, 1018]",[],"[2055, 2055]","[1001, 1042]",[],"[1042, 2031, 1038, 1018, 2015]",[],[],[],[],[],[],[],[],[],[],[1043],[1055],[],[]
participant_5_UNDO,[],[],[],[],[],[],[],[],[],[],[],[],[],[],[],[],[],[],[],[],[],[],[],[],[],[],[],[],[],[],[],[],[]
participant_6_GOLD,500,500,621,1033,1561,1837,2190,2448,2684,2832,3144,3688,4008,4460,4685,4943,5270,5558,6010,6797,7320,7542,7793,8101,8638,8925,9183,9405,9896,10220,10506,10820,11112
participant_6_CURRENTGOLD,500,0,121,533,1061,1337,1690,98,334,482,794,1338,1658,2110,2335,293,620,908,1360,2147,320,212,163,471,1008,46,303,525,1017,190,476,790,1083
participant_6_LEVEL,1,1,2,3,3,4,5,6,6,6,7,7,8,8,9,9,9,10,10,11,11,12,12,12,13,13,13,14,14,14,15,15,15
participant_6_MINIONSKILLED,0,0,0,0,0,0,0,6,7,7,7,9,9,9,12,12,12,17,17,28,28,28,28,28,33,33,34,34,35,35,36,42,42
participant_6_KILLS,0,0,0,0,1,1,1,1,1,1,1,2,2,2,2,2,2,2,2,2,2,2,2,2,2,2,2,2,2,2,2,2,2
participant_6_BUY,[],"[1035, 2031, 3340, 3364]",[],[],[],[],[],"[3113, 3057, 1001]",[],[],[],[],[],[],[],"[3100, 1026]",[],[],[],[],[4636],"[1042, 1042]",[1042],[],[],"[1043, 1026]",[],[],[],[3115],[],[],[]
participant_6_SOLD,[],[3340],[],[],[],[],[],[],[],[],[],[],[1035],[],[],"[3057, 3113]",[],[],[],"[3364, 3513]",[1026],"[1042, 2031]",[],[],[],"[1042, 1042]",[],[],[],"[1043, 1026]",[],[],[]
participant_6_UNDO,[],[],[],[],[],[],[],[],[],[],[],[],[],[],[],[],[],[],[],[],[],[],[],[],[],[],[],[],[],[],[],[],[]
participant_7_GOLD,500,500,577,927,1530,1813,2090,2240,2453,2576,2740,3105,3340,3589,3711,4633,5011,5483,5810,5982,6829,7251,7466,7588,7710,8133,8255,9327,9955,10439,11232,11354,11947
participant_7_CURRENTGOLD,500,0,77,417,1020,1293,1570,245,458,581,310,675,335,584,256,18,396,118,445,182,1029,1451,101,223,345,768,390,213,840,1324,2117,139,733
participant_7_LEVEL,1,1,1,3,4,5,6,6,7,7,7,8,8,8,9,9,10,11,11,11,11,12,12,12,12,12,12,13,14,14,15,15,15
participant_7_MINIONSKILLED,0,0,3,14,19,26,35,37,42,42,45,51,54,61,61,61,72,72,81,81,81,87,92,92,92,92,92,92,98,110,114,114,115
participant_7_KILLS,0,0,0,0,1,1,1,1,1,1,1,1,1,1,1,3,3,4,4,4,6,6,6,6,6,7,7,8,9,9,11,11,12
participant_7_BUY,[],"[3070, 2003, 2003, 3340]",[],[],[],[],[],"[3802, 2055, 2003, 2003]",[],[],[1052],[],"[3108, 2003, 2003]",[],[1033],[6653],[],[4632],[],[1052],[],[],"[3102, 1029, 1028]",[],[],[],[1011],"[3191, 2420]",[],[],[],[3116],[]
participant_7_SOLD,[],[],[],[],"[2003, 2003]",[],[],[],"[2003, 2003, 2055]",[],[],[],[1052],[],[],"[2003, 2003, 3802, 3108]",[],[1033],[],[],[],[],"[1052, 4632]",[],[],[],[1028],[1029],[],[],[],"[2420, 1011]",[]
participant_7_UNDO,[],[],[],[],[],[],[],[],[],[],[],[],[],[],[],[],[],[],[],[],[],[],[],[],[],[],[],[],[],[],[],[],[]
participant_8_GOLD,500,500,577,804,983,1329,1634,1955,2321,2563,2792,3489,3688,4009,4279,4486,4658,5566,5739,5953,6767,7119,7305,7745,7867,8390,8512,9184,9810,10759,10994,11464,11886
participant_8_CURRENTGOLD,500,0,77,304,133,479,784,1105,1471,1713,117,814,113,434,704,286,458,1366,139,353,1167,1519,530,970,392,490,612,84,710,1659,394,864,1287
participant_8_LEVEL,1,1,1,2,2,3,4,5,5,6,6,7,7,7,8,8,8,9,9,9,10,10,11,12,12,12,12,13,13,14,14,15,15
participant_8_MINIONSKILLED,0,0,3,9,12,22,32,40,52,59,62,74,78,85,93,95,98,104,104,106,115,125,129,135,135,135,135,135,138,143,143,155,155
participant_8_KILLS,0,0,0,0,0,0,0,0,0,0,0,1,1,1,1,1,1,2,2,2,2,2,2,3,3,3,3,5,5,5,5,5,5
participant_8_BUY,[],"[3850, 3340, 2003, 2003]",[],[],[1001],[],[],[],[],[],"[1052, 1027, 1052]",[],"[1026, 3802, 3364]",[],[],[3020],[],[],[],[],[],[6655],[],[],"[1058, 4632, 3108]",[],[3102],[3191],[],[],[],[3108],[3157]
participant_8_SOLD,[],[],[],[],"[2010, 2003]",[2003],[2010],[],"[2010, 3850]",[],[],[],"[1052, 1027, 1052, 3340]",[],[3851],[1001],[],[],[],[],[],"[3802, 1026]",[],[],[],[],"[3108, 4632]",[],[],[],[],[],"[3191, 3108]"
participant_8_UNDO,[],[],[],[],[],[],[],[],[],[],[],[],[],[],[],[],[],[],[],[],[],[],[],[],"[[0, 1058]]",[],[],[],[],[],[],[],[]
participant_9_GOLD,500,500,523,745,1000,1254,1409,1643,1841,2001,2142,3060,3269,3634,3834,4025,4186,4954,5234,5439,5823,5963,6103,7057,7198,7463,7617,8858,9183,9532,9935,10075,10365
participant_9_CURRENTGOLD,500,0,23,245,200,454,609,843,1041,1201,122,1040,319,684,884,275,436,1204,1484,1689,2073,963,1104,2057,98,363,118,458,783,1132,1535,775,366
participant_9_LEVEL,1,1,1,2,2,3,4,5,5,6,6,7,7,7,7,7,8,8,8,9,10,10,10,11,11,12,12,13,13,14,14,14,15
participant_9_MINIONSKILLED,0,0,0,2,2,2,2,2,2,2,2,4,6,9,9,9,10,12,13,14,14,14,14,15,15,15,16,16,18,22,22,22,22
participant_9_KILLS,0,0,0,0,0,0,0,0,0,0,0,0,0,0,0,0,0,1,1,1,2,2,2,2,2,3,3,4,5,6,6,6,7
participant_9_BUY,[],"[1055, 3340, 2003]",[],[],[1036],[],[],[],[],[],"[6670, 1037]",[],"[1018, 1042]",[],[],[6672],[],[],"[3006, 1053]",[],[],[],"[1043, 1037, 1042]",[],[1043],[3153],[],"[1018, 3086]",[],[],[3046],[],[]
participant_9_SOLD,[],[],[],[],[],[],[2003],[],[],[],[1036],[],[],[],[],"[6670, 1018, 1037]",[],[],"[1042, 2422]",[],[],[],[],[],[1042],"[1053, 1043, 1037]",[],[1018],[],[],[3086],[],[]
participant_9_UNDO,[],[],[],[],[],[],[],[],[],[],[],[],[],[],[],[],[],[],[],[],[],[],"[[0, 1043]]",[],[],[],[],[],[],[],[],[],[]
team0_KILLS,0,0,0,0,2,2,3,3,4,7,7,8,8,9,10,13,13,13,16,16,17,18,20,20,24,29,30,33,33,34,36,37,42
team0_CURRENTGOLD,2500,0,411,1703,3367,4123,2160,2522,4318,4979,3871,3563,3346,4118,5723,3061,2497,1944,5253,5038,2828,3794,4997,1218,4638,7232,7479,1379,2362,3239,3595,7135,9939
team0_TOTALGOLD,2500,2500,2911,4203,6312,7478,8665,9727,11533,13694,14886,16613,17921,19293,20907,22971,24257,25004,28313,30148,32088,33754,35807,36587,40008,44987,46882,48994,50141,51538,53928,57468,62538
team0_LEVEL,5,5,6,12,15,19,22,25,28,33,34,37,38,40,44,44,47,48,52,53,54,56,57,57,62,67,68,69,70,70,73,77,79
team0_SBIRES,0,0,6,27,45,62,75,90,112,128,150,166,182,193,211,222,239,246,270,293,303,328,341,348,353,359,372,379,400,410,425,443,462
team1_KILLS,0,0,0,1,3,3,3,3,3,4,4,6,6,7,7,9,10,13,13,17,21,22,22,27,27,29,29,33,35,36,39,39,41
team1_CURRENTGOLD,2500,0,382,2332,3493,4848,4981,2797,3407,4159,2044,5004,3740,4177,4829,2507,2052,4211,3475,5845,6900,7166,2241,5758,4262,3208,3087,3716,5929,5139,4966,3219,4242
team1_TOTALGOLD,2500,2500,2882,4842,6653,8018,9451,10592,11727,13079,14444,17404,18545,20782,22034,24597,26242,29151,30855,33660,37064,38911,39825,43343,44646,46267,47045,51024,53238,55798,58045,59298,61018
team1_LEVEL,5,5,6,13,14,19,24,28,29,32,33,37,38,39,43,43,46,50,50,53,56,59,60,62,63,64,64,69,70,73,75,76,77
team1_SBIRES,0,0,9,37,47,66,96,115,133,142,153,190,202,225,251,266,282,313,323,337,363,389,398,409,420,420,422,442,455,482,487,505,506
delta_KILLS,0,0,0,-1,-1,-1,0,0,1,3,3,2,2,2,3,4,3,0,3,-1,-4,-4,-2,-7,-3,0,1,0,-2,-2,-3,-2,1
delta_CURRENTGOLD,0,0,29,-629,-126,-725,-2821,-275,911,820,1827,-1441,-394,-59,894,554,445,-2267,1778,-807,-4072,-3372,2756,-4540,376,4024,4392,-2337,-3567,-1900,-1371,3916,5697
delta_TOTALGOLD,0,0,29,-639,-341,-540,-786,-865,-194,615,442,-791,-624,-1489,-1127,-1626,-1985,-4147,-2542,-3512,-4976,-5157,-4018,-6756,-4638,-1280,-163,-2030,-3097,-4260,-4117,-1830,1520
delta_LEVEL,0,0,0,-1,1,0,-2,-3,-1,1,1,0,0,1,1,1,1,-2,2,0,-2,-3,-3,-5,-1,3,4,0,0,-3,-2,1,2
delta_SBIRES,0,0,-3,-10,-2,-4,-21,-25,-21,-14,-3,-24,-20,-32,-40,-44,-43,-67,-53,-44,-60,-61,-57,-61,-67,-61,-50,-63,-55,-72,-62,-62,-44
