name,frame_0,frame_1,frame_2,frame_3,frame_4,frame_5,frame_6,frame_7,frame_8,frame_9,frame_10,frame_11,frame_12,frame_13,frame_14,frame_15,frame_16,frame_17,frame_18,frame_19,frame_20,frame_21,frame_22,frame_23,frame_24
nameStamp,Tstart,Tearly,Tearly,Tearly,Tearly,Tearly,Tearly,Tearly,Tearly,Tmid,Tmid,Tmid,Tmid,Tmid,Tmid,Tmid,Tmid,Tmid,Tmid,Tmid,Tmid,Tmid,Tmid,Tmid,Tmid
timestamp,0,60021,120042,180047,240062,300064,360097,420118,480123,540153,600177,660210,720241,780261,840277,900282,960298,1020316,1080336,1140336,1200339,1260350,1320378,1380407,1440407
participant_0_GOLD,1400,1400,1897,2664,3167,3803,4169,4702,5435,6087,6486,7245,7641,8276,9109,9565,10159,10679,11203,11728,13460,14404,15652,17000,17308
participant_0_CURRENTGOLD,1400,0,497,1264,1767,2403,369,902,1635,387,786,45,441,176,1009,375,94,489,713,388,2120,14,1262,2610,2708
participant_0_LEVEL,1,3,4,5,6,7,7,8,9,10,11,11,12,13,14,14,15,16,16,17,18,18,18,18,18
participant_0_MINIONSKILLED,0,0,1,7,11,11,11,15,25,26,27,35,35,38,46,50,55,57,60,60,71,76,84,97,98
participant_0_KILLS,0,0,0,1,1,2,2,2,2,2,2,3,3,4,4,4,4,4,4,4,8,10,12,14,14
participant_0_BUY,[],"[3006, 1042]",[],[],[],[],"[3046, 1038, 1037, 3046]",[],[],"[1038, 1018]",[],[3031],[],"[1018, 1042]",[],[3140],[1037],[3139],[1029],"[1031, 1036]",[],[3072],[],[],[]
participant_0_SOLD,[],[2052],[],[],[],[],"[1042, 1042]",[],[],[2052],[],"[1038, 1018]",[],[],[],[1042],[],"[3140, 1018, 1037]",[],[1029],[],[1036],[],[],[]
participant_0_UNDO,[],[],[],[],[],[],"[[0, 3046], [0, 1037], [0, 1038]]",[],[],[],[],[],[],[],[],[],[],[],[],[],[],[],[],[],[]
participant_1_GOLD,1400,1400,2057,2715,3182,3589,4179,4610,5226,6032,6422,6923,7355,8081,8991,9399,9894,10587,11080,11440,12033,12465,13192,13897,14158
participant_1_CURRENTGOLD,1400,0,657,1315,1782,539,1129,160,776,1582,1972,423,455,781,1691,2099,244,937,780,340,933,865,1592,597,358
participant_1_LEVEL,1,3,4,5,6,7,8,8,9,11,11,12,13,13,15,15,16,16,17,17,18,18,18,18,18
participant_1_MINIONSKILLED,0,0,1,1,2,2,3,4,7,8,8,8,8,8,10,10,10,10,11,11,12,12,14,14,14
participant_1_KILLS,0,0,1,2,2,2,2,2,2,2,2,2,2,3,3,3,3,4,4,4,4,4,4,4,4
participant_1_BUY,[],"[4642, 1004, 2003, 2003]",[],[],[],[6617],[],"[3158, 3114, 1004]",[],[],[],"[3504, 3114]",[1028],[3067],[],[],"[3107, 3114, 1026]",[],[6616],[3916],[],[2138],[],"[3011, 3165]",[2138]
participant_1_SOLD,[],[],"[2003, 2003]",[],[],[4642],[],"[2422, 1004]",[],[],[],"[3114, 1004]",[],[1028],[],[],"[3067, 3114]",[],"[2052, 3114, 1026]",[],[],[2138],[],"[3916, 3916]",[2138]
participant_1_UNDO,[],[],[],[],[],[],[],[],[],[],[],[],[],[],[],[],[],[],[],[],[],[],[],"[[0, 3011]]",[]
participant_2_GOLD,1400,1400,2296,2738,3244,3777,4988,5414,5936,7028,7412,8144,8516,8933,10001,10454,10994,11586,12316,12751,13231,13885,14275,14968,15229
participant_2_CURRENTGOLD,1400,0,896,138,644,477,1688,1014,636,1078,712,1444,116,183,501,504,194,336,716,351,331,985,75,768,1029
participant_2_LEVEL,1,3,4,5,6,7,8,8,9,10,10,11,12,12,13,14,14,15,16,16,17,18,18,18,18
participant_2_MINIONSKILLED,0,0,0,0,2,2,5,5,6,6,6,9,9,9,13,14,14,16,21,21,21,28,28,28,28
participant_2_KILLS,0,0,2,2,2,2,4,4,4,6,6,7,7,7,9,9,10,10,11,11,11,11,11,11,11
participant_2_BUY,[],"[3044, 2031, 1001]",[],"[3057, 1028, 3111, 1028]",[],[3057],[],[6632],[1057],"[1036, 1042]","[3051, 1042]",[],"[3091, 1036, 1053]",[1036],[3133],[3077],"[3133, 3074]",[1033],"[1028, 3066]",[1031],[2138],[],[3742],[],[]
participant_2_SOLD,[],[],[],[1001],[],[],[2052],"[3044, 3057, 1028]",[],[],"[1042, 1036, 2052]",[],"[3051, 1057, 1042, 1036]",[],[1036],[],"[1036, 3077, 1053, 3133]",[],[],[],[2138],[],"[3066, 1031]",[],[]
participant_2_UNDO,[],"[[0, 2031]]",[],"[[0, 1028], [0, 3057]]",[],[],[],[],[],[],[],[],[],[],[],"[[0, 3133]]",[],[],"[[0, 1028], [0, 1033]]",[],[],[],[],[],[]
participant_3_GOLD,1400,1400,1888,2471,2949,3427,4315,4797,5962,7066,7514,8043,8556,9039,10459,10894,11568,12213,12704,13843,14227,15120,15932,17137,17473
participant_3_CURRENTGOLD,1400,0,188,771,1249,277,1165,797,1062,116,564,743,256,739,2159,2594,3268,513,1004,543,927,1820,1547,2752,2423
participant_3_LEVEL,1,3,4,5,6,7,8,8,9,10,11,12,12,13,14,14,15,16,16,18,18,18,18,18,18
participant_3_MINIONSKILLED,0,0,4,10,12,14,18,23,25,29,33,35,39,42,43,45,47,47,51,61,61,67,71,75,78
participant_3_KILLS,0,0,0,0,0,0,2,2,6,7,7,7,7,7,9,9,10,11,11,13,13,14,16,18,18
participant_3_BUY,[],"[3070, 3112, 2003]",[1001],[],[],"[3145, 1028]",[],[1026],[4636],"[3020, 1058]",[],[1027],[3003],[],[],[],[],"[3135, 3191]",[],[3157],[],[],"[1058, 2139]",[],[]
participant_3_SOLD,[],[2052],[2003],[],[],[],[],[],"[3145, 1028, 1026]",[1001],[],[],"[3070, 1058, 1027, 3003]",[],[],[2052],[],[],[],[3191],[],[],"[3112, 2139]",[],[]
participant_3_UNDO,[],[],[],[],[],[],[],[],[],[],[],[],[],[],[],[],[],[],[],[],[],[],[],[],[]
participant_4_GOLD,1400,1400,1927,2473,2929,3562,4127,4598,5045,5795,6271,6947,7814,8394,9456,9880,10846,12219,12659,13469,14265,14649,15084,15937,16251
participant_4_CURRENTGOLD,1400,0,527,1073,1529,412,977,1448,695,545,1021,897,1164,144,1206,1630,2596,3969,1369,579,1375,1759,2194,3047,3301
participant_4_LEVEL,1,3,4,5,6,7,8,8,9,10,10,11,12,13,14,14,15,16,17,18,18,18,18,18,18
participant_4_MINIONSKILLED,0,0,4,7,7,10,13,14,14,16,19,20,21,26,34,35,43,48,51,51,55,55,55,56,57
participant_4_KILLS,0,0,0,0,0,1,1,1,1,2,2,3,4,4,5,5,6,8,8,10,11,11,11,12,12
participant_4_BUY,[],"[3070, 3108, 2003, 2003]",[],[],[],"[3802, 1001, 2031]",[],[],[6653],[3108],[],[3067],[3158],"[4629, 1029]",[],[],[],[],"[3157, 3157, 3108]",[3102],[],[],[],[],[]
participant_4_SOLD,[],[],[2003],"[2010, 2003]",[],[2010],[],[2010],"[3802, 3108]",[],[],[],[1001],"[3108, 3067]",[],[],[],[],"[1029, 2031, 1029]",[3108],[],[],[],[],[]
participant_4_UNDO,[],[],[],[],[],[],[],[],[],[],[],[],[],[],[],[],[],[],"[[0, 3157]]",[],[],[],[],[],[]
participant_5_GOLD,1400,1400,2037,2533,3003,3777,4190,5136,5939,6588,7035,7743,8432,9152,9848,10464,11016,12269,12888,13943,14372,14829,15547,16420,16531
participant_5_CURRENTGOLD,1400,300,237,333,803,577,290,1236,2039,588,585,943,757,52,398,1014,466,1719,613,443,172,129,847,1720,1831
participant_5_LEVEL,1,3,4,5,6,7,7,8,9,10,10,11,12,12,13,14,14,15,16,17,17,18,18,18,18
participant_5_MINIONSKILLED,0,0,1,4,7,7,8,13,15,19,21,26,30,30,30,39,45,52,55,56,57,61,69,73,73
participant_5_KILLS,0,0,1,1,1,3,3,4,5,6,6,7,8,9,10,10,10,12,13,15,15,15,15,17,17
participant_5_BUY,[],[3134],"[1036, 1036]",[3133],[],[6691],"[1036, 1036]",[],[],[6695],[1033],[3111],[1037],"[3077, 1036, 1036, 3133]",[1036],[],"[3074, 1033]",[],"[3140, 1037]","[6035, 1028]",[3044],[2140],[],[],[]
participant_5_SOLD,[],[],[],"[1036, 1036]",[],"[3134, 3133]",[],[],[],"[1036, 1036]",[],"[1033, 2422]",[],"[1037, 1036, 1036]",[],[],"[3077, 1036, 3133]",[],[1033],"[3140, 1037]",[1028],[2140],[],[],[]
participant_5_UNDO,[],[],[],[],[],[],[],[],[],[],[],[],[],[],[],[],[],[],[],[],[],[],[],[],[]
participant_6_GOLD,1400,1400,1858,2359,2811,3537,4001,4540,5137,5639,6035,6501,7164,7614,8025,8827,9397,9929,10382,10823,11642,12839,13229,13804,13915
participant_6_CURRENTGOLD,1400,100,258,759,1211,37,501,1040,837,89,485,101,764,114,225,1027,97,29,482,473,242,1439,29,154,265
participant_6_LEVEL,1,3,4,5,6,7,8,9,9,10,11,11,12,13,13,14,14,15,16,16,17,18,18,18,18
participant_6_MINIONSKILLED,0,0,0,1,2,3,5,6,6,7,7,8,8,8,8,17,17,19,20,20,21,25,25,28,28
participant_6_KILLS,0,0,0,0,0,1,1,1,1,1,1,1,2,2,2,3,4,4,4,4,6,7,7,7,7
participant_6_BUY,[],"[3112, 2051, 6660, 1029]",[1001],[],[],[3068],[],[],[3111],"[1033, 3066]",[],"[1057, 1028]",[],"[4401, 1029]",[1029],[],"[3082, 3067, 1029]",[3143],[],[1033],[3105],[],"[1033, 3193]",[1033],[]
participant_6_SOLD,[],[],[],[],[],"[6660, 1029]",[],[],[1001],[],[],[1033],[],"[1057, 1028, 3066]",[],[],"[1029, 1029]","[3082, 1029, 3067]",[],[],[1033],[],"[3105, 1033]",[],[]
participant_6_UNDO,[],"[[0, 3112], [0, 2051]]",[],[],[],[],[],[],[],[],[],[],[],[],[],[],[],[],[],[],[],[],[],[],[]
participant_7_GOLD,1400,1400,1858,2270,2672,3315,3753,4678,5332,5740,6238,6862,7315,7854,8226,8781,9445,9920,10333,10786,11378,11925,12321,12860,12971
participant_7_CURRENTGOLD,1400,0,458,870,372,1015,303,1228,1882,590,1088,12,465,1004,176,731,1395,170,583,236,88,635,331,870,921
participant_7_LEVEL,1,3,4,5,5,7,7,8,9,10,11,11,12,13,13,14,15,16,16,17,18,18,18,18,18
participant_7_MINIONSKILLED,0,0,0,0,0,2,2,4,5,5,5,5,6,7,7,7,9,9,9,9,14,16,16,18,18
participant_7_KILLS,0,0,0,0,0,0,0,1,1,1,1,2,2,2,2,2,2,2,2,2,2,2,2,2,2
participant_7_BUY,[],"[3067, 1033, 2031]",[],[],"[1001, 1029, 1029]",[],[3190],[],[],"[3066, 3006, 3047, 1028]",[],[4401],[],[],"[3066, 1028]",[],[],[3742],[],[3067],[3114],[],[3107],[],[]
participant_7_SOLD,[],[],[],[],[],[],"[3067, 1033, 1029]",[],[],"[1001, 1001, 1029]",[],"[1028, 3066]",[],[],[],[],[],"[3066, 1028]",[],[],[2031],[],"[3067, 3114]",[],[]
participant_7_UNDO,[],[],[],[],[],[],[],[],[],"[[0, 3006]]",[],[],[],[],[],[],[],[],[],[],[],[],[],[],[]
participant_8_GOLD,1400,1400,1918,2471,2959,3631,4037,4942,5821,6565,7352,7938,8715,9306,9711,10230,10774,11453,12254,12650,13442,13919,14279,14832,14943
participant_8_CURRENTGOLD,1400,0,518,1071,1559,2231,102,1007,1886,565,1352,1938,615,771,326,845,674,1353,2154,350,1142,1619,2609,1362,843
participant_8_LEVEL,1,3,4,5,6,7,7,9,9,10,11,12,13,14,14,15,15,16,17,18,18,18,18,18,18
participant_8_MINIONSKILLED,0,0,5,11,13,19,21,23,27,29,35,37,38,45,45,46,49,51,60,60,65,65,65,69,69
participant_8_KILLS,0,0,0,0,0,0,0,2,3,4,5,5,6,6,6,6,6,7,8,8,9,9,9,9,9
participant_8_BUY,[],"[3802, 2003, 2003]",[],[],[],[],"[6655, 1052]",[],[],[3165],[],[],"[3020, 1043]",[1052],[1026],[],[3115],[],[],"[3140, 1011]",[],[],[],"[1038, 2140]",[]
participant_8_SOLD,[],[],[],[],[],[],"[2003, 2003, 3802]",[],[],[1052],[],[],[],[],[],[],"[1043, 1026, 1052]",[],[],[],[],[],[1011],[2140],[]
participant_8_UNDO,[],[],[],[],[],[],[],[],[],[],[],[],[],[],[],[],[],[],[],[],[],[],[],[],[]
participant_9_GOLD,1400,1400,1891,2766,3261,4529,5070,5714,6519,7531,8168,8918,9839,10744,11165,11758,13153,13645,14241,15151,15557,16182,17400,17816,17927
participant_9_CURRENTGOLD,1400,0,491,1366,1861,3129,470,1114,1119,156,793,1543,2464,3369,530,1123,2518,1110,506,1016,1422,1127,245,661,-173
participant_9_LEVEL,1,3,4,5,6,7,8,9,9,10,11,12,13,14,14,15,16,16,17,18,18,18,18,18,18
participant_9_MINIONSKILLED,0,0,4,7,11,15,22,28,29,29,42,47,58,61,64,69,71,72,72,81,82,84,92,92,92
participant_9_KILLS,0,0,0,1,1,3,3,3,4,5,5,6,7,9,9,9,12,12,13,14,14,15,17,17,17
participant_9_BUY,[],"[3177, 1001, 2003, 2003, 2003]",[],[],[],[],"[6692, 6692]",[],[3111],"[3134, 1037]",[],[],[],[],"[3142, 3134, 1036, 3814]",[],[],"[1031, 3133]",[6333],[1028],[],[3077],[3074],[],[]
participant_9_SOLD,[],[2052],[2003],"[2003, 2003]",[],[],[],[],"[2052, 1001]",[],[],[],[],[],"[3134, 1037, 3177, 1036, 3134]",[],[],[],"[1031, 3133]",[],[],[1028],[3077],[],[]
participant_9_UNDO,[],[],[],[],[],[],"[[0, 6692]]",[],[],[],[],[],[],[],[],[],[],[],[],[],[],[],[],[],[]
team0_KILLS,0,0,3,5,5,7,11,11,15,19,19,22,23,25,30,30,33,37,38,42,47,50,54,59,59
team0_CURRENTGOLD,7000,0,2765,4561,6971,4108,5328,4321,4804,3708,5055,3552,2432,2023,6566,7202,6396,6244,4582,2201,5686,5443,6670,9774,9819
team0_TOTALGOLD,7000,7000,10065,13061,15471,18158,21778,24121,27604,32008,34105,37302,39882,42723,48016,50192,53461,57284,59962,63231,67216,70523,74135,78939,80419
team0_LEVEL,5,15,20,25,30,35,39,40,45,51,53,57,61,64,70,71,75,79,82,86,89,90,90,90,90
team0_SBIRES,0,0,10,25,34,39,50,61,77,85,93,107,112,123,146,154,169,178,194,204,220,238,252,270,275
team1_KILLS,0,0,1,2,2,7,7,11,14,17,18,21,25,28,29,30,34,37,40,43,46,48,50,52,52
team1_CURRENTGOLD,7000,400,1962,4399,5806,6989,1666,5625,7763,1988,4303,4537,5065,5310,1655,4740,5150,4381,4338,2518,3066,4949,4061,4767,3687
team1_TOTALGOLD,7000,7000,9562,12399,14706,18789,21051,25010,28748,32063,34828,37962,41465,44670,46975,50060,53785,57216,60098,63353,66391,69694,72776,75732,76287
team1_LEVEL,5,15,20,25,29,35,37,43,45,50,54,57,62,66,67,72,74,78,82,86,88,90,90,90,90
team1_SBIRES,0,0,10,23,33,46,58,74,82,89,110,123,140,151,154,178,191,203,216,226,239,251,267,280,280
delta_KILLS,0,0,2,3,3,0,4,0,1,2,1,1,-2,-3,1,0,-1,0,-2,-1,1,2,4,7,7
delta_CURRENTGOLD,0,-400,803,162,1165,-2881,3662,-1304,-2959,1720,752,-985,-2633,-3287,4911,2462,1246,1863,244,-317,2620,494,2609,5007,6132
delta_TOTALGOLD,0,0,503,662,765,-631,727,-889,-1144,-55,-723,-660,-1583,-1947,1041,132,-324,68,-136,-122,825,829,1359,3207,4132
delta_LEVEL,0,0,0,0,1,0,2,-3,0,1,-1,0,-1,-2,3,-1,1,1,0,0,1,0,0,0,0
delta_SBIRES,0,0,0,2,1,-7,-8,-13,-5,-4,-17,-16,-28,-28,-8,-24,-22,-25,-22,-22,-19,-13,-15,-10,-5
