name,team0,team1
win,Win,Fail
firstBlood,True,False
firstTower,False,True
firstInhibitor,False,False
firstBaron,False,False
firstDragon,True,False
firstRiftHerald,False,True
towerKills,0,2
inhibitorKills,0,0
baronKills,0,0
dragonKills,1,2
riftHeraldKills,0,1
