name,team0,team1
win,Win,Fail
firstBlood,False,True
firstTower,False,True
firstInhibitor,False,True
firstBaron,False,True
firstDragon,True,False
firstRiftHerald,False,True
towerKills,11,8
inhibitorKills,3,1
baronKills,0,1
dragonKills,4,0
riftHeraldKills,0,1
