name,team0,team1
win,Win,Fail
firstBlood,True,False
firstTower,True,False
firstInhibitor,True,False
firstBaron,False,False
firstDragon,True,False
firstRiftHerald,False,False
towerKills,11,0
inhibitorKills,3,0
baronKills,0,0
dragonKills,2,1
riftHeraldKills,0,0
