name,frame_0,frame_1,frame_2,frame_3,frame_4,frame_5,frame_6,frame_7,frame_8,frame_9,frame_10,frame_11,frame_12,frame_13,frame_14,frame_15,frame_16,frame_17,frame_18,frame_19,frame_20,frame_21,frame_22,frame_23,frame_24,frame_25,frame_26,frame_27,frame_28
nameStamp,Tstart,Tearly,Tearly,Tearly,Tearly,Tearly,Tearly,Tearly,Tearly,Tearly,Tearly,Tmid,Tmid,Tmid,Tmid,Tmid,Tmid,Tmid,Tmid,Tmid,Tmid,Tmid,Tmid,Tmid,Tmid,Tmid,Tmid,Tmid,Tmid
timestamp,0,60016,120041,180061,240092,300119,360138,420160,480185,540207,600225,660252,720280,780309,840333,900354,960380,1020405,1080430,1140432,1200451,1260455,1320462,1380494,1440523,1500549,1560566,1620593,1680593
participant_0_GOLD,1400,1400,1879,2375,2823,4209,4770,5223,5738,6656,7167,8225,8828,9714,10206,10952,11587,12347,12780,13378,14260,15266,15908,16483,17025,18021,18866,19784,19970
participant_0_CURRENTGOLD,1400,0,479,975,273,1659,2220,623,438,1356,582,625,828,364,421,1167,337,197,630,1228,1160,916,1558,1633,2175,621,966,1884,-430
participant_0_LEVEL,1,3,4,5,6,7,8,9,9,10,11,12,12,13,14,15,15,16,17,17,18,18,18,18,18,18,18,18,18
participant_0_MINIONSKILLED,0,0,2,5,6,18,26,27,34,40,45,52,60,69,74,80,83,90,94,101,105,112,122,130,134,137,153,160,160
participant_0_KILLS,0,0,0,0,0,2,2,2,2,4,4,6,6,6,6,7,7,7,7,7,7,8,8,8,8,11,11,11,11
participant_0_BUY,[],"[3802, 2003, 2003]",[],[],"[1026, 1001]",[],[],"[6655, 3020]",[3057],[],"[1026, 1052]",[3100],[1028],"[1011, 1026]",[1052],[],"[4637, 2420]",[3108],[],[],[3157],[1058],[],[2139],[],[3089],[2139],[],[3165]
participant_0_SOLD,[],[],[2003],[2003],[],[],[2052],"[3802, 1026, 1001]",[],[],[],"[3057, 1052, 1026]",[],"[3400, 1028]",[],[],"[1026, 1011, 1052]",[3400],[],[],"[2420, 3108]",[],[],[2139],[],[1058],[2139],[],[3100]
participant_0_UNDO,[],[],[],[],[],[],[],[],[],[],[],[],[],[],[],[],[],[],[],[],[],[],[],[],[],[],[],[],[]
participant_1_GOLD,1400,1410,1860,2382,2886,3880,4514,5050,5793,6644,7057,7956,8398,9873,10465,10961,11701,12067,12559,13142,14319,14679,15355,15781,16472,16928,17594,18131,18227
participant_1_CURRENTGOLD,1400,10,460,982,386,1380,2014,2550,143,994,507,1406,248,1723,690,336,1076,192,684,1267,2444,1154,1830,1756,2447,353,519,1056,277
participant_1_LEVEL,1,3,4,5,6,8,8,9,9,10,11,12,12,13,13,14,14,15,15,16,18,18,18,18,18,18,18,18,18
participant_1_MINIONSKILLED,0,1,2,4,4,6,9,12,14,16,17,19,20,22,24,25,27,27,32,35,39,39,41,41,49,49,50,52,52
participant_1_KILLS,0,0,0,0,0,2,3,3,4,5,5,6,6,8,9,9,10,10,10,10,11,11,12,12,12,12,13,13,13
participant_1_BUY,[],"[4635, 2003, 2003]",[],[],[3020],[],[],[],"[4633, 1058]",[],[3108],[],"[3191, 2420, 3157]",[],"[3916, 1026, 3165]",[1026],[],[4630],[],[],[],"[3135, 1058]",[],[2139],[],[3089],[2139],[],[]
participant_1_SOLD,[],[],"[2003, 2003]",[],[],[],[],[],[4635],[],[],[],"[3191, 2420, 3108]",[3400],"[1058, 1026, 3916]",[],[],[],[],[],[],"[4630, 1026]",[],[2139],[],[1058],[2139],[],[]
participant_1_UNDO,[],[],[],[],[],[],[],[],[],[],[],[],[],[],[],[],[],[],[],[],[],[],[],[],[],[],[],[],[]
participant_2_GOLD,1400,1400,1835,2516,3104,3671,4139,4802,5267,6090,6599,7202,7724,8236,8744,9749,10465,10861,11233,11744,12691,13051,13500,13931,14427,14790,15388,15850,16426
participant_2_CURRENTGOLD,1400,0,435,1116,854,1121,1589,2252,232,1055,514,1117,389,901,709,1314,780,1176,1548,709,1656,766,1215,701,1196,1559,2158,69,341
participant_2_LEVEL,1,3,4,5,6,7,8,9,9,10,11,11,12,13,14,14,15,15,16,16,17,17,18,18,18,18,18,18,18
participant_2_MINIONSKILLED,0,0,1,5,5,6,6,11,12,17,21,21,23,24,26,29,31,31,31,34,36,36,37,38,40,40,44,46,46
participant_2_KILLS,0,0,0,1,2,2,2,3,3,4,4,4,4,4,4,5,5,5,5,5,7,7,7,7,7,7,7,7,8
participant_2_BUY,[],"[3802, 2003, 2003]",[],[],[1026],[1001],[],[],"[6655, 3020, 1052]",[],"[3145, 1052]",[],[1058],[],[4628],[3070],[1058],[],[],[3003],[],[1058],[],[1058],[],[],[],"[3089, 4630]",[]
participant_2_SOLD,[],[],[2003],[2003],[],[],[2052],[],"[3802, 1026, 1001]",[],[1052],[],[],[],"[1058, 3145]",[],[],[],[],"[3070, 1058]",[2052],[],[],[1052],[],[],[],"[1058, 1058]",[]
participant_2_UNDO,[],[],[],[],[],[],[],[],[],[],[],[],[],[],[],[],[],[],[],[],[],[],[],[],[],[],[],[],[]
participant_3_GOLD,1400,1400,1883,2388,2992,3514,3980,4493,4917,5518,5973,6648,7284,8021,8417,9103,9677,10439,10799,11195,11943,12303,12862,13258,13736,14231,15695,16187,16283
participant_3_CURRENTGOLD,1400,0,483,988,592,1114,1580,2093,517,1118,323,998,734,1471,267,953,327,1089,149,605,703,1063,1622,118,596,1091,1505,1997,233
participant_3_LEVEL,1,3,4,5,6,7,8,8,9,10,10,11,12,13,13,14,15,16,16,16,17,17,18,18,18,18,18,18,18
participant_3_MINIONSKILLED,0,0,1,2,4,4,5,9,10,12,13,16,16,17,17,18,19,19,19,19,19,19,23,23,24,26,32,32,32
participant_3_KILLS,0,0,0,0,1,1,1,1,1,1,1,1,2,3,3,3,3,4,4,4,5,5,5,5,5,5,6,6,6
participant_3_BUY,[],"[3802, 2003, 2003]",[],[],"[1026, 2031]",[],[],[],"[6656, 1033, 1001]",[],"[3111, 3108]",[],[3191],[],"[3157, 3108]",[],[4632],[],"[3102, 1011]",[],[3801],[],[],"[3083, 1033]",[],[],[3105],[],[3193]
participant_3_SOLD,[],[],"[2003, 2003]",[],[],[],[],[],"[3802, 1026]",[],"[1001, 1033]",[],[],[],"[3191, 3108]",[3400],[],[],"[3108, 4632]",[2031],[],[],[],"[1011, 3801]",[],[],[1033],[],[3105]
participant_3_UNDO,[],[],[],[],[],[],[],[],[],[],[],[],[],[],[],[],[],[],[],[],[],[],[],[],[],[],[],[],[]
participant_4_GOLD,1400,1400,2459,2963,3437,4081,4547,5022,5850,6351,7165,7818,8292,10516,11047,12060,12847,14921,15281,16395,18288,19260,19762,20194,20770,21757,22117,23265,23361
participant_4_CURRENTGOLD,1400,0,1059,1563,937,581,1047,1522,450,951,1765,2418,642,316,497,1510,747,2821,1181,2295,4188,5160,5662,3694,4270,5257,5117,6265,6361
participant_4_LEVEL,1,3,4,5,6,7,7,8,9,10,11,12,12,13,14,15,15,16,16,17,18,18,18,18,18,18,18,18,18
participant_4_MINIONSKILLED,0,0,0,0,0,0,0,0,1,3,3,3,3,3,4,4,4,4,4,4,5,7,9,9,15,17,17,17,17
participant_4_KILLS,0,0,3,3,3,4,4,4,4,4,5,5,5,7,7,8,9,12,12,13,16,17,17,17,17,17,17,19,19
participant_4_BUY,[],"[3134, 1001]",[],[],[3133],[6691],[],[],"[3111, 3134]",[],[],[],"[3142, 1036]",[3814],[1036],[],"[3133, 1031]",[],"[6333, 3123]",[],[],[],[],"[6609, 2140]",[],[],[2140],[],[]
participant_4_SOLD,[],[],[],[],[],"[3134, 3133]",[],[],"[3400, 1001]",[],[3400],[],[3134],"[3400, 1036]",[],[3400],[1036],[],"[1031, 3133]",[],[],[],[],"[3123, 2140]",[],[],[2140],[],[]
participant_4_UNDO,[],[],[],[],[],[],[],[],[],[],[],[],[],[],[],[],[],[],[],[],[],[],[],[],[],[],[],[],[]
participant_5_GOLD,1400,1400,1831,2343,3048,3653,4129,4622,5195,5667,6570,7139,7499,8256,8673,9033,9467,10039,10512,11017,11475,11939,12474,12984,13567,14084,14527,15087,15483
participant_5_CURRENTGOLD,1400,0,431,943,448,553,1029,1522,2095,267,1170,1739,99,256,373,133,567,264,737,1242,675,339,874,1084,1667,584,727,1287,1123
participant_5_LEVEL,1,3,4,5,6,7,7,8,9,10,11,11,12,12,13,13,13,14,15,15,16,16,17,17,18,18,18,18,18
participant_5_MINIONSKILLED,0,0,0,4,6,8,10,10,12,16,21,22,22,24,24,24,26,30,31,33,34,37,42,42,49,50,52,54,54
participant_5_KILLS,0,0,0,0,1,2,2,2,2,2,3,3,3,4,4,4,4,4,4,4,4,4,4,4,4,4,4,4,4
participant_5_BUY,[],"[6670, 2003, 2003]",[],[],"[1018, 1001, 1042]",[3006],[],[],[],"[6672, 6673, 6673, 1042, 1042, 6677]",[],"[1018, 3086, 1037]","[1018, 1042, 3124]",[1018],[1042],"[3086, 1042]",[],[1037],[],[],[3085],[3123],[],[1042],[],[3033],[1042],[],[]
participant_5_SOLD,[],[],[],[],[2003],"[2003, 1001, 1042]",[],[],[],"[6670, 1018, 6670, 1018, 6670, 1018, 1042, 1042]",[],[6677],"[6677, 1018, 1042]",[],[],"[1018, 1042]",[],[3599],[],[],"[1037, 3086, 1042]",[],[],[],[],"[3123, 1042]",[],[],[]
participant_5_UNDO,[],[],[],[],[],[],[],[],[],"[[0, 6672], [0, 6673]]",[],"[[0, 1018], [0, 1037], [0, 3086], [6677, 0]]",[],[],[],[],[],[],[],[],[],[],[],[],[],[],[],[],[]
participant_6_GOLD,1400,1400,1910,2397,3127,3545,4028,4675,5298,5724,6871,7752,8247,8711,9071,9498,10342,10802,11376,12061,12648,13759,14509,15361,15851,16364,16947,18079,18606
participant_6_CURRENTGOLD,1400,0,510,997,1727,895,1378,2025,2648,474,1621,2502,2997,1361,471,898,1742,952,1526,2211,698,559,1309,2161,2651,1664,2247,3379,3906
participant_6_LEVEL,1,3,4,5,6,7,8,8,9,10,11,12,12,13,13,14,15,16,17,17,18,18,18,18,18,18,18,18,18
participant_6_MINIONSKILLED,0,0,4,6,10,10,11,13,14,14,17,19,24,25,25,26,35,36,42,45,46,55,58,68,70,73,74,82,85
participant_6_KILLS,0,0,0,0,1,1,1,2,3,3,4,6,6,6,6,6,6,6,6,7,8,10,11,11,11,11,12,14,14
participant_6_BUY,[],"[3145, 1001, 2003]",[],[],[],"[1026, 1028]",[],[],[],"[3152, 3020, 1011]",[],[],[],[4637],[1058],[],[],[1058],[],[],"[3089, 3067]",[3211],[],[],[],"[3065, 2420]",[],[],[]
participant_6_SOLD,[],[2003],[],[],[],[],[],[],[],"[3145, 1028, 1026, 1001]",[],[],[],[1011],[],[],[],[],[],[],"[1058, 1058]",[],[],[],[],"[3211, 3067]",[],[],[]
participant_6_UNDO,[],[],[],[],[],[],[],[],[],[],[],[],[],[],[],[],[],[],[],[],[],[],[],[],[],[],[],[],[]
participant_7_GOLD,1400,1400,1814,2280,2837,3296,3716,4154,4565,5006,5936,6725,7243,7930,8967,9575,10034,10760,12084,12644,13214,13616,14414,15209,15734,17404,17872,18410,18806
participant_7_CURRENTGOLD,1400,50,164,280,837,546,966,154,565,156,1086,1875,2393,780,1817,575,1034,710,2034,694,464,516,1314,2109,2634,4304,1222,1760,2156
participant_7_LEVEL,1,3,4,5,6,7,7,8,8,9,10,11,12,13,14,15,15,16,17,17,18,18,18,18,18,18,18,18,18
participant_7_MINIONSKILLED,0,0,2,3,5,6,6,6,6,7,7,7,10,10,16,19,21,21,29,29,29,29,29,32,36,39,41,41,41
participant_7_KILLS,0,0,0,0,0,0,0,0,0,0,2,4,4,5,7,8,8,10,12,13,14,14,16,16,16,21,21,22,22
participant_7_BUY,[],"[3134, 2003, 2003, 2003, 2003, 2003]",[1001],[1036],[],[3133],[],"[1053, 1036]",[],[6692],[],[],[],"[3004, 3111]",[],"[3134, 1028, 1036]",[],[3814],[],"[3123, 3133]",[6609],[1036],[],[],[],[],"[6694, 2140]",[],[]
participant_7_SOLD,[],[2003],"[2052, 2003]",[],"[2003, 2003, 2003]",[1036],[],[],[],"[3134, 1036, 1053]",[],[],[2052],"[3133, 1001]",[],[],[],"[1036, 3134, 1028]",[],[],"[3123, 3133]",[],[3004],[],[],[],"[1036, 2140]",[],[]
participant_7_UNDO,[],[],[],[],[],[],[],[],[],[],[],[],[],[],[],[],[],[],[],[],[],[],[],[],[],[],[],[],[]
participant_8_GOLD,1400,1400,2027,2528,3651,4081,4492,5020,5592,6079,6731,7234,7699,8184,8589,8949,9469,9991,10537,11026,11398,11853,12355,13759,14303,14777,15400,16476,16914
participant_8_CURRENTGOLD,1400,0,627,1128,2251,96,507,1035,1607,2094,2746,1384,1849,2334,389,749,1269,1791,1037,1526,598,1053,1555,2959,3503,177,800,1876,2314
participant_8_LEVEL,1,3,4,5,6,7,7,8,9,10,11,12,13,14,14,14,15,16,17,17,18,18,18,18,18,18,18,18,18
participant_8_MINIONSKILLED,0,0,0,1,3,3,4,4,6,8,9,10,11,13,13,13,15,19,19,21,21,22,24,28,31,31,31,31,31
participant_8_KILLS,0,0,1,1,3,3,3,3,3,3,3,3,3,3,3,3,3,3,3,3,3,3,3,4,4,4,5,7,7
participant_8_BUY,[],"[3112, 3070, 2003]",[],[],[],"[3802, 1026, 1052]",[],[],[],[],[],"[4628, 6655, 3145]",[],[],"[4628, 1028]",[],[],[],"[3067, 3108]",[],[4629],[],[],[],[],[3089],[],[],[]
participant_8_SOLD,[],[],[2003],[],[],[],[],[],[],[],[],"[1052, 3802, 1026, 1052]",[],[],[3145],[],[],[],[1028],[],"[3108, 3067]",[],[],[],[],[],[],[],[]
participant_8_UNDO,[],[],[],[],[],[],[],[],[],[],[],"[[0, 4628]]",[],[],[],[],[],[],[],[],[],[],[],[],[],[],[],[],[]
participant_9_GOLD,1400,1400,1878,2360,3356,3854,4449,5331,6599,7046,7870,8787,9147,10074,10701,11134,12515,13229,13786,14291,14935,15513,16157,17101,17556,18274,18826,19569,20057
participant_9_CURRENTGOLD,1400,0,43,525,1521,354,949,1831,299,746,270,1187,312,39,666,234,1615,629,1186,1691,600,713,1357,2301,2756,3474,196,939,657
participant_9_LEVEL,1,3,4,5,6,7,8,8,10,10,11,12,12,13,14,14,16,16,17,17,18,18,18,18,18,18,18,18,18
participant_9_MINIONSKILLED,0,0,3,7,9,14,22,28,33,36,42,46,46,46,52,53,56,56,62,66,71,75,81,88,89,92,95,104,105
participant_9_KILLS,0,0,0,0,1,1,1,2,4,4,4,5,5,7,7,7,11,12,12,12,12,12,12,13,13,13,13,13,13
participant_9_BUY,[],"[3802, 2003, 2003]",[1052],[],[],"[3108, 6653]",[],[],"[1058, 1058, 1001]",[],[3089],[],"[3020, 1052]","[3108, 1052, 1029]",[],[3157],[],"[3108, 3067]",[],[],"[4629, 1052]",[3108],[],[],[],[],"[3102, 4637]",[],[]
participant_9_SOLD,[],"[2003, 2003]",[],[],[],"[1052, 3802, 3108]",[],[],[],[],"[1058, 1058]",[],[1001],[1052],[],"[1052, 1029, 3108]",[],[],[],[],"[3108, 3067]",[1052],[],[],[],[],"[3108, 3020]",[],[]
participant_9_UNDO,[],[],[],[],[],[],[],[],[],[],[],[],[],[],[],[],[],[],[],[],[],[],[],[],[],[],[],[],[]
team0_KILLS,0,0,3,4,6,11,12,13,14,18,19,22,23,28,29,32,34,38,38,39,46,48,49,49,49,52,54,56,57
team0_CURRENTGOLD,7000,10,2916,5624,3042,5855,8450,9040,1780,5474,3691,6564,2841,4775,2584,5280,3267,5475,4192,6104,10151,9059,11887,7902,10684,8881,10265,11271,6782
team0_TOTALGOLD,7000,7010,9916,12624,15242,19355,21950,24590,27565,31259,33961,37849,40526,46360,48879,52825,56277,60635,62652,65854,71501,74559,77387,79647,82430,85727,89660,93217,94267
team0_LEVEL,5,15,20,25,30,36,39,43,45,50,54,58,60,65,68,72,74,78,80,82,88,88,90,90,90,90,90,90,90
team0_SBIRES,0,1,6,16,19,34,46,59,71,88,99,111,122,135,145,156,164,171,180,193,204,213,232,241,262,269,296,307,307
team1_KILLS,0,0,1,1,6,7,7,9,12,12,16,21,21,25,27,28,32,35,37,39,41,43,46,48,48,53,55,60,60
team1_CURRENTGOLD,7000,50,1775,3873,6784,2444,4829,6567,7214,3737,6893,8687,7650,4770,3716,2589,6227,4346,6520,7364,3035,3180,6409,10614,13211,10203,5192,9241,10156
team1_TOTALGOLD,7000,7000,9460,11908,16019,18429,20814,23802,27249,29522,33978,37637,39835,43155,46001,48189,51827,54821,58295,61039,63670,66680,69909,74414,77011,80903,83572,87621,89866
team1_LEVEL,5,15,20,25,30,35,37,40,45,49,54,58,61,65,68,70,74,78,83,83,88,88,89,89,90,90,90,90,90
team1_SBIRES,0,0,9,21,33,41,53,61,71,81,96,104,113,118,130,135,153,162,183,194,201,218,234,258,275,285,293,312,316
delta_KILLS,0,0,2,3,0,4,5,4,2,6,3,1,2,3,2,4,2,3,1,0,5,5,3,1,1,-1,-1,-4,-3
delta_CURRENTGOLD,0,-40,1141,1751,-3742,3411,3621,2473,-5434,1737,-3202,-2123,-4809,5,-1132,2691,-2960,1129,-2328,-1260,7116,5879,5478,-2712,-2527,-1322,5073,2030,-3374
delta_TOTALGOLD,0,10,456,716,-777,926,1136,788,316,1737,-17,212,691,3205,2878,4636,4450,5814,4357,4815,7831,7879,7478,5233,5419,4824,6088,5596,4401
delta_LEVEL,0,0,0,0,0,1,2,3,0,1,0,0,-1,0,0,2,0,0,-3,-1,0,0,1,1,0,0,0,0,0
delta_SBIRES,0,1,-3,-5,-14,-7,-7,-2,0,7,3,7,9,17,15,21,11,9,-3,-1,3,-5,-2,-17,-13,-16,3,-5,-9
