name,frame_0,frame_1,frame_2,frame_3,frame_4,frame_5,frame_6,frame_7,frame_8,frame_9,frame_10,frame_11,frame_12,frame_13,frame_14,frame_15,frame_16,frame_17,frame_18,frame_19,frame_20,frame_21,frame_22
nameStamp,Tstart,Tearly,Tearly,Tearly,Tearly,Tearly,Tearly,Tearly,Tearly,Tearly,Tearly,Tearly,Tearly,Tearly,Tmid,Tmid,Tmid,Tmid,Tmid,Tmid,Tmid,Tmid,Tmid
timestamp,0,60023,120049,180082,240106,300108,360132,420151,480170,540189,600193,660226,720256,780273,840301,900312,960338,1020342,1080374,1140407,1200416,1260449,1320449
participant_0_GOLD,500,500,584,878,1078,1669,1956,2312,2608,2731,2993,3193,3893,4281,6075,6492,6743,7089,8130,8770,9283,10174,10196
participant_0_CURRENTGOLD,500,50,134,428,628,44,331,687,983,406,668,868,1568,456,2250,417,668,1014,2055,2695,658,1549,1571
participant_0_LEVEL,1,1,1,3,4,5,6,7,8,8,8,9,10,10,11,11,12,12,13,13,14,14,14
participant_0_MINIONSKILLED,0,0,3,11,15,18,28,39,46,46,54,58,63,66,78,78,81,90,106,117,126,130,130
participant_0_KILLS,0,0,0,0,0,1,1,1,1,1,1,1,2,2,4,5,5,5,6,7,8,10,10
participant_0_BUY,[],[1054],[],[],[],"[3044, 2055]",[],[],[],[3057],[],[],[],[6632],[],"[3133, 3067, 1036]",[],[],[],[],"[3071, 3047, 1028]",[],[]
participant_0_SOLD,[],[],[],[],[],[],[2055],[],[],[],[],[],[],"[3044, 3057]",[],[],[],[],[],[],"[3133, 3067, 1036]",[],[]
participant_0_UNDO,[],[],[],[],[],[],[],[],[],[],[],[],[],[],[],[],[],[],[],[],[],[],[]
participant_1_GOLD,500,500,621,1033,1318,1517,1745,2027,2384,2740,3045,3238,3820,4190,4632,5097,6224,6771,7280,7638,8014,8598,8620
participant_1_CURRENTGOLD,500,0,121,533,818,1017,1245,227,584,940,795,988,1570,190,632,1097,2224,2771,3280,838,1214,1798,1820
participant_1_LEVEL,1,1,2,3,4,4,4,5,5,6,7,7,8,8,9,9,10,11,11,12,12,13,13
participant_1_MINIONSKILLED,0,0,0,0,0,0,0,0,0,2,2,2,2,2,2,2,2,2,5,5,7,8,8
participant_1_KILLS,0,0,0,0,0,0,0,1,1,2,2,4,4,4,5,5,6,6,7,7,7,8,8
participant_1_BUY,[],"[1056, 2003, 2003, 3340]",[],[],[],[],[],"[1052, 1027, 2003, 2003, 2055]",[],[],"[1001, 3802, 2003, 2003]",[],"[1026, 3020, 2003]",[],[],[],[],[6655],[],[],"[4632, 1052]",[],[]
participant_1_SOLD,[],[],[],[],[],[],"[2003, 2003]",[],"[2003, 2003]",[],"[1052, 1027]",[2003],[1001],"[2003, 2003]",[],[],[2055],"[3802, 1026]",[],[],[],[],[]
participant_1_UNDO,[],[],[],[],[],[],[],[],[],[],[],[],[],[],[],[],[],[],[],[],[],[],[]
participant_2_GOLD,500,500,535,797,1011,1315,1574,2150,2328,2907,3113,4054,4232,4489,4936,5184,5659,5955,6727,7101,7265,8317,8339
participant_2_CURRENTGOLD,500,0,35,297,511,805,1054,670,848,1417,708,1649,127,384,831,1079,1554,600,1372,1746,275,1327,1379
participant_2_LEVEL,1,1,1,3,4,5,6,6,7,8,8,9,9,9,10,10,11,12,12,12,12,13,13
participant_2_MINIONSKILLED,0,0,1,9,14,21,26,35,38,44,48,53,56,61,61,64,72,78,79,87,89,99,99
participant_2_KILLS,0,0,0,0,0,0,0,1,2,2,2,3,4,4,4,4,4,4,4,5,5,5,5
participant_2_BUY,[],"[3850, 3340, 2003, 2003]",[],[],[],[],[1052],[3802],[],[1026],[],[],[],"[6655, 3020]",[3364],[],[3108],[],[],[],[3102],[],[]
participant_2_SOLD,[],[],[],[],[],"[2010, 2010]",[],[1052],[],[],[3850],[],[2003],"[3802, 1026]",[3340],[2003],[],[],[3851],[],[3108],[],[]
participant_2_UNDO,[],[],[],[],[],[],[],[],[],[],[],[],[],[],[],[],[],[],[],[],[],[],[]
participant_3_GOLD,500,500,542,769,997,1182,1305,1973,2322,2884,3512,3736,4220,4930,5145,5449,5611,6114,6633,7578,7700,8097,8120
participant_3_CURRENTGOLD,500,0,42,269,497,682,230,248,597,1159,1787,2011,2495,3205,320,24,186,689,1208,2153,275,672,695
participant_3_LEVEL,1,1,1,2,3,4,4,4,5,6,6,7,8,8,8,8,9,9,10,11,11,11,11
participant_3_MINIONSKILLED,0,0,1,7,13,17,17,18,23,36,43,46,52,58,60,71,71,79,88,96,96,96,96
participant_3_KILLS,0,0,0,0,0,0,0,1,1,1,2,2,2,2,2,2,2,2,2,4,4,4,4
participant_3_BUY,[],"[1055, 2003, 3340]",[],[],[],[],"[2031, 2055, 1036]","[1036, 1042]",[],[],[],[],[],[],"[6672, 1018, 2015]",[1018],[],[],[],[],"[3094, 1001, 1042]",[],[]
participant_3_SOLD,[],[],[],[2003],[],[],[],[],[2055],[],[],[],[],[],"[1036, 1042, 1036]",[],[],[],[],[],"[1018, 2015]",[],[]
participant_3_UNDO,[],[],[],[],[],[],[],[],[],[],[],[],[],[],"[[0, 1018]]",[],[],[],[],[],[],[],[]
participant_4_GOLD,500,500,543,691,880,1217,1352,2166,2660,2795,3261,3978,4576,5348,5539,5679,6179,6383,6833,7666,7876,8516,8542
participant_4_CURRENTGOLD,500,0,43,191,380,717,417,366,860,145,611,1328,1926,348,539,679,279,483,933,1766,376,1016,1042
participant_4_LEVEL,1,1,1,2,3,3,3,4,4,5,5,6,7,7,7,7,7,8,8,9,10,10,10
participant_4_MINIONSKILLED,0,0,0,1,2,3,3,3,3,3,3,4,6,8,8,8,8,12,12,15,15,16,16
participant_4_KILLS,0,0,0,0,0,0,0,0,0,0,0,0,1,1,1,1,4,5,5,5,5,5,5
participant_4_BUY,[],"[1039, 2031, 3340]",[],[],[],[],[],"[6660, 1029]",[],[],[1033],[],[],"[3068, 1001]",[],[],[],[],[],"[3047, 3066, 1031, 1028]",[],[],[]
participant_4_SOLD,[],[],[],[],[],[],[],[],[],[],[],[1039],[],"[6660, 1033, 1029]",[],[],[],[],[],[1001],[3340],[3513],[]
participant_4_UNDO,[],[],[],[],[],[],[],[],[],[],[],[],[],[],[],[],[],[],[],[],[],[],[]
participant_5_GOLD,500,500,542,692,903,1025,1239,1389,1636,2203,2325,2532,2703,2846,2969,3352,3545,3786,3922,4066,4341,4610,4632
participant_5_CURRENTGOLD,500,0,42,192,403,75,289,439,686,1253,75,282,53,146,269,652,845,1086,122,66,341,310,332
participant_5_LEVEL,1,1,1,2,4,4,5,5,6,7,7,8,8,8,8,9,9,10,10,10,10,11,11
participant_5_MINIONSKILLED,0,0,1,3,6,6,11,13,18,28,28,34,37,38,38,46,50,58,59,60,65,69,69
participant_5_KILLS,0,0,0,0,0,0,0,0,0,0,0,0,0,0,0,0,0,0,0,0,0,0,0
participant_5_BUY,[],"[1055, 2003]",[],[],[],"[1028, 2003]",[],[],[],[],"[6029, 2003, 2003]",[],[3067],[2003],[],[],[],[],[3044],[6630],[],[1029],[]
participant_5_SOLD,[],[],[],[2003],[],[],[],[2003],[],[],[],"[2003, 2003]",[1028],[],[2003],[],[],[],[],"[6029, 3044, 3067]",[],[],[]
participant_5_UNDO,[],[],[],[],[],[],[],[],[],[],[],[],[],[],[],[],[],[],[],[],[],[],[]
participant_6_GOLD,500,500,598,892,1120,1511,1861,1983,2565,2816,2938,3206,3405,3527,3829,4450,4746,4868,5046,5253,5745,5938,5974
participant_6_CURRENTGOLD,500,0,98,392,620,1011,61,183,415,666,788,1056,705,827,1129,1150,1446,1568,346,253,745,38,74
participant_6_LEVEL,1,1,1,2,3,4,5,5,6,6,6,7,7,7,8,8,8,9,9,9,10,10,10
participant_6_MINIONSKILLED,0,0,4,11,17,22,26,26,32,36,36,41,45,45,52,55,57,57,60,65,76,80,81
participant_6_KILLS,0,0,0,0,0,0,0,0,1,1,1,1,1,1,1,2,2,2,2,2,2,2,2
participant_6_BUY,[],"[1055, 2003, 3340]",[],[],[],[],[6670],[],[1036],[],[],[],[1053],[],[],[1018],[],[],"[6673, 3006]",[1042],[],[3086],[]
participant_6_SOLD,[],[],[],[],[2003],[],[],[],[],[],[],[],[1036],[],[],[],[],[],"[6670, 1018, 1053, 2422]",[],[],[1042],[]
participant_6_UNDO,[],[],[],[],[],[],[],[],[],[],[],[],[],[],[],[],[],[],[],[],[],[],[]
participant_7_GOLD,500,500,570,920,1141,1480,1645,1945,2339,2518,2815,2952,3137,3385,3658,3990,4113,4249,4636,4759,5062,5206,5228
participant_7_CURRENTGOLD,500,0,70,410,631,960,1125,125,509,388,685,822,157,405,678,1010,1133,1269,406,529,32,176,228
participant_7_LEVEL,1,1,1,3,4,5,6,6,7,7,8,8,9,9,9,10,10,10,10,10,11,11,11
participant_7_MINIONSKILLED,0,0,3,14,20,30,33,35,49,52,62,63,67,75,75,84,84,85,96,96,102,103,103
participant_7_KILLS,0,0,0,0,0,0,0,1,1,2,2,2,2,2,2,2,3,3,3,3,3,3,3
participant_7_BUY,[],"[1039, 3340, 2031]",[],[],[],"[1052, 1052]",[],[3145],[],[1026],[],[],[],[],[3057],[],[3152],[],[],[],[],[],[]
participant_7_SOLD,[],[],[],[],[],[],[],"[1052, 1052]",[],[],[],[],[],[],[],[],"[3145, 1026]",[],[1039],[],[],[],[]
participant_7_UNDO,[],[],[],[],[],[],[],[],[],[],[],[],[],[],[],[],[],[],[],[],[],[],[]
participant_8_GOLD,500,500,621,878,1086,1308,1431,1853,1975,2412,2634,2757,3044,3235,3358,3630,4353,4475,4718,4876,4998,5436,5458
participant_8_CURRENTGOLD,500,0,121,378,586,-112,11,253,375,-88,134,257,544,735,158,430,-147,-75,168,326,448,886,1058
participant_8_LEVEL,1,1,2,2,3,3,3,3,4,4,4,4,5,5,6,6,6,6,7,7,7,9,9
participant_8_MINIONSKILLED,0,0,0,0,0,0,0,0,0,1,1,1,4,4,4,4,4,4,5,7,7,17,17
participant_8_KILLS,0,0,0,0,0,0,0,0,0,0,0,0,0,0,0,0,0,0,0,0,0,0,0
participant_8_BUY,[],"[1056, 2003, 2003]",[],[],[],[],[],[3802],[],[1001],[],[],[1026],[],[],[],[],[],[6655],[],[3020],[],[]
participant_8_SOLD,[],[],[],[],[],[],[],[],"[2003, 2010]",[],[],[2003],[],"[2010, 2010]",[],[],[],[],"[3802, 1026]",[],[1001],[],[]
participant_8_UNDO,[],[],[],[],[],[],[],[],[],[],[],[],[],[],[],[],[],[],[],[],[],[],[]
participant_9_GOLD,500,500,523,717,866,1391,1826,1960,2108,2353,2487,2621,2756,2890,3755,3973,4182,4331,4468,4609,4798,4952,4978
participant_9_CURRENTGOLD,500,0,23,217,366,891,-24,110,258,503,187,-129,6,140,1005,1223,-118,-19,118,259,448,-198,-22
participant_9_LEVEL,1,1,1,2,3,4,4,4,4,5,5,5,5,6,6,7,7,7,8,8,8,9,9
participant_9_MINIONSKILLED,0,0,0,1,2,5,5,5,6,8,8,8,8,8,9,10,10,11,11,11,14,15,15
participant_9_KILLS,0,0,0,0,0,1,2,2,2,2,2,2,2,2,3,3,3,3,3,3,3,3,3
participant_9_BUY,[],"[3858, 3340, 2003, 2003]",[],[],[],[],"[3117, 1029]",[],[],[],[1033],[1028],[],[],[],[],[3190],[],[],[],[],[3067],[]
participant_9_SOLD,[],[],[],[],[],"[2003, 2003]",[],[],[],[],[],[],[],[],[],[],"[1028, 1033, 1029]",[],[3858],[],[],[],[]
participant_9_UNDO,[],[],[],[],[],[],[],[],[],[],[],[],[],[],[],[],[],[],[],[],[],[],[]
team0_KILLS,0,0,0,0,0,1,1,4,5,6,7,10,13,13,16,17,21,22,24,28,29,32,32
team0_CURRENTGOLD,2500,50,375,1718,2834,3265,3277,2198,3872,4067,4569,6844,7686,4583,4572,3296,4911,5557,8848,9198,2798,6362,6507
team0_TOTALGOLD,2500,2500,2825,4168,5284,6900,7932,10628,12302,14057,15924,18199,20741,23238,26327,27901,30416,32312,35603,38753,40138,43702,43817
team0_LEVEL,5,5,6,13,18,21,23,26,29,33,34,38,42,42,45,45,49,52,54,57,59,61,61
team0_SBIRES,0,0,5,28,44,59,74,95,110,131,150,163,179,195,209,223,234,261,290,320,333,349,349
team1_KILLS,0,0,0,0,0,1,2,3,4,5,5,5,5,5,6,7,8,8,8,8,8,8,8
team1_CURRENTGOLD,2500,0,354,1589,2606,2825,1462,1110,2243,2722,1869,2288,1465,2253,3239,4465,3159,3829,1160,1433,2014,1212,1670
team1_TOTALGOLD,2500,2500,2854,4099,5116,6715,8002,9130,10623,12302,13199,14068,15045,15883,17569,19395,20939,21709,22790,23563,24944,26142,26270
team1_LEVEL,5,5,6,11,17,20,23,23,27,29,30,32,34,35,37,40,40,42,44,44,46,50,50
team1_SBIRES,0,0,8,29,45,63,75,79,105,125,135,147,161,170,178,199,205,215,231,239,264,284,285
delta_KILLS,0,0,0,0,0,0,-1,1,1,1,2,5,8,8,10,10,13,14,16,20,21,24,24
delta_CURRENTGOLD,0,50,21,129,228,440,1815,1088,1629,1345,2700,4556,6221,2330,1333,-1169,1752,1728,7688,7765,784,5150,4837
delta_TOTALGOLD,0,0,-29,69,168,185,-70,1498,1679,1755,2725,4131,5696,7355,8758,8506,9477,10603,12813,15190,15194,17560,17547
delta_LEVEL,0,0,0,2,1,1,0,3,2,4,4,6,8,7,8,5,9,10,10,13,13,11,11
delta_SBIRES,0,0,-3,-1,-1,-4,-1,16,5,6,15,16,18,25,31,24,29,46,59,81,69,65,64
