name,team0,team1
win,Win,Fail
firstBlood,False,True
firstTower,True,False
firstInhibitor,True,False
firstBaron,False,False
firstDragon,True,False
firstRiftHerald,True,False
towerKills,10,2
inhibitorKills,2,0
baronKills,0,0
dragonKills,2,2
riftHeraldKills,2,0
