name,frame_0,frame_1,frame_2,frame_3,frame_4,frame_5,frame_6,frame_7,frame_8,frame_9,frame_10,frame_11,frame_12,frame_13,frame_14,frame_15,frame_16,frame_17,frame_18,frame_19,frame_20,frame_21,frame_22,frame_23,frame_24,frame_25
nameStamp,Tstart,Tearly,Tearly,Tearly,Tearly,Tearly,Tearly,Tearly,Tearly,Tearly,Tearly,Tearly,Tearly,Tearly,Tearly,Tearly,Tmid,Tmid,Tmid,Tmid,Tmid,Tmid,Tmid,Tmid,Tmid,Tend
timestamp,0,60026,120051,180104,240130,300147,360154,420172,480197,540223,600242,660258,720276,780287,840290,900313,960318,1020341,1080349,1140351,1200370,1260394,1320411,1380445,1440473,1500473
participant_0_GOLD,500,500,584,720,1071,1375,1708,2008,2402,2546,3221,3461,4024,4209,4367,5379,5771,5977,6199,6671,6908,7081,7684,7959,8305,8448
participant_0_CURRENTGOLD,500,0,84,220,571,875,1208,108,502,246,921,61,624,809,234,1246,438,244,466,38,275,48,651,126,72,215
participant_0_LEVEL,1,1,1,2,4,5,6,6,7,7,8,9,9,10,10,10,11,11,11,12,12,12,13,13,13,13
participant_0_MINIONSKILLED,0,0,3,4,15,23,35,43,56,57,67,70,83,86,88,88,100,105,105,121,128,128,148,152,161,165
participant_0_KILLS,0,0,0,0,0,0,0,0,2,2,4,4,4,4,4,4,5,5,6,6,6,6,6,7,7,7
participant_0_BUY,[],"[1039, 3340, 2031, 3364]",[],[],[],"[3057, 2055]",[],[],[],[],"[3044, 3067, 1001, 2055]",[],[6632],"[3047, 2055]",[],[],[],"[3133, 1029, 2055, 2055]",[],[],[1031],[6333],[],[],"[3044, 2055, 2055]",[]
participant_0_SOLD,[],[3340],[],[],[],[],[],[2055],[1039],[],[],[2055],"[3044, 3057, 3067]","[1001, 2055]",[],[],[],[],[],[2055],[1029],"[1031, 3133]",[2055],[],[],[]
participant_0_UNDO,[],[],[],[],[],[],[],[],[],[],[],[],[],[],[],[],[],[],[],[],[],[],[],[],[],[]
participant_1_GOLD,500,500,628,1048,1348,1605,2003,2150,3297,3795,4581,4799,5156,5294,5458,5823,6576,6941,7889,8081,8324,8516,8932,9704,9826,10032
participant_1_CURRENTGOLD,500,0,128,548,848,330,728,875,2022,2520,1031,1249,906,169,333,698,1451,266,1214,1406,1149,141,557,1329,201,407
participant_1_LEVEL,1,1,2,3,4,4,5,6,6,7,8,8,9,9,9,9,10,11,11,11,12,12,12,13,13,13
participant_1_MINIONSKILLED,0,0,0,0,0,0,0,0,0,0,0,3,3,4,7,10,10,12,17,17,18,18,21,23,23,23
participant_1_KILLS,0,0,0,0,0,0,0,0,0,0,0,0,0,0,0,0,1,1,1,1,1,1,1,1,1,1
participant_1_BUY,[],"[1055, 2003, 3340]",[],[],[],[1053],[],[],"[1036, 1036, 1042, 2003]",[],[],"[6670, 1018, 2055]",[],[],"[6673, 2055]",[],[3006],[],[],[3086],[],[],[],[],[],"[3085, 2055, 3363]"
participant_1_SOLD,[],[],[],[],[2003],[],[],[],[],[],[],"[1036, 1042, 1036]",[],[2055],"[6670, 1018, 1053]",[],[2003],[],[],[2055],[],[],[],[],[],"[1055, 3086, 3340]"
participant_1_UNDO,[],[],[],[],[],[],[],[],[],[],[],[],[],[],[],[],[],[],[],[],[],[],[],[],[],[]
participant_2_GOLD,500,500,584,955,1134,1277,1606,1861,2165,2472,2863,3215,3556,3839,3962,4834,5100,5487,6005,6478,6614,7211,7495,7647,7994,8074
participant_2_CURRENTGOLD,500,0,84,445,139,132,451,226,530,272,663,205,546,829,102,974,1240,1627,770,1243,204,801,1085,772,379,249
participant_2_LEVEL,1,1,1,3,3,4,5,6,6,7,7,8,9,9,9,10,10,10,11,11,11,12,12,12,12,12
participant_2_MINIONSKILLED,0,0,3,15,18,19,28,36,41,49,56,66,78,87,87,87,91,102,107,107,108,114,118,119,123,123
participant_2_KILLS,0,0,0,0,0,0,0,0,0,0,1,1,1,1,1,2,2,2,2,2,2,2,2,2,2,2
participant_2_BUY,[],"[1054, 2003, 3340]",[],[],[],[],[],"[3051, 1001]",[],[1028],[],"[3057, 3067]",[],[],[3078],[],"[3111, 1028]",[3066],[],[1057],[],[1028],[],[4401],[1028],[]
participant_2_SOLD,[],[],[],[],[],[2003],[],[],[],[],[],[1028],[],[],"[3057, 3051, 3067]",[],[1001],[1028],[],[],[],[],[],"[1057, 1028, 3066]",[],[]
participant_2_UNDO,[],[],[],[],[],[],[],[],[],[],[],[],[],[],[],[],[],[],[],[],[],[],[],[],[],[]
participant_3_GOLD,500,500,563,969,1204,1494,1771,2190,2544,2830,3316,3515,3905,4162,4434,4704,5401,5733,6509,6875,7096,7288,7739,8008,8466,8547
participant_3_CURRENTGOLD,500,0,63,469,704,94,371,790,94,380,866,90,480,737,334,604,201,533,1309,475,696,888,1339,1608,2066,-128
participant_3_LEVEL,1,1,1,2,3,4,4,5,5,6,6,6,7,7,7,8,9,9,9,10,10,10,11,11,12,12
participant_3_MINIONSKILLED,0,0,2,16,22,29,38,52,54,60,66,71,83,90,90,95,101,109,121,127,133,133,148,157,167,167
participant_3_KILLS,0,0,0,0,0,0,0,0,0,0,0,0,0,0,1,1,1,1,1,1,1,1,1,1,1,1
participant_3_BUY,[],"[3858, 2003, 2003, 3340]",[],[],"[1001, 2055]",[],[],[],"[3067, 2055]",[],[],"[1052, 2055, 3364]",[],[],"[4642, 2055]",[],[4005],[],[],"[3158, 1004]",[],[],"[3114, 2055]",[],[],[2055]
participant_3_SOLD,[],[],[],[],[],[],[2055],[],"[2003, 2003]",[3858],[2055],[3340],[],[],[1052],[],"[3067, 4642]",[],[3859],[1001],[],[2055],[1004],[],[2055],[]
participant_3_UNDO,[],[],[],[],[],[],[],[],[],[],[],[],[],[],[],[],[],[],[],[],[],[],[],[],[],[]
participant_4_GOLD,500,500,544,759,915,1133,1310,1531,1815,2073,2282,2452,2713,2904,3345,3485,3847,4135,4740,4931,5101,5241,5382,5522,5693,5785
participant_4_CURRENTGOLD,500,0,44,259,40,258,435,656,65,323,532,193,453,644,395,535,48,335,940,281,451,592,107,247,418,435
participant_4_LEVEL,1,1,1,2,3,3,4,5,5,5,6,6,6,7,7,7,7,8,9,9,9,9,10,10,10,10
participant_4_MINIONSKILLED,0,0,1,3,4,6,8,10,10,13,13,14,17,19,19,19,22,26,27,27,28,28,28,28,29,29
participant_4_KILLS,0,0,0,0,0,0,0,0,0,0,0,0,0,0,0,1,1,1,1,2,2,3,3,3,3,3
participant_4_BUY,[],"[1056, 2003, 2003, 3340]",[],[],"[1052, 2003]",[2031],[],"[1052, 2055]",[],"[3145, 1001, 2055]",[],[3111],[],[],"[1026, 3364]",[],[],[],"[4636, 2055]",[],"[3916, 1052]",[],[],[3191],[3108],[]
participant_4_SOLD,[],[],[],[],"[2003, 2010, 2003]","[2010, 2003]",[],[2010],[2055],"[1052, 1052]",[],[1001],[],"[2419, 2055]",[3340],[2423],[],[],"[3145, 1026, 2055]",[],[2031],[],[],[1052],[1056],[]
participant_4_UNDO,[],[],[],[],[],[],[],[],[],[],[],[],[],[],[],[],[],[],[],[],[],[],[],[],[],[]
participant_5_GOLD,500,500,584,983,1211,1592,1942,2169,2514,2805,3171,3586,4079,4411,4946,5649,5828,6170,6572,6828,7105,7475,7934,8078,8500,8953
participant_5_CURRENTGOLD,500,0,84,483,711,1092,1442,1669,114,405,371,786,254,586,21,724,53,395,362,218,495,375,834,163,75,368
participant_5_LEVEL,1,1,1,3,4,5,6,6,7,8,8,9,9,10,11,11,11,12,12,12,13,13,13,13,14,14
participant_5_MINIONSKILLED,0,0,3,17,23,36,46,52,62,72,77,91,100,112,119,129,132,141,150,158,164,166,176,177,177,181
participant_5_KILLS,0,0,0,0,1,2,2,2,2,2,2,2,2,2,5,5,5,5,6,9,9,9,9,9,9,10
participant_5_BUY,[],"[1055, 2003]",[],[],[],[],"[6670, 1036, 2055, 2031]",[],[1053],[],[],[],[],"[6673, 1001]",[],[],"[3006, 3134, 2055]",[],"[1037, 3363]",[],[],[],"[6676, 1038, 1053]",[],[],[]
participant_5_SOLD,[],[],[],[],[],[2003],[],[],[1036],[],[],[],[],"[6670, 1053, 2055]",[],[],"[1001, 2055]",[],[3340],[],[],[],"[3134, 1037, 2031]",[],[],[]
participant_5_UNDO,[],[],[],[],[],[],[],[],[],[],[],[],[],[],[],[],[],[],[],[],[],[],[],[],[],[]
participant_6_GOLD,500,500,606,1013,1359,2431,2610,2817,3044,3352,4098,4253,4625,4877,5684,5907,6824,7047,7576,7934,8297,9132,9466,9588,10035,10501
participant_6_CURRENTGOLD,500,0,106,513,859,1931,2110,467,4,312,1058,1213,235,487,1294,367,84,232,761,1119,282,1117,351,473,45,451
participant_6_LEVEL,1,1,2,3,3,4,5,5,6,6,7,7,8,8,9,9,10,10,10,11,12,12,12,12,13,14
participant_6_MINIONSKILLED,0,0,0,0,0,0,3,3,3,3,4,4,4,4,8,8,12,12,15,16,16,20,20,20,20,20
participant_6_KILLS,0,0,0,0,0,0,0,0,0,0,0,0,0,0,1,1,1,1,1,1,1,1,1,1,1,2
participant_6_BUY,[],"[1056, 2003, 2003]",[],[],[],[],[],[],"[3145, 1026]",[],[1028],[],"[4636, 2055, 2003]",[],[3020],[],[1026],[],[1052],[1028],[],"[1011, 2055, 2055]",[],[4637],"[1052, 2055]",[]
participant_6_SOLD,[],[],[],[],[],[],[2003],[],[],[],[2003],[],"[3145, 1028, 1026]",[2055],[2003],[],[],[],[],[],[],"[1028, 1056]",[2055],"[1026, 1011, 1052, 2055]",[],[]
participant_6_UNDO,[],[],[],[],[],[],[],[],[],[],[],[],[],[],[],[],[],[],[],[],[],[],[],[],[],[]
participant_7_GOLD,500,500,605,969,1553,2385,2627,2903,3342,3813,4133,4605,4945,5238,5996,6324,6722,7019,7317,7469,8114,9220,9524,9894,10359,10764
participant_7_CURRENTGOLD,500,0,105,459,1043,1865,7,283,722,1193,1513,1985,65,358,1116,1444,592,889,97,249,894,2000,204,274,739,1014
participant_7_LEVEL,1,1,1,3,4,5,6,7,7,8,9,9,10,10,11,11,11,12,12,12,13,13,13,13,14,14
participant_7_MINIONSKILLED,0,0,5,16,25,38,45,54,63,74,85,96,105,114,119,125,137,143,150,151,162,166,170,172,175,176
participant_7_KILLS,0,0,0,0,1,2,2,2,2,2,2,2,2,2,3,3,3,3,3,3,4,6,6,7,7,8
participant_7_BUY,[],"[1056, 2003, 2003, 3340]",[],[],[],[],"[3802, 1082, 1001, 2055, 2055]",[],[],[],[],[],"[6655, 2055, 2055, 3363]",[],[],[],[1058],[],[1058],[],[],[],"[3089, 3020]",[1029],[],[]
participant_7_SOLD,[],[],[],[],"[2010, 2003, 2003]",[2010],[],[2055],[],[],"[2055, 2010]",[],"[3802, 3340]",[2055],[],[],[],[],[1056],[2055],[],[],"[1058, 1058, 1001]",[],[],[]
participant_7_UNDO,[],[],[],[],[],[],[],[],[],[],[],[],[],[],[],[],[],[],[],[],[],[],[],[],[],[]
participant_8_GOLD,500,500,612,962,1695,2391,2541,2855,3082,3556,3894,4093,4500,4773,6365,6672,6979,7102,7744,9230,9900,10445,10667,10944,11451,11936
participant_8_CURRENTGOLD,500,0,112,462,1195,1891,166,480,157,631,969,1168,1575,348,1940,2247,579,702,469,1955,2625,3170,228,504,1011,1436
participant_8_LEVEL,1,1,1,2,3,4,4,5,5,6,6,7,7,7,8,8,9,9,9,10,11,11,11,12,13,13
participant_8_MINIONSKILLED,0,0,5,15,27,37,39,47,53,71,79,83,96,101,107,112,112,112,112,124,134,137,137,146,146,146
participant_8_KILLS,0,0,0,0,0,2,2,2,2,2,3,3,3,3,4,4,6,6,6,6,6,7,7,7,7,8
participant_8_BUY,[],"[1039, 2031, 3340]",[],[],[],[],[],"[6029, 1001, 1036]","[1028, 3044]",[],[],[],"[6630, 1036]",[],[],"[3047, 1036]","[1031, 3133]","[2055, 3364]",[],[],[6333],[],[3044],[],[1037],[]
participant_8_SOLD,[],[],[],[],[],[],[],[],"[2031, 1028, 1036]",[],[],[],"[6029, 3044]",[1039],[],[1001],"[1036, 1036]","[3340, 3364, 3513]",[],[2055],"[1031, 3133]",[],[],[],[],[]
participant_8_UNDO,[],[],[],[],[],[],[],[],[],[],[],[],[],[],[],[],[],[],[],[],[],[],[],[],[],[]
participant_9_GOLD,500,500,544,759,1034,1375,1509,1731,1865,2134,2399,2560,2743,3051,3791,4032,4512,4653,5108,5548,5885,6425,6586,6727,7167,7581
participant_9_CURRENTGOLD,500,0,44,259,534,-150,-16,206,-185,84,349,-90,93,401,1141,-168,-163,-72,-67,373,710,-250,-88,52,-258,556
participant_9_LEVEL,1,1,1,2,3,4,4,4,5,5,6,6,7,7,8,8,9,9,9,10,10,11,11,11,12,12
participant_9_MINIONSKILLED,0,0,1,3,5,6,6,8,8,12,14,15,17,21,24,24,26,26,27,27,28,28,29,29,29,30
participant_9_KILLS,0,0,0,0,0,0,0,0,0,0,0,0,0,0,0,0,0,0,0,0,0,0,0,0,0,0
participant_9_BUY,[],"[3858, 2003, 2003, 3340, 3364]",[],[],[],"[3117, 1001, 3009, 2055]",[],[],"[1028, 2055]",[],[],"[3067, 2055, 2055]",[],[],[],"[1029, 1033, 3105]","[3190, 2055]",[],[1028],[],[],"[3067, 3024, 2055, 2055]",[],[],[3050],[]
participant_9_SOLD,[],[3340],[],[],[2003],"[2003, 1001]",[2055],[],[],[],"[3858, 2055]",[1028],[2055],[2055],[],"[1033, 1029]","[3067, 3105]",[2055],[3859],[],[],[1028],[],[2055],"[2055, 3067, 3024]",[]
participant_9_UNDO,[],[],[],[],[],"[[0, 3117]]",[],[],[],[],[],[],[],[],[],[],[],[],[],[],[],[],[],[],[],[]
team0_KILLS,0,0,0,0,0,0,0,0,2,2,5,5,5,5,6,8,10,10,11,12,12,13,13,14,14,14
team0_CURRENTGOLD,2500,0,403,1941,2302,1689,3193,2655,3213,3741,4013,1798,3009,3188,1398,4057,3378,3005,4699,3443,2775,2470,3739,4082,3136,1178
team0_TOTALGOLD,2500,2500,2903,4451,5672,6884,8398,9740,12223,13716,16263,17442,19354,20408,21566,24225,26695,28273,31342,33036,34043,35337,37232,38840,40284,40886
team0_LEVEL,5,5,6,12,17,20,24,28,29,32,35,37,40,42,42,44,47,49,51,53,54,55,58,59,60,60
team0_SBIRES,0,0,9,38,59,77,109,141,161,179,202,224,264,286,291,299,324,354,377,399,415,421,463,479,503,507
team1_KILLS,0,0,0,0,2,6,6,6,6,6,7,7,7,7,13,13,15,15,16,19,20,23,23,24,24,28
team1_CURRENTGOLD,2500,0,451,2176,4342,6629,3709,3105,812,2625,4260,5062,2222,2180,5512,4614,1145,2146,1622,3914,5006,6412,1529,1466,1612,3825
team1_TOTALGOLD,2500,2500,2951,4686,6852,10174,11229,12475,13847,15660,17695,19097,20892,22350,26782,28584,30865,31991,34317,37009,39301,42697,44177,45231,47512,49735
team1_LEVEL,5,5,6,13,17,22,25,27,30,33,36,38,41,42,47,47,50,52,52,55,59,60,60,61,66,67
team1_SBIRES,0,0,14,51,80,117,139,164,189,232,259,289,322,352,377,398,419,434,454,476,504,517,532,544,547,553
delta_KILLS,0,0,0,0,-2,-6,-6,-6,-4,-4,-2,-2,-2,-2,-7,-5,-5,-5,-5,-7,-8,-10,-10,-10,-10,-14
delta_CURRENTGOLD,0,0,-48,-235,-2040,-4940,-516,-450,2401,1116,-247,-3264,787,1008,-4114,-557,2233,859,3077,-471,-2231,-3942,2210,2616,1524,-2647
delta_TOTALGOLD,0,0,-48,-235,-1180,-3290,-2831,-2735,-1624,-1944,-1432,-1655,-1538,-1942,-5216,-4359,-4170,-3718,-2975,-3973,-5258,-7360,-6945,-6391,-7228,-8849
delta_LEVEL,0,0,0,-1,0,-2,-1,1,-1,-1,-1,-1,-1,0,-5,-3,-3,-3,-1,-2,-5,-5,-2,-2,-6,-7
delta_SBIRES,0,0,-5,-13,-21,-40,-30,-23,-28,-53,-57,-65,-58,-66,-86,-99,-95,-80,-77,-77,-89,-96,-69,-65,-44,-46
