name,team0,team1
win,Win,Fail
firstBlood,True,False
firstTower,False,True
firstInhibitor,False,False
firstBaron,False,False
firstDragon,True,False
firstRiftHerald,False,True
towerKills,1,1
inhibitorKills,0,0
baronKills,0,0
dragonKills,3,0
riftHeraldKills,1,1
