name,team0,team1
win,Win,Fail
firstBlood,False,True
firstTower,False,True
firstInhibitor,False,True
firstBaron,True,False
firstDragon,False,True
firstRiftHerald,False,True
towerKills,8,7
inhibitorKills,1,2
baronKills,1,0
dragonKills,2,2
riftHeraldKills,0,1
