name,frame_0,frame_1,frame_2,frame_3,frame_4,frame_5,frame_6,frame_7,frame_8,frame_9,frame_10,frame_11,frame_12,frame_13,frame_14,frame_15,frame_16,frame_17,frame_18,frame_19,frame_20,frame_21,frame_22,frame_23,frame_24,frame_25,frame_26
nameStamp,Tstart,Tearly,Tearly,Tearly,Tearly,Tearly,Tearly,Tearly,Tearly,Tearly,Tmid,Tmid,Tmid,Tmid,Tmid,Tmid,Tmid,Tmid,Tmid,Tend,Tend,Tend,Tend,Tend,Tend,Tend,Tend
timestamp,0,60032,120050,180091,240093,300112,360113,420125,480130,540137,600153,660183,720188,780209,840241,900268,960287,1020299,1080321,1140328,1200347,1260357,1320369,1380372,1440375,1500384,1560384
participant_0_GOLD,500,500,636,996,1865,2329,3170,3670,4149,4856,5536,6178,6557,7073,7433,7836,8359,8719,9717,10180,10589,10949,11315,11790,13172,13535,13917
participant_0_CURRENTGOLD,500,0,136,146,1015,229,1070,570,1049,1756,2436,778,332,498,458,411,534,319,317,360,369,329,195,670,802,615,-58
participant_0_LEVEL,1,1,1,1,3,4,5,5,6,7,8,8,9,9,10,11,12,12,14,15,15,16,16,17,18,18,19
participant_0_MINIONSKILLED,0,0,0,0,3,5,8,12,13,14,14,16,16,17,17,17,17,17,17,17,17,17,17,17,18,18,19
participant_0_KILLS,0,0,0,0,1,1,2,2,2,3,4,4,4,4,4,4,4,4,5,5,5,5,5,5,6,6,6
participant_0_BUY,[],"[1054, 2003, 3340]",[],[1036],[],[3144],[],[1043],[],[],[],"[3153, 3111, 1036, 1006]",[3077],[1036],[1028],[3052],[1028],[3748],[3076],"[1029, 1029]",[3082],[1028],[3075],[],[3044],"[3067, 1011, 1011, 3067]",[]
participant_0_SOLD,[],[2003],[],[],[],[1036],[],[],[],[],[],"[3144, 1043]","[1036, 1006]",[],[],"[1036, 1028]",[],"[3077, 1028, 3052]",[],[1054],"[1029, 1029]",[],"[3076, 1028, 3082]",[],[],[3044],[]
participant_0_UNDO,[],[],[],[],[],[],[],[],[],[],[],[],[],[],[],[],[],[],[],[],[],[],[],[],[],"[[0, 1011], [3044, 0], [0, 3067], [0, 3044]]",[]
participant_1_GOLD,500,500,983,1539,2234,2862,3992,4827,5721,7235,7748,9002,9582,10113,10726,11086,11572,11932,12506,13537,14222,14711,15071,15709,16484,16847,17119
participant_1_CURRENTGOLD,500,0,483,1039,634,1262,592,727,346,1860,348,1602,732,513,1126,436,552,562,386,417,1102,1591,651,1289,2064,327,419
participant_1_LEVEL,1,1,1,2,3,4,5,6,7,8,9,10,11,11,12,12,12,12,14,15,16,17,17,17,19,19,19
participant_1_MINIONSKILLED,0,0,0,2,8,13,16,21,26,35,40,43,46,49,55,55,60,60,60,63,66,66,66,69,69,69,70
participant_1_KILLS,0,0,1,1,1,1,3,4,4,6,6,7,7,7,7,7,7,7,7,8,8,8,8,9,10,10,10
participant_1_BUY,[],"[1055, 2003, 3340]",[],[],[3134],[],[3147],"[1036, 1036, 1036, 1036]","[3134, 1037]",[],"[3814, 3006]",[],"[3134, 1036]",[3133],[],"[3142, 1036]",[1053],[1036],[3134],[3181],[],[],[1038],[],[],[3031],[]
participant_1_SOLD,[],[],[],[2003],[],[],[3134],[],"[1036, 1036]",[],"[1037, 3134]",[],[],[1036],[],"[3133, 3134]","[1055, 1036]",[],[1036],"[3134, 1053]",[],[],[],[],[],[1038],[]
participant_1_UNDO,[],[],[],[],[],[],[],"[[0, 1036], [0, 1036]]",[],[],[],[],[],[],[],[],[],[],[],[],[],[],[],[],[],[],[]
participant_2_GOLD,500,500,611,1603,2690,3556,4602,5418,7022,7672,8497,9838,11166,12131,13247,13625,14705,15510,16017,17767,18915,19284,19653,21367,22488,22872,23184
participant_2_CURRENTGOLD,500,100,211,53,1140,506,802,168,1772,672,497,1038,976,741,1857,435,1515,320,827,2077,2725,2049,2418,3632,4753,5137,1404
participant_2_LEVEL,1,1,1,3,4,5,7,8,9,9,10,11,13,13,14,14,15,16,16,18,19,19,19,20,21,21,22
participant_2_MINIONSKILLED,0,0,2,13,24,28,40,46,56,62,75,85,95,96,102,102,105,110,116,125,136,136,136,145,161,162,163
participant_2_KILLS,0,0,0,1,2,3,4,5,6,6,6,7,9,9,11,11,13,13,13,16,17,17,17,19,19,19,19
participant_2_BUY,[],"[2031, 3340, 1056, 3340]",[],"[1026, 1001]",[],[3136],[3151],"[3009, 1026]",[],[3116],[1011],[1031],"[3742, 1033]","[3211, 1033]",[],"[3194, 3801]",[],[3800],[],[2138],[2138],[3075],[],[2138],[],[],[]
participant_2_SOLD,[],[],[],[],[],[],"[3136, 1026]",[1001],[],[1026],[],[],"[1031, 1011, 1056]",[1033],[],"[1033, 3211]",[],[3801],[],[2138],[2138],[3800],[],[2138],[],[3075],[]
participant_2_UNDO,[],"[[3340, 0], [0, 2031]]",[],[],[],[],[],[],[],[],[],[],[],[],[],[],[],[],[],[],[],[],[],[],[],"[[3075, 0]]",[]
participant_3_GOLD,500,500,613,1028,1838,2392,3148,3816,5025,6275,6803,8121,8633,10241,10714,11568,12005,12750,14632,15539,16734,17097,17715,18281,19021,19464,19709
participant_3_CURRENTGOLD,500,15,128,108,918,192,948,1616,240,1490,453,1771,533,2141,814,1668,855,350,232,1139,234,97,715,1281,2021,34,-491
participant_3_LEVEL,1,1,1,1,3,4,5,6,7,9,9,10,11,12,13,14,14,15,16,16,17,18,18,19,19,19,19
participant_3_MINIONSKILLED,0,0,0,0,4,9,17,21,28,33,39,48,54,65,68,84,85,85,87,100,107,107,113,119,129,130,130
participant_3_KILLS,0,0,0,0,1,1,1,1,3,4,4,5,5,7,7,7,7,8,10,10,11,11,11,11,11,11,11
participant_3_BUY,[],"[1052, 3340, 2003]",[],[1052],[],"[3802, 1026]",[],[],"[3285, 3020, 1052]",[],"[3191, 3108]",[],"[3157, 1026]",[],[3135],[],[1058],[1058],"[3089, 3108]",[],[3102],[2139],[],[],[],[3100],[]
participant_3_SOLD,[],[],[2003],[],[],"[1052, 1052]",[],[],"[3802, 1026]",[],[1052],[],"[3191, 3108]",[],[1026],[],[],[],"[1058, 1058]",[],[3108],[2139],[],[],[],[3020],[]
participant_3_UNDO,[],[],[],[],[],[],[],[],[],[],[],[],[],[],[],[],[],[],[],[],[],[],[],[],[],[],[]
participant_4_GOLD,500,500,665,1170,1928,2440,3107,3624,4403,5274,5931,6704,7360,8184,8637,9407,10195,11121,11628,12034,12670,13353,13716,14314,14814,15437,16038
participant_4_CURRENTGOLD,500,15,180,685,1443,1955,2622,3139,853,924,1581,2354,560,834,437,1207,1995,21,528,934,320,1003,711,209,709,1332,1338
participant_4_LEVEL,1,1,1,2,4,4,6,6,7,8,8,9,10,11,11,12,13,14,15,15,16,16,16,18,18,19,19
participant_4_MINIONSKILLED,0,0,4,9,14,18,27,30,36,46,58,68,73,87,91,96,103,105,105,105,105,105,105,106,111,122,126
participant_4_KILLS,0,0,0,0,0,0,0,0,1,1,1,1,2,2,2,2,2,3,3,3,3,4,4,4,4,4,4
participant_4_BUY,[],"[1052, 3340, 2003]",[],[],[],[],[],[],"[3285, 1001]",[3020],[],[],"[1026, 3916]",[3165],[1026],[],[],"[3108, 3191, 3157]",[],[],[1058],[],[1058],[3089],[],[],[]
participant_4_SOLD,[],[],[2003],[],[],[],[],[],[1052],[1001],[],[],[],"[3916, 1026]",[],[],[],"[3191, 3108]",[],[],[],[],[1026],"[1058, 1058]",[],[],[]
participant_4_UNDO,[],[],[],[],[],[],[],[],[],[],[],[],[],[],[],[],[],[],[],[],[],[],[],[],[],[],[]
participant_5_GOLD,500,500,563,1316,1994,2902,3436,4067,4639,5014,6276,7544,8288,8773,9925,10620,11289,12749,13559,14267,15957,17568,18303,19532,20872,21713,22830
participant_5_CURRENTGOLD,500,15,78,831,359,1267,801,282,854,429,226,1494,938,173,1325,2020,2689,49,859,317,907,2518,953,2182,2402,2243,1330
participant_5_LEVEL,1,1,1,2,3,4,5,6,7,7,8,9,10,10,11,12,13,15,16,16,17,19,19,19,21,22,22
participant_5_MINIONSKILLED,0,0,0,3,11,18,23,27,35,35,41,49,50,54,66,75,80,90,90,97,108,116,116,122,133,134,138
participant_5_KILLS,0,0,0,1,1,2,2,2,2,2,3,4,5,5,5,5,5,7,7,7,9,12,13,14,16,16,18
participant_5_BUY,[],"[1052, 2003, 3340]",[],[],[3196],[],[3197],"[3198, 1001]",[],[3020],"[3057, 3113]",[],[3100],[1058],[],[],[],"[3089, 3108, 1026]",[],[3102],[3191],[],"[3157, 2139]",[],"[2139, 3135]","[2139, 2139]",[]
participant_5_SOLD,[],[2003],[],[],[3200],[],[3196],[3197],[],[1001],[1052],[],"[3057, 3113]",[],[],[],[],[1058],[],"[3108, 1026]",[],[],"[3191, 2139]",[],"[2139, 3157]","[3340, 2139, 2139]",[3513]
participant_5_UNDO,[],[],[],[],[],[],[],[],[],[],[],[],[],[],[],[],[],[],[],[],[],[],[],[],[],[],[]
participant_6_GOLD,500,500,563,1361,2193,3248,4245,5127,5743,6903,7373,7901,9040,10190,11668,13369,14391,15242,16224,16592,17422,18626,20020,21335,22044,22793,23762
participant_6_CURRENTGOLD,500,0,63,761,493,1548,395,107,243,603,273,801,640,990,2468,849,271,1122,1604,1972,802,1506,2900,4215,2644,2893,2562
participant_6_LEVEL,1,1,1,3,4,5,7,8,8,9,10,10,12,14,15,15,16,17,17,18,18,19,20,21,21,22,23
participant_6_MINIONSKILLED,0,0,0,2,6,18,27,34,40,50,54,59,64,79,87,87,93,95,95,95,95,95,100,104,109,109,111
participant_6_KILLS,0,0,0,1,2,3,4,5,5,6,6,6,8,9,11,14,15,16,17,17,18,19,20,21,21,21,22
participant_6_BUY,[],"[1055, 2003, 3340]",[],"[2003, 2003]",[3006],[],"[3086, 1042, 1033]","[3046, 1057]","[1028, 3211]",[3067],[3065],[],[1038],[1018],[],"[3031, 1038, 1053]","[3072, 1029]",[],[1031],[],[3026],[2140],[],[],[3139],[2140],[]
participant_6_SOLD,[],[],[2003],"[2003, 2003]",[],[],[],"[1042, 3086, 1033]","[1028, 1033]",[],"[3211, 3067]",[],[],[],[],"[1038, 1018, 1055]","[1038, 1053]",[],[1029],[],[1031],[2140],[],[],[3026],[2140],[]
participant_6_UNDO,[],[],[],[],[],[],[],[],"[[0, 1057]]",[],[],[],[],[],[],[],[],[],[],[],[],[],[],[],[],[],[]
participant_7_GOLD,500,500,635,1233,1642,2079,2474,2992,3549,4010,4516,5021,5816,6265,6715,7526,8075,8435,9095,9550,10279,10639,11149,11836,12259,13151,13719
participant_7_CURRENTGOLD,500,15,150,748,1157,329,724,692,549,260,765,1270,831,1280,465,1276,325,685,95,550,1279,389,899,486,474,516,1084
participant_7_LEVEL,1,1,1,2,3,3,4,5,5,6,7,8,9,10,10,13,13,13,14,15,17,17,17,18,18,20,21
participant_7_MINIONSKILLED,0,0,2,6,7,9,9,13,16,18,22,22,23,24,24,25,25,25,25,25,32,32,32,33,36,39,40
participant_7_KILLS,0,0,0,0,0,0,0,0,0,0,0,0,1,1,1,1,2,2,2,2,2,2,2,2,2,2,2
participant_7_BUY,[],"[1052, 2003, 3340]",[],[],[],"[1001, 3145, 1036]",[],[1053],[3144],[3146],[],[],"[3020, 1052]",[],"[3113, 1026]",[],[3100],[],[1058],[],[],[1058],[],[3089],[1052],[1026],[]
participant_7_SOLD,[],[],[2003],[],[],[1052],[],[1036],[1053],"[3144, 3145]",[],[],[1001],[],[1052],[],"[3113, 1026]",[],[],[],[],[],[],"[1058, 1058]",[],[],[]
participant_7_UNDO,[],[],[],[],[],[],[],[],[],[],[],[],[],[],[],[],[],[],[],[],[],[],[],[],[],[],[]
participant_8_GOLD,500,500,658,1168,1734,2294,2815,3488,4099,4650,5154,6015,6913,7528,7941,9064,9578,10801,11806,12380,12740,13585,14640,15444,15874,17261,18072
participant_8_CURRENTGOLD,500,65,223,733,1299,1859,2380,3053,3664,4215,769,1630,2528,3143,691,1814,1078,1201,2206,130,490,1335,1340,2144,2574,1611,2422
participant_8_LEVEL,1,1,1,2,3,4,5,6,7,7,8,9,10,11,11,13,13,15,16,17,17,18,19,19,20,21,22
participant_8_MINIONSKILLED,0,0,3,5,13,20,26,34,42,49,55,68,74,84,84,96,99,100,100,104,104,106,107,109,109,121,121
participant_8_KILLS,0,0,0,0,0,0,0,0,0,0,0,0,0,0,0,0,0,1,2,2,2,2,4,4,4,5,5
participant_8_BUY,[],"[1052, 3340]",[],[],[],[],[],[],[],[],"[3089, 3151, 1026, 1052]",[],[],[],"[3116, 1058, 1001]",[],[1058],[3089],[],"[3020, 1026, 1052, 3135]",[],[],[3145],[],[],[3146],[]
participant_8_SOLD,[],[],[],[],[],[],[],[],[],[],[1052],[],[],[],"[1026, 1052]",[],[],"[1058, 1058]",[],"[1001, 1026, 1052]",[],[],[],[],[],[3145],[]
participant_8_UNDO,[],[],[],[],[],[],[],[],[],[],"[[0, 3089]]",[],[],[],[],[],[],[],[],"[[0, 3020]]",[],[],[],[],[],[],[]
participant_9_GOLD,500,500,563,957,1490,2198,2813,3908,4379,4776,6273,6838,7535,8020,9333,10204,10872,11844,12941,13847,15039,15631,17059,18335,19503,20163,21283
participant_9_CURRENTGOLD,500,0,63,457,990,1698,563,483,454,851,1123,388,385,870,2183,954,382,54,1151,957,349,941,2369,425,1093,1253,2133
participant_9_LEVEL,1,1,1,1,3,4,5,6,6,7,8,9,10,11,13,14,14,15,17,17,18,19,20,20,21,22,22
participant_9_MINIONSKILLED,0,0,0,1,5,9,14,19,21,21,26,26,31,35,41,47,50,54,67,68,80,85,104,109,112,112,123
participant_9_KILLS,0,0,0,0,0,0,0,1,1,1,2,2,2,2,3,4,4,5,5,7,8,8,8,8,9,9,9
participant_9_BUY,[],"[1055, 3340, 2003]",[],[],[],[],"[1038, 1001, 2031]","[1037, 1042]",[3006],[],[3031],[1038],[2015],[],[],"[3095, 1053]",[1038],[3072],[],[3134],[3147],[],[],[3031],[2140],[2140],[]
participant_9_SOLD,[],[],[],[2003],[],[],[],[],"[1001, 1042]",[],"[1038, 1037]",[],[],[],[],"[1038, 2015]",[2031],"[1038, 1053]",[],[],[3134],[],[],[1055],[2140],[2140],[]
participant_9_UNDO,[],[],[],[],[],[],[],[],[],[],[],[],[],[],[],[],[],[],[],[],[],[],[],[],[],[],[]
team0_KILLS,0,0,1,2,5,6,10,12,16,20,21,24,27,29,31,31,33,35,38,42,44,45,45,48,50,50,50
team0_CURRENTGOLD,2500,130,1138,2031,5150,4144,6034,6220,4260,6702,5315,7543,3133,4727,4692,4157,5451,1572,2290,4927,4750,5069,4690,7081,10349,7445,2612
team0_TOTALGOLD,2500,2500,3508,6336,10555,13579,18019,21355,26320,31312,34515,39843,43298,47742,50757,53522,56836,60032,64500,69057,73130,75394,77470,81461,85979,88155,89967
team0_LEVEL,5,5,5,9,17,21,28,31,36,41,44,48,54,56,60,63,66,69,75,79,83,86,86,91,95,96,98
team0_SBIRES,0,0,6,24,53,73,108,130,159,190,226,260,284,314,333,354,370,377,385,410,431,431,437,456,488,501,508
team1_KILLS,0,0,0,2,3,5,6,8,8,9,11,12,16,17,20,24,26,31,33,35,39,43,47,49,52,53,56
team1_CURRENTGOLD,2500,95,577,3530,4298,6701,4863,4617,5764,6358,3156,5583,5322,6456,7132,6913,4745,3111,5915,3926,3827,6689,8461,9452,9187,8516,9531
team1_TOTALGOLD,2500,2500,2982,6035,9053,12721,15783,19582,22409,25353,29592,33319,37592,40776,45582,50783,54205,59071,63625,66636,71437,76049,81171,86482,90552,95081,99666
team1_LEVEL,5,5,5,10,16,20,26,31,33,36,41,45,51,56,60,67,69,75,80,83,87,92,95,97,101,107,110
team1_SBIRES,0,0,5,17,42,74,99,127,154,173,198,224,242,276,302,330,347,364,377,389,419,434,459,477,499,515,533
delta_KILLS,0,0,1,0,2,1,4,4,8,11,10,12,11,12,11,7,7,4,5,7,5,2,-2,-1,-2,-3,-6
delta_CURRENTGOLD,0,35,561,-1499,852,-2557,1171,1603,-1504,344,2159,1960,-2189,-1729,-2440,-2756,706,-1539,-3625,1001,923,-1620,-3771,-2371,1162,-1071,-6919
delta_TOTALGOLD,0,0,526,301,1502,858,2236,1773,3911,5959,4923,6524,5706,6966,5175,2739,2631,961,875,2421,1693,-655,-3701,-5021,-4573,-6926,-9699
delta_LEVEL,0,0,0,-1,1,1,2,0,3,5,3,3,3,0,0,-4,-3,-6,-5,-4,-4,-6,-9,-6,-6,-11,-12
delta_SBIRES,0,0,1,7,11,-1,9,3,5,17,28,36,42,38,31,24,23,13,8,21,12,-3,-22,-21,-11,-14,-25
