name,frame_0,frame_1,frame_2,frame_3,frame_4,frame_5,frame_6,frame_7,frame_8,frame_9,frame_10,frame_11,frame_12,frame_13,frame_14,frame_15,frame_16,frame_17,frame_18,frame_19,frame_20,frame_21,frame_22,frame_23,frame_24,frame_25,frame_26,frame_27,frame_28,frame_29,frame_30,frame_31,frame_32,frame_33,frame_34,frame_35,frame_36,frame_37,frame_38,frame_39,frame_40,frame_41,frame_42,frame_43,frame_44,frame_45,frame_46,frame_47,frame_48,frame_49,frame_50,frame_51
nameStamp,Tstart,Tearly,Tearly,Tearly,Tearly,Tearly,Tearly,Tearly,Tearly,Tearly,Tearly,Tearly,Tearly,Tearly,Tearly,Tearly,Tearly,Tearly,Tmid,Tmid,Tmid,Tmid,Tmid,Tmid,Tmid,Tmid,Tmid,Tmid,Tmid,Tmid,Tmid,Tmid,Tmid,Tmid,Tmid,Tmid,Tmid,Tmid,Tmid,Tmid,Tmid,Tmid,Tmid,Tmid,Tmid,Tmid,Tmid,Tmid,Tmid,Tmid,Tmid,Tmid
timestamp,0,60024,120053,180082,240107,300130,360163,420188,480194,540219,600243,660269,720270,780303,840303,900329,960351,1020352,1080371,1140400,1200430,1260456,1320458,1380486,1440487,1500518,1560546,1620575,1680594,1740618,1800640,1860654,1920675,1980679,2040703,2100733,2160755,2220775,2280800,2340832,2400852,2460879,2520901,2580905,2640934,2700962,2760988,2821013,2881031,2941032,3001047,3061047
participant_0_GOLD,500,500,577,825,1032,1399,1648,2091,2352,2524,2793,3181,3467,3889,4221,4343,4529,5213,5385,5597,6110,6261,6471,6681,7803,7926,8049,8346,8804,9251,9569,9691,9879,10438,10885,11008,11336,11500,11755,11995,12685,12948,13470,13592,13819,13991,14163,14286,14714,16068,16631,17414
participant_0_CURRENTGOLD,500,0,77,325,32,399,648,1091,1352,124,393,81,367,389,721,493,679,1363,185,397,160,136,346,556,203,326,449,746,79,126,444,566,754,1313,1761,183,161,326,30,271,961,54,226,348,224,397,569,292,720,1199,737,264
participant_0_LEVEL,1,1,1,3,4,5,6,6,7,7,8,8,9,9,9,9,9,10,10,10,10,11,11,11,11,11,11,12,12,13,13,13,13,14,14,14,14,15,15,15,15,16,16,16,16,16,16,16,17,18,18,18
participant_0_MINIONSKILLED,0,0,3,10,15,27,34,44,49,52,61,67,72,72,75,75,79,86,86,87,91,93,93,93,93,93,93,99,101,101,109,109,111,115,115,115,119,121,125,128,131,133,133,133,135,135,135,135,145,157,175,176
participant_0_KILLS,0,0,0,0,1,1,1,2,2,3,3,5,5,5,6,7,8,8,10,10,10,12,13,13,14,15,16,16,18,20,20,21,23,26,26,26,27,27,29,29,32,33,33,35,36,36,37,37,39,39,41,41
participant_0_BUY,[],"[1055, 2003]",[],[],[],[],[],[],"[6670, 1018]",[1037],[],[],[6672],[],[3006],[],[],[],[],[6676],[],[1038],[],[1037],[],[],[3031],[],[],[],[3033],[],[],[],[],[3139],[],[3072],[],[],[],[],[],[],[6675],[],[],[],[],[],[],[]
participant_0_SOLD,[],[],[],[],[2003],[],[],[],[],[],[],[],"[6670, 1018, 1037]",[],[],[],[],[],[],[],[],[],[],[],[],[],"[1038, 1037]",[],[],[],[1055],[],[],[],[],[],[],[3033],[],[],[],[],[],[],[3139],[],[],[],[],[],[],[]
participant_0_UNDO,[],[],[],[],[],[],[],[],[],[],[],[],[],[],[],[],[],[],[],[],[],[],[],[],[],[],[],[],[],[],[],[],[],[],[],[],[],[],[],[],[],[],[],[],[],[],[],[],[],[],[],[]
participant_1_GOLD,500,500,621,913,1218,1475,1598,1805,2162,2390,2612,3010,3237,3465,3688,4079,4565,4738,4910,5438,6035,6672,6882,7004,7371,7594,8008,8130,8663,9030,9252,9470,9658,9830,10056,10179,10371,10493,10700,10822,12250,12549,12697,12819,13131,13304,13476,13598,13846,13968,14346,14384
participant_1_CURRENTGOLD,500,0,121,413,718,975,298,505,112,340,562,960,1187,1415,413,804,315,488,310,838,1435,2072,382,64,431,654,368,140,323,290,512,380,568,340,567,289,482,604,810,933,2360,2660,2807,230,542,715,487,609,7,129,158,134
participant_1_LEVEL,1,1,2,2,3,4,4,4,5,5,5,6,6,7,7,7,8,8,8,9,9,10,10,10,10,11,11,11,12,12,13,13,13,13,13,13,13,13,14,14,15,15,15,15,16,16,16,16,16,17,17,17
participant_1_MINIONSKILLED,0,0,0,0,0,0,0,0,0,0,0,0,0,1,1,1,1,1,1,1,1,8,8,8,8,8,8,8,9,9,9,9,9,9,11,11,11,11,12,12,12,12,12,12,12,12,12,12,12,12,17,17
participant_1_KILLS,0,0,0,0,0,0,0,0,0,0,0,0,0,0,0,1,2,2,2,2,2,2,2,2,2,2,2,2,2,2,2,2,2,2,2,2,2,2,2,2,2,2,3,3,3,3,3,3,3,3,3,3
participant_1_BUY,[],"[3858, 2003, 2003, 3340]",[],[],[],[],[],[],"[1001, 4642]",[],[1028],[],[],[],"[3111, 3067]",[],[],[],[6617],[3114],[],[1057],[],[],[3222],[1004],[],[3114],[],[],[1026],[],[],[],[],[3504],[],"[3067, 3191]",[],[],[],[],[],[3157],[],[],[],[],[],[],[],[]
participant_1_SOLD,[],[],[],[2003],[2003],[],[],[],[],[],[],[],[],[],"[3858, 1001, 1028]",[],[],[],"[3067, 4642]",[],[],[],[],[],"[3114, 1057, 3859]",[],[],[1004],[],[],[],[],[],[],[],"[3114, 1026]",[],[],[],[],[],[],[],[3191],[],[],[],[],[],[],[],[]
participant_1_UNDO,[],[],[],[],[],[],[],[],[],[],[],[],[],[],[],[],[],[],[],[],[],[],[],[],[],[],[],[],[],[],[],[],[],[],[],[],[],"[[0, 3067]]",[],[],[],[],[],[],[],[],[],[],[],[],[],[]
participant_2_GOLD,500,500,570,1106,1331,1586,1824,2325,2622,2765,3328,3548,3832,4030,4813,5111,5675,6112,6335,6706,7226,7522,7906,8288,8536,8777,8949,9364,10361,10518,10850,11097,11219,11495,11617,11739,12029,12283,12593,12890,13278,13450,13678,13800,14272,14444,14770,15125,15534,15912,16188,16226
participant_2_CURRENTGOLD,500,0,70,256,471,16,244,745,597,225,788,573,847,580,163,461,175,612,400,771,391,687,1071,203,451,692,249,664,1661,569,900,1147,1270,410,533,655,944,1199,1094,1391,1779,501,729,851,1323,1495,1821,2176,2586,463,739,826
participant_2_LEVEL,1,1,1,2,4,4,5,6,7,7,8,9,9,9,10,10,10,11,11,11,12,12,13,13,13,13,14,14,14,14,15,15,15,15,15,15,15,15,16,16,16,16,17,17,17,17,17,17,18,18,18,18
participant_2_MINIONSKILLED,0,0,3,4,8,13,17,23,31,32,41,47,53,53,61,68,71,84,86,92,99,106,112,117,120,127,130,139,147,149,157,160,160,162,162,162,168,172,176,182,191,191,198,198,198,198,203,213,223,229,233,233
participant_2_KILLS,0,0,0,1,1,1,1,2,2,2,3,3,3,3,4,4,5,5,5,5,6,6,6,7,7,7,7,7,8,8,8,8,8,8,8,8,8,8,8,8,8,8,8,8,9,9,9,9,9,9,9,9
participant_2_BUY,[],[2033],[],[1027],[],[3057],[],[],[1052],[3802],[],[1052],[],[3108],[6653],[],[1026],[],[1052],[],[1011],[],[],"[4637, 1052]",[],[],[3145],[],[],[1058],[],[],[],"[4628, 1052]",[],[],[],[],[3113],[],[],[3100],[],[],[],[],[],[],[],[3157],[],[]
participant_2_SOLD,[],[],[],[],[],[],[],[],[],"[1052, 1027]",[],[],[],[1052],"[3802, 3108]",[],[],[],[],[],[],[],[],"[1026, 1011, 1052]",[],[],[1052],[],[],[],[],[],[],"[1058, 3145]",[],[],[],[],[1052],[],[],"[3057, 3113]",[],[],[],[],[],[],[],[],[],[]
participant_2_UNDO,[],[],[],[],[],[],[],[],[],[],[],[],[],[],[],[],[],[],[],[],[],[],[],[],[],[],[],[],[],[],[],[],[],[],[],[],[],[],[],[],[],[],[],[],[],[],[],[],[],[],[],[]
participant_3_GOLD,500,500,542,846,1518,1864,2134,2769,2905,3412,3639,4432,4554,4739,5637,6464,6979,7560,8567,8710,9102,9800,10297,10419,10942,11439,11931,12263,13265,14063,14373,14821,15720,17304,17604,17726,18822,18944,20078,20201,21964,22990,23262,24035,24551,24863,25280,25402,26264,26387,27992,28030
participant_3_CURRENTGOLD,500,0,42,346,1018,1364,1634,2269,505,137,364,1157,654,839,637,1464,1979,2560,3567,710,1103,500,997,245,767,1264,532,863,1866,2663,454,901,1801,3385,3685,907,2003,615,1750,1872,3635,4661,4934,5706,4852,5165,5581,5704,6566,6689,8294,4230
participant_3_LEVEL,1,1,1,2,3,4,5,5,5,6,6,7,7,7,8,9,9,9,10,10,11,11,11,11,12,12,12,12,13,13,14,14,14,15,15,15,15,15,16,16,17,17,17,18,18,18,18,18,18,18,18,18
participant_3_MINIONSKILLED,0,0,1,11,23,34,42,52,53,58,65,69,69,73,73,89,89,105,113,114,121,122,122,122,122,122,122,130,142,142,149,149,154,162,164,164,175,175,187,187,196,206,206,206,206,214,214,214,215,215,232,232
participant_3_KILLS,0,0,0,0,0,0,0,0,0,0,0,0,0,1,1,1,1,1,1,1,2,2,2,2,4,4,4,4,4,5,5,5,5,6,7,7,7,7,7,7,8,8,9,9,9,9,9,9,9,10,10,11
participant_3_BUY,[],"[1055, 2003, 3340]",[],[],[2033],[],[],[],[],"[1018, 3134, 1001]",[],"[1036, 1036]",[],[3133],[],[1036],[],[],"[6691, 1036]",[],"[3134, 3364, 1036]",[3009],[],[],"[1037, 1018]",[],[],[],"[6676, 1036, 1036]",[3134],[],[],[],[],[],[6695],[1036],[],"[1036, 3134]",[],[],"[1036, 3814]",[1036],[],[1036],[],[],[3134],[],[1037],[3142],[]
participant_3_SOLD,[],[],[],[2003],[],[],[],[],[],[],[],[],[],"[1036, 1036]",[],[],[],[],"[3134, 3133]",[],"[1036, 1036, 3340]","[1036, 1055, 1001]",[],[],[],[],[],[],"[3134, 1037, 1018]","[1036, 1036]",[],[],[],[],[],[3134],[],[],"[2033, 1036, 1036]",[],[],"[3009, 1036, 3134]",[],[],[],[],[],"[1036, 1036]",[],[],"[3134, 1037]",[]
participant_3_UNDO,[],[],[],[],[],[],[],[],[],"[[0, 1018]]",[],[],[],[],[],[],[],[],[],[],[],[],[],[],[],[],[],[],[],[],[],[],[],[],[],[],[],[],[],[],[],[],[],[],[],[],[],[],[],[],[],[]
participant_4_GOLD,500,500,523,692,1058,1276,1432,1782,1916,2222,2391,2676,2989,3198,3488,4033,4567,4886,5449,5589,5894,6231,6459,6599,6828,7119,7379,7610,7988,8353,8494,8709,9045,9748,9888,10028,10219,10359,10624,10765,11130,11408,11848,12289,12573,12763,12954,13094,13359,13500,13866,13909
participant_4_CURRENTGOLD,500,0,23,192,558,776,932,1282,66,372,141,426,739,948,38,583,1117,1436,1149,489,794,231,459,599,228,269,529,210,588,953,244,459,795,1498,1638,1129,1319,559,825,965,1330,1608,2049,889,1173,1364,1554,1694,1960,2100,2466,2509
participant_4_LEVEL,1,1,1,2,3,4,4,5,5,5,5,6,6,7,7,8,8,9,10,10,10,11,11,11,11,12,12,12,13,13,13,13,14,15,15,15,15,15,15,15,16,16,17,17,17,17,17,17,18,18,18,18
participant_4_MINIONSKILLED,0,0,0,2,4,6,7,8,8,9,11,11,13,13,13,16,16,19,19,19,20,23,23,23,24,24,24,25,25,25,25,25,25,25,25,25,25,25,25,25,25,25,25,25,25,25,25,25,25,25,25,25
participant_4_KILLS,0,0,0,0,0,0,0,0,0,0,0,0,0,0,0,0,0,0,0,1,2,3,3,3,3,3,4,4,5,5,5,5,5,5,5,5,5,5,5,5,6,6,6,6,6,6,6,6,6,6,6,6
participant_4_BUY,[],"[1035, 2031, 3340]",[],[],[],[],[3067],[],"[1036, 1028]",[],[],[],[],[],"[3044, 1037]",[],"[6029, 6630, 1033]",[],[3111],[],[],[],"[3133, 1033, 1036]",[3155],[],[],[3156],[1036],[1036],[3133],[],[1036],[],[1028],[],[3067],[],[],[],[],[],[],[],"[3071, 3211, 1028]",[],[],[3067],[],[3065],[],"[1028, 1036]",[]
participant_4_SOLD,[],[],[],[],[],[],[],[],[1035],[],[],[],[],[],"[1028, 1036]",[],"[1037, 6029, 3044, 3067]",[],"[1033, 2422]",[],[],[],[],"[2031, 1036, 1033]",[],[],"[3155, 3133]",[],[],"[1036, 1036]",[],[],[],[],[],[1028],[],[],[],[],[],[],[],"[3133, 3067, 1036]",[],[],[1028],[],"[3211, 3067]",[],[],[]
participant_4_UNDO,[],[],[],[],[],[],[],[],[],[],[],[],[],[],[],[],[],[],[],[],[],[],[],[],[],[],[],[],[],[],[],[],[],[],[],[],[],[],[],[],[],[],[],[],[],[],[],[],[],[],"[[0, 1028]]",[]
participant_5_GOLD,500,500,542,811,1401,1523,1758,1901,2155,2567,2752,3323,3997,4440,4832,5487,5644,5836,6001,6277,6972,7528,8260,8383,9145,9309,9475,9827,10297,10570,11027,12870,13283,13426,13548,13929,14318,14615,15150,15610,15783,16115,16710,17339,18097,18437,18730,19219,19735,20427,20550,20588
participant_5_CURRENTGOLD,500,0,42,311,901,123,358,151,405,817,152,723,1397,20,412,1067,1224,166,331,607,1302,1858,2590,327,275,439,169,522,992,1265,472,2315,2728,2871,444,824,398,695,1230,1691,613,676,1271,169,928,1268,1061,1550,2066,2758,511,-1947
participant_5_LEVEL,1,1,1,3,4,4,5,6,6,7,7,8,9,10,10,11,11,11,12,12,13,13,13,13,13,14,14,14,14,15,15,15,15,15,15,16,16,16,17,17,17,17,18,18,18,18,18,18,18,18,18,18
participant_5_MINIONSKILLED,0,0,1,9,17,17,24,25,30,44,48,57,67,67,79,86,88,92,95,104,115,116,116,116,116,119,122,131,133,133,135,135,135,136,136,138,140,146,147,152,152,157,162,164,170,173,173,176,184,197,197,197
participant_5_KILLS,0,0,0,0,0,0,0,0,0,0,0,0,0,0,0,0,0,0,0,0,0,0,0,0,0,0,0,0,0,1,1,2,2,2,2,2,3,3,3,3,3,3,3,3,3,3,3,3,4,4,4,4
participant_5_BUY,[],"[3854, 2003, 2003, 3340]",[],[],[],[1036],[],[],[3134],[1036],[],[],[],[],[3133],[],[],[],[6693],[],[],[1001],[],[3117],[],[1036],[1036],[],[3134],[1037],[],[3142],[1036],[],[],[],[3134],[],"[3179, 1028]",[],[],[3134],[],[],[],[1028],[],[],[3814],[],[1036],[]
participant_5_SOLD,[],[],[],[2003],[],[2003],[],[],[1036],[],[],[],[],[],[1036],[],[],[],"[3134, 3133]",[3854],[],[],[],[1001],[],[],[],[],"[1036, 1036]","[3855, 3400]",[],"[3400, 3134, 1037]",[],[],[],[],[1036],[3400],[3134],[],[1028],[],[],[],[],[3857],[],[],"[3134, 1028]",[],[],[]
participant_5_UNDO,[],[],[],[],[],[],[],[],[],[],[],[],[],[],[],[],[],[],[],[],[],[],[],[],[],[],[],[],[],[],[],[],[],[],[],[],[],[],[],[],[],[],[],[],[],[],[],[],[],[],[],[]
participant_6_GOLD,500,500,621,933,1376,1498,1713,2010,2232,2825,3070,3399,3521,3643,3766,3988,4531,4758,5346,5546,5818,6883,7295,7417,7865,8072,8856,9120,9242,9365,9587,10369,10492,10704,11746,12685,13282,13504,13745,14323,14516,14689,15006,15253,15476,15598,15783,16049,16700,17022,18356,18444
participant_6_CURRENTGOLD,500,0,121,433,876,998,1213,1510,232,825,1070,1399,521,643,766,288,831,458,1046,206,278,443,855,977,125,332,1116,480,202,325,547,1330,1452,364,1407,545,1143,465,305,884,1077,750,1067,1314,1537,1659,1845,2110,661,984,2317,2344
participant_6_LEVEL,1,1,2,3,4,4,4,5,5,5,6,6,6,7,7,7,7,8,9,9,9,9,10,10,11,11,12,12,12,12,12,13,13,13,13,14,15,15,15,16,16,16,16,17,17,17,17,17,18,18,18,18
participant_6_MINIONSKILLED,0,0,0,0,0,0,0,0,0,0,0,3,3,3,3,3,3,3,3,3,3,6,6,6,6,6,6,8,8,8,8,8,8,9,9,12,12,12,15,16,17,17,17,17,17,17,21,24,25,25,28,28
participant_6_KILLS,0,0,0,0,0,0,0,0,0,1,1,1,1,1,1,1,2,2,2,2,2,3,3,3,3,3,4,4,4,4,4,4,4,4,5,6,7,7,7,7,7,7,7,7,7,7,7,7,8,8,10,10
participant_6_BUY,[],"[1039, 2031, 3340]",[],[],[],[],[],[],[3105],[],[],[],[6660],[],[],[3068],[],"[1029, 1001]",[],"[3047, 1029, 1029]",[3076],[1011],[],[],"[3075, 1029]",[],[],"[1031, 1028]",[3066],[],[],[],[],[3742],[],"[3082, 3067]",[],[3143],[1028],[],[],[1011],[],[],[],[],[],[],[3083],[],[],[]
participant_6_SOLD,[],[],[],[],[],[],[],[],[1039],[],[],[],[],[],[],"[6660, 3105]",[],[],[],"[1001, 1029, 2031]","[1029, 1029]",[],[],[],"[3076, 1011]",[],[],[1029],[1028],[],[],[3400],[],"[3066, 1031]",[],[],[],"[3082, 3067]",[],[],[],[1028],[],[],[],[],[],[],[1011],[],[],[]
participant_6_UNDO,[],[],[],[],[],[],[],[],[],[],[],[],[],[],[],[],[],[],[],[],[],[],[],[],[],[],[],[],[],[],[],[],[],[],[],[],[],[],[],[],[],[],[],[],[],[],[],[],[],[],[],[]
participant_7_GOLD,500,500,556,797,1060,1266,1532,1731,2048,2705,2890,3055,3338,3760,4333,4665,4788,5080,6133,6291,6463,6739,6982,7404,7900,8102,9231,9409,9785,10208,10420,10912,11045,11181,11495,11718,12539,12835,13048,13226,13433,13606,13817,14739,14971,15149,15913,16154,16858,17480,18221,18273
participant_7_CURRENTGOLD,500,0,56,297,560,416,672,436,743,450,170,335,618,1040,413,745,868,1160,2213,771,943,219,462,34,530,732,1861,2039,265,688,465,958,240,376,691,913,1735,316,528,707,914,1087,1298,970,1202,1380,895,1135,1839,2462,852,923
participant_7_LEVEL,1,1,1,3,4,4,5,5,6,7,7,7,8,9,9,9,9,10,11,11,11,11,12,12,12,12,13,13,14,14,14,15,15,15,15,15,16,16,16,16,16,16,16,17,17,17,17,17,18,18,18,18
participant_7_MINIONSKILLED,0,0,2,9,17,22,27,31,40,45,49,52,61,61,61,70,70,76,83,85,85,90,91,91,96,101,101,105,107,107,108,108,109,110,113,113,119,126,127,131,133,133,134,134,135,138,141,144,148,148,154,155
participant_7_KILLS,0,0,0,0,0,0,0,0,0,1,1,1,1,2,3,3,3,3,5,5,5,5,5,6,7,7,10,10,10,11,11,11,11,11,11,11,12,12,12,12,12,12,12,13,13,13,14,14,15,15,16,16
participant_7_BUY,[],"[3070, 2003, 3340, 2003]",[],[],[],[1027],[],[1052],[],"[3802, 1052]",[3108],[],[],[],[6653],[],[3364],[],[],"[1058, 1027]",[],[3003],[],[1026],[],[],[],[],[4637],[],[1052],[],[1026],[],[],[],[],[3116],[],[],[],[],[],[1058],[],[],[1058],[],[],[],"[3089, 3145]",[]
participant_7_SOLD,[],[],[2003],[],[],[],[2003],[],[],"[1052, 1027]",[1052],[],[],[],"[3802, 3108]",[],[3340],[],[],[],[],"[3070, 1058, 1027, 3003]",[],[],[],[],[],[],[1026],[],[],[],[],[],[],[],[],"[1026, 1052]",[],[],[],[],[],[],[],[],[],[],[],[],"[1058, 1058]",[]
participant_7_UNDO,[],[],[],[],[],[],[],[],[],[],[],[],[],[],[],[],[],[],[],[],[],[],[],[],[],[],[],[],[],[],[],[],[],[],[],[],[],[],[],[],[],[],[],[],[],[],[],[],[],[],[],[]
participant_8_GOLD,500,500,521,755,1015,1179,1421,1954,2502,3333,3678,4191,4327,4798,5091,5283,5481,5763,5885,6203,6375,6643,8030,8201,8491,8613,8811,9233,9459,9797,10150,10777,11004,11238,11360,12857,13484,13872,14659,16333,16577,16749,17191,17364,17681,18026,18848,19417,19985,20784,20907,20945
participant_8_CURRENTGOLD,500,0,21,255,515,279,521,1054,52,883,1228,1741,1877,748,441,33,231,513,285,603,225,493,1880,2051,21,143,42,463,289,328,680,1308,635,868,191,1687,1015,1403,90,1764,708,880,1322,95,412,758,1579,2149,2716,3516,3639,3495
participant_8_LEVEL,1,1,1,2,3,3,4,5,6,7,7,7,8,8,8,8,8,9,9,9,9,10,10,10,10,11,11,11,11,12,12,13,13,13,13,14,14,15,15,16,16,16,16,17,17,17,18,18,18,18,18,18
participant_8_MINIONSKILLED,0,0,0,6,12,15,22,27,30,38,41,45,46,49,49,53,53,58,58,66,66,70,76,79,80,80,80,89,91,100,102,109,115,117,117,131,131,139,139,147,148,148,148,148,156,165,177,181,186,188,188,188
participant_8_KILLS,0,0,0,0,1,1,1,1,1,1,1,2,2,3,3,4,4,4,4,4,4,5,6,6,8,8,8,8,9,9,9,12,12,12,12,12,12,12,12,12,12,12,13,14,15,15,15,15,15,15,15,15
participant_8_BUY,[],"[1056, 2003, 2003]",[],[],[],[3108],[],[1027],[],[],[1026],[],[],"[3802, 1052, 1052]",[],[],[],[6656],[],[],[],[],[],"[3020, 1026, 1011]",[4637],[],[1052],[],[],[],[1058],[],[],[],[3089],[],[4630],[],[],[],[3135],[1011],[],"[3083, 1028]",[],[],[1011],[],[],[],[4629],[]
participant_8_SOLD,[],[],[],"[2003, 2003]",[],[],[],[],[],[],[],[],[],[1027],[],[],[],"[3802, 1026]",[],[],[],[],[],"[1056, 1052]","[1026, 1011, 1052]",[],[],[],[],[],[3400],[],[],[],[1058],[],[1052],[],[],[],[4630],[3108],[],"[3020, 1011]",[],[],[1028],[],[],[],[1011],[]
participant_8_UNDO,[],[],[],[],[],[],[],[],[],[],[],[],[],[],[],[],[],[],[],[],[],[],[],[],[],[],[],[],[],[],[],[],[],[],[],[],[],[],[],[],[],[],[],[],[],[],[],[],[],[],[],[]
participant_9_GOLD,500,500,523,727,932,1115,1299,1663,1853,2063,2197,2470,2604,2902,3037,3199,3424,3600,3755,4032,4222,4466,4656,4817,5108,5380,5597,5890,6044,7005,7159,8000,8140,8280,8420,9026,9466,11107,11247,11387,11689,11879,12072,12372,12732,12857,12979,13144,13666,13988,14201,14238
participant_9_CURRENTGOLD,500,0,23,227,432,265,449,813,253,113,247,520,654,952,337,499,723,900,55,332,522,466,656,117,408,330,197,490,244,330,484,300,90,230,370,976,666,2307,347,487,1069,159,352,652,1012,897,1019,1184,306,629,491,88
participant_9_LEVEL,1,1,1,2,3,4,4,5,5,5,6,6,6,7,7,7,7,7,8,8,8,9,9,10,10,10,10,11,11,11,12,12,12,12,12,13,14,14,14,14,14,14,15,15,15,15,16,16,16,16,17,17
participant_9_MINIONSKILLED,0,0,0,4,8,11,14,16,19,19,19,23,23,24,24,26,26,28,29,33,33,35,35,36,36,39,39,44,45,45,46,46,46,46,46,50,50,50,50,50,52,52,55,60,61,61,61,63,63,63,64,64
participant_9_KILLS,0,0,0,0,0,0,0,1,2,3,3,4,4,5,5,5,5,5,5,5,5,5,7,7,7,7,7,7,7,7,7,7,7,7,7,9,10,10,11,14,14,14,15,15,15,15,16,17,17,17,17,17
participant_9_BUY,[],"[1055, 2003]",[],[],[],"[1001, 2003, 2003]",[],[],"[1053, 1042, 1042, 2003]",[],[],[],[],"[3006, 6670, 2003, 2003]",[1018],[6673],[],[],[1036],[],[1053],[],[],[],[3072],[],[1042],[],[2015],[1042],[],[],[3086],[],[3094],[],[1038],[],[3031],[],[1038],[],[],[3095],[],[],[],[],[],[],[],[]
participant_9_SOLD,[],[],[],[2003],[],[],[2003],[2003],[],[],[],[],[2003],"[1001, 1042, 1042]",[],"[6670, 1018, 1053]",[],[],[],[],[1036],[],[2003],[2003],"[1055, 1053]",[],[],[],[1042],[],[],[],[1042],[],"[3086, 2015]",[],[],[],"[3400, 1038]",[],[],[],[],[1038],[],[],[],[],[],[],[],[]
participant_9_UNDO,[],[],[],[],[],[],[],[],[],[],[],[],[],[],[],[],[],[],[],[],[],[],[],[],[],[],[],[],[],[],[],[],[],[],[],[],[],[],[],[],[],[],[],[],[],[],[],[],[],[],[],[]
team0_KILLS,0,0,0,1,2,2,2,4,4,5,6,8,8,9,11,13,16,16,18,19,22,25,26,27,30,31,33,33,37,40,40,41,43,47,48,48,49,49,51,51,56,57,59,61,63,63,64,64,66,67,69,70
team0_CURRENTGOLD,2500,0,333,1532,2797,3530,3756,5892,2632,1198,2248,3197,3794,4171,1972,3805,4265,6459,5611,3205,3883,3626,3255,1667,2080,3205,2127,2623,4517,4601,2554,3453,5188,6946,8184,3163,4909,3303,4509,5432,10065,9484,10745,8024,8114,9136,10012,10475,11839,10580,12394,7963
team0_TOTALGOLD,2500,2500,2833,4382,6157,7600,8636,10772,11957,13313,14763,16847,18079,19321,21847,24030,26315,28509,30646,32040,34367,36486,38015,38991,41480,42855,44316,45713,49081,51215,52538,53788,55521,58815,60050,60680,62777,63579,65750,66673,71307,73345,74955,76535,78346,79365,80643,81505,83717,85835,89023,89963
team0_LEVEL,5,5,6,11,17,21,24,26,29,30,32,36,37,39,41,43,44,47,49,50,52,55,56,56,57,59,60,61,64,65,68,68,69,72,72,72,72,73,76,76,79,80,82,83,84,84,84,84,87,89,89,89
team0_SBIRES,0,0,7,27,50,80,100,127,141,151,178,194,207,212,223,249,256,295,305,313,332,352,358,363,367,374,377,401,424,426,449,452,459,473,477,477,498,504,525,534,555,567,574,574,576,584,589,599,620,638,682,683
team1_KILLS,0,0,0,0,1,1,1,2,3,6,6,8,8,11,12,13,14,14,16,16,16,18,21,22,25,25,29,29,30,32,32,36,36,36,37,40,44,44,45,48,48,48,50,52,53,53,55,56,59,59,62,62
team1_CURRENTGOLD,2500,0,263,1523,3284,2081,3213,3964,1685,3088,2867,4718,5067,3403,2369,2632,3877,3197,3930,2519,3270,3479,6443,3506,1359,1976,3385,3994,1992,2936,2648,6211,5145,4709,3103,4945,4957,5186,2500,5533,4381,3552,5310,3200,5091,5962,6399,8128,7588,10349,7810,4903
team1_TOTALGOLD,2500,2500,2763,4023,5784,6581,7723,9259,10790,13493,14587,16438,17787,19543,21059,22622,23868,25037,27120,28349,29850,32259,35223,36222,38509,39476,41970,43479,44827,46945,48343,52928,53964,54829,56569,60215,63089,65933,67849,70879,71998,73038,74796,77067,78957,80067,82253,83983,86944,89701,92235,92488
team1_LEVEL,5,5,6,13,18,19,22,26,28,31,33,34,37,41,41,42,42,45,49,49,50,52,54,55,56,58,60,61,62,64,65,68,68,68,68,72,75,76,77,79,79,79,81,84,84,84,86,86,88,88,89,89
team1_SBIRES,0,0,3,28,54,65,87,99,119,146,157,180,200,204,216,238,240,257,268,291,302,317,324,328,334,345,348,377,384,393,399,406,413,418,421,444,452,473,478,496,502,507,516,523,539,554,573,588,606,621,631,632
delta_KILLS,0,0,0,1,1,1,1,2,1,-1,0,0,0,-2,-1,0,2,2,2,3,6,7,5,5,5,6,4,4,7,8,8,5,7,11,11,8,5,5,6,3,8,9,9,9,10,10,9,8,7,8,7,8
delta_CURRENTGOLD,0,0,70,9,-487,1449,543,1928,947,-1890,-619,-1521,-1273,768,-397,1173,388,3262,1681,686,613,147,-3188,-1839,721,1229,-1258,-1371,2525,1665,-94,-2758,43,2237,5081,-1782,-48,-1883,2009,-101,5684,5932,5435,4824,3023,3174,3613,2347,4251,231,4584,3060
delta_TOTALGOLD,0,0,70,359,373,1019,913,1513,1167,-180,176,409,292,-222,788,1408,2447,3472,3526,3691,4517,4227,2792,2769,2971,3379,2346,2234,4254,4270,4195,860,1557,3986,3481,465,-312,-2354,-2099,-4206,-691,307,159,-532,-611,-702,-1610,-2478,-3227,-3866,-3212,-2525
delta_LEVEL,0,0,0,-2,-1,2,2,0,1,-1,-1,2,0,-2,0,1,2,2,0,1,2,3,2,1,1,1,0,0,2,1,3,0,1,4,4,0,-3,-3,-1,-3,0,1,1,-1,0,0,-2,-2,-1,1,0,0
delta_SBIRES,0,0,4,-1,-4,15,13,28,22,5,21,14,7,8,7,11,16,38,37,22,30,35,34,35,33,29,29,24,40,33,50,46,46,55,56,33,46,31,47,38,53,60,58,51,37,30,16,11,14,17,51,51
