name,team0,team1
win,Win,Fail
firstBlood,True,False
firstTower,True,False
firstInhibitor,True,False
firstBaron,False,True
firstDragon,False,True
firstRiftHerald,False,True
towerKills,10,6
inhibitorKills,3,1
baronKills,1,1
dragonKills,5,2
riftHeraldKills,0,1
