name,team0,team1
win,Win,Fail
firstBlood,True,False
firstTower,False,True
firstInhibitor,True,False
firstBaron,True,False
firstDragon,True,False
firstRiftHerald,False,True
towerKills,9,4
inhibitorKills,1,0
baronKills,1,0
dragonKills,4,2
riftHeraldKills,0,1
