name,frame_0,frame_1,frame_2,frame_3,frame_4,frame_5,frame_6,frame_7,frame_8,frame_9,frame_10,frame_11,frame_12,frame_13,frame_14,frame_15,frame_16,frame_17,frame_18,frame_19,frame_20,frame_21,frame_22,frame_23,frame_24,frame_25,frame_26,frame_27,frame_28
nameStamp,Tstart,Tearly,Tearly,Tearly,Tearly,Tearly,Tearly,Tearly,Tearly,Tearly,Tearly,Tearly,Tearly,Tearly,Tearly,Tearly,Tmid,Tmid,Tmid,Tmid,Tmid,Tmid,Tmid,Tmid,Tmid,Tmid,Tend,Tend,Tend
timestamp,0,60034,120036,180058,240085,300101,360134,420139,480168,540188,600215,660240,720244,780257,840262,900292,960311,1020326,1080336,1140351,1200383,1260389,1320403,1380410,1440432,1500445,1560471,1620494,1680494
participant_0_GOLD,500,500,563,776,1223,1366,1772,2062,2296,2544,2750,3010,3604,3726,3863,4295,4488,4949,5412,5655,5777,6836,6959,7319,7786,8945,9131,10040,10514
participant_0_CURRENTGOLD,500,0,63,276,723,266,672,962,1195,144,50,310,904,591,13,445,638,1099,262,505,627,1686,159,519,986,2145,581,1490,1964
participant_0_LEVEL,1,1,1,3,4,4,6,6,7,7,7,8,8,8,8,9,9,10,10,10,10,12,12,12,12,14,14,14,15
participant_0_MINIONSKILLED,0,0,2,7,16,17,30,39,42,50,55,58,68,68,69,81,82,91,92,96,96,97,97,102,111,129,133,148,150
participant_0_KILLS,0,0,0,0,0,0,0,0,0,0,0,0,0,0,0,0,0,0,1,1,1,3,3,3,3,3,3,4,4
participant_0_BUY,[],"[1056, 2003, 2003, 3340]",[],[],[],"[1042, 1042]",[],[],[],"[1043, 1026, 2003]",[1001],[],[],[1052],[3115],[],[],[],[4635],[],[],[],"[1026, 3047]",[],[],[],"[4633, 3057]",[],[]
participant_0_SOLD,[],[],[],[],[2003],[2003],[],[],[],"[1042, 1042]",[2003],[],[],[],"[1043, 1026, 1052]",[],[],[],[],[],[],[],[1001],[],[],[],"[4635, 1026]",[],[]
participant_0_UNDO,[],[],[],[],[],[],[],[],[],[],[],[],[],[],[],[],[],[],[],[],[],[],[],[],[],[],[],[],[]
participant_1_GOLD,500,500,621,978,1603,1956,2175,3468,3710,4288,4630,5073,6140,6467,7094,7771,8831,9200,9738,9995,10162,11110,11337,11789,12167,13592,13820,14123,14745
participant_1_CURRENTGOLD,500,0,121,478,1103,1456,300,1593,1835,2413,555,598,1665,492,1119,1796,2856,3225,3763,120,288,1235,262,715,1092,2518,1546,1048,1670
participant_1_LEVEL,1,1,2,3,4,5,5,6,6,6,7,7,8,8,9,10,11,11,12,12,12,13,13,13,13,15,15,15,15
participant_1_MINIONSKILLED,0,0,0,0,0,0,0,3,4,5,5,5,7,7,7,7,15,22,23,23,25,26,26,27,29,32,38,38,43
participant_1_KILLS,0,0,0,0,0,0,0,0,0,0,0,0,0,1,1,1,2,2,3,3,3,3,3,3,3,3,3,4,4
participant_1_BUY,[],"[1055, 3340, 2003]",[],[],"[1036, 2003]",[],[],"[6670, 2003, 2055]",[],[],[],[],"[1053, 1018]",[],"[6673, 1001]",[],[],[3134],[],[],"[1037, 1042]",[],[3006],[],[],"[6676, 1037]",[],[],[1038]
participant_1_SOLD,[],[],[],[2003],[],[],[2003],[1036],[2003],[],[],[],[],[],"[6670, 1018, 1053]",[],[],[2055],[],[],[],[],"[1001, 1042]",[],[],"[3134, 1037]",[],[],[]
participant_1_UNDO,[],[],[],[],[],[],[],[],[],[],[],[],[],[],[],[],[],[],[],[],[],[],[],[],[],[],[],[],[]
participant_2_GOLD,500,500,626,895,1123,1441,1777,2039,2272,2600,2932,3055,3470,4252,4405,5846,6018,6231,6555,7147,7377,8386,8884,9112,9585,10535,10778,11635,11998
participant_2_CURRENTGOLD,500,0,126,395,223,531,857,1119,42,360,692,90,505,1287,240,1681,153,366,270,862,1092,2101,2599,27,500,1451,218,1075,1298
participant_2_LEVEL,1,1,1,3,4,4,5,6,7,7,8,8,8,9,9,10,10,10,11,11,11,12,13,13,14,15,15,15,15
participant_2_MINIONSKILLED,0,0,6,14,21,30,39,47,50,59,71,71,79,85,86,98,98,104,112,113,114,122,130,130,141,141,148,148,155
participant_2_KILLS,0,0,0,0,1,1,1,4,4,5,5,6,8,8,9,9,10,10,10,10,10,12,12,12,12,14,14,14,15
participant_2_BUY,[],"[1039, 2003, 2003, 2003, 3340]",[],[],[],[],"[1001, 6660, 2055, 3364]",[],[],[],[3068],[1028],[],"[3067, 3133]",[],[],[],[],[],"[3071, 3047, 3123, 1011]",[],[],"[1028, 3077]",[],[],[],[3748],[3066],[]
participant_2_SOLD,[],[],[2003],[2003],[],[],[3340],[],[2055],"[2003, 1039]",[6660],[],[],[1028],[3364],[3513],[],[],[],"[3133, 3067, 1001]",[],[],[],[],[],[],"[3077, 1011]",[],[]
participant_2_UNDO,[],[],[],[],[],[],[],[],[],[],[],[],[],[],[],[],[],[],[],[],[],[],"[[0, 1028]]",[],[],[],[],[],[]
participant_3_GOLD,500,500,542,748,1071,1501,1764,2172,2325,2751,3041,3379,3599,4192,4504,4908,5514,5666,6326,6679,6844,7161,7388,7783,8634,9107,9268,10199,10418
participant_3_CURRENTGOLD,500,0,42,248,171,601,864,197,350,776,1066,1404,124,717,129,533,1139,191,851,1204,194,511,238,633,1484,57,218,1149,68
participant_3_LEVEL,1,1,1,2,3,4,4,5,5,6,6,7,7,8,9,9,9,9,10,10,11,11,11,12,12,13,13,14,14
participant_3_MINIONSKILLED,0,0,1,6,9,28,36,41,43,57,67,76,82,88,99,106,111,112,121,127,129,136,142,154,167,167,168,179,179
participant_3_KILLS,0,0,0,0,0,0,0,0,0,0,0,0,0,1,1,2,2,2,2,3,3,4,4,4,4,5,5,7,7
participant_3_BUY,[],"[1055, 2003, 3340]",[],[],"[1036, 2003]",[],[],[],"[6670, 1036]",[],[],"[1053, 2055, 2003, 2003]",[],[],[6673],[],"[3006, 1042, 1042]",[],[1018],[],[],[],[],"[3046, 1038]",[],[],"[1037, 1018]",[],[]
participant_3_SOLD,[],[],[],[2003],[],[],[],[],"[2003, 1036]",[],[],[1036],[],[2003],"[2003, 6670, 1053]",[],[],[],[1055],[],[2055],[],[],"[1042, 1018, 1042]",[],[],[],[],[]
participant_3_UNDO,[],[],[],[],[],[],[],[],[],[],[],[],[],[],[],[],[],[],[],[],[],[],[],[],[],[],[],[],[]
participant_4_GOLD,500,500,544,713,1148,1352,1487,1907,2121,2401,2556,2766,3306,3521,3734,3989,4344,4814,5051,5391,5531,5972,6112,6312,6574,7644,7784,8225,8643
participant_4_CURRENTGOLD,500,0,44,213,73,277,412,832,96,376,531,291,81,296,109,239,119,589,326,666,406,347,207,408,669,739,110,550,918
participant_4_LEVEL,1,1,1,2,2,3,4,5,5,5,6,6,7,7,7,7,8,9,9,9,9,10,10,10,10,12,12,13,13
participant_4_MINIONSKILLED,0,0,1,3,3,7,7,12,12,16,17,17,21,21,24,25,26,27,28,28,28,28,28,30,31,32,32,32,33
participant_4_KILLS,0,0,0,0,1,1,1,1,1,1,1,1,1,1,1,1,1,2,2,2,2,2,2,2,2,3,3,3,3
participant_4_BUY,[],"[3854, 2003, 2003, 3340]",[],[],"[1028, 2003, 2003, 2055]",[],[],[],"[3067, 1029, 2003, 2055, 2055, 2003, 3364]",[],[],[1033],[3105],[],[3190],"[2003, 2003, 2055]","[1029, 2055, 2003, 2003]",[],[3076],[],[1028],[1011],[1001],[],[],[3075],"[3047, 3075]",[],[]
participant_4_SOLD,[],[],[],[],"[2003, 2003]",[2055],[2003],[2003],"[1028, 3340, 2055]",[],[],"[2003, 2003]","[3854, 1033, 1029]",[],"[2055, 3067, 3105]",[],[2003],[2003],[1029],[],[],[1028],[2003],[2055],[],"[3855, 3076, 1011]","[1001, 2055, 3076, 1011]",[],[]
participant_4_UNDO,[],[],[],[],[],[],[],[],[],[],[],[],[],[],[],"[[0, 2003]]",[],[],[],[],[],[],[],[],[],[],"[[0, 3075]]",[],[]
participant_5_GOLD,500,500,584,853,990,1336,1557,1798,2164,2490,3128,3580,3744,3908,4351,4557,5005,5127,6239,6786,7008,7131,8127,8515,8724,8846,9442,9684,9752
participant_5_CURRENTGOLD,500,0,84,353,65,411,632,873,1239,315,953,1405,1749,163,81,287,735,157,1269,616,98,71,1067,1455,1664,36,633,874,-173
participant_5_LEVEL,1,1,1,3,3,4,5,6,7,7,8,9,9,9,10,10,10,10,11,12,12,12,12,13,13,13,14,14,14
participant_5_MINIONSKILLED,0,0,3,12,13,23,29,36,48,54,67,73,75,77,77,82,93,93,102,108,108,108,114,125,126,126,145,146,146
participant_5_KILLS,0,0,0,0,2,2,2,2,2,2,2,2,4,4,4,4,6,6,6,6,7,7,7,7,7,7,7,7,7
participant_5_BUY,[],"[3858, 2003, 2003, 2055]",[],[],"[1033, 1029]","[1001, 2055]",[],[1028],[],[],[],"[3105, 2055]",[],"[3190, 3117]",[1029],[3364],[3024],[1028],[3067],[],[],"[3050, 1028]",[],[],[],"[3801, 3067]",[],[],[]
participant_5_SOLD,[],[],[],[],[2010],[],[2010],[2010],[2055],[],[],"[1033, 1029]",[],"[1028, 3105, 1001]",[3858],[3340],[1029],[],[1028],[2055],[],"[3067, 3024]",[],"[2055, 3859]",[],[1028],[],[],[]
participant_5_UNDO,[],"[[0, 2003], [0, 2003]]",[],[],[],[],[],[],[],[],[],[],[],[],[],[],[],[],[],[],[],[],[],[],[],[],[],[],[]
participant_6_GOLD,500,500,542,804,1265,1464,1720,2117,2239,2658,2920,3251,3514,3708,4115,4300,4758,5027,5199,5517,6459,6582,7124,7484,7883,8586,9148,9454,9522
participant_6_CURRENTGOLD,500,0,42,304,115,314,570,42,164,583,845,1176,364,558,965,275,133,402,4,322,1264,287,829,1188,288,491,1053,1359,97
participant_6_LEVEL,1,1,1,2,2,3,4,4,5,5,6,6,7,7,8,8,8,9,9,9,10,10,11,11,12,12,13,13,13
participant_6_MINIONSKILLED,0,0,1,9,9,13,21,27,27,41,49,58,63,66,79,83,85,94,94,101,114,114,123,133,135,145,162,167,167
participant_6_KILLS,0,0,0,0,1,1,1,1,1,1,1,1,1,1,1,1,1,2,2,2,2,2,3,3,3,3,3,3,4
participant_6_BUY,[],"[1056, 2003, 2003, 1036, 2031]",[],[],"[1053, 2055, 3364]",[],[],[],[],[3077],[],[],[3047],"[2031, 2055]",[],"[1036, 1036]",[],"[3074, 1052, 2055]","[1028, 2055]",[],"[4635, 3363, 2055]",[],[1026],[],[],[],[],[4633],[]
participant_6_SOLD,[],[],[],[2010],"[1036, 3340]",[],[2010],[2010],[],[2055],[],[],"[2031, 2031, 2422]",[],[],[],[],"[3077, 1053, 1036, 1036, 2055]",[],[2055],"[1028, 1052, 3364]",[],[],[2055],[],[],[],"[4635, 1026]",[]
participant_6_UNDO,[],"[[0, 2003], [0, 2003], [0, 1056]]",[],[],[],[],[],[],[],[],[],[],"[[2031, 0]]","[[0, 2055], [0, 2031]]",[],[],[],[],[],[],[],[],[],[],[],[],[],[],[]
participant_7_GOLD,500,500,542,769,1212,1488,1723,2058,2348,2523,2894,3017,3287,3451,4015,4179,4804,5246,5592,5980,6202,6325,6823,7099,7337,7459,7777,7975,8913
participant_7_CURRENTGOLD,500,0,42,269,87,353,588,913,1203,178,549,672,192,356,920,384,1009,441,312,700,382,505,153,429,666,789,1107,255,1103
participant_7_LEVEL,1,1,1,3,4,5,6,6,7,7,8,8,8,8,9,9,10,10,10,11,11,11,11,12,12,12,12,13,13
participant_7_MINIONSKILLED,0,0,1,7,7,14,20,29,39,43,52,52,57,59,66,68,83,83,89,100,100,100,104,114,117,117,121,121,121
participant_7_KILLS,0,0,0,0,0,0,0,0,0,0,0,0,0,0,1,1,1,1,3,4,4,4,6,6,6,6,6,6,6
participant_7_BUY,[],"[1055, 2003, 3340]",[],[],"[1036, 2055]",[],[],[],[],"[6029, 2003]",[],[],[],[6630],"[1001, 2031, 3363, 2055]",[],[],"[1036, 1036]",[],"[3047, 3133]",[3067],"[2055, 2055]",[],[],[],"[3071, 1036]",[],[],[1037]
participant_7_SOLD,[],[],[],[],"[2003, 2055]",[],[],[],[],[],[2003],[],[1055],"[6029, 1036]",[3340],[2055],[],[],[],"[1001, 1036, 1036]",[2031],[],[2055],[],[2055],"[3133, 3067]",[],[],[]
participant_7_UNDO,[],[],[],[],[],[],[],[],[],[],[],[],[],[],[],[],[],[],[],[],[],[],[],[],[],[],[],[],[]
participant_8_GOLD,500,500,621,978,1241,1363,1621,2077,2384,2537,3164,3607,3750,3921,4144,4481,5332,5632,6293,6569,6791,6914,8251,8459,8952,9075,9304,9767,9836
participant_8_CURRENTGOLD,500,0,121,478,741,863,1121,77,384,137,764,1207,650,821,311,648,1499,1799,2460,836,258,381,1718,1926,2419,142,371,35,103
participant_8_LEVEL,1,1,2,3,3,3,4,4,5,5,6,6,6,6,7,8,9,9,10,11,11,11,11,12,12,12,12,13,13
participant_8_MINIONSKILLED,0,0,0,0,0,0,1,2,2,3,3,3,4,7,7,7,7,8,14,24,24,24,24,25,30,30,36,37,37
participant_8_KILLS,0,0,0,0,0,0,0,1,1,1,2,3,3,3,3,3,4,4,4,4,4,4,5,5,6,6,6,7,7
participant_8_BUY,[],"[1054, 1039, 2031]",[],[],[],[],[],"[3051, 1028]",[],[3067],[],[],[3057],[],[3078],[],[],[],[],"[3006, 3066]",[1031],[],[],[],[],"[3742, 3133]",[],[3067],[]
participant_8_SOLD,[],[],[],[],[],[],[],[],[1039],[1028],[],[],[],[],"[3057, 3051, 3067]",[],[],[],[],[],[],[],[],[],[],"[3066, 1031]",[],[],[]
participant_8_UNDO,[],"[[0, 1054]]",[],[],[],[],[],[],[],[],[],[],[],[],[],[],[],[],[],[],[],[],[],[],[],[],[],[],[]
participant_9_GOLD,500,500,523,699,1639,1815,1971,2126,2260,2458,2634,2865,4299,4455,4716,4856,5647,5862,6232,6483,7315,7455,7820,8093,8233,8373,8514,8729,8808
participant_9_CURRENTGOLD,500,25,48,224,414,215,371,126,260,458,634,40,1474,129,91,231,422,237,207,458,1290,330,695,968,1108,199,339,554,633
participant_9_LEVEL,1,1,1,2,3,4,4,5,5,5,6,6,8,8,9,9,9,10,10,11,11,11,12,12,12,12,12,12,13
participant_9_MINIONSKILLED,0,0,0,2,8,10,11,12,12,15,17,19,19,20,23,23,23,23,24,26,29,29,29,32,32,32,32,32,32
participant_9_KILLS,0,0,0,0,0,0,0,0,0,0,0,0,0,0,0,0,0,0,0,0,0,0,0,0,0,1,1,1,1
participant_9_BUY,[],"[1055, 2003]",[],[],"[1036, 1042]",[],[],"[1053, 1001, 2055]",[],[],[],[],"[6670, 2055]",[],[],"[3006, 2055]",[1018],[],[6673],[],[],[3133],[],[],"[3057, 1018]",[3508],[],[],[1038]
participant_9_SOLD,[],[],[],[2003],[],[],[],[1036],[],[],[],[],"[1042, 2055]",[],[],[1001],[],[2055],"[2055, 6670, 1018, 1053]",[],[],[],[],[],[],"[3133, 3057, 1018]",[],[],[]
participant_9_UNDO,[],[],[],[],[],[],[],[],[],[],[],[],[],[],[],[],[],[],[],[],[],[],[],[],[],[],[],[],[]
team0_KILLS,0,0,0,0,2,2,2,5,5,6,6,7,9,11,12,13,15,16,18,19,19,24,24,24,24,28,28,32,33
team0_CURRENTGOLD,2500,0,396,1610,2293,3131,3105,4703,3518,4069,2894,2693,3279,3383,1610,4694,4905,5470,5472,3357,2607,5880,3465,2302,4731,6910,2673,5312,5918
team0_TOTALGOLD,2500,2500,2896,4110,6168,7616,8975,11648,12724,14584,15909,17283,20119,22158,23600,26809,29195,30860,33082,34867,35691,39465,40680,42315,44746,49823,50781,54222,56318
team0_LEVEL,5,5,6,13,17,20,24,28,30,31,34,36,38,40,42,45,47,49,52,52,53,58,59,60,61,69,69,71,72
team0_SBIRES,0,0,10,30,49,82,112,142,151,187,215,227,257,269,285,317,332,356,376,387,392,409,423,443,479,501,519,545,560
team1_KILLS,0,0,0,0,3,3,3,4,4,4,5,6,8,8,9,9,12,13,15,16,17,17,21,21,22,23,23,24,25
team1_CURRENTGOLD,2500,25,337,1628,1422,2156,3282,2031,3250,1671,3745,4500,4429,2027,2368,1825,3798,3036,4252,2932,3292,1574,4462,5966,6145,1657,3503,3077,1763
team1_TOTALGOLD,2500,2500,2812,4103,6347,7466,8592,10176,11395,12666,14740,16320,18594,19443,21341,22373,25546,26894,29555,31335,33775,34407,38145,39650,41129,42339,44185,45609,46831
team1_LEVEL,5,5,6,13,15,19,23,25,29,29,34,35,38,38,43,44,46,48,50,54,55,55,57,60,61,61,63,65,66
team1_SBIRES,0,0,5,30,37,60,82,106,128,156,188,205,218,229,252,263,291,301,323,359,375,375,394,429,440,450,496,503,503
delta_KILLS,0,0,0,0,-1,-1,-1,1,1,2,1,1,1,3,3,4,3,3,3,3,2,7,3,3,2,5,5,8,8
delta_CURRENTGOLD,0,-25,59,-18,871,975,-177,2672,268,2398,-851,-1807,-1150,1356,-758,2869,1107,2434,1220,425,-685,4306,-997,-3664,-1414,5253,-830,2235,4155
delta_TOTALGOLD,0,0,84,7,-179,150,383,1472,1329,1918,1169,963,1525,2715,2259,4436,3649,3966,3527,3532,1916,5058,2535,2665,3617,7484,6596,8613,9487
delta_LEVEL,0,0,0,0,2,1,1,3,1,2,0,1,0,2,-1,1,1,1,2,-2,-2,3,2,0,0,8,6,6,6
delta_SBIRES,0,0,5,0,12,22,30,36,23,31,27,22,39,40,33,54,41,55,53,28,17,34,29,14,39,51,23,42,57
