name,frame_0,frame_1,frame_2,frame_3,frame_4,frame_5,frame_6,frame_7,frame_8,frame_9,frame_10,frame_11,frame_12,frame_13,frame_14,frame_15,frame_16,frame_17,frame_18,frame_19,frame_20,frame_21,frame_22,frame_23,frame_24,frame_25
nameStamp,Tstart,Tearly,Tearly,Tearly,Tearly,Tearly,Tearly,Tearly,Tearly,Tearly,Tearly,Tearly,Tearly,Tearly,Tmid,Tmid,Tmid,Tmid,Tmid,Tmid,Tmid,Tmid,Tend,Tend,Tend,Tend
timestamp,0,60010,120016,180038,240043,300067,360085,420091,480115,540143,600172,660182,720215,780233,840258,900289,960319,1020335,1080366,1140391,1200399,1260407,1320437,1380437,1440470,1500470
participant_0_GOLD,500,500,583,839,1148,1508,1799,2333,2476,3069,3338,4263,4610,6048,6378,6634,6969,7606,8458,8666,9299,9837,10010,10207,11222,11394
participant_0_CURRENTGOLD,500,0,83,339,648,1008,89,623,301,894,1163,2088,385,1823,203,459,794,1431,2283,191,824,1362,20,217,1232,1244
participant_0_LEVEL,1,1,1,3,4,5,6,7,7,8,9,9,10,11,11,11,12,12,13,13,13,14,14,14,15,15
participant_0_MINIONSKILLED,0,0,3,11,19,30,40,47,48,64,73,82,92,100,109,114,123,124,125,125,130,134,134,134,143,145
participant_0_KILLS,0,0,0,0,1,1,1,1,1,1,1,1,1,2,2,2,2,3,3,3,3,4,4,5,5,5
participant_0_BUY,[],"[3070, 2003, 2003, 3340]",[],[],[],[],[],[],[],"[3802, 1026, 2031]",[],[1001],[],[],[6655],[1033],[],"[3111, 1082, 1027]",[],[],[1058],[],[3003],[],[1026],[]
participant_0_SOLD,[],[],[],[2003],[2003],[],[],[],[],[],[],[],[],[],"[3802, 1026]",[],[],"[1001, 1033]",[],[],[],[],"[3070, 1058, 1027, 3003]",[],[],[]
participant_0_UNDO,[],[],[],[],[],[],[],[],[],[],[],[],[],[],[],[],[],"[[0, 1082]]",[],[],[],[],[],[],[],[]
participant_1_GOLD,500,500,705,963,1461,1704,1912,2148,2391,2884,3211,3617,3824,4146,4454,4886,5131,5598,6133,6546,7051,7780,8037,8230,9328,9493
participant_1_CURRENTGOLD,500,0,205,463,961,1204,237,473,716,509,836,1242,349,671,529,961,1206,240,775,1188,1693,397,654,847,1945,2110
participant_1_LEVEL,1,1,2,3,4,4,5,5,5,6,6,7,7,8,8,8,9,9,10,11,12,13,13,13,14,14
participant_1_MINIONSKILLED,0,0,0,0,2,3,3,4,5,5,5,6,6,6,6,7,7,7,7,7,11,11,11,15,15,16
participant_1_KILLS,0,0,0,0,0,0,0,1,1,1,1,2,2,4,4,4,4,5,7,7,8,8,8,8,9,9
participant_1_BUY,[],"[1056, 2003, 2003, 3340]",[],[],[],[],"[1052, 1028, 1001, 2055]",[],[4635],[],[],[],"[4633, 2055, 2055]",[],"[3111, 1026, 1042]",[],[],[],[],"[3115, 1033]",[],[],"[3211, 1028, 3067, 2055]",[],[],[]
participant_1_SOLD,[],[],[],[],[2003],[],[],[2003],"[1028, 1052]",[],[2055],[],[4635],[],[1001],[],[2055],[],[],"[1042, 1026]",[2055],[],"[1033, 1056, 1028]",[],[],[]
participant_1_UNDO,[],[],[],[],[],[],[],[],[],[],[],[],[],[],[],[],[],[],[],[],[],[],[],[],[],[]
participant_2_GOLD,500,500,611,948,1427,1731,2095,2545,2883,3098,3409,3532,3759,4543,4869,5244,5419,5941,6430,6832,6968,7906,8152,8645,9236,9507
participant_2_CURRENTGOLD,500,0,111,438,917,1211,1565,2015,2343,258,569,392,619,1403,479,404,579,401,890,1292,178,1116,362,855,596,907
participant_2_LEVEL,1,1,1,3,3,4,5,6,7,7,8,8,8,9,9,9,10,10,11,11,11,12,12,13,13,13
participant_2_MINIONSKILLED,0,0,5,14,17,25,36,46,56,59,70,70,76,83,88,96,98,98,114,119,120,129,132,132,140,145
participant_2_KILLS,0,0,0,0,0,2,2,4,4,4,6,6,8,8,8,9,9,11,12,12,14,16,16,16,18,18
participant_2_BUY,[],"[1055, 2003, 3340]",[],[],"[1036, 1036]",[],"[3134, 1053]",[],"[3133, 2055]",[],[],"[6691, 1001, 1042]",[],"[3134, 3006, 1036]","[3363, 1037]",[],[6676],[],[],[3072],[],[],[3156],[],[],[]
participant_2_SOLD,[],[],[],[2003],[],[],"[1036, 1036]",[],[],[],[],"[3134, 3133, 2055]",[],"[1001, 1042]","[3340, 1036]",[],"[3134, 1037]",[],[],[1053],[],[],[],[],[],[]
participant_2_UNDO,[],[],[],[],[],[],[],[],[],[],[],[],[],[],[],[],[],[],[],[],[],[],[],[],[],[]
participant_3_GOLD,500,500,583,1180,1324,2420,2664,3670,3792,4253,5242,5498,6644,7552,7945,8926,9048,10383,11414,11762,12628,13949,14655,15173,16889,17110
participant_3_CURRENTGOLD,500,0,83,680,124,1220,164,1170,117,578,1567,253,1399,357,110,1091,188,1523,2555,402,1269,2590,196,713,2429,2385
participant_3_LEVEL,1,1,1,2,2,4,4,5,5,6,7,7,9,9,9,10,10,11,12,12,12,13,14,14,15,15
participant_3_MINIONSKILLED,0,0,3,13,14,25,27,40,40,52,61,69,77,84,88,100,100,109,115,119,119,122,125,135,150,154
participant_3_KILLS,0,0,0,0,0,0,0,0,0,1,1,1,1,1,1,1,1,1,1,1,2,2,2,2,4,4
participant_3_BUY,[],"[1039, 3340, 2003, 2003, 2003]",[],[],[],[],"[3057, 1028, 2055, 3364]",[],[],"[3067, 1042]",[],[],"[3051, 1001]",[],[1033],[],[],"[3111, 3078, 1036]",[],[],[],"[3044, 1037, 1028]",[],[],[],[]
participant_3_SOLD,[],[],[],"[2003, 2003]",[2003],[],"[3340, 2055]",[],[],"[1039, 1028]",[],[],[1042],[],[],[],[],"[1001, 1033, 3057, 3051, 3067]",[],[],[],[1036],[],[],[],[]
participant_3_UNDO,[],[],[],[],[],[],[],[],[],[],[],[],[],[],[],[],[],[],[],[],[],[],[],[],[],[]
participant_4_GOLD,500,500,562,1477,1652,2121,2395,2624,2819,3045,3641,3811,3992,4397,4651,4985,5165,5540,6168,6308,6798,7440,7647,7863,8743,8893
participant_4_CURRENTGOLD,500,0,62,977,102,571,70,299,19,245,841,161,342,747,1001,385,565,90,718,159,648,1290,247,463,1343,1493
participant_4_LEVEL,1,1,1,2,2,4,4,5,5,6,6,7,7,7,7,8,8,8,9,9,10,11,11,12,12,13
participant_4_MINIONSKILLED,0,0,0,0,0,0,0,0,0,0,0,1,1,2,4,4,4,4,4,4,4,5,5,5,7,7
participant_4_KILLS,0,0,0,2,2,2,2,2,2,2,2,2,2,2,2,2,2,2,3,3,3,3,3,3,3,3
participant_4_BUY,[],"[3850, 2003, 2003, 3340]",[],[],[4642],[],"[1001, 1028, 2055]",[],"[3067, 2055]",[],[],"[4005, 3364]",[],[],[],"[3117, 1004]",[],[1026],[],"[3114, 2055, 2055]",[],[],"[6616, 1033, 1004, 2055, 2055]",[],[],[]
participant_4_SOLD,[],[],[],[],[],"[2003, 2003]",[2055],[],[1028],[3850],[2055],"[3067, 4642, 3340]",[],[],[],[1001],[],[3851],[],[1004],[2055],[2055],"[3114, 1026]",[2055],[],[]
participant_4_UNDO,[],[],[],[],[],[],[],[],[],[],[],[],[],[],[],[],[],[],[],[],[],[],"[[0, 1004]]",[],[],[]
participant_5_GOLD,500,500,562,804,1155,1487,1722,1991,2329,2487,2940,3091,3395,3700,4058,5116,5630,6094,6230,6885,7448,7771,8199,8446,8619,8662
participant_5_CURRENTGOLD,500,0,62,304,655,987,172,91,429,587,1040,166,470,775,343,1401,255,719,455,1110,358,606,1034,156,329,312
participant_5_LEVEL,1,1,1,3,4,5,5,6,7,7,8,8,8,9,9,10,11,11,11,12,13,13,13,14,14,14
participant_5_MINIONSKILLED,0,0,2,9,19,29,36,45,55,57,73,75,85,92,102,117,122,138,139,154,159,159,168,169,169,169
participant_5_KILLS,0,0,0,0,0,0,0,0,0,0,0,0,0,0,0,0,0,0,0,0,0,1,1,1,1,1
participant_5_BUY,[],"[1055, 2003, 3340]",[],[],[],"[1036, 1036, 2003, 2003]",[],[6670],[],"[1036, 2055]",[],[],"[1053, 1036]",[],[],[6673],[],[3133],[],[],[],"[3057, 1042]",[],[3508],[],[]
participant_5_SOLD,[],[],[],[],[],[2003],[],"[1036, 1036]",[],[],[2003],[],"[2003, 1036]",[],[],"[6670, 1053]",[],[1036],[],[],[],[2055],[],"[3133, 3057]",[],[]
participant_5_UNDO,[],[],[],[],[],[],[],[],[],[],[],[],[],[],[],[],[],[],[],[],[],[],[],[],[],[]
participant_6_GOLD,500,500,583,783,1190,1333,1774,1938,2346,2497,2640,3142,3264,3652,4277,4578,4815,5222,5499,5775,6207,7120,7291,7518,7691,7735
participant_6_CURRENTGOLD,500,0,83,283,690,33,474,38,446,172,315,817,39,427,1052,153,390,47,324,600,1032,975,1146,273,446,460
participant_6_LEVEL,1,1,1,2,3,3,4,4,5,5,6,6,6,7,8,8,8,9,9,10,10,11,11,11,11,11
participant_6_MINIONSKILLED,0,0,3,7,21,22,38,40,54,56,57,71,71,87,93,98,102,102,106,110,117,117,120,126,126,126
participant_6_KILLS,0,0,0,0,0,0,0,0,0,0,0,0,0,0,0,0,1,1,1,1,1,1,1,1,1,1
participant_6_BUY,[],"[2003, 1054, 3340]",[],[],"[1028, 2055, 2003]",[],[],"[1033, 2003]",[],"[1029, 2031]",[],"[6660, 2055]",[],"[1031, 3363]",[],[],[],"[6662, 1033]",[],[2055],[],"[3111, 1029]",[],[],"[3076, 1028]",[]
participant_6_SOLD,[],[],[],[2003],[],"[2003, 2055]",[],[],[2003],[],[],[1028],[],"[1029, 3340]",[],[],[],"[6660, 1033, 1031]",[],[],[2055],[1033],[],[],"[1029, 2031]",[]
participant_6_UNDO,[],[],[],[],[],[],[],[],[],[],[],[],[],[],[],[],[],[],[],[],[],[],[],[],[],[]
participant_7_GOLD,500,500,541,857,1043,1312,1526,1746,2091,2277,2525,2896,3123,3395,3567,3752,4414,4935,5127,5383,5813,5936,6204,6647,6820,6864
participant_7_CURRENTGOLD,500,0,41,347,8,267,481,201,536,272,520,216,443,215,387,572,1234,355,547,728,1158,331,599,1042,375,389
participant_7_LEVEL,1,1,1,3,4,4,5,6,7,7,8,8,9,9,9,9,10,10,11,11,11,11,12,12,12,12
participant_7_MINIONSKILLED,0,0,1,10,14,20,25,31,41,45,53,59,65,65,68,72,73,79,83,92,100,100,105,120,120,120
participant_7_KILLS,0,0,0,0,0,0,0,0,0,0,0,0,0,0,0,1,1,1,1,1,2,2,2,2,2,2
participant_7_BUY,[],"[1056, 2003, 2003, 3340]",[],[],[],[],"[1043, 2003]","[1001, 2003]",[],[],[],"[1026, 3006, 2031, 2055]",[],[],[1026],[],"[3115, 1052, 2055]",[],[1028],[],"[4635, 1026]","[3363, 2055]",[],"[4633, 2055]",[],[]
participant_7_SOLD,[],[],[],[],"[2003, 2003]",[],[2003],[],[],[2003],[],[1001],[],[],[2031],[],"[1043, 1026]",[2055],[],[2055],"[1028, 1052]","[3340, 2055]",[],"[4635, 1026]",[],[]
participant_7_UNDO,[],[],[],[],[],[],[],[],[],[],[],"[[0, 1026]]",[],[],[],[],[],[],[],[],[],[],[],[],[],[]
participant_8_GOLD,500,500,620,1018,1141,1398,2082,2479,2915,3523,3830,4377,4970,5682,6932,7154,7730,8752,8874,9750,10022,10444,10671,10793,10986,11030
participant_8_CURRENTGOLD,500,0,120,518,206,463,1147,1544,115,323,630,1167,60,772,2022,259,835,192,314,1190,1462,635,861,983,1177,1230
participant_8_LEVEL,1,1,2,3,3,3,5,5,6,7,8,8,8,9,10,10,11,11,11,12,12,12,12,12,12,12
participant_8_MINIONSKILLED,0,0,0,0,0,0,3,3,4,4,4,8,9,9,12,12,15,15,15,19,19,19,21,21,22,22
participant_8_KILLS,0,0,0,0,0,0,0,0,0,0,0,0,0,0,1,1,2,2,2,2,2,2,2,2,2,2
participant_8_BUY,[],"[3858, 2003, 2003, 3340]",[],[],[],"[1028, 2003]",[],[1028],[],"[6660, 1001]",[1029],[],"[3076, 2055]",[],[],"[3117, 1029]",[],[1033],[3364],[],"[3105, 1028]",[],[],[],[3068],[]
participant_8_SOLD,[],[],[],"[2003, 2003]",[],[],[],[2003],[],"[1028, 1028]",[],[3858],[1029],[],[2055],[1001],[],[],[3340],[3859],"[1033, 1029]",[],[],[],"[6660, 3105]",[]
participant_8_UNDO,[],[],[],[],[],[],[],[],[],[],[],[],[],[],[],[],[],[],[],[],[],[],[],[],[],[]
participant_9_GOLD,500,500,522,678,915,1049,1292,1447,1692,1946,2194,2559,2849,3053,3734,3992,4599,4739,4880,5229,5419,5640,5836,6019,6240,6311
participant_9_CURRENTGOLD,500,0,22,178,415,99,342,97,342,96,44,409,124,328,1009,267,874,564,705,1054,94,315,511,694,215,286
participant_9_LEVEL,1,1,1,1,3,3,4,4,4,5,5,6,6,6,7,8,8,8,8,9,9,10,10,10,10,10
participant_9_MINIONSKILLED,0,0,0,1,4,4,7,8,11,12,15,19,19,22,23,25,28,28,28,35,35,36,40,43,43,44
participant_9_KILLS,0,0,0,0,0,0,1,1,2,3,3,4,5,6,7,7,7,10,10,11,11,12,12,12,12,12
participant_9_BUY,[],"[1039, 3340, 2003, 2003, 2003]",[],[],[1052],[],[],[],"[3145, 1026, 1082, 2003]",[1028],[],[],"[4636, 3020]",[],[],"[3057, 3113, 1026, 1052]",[],"[3100, 2420]",[],[],[],[1058],[],[],[],[]
participant_9_SOLD,[],[],[],[],"[2003, 2003]",[],[2003],[],[1052],[1039],[],[2003],"[3145, 1028, 1026, 2422]",[],[],[3340],[],"[3057, 1052, 1026]","[3513, 2420]",[],[],[],[],[],[],[]
participant_9_UNDO,[],[],[],[],[],[],[],[],[],[],[],[],[],[],[],"[[0, 3113]]",[],[],[],[],[],[],[],[],[],[]
team0_KILLS,0,0,0,2,3,5,5,8,8,9,11,12,14,17,17,18,18,22,26,26,30,33,33,34,39,39
team0_CURRENTGOLD,2500,0,544,2897,2752,5214,2125,4580,3496,2484,4976,4136,3094,5001,2322,3300,3332,3685,7221,3232,4612,6755,1479,3095,7545,8139
team0_TOTALGOLD,2500,2500,3044,5407,7012,9484,10865,13320,14361,16349,18841,20721,22829,26686,28297,30675,31732,35068,38603,40114,42744,46912,48501,50118,55418,56397
team0_LEVEL,5,5,6,13,15,21,24,28,29,33,36,38,41,44,44,46,49,50,55,56,58,63,64,66,69,70
team0_SBIRES,0,0,11,38,52,83,106,137,149,180,209,228,252,275,295,321,332,342,365,374,384,401,407,421,455,467
team1_KILLS,0,0,0,0,0,0,1,1,2,3,3,4,5,6,8,9,11,14,14,15,16,18,18,18,18,18
team1_CURRENTGOLD,2500,0,328,1630,1974,1849,2616,1971,1868,1450,2549,2775,1136,2517,4813,2652,3588,1877,2345,4682,4104,2862,4151,3148,2542,2677
team1_TOTALGOLD,2500,2500,2828,4140,5444,6579,8396,9601,11373,12730,14129,16065,17601,19482,22568,24592,27188,29742,30610,33022,34909,36911,38201,39423,40356,40602
team1_LEVEL,5,5,6,12,17,18,23,25,29,31,35,36,37,40,43,45,48,49,50,54,55,57,58,59,59,59
team1_SBIRES,0,0,6,27,58,75,109,127,165,174,202,232,249,275,298,324,340,362,371,410,430,431,454,479,480,481
delta_KILLS,0,0,0,2,3,5,4,7,6,6,8,8,9,11,9,9,7,8,12,11,14,15,15,16,21,21
delta_CURRENTGOLD,0,0,216,1267,778,3365,-491,2609,1628,1034,2427,1361,1958,2484,-2491,648,-256,1808,4876,-1450,508,3893,-2672,-53,5003,5462
delta_TOTALGOLD,0,0,216,1267,1568,2905,2469,3719,2988,3619,4712,4656,5228,7204,5729,6083,4544,5326,7993,7092,7835,10001,10300,10695,15062,15795
delta_LEVEL,0,0,0,1,-2,3,1,3,0,2,1,2,4,4,1,1,1,1,5,2,3,6,6,7,10,11
delta_SBIRES,0,0,5,11,-6,8,-3,10,-16,6,7,-4,3,0,-3,-3,-8,-20,-6,-36,-46,-30,-47,-58,-25,-14
