name,team0,team1
win,Win,Fail
firstBlood,False,True
firstTower,True,False
firstInhibitor,True,False
firstBaron,True,False
firstDragon,False,True
firstRiftHerald,False,True
towerKills,9,2
inhibitorKills,2,0
baronKills,1,0
dragonKills,1,4
riftHeraldKills,0,1
