name,frame_0,frame_1,frame_2,frame_3,frame_4,frame_5,frame_6,frame_7,frame_8,frame_9,frame_10,frame_11,frame_12,frame_13,frame_14,frame_15,frame_16,frame_17,frame_18,frame_19,frame_20,frame_21,frame_22,frame_23,frame_24,frame_25,frame_26,frame_27,frame_28,frame_29,frame_30,frame_31,frame_32,frame_33,frame_34,frame_35,frame_36,frame_37,frame_38,frame_39
nameStamp,Tstart,Tearly,Tearly,Tearly,Tearly,Tearly,Tearly,Tearly,Tearly,Tearly,Tearly,Tearly,Tearly,Tearly,Tearly,Tearly,Tearly,Tmid,Tmid,Tmid,Tmid,Tmid,Tmid,Tmid,Tmid,Tmid,Tmid,Tmid,Tmid,Tmid,Tmid,Tmid,Tmid,Tmid,Tmid,Tmid,Tmid,Tmid,Tmid,Tmid
timestamp,0,60013,120042,180058,240087,300099,360125,420139,480148,540163,600182,660197,720211,780231,840247,900260,960271,1020272,1080283,1140299,1200328,1260337,1320367,1380407,1440431,1500459,1560467,1620499,1680524,1740536,1800553,1860582,1920601,1980632,2040664,2100688,2160696,2220728,2280746,2340746
participant_0_GOLD,500,500,563,906,1162,1400,1663,1925,2214,2577,2846,3350,3725,4189,4742,5032,5805,6222,6645,6970,7537,7891,8237,8676,9154,9791,10139,10737,11033,11808,12454,13105,13227,13450,13749,14349,15663,15871,16397,16553
participant_0_CURRENTGOLD,500,0,63,406,662,125,388,650,239,602,871,1375,250,714,1267,407,1180,1597,2020,95,312,666,87,526,1004,141,490,212,508,1284,104,456,78,300,600,1200,2514,221,748,703
participant_0_LEVEL,1,1,1,3,4,5,6,7,7,8,8,9,10,10,11,11,12,12,13,13,13,13,14,14,14,15,15,15,15,16,17,17,17,17,17,18,18,18,18,18
participant_0_MINIONSKILLED,0,0,2,13,20,26,34,41,48,59,67,79,90,100,112,118,130,143,153,161,162,176,184,190,192,193,193,194,200,204,207,215,215,216,216,220,229,231,233,234
participant_0_KILLS,0,0,0,0,0,0,0,0,0,0,0,0,0,0,0,0,1,1,1,1,1,1,1,1,1,2,2,2,2,2,3,3,3,3,3,3,3,3,3,3
participant_0_BUY,[],"[3854, 3340, 2003, 2003]",[],[],[],[],[],[],"[3067, 1001]",[],[],[1028],[],"[3066, 1004]",[],[],"[2065, 1029, 3364, 2055]",[],[],[],[],"[3047, 3066]",[],[],[],[1031],[1028],[],"[3742, 1029]",[],[],[],"[3076, 1028, 1011]",[],[],[],[],[3075],[1028],[]
participant_0_SOLD,[],[],[],[2003],[2003],[],[],[],[],[],[],[],[],"[3854, 1028]",[],[],"[3067, 1004, 3066, 3340]",[],[],[],[],"[1001, 1029]",[2055],[3855],[],[],[],[],"[3066, 1028, 1031]",[],[],[],"[1029, 1028]",[],[],[],[],"[3076, 1011]",[],[]
participant_0_UNDO,[],[],[],[],[],[],[],[],[],[],[],[],[],[],[],[],[],[],[],[],[],[],[],[],[],[],[],[],[],[],[],[],[],[],[],[],[],[],[],[]
participant_1_GOLD,500,500,621,1673,2058,2389,2663,2940,3222,3430,3855,4118,4385,4962,5084,5507,5940,6076,6434,7132,7340,7752,8000,8258,8785,8907,9140,9312,9724,10008,10392,10903,11315,11937,12350,12924,13561,13809,14381,15457
participant_1_CURRENTGOLD,500,0,121,1173,1558,1889,338,615,897,280,705,968,1235,87,134,557,990,251,609,1307,1515,602,500,758,260,383,615,87,500,33,418,928,1340,163,575,1150,1787,2034,607,1482
participant_1_LEVEL,1,1,2,3,4,5,5,5,6,6,7,7,8,8,8,9,9,9,10,11,11,12,12,12,13,13,13,13,13,14,14,15,15,16,16,17,17,17,18,18
participant_1_MINIONSKILLED,0,0,0,0,0,0,0,0,0,0,0,0,0,0,0,1,1,2,2,2,2,2,2,2,2,2,2,2,2,7,11,15,15,15,15,30,38,38,38,38
participant_1_KILLS,0,0,0,0,0,0,0,0,0,0,0,0,0,0,0,0,0,0,0,0,1,1,1,1,2,3,3,4,4,5,5,6,6,6,6,7,9,9,9,9
participant_1_BUY,[],"[2033, 3340]",[],[],[],"[3057, 2055]",[],[],"[1001, 1028]",[],[],[],"[3044, 3067]",[],[],"[6632, 1033]",[],[],[],"[3111, 3077, 1036, 1053]",[1036],[],"[3074, 2055]",[],[],"[3044, 1028]",[],[1037],[],[],"[3053, 3133]",[1029],[1031],[],[],[],[],"[6333, 1038]",[],[]
participant_1_SOLD,[],[],[],[],[],[],[2055],[],[],[],[],[],[1028],[],[],"[3044, 3057, 3067]",[],[],[],"[1001, 1033, 2033, 1036]",[],[],"[3077, 1053, 1036]",[],[2055],[],[],[],[],[],"[1037, 3044, 1028]",[],[1029],[],[],[],[],"[1031, 3133]",[],[]
participant_1_UNDO,[],[],[],[],[],[],[],[],[],[],[],[],[],[],[],[],[],[],[],[],[],[],[],[],[],[],[],[],[],[],[],[],[],[],[],[],[],[],[],[]
participant_2_GOLD,500,500,591,1121,1415,1608,1943,2674,3035,3214,3504,3739,4022,4560,4682,5000,5628,5910,6619,6741,7567,8143,8390,8704,8977,9099,9397,9736,10060,10184,11847,12044,12272,12489,12695,12908,13221,13393,14065,14208
participant_2_CURRENTGOLD,500,0,91,621,905,173,498,1229,1580,59,349,584,867,555,152,470,248,530,1239,91,917,1493,205,520,377,499,797,1136,561,684,2347,395,572,790,996,1208,272,444,1116,1258
participant_2_LEVEL,1,1,1,3,4,4,5,6,7,8,8,8,9,10,10,10,10,11,12,12,13,13,13,14,14,14,14,14,15,15,16,16,16,16,17,17,17,17,18,18
participant_2_MINIONSKILLED,0,0,4,8,16,20,30,39,49,52,62,69,78,84,84,92,94,100,109,109,127,132,138,140,140,140,150,156,164,164,182,182,189,189,194,195,196,196,205,210
participant_2_KILLS,0,0,0,2,2,2,2,2,2,2,2,2,2,3,3,3,3,3,3,4,4,4,4,4,5,5,5,5,5,5,5,5,5,6,6,6,7,7,7,10
participant_2_BUY,[],"[1039, 3340, 2031, 3364]",[],[],[],[],"[3134, 1001, 2055, 1036]",[],[],"[3133, 2055]",[],[],[],"[6691, 1029, 2055, 1036]",[2055],[],[],[1037],[],[],[],"[3047, 3134, 2055]",[2033],[],[3142],[],[],"[1036, 1036]",[],"[3134, 1036]",[],[],[],"[3814, 1036]",[],[],[],[],"[3035, 3133]",[]
participant_2_SOLD,[],[3340],[],[],[],[],[],[],"[1039, 2055]",[1036],[2055],[3364],[3513],"[3134, 3133]",[2055],[],[2055],[],[],[],[],"[1001, 1029, 1036]",[2031],[],"[3134, 1037]",[],[2055],[],[],"[1036, 1036]",[],[],[],"[1036, 3134]",[],[],[],[],"[1036, 2033]",[]
participant_2_UNDO,[],[],[],[],[],[],[],[],[],[],[],[],[],[],[],[],[],[],[],[],[],[],[],[],[],[],[],[],[],[],[],[],[],[],[],[],[],[],[],[]
participant_3_GOLD,500,500,521,843,1148,1529,1914,2260,2507,2931,3144,3468,4272,4890,5290,5950,6271,6483,7053,7734,8216,8733,9295,9552,9987,10109,10745,11632,11889,12959,13448,13804,14060,14757,15284,16191,16314,16781,17238,18355
participant_3_CURRENTGOLD,500,500,21,343,648,1029,1414,1760,2007,2431,219,543,1347,1965,2365,3025,246,458,1028,1709,2191,2708,3270,127,562,684,1321,807,1064,2135,2623,2980,536,1232,1760,147,1670,2137,494,1430
participant_3_LEVEL,1,1,1,2,2,3,4,5,5,6,7,7,8,8,9,10,10,10,11,11,12,12,13,13,13,13,14,14,15,16,16,16,16,17,17,17,17,18,18,18
participant_3_MINIONSKILLED,0,0,0,9,19,31,43,56,60,78,84,92,106,117,129,139,145,146,162,173,183,193,204,208,218,218,230,237,237,255,263,266,269,270,282,291,291,298,298,301
participant_3_KILLS,0,0,0,0,0,0,0,1,1,1,1,1,1,1,1,1,1,1,2,2,3,4,4,4,4,4,4,4,4,4,6,6,6,6,6,6,6,6,6,6
participant_3_BUY,[],"[1055, 2003, 3340]",[],[],[],"[1037, 2003]",[],[],[],"[3077, 1053, 1036, 2055, 2003]",[],[],[],[3074],"[1001, 2055, 2003, 2003, 2003]",[],[1026],[],[],[4635],[],[],"[4633, 1052, 2003]",[],[3113],[],[],[],"[3111, 2003, 2003]",[],[],[3100],[2003],[],[],[],[4630],[],[],[]
participant_3_SOLD,[],[],[],[2003],[],[],[2003],[],[],[1037],[2003],[],[2055],"[3077, 1053, 1036]",[],[],[],[],[],[2055],[2003],[2003],"[2003, 4635, 1026]",[],[1052],[],[2003],[],[1001],[],[2003],[3113],[],[],[],[2003],[2003],[],[],[]
participant_3_UNDO,[],[],[],[],[],[],[],[],[],[],[],[],[],[],[],[],[],[],[],[],[],[],[],[],[],[],[],[],[],[],[],[],[],[],[],[],[],[],[],[]
participant_4_GOLD,500,500,565,759,936,1133,1298,1488,1622,1820,1975,2110,2537,2877,3018,3373,4113,4284,4699,5010,5226,5366,5655,5987,6202,6664,6804,7161,7608,7749,8701,8916,9057,9207,9355,9571,9711,10044,10435,10808
participant_4_CURRENTGOLD,500,0,65,259,436,633,798,988,22,220,375,110,537,227,368,723,238,409,824,1135,1351,191,480,812,1027,689,429,787,33,175,1126,1341,82,232,381,596,736,70,60,433
participant_4_LEVEL,1,1,1,2,3,4,4,5,5,5,6,6,6,7,7,7,8,8,9,9,10,10,10,10,11,11,11,12,12,13,13,14,14,14,14,14,14,14,15,16
participant_4_MINIONSKILLED,0,0,2,3,5,8,9,12,12,15,16,16,19,21,21,24,24,25,30,31,35,35,39,41,41,42,42,48,58,58,60,60,60,61,61,61,61,64,64,64
participant_4_KILLS,0,0,0,0,0,0,0,0,0,0,0,0,1,2,2,3,3,3,3,4,4,4,4,4,4,4,4,4,4,5,5,5,5,6,6,7,7,7,7,9
participant_4_BUY,[],[],"[1055, 2003, 3340]",[],[],[],[],[],[],[],"[3134, 1053, 1001, 2055, 2003]",[],[],[],[],[],"[6692, 3006, 3134]",[],[],[],[],[],[],"[6676, 3134, 1028]",[],[],[],[3814],[],[],[],[],[3033],[],[],[3094],[1038],[],[3072],[]
participant_4_SOLD,[],[],[],[],[],[],[],[],[2003],[],[],[2055],[],[],[2003],[],"[3134, 1053, 1001]",[],[],[],[],[],[],[3134],[],[],[],"[3134, 1028]",[],[],[],[],[],[],[],[1055],[],[],[1038],[]
participant_4_UNDO,[],[],[],[],[],[],[],[],[],[],[],[],[],[],[],[],[],[],[],[],[],[],[],[],[],[],[],[],[],[],[],[],[],[],[],[],"[[0, 3094]]",[],[],[]
participant_5_GOLD,500,500,563,881,1253,1627,1855,2183,2479,2644,3090,3634,3826,4011,4318,4524,4895,6178,6363,6576,6873,7400,7675,8061,8494,8853,8995,10226,10818,11004,11267,12252,12909,13277,13752,15155,15751,15873,16518,16584
participant_5_CURRENTGOLD,500,0,63,381,753,1127,1355,1683,1979,169,615,1159,176,361,668,249,620,1903,288,501,798,1325,225,611,19,378,521,1751,443,630,197,1183,1839,382,858,2260,1357,179,823,709
participant_5_LEVEL,1,1,1,2,3,4,4,5,6,6,6,7,7,7,8,9,9,10,10,10,10,11,11,11,12,12,12,13,14,14,14,15,15,15,16,16,17,17,17,17
participant_5_MINIONSKILLED,0,0,2,13,25,37,43,52,59,61,77,89,93,97,102,107,117,129,132,133,136,151,156,164,164,168,168,172,183,186,194,211,225,230,241,250,259,259,276,276
participant_5_KILLS,0,0,0,0,0,0,0,0,0,0,0,0,0,0,0,0,0,0,0,0,0,0,0,0,2,2,2,3,3,4,4,4,4,5,5,5,5,5,5,5
participant_5_BUY,[],"[2033, 3340]",[],[],[],"[1028, 1001]",[],[],[],"[3044, 1028, 2055, 2055]",[],[],[3067],[],[],[],[],[],[],"[6632, 3047, 1036, 3123]",[],"[1036, 1036]",[],[],"[3133, 1028]","[6609, 1053, 1042, 1042]",[],"[1043, 1037]",[],[],"[3153, 1028]",[],"[3044, 1028]",[],[],[],[],[],"[3053, 1036]",[]
participant_5_SOLD,[],[],[],[],[],[],[],[],[2010],[1028],[],[2055],[1028],[],[2055],[],[2010],[2010],[],"[3044, 3067, 1001, 1036]",[],[],[],[],"[1036, 1036]","[3123, 1028, 3133, 2033]",[],"[1042, 1042]",[],[],"[1053, 1043, 1037]",[],[1028],[],[],[],[],[],"[3044, 1028]",[]
participant_5_UNDO,[],[],[],[],[],[],[],[],[],[],[],[],[],[],[],[],[],[],[],[],[],[],[],[],[],[],[],[],[],[],[],[],[],[],[],[],[],[],[],[]
participant_6_GOLD,500,500,621,933,1156,1525,1679,2033,2323,2616,2973,3316,3523,4199,4636,4863,5636,6082,6303,6958,7130,7533,8048,8290,8818,8982,9125,9517,10107,10370,10645,10908,11269,11589,11712,11834,12130,12253,12507,12573
participant_6_CURRENTGOLD,500,0,121,433,356,725,879,1233,1523,166,523,866,373,1049,1486,163,936,1382,303,958,330,733,1248,1490,618,782,176,567,1157,1420,131,393,754,1075,122,245,191,313,568,173
participant_6_LEVEL,1,1,2,3,3,4,4,5,6,6,7,7,7,8,9,9,10,11,11,12,12,12,13,13,14,14,14,14,15,15,16,16,16,17,17,17,17,17,17,17
participant_6_MINIONSKILLED,0,0,0,0,0,0,0,2,6,6,6,7,7,12,12,12,17,23,24,31,31,39,44,49,57,60,61,64,69,70,75,75,84,89,89,89,96,96,100,100
participant_6_KILLS,0,0,0,0,0,0,0,0,0,0,0,0,0,0,0,0,0,1,1,1,1,1,1,1,1,1,1,3,3,3,3,4,4,4,4,6,7,7,7,7
participant_6_BUY,[],"[1055, 2003, 3340]",[],[],[],[],[],[],[],"[6670, 1018, 2055]",[],[],"[1037, 1001]",[],[],[6672],[],[],"[3086, 1042, 1042]",[],[],[],"[3006, 1037]",[],[3085],[],[],[],"[1038, 1018]",[],"[3095, 1037]",[],[],"[3031, 3086]",[],[],"[3123, 3033]",[1038],[],[]
participant_6_SOLD,[],[],[],[2003],[],[],[],[],[],[],[],[],[2055],[],[],"[6670, 1018, 1037]",[],[],[],[],[],[],"[1001, 1042]",[],"[1037, 3086, 1042]",[],[],[],[],[],"[1055, 1038, 1018]",[],[],"[1038, 1037, 1018]",[],[],"[3123, 3086]",[],[],[]
participant_6_UNDO,[],[],[],[],[],[],[],[],[],[],[],[],[],[],[],[],[],[],[],[],[],[],[],[],[],[],[],[],[],[],"[[0, 3095]]",[],[],[],[],[],[],[],[],[]
participant_7_GOLD,500,500,584,790,1099,1361,1617,1802,2036,2406,2605,2950,3318,3611,4372,4655,4874,5046,5294,5730,6357,6480,6691,6917,7945,8213,8642,8856,9293,9507,9706,10390,10734,10856,11161,11490,11612,11777,12209,12275
participant_7_CURRENTGOLD,500,0,84,65,364,316,572,247,481,841,175,510,868,236,987,1270,239,411,659,345,1192,310,171,397,425,393,822,236,73,287,487,85,429,37,341,671,148,312,380,-710
participant_7_LEVEL,1,1,1,2,4,4,5,6,6,7,7,8,9,9,10,10,11,11,11,11,12,12,12,13,13,13,13,14,14,15,15,15,15,15,15,16,16,16,16,16
participant_7_MINIONSKILLED,0,0,3,8,17,22,30,34,41,52,56,66,76,77,88,97,98,98,105,111,117,117,122,125,125,130,139,139,140,145,150,152,156,156,162,166,166,169,177,177
participant_7_KILLS,0,0,0,0,0,0,0,0,0,0,0,0,0,1,1,1,2,2,2,3,3,3,3,3,3,3,3,3,3,3,3,3,3,3,3,3,3,3,3,3
participant_7_BUY,[],"[1039, 2031, 3340]",[],[],"[1036, 1001]",[],[],[],[],"[6029, 1033]",[],[],"[3111, 1036]",[],[],"[3133, 3067]",[],[],[6630],[],[3067],[],[],[],[3071],[],"[1028, 1036]",[],[],[],"[3044, 1037, 1028]",[],[],[],"[3053, 1036]",[],[1036],[],[],[3133]
participant_7_SOLD,[],[],[],[],[],[],[],[],[],[],[1039],[],"[1001, 1033]",[],[],[1036],[],[],"[6029, 3067]",[],[],[],[],[],"[3133, 3067]",[],[],[],[],[],"[1028, 1036, 2031]",[],[],[],"[1037, 3044, 1028]",[],[],[],[],"[1036, 1036]"
participant_7_UNDO,[],[],[],[],"[[0, 1036]]",[],[],[],[],[],[],[],[],[],[],[],[],[],[],[],[],[],[],[],[],[],[],[],[],[],[],[],[],[],[],[],[],[],[],[]
participant_8_GOLD,500,500,563,783,1116,1375,1660,1998,2340,2550,2989,3307,3605,3925,4314,4595,4931,5291,5759,5945,6391,6598,6793,7569,8846,9277,9624,10342,10465,11261,11384,11982,12563,13006,13128,13400,13528,14096,14303,14370
participant_8_CURRENTGOLD,500,0,63,283,616,175,460,798,1140,100,539,857,755,1075,1464,1745,2081,2441,2909,95,541,48,243,1019,1496,227,575,17,140,937,234,832,314,756,879,1151,1278,1847,104,-30
participant_8_LEVEL,1,1,1,2,4,4,5,6,7,7,8,9,9,10,10,10,11,11,12,12,13,13,13,14,14,15,15,15,15,16,16,16,17,17,17,17,17,17,17,17
participant_8_MINIONSKILLED,0,0,2,7,16,20,28,37,45,50,65,72,81,88,99,106,114,121,132,136,150,155,159,175,178,183,191,194,194,208,208,212,227,227,227,227,227,235,235,235
participant_8_KILLS,0,0,0,0,0,0,0,0,0,0,0,1,1,1,2,2,3,3,3,3,3,3,3,3,3,3,3,3,3,3,3,4,4,4,4,4,4,5,5,5
participant_8_BUY,[],"[3862, 3340, 2003, 2003]",[],[],[],[],[],[],[2031],[3067],[],[],[],[3044],[],[3057],[],[],"[6632, 3111, 3364, 2055]",[],[],[],[],"[3070, 1036]",[],[3133],[],[],[],[],[3004],[],[3086],[],[],[],[],[],[1037],[]
participant_8_SOLD,[],[],[],[],[],[2010],[],"[2010, 2010]","[2003, 2003]",[],[],[],[],[3862],[],[],[],[],"[3044, 3057, 3067, 2422, 3340]",[],"[2055, 3863]",[],[],[],[],[1036],[],[],[],[],"[3070, 3133]",[],[],[],[],[],[],[2031],[],[3004]
participant_8_UNDO,[],[],[],[],[],[],[],[],[],[],[],[],[],[],[],[],[],[],[],[],[],[],[],[],[],[],[],[],[],[],[],[],[],[],[],[],[],[],[],[]
participant_9_GOLD,500,500,523,703,910,1050,1194,1382,1579,1717,1897,2407,2641,2783,3401,3562,4195,4792,4933,5094,5345,5497,5702,5899,6152,6334,6480,6789,7293,7616,7756,8528,8707,9069,9305,9575,10007,10584,10773,10849
participant_9_CURRENTGOLD,500,0,23,203,410,550,694,882,929,267,447,957,1191,233,851,312,945,1542,108,269,520,672,877,324,577,10,155,464,968,1291,331,1103,82,445,680,950,1382,2019,1334,1349
participant_9_LEVEL,1,1,1,2,3,3,4,5,5,5,6,7,7,7,8,8,9,9,9,10,10,10,11,11,11,11,11,12,13,13,13,14,14,15,15,16,16,17,17,17
participant_9_MINIONSKILLED,0,0,0,0,0,0,0,1,1,1,2,2,2,2,2,2,4,4,4,5,5,5,8,8,9,10,10,13,17,18,18,18,19,22,27,29,32,39,41,41
participant_9_KILLS,0,0,0,0,0,0,0,0,0,0,0,0,0,0,1,1,1,1,1,1,2,2,2,2,4,4,4,4,5,5,5,6,6,6,6,6,6,6,6,6
participant_9_BUY,[],"[1056, 2003, 2003, 3340]",[],"[2055, 2031]",[],"[1052, 1001]",[],"[1052, 2055]",[],[],[3802],[],[],"[1026, 2055, 3364]",[],[],[6655],[],[],"[3070, 1027]",[],[1058],[1027],[],[3003],[1029],[],[3020],[3191],[],[],"[3108, 2420, 1052]",[],[3157],[],[],"[3057, 1052]",[],[3916],[]
participant_9_SOLD,[],[],[],"[2003, 2003]",[2055],[],[],[],[2055],[],[1052],[],[],"[3340, 2055]",[],[],"[3802, 1026]",[],[],[],"[1056, 2031]",[1027],[],[],"[3070, 1058, 1027]",[],[],[1001],[1029],[],[],[],[],"[2420, 2421, 3191, 1052, 2421]",[3003],[],[3057],[],[1052],[]
participant_9_UNDO,[],[],[],[],[],"[[0, 1052]]",[],[],[],[],[],[],[],[],[],[],[],[],[],[],[],[],[],[],[],[],[],[],[],[],[],"[[0, 3108]]",[],"[[2421, 0]]",[],[],[],[],[],[]
team0_KILLS,0,0,0,2,2,2,2,3,3,3,3,3,4,6,6,7,8,8,9,11,13,14,14,14,16,18,18,19,19,21,24,25,25,27,27,29,32,32,32,37
team0_CURRENTGOLD,2500,500,361,2802,4209,3849,3436,5242,4745,3592,2519,3580,4236,3548,4286,5182,2902,3245,5720,4337,6286,5660,4542,2743,3230,2396,3652,3029,2666,4311,6618,6100,2608,2717,4312,4301,6979,4906,3025,5306
team0_TOTALGOLD,2500,2500,2861,5302,6719,8059,9481,11287,12600,13972,15324,16785,18941,21478,22816,24862,27757,28975,31450,33587,35886,37885,39577,41177,43105,44570,46225,48578,50314,52708,56842,58772,59931,61840,63433,65943,68470,69898,72516,75381
team0_LEVEL,5,5,6,13,17,21,24,28,30,33,36,37,41,43,45,47,49,50,55,56,59,60,62,63,65,66,67,68,70,74,76,78,78,80,81,83,83,84,87,88
team0_SBIRES,0,0,8,33,60,85,116,148,169,204,229,256,293,322,346,374,394,416,456,476,509,538,567,581,593,595,617,637,661,688,723,738,748,751,768,797,815,827,838,847
team1_KILLS,0,0,0,0,0,0,0,0,0,0,0,1,1,2,4,4,6,7,7,8,9,9,9,9,13,13,13,16,17,18,18,21,21,22,22,24,25,26,26,26
team1_CURRENTGOLD,2500,0,354,1365,2499,2893,3960,4843,6052,1543,2299,4349,3363,2954,5456,3739,4821,7679,4267,2168,3381,3088,2764,3841,3135,1790,2249,3035,2781,4565,1380,3596,3418,2695,2880,5277,4356,4670,3209,1491
team1_TOTALGOLD,2500,2500,2854,4090,5534,6938,8005,9398,10757,11933,13554,15614,16913,18529,21041,22199,24531,27389,28652,30303,32096,33508,34909,36736,40255,41659,42866,45730,47976,49758,50758,54060,56182,57797,59058,61454,63028,64583,66310,66651
team1_LEVEL,5,5,6,11,17,19,22,27,30,31,34,38,39,41,45,46,50,52,53,55,57,58,60,62,64,65,65,68,71,73,74,76,77,79,80,82,83,84,84,84
team1_SBIRES,0,0,7,28,58,79,101,126,152,170,206,236,259,276,303,324,350,375,397,416,439,467,489,521,533,551,569,582,603,627,645,668,711,724,746,761,780,798,829,829
delta_KILLS,0,0,0,2,2,2,2,3,3,3,3,2,3,4,2,3,2,1,2,3,4,5,5,5,3,5,5,3,2,3,6,4,4,5,5,5,7,6,6,11
delta_CURRENTGOLD,0,500,7,1437,1710,956,-524,399,-1307,2049,220,-769,873,594,-1170,1443,-1919,-4434,1453,2169,2905,2572,1778,-1098,95,606,1403,-6,-115,-254,5238,2504,-810,22,1432,-976,2623,236,-184,3815
delta_TOTALGOLD,0,0,7,1212,1185,1121,1476,1889,1843,2039,1770,1171,2028,2949,1775,2663,3226,1586,2798,3284,3790,4377,4668,4441,2850,2911,3359,2848,2338,2950,6084,4712,3749,4043,4375,4489,5442,5315,6206,8730
delta_LEVEL,0,0,0,2,0,2,2,1,0,2,2,-1,2,2,0,1,-1,-2,2,1,2,2,2,1,1,1,2,0,-1,1,2,2,1,1,1,1,0,0,3,4
delta_SBIRES,0,0,1,5,2,6,15,22,17,34,23,20,34,46,43,50,44,41,59,60,70,71,78,60,60,44,48,55,58,61,78,70,37,27,22,36,35,29,9,18
