name,frame_0,frame_1,frame_2,frame_3,frame_4,frame_5,frame_6,frame_7,frame_8,frame_9,frame_10,frame_11,frame_12,frame_13,frame_14,frame_15,frame_16,frame_17,frame_18,frame_19,frame_20,frame_21,frame_22
nameStamp,Tstart,Tearly,Tearly,Tearly,Tearly,Tearly,Tearly,Tearly,Tearly,Tearly,Tearly,Tearly,Tearly,Tmid,Tmid,Tmid,Tmid,Tmid,Tmid,Tmid,Tmid,Tmid,Tmid
timestamp,0,60001,120030,180032,240041,300044,360052,420069,480079,540092,600110,660125,720143,780154,840157,900182,960212,1020224,1080227,1140243,1200255,1260259,1320259
participant_0_GOLD,500,500,541,705,1099,1761,2038,2345,3330,3495,4282,4502,4944,5186,5759,6182,6354,6660,7010,7183,8253,8375,9174
participant_0_CURRENTGOLD,500,0,41,205,599,11,288,595,1580,245,132,352,794,386,959,332,154,460,240,413,183,305,924
participant_0_LEVEL,1,1,1,2,4,5,5,6,8,8,9,9,9,10,10,10,10,11,11,11,11,12,12
participant_0_MINIONSKILLED,0,0,1,3,16,20,29,37,47,49,61,67,67,74,87,87,87,91,99,99,101,101,101
participant_0_KILLS,0,0,0,0,0,1,1,1,2,2,3,3,4,4,4,4,4,4,4,4,5,5,6
participant_0_BUY,[],"[1055, 2003, 3340]",[],[],[],"[6029, 2003]",[],[],[],"[3044, 1028]","[6630, 1001]",[],[],"[1029, 1036]",[],"[3047, 1053]",[1036],[],"[1036, 3133]",[],[3074],[],[]
participant_0_SOLD,[],[],[],[],[2003],[],[],[2003],[],[],"[6029, 3044, 1028]",[],[],[],[],"[1001, 1029, 1036]",[],[],"[1055, 1036, 1036]",[],"[1053, 3133]",[],[]
participant_0_UNDO,[],[],[],[],[],[],[],[],[],[],[],[],[],[],[],[],[],[],[],[],[],[],[]
participant_1_GOLD,500,500,620,1017,1297,1965,2214,2719,2841,3064,3286,3682,3939,4198,4545,5002,6145,7248,7621,8369,8586,8857,8936
participant_1_CURRENTGOLD,500,0,120,517,797,690,939,1444,191,414,636,1032,1289,1548,1895,2352,1195,323,696,1444,1661,383,111
participant_1_LEVEL,1,1,2,3,4,4,5,6,6,6,7,7,8,8,8,9,9,9,10,10,11,11,11
participant_1_MINIONSKILLED,0,0,0,0,1,4,7,13,13,13,13,15,15,16,24,24,24,24,25,38,38,46,46
participant_1_KILLS,0,0,0,0,0,1,1,1,1,1,1,1,1,1,1,1,2,3,3,4,4,4,4
participant_1_BUY,[],"[1035, 3340, 2031]",[],[],[],"[1036, 1036, 2055, 3364]",[],[],"[3134, 1053, 2055]",[],[],[],[],[],[],[],"[6692, 3047]","[1031, 3133, 2055]",[],[],[],"[6333, 1036]",[1036]
participant_1_SOLD,[],[],[],[],[],[3340],[2055],[],"[1036, 1036]",[2055],[3364],[3513],[1035],[],[],[],"[3134, 1053]",[],[],[],[2055],"[1031, 3133]",[]
participant_1_UNDO,[],[],[],[],[],[],[],[],[],[],[],[],[],[],[],[],[],[],[],[],[],[],[]
participant_2_GOLD,500,500,611,975,1239,1564,1879,2321,2611,2960,3556,3679,4593,4841,5073,5490,6417,6617,7374,8047,8595,8717,8795
participant_2_CURRENTGOLD,500,0,111,465,729,1044,1349,56,346,685,1281,189,1093,491,63,480,1407,307,1064,352,50,172,310
participant_2_LEVEL,1,1,1,3,4,5,6,6,7,7,8,8,9,10,10,10,11,11,12,12,13,13,13
participant_2_MINIONSKILLED,0,0,5,16,24,33,41,41,51,61,70,70,84,91,94,105,106,107,122,132,138,138,138
participant_2_KILLS,0,0,0,0,0,0,0,1,1,1,2,2,2,2,2,2,3,3,4,4,5,5,5
participant_2_BUY,[],"[1056, 2003, 2003, 3340]",[],[],[],[],[],"[3191, 1001, 1052, 2003, 2003]",[],[],[],"[1026, 1028, 3020, 3113]",[],"[1026, 1026]",[2420],[],[],[3100],[],"[3157, 1052]",[1026],[],[]
participant_2_SOLD,[],[],[],[],"[2003, 2003]",[],[],[],[2003],[],[2003],"[1001, 1052]",[],[],[],[],[],"[2420, 3113, 1026]",[],"[3191, 2421]",[],[],[]
participant_2_UNDO,[],[],[],[],[],[],[],[],[],[],[],"[[0, 1028], [0, 1026]]",[],"[[0, 1026]]",[],[],[],[],[],[],[],[],[]
participant_3_GOLD,500,500,583,803,1162,1305,1575,1959,2151,2402,2524,3120,3434,3619,3742,3998,4278,4684,5170,5569,5872,6337,6416
participant_3_CURRENTGOLD,500,0,83,303,362,505,75,459,51,302,424,1020,459,644,167,423,703,484,370,269,572,1037,116
participant_3_LEVEL,1,1,1,2,3,3,4,5,5,6,6,6,7,7,7,7,8,9,9,10,10,11,11
participant_3_MINIONSKILLED,0,0,3,9,21,22,28,39,43,50,50,65,72,76,76,81,86,95,99,104,110,120,120
participant_3_KILLS,0,0,0,0,0,0,0,0,0,0,0,0,0,0,0,0,0,0,0,0,0,0,0
participant_3_BUY,[],"[3850, 2003, 2003, 3340]",[],[],"[1082, 2055]",[],[1052],[],"[2055, 2031, 3364, 1004]",[],[4642],[],[1028],[],[],[],"[3067, 2055]",[],[6617],[],[],[1004],[]
participant_3_SOLD,[],[],[],"[2003, 2003]",[],[],[],[2055],"[3850, 3340]",[],"[1004, 1052]",[],[],[],[2055],[],[1028],[3851],"[3067, 4642]",[],[],[],[]
participant_3_UNDO,[],[],[],[],[],[],[],[],[],[],[],[],[],[],[],[],[],[],[],[],[],[],[]
participant_4_GOLD,500,520,562,856,1013,1187,1382,1686,1883,2093,2293,2484,2674,2855,3045,3295,3600,3798,3938,4158,4449,4589,4679
participant_4_CURRENTGOLD,500,20,62,356,88,262,22,326,48,258,93,284,74,255,445,695,525,723,13,233,524,414,504
participant_4_LEVEL,1,1,1,2,3,3,4,4,4,5,5,5,5,6,6,7,7,7,7,8,9,9,9
participant_4_MINIONSKILLED,0,0,0,0,1,1,1,2,2,2,2,3,3,3,4,4,5,5,5,6,6,6,6
participant_4_KILLS,0,0,0,0,0,0,0,0,0,0,0,0,0,0,0,0,0,0,1,1,1,1,1
participant_4_BUY,[],"[1055, 2003, 3340]",[],[],[1042],[],"[1036, 1036]",[],"[6670, 1001]",[],[],[],[1037],[],[1018],[],[],[6672],"[1042, 1042]",[3006],[],[2015],"[1018, 2015]"
participant_4_SOLD,[],[],[],[2003],[],[],[],[],"[1036, 1042, 1036]",[],[],[],[],[],[],[],[],"[6670, 1018, 1037]",[],"[1001, 1042]",[],[1042],[1042]
participant_4_UNDO,[],[],[],[],[],[],[],[],[],[],[],[],[],[],[],[],[],[],[],[],[],"[[0, 2015]]",[]
participant_5_GOLD,500,500,562,926,1197,1644,1963,2312,2483,2909,3031,3439,4068,4539,4827,6277,6895,8000,8443,9211,9333,9668,10054
participant_5_CURRENTGOLD,500,0,62,426,697,44,363,712,33,459,181,589,1218,1689,169,1619,2237,3342,485,1253,75,411,796
participant_5_LEVEL,1,1,1,3,4,5,6,6,7,7,7,8,9,10,10,11,11,12,13,13,13,13,14
participant_5_MINIONSKILLED,0,0,2,14,22,30,41,51,54,69,69,81,95,106,112,122,123,136,151,158,158,161,164
participant_5_KILLS,0,0,0,0,0,0,0,0,0,0,0,0,0,0,0,2,3,4,4,4,4,4,4
participant_5_BUY,[],"[1055, 2003, 3340]",[],[],[],[3051],[],[],"[3057, 2031]",[],[1028],[],[],[],"[3078, 1001, 1042, 2055]",[],[],[],[3071],[],"[3006, 3066]",[],[]
participant_5_SOLD,[],[],[],[],[2003],[],[],[],[],[],[],[],[],[],"[3057, 3051, 1028]",[2055],[],[],[],[],"[1001, 1042]",[],[]
participant_5_UNDO,[],[],[],[],[],[],[],[],[],[],[],[],[],[],[],[],[],[],[],[],[],[],[]
participant_6_GOLD,500,500,620,947,1298,1833,1956,2268,3155,3483,3895,4636,4913,5172,5323,5800,6161,6554,6766,7309,7626,7923,8729
participant_6_CURRENTGOLD,500,0,120,447,798,58,181,118,1005,1333,1745,2486,288,547,698,1175,336,728,941,284,601,898,1704
participant_6_LEVEL,1,1,2,3,3,4,4,5,6,6,7,8,8,9,9,10,10,10,10,10,11,11,12
participant_6_MINIONSKILLED,0,0,0,0,0,0,0,2,2,2,2,11,11,11,12,12,13,13,13,13,13,13,13
participant_6_KILLS,0,0,0,0,0,1,1,1,3,3,3,4,4,4,4,4,4,4,4,5,5,5,7
participant_6_BUY,[],"[1039, 2031, 3340]",[],[],[],"[6029, 2055]",[],"[1001, 2055]",[],[],[],[],"[6630, 1029, 2055]",[],[],[],"[3047, 1036, 1036]",[],[],"[3133, 3067]",[],[],[]
participant_6_SOLD,[],[],[],[],[],[],[2055],[],[1039],[],[],[],"[2055, 6029]",[],[],[],"[1001, 1029]",[],[],"[1036, 1036]",[],[],[]
participant_6_UNDO,[],[],[],[],[],[],[],[],[],[],[],[],[],[],[],[],[],[],[],[],[],[],[]
participant_7_GOLD,500,500,611,905,1176,1543,1844,2130,2517,2845,3037,3532,3760,4225,4584,5061,5729,6395,6608,7411,7842,8162,8859
participant_7_CURRENTGOLD,500,0,111,395,666,1023,1314,150,527,845,87,572,450,915,1274,1751,2419,35,248,451,882,1202,1959
participant_7_LEVEL,1,1,1,3,4,5,6,6,7,7,8,9,9,9,10,10,10,11,11,12,12,13,13
participant_7_MINIONSKILLED,0,0,5,13,21,32,39,40,52,61,65,75,78,87,97,102,103,105,110,116,123,126,130
participant_7_KILLS,0,0,0,1,1,1,1,2,2,2,2,2,3,3,4,6,6,6,7,7,7,7,7
participant_7_BUY,[],"[3850, 2003, 2003, 3340]",[],[],"[1052, 1004, 2003, 2003]",[],[],"[3117, 2055]",[],[],[],"[3916, 4642, 3364, 1028]",[],"[3067, 2055]","[4005, 1027, 3070, 2055]",[],[],[1058],[],[],"[3003, 1029]",[],[]
participant_7_SOLD,[],[],[2003],[2003],[],[2003],[2003],[],[2055],[3850],[],"[1052, 1004, 3340]",[],"[1028, 2055]","[3851, 3067, 4642]",[2055],[],[],[],[],"[3070, 1058]",[],[]
participant_7_UNDO,[],[],[],[],[],[],[],[],[],[],[],[],[],[],"[[0, 1027]]",[],[],[],[],[],[],[],[]
participant_8_GOLD,500,500,583,1012,1279,1675,2313,2575,3210,3465,4511,4696,5653,5852,6360,6998,7563,7791,7913,8289,9145,9731,10127
participant_8_CURRENTGOLD,500,0,83,512,79,475,1113,275,910,265,1311,221,1178,47,545,913,1478,406,528,404,1260,1846,402
participant_8_LEVEL,1,1,1,2,3,4,5,5,7,7,8,8,8,9,9,10,10,10,10,11,12,12,12
participant_8_MINIONSKILLED,0,0,3,11,17,30,41,49,63,71,81,85,93,97,107,115,120,120,120,125,130,134,135
participant_8_KILLS,0,0,0,0,0,0,1,1,2,2,4,4,5,5,5,5,6,6,6,6,8,9,10
participant_8_BUY,[],"[1055, 2003, 3340]",[],[],"[1036, 1036]",[],[],"[3134, 1036, 1036]",[],"[1053, 1001, 2003]",[],"[6692, 1036, 2055]",[],"[3134, 1018]",[],[1042],[],[6676],[],[3006],[],[],"[3035, 1036]"
participant_8_SOLD,[],[],[],[2003],[],[],[],"[1036, 1036]",[],[1036],[],"[3134, 1036, 1053]",[],"[1036, 2003]",[],[2055],[],"[3134, 1018]",[],"[1001, 1042]",[],[],[]
participant_8_UNDO,[],[],[],[],[],[],[],[],[],[],[],[],[],[],[],[],[],[],[],[],[],[],[]
participant_9_GOLD,500,520,562,1216,1366,1560,1912,2406,2901,3147,3873,4023,4998,5208,5739,6541,6973,7438,7779,8200,8700,8890,9150
participant_9_CURRENTGOLD,500,20,62,716,81,275,627,46,541,787,1513,98,1073,808,14,816,1248,463,804,1225,75,266,525
participant_9_LEVEL,1,1,1,2,3,4,5,5,5,6,7,7,7,7,8,8,9,9,10,10,11,11,12
participant_9_MINIONSKILLED,0,0,0,0,1,1,1,1,1,2,2,3,7,8,8,9,9,9,11,12,17,17,18
participant_9_KILLS,0,0,0,0,0,0,0,0,0,0,0,0,0,1,1,1,2,4,4,5,5,5,6
participant_9_BUY,[],"[1055, 2003]",[],[],[],[],[],"[3006, 1036]",[],[],[6670],[],[1036],[],[],[],[],"[6673, 1038]",[],[1018],[],[],[]
participant_9_SOLD,[],[],[],[],[2003],[],[],[],[],[],[1036],[],[],[],[],[],[],"[6670, 1036]",[],[],[],[],[]
participant_9_UNDO,[],[],[],[],[],[],[],[],[],[],[],[],[],[],[],[],[],[],[],[],[],[],[]
team0_KILLS,0,0,0,0,0,2,2,3,4,4,6,6,7,7,7,7,9,10,12,13,15,15,16
team0_CURRENTGOLD,2500,20,417,1846,2575,2512,2673,2880,2216,1904,2566,2877,3709,3324,3529,4282,3984,2297,2383,2711,2990,2311,1965
team0_TOTALGOLD,2500,2520,2917,4356,5810,7782,9088,11030,12816,14014,15941,17467,19584,20699,22164,23967,26794,29007,31113,33326,35755,36875,38000
team0_LEVEL,5,5,6,12,18,20,24,27,30,32,35,35,38,41,41,43,45,47,49,51,54,56,56
team0_SBIRES,0,0,9,28,63,80,106,132,156,175,196,220,241,260,285,301,308,322,350,379,393,411,411
team1_KILLS,0,0,0,1,1,2,3,4,7,7,9,10,12,13,14,18,21,24,25,27,29,30,34
team1_CURRENTGOLD,2500,20,438,2496,2321,1875,3598,1301,3016,3689,4837,3966,4207,4006,2700,6274,7718,4974,3006,3617,2893,4623,5386
team1_TOTALGOLD,2500,2520,2938,5006,6316,8255,9988,11691,14266,15849,18347,20326,23392,24996,26833,30677,33321,36178,37509,40420,42646,44374,46919
team1_LEVEL,5,5,6,13,17,22,26,27,32,33,37,40,41,44,46,49,50,52,54,56,59,60,63
team1_SBIRES,0,0,10,38,61,93,122,143,172,205,219,255,284,309,336,360,368,383,405,424,441,451,460
delta_KILLS,0,0,0,-1,-1,0,-1,-1,-3,-3,-3,-4,-5,-6,-7,-11,-12,-14,-13,-14,-14,-15,-18
delta_CURRENTGOLD,0,0,-21,-650,254,637,-925,1579,-800,-1785,-2271,-1089,-498,-682,829,-1992,-3734,-2677,-623,-906,97,-2312,-3421
delta_TOTALGOLD,0,0,-21,-650,-506,-473,-900,-661,-1450,-1835,-2406,-2859,-3808,-4297,-4669,-6710,-6527,-7171,-6396,-7094,-6891,-7499,-8919
delta_LEVEL,0,0,0,-1,1,-2,-2,0,-2,-1,-2,-5,-3,-3,-5,-6,-5,-5,-5,-5,-5,-4,-7
delta_SBIRES,0,0,-1,-10,2,-13,-16,-11,-16,-30,-23,-35,-43,-49,-51,-59,-60,-61,-55,-45,-48,-40,-49
