name,frame_0,frame_1,frame_2,frame_3,frame_4,frame_5,frame_6,frame_7,frame_8,frame_9,frame_10,frame_11,frame_12,frame_13,frame_14,frame_15,frame_16,frame_17,frame_18,frame_19,frame_20,frame_21,frame_22
nameStamp,Tstart,Tearly,Tearly,Tearly,Tearly,Tearly,Tearly,Tearly,Tearly,Tearly,Tearly,Tearly,Tearly,Tearly,Tearly,Tearly,Tmid,Tmid,Tmid,Tmid,Tmid,Tmid,Tmid
timestamp,0,60022,120036,180038,240059,300069,360074,420085,480096,540100,600101,660113,720124,780156,840188,900207,960209,1020218,1080228,1140236,1200258,1260271,1320271
participant_0_GOLD,500,500,563,762,1078,1319,1547,1969,2293,2765,2887,3143,3405,3653,3888,4291,4791,5446,5610,6103,6253,6873,7080
participant_0_CURRENTGOLD,500,0,63,262,578,819,1047,1469,293,765,287,543,805,1053,1288,1691,2191,2846,360,403,153,773,980
participant_0_LEVEL,1,1,1,3,4,5,6,7,7,8,8,8,9,10,10,11,11,12,12,12,12,13,13
participant_0_MINIONSKILLED,0,0,2,6,15,21,27,35,44,55,55,62,70,77,84,94,98,107,110,110,112,116,118
participant_0_KILLS,0,0,0,1,1,1,1,1,2,2,2,2,3,3,3,3,3,3,3,3,6,6,6
participant_0_BUY,[],"[1082, 2003, 2003, 2003, 3340]",[],"[1052, 2003, 2055, 2003]",[],[],"[1052, 2003, 2003]",[],[],[],"[3145, 1053, 1001]",[],[],"[3144, 3363, 2055, 2003, 2003]",[],[],[],"[3146, 2003, 2003, 2055]",[1052],[],[],[],[]
participant_0_SOLD,[],[],[],"[2003, 2003, 2003]",[2055],"[2003, 2003]",[],[],"[2003, 2003]",[],"[1052, 1052]",[],[],"[1053, 3340]","[2003, 2003, 1082]",[2055],[],"[3144, 3145]","[2003, 2003]",[],[2055],[],[]
participant_0_UNDO,[],[],[],[],[],[],[],[],[],[],[],[],[],[],"[[1082, 0]]",[],[],[],[],[],[],[],[]
participant_1_GOLD,500,500,521,788,1011,1210,1373,1960,2107,2330,2713,2864,3176,3383,3815,4088,4335,4697,4840,5269,5491,5899,5978
participant_1_CURRENTGOLD,500,0,21,288,211,410,73,660,82,305,688,839,1151,108,540,813,185,547,690,1119,1341,449,528
participant_1_LEVEL,1,1,1,2,2,3,3,4,4,4,5,5,6,6,7,7,8,8,8,9,9,10,10
participant_1_MINIONSKILLED,0,0,0,0,0,0,0,0,1,1,5,7,7,7,8,8,8,8,9,10,10,10,10
participant_1_KILLS,0,0,0,0,0,0,0,0,0,0,1,1,1,1,1,1,1,3,3,3,3,3,3
participant_1_BUY,[],"[3854, 2003, 2003, 3340]",[],[],[],[],[],[3009],[],"[1029, 2055, 2003]",[],[],"[3024, 3105, 1029, 2055, 2003, 2003]",[],[],[],"[3050, 3067, 1029, 3364]",[],[3109],"[1029, 1029]",[],[],[]
participant_1_SOLD,[],[],[],[2003],[2003],[2010],[2010],[],[2010],[],"[2003, 2055]",[],"[1029, 1029]","[2003, 3854]",[2003],[2055],"[3105, 1029, 3340]",[],"[3067, 1029]",[],[],[],[]
participant_1_UNDO,[],[],[],[],[],[],[],[],[],[],[],[],"[[0, 3024]]",[],[],[],[],[],[],"[[0, 1029]]",[],[],[]
participant_2_GOLD,500,500,598,1161,1347,1532,1697,1994,2436,2931,3095,3302,3920,4126,4305,4726,4969,5245,5367,5957,7151,7520,7599
participant_2_CURRENTGOLD,500,0,98,51,237,422,52,349,791,1286,70,277,895,226,405,826,1069,420,107,697,1891,2260,2199
participant_2_LEVEL,1,1,1,2,3,4,4,5,5,6,7,7,9,9,9,10,10,11,11,11,12,12,12
participant_2_MINIONSKILLED,0,0,4,5,9,13,15,25,25,35,37,42,49,54,57,62,66,75,75,81,88,93,93
participant_2_KILLS,0,0,0,0,0,0,1,1,1,1,1,2,4,4,6,9,11,11,13,13,14,16,16
participant_2_BUY,[],"[1055, 3340, 2003]",[],[],[],[],"[1038, 2031]",[],[],"[1001, 1042]",[],[],[3006],"[3095, 1037, 3095]",[],[],[3031],[],[],"[3086, 2015]",[],[],[]
participant_2_SOLD,[],[],[],[],[],[],[2003],[],[],[],[],[],"[1001, 1042]","[1038, 1038]",[],[],[],[],[],[2031],[],[],[]
participant_2_UNDO,[],[],[],[],[],[],[],[],[],[],[],[],[],"[[0, 3095], [0, 1037]]",[],[],[],[],[],[],[],[],[]
participant_3_GOLD,500,500,521,829,1071,1549,2069,2380,2502,2681,3276,4000,5036,5263,6416,7712,8444,9202,10169,10512,11198,12438,12618
participant_3_CURRENTGOLD,500,0,21,329,571,1049,139,450,572,151,746,1470,2006,333,1486,2782,114,872,1839,142,828,2068,2168
participant_3_LEVEL,1,1,1,2,3,3,4,5,5,5,6,7,8,8,9,9,9,10,11,11,12,12,12
participant_3_MINIONSKILLED,0,0,0,8,15,23,27,33,33,36,51,59,72,78,89,93,93,102,115,115,125,137,137
participant_3_KILLS,0,0,0,0,0,0,0,0,0,0,0,0,0,0,0,0,0,1,1,2,2,2,2
participant_3_BUY,[],"[1054, 2003, 3340]",[],[],[],[],[],[],"[3047, 1028]",[],"[1029, 1029]",[],[],[],[],[],[],[],"[3075, 1028, 1028, 1036]",[3052],[1028],[],[]
participant_3_SOLD,[],[],[],[],[],[],[],[],[],[2003],[],[],[],[],[],[],[],[],"[1029, 1029, 1028]","[1036, 1028]",[],[],[]
participant_3_UNDO,[],[],[],[],[],[],[],[],[],[],[],[],[],[],[],[],[],[],"[[0, 1028]]",[],[],[],[]
participant_4_GOLD,500,500,523,738,887,1084,1369,1578,1862,2018,2545,2985,3290,3474,4020,4763,5138,5934,6452,6643,7125,7874,8058
participant_4_CURRENTGOLD,500,0,23,238,387,584,869,178,462,193,720,1160,190,374,920,1663,88,884,302,193,675,1424,1608
participant_4_LEVEL,1,1,1,2,3,4,4,5,5,5,6,6,7,7,8,8,9,9,10,10,11,11,11
participant_4_MINIONSKILLED,0,0,0,2,3,4,4,4,4,5,7,8,9,12,14,16,16,16,19,19,21,25,25
participant_4_KILLS,0,0,0,0,0,0,0,1,1,1,1,1,1,1,1,1,1,2,2,2,2,2,2
participant_4_BUY,[],"[1041, 2031, 3340]",[],[],[1001],[],"[1039, 2055, 2055]",[],"[3715, 1036, 2055]",[],[],[],[],[3144],[],[],"[3006, 2055]",[],[],[],[],"[1043, 1042]",[]
participant_4_SOLD,[],[],[],[],[],[],[],[2055],"[1039, 1041]",[],[2055],[],[],[1036],[],[],[1001],[2055],[],[2055],"[3340, 3513]",[],[]
participant_4_UNDO,[],[],[],[],[],[],[],[],[],[],[],[],[],[],[],[],[],[],[],[],[],[],[]
participant_5_GOLD,500,500,563,818,1067,1308,1543,1665,2260,2383,2673,2969,3238,3564,3792,3991,4128,4306,4880,5157,5363,5576,5615
participant_5_CURRENTGOLD,500,0,63,318,567,808,1043,165,760,183,473,769,1038,1364,1592,1291,128,306,880,1157,463,276,315
participant_5_LEVEL,1,1,1,3,4,5,6,6,7,7,8,8,9,9,10,10,10,10,11,11,11,11,11
participant_5_MINIONSKILLED,0,0,2,9,16,23,29,29,35,35,45,51,60,68,74,79,80,83,87,91,96,97,98
participant_5_KILLS,0,0,0,0,0,0,1,1,1,1,1,1,1,1,2,2,2,2,2,2,2,2,2
participant_5_BUY,[],"[1056, 2003, 2003, 3340]",[],[1027],[],[],[],"[3802, 2003]",[],"[1001, 2003, 2003]",[],[],"[1026, 2003]",[],[],[3285],[],[],[],[3020],[],[],[]
participant_5_SOLD,[],[],[],[2003],[2003],[],[],[1027],[2003],[],"[2003, 2003]",[],[],[],[2003],"[3802, 1026]",[],[],[],[1001],[],[],[]
participant_5_UNDO,[],[],[],[],[],[],[],[],[],[],[],[],[],[],[],[],[],[],[],[],[],[],[]
participant_6_GOLD,500,500,621,933,1133,1385,1678,1915,2337,2560,2812,2935,3157,3471,3694,3930,4203,4355,4627,5255,5477,5742,5771
participant_6_CURRENTGOLD,500,0,121,433,633,885,1178,1415,287,210,237,360,232,546,219,455,728,880,252,880,167,432,461
participant_6_LEVEL,1,1,2,3,3,4,4,5,5,5,6,6,6,7,7,8,8,8,8,9,9,9,10
participant_6_MINIONSKILLED,0,0,0,0,0,1,1,2,2,2,2,2,2,8,8,14,14,15,15,15,15,18,18
participant_6_KILLS,0,0,0,0,0,0,0,0,1,1,1,1,1,1,1,1,1,1,1,2,2,2,2
participant_6_BUY,[],"[1039, 2003, 2003, 2003, 3340]",[],[],[],[],[],[],"[3706, 3108]",[1001],"[1027, 2055, 2031, 2055, 1004]",[],[1027],[],"[1402, 1029]",[],[],[],"[3158, 1029]",[],"[3191, 1052]",[],[]
participant_6_SOLD,[],[],[2003],[2003],[],[],[2003],[],[1039],[],[],[],[],[2055],"[3108, 1027, 3706]",[],[],[],[1001],[],"[1029, 1029]",[],[]
participant_6_UNDO,[],[],[],[],[],[],[],[],[],[],"[[0, 2055], [0, 1027], [0, 1004]]",[],[],[],[],[],[],[],[],[],[],[],[]
participant_7_GOLD,500,500,612,776,1053,1294,1808,1972,2244,2479,2838,3085,3228,3392,4158,4280,4403,4582,4856,5054,5190,5366,5395
participant_7_CURRENTGOLD,500,0,112,-124,153,394,908,22,294,129,488,735,-22,142,908,-70,53,232,506,-96,-10,166,395
participant_7_LEVEL,1,1,1,2,4,5,6,6,7,7,8,8,9,9,10,10,10,10,11,11,11,11,11
participant_7_MINIONSKILLED,0,0,5,7,16,21,27,30,30,37,42,46,47,50,58,58,58,62,66,66,67,73,73
participant_7_KILLS,0,0,0,0,0,0,0,0,1,1,1,1,1,1,1,1,1,1,2,2,2,2,2
participant_7_BUY,[],"[1054, 2003, 3340]",[],[],[],[],[],"[1036, 1036, 1001]",[],"[3133, 1042]",[],[],[],[],[],[3006],[1038],[],[],[],[3508],[1028],[]
participant_7_SOLD,[],[],[],[],[2003],[],[],[],[],"[1036, 1036]",[],[],[],[],[],"[1001, 1042]",[],[],[],[],"[1038, 3133]",[],[]
participant_7_UNDO,[],[],[],[],[],[],[],[],[],[],[],[],[],[],[],[],[],[],[],[],[],[],[]
participant_8_GOLD,500,500,563,783,1036,1158,1773,2014,2136,2457,2649,2994,3451,3720,3843,3965,4238,4360,4974,5097,5219,5447,5476
participant_8_CURRENTGOLD,500,0,63,283,536,58,673,914,161,482,174,519,176,445,568,90,363,485,1099,102,224,452,301
participant_8_LEVEL,1,1,1,2,3,3,4,5,5,6,6,6,7,7,7,7,8,8,8,8,8,9,9
participant_8_MINIONSKILLED,0,0,2,8,13,13,21,28,28,37,41,51,53,62,62,62,62,62,64,64,64,70,70
participant_8_KILLS,0,0,0,0,0,0,1,1,1,1,1,1,2,2,2,2,2,2,3,3,3,3,3
participant_8_BUY,[],"[1055, 2003, 3340]",[],[],[],"[1042, 1001]",[],[],[1037],[],[3006],[],[1018],[],[],[3086],[],[],[],[1038],[],[],[]
participant_8_SOLD,[],[],[],[2003],[],[],[],[],[],[],"[1001, 1042]",[],[],[],[],[1018],[],[],[],[1055],[],[],[]
participant_8_UNDO,[],[],[],[],[],[],[],[],[],[],[],[],[],[],[],[],[],[],[],[],[],[],[]
participant_9_GOLD,500,500,523,706,841,1115,1421,1555,1689,1924,2079,2317,2636,2897,3032,3166,3901,4035,4272,4531,4684,4853,4887
participant_9_CURRENTGOLD,500,0,23,206,341,265,571,705,839,224,379,617,136,397,132,266,40,175,412,671,224,392,387
participant_9_LEVEL,1,1,1,2,3,4,4,4,4,4,5,6,6,7,7,7,8,8,8,9,9,9,9
participant_9_MINIONSKILLED,0,0,0,3,3,8,9,9,9,12,13,16,18,22,22,22,22,22,24,27,28,30,30
participant_9_KILLS,0,0,0,0,0,0,0,0,0,0,0,0,0,0,0,0,2,2,2,2,2,2,2
participant_9_BUY,[],"[3858, 2003, 3340, 2003]",[],[],[],"[1001, 2003]",[],[],[],"[3117, 2003, 2003, 2003]",[],[],[1031],[],[1028],[],[3109],[],[],[],"[2421, 1029, 1029]",[],[]
participant_9_SOLD,[],[],[],"[2003, 2003, 2010]",[],[],[],[],[2003],[1001],"[2003, 2003, 2010, 2010]",[2003],[2419],[],[],[2423],"[2424, 1028, 1031]",[],[],[],[3858],[],[]
participant_9_UNDO,[],[],[],[],[],[],[],[],[],[],[],[],[],[],[],[],[],[],[],[],"[[0, 2421]]",[],[]
team0_KILLS,0,0,0,1,1,1,2,3,4,4,5,6,9,9,11,14,16,20,22,23,27,29,29
team0_CURRENTGOLD,2500,0,226,1168,1984,3284,2180,3106,2200,2700,2511,4289,5047,2094,4639,7775,3647,5569,3298,2554,4888,6974,7483
team0_TOTALGOLD,2500,2500,2726,4278,5394,6694,8055,9881,11200,12725,14516,16294,18827,19899,22444,25580,27677,30524,32438,34484,37218,40604,41333
team0_LEVEL,5,5,5,11,15,19,21,26,26,28,32,33,39,40,43,45,47,50,52,53,56,58,58
team0_SBIRES,0,0,6,21,42,61,73,97,107,132,155,178,207,228,252,273,281,308,328,335,356,381,383
team1_KILLS,0,0,0,0,0,0,2,2,4,4,4,4,5,5,6,6,8,8,10,11,11,11,11
team1_CURRENTGOLD,2500,0,382,1116,2230,2410,4373,3221,2341,1228,1751,3000,1560,2894,3419,2032,1312,2078,3149,2714,1068,1718,1859
team1_TOTALGOLD,2500,2500,2882,4016,5130,6260,8223,9121,10666,11803,13051,14300,15710,17044,18519,19332,20873,21638,23609,25094,25933,26984,27144
team1_LEVEL,5,5,6,12,17,21,24,26,28,29,33,34,37,39,41,42,44,44,46,48,48,49,50
team1_SBIRES,0,0,9,27,48,66,87,98,104,123,143,166,180,210,224,235,236,244,256,263,270,288,289
delta_KILLS,0,0,0,1,1,1,0,1,0,0,1,2,4,4,5,8,8,12,12,12,16,18,18
delta_CURRENTGOLD,0,0,-156,52,-246,874,-2193,-115,-141,1472,760,1289,3487,-800,1220,5743,2335,3491,149,-160,3820,5256,5624
delta_TOTALGOLD,0,0,-156,262,264,434,-168,760,534,922,1465,1994,3117,2855,3925,6248,6804,8886,8829,9390,11285,13620,14189
delta_LEVEL,0,0,-1,-1,-2,-2,-3,0,-2,-1,-1,-1,2,1,2,3,3,6,6,5,8,9,8
delta_SBIRES,0,0,-3,-6,-6,-5,-14,-1,3,9,12,12,27,18,28,38,45,64,72,72,86,93,94
