name,team0,team1
win,Win,Fail
firstBlood,False,True
firstTower,False,True
firstInhibitor,False,True
firstBaron,False,True
firstDragon,False,True
firstRiftHerald,False,True
towerKills,7,7
inhibitorKills,1,1
baronKills,1,1
dragonKills,4,1
riftHeraldKills,0,2
