name,team0,team1
win,Win,Fail
firstBlood,True,False
firstTower,False,True
firstInhibitor,True,False
firstBaron,False,False
firstDragon,False,True
firstRiftHerald,True,False
towerKills,8,3
inhibitorKills,2,0
baronKills,0,0
dragonKills,3,1
riftHeraldKills,1,0
