name,frame_0,frame_1,frame_2,frame_3,frame_4,frame_5,frame_6,frame_7,frame_8,frame_9,frame_10,frame_11,frame_12,frame_13,frame_14,frame_15,frame_16,frame_17,frame_18,frame_19,frame_20,frame_21,frame_22,frame_23,frame_24,frame_25,frame_26,frame_27,frame_28,frame_29,frame_30,frame_31,frame_32,frame_33,frame_34,frame_35,frame_36,frame_37,frame_38,frame_39
nameStamp,Tstart,Tearly,Tearly,Tearly,Tearly,Tearly,Tearly,Tearly,Tearly,Tearly,Tearly,Tearly,Tearly,Tearly,Tearly,Tearly,Tmid,Tmid,Tmid,Tmid,Tmid,Tmid,Tmid,Tmid,Tmid,Tmid,Tmid,Tmid,Tmid,Tmid,Tmid,Tmid,Tmid,Tmid,Tmid,Tmid,Tmid,Tmid,Tmid,Tmid
timestamp,0,60007,120023,180044,240056,300060,360066,420088,480103,540137,600162,660185,720211,780239,840272,900282,960308,1020314,1080344,1140352,1200361,1260389,1320400,1380404,1440407,1500408,1560422,1620445,1680473,1740497,1800530,1860553,1920578,1980604,2040612,2100635,2160647,2220666,2280674,2340674
participant_0_GOLD,500,500,597,860,1120,1737,2014,2157,2593,2858,3113,3472,4292,4414,4905,6049,6172,6967,7490,7661,7826,8223,8535,8916,9757,9942,10131,10260,10695,11229,11351,11724,12168,12416,12623,13633,15029,15151,15523,16234
participant_0_CURRENTGOLD,500,0,97,360,620,1237,1514,157,593,858,1113,1472,2292,181,672,1816,59,854,102,273,438,835,422,803,1644,1830,148,277,713,1246,569,942,1385,784,91,1101,1496,719,1091,1601
participant_0_LEVEL,1,1,1,3,3,5,6,6,7,7,8,9,9,9,10,11,11,12,12,12,13,13,13,14,14,14,14,14,15,15,15,16,16,16,16,17,18,18,18,18
participant_0_MINIONSKILLED,0,0,4,12,17,24,33,34,49,54,62,72,81,81,98,109,109,121,121,124,127,127,136,147,157,161,164,164,164,174,174,174,182,189,189,195,208,208,208,210
participant_0_KILLS,0,0,0,0,0,0,0,0,0,0,0,0,0,0,1,1,1,1,1,1,1,1,1,1,1,1,1,1,1,1,1,1,1,1,1,1,1,1,2,2
participant_0_BUY,[],"[1056, 3340, 2003, 2003]",[],[],[],[1027],[],[1052],[],[],[],"[3108, 1052]",[],[],[],[],[],[],"[6655, 1001]",[],[],[],[],"[3111, 1026, 1052]",[],[],[],[],[],[3116],[],[],"[3916, 1026]",[],[],[],[],"[3165, 3108]",[],[]
participant_0_SOLD,[],[],[],[],"[2010, 2003]",[],[2003],[2010],[],[],[],[1052],[],[],[2010],[],[],[],"[1052, 1027]",[],[],[],[],"[1001, 3108]",[],[],[],[],[],"[1026, 1052]",[],[],[],[],[],[],[],"[1026, 3916]",[],[]
participant_0_UNDO,[],[],[],[],[],[],[],[],[],[],[],[],[],[],[],[],[],[],[],[],[],[],[],[],[],[],[],[],[],[],[],[],[],[],[],[],[],[],[],[]
participant_1_GOLD,500,500,620,948,1233,1477,1704,1986,2233,2561,2853,2976,3248,3525,3778,3950,4246,4515,4737,5016,5483,5900,6253,6580,6837,7422,7586,7809,8127,8277,8427,9036,9172,9585,9756,10326,11220,11343,11882,12444
participant_1_CURRENTGOLD,500,0,120,448,733,977,1204,236,483,811,1103,351,623,900,1153,625,921,1190,139,418,885,152,505,832,1089,1674,213,436,254,404,230,838,974,287,458,1029,1923,245,784,1286
participant_1_LEVEL,1,1,2,3,3,4,4,5,5,6,6,6,7,7,8,8,8,8,8,9,9,9,10,10,10,11,11,11,12,12,12,13,13,13,13,14,15,15,15,16
participant_1_MINIONSKILLED,0,0,0,0,0,0,0,0,0,0,0,0,1,1,1,1,1,1,1,4,4,4,8,10,10,12,14,14,14,16,18,18,19,19,22,24,30,30,32,36
participant_1_KILLS,0,0,0,0,0,0,0,0,0,0,0,0,0,0,0,0,0,0,0,0,1,2,2,2,2,3,3,3,4,4,4,4,4,4,4,5,6,6,6,7
participant_1_BUY,[],"[1039, 2003, 3340, 2003, 2003, 2031, 3340]",[],[],[],[],[],"[3051, 2055, 2055]",[],[],[],"[3067, 2055]",[],[],[],[3057],[],[],"[3078, 1001, 1029]",[],[],"[3047, 1029, 1036]",[],[],[],[],"[3133, 1037]",[],[1031],[],[6333],[],[],"[3066, 1029]",[],[],[],[3742],[],[]
participant_1_SOLD,[],[],[],[],[],[],[],[],[],"[1039, 2055]",[],[],[],[],[],[],[],[],"[3057, 3051, 3067, 2055, 2055]",[3340],[],"[1001, 1029]",[3513],[],[],[],[1036],[],[1029],[],"[1031, 3133, 1037]",[],[],[],[],[],[],"[3066, 1029]",[],[]
participant_1_UNDO,[],"[[0, 2003], [0, 2003], [3340, 0], [0, 2003]]",[],[],[],[],[],[],[],[],[],[],[],[],[],[],[],[],[],[],[],[],[],[],[],[],[],[],[],[],[],[],[],[],[],[],[],[],[],[]
participant_2_GOLD,500,500,576,801,1057,1242,1547,1669,1791,1998,2197,2418,2779,3097,3824,4234,4621,4980,5265,5653,5907,6197,6738,6860,7164,7328,7652,8011,8251,8596,8962,9634,10017,10139,10289,10780,11679,11802,12412,12874
participant_2_CURRENTGOLD,500,0,76,291,547,382,687,374,496,703,902,223,574,892,1619,2029,2416,2775,145,533,787,1077,1618,285,589,753,1077,1436,1676,306,672,1345,77,199,350,841,1740,112,722,574
participant_2_LEVEL,1,1,1,3,4,4,5,6,6,7,7,8,8,9,10,10,11,11,11,12,12,13,13,13,13,13,13,14,14,14,15,15,16,16,16,16,16,16,17,17
participant_2_MINIONSKILLED,0,0,3,6,14,18,28,28,28,33,38,44,54,65,74,84,95,105,109,121,125,131,140,140,143,146,149,159,162,167,176,185,193,193,195,198,205,205,208,210
participant_2_KILLS,0,0,0,0,0,1,1,1,1,1,1,1,2,2,2,3,3,4,4,4,4,4,4,4,5,5,5,5,5,5,5,5,5,5,5,6,8,8,8,9
participant_2_BUY,[],"[1055, 2003, 3340]",[],[],[],[],[],"[3051, 1001, 2003, 2003]",[],[],[],[],[],[3078],[],[],"[3047, 1037, 3044]",[],"[1037, 1028]",[],[],[],[3053],[],[],[],"[3211, 3067]",[],[],[],[3076],[],[],[3065],[1011],[],[3075],[1057],[],[]
participant_2_SOLD,[],[],[],[],[],[2003],[],[],[2003],[],[],[],[],[3051],[],[],"[1001, 2003]",[],[],[],[],[],"[1037, 3044, 1028]",[],[],[],[1055],[],[],[],[],[],[],"[3211, 3067]",[],[],"[3076, 1011]",[],[],[]
participant_2_UNDO,[],[],[],[],[],[],[],[],[],[],[],[],[],[],[],[],"[[0, 1037]]",[],[],[],[],[],[],[],[],[],[],[],[],[],[],[],[],[],[],[],[],[],[],[]
participant_3_GOLD,500,500,562,1161,1972,2116,2570,3104,3386,3741,3920,4332,4588,4970,5277,5796,6219,6404,7545,8754,9002,9509,9845,10457,10725,10872,11295,11502,11732,11855,11977,12465,12887,13010,13448,14688,15267,15709,16141,17099
participant_3_CURRENTGOLD,500,0,62,661,1472,166,620,1154,236,591,770,1182,338,720,1027,1546,1969,121,1262,2471,319,827,1162,1774,742,889,1312,320,100,222,345,833,455,577,1016,2256,2835,907,1339,2116
participant_3_LEVEL,1,1,1,2,3,3,4,5,5,6,6,7,7,8,8,9,9,9,10,12,12,13,13,13,13,14,14,14,14,14,14,15,15,15,15,16,16,17,17,17
participant_3_MINIONSKILLED,0,0,2,5,16,17,34,40,46,56,60,67,75,87,88,97,103,107,114,122,122,133,136,138,138,138,138,138,138,138,138,139,141,141,150,163,163,163,164,165
participant_3_KILLS,0,0,0,1,2,2,2,3,3,3,3,3,3,3,3,3,4,4,6,9,9,10,10,11,11,11,12,12,12,12,12,12,13,13,13,15,15,16,16,18
participant_3_BUY,[],"[1055, 2003, 3340]",[],[],[],"[3051, 1001, 2003]",[],[],"[3057, 3047, 1028]",[],[],[],"[3067, 3057]",[],[],[],[],"[3078, 3155]",[],[],"[3156, 1042, 1042]",[],[],[],"[1043, 1053]",[],[],[3153],[1033],[],[],[],[3211],[],[],[],[],"[3065, 1011]",[],[]
participant_3_SOLD,[],[],[],[],[2003],[],[],[],[1001],[],[],[2003],[1028],[],[],[],[],"[3057, 3051, 3067]",[],[],[3155],[],[],[],"[1042, 1042]",[],[],"[1053, 1043]",[],[],[],[],[1033],[],[],[],[],"[3211, 1055]",[],[]
participant_3_UNDO,[],[],[],[],[],[],[],[],"[[0, 3057]]",[],[],[],[],[],[],[],[],[],[],[],[],[],[],[],[],[],[],[],[],[],[],[],[],[],[],[],[],[],[],[]
participant_4_GOLD,500,500,522,959,1631,1765,1939,2264,2418,2553,2757,3266,3406,3627,3767,4297,4477,4705,5170,5364,5655,5932,6136,6277,6467,6607,6748,6888,7028,7469,7609,8001,8185,8353,8494,8664,8955,9245,9654,10068
participant_4_CURRENTGOLD,500,0,22,459,1131,480,654,979,1133,753,957,1466,306,526,667,1197,127,355,820,1014,1305,782,986,257,447,588,548,688,829,1269,159,551,35,204,344,514,155,445,854,1268
participant_4_LEVEL,1,1,1,2,3,3,4,5,5,6,6,6,7,7,7,8,8,8,9,9,9,10,10,10,10,10,10,10,10,10,11,11,12,12,12,12,12,13,13,14
participant_4_MINIONSKILLED,0,0,0,2,2,2,2,2,2,2,3,3,3,3,3,3,3,7,8,9,9,9,10,10,10,10,10,10,10,10,10,10,10,12,12,13,13,13,13,16
participant_4_KILLS,0,0,0,0,1,1,1,1,1,1,1,2,2,2,2,3,3,3,3,3,3,3,3,3,3,3,3,3,3,4,4,4,4,4,4,4,4,4,4,4
participant_4_BUY,[],"[3850, 2003, 2003]",[],[],[],"[1027, 1052]",[],[],[],[3802],[],[],"[1026, 2031, 1001]",[],[],[],"[6655, 3364]",[],[],[],[],[3020],[],"[1052, 1052]",[],[],[3145],[],[],[],[1058],[],[4628],[],[],[],[2420],[],[],[]
participant_4_SOLD,[],[],[],[],[],[],[],"[2010, 2010, 2010]",[],"[1052, 1027]",[],[],"[3850, 2003, 2003]",[],[],[],"[3802, 1026, 3340]",[],[],[],[3851],[1001],[],[],[],[],"[1052, 1052]",[],[],[],[],[],"[1058, 3145]",[],[],[],[],[],[],[]
participant_4_UNDO,[],[],[],[],[],[],[],[],[],[],[],[],[],[],[],[],[],[],[],[],[],[],[],[],[],[],[],[],[],[],[],[],[],[],[],[],[],[],[],[]
participant_5_GOLD,500,500,520,776,1001,1144,1351,1693,1836,2245,2523,2702,2859,3255,3378,3570,3966,4287,4591,4923,5372,5698,6005,6203,6758,7015,8182,8512,8935,9295,9963,10434,10626,11125,11443,11739,12190,13247,13369,13476
participant_5_CURRENTGOLD,500,0,20,276,501,644,501,843,986,1395,1673,1852,109,505,628,470,866,187,491,823,1272,1598,1905,103,658,915,2082,312,735,1095,643,1114,107,605,923,20,470,28,150,76
participant_5_LEVEL,1,1,1,3,4,4,5,6,6,7,8,8,9,9,10,10,10,11,11,11,12,12,13,13,13,14,14,14,14,15,15,16,16,16,17,17,17,18,18,18
participant_5_MINIONSKILLED,0,0,0,8,12,13,18,28,29,43,49,52,54,66,66,70,82,89,99,107,117,129,135,136,153,153,155,159,162,164,171,179,183,196,202,208,210,212,212,213
participant_5_KILLS,0,0,0,0,0,0,0,0,0,0,0,0,0,0,0,0,0,0,0,0,0,0,1,1,1,1,2,2,2,2,2,2,3,3,3,3,3,3,3,3
participant_5_BUY,[],"[2003, 3340, 1055]",[],[],[1036],[],[],[],[],[6670],[],[1037],[],[],[1001],[1018],[],[],[],[6672],[],[],[],[3006],[],[],[],[3133],[],[],[3057],[],[3508],[1036],[],[3133],[],[],[],[1018]
participant_5_SOLD,[],[],[],[],[2003],[],[],[],[],[1036],[],[],[],[],[],[],[],[],[],"[6670, 1018, 1037]",[],[],[],[1001],[],[],[],[],[],[],[],[],"[3133, 3057]",[],[],[1036],[],[],[],[]
participant_5_UNDO,[],[],[],[],[],[],[],[],[],[],[],[],[],[],[],[],[],[],[],[],[],[],[],[],[],[],[],[],[],[],[],[],[],[],[],[],[],[],[],[]
participant_6_GOLD,500,500,620,928,1233,1464,1743,1867,2117,2501,2830,3492,3656,4014,4240,4541,4868,5386,5766,6210,6332,6540,6852,7114,7236,7358,7481,7899,8112,8460,8714,9095,9271,9478,9712,9834,10033,10324,10641,10725
participant_6_CURRENTGOLD,500,0,120,428,733,964,1243,117,367,751,1080,1742,656,1014,1240,391,718,1236,1616,2060,282,490,102,364,486,608,41,459,672,1020,74,455,181,389,222,344,144,434,752,775
participant_6_LEVEL,1,1,2,2,3,4,4,4,5,6,6,7,7,8,8,9,9,10,10,11,11,11,11,11,11,11,11,12,12,13,13,13,14,14,14,14,14,15,15,15
participant_6_MINIONSKILLED,0,0,0,0,0,0,1,1,3,3,3,4,7,7,13,14,14,15,15,21,21,21,22,26,26,26,26,37,38,38,42,42,42,42,42,42,46,56,63,63
participant_6_KILLS,0,0,0,0,0,0,0,0,0,0,0,0,0,0,0,0,0,0,0,0,0,0,0,0,0,0,1,1,2,2,3,3,3,3,3,3,4,6,6,6
participant_6_BUY,[],"[1054, 2003, 3340]",[],[],[],[],[1036],[],[],[],[],[],"[3067, 3057, 1028]",[],[],[3044],[],"[6632, 1001]",[],[],[],[],[],"[3047, 1031, 1028]",[],[],[],"[3742, 1028]",[],[],"[1057, 3066]",[],[4401],[],[],"[3076, 1028]",[],[3075],[],[]
participant_6_SOLD,[],[],[],[2010],[2003],[2010],[],[],[2010],[],[],[],[],[],[],"[1028, 1036]",[],"[3044, 3057, 3067]",[],[],[],[],[],[1001],[],[],[],"[1028, 1031]",[],[],"[1054, 1028]",[],"[1057, 3066]",[],[],[],[],"[3076, 1028]",[],[]
participant_6_UNDO,[],[],[],[],[],[],[],[],[],[],[],[],[],[],[],[],[],[],[],[],[],[],[],[],[],[],[],[],[],[],[],[],[],[],[],[],[],[],[],[]
participant_7_GOLD,500,500,562,894,1436,1754,2100,2710,2896,3269,3520,4211,4544,4806,5080,5677,6043,6360,6567,6689,7006,7936,8462,9041,9164,9467,10578,10791,11383,12526,12822,13065,13742,13906,14226,14717,15142,15265,15485,15606
participant_7_CURRENTGOLD,500,0,62,384,926,149,495,1105,266,629,880,246,569,831,220,817,1183,1500,22,144,461,1391,752,1331,204,507,1618,82,673,1381,863,1105,1783,697,1016,418,843,966,1186,1206
participant_7_LEVEL,1,1,1,3,4,5,6,7,8,8,9,9,10,10,10,11,11,12,12,12,12,13,13,14,14,14,15,15,15,15,15,16,16,16,16,17,17,17,17,17
participant_7_MINIONSKILLED,0,0,2,12,19,27,40,53,56,68,76,82,91,98,103,111,121,127,132,132,139,147,160,171,171,177,185,191,194,195,201,208,211,214,221,225,230,230,236,238
participant_7_KILLS,0,0,0,0,0,0,0,0,0,0,0,1,1,1,1,1,1,2,2,2,2,2,2,2,2,2,2,2,2,2,2,2,2,2,2,2,2,2,2,2
participant_7_BUY,[],"[1035, 3340, 2031]",[],[],[],[],[],"[3134, 2055, 2055]",[],[],[],[],"[1053, 1036]",[],[],"[6692, 1001]",[],[],[],[],"[3047, 3133]",[],"[1036, 1036]",[],[],[],[3035],[],[],[],"[6694, 1036]",[],[3123],[],[1028],[],[3067],[],[],[]
participant_7_SOLD,[],[],[],[],[],[],[],[],[],[],[],[3340],[2055],[1035],[],"[3134, 1036, 1053, 3513]",[],[2055],[],[],[1001],[],[],[],[],[],"[2031, 1036, 1036]",[],[],[],"[3133, 3035]",[],[1036],[],[],[],[1028],[],[],[]
participant_7_UNDO,[],[],[],[],[],[],[],[],[],[],[],[],[],[],[],[],[],[],[],[],[],[],[],[],[],[],[],[],[],[],[],[],[],[],[],[],[],[],[],[]
participant_8_GOLD,500,500,583,846,969,1245,1410,1724,2034,2157,2547,2705,3038,3237,3458,3580,3846,4024,4146,4311,4433,4556,5013,5156,5474,5596,6109,6258,6721,7073,7210,7493,8458,8719,8926,9063,9213,9446,9799,9882
participant_8_CURRENTGOLD,500,0,83,346,119,395,560,874,1184,357,747,30,363,562,483,5,271,449,571,111,233,356,813,156,474,596,1109,158,621,973,410,693,557,469,676,63,213,446,799,282
participant_8_LEVEL,1,1,1,2,2,3,4,4,5,5,6,6,7,7,7,7,7,8,8,8,8,9,9,10,10,10,11,11,12,12,12,13,13,13,13,13,13,14,14,14
participant_8_MINIONSKILLED,0,0,3,11,11,17,19,28,35,35,47,49,58,62,68,68,72,75,75,77,77,77,79,80,87,87,88,89,96,102,103,108,110,114,114,115,117,119,128,128
participant_8_KILLS,0,0,0,0,1,1,1,2,2,2,2,3,3,3,3,4,4,4,4,4,4,6,6,7,7,7,8,8,9,10,10,10,11,11,11,12,12,12,12,12
participant_8_BUY,[],"[1056, 2003, 2003, 3340]",[],[],[],"[1052, 1027, 1001]",[],[],"[3802, 1052, 2055]",[],[],"[1026, 3145, 3191]",[],[],"[3020, 2055]",[],[],[],"[6655, 1052]",[],[],[],[3157],[],[1058],[],[],[4628],[],[1052],[4630],[],[],[3135],[],[1058],[],[],[],[]
participant_8_SOLD,[],[],[],[],"[2003, 2003]",[],[],[],"[1052, 1027]",[2055],[],"[1052, 1052]",[],[],[1001],[2055],[],[],"[3802, 1026]",[],[],[],"[3191, 1052]",[],[],[],[],[1058],[],[],[1052],[],[],[4630],[],[1056],[],[],[],[]
participant_8_UNDO,[],[],[],[],[],[],[],[],[],[],[],"[[0, 3145]]",[],[],[],[],[],[],[],[],[],[],[],[],[],[],[],[],[],[],[],[],[],[],[],[],[],[],[],[]
participant_9_GOLD,500,500,543,699,834,1073,1250,1464,1723,1942,2097,2232,2470,2640,2836,2977,3881,4131,4623,4763,4951,5392,5692,5833,5979,6123,6353,6632,6891,7117,7319,7465,8117,8258,8416,8709,8850,9228,9375,9486
participant_9_CURRENTGOLD,500,0,43,199,34,273,450,154,413,197,352,487,295,465,226,367,1271,1056,348,488,676,267,567,233,379,523,753,532,357,582,784,115,767,108,266,560,265,203,350,461
participant_9_LEVEL,1,1,1,2,2,3,3,4,4,5,5,6,6,6,7,7,7,8,8,8,9,9,10,10,10,10,10,11,11,11,12,12,13,13,13,13,14,15,15,15
participant_9_MINIONSKILLED,0,0,1,2,2,5,7,9,13,18,19,19,21,22,25,25,31,31,33,33,36,36,42,42,42,42,43,46,46,48,52,52,54,54,55,60,60,65,65,66
participant_9_KILLS,0,0,0,0,0,0,0,0,0,0,0,0,0,0,0,0,1,1,2,2,2,2,2,2,2,2,2,2,2,2,2,2,3,3,3,3,3,3,3,3
participant_9_BUY,[],"[3858, 2003, 2003]",[],[],[1001],[],[],"[1052, 2055]",[],[1052],[],[],"[3802, 3364]",[],[1052],[],[],[3108],[6653],[],[],[1026],[],"[1028, 2055]",[],[],[],[1011],[1052],[],[],[4637],[],[3111],[],[],[1052],"[3916, 2055]",[],[]
participant_9_SOLD,[],[],[],[2003],[],[],[],[],[],[],[2055],[],"[3858, 1052, 1052, 3340]",[2003],[],[],[],[1052],"[3802, 3108]",[],[],[],[3859],[],[2055],[],[],[1028],[],[],[],"[1026, 1011, 1052]",[],[1001],[],[],[],[1052],[],[]
participant_9_UNDO,[],[],[],[],[],[],[],[],[],[],[],[],[],[],[],[],[],[],[],[],[],[],[],[],[],[],[],[],[],[],[],[],[],[],[],[],[],[],[],[]
team0_KILLS,0,0,0,1,3,4,4,5,5,5,5,6,7,7,8,10,11,12,14,17,18,20,20,21,22,23,24,24,25,26,26,26,27,27,27,31,34,35,36,40
team0_CURRENTGOLD,2500,0,377,2219,4503,3242,4679,2900,2941,3716,4845,4694,4133,3219,5138,7213,5492,5295,2468,4709,3734,3673,4693,3951,4511,5734,3298,3157,3572,3447,1975,4509,2926,2051,2259,5741,8149,2428,4790,6845
team0_TOTALGOLD,2500,2500,2877,4729,7013,8337,9774,11180,12421,13711,14840,16464,18313,19633,21551,24326,25735,27571,30207,32448,33873,35761,37507,39090,40950,42171,43412,44470,45833,47426,48326,50860,52429,53503,54610,58091,62150,63250,65612,68719
team0_LEVEL,5,5,6,13,16,19,23,27,28,32,33,36,38,40,43,46,47,48,50,54,55,58,59,60,60,62,62,63,65,65,67,70,72,72,72,75,77,79,80,82
team0_SBIRES,0,0,9,25,49,61,97,104,125,145,163,186,214,237,264,294,311,341,353,380,387,404,430,445,458,467,475,485,488,505,516,526,545,554,568,593,619,619,625,637
team1_KILLS,0,0,0,0,1,1,1,2,2,2,2,4,4,4,4,5,6,7,8,8,8,10,11,12,12,12,15,15,17,18,19,19,22,22,22,23,24,26,26,26
team1_CURRENTGOLD,2500,0,328,1633,2313,2425,3249,3093,3216,3329,4732,4357,1992,3377,2797,2050,4309,4428,3048,3626,2924,4102,4139,2187,2201,3149,5603,1543,3058,5051,2774,3482,3395,2268,3103,1405,1935,2077,3237,2800
team1_TOTALGOLD,2500,2500,2828,4143,5473,6680,7854,9458,10606,12114,13517,15342,16567,17952,18992,20345,22604,24188,25693,26896,28094,30122,32024,33347,34611,35559,38703,40092,42042,44471,46028,47552,50214,51486,52723,54062,55428,57510,58669,59175
team1_LEVEL,5,5,6,12,15,19,22,25,28,31,34,36,39,40,42,44,44,49,49,50,52,54,56,58,58,59,61,63,64,66,67,70,72,72,73,74,75,79,79,79
team1_SBIRES,0,0,6,33,44,62,85,119,136,167,194,206,231,255,275,288,320,337,354,370,390,410,438,455,479,485,497,522,536,547,569,589,600,620,634,650,663,682,704,708
delta_KILLS,0,0,0,1,2,3,3,3,3,3,3,2,3,3,4,5,5,5,6,9,10,10,9,9,10,11,9,9,8,8,7,7,5,5,5,8,10,9,10,14
delta_CURRENTGOLD,0,0,49,586,2190,817,1430,-193,-275,387,113,337,2141,-158,2341,5163,1183,867,-580,1083,810,-429,554,1764,2310,2585,-2305,1614,514,-1604,-799,1027,-469,-217,-844,4336,6214,351,1553,4045
delta_TOTALGOLD,0,0,49,586,1540,1657,1920,1722,1815,1597,1323,1122,1746,1681,2559,3981,3131,3383,4514,5552,5779,5639,5483,5743,6339,6612,4709,4378,3791,2955,2298,3308,2215,2017,1887,4029,6722,5740,6943,9544
delta_LEVEL,0,0,0,1,1,0,1,2,0,1,-1,0,-1,0,1,2,3,-1,1,4,3,4,3,2,2,3,1,0,1,-1,0,0,0,0,-1,1,2,0,1,3
delta_SBIRES,0,0,3,-8,5,-1,12,-15,-11,-22,-31,-20,-17,-18,-11,6,-9,4,-1,10,-3,-6,-8,-10,-21,-18,-22,-37,-48,-42,-53,-63,-55,-66,-66,-57,-44,-63,-79,-71
