name,frame_0,frame_1,frame_2,frame_3,frame_4,frame_5,frame_6,frame_7,frame_8,frame_9,frame_10,frame_11,frame_12,frame_13,frame_14,frame_15,frame_16,frame_17,frame_18,frame_19,frame_20,frame_21,frame_22,frame_23,frame_24,frame_25
nameStamp,Tstart,Tearly,Tearly,Tearly,Tearly,Tearly,Tearly,Tearly,Tearly,Tearly,Tearly,Tearly,Tearly,Tearly,Tearly,Tmid,Tmid,Tmid,Tmid,Tmid,Tmid,Tmid,Tmid,Tmid,Tmid,Tmid
timestamp,0,60001,120024,180044,240070,300089,360103,420122,480139,540163,600176,660195,720208,780226,840238,900257,960267,1020280,1080298,1140317,1200333,1260355,1320368,1380388,1440402,1500402
participant_0_GOLD,500,500,562,811,1008,1326,1449,1637,1828,2035,2255,2490,2689,3044,3613,3932,4097,4247,4592,5185,5607,5849,6027,6233,6356,6666
participant_0_CURRENTGOLD,500,0,62,311,208,526,649,837,1028,1235,1455,1690,39,394,963,1282,147,297,642,185,607,849,294,500,323,633
participant_0_LEVEL,1,1,1,3,3,4,5,6,7,7,8,9,9,9,10,10,11,11,11,11,12,12,12,12,12,13
participant_0_MINIONSKILLED,0,0,2,9,11,19,19,20,21,26,32,38,42,46,53,58,61,63,72,72,86,93,96,101,101,110
participant_0_KILLS,0,0,0,0,0,0,0,0,0,0,0,0,0,1,2,2,2,2,2,3,3,3,3,3,3,3
participant_0_BUY,[],"[2031, 1041, 3340]",[],[],[],[3715],[],"[1042, 1042]",[],[],[],"[1419, 1001]",[],[],[],[],"[1043, 1037, 1052]",[],[],"[3124, 1042, 1042]",[],[],"[1043, 1042]",[],[],[]
participant_0_SOLD,[],[],[],[],[],[1041],[],[],[],[],[],"[1042, 1042, 3715]",[],[],[],[],[2031],[],[],"[1052, 1043, 1037]",[],[],"[1042, 1042]",[],[],[]
participant_0_UNDO,[],[],[],[],[],[],[],[],[],[],[],[],[],[],[],[],[],[],[],[],[],[],[],[],[],[]
participant_1_GOLD,500,500,650,1033,1291,1413,1621,1818,2236,2673,2913,3148,3559,4159,4914,5211,5538,5795,6055,6803,7040,7452,7701,7844,7967,8068
participant_1_CURRENTGOLD,500,0,150,533,791,263,471,68,486,923,1163,73,484,1084,1839,2136,213,470,730,88,325,737,286,429,552,593
participant_1_LEVEL,1,1,2,3,3,3,4,4,5,6,6,6,7,8,8,9,9,9,10,10,10,11,11,11,11,11
participant_1_MINIONSKILLED,0,0,0,0,0,0,0,0,0,0,1,1,3,3,3,5,6,6,10,13,14,14,14,15,15,15
participant_1_KILLS,0,0,0,0,0,0,0,0,0,0,0,0,0,0,0,0,0,0,0,1,1,1,1,1,1,1
participant_1_BUY,[],"[1054, 2003, 3340]",[],[],[1001],[],[],[],[],[],[],[],"[3006, 1036, 1028, 1042]",[],[],[],"[3044, 3101]",[],[],[3057],[],[],"[3078, 1028]",[],[1029],[]
participant_1_SOLD,[],[],[],[],[],[2003],[],[],[],[],[],[],[1001],[],[],[],"[1028, 1036, 1042]",[],[],[],[],[],"[3101, 3057, 3044]",[],[],[]
participant_1_UNDO,[],[],[],[],[],[],[],[],[],[],[],[],[],[],[],[],[],[],[],[],[],[],[],[],[],[]
participant_2_GOLD,500,500,569,860,1218,1487,1715,1872,2183,2495,2659,2936,3058,3434,3787,4924,5176,5298,5887,6136,6597,6956,7259,7452,7832,7954
participant_2_CURRENTGOLD,500,0,69,360,718,987,1215,92,403,715,579,856,128,504,857,1994,321,443,1032,31,492,851,1154,97,477,579
participant_2_LEVEL,1,1,1,3,4,5,6,6,7,8,8,8,8,9,10,10,11,11,11,12,12,12,12,13,13,13
participant_2_MINIONSKILLED,0,0,3,12,24,30,37,39,50,61,64,69,69,84,93,102,106,106,112,113,116,126,133,138,149,150
participant_2_KILLS,0,0,0,0,0,0,0,1,1,1,1,1,1,1,1,1,1,1,1,1,1,1,1,1,1,1
participant_2_BUY,[],"[1055, 2003, 3340]",[],[],"[1036, 2003]",[],[],"[3133, 1042]",[],[],[],"[2015, 1042, 1042, 2003, 2003]",[3006],[],[],[1018],[1038],[],[1018],[3508],[],[],[1037],[],[1053],[]
participant_2_SOLD,[],[],[],[],[2010],[2003],[],[1036],[],[],[2003],[1042],"[2003, 2003, 1042, 2422]",[2010],[2010],[],[],[],[],"[1038, 3133, 1018]",[],[],[],[],[],[]
participant_2_UNDO,[],[],[],[],[],[],[],[],[],[],[],"[[0, 1042]]",[],[],[],"[[0, 1018]]",[],[],[],[],[],[],[],[],[],[]
participant_3_GOLD,500,500,583,860,1011,1350,1550,1992,2344,2488,2722,2901,3323,3656,4218,4516,4701,5208,5467,5773,6100,6349,6562,7039,7371,7563
participant_3_CURRENTGOLD,500,0,83,360,111,450,650,42,394,538,772,151,73,406,968,1266,151,658,117,323,650,899,237,714,146,338
participant_3_LEVEL,1,1,1,2,2,3,4,4,5,5,5,6,6,7,8,8,8,9,9,10,10,10,10,11,11,11
participant_3_MINIONSKILLED,0,0,3,12,14,24,29,29,40,41,48,52,52,61,68,71,74,82,86,90,92,99,105,117,125,130
participant_3_KILLS,0,0,0,0,0,0,0,0,0,0,0,0,2,2,3,3,3,4,4,4,4,4,4,4,4,4
participant_3_BUY,[],"[3862, 2003, 2003, 3340]",[],[],"[2055, 2003]",[],[],"[3067, 2003]",[],[],[],"[1027, 1029, 2003, 2055]","[3024, 3158]",[],[],"[1031, 2003, 3364]",[],[],"[3109, 2055]",[],[],[1033],[],[3105],[],[]
participant_3_SOLD,[],[],[],[],[2003],[2003],"[2003, 2055]",[],[],[],[2003],[],"[2003, 1029, 2422]",[3862],[],"[2055, 3340]",[],[],"[3067, 1031]",[],[],[2003],[],[1033],[],[]
participant_3_UNDO,[],[],[],[],[],[],[],[],[],[],[],"[[0, 1027]]",[],[],[],[],[],[],[],[],[],[],[],[],[],[]
participant_4_GOLD,500,500,522,732,912,1111,1291,1530,1664,1799,2018,2189,3147,3343,3803,4136,4287,4846,5066,5370,5541,5696,5837,5977,6147,6298
participant_4_CURRENTGOLD,500,0,22,232,287,486,666,55,189,324,543,289,47,243,703,186,337,896,441,745,916,641,782,272,442,573
participant_4_LEVEL,1,1,1,2,2,3,4,4,5,5,6,6,7,7,8,8,8,9,9,9,9,9,10,10,10,11
participant_4_MINIONSKILLED,0,0,0,0,0,2,2,2,2,2,6,7,8,8,8,8,9,10,10,11,12,12,12,12,12,14
participant_4_KILLS,0,0,0,0,0,0,0,0,0,0,0,0,0,0,0,1,1,1,2,2,3,3,3,3,3,3
participant_4_BUY,[],"[1056, 2003, 2003, 3340]",[],[],[],[],[],[3802],[],[],[1001],[],"[3020, 1026]",[],[],[],"[3285, 3020, 2055]",[],[],[1058],[],[],[],[1058],[],[]
participant_4_SOLD,[],[],[],[],[],[2003],[],[2003],[],[],[],[],[1001],[],[],[],"[3802, 1026, 1001]",[],[2055],[],[],[],[],[],[],[]
participant_4_UNDO,[],[],[],[],[],[],[],[],[],[],[],[],"[[0, 3020]]",[],[],[],[],[],[],[],[],[],[],[],[],[]
participant_5_GOLD,500,500,562,832,1483,1787,2078,2441,2786,3295,3459,4020,4590,4712,5018,5345,6170,7235,7492,8920,9483,9963,10351,10563,11160,11522
participant_5_CURRENTGOLD,500,500,62,332,983,1287,1578,1941,2286,2795,59,620,1190,77,383,710,1535,2600,102,1530,2093,2574,2961,23,621,822
participant_5_LEVEL,1,1,1,3,4,5,6,6,7,8,8,9,9,9,10,10,11,12,12,13,13,13,14,14,14,15
participant_5_MINIONSKILLED,0,0,2,10,21,29,38,49,59,69,71,84,97,97,105,111,127,140,140,149,149,156,168,168,172,174
participant_5_KILLS,0,0,0,0,0,1,1,3,3,4,4,5,5,5,5,5,7,7,8,8,10,10,11,11,11,11
participant_5_BUY,[],"[3340, 1039, 2031]",[],[],[],"[3706, 1001, 1028]",[],[],[3057],[],[],[],"[3044, 3009, 1042]",[],[],[3101],[],[],"[3078, 1011]","[1029, 1031]",[],[3742],[],[1033],[],[]
participant_5_SOLD,[],[],[],[],[],[1039],[],[],[],[],[],[],"[1028, 1001]",[3340],[],"[3513, 1042, 2031]",[],[],"[3101, 3057, 3044]","[2031, 1029]",[],"[1031, 1011]",[],[],[],[]
participant_5_UNDO,[],[],[],[],[],[],[],[],[],[],[],[],[],[],[],"[[2031, 0]]",[],[],[],[],[],[],[],[],[],[]
participant_6_GOLD,500,500,620,933,1379,1879,2086,2893,3220,3841,4154,4656,4863,5086,5480,5602,6531,6868,7446,7568,8405,8813,9256,9473,9907,10479
participant_6_CURRENTGOLD,500,0,120,433,879,29,236,1043,320,941,1254,1756,213,436,830,152,1081,1418,663,45,882,190,633,401,835,1286
participant_6_LEVEL,1,1,2,3,3,4,4,5,6,6,7,8,8,8,8,9,10,10,10,10,11,11,12,12,12,13
participant_6_MINIONSKILLED,0,0,0,0,0,0,0,0,0,0,1,1,1,1,2,2,3,4,4,4,5,5,6,6,13,14
participant_6_KILLS,0,0,0,0,1,1,1,2,2,2,2,2,2,2,2,2,2,2,2,2,2,2,2,2,2,3
participant_6_BUY,[],"[3858, 2003, 2003, 3340]",[],[],[],"[3028, 1001]",[],[3117],[],[],[],[],"[3174, 3364, 2055]",[],[],"[1028, 1029]",[],[],[],[],"[3105, 1033]",[3190],[],[],[],[]
participant_6_SOLD,[],[],[],[2003],[2003],[],[],[1001],[],[],[],[],"[3028, 3340]",[2055],[],[],[],[],[],[3858],[1029],"[3105, 1033]",[],[],[],[]
participant_6_UNDO,[],[],[],[],[],[],[],[],[],[],[],[],[],[],[],"[[0, 1028]]",[],[],[],[],[],[],[],[],[],[]
participant_7_GOLD,500,500,611,976,1295,1543,1757,2099,2367,2787,3030,3312,3766,4098,4499,4824,5254,5711,6071,6761,7210,7606,7916,8262,9308,10092
participant_7_CURRENTGOLD,500,0,111,476,795,1043,1257,1249,392,812,180,462,916,1248,489,814,1244,1701,411,1101,1550,196,506,852,1898,-183
participant_7_LEVEL,1,1,1,3,4,5,5,6,7,8,8,8,9,9,10,10,11,11,11,12,13,13,13,14,14,15
participant_7_MINIONSKILLED,0,0,5,16,27,32,37,47,53,61,65,71,78,90,100,108,122,128,132,134,142,151,158,165,176,180
participant_7_KILLS,0,0,0,0,1,1,1,1,1,1,1,1,1,1,1,1,1,2,2,5,6,6,6,6,6,6
participant_7_BUY,[],[],"[1056, 2003, 2003, 3340]",[],[],[],[],[],[],[],"[3136, 1001, 3020, 3101]",[],[],"[3020, 1052]",[],[],[],[],"[3151, 3108, 1026]",[],[],[],[],"[3115, 3802, 1026]",[],[]
participant_7_SOLD,[],[],[],[],[],[],[],[],[],[],[1001],[],[],[1001],[],"[2003, 2003]",[],[],"[3136, 1052, 1056]",[],[],[],[],"[3101, 3108]",[],[]
participant_7_UNDO,[],[],[],[],[],[],[],[],[],[],"[[0, 3020]]",[],[],[],[],[],[],[],[],[],[],[],[],[],[],[]
participant_8_GOLD,500,500,583,874,1629,1752,2070,2790,3017,3801,3980,4473,4884,5292,6267,6419,6733,7454,7711,8008,8614,9281,10044,11094,11621,12203
participant_8_CURRENTGOLD,500,0,83,374,1129,52,370,1090,192,976,30,523,134,542,1517,194,508,29,211,508,1114,632,1394,2445,2971,3553
participant_8_LEVEL,1,1,1,2,3,3,4,5,5,6,6,7,7,8,8,8,9,9,9,10,11,11,12,13,13,14
participant_8_MINIONSKILLED,0,0,3,13,21,21,32,39,42,55,58,67,68,76,86,87,95,101,102,108,123,130,138,143,155,165
participant_8_KILLS,0,0,0,0,1,1,1,1,1,2,2,2,3,3,3,3,3,4,4,4,4,4,5,7,7,7
participant_8_BUY,[],"[1055, 2003, 3340]",[],[],[],"[1053, 2055, 1042]",[],[],"[1043, 1036, 2055]",[],"[3153, 2055]",[],[3006],[],[],"[3086, 2055]",[],"[3085, 3363]",[2055],[],[],"[1018, 1036]",[],[],[],[]
participant_8_SOLD,[],[],[],[],[2003],[],[],[],[1042],[2055],"[1053, 1036, 1043]",[],[2422],[2055],[],[],[2055],"[3086, 3340]",[2055],[],[],[],[],[],[],[]
participant_8_UNDO,[],[],[],[],[],"[[0, 2055]]",[],[],[],[],[],[],[],[],[],[],[],[],[],[],[],[],[],[],[],[]
participant_9_GOLD,500,500,522,671,1347,1631,1765,2318,2521,3000,3155,3474,3746,3880,4107,4241,4376,4679,5064,5611,5802,6002,6156,6558,6823,7364
participant_9_CURRENTGOLD,500,0,22,171,847,31,165,18,221,700,855,1174,71,205,432,266,401,704,1088,1636,576,127,281,683,948,1489
participant_9_LEVEL,1,1,1,2,3,3,4,4,5,5,6,7,7,7,7,7,8,8,9,10,10,10,11,11,12,12
participant_9_MINIONSKILLED,0,0,0,1,1,1,1,1,2,5,6,12,12,12,15,15,15,17,17,19,19,20,21,24,24,28
participant_9_KILLS,0,0,0,0,0,0,0,0,0,0,0,0,0,0,0,0,0,0,0,1,1,1,1,1,3,5
participant_9_BUY,[],"[2033, 3340]",[],[],[],[],[],[1082],"[3145, 2055]",[],"[3067, 2055]",[],[],[],"[3152, 1052, 2055]",[],[],[],"[1026, 3020]",[],[],"[3116, 1052]",[],[],[],[3151]
participant_9_SOLD,[],[],[],[],[],[],[],[],[2055],[],[],[2055],[],[],"[3145, 3067, 2055]",[],[],[],[2422],[2033],[],"[1026, 1052]",[],[],[],[1052]
participant_9_UNDO,[],[],[],[],[],[],[],[],[],[],[],[],[],[],[],[],[],[],[],"[[2033, 0]]",[],[],[],[],[],[]
team0_KILLS,0,0,0,0,0,0,0,1,1,1,1,1,3,4,6,7,7,8,9,11,12,12,12,12,12,12
team0_CURRENTGOLD,2500,0,386,1796,2115,2712,3651,1094,2500,3735,4512,3059,771,2631,5330,6864,1169,2764,2962,1372,2990,3977,2753,2012,1940,2716
team0_TOTALGOLD,2500,2500,2886,4296,5440,6687,7626,8849,10255,11490,12567,13664,15776,17636,20335,22719,23799,25394,27067,29267,30885,32302,33386,34545,35673,36549
team0_LEVEL,5,5,6,13,14,18,23,24,29,31,33,35,37,40,44,45,47,49,50,52,53,54,55,57,57,59
team0_SBIRES,0,0,8,33,49,75,87,90,113,130,151,167,174,202,225,244,256,267,290,299,320,344,360,383,402,419
team1_KILLS,0,0,0,0,3,4,4,7,7,9,9,10,11,11,11,11,13,15,16,20,23,23,25,27,29,32
team1_CURRENTGOLD,2500,500,398,1786,4633,2442,3606,5341,3411,6224,2378,4535,2524,2508,3651,2136,4769,6452,2475,4820,6215,3719,5775,4404,7273,6967
team1_TOTALGOLD,2500,2500,2898,4286,7133,8592,9756,12541,13911,16724,17778,19935,21849,23068,25371,26431,29064,31947,33784,36868,39514,41665,43723,45950,48819,51660
team1_LEVEL,5,5,6,13,17,20,23,26,30,33,35,39,40,41,43,44,49,50,51,55,58,58,62,64,65,69
team1_SBIRES,0,0,10,40,70,83,108,136,156,190,201,235,256,276,308,323,362,390,395,414,438,462,491,506,540,561
delta_KILLS,0,0,0,0,-3,-4,-4,-6,-6,-8,-8,-9,-8,-7,-5,-4,-6,-7,-7,-9,-11,-11,-13,-15,-17,-20
delta_CURRENTGOLD,0,-500,-12,10,-2518,270,45,-4247,-911,-2489,2134,-1476,-1753,123,1679,4728,-3600,-3688,487,-3448,-3225,258,-3022,-2392,-5333,-4251
delta_TOTALGOLD,0,0,-12,10,-1693,-1905,-2130,-3692,-3656,-5234,-5211,-6271,-6073,-5432,-5036,-3712,-5265,-6553,-6717,-7601,-8629,-9363,-10337,-11405,-13146,-15111
delta_LEVEL,0,0,0,0,-3,-2,0,-2,-1,-2,-2,-4,-3,-1,1,1,-2,-1,-1,-3,-5,-4,-7,-7,-8,-10
delta_SBIRES,0,0,-2,-7,-21,-8,-21,-46,-43,-60,-50,-68,-82,-74,-83,-79,-106,-123,-105,-115,-118,-118,-131,-123,-138,-142
