name,frame_0,frame_1,frame_2,frame_3,frame_4,frame_5,frame_6,frame_7,frame_8,frame_9,frame_10,frame_11,frame_12,frame_13,frame_14,frame_15,frame_16,frame_17,frame_18,frame_19,frame_20,frame_21,frame_22,frame_23,frame_24,frame_25,frame_26,frame_27,frame_28,frame_29,frame_30,frame_31,frame_32
nameStamp,Tstart,Tearly,Tearly,Tearly,Tearly,Tearly,Tearly,Tearly,Tearly,Tearly,Tearly,Tearly,Tmid,Tmid,Tmid,Tmid,Tmid,Tmid,Tmid,Tmid,Tmid,Tmid,Tmid,Tmid,Tmid,Tend,Tend,Tend,Tend,Tend,Tend,Tend,Tend
timestamp,0,60003,120014,180041,240061,300079,360093,420098,480106,540115,600136,660183,720200,780225,840227,900242,960274,1020306,1080337,1140350,1200378,1260381,1320405,1380413,1440437,1500449,1560476,1620491,1680512,1740532,1800554,1860576,1920576
participant_0_GOLD,500,500,583,811,1190,1438,1830,2217,2848,3195,3672,4432,4870,5931,6400,6641,6893,7015,7465,9296,9697,10041,10214,10957,11944,12531,13483,14261,14383,15339,15957,17512,17529
participant_0_CURRENTGOLD,500,0,83,311,690,103,495,117,748,1095,1572,107,545,1606,2075,2316,573,230,680,861,1262,1607,529,1272,2260,2846,608,1386,1509,2464,533,2088,1854
participant_0_LEVEL,1,1,1,3,4,5,6,6,7,8,9,9,10,11,11,11,12,12,12,13,14,14,14,15,16,16,16,17,17,17,18,18,18
participant_0_MINIONSKILLED,0,0,3,10,22,29,42,48,57,69,82,91,100,111,118,125,129,129,144,155,165,165,165,187,190,200,209,216,216,230,238,245,245
participant_0_KILLS,0,0,0,0,0,0,0,1,1,1,1,1,1,1,1,1,1,1,1,1,1,3,5,5,6,6,6,6,6,6,6,7,7
participant_0_BUY,[],"[3070, 2003, 2003, 3340]",[],[],[3057],[],[],"[3044, 2031]",[],[],[3067],[],[],"[6632, 1036]",[1001],[],[],"[3133, 3363, 2055]",[],"[3158, 1027]",[3004],[],"[3077, 1036]",[],"[3158, 1053]",[],[],[3123],[],[],[],[],[]
participant_0_SOLD,[],[],[],[],[],[],[2003],[2003],[],[],[],[],[],"[3044, 3057, 3067]",[],[],[],"[1036, 3340, 2055]",[],[1001],"[3070, 3133, 1027, 3004]",[],[],[],"[1001, 1036]",[],[],[2031],[],[],[],[],[]
participant_0_UNDO,[],[],[],[],[],[],[],[],[],[],[],[],[],[],[],[],[],[],[],"[[0, 3158]]",[],[],[],[],[],[],[],[],[],[],[],[],[]
participant_1_GOLD,500,500,673,1013,1318,1525,1783,2103,2302,2602,2904,3517,3719,3915,4223,4635,4788,5037,5261,5492,5947,6439,6769,8379,9158,9571,10578,10751,11035,11157,11571,12601,12667
participant_1_CURRENTGOLD,500,0,173,513,818,1025,208,528,327,627,929,42,244,440,748,1160,1313,129,353,234,689,156,486,1796,25,438,1021,318,602,725,1138,2168,2234
participant_1_LEVEL,1,1,2,3,4,4,4,5,5,6,6,6,6,7,7,8,8,8,9,9,10,10,11,11,12,13,13,13,14,14,14,15,15
participant_1_MINIONSKILLED,0,0,0,0,0,0,0,0,0,0,0,0,0,1,1,1,2,2,3,3,4,4,10,12,12,12,12,12,17,17,17,18,18
participant_1_KILLS,0,0,0,0,0,0,0,0,0,0,0,0,0,1,1,1,1,1,2,2,2,2,2,3,3,3,3,3,3,4,4,4,4
participant_1_BUY,[],"[3070, 2003, 2003]",[],[],[],"[1052, 2055, 2031]",[],"[1052, 1027]",[],[],[],"[3802, 3108, 2055]",[],[],[2055],[],[],"[6653, 2055]",[],"[1058, 1027]",[],[],[3003],"[1052, 2055]",[],[1028],[],"[1026, 2055, 3363]",[],"[4637, 2055, 2055]",[],[],[]
participant_1_SOLD,[],[],[],[2003],[],[2003],[2055],[],[],[],[],"[1052, 1027, 1052]",[],[2055],[2031],[],[2055],"[3802, 3108]",[],[],[],[2055],"[2031, 3070, 1058, 1027, 3003]",[],[],[],[2055],[3340],[2055],"[1026, 1028, 1052]","[2055, 2055]",[],[]
participant_1_UNDO,[],[],[],[],[],[],[],[],[],[],[],[],[],[],"[[2031, 0]]",[],[],[],[],[],[],[],[],[],[],[],[],[],[],[],[],[],[]
participant_2_GOLD,500,500,562,878,1155,1459,1837,2015,2460,2718,3001,3291,3617,4148,4320,4624,4889,5178,6092,6410,6616,6829,7001,7493,8192,8314,8696,9113,9318,10374,10538,11458,11475
participant_2_CURRENTGOLD,500,0,62,368,645,279,647,40,475,723,1006,231,547,1078,1175,1479,1744,758,1672,390,596,809,41,23,722,444,826,318,523,115,278,1199,1165
participant_2_LEVEL,1,1,1,3,4,5,6,6,7,7,8,8,9,9,9,10,10,11,12,12,12,13,13,14,14,14,15,15,15,16,16,17,17
participant_2_MINIONSKILLED,0,0,2,11,20,28,40,43,58,63,72,76,84,85,88,94,102,108,120,127,133,134,134,139,140,140,146,157,158,159,161,164,164
participant_2_KILLS,0,0,0,0,0,0,0,0,1,1,1,1,1,3,3,3,3,3,3,6,6,6,6,6,7,7,8,9,9,10,11,13,13
participant_2_BUY,[],"[2031, 1082, 2003, 2003, 1056, 3340]",[],[],[],"[1082, 1052, 2003]",[],"[3145, 2031]",[],[],[],"[3152, 2055]",[],[],[],[],"[3020, 1026, 1052]",[3108],[],[3135],[],[],[3041],[],[],[],"[3157, 1058, 2139]",[],[],[],"[3363, 3089]",[],[]
participant_2_SOLD,[],[],[],"[2003, 2003]",[],[],[2003],[1052],[],[],[],[3145],[],[],[],[],"[2055, 2031, 2422]",[1052],[],[1026],[],[],[1082],[],[],[],"[3108, 1056, 2139]",[],[],[],"[3340, 1058]",[],[]
participant_2_UNDO,[],"[[0, 1082], [0, 2031]]",[],[],[],[],[],[],[],[],[],[],[],[],[],[],[],[],[],[],[],[],[],[],[],[],[],[],[],[],[],[],[]
participant_3_GOLD,500,500,583,948,1338,1643,2098,2556,2957,3320,3533,3948,4345,4613,4785,5168,5546,5892,6251,6374,6580,7420,8288,8554,9357,9802,10219,10392,10619,11021,11340,12781,12797
participant_3_CURRENTGOLD,500,0,83,448,138,443,898,106,507,870,283,698,1095,313,185,568,946,467,826,599,55,895,213,479,132,577,995,427,654,1057,1375,2817,2772
participant_3_LEVEL,1,1,1,2,3,3,4,5,5,6,6,7,7,8,8,9,9,9,10,10,10,11,11,12,13,13,14,14,14,14,14,15,15
participant_3_MINIONSKILLED,0,0,3,14,18,26,37,39,52,63,68,79,91,92,95,102,112,121,130,130,135,138,139,139,144,153,160,160,162,169,176,182,182
participant_3_KILLS,0,0,0,0,1,1,2,2,2,2,2,2,2,2,2,2,2,2,2,2,2,2,2,2,2,2,2,2,2,2,2,3,3
participant_3_BUY,[],"[3850, 2003, 2003, 3340]",[],[],"[3067, 3364]",[],[],"[1033, 1029, 2055, 2055]",[],[],"[3105, 2055]",[],[],"[3190, 1004, 2055, 2055]",[],[],[],"[3114, 2055, 2055]",[],[],[],[],"[1026, 2055, 2055]",[],"[6616, 2055]",[],[],[],"[3117, 1026, 2055, 2055]",[],[],[],[]
participant_3_SOLD,[],[],[],"[2003, 2010, 2003]",[3340],[2010],[],[2010],"[2055, 3850]",[],"[1033, 1029]",[2055],[],"[2055, 3067, 3105]",[2055],[],[2055],"[3851, 1004]",[2055],[],[],[2055],[],[],"[2055, 3114, 1026]",[],[2055],[2055],[2422],[],"[2055, 2055]",[],[]
participant_3_UNDO,[],[],[],[],[],[],[],[],[],[],[],[],[],[],[],[],[],[],[],[],[],[],[],[],[],[],[],[],[],[],[],[],[]
participant_4_GOLD,500,500,562,757,1386,1594,2103,2407,2707,3029,3169,3414,3618,3878,4084,4254,4404,4605,4803,5094,5429,5733,5924,6271,6783,6986,7370,7926,8115,8315,8457,9692,9711
participant_4_CURRENTGOLD,500,0,62,257,86,294,803,207,507,829,144,389,593,53,259,429,580,80,278,569,904,1209,399,746,533,736,1120,1676,165,366,507,1743,1761
participant_4_LEVEL,1,1,1,2,3,3,4,4,5,6,6,6,7,7,7,7,7,7,8,8,9,10,10,11,11,12,12,13,13,13,13,14,14
participant_4_MINIONSKILLED,0,0,0,0,1,2,2,2,5,7,7,8,10,11,14,15,16,16,19,19,26,27,27,31,31,34,34,35,38,40,40,40,40
participant_4_KILLS,0,0,0,0,0,0,0,0,0,0,0,0,0,0,0,0,0,0,0,0,0,1,1,3,4,4,6,6,6,6,6,6,6
participant_4_BUY,[],"[1039, 2031, 3340]",[],[],[],[],"[3057, 1001, 2055, 3364]",[],[1028],[],[],"[3051, 3067]",[],[],[],[],[],"[3078, 1036, 1036]",[],[1036],[],"[1053, 3133, 2055, 2055]",[],[1029],"[3047, 3074, 1036, 1028]",[],"[3044, 2055]",[1037],[],[],[],[],[]
participant_4_SOLD,[],[],[],[],[],[],[3340],[],[2055],[1039],"[3364, 3513]",[1028],[],[],[],[],[],"[3057, 3051, 3067]",[],[],[],"[1036, 1036, 1036]",[2055],[],"[1001, 1029, 1053, 3133]",[],"[1028, 1036, 2055]",[],[],[],[],[],[]
participant_4_UNDO,[],[],[],[],[],[],[],[],[],[],[],[],[],[],[],[],[],[],[],[],[],"[[0, 2055]]",[],[],[],[],[],[],[],[],[],[],[]
participant_5_GOLD,500,500,583,860,1088,1385,1571,1756,1927,2106,2270,2622,3218,3660,4046,4245,4475,4943,5288,5410,5633,5850,6123,6357,6798,7125,7297,8265,8675,9230,9523,9645,9961
participant_5_CURRENTGOLD,500,0,83,360,188,485,671,186,207,386,100,452,1048,540,926,385,615,163,508,10,233,450,323,557,598,925,397,1015,675,530,823,145,11
participant_5_LEVEL,1,1,1,3,3,4,5,5,6,6,6,7,8,8,9,9,10,10,11,11,11,11,11,11,12,12,12,13,13,14,14,14,14
participant_5_MINIONSKILLED,0,0,3,12,18,25,29,32,35,38,40,50,59,59,70,75,80,81,90,90,90,90,90,96,99,106,106,106,118,132,137,137,137
participant_5_KILLS,0,0,0,0,0,0,0,0,0,0,2,2,2,2,2,2,2,2,2,2,2,2,2,3,3,3,3,3,3,4,4,4,4
participant_5_BUY,[],"[1054, 3340, 2003]",[],[],[],"[1052, 1028, 2055]",[],[],"[4635, 1001]",[],[],"[3916, 3020, 2055]",[],[1026],[],[],[4633],[],[1052],[],"[3108, 4632, 1052]",[3108],[],[3102],[],[1026],[],[],[],"[3165, 2055]",[],[],[]
participant_5_SOLD,[],[],[],[],[],[],[2055],[],"[1028, 1052]",[],[],"[2003, 1001]",[],[2055],[],[],"[4635, 1026]",[],[],[],"[1052, 1052]",[1052],[],"[3108, 4632]",[],[],[],[],[],"[1026, 3916]",[],[],[]
participant_5_UNDO,[],[],[],[],[],[],[],[],[],[],[],[],[],[],[],[],[],[],[],[],"[[0, 3108]]",[],[],[],[],[],[],[],[],[],[],[],[]
participant_6_GOLD,500,500,620,1048,1463,1805,2013,3277,3424,3655,4067,4410,4647,5726,5848,6376,6703,7084,7411,7808,8214,8801,9217,9827,10752,11152,11945,12116,12536,13158,13476,13599,13615
participant_6_CURRENTGOLD,500,0,120,548,963,1305,238,1502,174,405,817,1160,247,1326,223,751,1078,1459,1786,2183,2589,486,153,762,937,538,1330,1502,1922,343,662,384,340
participant_6_LEVEL,1,1,2,3,4,5,5,7,7,7,8,8,9,9,9,10,10,11,11,12,12,13,13,14,14,14,15,15,16,16,17,17,17
participant_6_MINIONSKILLED,0,0,0,0,1,1,1,4,4,4,4,4,5,6,6,6,6,6,10,10,17,17,17,22,30,35,35,37,38,44,45,45,45
participant_6_KILLS,0,0,0,0,0,0,0,2,2,2,2,2,2,4,4,4,4,4,4,4,4,4,5,5,6,6,7,7,7,7,7,7,7
participant_6_BUY,[],"[1039, 3340, 2031, 3364, 3340]",[3364],[],[],[],"[6029, 2055]",[],"[3044, 1001, 2055]",[],[],[],"[6630, 2055, 2055]",[],"[3111, 1036, 2055]",[],[],[],[],[],[],[3156],"[1028, 1036, 1036]",[],[3133],[1031],[],[],[],"[6333, 3211, 2055, 2055]",[],[1028],[]
participant_6_SOLD,[],"[3340, 3364]",[3340],[],[],[],[],[2055],[1039],[2055],[],[],"[6029, 3044, 2055]",[2055],[1001],[],[],[2055],[],[3364],[],"[2031, 1036]",[],[3513],[1036],[],[],[],[],"[1031, 3133, 1028]","[2055, 2055]",[],[]
participant_6_UNDO,[],[],[],[],[],[],[],[],[],[],[],[],[],[],[],[],[],[],[],[],[],[],"[[0, 1036]]",[],[],[],[],[],[],[],[],[],[]
participant_7_GOLD,500,500,597,895,1253,1480,1694,2022,2367,2758,3578,3930,4364,4793,5332,5706,6070,6534,6656,7037,7824,7947,8201,8672,9052,9397,9603,9754,9876,10348,10869,11180,11196
participant_7_CURRENTGOLD,500,0,97,395,743,60,274,592,162,543,1363,30,454,33,562,936,250,714,401,782,369,27,281,352,732,227,434,584,706,254,774,1086,1171
participant_7_LEVEL,1,1,1,3,4,5,5,6,7,8,8,9,9,10,10,11,11,12,12,12,13,13,13,14,14,14,14,15,15,15,15,16,16
participant_7_MINIONSKILLED,0,0,4,14,25,32,37,47,57,69,75,85,91,100,111,122,132,148,148,159,173,173,177,180,184,193,198,200,200,200,215,222,222
participant_7_KILLS,0,0,0,0,0,0,0,0,0,0,0,0,1,2,2,2,2,2,2,2,2,2,2,2,2,2,2,3,3,3,3,3,4
participant_7_BUY,[],"[1055, 3340, 2003]",[],[],"[1036, 2003]",[],[],[3057],"[3364, 2031, 3340]",[],[1054],[],[],[3155],[],[3123],[],[3044],[],"[3047, 3111]",[],[],[1028],[],[3067],[],[6632],"[1029, 1036]",[3133],[3156],[],[1031],[]
participant_7_SOLD,[],[],[],[2003],[2010],"[2003, 2010]",[],[2010],"[3340, 3364]",[],[],[],[],[1036],[],[2031],[],[1055],[],"[1054, 2422, 2422]",[],[],[],[],[1028],[],"[3044, 3057, 3067]",[],[1036],"[3155, 3133]",[],[],[]
participant_7_UNDO,[],[],[],[],[],[],[],[],[],[],[],[],[],[],[],[],[],[],[],"[[0, 3047]]",[],[],[],[],[],[],[],"[[0, 1029]]",[],[],[],[],[]
participant_8_GOLD,500,500,583,846,1176,1487,1666,2001,2311,2609,3133,3450,3782,4489,5020,5925,6222,7231,8091,8495,9160,10805,11792,11993,12261,12404,13435,13732,15230,15402,15851,15988,16004
participant_8_CURRENTGOLD,500,0,83,346,676,147,176,166,476,774,298,315,647,154,685,1590,287,1296,2156,60,725,2370,517,719,566,109,1141,437,1936,2108,2056,194,-121
participant_8_LEVEL,1,1,1,2,3,4,4,5,5,6,6,7,7,8,8,9,10,10,11,11,12,12,13,13,13,13,14,14,15,15,16,16,16
participant_8_MINIONSKILLED,0,0,3,11,21,29,32,36,43,53,63,71,83,86,97,104,110,121,127,129,142,142,149,153,153,154,166,172,191,191,199,200,200
participant_8_KILLS,0,0,0,0,0,0,0,0,0,0,0,0,0,0,0,0,0,0,0,0,0,0,0,0,1,1,1,1,2,2,2,2,2
participant_8_BUY,[],"[3858, 3850, 2003, 2003, 3340]",[],[],"[1001, 2055]",[],[],[1052],[],[],[4642],[],[],[],"[3067, 3364]",[],[],[6617],[],"[3158, 1004]",[],[3114],[],[],[],[1026],[],"[3504, 1004]",[],"[3114, 1026]",[],[],[]
participant_8_SOLD,[],[],[],[2003],[2003],[],[],[],[],[],[1052],[3850],[],[],[3340],[2055],[],"[3067, 4642]",[],[1001],[3851],[1004],[],[],[],[],[],"[3114, 1026]",[],[1004],[],[],[]
participant_8_UNDO,[],"[[0, 3858]]",[],[],[],[],[],[],[],[],[],[],[],[],[],[],[],[],[],[],[],[],[],[],[],[],[],[],[],[],[],[],[]
participant_9_GOLD,500,500,562,777,952,1166,1418,1552,1736,1951,2283,2443,2603,3137,3335,3516,3716,3857,4338,4648,5074,5289,5429,5600,6090,6252,6652,6792,7713,8203,8405,8545,8564
participant_9_CURRENTGOLD,500,0,62,277,77,291,543,242,426,641,358,518,678,1212,611,791,991,282,763,223,649,314,454,625,1115,427,827,68,988,78,280,420,439
participant_9_LEVEL,1,1,1,2,2,3,4,4,5,5,6,6,7,8,8,8,8,8,9,9,9,10,10,10,11,11,12,12,13,13,13,13,13
participant_9_MINIONSKILLED,0,0,0,0,0,0,4,4,5,5,7,7,7,7,10,10,10,10,11,11,11,11,11,11,11,12,13,13,14,14,15,15,15
participant_9_KILLS,0,0,0,0,0,0,0,0,0,0,0,0,0,1,1,2,2,4,6,7,7,10,11,11,11,11,13,13,15,15,15,15,15
participant_9_BUY,[],"[1055, 3340, 2003]",[],[],[],[1053],[2031],"[2055, 1042]",[],[],[6670],[1042],[],[6673],[],[],"[3006, 6677, 1042, 3363]",[],[],"[3124, 3123]",[],[],[3139],[],[1018],[3086],[],"[3033, 1029]",[],[1031],[1031],[3026],[]
participant_9_SOLD,[],[],[],[],[2003],"[2010, 2010]",[],[2010],[2055],[],[1042],[],[],"[6670, 1053]",[],[],"[1042, 2422, 3340]",[],[],"[6677, 1042]",[],[],[2031],[],[1055],[1018],[],"[3123, 3086]",[],[1029],[1029],[1031],[]
participant_9_UNDO,[],[],[],[],[],[],[],[],[],[],[],[],[],[],[],[],[],[],[],[],[],[],[],[],[],[],[],[],[],"[[0, 1031]]",[],[],[]
team0_KILLS,0,0,0,0,1,1,2,3,4,4,4,4,4,7,7,7,7,7,8,11,11,14,16,19,22,22,25,26,26,28,29,33,33
team0_CURRENTGOLD,2500,0,463,1897,2377,2144,3051,998,2564,4144,3934,1467,3024,3490,4442,5952,5156,1664,3809,2653,3506,4676,1668,4316,3672,5041,4570,4125,3453,4727,3831,10015,9786
team0_TOTALGOLD,2500,2500,2963,4407,6387,7659,9651,11298,13274,14864,16279,18602,20169,22485,23812,25322,26520,27727,29872,32666,34269,36462,38196,41654,45434,47204,50346,52443,53470,56206,57863,64044,64179
team0_LEVEL,5,5,6,13,18,20,24,26,29,33,35,36,39,42,42,45,46,47,51,52,55,58,59,63,66,68,70,72,73,74,75,79,79
team0_SBIRES,0,0,8,35,61,85,121,132,172,202,229,254,285,300,316,337,361,376,416,434,463,468,475,508,517,539,561,580,591,615,632,649,649
team1_KILLS,0,0,0,0,0,0,0,2,2,2,4,4,5,9,9,10,10,12,14,15,15,18,20,21,23,23,26,27,30,31,31,31,32
team1_CURRENTGOLD,2500,0,445,1926,2647,2288,1902,2688,1445,2749,2936,2475,3074,3265,3007,4453,3221,3914,5614,3258,4565,3647,1728,3015,3948,2226,4129,3606,6227,3313,4595,2229,1840
team1_TOTALGOLD,2500,2500,2945,4426,5932,7323,8362,10608,11765,13079,15331,16855,18614,21805,23581,25768,27186,29649,31784,33398,35905,38692,40762,42449,44953,46330,48932,50659,54030,56341,58124,58957,59340
team1_LEVEL,5,5,6,13,16,21,23,27,30,32,34,37,40,43,44,47,49,51,54,55,57,59,60,62,64,64,67,69,72,73,75,76,76
team1_SBIRES,0,0,10,37,65,87,103,123,144,169,189,217,245,258,294,317,338,366,386,399,433,433,444,462,477,500,518,528,561,581,611,619,619
delta_KILLS,0,0,0,0,1,1,2,1,2,2,0,0,-1,-2,-2,-3,-3,-5,-6,-4,-4,-4,-4,-2,-1,-1,-1,-1,-4,-3,-2,2,1
delta_CURRENTGOLD,0,0,18,-29,-270,-144,1149,-1690,1119,1395,998,-1008,-50,225,1435,1499,1935,-2250,-1805,-605,-1059,1029,-60,1301,-276,2815,441,519,-2774,1414,-764,7786,7946
delta_TOTALGOLD,0,0,18,-19,455,336,1289,690,1509,1785,948,1747,1555,680,231,-446,-666,-1922,-1912,-732,-1636,-2230,-2566,-795,481,874,1414,1784,-560,-135,-261,5087,4839
delta_LEVEL,0,0,0,0,2,-1,1,-1,-1,1,1,-1,-1,-1,-2,-2,-3,-4,-3,-3,-2,-1,-1,1,2,4,3,3,1,1,0,3,3
delta_SBIRES,0,0,-2,-2,-4,-2,18,9,28,33,40,37,40,42,22,20,23,10,30,35,30,35,31,46,40,39,43,52,30,34,21,30,30
