name,frame_0,frame_1,frame_2,frame_3,frame_4,frame_5,frame_6,frame_7,frame_8,frame_9,frame_10,frame_11,frame_12,frame_13,frame_14,frame_15,frame_16,frame_17,frame_18,frame_19,frame_20,frame_21
nameStamp,Tstart,Tearly,Tearly,Tearly,Tearly,Tearly,Tearly,Tearly,Tearly,Tearly,Tearly,Tearly,Tmid,Tmid,Tmid,Tmid,Tmid,Tmid,Tmid,Tmid,Tmid,Tmid
timestamp,0,60031,120061,180077,240105,300127,360152,420155,480173,540202,600227,660249,720279,780309,840330,900359,960391,1020399,1080420,1140443,1200467,1260467
participant_0_GOLD,500,500,542,769,1167,1637,1816,1938,2248,2982,3386,4343,4549,5019,5700,6583,7136,7599,8271,8394,8790,8923
participant_0_CURRENTGOLD,500,0,42,269,667,1137,1316,88,398,1132,1536,2493,149,619,1300,2183,1186,1649,738,861,157,290
participant_0_LEVEL,1,1,1,3,4,5,6,6,7,7,8,8,8,8,9,10,10,11,12,12,13,13
participant_0_MINIONSKILLED,0,0,1,7,13,15,18,18,26,30,32,34,38,41,48,52,55,62,64,64,70,70
participant_0_KILLS,0,0,0,0,0,1,1,1,1,2,2,3,3,3,3,4,5,5,6,6,6,6
participant_0_BUY,[],"[1054, 2003, 3340]",[],[],[],[],[],"[1043, 1036]",[],[],[],[],"[3153, 1042, 1042]",[],[],[],"[3101, 3057]",[],[3078],[],[3111],[]
participant_0_SOLD,[],[],[],[2003],[],[],[],[],[],[],[],[],"[1036, 1043]",[],[],[],"[1042, 1042]",[],"[3101, 3057]",[],[],[]
participant_0_UNDO,[],[],[],[],[],[],[],[],[],[],[],[],[],[],[],[],[],[],[],[],[],[]
participant_1_GOLD,500,500,606,1013,1813,2309,2615,3218,3875,4298,4839,5886,6410,7222,8119,8695,9393,10627,10849,10972,11494,12114
participant_1_CURRENTGOLD,500,0,106,513,1313,1809,215,818,90,512,1054,2101,360,1172,2069,2645,3343,4577,4799,32,554,1114
participant_1_LEVEL,1,1,2,3,4,4,5,6,7,7,8,9,9,10,11,12,12,13,13,13,13,14
participant_1_MINIONSKILLED,0,0,0,0,0,0,0,0,0,0,1,3,6,6,11,11,11,14,14,14,14,20
participant_1_KILLS,0,0,0,0,2,3,3,4,5,6,7,9,9,11,13,13,14,18,18,18,18,19
participant_1_BUY,[],"[1039, 2031, 3340]",[],[],[],[],"[3706, 3108, 1027]",[],"[1402, 1028, 1052, 1001]",[],[],[],[3151],[],[],[],[],[],[],"[3111, 3157, 1026, 1028, 3364]",[],[]
participant_1_SOLD,[],[],[],[],[],[],[1039],[],"[3108, 1027, 3706]",[],[],"[3340, 3513]","[1028, 1052]",[],[],[],[],[],[],"[1001, 2031, 3340]",[],[]
participant_1_UNDO,[],[],[],[],[],[],[],[],[],[],[],[],[],[],[],[],[],[],[],[],[],[]
participant_2_GOLD,500,500,535,713,899,1042,1245,1479,2026,2191,2369,2859,3322,3799,4568,4740,5122,5536,5794,6294,6580,6863
participant_2_CURRENTGOLD,500,0,35,213,399,107,310,544,1091,1256,569,1059,1522,1999,2768,240,622,1036,444,944,1230,1513
participant_2_LEVEL,1,1,1,2,4,4,5,6,7,7,7,8,8,9,10,10,11,11,11,12,13,13
participant_2_MINIONSKILLED,0,0,1,4,8,9,11,17,22,24,27,34,35,38,41,41,52,53,55,61,64,64
participant_2_KILLS,0,0,0,0,0,0,0,0,1,1,1,1,1,1,2,2,2,2,2,3,3,3
participant_2_BUY,[],"[1056, 2003, 3340, 2003]",[],[],[],[1052],[],[],[],[],[3802],[],[],[],[],"[1026, 3285, 3020]",[],[],[1026],[],[],[]
participant_2_SOLD,[],[],[],[],[],[2003],[],[2003],[],[],[1052],[],[],[],[],"[3802, 1026, 2422]",[],[],[],[],[],[]
participant_2_UNDO,[],[],[],[],[],[],[],[],[],[],[],[],[],[],[],[],[],[],[],[],[],[]
participant_3_GOLD,500,500,535,1142,1914,2193,2633,3379,3655,4479,4905,5890,6055,6686,7438,7753,8144,9280,9831,10603,11326,11458
participant_3_CURRENTGOLD,500,0,35,642,1414,43,483,1229,205,1029,1454,2440,54,686,1438,302,694,1830,331,1103,26,158
participant_3_LEVEL,1,1,1,2,3,4,4,5,5,6,7,8,8,8,10,10,11,11,12,13,13,13
participant_3_MINIONSKILLED,0,0,1,4,10,14,16,20,21,28,32,40,43,51,55,58,66,72,73,86,89,89
participant_3_KILLS,0,0,0,1,3,3,4,6,7,8,8,8,8,8,10,10,11,12,13,14,16,16
participant_3_BUY,[],"[2003, 2003, 2003, 3340, 1036]",[],[],[],"[3134, 1053]",[],[],"[3144, 1042, 1001]",[],[],[],"[3153, 3111, 1036]",[],[],[3142],[],[],"[3067, 3044]",[],"[3071, 1033, 1028]",[]
participant_3_SOLD,[],[],[2003],[2003],[2003],[1036],[],[],[1053],[],[],[],"[3144, 1042, 1001]",[],[],"[1036, 3134]",[],[],[],[],"[3044, 3067]",[]
participant_3_UNDO,[],[],[],[],[],[],[],[],[],[],[],[],[],[],[],[],[],[],[],[],[],[]
participant_4_GOLD,500,500,584,943,1324,1620,1865,2490,3299,3443,3825,4240,4495,5196,5865,6676,6963,7625,8394,8579,9969,10102
participant_4_CURRENTGOLD,500,65,149,508,303,600,115,740,1549,243,625,1040,245,946,1615,2426,113,775,1544,129,1520,402
participant_4_LEVEL,1,1,1,2,3,3,4,5,7,7,8,8,9,9,10,11,11,12,13,13,14,14
participant_4_MINIONSKILLED,0,0,3,9,11,14,16,25,35,36,45,56,64,74,86,94,95,104,115,119,130,130
participant_4_KILLS,0,0,0,0,0,0,0,0,1,1,2,2,2,3,4,5,5,6,7,7,10,10
participant_4_BUY,[],[1052],[],[],"[1052, 2031]",[],"[3802, 1001]",[],[],"[1026, 3158]",[],[],[3285],[],[],[],[3116],[],[],"[1058, 1027]",[],[1058]
participant_4_SOLD,[],[],[],[],[],[],"[1052, 1052]",[],[],[1001],[],[],"[3802, 1026]",[],[],[],[],[],[],[],[],[1027]
participant_4_UNDO,[],[],[],[],[],[],[],[],[],[],[],[],[],[],[],[],[],[],[],[],[],[]
participant_5_GOLD,500,500,563,741,878,1091,1228,1392,1664,1815,2121,2244,2580,2737,2888,3101,3792,3928,4454,4689,5037,5140
participant_5_CURRENTGOLD,500,0,63,141,178,391,528,692,964,1115,121,244,580,737,888,226,617,753,54,289,337,440
participant_5_LEVEL,1,1,1,1,2,3,3,4,4,5,5,6,7,7,7,8,9,9,10,11,11,12
participant_5_MINIONSKILLED,0,0,2,5,6,9,10,12,12,14,22,22,29,31,33,38,40,41,42,49,53,53
participant_5_KILLS,0,0,0,0,0,0,0,0,0,0,0,0,0,0,0,0,1,1,2,2,2,2
participant_5_BUY,[],"[1055, 2003, 3340]",[],"[2003, 2003]","[2003, 2003]",[],[],[],[],[],[1038],[],[],[],[],[1037],[1001],[],"[1018, 3031]",[],[1042],[]
participant_5_SOLD,[],[],[],"[2003, 2003]",[2003],"[2003, 2003]",[],[],[],[],[],[],[],[],[],[],[],[],"[1038, 1037, 1018]",[],[],[]
participant_5_UNDO,[],[],[],[],[],[],[],[],[],[],[],[],[],[],[],[],[],[],[],[],[],[]
participant_6_GOLD,500,500,542,720,906,1028,1207,1584,1741,2258,2380,2503,3188,3533,3670,3806,3943,4236,5229,5470,7251,7383
participant_6_CURRENTGOLD,500,0,42,220,6,28,207,584,691,1208,230,353,1038,1383,420,106,243,536,79,320,1701,250
participant_6_LEVEL,1,1,1,2,3,3,3,4,5,6,6,6,7,8,8,8,9,10,10,11,12,12
participant_6_MINIONSKILLED,0,0,1,4,8,8,11,17,19,20,20,20,23,27,28,29,30,36,37,40,44,47
participant_6_KILLS,0,0,0,0,0,0,0,0,0,1,1,1,2,2,2,2,2,2,3,3,5,5
participant_6_BUY,[],"[1054, 2003, 3340]",[],[],"[1027, 2003]","[2003, 2003]",[],[],[2003],[],"[3057, 1028]",[],[],[],"[3211, 1001]",[1033],[],[],"[3111, 3101]",[],[1028],"[3078, 1028]"
participant_6_SOLD,[],[],[],[],[2003],[2003],"[2003, 2003]",[],[],[2003],[1027],[],[],[],[1028],[],[],[],"[1001, 1033]",[],[],"[3101, 3057, 1028]"
participant_6_UNDO,[],[],[],[],[],[],[],[],[],[],[],[],[],[],[],[],[],[],[],[],[],[]
participant_7_GOLD,500,500,570,892,1057,1389,1718,1875,2471,2715,2914,3121,3257,3564,3687,3998,4142,4264,4581,4704,5736,5819
participant_7_CURRENTGOLD,500,0,70,392,157,489,818,140,736,215,114,321,157,464,87,398,542,664,981,254,536,619
participant_7_LEVEL,1,1,1,3,4,5,6,6,7,8,8,9,9,9,9,10,10,11,11,11,12,12
participant_7_MINIONSKILLED,0,0,3,12,14,26,35,37,44,48,53,58,59,64,64,71,72,72,77,77,79,79
participant_7_KILLS,0,0,0,0,0,0,0,0,1,1,1,1,1,1,1,1,1,1,1,1,2,2
participant_7_BUY,[],"[1056, 2003, 2003, 3340]",[],[],"[1001, 2003, 2003]",[],[],"[1028, 1052]",[],"[3136, 2003, 2003]",[1042],[],[1042],[],[3101],[],[],[],[],[1026],[3151],[]
participant_7_SOLD,[],[],[],"[2003, 2003]",[],"[2003, 2003]",[],[],[],"[1028, 1052, 2003]",[2003],[],[],[],"[1042, 1042]",[],[],[],[],[],"[3136, 1026]",[]
participant_7_UNDO,[],[],[],[],[],[],[],[],[],[],[],[],[],[],[],[],[],[],[],[],[],[]
participant_8_GOLD,500,500,568,841,1041,1196,1551,1787,2901,3165,3346,3529,3853,4262,4931,5131,5707,6101,6327,6482,7127,7221
participant_8_CURRENTGOLD,500,0,68,341,541,196,551,387,301,165,346,94,418,827,831,331,907,1301,677,832,427,86
participant_8_LEVEL,1,1,1,2,4,4,5,5,6,6,6,7,7,8,9,9,10,10,11,11,12,12
participant_8_MINIONSKILLED,0,0,0,3,5,6,16,18,20,25,25,27,31,34,37,38,46,51,54,56,62,62
participant_8_KILLS,0,0,0,0,0,0,0,0,1,1,1,1,1,1,2,2,2,2,2,2,3,3
participant_8_BUY,[],"[3850, 2003, 2003, 3340]",[],[],[],"[1001, 2003, 2003, 2003, 2003]",[],[1028],[3916],[1028],[],[1052],[],[],[3136],[3117],[],[],[1026],[],"[3151, 1029]",[1052]
participant_8_SOLD,[],[],[],"[2003, 2003]",[],[],"[2003, 2003, 2003]",[2003],[1028],[],[3850],[],[],[],"[1028, 1052]",[1001],[],[],[3851],[],"[3136, 1026]",[]
participant_8_UNDO,[],[],[],[],[],[],[],[],[],[],[],[],[],[],[],[],[],[],[],[],[],[]
participant_9_GOLD,500,500,563,741,864,1175,1368,1961,2097,2513,2677,2800,3407,3609,3809,4022,4145,4602,4849,5014,5136,5275
participant_9_CURRENTGOLD,500,0,63,241,64,375,218,811,347,763,427,150,757,109,309,522,295,752,999,214,36,175
participant_9_LEVEL,1,1,1,2,2,4,4,5,6,6,7,7,8,8,8,9,9,10,10,11,11,11
participant_9_MINIONSKILLED,0,0,2,5,5,13,17,24,25,29,31,31,33,33,37,42,42,44,44,47,47,50
participant_9_KILLS,0,0,0,0,0,0,0,1,1,1,1,1,2,2,2,2,2,3,3,3,3,3
participant_9_BUY,[],"[1054, 2003, 3340]",[],[],[1001],[],[1036],[],"[1028, 2003, 2003, 2003, 2003]",[],[3044],[1028],[],"[3067, 1033]",[],[],[3111],[],[],[3071],[1029],[]
participant_9_SOLD,[],[],[2003],[],[],[],[],[],[2003],"[2003, 2003, 2003]","[1028, 1036]",[],[],[1028],[],[],"[1001, 1033]",[],[],"[3044, 3067]",[],[]
participant_9_UNDO,[],[],[],[],[],[],[],[],[],[],[],[],[],[],[],[],[],[],[],[],[],[]
team0_KILLS,0,0,0,1,5,7,8,11,15,18,20,23,23,26,32,34,37,43,46,48,53,54
team0_CURRENTGOLD,2500,65,367,2145,4096,3696,2439,3419,3333,4172,5238,9133,2330,5422,9190,7796,5958,9867,7856,3069,3487,3477
team0_TOTALGOLD,2500,2500,2802,4580,7117,8801,10174,12504,15103,17393,19324,23218,24831,27922,31690,34447,36758,40667,43139,44842,48159,49460
team0_LEVEL,5,5,6,12,18,20,24,28,33,34,38,41,42,44,50,53,55,58,61,63,66,67
team0_SBIRES,0,0,6,24,42,52,61,80,104,118,137,167,186,210,241,256,279,305,321,344,367,373
team1_KILLS,0,0,0,0,0,0,0,1,3,4,4,4,6,6,7,7,8,9,11,11,15,15
team1_CURRENTGOLD,2500,0,306,1335,946,1479,2322,2614,3039,3466,1238,1162,2950,3520,2535,1583,2604,4006,2790,1909,3037,1570
team1_TOTALGOLD,2500,2500,2806,3935,4746,5879,7072,8599,10874,12466,13438,14197,16285,17705,18985,20058,21729,23131,25440,26359,30287,30838
team1_LEVEL,5,5,5,10,15,19,21,24,28,31,32,35,38,40,41,44,47,50,52,55,58,59
team1_SBIRES,0,0,8,29,38,62,89,108,120,136,151,158,175,189,199,218,230,244,254,269,285,291
delta_KILLS,0,0,0,1,5,7,8,10,12,14,16,19,17,20,25,27,29,34,35,37,38,39
delta_CURRENTGOLD,0,65,61,810,3150,2217,117,805,294,706,4000,7971,-620,1902,6655,6213,3354,5861,5066,1160,450,1907
delta_TOTALGOLD,0,0,-4,645,2371,2922,3102,3905,4229,4927,5886,9021,8546,10217,12705,14389,15029,17536,17699,18483,17872,18622
delta_LEVEL,0,0,1,2,3,1,3,4,5,3,6,6,4,4,9,9,8,8,9,8,8,8
delta_SBIRES,0,0,-2,-5,4,-10,-28,-28,-16,-18,-14,9,11,21,42,38,49,61,67,75,82,82
