name,frame_0,frame_1,frame_2,frame_3,frame_4,frame_5,frame_6,frame_7,frame_8,frame_9,frame_10,frame_11,frame_12,frame_13,frame_14,frame_15,frame_16,frame_17,frame_18,frame_19,frame_20,frame_21,frame_22,frame_23,frame_24,frame_25,frame_26,frame_27,frame_28,frame_29
nameStamp,Tstart,Tearly,Tearly,Tearly,Tearly,Tearly,Tearly,Tearly,Tearly,Tearly,Tearly,Tearly,Tearly,Tmid,Tmid,Tmid,Tmid,Tmid,Tmid,Tmid,Tmid,Tmid,Tmid,Tmid,Tmid,Tend,Tend,Tend,Tend,Tend
timestamp,0,60013,120025,180042,240059,300069,360090,420102,480129,540135,600160,660171,720177,780193,840206,900208,960221,1020238,1080244,1140255,1200270,1260288,1320298,1380316,1440329,1500346,1560368,1620391,1680400,1740400
participant_0_GOLD,500,500,576,832,955,1413,1671,2013,2232,2369,2659,3096,4378,4717,4917,5347,5491,6024,6196,7033,7197,8234,9075,9197,9606,9728,10218,10740,11458,11504
participant_0_CURRENTGOLD,500,500,76,332,55,513,771,1113,32,44,334,771,33,372,2,432,76,209,31,868,157,294,260,32,441,563,553,725,694,-171
participant_0_LEVEL,1,1,1,2,2,4,5,5,5,6,7,7,8,8,9,9,9,10,10,11,11,12,13,13,13,13,14,14,15,15
participant_0_MINIONSKILLED,0,0,3,11,11,29,36,46,50,51,61,70,75,82,86,100,101,106,106,110,112,117,131,131,144,144,158,165,172,172
participant_0_KILLS,0,0,0,0,0,0,0,0,0,0,0,0,1,1,1,1,1,2,2,3,3,4,5,5,5,5,5,5,6,6
participant_0_BUY,[],[],"[1055, 2003]",[],"[1001, 2003, 2003]",[],[],[],[6670],"[2003, 2055]",[],[],"[6672, 2003, 2003]",[],"[1029, 1029]",[],[3047],"[1036, 2003]",[1036],[],[1037],"[3133, 1031]","[6333, 1033, 2003, 2003]",[1036],[],[],[3155],[1036],[3133],[3156]
participant_0_SOLD,[],[],[],[2003],[],[],[],[],[],[],[],[],"[2003, 2003, 2003, 1055, 6670]","[2003, 2003]",[2055],[],"[1001, 1029]",[],[],[2003],[],"[1036, 1036, 1029]","[1031, 3133, 1037]",[],[],[],"[1036, 1033]",[],[1036],"[3155, 3133]"
participant_0_UNDO,[],[],[],[],[],[],[],[],[],[],[],[],[],[],[],[],[],[],[],[],[],[],[],[],[],[],[],[],[],[]
participant_1_GOLD,500,500,662,963,1186,1385,1585,1847,2069,2412,2824,3249,4398,4541,4664,5053,5354,5876,6618,8056,8697,8819,9336,9890,10398,10569,10849,11046,11279,11325
participant_1_CURRENTGOLD,500,0,162,463,36,235,435,697,169,512,924,1349,2498,366,39,428,729,1,143,1581,2222,195,711,165,673,394,674,871,1105,1150
participant_1_LEVEL,1,1,2,3,3,3,4,5,5,6,6,7,8,8,8,9,9,10,10,11,12,12,12,13,14,14,14,14,14,14
participant_1_MINIONSKILLED,0,0,0,0,0,0,0,2,2,2,2,4,7,8,8,8,14,24,24,27,28,28,35,52,60,63,63,63,65,65
participant_1_KILLS,0,0,0,0,0,0,1,1,1,1,1,1,3,3,3,3,3,3,3,3,3,3,3,3,3,3,3,3,3,3
participant_1_BUY,[],"[3070, 2003, 2003, 3340]",[],[],[],"[1052, 2055, 2031]",[1052],[],[3802],[1052],[2055],[],[6653],"[2055, 1027]",[],[],[],[1058],[],[],"[3003, 2055]",[1029],[],"[1026, 2055]",[],[1011],[],[1052],[4637],[]
participant_1_SOLD,[],[],[],"[2003, 2003]",[],[],[],[2055],"[1052, 1052]",[],[2055],[],"[3802, 1052]",[],[],[2055],[],[],[],[],"[3070, 1058, 1027, 3003, 2055]",[],[],[],[],[],[],"[2031, 2055]","[1026, 1011, 1052]",[]
participant_1_UNDO,[],[],[],[],[],[],[],[],[],[],[],[],[],[],[],[],[],[],[],[],[],"[[0, 1029]]",[],[],[],[],[],[],[],[]
participant_2_GOLD,500,500,541,871,1169,1361,2014,2311,2545,2787,3056,3512,5237,5418,5583,5810,6192,6504,6731,7028,7331,7593,8007,8220,8654,8971,9390,9685,10003,10048
participant_2_CURRENTGOLD,500,0,41,361,659,191,399,696,500,307,501,947,1007,763,928,1155,1537,599,826,1123,351,613,1027,315,749,166,585,505,8,23
participant_2_LEVEL,1,1,1,3,4,5,6,6,7,7,8,8,10,10,10,10,10,11,11,11,12,12,12,12,13,13,14,14,15,15
participant_2_MINIONSKILLED,0,0,1,10,21,26,28,38,45,52,61,68,72,75,77,83,94,100,100,106,112,116,123,128,135,142,157,162,169,169
participant_2_KILLS,0,0,0,0,0,0,0,0,0,0,0,0,1,1,1,1,1,1,2,4,5,5,5,5,5,5,5,5,5,5
participant_2_BUY,[],"[1039, 3364, 2031]",[],[],"[1001, 1036]",[],[],[],[3051],[],[],[],[],"[6631, 2055]",[1033],[],[],"[3111, 1053]","[1042, 1042]",[],[],"[3153, 1033]",[],[3051],[],[1057],[],[],[],[]
participant_2_SOLD,[],[],[],[],[],[],[],[],[1036],[1039],[],"[3364, 3513]",[],[3051],[],[],[2055],"[1001, 1033]",[],[],[],"[1053, 1042, 1042]",[],[],[],[1033],[],[],[],[]
participant_2_UNDO,[],[],[],[],[],[],[],[],[],[],[],[],[],[],[],[],[],[],[],[],[],[],[],[],[],[],[],[],[],[]
participant_3_GOLD,500,500,544,810,1115,1460,1765,2054,2346,2549,3158,3281,3545,3709,3853,4219,4428,4620,4896,5322,5608,5802,6078,6376,6645,6860,7646,8460,8970,9016
participant_3_CURRENTGOLD,500,0,44,310,615,960,1265,1554,1846,174,783,106,370,534,678,1044,1253,1445,421,847,33,227,503,801,1070,410,1196,285,395,441
participant_3_LEVEL,1,1,1,2,3,4,4,5,6,6,7,7,7,7,7,8,8,8,9,9,10,10,11,11,11,12,12,13,13,13
participant_3_MINIONSKILLED,0,0,1,9,17,27,37,44,53,58,66,66,68,70,71,82,86,90,92,102,103,109,111,117,124,125,128,140,144,144
participant_3_KILLS,0,0,0,0,0,0,0,0,0,0,0,0,0,0,0,0,0,0,0,0,0,0,0,0,0,0,0,0,0,0
participant_3_BUY,[],"[3850, 2003, 3340, 2003]",[],[],[],[],[],[],[],"[3067, 1004]","[1004, 1001]","[1004, 2055]",[],"[1028, 2055]",[],[],[],[],"[3066, 2055, 3364]",[],"[4642, 2055]",[],[],[],[6617],[],[],"[3117, 2055]",[],[]
participant_3_SOLD,[],[],[],[],"[2003, 2003]",[],[],[],[],[],[],[],[],[2055],[],[],[],[2055],"[3850, 1028, 3340]",[2055],"[3066, 1004]",[],[],[],"[3067, 4642, 2055]",[],[],[1001],[],[]
participant_3_UNDO,[],[],[],[],[],[],[],[],[],"[[0, 1004]]","[[0, 1004]]",[],[],[],[],[],[],[],[],[],[],[],[],[],[],[],[],[],[],[]
participant_4_GOLD,500,500,522,657,832,966,1121,1295,1449,1584,1888,2083,2287,2539,2674,2808,2963,3117,3327,3517,3678,3818,4034,4228,4388,4529,4917,5071,5271,5344
participant_4_CURRENTGOLD,500,0,22,157,332,466,621,795,949,284,288,158,362,139,274,408,563,717,452,642,413,553,769,963,273,414,802,181,381,-281
participant_4_LEVEL,1,1,1,2,3,3,4,5,5,5,6,6,6,6,6,7,7,8,8,9,9,9,10,10,10,10,11,12,12,12
participant_4_MINIONSKILLED,0,0,0,0,0,0,0,0,0,0,0,0,0,3,3,3,3,3,3,3,3,3,3,4,4,4,4,5,5,5
participant_4_KILLS,0,0,0,0,0,0,0,0,0,0,1,1,1,1,1,1,1,1,1,1,1,1,1,1,1,1,3,4,4,4
participant_4_BUY,[],"[3340, 1055, 2003]",[],[],[],[],[],[],[],"[3044, 3067, 3057, 3044, 2055]",[],[3067],[],[],[],[],[],[],"[6632, 3009]",[],"[1036, 1036, 3134]",[],[],[],[],[1037],[],"[6676, 1036, 1036]",[3133],[]
participant_4_SOLD,[],[],[],[],[2003],[],[2010],[],"[2010, 2010]",[],[2055],[],[],[],[],[],[],[],"[3044, 3057, 3067, 2422]",[],"[1036, 1036]",[],[],[],[],[],[],"[3134, 1037]","[1036, 1036]",[]
participant_4_UNDO,[],[],[],[],[],[],[],[],[],"[[0, 3067], [0, 3044]]",[],[],[],[],[],[],[],[],[],[],[],[],[],[],[],[],[],[],[],[]
participant_5_GOLD,500,500,541,755,1574,1717,2214,2378,2714,3279,3639,3870,4040,4437,5079,5357,5640,5813,6346,6618,6867,7086,7233,7752,8216,8556,8828,8972,9259,9615
participant_5_CURRENTGOLD,500,0,41,255,1074,142,639,803,1139,1704,214,445,615,1012,1654,407,690,863,596,868,1117,1336,183,702,291,631,104,247,534,890
participant_5_LEVEL,1,1,1,2,4,4,5,6,7,8,8,9,9,9,10,11,11,11,12,12,13,13,13,14,14,14,15,15,15,16
participant_5_MINIONSKILLED,0,0,1,6,8,9,26,28,33,44,48,57,59,69,77,83,93,93,94,94,101,102,102,109,112,118,118,119,119,119
participant_5_KILLS,0,0,0,0,0,0,0,0,0,0,0,0,1,2,3,3,4,4,4,4,4,4,4,5,5,6,6,6,6,6
participant_5_BUY,[],"[1056, 2003, 2003]",[],[],[],[],"[1052, 1052, 1001]",[],[],[3802],[],[1026],[],[3020],[6656],[],[],[1058],[],[],"[1058, 2055]",[3363],[],[],[3089],[],"[3108, 1052]",[],[1033],[]
participant_5_SOLD,[],[],[],[2003],[2010],"[2003, 2010]",[],[2010],[],"[1052, 1052]",[],[],[],[1001],"[3802, 1026]",[],[],[],[],[1056],[],[3340],[2055],[],"[1058, 1058]",[],[],[],[],[]
participant_5_UNDO,[],[],[],[],[],[],[],[],[],[],[],[],[],[],[],[],[],[],[],[],[],[],[],[],[],[],[],[],[],[]
participant_6_GOLD,500,500,605,1023,1546,1990,2596,3024,3516,3960,4313,5020,5756,6033,6661,7124,7592,7897,8616,9109,9824,10038,10388,10754,11437,12482,13146,13594,14194,15040
participant_6_CURRENTGOLD,500,0,105,523,96,540,1146,1574,116,560,913,1620,81,358,986,349,817,1122,67,559,1274,139,488,855,237,1283,1947,279,880,1665
participant_6_LEVEL,1,1,2,3,3,4,5,5,6,7,7,8,8,9,10,10,11,11,11,12,12,12,13,13,14,15,15,16,16,16
participant_6_MINIONSKILLED,0,0,0,1,1,1,4,4,4,4,4,4,8,8,9,9,10,13,15,15,16,18,25,27,27,46,48,48,53,53
participant_6_KILLS,0,0,0,0,1,2,2,2,3,4,4,5,5,6,6,6,6,6,6,6,6,6,6,6,6,7,7,7,8,9
participant_6_BUY,[],[2033],[],[],[],[],"[1026, 1052, 3020, 1082]",[],[],"[4642, 1026, 1052]",[],[],[3116],[],"[4642, 1028]",[],[],[],[],"[4005, 1026]",[],[],[1011],[],[],[],[4637],[1026],[],[]
participant_6_SOLD,[],[],[],[],[],"[2010, 2010]",[],[2010],[],[],[],[],"[2033, 1026, 1052]",[],[],[],[],[],[],"[1028, 4642]",[],[],[],[],[],[],"[1026, 1011]",[],[],[]
participant_6_UNDO,[],[],[],[],[],[],"[[0, 1052], [0, 1026]]",[],[],"[[0, 4642]]",[],[],[],[],[],[],[],[],[],[],[],[],[],[],[],[],[],[],[],[]
participant_7_GOLD,500,500,611,906,1462,1971,2306,2807,3347,3914,4242,4851,4973,5870,6380,6764,7203,7899,8391,8663,9052,9352,9474,9767,10353,11065,11337,11560,12310,12943
participant_7_CURRENTGOLD,500,0,111,396,952,1461,346,837,1377,649,977,1586,193,1080,130,514,953,1649,2141,313,702,1002,225,517,1103,1815,838,210,961,1443
participant_7_LEVEL,1,1,1,3,4,5,5,6,7,8,8,9,9,9,10,10,11,11,12,12,12,12,12,12,13,14,14,14,14,15
participant_7_MINIONSKILLED,0,0,5,12,20,27,31,44,48,55,66,73,73,85,95,97,104,113,119,119,126,128,128,130,131,135,135,135,142,149
participant_7_KILLS,0,0,0,0,1,1,2,3,4,4,4,5,6,6,7,7,8,8,10,10,12,12,12,12,12,13,13,14,15,17
participant_7_BUY,[],"[1035, 3364, 2031]",[],[],"[1001, 1042, 1036]",[],[],[],"[3134, 1053, 3006, 1036, 1036]",[],[],[],"[6692, 1037]",[],[],[3133],[],[],"[6675, 1036]",[],[],"[3134, 1018]",[],[],[6676],[],[],"[3035, 1038, 1037]",[],[]
participant_7_SOLD,[],[],[],[],[],[],[],[],"[1036, 1001, 1042]",[],[1035],[],"[3134, 1036, 1036]",[],[],[],[],[],"[3133, 1037]",[],[],[1036],[],[],"[3134, 1018]",[],[],[2031],[],[]
participant_7_UNDO,[],[],[],[],[],[],[],[],"[[0, 1053]]",[],[],[],[],[],[],[],[],[],[],[],[],[],[],[],[],[],[],"[[0, 3035]]",[],[]
participant_8_GOLD,500,500,576,839,1081,1504,1725,2064,2367,2567,2913,3036,3893,4684,5211,5772,6370,6794,7173,7445,7859,8031,8217,8791,9213,9916,10188,10544,10762,10858
participant_8_CURRENTGOLD,500,0,76,339,581,1004,55,394,697,467,813,86,943,934,211,772,1370,544,923,1355,444,616,802,1376,498,1201,139,494,262,198
participant_8_LEVEL,1,1,1,2,3,4,4,5,6,6,7,7,7,8,8,9,10,10,11,11,11,11,11,12,12,13,13,13,14,14
participant_8_MINIONSKILLED,0,0,3,11,17,32,38,51,58,62,75,75,81,86,92,103,110,121,128,128,137,137,141,146,146,149,149,152,153,153
participant_8_KILLS,0,0,0,0,0,0,0,0,0,0,0,0,1,1,1,1,1,1,2,2,2,2,2,2,3,3,3,3,3,3
participant_8_BUY,[],"[3850, 2003, 2003, 3340]",[],[],[],[],"[1027, 1029, 2055, 2003]",[],[],"[1052, 2003, 2055]",[],[],[],[],"[3802, 1026, 3020, 3364]",[],[],[],[],"[6655, 2420]",[],[],[],[],[3157],[],"[3108, 3108]",[],[],[]
participant_8_SOLD,[],[],[],[],[2003],[2003],[],[],[2003],"[3850, 2055]",[],[],[],[2003],"[1052, 1027, 2422, 3340]",[],[3851],[],[],"[3802, 1026]",[],[],[2055],[],"[1029, 2420]",[],[],[],[],[]
participant_8_UNDO,[],[],[],[],[],[],[],[],[],[],[],[],[],[],[],[],[],[],[],[],[],[],[],[],[],[],"[[0, 3108]]",[],[],[]
participant_9_GOLD,500,500,562,717,952,1126,1301,1515,1729,1929,2119,2644,3516,4155,4465,4968,5234,5452,5988,6278,6531,6830,7097,7400,8140,8406,8697,8837,9160,9401
participant_9_CURRENTGOLD,500,0,62,217,452,626,26,240,454,94,284,809,1681,2320,465,968,1234,1452,1988,378,631,931,1197,1500,691,957,347,487,810,1051
participant_9_LEVEL,1,1,1,2,3,4,4,5,5,5,5,6,7,7,8,8,9,9,10,10,10,11,11,11,12,12,12,12,13,13
participant_9_MINIONSKILLED,0,0,0,0,0,0,0,0,0,3,4,7,8,8,8,9,9,11,12,12,15,18,18,21,21,25,25,25,29,30
participant_9_KILLS,0,0,0,0,1,1,1,1,1,2,2,2,2,2,3,3,3,3,4,4,4,4,4,4,4,4,4,4,4,4
participant_9_BUY,[],"[1054, 2003, 3340]",[],[],[],"[6660, 2055]",[],[],[],[],"[3111, 1033, 1029]",[],[],[],[],"[3068, 2055]",[],[],[3066],[],[],[],"[1057, 1028]",[],"[4401, 2055]",[],[3067],[],[],[]
participant_9_SOLD,[],[],[],[],[2003],[2055],[],[],[],[],[],[],[],[],[],"[6660, 1033, 1029]",[],[],[2055],[3340],[],[3513],[],[],"[1057, 1028, 3066]",[],[],[],[],[]
participant_9_UNDO,[],[],[],[],[],[],[],[],[],[],[],[],[],[],[],[],[],[],[],[],[],[],[],[],[],[],[],[],[],[]
team0_KILLS,0,0,0,0,0,0,1,1,1,1,2,2,6,6,6,6,6,7,8,11,12,13,14,14,14,14,16,17,18,18
team0_CURRENTGOLD,2500,500,345,1623,1697,2365,3491,4855,3496,1321,2830,3331,4270,2174,1921,3467,4158,2971,1873,5061,3176,1882,3270,2276,3206,1947,3810,2567,2583,1162
team0_TOTALGOLD,2500,2500,2845,4133,5257,6585,8156,9520,10641,11701,13585,15221,19845,20924,21691,23237,24428,26141,27768,30956,32511,34266,36530,37911,39691,40657,43020,45002,46981,47237
team0_LEVEL,5,5,6,12,15,19,23,26,28,30,34,35,39,39,40,43,43,47,48,51,54,55,58,59,61,62,65,67,69,69
team0_SBIRES,0,0,5,30,49,82,101,130,150,163,190,208,222,238,245,276,298,323,325,348,358,373,403,432,467,478,510,535,555,555
team1_KILLS,0,0,0,0,3,4,5,6,8,10,10,12,15,17,20,20,22,22,26,26,28,28,28,29,30,33,33,34,36,39
team1_CURRENTGOLD,2500,0,395,1730,3155,3773,2212,3848,3783,3474,3201,4546,3513,5704,3446,3010,5064,5630,5715,3473,4168,4024,2895,4950,2820,5887,3375,1717,3447,5247
team1_TOTALGOLD,2500,2500,2895,4240,6615,8308,10142,11788,13673,15649,17226,19421,22178,25179,27796,29985,32039,33855,36514,38113,40133,41337,42409,44464,47359,50425,52196,53507,55685,57857
team1_LEVEL,5,5,6,12,17,21,23,27,31,34,35,39,40,42,46,48,52,52,56,57,58,59,60,62,65,68,69,70,72,74
team1_SBIRES,0,0,9,30,46,69,99,127,143,168,197,216,229,256,281,301,326,351,368,368,395,403,414,433,437,473,475,479,496,504
delta_KILLS,0,0,0,0,-3,-4,-4,-5,-7,-9,-8,-10,-9,-11,-14,-14,-16,-15,-18,-15,-16,-15,-14,-15,-16,-19,-17,-17,-18,-21
delta_CURRENTGOLD,0,500,-50,-107,-1458,-1408,1279,1007,-287,-2153,-371,-1215,757,-3530,-1525,457,-906,-2659,-3842,1588,-992,-2142,375,-2674,386,-3940,435,850,-864,-4085
delta_TOTALGOLD,0,0,-50,-107,-1358,-1723,-1986,-2268,-3032,-3948,-3641,-4200,-2333,-4255,-6105,-6748,-7611,-7714,-8746,-7157,-7622,-7071,-5879,-6553,-7668,-9768,-9176,-8505,-8704,-10620
delta_LEVEL,0,0,0,0,-2,-2,0,-1,-3,-4,-1,-4,-1,-3,-6,-5,-9,-5,-8,-6,-4,-4,-2,-3,-4,-6,-4,-3,-3,-5
delta_SBIRES,0,0,-4,0,3,13,2,3,7,-5,-7,-8,-7,-18,-36,-25,-28,-28,-43,-20,-37,-30,-11,-1,30,5,35,56,59,51
