name,frame_0,frame_1,frame_2,frame_3,frame_4,frame_5,frame_6,frame_7,frame_8,frame_9,frame_10,frame_11,frame_12,frame_13,frame_14,frame_15,frame_16,frame_17,frame_18,frame_19,frame_20,frame_21,frame_22,frame_23,frame_24,frame_25,frame_26,frame_27,frame_28,frame_29,frame_30,frame_31,frame_32,frame_33,frame_34,frame_35,frame_36,frame_37
nameStamp,Tstart,Tearly,Tearly,Tearly,Tearly,Tearly,Tearly,Tearly,Tearly,Tearly,Tearly,Tearly,Tearly,Tearly,Tearly,Tearly,Tearly,Tearly,Tearly,Tmid,Tmid,Tmid,Tmid,Tmid,Tmid,Tmid,Tmid,Tmid,Tmid,Tmid,Tmid,Tmid,Tmid,Tmid,Tend,Tend,Tend,Tend
timestamp,0,60006,120034,180064,240076,300119,360120,420135,480163,540174,600184,660190,720219,780227,840258,900275,960308,1020327,1080356,1140382,1200386,1260405,1320434,1380435,1440465,1500474,1560476,1620492,1680494,1740504,1800533,1860545,1920559,1980588,2040620,2100644,2160654,2220654
participant_0_GOLD,500,500,612,874,1127,1609,1830,2078,2642,3008,3371,3729,4422,4867,5155,5396,5603,6224,6901,7281,7536,8560,8804,9150,9475,10410,10733,11230,12225,12480,12736,13102,13295,13417,14074,14475,14993,15089
participant_0_CURRENTGOLD,500,0,112,374,627,184,405,653,1217,333,696,1054,1747,2192,47,288,495,1116,168,548,803,1827,2071,242,567,1502,1825,2322,1518,1072,1328,995,87,210,867,1267,186,81
participant_0_LEVEL,1,1,1,3,4,5,5,6,7,7,8,9,9,10,10,11,11,12,12,13,13,13,14,14,14,14,15,15,15,16,16,16,17,17,17,17,17,18
participant_0_MINIONSKILLED,0,0,5,13,18,24,29,36,45,50,61,72,83,88,94,101,106,116,122,134,138,145,146,149,154,159,163,176,181,185,193,203,207,207,212,221,232,232
participant_0_KILLS,0,0,0,0,0,0,0,0,0,0,0,0,0,0,0,0,0,0,0,0,0,0,0,0,0,0,1,1,1,1,2,2,2,2,2,2,2,2
participant_0_BUY,[],"[1055, 2003, 3340]",[],[],[],[],[],[],[],[],[],"[3111, 1042, 1018]",[],[],[],[],[3046],[],[],[],[1038],[],[],[1018],"[3047, 2003, 2003, 2003]",[],[],[1037],[],[3031],[],[1053],[1036],[],[],[],[],[]
participant_0_SOLD,[],[],[],[],[],[],[],[],[],[],[],[],[2003],[],[],[],"[1042, 1018]",[],[],[],[],[],[],[],"[1055, 3111]",[],[],"[2003, 2003, 2003]",[],"[1038, 1037, 1018]",[],[],[],[],[],[],[],[]
participant_0_UNDO,[],[],[],[],[],[],[],[],[],[],[],[],[],[],[],[],[],[],[],[],[],[],[],[],[],[],[],[],[],[],[],[],[],[],[],[],[],[]
participant_1_GOLD,500,500,521,828,1213,1854,2104,2257,2730,2957,3279,3787,4395,4627,4869,5156,5434,5661,6385,6756,6953,7562,7985,8157,8380,8887,9369,9717,9915,10062,10535,10784,11081,11218,11684,11806,11971,12087
participant_1_CURRENTGOLD,500,0,21,328,713,1354,1604,1757,2230,2457,329,837,1445,1677,1919,323,601,328,1052,1423,70,679,62,234,107,614,1096,1445,392,189,663,61,359,495,961,209,373,429
participant_1_LEVEL,1,1,1,2,3,4,4,5,6,6,7,7,8,9,9,9,10,10,11,11,11,12,12,12,12,13,13,14,14,14,15,15,15,15,16,16,16,16
participant_1_MINIONSKILLED,0,0,0,0,0,1,1,1,2,2,2,2,3,3,5,5,5,5,5,6,6,6,6,6,6,6,6,7,7,7,7,7,7,8,11,11,13,14
participant_1_KILLS,0,0,0,0,0,1,1,1,1,1,1,2,3,3,3,3,3,3,4,4,4,5,6,6,6,7,7,7,7,7,8,8,8,8,8,8,8,8
participant_1_BUY,[],"[1039, 2031, 3340]",[],[],[],[],[],[],[],[],"[3057, 1001, 3101]",[],[],[],[],"[3078, 1029]",[],[3047],[],[],"[3706, 1053]",[],[3105],[],[1036],[],[],[],[3812],[1036],[],[3052],[],[3363],[],[1037],[],[]
participant_1_SOLD,[],[],[],[],[],[],[],[],[],[],[],[],[],[],[],"[3101, 3057]",[],"[1001, 1029]",[],[],[1039],[],[2031],[],[],[],[],[],"[3105, 1053, 1036]",[],[],[1036],[],[3340],[],[],[],[]
participant_1_UNDO,[],[],[],[],[],[],[],[],[],[],[],[],[],[],[],[],[],[],[],[],[],[],[],[],[],[],[],[],[],[],[],[],[],[],[],[],[],[]
participant_2_GOLD,500,500,605,892,1162,1494,1701,1991,2336,2692,2947,3140,3466,3693,3942,4239,4362,4697,4995,5320,5575,5979,6288,6634,6778,7072,7490,7632,7797,7933,8743,9040,9246,9716,9839,10024,10390,10486
participant_2_CURRENTGOLD,500,0,105,392,662,994,1201,1491,1836,2192,2447,440,766,993,1242,1539,162,497,795,1120,75,479,788,334,178,472,890,217,382,93,903,300,156,627,749,934,1301,386
participant_2_LEVEL,1,1,1,3,4,5,6,6,7,8,8,9,9,10,10,11,11,11,12,12,13,13,14,14,14,14,14,14,15,15,15,15,15,16,16,16,16,16
participant_2_MINIONSKILLED,0,0,5,12,20,30,35,46,56,66,74,78,87,93,100,107,107,116,124,132,140,146,151,157,158,162,163,163,165,166,179,185,190,202,202,206,216,216
participant_2_KILLS,0,0,0,0,0,0,0,0,0,0,0,0,0,0,0,0,0,1,2,3,4,4,4,4,4,4,6,6,7,7,7,7,8,8,8,8,8,8
participant_2_BUY,[],"[1054, 3340, 2003]",[],[],[],[],[],"[3006, 2003, 2003]",[1036],[],[],[1053],[],[3144],[1042],[],[],[3153],[],[1043],[1037],[],[],[1052],[],[3124],"[1042, 1042]",[],[],[],[],[3086],[],[3046],[],[],[],[1038]
participant_2_SOLD,[],[],[],[2003],[],[],[],[],[],[],[],[1036],[2003],[1053],[],[],[],"[3144, 1042]",[2003],[],[],[],[],[],[],"[1052, 1043, 1037]",[],[],[],[],[],[1042],[],"[1042, 3086]",[],[],[],[]
participant_2_UNDO,[],[],[],[],[],[],[],[],[],[],[],[],[],[],[],[],[],[],[],[],[],[],[],[],[],[],[],[],[],[],[],[],[],[],[],[],[],[]
participant_3_GOLD,500,500,563,783,1218,1508,1750,1872,2120,2469,2689,3079,3383,3554,3828,4104,4269,5391,6050,6605,7027,7150,7474,7813,7936,8340,9045,9167,9680,9802,10182,10384,11007,11129,11562,11851,12126,12222
participant_3_CURRENTGOLD,500,0,63,283,718,1008,1250,172,70,419,639,479,783,254,228,504,669,391,1050,605,152,275,599,503,626,240,345,467,980,1102,1483,584,1207,430,862,1152,1427,222
participant_3_LEVEL,1,1,1,2,3,4,4,5,5,6,6,6,7,7,7,8,8,8,9,10,10,10,10,11,11,11,12,12,13,13,13,13,14,14,14,14,15,15
participant_3_MINIONSKILLED,0,0,2,8,23,30,37,37,44,54,59,62,72,75,80,85,87,87,93,96,96,96,104,106,106,110,113,113,114,114,117,121,124,124,129,134,139,139
participant_3_KILLS,0,0,0,0,0,0,0,0,0,0,0,1,1,1,1,1,1,1,1,1,1,1,1,1,2,2,2,2,2,2,2,2,2,2,2,2,2,2
participant_3_BUY,[],"[3850, 3340, 2003, 2003]",[],[],[],[],[],"[1001, 1033, 1004]",[],[],[],"[3028, 3009, 3364, 2031, 2055]",[],[1052],[],[3108],[],"[3174, 1004]",[],[3114],[1004],[],[3028],[],"[3222, 1004]",[],[],"[3114, 1052]",[],[3113],[],[3504],[],[1029],[],[],[],[3191]
participant_3_SOLD,[],[],[],[],[],[],[],[],[2003],[2003],[],"[1004, 1033, 1001, 3850, 3340]",[2055],[],[],[1052],[],"[3108, 3028]",[3851],[1004],[],[],[1004],[],"[3028, 3114]",[],[],"[1004, 2031]",[],[1052],[],"[3114, 3113]",[],[],[],[],[],[1029]
participant_3_UNDO,[],[],[],[],[],[],[],[],[],[],[],[],[],[],[],[],[],[],[],[],[],[],[],[],[],[],[],[],[],[],[],[],[],[],[],[],[],[]
participant_4_GOLD,500,500,538,762,986,1180,1381,1515,1834,1983,2222,2662,2917,3093,3329,3499,3845,3985,4505,4646,4861,5463,5679,5869,6536,6899,7108,7248,7614,7858,8050,8190,8440,8581,8721,8861,9092,9202
participant_4_CURRENTGOLD,500,0,38,262,486,680,881,140,459,608,847,237,492,233,469,174,520,135,655,121,211,813,354,544,587,949,1158,248,614,443,635,125,376,216,356,497,727,-23
participant_4_LEVEL,1,1,1,2,3,4,4,4,5,6,6,7,7,7,8,8,8,8,9,9,10,11,11,11,12,12,12,12,13,13,13,13,14,14,14,14,14,14
participant_4_MINIONSKILLED,0,0,0,0,1,1,2,2,6,7,7,7,8,9,11,11,14,14,16,16,16,21,21,21,26,29,29,29,29,31,31,31,33,33,33,33,34,34
participant_4_KILLS,0,0,0,0,0,0,0,0,1,1,1,1,1,2,2,2,2,3,3,3,3,5,5,5,5,7,7,7,8,8,8,8,8,8,9,9,9,9
participant_4_BUY,[],"[2033, 3340]",[],[],[],"[1036, 1036, 1006, 2055]",[],[],[],"[3044, 1027]",[],[],[],[],"[3078, 1029]",[],[],[],"[3047, 1053, 3077, 1029]",[],[],[],[],[3074],[],[],[],[],"[1038, 1031]",[3026],[],[1053],"[1036, 3133]",[],[],[],[3812],[]
participant_4_SOLD,[],[],[],[],[2010],[],[],[],[2010],"[2055, 1036]",[],[],[],[2010],"[1027, 3044]",[],[],[],"[1029, 2422, 1036, 1036, 1006]",[],[],[],[],[3077],[],[],[],[],[1029],"[1038, 1031]",[],[2033],[1036],[],[],[],"[1053, 3133]",[]
participant_4_UNDO,[],[],[],[],[],[],[],[],[],[],[],[],[],[],[],[],[],[],"[[0, 1053]]",[],[],[],[],[],[],[],[],[],[],[],[],[],[],[],[],[],[],[]
participant_5_GOLD,500,500,542,790,1095,1399,1763,2053,2294,2431,2779,3089,3281,3536,3729,4040,4247,4693,4815,5093,5378,5752,6034,6314,6758,6964,7087,7383,7746,8238,8633,9055,10371,11188,11310,12557,13066,13951
participant_5_CURRENTGOLD,500,0,42,290,595,324,688,978,1219,206,554,864,181,436,154,465,672,318,90,368,653,1027,334,614,1058,1264,287,583,946,488,883,305,1621,718,840,2087,897,1401
participant_5_LEVEL,1,1,1,2,4,5,6,6,7,7,8,9,9,9,9,10,10,11,11,11,11,12,12,12,13,13,13,14,14,14,15,15,16,16,16,17,17,18
participant_5_MINIONSKILLED,0,0,1,8,18,25,37,47,54,55,68,75,79,86,90,97,102,113,113,117,119,129,134,134,137,142,142,148,148,148,160,169,177,177,177,190,194,203
participant_5_KILLS,0,0,0,0,0,0,0,0,0,0,0,0,0,0,0,0,0,0,0,0,0,0,0,0,0,0,0,0,0,1,1,1,2,3,3,4,5,6
participant_5_BUY,[],"[1055, 2003, 3340]",[],[],[],"[1055, 2055, 2003, 2003]",[],[],[],"[3070, 1001]",[],[],[1037],[],[3004],[],[],[3047],[1036],[],[],[],"[3044, 2055, 3363]",[],[],[],"[3067, 1029]",[],[],"[3105, 3071]",[],"[3076, 1029]",[],"[3105, 3133]",[],[],"[3812, 1029]",[]
participant_5_SOLD,[],[],[],[],[],[],[],[2055],[2003],[],[],[],[],[],"[1055, 2003, 3070, 1037]",[],[],[1001],[],[],[],[],"[1036, 3340]",[2055],[],[],[],[],[],"[1029, 3044, 3067]",[3004],[1029],[],"[1029, 1055]",[],[],"[3105, 3133]",[]
participant_5_UNDO,[],[],[],[],[],"[[0, 2003]]",[],[],[],[],[],[],[],[],[],[],[],[],[],[],[],[],[],[],[],[],[],[],[],"[[0, 3105]]",[],[],[],[],[],[],[],[]
participant_6_GOLD,500,500,706,1013,1318,1513,1783,1990,2492,2799,3127,3274,3481,3753,3875,4329,4536,4893,5248,5370,6069,6219,6641,7210,7383,7718,7861,8294,8651,9080,9357,9648,10209,10731,11169,11900,12211,12557
participant_6_CURRENTGOLD,500,0,206,513,818,1013,1283,1490,1992,2299,352,149,356,628,750,1204,1411,1768,2123,395,1094,194,266,835,308,643,86,169,526,956,482,773,1334,57,494,1225,722,947
participant_6_LEVEL,1,1,2,3,4,4,5,5,5,6,6,7,7,8,8,9,9,10,10,10,11,11,11,12,12,12,12,13,13,14,14,14,15,16,16,17,17,17
participant_6_MINIONSKILLED,0,0,0,0,0,0,0,0,0,0,0,0,0,1,1,1,1,1,4,4,12,14,14,17,17,19,20,20,21,28,33,33,33,33,34,43,47,47
participant_6_KILLS,0,0,0,0,0,0,0,1,1,1,2,3,5,5,7,7,8,8,8,8,10,10,10,10,11,11,11,11,11,11,12,12,13,13,13,13,13,14
participant_6_BUY,[],"[1055, 2003, 3340]",[],[],[],"[1036, 2003, 2055]",[],[],[],"[3006, 1036, 2003, 2003]",[],"[3133, 1018]",[],[],[],"[3508, 1036]",[],"[1053, 1018]",[],[],[1038],[],[],[],[],"[3031, 1029, 3105]",[],[],[],[],[3812],[],[],[3086],[],[],[],[]
participant_6_SOLD,[],[],[],[],[],[],[],[],"[2003, 2003]",[],[],"[1036, 1036]",[],[],[2003],"[3133, 1018, 2055]",[2003],[1036],[],[],[],[],[],[],[],"[1038, 1018, 1055, 1029]",[],[],[],[],"[3105, 1053]",[],[],[],[],[],[],[]
participant_6_UNDO,[],[],[],[],[],[],[],[],[],[],[],[],[],[],[],[],[],[],[],[],[],[],[],[],[],[],[],[],[],[],[],[],[],[],[],[],[],[]
participant_7_GOLD,500,500,577,864,1176,1515,1816,2099,2451,2765,3006,3206,3553,3829,4201,4400,4757,5102,5433,5689,5971,6268,6660,6935,7693,7941,8339,8761,9573,9973,10096,10604,11338,12273,13056,13368,14230,14655
participant_7_CURRENTGOLD,500,0,77,364,676,1015,466,749,1101,1415,1656,156,503,779,1151,1350,207,552,883,1139,1421,418,260,535,1293,490,889,261,1073,623,747,1254,688,824,1606,669,1531,1955
participant_7_LEVEL,1,1,1,3,4,5,6,6,7,8,8,9,9,10,10,10,11,11,12,12,12,13,13,13,14,14,14,14,15,15,15,16,16,17,17,17,18,18
participant_7_MINIONSKILLED,0,0,3,10,21,31,38,48,58,66,73,78,88,96,106,111,120,129,137,145,150,156,163,168,176,179,186,186,193,198,198,198,202,205,210,211,216,217
participant_7_KILLS,0,0,0,0,0,0,0,0,0,0,0,0,0,0,0,0,1,1,1,1,1,2,3,3,3,3,4,5,7,7,7,7,7,7,8,8,9,9
participant_7_BUY,[],"[3850, 2003, 2003, 3340]",[],[],[],[],"[1052, 1001]",[],[],"[3108, 2055]",[],[3113],[],[],[3905],"[3364, 3158]",[],"[1052, 1052]",[2055],[],"[3802, 2055]",[1026],[],[],[],[3285],[],[1026],[],"[1052, 3135]",[],[],[],[1058],[],[],[],[]
participant_7_SOLD,[],[],[],"[2010, 2003]",[2003],[2010],[],[],[2010],[1052],[2055],[],[],[3850],"[3108, 3113]","[3340, 1001]",[],[],[],[2055],"[1052, 1052]",[],[],[3851],[],"[3802, 1026]",[],[],[2055],"[1026, 1052]",[],[],[],[],[],[],[],[]
participant_7_UNDO,[],[],[],[],[],[],[],[],[],[],[],[],[],[],[],[],[],[],[],[],[],[],[],[],[],[],[],[],[],[],[],[],[],[],[],[],[],[]
participant_8_GOLD,500,500,556,818,941,1063,1263,2002,2443,2565,3104,3769,4521,4889,5701,5882,6747,6890,7102,7372,8583,8988,9268,9585,10340,10476,10641,10937,11136,11603,12123,12559,13216,13739,14039,14505,15070,15829
participant_8_CURRENTGOLD,500,0,56,318,441,88,288,1027,1468,40,579,44,796,1164,1976,407,1272,65,277,547,458,863,1143,1461,2215,132,296,593,792,1258,179,614,1272,394,695,1161,1726,2304
participant_8_LEVEL,1,1,1,2,2,2,3,4,5,5,6,6,7,8,8,8,9,9,9,10,10,11,11,11,12,12,12,12,13,13,13,14,14,15,15,16,16,16
participant_8_MINIONSKILLED,0,0,2,10,10,10,14,29,39,39,46,56,60,71,79,81,97,97,98,107,107,114,118,125,129,130,133,139,143,148,148,158,161,161,166,168,180,183
participant_8_KILLS,0,0,0,0,0,0,0,0,0,0,0,0,0,0,0,0,0,0,0,0,0,0,0,0,1,1,1,2,3,3,3,4,5,5,6,6,6,6
participant_8_BUY,[],"[1029, 2003, 2003, 2003, 2003, 3340]",[],[],[],[],[3070],[],[],[],[],"[3010, 1001, 1029]",[],[],[],[],[3027],[],[],[],[],[3802],"[3191, 2003]",[],[],[3003],[],[3057],[],[3113],[],[],[3100],[3020],[],[1058],[],[]
participant_8_SOLD,[],[],[],[2003],[],[],[],[],[],[2003],[],[],[],[2003],[2003],[],[3010],[],[],[],[],[],"[1029, 1029]",[],[2003],"[3070, 3802, 3003]",[],[],[],[],[],[],"[3057, 3113]",[1001],[],[],[],[]
participant_8_UNDO,[],[],[],[],[],[],[],[],[],[],[],[],[],[],[],[],[],[],[],[],[],[],[],[],[],[],[],[],[],[],[],[],[],[],[],[],[],[]
participant_9_GOLD,500,500,523,732,923,1218,1383,1712,2005,2139,2454,2759,3258,3427,3852,4063,4563,4787,5016,5187,5689,6355,7005,7176,7627,7768,8386,8901,9698,9888,10180,10505,10997,11537,12160,12421,13152,13671
participant_9_CURRENTGOLD,500,0,23,232,423,718,148,477,770,364,679,134,633,802,577,188,688,42,196,367,364,180,830,1001,1452,543,1161,827,1623,13,305,630,1122,413,1035,1296,2027,2546
participant_9_LEVEL,1,1,1,2,3,4,4,5,6,6,7,7,7,8,9,9,10,10,10,10,11,11,11,12,12,12,13,13,14,14,14,14,15,16,16,16,16,17
participant_9_MINIONSKILLED,0,0,0,0,3,10,10,10,10,10,11,12,13,13,13,16,17,22,24,24,24,25,25,26,28,28,30,30,34,34,34,36,37,37,37,38,44,47
participant_9_KILLS,0,0,0,0,0,0,0,0,1,1,1,1,1,1,1,1,1,1,1,1,2,2,3,4,4,4,4,4,4,4,4,4,5,5,6,6,6,6
participant_9_BUY,[],"[1039, 3340, 2031]",[],[],[],[],[],[],[],[],[1400],[1036],[],[],[],[],[],[],[],"[3134, 3133]",[],"[3142, 1036]",[1036],[],"[3134, 3134, 1001]",[],"[3364, 3117, 3117]",[1036],[],[],[3133],[],[],"[3147, 3134]",[],[],[1037],[]
participant_9_SOLD,[],[],[],[],[],[],[],[],[],[],[1039],[],[],[],[],[],[],[],[],[1036],[],"[3133, 3134]",[],[],"[1036, 1036, 1036, 1036]",[],"[3340, 2031, 1001, 1001]",[],[],[],[1036],[],[],"[3134, 3133]",[],[],[2031],[]
participant_9_UNDO,[],[],[],[],[],[],[],[],[],[],[],[],[],[],[],[],[],[],[],[],[],[],[],[],"[[0, 3134]]",[],"[[0, 3117], [2031, 0]]",[],[],[],[],[],[],[],[],[],[],[]
team0_KILLS,0,0,0,0,0,1,1,1,2,2,2,4,5,6,6,6,6,8,10,11,12,15,16,16,17,20,23,23,25,25,27,27,28,28,29,29,29,29
team0_CURRENTGOLD,2500,0,339,1639,3206,4220,5341,4213,5812,6009,4958,3047,5233,5349,3905,2828,2447,2467,3720,3817,1311,4073,3874,1857,2065,3777,5314,4699,3886,2899,5012,2065,2185,1978,3795,4059,4014,1095
team0_TOTALGOLD,2500,2500,2839,4139,5706,7645,8766,9713,11662,13109,14508,16397,18583,19834,21123,22394,23513,25958,28836,30608,31952,34714,36230,37623,39105,41608,43745,44994,47231,48135,50246,51500,53069,54061,55880,57017,58572,59086
team0_LEVEL,5,5,5,12,17,22,23,26,30,33,35,38,40,43,44,47,48,49,53,55,57,59,61,62,63,64,66,67,70,71,72,72,75,76,77,77,78,79
team0_SBIRES,0,0,12,33,62,86,104,122,153,179,203,221,253,268,290,309,319,338,360,384,396,414,428,439,450,466,474,488,496,503,527,547,561,574,587,605,634,635
team1_KILLS,0,0,0,0,0,0,0,1,2,2,3,4,6,6,8,8,10,10,10,10,13,14,16,17,19,19,20,22,25,26,27,28,32,33,36,37,39,41
team1_CURRENTGOLD,2500,0,404,1717,2953,3158,2873,4721,6550,4324,3820,1347,2469,3809,4608,3614,4250,2745,3569,2816,3990,2682,2833,4446,6326,3072,2719,2433,4960,3338,2596,3576,6037,2406,4670,6438,6903,9153
team1_TOTALGOLD,2500,2500,2904,4217,5453,6708,8008,9856,11685,12699,14470,16097,18094,19434,21358,22714,24850,26365,27614,28711,31690,33582,35608,37220,39801,40867,42314,44276,46804,48782,50389,52371,56131,59468,61734,64751,67729,70663
team1_LEVEL,5,5,6,12,17,20,24,26,30,32,35,38,39,43,44,46,49,51,52,53,55,58,58,60,63,63,64,66,69,70,71,73,76,80,80,83,84,86
team1_SBIRES,0,0,6,28,52,76,99,134,161,170,198,221,240,267,289,306,337,362,376,397,412,438,454,470,487,498,511,523,539,556,573,594,610,613,624,650,681,697
delta_KILLS,0,0,0,0,0,1,1,0,0,0,-1,0,-1,0,-2,-2,-4,-2,0,1,-1,1,0,-1,-2,1,3,1,0,-1,0,-1,-4,-5,-7,-8,-10,-12
delta_CURRENTGOLD,0,0,-65,-78,253,1062,2468,-508,-738,1685,1138,1700,2764,1540,-703,-786,-1803,-278,151,1001,-2679,1391,1041,-2589,-4261,705,2595,2266,-1074,-439,2416,-1511,-3852,-428,-875,-2379,-2889,-8058
delta_TOTALGOLD,0,0,-65,-78,253,937,758,-143,-23,410,38,300,489,400,-235,-320,-1337,-407,1222,1897,262,1132,622,403,-696,741,1431,718,427,-647,-143,-871,-3062,-5407,-5854,-7734,-9157,-11577
delta_LEVEL,0,0,-1,0,0,2,-1,0,0,1,0,0,1,0,0,1,-1,-2,1,2,2,1,3,2,0,1,2,1,1,1,1,-1,-1,-4,-3,-6,-6,-7
delta_SBIRES,0,0,6,5,10,10,5,-12,-8,9,5,0,13,1,1,3,-18,-24,-16,-13,-16,-24,-26,-31,-37,-32,-37,-35,-43,-53,-46,-47,-49,-39,-37,-45,-47,-62
