name,frame_0,frame_1,frame_2,frame_3,frame_4,frame_5,frame_6,frame_7,frame_8,frame_9,frame_10,frame_11,frame_12,frame_13,frame_14,frame_15,frame_16,frame_17,frame_18,frame_19,frame_20,frame_21,frame_22,frame_23,frame_24,frame_25,frame_26,frame_27
nameStamp,Tstart,Tearly,Tearly,Tearly,Tearly,Tearly,Tearly,Tearly,Tearly,Tearly,Tearly,Tearly,Tearly,Tmid,Tmid,Tmid,Tmid,Tmid,Tmid,Tmid,Tmid,Tmid,Tmid,Tend,Tend,Tend,Tend,Tend
timestamp,0,60029,120056,180080,240111,300137,360163,420184,480217,540244,600266,660291,720316,780341,840364,900387,960405,1020431,1080442,1140471,1200503,1260503,1320528,1380553,1440562,1500565,1560581,1620581
participant_0_GOLD,500,500,584,962,1141,1382,1739,2036,2228,2689,2895,3261,3433,3980,4338,4566,4990,5237,5647,6293,6499,6846,7577,7945,8273,8445,8971,9456
participant_0_CURRENTGOLD,500,0,84,462,191,432,414,711,903,1364,370,736,508,255,613,766,1190,237,647,193,399,746,1477,405,733,97,624,868
participant_0_LEVEL,1,1,1,3,3,4,5,6,7,8,8,8,8,9,9,10,10,10,11,11,11,11,13,13,13,13,14,14
participant_0_MINIONSKILLED,0,0,3,16,19,26,37,41,45,62,67,78,78,78,88,91,99,99,106,115,120,126,130,135,136,136,152,159
participant_0_KILLS,0,0,0,0,0,0,1,1,1,1,1,1,1,1,1,1,1,1,1,1,1,1,1,1,1,1,1,1
participant_0_BUY,[],"[3858, 2003, 2003, 3340]",[],[],[],[],[3047],[2055],[],"[3067, 2055, 3364]",[],[],[],[],"[3024, 2055]","[3050, 2055, 2055]",[],[],[],"[1057, 3114, 2055, 2055]",[],[3067],[],[],[],"[3107, 1004]",[],[]
participant_0_SOLD,[],[],[],[],[2003],[2003],[],[2055],[],[3340],[2055],[3858],[],[],[],"[2055, 3067, 3024]",[],[2055],[2055],[],[3859],[],[],[],[],"[3067, 3114]",[],"[2055, 2055]"
participant_0_UNDO,[],[],[],[],[],[],[],[],[],[],[],[],[],[],[],[],[],[],[],"[[0, 1057]]",[],[],[],[],[],[],[],[]
participant_1_GOLD,500,500,670,963,1368,1794,2054,2396,2717,3058,3386,3998,4506,4715,5091,5271,5606,5965,6257,7047,7302,7757,8310,8532,9460,9732,10169,11164
participant_1_CURRENTGOLD,500,0,170,463,868,1294,179,521,842,373,701,1313,156,365,741,121,456,815,1107,1897,252,707,1260,267,1195,267,705,1639
participant_1_LEVEL,1,1,2,3,4,4,5,5,6,7,7,8,8,8,9,9,9,9,10,11,11,11,12,12,13,13,14,14
participant_1_MINIONSKILLED,0,0,0,0,0,0,0,0,0,0,0,0,0,0,1,1,1,2,2,4,8,12,14,15,15,15,19,21
participant_1_KILLS,0,0,0,0,0,1,1,1,1,1,1,1,2,2,3,4,4,5,6,6,6,6,7,7,7,7,7,7
participant_1_BUY,[],"[1055, 3340, 2003]",[],[],[],[],[],"[3006, 1042, 1018, 2055]",[],[6677],[],[],[],"[3124, 1018]",[],"[1018, 1036]",[],[],[],"[1053, 6673]",[],[1031],[3133],[],[],[6333],[],[]
participant_1_SOLD,[],[],[],[],[],[2003],[],[],[],[],[2055],[],[],"[6677, 1018]",[],[],[],[],[],"[1036, 1055, 1018, 1053]",[],[],[],[],[],"[1031, 3133]",[],[]
participant_1_UNDO,[],[],[],[],[],[],[],"[[0, 1042]]",[],[],[],[],[],[],[],[],[],[],[],[],[],[],[],[],[],[],[],[]
participant_2_GOLD,500,500,598,983,1309,1940,2269,2545,2918,3344,3620,4299,5060,5330,5849,6316,6753,7442,8093,8435,8899,9447,10284,10539,11154,11486,11930,12245
participant_2_CURRENTGOLD,500,0,98,473,799,1420,1739,240,603,219,495,1164,1925,195,704,221,658,1347,1998,70,535,282,19,275,889,21,466,670
participant_2_LEVEL,1,1,1,3,4,5,6,6,7,8,8,9,9,10,10,10,11,11,12,12,13,13,14,14,14,14,15,15
participant_2_MINIONSKILLED,0,0,4,17,28,37,46,55,66,81,90,100,104,113,116,116,127,136,144,144,160,160,160,164,176,181,193,193
participant_2_KILLS,0,0,0,1,1,1,1,1,1,3,3,3,3,3,4,5,5,7,9,9,9,9,10,10,12,12,13,15
participant_2_BUY,[],"[1055, 2003, 3340]",[],"[1036, 2031, 2055]",[],[],"[1053, 1036, 2055]",[],[],[],"[6670, 1018, 1001]",[],[],"[6673, 1018]",[2055],"[1037, 3006]",[],[],[],"[6676, 3363, 2055, 2055]",[],[1018],[],[1037],[],[],"[3031, 2055]",[]
participant_2_SOLD,[],[],[],[2003],[2055],[],[1036],[2055],[],[],[1036],[],[],"[6670, 1018, 1053]",[2055],"[2031, 1001]",[],[],[],"[1037, 1018, 3340]","[2055, 2055]",[],[],[],[],[],"[1055, 1037, 1018]",[]
participant_2_UNDO,[],[],[],[],[],[],[],[],[],[],[],[],[],[],[],[],[],[],[],[],[],[],[],[],[],[],[],[]
participant_3_GOLD,500,500,584,1211,1516,1813,2097,2509,2861,3824,4197,4584,4987,5233,5843,6810,7187,7989,8428,8806,9042,9401,10170,10293,11385,11749,12196,13200
participant_3_CURRENTGOLD,500,0,84,136,441,738,47,459,811,1774,297,684,1087,133,668,20,397,1199,1638,341,577,337,1105,353,1446,1809,437,1200
participant_3_LEVEL,1,1,1,2,2,3,4,5,5,6,7,7,8,8,9,9,10,10,11,11,11,11,12,12,13,13,13,14
participant_3_MINIONSKILLED,0,0,3,9,19,26,36,50,60,71,76,88,102,105,110,124,135,137,137,138,143,147,148,148,154,159,159,164
participant_3_KILLS,0,0,0,0,0,0,0,0,0,1,1,1,1,1,1,1,1,1,1,2,2,3,3,3,4,4,4,6
participant_3_BUY,[],"[1039, 2031, 3340]",[],[],[],[],"[3802, 2055]",[],[],"[1052, 1052]",[],[],[6653],[],[],"[3111, 3047]",[],[],[],[],"[1026, 1011, 2055, 2055]",[],[],"[4637, 1028]",[],"[3066, 1031]",[],[]
participant_3_SOLD,[],[],[],[],[],[],[],[],[1039],[2031],"[3340, 2055]",[3513],"[3802, 1052]",[],[],"[2422, 2422]",[],[],[],[],[],[2055],[],"[1026, 1011, 1052]",[2055],[1028],[],[]
participant_3_UNDO,[],[],[],[],[],[],[],[],[],[],[],[],[],[],[],"[[0, 3111]]",[],[],[],[],[],[],[],[],[],[],[],[]
participant_4_GOLD,500,500,523,847,1105,1302,1736,1978,2203,2637,2772,3037,3303,3518,3747,4407,4557,5097,5479,5773,5965,6155,6595,6737,7098,7289,7479,7960
participant_4_CURRENTGOLD,500,0,23,347,605,802,136,303,528,87,222,487,753,968,222,32,182,722,1104,448,640,30,470,612,973,214,404,885
participant_4_LEVEL,1,1,1,2,3,4,4,5,5,6,6,6,7,7,7,8,8,9,9,9,9,9,10,10,11,11,12,13
participant_4_MINIONSKILLED,0,0,0,2,6,7,7,10,12,12,12,16,17,17,17,20,21,23,25,27,29,29,29,29,30,30,30,31
participant_4_KILLS,0,0,0,0,0,0,0,0,0,0,0,0,0,1,1,1,1,1,1,1,1,1,1,1,1,1,1,1
participant_4_BUY,[],"[1054, 2003, 3340]",[],[],"[1042, 2031]",[],"[1001, 2055]",[],[],[],"[1043, 1053, 1042]",[],[1043],[3047],[],[2055],[],[3153],[],"[3067, 1042]",[],[],[],"[3051, 3057]",[],"[3078, 2055]",[],[]
participant_4_SOLD,[],[],[],[2003],[],[],[2055],[],[],[],[1042],[],"[1042, 1042, 1054]",[1001],[],[],[],"[1053, 1043, 2055]","[3340, 3513]",[],[],[],[],"[1042, 2031]",[],"[3057, 3051, 3067]",[2055],[]
participant_4_UNDO,[],[],[],[],[],[],[],[],[],[],"[[0, 1043]]",[],"[[1054, 0]]",[],[],[],[],[],[],[],[],[],[],[],[],[],[],[]
participant_5_GOLD,500,500,584,734,1099,1410,2076,2387,2746,3018,3912,4221,4774,4897,5268,6625,6747,7201,7435,8925,10306,10428,10683,10901,11218,11418,11770,11860
participant_5_CURRENTGOLD,500,0,84,234,99,410,51,362,721,993,1887,371,924,147,518,1075,397,851,1085,75,1456,98,353,571,14,213,240,-90
participant_5_LEVEL,1,1,1,2,4,5,6,6,7,8,9,9,10,10,11,12,12,12,12,13,13,13,14,14,14,14,15,15
participant_5_MINIONSKILLED,0,0,3,5,17,26,30,41,52,59,75,83,94,94,105,118,118,128,130,143,149,149,153,153,160,165,170,170
participant_5_KILLS,0,0,0,0,0,0,0,0,0,0,0,0,0,0,0,0,0,0,0,0,0,0,0,0,0,0,0,0
participant_5_BUY,[],"[3858, 2003, 2003, 3340]",[],[],[],[],"[1001, 1028, 2031]",[],[],[],[3047],[],[],"[3067, 1029, 2055, 3364]",[],[3024],[],[],[],[3050],[],[1029],[],[3076],[],[],[],[]
participant_5_SOLD,[],[],[],[2003],[],[],[2003],[],[],[],"[1001, 3858]",[],[],"[1028, 3340]",[],[1029],[],[],[],"[3859, 3067, 3024]",[],[],[],[1029],[],[],[],[]
participant_5_UNDO,[],[],[],[],[],[],[],[],[],[],[],[],[],[],[],[],[],[],[],[],[],[],[],[],[],[],[],[]
participant_6_GOLD,500,500,606,1018,1326,1491,1635,2032,2239,2462,2819,3317,3439,3746,4059,4331,4559,4866,5115,5370,5655,6259,6780,7197,7894,8132,8424,8514
participant_6_CURRENTGOLD,500,0,106,518,826,191,335,732,939,62,419,917,164,471,784,291,519,326,575,430,715,1319,740,1157,54,292,584,614
participant_6_LEVEL,1,1,2,3,4,4,4,5,5,5,6,7,7,7,8,8,8,9,9,9,10,11,11,12,12,12,13,13
participant_6_MINIONSKILLED,0,0,0,0,0,2,3,3,3,3,3,3,3,3,3,3,3,3,5,9,9,13,16,19,19,20,20,20
participant_6_KILLS,0,0,0,0,0,0,1,1,1,1,2,2,2,2,2,4,4,4,4,5,6,6,6,6,6,6,6,6
participant_6_BUY,[],"[1055, 2003, 3340]",[],[],"[1055, 2003]",[],"[1037, 2031]",[],[],[],[],"[3044, 6029, 1028]",[],"[6630, 1001]",[],[3047],[3067],[],[],[3071],[],"[3133, 1031]",[],[],[1037],[],[6333],[]
participant_6_SOLD,[],[],[],[2003],[],[2003],[],[],[],[],[],[1037],[],"[6029, 3044, 1028]",[],[1001],[],[],[],[3067],[],"[1055, 1055, 2031]",[],[],[],[],"[1031, 3133, 1037]",[]
participant_6_UNDO,[],[],[],[],[],[],[],[],[],[],[],[],[],[],[],[],[],[],[],[],[],[],[],[],[],[],[],[]
participant_7_GOLD,500,500,577,927,1239,1522,1872,2183,2465,2772,2999,3288,3914,4099,4422,4636,5053,5580,5765,5963,6243,6846,6968,7864,8166,8825,9172,9262
participant_7_CURRENTGOLD,500,0,77,417,729,102,442,303,575,872,249,93,709,29,342,556,973,1500,360,483,763,566,288,1184,296,955,1302,1412
participant_7_LEVEL,1,1,1,3,4,5,6,6,7,8,8,8,9,10,10,10,11,11,11,11,12,12,12,13,13,14,14,14
participant_7_MINIONSKILLED,0,0,3,14,25,32,42,53,59,67,73,79,88,92,100,103,116,122,126,126,130,137,137,149,155,161,171,171
participant_7_KILLS,0,0,0,0,0,0,0,0,0,0,0,0,0,0,0,0,0,0,0,0,0,0,1,1,2,2,2,2
participant_7_BUY,[],"[1039, 2031, 3340]",[],[],[],[3067],[],[],[],[3051],[],[],[1037],[],[],"[6631, 1029]",[],[3047],[],[1028],[],[],"[3067, 1036, 1036, 3364]",[],"[3133, 1036, 3071]",[],[],[]
participant_7_SOLD,[],[],[],[],[],[],[],[],[],[1039],[],[],[],[],[],"[1037, 3051, 3067, 2031]",[],"[1029, 2422]",[],[],[],[],"[1028, 3340]",[],"[1036, 1036, 3133, 3067, 1036]",[],[],[]
participant_7_UNDO,[],[],[],[],[],[],[],[],[],[],[],[],[],[],[],[],[],[],[],[],[],[],[],[],[],[],[],[]
participant_8_GOLD,500,500,584,1048,1469,1822,2102,2357,2779,3306,3705,4190,4690,4813,5483,5831,6088,6305,6428,6876,7549,8023,8295,8699,8988,9242,9880,9969
participant_8_CURRENTGOLD,500,0,84,48,469,822,502,257,679,306,705,1190,1690,513,1183,331,588,205,128,576,1249,1723,1395,399,688,943,1580,1669
participant_8_LEVEL,1,1,1,1,2,4,4,5,5,6,6,7,8,8,8,9,9,9,9,10,10,11,11,11,11,12,12,12
participant_8_MINIONSKILLED,0,0,3,6,21,31,37,45,59,64,79,90,95,95,104,110,117,117,117,122,128,143,143,150,153,156,163,163
participant_8_KILLS,0,0,0,1,1,1,1,1,1,2,2,2,3,3,3,3,3,3,3,3,4,4,4,4,4,4,5,5
participant_8_BUY,[],"[2003, 3340, 1055]",[],"[1055, 2003]",[],[],"[1001, 1042]",[3006],[],[1053],[],[],[],[6670],[],[6673],[],"[1018, 1042, 1042, 3363]",[6677],[],[],[],[1018],[3124],[],[],[],[]
participant_8_SOLD,[],[],[],[2003],[],[],[],"[1001, 1042]",[],[2003],[],[],[],[],[],"[6670, 1053]",[],[3340],"[1042, 1042]",[],[],[],[],"[6677, 1018]",[],[],[],[]
participant_8_UNDO,[],[],[],[],[],[],[],[],[],[],[],[],[],[],[],[],[],"[[0, 1018]]",[],[],[],[],[],[],[],[],[],[]
participant_9_GOLD,500,500,523,902,1159,1401,1622,1778,2023,2307,2506,2697,3010,3150,3423,3739,3879,4020,4160,4300,4558,4699,4899,5116,5286,5604,5849,5952
participant_9_CURRENTGOLD,500,0,23,402,659,901,292,448,693,977,376,567,880,245,518,234,374,515,655,95,353,194,394,111,281,599,844,927
participant_9_LEVEL,1,1,1,2,3,4,4,5,5,6,6,6,7,7,7,8,8,8,8,8,9,9,10,10,11,11,12,12
participant_9_MINIONSKILLED,0,0,0,7,11,14,16,17,20,20,23,25,27,27,30,33,33,33,33,33,34,34,36,36,36,38,40,40
participant_9_KILLS,0,0,0,0,0,0,0,0,0,0,0,0,1,1,1,1,1,2,2,2,2,3,3,4,4,5,5,5
participant_9_BUY,[],"[1054, 2003]",[],[],[],[3191],[],"[1001, 2031]",[],[],[1026],[1052],[],[3802],[],[],[],[],"[6655, 2055]",[2055],[],[3020],[3070],[],[1058],[],[],[]
participant_9_SOLD,[],[],[],[2003],[],[],[],[],[],[],[],[],[],[1052],[],[],[],[],"[3802, 1026, 2055]",[],[2055],[1001],[],[],[2031],[],[],[]
participant_9_UNDO,[],[],[],[],[],[],[],[],[],[],[],[],[],[],[],[],[],[],[],[],[],[],[],[],[],[],[],[]
team0_KILLS,0,0,0,1,1,2,3,3,3,6,6,6,7,8,10,12,12,15,18,19,19,20,22,22,25,25,26,30
team0_CURRENTGOLD,2500,0,459,1881,2904,4686,2515,2234,3687,3817,2085,4384,4429,1916,2948,1160,2883,4320,6494,2949,2403,2102,4331,1912,5236,2408,2636,5262
team0_TOTALGOLD,2500,2500,2959,4966,6439,8231,9895,11464,12927,15552,16870,19179,21289,22776,24868,27370,29093,31730,33904,36354,37707,39606,42936,44046,47370,48701,50745,54025
team0_LEVEL,5,5,6,13,16,20,24,27,30,35,36,38,40,42,44,46,48,49,53,54,55,55,61,61,64,64,68,70
team0_SBIRES,0,0,10,44,72,96,126,156,183,226,245,282,301,313,332,352,383,397,414,428,460,474,481,491,511,521,553,568
team1_KILLS,0,0,0,1,1,1,2,2,2,3,4,4,6,6,6,8,8,9,9,10,12,13,14,15,16,17,18,18
team1_CURRENTGOLD,2500,0,374,1619,2782,2426,1622,2102,3607,3210,3636,3138,4367,1405,3345,2487,2851,3397,2803,1659,4536,3900,3170,3422,1333,3002,4550,4532
team1_TOTALGOLD,2500,2500,2874,4629,6292,7646,9307,10737,12252,13865,15941,17713,19827,20705,22655,25162,26326,27972,28903,31434,34311,36255,37625,39777,41552,43221,45095,45557
team1_LEVEL,5,5,6,11,17,22,24,27,29,33,35,37,41,42,44,47,48,49,49,51,54,56,58,60,61,63,66,66
team1_SBIRES,0,0,9,32,74,105,128,159,193,213,253,280,307,311,342,367,387,403,411,433,450,476,485,507,523,540,564,564
delta_KILLS,0,0,0,0,0,1,1,1,1,3,2,2,1,2,4,4,4,6,9,9,7,7,8,7,9,8,8,12
delta_CURRENTGOLD,0,0,85,262,122,2260,893,132,80,607,-1551,1246,62,511,-397,-1327,32,923,3691,1290,-2133,-1798,1161,-1510,3903,-594,-1914,730
delta_TOTALGOLD,0,0,85,337,147,585,588,727,675,1687,929,1466,1462,2071,2213,2208,2767,3758,5001,4920,3396,3351,5311,4269,5818,5480,5650,8468
delta_LEVEL,0,0,0,2,-1,-2,0,0,1,2,1,1,-1,0,0,-1,0,0,4,3,1,-1,3,1,3,1,2,4
delta_SBIRES,0,0,1,12,-2,-9,-2,-3,-10,13,-8,2,-6,2,-10,-15,-4,-6,3,-5,10,-2,-4,-16,-12,-19,-11,4
