name,team0,team1
win,Fail,Win
firstBlood,True,False
firstTower,False,True
firstInhibitor,False,True
firstBaron,False,True
firstDragon,False,True
firstRiftHerald,False,False
towerKills,2,8
inhibitorKills,0,2
baronKills,0,1
dragonKills,0,4
riftHeraldKills,0,0
