name,frame_0,frame_1,frame_2,frame_3,frame_4,frame_5,frame_6,frame_7,frame_8,frame_9,frame_10,frame_11,frame_12,frame_13,frame_14,frame_15,frame_16,frame_17,frame_18,frame_19,frame_20,frame_21,frame_22,frame_23,frame_24,frame_25,frame_26,frame_27,frame_28
nameStamp,Tstart,Tearly,Tearly,Tearly,Tearly,Tearly,Tearly,Tearly,Tearly,Tearly,Tearly,Tearly,Tearly,Tearly,Tearly,Tmid,Tmid,Tmid,Tmid,Tmid,Tmid,Tmid,Tmid,Tmid,Tmid,Tend,Tend,Tend,Tend
timestamp,0,60016,120045,180053,240076,300083,360107,420115,480127,540133,600153,660174,720205,780212,840223,900245,960247,1020268,1080282,1140297,1200321,1260330,1320352,1380363,1440391,1500402,1560420,1620436,1680436
participant_0_GOLD,500,500,523,752,887,1049,1484,1667,1870,2005,2223,2672,2964,3133,3446,3738,3947,4199,4625,5103,5393,5669,5810,5987,6428,6918,7209,7349,7563
participant_0_CURRENTGOLD,500,0,23,252,387,549,109,292,495,330,548,997,589,758,1071,1363,1572,1824,2250,778,1068,1344,685,863,503,993,684,824,1038
participant_0_LEVEL,1,1,1,2,3,3,4,4,5,5,6,6,7,7,7,8,8,8,9,9,9,10,10,10,11,11,12,12,12
participant_0_MINIONSKILLED,0,0,0,3,3,5,5,8,9,9,14,15,16,17,20,21,22,24,26,26,26,26,26,26,26,26,26,26,26
participant_0_KILLS,0,0,0,0,0,0,1,1,1,1,1,2,2,2,2,2,2,2,2,2,2,2,2,2,2,3,3,3,3
participant_0_BUY,[],"[3858, 2003, 3340, 2003]",[],[],[],[],"[1001, 2031, 2055, 2033]",[],[],[1029],[],[],[3117],[],[],[],[],[],[],[3050],[],[],[3067],[],[1031],[],[3109],[],[]
participant_0_SOLD,[],[],[],[],"[2003, 2010]","[2003, 2010]",[2031],[2055],[],[2010],[],[],[1001],[3858],[],[],[],[],[],[1029],[3859],[],[],[],[],[],"[3067, 1031]",[],[]
participant_0_UNDO,[],[],[],[],[],[],[],[],[],[],[],[],[],[],[],[],[],[],[],[],[],[],[],[],[],[],[],[],[]
participant_1_GOLD,500,500,621,828,1158,1335,1628,1855,2077,2300,2522,2730,3407,3884,4157,4533,4835,4958,5580,5903,6346,6754,6887,7061,7609,7944,8240,8362,8612
participant_1_CURRENTGOLD,500,0,121,328,658,185,478,705,927,1150,472,680,457,934,157,533,835,158,780,1103,1546,454,587,326,874,1209,140,262,-5113
participant_1_LEVEL,1,1,2,2,3,3,4,5,5,5,6,6,7,8,8,8,9,9,9,10,10,10,11,11,12,12,12,12,13
participant_1_MINIONSKILLED,0,0,0,0,0,0,0,0,0,0,0,0,0,0,0,0,0,0,0,0,1,1,2,3,3,3,3,3,3
participant_1_KILLS,0,0,0,0,0,0,0,0,0,0,0,0,0,0,0,0,0,0,1,1,1,1,1,1,1,1,1,1,1
participant_1_BUY,[],"[1039, 2031, 3340]",[],[],[],[3706],[],[],[],[],[3108],[],"[1402, 1001]",[],[3145],[],[],[3067],[],[],[],"[3152, 1026]",[],[1052],[],[],"[3135, 3135]",[],[]
participant_1_SOLD,[],[],[],[],[],[1039],[],[],[],[],[],[],"[3108, 3706]",[],[],[],[],[],[],"[3340, 3513]",[],"[3145, 3067]",[],[],[],[],"[1026, 1052, 3135, 1001, 3152, 1402, 2031, 1026, 1052]",[],[]
participant_1_UNDO,[],[],[],[],[],[],[],[],[],[],[],[],[],[],[],[],[],[],[],[],[],[],[],[],[],[],"[[2031, 0], [1402, 0], [3152, 0], [1001, 0], [3135, 0], [0, 3135]]",[],[]
participant_2_GOLD,500,500,563,920,1183,1389,1816,2036,2374,2518,2887,3244,3629,3912,4341,4836,5207,5545,6108,6479,6820,7806,8013,8694,9216,9899,10698,10920,11568
participant_2_CURRENTGOLD,500,0,63,420,683,139,566,786,1124,68,437,54,439,722,1151,1646,217,555,1118,189,530,1516,473,1154,701,1384,783,205,368
participant_2_LEVEL,1,1,1,2,3,4,5,5,6,6,7,7,7,8,8,9,9,10,10,11,11,11,11,12,12,13,13,13,14
participant_2_MINIONSKILLED,0,0,2,13,21,26,41,47,57,58,69,74,81,90,101,106,117,126,137,140,145,145,145,152,152,156,164,164,174
participant_2_KILLS,0,0,0,0,0,0,0,0,0,0,0,0,0,0,0,0,0,0,0,0,0,3,3,4,4,5,6,6,7
participant_2_BUY,[],"[1055, 2003, 3340]",[],[],[],"[1001, 1042, 2031]",[],[],[],"[3006, 1036, 1036]",[],[1018],[],[],[],[],[3087],[],[],[1038],[],[],"[1018, 1037]",[],"[3031, 1053]",[],"[3133, 1029]",[3105],[]
participant_2_SOLD,[],[],[],[],[2003],[],[],[],[],"[1001, 1042]",[],[2031],[],[],[],[],[1018],[],[],[],[],[],"[1055, 1036]",[],"[1038, 1037, 1018, 1036]",[],[],[1029],[]
participant_2_UNDO,[],[],[],[],[],[],[],[],[],[],[],[],[],[],[],[],[],[],[],[],[],[],[],[],[],[],[],[],[]
participant_3_GOLD,500,500,563,839,1127,1487,1785,2043,2291,2428,3069,3283,3447,3918,4354,4560,4889,5165,5496,6206,6541,6820,7071,7273,7780,8115,8411,8533,8650
participant_3_CURRENTGOLD,500,0,63,339,627,987,1285,308,556,693,1334,333,497,968,1404,85,414,690,1021,1731,2066,495,746,948,1455,555,451,573,690
participant_3_LEVEL,1,1,1,3,4,5,6,6,7,7,8,8,9,9,10,10,10,11,11,12,12,12,12,13,13,14,14,14,14
participant_3_MINIONSKILLED,0,0,2,11,17,28,38,43,50,51,61,67,69,72,84,89,97,106,111,121,125,126,128,131,131,131,131,131,132
participant_3_KILLS,0,0,0,0,0,0,0,0,0,0,1,1,1,2,2,2,2,2,2,2,2,2,2,2,2,2,2,2,2
participant_3_BUY,[],"[1027, 2031, 3340]",[],[],[],[],[],"[3070, 1001, 1052]",[],[],[],"[3802, 1027]",[],[],[],"[3003, 2055, 1028]",[],[],[],[],[],"[3010, 3027]",[],[],[],"[3020, 1052]",[1028],[],[]
participant_3_SOLD,[],[],[],[],[2403],[],"[2403, 2403]",[1027],[],[],[],[1052],[],[],[],"[3070, 3802]",[],[2055],[],[],[],"[1028, 1027, 3010]",[3003],[],[],[1001],[],[],[]
participant_3_UNDO,[],[],[],[],[],[],[],[],[],[],[],[],[],[],[],[],[],[],[],[],[],[],[],[],[],[],[],[],[]
participant_4_GOLD,500,500,626,983,1596,1886,2201,2804,3465,3743,4725,5034,6673,7005,8279,9111,9971,10239,11185,12442,13460,13764,14115,14694,15141,15851,16501,16648,17373
participant_4_CURRENTGOLD,500,0,126,483,1096,286,601,1204,1865,293,1275,509,368,700,174,1006,1866,434,1380,2638,855,1160,1510,2090,1517,2227,377,524,1048
participant_4_LEVEL,1,1,1,3,4,5,6,6,7,8,9,9,10,10,11,11,12,12,13,13,14,14,14,14,15,15,15,15,16
participant_4_MINIONSKILLED,0,0,6,17,21,28,36,45,56,62,70,78,82,95,104,110,117,121,128,144,145,149,153,161,161,166,167,167,173
participant_4_KILLS,0,0,0,0,1,1,1,2,3,3,4,4,7,7,8,10,12,12,14,16,19,19,19,20,20,21,22,22,24
participant_4_BUY,[],"[1054, 2003, 3340]",[],[],[],[3134],[],[],[],"[3147, 2003]",[],"[3117, 2055]","[3134, 1036, 1036]",[],"[3142, 1036, 1036]",[],[],[3179],[],[],[3026],[],[],[],[3052],[],"[3053, 2140]",[],[]
participant_4_SOLD,[],[],[],[],[2003],[],[],[],[],[3134],[],[2055],[2003],[],"[1036, 1036, 3134]",[],[],"[1036, 1036]",[],[],[],[],[],[],[1054],[],"[3052, 2140]",[],[]
participant_4_UNDO,[],[],[],[],[],[],[],[],[],[],[],[],[],[],[],[],[],[],[],[],[],[],[],[],[],[],[],[],[]
participant_5_GOLD,500,500,621,948,1148,1405,1613,1941,2105,2228,2592,3500,3706,4040,4276,4454,4897,5170,5292,5414,5537,5759,5967,6089,6374,6507,6671,7179,7316
participant_5_CURRENTGOLD,500,0,121,448,648,905,113,441,255,378,342,1250,180,515,251,29,472,344,167,289,412,134,341,464,749,882,1046,1553,441
participant_5_LEVEL,1,1,2,3,3,4,4,5,5,5,5,6,6,7,7,7,8,8,8,8,8,9,9,9,9,10,11,11,12
participant_5_MINIONSKILLED,0,0,0,0,0,0,0,1,4,4,4,5,5,5,10,10,17,17,17,17,17,17,17,17,21,21,23,37,40
participant_5_KILLS,0,0,0,0,0,0,0,0,0,0,0,2,2,2,2,2,2,2,2,2,2,2,2,2,2,2,2,2,2
participant_5_BUY,[],"[1041, 2031]",[],[],[],[],"[3715, 1036]",[],[1036],[],[3133],[],"[1412, 1036, 1028]",[],[3044],[1028],[],[3067],[1029],[],[],[3047],[],[],[],[],[],[],"[3071, 1029]"
participant_5_SOLD,[],[],[],[],[],[],[1041],[],[],[],"[1036, 1036]",[],"[3133, 3715]",[],"[1028, 1036]",[],[],[1028],[],[],[],"[1029, 2422]",[],[],[],[],[],[],"[3044, 3067]"
participant_5_UNDO,[],[],[],[],[],[],[],[],[],[],[],[],[],[],[],[],[],[],[],[],[],[],[],[],[],[],[],[],[]
participant_6_GOLD,500,500,563,874,1116,1629,2080,2436,2760,3366,3649,3930,4087,4370,4728,4927,5142,5424,5665,5941,6307,6695,7040,7176,7724,7985,10058,10493,10761
participant_6_CURRENTGOLD,500,0,63,374,616,1129,280,636,960,1566,1849,230,387,670,1028,1227,1442,1724,165,441,807,395,740,1,124,385,508,943,361
participant_6_LEVEL,1,1,1,2,3,4,4,5,6,7,7,7,8,8,8,9,9,9,10,10,10,11,11,11,12,12,13,14,14
participant_6_MINIONSKILLED,0,0,2,13,20,25,27,38,47,58,67,69,71,81,91,95,97,102,109,114,124,125,134,135,152,156,156,166,167
participant_6_KILLS,0,0,0,0,0,0,1,1,1,1,1,1,1,1,1,1,1,1,1,1,1,1,1,1,1,1,5,5,5
participant_6_BUY,[],"[1055, 2003, 3340]",[],[],[],[],[1038],[],[],[],[],"[3006, 1018]",[],[],[],[],[],[],[3085],[],[],[1018],[],[1037],[3031],[],"[1038, 2420]",[],[3026]
participant_6_SOLD,[],[],[],[],[],[2003],[],[],[],[],[],[],[],[],[],[],[],[],[1018],[],[],[],[],[],"[1038, 1037, 1018]",[],[],[],"[1038, 2420]"
participant_6_UNDO,[],[],[],[],[],[],[],[],[],[],[],[],[],[],[],[],[],[],[],[],[],[],[],[],[],[],[],[],[]
participant_7_GOLD,500,500,553,732,942,1736,2066,2200,2334,3118,3268,3624,3834,4010,4166,4351,4556,4712,4852,5023,5163,6131,6329,6589,6730,6895,8275,8430,8814
participant_7_CURRENTGOLD,500,0,53,232,442,1236,316,450,584,1368,1518,1874,459,635,791,976,531,687,27,198,338,406,604,464,605,770,50,205,589
participant_7_LEVEL,1,1,1,2,3,4,4,5,5,6,7,7,8,8,8,8,8,9,9,9,9,10,10,11,11,11,12,12,13
participant_7_MINIONSKILLED,0,0,0,0,0,0,0,0,0,0,0,0,0,1,1,2,2,2,2,2,2,4,7,7,7,8,9,10,10
participant_7_KILLS,0,0,0,0,0,2,2,2,2,4,4,4,4,4,4,4,4,4,4,4,4,5,5,5,5,5,6,6,7
participant_7_BUY,[],"[3850, 2003, 2003, 3340]",[],[],[],[],"[3117, 1004, 1004]",[],[],[],[],[],"[3114, 3113, 2031, 2055]",[],[],[],[3504],[],[3028],[],[],[3108],[],[3174],[],[],"[3114, 3107]",[],[]
participant_7_SOLD,[],[],[],[],[],[],[],[],[],[2003],[2003],[3850],"[1004, 1004, 2055]",[],[],[],"[3114, 3113]",[],[],[],[],[],[],"[3851, 3108, 3028]",[],[],[3114],[],[]
participant_7_UNDO,[],[],[],[],[],[],[],[],[],[],[],[],[],[],[],[],[],[],[],[],[],[],[],[],[],[],[],[],[]
participant_8_GOLD,500,500,542,797,969,1189,1333,1689,1811,2095,2568,3263,3497,3690,3906,4398,4925,5322,5538,5924,6147,7327,7616,8133,8255,8405,8591,8888,9005
participant_8_CURRENTGOLD,500,0,42,297,469,689,833,1189,211,495,968,1663,1897,240,456,948,1475,1872,205,591,14,194,483,1000,1122,1273,358,655,772
participant_8_LEVEL,1,1,1,3,4,5,5,6,6,7,7,8,9,9,10,10,11,11,12,12,12,13,13,13,13,13,13,14,14
participant_8_MINIONSKILLED,0,0,1,9,12,15,16,27,27,37,40,52,58,63,68,71,77,85,90,100,101,103,108,112,112,114,118,128,129
participant_8_KILLS,0,0,0,0,0,0,0,0,0,0,1,2,2,2,2,3,3,3,3,3,3,6,6,7,7,7,7,7,7
participant_8_BUY,[],"[1054, 2003, 3340]",[],[],[],[],[],[],[3006],[],[],[],[],"[3044, 1042, 1042]",[],[],[],[],[3078],[],[1031],[1011],[],[],[],[],[3742],[],[]
participant_8_SOLD,[],[],[],[],[2003],[],[],[],[],[],[],[],[],[],[],[],[],[],"[1042, 1042, 3044]",[],[],[],[],[],[],[],"[1031, 1011]",[],[]
participant_8_UNDO,[],[],[],[],[],[],[],[],[],[],[],[],[],[],[],[],[],[],[],[],[],[],[],[],[],[],[],[],[]
participant_9_GOLD,500,500,577,850,994,1116,1438,1574,1696,1861,1983,2349,2735,2893,3036,3159,3352,4056,4179,4315,4438,4585,4721,4981,5277,5421,5758,6040,6136
participant_9_CURRENTGOLD,500,0,77,350,494,181,503,639,146,311,133,499,85,243,386,509,402,1106,79,215,338,135,271,531,827,971,608,890,986
participant_9_LEVEL,1,1,1,3,4,4,5,6,6,6,7,7,7,8,8,8,8,9,9,9,9,9,10,10,10,11,11,11,12
participant_9_MINIONSKILLED,0,0,3,9,10,10,19,20,20,23,23,34,35,37,38,38,39,47,47,48,48,49,50,53,58,59,63,69,69
participant_9_KILLS,0,0,0,0,0,0,0,0,0,0,0,0,1,1,1,1,1,2,2,2,2,2,2,2,2,2,2,2,2
participant_9_BUY,[],"[2033, 3340]",[],[],[],[1052],[],[],[3145],[],[1001],[],[3067],[],[],[],[1029],[],"[3152, 3047]",[],[],[1027],[],[],[],[],[3057],[],[]
participant_9_SOLD,[],[],[],[],[],[],[],[],[1052],[],[],[],[],[],[],[],[],[],"[3145, 3067, 1001, 1029]",[],[],[],[],[],[],[],[1027],[],[]
participant_9_UNDO,[],[],[],[],[],[],[],[],[],[],[],[],[],[],[],[],[],[],[],[],[],[],[],[],[],[],[],[],[]
team0_KILLS,0,0,0,0,1,1,2,3,4,4,6,7,10,11,12,14,16,16,19,21,24,27,27,29,29,32,34,34,37
team0_CURRENTGOLD,2500,0,396,1822,3451,2146,3039,3295,4967,2534,4066,2573,2350,4082,3957,4633,4904,3661,6549,6439,6065,4969,4001,5381,5050,6368,2435,2388,-1969
team0_TOTALGOLD,2500,2500,2896,4322,5951,7146,8914,10405,12077,12994,15426,16963,20120,21852,24577,26778,28849,30106,32994,36133,38560,40813,41896,43709,46174,48727,51059,51812,53766
team0_LEVEL,5,5,6,12,17,20,25,26,30,31,36,36,40,42,44,46,48,50,52,55,56,57,58,60,63,65,66,66,69
team0_SBIRES,0,0,10,44,62,87,120,143,172,180,214,234,248,274,309,326,353,377,402,431,442,447,454,473,473,482,491,491,508
team1_KILLS,0,0,0,0,0,2,3,3,3,5,6,9,10,10,10,11,11,12,12,12,12,16,16,17,17,17,22,22,23
team1_CURRENTGOLD,2500,0,356,1701,2669,4140,2045,3355,2156,4118,4810,5516,3008,2303,2912,3689,4322,5733,643,1734,1909,1264,2439,2460,3427,4281,2570,4246,3149
team1_TOTALGOLD,2500,2500,2856,4201,5169,7075,8530,9840,10706,12668,14060,16666,17859,19003,20112,21289,22872,24684,25526,26617,27592,30497,31673,32968,34360,35213,39353,41030,42032
team1_LEVEL,5,5,6,13,17,21,22,27,28,31,33,35,38,40,41,42,44,46,48,48,48,52,53,54,55,57,60,62,65
team1_SBIRES,0,0,6,31,42,50,62,86,98,122,134,160,169,187,208,216,232,253,265,281,292,298,316,324,350,358,369,410,415
delta_KILLS,0,0,0,0,1,-1,-1,0,1,-1,0,-2,0,1,2,3,5,4,7,9,12,11,11,12,12,15,12,12,14
delta_CURRENTGOLD,0,0,40,121,782,-1994,994,-60,2811,-1584,-744,-2943,-658,1779,1045,944,582,-2072,5906,4705,4156,3705,1562,2921,1623,2087,-135,-1858,-5118
delta_TOTALGOLD,0,0,40,121,782,71,384,565,1371,326,1366,297,2261,2849,4465,5489,5977,5422,7468,9516,10968,10316,10223,10741,11814,13514,11706,10782,11734
delta_LEVEL,0,0,0,-1,0,-1,3,-1,2,0,3,1,2,2,3,4,4,4,4,7,8,5,5,6,8,8,6,4,4
delta_SBIRES,0,0,4,13,20,37,58,57,74,58,80,74,79,87,101,110,121,124,137,150,150,149,138,149,123,124,122,81,93
