name,team0,team1
win,Fail,Win
firstBlood,True,False
firstTower,False,True
firstInhibitor,False,True
firstBaron,False,False
firstDragon,False,True
firstRiftHerald,False,True
towerKills,0,9
inhibitorKills,0,1
baronKills,0,0
dragonKills,0,2
riftHeraldKills,0,1
