name,frame_0,frame_1,frame_2,frame_3,frame_4,frame_5,frame_6,frame_7,frame_8,frame_9,frame_10,frame_11,frame_12,frame_13,frame_14,frame_15,frame_16,frame_17,frame_18,frame_19,frame_20,frame_21,frame_22,frame_23,frame_24,frame_25,frame_26,frame_27,frame_28,frame_29,frame_30,frame_31,frame_32
nameStamp,Tstart,Tearly,Tearly,Tearly,Tearly,Tearly,Tearly,Tearly,Tearly,Tearly,Tearly,Tearly,Tearly,Tearly,Tmid,Tmid,Tmid,Tmid,Tmid,Tmid,Tmid,Tmid,Tmid,Tmid,Tmid,Tmid,Tmid,Tmid,Tmid,Tmid,Tmid,Tmid,Tmid
timestamp,0,60012,120038,180068,240090,300145,360173,420182,480210,540211,600237,660246,720277,780279,840280,900283,960308,1020333,1080365,1140371,1200399,1260403,1320428,1380460,1440483,1500492,1560494,1620494,1680522,1740553,1800579,1860582,1920582
participant_0_GOLD,500,500,570,741,976,1098,1305,1955,2256,2499,2755,3050,3550,3987,4279,4571,4798,5500,5722,6131,6401,6936,7058,7209,7406,7598,7770,8084,8206,8562,9175,9354,9409
participant_0_CURRENTGOLD,500,50,120,291,526,148,355,1005,406,649,905,1200,1700,2137,429,721,948,1650,572,381,651,286,408,559,156,348,520,834,56,412,1025,304,359
participant_0_LEVEL,1,1,1,2,3,3,4,5,6,6,7,7,8,8,9,9,9,10,10,10,11,11,11,11,12,12,12,12,13,13,14,14,14
participant_0_MINIONSKILLED,0,0,3,6,12,12,17,28,30,34,41,48,57,66,66,73,79,80,80,85,88,90,90,92,92,96,99,99,99,101,112,115,115
participant_0_KILLS,0,0,0,0,0,0,0,1,1,1,1,1,1,1,1,1,1,2,2,2,2,3,3,3,3,3,3,3,3,3,3,3,3
participant_0_BUY,[],"[1042, 3340, 2031]",[],[],[],[6677],[],[],"[1018, 1042]",[],[],[],[],[],"[3124, 1053]",[],[],[],[6670],[1018],[],"[6673, 1029, 3364]",[],[],[1018],[],[],[],"[3086, 1042]",[],[],"[2015, 1031]",[]
participant_0_SOLD,[],[],[],[],[],[1042],[],[],[],[],[],[],[],[],"[6677, 1018, 1042]",[],[],[],[3340],[3513],[],"[6670, 1018, 1053, 3340]",[],[],[],[],[],[],[1018],[],[],"[1042, 1029]",[]
participant_0_UNDO,[],[],[],[],[],[],[],[],[],[],[],[],[],[],[],[],[],[],[],[],[],[],[],[],[],[],[],[],[],[],[],[],[]
participant_1_GOLD,500,500,591,906,1204,1452,1673,2057,2598,2812,2934,3183,4261,4655,4799,4999,5363,5640,5930,6333,8022,8359,8481,8604,9648,10289,10432,12225,12817,13304,13624,13872,13927
participant_1_CURRENTGOLD,500,0,91,406,704,952,1173,1557,2098,2312,184,433,1511,1905,149,349,713,990,1280,1683,3372,176,298,121,1165,106,249,2043,2634,222,542,789,844
participant_1_LEVEL,1,1,1,2,3,4,4,5,6,6,6,6,8,8,8,9,9,9,10,10,11,11,11,11,12,12,12,13,14,14,14,14,14
participant_1_MINIONSKILLED,0,0,4,12,22,29,35,47,54,59,59,66,77,83,84,86,96,102,111,119,131,132,132,132,138,138,139,146,150,151,152,155,155
participant_1_KILLS,0,0,0,0,0,0,0,0,1,1,1,1,3,3,3,3,3,3,3,3,6,6,6,6,7,8,8,11,11,12,12,12,12
participant_1_BUY,[],"[3070, 2003, 3340, 2003]",[],[],[],[],[],[],[],[],"[3004, 2003]",[],[],[],"[3051, 3067]",[],[],[],[],[],[],"[3078, 3158, 1053, 1042]",[],[1042],[],[3153],[],[],[],[3139],[],[],[]
participant_1_SOLD,[],[],[],[],[],[2003],[2003],[],[],[],[3070],[],[2003],[],[],[],[3004],[],[],[],[],"[3051, 3067]",[],[],[],"[1053, 1042, 1042]",[],[],[],[],[],[],[]
participant_1_UNDO,[],[],[],[],[],[],[],[],[],[],[],[],[],[],[],[],[],[],[],[],[],[],[],[],[],[],[],[],[],[],[],[],[]
participant_2_GOLD,500,500,570,787,938,1095,1246,1368,1574,1732,1868,2343,2657,2828,2951,3297,3420,4296,4418,4611,4899,5263,5386,5686,5808,6163,6390,6639,6761,7763,8002,8125,8180
participant_2_CURRENTGOLD,500,0,70,277,428,150,301,423,629,352,58,533,847,168,291,637,760,1636,1758,401,689,1053,376,676,798,1153,1380,1629,1751,1503,492,615,680
participant_2_LEVEL,1,1,1,3,4,4,5,5,6,7,7,8,8,8,8,9,9,10,10,10,10,10,10,11,11,11,11,12,12,13,13,13,13
participant_2_MINIONSKILLED,0,0,3,6,8,10,12,12,17,19,20,22,24,27,27,30,30,32,32,33,34,37,37,39,39,40,42,42,42,44,46,46,46
participant_2_KILLS,0,0,0,0,0,0,0,0,0,0,0,0,0,0,0,0,0,1,1,1,1,1,1,1,1,1,1,1,1,3,3,3,3
participant_2_BUY,[],"[1056, 2003, 3340, 2003]",[],[],[],[1052],[],[],[],[1052],[3802],[],[],[1026],[],[],[],[],[],"[6655, 1001]",[],[],[3020],[],[],[],[],[],[],[1058],[1058],[],[]
participant_2_SOLD,[],[],[],"[2003, 2003]",[],[],[],[],[],[],"[1052, 1052]",[],[],[],[],[],[],[],[],"[3802, 1026]",[],[],[1001],[],[],[],[],[],[],[],[],[],[]
participant_2_UNDO,[],[],[],[],[],[],[],[],[],[],[],[],[],[],[],[],[],[],[],[],[],[],[],[],[],[],[],[],[],[],[],[],[]
participant_3_GOLD,500,500,535,878,1043,2038,2321,2527,3254,3677,3799,4765,5441,5591,6790,7234,7357,8699,8864,9929,10315,10825,11011,11467,11715,12578,12811,14000,14371,14884,15415,15625,15680
participant_3_CURRENTGOLD,500,0,35,378,543,1538,21,227,944,1367,89,1055,1231,681,1880,2324,27,1369,3354,1169,405,915,701,1157,1406,868,202,1391,961,175,706,916,-3330
participant_3_LEVEL,1,1,1,2,3,5,5,5,6,7,7,8,8,8,10,10,10,11,11,13,13,13,13,14,14,14,14,15,15,15,16,16,16
participant_3_MINIONSKILLED,0,0,1,11,14,22,22,27,38,46,46,50,55,57,65,70,70,83,85,93,101,106,110,111,120,120,122,124,134,134,137,140,140
participant_3_KILLS,0,0,0,0,0,2,2,2,3,3,3,4,5,5,7,7,7,8,8,10,10,10,10,11,11,13,13,14,14,15,16,16,16
participant_3_BUY,[],"[1055, 2003, 3340]",[],[],[],[],"[3044, 3057]",[],[],[],"[3067, 1001, 1029]",[],[3047],[6632],[],[],"[3051, 3057, 1028, 3067]",[],[],"[3071, 3071, 3742, 1036]","[3133, 1036, 3067, 1036]",[],[3133],[],[],[3071],[1011],[],[3067],[3083],[],[],[]
participant_3_SOLD,[],[],[],[],[],[],[],[],[2003],[],[],[],"[1001, 1029]","[3044, 3057, 3067]",[],[],"[1055, 1028]",[],"[6632, 3057, 3051, 3067]",[],[1036],[],"[1036, 1036]",[],[],"[3133, 3067]",[],[],[],"[1011, 3067]",[],[],[]
participant_3_UNDO,[],[],[],[],[],[],[],[],[],[],[],[],[],[],[],[],[],[],"[[6632, 0]]","[[0, 3071], [0, 3071]]","[[0, 1036], [0, 3133]]",[],[],[],[],[],[],[],[],[],[],[],[]
participant_4_GOLD,500,500,521,643,766,937,1060,1182,1475,1612,1734,1871,1993,2115,2238,2410,2533,2705,2827,3083,3580,3753,3875,3998,4195,4318,4440,4709,4832,5205,5335,5458,5513
participant_4_CURRENTGOLD,500,500,521,643,766,937,275,397,690,392,514,651,693,815,938,1110,1233,1405,1527,1783,2280,353,475,598,795,917,1040,1309,1431,555,685,808,863
participant_4_LEVEL,1,1,1,2,3,4,4,5,5,6,6,6,6,6,6,6,7,7,8,8,9,9,9,10,10,10,10,11,12,13,13,13,13
participant_4_MINIONSKILLED,0,0,0,0,0,3,3,3,4,5,5,6,6,6,6,6,6,6,6,6,6,6,6,6,6,6,6,6,6,6,6,6,6
participant_4_KILLS,0,0,0,0,0,0,0,0,0,0,0,0,0,0,0,0,0,0,0,0,0,0,0,0,0,0,0,0,0,0,0,0,0
participant_4_BUY,[],[],[],[],[],[],"[1052, 1027]",[],[],[1052],[],[],[3802],[],[],[],[],[],[],[],[],"[1026, 6655]",[],[],[],[],[],[],[],[1058],[],[],[]
participant_4_SOLD,[],[],[],[],[],[],[],[],[],[],[],[],"[1052, 1027, 1052]",[],[],[],[],[],[],[],[],"[3802, 1026]",[],[],[],[],[],[],[],[],[],[],[]
participant_4_UNDO,[],[],[],[],[],[],[],[],[],[],[],[],[],[],[],[],[],[],[],[],[],[],[],[],[],[],[],[],[],[],[],[],[]
participant_5_GOLD,500,500,621,933,1156,1339,1663,1975,2467,2767,2974,3122,3265,3792,4026,4530,4961,5188,5935,6456,6798,7244,7616,8446,8568,8776,8948,9170,9293,9991,10399,10592,10747
participant_5_CURRENTGOLD,500,0,121,433,221,404,728,1040,1532,1832,174,322,165,692,926,1430,1861,253,1000,1521,1863,694,1066,1896,318,526,698,921,608,691,1099,1292,1447
participant_5_LEVEL,1,1,2,3,3,3,4,5,5,6,6,7,7,7,8,9,10,10,10,11,11,12,12,13,13,13,13,13,13,14,14,15,15
participant_5_MINIONSKILLED,0,0,0,0,0,0,0,0,1,1,1,1,2,5,5,7,11,11,17,18,19,19,19,19,19,19,19,19,19,19,28,29,29
participant_5_KILLS,0,0,0,0,0,0,0,0,1,1,1,1,1,1,1,1,1,1,2,3,3,4,4,5,5,5,5,5,5,6,6,6,6
participant_5_BUY,[],"[1035, 2031, 3340]",[],[],[1052],[],[],[],[],[],"[3145, 1026, 1028]",[],[1029],[],[],[],[],"[3047, 4636, 1052]",[],[],[],"[1026, 3916, 1028]",[],[],"[3165, 1058]",[],[],[],[1052],[3145],[],[],[]
participant_5_SOLD,[],[],[],[],[],[],[],[],[1035],[],[1052],[],[],[],[],[],[],"[1029, 2422, 3145, 1028, 1026]",[],[],[],[1052],[],[],"[1026, 3916, 1028]",[],[],[],[],[1052],[],[],[]
participant_5_UNDO,[],[],[],[],[],[],[],[],[],[],[],[],[],[],[],[],[],[],[],[],[],[],[],[],[],[],[],[],[],[],[],[],[]
participant_6_GOLD,500,500,523,713,890,1024,1159,1293,1427,1662,1897,2032,2500,2821,3072,3510,3876,4016,4191,4452,4627,4938,5235,5515,5656,5796,6137,6277,6737,7020,7580,7865,8028
participant_6_CURRENTGOLD,500,0,23,213,390,524,659,143,277,512,747,882,150,471,722,1160,376,516,691,652,327,338,285,316,456,596,537,277,738,1020,80,365,528
participant_6_LEVEL,1,1,1,2,3,3,4,4,4,4,5,5,6,7,7,8,8,9,9,9,10,10,10,11,11,11,11,11,11,12,12,13,13
participant_6_MINIONSKILLED,0,0,0,3,5,5,5,5,5,8,9,9,10,13,16,20,20,20,22,26,28,28,28,29,29,29,29,29,29,30,30,33,33
participant_6_KILLS,0,0,0,0,0,0,0,0,0,0,0,0,1,1,1,1,1,1,1,1,1,1,1,1,1,1,1,1,2,2,3,3,3
participant_6_BUY,[],"[3858, 2003, 2003]",[],[],[],[],[],"[1004, 1028]",[],[],[],[],"[3067, 3066]",[],[],[],"[2065, 1001]",[],[],[1029],[3047],[1029],[1027],[3024],[],[],[1028],[3067],[],[],"[3050, 3801, 1006]",[],[]
participant_6_SOLD,[],[],[],"[2003, 2003]",[],[],[],[],[],[],[],[],[1028],[],[],[3858],"[3067, 1004, 3066]",[],[],[],"[1001, 1029]",[],[],"[1027, 1029]",[],[],[],[1028],[],[],"[3067, 3024]",[3859],[]
participant_6_UNDO,[],[],[],[],[],[],[],[],[],[],[],[],[],[],[],[],[],[],[],[],[],[],[],[],[],[],[],[],[],[],[],[],[]
participant_7_GOLD,500,500,563,867,1176,1319,1568,1690,1916,2293,2621,2896,3018,4126,4655,5265,5668,5930,6178,6646,6810,7398,8145,8970,9113,10077,10775,10897,11190,11733,12115,13105,13260
participant_7_CURRENTGOLD,500,0,63,367,676,819,1068,90,316,693,1021,1296,1418,1226,1755,2365,235,497,745,1213,277,865,1612,2437,1980,1294,1992,14,307,300,683,1672,1827
participant_7_LEVEL,1,1,1,2,3,4,4,4,5,6,7,7,7,8,8,9,9,9,10,10,10,11,11,12,12,13,14,14,14,14,15,15,15
participant_7_MINIONSKILLED,0,0,2,12,20,21,27,27,30,42,49,54,54,55,61,67,70,74,81,87,90,94,96,104,104,109,122,122,122,122,123,126,126
participant_7_KILLS,0,0,0,0,0,0,0,0,0,0,0,0,0,2,3,4,4,4,4,4,4,5,6,7,7,9,9,9,9,10,10,12,12
participant_7_BUY,[],"[3070, 3340, 2003, 2003]",[],[],[],[],[],"[3057, 1036, 2003]",[],[],[],[],[],"[3051, 1028, 2003, 2003, 2003]",[],[],"[3078, 3133, 1001]",[],[],[],[3004],[],[],[],[3158],"[1038, 1036]",[],"[3072, 1036]",[],[1053],[],[],[]
participant_7_SOLD,[],[],[],[],"[2003, 2003]",[],[],[],[2003],[],[],[],[],[1036],[],[2003],"[3057, 3051, 1028]",[],"[2003, 2003]",[],"[3070, 3133, 3004]",[],[],[],[1001],[],[],"[1038, 1036]",[],[1036],[],[],[]
participant_7_UNDO,[],[],[],[],[],[],[],[],[],[],[],[],[],[],[],[],[],[],[],[],[],[],[],[],[],[],[],[],[],[],[],[],[]
participant_8_GOLD,500,500,591,867,1102,1420,1888,2449,2634,3366,3937,4378,5773,7010,7280,7900,8917,9040,9843,10558,10780,11000,11569,12371,12774,14585,14848,15179,15302,16870,16992,18469,18980
participant_8_CURRENTGOLD,500,0,91,367,602,910,1368,1929,164,886,1457,88,1483,2720,350,970,1988,260,1063,658,880,1101,919,1721,125,1935,2199,2530,502,2071,43,1520,1830
participant_8_LEVEL,1,1,1,3,4,5,6,7,7,8,9,9,10,11,11,12,12,12,13,13,13,14,14,14,15,16,16,16,16,17,17,17,17
participant_8_MINIONSKILLED,0,0,4,13,19,28,36,43,47,60,69,75,82,95,103,105,111,111,117,123,123,129,137,144,149,156,161,163,163,179,179,192,201
participant_8_KILLS,0,0,0,0,0,0,0,1,1,1,2,2,4,5,5,6,8,8,9,10,10,10,11,11,11,14,14,14,14,16,16,18,18
participant_8_BUY,[],"[1055, 2003, 3340]",[],[],[],[],[],[],"[3006, 1036, 1036, 2031]",[],[],"[1053, 6670, 1042]",[],[],"[6673, 3086, 1042, 1042]",[],[],"[3046, 1018, 1036]",[],[1038],[],[],[3133],[],[6333],[],[],[],"[3031, 2420]",[],[3026],[],[]
participant_8_SOLD,[],[],[],[],[],[],[2003],[],[],[],[],"[1036, 1036]",[],[],"[6670, 1053, 1042, 2031]",[],[],"[1042, 3086, 1042]",[],[1055],[],[],[1036],[],[3133],[],[],[],"[1038, 1018]",[],[2420],[],[]
participant_8_UNDO,[],[],[],[],[],[],[],[],[],[],[],[],[],[],[],[],[],[],[],[],[],[],[],[],[],[],[],[],[],[],[],[],[]
participant_9_GOLD,500,500,521,657,927,1105,1368,1577,2123,2295,2849,2993,3143,3515,3732,3896,4244,4394,4559,4702,5208,5379,5975,6247,6412,6534,6910,7033,7155,7519,7641,8248,8404
participant_9_CURRENTGOLD,500,0,21,157,427,605,868,127,673,845,1399,343,493,865,1082,646,994,294,459,602,688,259,855,1127,1292,391,767,890,1012,1376,98,705,-929
participant_9_LEVEL,1,1,1,2,4,4,5,5,6,7,8,8,8,9,9,9,9,9,10,10,11,11,12,12,12,12,12,12,12,13,13,14,14
participant_9_MINIONSKILLED,0,0,0,1,9,13,21,23,26,29,35,36,38,40,42,45,48,50,52,53,57,60,65,65,67,67,69,69,69,69,69,69,69
participant_9_KILLS,0,0,0,0,0,0,0,0,1,1,2,2,2,2,2,2,2,2,2,2,3,3,4,4,4,4,4,4,4,4,4,5,5
participant_9_BUY,[],"[2003, 1054]",[],[],[],[],[],"[3009, 2003]",[],[],[],"[3051, 2003, 2003]",[],[],[],[1018],[],"[3057, 2003, 2003, 2003]",[],[],[3086],[1018],[],[],[],[3078],[],[],[],[],"[3086, 1018, 2003, 2003, 2003, 2003]",[],[]
participant_9_SOLD,[],[],[],[],[],[],[],[],[],[2003],[2003],[],[],[2003],[2003],[],[],[],[],[],"[1054, 1018]",[],[],[],[],"[3051, 3086, 3057]",[],[],[],"[2003, 2003, 2003]",[1018],"[2003, 2003, 2003, 2003]",[]
participant_9_UNDO,[],[],[],[],[],[],[],[],[],[],[],[],[],[],[],[],[],[],[],[],[],[],[],[],[],[],[],[],[],[],[],[],[]
team0_KILLS,0,0,0,0,0,2,2,3,5,5,5,6,9,9,11,11,11,14,14,16,19,20,20,21,22,25,25,29,29,33,34,34,34
team0_CURRENTGOLD,2500,550,837,1995,2967,3725,2125,3609,4767,5072,1750,3872,5982,5706,3687,5141,3681,7050,8491,5417,7397,2783,2258,3111,4320,3392,3391,7206,6833,2867,3450,3432,-584
team0_TOTALGOLD,2500,2500,2787,3955,4927,6620,7605,9089,11157,12332,13090,15212,17902,19176,21057,22511,23471,26840,27761,30087,33217,35136,35811,36964,38772,40946,41843,45657,46987,49718,51551,52434,52709
team0_LEVEL,5,5,5,11,16,20,22,25,29,32,33,35,38,38,41,43,44,47,49,51,54,54,54,57,59,59,59,63,66,68,70,70,70
team0_SBIRES,0,0,11,35,56,76,89,117,143,163,171,192,219,239,248,265,281,303,314,336,360,371,375,380,395,400,408,417,431,436,453,462,462
team1_KILLS,0,0,0,0,0,0,0,1,3,3,5,5,8,11,12,14,16,16,18,20,21,23,26,28,28,33,33,33,34,38,39,44,44
team1_CURRENTGOLD,2500,0,319,1537,2316,3262,4691,3329,2962,4768,4798,2931,3709,5974,4835,6571,5454,1820,3958,4646,4035,3257,4737,7497,4171,4742,6193,4632,3167,5458,2003,5554,4703
team1_TOTALGOLD,2500,2500,2819,4037,5251,6207,7646,8984,10567,12383,14278,15421,17699,21264,22765,25101,27666,28568,30706,32814,34223,35959,38540,41549,42523,45768,47618,48556,49677,53133,54727,58279,59419
team1_LEVEL,5,5,6,12,17,19,23,25,27,31,35,36,38,42,43,47,48,49,52,53,55,58,59,62,63,65,66,66,66,70,71,74,74
team1_SBIRES,0,0,6,29,53,67,89,98,109,140,163,175,186,208,227,244,260,266,289,307,317,330,345,361,368,380,400,402,402,419,429,449,458
delta_KILLS,0,0,0,0,0,2,2,2,2,2,0,1,1,-2,-1,-3,-5,-2,-4,-4,-2,-3,-6,-7,-6,-8,-8,-4,-5,-5,-5,-10,-10
delta_CURRENTGOLD,0,550,518,458,651,463,-2566,280,1805,304,-3048,941,2273,-268,-1148,-1430,-1773,5230,4533,771,3362,-474,-2479,-4386,149,-1350,-2802,2574,3666,-2591,1447,-2122,-5287
delta_TOTALGOLD,0,0,-32,-82,-324,413,-41,105,590,-51,-1188,-209,203,-2088,-1708,-2590,-4195,-1728,-2945,-2727,-1006,-823,-2729,-4585,-3751,-4822,-5775,-2899,-2690,-3415,-3176,-5845,-6710
delta_LEVEL,0,0,-1,-1,-1,1,-1,0,2,1,-2,-1,0,-4,-2,-4,-4,-2,-3,-2,-1,-4,-5,-5,-4,-6,-7,-3,0,-2,-1,-4,-4
delta_SBIRES,0,0,5,6,3,9,0,19,34,23,8,17,33,31,21,21,21,37,25,29,43,41,30,19,27,20,8,15,29,17,24,13,4
