name,frame_0,frame_1,frame_2,frame_3,frame_4,frame_5,frame_6,frame_7,frame_8,frame_9,frame_10,frame_11,frame_12,frame_13,frame_14,frame_15,frame_16,frame_17,frame_18,frame_19,frame_20,frame_21
nameStamp,Tstart,Tearly,Tearly,Tearly,Tearly,Tearly,Tearly,Tearly,Tearly,Tmid,Tmid,Tmid,Tmid,Tmid,Tmid,Tmid,Tmid,Tmid,Tmid,Tmid,Tmid,Tmid
timestamp,0,60009,120027,180038,240057,300062,360068,420095,480117,540123,600147,660159,720163,780182,840198,900214,960233,1020259,1080280,1140294,1200297,1260297
participant_0_GOLD,1400,1428,1841,2439,3008,3490,3925,4436,5354,6149,7824,8288,8783,9731,10519,10924,11833,12529,13708,14103,14924,15531
participant_0_CURRENTGOLD,1400,28,141,739,708,1190,725,1236,354,1149,2824,288,783,1131,1019,1424,2333,3029,4208,3,824,1431
participant_0_LEVEL,1,3,4,5,6,7,8,8,9,10,11,12,12,13,14,14,16,16,17,18,18,18
participant_0_MINIONSKILLED,0,0,1,5,5,7,8,12,14,18,22,23,27,31,37,37,45,48,56,57,60,64
participant_0_KILLS,0,0,0,0,0,0,0,0,1,2,4,4,4,5,5,5,6,7,9,9,9,9
participant_0_BUY,[],"[6670, 2003, 2003]",[1001],[],[1018],[],[1053],[],"[6673, 3086]",[],[],"[3085, 3006]",[],[1018],[1053],[],[],[],[],"[3072, 3094]",[],[]
participant_0_SOLD,[],[],[],[],[],"[2003, 2003]",[],[],"[6670, 1018, 1053]",[],[],"[3086, 1001]",[],[],[],[],[],[],[],"[1018, 1053]",[],[]
participant_0_UNDO,[],[],[],[],[],[],[],[],[],[],[],[],[],[],[],[],[],[],[],[],[],[]
participant_1_GOLD,1400,1616,2048,2496,3049,3677,4239,4677,5160,5979,6507,7424,8124,8705,9404,10382,11089,11562,12273,12920,13625,14052
participant_1_CURRENTGOLD,1400,216,198,646,149,777,1339,1777,260,1079,557,1474,724,505,1204,2182,2889,3362,4073,2820,625,1052
participant_1_LEVEL,1,3,4,5,6,7,8,8,9,10,11,11,11,12,13,15,16,16,17,18,18,18
participant_1_MINIONSKILLED,0,0,0,0,4,4,4,4,4,7,7,8,8,8,13,15,15,16,17,19,19,19
participant_1_KILLS,0,1,1,1,1,2,2,2,2,3,3,5,6,6,6,7,8,8,9,9,9,9
participant_1_BUY,[],"[6660, 2003, 2003, 2003, 2003, 2003, 1029]",[1033],[],"[3105, 1001]",[],[],[],"[3068, 1011, 1028]",[],"[3801, 3067]",[],"[3083, 3047]",[3076],[],[],[],[],[],[3075],[4401],[]
participant_1_SOLD,[],[2003],[2003],[],"[1033, 1029]",[],[],[],"[6660, 3105]",[],[1028],[],"[1011, 3067, 3801, 1001]",[],[],[],[],[],[],[3076],[],[]
participant_1_UNDO,[],"[[0, 2003], [0, 2003], [0, 2003]]",[],[],[],[],[],[],[],[],[],[],[],[],[],[],[],[],[],[],[],[]
participant_2_GOLD,1400,1428,1850,2911,3673,4179,4647,5067,5683,6181,6798,7299,7753,8508,9352,9802,10290,10815,11434,12115,13081,13351
participant_2_CURRENTGOLD,1400,1428,150,361,973,79,547,167,333,81,213,714,303,1058,1902,552,340,865,249,930,131,401
participant_2_LEVEL,1,3,4,5,6,7,7,8,9,10,10,11,12,13,13,14,15,15,16,17,18,18
participant_2_MINIONSKILLED,0,0,1,6,6,8,11,11,17,17,18,22,23,25,26,26,27,31,32,33,38,38
participant_2_KILLS,0,1,1,2,4,4,5,6,6,6,8,8,8,10,11,12,13,13,14,14,15,18
participant_2_BUY,[],"[6670, 2003, 2003]","[2003, 1018, 2003, 2003]",[],"[6672, 2003, 2003, 1001]",[],[],[],"[2003, 3006, 3086, 2003]",[],[],"[3508, 1036]",[3134],[],"[1053, 1018]",[],"[6676, 1018]",[],[],[],[3072],[]
participant_2_SOLD,[],[],"[2003, 2003]","[2003, 2003]","[2003, 6670, 1018]",[2003],[2003],[],[1001],[],[2003],[3086],[1036],[2003],[],[],"[3134, 1018]",[],[],[],"[1018, 1053]",[]
participant_2_UNDO,[],[],[],[],[],[],[],[],[],[],[],[],[],[],[],[],[],[],[],[],[],[]
participant_3_GOLD,1400,1701,2299,3012,4130,4643,5411,6135,6704,7356,8508,9031,9499,10593,11366,12081,12934,13390,14048,14585,15460,16542
participant_3_CURRENTGOLD,1400,301,149,862,80,593,1361,2085,554,1206,2358,471,189,1283,556,1271,224,680,1338,1875,850,1092
participant_3_LEVEL,1,3,4,5,7,7,8,9,10,11,12,12,13,14,14,15,16,16,17,17,18,18
participant_3_MINIONSKILLED,0,0,9,12,18,21,30,35,45,50,57,61,63,73,74,81,90,94,94,98,98,104
participant_3_KILLS,0,0,0,1,3,3,3,3,3,3,3,3,3,4,5,5,5,5,5,6,6,6
participant_3_BUY,[],[],"[3802, 1001, 2003, 2003]",[1026],"[2003, 2003, 2003]","[6655, 2003, 2003, 2003]",[],[3020],[1033],"[1052, 4632]","[2003, 1052]",[],[3102],[],[],"[3191, 3108]",[3157],[],"[3067, 1052]",[],[4629],[]
participant_3_SOLD,[],[],[],"[2003, 2003]","[2003, 2003]","[2003, 3802, 1026]",[2003],"[2003, 1001]",[2003],"[1033, 1052]",[],[2003],"[1052, 4632]",[],[],[],"[3191, 3108]",[],[],[],"[1052, 3067]",[]
participant_3_UNDO,[],[],[],[],[],[],[],[],[],[],[],[],[],[],[],[],[],[],[],[],[],[]
participant_4_GOLD,1400,1428,2054,2887,3405,3895,4337,4816,5295,6237,7035,7443,7959,8724,9333,10240,10885,11257,11925,13120,14265,14535
participant_4_CURRENTGOLD,1400,28,654,1487,755,1245,337,816,295,1237,2035,593,309,1074,1683,2590,1535,657,75,1270,2415,1785
participant_4_LEVEL,1,3,4,5,6,7,8,8,9,10,11,12,12,14,14,15,16,16,17,18,18,18
participant_4_MINIONSKILLED,0,0,1,3,5,7,9,10,11,13,17,17,20,24,24,26,26,26,26,29,30,30
participant_4_KILLS,0,0,1,2,2,2,2,2,2,4,4,4,4,5,5,7,8,8,9,12,14,14
participant_4_BUY,[],"[3145, 1001, 2003]",[],[],"[1026, 1028]",[],"[3152, 1033]",[],"[3111, 2420]",[],[],[3157],[3916],[],[],[],[3165],[4630],[3135],[],[],[3108]
participant_4_SOLD,[],[2003],[],[2010],[],[2010],"[3145, 1028, 1026]",[2010],"[1001, 1033]",[],[2420],[2421],[],[],[],[],[3916],[],[4630],[],[],[]
participant_4_UNDO,[],[],[],[],[],[],[],[],[],[],[],[],[],[],[],[],[],[],[],[],[],[]
participant_5_GOLD,1400,1400,1998,2695,3417,4057,4578,5128,6063,6531,7234,8097,8781,9380,10457,10947,11604,12130,12539,13110,13500,13934
participant_5_CURRENTGOLD,1400,0,598,1295,542,1182,1703,2253,3188,3656,434,697,1381,1980,1082,972,1629,2155,239,810,800,1234
participant_5_LEVEL,1,3,5,5,7,8,8,9,10,11,11,12,13,14,14,15,16,16,17,18,18,18
participant_5_MINIONSKILLED,0,0,4,7,10,15,18,21,24,25,25,27,30,32,33,36,39,43,44,50,50,56
participant_5_KILLS,0,0,0,1,2,2,2,2,2,2,3,4,4,4,6,6,6,6,6,6,6,6
participant_5_BUY,[],"[6670, 2003, 2003]",[],[],"[1037, 1018]",[],[],[],[],[],"[6671, 3134, 6676, 1001]",[3009],[],[],"[3133, 1037]",[1018],[],[],"[6675, 3086, 1042]",[],[2015],[]
participant_5_SOLD,[],[],[2052],[],[],[],"[2003, 2003]",[],[],[],"[6670, 1018, 1037, 3134]",[1001],[2052],[],[],[],[],[],"[3133, 1037, 1018]",[],[1042],[]
participant_5_UNDO,[],[],[],[],[],[],[],[],[],[],[],[],[],[],[],[],[],[],[],[],[],[]
participant_6_GOLD,1400,1400,2325,2782,3317,4237,4717,5176,6020,6653,7183,7595,8193,8829,9312,9729,10251,10829,11631,12306,12801,13099
participant_6_CURRENTGOLD,1400,0,925,1382,517,1437,1917,476,1320,353,448,460,1058,344,877,444,151,729,196,871,1366,1664
participant_6_LEVEL,1,3,5,5,6,7,8,9,10,10,11,12,13,13,14,14,15,15,16,17,18,18
participant_6_MINIONSKILLED,0,0,6,7,9,15,15,16,17,19,21,22,25,27,30,32,34,41,42,49,49,50
participant_6_KILLS,0,0,2,2,2,3,3,3,4,5,5,5,5,5,5,5,5,5,7,7,7,7
participant_6_BUY,[],"[3108, 1001, 2003, 2003, 2003, 2003]",[],[],"[4635, 2003, 2003]",[],[],[4633],[],[3157],[1052],[1028],[],"[1011, 1026]",[3020],[1026],[4637],[],"[1011, 1052]",[],[],[]
participant_6_SOLD,[],[2052],"[2003, 2003, 2003, 2003]",[],"[2003, 2003]",[],[],[4635],[],"[2052, 3108]",[],[],[],[1028],[1001],[],"[1026, 1011, 1052]",[],[],[],[],[]
participant_6_UNDO,[],[],[],[],[],[],[],[],[],[],[],[],[],[],"[[0, 1026]]",[],[],[],[],[],[],[]
participant_7_GOLD,1400,1400,1809,2488,3408,3880,4414,5222,6130,6735,7283,8475,9463,10118,11042,11462,12212,12826,13571,13988,14591,14867
participant_7_CURRENTGOLD,1400,0,59,738,1058,630,1164,1972,80,685,433,325,1313,368,792,612,62,676,1421,338,941,217
participant_7_LEVEL,1,3,4,5,6,7,8,8,9,10,11,11,13,13,14,14,15,16,16,17,18,18
participant_7_MINIONSKILLED,0,0,1,6,7,10,15,26,26,34,39,40,47,53,53,53,53,57,62,64,71,71
participant_7_KILLS,0,0,0,1,2,2,2,3,5,5,5,7,9,9,10,10,11,11,11,11,11,11
participant_7_BUY,[],"[6670, 2003, 2003]","[1001, 2003]",[],[1018],[1053],[],[],"[6673, 3086, 2015, 1042]",[],[3094],"[3057, 1018]",[],[3508],[3006],[1018],[1038],[],[],[3072],[],[1043]
participant_7_SOLD,[],"[2003, 2003]",[],[],[],[],[2003],[],"[6670, 1018, 1053]",[],"[3086, 2015]",[],[],"[3057, 1018]","[1001, 1042]",[],[],[],[],"[1038, 1018]",[],[]
participant_7_UNDO,[],[],[],[],[],[],[],[],[],[],[],[],[],[],[],[],[],[],[],[],[],[]
participant_8_GOLD,1400,1400,2457,2958,3399,3807,4296,4662,5357,5723,6441,6922,7737,8253,8613,9001,9625,10015,10601,11505,12590,12883
participant_8_CURRENTGOLD,1400,100,1157,1658,199,107,596,162,857,173,891,622,987,453,113,201,425,315,901,1805,1690,483
participant_8_LEVEL,1,3,5,5,6,7,7,8,9,9,10,11,12,12,12,13,13,14,15,16,16,16
participant_8_MINIONSKILLED,0,0,1,3,4,4,6,6,8,8,8,9,12,12,12,13,15,15,15,15,15,16
participant_8_KILLS,0,0,3,3,3,3,3,3,3,3,4,4,6,6,6,6,7,7,8,9,10,10
participant_8_BUY,[],"[6029, 2003, 2003]",[],[],"[3044, 1028, 3067]","[6630, 1001]",[],[3111],[],"[1029, 1033, 1029]",[],[3105],[1033],[3193],"[1036, 1036]",[1029],[3133],[1031],[],[],[6333],"[3044, 1028]"
participant_8_SOLD,[],[],"[2003, 2003]",[],[1028],"[6029, 3044, 3067]",[],[1001],[],[],[],"[1033, 1029]",[],"[1029, 3105, 1033]",[],[],"[1036, 1036]",[1029],[],[],"[1031, 3133]",[]
participant_8_UNDO,[],[],[],[],[],[],[],[],[],[],[],[],[],[],[],[],[],[],[],[],[],[]
participant_9_GOLD,1400,1400,1944,2446,3320,3877,4708,5203,6429,6882,7485,8164,8981,9563,10096,10609,11651,12041,12545,13811,14534,14966
participant_9_CURRENTGOLD,1400,0,544,1046,770,1327,2158,2653,3879,4332,685,1364,2181,2763,446,509,301,691,345,1611,684,1116
participant_9_LEVEL,1,3,5,5,7,7,8,9,10,11,11,13,14,14,15,15,16,16,17,18,18,18
participant_9_MINIONSKILLED,0,0,1,2,3,7,10,10,14,15,18,25,28,28,31,38,42,42,46,49,56,61
participant_9_KILLS,0,0,0,0,2,2,4,4,6,6,7,7,8,8,8,8,9,9,9,11,12,12
participant_9_BUY,[],"[3802, 2003, 2003]",[],[],"[1026, 1001]",[],[],[],[],[],"[6655, 4637]",[],[],[],"[3020, 3916, 1026, 1028]",[3165],[4630],[],[1026],[],"[3135, 1058]",[]
participant_9_SOLD,[],[2052],"[2003, 2003]",[],[],[],[],[],[],[2052],"[3802, 1026]",[],[],[],[1001],"[1026, 3916, 1028]",[],[],[],[],"[4630, 1026]",[]
participant_9_UNDO,[],[],[],[],[],[],[],[],[],[],[],[],[],[],[],[],[],[],[],[],[],[]
team0_KILLS,0,2,3,6,10,11,12,13,14,18,22,24,25,30,32,36,40,41,46,50,53,56
team0_CURRENTGOLD,7000,2001,1292,4095,2665,3884,4309,6081,1796,4752,7987,3540,2308,5051,6364,8019,7321,8593,9943,6898,4845,5761
team0_TOTALGOLD,7000,7601,10092,13745,17265,19884,22559,25131,28196,31902,36672,39485,42118,46261,49974,53429,57031,59553,63388,66843,71355,74011
team0_LEVEL,5,15,20,25,31,35,39,41,46,51,55,58,60,66,68,73,79,79,84,88,90,90
team0_SBIRES,0,0,12,26,38,47,62,72,91,105,121,131,141,161,174,185,203,215,225,236,245,255
team1_KILLS,0,0,5,7,11,12,14,15,20,21,24,27,32,32,35,35,38,38,41,44,46,46
team1_CURRENTGOLD,7000,100,3283,6119,3086,4683,7538,7516,9324,9199,2891,3468,6920,5908,3310,2738,2568,4566,3102,5435,5481,4714
team1_TOTALGOLD,7000,7000,10533,13369,16861,19858,22713,25391,29999,32524,35626,39253,43155,46143,49520,51748,55343,57841,60887,64720,68016,69749
team1_LEVEL,5,15,24,25,32,36,39,43,48,51,54,59,65,66,69,71,75,77,81,86,88,88
team1_SBIRES,0,0,13,25,33,51,64,79,89,101,111,123,142,152,159,172,183,198,209,227,241,254
delta_KILLS,0,2,-2,-1,-1,-1,-2,-2,-6,-3,-2,-3,-7,-2,-3,1,2,3,5,6,7,10
delta_CURRENTGOLD,0,1901,-1991,-2024,-421,-799,-3229,-1435,-7528,-4447,5096,72,-4612,-857,3054,5281,4753,4027,6841,1463,-636,1047
delta_TOTALGOLD,0,601,-441,376,404,26,-154,-260,-1803,-622,1046,232,-1037,118,454,1681,1688,1712,2501,2123,3339,4262
delta_LEVEL,0,0,-4,0,-1,-1,0,-2,-2,0,1,-1,-5,0,-1,2,4,2,3,2,2,2
delta_SBIRES,0,0,-1,1,5,-4,-2,-7,2,4,10,8,-1,9,15,13,20,17,16,9,4,1
