name,team0,team1
win,Win,Fail
firstBlood,False,True
firstTower,False,True
firstInhibitor,True,False
firstBaron,False,False
firstDragon,True,False
firstRiftHerald,False,False
towerKills,9,4
inhibitorKills,2,0
baronKills,0,0
dragonKills,1,0
riftHeraldKills,0,0
