name,frame_0,frame_1,frame_2,frame_3,frame_4,frame_5,frame_6,frame_7,frame_8,frame_9,frame_10,frame_11,frame_12,frame_13,frame_14,frame_15,frame_16,frame_17,frame_18,frame_19,frame_20,frame_21,frame_22,frame_23,frame_24,frame_25,frame_26,frame_27,frame_28,frame_29,frame_30,frame_31,frame_32,frame_33,frame_34
nameStamp,Tstart,Tearly,Tearly,Tearly,Tearly,Tearly,Tearly,Tearly,Tearly,Tearly,Tearly,Tearly,Tearly,Tearly,Tearly,Tearly,Tearly,Tearly,Tearly,Tearly,Tmid,Tmid,Tmid,Tmid,Tmid,Tmid,Tmid,Tmid,Tmid,Tmid,Tmid,Tmid,Tmid,Tmid,Tmid
timestamp,0,60011,120019,180050,240067,300076,360080,420086,480115,540121,600136,660142,720173,780186,840215,900218,960251,1020252,1080252,1140260,1200269,1260273,1320306,1380308,1440314,1500325,1560335,1620352,1680383,1740396,1800404,1860410,1920423,1980437,2040437
participant_0_GOLD,500,500,520,957,1164,1412,1563,1930,2216,2562,2756,3052,3294,3605,4272,4708,5107,5489,6250,6414,6537,7322,7907,8507,8803,9614,9736,9958,10283,10801,11373,11858,13411,14275,15046
participant_0_CURRENTGOLD,500,50,70,107,314,562,213,580,116,462,656,952,369,680,647,433,832,1214,1975,156,279,1064,1649,49,345,1156,678,86,410,928,726,1210,2764,3628,4338
participant_0_LEVEL,1,1,1,2,2,3,3,4,5,6,6,6,7,7,8,8,8,9,10,10,10,11,11,12,12,12,12,13,13,13,14,14,15,15,16
participant_0_MINIONSKILLED,0,0,0,1,6,11,13,27,28,37,38,45,48,54,59,60,72,82,93,95,95,99,104,109,115,118,118,118,125,129,129,141,143,151,158
participant_0_KILLS,0,0,0,0,0,0,0,0,0,0,0,1,1,3,3,5,6,6,6,7,7,8,10,10,10,10,10,12,12,12,12,12,13,13,13
participant_0_BUY,[],"[1039, 3340, 2031]",[],[],[],[],[],[],"[6660, 1029]",[],[],[],[6662],[],"[3047, 1028]",[],[],[],[],[3075],[],[],[],"[3082, 3067, 1029]",[],"[3143, 1033]",[],[],"[1057, 1028]",[],[3066],[],[],"[4401, 3067]",[]
participant_0_SOLD,[],[],[],[],[],[],[],[],[],[],[1039],[],"[6660, 1029]",[],[],[],[],[],[],[1028],[],[],[],[2031],[],"[3082, 1029, 3067]",[],[],[1033],[],[1028],[],[],"[1057, 3066]",[]
participant_0_UNDO,[],[],[],[],[],[],[],[],[],[],[],[],[],[],[],[],[],[],[],[],[],[],[],[],[],[],[],[],[],[],[],[],[],[],[]
participant_1_GOLD,500,500,669,963,1263,1575,1860,2117,2324,2547,3207,3754,3961,5014,5286,6158,6605,6832,7102,7737,8001,8709,9748,9920,10190,10619,10895,11656,11778,12037,12456,12663,13235,13955,14173
participant_1_CURRENTGOLD,500,0,169,463,763,1075,1360,1617,524,747,1407,1954,261,1314,86,958,1405,1632,1902,237,501,1209,2248,380,650,29,305,1066,339,597,617,824,1396,115,273
participant_1_LEVEL,1,1,2,3,3,4,5,5,6,6,7,7,8,8,8,9,10,10,10,11,11,12,12,12,13,13,13,14,14,14,14,14,15,16,16
participant_1_MINIONSKILLED,0,0,0,0,0,0,0,0,0,0,0,0,0,1,1,1,1,1,4,8,11,18,20,20,24,28,28,29,29,30,36,36,36,39,39
participant_1_KILLS,0,0,0,0,0,0,0,0,0,0,1,2,2,2,2,2,2,2,2,3,3,3,3,3,3,3,4,4,4,5,6,6,6,7,10
participant_1_BUY,[],"[1052, 2003, 3340]",[],[],"[2003, 2003, 2003, 2003, 2003, 2003]",[],[],[],"[3802, 2003, 2003]",[],[],[],[],"[3108, 2003, 2003, 2003, 2003, 1042, 1042]",[],[],[],[],[],[],"[6653, 3086, 1042, 1042, 2003, 2003, 2003, 2003]",[],[],[],[3085],"[1052, 2003]","[1026, 2003]",[],"[2003, 2003]",[1042],[1043],[3115],[],[],[]
participant_1_SOLD,[],[],[2003],[],[2003],[2003],"[2003, 2003]",[2003],"[2003, 1052]",[],[],[2003],[],[],[],[],[2003],"[2003, 2003]",[],[2003],"[3802, 3108, 1042, 1042, 1042]",[2003],[],[],"[3086, 1042]","[2003, 2003]",[2003],[],[],[],[1042],"[2003, 2003, 1043, 1026, 1052]",[],[],[]
participant_1_UNDO,[],[],[],[],[],[],[],[],[],[],[],[],[],[],[],[],[],[],[],[],[],[],[],[],[],[],[],[],[],[],[],[],[],[],[]
participant_2_GOLD,500,500,611,881,1102,1378,1627,1861,2074,2288,2738,2938,3116,3451,3884,4207,4414,4626,4844,5570,5785,6595,6971,7254,7677,8470,8592,8916,9038,9625,10064,10186,10459,11278,11995
participant_2_CURRENTGOLD,500,500,111,381,602,878,1127,1361,274,488,88,288,466,801,1234,1557,1764,1976,209,935,1150,1960,2336,219,642,1435,307,631,138,726,464,152,424,1244,1960
participant_2_LEVEL,1,1,1,3,4,5,6,7,7,8,8,9,9,10,10,10,11,11,11,12,12,13,13,13,13,14,14,14,14,15,15,15,15,16,16
participant_2_MINIONSKILLED,0,0,5,13,19,28,35,42,48,53,55,60,63,67,68,69,75,76,77,82,87,91,92,95,95,103,103,104,104,105,108,108,108,117,121
participant_2_KILLS,0,0,0,0,0,0,0,0,1,1,1,1,1,1,1,1,1,2,2,2,2,2,2,2,2,2,2,2,2,2,2,2,2,2,2
participant_2_BUY,[],"[3340, 2003, 2003, 3850]",[],[1029],[],[],[],[],[],"[3191, 3117, 2055]",[],[],[],[],[],"[3108, 2055]",[3157],[],[1026],[],[],[],[],"[3504, 1028, 3364]",[],[],[3067],[1028],[],[3066],[],[],[],[],[]
participant_2_SOLD,[],[],[2003],[2003],[],[],[],[],[],[1029],[],"[2419, 2055]",[3850],[],[],[],"[3191, 3108, 2423]",[],[],[],[3851],[2055],[],"[1026, 3340]",[],[],[1028],[],[],[1028],[],[],[],[],[]
participant_2_UNDO,[],[],[],[],[],[],[],[],[],[],[],[],[],[],[],[],[],[],[],[],[],[],[],[],[],[],[],[],[],[],[],[],[],[],[]
participant_3_GOLD,500,500,583,748,885,1021,1350,1591,1755,1920,2475,3089,3459,3694,3865,4283,4570,4797,5073,6177,6355,6830,7449,8015,8339,8643,9230,9402,9544,10300,10886,11008,11364,12325,13628
participant_3_CURRENTGOLD,500,15,98,263,100,236,565,806,5,170,725,1339,1709,244,415,833,1120,1347,1623,2727,425,900,1519,2085,509,328,15,187,230,685,571,19,374,1335,2178
participant_3_LEVEL,1,1,1,3,3,4,5,6,6,7,7,8,8,9,9,10,10,11,11,12,12,13,13,13,14,14,14,14,14,15,15,15,15,16,17
participant_3_MINIONSKILLED,0,0,3,5,6,7,16,23,26,28,31,32,42,49,52,57,62,68,73,75,78,85,93,98,106,106,110,110,110,113,114,114,122,138,149
participant_3_KILLS,0,0,0,0,0,0,0,0,0,0,1,1,1,1,2,2,2,2,2,3,3,5,5,5,6,7,7,7,7,8,9,9,9,10,11
participant_3_BUY,[],[],[2033],[],[],[],[],[],[3802],[],[1026],[],[],[],[],[],[],[],"[6655, 1001, 1052]",[],[],[],[],"[3020, 3041]",[],[],[1058],[],"[3145, 3145]",[],[4628],[1052],[],[],[]
participant_3_SOLD,[],[],[],[],"[2403, 2403]",[2403],[],[],[],[],[],[],[],[],[],[],[],[],"[3802, 1026]",[],[],[],[],[1001],[],[],[],[],"[1052, 1052]",[],"[1058, 3145]",[],[],[],[]
participant_3_UNDO,[],[],[],[],[],[],[],[],[],[],[],[],[],[],[],[],[],[],[],[],[],[],[],[],[],[],[],[],"[[0, 3145]]",[],[],[],[],[],[]
participant_4_GOLD,500,500,582,841,1055,1251,1399,1533,2348,2502,2696,2925,3132,3407,3588,3948,4108,4583,4798,5013,5305,6080,6454,6713,7003,7350,7559,7777,7917,8058,8198,8339,8766,9107,9634
participant_4_CURRENTGOLD,500,0,82,-9,205,401,549,683,1498,-73,121,350,557,832,1013,398,58,533,-152,63,355,1130,1504,-137,153,500,309,77,217,-92,48,189,616,957,1834
participant_4_LEVEL,1,1,1,1,2,3,3,4,5,5,5,6,6,7,7,8,8,8,8,9,9,10,11,11,11,12,12,12,12,12,12,12,13,13,14
participant_4_MINIONSKILLED,0,0,0,0,0,1,2,2,2,2,2,3,5,5,5,5,5,5,5,6,10,13,13,13,13,14,14,16,16,16,16,16,16,16,17
participant_4_KILLS,0,0,0,1,1,1,1,1,1,1,1,1,1,1,2,3,3,3,4,4,4,5,5,6,6,8,8,8,8,8,9,9,12,12,12
participant_4_BUY,[],"[3070, 3340, 2003]",[],"[1027, 2003]",[],[],"[1036, 2031]",[],[3133],[],[],[],"[3004, 2055]",[],[3057],"[1042, 1036]",[],[],[],[3078],[],[],[],"[1053, 1043, 1001]",[],[],[3158],[1037],[],[],"[3153, 1033]",[],[],[],[]
participant_4_SOLD,[],[],[2003],[2010],[2003],[],[],[],[1036],[2010],[],[],"[3070, 3133, 1027]",[2010],[],[],[],[],[],"[3057, 1042, 1036]",[],[2055],[3004],[],[],[],[1001],[2031],[],[],"[1053, 1043, 1037]",[],[],[],[]
participant_4_UNDO,[],[],[],[],[],[],[],[],[],[],[],[],[],[],[],[],[],[],[],[],[],[],[],[],[],[],[],[],[],[],[],[],[],[],[]
participant_5_GOLD,500,500,562,871,1454,1723,1944,2223,2631,2935,3246,3723,3887,4435,5155,5368,5659,5955,6254,6427,6793,7021,7193,7447,7704,8296,8909,9312,9566,9983,10991,11113,11305,11581,11755
participant_5_CURRENTGOLD,500,0,62,371,954,1223,244,523,931,85,396,873,112,660,1380,168,459,355,654,527,893,1121,1293,297,554,1146,884,362,496,513,1171,743,61,336,5
participant_5_LEVEL,1,1,1,3,4,5,6,6,7,7,8,8,9,9,10,10,11,11,12,12,12,12,13,13,13,13,14,14,15,15,15,15,15,16,16
participant_5_MINIONSKILLED,0,0,2,10,18,26,31,37,50,51,62,65,68,71,84,90,99,105,111,111,122,128,128,132,137,137,137,139,143,143,149,149,149,154,157
participant_5_KILLS,0,0,0,0,0,0,0,0,1,1,3,3,3,3,3,3,3,3,3,3,3,3,3,3,3,3,3,3,3,3,3,3,3,3,3
participant_5_BUY,[],"[3850, 2003, 2003, 3340]",[],"[2031, 2055]",[],[],"[2033, 2055]",[],[],[],[3117],"[3802, 3364]",[],[],[1026],[],[2055],[],[],[],"[6655, 2055]",[],"[1052, 2055]",[],[],[],[],[],[],[1026],[],[],[],"[3116, 2055]",[]
participant_5_SOLD,[],[],[],"[2010, 2003, 2003]",[],[2010],[2031],[2055],[2010],[],"[3850, 2422]",[3340],[2055],[],[],[],[],[3851],[2055],[],"[3802, 1026]",[2055],[],[],[],[],[],[2055],[],[],[],[],[],"[1026, 1052]",[]
participant_5_UNDO,[],[],[],[],[],[],[],[],[],[],[],[],[],[],[],[],[],[],[],[],[],[],[],[],[],[],[],[],[],[],[],[],[],[],[]
participant_6_GOLD,500,500,620,1018,1411,1668,1791,2103,2350,2743,2865,3158,3470,3697,3920,4052,4275,4482,4910,5666,5788,6150,6272,6394,6757,7019,7141,7363,7571,7693,7979,8144,8266,8388,8507
participant_6_CURRENTGOLD,500,0,120,518,911,68,191,503,750,1143,90,383,295,522,445,577,800,274,702,1458,105,467,189,311,674,196,318,540,198,320,606,771,18,140,199
participant_6_LEVEL,1,1,2,3,3,4,4,4,5,6,6,6,7,7,7,7,7,8,8,10,10,10,10,10,10,11,11,11,11,11,12,12,12,12,13
participant_6_MINIONSKILLED,0,0,0,0,0,0,0,0,0,0,0,0,0,1,1,2,2,2,4,4,4,8,8,8,8,11,11,11,11,11,14,17,17,17,17
participant_6_KILLS,0,0,0,0,0,0,0,0,0,0,0,0,0,0,0,0,0,0,0,1,1,1,1,1,1,1,1,1,1,1,1,1,1,1,1
participant_6_BUY,[],"[1035, 2031, 3340]",[],[],[],[3051],[],[],[],[],"[3057, 1028, 2055, 3364]",[],[3067],[],[1001],[],[],[3078],[],[],"[3006, 1042, 1042, 2055]",[],[1043],[],[],"[1036, 1033]",[],[],[1053],[],[],[],[1037],[],[]
participant_6_SOLD,[],[],[],[],[],[],[],[],[],[1035],[3340],[2055],[1028],[],[],[],[],"[3057, 3051, 3067]",[3364],[],[1001],[3513],"[1042, 1042, 2055]",[],[],[2031],[],[],[1036],[],[],[],[],[],[]
participant_6_UNDO,[],[],[],[],[],[],[],[],[],[],[],[],[],[],[],[],[],[],[],[],[],[],[],[],[],[],[],[],[],[],[],[],[],[],[]
participant_7_GOLD,500,500,520,1392,1673,1942,2602,2724,3073,3371,4136,4644,5211,5683,6155,6613,6777,7321,7443,8445,8568,8690,8987,9264,9693,9945,10067,10985,11678,11869,12329,12619,12792,12935,13067
participant_7_CURRENTGOLD,500,0,20,17,298,567,1227,149,148,446,1456,644,1211,1683,5,463,202,746,318,1320,243,15,313,189,618,870,393,1310,2004,70,529,470,642,786,-258
participant_7_LEVEL,1,1,1,2,3,4,5,5,5,6,7,7,8,8,9,9,9,10,10,11,11,11,11,12,12,12,12,13,13,13,14,14,14,14,15
participant_7_MINIONSKILLED,0,0,0,3,10,19,29,29,34,44,55,61,74,74,74,76,79,85,85,94,94,94,97,106,110,113,113,120,127,127,134,136,136,137,138
participant_7_KILLS,0,0,0,0,1,1,1,1,1,1,1,2,2,3,3,3,3,3,3,3,3,3,3,3,3,4,5,5,5,6,8,8,8,8,8
participant_7_BUY,[],"[1055, 2003, 3340]",[],[],[],[],"[3006, 2003, 2003]",[],[],"[3133, 2003]",[],[],"[1037, 2003]",[],[],"[1018, 6675]",[],"[1036, 2003]",[],[1042],[],[],[],"[6670, 1018]",[],[],[1037],"[6672, 1042]",[1042],[1043],[1036],[1053],[1037],[],[3153]
participant_7_SOLD,[],[],[2003],[],[],[],[],"[2003, 2003]",[],[],[],[],[],[],[],"[3133, 1037, 1018]",[2003],[],[],[],[],[2003],[],"[1036, 1042]",[2003],[],[],"[6670, 1018, 1037]",[1055],"[1042, 1042]",[],[1036],[],[],"[1053, 1043, 1037]"
participant_7_UNDO,[],[],[],[],[],[],[],[],[],[],[],[],[],[],[],[],[],[],[],[],[],[],[],[],[],[],[],[],[],[],[],[],[],[],[]
participant_8_GOLD,500,500,611,888,1102,1343,1557,1798,1920,2113,2670,2924,3109,3301,3766,4028,4277,4995,5180,6237,6359,6482,6954,7229,7437,8239,9136,9417,10457,10971,11693,12027,12449,12871,13980
participant_8_CURRENTGOLD,500,0,111,388,602,843,1057,1298,120,313,170,414,599,491,956,418,667,1385,320,1377,299,422,894,1169,1377,879,1776,2057,3097,1111,1834,467,889,1312,980
participant_8_LEVEL,1,1,1,3,4,5,6,7,7,7,8,9,9,9,10,10,10,11,11,12,12,12,12,12,13,13,14,14,14,15,15,15,15,16,16
participant_8_MINIONSKILLED,0,0,5,14,20,27,32,39,39,43,47,52,56,61,63,68,76,80,84,89,89,89,89,94,96,99,104,109,112,115,115,117,117,117,118
participant_8_KILLS,0,0,0,2,2,2,3,3,3,3,3,4,4,5,6,7,7,8,8,9,9,9,9,9,9,9,9,11,12,12,12,12,12,12,12
participant_8_BUY,[],"[1055, 2003, 3340]",[],"[1018, 1036, 1036, 2055, 2003, 2003]",[],[],[],"[6670, 1018]",[1036],[],[],[6672],[],[],"[3006, 1043, 1036]",[],"[1036, 2055]",[],[1053],[],[3153],[1036],[],[3133],[],[],[1018],[],[],"[6675, 1036, 2055]",[],[1036],[],[],[3035]
participant_8_SOLD,[],[],[],[2003],[],[2055],[2003],"[1036, 1036]",[],[],"[2003, 1036]","[1055, 6670, 1018]",[],[],[2422],[],[],[2055],[1036],[],"[1053, 1043]",[],[],"[1036, 1036]",[],[],[],[],[],"[3133, 1018]",[2055],[],[],[],"[1036, 1036]"
participant_8_UNDO,[],[],[],"[[0, 1018]]",[],[],[],[],[],[],[],[],[],[],[],[],[],[],[],[],[],[],[],[],[],[],[],[],[],[],[],[],[],[],[]
participant_9_GOLD,500,500,582,870,1044,1258,1443,1577,2189,2423,3217,3418,3632,3948,4102,4492,4633,4793,4933,5572,5742,5883,6073,6213,6550,6867,7038,7253,7493,7702,8300,8440,8630,9047,9346
participant_9_CURRENTGOLD,500,0,82,145,319,533,293,457,1069,1303,1397,298,512,828,132,522,588,748,888,1527,372,513,193,333,670,988,1158,1373,1613,972,1570,1710,1901,527,796
participant_9_LEVEL,1,1,1,1,2,3,4,4,5,5,6,6,7,7,7,7,8,8,8,9,9,9,9,10,10,10,10,10,11,11,13,13,13,13,14
participant_9_MINIONSKILLED,0,0,0,0,0,0,1,1,4,4,4,4,7,7,8,8,8,8,8,14,15,15,15,15,16,17,18,18,20,20,24,24,24,32,33
participant_9_KILLS,0,0,0,0,0,0,0,0,0,0,1,1,1,1,2,2,2,3,3,4,4,4,5,5,5,6,7,7,8,9,11,11,12,13,14
participant_9_BUY,[],"[3340, 2003, 1056, 2003]",[],[],[],[],[],[],[3802],[],[1026],[],[],[1001],[],[3020],[],[],[6655],[],[4632],[],[],[],[],[3102],[],[],[],[3135],[],"[3067, 3108]",[],[],[4629]
participant_9_SOLD,[],[],[],[],[],[2003],[],[],[],[2003],[1056],[],[],[],[],[1001],[],[],"[3802, 1026]",[],[],[],[],[],[],[4632],[],[],[],[],[],[],[],[],"[3108, 3067]"
participant_9_UNDO,[],[],[],[],[],[],[],[],[],[],[],[],[],[],[],[],[],[],[],[],[],[],[],[],[],[],[],[],[],[],[],[],[],[],[]
team0_KILLS,0,0,0,1,1,1,1,1,2,2,4,6,6,8,10,13,14,15,16,19,19,23,25,26,27,30,31,33,33,35,38,38,42,44,48
team0_CURRENTGOLD,2500,565,530,1205,1984,3152,3814,5047,2417,1794,2997,4883,3362,3871,3395,4179,5179,6702,5557,4118,2710,6263,9256,2596,2299,3448,1614,2047,1334,2844,2426,2394,5574,7279,10583
team0_TOTALGOLD,2500,2500,2965,4390,5469,6637,7799,9032,10717,11819,13872,15758,16962,19171,20895,23304,24804,26327,28067,30911,31983,35536,38529,40409,42012,44696,46012,47709,48560,50821,52977,54054,57235,60940,64476
team0_LEVEL,5,5,6,12,14,19,22,26,29,32,33,36,38,41,42,45,47,49,50,54,54,59,60,61,63,65,65,67,67,69,70,70,73,76,79
team0_SBIRES,0,0,8,19,31,47,66,94,104,120,126,140,158,176,185,192,215,232,252,266,281,306,322,335,353,369,373,377,384,393,403,415,425,461,484
team1_KILLS,0,0,0,2,3,3,4,4,5,5,8,10,10,12,14,15,15,17,17,20,20,20,21,21,21,23,25,27,29,31,35,35,36,37,38
team1_CURRENTGOLD,2500,0,395,1439,3084,3234,3012,2930,3018,3290,3509,2612,2729,4184,2918,2148,2716,3508,2882,6209,1912,2538,2882,2299,3893,4079,4529,5642,7408,2986,5710,4161,3511,3101,1722
team1_TOTALGOLD,2500,2500,2895,5039,6684,7934,9337,10425,12163,13585,16134,17867,19309,21064,23098,24553,25621,27546,28720,32347,33250,34226,35479,36547,38141,40366,42291,44330,46765,48218,51292,52343,53442,54822,56655
team1_LEVEL,5,5,6,12,16,21,25,26,29,31,35,36,40,40,43,43,45,48,49,54,54,54,55,57,58,59,61,62,64,65,69,69,69,71,74
team1_SBIRES,0,0,7,27,48,72,93,106,127,142,168,182,205,214,230,244,264,280,292,312,324,334,337,355,367,377,383,397,413,416,436,443,443,457,463
delta_KILLS,0,0,0,-1,-2,-2,-3,-3,-3,-3,-4,-4,-4,-4,-4,-2,-1,-2,-1,-1,-1,3,4,5,6,7,6,6,4,4,3,3,6,7,10
delta_CURRENTGOLD,0,565,135,-234,-1100,-82,802,2117,-601,-1496,-512,2271,633,-313,477,2031,2463,3194,2675,-2091,798,3725,6374,297,-1594,-631,-2915,-3595,-6074,-142,-3284,-1767,2063,4178,8861
delta_TOTALGOLD,0,0,70,-649,-1215,-1297,-1538,-1393,-1446,-1766,-2262,-2109,-2347,-1893,-2203,-1249,-817,-1219,-653,-1436,-1267,1310,3050,3862,3871,4330,3721,3379,1795,2603,1685,1711,3793,6118,7821
delta_LEVEL,0,0,0,0,-2,-2,-3,0,0,1,-2,0,-2,1,-1,2,2,1,1,0,0,5,5,4,5,6,4,5,3,4,1,1,4,5,5
delta_SBIRES,0,0,1,-8,-17,-25,-27,-12,-23,-22,-42,-42,-47,-38,-45,-52,-49,-48,-40,-46,-43,-28,-15,-20,-14,-8,-10,-20,-29,-23,-33,-28,-18,4,21
