name,team0,team1
win,Win,Fail
firstBlood,False,True
firstTower,False,True
firstInhibitor,True,False
firstBaron,False,False
firstDragon,True,False
firstRiftHerald,False,False
towerKills,11,7
inhibitorKills,3,1
baronKills,0,0
dragonKills,3,1
riftHeraldKills,0,0
