name,frame_0,frame_1,frame_2,frame_3,frame_4,frame_5,frame_6,frame_7,frame_8,frame_9,frame_10,frame_11,frame_12,frame_13,frame_14,frame_15,frame_16,frame_17,frame_18,frame_19,frame_20,frame_21,frame_22,frame_23
nameStamp,Tstart,Tearly,Tearly,Tearly,Tearly,Tearly,Tearly,Tearly,Tearly,Tmid,Tmid,Tmid,Tmid,Tmid,Tmid,Tmid,Tmid,Tmid,Tmid,Tmid,Tmid,Tmid,Tmid,Tmid
timestamp,0,60024,120046,180065,240085,300102,360129,420157,480169,540182,600203,660220,720243,780266,840282,900299,960324,1020342,1080365,1140387,1200409,1260429,1320453,1380486
participant_0_GOLD,1400,1432,1915,2342,2893,3348,4535,4925,5727,6596,7185,7581,8370,9173,9769,10348,10864,11266,12624,13426,14413,15508,15970,17532
participant_0_CURRENTGOLD,1400,182,665,292,843,423,1610,675,677,246,835,881,1670,2473,3069,898,1414,116,1474,976,1963,3058,520,2082
participant_0_LEVEL,1,3,4,5,6,7,8,9,10,11,12,12,13,14,15,16,16,17,18,18,18,18,18,18
participant_0_MINIONSKILLED,0,0,0,1,2,3,4,4,6,7,8,8,10,14,14,14,16,16,20,20,24,26,26,31
participant_0_KILLS,0,0,0,0,0,0,1,1,2,3,4,4,4,5,6,6,6,6,7,9,10,12,12,15
participant_0_BUY,[],"[3044, 2031]",[],[3067],[],[1037],[],"[6630, 1031]",[3066],[3742],[],[1036],[],[],[],[3053],[],"[3134, 1018]",[],[6676],[],[],"[1033, 6035]",[]
participant_0_SOLD,[],[],[],[],[],[],[],"[1037, 3044, 3067]",[],"[3066, 1031]",[],[],[],[],[],[1036],[],[],[],"[3134, 1018]",[],[],"[2031, 1033]",[]
participant_0_UNDO,[],[],[],[],[],[],[],[],[],[],[],[],[],[],[],[],[],[],[],[],[],[],"[[2031, 0]]",[]
participant_1_GOLD,1400,1432,1941,2625,3250,3704,4188,4714,5799,6762,7233,7744,8754,9462,9858,10707,11342,11744,12877,13329,13824,14507,15305,16160
participant_1_CURRENTGOLD,1400,82,591,1275,1900,2354,438,164,149,1112,433,944,1954,2662,558,857,1492,244,1377,339,834,1517,2315,470
participant_1_LEVEL,1,3,4,5,6,7,8,8,9,10,11,12,13,14,14,15,16,16,18,18,18,18,18,18
participant_1_MINIONSKILLED,0,0,0,2,5,5,5,8,9,15,15,20,25,28,28,32,42,42,52,52,52,60,64,69
participant_1_KILLS,0,0,0,1,1,1,1,1,3,4,4,4,5,6,6,8,8,8,10,10,10,10,11,11
participant_1_BUY,[],"[6029, 2031]",[],[],[],[],"[6630, 1001]",[3111],[3133],[],"[3067, 1036]",[],[],[],"[3071, 3077, 1036, 3133, 1036]",[1053],[],"[3074, 1036]",[],"[3133, 1031]",[],[],[],"[6333, 3105]"
participant_1_SOLD,[],[],[],[],[],[],[6029],[1001],[],[],[],[],[],[],"[3133, 3067, 1036]",[1036],[],"[1053, 3133]",[],"[1036, 2031]",[],[],[],"[1031, 3133]"
participant_1_UNDO,[],[],[],[],[],[],[],[],[],[],[],[],[],[],"[[0, 1036], [0, 3077]]",[],[],[],[],[],[],[],[],[]
participant_2_GOLD,1400,1680,2688,3322,4559,5181,6564,6984,8341,9251,9858,10691,12032,12928,13633,14514,15467,16222,17194,17606,18826,20202,20621,22109
participant_2_CURRENTGOLD,1400,280,38,672,1909,481,1864,2284,1541,2451,1858,791,2132,3028,3733,1474,2427,447,1419,1831,3051,4427,2546,4034
participant_2_LEVEL,1,3,4,5,6,7,8,9,11,11,12,12,14,14,15,16,17,17,18,18,18,18,18,18
participant_2_MINIONSKILLED,0,0,2,2,5,5,9,9,16,20,21,25,30,31,31,32,37,37,41,41,53,56,57,62
participant_2_KILLS,0,1,4,5,8,9,12,12,14,15,16,17,20,22,23,25,26,27,29,29,30,33,33,35
participant_2_BUY,[],"[3177, 1036, 2003, 2003]","[3134, 1036, 2031]",[],[],"[6692, 1001]",[],[],"[3077, 1053]",[],[3074],"[3047, 3134]",[],[],[],"[6676, 3155]",[],"[3156, 2140, 3134]",[],[],[],[],"[3814, 2140]",[]
participant_2_SOLD,[],[],"[2003, 2003, 1036]",[],[],"[3134, 1036]",[],[],[],[],"[3077, 1053]",[1001],[],[],[],"[3134, 2031]",[],"[3155, 2140, 3177]",[],[],[],[],"[3134, 2140]",[]
participant_2_UNDO,[],[],[],[],[],[],[],[],[],[],[],[],[],[],[],[],[],[],[],[],[],[],[],[]
participant_3_GOLD,1400,1400,2129,2643,3204,3643,4267,4837,5376,5982,6414,6962,8040,8582,8993,9479,9845,10272,10935,11378,12068,12624,13093,14001
participant_3_CURRENTGOLD,1400,0,729,1243,329,768,217,487,226,832,364,912,1990,2532,143,629,395,842,630,448,38,204,673,981
participant_3_LEVEL,1,3,4,5,6,7,7,8,9,10,10,11,12,13,14,14,14,15,16,16,17,18,18,18
participant_3_MINIONSKILLED,0,0,4,8,10,12,13,13,15,15,15,21,26,26,26,26,26,29,38,39,42,46,51,53
participant_3_KILLS,0,0,1,1,1,1,2,3,3,3,3,3,4,4,4,4,4,4,4,4,5,5,5,5
participant_3_BUY,[],"[6670, 2003, 2003]",[],[],"[1037, 1018]",[],"[6672, 1001, 2003, 2003, 2003, 2003, 2003]",[1042],"[3006, 1042]",[],[3086],[],[],[],"[3046, 1038]",[],[1018],[],[1037],[3031],"[3123, 1042]",[1018],[],[3086]
participant_3_SOLD,[],[],"[2003, 2003]",[],[],[],"[6670, 1018, 1037]",[],"[1001, 1042]",[],"[2003, 2003, 1042]","[2003, 2003]",[],[],[3086],[],"[2052, 2052]",[2003],[],"[1038, 1037, 1018]",[],[1042],[],[1018]
participant_3_UNDO,[],[],[],[],[],[],[],[],[],[],[],[],[],[],[],[],[],[],[],[],[],[],[],[]
participant_4_GOLD,1400,1432,1941,2405,2870,3359,4237,4644,5160,5804,6286,7280,8065,8497,9105,9523,10034,10447,10983,11383,11803,12312,12726,13760
participant_4_CURRENTGOLD,1400,32,541,5,470,509,1387,44,110,104,286,80,865,397,105,523,1034,607,243,643,263,772,1186,2220
participant_4_LEVEL,1,3,4,5,6,7,8,9,10,10,11,12,13,13,14,15,15,16,16,17,17,18,18,18
participant_4_MINIONSKILLED,0,0,0,0,0,1,6,7,7,7,8,9,11,11,11,11,14,15,15,15,15,15,15,21
participant_4_KILLS,0,0,0,0,0,0,1,1,1,1,1,2,2,2,3,3,3,3,3,3,3,3,3,3
participant_4_BUY,[],"[2051, 1001, 2031]",[],[6660],[],[1033],[],[3068],[1033],"[3111, 1029]",[1029],"[3082, 3067]",[],[3143],[1057],[],[],[1011],[3001],[],"[1029, 2138]",[],[],[]
participant_4_SOLD,[],[],[],[],[],[],[],"[6660, 1033]",[],"[1001, 1033]",[],"[1029, 1029]",[],"[3082, 3067]",[],[],[],[2031],"[1011, 1057]",[],[2138],[],[],[]
participant_4_UNDO,[],[],[],[],[],[],[],[],[],[],[],[],[],[],[],[],[],[],[],[],[],[],[],[]
participant_5_GOLD,1400,1400,1853,2780,3208,4101,4576,5274,6263,6989,8480,9124,9615,10202,10927,11618,12198,13013,13553,14697,15465,16411,16771,17376
participant_5_CURRENTGOLD,1400,0,103,1030,483,1376,326,1024,1513,739,2230,224,715,1302,1227,1918,1298,2113,613,1757,225,1171,1031,1636
participant_5_LEVEL,1,3,4,5,6,7,8,9,10,10,12,12,13,13,14,15,15,16,16,18,18,18,18,18
participant_5_MINIONSKILLED,0,0,3,11,14,26,27,35,42,50,56,59,63,70,71,75,82,88,88,102,104,106,106,107
participant_5_KILLS,0,0,0,2,2,3,3,3,4,5,8,8,8,8,9,10,10,10,11,12,14,16,16,17
participant_5_BUY,[],"[3177, 6670, 2003, 2003]","[1001, 2003]",[],"[1037, 2003, 2003]",[],"[6672, 1042]",[],[3006],"[1038, 1053, 1018]",[],"[3072, 2003, 2003, 2420]",[],[],"[3086, 3123]",[],[3086],[],"[3046, 1031]",[],[6333],[],[2140],[]
participant_5_SOLD,[],[],"[2003, 2003]",[2003],[],[2003],"[2003, 6670, 1037]",[],"[1001, 1042]",[],[],"[1018, 1053]",[],[2420],"[2003, 2003]",[],[],[],"[3086, 2421]",[],[1031],[],[2140],[]
participant_5_UNDO,[],"[[0, 3177]]",[],[],[],[],[],[],[],"[[0, 1038]]",[],[],[],[],"[[0, 3086]]",[],[],[],[],[],[],[],[],[]
participant_6_GOLD,1400,1400,1863,2339,2735,3256,4005,4607,6304,7116,7682,8266,8679,9153,9670,10974,11500,12108,12513,13623,14336,14814,15360,15832
participant_6_CURRENTGOLD,1400,0,463,89,185,706,205,807,1054,966,147,731,379,418,70,1374,650,1258,413,1523,936,614,1160,1632
participant_6_LEVEL,1,3,4,5,6,7,7,9,10,11,12,12,13,13,14,15,15,16,17,18,18,18,18,18
participant_6_MINIONSKILLED,0,0,2,3,3,4,5,11,15,18,20,21,22,22,23,26,31,34,34,43,47,49,52,55
participant_6_KILLS,0,0,0,0,0,0,2,2,5,6,6,6,6,6,6,7,7,7,7,8,9,9,9,9
participant_6_BUY,[],"[3802, 2003, 2003]",[],[1026],[1001],[],[6655],[],"[2420, 3020]",[3108],"[3157, 1052]",[],[4632],[1052],"[3108, 3102]",[],[1058],[],[1058],[],[3089],[3916],[],[]
participant_6_SOLD,[],[],[2003],[],[],[2052],"[3802, 1026]",[2003],[1001],[2052],"[2420, 3108]",[],[1052],[],"[1052, 3108, 4632]",[],[],[],[],[],"[1058, 1058]",[],[],[]
participant_6_UNDO,[],[],[],[],[],[],[],[],[],[],[],[],[],[],[],[],[],[],[],[],[],[],[],[]
participant_7_GOLD,1400,1400,1793,2197,2795,4159,4615,5168,6075,6584,7126,7862,8265,8737,9294,9940,10383,10992,11364,12137,12497,14295,14655,15145
participant_7_CURRENTGOLD,1400,0,393,387,985,2349,55,123,1030,639,-169,567,205,677,444,640,183,792,264,1037,147,1510,1870,295
participant_7_LEVEL,1,3,4,5,5,7,8,8,9,10,11,12,12,13,14,15,15,16,17,18,18,18,18,18
participant_7_MINIONSKILLED,0,0,0,0,0,1,1,2,4,5,5,5,7,7,9,11,12,14,14,14,14,19,19,19
participant_7_KILLS,0,0,0,0,1,3,3,3,4,4,4,5,5,5,5,5,5,5,5,5,5,7,7,7
participant_7_BUY,[],"[4635, 2003, 2003]",[],"[2031, 1001]",[],[],"[4633, 3020]",[1052],[],"[3191, 1052]","[3157, 1052]",[],"[3916, 1028]",[],[1026],[3165],[1026],[],[1011],[],[4637],[1052],[],[3102]
participant_7_SOLD,[],[],[],"[2003, 2003, 2419, 2423]",[],[],"[4635, 1001]",[],[],[1052],"[3191, 1052, 2424]",[],[1052],[],[2031],"[1026, 3916, 1028]",[],[],[],[],"[1026, 1011]",[],[],[1052]
participant_7_UNDO,[],[],[],[],[],[],[],[],[],[],[],[],[],[],[],[],[],[],[],[],[],[],[],[]
participant_8_GOLD,1400,1400,1845,2391,2859,3398,3821,4478,5114,5553,6188,6814,7210,7768,8820,9374,9770,10663,11041,11593,12076,12490,12926,13523
participant_8_CURRENTGOLD,1400,0,445,991,9,548,71,728,164,253,888,1514,710,978,980,1534,255,698,226,778,86,1165,551,648
participant_8_LEVEL,1,3,4,5,6,7,8,8,9,10,11,12,12,12,14,15,15,16,16,16,17,18,18,18
participant_8_MINIONSKILLED,0,0,0,2,2,3,5,5,5,6,6,6,6,6,14,15,15,15,15,15,17,17,19,20
participant_8_KILLS,0,0,0,0,0,0,0,1,1,1,2,2,2,3,5,5,5,7,7,7,7,7,7,8
participant_8_BUY,[],"[2051, 3177, 1001, 2031]",[],[],"[3134, 1036]",[],"[1053, 1036]",[],"[6692, 1036]",[1036],[],[],"[3133, 3067]",[1036],[3071],[],"[3111, 1037]",[1033],[3140],[],"[6035, 1036]",[],"[3133, 1029]",[1031]
participant_8_SOLD,[],[],[],[2052],[],[],[1036],[],"[3134, 1036, 1053]",[],[],[],"[1036, 1036]",[2031],"[3133, 3067, 1036]",[],[1001],[],[1033],[],"[3140, 1037]",[3177],[1036],[1029]
participant_8_UNDO,[],"[[0, 2051]]",[],[],[],[],[],[],[],[],[],[],[],[],[],[],[],[],[],[],[],[],[],[]
participant_9_GOLD,1400,1400,2367,2981,3418,3852,4288,5307,5892,6300,7092,7883,8272,8759,9412,10323,10783,12276,12743,13940,14360,14774,15691,16177
participant_9_CURRENTGOLD,1400,150,117,731,1168,402,238,1257,292,700,1492,433,222,709,487,1398,558,2051,353,1550,570,984,1901,1087
participant_9_LEVEL,1,3,4,5,6,7,8,9,10,10,11,12,12,13,14,15,15,16,17,18,18,18,18,18
participant_9_MINIONSKILLED,0,0,1,9,11,12,14,16,16,16,21,22,23,27,31,38,39,44,47,53,53,53,71,73
participant_9_KILLS,0,0,1,1,1,1,1,4,4,4,5,6,6,6,7,8,8,11,11,12,12,12,12,12
participant_9_BUY,[],"[3006, 2031]","[1036, 1042, 1036]",[],[],"[6670, 1053]",[1018],[],"[6673, 1018, 1036]",[],[],"[1038, 1053]",[3072],[],[1037],[],[1038],[],"[3031, 1043]",[],"[1053, 2140]",[],[],[3153]
participant_9_SOLD,[],[],[],[],[],"[1036, 1042, 1036]",[],[],"[6670, 1018, 1053]",[],[],[1036],"[1038, 1018, 1053]",[],[],[],[],[],"[1038, 1037, 2031]",[],[2140],[],[],"[1053, 1043]"
participant_9_UNDO,[],[],[],[],[],[],[],[],[],[],[],[],[],[],[],[],[],[],[],[],[],[],[],[]
team0_KILLS,0,1,5,7,10,11,17,18,23,26,28,30,35,39,42,46,47,48,53,55,58,63,64,69
team0_CURRENTGOLD,7000,576,2564,3487,5451,4535,5516,3654,2703,4745,3776,3608,8611,11092,7608,4381,6762,2256,5143,4237,6149,9978,7240,9787
team0_TOTALGOLD,7000,7376,10614,13337,16776,19235,23791,26104,30403,34395,36976,40258,45261,48642,51358,54571,57552,59951,64613,67122,70934,75153,77715,83562
team0_LEVEL,5,15,20,25,30,35,39,43,49,52,56,59,65,68,72,76,78,81,86,87,88,90,90,90
team0_SBIRES,0,0,6,13,22,26,37,41,53,64,67,83,102,110,110,115,135,139,166,167,186,203,213,236
team1_KILLS,0,0,1,3,4,7,9,13,18,20,25,27,27,28,32,35,35,40,41,44,47,51,51,53
team1_CURRENTGOLD,7000,150,1521,3228,2830,5381,895,3939,4053,3297,4588,3469,2231,4084,3208,6864,2944,6912,1869,6645,1964,5444,6513,5298
team1_TOTALGOLD,7000,7000,9721,12688,15015,18766,21305,24834,29648,32542,36568,39949,42041,44619,48123,52229,54634,59052,61214,65990,68734,72784,75403,78053
team1_LEVEL,5,15,20,25,29,35,39,43,48,51,57,60,62,64,70,75,75,80,83,88,89,90,90,90
team1_SBIRES,0,0,6,25,30,46,52,69,82,95,108,113,121,132,148,165,179,195,198,227,235,244,267,274
delta_KILLS,0,1,4,4,6,4,8,5,5,6,3,3,8,11,10,11,12,8,12,11,11,12,13,16
delta_CURRENTGOLD,0,426,1043,259,2621,-846,4621,-285,-1350,1448,-812,139,6380,7008,4400,-2483,3818,-4656,3274,-2408,4185,4534,727,4489
delta_TOTALGOLD,0,376,893,649,1761,469,2486,1270,755,1853,408,309,3220,4023,3235,2342,2918,899,3399,1132,2200,2369,2312,5509
delta_LEVEL,0,0,0,0,1,0,0,0,1,1,-1,-1,3,4,2,1,3,1,3,-1,-1,0,0,0
delta_SBIRES,0,0,0,-12,-8,-20,-15,-28,-29,-31,-41,-30,-19,-22,-38,-50,-44,-56,-32,-60,-49,-41,-54,-38
