name,frame_0,frame_1,frame_2,frame_3,frame_4,frame_5,frame_6,frame_7,frame_8,frame_9,frame_10,frame_11,frame_12,frame_13,frame_14,frame_15,frame_16,frame_17,frame_18,frame_19,frame_20,frame_21,frame_22,frame_23,frame_24,frame_25,frame_26,frame_27,frame_28,frame_29,frame_30,frame_31,frame_32,frame_33
nameStamp,Tstart,Tearly,Tearly,Tearly,Tearly,Tearly,Tearly,Tearly,Tearly,Tearly,Tearly,Tearly,Tearly,Tearly,Tearly,Tearly,Tearly,Tearly,Tmid,Tmid,Tmid,Tmid,Tmid,Tmid,Tmid,Tmid,Tmid,Tmid,Tend,Tend,Tend,Tend,Tend,Tend
timestamp,0,60025,120041,180062,240087,300108,360113,420138,480153,540183,600195,660216,720228,780237,840242,900257,960269,1020309,1080332,1140356,1200359,1260361,1320384,1380427,1440446,1500469,1560470,1620492,1680525,1740545,1800571,1860573,1920594,1980594
participant_0_GOLD,500,500,584,818,1183,1326,1729,2349,2952,3194,3507,3880,4344,4689,5089,5309,6052,6891,7073,7523,8633,8980,10110,10453,10734,10993,11115,11238,12380,12761,12884,13055,13177,13592
participant_0_CURRENTGOLD,500,0,84,318,683,176,579,49,652,894,332,705,244,589,989,109,852,1691,273,723,1833,31,1160,753,1034,1293,1596,118,460,842,64,236,358,592
participant_0_LEVEL,1,1,1,3,4,4,5,6,7,8,8,9,9,10,10,10,11,11,11,12,12,12,13,13,14,14,14,14,15,15,15,15,15,16
participant_0_MINIONSKILLED,0,0,3,9,21,22,36,44,60,66,74,85,87,91,103,109,109,120,122,133,139,139,149,150,154,156,156,156,165,176,176,179,179,179
participant_0_KILLS,0,0,0,0,0,0,0,0,0,0,0,0,1,1,1,1,2,2,2,2,2,3,3,3,3,3,3,3,4,4,6,6,6,6
participant_0_BUY,[],"[1039, 3340, 2031]",[],[],[],[],"[3134, 1001]",[],[],[],[],"[1053, 1036, 1036]",[6692],[],[1036],[],"[3134, 1037]",[],[3047],[1036],[],[],[3142],[],[3133],[],[1028],[],[],"[3067, 1036]","[3071, 1036, 1036]",[],[],[3133]
participant_0_SOLD,[],[],[],[],[],[],[],[],[1039],[],[],[],"[3134, 1036, 1053]",[],[],[],"[1036, 1036]",[],[1001],[],[],[],"[3134, 1037]",[],[1036],[],[],[],[],"[2031, 1028]","[3133, 3067, 1036]",[],[],"[1036, 1036]"
participant_0_UNDO,[],[],[],[],[],[],[],[],[],[],[],[],[],[],[],[],[],[],[],[],[],[],[],[],[],[],[],[],[],[],[],[],[],[]
participant_1_GOLD,500,500,706,1118,1367,1674,2017,2339,2632,3087,3339,3574,4393,4690,5000,5545,6138,6686,6941,7149,7366,8146,8464,8870,9068,9380,9530,9668,10567,10843,11855,12146,12276,12371
participant_1_CURRENTGOLD,500,0,206,618,867,1174,117,439,732,1187,1439,74,43,340,300,845,163,711,166,24,241,1021,314,720,168,480,231,368,1267,854,115,407,537,171
participant_1_LEVEL,1,1,2,3,4,4,5,6,6,7,7,7,8,8,9,9,10,11,11,11,12,12,12,12,13,13,13,13,14,14,15,15,15,15
participant_1_MINIONSKILLED,0,0,0,0,0,1,1,1,1,1,2,2,5,5,5,5,5,9,17,17,17,26,27,32,32,32,34,34,38,40,45,50,50,50
participant_1_KILLS,0,0,0,0,0,0,0,1,1,1,1,1,2,2,2,2,3,3,3,3,4,4,5,5,5,5,5,5,7,7,7,7,7,8
participant_1_BUY,[],"[1054, 2003, 3340]",[],[],[],"[1036, 1042]",[],"[3051, 1028, 1001]",[],[],"[3067, 1037]",[],[6631],[],[],[3133],[],[],"[3067, 3111]",[],[],"[3071, 1028, 1036]",[],"[3044, 1028]",[],[],[],[3053],[3066],[],[1057],[],[],[]
participant_1_SOLD,[],[],[],[],[],[],[],"[1042, 1036]",[2003],[],[1028],[],"[1037, 3051, 1028]",[],[],[],[],[],[1001],[],[],"[3133, 3067]",[],"[1028, 1036]",[],[],[1054],"[3044, 1028]",[],[],[],[],[],[]
participant_1_UNDO,[],[],[],[],[],[],[],[],[],[],"[[0, 3067]]",[],[],[],[],[],[],[],[],[],[],[],[],[],[],[],[],[],[],[],[],[],[],[]
participant_2_GOLD,500,500,591,955,1260,1557,1844,2183,2584,2933,3425,3812,4222,4449,4884,5069,5438,5826,6088,6211,6762,7251,7838,8010,8428,9150,9467,9959,10764,11077,11400,11982,12425,12519
participant_2_CURRENTGOLD,500,0,91,445,750,1047,139,478,869,1208,835,1212,1612,189,614,799,1168,1556,493,616,1167,1656,2243,1165,1583,880,1198,439,154,468,790,73,515,84
participant_2_LEVEL,1,1,1,3,4,5,5,6,7,8,8,9,9,10,10,10,11,11,12,12,12,13,13,13,14,14,14,15,16,16,16,17,17,17
participant_2_MINIONSKILLED,0,0,4,15,25,35,42,55,68,78,90,102,115,121,135,139,145,153,162,162,174,179,184,184,189,203,210,223,223,224,224,243,254,254
participant_2_KILLS,0,0,0,0,1,1,1,1,1,1,2,2,2,3,3,3,3,4,4,4,6,6,6,6,6,6,6,6,6,6,7,7,7,7
participant_2_BUY,[],"[3854, 2003, 2003]",[],[],[],[3009],[],[],"[1036, 1042, 3057]",[],[],"[3051, 3364]",[],[3067],[],[],[],"[3078, 1036, 1028]",[],[1037],[],[],[3053],[],[3066],[],[],[1031],[],[],[],"[3742, 2055, 2055]",[],[]
participant_2_SOLD,[],[],[],[],"[2003, 2003]",[],[],[],[],[],[3854],[3340],[],[],[],[],[],"[3057, 3051, 3067]",[3855],[],[],[],"[1037, 1028, 1036]",[],[],[],[],[],[],[],[],"[3066, 1031]",[],[2055]
participant_2_UNDO,[],[],[],[],[],[],[],[],"[[0, 1042], [0, 1036]]",[],[],[],[],[],[],[],[],[],[],[],[],[],[],[],[],[],[],[],[],[],[],[],[],[]
participant_3_GOLD,500,500,563,902,1615,1828,2500,2784,2969,3294,3737,4304,4806,4998,5269,5506,6167,6450,6718,6840,7207,7787,8204,8663,9279,9963,10185,10511,11100,11659,12126,12379,12543,12638
participant_3_CURRENTGOLD,500,0,63,402,65,278,950,1234,119,444,237,804,1306,1498,444,681,92,375,243,315,682,1262,804,1263,854,863,1085,112,700,1259,227,404,569,663
participant_3_LEVEL,1,1,1,2,3,3,4,5,5,5,6,7,7,8,8,8,9,9,10,10,10,11,11,11,12,13,13,13,14,14,15,15,15,15
participant_3_MINIONSKILLED,0,0,2,14,15,20,32,41,45,57,64,77,85,89,97,103,110,112,116,116,126,130,140,146,152,160,160,167,180,188,188,189,191,191
participant_3_KILLS,0,0,0,0,1,1,2,2,2,2,2,2,2,2,2,2,3,3,3,3,3,3,3,3,4,5,5,5,5,5,6,6,6,6
participant_3_BUY,[],"[3340, 2003, 1055]",[],[],"[1036, 1036, 1042, 2003]",[],[],[],"[6670, 1053, 2003, 2003]",[],"[1001, 1042, 2003]",[],[],[],"[6673, 2003, 2055]",[],"[3006, 1036, 1036, 2003]",[],"[3363, 3134]",[2003],[],[],[1037],[],[6676],"[1018, 2055]",[],[1038],[],[],[3031],[2055],[],[]
participant_3_SOLD,[],[],[],[2003],[],[],[2003],[],"[1036, 1042, 1036]",[],[2003],[],"[2003, 2003]",[],"[6670, 1053, 2055]",[2003],"[1001, 1042]",[2003],"[3340, 1036, 1036]",[],[],[],[],[2003],"[3134, 1037]",[],[2055],[],[],[],"[1038, 1018]",[2055],[],[]
participant_3_UNDO,[],[],[],[],[],[],[],[],[],[],[],[],[],[],[],[],[],[],[],[],[],[],[],[],[],[],[],[],[],[],[],[],[],[]
participant_4_GOLD,500,500,523,720,1519,1695,2104,2290,2446,2622,3196,3438,3873,4555,4737,5123,5409,6180,6342,6507,7488,7899,8249,8554,8715,8981,9548,9751,9892,10063,10862,11150,11375,11484
participant_4_CURRENTGOLD,500,0,23,220,1019,295,704,890,346,522,1096,238,673,555,737,1123,1409,697,859,149,1130,1541,416,721,82,348,915,318,459,630,1429,268,492,601
participant_4_LEVEL,1,1,1,2,3,3,4,5,5,5,6,6,7,7,8,8,9,9,9,10,11,11,11,12,12,12,13,13,13,13,14,14,15,15
participant_4_MINIONSKILLED,0,0,0,3,5,7,10,13,14,16,19,23,26,27,29,31,33,35,36,40,40,41,43,45,46,47,58,62,62,63,70,73,78,78
participant_4_KILLS,0,0,0,0,0,0,0,0,0,0,0,0,0,0,0,0,0,0,0,0,0,0,0,0,0,1,1,1,2,2,2,2,2,2
participant_4_BUY,[],"[2033, 3340, 1056, 2003, 2003]",[],[],[],[],"[1082, 3070, 1052]",[],[],[],[3802],[],[],"[1026, 3020]",[],[],[],[],"[6655, 2055, 3363]",[],[],[],[],[1058],[],"[3003, 2055]",[],[1058],[1058],[],[],[3089],[],[1052]
participant_4_SOLD,[],[],[],"[2003, 2003]",[],"[2010, 2010]",[],[],[],[2010],[1052],[],[],[2422],[],[],[],[],"[3802, 1026, 3340]",[],[],[2055],[],[],[],"[3070, 1058, 3003]",[2055],[],[1056],[],[],"[1058, 1058]",[],[]
participant_4_UNDO,[],"[[0, 2033]]",[],[],[],[],[],[],[],[],[],[],[],[],[],[],[],[],[],[],[],[],[],[],[],[],[],[],[],[],[],[],[],[]
participant_5_GOLD,500,500,542,790,1025,1399,1606,1819,2133,2424,2807,2930,3202,3514,3802,4144,4267,4523,4951,5702,5909,6283,6924,7152,7438,7944,8605,9142,9340,9712,10134,10320,10617,11183
participant_5_CURRENTGOLD,500,0,42,290,25,399,606,219,533,824,1207,105,377,689,977,1319,342,598,1026,1777,84,458,1099,427,713,219,880,1417,365,737,360,545,842,1408
participant_5_LEVEL,1,1,1,3,4,5,5,6,6,7,8,8,8,9,9,10,10,10,11,11,12,12,13,13,14,14,15,15,15,16,16,16,17,17
participant_5_MINIONSKILLED,0,0,1,8,14,26,30,36,39,48,60,60,60,68,73,77,77,83,93,98,100,111,124,127,131,136,142,142,142,148,148,152,152,154
participant_5_KILLS,0,0,0,0,1,1,1,1,2,2,3,3,4,5,5,5,7,7,7,7,7,7,7,7,7,7,7,7,7,7,7,7,7,8
participant_5_BUY,[],"[3850, 2003, 2003, 3340]",[],[],"[1052, 1052, 2003, 2055]",[],[],[],[],"[3802, 1052, 1001, 2055, 3364]",[],"[3108, 2055]","[3020, 2055]",[],"[6653, 2055]",[],[],"[1011, 2055, 1026, 2055]",[],[],"[1011, 1052]",[],[],[],"[4637, 2055, 2055]",[],[1029],[],[3108],[],[3191],[],[],[]
participant_5_SOLD,[],[],[],[],"[2003, 2010]",[],"[2055, 2010]",[],"[2003, 2010, 3850]","[1052, 1052, 3340, 2055]",[],[1052],"[2055, 1001]",[],"[3851, 3802, 3108]",[2055],[],[],"[2055, 2055]",[],[],[],[],[],"[1026, 1011, 1052]",[2055],[2055],[],[],[],[1029],[],[],[]
participant_5_UNDO,[],[],[],[],"[[0, 2003]]",[],[],[],[],[],[],[],[],[],[],[],[],"[[0, 2055], [0, 1011]]",[],[],[],[],[],[],[],[],[],[],[],[],[],[],[],[]
participant_6_GOLD,500,500,653,1013,1731,1930,2320,2467,2674,3042,3689,4094,4664,5211,5453,6090,6633,6931,7537,8102,8607,8834,9406,10031,10452,10710,11112,11799,12586,12764,14155,14833,16315,16718
participant_6_CURRENTGOLD,500,0,153,513,1231,80,470,617,274,17,664,1069,14,561,303,940,1483,431,1037,1602,2107,10,581,1206,1628,45,448,1134,771,200,1590,2269,3751,4093
participant_6_LEVEL,1,1,2,3,4,4,5,6,6,6,7,8,8,8,9,9,10,10,11,12,12,12,13,13,14,14,14,15,15,15,16,16,17,17
participant_6_MINIONSKILLED,0,0,0,0,0,0,5,5,5,6,12,12,12,12,12,13,13,13,15,18,18,18,20,28,31,31,35,37,37,38,40,47,50,52
participant_6_KILLS,0,0,0,0,0,0,0,0,1,1,1,1,1,1,1,1,1,1,2,2,2,2,2,2,3,3,3,4,4,4,4,4,4,5
participant_6_BUY,[],"[1055, 3340, 2003, 3070, 3340, 2003, 2003]",[],[],[1083],[],"[1036, 1001]",[],"[3057, 1028]",[],[3044],[],[],[],"[6632, 3158]",[],[1036],[],[],[3004],[1036],[],[],[],[],"[1037, 1043]",[],[],[3153],[],[1031],[],[],[]
participant_6_SOLD,[],[],[],[],"[2003, 2003]",[],[],[],[],[],"[1028, 1036]",[],[],[],"[3044, 3057, 1001]",[],[],[],[],"[1083, 3070, 1036, 3004]",[],[],[],[],[],[],[],[],"[1036, 1043, 1037]",[],[],[],[],[]
participant_6_UNDO,[],"[[0, 2003], [3340, 0], [0, 1055]]",[],[],[],[],[],[],[],[],[],[],[],[],[],[],[],[],[],[],[],[],[],[],[],[],[],[],[],[],[],[],[],[]
participant_7_GOLD,500,500,577,934,1260,1445,1669,1987,2304,2660,2887,3260,3565,4422,4766,5422,5750,6734,6885,7729,8185,8758,9138,9428,9851,10022,10580,11139,11262,11864,12137,12454,12866,13241
participant_7_CURRENTGOLD,500,0,77,424,750,935,229,547,854,1200,97,460,755,1612,1946,2602,580,1564,380,1224,1680,238,618,473,896,1067,1625,2185,157,760,217,534,947,141
participant_7_LEVEL,1,1,1,3,4,5,5,6,7,7,8,8,9,10,11,12,12,13,13,13,14,14,14,14,14,14,15,15,15,16,16,16,16,17
participant_7_MINIONSKILLED,0,0,3,14,26,29,32,44,52,63,69,80,88,99,108,120,123,135,137,142,147,147,159,162,162,165,166,170,170,172,172,175,176,180
participant_7_KILLS,0,0,0,0,0,0,0,0,0,0,0,0,0,0,0,0,0,0,0,1,1,1,1,1,1,2,3,3,3,3,4,4,4,4
participant_7_BUY,[],"[1054, 2003]",[],[],"[1028, 2003, 2003]",[],[],[6660],[],[],[],"[3076, 1001, 2003, 2055]",[],[],[],[],"[3047, 1029]",[],[],[],[3068],[],[],[1011],[],[3075],[],[],[3211],[],[3067],[],[],[]
participant_7_SOLD,[],[],[],[],[2003],[],"[2003, 2003]",[1028],[],[],[],[],[],[],[2055],[2003],[1001],[],[],[],"[6660, 1029]",[],[],[],[],"[3076, 1011]",[],[],[],[],[],[],[],[]
participant_7_UNDO,[],[],[],[],[],[],[],[],[],[],[],[],[],[],[],[],[],[],[],[],[],[],[],[],[],[],[],[],[],[],[],[],[],[]
participant_8_GOLD,500,500,626,955,1078,1537,1713,2057,2863,3126,3413,3751,4303,4716,5266,5522,5689,6041,7109,7345,7777,8025,8398,8738,9457,9773,9962,10759,11049,11318,11440,11745,12219,12914
participant_8_CURRENTGOLD,500,0,126,455,128,587,113,457,163,426,363,701,1253,1666,116,372,189,541,1609,175,257,505,878,1218,1937,378,567,1365,679,948,271,575,1050,1564
participant_8_LEVEL,1,1,1,2,2,4,4,5,5,6,6,7,8,8,9,9,10,10,11,11,11,11,12,12,13,13,13,14,14,15,15,15,16,16
participant_8_MINIONSKILLED,0,0,6,15,15,31,34,43,49,56,57,65,77,84,95,103,105,111,119,123,128,131,141,151,155,162,163,163,168,172,172,177,179,180
participant_8_KILLS,0,0,0,0,1,1,1,1,1,1,2,2,3,4,4,5,6,6,7,7,7,7,8,8,8,8,8,8,9,9,11,11,14,14
participant_8_BUY,[],"[1035, 2031, 3340]",[],[],[],"[1036, 1036, 1036, 1001]",[],[],"[3134, 2055, 3364, 2055]","[1053, 2055]",[],[],"[6692, 1036, 2055]",[],"[1036, 2055, 2055]",[],[],"[3134, 3047, 3047, 3134, 2055, 2055]",[],[],[],"[6676, 1036, 2055]",[],[],[],"[1038, 1018]",[],[],[3072],"[1018, 2055, 2055]",[],[],[],[]
participant_8_SOLD,[],[],[],[],[],[],[],[],"[1036, 1036, 3340, 2055]","[1035, 1036]",[],[2055],"[2055, 3134, 1053]",[2055],[2055],[],"[3364, 2055]","[1036, 1036, 1001, 1001, 1036, 1036]",[],[3513],[2055],[3134],[2055],[2055],[],[2031],[],[],"[1038, 1018, 1036]","[2055, 2055]",[],[],[],[]
participant_8_UNDO,[],[],[],[],[],[],[],[],[],[],[],[],[],[],[],[],[],"[[0, 3047], [0, 3134]]",[],[],[],[],[],[],[],[],[],[],[],[],[],[],[],[]
participant_9_GOLD,500,500,543,777,1462,1656,1889,2044,2731,2891,3618,3818,4378,4974,5396,5536,6319,6523,6814,7531,7822,8070,8211,8589,8927,9164,9399,9988,10204,10420,10861,11001,11370,11989
participant_9_CURRENTGOLD,500,0,43,277,17,211,444,599,1286,206,933,593,278,874,21,162,944,223,514,1232,187,435,576,954,328,564,499,1088,404,620,461,601,971,1589
participant_9_LEVEL,1,1,1,2,3,3,4,5,5,6,7,7,7,7,8,8,9,9,10,10,11,11,11,11,12,12,12,13,14,14,14,14,15,15
participant_9_MINIONSKILLED,0,0,0,0,0,0,3,4,7,7,10,10,11,11,14,14,17,18,18,19,19,25,25,32,37,38,41,42,42,42,42,42,50,50
participant_9_KILLS,0,0,0,0,0,0,0,0,0,0,0,0,0,1,1,2,2,3,3,5,5,6,6,6,7,7,8,8,8,9,9,9,9,9
participant_9_BUY,[],"[1056, 2003, 2003, 3340]",[],[],[],[],"[1052, 1052, 2003]",[],[],[],"[3802, 1026, 2003]",[],[],[],[],[],"[6656, 3020]",[],"[3108, 1052]",[],[],"[3157, 1026]",[],[1052],[],[],[],[],"[3116, 1052]",[],[4630],[],[],[3135]
participant_9_SOLD,[],[],[],[],[2003],[2003],[],[],[2003],[],"[1052, 1052]",[2003],[],[],[],[],"[3802, 1026]",[],[],[],[],"[1052, 3108]",[],[],[],[],[],[],"[1026, 1052]",[],[1052],[],[],[4630]
participant_9_UNDO,[],[],[],[],[],[],[],[],[],[],[],[],[],[],[],[],[],[],[],[],[],[],[],[],[],[],[],[],[],[],[],[],[],[]
team0_KILLS,0,0,0,0,2,2,3,4,4,4,5,5,7,8,8,8,11,12,12,12,15,16,17,17,18,20,20,20,24,24,28,28,28,29
team0_CURRENTGOLD,2500,0,467,2003,3384,2970,2489,3090,2718,4255,3939,3033,3878,3171,3084,3557,3684,5030,2034,1827,5053,5511,4937,4622,3721,3864,5025,1355,3040,4053,2625,1388,2471,2111
team0_TOTALGOLD,2500,2500,2967,4513,6944,8080,10194,11945,13583,15130,17204,19008,21638,23381,24979,26552,29204,32033,33162,34230,37456,40063,42865,44550,46224,48467,49845,51127,54703,56403,59127,60712,61796,62604
team0_LEVEL,5,5,6,13,18,19,23,28,30,33,35,38,40,43,45,45,50,51,53,55,57,59,60,61,65,66,67,68,72,72,75,76,77,78
team0_SBIRES,0,0,9,41,66,85,121,154,188,218,249,289,318,333,369,387,402,429,453,468,496,515,543,557,573,598,618,642,668,691,703,734,752,752
team1_KILLS,0,0,0,0,2,2,2,2,4,4,6,6,8,11,11,13,16,17,19,22,22,23,24,24,26,27,29,30,31,32,35,35,38,40
team1_CURRENTGOLD,2500,0,441,1959,2151,2212,1862,2439,3110,2673,3264,2928,2677,5402,3363,5395,3538,3357,4566,6010,4315,1646,3752,4278,5502,2273,4019,7189,2376,3265,2899,4524,7561,8795
team1_TOTALGOLD,2500,2500,2941,4469,6556,7967,9197,10374,12705,14143,16414,17853,20112,22837,24683,26714,28658,30752,33296,36409,38300,39970,42077,43938,46125,47613,49658,52827,54441,56078,58727,60353,63387,66045
team1_LEVEL,5,5,6,13,17,21,23,28,29,32,36,38,40,42,46,48,51,52,56,57,60,60,63,63,67,67,69,72,73,76,77,77,81,82
team1_SBIRES,0,0,10,37,55,86,104,132,152,180,208,227,248,274,302,327,335,360,382,400,412,432,469,500,516,532,547,554,559,572,574,593,607,616
delta_KILLS,0,0,0,0,0,0,1,2,0,0,-1,-1,-1,-3,-3,-5,-5,-5,-7,-10,-7,-7,-7,-7,-8,-7,-9,-10,-7,-8,-7,-7,-10,-11
delta_CURRENTGOLD,0,0,26,44,1233,758,627,651,-392,1582,675,105,1201,-2231,-279,-1838,146,1673,-2532,-4183,738,3865,1185,344,-1781,1591,1006,-5834,664,788,-274,-3136,-5090,-6684
delta_TOTALGOLD,0,0,26,44,388,113,997,1571,878,987,790,1155,1526,544,296,-162,546,1281,-134,-2179,-844,93,788,612,99,854,187,-1700,262,325,400,359,-1591,-3441
delta_LEVEL,0,0,0,0,1,-2,0,0,1,1,-1,0,0,1,-1,-3,-1,-1,-3,-2,-3,-1,-3,-2,-2,-1,-2,-4,-1,-4,-2,-1,-4,-4
delta_SBIRES,0,0,-1,4,11,-1,17,22,36,38,41,62,70,59,67,60,67,69,71,68,84,83,74,57,57,66,71,88,109,119,129,141,145,136
