name,frame_0,frame_1,frame_2,frame_3,frame_4,frame_5,frame_6,frame_7,frame_8,frame_9,frame_10,frame_11,frame_12,frame_13,frame_14,frame_15,frame_16,frame_17,frame_18,frame_19,frame_20,frame_21,frame_22
nameStamp,Tstart,Tearly,Tearly,Tearly,Tearly,Tearly,Tearly,Tearly,Tearly,Tmid,Tmid,Tmid,Tmid,Tmid,Tmid,Tmid,Tmid,Tmid,Tmid,Tmid,Tmid,Tend,Tend
timestamp,0,60026,120034,180057,240074,300102,360128,420149,480175,540205,600236,660267,720295,780328,840332,900358,960382,1020412,1080432,1140461,1200487,1260511,1320530
participant_0_GOLD,500,908,1770,2579,4024,5638,6408,7256,7797,9871,10762,12456,13476,14333,14693,15507,16926,18036,18421,19384,20919,21617,22779
participant_0_CURRENTGOLD,500,423,420,179,1624,3238,58,906,547,2621,512,956,876,1733,843,1657,3076,2036,1376,2339,3874,4072,4734
participant_0_LEVEL,1,1,1,2,4,6,6,7,7,9,9,11,12,13,13,14,16,16,16,18,20,21,22
participant_0_MINIONSKILLED,0,0,4,5,11,19,23,31,36,48,51,52,55,56,56,61,73,73,73,81,81,81,83
participant_0_KILLS,0,1,3,4,5,7,7,7,7,10,11,14,15,16,16,17,18,19,19,20,21,21,22
participant_0_BUY,[],"[1052, 2003]",[3802],[3145],[],[],"[3030, 3111, 3905]",[],[3024],[],"[3800, 1058]",[1058],[3089],[],"[3108, 1058]",[],[],"[3907, 2139]",[3143],[],[],[2139],[2139]
participant_0_SOLD,[],[],[1052],[],[2003],[],"[3802, 3145]",[],[],[],[3024],[],"[1058, 1058]",[],[],[],[],"[1058, 2139]",[3800],[],[3340],[2139],"[2139, 3513]"
participant_0_UNDO,[],[],[],[],[],[],[],[],[],[],[],[],[],[],"[[0, 3108]]",[],[],[],[],[],[],[],[]
participant_1_GOLD,500,600,768,1489,2131,2596,3018,3528,4986,6136,6971,7650,8352,8712,9741,10143,10855,11813,12268,12733,13748,15042,16181
participant_1_CURRENTGOLD,500,165,333,1054,531,996,568,1078,686,236,221,900,1602,562,1156,1558,945,1903,2358,473,738,2032,3171
participant_1_LEVEL,1,1,1,3,4,4,5,5,6,8,8,9,10,10,12,12,13,15,15,16,17,19,20
participant_1_MINIONSKILLED,0,0,0,2,2,3,4,4,8,19,22,26,35,35,41,43,46,52,52,56,67,77,85
participant_1_KILLS,0,0,0,0,0,0,0,0,1,1,1,1,1,1,1,1,2,2,2,2,2,3,4
participant_1_BUY,[],[1052],[],[],"[3802, 1001]",[],[1026],[],"[3285, 3020]",[3916],[1026],[],[],"[3165, 1026]",[1052],[],[3135],[],[1058],"[3136, 1026]",[3151],[],[]
participant_1_SOLD,[],[2419],[],[],"[2423, 1052]",[],"[2010, 2010]",[],"[2010, 3802, 1026, 1001]",[],[],[2010],[],"[3916, 1026]",[],[2424],"[1026, 1052, 2424]",[],[],[],"[3136, 1026]",[],[]
participant_1_UNDO,[],[],[],[],[],[],[],[],[],[],[],[],[],[],[],"[[2424, 0]]",[],[],"[[0, 1058]]",[],[],[],[]
participant_2_GOLD,500,1262,1417,2042,2958,3985,5308,6299,8397,9525,10452,11730,13190,13959,15590,16194,16921,18421,18983,19399,21447,22531,23644
participant_2_CURRENTGOLD,500,912,317,942,1858,2885,4208,499,2247,1350,2277,1230,2690,1659,3290,494,1221,2721,3283,299,2347,2931,4044
participant_2_LEVEL,1,1,2,3,4,6,6,7,8,9,10,11,12,13,14,15,15,16,16,17,18,19,21
participant_2_MINIONSKILLED,0,0,3,12,22,33,44,46,59,71,76,90,90,101,102,108,112,125,126,128,139,143,145
participant_2_KILLS,0,2,2,2,2,3,3,5,6,6,7,9,13,13,17,17,17,19,20,20,21,23,24
participant_2_BUY,[],"[1036, 3340]",[3134],[],[],[],[],"[3147, 3142]",[1036],"[3134, 1037, 1028]",[],"[3814, 3105, 1036, 1036]",[],[3812],[],[3031],[],[],[],[3031],[],[2140],[]
participant_2_SOLD,[],[],[1036],[],[],[],[],[3134],[],[1036],[],"[1037, 3134, 1028]",[],"[3105, 1036, 1036]",[],[],[],[],[],[],[],[2140],[]
participant_2_UNDO,[],[],[],[],[],[],[],[],[],[],[],[],[],[],[],[],[],[],[],[],[],[],[]
participant_3_GOLD,500,975,1534,2449,4233,5727,6634,8229,8976,10241,11468,13181,13943,14792,15152,16551,17061,17645,18475,18931,19689,21139,23053
participant_3_CURRENTGOLD,500,490,614,99,1883,992,149,1744,576,241,418,831,343,1192,302,1701,676,715,1545,201,959,2409,4322
participant_3_LEVEL,1,1,1,2,4,5,5,7,7,8,9,11,12,13,13,15,15,16,16,16,18,20,21
participant_3_MINIONSKILLED,0,0,2,7,14,14,16,25,35,36,36,48,52,58,58,70,70,73,73,77,81,89,94
participant_3_KILLS,0,1,2,3,5,8,9,11,11,12,14,16,16,17,17,19,19,19,20,20,20,22,25
participant_3_BUY,[],"[1052, 2003]",[1052],"[3145, 1053, 1036]",[],"[3146, 1052, 1026]","[3116, 1052]",[],"[3136, 1026]","[3151, 1026]",[3057],"[1052, 3100]",[1058],[],[1058],[],"[3089, 1052]",[1026],[],[3135],[],[],[]
participant_3_SOLD,[],[],[],"[1052, 1052]",[],"[1053, 1036, 3145, 2003]","[1026, 1052]",[],[1052],"[3136, 1026]",[],"[3057, 1052, 1026]",[],[],[],[],"[1058, 1058]",[1052],[],[1026],[],[],[]
participant_3_UNDO,[],[],[],[],[],[],[],[],[],[],[],[],[],[],[],[],[],[],[],[],[],[],[]
participant_4_GOLD,500,833,1039,2232,3255,3795,4398,4764,5280,6906,7549,8134,8833,9593,10160,10743,12109,12594,13104,13545,14205,14642,15338
participant_4_CURRENTGOLD,500,348,554,832,255,795,648,214,130,1756,2399,249,948,858,360,943,2309,794,54,495,1155,492,1188
participant_4_LEVEL,1,1,1,2,3,4,5,5,5,8,8,9,11,11,12,13,15,15,16,16,17,18,19
participant_4_MINIONSKILLED,0,0,2,8,13,19,25,25,25,30,30,30,33,36,37,45,51,51,51,54,54,54,55
participant_4_KILLS,0,1,1,3,5,5,5,5,5,6,6,6,6,7,7,7,9,9,9,9,9,9,9
participant_4_BUY,[],"[1052, 2003, 3340]",[1028],"[3145, 1001]",[3144],[],[3146],"[3111, 3020]","[1029, 1029]",[],[],"[3157, 1052]",[],[1026],[3136],[],[],"[3151, 1026, 1052, 1058]",[1058],[],[],[3089],[]
participant_4_SOLD,[],[],[],"[1052, 2003]",[],[],"[3144, 3145]","[1001, 1001]",[],[],[],"[1029, 1029]",[],[],[1052],[],[],"[3136, 1026]",[],[],[],"[1058, 1058]",[]
participant_4_UNDO,[],[],"[[0, 1028]]",[],[],[],[],"[[0, 3111]]",[],[],[],[],[],[],[],[],[],"[[0, 1052], [0, 1026]]",[],[],[],[],[]
participant_5_GOLD,500,837,973,1458,2365,3239,4319,5343,6401,7028,8417,8910,9540,9993,10921,12045,12478,13938,15208,16827,17415,17912,18922
participant_5_CURRENTGOLD,500,337,473,523,580,589,279,1303,1061,98,1387,580,560,213,1141,65,63,1523,2793,4412,1485,232,3202
participant_5_LEVEL,1,1,1,2,4,5,6,7,8,8,9,10,11,11,13,14,14,16,18,19,19,19,20
participant_5_MINIONSKILLED,0,0,2,6,15,22,30,33,40,45,46,51,53,54,54,55,56,57,62,62,64,64,64
participant_5_KILLS,0,1,1,1,1,1,1,1,1,1,2,2,2,2,2,2,2,3,4,5,5,5,6
participant_5_BUY,[],"[1056, 2003, 2003, 3340]",[],[1052],"[3802, 1026]",[3802],[3504],[],[3802],"[3285, 1004, 1004, 1033]",[3028],[3174],[2420],[3020],[],"[3191, 3089]",[1052],[],[],[],"[3157, 3145]",[3030],[]
participant_5_SOLD,[],[],[],[],"[2003, 1052]","[2003, 1052]",[3802],[],[],"[3802, 1026, 1056]","[1004, 1033, 1004]",[3028],[],[2422],[],"[3174, 2420, 3191]",[],[],[],[],[1052],[3145],[3030]
participant_5_UNDO,[],[],[],[],"[[0, 3802]]",[],[],[],[],[],[],[],[],[],[],[],[],[],[],[],[],[],[]
participant_6_GOLD,500,557,790,1313,1850,2549,3353,4008,5141,6406,6934,7636,8221,8992,9566,11097,11545,12278,13008,13948,15393,15784,16294
participant_6_CURRENTGOLD,500,57,290,463,1000,449,653,608,1741,906,234,936,721,1492,766,197,645,1378,808,1748,1093,1664,874
participant_6_LEVEL,1,1,2,3,4,5,6,7,7,9,9,10,11,12,12,14,14,15,15,16,18,18,19
participant_6_MINIONSKILLED,0,0,5,9,13,23,30,39,43,52,55,65,65,68,73,91,94,104,104,115,121,121,121
participant_6_KILLS,0,0,0,0,0,0,0,0,2,3,3,3,3,4,4,5,5,5,6,6,7,7,7
participant_6_BUY,[],"[1055, 2003]",[],[1036],[],[3144],"[1042, 1001]",[1043],[],"[3153, 3086]",[3046],[],[3111],[],[1038],[3031],[],[],[1038],[],[3031],[],[1038]
participant_6_SOLD,[],[],[],[],[2003],[1036],[],[1042],[],"[3144, 1043]",[3086],[],[1001],[],[],[1038],[],[],[],[],[1038],[1055],[]
participant_6_UNDO,[],[],[],[],[],[],[],[],[],[],[],[],[],[],[],[],[],[],[],[],[],[],[]
participant_7_GOLD,500,537,1233,2013,3499,4563,6264,7663,9887,11010,12717,13530,16257,17094,19549,21034,21984,23421,25324,27646,28429,29018,29599
participant_7_CURRENTGOLD,500,37,103,183,344,108,134,1533,1157,180,1587,145,2872,9,2464,1319,2269,2586,4489,6811,7144,7733,8314
participant_7_LEVEL,1,1,1,2,3,4,6,7,8,9,10,11,12,13,14,15,16,17,18,19,19,20,20
participant_7_MINIONSKILLED,0,0,0,4,9,10,17,28,33,39,40,42,44,47,63,69,81,82,91,104,109,114,117
participant_7_KILLS,0,0,2,3,5,7,10,12,16,18,21,22,27,28,32,34,34,36,38,41,41,41,41
participant_7_BUY,[],"[1055, 2003, 1036, 2031]",[1037],"[1036, 1036]",[3814],[1038],"[1037, 1018]",[],"[3031, 1038, 1037]","[3031, 1037]",[1001],"[1038, 3031]",[],"[3094, 1001, 3111]",[],[3139],[],[3072],[],[],[3142],[],[]
participant_7_SOLD,[],[],[1036],[],"[1037, 1036, 1036]",[],[],[],"[1038, 1037, 1018]","[1038, 1037]",[],"[2031, 1001, 1038, 1037]",[],[1001],[],[3111],[],[3139],[],[],"[3814, 3072]",[],[]
participant_7_UNDO,[],"[[0, 2003], [0, 1055]]",[],[],[],[],[],[],[],[],[],[],[],[],[],[],[],[],[],[],"[[3814, 0]]",[],[]
participant_8_GOLD,500,837,1025,2172,2626,3353,4344,5116,5797,6211,7320,8047,8688,9442,9992,10452,10977,11366,12524,12984,13580,14223,14610
participant_8_CURRENTGOLD,500,337,175,887,476,513,454,426,807,571,880,457,698,1452,802,412,387,341,1049,564,1160,1802,2189
participant_8_LEVEL,1,1,1,3,3,5,5,6,7,7,8,10,11,12,13,13,13,13,15,15,16,16,17
participant_8_MINIONSKILLED,0,0,2,4,7,14,14,17,23,24,24,34,36,45,46,46,53,54,64,64,68,68,68
participant_8_KILLS,0,1,1,2,2,2,3,4,4,4,5,5,5,5,5,5,5,5,6,6,6,7,7
participant_8_BUY,[],"[1056, 2003, 2003, 3340]","[1001, 2003]",[1052],[3802],[1026],[3285],[3020],[1029],[2420],"[1052, 3191]","[3108, 3157]",[1028],[],[3916],[1026],[3165],[1052],[1033],[1058],[],[],[]
participant_8_SOLD,[],"[2003, 2003]",[],[],[1052],"[2003, 1056]","[3802, 1026]",[1001],[],[],"[2420, 1029, 1052]","[3191, 3108, 2421]",[],[],[1028],[],"[3916, 1026]",[],[],[1052],[],[],[]
participant_8_UNDO,[],[],[],[],[],[],[],[],[],[],[],[],[],[],[],[],[],[],[],[],[],[],[]
participant_9_GOLD,500,800,1258,2959,3357,4454,5674,6207,6741,7136,7564,7951,8428,9838,10310,11022,11541,11901,12357,13269,13814,14174,15134
participant_9_CURRENTGOLD,500,300,458,1724,187,434,1654,237,771,401,829,366,843,1238,460,552,1071,331,787,699,1244,964,1924
participant_9_LEVEL,1,1,1,3,3,4,6,6,7,7,8,8,9,12,13,13,14,14,15,16,16,16,19
participant_9_MINIONSKILLED,0,0,1,7,7,7,13,13,15,16,16,17,19,29,31,37,42,42,43,57,57,57,57
participant_9_KILLS,0,1,2,4,4,5,6,6,6,6,6,6,6,7,7,7,7,7,7,7,7,7,8
participant_9_BUY,[],"[1056, 2003, 2003]",[1001],[1052],"[3136, 1052, 1052]",[1026],[],"[3151, 3111, 1028]",[],[3916],[],[1026],[],"[3165, 3108]",[1058],[1058],[],[3089],[],[1011],[],[1031],[]
participant_9_SOLD,[],[],[2003],[2003],[1052],[],[],"[3136, 1026, 1001]",[],"[1028, 1052]",[],[],[],"[3916, 1026, 1052]",[],[3108],[],"[1058, 1058]",[],[],[],[1056],[]
participant_9_UNDO,[],[],[],[],[],[],[],[],[],[],[],[],[],[],[],[],[],[],[],[],[],[],[]
team0_KILLS,0,5,8,12,17,23,24,28,30,35,39,46,51,54,58,61,65,68,70,71,73,78,84
team0_CURRENTGOLD,2500,2338,2238,3106,6151,8906,5631,4441,4186,6204,5827,4166,6459,6004,5951,6353,8227,8169,8616,3807,9073,11936,17459
team0_TOTALGOLD,2500,4578,6528,10791,16601,21741,25766,30076,35436,42679,47202,53151,57794,61389,65336,69138,73872,78509,81251,83992,90008,94971,100995
team0_LEVEL,5,5,6,12,19,25,27,31,33,42,44,51,57,60,64,69,74,78,79,83,90,97,103
team0_SBIRES,0,0,11,34,62,88,112,131,163,204,215,246,265,286,294,327,352,374,375,396,422,444,462
team1_KILLS,0,3,6,10,12,15,20,23,29,32,37,38,43,46,50,53,53,56,61,65,66,67,69
team1_CURRENTGOLD,2500,1068,1499,3780,2587,2093,3174,4107,5537,2156,4917,2484,5694,4404,5633,2545,4435,6159,9926,14234,12126,12395,16503
team1_TOTALGOLD,2500,3568,5279,9915,13697,18158,23954,28337,33967,37791,42952,46074,51134,55359,60338,65650,68525,72904,78421,84674,88631,91111,94559
team1_LEVEL,5,5,6,13,17,23,29,33,37,40,44,49,54,60,65,69,71,75,81,85,88,89,95
team1_SBIRES,0,0,10,30,51,76,104,130,154,176,181,209,217,243,267,298,326,339,364,402,419,424,427
delta_KILLS,0,2,2,2,5,8,4,5,1,3,2,8,8,8,8,8,12,12,9,6,7,11,15
delta_CURRENTGOLD,0,1270,739,-674,3564,6813,2457,334,-1351,4048,910,1682,765,1600,318,3808,3792,2010,-1310,-10427,-3053,-459,956
delta_TOTALGOLD,0,1010,1249,876,2904,3583,1812,1739,1469,4888,4250,7077,6660,6030,4998,3488,5347,5605,2830,-682,1377,3860,6436
delta_LEVEL,0,0,0,-1,2,2,-2,-2,-4,2,0,2,3,0,-1,0,3,3,-2,-2,2,8,8
delta_SBIRES,0,0,1,4,11,12,8,1,9,28,34,37,48,43,27,29,26,35,11,-6,3,20,35
