name,frame_0,frame_1,frame_2,frame_3,frame_4,frame_5,frame_6,frame_7,frame_8,frame_9,frame_10,frame_11,frame_12,frame_13,frame_14,frame_15,frame_16,frame_17,frame_18,frame_19,frame_20,frame_21,frame_22,frame_23,frame_24,frame_25,frame_26,frame_27,frame_28
nameStamp,Tstart,Tearly,Tearly,Tearly,Tearly,Tearly,Tearly,Tearly,Tearly,Tearly,Tearly,Tearly,Tearly,Tearly,Tearly,Tearly,Tmid,Tmid,Tmid,Tmid,Tmid,Tmid,Tmid,Tmid,Tmid,Tend,Tend,Tend,Tend
timestamp,0,60009,120037,180038,240055,300066,360073,420074,480088,540121,600144,660186,720208,780229,840261,900268,960289,1020304,1080306,1140334,1200352,1260357,1320385,1380396,1440412,1500420,1560447,1620447,1680454
participant_0_GOLD,500,500,598,969,1204,1403,1687,2071,2388,2616,2885,3244,3954,4244,4514,5177,5561,6004,6386,6935,7099,7507,7643,7853,8060,8218,8757,8879,9037
participant_0_CURRENTGOLD,500,0,98,469,704,903,177,561,878,591,860,1219,1079,569,839,252,636,1079,1461,2010,624,1032,1168,88,295,453,992,1114,22
participant_0_LEVEL,1,1,1,3,4,5,6,6,7,7,8,9,10,10,10,11,11,12,12,13,13,13,13,14,14,14,14,14,14
participant_0_MINIONSKILLED,0,0,4,16,22,27,36,49,57,63,72,82,95,105,114,119,130,144,156,164,166,174,175,175,175,177,180,180,182
participant_0_KILLS,0,0,0,0,0,0,0,0,0,0,0,0,1,1,1,2,2,2,2,3,3,3,3,3,3,3,4,4,4
participant_0_BUY,[],"[1056, 2003, 2003, 3340]",[],[],[],[],"[1052, 1027, 2031, 2055]",[],[],[3802],[],[],[],"[1026, 3020]",[],[6655],[],[],[],[],"[3113, 3057]",[],[],[3100],[],[],[],[],[1058]
participant_0_SOLD,[],[],[],[],"[2010, 2003]","[2010, 2003]",[],[],[2055],"[2010, 1052, 1027]",[],[],[],[2422],[],"[3802, 1026]",[],[],[],[],[],[],[],"[1056, 3057, 3113]",[],[],[],[],[]
participant_0_UNDO,[],[],[],[],[],[],[],[],[],[],[],[],[],[],[],[],[],[],[],[],[],[],[],[],[],[],[],[],[]
participant_1_GOLD,500,500,537,936,1194,1337,1650,1986,2116,2627,2864,3122,3329,3956,4200,4457,4813,5140,6088,6211,6769,7402,7554,8434,8969,9127,9856,10813,11070
participant_1_CURRENTGOLD,500,0,37,436,319,162,475,811,106,617,854,262,469,1096,1340,882,403,730,1678,411,969,102,254,234,769,927,856,1813,30
participant_1_LEVEL,1,1,1,2,3,3,4,5,5,6,6,6,7,7,8,8,9,9,10,10,11,11,11,12,12,13,13,14,14
participant_1_MINIONSKILLED,0,0,0,0,0,1,1,3,3,3,4,4,4,4,5,5,9,9,27,27,38,50,51,51,60,62,65,86,89
participant_1_KILLS,0,0,0,0,0,0,0,0,0,0,0,1,1,1,1,1,1,1,1,1,1,1,1,1,1,1,1,1,1
participant_1_BUY,[],"[3850, 2003, 2003, 3340]",[],[],[],"[1082, 1001]",[],[],[3117],[],[],[],"[3364, 4642, 2055, 2055]",[],[],[3067],[],[],[],"[4005, 2055]",[],[],[1004],[],[],[],[],[1026],[]
participant_1_SOLD,[],[],[],"[2003, 2003]",[],[],[],[3850],[1001],[],[],[],[3340],[3851],[],[],[],[2055],[],"[2055, 3067, 4642]",[],[],[2055],[],[],[],[],[],[]
participant_1_UNDO,[],[],[],[],[],[],[],[],[],[],[],[],[],[],[],[],[],[],[],[],[],[],[],[],[],[],[],[],[]
participant_2_GOLD,500,500,626,969,1225,1648,1963,2688,2963,3177,3327,3714,4019,4615,4982,5399,5626,5971,6207,6688,7175,7483,7766,8739,9056,9798,10955,11077,11849
participant_2_CURRENTGOLD,500,0,126,459,715,1128,333,1058,73,287,437,214,509,5,372,789,416,761,397,878,1365,1673,716,1689,506,129,385,507,680
participant_2_LEVEL,1,1,1,3,4,5,6,6,7,7,7,8,9,9,10,10,11,11,11,12,12,12,12,13,13,13,14,14,15
participant_2_MINIONSKILLED,0,0,6,16,23,38,46,54,60,65,67,79,87,92,106,113,119,128,131,138,150,155,164,164,171,171,172,172,174
participant_2_KILLS,0,0,0,0,0,0,0,1,1,1,1,1,1,2,2,2,2,2,2,2,2,2,2,3,3,4,5,5,6
participant_2_BUY,[],"[1055, 1054, 3340, 2003]",[],[],[],[],[3006],[],"[6677, 1042, 2031]",[],[],[1018],[],[3124],[],[],[1018],[],[1018],[],[],[],[6670],[],[6673],[1038],[1053],[],[3072]
participant_2_SOLD,[],[],[],[],[],[2003],[],[],[],[],[],[],[],"[6677, 1018, 1042]",[],[],[],[],[],[],[],[],[2031],[],"[6670, 1018]",[1054],[],[],"[1038, 1018, 1053]"
participant_2_UNDO,[],"[[0, 1055]]",[],[],[],[],[],[],[],[],[],[],[],[],[],[],[],[],[],[],[],[],[],[],[],[],[],[],[]
participant_3_GOLD,500,500,584,818,1071,1235,1812,2130,2405,2668,3044,3366,3586,3792,4281,4403,4659,4901,5115,5343,5465,5799,5963,6173,6574,6789,7274,7633,7927
participant_3_CURRENTGOLD,500,0,84,318,571,85,662,980,305,568,944,1266,1486,767,1256,128,309,551,765,193,240,574,738,948,374,589,424,783,642
participant_3_LEVEL,1,1,1,2,3,4,4,6,6,6,7,7,8,8,8,8,9,9,9,9,9,10,10,11,11,11,12,13,13
participant_3_MINIONSKILLED,0,0,3,9,14,17,26,37,43,51,63,66,72,77,85,85,94,101,104,111,111,116,119,119,131,136,140,150,151
participant_3_KILLS,0,0,0,0,0,0,1,1,1,1,1,1,1,1,1,1,1,1,1,1,1,1,1,1,1,1,1,1,1
participant_3_BUY,[],"[2033, 3340]",[],[],[],"[1027, 1001]",[],[],[3802],[],[],[],[],"[1026, 2055]",[],[6655],[2055],[],[],[3020],"[2055, 3363]",[],[],[],"[3191, 2055]",[],[2420],[],[1052]
participant_3_SOLD,[],[],[],[],[2010],[2010],[],[],[1027],[],[2010],[],[],[],[2055],"[3802, 1026]",[],[2055],[],[1001],"[3340, 2055]",[],[],[],[],[],[],[2055],[]
participant_3_UNDO,[],[],[],[],[],[],[],[],[],[],[],[],[],[],[],[],[],[],[],[],[],[],[],[],[],[],[],[],[]
participant_4_GOLD,500,500,543,777,1052,1220,1595,1892,2073,2274,2534,3075,3285,3698,3948,4088,4229,4409,4599,4855,4995,5195,5336,5564,5704,5845,6006,6146,6377
participant_4_CURRENTGOLD,500,0,43,277,552,70,445,742,223,424,684,1225,235,648,898,238,379,559,750,80,220,421,311,539,679,820,981,271,502
participant_4_LEVEL,1,1,1,2,3,3,4,4,5,5,6,6,6,7,7,7,8,8,8,8,9,9,9,9,9,10,10,10,10
participant_4_MINIONSKILLED,0,0,0,0,0,1,2,2,3,3,3,3,4,4,5,5,5,7,7,9,9,10,10,10,10,10,11,11,12
participant_4_KILLS,0,0,0,0,0,0,0,0,0,0,0,0,0,1,1,1,1,1,1,1,1,1,1,2,2,2,3,3,3
participant_4_BUY,[],"[1039, 3340, 2031, 3364]",[],[],"[1042, 2055]",[1042],[],[],"[1043, 1052]",[],[],[1026],[],[],[],[3115],"[1052, 1028]",[],[],"[1026, 4635, 2055]",[],"[4633, 1029, 2055, 2055]",[],"[3191, 1029]",[],[],[3111],[],"[3157, 3076]"
participant_4_SOLD,[],[3340],[],[],[],[],[],[2055],"[1042, 1042]",[1039],[],[],[],[],[],"[1043, 1026, 1052]",[],[3364],[],"[1028, 1052]",[2055],"[3513, 4635, 1026]",[2055],"[2055, 1029]",[],[],[2422],[],"[3191, 2031, 1029]"
participant_4_UNDO,[],[],[],[],[],[],[],[],[],[],[],[],[],[],[],[],[],[],[],[],[],[],[],[],[],[],[],[],[]
participant_5_GOLD,500,500,563,797,1248,1546,1864,2157,2531,3085,3756,4184,4390,4674,5511,6698,7196,7410,8298,9054,9309,9729,10088,10683,11105,11572,12896,13018,13581
participant_5_CURRENTGOLD,500,0,63,297,748,1046,214,507,881,1435,2106,2534,65,349,1186,2373,2871,270,1158,1914,2169,414,773,23,446,912,1536,384,946
participant_5_LEVEL,1,1,1,2,4,5,6,6,7,8,8,9,9,10,10,11,12,12,12,13,13,14,14,14,15,15,16,16,16
participant_5_MINIONSKILLED,0,0,2,8,18,25,36,43,54,60,70,84,89,98,108,121,127,132,135,149,157,173,183,183,183,193,201,201,201
participant_5_KILLS,0,0,0,0,0,0,0,0,0,1,1,1,1,1,2,3,3,3,5,6,6,6,6,7,7,7,9,9,10
participant_5_BUY,[],"[1054, 2003, 3340]",[],[],[],[],"[3057, 1001, 2031]",[],[],[],[],[],"[6632, 2055]",[],[],[],[],"[1053, 3133, 1037]",[],[],[],"[3074, 3155, 1033]",[],"[3111, 3133, 2055]",[],[],[3156],"[1037, 1028]",[]
participant_5_SOLD,[],[],[],[2003],[],[],[],[],[],[],[],[],[3057],[2055],[],[],[],[2031],[],[],[],"[1037, 1053, 3133]",[],"[1001, 1033, 1054]",[2055],[],"[3155, 3133]",[],[]
participant_5_UNDO,[],[],[],[],[],[],[],[],[],[],[],[],[],[],[],[],[],[],[],[],[],[],[],[],[],[],[],[],[]
participant_6_GOLD,500,500,752,974,1182,1571,1719,1990,2637,3130,3629,4072,4314,4712,5239,5682,6421,6568,7098,7710,8164,8481,8631,9336,9869,10166,10698,11276,12020
participant_6_CURRENTGOLD,500,0,252,474,682,1071,44,315,962,1455,1954,572,814,1212,1739,307,1046,293,823,1435,1889,231,381,1087,519,151,684,1261,2006
participant_6_LEVEL,1,1,2,2,3,4,4,5,6,6,7,7,8,8,9,10,10,10,11,11,12,12,12,13,14,14,14,15,16
participant_6_MINIONSKILLED,0,0,0,0,0,0,0,1,1,1,1,1,1,1,1,2,4,4,7,8,18,23,25,32,32,32,33,33,37
participant_6_KILLS,0,0,1,1,2,2,2,2,2,2,3,3,5,5,5,5,5,5,5,6,6,7,7,9,9,11,11,11,12
participant_6_BUY,[],"[1054, 2003]","[1082, 2003]",[],[],[1026],[1001],[1052],[],[],[],[],[],"[4633, 1052]",[],[],[],"[3020, 3916, 1052]",[],[],[3165],[],[],[],[3157],[],[],[1058],[]
participant_6_SOLD,[],[],[],[2003],[2003],[],[],[],[],[],[],[],[],"[1052, 1026]",[],[],[],"[1001, 1052]",[],[],[3916],[],[],[],[1052],[],[],[1054],[]
participant_6_UNDO,[],[],[],[],[],[],[],[],[],[],[],[],[],[],[],[],[],[],[],[],[],[],[],[],[],[],[],[],[]
participant_7_GOLD,500,500,941,1196,1811,2066,2339,2538,2862,3181,3787,4131,4907,5337,5847,6195,6679,6997,7655,8252,8590,8992,9114,9854,10662,11615,11948,12071,12968
participant_7_CURRENTGOLD,500,0,41,296,901,296,259,23,337,656,1262,1596,2372,452,952,1300,1784,502,1160,1757,395,797,919,1659,402,1355,1689,741,1639
participant_7_LEVEL,1,1,1,3,4,5,5,6,6,7,8,8,9,9,10,10,11,11,11,12,12,12,13,13,14,14,14,14,15
participant_7_MINIONSKILLED,0,0,0,7,15,20,26,30,39,50,61,71,72,80,90,96,101,108,123,135,143,148,148,148,161,167,170,170,183
participant_7_KILLS,0,0,0,0,0,1,1,1,1,1,1,1,1,1,1,1,1,1,1,1,1,1,1,1,1,1,1,1,1
participant_7_BUY,[],"[3850, 2003, 2003, 3340]",[],[],[],[],"[4642, 2055, 2031]",[],[],[],[],"[3067, 1001]",[],[],"[6617, 2055]",[],[3158],"[1004, 2055, 2055, 3364]",[],[],"[3114, 2055, 2055]",[],[],[],[1026],[],[],"[3504, 1057, 3114, 2055, 2055]",[]
participant_7_SOLD,[],[],[],[],"[2003, 2003]",[],[],[],[3850],[],[],[],[],[3851],"[3067, 4642]",[2055],[1001],"[3340, 2055]",[2055],[],[1004],[2055],[],[2055],[],[],[],"[3114, 1026, 2031]",[2055]
participant_7_UNDO,[],[],[],[],[],[],"[[0, 2055]]",[],[],[],[],[],[],[],[],[],[],[],[],[],[],[],[],[],[],[],[],"[[0, 1057]]",[]
participant_8_GOLD,500,500,591,839,1102,1364,1564,1840,2179,2470,2713,3037,3187,3553,3996,5250,5866,6018,6443,6796,7423,7692,7971,8301,8842,9694,10223,10680,11232
participant_8_CURRENTGOLD,500,0,91,339,602,864,64,340,679,970,1213,1537,237,303,446,1700,1116,368,793,106,733,1002,1281,1111,1652,2504,3033,491,1042
participant_8_LEVEL,1,1,1,2,3,4,4,5,6,6,7,7,8,8,8,9,9,9,10,11,11,11,12,12,13,13,14,14,15
participant_8_MINIONSKILLED,0,0,0,7,16,25,29,37,50,59,63,71,73,78,78,86,98,99,106,115,121,125,130,130,137,142,148,149,155
participant_8_KILLS,0,0,0,0,0,0,0,0,1,1,1,2,2,2,2,2,3,3,3,4,4,4,4,5,5,5,5,5,6
participant_8_BUY,[],"[1035, 2031, 3340]",[],[],[],[],"[3134, 2055]",[],[],[],[],"[3133, 1001, 1036, 2055, 3364]",[],[],[],"[6691, 3111, 2055]",[],"[3134, 2055, 2055]",[],[],[],"[3142, 2055]",[],[],[3134],"[2420, 2055]",[],[],[]
participant_8_SOLD,[],[],[],[],[],[],[],[],[2055],[1035],[],[3340],[2055],[],[],"[3134, 3133, 1001]",[2055],"[1036, 2055]",[],[],[2055],[3134],[],[2055],[],[2031],[],[],"[2420, 2055]"
participant_8_UNDO,[],[],[],[],[],[],[],[],[],[],[],[],[],[],[],[],[],[],[],[],[],[],[],[],[],[],[],[],[]
participant_9_GOLD,500,500,583,817,1072,1561,1735,1869,2248,2448,2762,2903,3418,3799,4089,4717,5096,5236,5614,5842,5983,6241,6381,6774,7214,7875,8242,8383,8764
participant_9_CURRENTGOLD,500,0,83,317,572,1061,35,169,548,748,1062,103,618,999,364,992,771,511,889,1118,558,816,957,1349,940,1600,1967,568,949
participant_9_LEVEL,1,1,1,2,3,4,4,4,4,5,5,6,6,7,7,8,8,8,9,9,9,10,10,10,11,12,12,12,13
participant_9_MINIONSKILLED,0,0,0,0,0,0,0,0,1,1,2,2,6,6,6,6,7,7,8,8,8,9,9,10,10,15,16,16,16
participant_9_KILLS,0,0,0,0,0,0,0,0,0,0,0,0,0,0,1,4,4,4,4,4,4,4,4,4,4,5,5,6,7
participant_9_BUY,[],"[1054, 2003]",[],[],[],[],"[1053, 2003, 2003]",[],[],[],[],[],"[6670, 2031]",[1001],[1042],[],[6673],"[6672, 3363]",[],"[3006, 1042, 1042]",[],[],[],"[6677, 1042]",[],[],[],"[3124, 1038]",[]
participant_9_SOLD,[],[],[],[2003],[],[],[],[],[],[],"[2003, 2003]",[],[],[],[],[],"[6670, 1053]","[6670, 3340]",[],"[1001, 1042, 2031]",[],[],[],"[1042, 1042]",[],[],[],"[6677, 1042]",[]
participant_9_UNDO,[],[],[],[],[],[],[],[],[],[],[],[],[],[],[],[],[],"[[0, 6673]]",[],[],[],[],[],[],[],[],[],[],[]
team0_KILLS,0,0,0,0,0,0,1,2,2,2,2,3,4,6,6,7,7,7,7,8,8,8,8,10,10,11,14,14,15
team0_CURRENTGOLD,2500,0,388,1959,2861,2348,2092,4152,1585,2487,3779,4186,3778,3085,4705,2289,2143,3680,5051,3572,3418,3802,3187,3498,2623,2918,3638,4488,1876
team0_TOTALGOLD,2500,2500,2888,4469,5746,6843,8707,10767,11945,13362,14654,16521,18173,20305,21925,23524,24888,26425,28395,30032,31503,33386,34262,36763,38363,39777,42848,44548,46260
team0_LEVEL,5,5,5,12,17,20,24,27,30,31,34,36,40,41,43,44,48,49,50,52,54,55,55,59,59,61,63,65,66
team0_SBIRES,0,0,13,41,59,84,111,145,166,185,209,234,262,282,315,327,357,389,425,449,474,505,519,519,547,556,568,599,608
team1_KILLS,0,0,1,1,2,3,3,3,4,5,6,7,9,9,11,15,16,16,18,21,21,22,22,26,26,29,31,32,36
team1_CURRENTGOLD,2500,0,530,1723,3505,4338,616,1354,3407,5264,7597,6342,4106,3315,4687,6672,7588,1944,4823,6330,5744,3260,4311,5229,3959,6522,8909,3445,6582
team1_TOTALGOLD,2500,2500,3430,4623,6415,8108,9221,10394,12457,14314,16647,18327,20216,22075,24682,28542,31258,32229,35108,37654,39469,41135,42185,44948,47692,50922,54007,55428,58565
team1_LEVEL,5,5,6,11,17,22,23,26,29,32,35,37,40,42,44,48,50,50,53,56,57,59,61,62,67,68,70,71,75
team1_SBIRES,0,0,2,22,49,70,91,111,145,171,197,229,241,263,283,311,337,350,379,415,447,478,495,503,523,549,568,569,592
delta_KILLS,0,0,-1,-1,-2,-3,-2,-1,-2,-3,-4,-4,-5,-3,-5,-8,-9,-9,-11,-13,-13,-14,-14,-16,-16,-18,-17,-18,-21
delta_CURRENTGOLD,0,0,-142,236,-644,-1990,1476,2798,-1822,-2777,-3818,-2156,-328,-230,18,-4383,-5445,1736,228,-2758,-2326,542,-1124,-1731,-1336,-3604,-5271,1043,-4706
delta_TOTALGOLD,0,0,-542,-154,-669,-1265,-514,373,-512,-952,-1993,-1806,-2043,-1770,-2757,-5018,-6370,-5804,-6713,-7622,-7966,-7749,-7923,-8185,-9329,-11145,-11159,-10880,-12305
delta_LEVEL,0,0,-1,1,0,-2,1,1,1,-1,-1,-1,0,-1,-1,-4,-2,-1,-3,-4,-3,-4,-6,-3,-8,-7,-7,-6,-9
delta_SBIRES,0,0,11,19,10,14,20,34,21,14,12,5,21,19,32,16,20,39,46,34,27,27,24,16,24,7,0,30,16
