name,frame_0,frame_1,frame_2,frame_3,frame_4,frame_5,frame_6,frame_7,frame_8,frame_9,frame_10,frame_11,frame_12,frame_13,frame_14,frame_15,frame_16,frame_17,frame_18,frame_19,frame_20,frame_21,frame_22
nameStamp,Tstart,Tearly,Tearly,Tearly,Tearly,Tearly,Tearly,Tearly,Tearly,Tearly,Tearly,Tearly,Tearly,Tearly,Tearly,Tearly,Tmid,Tmid,Tmid,Tmid,Tmid,Tmid,Tmid
timestamp,0,60002,120011,180038,240043,300084,360109,420142,480171,540179,600181,660182,720207,780208,840234,900238,960271,1020279,1080280,1140291,1200293,1260312,1320339
participant_0_GOLD,500,500,576,839,1032,1350,1763,1962,2175,2503,3418,3597,3920,4346,4627,4770,5267,5864,6706,7314,7527,7650,7944
participant_0_CURRENTGOLD,500,0,76,339,182,500,913,137,50,378,1293,172,495,921,1202,145,642,1239,906,1514,627,460,204
participant_0_LEVEL,1,1,1,3,3,4,5,6,7,7,8,8,9,10,10,10,11,11,12,13,13,13,14
participant_0_MINIONSKILLED,0,0,3,11,15,23,37,42,48,57,66,69,80,91,97,98,113,117,130,143,148,148,151
participant_0_KILLS,0,0,0,0,0,0,0,1,1,1,1,1,1,2,3,3,4,4,5,7,7,7,8
participant_0_BUY,[],"[1041, 2031, 3340]",[],[],[],"[3715, 1001]",[],[],[],[],[],[],"[1412, 1042]",[],"[3006, 3134]",[],[],"[1036, 1036]",[],[],[],[],"[3179, 3147]"
participant_0_SOLD,[],[],[],[],[],[1041],[],[],[],[],[],[],[3715],[],"[1001, 1042]",[],[],[],[],[],[],[],"[3134, 1036, 1036]"
participant_0_UNDO,[],[],[],[],[],[],[],[],[],[],[],[],[],[],[],[],[],[],[],[],[],[],[]
participant_1_GOLD,500,500,628,1038,1366,1573,1785,2379,2601,2876,3280,3402,3745,4457,5145,5352,5978,6310,7453,8329,8863,9232,9760
participant_1_CURRENTGOLD,500,0,128,538,866,123,335,929,1151,1426,1830,1952,370,1082,170,377,1003,635,1778,2654,3188,3557,585
participant_1_LEVEL,1,1,2,3,4,4,5,5,6,6,7,7,8,9,9,9,10,10,11,11,12,12,13
participant_1_MINIONSKILLED,0,0,0,4,4,4,4,5,5,7,7,7,7,7,7,7,8,8,18,19,22,23,23
participant_1_KILLS,0,0,0,1,1,1,1,1,1,1,1,1,1,2,2,2,5,6,6,7,7,9,10
participant_1_BUY,[],"[1056, 2003, 2003, 3340]",[],[],"[1052, 1001, 2003]",[],[],[],"[3145, 1028]",[3067],[],[],"[3152, 1033]",[],[],[],[],"[3111, 1026, 1052, 3135]",[],[],[3136],[1026],[]
participant_1_SOLD,[],[],[],[2003],[],[],[],[2003],"[1052, 2003]",[1028],[],[],"[3145, 3067]",[],[],[],[],"[1001, 1033, 1056, 1026, 1052]",[],[],[],[],[]
participant_1_UNDO,[],[],[],[],[],[],[],[],[],[],[],[],[],[],[],[],[],[],[],[],[],[],[]
participant_2_GOLD,500,500,604,1122,1343,1668,2046,2479,2754,3126,3395,3677,3996,4833,5136,5370,6579,7199,7874,8820,8957,9647,10313
participant_2_CURRENTGOLD,500,0,104,622,58,383,761,1194,454,426,695,977,196,1033,1336,1570,2779,559,1234,2180,817,657,1324
participant_2_LEVEL,1,1,1,2,3,4,5,6,7,7,8,8,8,9,10,10,11,12,12,13,13,13,14
participant_2_MINIONSKILLED,0,0,5,8,14,23,35,44,50,61,69,75,84,91,97,104,114,120,127,132,133,135,136
participant_2_KILLS,0,0,0,0,0,0,0,0,0,0,1,1,1,1,1,1,1,1,2,2,2,2,2
participant_2_BUY,[],"[1036, 2031, 3340]",[],[],[1036],[],[],"[3144, 2055]",[1001],[],[],"[1043, 1029]",[],[],[],"[3153, 3047]",[],[],"[3133, 2055]",[],"[1053, 3105]",[1036],[1053]
participant_2_SOLD,[],[],[],[],[],[],[],"[1036, 1036]",[],[],[],[],[],[2055],[],"[3144, 1043, 1001, 1029]",[],[],[],[],[],"[2031, 2055]",[1036]
participant_2_UNDO,[],[],[],[],[],[],[],[],[],[],[],[],[],[],[],[],[],[],[],[],"[[0, 1053]]",[],[]
participant_3_GOLD,500,500,583,818,983,1196,1438,1787,2049,2333,2541,3564,3848,3970,4622,4877,5450,5622,6924,7347,7811,8605,9027
participant_3_CURRENTGOLD,500,0,83,318,483,261,503,852,1114,1398,1606,699,983,305,957,1212,300,472,1774,107,571,815,1237
participant_3_LEVEL,1,1,1,2,3,3,4,5,5,6,6,7,7,7,8,8,9,9,10,10,10,11,11
participant_3_MINIONSKILLED,0,0,3,10,12,15,22,32,40,49,51,51,57,57,64,68,68,68,78,78,81,84,84
participant_3_KILLS,0,0,0,0,0,0,0,0,0,0,0,0,0,0,0,0,0,0,0,0,0,0,0
participant_3_BUY,[],"[3850, 2003, 2003, 3340]",[],[],[],[],"[2031, 1001]",[],[],[],"[1052, 1027]",[],[],[3802],[],[],[1026],[],[],[],[],[],"[3285, 3020]"
participant_3_SOLD,[],[],[],[],[2003],"[2010, 2010, 2003]",[],[2010],[],[],[],[],[],"[1052, 1027]",[],[],[3850],[],[],[],[],[],"[3802, 1026, 1001]"
participant_3_UNDO,[],[],[],[],[],[],[],[],[],[],[],[],[],[],[],[],[],[],[],[],[],[],[]
participant_4_GOLD,500,500,537,672,882,1091,1226,1390,1554,1689,1823,2165,2383,2517,2807,3000,3330,3564,3969,4205,4376,4877,5017
participant_4_CURRENTGOLD,500,0,37,172,382,591,276,440,604,739,88,430,648,267,557,750,230,464,869,1105,1276,1777,67
participant_4_LEVEL,1,1,1,2,3,4,4,4,5,6,6,6,7,7,7,8,8,8,9,9,9,10,10
participant_4_MINIONSKILLED,0,0,0,0,0,0,0,0,1,1,1,3,8,8,8,9,9,10,10,10,11,12,12
participant_4_KILLS,0,0,0,0,0,0,0,0,0,0,0,2,2,2,3,3,4,4,6,6,7,9,10
participant_4_BUY,[],"[1056, 2003, 2003, 3340]",[],[],[],[1052],[],[],[],[],[],"[3802, 1026, 2055, 1001]",[],[3020],[],[],"[3285, 1052]",[],[],"[3916, 1026, 2055, 3363]",[],[3165],[]
participant_4_SOLD,[],[],[],[],[],"[2003, 2003]",[],[],[],[],[],"[1052, 1056]",[2055],[1001],[],[],"[3802, 1026]",[],[],"[1052, 3340]",[],"[2055, 3916, 1026]",[]
participant_4_UNDO,[],[],[],[],[],[],[],[],[],[],[],[],[],[],[],[],[],[],[],[],[],[],[]
participant_5_GOLD,500,500,583,853,1475,1814,2104,2380,3013,3539,3818,4152,4833,5152,5416,6014,6136,6467,6754,7029,7265,7387,7598
participant_5_CURRENTGOLD,500,0,83,353,100,439,729,255,888,1414,193,527,1208,1527,1791,139,261,592,179,454,690,262,473
participant_5_LEVEL,1,1,1,3,4,5,6,6,8,8,8,9,9,10,10,11,11,11,12,12,12,12,13
participant_5_MINIONSKILLED,0,0,3,11,19,29,37,46,56,61,67,74,84,95,103,109,109,117,118,123,130,130,131
participant_5_KILLS,0,0,0,1,1,1,1,1,1,1,1,2,2,3,3,3,3,3,3,3,3,3,3
participant_5_BUY,[],"[1055, 2003, 3340]",[],[],"[1042, 1042]",[],[],"[3086, 2055]",[],[1001],[],[],"[3046, 1042]","[3006, 1042]",[],[],[],[1043],[],[1033],[],"[1057, 1042]",[]
participant_5_SOLD,[],[],[],[2003],[],[],[],[1042],[2055],[],[],[],"[1042, 3086]","[1001, 1042]",[],[],[],[1042],[],[],[],[1033],[]
participant_5_UNDO,[],[],[],[],[],[],[],[],[],[],[],[],[],[],[],[],[],[],[],[],[],[],[]
participant_6_GOLD,500,500,620,1033,1291,1591,2196,2445,2667,2980,3227,3757,4095,4272,4522,4907,5304,5650,6097,6219,6913,7035,7607
participant_6_CURRENTGOLD,500,0,120,533,66,366,971,1220,342,655,202,207,545,22,272,657,304,650,347,469,462,235,807
participant_6_LEVEL,1,1,2,3,3,4,5,5,5,6,6,6,7,7,7,8,8,9,9,9,10,10,10
participant_6_MINIONSKILLED,0,0,0,0,0,2,2,4,4,4,8,10,10,10,12,15,15,15,15,15,16,16,16
participant_6_KILLS,0,0,0,0,0,0,1,1,1,1,1,2,2,2,2,2,3,3,4,4,5,5,6
participant_6_BUY,[],"[1039, 2031, 3340]",[],[],"[3706, 2055]",[],[],[],[3133],[],[3117],[1400],[],"[1036, 1036]",[],[],"[3134, 1036]",[],[3133],[],[3147],[1036],[]
participant_6_SOLD,[],[],[],[],[1039],[],[],[],[],[],[2422],"[3133, 3706]",[],[],[],[2055],"[1036, 1036]",[],[1036],[],"[3134, 3133]",[],[]
participant_6_UNDO,[],[],[],[],[],[],[],[],[],[],[],[],[],[],[],[],[],[],[],[],[],[],[]
participant_7_GOLD,500,500,590,1238,1487,1770,2113,2312,2573,2859,3163,3772,4021,4588,4862,5160,5303,5426,5703,6007,6397,6519,6858
participant_7_CURRENTGOLD,500,0,90,738,387,670,1013,37,298,284,588,1197,246,13,287,585,728,151,428,282,672,224,563
participant_7_LEVEL,1,1,1,3,4,5,6,6,7,7,8,9,9,9,9,10,10,10,10,11,11,11,11
participant_7_MINIONSKILLED,0,0,4,10,18,25,34,38,43,49,59,65,69,69,74,78,79,79,86,92,98,98,107
participant_7_KILLS,0,0,0,0,0,1,1,1,1,1,2,3,3,4,4,4,5,5,5,5,5,5,6
participant_7_BUY,[],"[1055, 2003, 3340]",[],[],[],[],[1038],[],[],[],[],[3508],[],[],[3006],[],[],[1037],[1018],[],[],[],[]
participant_7_SOLD,[],[],[],[],[2010],"[2010, 2003]",[],[],[2010],[],[],[1038],[],[],[2422],[],[],[],[],[],[],[],[]
participant_7_UNDO,[],[],[],[],[],[],[],[],[],[],[],[],[],[],[],[],[],[],[],[],[],[],[]
participant_8_GOLD,500,500,583,853,1155,1799,1997,2224,2367,2706,3438,3916,4129,4794,4916,5124,5688,5971,6357,6529,7014,7136,8334
participant_8_CURRENTGOLD,500,0,83,353,655,1299,197,424,567,906,1638,116,329,994,316,524,1088,496,82,254,739,861,2059
participant_8_LEVEL,1,1,1,2,3,4,4,5,5,6,7,7,7,8,8,8,9,9,10,10,10,10,11
participant_8_MINIONSKILLED,0,0,3,11,19,27,27,33,34,44,52,55,60,69,69,71,74,79,83,86,96,96,96
participant_8_KILLS,0,0,0,0,0,1,1,1,1,1,2,2,2,2,2,2,2,2,2,2,2,2,2
participant_8_BUY,[],"[2003, 2003, 3850, 3340]",[],[],[],[],"[1052, 3145, 2055]",[],[],[1052],[],[],"[3030, 2055]",[],[3020],[],"[3364, 1052]",[2055],[3113],[],[],[1052],[]
participant_8_SOLD,[],[],[],[],"[2003, 2010, 2003]",[2010],[1052],[2055],[2010],[],[],[],"[1052, 3145]",[3850],"[2055, 2422]",[],[3340],[2055],[1052],[],[],[],[]
participant_8_UNDO,[],[],[],[],[],[],[],[],[],[],[],[],[],[],[],[],[],[],[],[],[],[],[]
participant_9_GOLD,500,500,522,687,866,1479,1738,1902,2051,2186,2738,3382,3677,4129,4269,4460,4797,4983,5218,5373,5514,5817,6146
participant_9_CURRENTGOLD,500,0,22,187,366,979,113,277,426,126,678,1322,227,679,49,240,142,253,73,228,369,237,566
participant_9_LEVEL,1,1,1,2,3,4,4,5,5,5,6,7,7,7,7,7,8,8,8,8,8,9,9
participant_9_MINIONSKILLED,0,0,0,0,1,2,5,5,5,5,5,5,5,6,6,6,6,7,7,7,7,10,17
participant_9_KILLS,0,0,0,0,1,1,1,1,2,2,2,2,2,2,2,3,3,3,3,3,3,3,3
participant_9_BUY,[],"[1036, 2031, 3340]",[],[],"[3123, 1036, 2055]",[],[],[3134],[],[],"[1053, 1029, 1001]",[],[],[],[],"[3181, 3111, 1033]",[],[],"[3105, 1036]",[],[],[1053],[]
participant_9_SOLD,[],[],[],[],[1036],[],[2055],[1036],[],[],[],[3340],[3513],[],[],"[3134, 1053, 1001]",[],[],"[3340, 1033, 1029]",[2031],[],"[1036, 2031]",[3513]
participant_9_UNDO,[],[],[],[],[],[],[],[],[],[],[],[],[],[],[],[],[],[],[],"[[2031, 0]]",[],"[[2031, 0]]",[]
team0_KILLS,0,0,0,1,1,1,1,2,2,2,3,5,5,7,9,9,14,15,19,22,23,27,30
team0_CURRENTGOLD,2500,0,428,1989,1971,1858,2788,3552,3373,4367,5512,4230,2692,3608,4222,4054,4954,3369,6561,7560,6479,7266,3417
team0_TOTALGOLD,2500,2500,2928,4489,5606,6878,8258,9997,11133,12527,14457,16405,17892,20123,22337,23369,26604,28559,32926,36015,37534,40011,42061
team0_LEVEL,5,5,6,12,16,19,23,26,30,32,35,36,39,42,44,45,49,50,54,56,57,59,62
team0_SBIRES,0,0,11,33,45,65,98,123,144,175,194,205,236,254,273,286,312,323,363,382,395,402,406
team1_KILLS,0,0,0,1,2,4,5,5,6,6,8,11,11,13,13,14,16,16,17,17,18,18,20
team1_CURRENTGOLD,2500,0,398,2164,1574,3753,3023,2213,2521,3385,3299,3369,2555,3235,2715,2145,2523,2142,1109,1687,2932,1819,4468
team1_TOTALGOLD,2500,2500,2898,4664,6274,8453,10148,11263,12671,14270,16384,18979,20755,22935,23985,25665,27228,28497,30129,31157,33103,33894,36543
team1_LEVEL,5,5,6,13,17,22,25,27,30,32,35,38,39,41,41,44,46,47,49,50,51,52,54
team1_SBIRES,0,0,10,32,57,85,105,126,142,163,191,209,228,249,264,279,283,297,309,323,347,350,367
delta_KILLS,0,0,0,0,-1,-3,-4,-3,-4,-4,-5,-6,-6,-6,-4,-5,-2,-1,2,5,5,9,10
delta_CURRENTGOLD,0,0,30,-175,397,-1895,-235,1339,852,982,2213,861,137,373,1507,1909,2431,1227,5452,5873,3547,5447,-1051
delta_TOTALGOLD,0,0,30,-175,-668,-1575,-1890,-1266,-1538,-1743,-1927,-2574,-2863,-2812,-1648,-2296,-624,62,2797,4858,4431,6117,5518
delta_LEVEL,0,0,0,-1,-1,-3,-2,-1,0,0,0,-2,0,1,3,1,3,3,5,6,6,7,8
delta_SBIRES,0,0,1,1,-12,-20,-7,-3,2,12,3,-4,8,5,9,7,29,26,54,59,48,52,39
