name,team0,team1
win,Win,Fail
firstBlood,True,False
firstTower,True,False
firstInhibitor,True,False
firstBaron,False,False
firstDragon,False,True
firstRiftHerald,True,False
towerKills,11,0
inhibitorKills,4,0
baronKills,0,0
dragonKills,4,1
riftHeraldKills,1,0
