name,frame_0,frame_1,frame_2,frame_3,frame_4,frame_5,frame_6,frame_7,frame_8,frame_9,frame_10,frame_11,frame_12,frame_13,frame_14,frame_15,frame_16,frame_17,frame_18,frame_19,frame_20,frame_21,frame_22,frame_23,frame_24,frame_25,frame_26,frame_27,frame_28,frame_29
nameStamp,Tstart,Tearly,Tearly,Tearly,Tearly,Tearly,Tearly,Tearly,Tearly,Tearly,Tearly,Tearly,Tearly,Tmid,Tmid,Tmid,Tmid,Tmid,Tmid,Tmid,Tmid,Tmid,Tmid,Tmid,Tmid,Tmid,Tmid,Tmid,Tmid,Tmid
timestamp,0,60004,120032,180037,240065,300087,360107,420137,480170,540181,600208,660219,720250,780279,840312,900335,960368,1020400,1080424,1140452,1200473,1260484,1320494,1380524,1440546,1500552,1560574,1620585,1680609,1740609
participant_0_GOLD,500,500,541,713,934,1426,1831,1953,2262,2586,2745,2868,3173,3369,4065,4209,4742,4908,5709,5876,6276,6579,6701,7025,8739,8861,8983,9893,10336,10427
participant_0_CURRENTGOLD,500,0,41,213,434,476,881,228,137,461,220,43,348,194,890,284,817,983,1051,318,418,721,143,467,2181,83,206,1115,658,569
participant_0_LEVEL,1,1,1,2,4,5,6,6,6,7,7,8,8,8,9,9,10,10,11,11,12,12,12,12,13,13,14,14,14,14
participant_0_MINIONSKILLED,0,0,1,4,9,12,25,25,27,39,41,41,48,52,63,64,79,81,88,90,93,99,99,106,117,117,117,125,134,135
participant_0_KILLS,0,0,0,0,0,0,0,0,1,1,1,1,1,1,3,3,4,4,5,6,6,6,6,6,7,7,9,9,9,9
participant_0_BUY,[],"[1054, 2003, 3340]",[],[],[],[1026],[],[],[],[],"[4635, 1001]",[],[3111],[],[4633],[],[1026],[],[],"[3100, 1052]",[],[3191],[],[],[3157],[],[1026],[],[],[]
participant_0_SOLD,[],[],[],[],[2003],[],[],[],[],[],[],[],[1001],[],"[4635, 1026]",[],[],[],[],[1026],[],[1052],[],[],[3191],[],[],[],[],[]
participant_0_UNDO,[],[],[],[],[],[],[],[],[],[],[],[],[],[],[],[],[],[],[],[],[],[],[],[],[],[],[],[],[],[]
participant_1_GOLD,500,500,620,848,1148,1404,1613,1925,2459,2767,3305,3648,3929,4051,4375,4744,5093,5411,5883,6423,7019,7488,8145,8267,8841,8963,9742,10330,10598,10679
participant_1_CURRENTGOLD,500,0,120,348,648,904,328,640,224,532,1070,948,19,141,455,824,1173,1491,428,118,714,1183,1840,247,821,93,873,1460,78,179
participant_1_LEVEL,1,1,2,2,3,3,4,4,5,6,6,7,8,8,8,9,9,10,10,11,12,12,13,13,13,13,14,15,15,15
participant_1_MINIONSKILLED,0,0,0,0,0,0,0,0,1,1,3,3,11,11,17,20,20,22,22,24,30,33,33,33,33,33,37,45,49,49
participant_1_KILLS,0,0,0,0,0,0,2,2,2,3,4,4,6,6,6,6,6,6,6,6,6,6,6,6,7,7,8,8,9,9
participant_1_BUY,[],"[1055, 2003, 3340]",[],[],[],[],[6670],"[1042, 2003]",[],[],[],"[1037, 3006, 1042]",[],[],[],[],"[6672, 1053]",[],[],"[3086, 1042]",[2003],[],[],[],[1037],[],[3085],[],[],[]
participant_1_SOLD,[],[],[],[],[],[],[2003],[],[],[],[],"[1042, 2422]",[],[],[],[],"[6670, 1037, 1055]",[],[2003],[1042],[],[],[2003],[],[],[],"[1037, 3086, 1042]",[],[],[]
participant_1_UNDO,[],[],[],[],[],[],[],[],[],[],[],[],[],[],[],[],[],[],[],[],[],[],[],[],[],[],[],[],[],[]
participant_2_GOLD,500,500,597,927,1204,1494,1830,2106,2732,3067,3231,3799,3935,4267,5059,5455,5877,6289,7211,8311,8671,9072,9428,9941,10564,10696,11544,11953,12158,12238
participant_2_CURRENTGOLD,500,0,97,417,694,124,450,726,1352,1677,241,799,135,467,209,605,177,589,1511,26,386,322,678,1191,214,347,344,753,958,1088
participant_2_LEVEL,1,1,1,3,4,5,6,6,8,8,8,9,9,10,10,10,10,11,11,12,12,13,13,14,14,14,14,15,15,15
participant_2_MINIONSKILLED,0,0,4,13,22,29,39,48,57,66,68,81,82,88,88,100,100,113,116,118,128,140,145,159,159,160,160,170,171,171
participant_2_KILLS,0,0,0,0,0,0,0,0,0,0,0,0,0,0,0,0,0,0,0,0,0,0,0,0,0,0,0,0,0,0
participant_2_BUY,[],"[3854, 3340, 2003, 2003]",[],[],[],[],"[1001, 3067]",[2055],[],[],[],"[3117, 1029]",[],[],"[1033, 3364]",[],"[3105, 2055]",[],"[3190, 2055]",[],[],[3067],[],[],[1029],[],"[3024, 2055]",[],[],[3050]
participant_2_SOLD,[],[],[],[2003],[],[],[2010],[2055],[],"[2003, 2010, 2010]",[3854],[1001],[],[],[3340],[],"[1033, 1029]",[2055],"[3067, 3105]",[],[],[3855],[],[2055],[],[],[1029],[],[],"[3067, 3024]"
participant_2_UNDO,[],[],[],[],[],[],[],[],[],[],[],[],[],[],[],[],[],[],[],[],[],[],[],[],[],[],[],[],[],[]
participant_3_GOLD,500,500,520,790,1141,1445,2252,2465,2834,3492,4028,4241,4990,5356,5583,5804,5926,6457,6727,7088,7364,7633,7756,7962,8585,8771,9799,10201,10814,11055
participant_3_CURRENTGOLD,500,0,20,290,641,945,452,315,684,1342,1878,416,1165,1531,1758,1979,156,687,957,118,344,613,736,942,690,876,879,1282,1894,1955
participant_3_LEVEL,1,1,1,2,3,3,4,4,5,6,7,7,8,8,8,8,9,9,9,10,10,11,11,11,12,12,13,13,14,14
participant_3_MINIONSKILLED,0,0,0,8,19,27,32,37,49,61,65,70,84,89,89,94,94,109,115,116,121,130,130,135,135,139,149,158,166,171
participant_3_KILLS,0,0,0,0,0,0,0,0,1,1,2,2,2,2,2,2,2,2,3,4,5,5,6,6,7,7,8,8,8,8
participant_3_BUY,[],"[1039, 2003, 2003, 1039, 2003, 1039, 2031, 3340]",[],[],[],[],"[3108, 1052, 1027]",[],"[3802, 1052]",[],[],[3108],[6653],[],[],[],[],[],"[3020, 1052]",[1026],[],[],[],[3116],[],[1026],[],[],[3165],[]
participant_3_SOLD,[],[],[],[],[],[],[],[],"[1052, 1027]",[1039],[],[1052],"[3802, 3108]",[],[],[],[],[3340],[],[],[3513],[],[],"[1026, 1052]",[],[],[],[],[1026],[]
participant_3_UNDO,[],"[[0, 2003], [0, 2003], [0, 1039], [0, 2003], [0, 1039]]",[],[],[],[],"[[0, 3108]]",[],[],[],[],[],[],[],[],[],[],[],[],[],[],[],[],[],[],[],[],[],[],[]
participant_4_GOLD,500,500,543,720,957,1189,1645,1821,2014,2379,2643,2793,3201,3371,3617,3792,4082,4436,4626,4880,5125,5300,5462,5632,5823,6004,6269,6605,6858,6951
participant_4_CURRENTGOLD,500,0,43,220,457,689,75,176,369,734,998,148,556,726,522,697,162,516,231,485,730,105,267,437,328,509,99,436,689,51
participant_4_LEVEL,1,1,1,2,3,4,4,5,5,6,7,7,8,8,8,8,8,9,9,9,10,10,10,10,10,10,11,12,12,12
participant_4_MINIONSKILLED,0,0,1,3,6,9,10,12,15,17,17,18,22,23,23,25,25,31,31,34,36,38,39,40,40,41,41,45,47,47
participant_4_KILLS,0,0,0,0,0,1,1,1,1,1,1,1,1,1,1,1,1,1,1,1,1,1,1,1,2,2,2,3,3,3
participant_4_BUY,[],"[2033, 3340]",[],[],[],[1083],[],"[3057, 2055]",[1028],[],[3067],[1042],[],[1036],[],"[3051, 1001]",[],[],[3078],[1053],[1042],[],[1043],[],[],"[3153, 3047, 1042]",[],[],[1057],[]
participant_4_SOLD,[],[],[],[2010],[],[],[2010],[2055],[],[],[1028],[2010],[],[],[],"[1042, 1036]",[],[],"[3057, 3051, 3067]",[],[],[],[1042],[],[],"[1053, 1043, 1001, 1083]",[],[],[],[]
participant_4_UNDO,[],[],[],[],[],[],[],[],[],[],[],[],[],[],[],[],[],[],[],[],[],[],[],[],[],[],[],[],[],[]
participant_5_GOLD,500,500,583,839,1151,1315,1504,1815,2591,2968,3344,4213,4483,4873,5345,5722,5959,6400,6842,7245,7734,8068,8825,8998,9833,10025,10367,10545,10668,11026
participant_5_CURRENTGOLD,500,0,83,339,651,815,154,465,141,518,894,1763,2033,2423,695,1072,209,650,192,595,84,368,225,398,513,305,647,206,328,226
participant_5_LEVEL,1,1,1,3,4,4,5,6,7,7,8,9,9,10,11,11,11,12,12,13,13,13,14,14,14,14,15,15,15,15
participant_5_MINIONSKILLED,0,0,3,11,22,24,25,36,37,41,53,67,72,84,86,96,99,110,110,122,126,129,131,131,131,131,131,134,134,134
participant_5_KILLS,0,0,0,0,0,1,1,1,1,1,1,1,1,1,4,4,6,6,7,7,7,7,8,8,9,9,9,9,11,12
participant_5_BUY,[],"[3070, 2003, 2003, 3340]",[],[],[],[],"[3802, 1001]",[],[],[],[],"[1026, 3020]",[],[6655],[],"[1058, 1027]",[],[],"[3003, 1058]",[],[1058],[],[3089],[],[3916],[],[],[3165],[],[]
participant_5_SOLD,[],[],[],[],[],[],[],[],[],[],[2003],[1001],[],"[3802, 1026]",[],[],[],[],"[3070, 1058, 1027, 3003]",[],[],[],"[2003, 1058, 1058]",[],[],[],[],[3916],[],[]
participant_5_UNDO,[],[],[],[],[],[],[],[],[],[],[],[],[],[],[],[],[],[],[],[],[],[],[],[],[],[],[],[],[],[]
participant_6_GOLD,500,500,725,1018,1403,1660,1868,2120,2427,2891,3232,3540,4607,4759,5317,5729,5852,6382,6730,7677,8005,8532,9044,9472,9595,10137,10840,11289,11982,12571
participant_6_CURRENTGOLD,500,0,225,518,903,1160,268,520,827,641,982,1290,2357,459,217,629,252,782,230,1177,1505,582,1094,1522,295,838,241,689,1383,1971
participant_6_LEVEL,1,1,2,3,4,4,5,5,6,6,7,7,8,8,8,9,9,10,10,11,11,12,12,13,13,13,13,14,14,15
participant_6_MINIONSKILLED,0,0,0,0,0,0,0,0,0,1,2,2,4,5,5,5,5,9,9,9,9,9,15,15,15,15,15,21,25,25
participant_6_KILLS,0,0,0,0,0,0,0,0,2,2,2,3,3,3,3,3,3,3,4,4,5,5,6,6,8,8,8,8,8,8
participant_6_BUY,[],"[1054, 2003]",[],[],[],[],"[1028, 1028, 2003]",[],"[6660, 3076, 2003, 2003]",[],[],[],[],[],[3068],[],[3111],[],[1011],[],[3075],"[3364, 2003]",[1011],[],[1057],[1028],[],[3001],[],[]
participant_6_SOLD,[],[],[],[2003],[],[],[],[],"[1028, 1028]","[2003, 2003]",[2003],[],[],[],[6660],[],[],[],[],[],"[3076, 1011]",[3340],[],[],"[2003, 1054]",[],[],"[1028, 1011, 1057]",[],[]
participant_6_UNDO,[],[],[],[],[],[],[],[],[],[],[],[],[],[],[],[],[],[],[],[],[],[],[],[],[],[],[],[],[],[]
participant_7_GOLD,500,500,597,990,1232,1964,2171,2625,2858,3228,3887,4101,5092,5298,7355,7742,8654,9063,9621,9860,10229,10647,11777,12215,12784,13426,14260,14695,15771,16631
participant_7_CURRENTGOLD,500,0,97,480,722,1444,51,495,718,1078,1737,301,1282,238,2295,1082,1994,2403,711,951,69,487,317,756,525,1166,2000,736,1811,2731
participant_7_LEVEL,1,1,1,3,4,6,6,7,7,8,9,9,9,10,10,11,11,12,12,12,13,13,14,14,15,15,16,16,17,17
participant_7_MINIONSKILLED,0,0,4,17,24,34,39,55,59,70,82,88,98,103,110,117,125,133,142,145,155,164,178,180,189,207,213,223,232,241
participant_7_KILLS,0,0,0,0,0,0,0,0,0,1,1,1,2,2,2,2,2,3,3,5,5,6,6,6,6,7,9,9,10,11
participant_7_BUY,[],"[1035, 2031, 3340]",[],[],[],[],[3134],[],[],"[1001, 1036]",[],[],[],"[3133, 6691, 1029]","[3047, 1042]",[],[6677],[],"[1018, 1042]",[],[],"[3124, 1036]",[],[],"[3134, 1018]",[],[6676],[],[],[]
participant_7_SOLD,[],[],[],[],[],[],[],[],[],[],"[3340, 1035]",[],[3513],"[1036, 3134, 3133]","[1001, 1029]",[],[1042],[],[],[],[],"[6677, 1018, 1042]",[],[],[1036],[],"[3134, 1018]",[],[],[]
participant_7_UNDO,[],[],[],[],[],[],[],[],[],[],[],[],[],[],[],[],[],[],[],[],[],[],[],[],[],[],[],[],[],[]
participant_8_GOLD,500,500,583,867,1172,1497,1641,1994,2367,2546,2731,3006,3262,3405,4430,4628,5070,5339,5767,6290,6524,6900,7728,8152,8335,8507,8803,9073,9266,9584
participant_8_CURRENTGOLD,500,0,83,367,672,997,91,444,817,121,306,581,837,430,1455,328,770,1039,1467,90,324,700,1528,427,260,432,398,669,861,1159
participant_8_LEVEL,1,1,1,2,3,4,4,5,6,6,6,7,7,7,8,8,9,9,10,10,11,11,12,12,12,12,13,13,13,14
participant_8_MINIONSKILLED,0,0,3,12,22,31,32,46,57,60,64,70,75,76,83,83,86,94,104,104,111,121,128,139,140,140,140,148,152,152
participant_8_KILLS,0,0,0,0,0,0,0,0,0,0,0,0,0,0,1,1,1,1,1,2,2,2,3,3,3,3,3,3,3,3
participant_8_BUY,[],"[1055, 2003, 3340]",[],[],[],[],"[1036, 1036, 1001, 2003]",[],[],"[3134, 1036, 2003, 2055]",[],[],[],[1053],[],"[6692, 2003, 2055]",[],[],[],"[3086, 2015]",[],[],[],"[3094, 3009, 2055, 2003]",[1036],[],[1036],[],[],[]
participant_8_SOLD,[],[],[],[],[],[],[2003],[],[2003],"[1036, 1036]",[],[2055],[],[1036],[],"[3134, 1053, 2055]","[2003, 2003]",[],[],[],[],[],[],"[3086, 2015, 1001, 2055]",[],[],[2003],[],[],[]
participant_8_UNDO,[],[],[],[],[],[],[],[],[],[],[],[],[],[],[],[],[],[],[],[],[],[],[],[],[],[],[],[],[],[]
participant_9_GOLD,500,500,522,697,832,1006,1201,1335,1489,1698,1926,2081,2325,2466,2866,3356,3842,3982,4265,4722,4893,5093,5548,5898,6288,6478,6792,6942,7492,7747
participant_9_CURRENTGOLD,500,0,22,197,332,506,226,360,514,723,951,421,665,141,141,631,267,407,690,1147,468,668,573,923,463,578,242,392,942,1197
participant_9_LEVEL,1,1,1,2,3,4,4,4,5,5,6,6,6,6,7,8,8,8,9,10,10,10,10,11,11,12,12,12,13,13
participant_9_MINIONSKILLED,0,0,0,0,0,0,0,0,0,1,2,2,2,2,2,3,5,5,6,6,7,7,10,11,11,11,11,12,12,12
participant_9_KILLS,0,0,0,0,0,0,0,0,0,0,0,0,0,0,0,1,1,1,1,1,1,1,1,1,1,1,1,1,1,1
participant_9_BUY,[],"[3850, 2003, 2003, 3340]",[],[],[],[],"[1028, 2055]",[],[],[],[],"[1004, 1052]",[],"[4642, 1001, 3364]",[3067],[],[4005],[],[],[],"[3009, 1004]",[],[3114],[],[1026],[2055],[6616],[],[],[]
participant_9_SOLD,[],[],[],[],[],[],[],[],[],[],[],[],[3850],"[1004, 1052, 3340]",[1028],[],"[2003, 2003, 3067, 4642]",[],[],[],[1001],[],"[1004, 3851]",[2055],[],[],"[3114, 1026]",[],[],[]
participant_9_UNDO,[],[],[],[],[],[],[],[],[],[],[],[],[],[],[],[],[],[],[],[],[],[],[],[],[],[],[],[],[],[]
team0_KILLS,0,0,0,0,0,1,3,3,5,6,8,8,10,10,12,12,13,13,15,17,18,18,19,19,23,23,27,28,29,29
team0_CURRENTGOLD,2500,0,321,1488,2874,3138,2186,2085,2766,4746,4407,2354,2223,3059,3834,4389,2485,4266,4178,1065,2592,2944,3664,3284,4234,1908,2401,5046,4277,3842
team0_TOTALGOLD,2500,2500,2821,3998,5384,6958,9171,10270,12301,14291,15952,17349,19228,20414,22699,24004,25720,27501,30156,32578,34455,36072,37492,38827,42552,43295,46337,48982,50764,51350
team0_LEVEL,5,5,6,11,17,20,24,25,29,33,35,38,41,42,43,44,46,49,50,53,56,58,59,60,62,62,66,69,70,70
team0_SBIRES,0,0,6,28,56,77,106,122,149,184,194,213,247,263,280,303,318,356,372,382,408,440,446,473,484,490,504,543,567,573
team1_KILLS,0,0,0,0,0,1,1,1,3,4,4,5,6,6,10,11,13,14,16,19,20,21,24,24,27,28,30,30,33,35
team1_CURRENTGOLD,2500,0,510,1901,3280,4922,790,2284,3017,3081,4870,4356,7174,3691,4803,3742,3492,5281,3290,3960,2450,2805,3737,4026,2056,3319,3528,2692,5325,7284
team1_TOTALGOLD,2500,2500,3010,4411,5790,7442,8385,9889,11732,13331,15120,16941,19769,20801,25313,27177,29377,31166,33225,35794,37385,39240,42922,44735,46835,48573,51062,52544,55179,57559
team1_LEVEL,5,5,6,13,18,22,24,27,31,32,36,38,39,41,44,47,48,51,53,56,58,59,62,64,65,66,69,70,72,74
team1_SBIRES,0,0,10,40,68,89,96,137,153,173,203,229,251,270,286,304,320,351,371,386,408,430,462,476,486,504,510,538,555,564
delta_KILLS,0,0,0,0,0,0,2,2,2,2,4,3,4,4,2,1,0,-1,-1,-2,-2,-3,-5,-5,-4,-5,-3,-2,-4,-6
delta_CURRENTGOLD,0,0,-189,-413,-406,-1784,1396,-199,-251,1665,-463,-2002,-4951,-632,-969,647,-1007,-1015,888,-2895,142,139,-73,-742,2178,-1411,-1127,2354,-1048,-3442
delta_TOTALGOLD,0,0,-189,-413,-406,-484,786,381,569,960,832,408,-541,-387,-2614,-3173,-3657,-3665,-3069,-3216,-2930,-3168,-5430,-5908,-4283,-5278,-4725,-3562,-4415,-6209
delta_LEVEL,0,0,0,-2,-1,-2,0,-2,-2,1,-1,0,2,1,-1,-3,-2,-2,-3,-3,-2,-1,-3,-4,-3,-4,-3,-1,-2,-4
delta_SBIRES,0,0,-4,-12,-12,-12,10,-15,-4,11,-9,-16,-4,-7,-6,-1,-2,5,1,-4,0,10,-16,-3,-2,-14,-6,5,12,9
