name,frame_0,frame_1,frame_2,frame_3,frame_4,frame_5,frame_6,frame_7,frame_8,frame_9,frame_10,frame_11,frame_12,frame_13,frame_14,frame_15,frame_16,frame_17,frame_18,frame_19,frame_20,frame_21,frame_22,frame_23,frame_24,frame_25,frame_26,frame_27,frame_28,frame_29,frame_30,frame_31,frame_32,frame_33,frame_34,frame_35,frame_36,frame_37,frame_38
nameStamp,Tstart,Tearly,Tearly,Tearly,Tearly,Tearly,Tearly,Tearly,Tearly,Tearly,Tearly,Tearly,Tearly,Tearly,Tearly,Tearly,Tearly,Tmid,Tmid,Tmid,Tmid,Tmid,Tmid,Tmid,Tmid,Tmid,Tmid,Tmid,Tmid,Tmid,Tmid,Tend,Tend,Tend,Tend,Tend,Tend,Tend,Tend
timestamp,0,60024,120049,180074,240092,300124,360142,420169,480192,540224,600252,660268,720291,780293,840321,900323,960324,1020331,1080355,1140383,1200409,1260417,1320439,1380442,1440465,1500472,1560499,1620530,1680551,1740564,1800581,1860594,1920614,1980646,2040663,2100677,2160677,2220681,2280681
participant_0_GOLD,500,500,584,839,1134,1723,2413,2720,3289,3537,3751,3943,4212,4490,5800,6063,6213,6663,6786,7651,7907,8203,8625,8748,9065,9846,10110,10478,10601,10724,10846,10968,11091,11952,12706,12934,13369,13659,13804
participant_0_CURRENTGOLD,500,0,84,339,634,523,1213,20,589,87,301,493,762,40,1350,413,163,613,236,1101,157,453,425,198,515,1297,10,378,152,274,397,7664,641,1503,887,1115,1550,40,-7321
participant_0_LEVEL,1,1,1,3,4,5,6,7,7,8,8,8,9,9,10,11,11,11,11,12,13,13,13,13,14,14,14,15,15,15,15,15,15,16,16,16,16,17,17
participant_0_MINIONSKILLED,0,0,3,10,17,23,39,47,54,61,66,70,78,84,93,97,99,114,114,124,126,132,145,145,152,162,163,166,166,166,166,166,166,183,187,193,203,209,209
participant_0_KILLS,0,0,0,0,0,0,0,0,0,0,0,1,1,2,2,2,5,6,6,6,6,6,6,7,7,8,8,8,8,8,8,9,9,10,10,10,11,11,11
participant_0_BUY,[],"[1039, 2031, 3340]",[],[],[],[3145],[],[],[1026],[],[],[],[],"[4636, 3020, 1052]",[],[],"[3113, 3057]",[],[],[],[3100],[],[],[1058],[],[],[1058],[],[],[],[],[3089],[1052],[3916],[],[],[3165],[],[]
participant_0_SOLD,[],[],[],[],[],[],[],[],[1039],[],[],[],[],"[3145, 1026, 2422]",[],[],[1052],[],[],[],"[3057, 3113]",[],[],[],[],[],[2031],[],[],[],[],"[1058, 1058]",[],[1052],[],[],[3916],[],[]
participant_0_UNDO,[],[],[],[],[],[],[],[],[],[],[],[],[],[],[],[],[],[],[],[],[],[],[],[],[],[],[],[],[],[],[],[],[],[],[],[],[],[],[]
participant_1_GOLD,500,500,663,963,1271,1648,1856,2143,2575,2873,3215,3956,4315,4962,5170,5392,6557,7184,7391,7705,7827,8135,8472,8894,9207,9925,10047,10170,10624,10746,10869,11891,12063,12586,13202,13544,14016,14138,14283
participant_1_CURRENTGOLD,500,0,163,463,771,98,306,593,175,473,815,1556,1915,27,235,457,507,1134,1341,1655,327,635,972,144,457,1175,108,230,684,807,929,652,389,546,1163,1505,277,399,483
participant_1_LEVEL,1,1,2,3,3,4,4,5,5,6,6,8,9,9,9,10,10,11,11,11,11,12,12,12,13,14,14,14,14,14,14,15,15,16,16,16,17,17,17
participant_1_MINIONSKILLED,0,0,0,0,0,0,0,0,0,0,0,2,6,6,6,6,8,8,8,9,9,9,11,11,18,19,19,19,19,19,19,19,19,19,28,29,29,29,29
participant_1_KILLS,0,0,0,0,0,2,2,2,2,3,3,4,4,4,4,4,4,4,5,5,6,6,7,7,7,8,8,8,8,8,8,8,8,8,8,8,10,10,10
participant_1_BUY,[],"[1055, 2003, 3340]",[],[],[],[],"[3134, 1036]",[],[],[],"[1053, 1036, 1001]",[],[6692],[3009],[],[],[3134],[],[],[6676],[],[],[3086],"[1042, 2015]",[],"[3094, 1042]",[],[],[],[3123],[],[],[],[],[3033],[],[1037],[],[]
participant_1_SOLD,[],[],[],[],[2003],[],[],[],[],[],[1036],[],"[3134, 1036, 1053]",[1001],[],[],[],[],[],[3134],[],[],[],[1042],[],"[3086, 2015]",[],[],[],[1055],[],[],[],[],"[3123, 1042]",[],[],[],[]
participant_1_UNDO,[],[],[],[],[],[],[],[],[],[],[],[],[],[],[],[],[],[],[],[],[],[],[],[],[],[],[],[],[],[],[],[],[],[],[],[],[],[],[]
participant_2_GOLD,500,500,612,1011,1190,1780,2081,2371,2716,3003,3390,3714,3941,4869,5104,5457,5828,6574,6996,7685,7849,8269,8489,9282,9867,10589,11011,12397,12815,13022,13144,14133,15034,15673,16909,17032,17416,17776,17921
participant_2_CURRENTGOLD,500,0,112,501,680,1260,1551,166,501,788,1175,1489,66,994,1229,1582,218,964,1386,110,274,694,314,1107,442,1165,1586,422,841,1047,370,1359,2259,699,1935,968,1352,462,496
participant_2_LEVEL,1,1,1,3,4,5,6,6,7,8,8,9,9,10,10,11,11,12,13,13,13,14,14,15,15,15,16,17,17,17,17,18,18,18,18,18,18,18,18
participant_2_MINIONSKILLED,0,0,5,18,21,28,35,45,55,65,72,80,86,90,97,107,117,124,138,146,149,165,171,172,179,179,189,190,202,207,207,209,217,223,230,230,236,241,241
participant_2_KILLS,0,0,0,0,0,0,0,0,0,0,0,0,0,1,1,1,1,1,1,1,1,1,1,1,1,1,1,1,1,1,1,1,1,1,1,1,1,1,1
participant_2_BUY,[],"[3854, 2003, 3340, 3858, 2003, 3340]",[],[],[],"[1028, 1028, 2003]",[],[],[],[],"[6660, 1033, 1029]",[],[],[],"[3068, 3364]",[],[1029],[],"[3047, 2003]",[1028],[],[],[],"[3066, 1031]",[],[],[1028],[],[],[3742],[],[1033],[],[1028],[3211],[],[],[3067],[]
participant_2_SOLD,[],[],[],[2003],[],[],[],[2003],[],[],"[1028, 1028]",[],[3858],[],"[6660, 1033, 1029, 3340]",[],[],[],"[1029, 2422]",[2003],[],[],[],"[3859, 1028]",[],[],[],[],[],"[3066, 1028, 1031]",[],[],[],[],"[1028, 1033]",[],[],[],[]
participant_2_UNDO,[],"[[3340, 0], [0, 2003], [0, 3854]]",[],[],[],[],[],[],[],[],[],[],[],[],[],[],[],[],[],[],[],[],[],[],[],[],[],[],[],[],[],[],[],[],[],[],[],[],[]
participant_3_GOLD,500,500,563,846,1169,2101,2311,2720,2870,3496,3746,4433,4555,4817,5112,5441,5831,6256,7051,7629,8397,8583,9481,9652,10107,10654,10872,10995,11448,11654,11944,12066,12523,12994,13438,13951,14981,15393,15538
participant_3_CURRENTGOLD,500,0,63,346,669,1601,361,770,920,1546,596,1283,555,217,512,841,131,556,1351,29,797,983,681,152,607,54,273,395,849,435,724,847,1304,1775,619,1131,1287,1699,1663
participant_3_LEVEL,1,1,1,2,3,4,5,5,5,6,6,7,7,8,8,9,10,10,11,11,12,12,12,12,13,13,13,14,14,14,14,14,15,16,16,16,17,17,17
participant_3_MINIONSKILLED,0,0,2,11,20,29,31,48,50,61,65,77,77,86,92,102,105,119,128,134,148,152,165,168,175,175,178,178,185,190,195,195,203,212,220,234,245,245,245
participant_3_KILLS,0,0,0,0,0,1,2,2,3,3,3,3,3,3,4,4,4,4,4,5,5,5,5,5,5,6,6,6,6,6,6,6,6,6,6,6,6,6,6
participant_3_BUY,[],"[1055, 3340, 2003]",[],[],[],"[1036, 1036]",[],"[6029, 1001]",[],[3051],[],[],[],[6631],[],[3077],[1028],[],[1011],[],[3748],[],[3123],[1036],[],[],[6609],[],[1036],[],[],[],[],[],"[3133, 3067]",[],[],"[3071, 1028]",[]
participant_3_SOLD,[],[],[2003],[],[],[],[],[],[],[1036],[],[],[],"[6029, 3051]",[],[],[],[],[1028],[],"[3077, 1011]",[],[1036],[],[],[],"[3123, 1036]",[],[],[],[],"[6609, 6631, 3748, 1001, 1036, 1055, 3340]","[1055, 3340]",[],"[1036, 1055]",[],[],"[3133, 3067]","[6631, 3748, 3071, 6609, 1001, 1028, 3340]"
participant_3_UNDO,[],[],[],[],[],[],[],[],[],[],[],[],[],[],[],[],[],[],[],[],[],[],[],[],[],[],[],[],[],[],[],[],"[[3340, 0], [1055, 0], [3340, 0], [1055, 0], [1036, 0], [1001, 0], [3748, 0], [6631, 0], [6609, 0]]",[],[],[],[],[],[]
participant_4_GOLD,500,500,523,699,936,1370,1571,1726,1860,2133,2339,2644,2804,3651,3833,4034,4270,4552,4843,5233,5586,5727,6095,6400,6540,6870,7011,7301,7443,7583,7723,8089,8279,8656,8971,9111,9464,9604,9778
participant_4_CURRENTGOLD,500,50,73,249,486,70,271,426,560,833,89,394,554,1401,133,334,270,552,293,283,636,777,1145,250,390,720,461,751,893,133,274,189,379,356,271,412,764,105,278
participant_4_LEVEL,1,1,1,2,3,4,4,5,5,5,6,6,6,7,7,7,8,8,9,9,10,10,10,11,11,12,12,12,12,12,12,13,14,14,15,15,16,16,16
participant_4_MINIONSKILLED,0,0,0,2,5,5,6,7,7,10,11,12,13,13,15,15,16,19,19,19,22,22,26,27,27,28,28,28,28,28,28,28,28,30,30,30,30,30,31
participant_4_KILLS,0,0,0,0,0,1,1,1,1,1,1,1,1,3,3,3,3,4,4,4,4,4,4,5,6,7,7,11,11,11,11,13,14,15,17,17,17,17,17
participant_4_BUY,[],"[1056, 2003, 2003, 3340]",[],[],[],[],[],"[3802, 1001, 2055]",[],[],[],[],"[1026, 3020]",[],[],[],"[6655, 1052, 2003]",[],[],"[3113, 1026, 3057, 1026]",[],[],[3100],[],[1058],[],[],[3089],[],[],[3916],[],[],"[3165, 2139]",[],[4630],[],[3135],[]
participant_4_SOLD,[],[],[],[],[],[],[],[],[],[2055],[2003],[2003],[1001],[],[],[],"[3802, 1026]",[2003],[],[1052],[],[],"[3057, 3113, 1026]",[],[],[],[],[1058],[],[],[],[],[],"[3916, 2139]",[],[1056],[],[4630],[]
participant_4_UNDO,[],[],[],[],[],[],[],[],[],[],[],[],[],[],[],[],[],[],[],"[[0, 1026]]",[],[],[],[],[],[],[],[],[],[],[],[],[],[],[],[],[],[],[]
participant_5_GOLD,500,500,542,801,1085,1284,1407,1735,2305,2532,3136,3584,3980,4438,4560,4851,5991,6260,7045,7487,8365,8501,9139,9687,10033,10688,10943,11309,11432,12374,12934,13746,13868,14040,14707,15163,16361,16484,17017
participant_5_CURRENTGOLD,500,0,42,201,485,84,7,335,905,297,901,34,430,888,140,431,1571,290,1075,582,1460,381,1019,217,563,1219,223,589,263,1204,1765,2226,1349,1521,2188,2644,1842,1965,-1663
participant_5_LEVEL,1,1,1,3,4,4,5,6,6,7,8,8,9,10,10,10,11,11,13,13,14,14,15,15,15,15,16,16,16,16,17,17,17,17,18,18,18,18,18
participant_5_MINIONSKILLED,0,0,1,6,15,19,19,29,35,41,50,56,69,79,79,89,99,108,124,124,139,140,156,162,168,172,176,178,178,183,185,191,191,191,197,209,218,218,225
participant_5_KILLS,0,0,0,0,0,0,0,0,1,1,2,2,2,2,2,2,3,3,4,5,6,6,6,7,7,8,8,8,8,9,9,10,10,10,11,11,12,12,12
participant_5_BUY,[],"[1054, 2003, 3340]",[],"[2003, 2003]",[],"[1029, 1029]",[3076],[],[1026],"[1026, 1052, 1028]",[],"[4635, 1026]",[],[],"[4633, 4633, 4633]",[],[],"[1001, 1011, 1026, 1028]",[],"[1011, 1052]",[],"[4637, 1042, 1042, 1028]",[],"[1026, 1011]",[],[],[3116],[],"[1042, 1033]",[],[],[3111],"[1043, 3075, 1043]",[],[],[],[3115],[],[3135]
participant_5_SOLD,[],[],[2003],[],[2003],[2003],"[1029, 1029]",[],[],[],[],"[1028, 1052]",[],[],"[1054, 4635, 1026, 1054, 4635, 1026, 1054, 4635, 1026]",[],[],[],[],[1028],[],"[1026, 1011, 1052]",[],[1028],[],[],"[1026, 1011]",[],[],[],[],"[1001, 1033]","[3076, 3076, 3076]",[],[],[],[1043],[],[3076]
participant_5_UNDO,[],[],[],[],[],[],[],[],"[[0, 1026]]","[[0, 1026]]",[],[],[],[],"[[0, 4633], [1054, 0], [0, 4633], [1054, 0]]",[],[],"[[0, 1011]]",[],[],[],"[[0, 1042], [0, 1042]]",[],[],[],[],[],[],"[[0, 1042]]",[],[],[],"[[0, 1043], [3076, 0], [0, 3075], [3076, 0]]",[],[],[],[],[],[]
participant_6_GOLD,500,500,621,1018,1376,1875,2075,2387,2642,3166,3388,3752,4199,4595,4818,5130,5740,6101,6223,6700,6989,7287,7478,7878,8051,8507,9356,9962,10220,10533,11479,11853,12174,12346,12922,13226,13348,13556,15090
participant_6_CURRENTGOLD,500,0,121,518,876,1375,575,887,1142,1666,1888,2252,2699,595,368,680,1290,1651,88,565,854,302,493,893,251,707,1557,362,620,933,1880,2253,874,1047,1622,1927,2049,356,1890
participant_6_LEVEL,1,1,2,3,4,4,4,5,6,7,7,8,8,9,9,9,10,10,10,11,11,12,12,13,13,13,14,14,15,15,16,16,16,16,17,17,17,18,18
participant_6_MINIONSKILLED,0,0,0,0,0,0,0,0,0,3,3,7,7,7,7,8,14,18,18,21,24,24,24,27,27,28,34,36,36,36,36,36,37,37,45,49,49,49,58
participant_6_KILLS,0,0,0,0,0,1,1,1,1,1,1,2,3,5,5,5,6,6,6,6,7,7,7,7,7,8,8,10,10,10,11,11,11,11,11,11,11,12,12
participant_6_BUY,[],"[1055, 2003]",[],[],[],"[1037, 2031]",[],[],[],[],[6670],[1018],[],[6672],[3006],[],"[3086, 1042]",[],[3363],[],[3046],[],[],[1038],[],[3031],[],[],[3035],[],[],[3036],[3086],[],[],[],[3085],[],[]
participant_6_SOLD,[],[],[],[],[],[2003],[],[],[],[],[],[],[],"[6670, 1018, 1037]",[],[],[],[],[3340],[],"[1042, 3086]",[],[],[],[],"[1038, 2031]",[],[],[],[],[],[3035],[1055],[],[],[],[3086],[],[]
participant_6_UNDO,[],[],[],[],[],[],[],[],[],[],[],[],[],[],[],[],[],[],[],[],[],[],[],[],[],[],[],[],[],[],[],[],[],[],[],[],[],[],[]
participant_7_GOLD,500,500,584,832,1134,1448,1756,1969,2279,3095,3280,3520,4015,4137,4439,4717,4965,5213,5502,5778,6650,6978,7585,8412,8825,9022,9307,10007,10130,10635,11713,12584,12706,13174,13646,14111,14708,15089,16655
participant_7_CURRENTGOLD,500,0,84,332,624,938,1236,149,449,1255,155,85,580,702,994,1272,305,553,7,283,1155,1483,775,117,530,312,598,1297,720,1226,2303,1725,1847,2314,2787,452,1049,340,1645
participant_7_LEVEL,1,1,1,3,4,5,6,7,7,8,8,8,9,9,9,10,10,10,11,11,11,12,12,13,13,13,14,14,14,15,16,16,16,16,16,17,17,17,18
participant_7_MINIONSKILLED,0,0,3,10,18,20,28,34,42,44,48,51,59,59,66,71,71,78,83,88,94,99,101,107,113,113,117,121,121,135,142,145,145,150,150,154,160,166,167
participant_7_KILLS,0,0,0,0,0,0,0,0,0,1,1,1,1,1,1,1,1,1,1,1,1,1,2,4,4,4,4,5,5,5,5,7,7,7,8,8,9,9,11
participant_7_BUY,[],"[1056, 2003, 2003, 3340]",[],[],[],[],[],"[1043, 1001]",[],[],"[1026, 1052]",[1042],[],[],[],[],"[3115, 3006]",[],"[1052, 1028]",[],[],[],"[4635, 1026]","[4633, 1052]",[],[3113],[],[],[3057],[],[],[3100],[],[],[],[3124],[],[1058],[]
participant_7_SOLD,[],[],[],[],[],[],[],[],[],[],[],"[2003, 2003]",[],[],[],[],"[1043, 1026, 1052, 1001, 1042]",[],[],[],[],[],"[1028, 1052]","[4635, 1026]",[],[1052],[],[],[1056],[],[],"[3057, 3113]",[],[],[],[],[],[1056],[]
participant_7_UNDO,[],[],[],[],[],[],[],[],[],[],[],[],[],[],[],[],[],[],[],[],[],[],[],[],[],[],[],[],"[[1056, 0]]",[],[],[],[],[],[],[],[],[],[]
participant_8_GOLD,500,500,584,832,1116,1680,2030,2320,2638,2908,3093,3516,4166,5407,5614,5997,6791,7101,7258,7639,8691,9161,9524,9716,10385,11653,12034,12882,13285,13911,15111,15685,15997,16873,17121,17509,18139,18996,19416
participant_8_CURRENTGOLD,500,0,84,332,616,155,505,795,1113,1383,268,91,741,1357,464,847,141,451,608,989,641,1112,1474,366,1036,263,645,1492,445,1072,2272,1395,688,1564,1811,2200,630,1487,1666
participant_8_LEVEL,1,1,1,2,3,3,4,5,5,6,6,6,7,7,7,8,9,9,9,10,10,11,11,12,12,12,13,13,14,14,15,16,16,16,16,17,17,18,18
participant_8_MINIONSKILLED,0,0,3,11,21,23,34,43,55,63,67,67,72,79,84,94,95,102,104,115,121,133,141,145,152,156,162,162,169,173,182,185,185,201,201,207,224,236,236
participant_8_KILLS,0,0,0,0,0,0,0,0,0,0,0,0,0,0,0,0,2,2,2,2,2,2,2,2,2,2,2,2,2,2,2,2,2,2,2,2,2,2,2
participant_8_BUY,[],"[3850, 3340, 2003, 2003, 3364]",[],[],[],"[1052, 1004, 2003]",[],[],[],[],"[4642, 3067]",[1001],[],[6617],[],[],[3158],[3114],[],[1082],[],[1026],[],[6616],[],[1004],[],"[3114, 3114]",[],[],[],[],[3504],[],[],[3067],[],[],[]
participant_8_SOLD,[],[3340],[],[],[],[2003],[],[3850],[],[],"[1004, 1052]",[],"[2003, 3851]","[2003, 3067, 4642]",[],[],[1001],[],[],[],[],[],[],"[3114, 1026]",[],[],[],"[1004, 1004]",[],[],[],[],[3114],[],[1082],[],[],[],[]
participant_8_UNDO,[],[],[],[],[],[],[],[],[],[],[],[],[],[],[],[],[],[],[],[],[],[],[],[],[],[],[],"[[0, 3114]]",[],[],[],[],[],[],[],[],[],[],[]
participant_9_GOLD,500,500,543,797,1012,1446,1641,1876,2146,2386,2666,3099,3614,3904,4072,4223,5238,5379,5519,5659,6203,6343,6588,6879,7069,7360,7500,7765,7928,8068,8786,9062,9303,9634,9899,10039,10180,10320,11041
participant_9_CURRENTGOLD,500,0,43,297,512,211,406,641,911,1151,266,399,914,354,522,673,1088,429,569,359,903,193,439,79,269,310,450,166,328,469,1187,1462,203,534,939,279,420,560,1141
participant_9_LEVEL,1,1,1,2,3,4,4,5,5,6,7,7,8,8,9,9,9,10,10,10,10,10,11,11,11,12,12,13,13,13,14,14,15,15,15,15,15,15,17
participant_9_MINIONSKILLED,0,0,0,0,0,0,0,0,1,1,8,12,17,17,19,20,20,20,20,20,22,22,22,22,22,22,22,22,23,23,25,27,27,29,29,29,29,29,29
participant_9_KILLS,0,0,0,0,0,1,1,1,1,1,1,1,1,1,1,1,1,1,1,1,1,1,1,1,1,1,2,3,3,3,4,4,4,4,4,4,4,4,6
participant_9_BUY,[],"[1035, 3340, 2003, 2031, 3364]",[],[],[],[],[6660],[],[],[],[],[],[],"[3068, 1001]",[1033],[],[],[],"[3111, 1011, 1052]",[],[],[1026],[],[],[4637],[],[],"[1057, 1011]",[],[],[],[],"[3001, 3076]",[],[],[],[],[3075],[]
participant_9_SOLD,[],[3340],[],[],[],[],[],[],[1035],[],[3364],[],[3513],[6660],[],[],[],[3364],"[1001, 1033]",[],[3513],[],[],[],"[1026, 1011, 1052]",[],[],[],[],[],[],[],"[1011, 1057]",[],[],[],[],[3076],[]
participant_9_UNDO,[],"[[0, 2003]]",[],[],[],[],[],[],[],[],[],[],[],[],[],[],[],[],[],[],[],[],[],[],[],[],[],[],[],[],[],[],[],[],[],[],[],[],[]
team0_KILLS,0,0,0,0,0,4,5,5,6,7,7,9,9,13,14,14,17,19,20,21,22,22,23,25,26,30,30,34,34,34,34,37,38,40,42,42,45,45,45
team0_CURRENTGOLD,2500,50,495,1898,3240,3552,3702,1975,2745,3727,2976,5215,3852,2679,3459,3627,1289,3819,4607,3178,2191,3542,3537,1851,2411,4411,2438,2176,3419,2696,2694,10711,4972,4879,4875,5131,5230,2705,-4401
team0_TOTALGOLD,2500,2500,2945,4358,5700,8622,10232,11680,13310,15042,16441,18690,19827,22789,25019,26387,28699,31229,33067,35903,37566,38917,41162,42976,44786,47884,49051,51341,52931,53729,54526,57147,58990,61861,65226,66572,69246,70570,71324
team0_LEVEL,5,5,6,13,17,22,25,28,29,33,34,38,40,43,44,48,50,52,55,56,59,61,61,63,66,68,69,72,72,72,72,75,77,80,81,81,84,85,85
team0_SBIRES,0,0,10,41,63,85,111,147,166,197,214,241,260,279,303,327,345,384,407,432,454,480,518,523,551,563,577,581,600,610,615,617,633,667,695,716,743,754,755
team1_KILLS,0,0,0,0,0,2,2,2,3,4,5,6,7,9,9,9,13,13,14,15,17,17,18,21,21,23,24,28,28,29,31,34,34,34,36,36,38,39,43
team1_CURRENTGOLD,2500,0,374,1680,3113,2763,2729,2807,4520,5752,3478,2861,5364,3896,2488,3903,4395,3374,2347,2778,5013,3471,4200,1672,2649,2811,3473,3906,2376,4904,9407,9061,4961,6980,9347,7502,5990,4708,4679
team1_TOTALGOLD,2500,2500,2874,4280,5723,7733,8909,10287,12010,14087,15563,17471,19974,22481,23503,24918,28725,30054,31547,33263,36898,38270,40314,42572,44363,47230,49140,51925,52995,55521,60023,62930,64048,66067,68295,70048,72736,74445,79219
team1_LEVEL,5,5,6,13,18,20,23,28,29,34,36,37,41,43,44,46,49,50,53,55,56,59,61,64,64,65,69,70,72,73,78,79,80,80,82,84,84,86,89
team1_SBIRES,0,0,7,27,54,62,81,106,133,152,176,193,224,241,255,282,299,326,349,368,400,418,444,463,482,491,511,519,527,550,570,584,585,608,622,648,680,698,715
delta_KILLS,0,0,0,0,0,2,3,3,3,3,2,3,2,4,5,5,4,6,6,6,5,5,5,4,5,7,6,6,6,5,3,3,4,6,6,6,7,6,2
delta_CURRENTGOLD,0,50,121,218,127,789,973,-832,-1775,-2025,-502,2354,-1512,-1217,971,-276,-3106,445,2260,400,-2822,71,-663,179,-238,1600,-1035,-1730,1043,-2208,-6713,1650,11,-2101,-4472,-2371,-760,-2003,-9080
delta_TOTALGOLD,0,0,71,78,-23,889,1323,1393,1300,955,878,1219,-147,308,1516,1469,-26,1175,1520,2640,668,647,848,404,423,654,-89,-584,-64,-1792,-5497,-5783,-5058,-4206,-3069,-3476,-3490,-3875,-7895
delta_LEVEL,0,0,0,0,-1,2,2,0,0,-1,-2,1,-1,0,0,2,1,2,2,1,3,2,0,-1,2,3,0,2,0,-1,-6,-4,-3,0,-1,-3,0,-1,-4
delta_SBIRES,0,0,3,14,9,23,30,41,33,45,38,48,36,38,48,45,46,58,58,64,54,62,74,60,69,72,66,62,73,60,45,33,48,59,73,68,63,56,40
