name,team0,team1
win,Fail,Win
firstBlood,True,False
firstTower,True,False
firstInhibitor,True,False
firstBaron,True,False
firstDragon,True,False
firstRiftHerald,False,False
towerKills,10,8
inhibitorKills,5,3
baronKills,3,1
dragonKills,2,5
riftHeraldKills,0,0
