name,frame_0,frame_1,frame_2,frame_3,frame_4,frame_5,frame_6,frame_7,frame_8,frame_9,frame_10,frame_11,frame_12,frame_13,frame_14,frame_15,frame_16,frame_17,frame_18,frame_19,frame_20,frame_21,frame_22,frame_23,frame_24,frame_25,frame_26,frame_27
nameStamp,Tstart,Tearly,Tearly,Tearly,Tearly,Tearly,Tearly,Tearly,Tearly,Tearly,Tearly,Tearly,Tearly,Tearly,Tearly,Tearly,Tmid,Tmid,Tmid,Tmid,Tmid,Tmid,Tmid,Tmid,Tmid,Tmid,Tmid,Tend
timestamp,0,60001,120028,180043,240045,300069,360087,420108,480140,540161,600179,660203,720221,780240,840258,900280,960301,1020321,1080337,1140361,1200383,1260400,1320417,1380446,1440463,1500483,1560505,1620533
participant_0_GOLD,500,500,520,762,1095,1280,1508,1791,1990,2302,2622,2745,2986,3249,3407,3628,3779,3922,4372,4567,4710,5238,5409,5634,5917,6039,6162,6285
participant_0_CURRENTGOLD,500,0,20,262,595,780,1008,391,590,902,1222,245,486,749,107,328,479,622,1072,217,360,188,359,584,422,194,317,440
participant_0_LEVEL,1,1,1,2,4,5,6,6,7,8,8,8,9,9,10,10,10,10,11,11,11,12,12,12,12,12,13,13
participant_0_MINIONSKILLED,0,0,0,7,19,23,29,38,42,53,62,62,69,74,76,79,81,82,91,94,95,95,98,100,105,105,105,105
participant_0_KILLS,0,0,0,0,0,0,0,0,0,0,0,0,1,1,1,1,1,1,1,1,1,1,1,1,1,1,1,1
participant_0_BUY,[],[],[],"[3858, 2031]",[],[],[],"[1057, 2055]",[],[],[1029],[],[],[3111],[],[],"[1031, 2055, 3364]",[],[],[],"[3193, 1029]",[1031],[],[],[1028],[],[],[]
participant_0_SOLD,[],[],[],[],[],[],[],[],[],[],[],[2055],[3858],[2422],[],[],"[1029, 3340]",[],[2055],[],"[1031, 1057, 3859]",[1029],[],[],[],[],[],[]
participant_0_UNDO,[],[],[],[],[],[],[],[],[],[],[],[],[],[],[],[],[],[],[],[],[],[],[],[],[],[],[],[]
participant_1_GOLD,500,500,620,963,1241,1498,1706,2018,2338,2646,2873,3381,3630,3857,4235,4620,4753,4960,5292,5550,5978,7481,7842,8174,8381,8771,8893,9182
participant_1_CURRENTGOLD,500,0,120,463,741,998,256,568,888,1196,1423,1931,2180,182,560,945,1078,535,867,1125,1553,106,467,364,191,581,269,557
participant_1_LEVEL,1,1,2,3,3,4,4,5,5,6,6,7,7,8,8,9,9,9,10,10,10,11,12,12,12,13,13,13
participant_1_MINIONSKILLED,0,0,0,0,0,0,0,0,0,0,0,0,3,3,7,9,10,10,13,15,17,17,20,20,25,29,29,30
participant_1_KILLS,0,0,0,0,0,1,1,1,1,1,1,2,3,3,3,3,3,3,3,3,3,4,4,5,5,5,6,6
participant_1_BUY,[],"[1056, 2003, 2003, 3340]",[],[],[],[],"[3101, 1001]",[],[],[],[],[],"[3115, 1052]",[],[3020],[],[1026],[],[],[],[3116],[],[1026],[],[],[],[],[]
participant_1_SOLD,[],[],[],[2003],[],[],[],[],[],[],[],[],[3101],[],[1001],[],[],[],[],[],"[1026, 1052]",[],[],[],[],[],[],[2003]
participant_1_UNDO,[],[],[],[],[],[],[],[],[],[],[],[],[],[],[],[],[],[],[],[],[],[],[],[],[],[],[],[]
participant_2_GOLD,500,500,590,871,1106,1837,2040,2337,2654,2917,3263,3748,4255,4831,5139,5908,6156,6397,6646,6977,7275,8190,8312,8812,8934,9162,9688,9833
participant_2_CURRENTGOLD,500,0,90,371,606,1337,140,437,754,1017,1363,1848,20,596,104,873,271,512,761,1092,75,990,262,762,885,1112,1638,1803
participant_2_LEVEL,1,1,1,3,4,5,6,7,7,8,8,9,9,10,10,10,11,11,11,12,12,12,12,12,12,13,13,13
participant_2_MINIONSKILLED,0,0,4,11,18,29,31,42,50,58,71,74,79,87,94,101,108,116,123,131,139,141,141,141,141,147,153,154
participant_2_KILLS,0,0,0,0,0,0,0,0,0,0,0,0,0,0,0,0,0,0,0,0,0,0,0,0,0,0,0,0
participant_2_BUY,[],"[1054, 2003]",[],[],[],[],[],[3751],[],[],[],[3047],[],[],[1031],[],[],[],[],[3068],[],"[1036, 1036]",[],[],[3077],[1036],[],[]
participant_2_SOLD,[],[],[],[],[],[],[2003],[],[],[],[],[],[],[],[],[],[],[],[],"[1031, 3751]",[],[],[],[],"[1054, 1036, 1036]",[],[],[]
participant_2_UNDO,[],[],[],[],[],[],[],[],[],[],[],[],[],[],[],[],[],[],[],[],[],[],[],[],[],[],[],[]
participant_3_GOLD,500,500,520,671,868,1053,1361,1483,1723,1923,2345,2559,3028,3310,3633,3952,4222,4393,4633,4826,5136,5664,5919,6400,6592,6715,6837,7674
participant_3_CURRENTGOLD,500,0,20,171,68,253,561,33,273,473,45,259,728,660,333,652,522,693,233,426,736,764,1019,1500,217,340,62,464
participant_3_LEVEL,1,1,1,2,2,3,4,4,4,5,5,6,7,7,7,7,8,8,8,9,9,9,10,10,11,11,11,11
participant_3_MINIONSKILLED,0,0,0,2,4,8,16,16,20,24,24,30,38,38,46,51,60,63,66,70,77,83,91,92,96,96,96,97
participant_3_KILLS,0,0,0,0,0,0,0,0,0,0,0,0,0,0,0,0,0,0,0,0,0,3,3,3,3,3,3,3
participant_3_BUY,[],"[1041, 2031, 3340]",[],[],[],[],"[3715, 1001]",[],[],[],[],[],[],"[1419, 1042, 1042]",[],[],[],"[1043, 1036, 1036]",[],[],[],"[3153, 1043]",[],[1052],[1037],[],[1052],[]
participant_3_SOLD,[],[],[],[],[],[],[1041],[],[],[],[],[],[],[3715],[],[],[],"[1042, 1042]",[],[],[],"[1036, 1043]",[],[],[2031],[],[],[]
participant_3_UNDO,[],[],[],[],[],[],[],[],[],[],[],[],[],[],[],[],[],"[[0, 1036]]",[],[],[],[],[],[],"[[0, 1052]]",[],[],[]
participant_4_GOLD,500,500,520,650,873,1042,1320,1475,1720,1932,2066,2201,2749,2889,3138,3427,3595,3771,4129,4322,4477,4867,5008,5223,5363,5504,5644,5861
participant_4_CURRENTGOLD,500,500,520,100,323,492,770,130,375,587,421,556,1104,444,693,982,575,751,1109,1302,177,67,208,423,163,304,444,661
participant_4_LEVEL,1,1,1,1,2,2,4,4,5,5,5,6,6,7,7,7,8,8,9,9,9,10,10,11,11,11,11,11
participant_4_MINIONSKILLED,0,0,0,0,3,5,11,12,16,20,20,20,23,23,26,28,30,32,39,45,46,46,46,46,46,46,46,46
participant_4_KILLS,0,0,0,0,0,0,0,0,0,0,1,1,1,1,1,1,1,1,1,1,1,1,1,2,2,2,2,3
participant_4_BUY,[],"[2003, 1055, 3340]",[],[],[1001],[],[],"[1036, 1042]",[],[],"[1053, 1042]",[],[],[1036],"[3144, 1042]",[],[1043],[],[3153],[],[],"[3006, 1042]",[],[],"[1037, 1042, 1042]",[],[1043],[1052]
participant_4_SOLD,[],[],[],[2003],[],[],[],[],[],[],[1036],[],[],[],"[1053, 1036]",[],"[1042, 1042]",[],"[3144, 1043]",[],[],"[1001, 1042]",[],[],[],[],"[1042, 1042]",[]
participant_4_UNDO,[],[],[],[],[],[],[],[],[],[],[],[],[],[],[],[],[],[],[],[],[],"[[0, 1042]]",[],[],[],[],[],[]
participant_5_GOLD,500,500,590,790,969,1315,1522,2128,2522,2764,3070,3277,3645,3963,4634,5008,5473,6068,6485,6951,7073,7566,7688,8258,8380,8822,9245,10537
participant_5_CURRENTGOLD,500,0,90,290,469,815,1022,1628,2022,2264,2570,77,445,763,1434,1808,240,835,1252,1718,240,133,255,825,147,590,1012,2304
participant_5_LEVEL,1,1,1,3,4,5,6,7,8,8,9,9,10,10,11,11,11,12,12,13,13,13,13,13,14,14,14,15
participant_5_MINIONSKILLED,0,0,4,8,11,22,27,34,47,54,62,67,78,89,99,110,112,117,117,124,124,124,124,124,124,124,124,129
participant_5_KILLS,0,0,0,0,0,1,1,1,1,1,1,1,1,1,1,1,1,2,2,2,2,2,2,3,3,3,3,3
participant_5_BUY,[],"[1056, 2003, 3340]",[],[],[],[],"[1027, 1052, 1001]",[],[],[],[3020],[],[],[3802],[],[],[1026],[],[],[3285],[],[1058],[],[],[1058],[],[],[3089]
participant_5_SOLD,[],[],[],[],[2003],[],[],[],[],[],[1001],[],[],"[1052, 1027]",[],[],[],[],[],"[3802, 1026]",[],[],[],[],[],[],[],"[1058, 1058]"
participant_5_UNDO,[],[],[],[],[],[],[],[],[],[],[],[],[],[],[],[],[],[],[],[],[],[],[],[],[],[],[],[]
participant_6_GOLD,500,500,620,843,1233,1517,1745,1952,2174,2502,2919,3041,3268,3526,4553,4811,5063,5355,5625,6572,6785,7212,7486,7629,8523,8829,9457,10219
participant_6_CURRENTGOLD,500,0,120,343,733,1017,1245,77,299,627,344,166,393,651,1678,686,138,430,700,1646,77,504,778,921,1816,496,1124,1886
participant_6_LEVEL,1,1,2,2,3,4,5,5,5,6,6,6,6,7,8,8,8,9,9,10,10,11,11,11,12,12,13,14
participant_6_MINIONSKILLED,0,0,0,0,0,0,0,0,0,0,0,0,0,0,0,0,0,0,1,7,12,12,12,13,17,17,19,23
participant_6_KILLS,0,0,0,0,0,0,0,1,1,1,1,1,1,1,1,1,1,2,3,3,3,4,4,5,5,6,6,9
participant_6_BUY,[],"[1054, 2003, 3340]",[],[],[],[],[],[],[],[],[],"[3044, 3101, 1027]",[],[],[],[],"[3078, 2015, 1042]",[],[],[],[3087],"[1001, 1042]",[],[],"[3006, 1029]",[],[],[]
participant_6_SOLD,[],[],[],[],[2003],[],[],[],[],[],[],[],[],[],[],[],"[3101, 1027, 3044]",[],[],[],"[1042, 2015]",[],[],[],"[1001, 1042]",[],[],[]
participant_6_UNDO,[],[],[],[],[],[],[],[],[],[],[],[],[],[],[],[],[],[],[],[],[],[],[],[],[],[],[],[]
participant_7_GOLD,500,500,520,769,1067,1350,1613,1889,2234,2513,2782,2989,3174,3296,3901,4233,4832,5289,5615,6363,6600,7622,8115,8693,9115,9675,10422,11336
participant_7_CURRENTGOLD,500,0,20,269,567,50,313,589,934,1213,1482,1689,1874,296,901,433,1032,264,590,1338,525,282,775,1353,440,1000,1747,2661
participant_7_LEVEL,1,1,1,3,4,4,5,6,7,7,8,8,9,9,10,10,11,11,12,12,12,13,13,13,14,14,15,15
participant_7_MINIONSKILLED,0,0,0,7,17,24,32,41,51,57,65,70,74,74,80,88,95,97,99,103,104,104,108,110,110,110,110,115
participant_7_KILLS,0,0,0,0,0,0,0,0,0,0,0,0,0,0,0,0,0,0,0,0,0,0,0,0,0,0,0,0
participant_7_BUY,[],"[3854, 3340, 2003, 2003]",[],[],[],[],"[1001, 1029, 2003]",[],[],[],"[3117, 2003, 2003]",[],[1029],[],[],[],[3105],[1029],"[3024, 3364]",[2055],[],"[3050, 1031]",[],[],"[1028, 2003, 2003]",[],[],[]
participant_7_SOLD,[],[],[],[],"[2003, 2010, 2003]",[2010],[],[],"[2003, 2010]",[],[1001],"[2003, 2003]",[],[3854],[],[],[1029],[],"[1029, 3340]",[3855],[2055],"[3105, 3024, 1029]",[],[],[],[],[],[]
participant_7_UNDO,[],[],[],[],[],[],[],[],[],[],[],[],[],[],[],[],[],[],[],[],[],[],[],[],[],[],[],[]
participant_8_GOLD,500,500,520,706,1029,1576,1699,1947,2271,2550,2829,3092,3235,3600,3859,4158,4373,5010,5370,5920,6230,6622,6894,7851,7974,8154,8590,8863
participant_8_CURRENTGOLD,500,50,70,256,579,1126,164,412,736,1015,494,757,900,750,1009,1308,673,1310,1670,1170,1480,622,894,1851,724,904,1340,513
participant_8_LEVEL,1,1,1,2,3,4,4,5,5,6,6,7,7,7,8,8,9,9,10,10,10,10,11,11,11,12,12,12
participant_8_MINIONSKILLED,0,0,0,4,13,16,16,25,34,40,40,49,50,57,62,68,71,79,89,94,101,104,104,108,108,108,109,109
participant_8_KILLS,0,0,0,0,0,0,0,0,0,0,1,1,1,1,2,2,2,2,2,3,3,3,3,3,5,5,5,5
participant_8_BUY,[],"[1039, 2031]",[],[],[],[],[],"[3706, 1001, 1027, 2055]",[],[],[3057],[1042],[],[],[],[3044],[3101],[],[],[],"[3078, 3047, 3801]",[],[],[],[],[1400],[],[]
participant_8_SOLD,[],[],[],[],[],[],[],[1039],[],[],[1027],[],[],[2055],[],[],[1042],[],"[3340, 3513]",[],"[3101, 3057, 3044, 1001]",[],[],[],[],[3706],[],[]
participant_8_UNDO,[],[],[],[],[],[],[],[],[],[],[],[],[],[],[],[],[],[],[],[],[],[],[],[],[],[],[],[]
participant_9_GOLD,500,500,522,692,869,1080,1215,1391,1608,1871,2005,2182,2316,2545,2766,3081,3443,3844,4075,4594,4792,4933,5073,5309,5464,5642,6145,6706
participant_9_CURRENTGOLD,500,0,22,192,369,580,65,241,458,721,55,232,66,295,516,831,393,494,125,569,767,158,298,534,189,367,870,1431
participant_9_LEVEL,1,1,1,2,3,4,4,5,5,6,6,6,6,7,7,7,8,9,9,9,10,10,10,11,11,11,12,13
participant_9_MINIONSKILLED,0,0,0,2,5,7,7,10,12,16,16,19,19,20,21,25,26,28,29,31,34,34,34,34,35,35,39,40
participant_9_KILLS,0,0,0,0,0,0,0,0,0,0,0,0,0,0,0,0,1,2,2,2,2,5,6,7,7,8,9,10
participant_9_BUY,[],"[1056, 2003, 2003]",[],[],[],[3067],[],[],[],[],[],[],[],"[3802, 1001, 2003, 2003]",[],[3020],[],"[1026, 1052, 2003, 2003]",[],[],[3285],"[1052, 3152]",[],[],"[1026, 1052, 2003]",[],[],[]
participant_9_SOLD,[],[],[],[],[],[2003],[],[],[],[2003],[],[],[],[],[],[1001],"[2003, 2003]",[1056],[],[],"[3802, 1026]","[1052, 1052, 3067]",[],[],[2003],"[2003, 2003]",[],[]
participant_9_UNDO,[],[],[],[],[],[],[],[],[],[],[],[],[],[],[],[],[],[],[],[],[],[],[],[],[],[],[],[]
team0_KILLS,0,0,0,0,0,1,1,1,1,1,2,3,5,5,5,5,5,5,5,5,5,9,9,11,11,11,12,13
team0_CURRENTGOLD,2500,500,770,1367,2333,3860,2735,1559,2880,4175,4474,4839,4518,2631,1797,3780,2925,3113,4042,4162,2901,2115,2315,3633,1878,2531,2730,3925
team0_TOTALGOLD,2500,2500,2770,3917,5183,6710,7935,9104,10425,11720,13169,14634,16648,18136,19552,21535,22505,23443,25072,26242,27576,31440,32490,34243,35187,36191,37224,38835
team0_LEVEL,5,5,6,11,15,19,24,26,28,32,32,36,38,41,42,43,46,46,49,51,51,54,56,57,58,60,61,61
team0_SBIRES,0,0,4,20,44,65,87,108,128,155,177,186,212,225,249,268,289,303,332,355,374,382,396,399,413,423,429,432
team1_KILLS,0,0,0,0,0,1,1,2,2,2,3,3,3,3,4,4,5,8,9,10,10,14,15,18,20,22,23,27
team1_CURRENTGOLD,2500,50,322,1350,2717,3588,2809,2947,4449,5840,4945,2921,3678,2755,5538,5066,2476,3333,4337,6441,3089,1699,3000,5484,3316,3357,6093,8795
team1_TOTALGOLD,2500,2500,2772,3800,5167,6838,7794,9307,10809,12200,13605,14581,15638,16930,19713,21291,23184,25566,27170,30400,31480,33955,35256,37740,39456,41122,43859,47661
team1_LEVEL,5,5,6,12,17,21,24,28,30,33,35,36,38,40,44,44,47,50,52,54,55,57,58,59,62,63,66,69
team1_SBIRES,0,0,4,21,46,69,82,110,144,167,183,205,221,240,262,291,304,321,335,359,375,378,382,389,394,394,401,416
delta_KILLS,0,0,0,0,0,0,0,-1,-1,-1,-1,0,2,2,1,1,0,-3,-4,-5,-5,-5,-6,-7,-9,-11,-11,-14
delta_CURRENTGOLD,0,450,448,17,-384,272,-74,-1388,-1569,-1665,-471,1918,840,-124,-3741,-1286,449,-220,-295,-2279,-188,416,-685,-1851,-1438,-826,-3363,-4870
delta_TOTALGOLD,0,0,-2,117,16,-128,141,-203,-384,-480,-436,53,1010,1206,-161,244,-679,-2123,-2098,-4158,-3904,-2515,-2766,-3497,-4269,-4931,-6635,-8826
delta_LEVEL,0,0,0,-1,-2,-2,0,-2,-2,-1,-3,0,0,1,-2,-1,-1,-4,-3,-3,-4,-3,-2,-2,-4,-3,-5,-8
delta_SBIRES,0,0,0,-1,-2,-4,5,-2,-16,-12,-6,-19,-9,-15,-13,-23,-15,-18,-3,-4,-1,4,14,10,19,29,28,16
