name,team0,team1
win,Fail,Win
firstBlood,True,False
firstTower,False,True
firstInhibitor,False,False
firstBaron,False,False
firstDragon,False,True
firstRiftHerald,False,False
towerKills,1,3
inhibitorKills,0,0
baronKills,0,0
dragonKills,0,2
riftHeraldKills,0,0
