name,frame_0,frame_1,frame_2,frame_3,frame_4,frame_5,frame_6,frame_7,frame_8,frame_9,frame_10,frame_11,frame_12,frame_13,frame_14,frame_15,frame_16,frame_17,frame_18,frame_19,frame_20,frame_21,frame_22,frame_23,frame_24,frame_25,frame_26,frame_27,frame_28,frame_29,frame_30,frame_31,frame_32,frame_33,frame_34,frame_35,frame_36,frame_37,frame_38,frame_39,frame_40
nameStamp,Tstart,Tearly,Tearly,Tearly,Tearly,Tearly,Tearly,Tearly,Tearly,Tearly,Tearly,Tearly,Tearly,Tearly,Tearly,Tmid,Tmid,Tmid,Tmid,Tmid,Tmid,Tmid,Tmid,Tmid,Tmid,Tmid,Tmid,Tmid,Tmid,Tmid,Tmid,Tmid,Tmid,Tend,Tend,Tend,Tend,Tend,Tend,Tend,Tend
timestamp,0,60026,120046,180069,240092,300121,360125,420157,480176,540206,600214,660238,720264,780296,840314,900320,960350,1020383,1080411,1140444,1200468,1260472,1320504,1380505,1440536,1500569,1560572,1620599,1680615,1740647,1800677,1860697,1920711,1980740,2040763,2100784,2160801,2220807,2280827,2340829,2400829
participant_0_GOLD,500,525,588,843,1173,1456,1729,1942,2295,2502,3041,3323,3614,4530,5070,5409,5775,6002,6672,6945,7151,7437,8142,8439,8626,8836,9007,9261,9636,9920,10153,10275,10825,11198,11541,11782,11988,12941,13260,13682,13984
participant_0_CURRENTGOLD,500,25,88,343,273,556,379,322,225,132,671,253,544,1110,470,409,275,502,472,245,451,737,792,89,276,486,357,611,286,571,103,226,776,1149,492,332,539,1492,1811,733,834
participant_0_LEVEL,1,1,1,3,4,5,6,6,7,7,8,9,9,10,10,11,11,12,12,12,12,13,13,13,14,14,14,14,15,15,15,15,16,16,17,17,17,18,18,18,18
participant_0_MINIONSKILLED,0,0,2,9,18,27,33,38,51,55,66,72,78,83,92,101,110,116,122,122,127,136,140,140,144,144,147,151,160,170,172,172,173,184,184,187,192,200,201,201,201
participant_0_KILLS,0,0,0,1,1,1,1,1,1,1,1,1,1,1,1,1,2,2,2,3,3,3,3,3,3,3,3,3,3,3,3,3,3,3,3,3,3,3,3,4,4
participant_0_BUY,[],"[3858, 2003, 2003, 3340]",[],[],"[1028, 1001, 2055]",[],[],"[3067, 1029]","[2003, 2003, 2055]",[],[],[],"[3364, 3047, 1029, 1028, 1029]",[],[],"[3109, 2055, 2003, 2003]",[],[3024],[],[],[3105],[],[],"[3050, 2420]",[],[],[2055],[],[],[1057],[],[],"[3193, 2055, 2055]",[],[],[],[],[3105],[],[],[3190]
participant_0_SOLD,[],[],[],[],[],[],"[2003, 2003, 2055]",[1028],[],[],"[2003, 2003]",[3858],"[3340, 1001, 1029]",[],[],"[3067, 1029]",[],"[2003, 1029]",[],[2003],[],[2055],[3859],"[3105, 3024]",[],[],[],[],[2420],"[2055, 2055]",[],[],"[1057, 2421]",[2055],[],[],[2055],[],[],[],[3105]
participant_0_UNDO,[],[],[],[],[],[],[],[],[],[],[],[],"[[0, 1028]]",[],[],[],[],[],[],[],[],[],[],[],[],[],[],[],[],[],[],[],[],[],[],[],[],[],[],[],[]
participant_1_GOLD,500,525,654,938,1343,1465,1713,2031,2297,2905,3116,3656,4013,4300,5306,5474,5801,6336,6894,7016,7212,7426,7548,8137,8318,8939,9509,9682,9926,10339,10461,10808,11383,11695,11968,12576,12845,13759,14056,14554,15280
participant_1_CURRENTGOLD,500,25,154,438,843,965,1213,881,287,895,41,581,938,1225,2231,59,386,921,579,51,247,461,583,1172,1353,1975,2544,243,487,899,171,519,109,421,693,1302,505,1420,117,614,1280
participant_1_LEVEL,1,1,2,2,4,4,4,5,5,6,6,7,7,8,9,9,9,10,10,10,10,10,10,11,11,12,13,13,13,14,14,14,15,15,15,16,16,17,17,18,18
participant_1_MINIONSKILLED,0,0,0,0,0,0,0,0,2,2,3,3,3,4,4,4,4,6,6,6,6,6,6,6,9,10,13,15,15,15,15,15,16,16,16,20,24,29,29,29,29
participant_1_KILLS,0,0,0,1,1,1,1,1,1,1,2,2,2,2,2,3,3,4,4,5,6,6,7,9,9,10,10,10,11,11,12,13,14,14,17,17,17,18,18,18,18
participant_1_BUY,[],"[1083, 3340, 2003]",[],[],"[1001, 1055, 2055]",[],[],[],[1038],[],[],"[1037, 3006, 2055]",[],[1036],[],[3031],[1042],"[1038, 1036]",[],"[3133, 3363]",[],[3508],[],"[1038, 2015]",[3371],[],[3095],"[1042, 1042]",[],[],[3086],"[3140, 1018]",[3086],[3046],[],[3139],[],[2140],[],[],[]
participant_1_SOLD,[],[],[2003],[],[2055],[],[],[],[1055],[],[],[1001],[],[],[],"[1038, 1037]",[],"[1083, 1042, 2055]",[],"[1036, 1036, 3340]",[],"[1038, 3133]",[],[],[3031],[],"[1038, 2015]",[],[],[],"[1042, 1042]",[1042],[1018],[3086],[],[3140],[],[2140],[],[],[]
participant_1_UNDO,[],[],[],[],[],[],[],[],[],[],[],[],[],[],[],[],[],[],[],[],[],[],[],[],[],[],[],[],[],[],"[[0, 3086]]",[],[],[],[],[],[],[],[],[],[]
participant_2_GOLD,500,906,1062,1335,1623,1954,2301,3055,3319,3720,4467,4813,5236,5722,6141,6369,6813,7174,7965,8189,8727,9227,9453,10080,10290,10473,11001,11369,11900,12022,12356,13282,13948,14247,14783,15128,15383,16731,17571,18375,19065
participant_2_CURRENTGOLD,500,406,212,485,73,404,401,805,219,620,1367,713,1136,1622,541,169,613,174,965,1189,527,1027,1253,831,1040,1223,1752,2119,500,623,956,1883,2049,2348,184,529,284,1632,1972,2776,3265
participant_2_LEVEL,1,1,1,3,4,5,6,6,6,7,8,8,9,9,10,10,11,11,12,12,13,13,13,14,14,14,15,15,15,15,16,16,17,17,17,18,18,18,18,18,18
participant_2_MINIONSKILLED,0,0,6,11,19,27,36,37,41,52,59,67,78,88,90,95,100,104,116,117,125,139,141,150,154,155,161,170,182,182,189,190,200,208,209,216,219,234,237,237,244
participant_2_KILLS,0,1,1,1,1,1,1,3,3,3,4,4,4,4,4,4,4,4,5,5,5,5,5,5,5,5,6,6,6,6,6,7,7,7,8,8,8,10,10,11,12
participant_2_BUY,[],"[2033, 3340]",[1082],[],"[1028, 1001]",[],[1027],[3010],[1026],[],[],"[3027, 1027]",[],[],"[3057, 1018]",[3086],[],[3111],[],[],[3094],[],[],[3041],[],[],[],[],[3100],[],[],[],[2139],[],[3157],[3386],[2139],[],[2139],[],[]
participant_2_SOLD,[],[],[],[],[],[2403],[2403],"[1028, 1027]",[2403],[],[],"[3010, 1026]",[],[],[1027],[1018],[],[1001],[],[],[3086],[],[],[1082],[],[],[],[],[3057],[],[],[],[2139],[],[2033],[3157],[2139],[],[2139],[],[]
participant_2_UNDO,[],[],[],[],[],[],[],[],[],[],[],[],[],[],[],[],[],[],[],[],[],[],[],[],[],[],[],[],[],[],[],[],[],[],[],[],[],[],[],[],[]
participant_3_GOLD,500,545,610,1308,1496,1838,2064,2540,2847,3080,3942,4272,4587,4833,5602,6067,6944,7367,7609,8253,8871,8993,9618,10835,11188,11942,12308,12431,12913,13056,14052,14997,15796,16182,17783,18108,18621,19223,19680,20436,20588
participant_3_CURRENTGOLD,500,45,110,808,171,513,739,1215,402,635,1497,77,392,288,1057,297,874,67,309,553,1171,393,1019,235,588,1342,509,31,513,656,1863,917,1117,303,1904,129,642,744,1201,1958,1088
participant_3_LEVEL,1,1,1,2,3,3,4,4,5,5,6,6,7,7,8,8,9,9,9,10,11,11,11,12,12,13,13,13,13,13,14,14,15,15,16,16,16,17,17,18,18
participant_3_MINIONSKILLED,0,0,2,9,12,21,27,33,43,49,61,65,75,82,90,91,102,102,102,110,111,111,119,128,137,142,152,152,156,157,163,171,175,182,192,200,209,209,209,216,216
participant_3_KILLS,0,0,0,0,0,0,0,0,0,0,0,0,0,1,1,1,1,1,1,1,1,1,2,2,2,2,2,2,2,2,2,2,2,2,2,2,2,3,3,3,3
participant_3_BUY,[],"[2033, 3340]",[],[],[1028],[],[1033],[1057],[1033],[1001],[],"[3111, 1027]",[],[3010],[3001],[1028],[3751],[],"[1028, 1029]",[1031],[],[3379],"[3068, 3373]",[1011],[],[],[1029],[],[3082],[],[3143],[],[],[],[3076],[1028],[],[],[],[3075],[]
participant_3_SOLD,[],[],[],[],[2010],[2010],[],"[2010, 1033]",[],[],[],"[1001, 1033]",[],"[1028, 1027]","[3010, 1057]",[],[1028],[],[],[1029],[],[3001],"[1031, 1028, 3751, 3068]",[],[],[],[],[],[1029],[],"[2033, 3082, 1011]",[],[],[],[],[],[],[],[],"[3076, 1028]",[]
participant_3_UNDO,[],[],[],[],[],[],[],[],[],[],[],[],[],[],[],[],[],[],[],[],[],[],[],[],[],[],[],[],[],[],[],[],[],[],[],[],[],[],[],[],[]
participant_4_GOLD,500,525,548,1147,1425,1644,1778,2163,2340,2474,2852,3295,3456,3659,4320,4610,5101,5316,5703,6269,6439,6672,7028,7293,7435,7662,7803,7943,8180,8320,8536,8676,9154,9339,9575,9805,9975,10399,10690,11480,11643
participant_4_CURRENTGOLD,500,25,48,647,150,369,503,188,190,324,702,1145,206,409,1070,85,576,191,578,1144,214,447,803,168,310,538,603,743,980,461,676,816,14,199,435,665,836,160,450,1240,243
participant_4_LEVEL,1,1,1,2,3,4,4,5,6,6,7,7,7,8,8,8,9,9,10,10,10,10,11,11,11,11,12,12,12,12,12,12,13,13,14,14,14,15,15,16,16
participant_4_MINIONSKILLED,0,0,0,2,8,10,10,13,15,15,17,18,19,22,23,23,23,23,31,31,31,35,36,36,36,36,36,36,36,36,36,36,36,38,38,39,40,40,40,40,40
participant_4_KILLS,0,0,0,0,0,0,0,0,0,1,1,2,2,2,4,4,4,5,6,6,6,6,6,6,6,7,7,7,7,7,7,7,7,7,7,7,7,8,8,8,10
participant_4_BUY,[],"[1039, 2031, 3340]",[],[],[],[],[],[3706],"[1082, 1052, 2055, 3364]",[],[1402],[],[],[],[],"[3020, 3916]",[],[],[3108],[2420],[],[],[],[],[],[],[],"[3157, 3041, 2055]",[],[3386],[1026],[],"[3165, 1052]",[],[],[],[3136],[],[3151],[],[]
participant_4_SOLD,[],[],[],[],[],[],[],[1039],[3340],[],"[1052, 3706]",[],[],[2055],[],"[2422, 2031]",[],[],[],[],[],[],[2420],[],[],[],[],"[3108, 2421, 1082, 2055]",[],[3157],[],[],"[3916, 1026]",[],[],[],[1052],[],[3136],[],[]
participant_4_UNDO,[],[],[],[],[],[],[],[],[],[],[],[],[],[],[],[],[],[],[],[],[],[],[],[],[],[],[],[],[],[],[],[],[],[],[],[],[],[],[],[],[]
participant_5_GOLD,500,500,584,969,1162,1319,1666,1896,2199,2541,2848,3146,3394,3743,4031,4384,4770,5052,5474,5976,6300,6660,7098,7626,7779,7952,8116,9482,9654,10644,11427,11612,11869,12127,12299,12771,13144,13368,14361,14651,14728
participant_5_CURRENTGOLD,500,0,84,469,662,819,1166,21,324,666,138,436,684,1033,181,534,920,1202,389,891,1215,320,758,636,789,362,526,1892,914,754,1537,872,80,337,510,547,919,48,1042,1332,-1122
participant_5_LEVEL,1,1,1,3,4,4,6,6,7,8,8,9,9,10,10,11,11,12,12,13,13,14,14,14,14,14,14,15,15,15,16,16,16,16,16,16,16,16,17,17,17
participant_5_MINIONSKILLED,0,0,3,16,20,22,33,37,44,54,56,66,73,78,84,94,102,107,107,117,122,132,135,141,142,142,145,145,145,151,159,159,159,159,159,170,177,178,186,191,191
participant_5_KILLS,0,0,0,0,0,0,0,0,0,0,0,0,0,0,0,0,0,0,1,1,1,1,2,2,2,2,2,3,3,5,6,6,6,6,6,6,6,6,8,8,8
participant_5_BUY,[],"[1056, 2003, 2003, 3340]",[],[],[],[],[],"[3802, 2055]",[],[],"[1052, 1028]",[],[],[],"[3916, 1001, 2055]",[],[],[],"[3020, 1052]",[],[],"[3145, 3067]",[],[3152],[],"[1029, 1029]",[],[],"[3191, 2420]",[3157],[],[1026],[3285],[],[],[1052],[],"[1026, 3135]",[],[],[1058]
participant_5_SOLD,[],[],[],[2010],"[2003, 2003]",[2010],[],[2010],[],[],[],[],[2055],[],"[1028, 1052]",[],[],[],[1001],[],[],"[1052, 1056]",[2055],"[3145, 3067]",[],[],[],[],"[1029, 1029]","[3191, 2420]",[],[],"[3802, 1026]",[],[],[],[],"[3916, 1026, 1052]",[],[],[]
participant_5_UNDO,[],[],[],[],[],[],[],[],[],[],[],[],[],[],[],[],[],[],[],[],[],[],[],[],[],[],[],[],[],[],[],[],[],[],[],[],[],[],[],[],[]
participant_6_GOLD,500,500,691,1013,1322,1869,2146,2268,2658,2866,3109,3447,3774,4116,4260,4823,5024,5529,5651,5980,6844,7187,7494,7721,8070,8192,8647,8903,9110,9368,10038,10518,10690,10884,11056,11483,11811,12096,12776,13286,13362
participant_6_CURRENTGOLD,500,0,191,513,822,1369,1646,143,533,291,534,872,1199,241,85,648,74,179,151,480,1344,1687,1994,1071,170,292,747,663,270,288,958,1438,11,204,227,314,641,926,107,542,377
participant_6_LEVEL,1,1,2,3,3,4,5,5,6,6,6,7,7,8,8,9,9,9,10,10,11,11,12,12,12,12,13,13,13,13,14,14,14,14,14,15,15,15,16,17,17
participant_6_MINIONSKILLED,0,0,0,0,1,1,1,1,1,1,2,2,2,2,3,4,6,10,10,11,16,17,18,18,19,19,22,28,28,28,29,34,34,35,35,35,38,41,47,48,48
participant_6_KILLS,0,0,0,0,0,0,0,0,0,0,0,0,1,1,1,1,1,2,3,3,3,3,4,4,4,4,4,4,4,4,6,6,6,6,6,6,6,7,7,7,7
participant_6_BUY,[],"[3850, 2003, 2003]",[],[1001],[],[],[],"[1052, 3108, 1052]",[],[],"[3117, 1052]",[],[],"[3364, 3145, 1052, 2055]",[1052],[3802],[],[3030],"[1033, 1052]",[3108],"[1033, 2055]",[],[],"[3174, 2055]",[],[],"[1052, 2055, 2055]",[],"[3113, 2055]","[2055, 2055]",[],"[3504, 2055, 2055]",[],[],[2139],"[2055, 2055]",[],[1058],[2139],[],[]
participant_6_SOLD,[],[],[],[2003],[],[],[2010],"[2010, 2010, 1052]",[],[],"[2010, 3850, 2010, 1001]","[2419, 2423]",[],"[3340, 1052, 1052, 2424]",[2003],"[2055, 1052, 1052]",[],"[3802, 3145]",[],"[3851, 1052]",[],[2055],[],"[3108, 1033]",[2055],[],"[2055, 2055]",[],"[1052, 2055]",[],[2055],"[2055, 3113]",[2055],[2055],[],"[2139, 2055]",[2055],[],[2139],[],[]
participant_6_UNDO,[],[],[],[],[],[],[],"[[0, 3108], [2010, 0], [2010, 0], [0, 1052]]",[],[],[],[],[],[],[],[],[],[],"[[0, 1033]]",[],[],[],[],[],[],[],[],[],[],[],[],[],[],[],[],[],[],[],[],[],[]
participant_7_GOLD,500,500,598,976,1496,1893,2208,2846,3814,4112,4596,4887,5290,5837,6149,7010,7399,7689,7969,8120,8570,8713,9046,9455,9802,10050,10739,11462,12105,12595,13244,13591,14341,14639,15567,15877,16209,16722,17185,17748,17824
participant_7_CURRENTGOLD,500,0,98,476,996,568,883,1521,1089,37,521,812,1215,112,424,1285,1674,349,629,355,155,299,631,490,837,1085,1775,2498,665,1155,805,331,1082,405,1333,343,675,1098,1561,2124,-1211
participant_7_LEVEL,1,1,1,3,4,5,5,6,7,8,8,9,9,9,10,11,11,11,11,11,12,12,12,12,13,13,14,14,14,15,15,16,16,16,17,17,17,17,18,18,18
participant_7_MINIONSKILLED,0,0,4,16,20,27,35,47,56,60,63,69,82,88,99,102,107,109,117,119,119,120,125,134,143,146,152,155,155,163,165,171,178,178,179,186,194,194,206,209,209
participant_7_KILLS,0,0,0,0,1,1,1,2,3,3,4,4,4,5,5,6,6,6,6,6,7,7,7,7,7,7,8,9,10,10,11,11,11,11,13,13,13,14,14,15,15
participant_7_BUY,[],"[1055, 2003, 3340]",[],[],[],"[1018, 1042, 1001, 1042, 2031, 2055]",[],[],"[3086, 1042]","[3046, 1033]",[],[],[],"[3111, 1018, 1038]",[],[],[],"[1018, 1037]",[],[3031],"[1029, 1036, 1029]",[],[],[1053],[],[],[],[],"[3812, 2055]",[],[3082],[1011],[],"[3143, 2055]",[],[1038],[],"[3144, 1043]",[],[],[3091]
participant_7_SOLD,[],[],[],[],[2003],[],[2055],[],[1042],"[1042, 3086]",[],[],[],"[1001, 1033]",[],[],[],[2031],[],"[1038, 1037, 1018]",[],[],[],[1036],[],[],[],[],"[1029, 1053]",[2055],[1055],"[1055, 1055]",[],"[3082, 1011, 2055]",[],[],[],[1038],[],[],[1043]
participant_7_UNDO,[],[],[],[],[],"[[0, 1018], [0, 1042]]",[],[],[],[],[],[],[],"[[0, 1018]]",[],[],[],[],[],[],"[[0, 1029]]",[],[],[],[],[],[],[],[],[],"[[1055, 0]]","[[1055, 0]]",[],[],[],[],[],"[[0, 3144]]",[],[],[]
participant_8_GOLD,500,500,577,1131,1398,1730,2007,2429,2844,3128,3336,3723,3908,4206,4371,5312,5746,6317,6755,7519,7890,8250,8649,8822,9115,9796,10113,10940,11307,11610,12612,12811,13305,13651,13994,14216,14617,14847,14998,15340,15416
participant_8_CURRENTGOLD,500,0,77,631,398,730,1007,129,544,828,286,673,858,181,346,1287,346,917,480,1244,390,750,1150,222,515,1196,23,851,1217,171,1172,101,596,942,1314,187,588,18,169,511,316
participant_8_LEVEL,1,1,1,2,3,4,5,5,6,6,6,7,8,8,8,9,9,10,11,11,12,12,12,12,12,13,13,14,14,14,15,15,15,16,16,16,16,17,17,17,17
participant_8_MINIONSKILLED,0,0,3,10,16,25,34,34,42,51,53,65,69,76,78,83,87,94,99,109,114,124,131,131,136,146,153,170,176,177,184,185,195,201,201,201,213,213,215,215,215
participant_8_KILLS,0,0,0,0,0,1,1,1,1,1,1,1,1,1,1,1,1,2,2,2,3,3,3,3,3,3,3,3,3,3,3,3,3,3,3,3,3,3,3,4,4
participant_8_BUY,[],"[3340, 2031, 1039]",[],[],[],[],[],"[3751, 1001, 1041, 2055]",[],"[3706, 2055, 2055]",[],[],[],"[1401, 3117]",[1029],[],"[3076, 2055, 3364]",[1028],"[2055, 2055]",[],[],[],[],"[3024, 3801]","[3800, 2055, 2055]",[],[],[1028],[1011],[1029],[],[],"[1031, 3742]",[],"[2055, 2055]",[1028],[],[],[3075],[2055],[]
participant_8_SOLD,[],[],[],[],[],[],[],[],[2055],"[1039, 1041]",[],[2055],[],"[3751, 3706, 1001]",[],[2055],"[1029, 3340]",[],[2055],[],[],[2055],[2055],[1028],"[3024, 3801]",[2031],[],[2031],[1028],"[2055, 2055]",[],[],"[1029, 1031, 1011]",[],[],"[2055, 2055]",[],[],"[3076, 1028]",[2055],[]
participant_8_UNDO,[],[],[],[],[],[],[],[],[],[],[],[],[],[],[],[],[],[],[],[],[],[],[],[],[],"[[2031, 0]]",[],[],[],[],[],[],[],[],[],[],[],[],[],[],[]
participant_9_GOLD,500,545,613,807,1076,1255,1435,1734,2088,2223,2432,2605,3255,3426,3625,3890,4141,4730,5395,5716,5856,5997,6527,6732,6955,7145,7286,7680,7871,8144,9344,9547,9737,9958,10298,10469,10619,11853,12068,12284,12371
participant_9_CURRENTGOLD,500,45,113,7,276,455,635,499,853,988,62,235,885,406,170,35,286,425,655,511,126,267,797,177,400,590,146,540,241,364,1564,167,358,578,418,439,589,573,288,504,461
participant_9_LEVEL,1,1,1,2,2,3,4,4,4,5,5,5,6,6,6,7,7,8,8,9,9,9,9,9,10,10,10,11,11,12,13,13,13,13,13,14,14,14,14,15,15
participant_9_MINIONSKILLED,0,0,0,0,1,1,1,1,1,1,3,3,3,3,4,4,4,5,6,7,7,7,8,9,12,12,12,13,13,14,19,19,19,20,20,20,20,23,23,23,23
participant_9_KILLS,0,0,0,1,1,1,1,2,2,2,2,2,2,2,2,4,4,4,4,5,5,5,5,5,5,6,6,6,6,6,7,7,7,7,7,7,7,7,7,7,7
participant_9_BUY,[],"[1055, 2003, 3340]",[],[],"[1036, 2031]",[],[],[1038],[],[],[3133],[],[],"[3508, 2055]",[],[],"[1038, 3363, 2055]",[],[1037],[],[3031],[],[],[3006],[],[],"[3086, 2055, 2055]",[],[],"[3046, 2055, 2055]",[],[3035],[],[],[],[3036],[],[1018],[],[],[]
participant_9_SOLD,[],[],[],[2003],[],[],[],[],[],[],[1036],[],[],"[1038, 3133]",[],[],[3340],[2055],[],[2055],"[1038, 1037]",[],[],[],[],[],[2031],[],"[2055, 2055]",[3086],[],[1055],[],[2055],[2055],[3035],[],[],[],[],[]
participant_9_UNDO,[],[],[],[],[],[],[],[],[],[],[],[],[],[],[],[],[],[],[],[],[],[],[],[],[],[],[],[],[],[],[],[],[],[],[],[],[],[],[],[],[]
team0_KILLS,0,1,1,3,3,3,3,5,5,6,8,9,9,10,12,13,14,16,18,20,21,21,23,25,25,27,28,28,29,29,30,32,33,33,37,37,37,42,42,44,47
team0_CURRENTGOLD,2500,526,612,2721,1510,2807,3235,3411,1323,2606,4278,2769,3216,4654,5369,1019,2724,1855,2903,3182,2610,3065,4450,2495,3567,5564,5765,3747,2766,3210,3769,4361,4065,4420,3708,2957,2806,5448,5551,7321,6710
team0_TOTALGOLD,2500,3026,3462,5571,7060,8357,9585,11731,13098,14681,17418,19359,20906,23044,26439,27929,30434,32195,34843,36672,38400,39755,41789,44784,45857,47852,49628,50686,52555,53657,55558,58038,61106,62661,65650,67399,68812,73053,75257,78527,80560
team0_LEVEL,5,5,6,12,18,21,24,26,29,31,35,37,39,42,45,46,49,51,53,54,56,57,58,61,62,64,67,67,68,69,71,71,76,76,79,81,81,85,85,88,88
team0_SBIRES,0,0,10,31,57,85,106,121,152,173,206,225,253,279,299,314,339,351,377,386,400,427,442,460,480,487,509,524,549,560,575,584,600,628,639,662,684,712,716,723,730
team1_KILLS,0,0,0,1,2,3,3,5,6,6,7,7,8,9,9,12,12,14,16,17,19,19,21,21,21,22,23,25,26,28,33,33,33,33,35,35,35,37,39,41,41
team1_CURRENTGOLD,2500,45,563,2096,3154,3941,5337,2313,3343,2810,1541,3028,4841,1973,1206,3789,3300,3072,2304,3481,3230,3323,5330,2596,2711,3525,3217,6444,3307,2732,6036,2909,2127,2466,3802,1830,3412,2663,3167,5013,-1179
team1_TOTALGOLD,2500,2545,3063,4896,6454,8066,9462,11173,13603,14870,16321,17808,19621,21328,22436,25419,27080,29317,31244,33311,35460,36807,38814,40356,41721,43135,44901,48467,50047,52361,56665,58079,59942,61259,63214,64816,66400,68886,71388,73309,73701
team1_LEVEL,5,5,6,13,16,20,25,26,30,33,33,37,39,41,42,47,47,50,52,54,57,58,59,59,61,62,64,67,67,69,73,74,74,75,76,78,78,79,82,84,84
team1_SBIRES,0,0,10,42,58,76,104,120,144,167,177,205,229,247,268,287,306,325,339,363,378,400,417,433,452,465,484,511,517,533,556,568,585,593,594,612,642,649,677,686,686
delta_KILLS,0,1,1,2,1,0,0,0,-1,0,1,2,1,1,3,1,2,2,2,3,2,2,2,4,4,5,5,3,3,1,-3,-1,0,0,2,2,2,5,3,3,6
delta_CURRENTGOLD,0,481,49,625,-1644,-1134,-2102,1098,-2020,-204,2737,-259,-1625,2681,4163,-2770,-576,-1217,599,-299,-620,-258,-880,-101,856,2039,2548,-2697,-541,478,-2267,1452,1938,1954,-94,1127,-606,2785,2384,2308,7889
delta_TOTALGOLD,0,481,399,675,606,291,123,558,-505,-189,1097,1551,1285,1716,4003,2510,3354,2878,3599,3361,2940,2948,2975,4428,4136,4717,4727,2219,2508,1296,-1107,-41,1164,1402,2436,2583,2412,4167,3869,5218,6859
delta_LEVEL,0,0,0,-1,2,1,-1,0,-1,-2,2,0,0,1,3,-1,2,1,1,0,-1,-1,-1,2,1,2,3,0,1,0,-2,-3,2,1,3,3,3,6,3,4,4
delta_SBIRES,0,0,0,-11,-1,9,2,1,8,6,29,20,24,32,31,27,33,26,38,23,22,27,25,27,28,22,25,13,32,27,19,16,15,35,45,50,42,63,39,37,44
