name,frame_0,frame_1,frame_2,frame_3,frame_4,frame_5,frame_6,frame_7,frame_8,frame_9,frame_10,frame_11,frame_12,frame_13,frame_14,frame_15,frame_16,frame_17,frame_18,frame_19,frame_20,frame_21,frame_22,frame_23,frame_24
nameStamp,Tstart,Tearly,Tearly,Tearly,Tearly,Tearly,Tearly,Tearly,Tearly,Tearly,Tearly,Tearly,Tearly,Tmid,Tmid,Tmid,Tmid,Tmid,Tmid,Tmid,Tmid,Tmid,Tmid,Tmid,Tmid
timestamp,0,60008,120009,180041,240055,300084,360096,420130,480156,540162,600185,660192,720222,780254,840273,900274,960297,1020322,1080345,1140375,1200392,1260399,1320421,1380426,1440426
participant_0_GOLD,500,500,541,734,1043,1396,1645,1952,2095,2458,3033,3303,3537,3743,4094,4433,4556,4678,4953,5215,5407,6287,6597,6720,6786
participant_0_CURRENTGOLD,500,0,41,234,543,896,495,802,195,558,1133,203,437,243,594,933,106,8,283,195,387,867,302,425,311
participant_0_LEVEL,1,1,1,2,4,5,6,6,6,7,8,9,9,9,10,10,10,10,10,11,11,12,12,12,12
participant_0_MINIONSKILLED,0,0,1,5,14,25,32,40,41,52,59,68,74,79,88,96,96,96,101,105,109,109,116,116,116
participant_0_KILLS,0,0,0,0,0,0,0,0,0,0,0,0,0,0,0,2,2,2,2,2,2,3,3,3,3
participant_0_BUY,[],"[2033, 3340]",[],[],[],[1052],[],[],[],"[3145, 1028]",[],[1001],[],[],[],[4636],[],[],[1052],[],[],[3113],[],[],[]
participant_0_SOLD,[],[],[],[],[],[],[],[],[],[1052],[],[],[],[],[],"[3145, 1028]",[],[],[],[],[],[1052],[],[],[]
participant_0_UNDO,[],[],[],[],[],[],[],[],[],[],[],[],[],[],[],[],[],[],[],[],[],[],[],[],[]
participant_1_GOLD,500,500,620,878,1001,1308,1566,1793,2015,2223,2445,2780,3106,3228,3451,3703,3987,4168,4305,4520,4844,5107,5444,5581,5647
participant_1_CURRENTGOLD,500,150,270,528,351,658,116,343,565,273,495,820,1146,318,541,793,1077,8,145,360,684,447,784,921,997
participant_1_LEVEL,1,1,2,2,2,3,4,4,4,5,5,6,7,7,8,8,8,9,9,9,9,10,10,10,10
participant_1_MINIONSKILLED,0,0,0,0,0,0,0,0,0,0,0,11,12,12,12,13,13,15,15,15,23,25,26,27,27
participant_1_KILLS,0,0,0,0,0,0,0,0,0,0,1,1,1,1,1,1,1,1,1,1,1,2,2,2,2
participant_1_BUY,[],"[1055, 3340, 2003]",[],[],[],[],"[1001, 1036]",[],[3044],[],[],[6029],[],[1028],[],[],"[6630, 1036]",[1028],[],[3044],[],[1028],[1037],[],[]
participant_1_SOLD,[],[],[],[],[2003],[],[],[],[1036],[],[],[],[],[],[],[],"[6029, 3044, 1028]",[1055],[],"[1028, 1036]",[],[],[],[],[]
participant_1_UNDO,[],[],[],[],[],[],[],[],[],[],[],[],[],[],[],[],[],[],[],[],[],[],[],[],[]
participant_2_GOLD,500,500,520,755,1008,1151,1550,1812,2025,2262,2489,2612,2734,2940,3249,4111,4332,4566,4688,4811,4933,5530,5666,5920,5987
participant_2_CURRENTGOLD,500,0,20,255,498,206,595,857,1070,282,509,332,454,660,959,71,292,526,213,336,458,640,776,1030,1137
participant_2_LEVEL,1,1,1,3,4,4,5,6,7,7,8,8,8,8,9,9,9,10,10,10,10,11,11,11,11
participant_2_MINIONSKILLED,0,0,0,6,11,12,25,33,38,41,47,47,47,52,60,60,66,73,73,73,73,75,76,80,80
participant_2_KILLS,0,0,0,0,0,0,0,0,0,0,0,0,0,0,0,0,0,0,0,0,0,0,0,0,0
participant_2_BUY,[],[1039],[],[],[1001],[],"[1028, 1028]",[],[],"[6660, 1029]",[],[],[],"[1031, 1033]",[],[],[],"[6662, 1029]",[],[],[],[3047],[],[],[]
participant_2_SOLD,[],[],[],[],[],[],[],[],[],"[1028, 1028]",[],[],[1039],[1029],[],[],[],"[6660, 1033, 1031]",[],[],[],"[1001, 1029]",[],[],[]
participant_2_UNDO,[],[],[],[],[],[],[],[],[],[],[],[],[],[],[],[],[],[],[],[],[],[],[],[],[]
participant_3_GOLD,500,500,520,818,955,1301,1850,2028,2345,2510,2807,3000,3448,3755,4050,4682,4847,5164,5349,5535,5734,7504,7821,7958,8024
participant_3_CURRENTGOLD,500,0,20,318,105,451,1000,228,545,710,1007,1200,1648,155,150,182,347,664,849,335,34,1804,2121,383,449
participant_3_LEVEL,1,1,1,2,2,3,4,4,5,5,6,6,7,7,7,8,8,8,8,8,9,10,10,10,10
participant_3_MINIONSKILLED,0,0,0,10,11,21,28,31,39,42,52,56,63,69,75,77,79,86,90,94,98,113,120,121,121
participant_3_KILLS,0,0,0,0,0,0,1,1,1,1,1,1,1,1,1,2,2,2,2,2,2,4,4,4,4
participant_3_BUY,[],"[1055, 2003]",[],[],[1036],[],[],[6670],[],[],[],[],[],"[1018, 1053, 1001]",[1042],[6673],[],[],[3006],"[1036, 1036]",[3006],[],[],"[3133, 1037, 1018]",[]
participant_3_SOLD,[],[],[],[2003],[],[],[],[1036],[],[],[],[],[],[],[],"[6670, 1018, 1053]",[],[],"[1001, 1042]",[],"[1001, 1042]",[],[],"[1036, 1036]",[]
participant_3_UNDO,[],[],[],[],[],[],[],[],[],[],[],[],[],[],[],[],[],[],"[[0, 3006]]",[],[],[],[],[],[]
participant_4_GOLD,500,500,562,737,941,1075,1460,1594,1758,1953,2147,2282,2736,3035,3216,3627,3847,4002,4222,4363,4543,5129,5269,5410,5486
participant_4_CURRENTGOLD,500,100,162,337,541,675,1060,324,488,683,877,1012,1466,50,231,642,427,582,802,302,232,818,958,549,16
participant_4_LEVEL,1,1,1,2,3,4,5,5,5,6,6,7,7,7,8,8,9,9,9,10,10,11,11,11,11
participant_4_MINIONSKILLED,0,0,0,0,3,3,3,3,4,4,4,4,4,4,4,7,7,8,8,8,8,10,10,10,10
participant_4_KILLS,0,0,0,0,0,0,0,0,0,0,0,0,1,1,1,1,1,1,1,1,1,1,1,1,1
participant_4_BUY,[],"[3850, 2003, 2003]",[],[],[],[],[],"[1052, 1052]",[],[],[],[],[],"[3802, 1026, 1052]",[],[],[1052],[],[],[6655],[1004],[],[],[3114],[]
participant_4_SOLD,[],[],[],[],[],[],[],[],[],[],[],[],[],"[3850, 1052, 1052]",[],[],[],[],[],"[1052, 1052, 3802, 1026]",[],[3851],[],[1004],[]
participant_4_UNDO,[],"[[0, 2003], [0, 2003]]",[],[],[],[],[],[],[],[],[],[],[],[],[],[],[],[],[],[],[],[],[],[],[]
participant_5_GOLD,500,500,583,755,994,1291,1561,1882,2560,2807,3162,3458,3777,4624,5044,5342,5633,6395,6714,6941,7689,7967,8216,8468,8786
participant_5_CURRENTGOLD,500,0,83,255,494,791,261,582,1260,307,312,258,577,124,544,842,33,795,1114,291,1039,1317,1566,343,631
participant_5_LEVEL,1,1,1,3,4,5,6,6,7,8,8,9,9,10,11,11,11,12,12,12,12,13,13,13,13
participant_5_MINIONSKILLED,0,0,3,6,11,18,27,36,42,48,59,66,75,80,94,101,107,111,111,111,114,117,117,119,123
participant_5_KILLS,0,0,0,0,1,1,1,1,1,1,1,1,1,1,1,2,3,3,3,3,5,5,5,6,6
participant_5_BUY,[],"[1055, 3070, 2003, 2003]",[],[],[],"[3057, 2031, 2055]",[1036],[],[],[],[],[],[3004],[],[],"[3051, 1028]",[],[],[3078],[],[],[3047],"[3123, 1036]",[],[]
participant_5_SOLD,[],[],[],"[2010, 2003]",[2003],[],[2010],"[2055, 2010]",[],[],[],[],"[3070, 1036]",[],[],[],[],[],"[3057, 3051, 1028]",[],[],"[3004, 2422]",[],[],[]
participant_5_UNDO,[],"[[0, 1055]]",[],[],[],[],[],[],[],[],[],[],[],[],[],[],[],[],[],[],[],[],[],[],[]
participant_6_GOLD,500,500,605,963,1678,2022,2335,2677,2922,3045,3409,3857,4214,4533,4786,5047,5354,5828,6240,6497,6930,7444,7666,8376,8766
participant_6_CURRENTGOLD,500,0,105,463,1178,1522,335,677,922,1045,1409,1857,714,1033,1286,147,379,853,1265,72,505,279,501,1211,1541
participant_6_LEVEL,1,1,2,3,4,4,5,6,6,6,7,7,7,8,8,9,9,10,10,11,11,11,12,12,12
participant_6_MINIONSKILLED,0,0,0,0,0,0,0,0,0,0,3,3,3,3,3,3,3,4,10,10,12,13,13,17,18
participant_6_KILLS,0,0,0,0,0,0,0,0,0,0,0,0,0,0,0,1,1,2,2,2,2,2,2,2,2
participant_6_BUY,[],"[3850, 2003, 2003, 3340]",[],[],[],"[1082, 1004, 2055]",[],[],[],[],[],[],"[4642, 3067]",[1001],[],[],"[4005, 3364]",[],"[3117, 3158, 3114]",[],[],[1026],[],[],[]
participant_6_SOLD,[],[],[],[2003],[2003],[],[2055],[],[],[3850],[],[],[1004],[],[],[],"[3067, 4642, 3340]",[3851],"[1001, 1001]",[],[],[],[],[],[]
participant_6_UNDO,[],[],[],[],[],[],[],[],[],[],[],[],[],[],[],[],[],[],"[[0, 3117]]",[],[],[],[],[],[]
participant_7_GOLD,500,500,625,899,1204,1801,2057,2434,3040,3583,3860,4718,5648,6096,6233,6936,7635,8382,9276,9663,10377,10803,11254,12023,12628
participant_7_CURRENTGOLD,500,0,125,389,694,1291,122,489,1085,1618,1895,108,1028,1466,13,716,1415,72,966,1353,2068,1193,444,1213,1728
participant_7_LEVEL,1,1,1,3,4,5,6,7,7,8,9,9,10,11,11,11,12,12,13,13,13,14,14,15,15
participant_7_MINIONSKILLED,0,0,6,12,23,33,41,53,62,74,83,92,100,115,116,126,133,138,140,145,152,157,167,178,182
participant_7_KILLS,0,0,0,0,1,1,1,1,1,1,1,1,1,1,1,1,1,1,1,1,1,2,2,3,3
participant_7_BUY,[],"[1035, 2031, 3340, 3364]",[],[],[],[],"[6029, 1001]",[],[],[],[],[],"[3044, 1028]",[],[],"[6630, 3111]",[2055],[],[],"[3044, 1036, 3133, 1036]",[],[3067],[],[],[]
participant_7_SOLD,[],[3340],[],[],[],[],[],[],[1035],[],"[3364, 3513]",[],[],[],[],"[6029, 3044, 1028, 1001]",[],[],[3364],[],[3513],[2031],[],[],[]
participant_7_UNDO,[],[],[],[],[],[],[],[],[],[],[],[],[],[],[],[],[],[],[],"[[0, 1036], [0, 3044]]",[],[],[],[],[]
participant_8_GOLD,500,500,604,948,1525,1717,1938,2290,2614,3029,3193,3580,3850,4350,4764,5232,5937,6535,6721,6885,7923,8235,8392,9083,9352
participant_8_CURRENTGOLD,500,0,104,448,1025,292,163,515,839,1254,1418,1805,225,725,1139,107,812,1410,463,627,1665,1177,184,875,1144
participant_8_LEVEL,1,1,1,2,3,4,4,4,5,6,6,7,7,8,8,8,9,10,10,10,11,11,12,12,12
participant_8_MINIONSKILLED,0,0,5,15,24,28,34,38,46,56,58,70,76,85,98,99,112,122,125,128,135,136,138,145,146
participant_8_KILLS,0,0,0,0,0,1,1,1,2,2,2,3,3,3,3,3,4,5,7,7,8,8,8,8,9
participant_8_BUY,[],"[1056, 2003, 2003, 3340]",[],[],[],[],"[4635, 2055, 2003]",[],[],[],[],"[4633, 1001, 1052]",[],[],"[1011, 1026]",[],[],"[4637, 4632, 2055]",[],[],[],[3102],"[1026, 1082]",[],[]
participant_8_SOLD,[],[],[],[],[2003],[],[],[2055],[],[],[2003],"[2003, 4635]",[],[],[1056],[],[],"[1026, 1011, 1052]",[2055],[],[],[4632],[],[],[]
participant_8_UNDO,[],[],[],[],[],[],[],[],[],[],[],[],[],[],[],[],[],[],[],[],[],[],[],[],[]
participant_9_GOLD,500,500,562,797,1157,1291,1572,2023,2177,2563,2792,2932,3162,3331,3511,4150,4460,5251,5392,5619,6311,6565,6705,7029,7218
participant_9_CURRENTGOLD,500,0,62,297,657,116,397,848,1002,1388,1617,1757,387,256,436,1075,536,1326,67,294,986,390,531,855,1043
participant_9_LEVEL,1,1,1,2,3,3,4,5,5,6,6,6,7,7,7,8,8,9,9,9,10,10,10,11,11
participant_9_MINIONSKILLED,0,0,0,0,0,0,2,6,6,8,10,10,10,12,12,12,12,14,14,18,22,23,23,24,24
participant_9_KILLS,0,0,0,0,0,0,0,0,1,1,1,1,1,2,2,2,2,3,3,3,4,4,4,4,4
participant_9_BUY,[],"[1054, 3340, 2003]",[],[],[],[],[3067],[],[],[6029],[1036],[1036],[],"[6630, 1036]",[],[],"[3133, 1028, 1029]",[],[],"[3067, 3047, 2055, 2055]",[],[],[],"[3071, 2055]",[]
participant_9_SOLD,[],[],[],[2003],[],[],[],[],[],[],[],[],[],"[6029, 1036, 3067]",[],[],"[1036, 1036]",[],[],"[1028, 1029, 2422]",[2055],[],"[2055, 2055]","[3133, 3067]",[]
participant_9_UNDO,[],[],[],[],[],[],[],[],[],[],[],[],[],[],[],[],[],[],[],[],[],[],"[[2055, 0]]",[],[]
team0_KILLS,0,0,0,0,0,0,1,1,1,1,2,2,3,3,3,6,6,6,6,6,6,10,10,10,10
team0_CURRENTGOLD,2500,250,513,1672,2038,2886,3266,2554,2863,2506,4021,3567,5151,1426,2475,2621,2249,1788,2292,1528,1795,4576,4941,3308,2910
team0_TOTALGOLD,2500,2500,2763,3922,4948,6231,8071,9179,10238,11406,12921,13977,15561,16701,18060,20556,21569,22578,23517,24444,25461,29557,30797,31589,31930
team0_LEVEL,5,5,6,11,15,19,24,25,27,30,33,36,38,38,42,43,44,46,46,48,49,54,54,54,54
team0_SBIRES,0,0,1,21,39,61,88,107,122,139,162,186,200,216,239,253,261,278,287,295,311,332,348,354,354
team1_KILLS,0,0,0,0,2,3,3,3,5,5,5,6,6,7,7,9,11,14,16,16,20,21,21,23,24
team1_CURRENTGOLD,2500,0,479,1852,4048,4012,1278,3111,5108,5612,6651,5785,2931,3604,3418,2887,3175,4456,3875,2637,6263,4356,3226,4497,6087
team1_TOTALGOLD,2500,2500,2979,4362,6558,8122,9463,11306,13313,15027,16416,18545,20651,22934,24338,26707,29019,32391,34343,35605,39230,41014,42233,44979,46750
team1_LEVEL,5,5,6,13,18,21,25,28,30,34,36,38,40,44,45,47,49,53,54,55,57,59,61,63,63
team1_SBIRES,0,0,14,33,58,79,104,133,156,186,213,241,264,295,323,341,367,389,400,412,435,446,458,483,493
delta_KILLS,0,0,0,0,-2,-3,-2,-2,-4,-4,-3,-4,-3,-4,-4,-3,-5,-8,-10,-10,-14,-11,-11,-13,-14
delta_CURRENTGOLD,0,250,34,-180,-2010,-1126,1988,-557,-2245,-3106,-2630,-2218,2220,-2178,-943,-266,-926,-2668,-1583,-1109,-4468,220,1715,-1189,-3177
delta_TOTALGOLD,0,0,-216,-440,-1610,-1891,-1392,-2127,-3075,-3621,-3495,-4568,-5090,-6233,-6278,-6151,-7450,-9813,-10826,-11161,-13769,-11457,-11436,-13390,-14820
delta_LEVEL,0,0,0,-2,-3,-2,-1,-3,-3,-4,-3,-2,-2,-6,-3,-4,-5,-7,-8,-7,-8,-5,-7,-9,-9
delta_SBIRES,0,0,-13,-12,-19,-18,-16,-26,-34,-47,-51,-55,-64,-79,-84,-88,-106,-111,-113,-117,-124,-114,-110,-129,-139
