name,frame_0,frame_1,frame_2,frame_3,frame_4,frame_5,frame_6,frame_7,frame_8,frame_9,frame_10,frame_11,frame_12,frame_13,frame_14,frame_15,frame_16,frame_17,frame_18,frame_19,frame_20,frame_21,frame_22,frame_23,frame_24
nameStamp,Tstart,Tearly,Tearly,Tearly,Tearly,Tearly,Tearly,Tearly,Tearly,Tearly,Tearly,Tmid,Tmid,Tmid,Tmid,Tmid,Tmid,Tmid,Tmid,Tmid,Tmid,Tmid,Tmid,Tmid,Tmid
timestamp,0,60031,120038,180048,240054,300060,360067,420069,480079,540112,600135,660143,720154,780192,840222,900226,960236,1020249,1080258,1140269,1200280,1260308,1320337,1380361,1440388
participant_0_GOLD,500,500,690,924,1295,1789,2212,2732,3052,3502,3952,4604,5207,5460,6177,6341,6790,7266,7886,8100,8290,8431,9080,9384,9875
participant_0_CURRENTGOLD,500,0,190,424,795,1289,1712,2232,2552,402,852,1504,2097,215,932,196,645,1121,1741,190,380,521,1170,1474,1965
participant_0_LEVEL,1,1,1,2,3,4,5,5,6,6,7,7,8,8,9,10,10,11,12,12,12,12,13,13,14
participant_0_MINIONSKILLED,0,0,0,0,1,1,2,4,6,6,9,12,20,24,27,30,35,41,44,45,45,45,53,54,54
participant_0_KILLS,0,0,0,0,0,0,0,0,0,0,0,2,2,2,5,5,6,7,8,8,8,8,9,9,9
participant_0_BUY,[],"[3850, 2003, 2003]",[],[],[],[],[],[],[],"[3145, 1028, 1026, 1001]",[],[],[],"[4636, 3020, 1052]",[],"[3191, 1052]",[],[],[],"[3157, 1026]",[],[],[],[],[]
participant_0_SOLD,[],[],[],[],[2003],[],[2003],"[2419, 3850]",[],[],[],[],[3851],"[3145, 1028, 1026, 1001]",[],[1052],[],[],[],"[3191, 1052, 2423]",[],[],[],[],[]
participant_0_UNDO,[],[],[],[],[],[],[],[],[],[],[],[],[],[],[],[],[],[],[],[],[],[],[],[],[]
participant_1_GOLD,500,500,521,643,1167,1461,1693,2246,2556,3111,3698,3870,4241,5096,5218,5365,5647,5798,5920,6093,6265,6505,6628,6850,7629
participant_1_CURRENTGOLD,500,0,21,143,667,961,293,846,371,926,998,150,521,1376,163,310,592,743,865,1038,1210,1450,1573,1795,2574
participant_1_LEVEL,1,1,1,2,3,4,4,5,6,6,7,7,7,8,8,8,9,9,9,9,9,10,10,10,11
participant_1_MINIONSKILLED,0,0,0,0,1,3,3,5,7,12,17,17,19,25,25,25,25,27,27,27,27,30,30,30,30
participant_1_KILLS,0,0,0,0,1,1,1,2,2,3,3,3,4,6,6,6,6,6,6,6,6,6,6,6,6
participant_1_BUY,[],"[1056, 2003, 2003, 3340]",[],[],[],[],[3108],[],"[1027, 1052]",[],[3802],[6653],[],[],"[1011, 1052]",[],[],[],[],[],[],[],[],[],[]
participant_1_SOLD,[],[],[],[],[],[],[],[],[],[],"[2003, 1052, 1027]","[1056, 2003, 3802, 3108]",[],[],[],[],[],[],[],[],[],[],[],[],[]
participant_1_UNDO,[],[],[],[],[],[],[],[],[],[],[],[],[],[],[],[],[],[],[],[],[],[],[],[],[]
participant_2_GOLD,500,500,621,1018,1381,1806,2266,2545,3070,3415,4163,4687,5074,5420,6008,6484,7031,7313,7740,8354,8829,9297,9968,10675,11172
participant_2_CURRENTGOLD,500,0,121,518,881,1296,1756,85,610,955,1703,2227,2614,310,898,1374,1921,203,630,1244,1719,2187,2858,630,573
participant_2_LEVEL,1,1,2,3,4,5,6,6,7,8,9,9,10,10,11,12,13,13,13,14,14,15,16,16,17
participant_2_MINIONSKILLED,0,0,0,0,4,14,14,18,18,18,22,25,26,26,31,36,44,45,45,49,55,55,63,63,63
participant_2_KILLS,0,0,0,0,0,0,1,1,1,1,1,2,2,2,3,3,3,4,4,4,4,4,4,6,6
participant_2_BUY,[],"[1039, 2031, 3340]",[],[],[],[],[],"[3041, 1027]",[],[],[],[],[],[3003],[],[],[],"[3020, 3108]",[],[],[],[],[],"[6653, 1052]",[3145]
participant_2_SOLD,[],[],[],[],[],[],[],[],[],[1039],[],[],[],[1027],[],[],[],[],[],[],[],[],[],[3108],"[2031, 1052]"
participant_2_UNDO,[],[],[],[],[],[],[],[],[],[],[],[],[],[],[],[],[],[],[],[],[],[],[],[],[]
participant_3_GOLD,500,500,521,755,1321,1808,2268,2969,3762,4360,4955,5502,5800,6219,6390,6647,7129,7356,7647,7921,8094,8330,9135,9519,11277
participant_3_CURRENTGOLD,500,0,21,255,821,1308,168,869,962,1560,55,602,900,1319,40,297,379,606,897,771,1124,1360,15,399,2157
participant_3_LEVEL,1,1,1,2,3,4,5,5,6,7,7,8,8,8,8,9,9,9,10,10,10,10,11,12,14
participant_3_MINIONSKILLED,0,0,0,7,16,20,26,35,38,45,47,52,52,54,57,58,58,63,68,70,70,71,74,81,85
participant_3_KILLS,0,0,0,0,0,1,2,3,5,6,6,7,8,8,8,9,11,11,11,11,11,11,13,13,17
participant_3_BUY,[],"[1083, 1055, 2003, 3340]",[],[],[],[],"[6029, 1028]",[],[3044],[],"[6630, 3047]",[],[],[],"[3044, 3133, 1036]",[],[1028],[],[],[3067],[],[],"[3071, 3133]",[],[]
participant_3_SOLD,[],[],[],[],[],[2003],[],[],[1028],[],"[6029, 3044]",[],[],[],[],[],[],[],[],[1028],[1055],[],"[3133, 3067, 1036]",[],[]
participant_3_UNDO,[],"[[0, 1083]]",[],[],[],[],[],[],[],[],[],[],[],[],"[[0, 3044]]",[],[],[],[],[],[],[],[],[],[]
participant_4_GOLD,500,500,1263,1606,2361,3112,3581,3998,4526,5475,6802,7533,8489,8661,8784,8906,9028,9151,10397,10853,11025,11147,11270,11492,12605
participant_4_CURRENTGOLD,500,0,763,1106,1861,2612,3081,3498,26,975,2302,3033,3989,4162,4284,4406,4529,251,1497,353,525,648,770,193,906
participant_4_LEVEL,1,1,1,2,3,4,5,5,6,7,8,8,10,10,10,10,10,10,11,11,11,11,11,11,12
participant_4_MINIONSKILLED,0,0,2,12,17,25,31,32,40,48,57,65,75,75,75,75,75,75,85,90,90,90,90,90,93
participant_4_KILLS,0,0,2,2,4,6,7,9,11,14,16,16,20,20,20,20,20,20,27,28,28,28,28,28,30
participant_4_BUY,[],"[1055, 2003, 3340]",[],[],[],[],[],[],"[6672, 1001, 1042]",[],[],[],[],[],[],[],[],"[3124, 1053, 1043]",[],"[3153, 1042]",[],[],[],"[3006, 1042]",[2015]
participant_4_SOLD,[],[],[],[],[2003],[],[],[],[],[],[],[],[],[],[],[],[],[1042],[],"[1053, 1043]",[],[],[],"[1001, 1042]",[1042]
participant_4_UNDO,[],[],[],[],[],[],[],[],[],[],[],[],[],[],[],[],[],[],[],[],[],[],[],[],[]
participant_5_GOLD,500,500,549,692,815,979,1102,1252,1478,1615,1765,1930,2080,2230,2353,2580,2920,3063,3209,4478,4718,5043,5165,5565,5688
participant_5_CURRENTGOLD,500,0,49,192,165,329,152,302,528,265,415,145,295,445,103,330,670,813,109,1378,1618,1943,165,565,288
participant_5_LEVEL,1,1,1,2,2,3,4,4,5,5,6,6,6,6,7,7,8,8,8,9,10,10,10,11,11
participant_5_MINIONSKILLED,0,0,2,3,3,5,5,7,10,11,13,15,17,19,19,25,34,35,37,40,43,50,50,58,58
participant_5_KILLS,0,0,0,0,0,0,0,0,0,0,0,0,0,0,0,0,0,0,0,1,1,1,1,1,1
participant_5_BUY,[],"[1056, 2003, 3340, 2003]",[],[],"[2003, 2003, 2003]",[],[1001],[],[],[1028],[],[1052],[],[],[4635],[],[],[],[1026],[],[],[],"[4633, 1026]",[],[1028]
participant_5_SOLD,[],[],[],"[2003, 2003]",[],"[2003, 2003, 2003]",[],[],[],[],[],[],[],[],"[1028, 1052]",[],[],[],[],[],[],[],"[4635, 1026]",[],[]
participant_5_UNDO,[],[],[],[],[],[],[],[],[],[],[],[],[],[],[],[],[],[],[],[],[],[],[],[],[]
participant_6_GOLD,500,500,521,685,871,993,1172,1294,2416,2539,2661,2901,3023,3335,3783,3989,4346,4489,4611,5755,6037,6223,6366,6523,6736
participant_6_CURRENTGOLD,500,0,21,185,71,93,172,294,1416,739,161,401,223,535,983,389,746,156,278,147,429,615,408,215,428
participant_6_LEVEL,1,1,1,2,2,3,3,4,4,5,5,5,6,7,7,8,8,8,8,9,9,10,10,10,11
participant_6_MINIONSKILLED,0,0,0,2,5,5,8,8,8,8,8,12,12,20,26,27,37,38,38,39,44,48,49,51,52
participant_6_KILLS,0,0,0,0,0,0,0,0,1,1,1,1,1,1,1,1,1,1,1,2,2,2,2,2,2
participant_6_BUY,[],"[1055, 2003, 3340]",[],[],[1001],"[2003, 2003]","[2003, 2003]",[],[],[3067],[3057],[],[1042],[],[],[3051],[],[3078],[],"[1037, 1028]",[],[],[1036],[3044],[]
participant_6_SOLD,[],[],[2003],[],[],[],"[2003, 2003, 2003, 2003]",[],[],[],[],[],[],[],[],[1042],[],"[3057, 3051, 3067]",[],[],[],[],[],"[1028, 1036]",[]
participant_6_UNDO,[],[],[],[],[],[],[],[],[],[],[],[],[],[],[],[],[],[],[],[],[],[],[],[],[]
participant_7_GOLD,500,500,591,815,1113,1424,1774,1959,2172,2785,2991,3149,3320,3540,3663,4023,4146,4338,4460,5750,5949,6121,6306,6665,6844
participant_7_CURRENTGOLD,500,0,91,305,603,904,1244,1429,122,725,931,1089,180,400,523,883,1006,1198,70,1360,1559,531,216,575,319
participant_7_LEVEL,1,1,2,3,4,5,6,7,7,8,8,8,9,9,9,10,10,10,10,11,11,11,12,12,13
participant_7_MINIONSKILLED,0,0,4,8,18,27,37,40,46,53,58,60,63,69,69,79,79,84,84,86,91,94,98,108,111
participant_7_KILLS,0,0,0,0,0,0,0,0,0,0,0,0,0,0,0,0,0,0,0,1,1,1,1,1,1
participant_7_BUY,[],"[1056, 2003, 3340, 2003]",[],[],[],[],[],[],"[1001, 1052, 1027, 1052]",[],[],[],"[3802, 1026, 2003, 2003, 2003]",[],[],[],[],[],[6655],[],[],"[3020, 1028]",[1011],[],[1052]
participant_7_SOLD,[],[],[],[],[],[],[],"[2003, 2003]",[],[],[],[],"[1052, 1027, 1052]",[],"[2003, 2003, 2003]",[],[],[],"[3802, 1026]",[],[],[1001],[1028],[],[]
participant_7_UNDO,[],[],[],[],[],[],[],[],[],[],[],[],[],[],[],[],[],[],[],[],[],[],[],[],[]
participant_8_GOLD,500,500,577,811,962,1140,1298,1490,1633,1756,1985,2136,2258,2380,2503,2625,2832,2954,3076,3199,3432,3694,3844,3966,4179
participant_8_CURRENTGOLD,500,0,77,311,112,190,348,105,248,371,250,401,88,130,253,375,582,704,826,99,332,594,744,866,1079
participant_8_LEVEL,1,1,1,2,3,3,3,4,4,5,5,6,6,6,7,7,8,8,8,8,9,10,10,11,11
participant_8_MINIONSKILLED,0,0,3,9,11,15,17,21,22,22,25,27,27,27,27,27,32,32,32,32,34,38,40,40,41
participant_8_KILLS,0,0,0,0,0,0,0,0,0,0,0,0,0,0,0,0,0,0,0,0,0,0,0,0,0
participant_8_BUY,[],"[1056, 2003, 3340, 2003]",[],[],"[1001, 2003]","[2003, 2003]",[],[1052],[],[],[1027],[],[1052],[3802],[],[],[],[],[],[1026],[],[],[],[],[]
participant_8_SOLD,[],[],[],[],"[2003, 2003]",[2003],"[2003, 2003]",[],[],[],[],[],[],"[1052, 1027, 1052]",[],[],[],[],[],[],[],[],[],[],[]
participant_8_UNDO,[],[],[],[],[],[],[],[],[],[],[],[],[],[],[],[],[],[],[],[],[],[],[],[],[]
participant_9_GOLD,500,500,523,678,855,989,1124,1268,1402,1537,1706,1855,1989,2165,2479,2711,2845,3022,3205,3660,3889,4163,4303,4533,4764
participant_9_CURRENTGOLD,500,0,23,178,55,39,174,318,52,187,356,105,239,115,429,211,345,522,705,410,639,913,653,283,514
participant_9_LEVEL,1,1,1,2,2,2,3,3,4,4,5,6,6,6,7,7,7,8,8,9,10,10,11,11,11
participant_9_MINIONSKILLED,0,0,0,1,3,3,3,4,4,4,6,7,7,10,17,19,19,21,24,27,28,36,36,37,38
participant_9_KILLS,0,0,0,0,0,0,0,0,0,0,0,0,0,0,0,0,0,0,0,0,0,0,0,0,0
participant_9_BUY,[],"[3858, 2003, 3340, 2003]",[],[],[1001],"[2003, 2003, 2003]",[],[],[1028],[],[],[3067],[],[1029],[],[1033],[],[],[],[3105],[],[],[3190],[3009],[]
participant_9_SOLD,[],[],"[2003, 2003]",[],[],[],"[2003, 2003, 2003]",[],[],[],[],[1028],[],[],[],[],[],[],[],"[1033, 1029]",[3858],[],"[3067, 3105]",[1001],[]
participant_9_UNDO,[],[],[],[],[],[],[],[],[],[],[],[],[],[],[],[],[],[],[],[],[],[],[],[],[]
team0_KILLS,0,0,2,2,5,8,11,15,19,24,26,30,36,38,42,43,46,48,56,57,57,57,60,62,68
team0_CURRENTGOLD,2500,0,1116,2446,5025,7466,7010,7530,4521,4818,5910,7516,10121,7382,6317,6583,8066,2924,5630,3596,4958,6166,6386,4491,8175
team0_TOTALGOLD,2500,2500,3616,4946,7525,9976,12020,14490,16966,19863,23570,26196,28811,30856,32577,33743,35625,36884,39590,41321,42503,43710,46081,47920,52558
team0_LEVEL,5,5,6,11,16,21,25,26,31,34,38,39,43,44,46,49,51,52,55,56,56,58,61,62,68
team0_SBIRES,0,0,2,19,39,63,76,94,109,129,152,171,192,204,215,224,237,251,269,281,287,291,310,318,325
team1_KILLS,0,0,0,0,0,0,0,0,1,1,1,1,1,1,1,1,1,1,1,4,4,4,4,4,4
team1_CURRENTGOLD,2500,0,261,1171,1006,1555,2090,2448,2366,2287,2113,2141,1025,1625,2291,2188,3349,3393,1988,3394,4577,4596,2186,2504,2628
team1_TOTALGOLD,2500,2500,2761,3681,4616,5525,6470,7263,9101,10232,11108,11971,12670,13650,14781,15928,17089,17866,18561,22842,24025,25244,25984,27252,28211
team1_LEVEL,5,5,6,11,13,16,19,22,24,27,29,31,33,34,37,39,41,42,42,46,49,51,53,55,57
team1_SBIRES,0,0,9,23,40,55,70,80,90,98,110,121,126,145,158,177,201,210,215,224,240,266,273,294,300
delta_KILLS,0,0,2,2,5,8,11,15,18,23,25,29,35,37,41,42,45,47,55,53,53,53,56,58,64
delta_CURRENTGOLD,0,0,855,1275,4019,5911,4920,5082,2155,2531,3797,5375,9096,5757,4026,4395,4717,-469,3642,202,381,1570,4200,1987,5547
delta_TOTALGOLD,0,0,855,1265,2909,4451,5550,7227,7865,9631,12462,14225,16141,17206,17796,17815,18536,19018,21029,18479,18478,18466,20097,20668,24347
delta_LEVEL,0,0,0,0,3,5,6,4,7,7,9,8,10,10,9,10,10,10,13,10,7,7,8,7,11
delta_SBIRES,0,0,-7,-4,-1,8,6,14,19,31,42,50,66,59,57,47,36,41,54,57,47,25,37,24,25
