name,team0,team1
win,Win,Fail
firstBlood,False,True
firstTower,False,True
firstInhibitor,True,False
firstBaron,False,True
firstDragon,False,True
firstRiftHerald,True,False
towerKills,10,3
inhibitorKills,1,0
baronKills,0,1
dragonKills,3,1
riftHeraldKills,1,0
