name,frame_0,frame_1,frame_2,frame_3,frame_4,frame_5,frame_6,frame_7,frame_8,frame_9,frame_10,frame_11,frame_12,frame_13,frame_14,frame_15,frame_16,frame_17,frame_18,frame_19,frame_20,frame_21,frame_22,frame_23,frame_24,frame_25,frame_26,frame_27,frame_28,frame_29,frame_30,frame_31,frame_32,frame_33,frame_34,frame_35,frame_36,frame_37,frame_38,frame_39
nameStamp,Tstart,Tearly,Tearly,Tearly,Tearly,Tearly,Tearly,Tearly,Tearly,Tearly,Tearly,Tearly,Tearly,Tearly,Tearly,Tearly,Tearly,Tmid,Tmid,Tmid,Tmid,Tmid,Tmid,Tmid,Tmid,Tmid,Tmid,Tmid,Tmid,Tmid,Tmid,Tend,Tend,Tend,Tend,Tend,Tend,Tend,Tend,Tend
timestamp,0,60019,120039,180060,240078,300091,360107,420121,480134,540151,600175,660193,720205,780221,840238,900250,960265,1020285,1080300,1140321,1200334,1260352,1320366,1380389,1440404,1500426,1560436,1620452,1680468,1740488,1800505,1860526,1920546,1980565,2040580,2100607,2160624,2220640,2280654,2340654
participant_0_GOLD,500,500,571,735,970,1630,1858,2214,2524,2794,3487,3843,4000,4132,4255,4683,4988,5710,5953,6250,6642,7031,7516,8330,8783,9095,9569,10080,11093,11487,11972,12344,12707,13361,14330,14512,14837,15183,15606,16519
participant_0_CURRENTGOLD,500,0,71,235,470,1130,58,414,724,44,737,1093,450,582,705,1133,355,1077,1320,417,59,448,33,847,1300,312,787,1297,2310,1130,1614,512,875,1528,2498,110,435,781,403,1136
participant_0_LEVEL,1,1,1,1,3,5,5,6,7,7,8,9,9,9,9,9,10,10,10,11,11,11,12,13,13,13,14,14,15,15,16,16,16,17,18,18,18,18,18,18
participant_0_MINIONSKILLED,0,0,0,2,8,19,25,36,43,52,65,78,80,81,81,91,95,108,114,120,124,132,136,145,152,152,168,182,198,204,217,217,224,241,252,254,261,267,267,273
participant_0_KILLS,0,0,1,1,1,1,1,1,1,1,1,1,2,2,3,3,4,5,5,5,5,6,7,7,7,7,7,7,7,7,7,8,8,8,8,8,8,8,9,9
participant_0_BUY,[],"[3854, 2003, 2003]",[],[],[],"[1036, 1036, 2055]",[],[],[],"[3117, 2055, 2003, 3364]",[],"[3134, 2055]",[],[],[],"[6691, 2055]","[3134, 2055]",[],"[3179, 2055]",[],"[1036, 2055]",[],[],"[3134, 1037]",[],[],[],"[3142, 2055]",[],[1033],[],[3140],[],[],[],[],[],[],[6035],[]
participant_0_SOLD,[],[],[2003],[],[],[],"[2003, 2055]",[],[],[3340],"[2003, 3854]","[1036, 1036]",[3400],[2055],[3400],[3134],[2055],"[3855, 3400, 2055]",[3134],[],[],[2055],[],"[1036, 2055]",[],[],[],"[3134, 1037]",[],[2055],[],[1033],[],[],[],[],[],[],[3140],[]
participant_0_UNDO,[],[],[],[],[],[],[],[],[],[],[],"[[0, 2055]]",[],[],[],[],[],[],[],[],[],[],[],[],[],[],[],[],[],[],[],[],[],[],[],[],[],[],[],[]
participant_1_GOLD,500,500,521,933,1233,1601,2110,2617,2974,3282,3923,4131,4553,4877,5493,5790,6175,6482,6789,7612,8030,8498,9021,9804,9997,10120,10471,10813,11086,11575,11697,12005,12309,12754,13500,13903,14345,14510,14999,16071
participant_1_CURRENTGOLD,500,0,21,433,33,391,75,582,939,347,988,271,693,1017,1633,1930,165,472,779,1602,180,648,1171,454,647,770,1121,1464,1736,0,48,355,660,1105,1850,104,546,711,1200,2221
participant_1_LEVEL,1,1,1,3,4,4,5,5,6,6,7,8,8,8,9,10,10,10,11,12,12,12,13,14,14,14,14,15,15,15,15,15,16,16,17,17,17,18,18,18
participant_1_MINIONSKILLED,0,0,0,0,0,4,4,4,4,4,4,4,4,8,12,12,19,19,19,19,23,24,24,24,25,25,27,30,30,30,30,30,31,32,39,46,47,49,51,55
participant_1_KILLS,0,0,0,0,0,0,1,2,2,2,3,3,4,4,5,5,5,5,5,7,7,8,8,9,9,9,9,9,9,9,9,9,9,9,9,9,9,9,9,10
participant_1_BUY,[],"[1039, 2031]",[],[],"[1036, 1036]",[],"[3134, 1036, 2055]",[],[],"[1053, 1036]",[],"[6692, 2055]",[],[],[],[],"[3117, 3134, 1036]",[],[],[],[3142],[],[],"[3134, 1036, 1028]",[],[],[],[],[],"[3814, 3133, 3364, 2055]",[2055],[],[],[],[],"[6333, 2055, 2055]",[],[],[],[]
participant_1_SOLD,[],[],[],[],[],[],"[1036, 1036]",[1039],[],"[1036, 2055]",[],"[3134, 1036, 1053]",[2055],[],[],[3340],"[3513, 2422]",[],[],[],"[2031, 3134]",[],[],[1036],[],[],[],[],[],"[1036, 3134, 1028, 3340]",[2055],[],[2055],[],[],[3133],[],[],"[2055, 2055]",[]
participant_1_UNDO,[],[],[],[],[],[],[],[],[],[],[],[],[],[],[],[],[],[],[],[],[],[],[],[],[],[],[],[],[],[],[],[],[],[],[],[],[],[],[],[]
participant_2_GOLD,500,500,577,913,1162,1389,1652,1933,2266,2789,3101,3378,3605,3860,4046,5221,5784,6678,6800,7181,7353,7957,8359,8566,8816,9213,9384,9639,9826,10094,10231,10458,10581,10865,11037,11201,11444,11820,12271,12794
participant_2_CURRENTGOLD,500,0,77,403,652,369,632,178,501,1014,1326,248,475,730,116,1291,94,988,495,876,1048,1652,2054,236,486,148,319,574,161,430,566,794,917,35,208,372,615,991,1442,1994
participant_2_LEVEL,1,1,1,3,4,4,5,6,6,7,8,8,8,9,9,10,10,11,11,11,11,12,12,13,13,13,14,14,14,14,14,15,15,15,15,15,15,16,16,17
participant_2_MINIONSKILLED,0,0,3,13,20,26,34,39,48,59,67,76,82,90,94,107,110,114,114,124,124,128,141,143,145,145,148,152,153,157,158,165,165,171,171,174,181,186,188,191
participant_2_KILLS,0,0,0,0,0,0,0,0,1,1,1,1,2,2,2,2,2,2,2,2,2,2,2,2,2,2,2,2,2,2,2,2,2,2,2,2,2,2,2,3
participant_2_BUY,[],"[1055, 2003, 3340]",[],[],[],"[1036, 1036]",[],"[3134, 1001]",[],[1053],[],[],[],"[6692, 2055]",[],[],"[3009, 3134]",[1018],[],[],[1037],[],[],"[6676, 1018]",[],[1042],[],[],[3086],[2015],[3094],[],[],[],[],[],[1038],[],[],[]
participant_2_SOLD,[],[],[],[],[],[],[],"[1036, 1036]",[],[],[],[],[2003],"[3134, 1053]",[],[3400],"[2055, 1001]",[3400],[],[],[],[],[],"[3134, 1037, 1018]",[],[],[],[],"[1018, 1042]",[],"[3086, 2015]",[],[],[],[],[],[],[],[],[]
participant_2_UNDO,[],[],[],[],[],[],[],[],[],[],[],[],[],[],[],[],[],[],[],[],[],[],[],[],[],[],[],[],[],[],[],[],[],[],[],[],[],[],[],[]
participant_3_GOLD,500,500,571,882,1268,1390,1934,2189,2806,3022,3258,3722,4285,4561,4914,5528,5874,6600,6918,7326,7763,8070,8234,8449,8740,8862,9480,9825,10012,10301,10423,10720,10843,11118,11376,11735,12066,12371,12911,13617
participant_3_CURRENTGOLD,500,0,71,382,768,190,734,289,906,222,458,922,1485,486,839,1453,99,225,543,951,513,820,984,174,465,288,905,1250,1137,726,49,345,468,744,1001,1361,392,696,1237,1942
participant_3_LEVEL,1,1,1,2,3,3,4,5,5,6,6,7,8,9,9,10,10,10,11,11,12,12,12,12,12,12,13,13,13,13,13,14,14,14,14,14,15,15,16,16
participant_3_MINIONSKILLED,0,0,0,11,24,24,38,46,54,56,62,78,83,91,100,113,119,121,128,140,146,153,155,157,164,164,177,185,186,191,191,197,197,201,201,210,214,218,221,223
participant_3_KILLS,0,0,0,0,0,0,0,0,0,0,0,0,0,0,0,2,2,4,4,4,4,4,4,4,4,5,5,5,5,5,5,5,5,5,5,5,5,5,5,5
participant_3_BUY,[],"[1056, 2003, 3340, 2003]",[],[],[],"[1052, 2055]",[],"[1052, 1001]",[],[],[],"[3802, 1026, 2055]",[],[],[3020],[],"[6655, 1052, 2055]",[],[3145],[],[],[],[],"[4628, 2055]",[],"[1029, 1052]",[],[],"[3191, 1052]",[],[],[],[],[3157],[],[],[],[],[],[]
participant_3_SOLD,[],[],[],"[2003, 2003]",[],[],[2055],[],[],[],[],"[1052, 1052]",[],[2055],[1001],[],"[3802, 1026]",[],[1052],[],[],"[2055, 3400]",[],[3145],[2055],[],[],[],"[1052, 1029]",[],[],[],[],"[3191, 1052]",[],[],[],[],[],[]
participant_3_UNDO,[],[],[],[],[],[],[],[],[],[],[],[],[],[],[],[],[],[],[],[],[],[],[],[],[],[],[],[],[],[],[],[],[],[],[],[],[],[],[],[]
participant_4_GOLD,500,500,923,1099,1336,1470,1830,2081,2476,2611,2855,3005,4087,4258,5049,5465,6247,7905,8045,8286,8560,9428,10299,10510,10741,10881,11081,11222,11422,11713,11884,12369,12511,12651,12956,13106,13306,13477,14517,14748
participant_4_CURRENTGOLD,500,0,423,599,836,195,555,806,1201,211,454,205,1287,1458,2249,490,97,1755,120,361,210,1079,1949,565,796,936,1136,177,377,219,389,24,166,306,611,761,962,1132,472,673
participant_4_LEVEL,1,1,1,2,3,3,4,5,5,6,6,6,7,7,8,9,9,9,9,10,10,10,11,11,11,11,11,12,12,12,12,13,13,13,13,13,13,13,14,15
participant_4_MINIONSKILLED,0,0,0,2,5,5,8,10,13,13,16,17,20,21,23,26,28,30,30,34,34,35,38,39,41,41,43,43,44,46,47,49,49,49,52,53,56,57,57,57
participant_4_KILLS,0,0,0,0,0,1,1,1,1,1,2,2,2,2,2,2,2,2,2,2,2,2,3,3,3,3,3,3,3,3,3,3,3,3,4,4,4,4,4,5
participant_4_BUY,[],"[1055, 2003, 3340]",[],[],[],[],"[3057, 1001, 1042]",[],[],"[3051, 2055, 2055]",[],[],[3067],[],[],[],"[3078, 1036]",[],[],[3077],[3133],[],[1053],[],[],"[3074, 3111, 1028]",[],[],[],"[1037, 3044]",[],"[3053, 1036]",[],[],[],[6333],[],[],[1031],[]
participant_4_SOLD,[],[],[],[],[2003],[],[],[],[],[1042],[2055],[],[],[],[],[],"[3057, 3051, 3067]",[],[],[],"[2055, 1036]",[],[],[],[],"[3077, 1053, 3133, 1001]",[],[],[],[1028],[],"[1037, 3044]",[],[],[],"[1055, 1036]",[],[],[],[]
participant_4_UNDO,[],[],[],[],[],[],[],[],[],[],[],[],[],[],[],[],[],[],[],[],[],[],[],[],[],[],[],[],[],[],[],[],[],[],[],[],[],[],[],[]
participant_5_GOLD,500,500,846,1122,1438,1721,1970,2277,2650,2950,3072,3431,4087,4399,5050,5172,5416,5608,5949,6413,7180,7303,7509,7673,8075,8994,9443,9824,9988,10203,11212,11683,11902,12149,12306,12558,12771,12943,13102,13216
participant_5_CURRENTGOLD,500,0,346,622,938,146,395,702,1075,275,397,381,237,549,1200,47,291,483,824,188,455,578,784,948,1350,294,744,1124,1288,1504,1613,733,952,149,307,558,272,444,602,716
participant_5_LEVEL,1,1,1,2,4,4,5,6,7,8,8,8,9,10,10,10,11,11,12,12,13,13,13,13,14,15,15,15,15,16,16,17,17,17,17,17,17,18,18,18
participant_5_MINIONSKILLED,0,0,0,9,17,24,31,38,50,57,57,68,73,81,91,91,98,102,109,121,129,129,134,136,143,155,166,177,180,185,185,197,200,203,205,208,210,210,213,213
participant_5_KILLS,0,0,0,0,1,1,1,1,1,1,1,1,1,1,1,1,1,1,2,2,3,3,3,3,3,3,3,3,3,3,3,3,3,3,3,3,3,3,3,3
participant_5_BUY,[],"[1039, 2031, 3340]",[],[1052],[],[],[],[],[],[],"[3802, 3108]",[],[],[1001],[],[6653],[],[1052],[],"[3191, 3047]","[1052, 2055]",[],[],[],[2420],[],[3157],[],[],[],[1011],[1026],[],[],[1052],[],[3116],[],[],[]
participant_5_SOLD,[],[],[],[],[],[],[],[],[1039],[],[1052],[],[],[],[],"[2031, 3802, 3108]",[],[],[],"[1052, 1001]",[],[],[],[2055],[],[],"[3191, 2420, 1052]",[],[],[],[],[],[],[],[],[],"[1026, 1011, 1052]",[],[],[]
participant_5_UNDO,[],[],[],[],[],[],[],[],[],[],[],[],[],[],[],[],[],[],[],[],[],[],[],[],[],[],[],[],[],[],[],[],[],[],[],[],[],[],[],[]
participant_6_GOLD,500,500,596,1008,1531,1835,1989,2252,2677,2839,2961,3206,3413,3731,4123,4245,4439,4762,5774,6002,6466,6589,6753,6931,7237,7509,7893,8231,8403,8686,9175,9297,9518,9793,9930,10223,10558,10765,10887,11001
participant_6_CURRENTGOLD,500,0,96,73,596,900,1054,1317,1742,1904,261,506,713,731,1123,105,299,187,1199,162,116,239,403,581,237,509,378,716,888,1171,760,32,253,528,231,523,44,250,372,426
participant_6_LEVEL,1,1,1,3,3,4,4,5,6,6,6,7,7,7,8,8,9,9,10,10,11,11,11,11,12,12,13,13,13,13,14,14,14,15,15,15,15,16,16,16
participant_6_MINIONSKILLED,0,0,0,0,0,0,2,5,5,6,6,7,8,8,8,8,13,13,19,19,22,22,25,29,34,34,37,46,50,55,56,56,58,63,63,68,69,75,75,75
participant_6_KILLS,0,0,1,1,1,1,1,1,1,1,1,1,2,2,3,3,3,3,3,3,4,4,4,4,4,5,5,5,5,5,6,6,6,6,6,6,6,6,6,6
participant_6_BUY,[],"[2033, 3340]",[],[],[],"[6660, 2055]",[],[],[],"[3076, 1001]",[],"[1029, 2055]","[3047, 1029]",[],[],"[3105, 2055]",[],[],[],"[3068, 1028]",[1011],[],[],[],[],"[3075, 1057, 2055]",[],[],[],[],[1011],"[3001, 1033]",[],[3105],[],[],[2138],[],[],[]
participant_6_SOLD,[],[],[],[],[2010],[2010],[2055],[2010],[],[],[],[],"[1001, 1029]",[],[2055],[1029],[2055],[],[],"[6660, 3105]",[1028],[],[],[],[],"[3076, 1011]",[2055],[],[],[],[],"[1011, 1057]",[],[1033],[],[],[2138],[],[],[]
participant_6_UNDO,[],[],[],[],[],[],[],[],[],[],[],[],[],[],[],[],[],[],[],[],[],[],[],[],[],[],[],[],[],[],[],[],[],[],[],[],[],[],[],[]
participant_7_GOLD,500,500,621,932,1370,1653,2047,2478,2796,3409,3658,4009,4795,5030,5697,5987,6364,6564,6686,6809,7141,7347,7652,7948,8204,8981,9179,9747,10359,10746,11377,11653,12197,12527,12823,13276,13503,14044,14285,14399
participant_7_CURRENTGOLD,500,0,121,82,445,418,802,28,336,939,1188,589,515,750,157,12,389,589,311,433,766,972,777,1073,1329,2106,204,772,1384,1121,1752,239,707,1038,534,986,1214,1755,296,249
participant_7_LEVEL,1,1,1,2,4,4,5,6,7,7,8,8,9,10,10,11,11,11,11,11,12,12,12,12,12,13,13,14,14,14,15,16,16,16,16,16,16,17,17,17
participant_7_MINIONSKILLED,0,0,0,11,20,27,39,41,50,58,66,76,85,92,104,111,122,127,127,127,129,134,145,151,159,173,174,187,196,203,212,222,223,231,237,244,250,263,266,266
participant_7_KILLS,0,0,2,2,2,2,2,2,2,2,2,2,3,3,4,4,4,5,6,6,6,6,6,6,7,9,9,9,9,9,9,9,9,10,10,11,11,12,13,13
participant_7_BUY,[],"[1055, 2003, 3340]",[],[],[3134],[],[],[],[],[1053],"[1036, 1001]",[],[],"[6692, 1042]",[],[],"[3006, 3134]",[1018],[],[],[6676],[],[1036],"[3363, 1036]",[3134],"[3814, 1029]",[],[1031],[],[],[1038],[3026],[],[1042],[],[3086],[],[],"[3094, 2140]",[]
participant_7_SOLD,[],[],[],[],[],[],[2003],[],[],[],[],[],[],"[3134, 1036, 1053]",[],[],"[1001, 1042]",[],[],[],"[3134, 1018]",[],[],[3340],"[1036, 1036]",[3134],[],[1029],[],[],[1055],"[1038, 1031]",[],[],[],[1042],[],[],"[3086, 2140]",[]
participant_7_UNDO,[],[],[],[],[],[],[],[],[],[],[],[],[],[],[],[],[],[],[],[],[],[],[],[],[],[],[],[],[],[],[],[],[],[],[],[],[],[],[],[]
participant_8_GOLD,500,500,1146,1485,1706,2017,2217,2608,2869,3233,3658,4066,4572,4855,5534,5950,6073,6621,7634,7989,8139,8352,8683,8871,9482,11190,11537,11681,11986,12262,13126,13388,13850,14409,14684,15798,15921,16439,17143,17258
participant_8_CURRENTGOLD,500,0,646,985,106,417,617,1008,1269,733,508,916,1422,555,1234,1650,173,121,1134,1489,339,552,533,371,582,190,538,181,486,763,507,68,531,789,1065,1279,1402,1920,624,558
participant_8_LEVEL,1,1,1,2,2,3,4,5,6,6,7,7,8,8,9,9,9,10,11,11,11,11,11,12,12,13,13,13,13,14,15,15,15,15,16,16,16,16,16,16
participant_8_MINIONSKILLED,0,0,0,13,19,27,31,44,49,54,69,82,87,97,108,121,121,128,137,146,148,151,159,161,165,172,180,181,186,190,199,203,213,215,220,225,225,226,233,233
participant_8_KILLS,0,0,0,0,0,0,0,1,1,2,2,2,3,3,4,4,4,4,4,4,4,4,4,4,4,5,5,5,6,6,6,6,7,7,7,7,7,7,7,7
participant_8_BUY,[],[2033],[],[1082],[2055],[1001],[],"[3020, 1052]",[],[],[],"[3802, 2055]",[1026],[],[6656],[1052],[],[],[1028],[],[],[],[1011],[],[],[],"[3116, 1052, 3363]",[],[],[1026],[],"[4637, 2055]",[2055],[],[3916],[],[],[],[3165],[]
participant_8_SOLD,[],[],[],[2010],[],[2055],[],"[2010, 1001, 2010]",[],[],[],[1052],[],[],"[3802, 1026]",[2055],[],[],[],[],[],[],[1028],[],[],[],"[1011, 1052, 3340]",[],[],[2033],[],"[1026, 1052]",[2055],[2055],[],[],[],[],[3916],[]
participant_8_UNDO,[],[],[],[],[],[],[],[],[],[],[],[],[],[],[],[],[],[],[],[],[],[],[],[],[],[],[],[],[],[],[],[],[],[],[],[],[],[],[],[]
participant_9_GOLD,500,500,898,1095,1251,1490,1625,1801,1977,2142,2411,2598,2854,3052,3454,3700,3840,4056,4307,4588,4729,4899,5039,5180,5455,5820,5961,6111,6252,6423,7083,7223,7442,7658,7799,8039,8180,8370,8511,8642
participant_9_CURRENTGOLD,500,0,398,595,51,290,50,226,327,492,761,948,154,352,754,700,840,1056,1307,1588,54,74,214,355,630,196,336,486,627,248,908,648,17,233,374,615,205,395,136,267
participant_9_LEVEL,1,1,1,2,2,3,3,3,4,4,5,5,6,6,7,7,7,8,8,9,9,9,9,9,10,11,11,11,12,12,13,13,13,13,13,14,14,14,14,14
participant_9_MINIONSKILLED,0,0,0,3,4,7,7,9,11,12,16,19,20,25,28,30,30,30,33,35,35,35,35,35,37,37,37,38,38,40,40,40,40,40,41,41,41,41,41,41
participant_9_KILLS,0,0,1,1,1,1,1,1,1,1,1,1,1,1,1,1,1,1,1,1,1,1,1,1,1,1,1,1,1,1,2,2,2,2,2,2,2,2,2,2
participant_9_BUY,[],"[3858, 2003, 2003]",[],[],"[1001, 1028]",[],"[1029, 2055]",[],[2055],[],[],[],"[3364, 3067, 1033, 2055, 2055, 3047]",[],[],[1029],[],[],[],[],"[3190, 2055]","[2055, 2055]",[],[],[],[3067],[],[],[],"[1028, 2055, 2055]",[],"[3801, 2055, 2055]",[3109],[],[],[],"[1028, 2055, 2055]",[],[3067],[]
participant_9_SOLD,[],[],"[2003, 2003]",[],[],[],[],[],[],[2055],[],"[2055, 3858]","[3340, 1028, 1001, 1029]",[],[],[2403],[],[],[2055],[],"[3859, 2055, 3067, 1029]",[2055],[],[],[],"[2403, 2403]",[2055],[],[2055],[2055],[2055],"[1028, 2055]","[2055, 3801, 3067]",[],[],[],[],[],[1028],[]
participant_9_UNDO,[],[],[],[],[],[],[],[],[],[],[],[],"[[0, 1033]]",[],[],[],[],[],[],[],[],[],[],[],[],[],[],[],[],[],[],[],[],[],[],[],[],[],[],[]
team0_KILLS,0,0,1,1,1,2,3,4,5,5,7,7,10,10,12,14,15,18,18,20,20,22,24,25,25,26,26,26,26,26,26,27,27,27,28,28,28,28,29,32
team0_CURRENTGOLD,2500,0,663,2052,2759,2275,2054,2269,4271,1838,3963,2739,4390,4273,5542,6297,810,4517,3257,4207,2010,4647,6191,2276,3694,2454,4268,4762,5721,2505,2666,2030,3086,3718,6168,2708,2950,4311,4754,7966
team0_TOTALGOLD,2500,2500,3163,4562,5969,7480,9384,11034,13046,14498,16624,18079,20530,21688,23757,26687,29068,33375,34505,36655,38348,40984,43429,45659,47077,48171,49985,51579,53439,55170,56207,57896,58951,60749,63199,64457,65998,67361,70304,73749
team0_LEVEL,5,5,5,11,17,19,23,27,29,32,35,38,40,42,44,48,49,50,52,55,56,57,60,63,63,63,66,68,69,69,70,73,74,75,77,77,78,80,82,84
team0_SBIRES,0,0,3,28,57,78,109,135,162,184,214,253,269,291,310,349,371,392,405,437,451,472,494,508,527,527,563,592,611,628,643,658,666,694,715,737,759,777,784,799
team1_KILLS,0,0,4,4,5,5,5,6,6,7,7,7,10,10,13,13,13,14,16,16,18,18,18,18,19,23,23,23,24,24,26,26,27,28,28,29,29,30,31,31
team1_CURRENTGOLD,2500,0,1607,2357,2136,2171,2918,3281,4749,4343,3115,3340,3041,2937,4468,2514,1992,2436,4775,3860,1730,2415,2711,3328,4128,3295,2200,3279,4673,4807,5540,1720,2460,2737,2511,3961,3137,4764,2030,2216
team1_TOTALGOLD,2500,2500,4107,5642,7296,8716,9848,11416,12969,14573,15760,17310,19721,21067,23858,25054,26132,27611,30350,31801,33655,34490,35636,36603,38453,42494,44013,45594,46988,48320,51973,53244,54909,56536,57542,59894,60933,62561,63928,64516
team1_LEVEL,5,5,5,11,15,18,21,25,30,31,34,35,39,41,44,45,47,49,52,53,56,56,56,57,60,64,65,66,67,69,73,75,75,76,77,78,78,81,81,81
team1_SBIRES,0,0,0,36,60,85,110,137,165,187,214,252,273,303,339,361,384,400,425,448,463,471,498,512,538,571,594,629,650,673,692,718,734,752,766,786,795,815,828,828
delta_KILLS,0,0,-3,-3,-4,-3,-2,-2,-1,-2,0,0,0,0,-1,1,2,4,2,4,2,4,6,7,6,3,3,3,2,2,0,1,0,-1,0,-1,-1,-2,-2,1
delta_CURRENTGOLD,0,0,-944,-305,623,104,-864,-1012,-478,-2505,848,-601,1349,1336,1074,3783,-1182,2081,-1518,347,280,2232,3480,-1052,-434,-841,2068,1483,1048,-2302,-2874,310,626,981,3657,-1253,-187,-453,2724,5750
delta_TOTALGOLD,0,0,-944,-1080,-1327,-1236,-464,-382,77,-75,864,769,809,621,-101,1633,2936,5764,4155,4854,4693,6494,7793,9056,8624,5677,5972,5985,6451,6850,4234,4652,4042,4213,5657,4563,5065,4800,6376,9233
delta_LEVEL,0,0,0,0,2,1,2,2,-1,1,1,3,1,1,0,3,2,1,0,2,0,1,4,6,3,-1,1,2,2,0,-3,-2,-1,-1,0,-1,0,-1,1,3
delta_SBIRES,0,0,3,-8,-3,-7,-1,-2,-3,-3,0,1,-4,-12,-29,-12,-13,-8,-20,-11,-12,1,-4,-4,-11,-44,-31,-37,-39,-45,-49,-60,-68,-58,-51,-49,-36,-38,-44,-29
