name,team0,team1
win,Fail,Win
firstBlood,True,False
firstTower,True,False
firstInhibitor,True,False
firstBaron,False,True
firstDragon,False,True
firstRiftHerald,True,False
towerKills,7,7
inhibitorKills,1,1
baronKills,1,1
dragonKills,3,3
riftHeraldKills,1,1
