name,team0,team1
win,Win,Fail
firstBlood,False,True
firstTower,True,False
firstInhibitor,True,False
firstBaron,False,True
firstDragon,True,False
firstRiftHerald,False,False
towerKills,10,3
inhibitorKills,2,0
baronKills,0,1
dragonKills,4,1
riftHeraldKills,0,0
