name,frame_0,frame_1,frame_2,frame_3,frame_4,frame_5,frame_6,frame_7,frame_8,frame_9,frame_10,frame_11,frame_12,frame_13,frame_14,frame_15,frame_16,frame_17,frame_18,frame_19,frame_20,frame_21
nameStamp,Tstart,Tearly,Tearly,Tearly,Tearly,Tearly,Tearly,Tearly,Tearly,Tearly,Tearly,Tearly,Tearly,Tearly,Tmid,Tmid,Tmid,Tmid,Tmid,Tmid,Tmid,Tmid
timestamp,0,60022,120043,180067,240088,300108,360131,420158,480178,540195,600211,660235,720253,780274,840288,900312,960335,1020359,1080374,1140398,1200417,1260443
participant_0_GOLD,500,500,598,968,1899,2514,2741,3134,3438,4162,4745,5117,5568,6978,7142,7879,8015,8896,9112,9381,10144,10389
participant_0_CURRENTGOLD,500,0,98,468,1399,2014,341,134,438,1162,1745,1617,518,1928,442,1179,115,996,112,382,269,514
participant_0_LEVEL,1,1,1,3,4,5,6,6,7,8,9,9,9,10,10,11,11,12,12,12,12,13
participant_0_MINIONSKILLED,0,0,4,16,26,34,40,46,53,66,73,84,90,101,104,117,118,130,135,137,137,144
participant_0_KILLS,0,0,0,0,0,0,0,1,2,2,4,4,4,6,6,6,6,8,8,10,10,10
participant_0_BUY,[],"[2003, 2003, 2003, 2003, 1001]",[],[],[],[3134],[],[],"[3133, 3009, 2055]",[],[],"[6691, 1036, 1036]",[],[],[],"[6676, 2055]","[1042, 3363]",[],[],[],[3094],[]
participant_0_SOLD,[],[],[],[],[2003],[],[],[],[1001],[],[],"[3134, 3133]",[],[],[],"[1036, 1036]",[3340],[],[2055],[],[1042],[]
participant_0_UNDO,[],[],[],[],[],[],[],[],[],[],[],[],[],[],[],[],[],[],[],[],[],[]
participant_1_GOLD,500,500,663,1048,1546,1830,2088,2400,2891,3142,3289,3702,3923,5240,5653,5860,6686,6993,7476,8044,8681,9693
participant_1_CURRENTGOLD,500,0,163,548,1046,1330,138,450,941,1192,189,602,823,2140,703,175,1001,608,1091,94,731,1744
participant_1_LEVEL,1,1,2,3,4,5,5,6,6,7,7,8,8,9,10,10,11,11,11,12,13,13
participant_1_MINIONSKILLED,0,0,0,0,0,0,0,0,1,2,2,2,8,14,14,14,15,15,16,16,24,28
participant_1_KILLS,0,0,0,0,1,1,1,1,1,1,1,1,1,1,1,1,1,1,1,1,1,1
participant_1_BUY,[],"[3858, 3340, 2003, 2003]",[],[],[],"[3067, 2055, 2003]",[],[],"[3066, 3117, 2055, 3364]",[],"[1028, 2055]",[],[],[],[2065],[1006],[3801],[],[],[],[3067],[]
participant_1_SOLD,[],[],[],[2003],[],[2010],[2003],[2003],[3340],[3858],[2055],[],[2010],[],"[3067, 1028]",[],[1006],"[2055, 2010]",[3859],[],[],[]
participant_1_UNDO,[],[],[],[],[],[],[],[],"[[0, 3066]]",[],[],[],[],[],[],[],[],[],[],[],[],[]
participant_2_GOLD,500,500,598,962,1232,1522,1774,2001,2764,3157,3405,4002,4439,5056,5234,5630,5979,7074,7238,8786,9208,10036
participant_2_CURRENTGOLD,500,0,98,452,722,1012,204,431,1194,1577,1825,2422,709,581,759,1155,1504,2599,198,1746,143,971
participant_2_LEVEL,1,1,1,3,4,5,5,6,7,8,8,9,9,9,10,10,11,11,12,12,13,13
participant_2_MINIONSKILLED,0,0,4,15,24,33,38,44,53,65,73,82,83,88,91,103,112,123,125,136,136,140
participant_2_KILLS,0,0,0,0,2,3,3,3,3,3,4,4,4,5,5,6,6,6,6,6,8,8
participant_2_BUY,[],"[1055, 3340, 2003]",[],[],[],[],"[1053, 1043]","[1001, 1029]",[],[],[],[3047],"[3153, 1036]",[],"[3134, 1053]",[],[6692],[],[3133],[],[1037],[]
participant_2_SOLD,[],[],[],[2003],[],[],[],[],[],[],[],"[1001, 1029]","[1053, 1043]",[],[1036],[],"[3134, 1053]",[],[],[],[],[]
participant_2_UNDO,[],[],[],[],[],[],[],[],[],[],[],[],[],[],[],[],[],[],[],[],[],[]
participant_3_GOLD,500,500,542,913,1424,1679,2092,2790,3420,3887,4945,5172,5604,7000,7448,7699,7976,9205,9676,10614,10836,11238
participant_3_CURRENTGOLD,500,0,42,413,924,79,492,1190,45,512,1570,97,529,1925,2373,249,226,1455,1926,2864,686,1088
participant_3_LEVEL,1,1,1,2,3,4,4,5,6,6,7,8,8,9,9,10,10,11,11,12,12,12
participant_3_MINIONSKILLED,0,0,1,13,24,29,43,54,60,77,87,93,108,119,128,130,130,131,137,139,139,142
participant_3_KILLS,0,0,0,0,0,0,0,0,1,1,1,1,2,2,2,2,2,3,3,6,6,8
participant_3_BUY,[],"[1082, 2031, 3340]",[],[],[],[],[3145],[],[],[],[],[],[4636],"[1001, 1052]",[],[],[],[],"[3100, 3364]",[],"[3020, 1026, 1052]",[]
participant_3_SOLD,[],[],[],[],[],[],[],[],[],[],[],[],[3145],[],[],[],[],[],"[1052, 3340]",[],"[1001, 2031]",[]
participant_3_UNDO,[],[],[],[],[],[],[],[],[],[],[],[],[],[],[],[],[],[],[],[],[],[]
participant_4_GOLD,500,500,523,759,1336,1533,1755,2161,2534,2791,3082,3278,3527,4453,4746,4887,5252,5790,6057,6485,6625,6840
participant_4_CURRENTGOLD,500,0,23,259,836,108,330,736,34,291,107,303,552,1478,271,262,127,665,932,1360,700,916
participant_4_LEVEL,1,1,1,2,3,4,4,5,5,6,6,6,7,8,8,8,9,9,10,10,10,11
participant_4_MINIONSKILLED,0,0,0,3,5,6,8,10,11,14,14,17,20,20,24,24,24,28,30,30,30,30
participant_4_KILLS,0,0,0,0,0,0,0,0,0,0,0,0,0,1,1,1,3,3,3,3,3,5
participant_4_BUY,[],"[1039, 2031]",[],[],[],[],"[4635, 2055, 2055, 3364]",[],[],[],"[1026, 1001]",[],[],[],"[4633, 3020, 1042, 1042]","[1052, 1042]",[],[1043],[],"[1026, 3115]",[],[]
participant_4_SOLD,[],[],[],[],[],[],[3340],[],"[1039, 2055]",[],[],[],[],"[3364, 3513]","[4635, 1026, 1001]",[],[2055],[1042],[2055],"[1043, 1026, 1052]",[],[]
participant_4_UNDO,[],[],[],[],[],[],[],[],[],[],[],[],[],[],"[[0, 1042], [0, 1042]]",[],[],[],[],[],[],[]
participant_5_GOLD,500,500,542,804,1036,1277,2153,2488,2972,3193,3478,3664,3877,4424,4854,5345,5622,5786,6661,6819,7306,7842
participant_5_CURRENTGOLD,500,0,42,304,536,352,228,563,1047,218,503,189,327,874,1304,995,539,353,1228,636,1123,959
participant_5_LEVEL,1,1,1,3,3,4,5,6,6,7,8,8,8,9,9,10,10,10,11,11,12,12
participant_5_MINIONSKILLED,0,0,1,9,13,17,25,34,36,42,48,52,57,63,72,75,84,86,100,102,116,122
participant_5_KILLS,0,0,0,0,0,0,0,0,0,0,0,0,1,1,1,1,2,2,2,3,4,4
participant_5_BUY,[],"[1055, 2003, 3340]",[],[],[],[],"[3070, 1036, 1036, 2055, 2003]",[],[6670],[],[],[],"[1018, 1037]",[],[6672],[],[],"[3006, 1036]",[],"[3133, 2055]",[3004],[]
participant_5_SOLD,[],[],[],[],[],"[2010, 2010]",[2055],[],"[1036, 1036]",[2010],[],[],[],"[2003, 2003]","[6670, 1018, 1037]",[],[],[],[],[1036],"[3070, 3133]",[]
participant_5_UNDO,[],[],[],[],[],[],[],[],[],[],[],[],[],[],[],[],[],[],[],[],[],[]
participant_6_GOLD,500,500,726,1010,1241,1363,1621,1828,2240,2416,2781,3073,3410,3814,4257,4529,4800,4999,5179,5301,5631,5804
participant_6_CURRENTGOLD,500,500,226,510,741,163,421,253,665,366,731,1023,660,1064,707,279,250,449,54,176,206,379
participant_6_LEVEL,1,1,2,3,3,3,4,4,5,5,6,7,7,8,8,9,9,9,9,10,10,10
participant_6_MINIONSKILLED,0,0,0,0,0,0,0,0,0,0,0,5,5,5,5,5,5,6,6,6,6,6
participant_6_KILLS,0,0,0,0,0,0,0,0,0,0,1,1,1,1,1,1,1,1,1,1,1,1
participant_6_BUY,[],"[3854, 2003, 2003, 3340]",[],[],[1001],[],[],[],"[1028, 1029, 2003, 2003]",[],[],"[3111, 1006, 3364]",[],[],[3067],[],[3105],[],[],[3190],[],[3801]
participant_6_SOLD,[],[],[],[],[2003],[],[2003],[],[],[],[3854],"[1001, 3340]",[],[2003],[1028],[],[1029],[2003],[3855],"[3067, 3105]",[],[1006]
participant_6_UNDO,[],[],[],[],[],[],[],[],[],[],[],[],[],[],[],[],[],[],[],[],[],[]
participant_7_GOLD,500,500,626,969,1302,1536,1914,2232,2396,2766,3084,3291,4194,4421,4730,5027,5976,6147,6321,6764,7852,8345
participant_7_CURRENTGOLD,500,0,126,459,792,1026,169,487,51,411,729,936,364,631,305,602,1551,272,446,64,52,545
participant_7_LEVEL,1,1,1,3,4,5,6,6,7,7,8,8,9,9,9,10,11,11,11,11,12,12
participant_7_MINIONSKILLED,0,0,6,16,28,34,47,58,60,71,82,87,96,102,109,119,126,129,130,131,133,143
participant_7_KILLS,0,0,0,0,0,0,0,0,0,0,1,1,1,1,1,3,3,3,3,3,4,4
participant_7_BUY,[],"[1055, 2003, 3340]",[],[],[],[],"[1043, 2055]",[1036],[2003],[],[],"[1053, 1037, 2003]",[],"[3153, 1001]",[],[],"[3006, 6670, 3363]",[1036],[],[1053],[],[6673]
participant_7_SOLD,[],[],[],[],[],[],[],"[2003, 2010]",[],[2055],"[2003, 2010]",[1036],[],"[1053, 1043, 1037]",[],[],"[1001, 3340]",[2010],[],[1036],[],"[6670, 1053]"
participant_7_UNDO,[],[],[],[],[],[],[],[],[],[],[],[],[],[],[],[],[],[],[],[],[],[]
participant_8_GOLD,500,500,584,955,1197,1634,1834,2169,2417,2673,3450,3643,4053,4196,4734,6292,6497,6675,7225,7458,8222,8554
participant_8_CURRENTGOLD,500,0,84,455,697,1134,259,244,442,698,1475,193,603,121,659,2217,322,180,730,413,1177,309
participant_8_LEVEL,1,1,1,2,3,4,4,5,5,6,7,7,7,8,8,9,9,10,10,10,11,11
participant_8_MINIONSKILLED,0,0,3,15,22,38,42,52,59,67,75,79,92,93,109,118,118,121,136,138,154,159
participant_8_KILLS,0,0,0,0,0,0,0,0,0,0,0,0,0,0,1,1,1,1,1,1,1,1
participant_8_BUY,[],[],"[1035, 2031]",[],[],[3057],[],"[1001, 2055]",[],"[1028, 2055]",[],[],[3044],[],[3067],[6632],[1029],[],"[3047, 2055]",[],[1029],[]
participant_8_SOLD,[],[],[],[],[],[],[],[],"[2055, 1035]",[],[],[],[1028],[],[2055],"[3044, 3057, 3067]",[],[],"[1001, 1029]",[],[],[2055]
participant_8_UNDO,[],[],[],[],[],[],[],[],[],[],[],[],[],[],[],[],[],[],[],[],[],[]
participant_9_GOLD,500,500,544,706,855,1094,1306,1562,1752,1908,2565,2816,3090,3230,3548,4010,4151,4291,4610,4825,5038,5229
participant_9_CURRENTGOLD,500,0,44,206,55,294,506,762,152,308,965,266,540,680,598,1060,1,141,460,275,488,179
participant_9_LEVEL,1,1,1,2,2,3,4,5,5,5,6,7,7,7,8,9,9,9,9,9,10,10
participant_9_MINIONSKILLED,0,0,1,3,4,7,7,11,14,15,16,22,26,26,28,30,30,30,33,33,35,35
participant_9_KILLS,0,0,0,0,0,0,1,1,1,1,1,1,1,2,2,3,3,3,4,4,4,4
participant_9_BUY,[],[2033],[],[],[],"[1036, 2055]","[3057, 1001]",[],[],"[3051, 1029]",[],[3047],[2055],[],[],[3067],"[3078, 3363]",[1036],[],"[3123, 1029]",[],[3082]
participant_9_SOLD,[],[],[],[],[],[],[],[],[],"[1036, 2055]",[],"[1001, 1029]",[],[],[],[],"[3057, 3051, 3067, 3340]",[],[],[1036],[],[1029]
participant_9_UNDO,[],[],[],[],[],[],[],[],[],[],[],[],[],[],[],[],[],[],[],[],[],[]
team0_KILLS,0,0,0,0,3,4,4,5,7,7,10,10,11,15,15,16,18,21,21,26,28,32
team0_CURRENTGOLD,2500,0,424,2140,4927,4543,1505,2941,2652,4734,5436,5041,3131,8052,4548,3020,2973,6323,4259,6446,2529,5233
team0_TOTALGOLD,2500,2500,2924,4650,7437,9078,10450,12486,15047,17139,19466,21271,23061,28727,30223,31955,33908,37958,39559,43310,45494,48196
team0_LEVEL,5,5,6,13,18,23,24,28,31,35,37,40,41,45,47,49,52,54,56,58,60,62
team0_SBIRES,0,0,9,47,79,102,129,154,178,224,249,278,309,342,361,388,399,427,443,458,466,484
team1_KILLS,0,0,0,0,0,0,1,1,1,1,3,3,4,5,6,9,10,10,11,12,14,14
team1_CURRENTGOLD,2500,500,522,1934,2821,2969,1583,2309,2357,2001,4403,2607,2494,3370,3573,5153,2663,1395,2918,1564,3046,2371
team1_TOTALGOLD,2500,2500,3022,4444,5631,6904,8828,10279,11777,12956,15358,16487,18624,20085,22123,25203,27046,27898,29996,31167,34049,35774
team1_LEVEL,5,5,6,13,15,19,23,26,28,30,35,37,38,41,42,47,48,49,50,51,55,55
team1_SBIRES,0,0,11,43,67,96,121,155,169,195,221,245,276,289,323,347,363,372,405,410,444,465
delta_KILLS,0,0,0,0,3,4,3,4,6,6,7,7,7,10,9,7,8,11,10,14,14,18
delta_CURRENTGOLD,0,-500,-98,206,2106,1574,-78,632,295,2733,1033,2434,637,4682,975,-2133,310,4928,1341,4882,-517,2862
delta_TOTALGOLD,0,0,-98,206,1806,2174,1622,2207,3270,4183,4108,4784,4437,8642,8100,6752,6862,10060,9563,12143,11445,12422
delta_LEVEL,0,0,0,0,3,4,1,2,3,5,2,3,3,4,5,2,4,5,6,7,5,7
delta_SBIRES,0,0,-2,4,12,6,8,-1,9,29,28,33,33,53,38,41,36,55,38,48,22,19
