name,team0,team1
win,Fail,Win
firstBlood,True,False
firstTower,False,True
firstInhibitor,False,False
firstBaron,False,False
firstDragon,False,True
firstRiftHerald,False,True
towerKills,0,5
inhibitorKills,0,0
baronKills,0,0
dragonKills,1,1
riftHeraldKills,0,1
