name,team0,team1
win,Fail,Win
firstBlood,False,True
firstTower,False,True
firstInhibitor,False,True
firstBaron,False,True
firstDragon,False,True
firstRiftHerald,False,True
towerKills,1,11
inhibitorKills,0,4
baronKills,0,1
dragonKills,0,4
riftHeraldKills,0,2
