name,team0,team1
win,Fail,Win
firstBlood,False,True
firstTower,True,False
firstInhibitor,False,True
firstBaron,False,True
firstDragon,True,False
firstRiftHerald,True,False
towerKills,5,5
inhibitorKills,0,1
baronKills,0,1
dragonKills,3,2
riftHeraldKills,1,0
