name,team0,team1
win,Win,Fail
firstBlood,True,False
firstTower,True,False
firstInhibitor,False,True
firstBaron,False,False
firstDragon,True,False
firstRiftHerald,True,False
towerKills,10,3
inhibitorKills,2,1
baronKills,0,0
dragonKills,3,1
riftHeraldKills,1,0
