name,team0,team1
win,Win,Fail
firstBlood,True,False
firstTower,True,False
firstInhibitor,True,False
firstBaron,False,True
firstDragon,False,True
firstRiftHerald,False,False
towerKills,9,2
inhibitorKills,3,0
baronKills,0,1
dragonKills,1,2
riftHeraldKills,0,0
