name,frame_0,frame_1,frame_2,frame_3,frame_4,frame_5,frame_6,frame_7,frame_8,frame_9,frame_10,frame_11,frame_12,frame_13,frame_14,frame_15,frame_16,frame_17,frame_18,frame_19,frame_20,frame_21,frame_22,frame_23,frame_24,frame_25,frame_26,frame_27,frame_28,frame_29,frame_30,frame_31
nameStamp,Tstart,Tearly,Tearly,Tearly,Tearly,Tearly,Tearly,Tearly,Tearly,Tearly,Tearly,Tearly,Tearly,Tearly,Tearly,Tmid,Tmid,Tmid,Tmid,Tmid,Tmid,Tmid,Tmid,Tmid,Tmid,Tmid,Tmid,Tmid,Tmid,Tmid,Tend,Tend
timestamp,0,60018,120031,180033,240039,300072,360087,420098,480127,540153,600170,660184,720202,780210,840214,900230,960236,1020250,1080280,1140285,1200288,1260297,1320329,1380355,1440387,1500393,1560393,1620405,1680426,1740437,1800450,1860476
participant_0_GOLD,500,500,583,948,1218,1473,1764,2364,2597,3058,3299,3672,4200,4490,5207,5811,6298,6715,7257,7758,8217,8840,9326,9798,10270,11031,11292,11740,12381,12980,13534,14274
participant_0_CURRENTGOLD,500,0,83,448,718,973,1264,1864,197,658,899,1272,500,790,1507,11,498,915,257,758,1217,1841,2326,623,1095,1857,2117,2565,381,981,1534,2275
participant_0_LEVEL,1,1,1,3,4,5,6,7,7,8,8,9,9,10,10,11,11,12,12,13,13,13,14,14,14,15,15,16,16,17,17,18
participant_0_MINIONSKILLED,0,0,3,14,23,28,37,45,48,65,72,83,94,104,113,119,129,141,145,158,168,175,193,193,203,216,217,217,219,222,225,229
participant_0_KILLS,0,0,0,0,0,0,0,0,0,0,0,1,1,1,1,1,1,1,1,1,1,1,1,1,1,1,1,1,1,1,1,1
participant_0_BUY,[],"[3850, 2003, 2003, 3340]",[],[],[],[],[],"[1001, 3802, 2055]","[2003, 3364]",[],[],"[3108, 1001]",[2055],[],[],[],[6653],[],[],[],[],[],[3020],[1026],[],[2055],[],[],"[1011, 1052]",[],[],[4637]
participant_0_SOLD,[],[],[],[2003],[2003],[],[3850],[],"[3340, 2055]",[],[2003],[3851],[],[],[],[2055],"[3802, 3108]",[],[],[],[],[],[1001],[],[],[],[],[2055],[],[],[],"[1026, 1011, 1052]"
participant_0_UNDO,[],[],[],[],[],[],[],"[[0, 1001]]",[],[],[],[],[],[],[],[],[],[],[],[],[],[],[],[],[],[],[],[],[],[],[],[]
participant_1_GOLD,500,500,620,933,1291,1500,1708,2470,2777,3128,3320,3668,4002,4138,4615,4836,5181,5494,5711,6388,6785,7619,8011,8310,8668,10074,10197,10419,11421,11953,12321,13660
participant_1_CURRENTGOLD,500,0,120,433,791,1000,168,930,1237,1588,1780,2128,2462,123,600,21,366,679,896,1573,1970,2804,346,645,1003,285,257,479,1481,214,582,1920
participant_1_LEVEL,1,1,2,3,4,4,4,5,6,7,7,8,8,8,9,9,10,10,10,11,11,12,13,13,13,14,14,14,15,16,16,17
participant_1_MINIONSKILLED,0,0,0,0,0,1,1,3,3,4,4,6,6,7,8,11,12,17,20,21,25,28,28,28,31,37,37,37,39,39,39,42
participant_1_KILLS,0,0,0,0,0,0,0,0,0,1,1,2,2,2,3,3,3,4,5,5,6,6,8,8,9,9,10,10,10,10,10,11
participant_1_BUY,[],"[1055, 2003, 3340]",[],[],[],[],[],"[6670, 1042, 2055, 2003]",[],[],[],[],"[6672, 2003, 2003]",[],[],[],"[1038, 3006]",[],[],[3095],[],[1038],[],[1037],[],"[3031, 1042]",[],[],"[3086, 1036]",[3123],[],[]
participant_1_SOLD,[],[],[],[],[],"[2003, 2010]",[],[],[],"[2003, 2055]","[2010, 2010]",[],[6670],[],[2003],[],"[1042, 2422]",[],[],[1038],[2003],[1055],[],[],[],"[1038, 1037]",[],[],[1042],[1036],[],[]
participant_1_UNDO,[],[],[],[],[],[],[],[],[],[],[],[],[],[],[],[],[],[],[],[],[],[],[],[],[],[],[],[],[],[],[],[]
participant_2_GOLD,500,500,576,769,913,1182,1368,1595,2101,2392,2570,2756,2927,3133,3620,3946,4069,4315,4577,4899,5021,5840,6128,6300,6423,6784,7344,7466,7815,8237,8409,9127
participant_2_CURRENTGOLD,500,0,76,269,113,382,133,360,416,707,885,271,442,213,700,296,419,665,77,399,521,90,378,175,298,194,754,141,490,697,434,1152
participant_2_LEVEL,1,1,1,3,3,5,5,5,6,7,7,8,8,8,9,9,9,10,10,10,10,11,11,11,12,12,13,13,13,14,14,14
participant_2_MINIONSKILLED,0,0,3,7,8,17,21,27,32,42,45,49,52,57,58,63,63,66,67,70,70,71,71,71,71,75,75,75,83,83,83,89
participant_2_KILLS,0,0,0,0,0,0,0,1,1,1,1,1,1,1,1,1,1,1,1,2,2,3,3,3,3,6,6,6,8,8,9,11
participant_2_BUY,[],"[1035, 2031, 3340]",[3364],[],[],[],[3134],[],[],[],[],[],[],"[6691, 1001, 2055]",[],[3111],[],[],[],[],[],[],"[3134, 1037, 1037]",[],[],"[3142, 3134]","[2055, 2055]",[],[],[3814],[],[]
participant_2_SOLD,[],[],[3340],[],[],[],[2031],[],[],[],[1035],[],[],"[3364, 3134]",[2055],"[3513, 1001]",[],[],[],[],[],[],[],[],[],"[3134, 1037]",[],[],[2055],[3134],[],[]
participant_2_UNDO,[],[],[],[],[],[],[],[],[],[],[],[],[],[],[],[],[],[],[],[],[],[],[],[],[],[],[],[],[],[],[],[]
participant_3_GOLD,500,500,597,934,1232,1557,1942,2308,2688,3362,3761,4418,4688,5007,6131,6576,6755,7325,7958,8081,8653,8875,9683,10060,10692,11167,11584,11935,12489,13058,13700,14843
participant_3_CURRENTGOLD,500,0,97,434,732,1057,1442,83,463,1137,1536,2193,263,582,1706,2151,530,1100,1733,456,1028,130,938,440,1073,22,439,790,95,213,855,1999
participant_3_LEVEL,1,1,1,2,3,4,4,5,5,6,7,7,7,8,9,9,9,10,11,11,12,12,12,13,13,13,13,14,14,15,15,16
participant_3_MINIONSKILLED,0,0,4,14,24,33,46,51,63,75,86,91,96,109,121,133,136,138,146,146,156,156,157,169,177,177,177,183,193,197,209,219
participant_3_KILLS,0,0,0,0,0,0,0,0,1,1,1,1,1,1,2,2,2,2,2,2,2,3,3,3,3,3,4,4,4,4,4,5
participant_3_BUY,[],"[1056, 2003, 2003, 3340]",[],[],[1001],[],[1052],[],"[1027, 2003, 2003]",[],[],"[3802, 3020]",[],[1052],[],"[3802, 2420]",[],[],[1026],[],[],[6656],[],"[1052, 2003, 2003]",[],[3108],[],"[1052, 1029]",[],[3157],[1052],[]
participant_3_SOLD,[],[],[],[2003],[],[],[],[2003],[2003],[2003],[],"[1052, 1027, 1001]",[],[],[],"[1052, 1027, 1052]",[],[],[2420],[],[],"[3802, 1026]",[],[1056],[],"[2003, 1052]",[2003],[],[],"[1052, 1029, 3108, 2421]",[],[]
participant_3_UNDO,[],[],[],[],[],[],[],[],[],[],[],"[[0, 3802]]",[],[],[],[],[],[],[],[],[],[],[],[],[],[],[],[],[],[],[],[]
participant_4_GOLD,500,500,562,797,1046,1314,1570,1930,2070,2422,2782,3297,3448,3588,4138,4329,4469,4754,4955,5095,5319,5842,5982,6172,6313,6663,6975,7203,7563,8032,8237,8527
participant_4_CURRENTGOLD,500,0,62,297,546,814,1070,55,145,497,857,172,248,388,938,1129,69,355,555,695,920,1442,782,123,263,538,850,1078,103,572,777,253
participant_4_LEVEL,1,1,1,2,3,4,4,5,5,6,6,7,7,7,8,8,8,9,9,9,10,10,10,10,10,11,12,12,13,13,13,13
participant_4_MINIONSKILLED,0,0,0,0,1,2,2,2,2,3,3,5,6,6,6,6,6,10,10,10,15,19,19,19,19,21,22,22,26,28,29,29
participant_4_KILLS,0,0,0,0,0,0,0,0,0,0,0,0,0,0,0,0,0,0,0,0,0,0,0,0,0,1,1,2,3,3,3,3
participant_4_BUY,[],"[1055, 2003]",[],[],[],[],[],[],"[3123, 3006]",[],[],[],[6670],[],[],[6672],[],[],[3086],[],[],[],[],"[3033, 1037, 1018]",[],[],[],[],"[6675, 1053]",[],[],[]
participant_4_SOLD,[],[],[],[],[],[2003],[],[],[],[],[],[],[],[],[],[6670],[],[],[],[],"[3340, 3513]",[],[],"[3123, 3086]",[],[],[],[],"[1037, 1018]",[],[],[]
participant_4_UNDO,[],[],[],[],[],[],[],[],[],[],[],[],[],[],[],[],[],[],[],[],[],[],[],[],[],[],[],[],[],[],[],[]
participant_5_GOLD,500,500,590,853,1148,1494,1687,1910,2241,2441,2908,3571,3862,4264,4408,4779,5150,5758,6327,6585,6930,7053,7664,8072,8411,9154,9805,10132,10254,10864,11318,11572
participant_5_CURRENTGOLD,500,0,90,353,648,994,1187,110,441,641,1108,1771,162,564,108,479,650,1258,1827,185,130,253,864,422,761,704,1356,382,154,765,1218,573
participant_5_LEVEL,1,1,1,3,4,5,6,6,7,7,8,9,9,10,10,11,11,12,12,13,13,13,13,14,14,14,15,15,15,15,16,16
participant_5_MINIONSKILLED,0,0,4,12,19,29,33,36,45,49,66,74,80,96,97,110,121,130,145,145,154,154,158,170,172,173,177,184,184,191,198,202
participant_5_KILLS,0,0,0,0,0,0,0,0,1,1,1,1,2,2,2,3,4,4,5,6,6,6,6,6,6,6,7,7,8,8,8,8
participant_5_BUY,[],"[2033, 3340]",[],[],[],[],[],[3802],[],[],[],"[1026, 1001]",[],[],[],[6655],[],[],"[3145, 3111]",[],[],[],[],[4628],[],[],[],[],"[1026, 3916]",[3165],[],[]
participant_5_SOLD,[],[],[],[2010],[],[],[2010],[],[2010],[],[],[],[],[],[],"[3802, 1026]",[],[],[1001],[],[],[],[],[3145],[],[],[],[],[],"[1026, 3916]",[],[]
participant_5_UNDO,[],[],[],[],[],[],[],[],[],[],[],[],[],[],[],[],[],[],[],[],[],[],[],[],[],[],[],[],[],[],[],[]
participant_6_GOLD,500,500,620,933,1156,1413,1613,1735,2092,2270,2532,3143,3350,3600,3723,4092,4317,4691,5528,5714,6061,6804,7214,7470,7747,7911,8034,8156,8462,8856,9430,9552
participant_6_CURRENTGOLD,500,500,120,433,56,313,88,210,567,95,357,968,375,625,148,517,742,516,1353,364,711,429,239,495,832,121,244,366,672,441,115,238
participant_6_LEVEL,1,1,2,3,3,3,4,4,5,5,5,6,6,7,7,7,8,8,9,9,10,10,10,11,11,11,11,11,12,12,13,13
participant_6_MINIONSKILLED,0,0,0,0,0,0,0,0,0,0,0,4,4,6,6,8,12,17,24,28,33,33,36,39,48,51,51,51,52,60,63,63
participant_6_KILLS,0,0,0,0,0,0,0,0,0,0,0,0,0,0,0,0,0,0,0,0,0,0,0,0,0,0,0,0,0,0,0,0
participant_6_BUY,[],"[3858, 2003, 2003, 3340]",[],[],[],[],[1001],[],[3009],[1028],[],[],[],[],"[3066, 3067, 1028, 2055]",[],[],[],"[3066, 1004, 3364]",[],[],[2065],[],[],[1004],[],[3114],[],[],[],[],[]
participant_6_SOLD,[],[],[],"[2003, 2003]",[],[],[],[],[1001],[],[],[],[],[],"[1028, 1028]",[],[3858],[],"[1028, 3340]",[2055],[],"[3067, 1004, 3066]",[],[],[],[],[1004],[],[],[],[],[]
participant_6_UNDO,[],[],[],[],[],[],[],[],[],[],[],[],[],[],"[[0, 3066]]",[],[],[],[],[],[],[],[],[],[],[],[],[],[],[],[],[]
participant_7_GOLD,500,500,597,860,1144,1469,1798,1969,2628,2912,3160,3353,3958,4206,4564,5091,6022,6243,6715,7266,7430,7715,7940,8062,8359,8598,9915,10166,10644,10787,11035,11206
participant_7_CURRENTGOLD,500,0,97,360,644,959,1278,149,798,1082,1330,373,968,1216,1564,841,1772,1993,615,1166,1330,1615,1840,12,309,548,1866,2116,944,238,485,657
participant_7_LEVEL,1,1,1,3,4,5,6,6,7,8,8,9,9,10,10,11,11,11,11,12,12,12,13,13,13,13,14,14,15,15,15,15
participant_7_MINIONSKILLED,0,0,4,12,21,30,39,42,53,62,69,74,81,88,98,104,107,110,110,112,115,122,124,124,131,133,141,148,151,152,155,158
participant_7_KILLS,0,0,0,0,0,0,0,0,0,0,0,0,0,0,0,0,0,0,0,0,0,0,1,1,1,1,1,1,1,1,1,1
participant_7_BUY,[],"[1055, 2003, 3340]",[],[],[],[],[1053],[],[],[],[],"[1042, 1036]",[1001],[],[6670],[],[],[],"[6673, 1042]",[],[1042],[3006],"[1042, 3363]",[],[1018],"[3086, 1042]",[],[],[],[3094],[],[]
participant_7_SOLD,[],[],[],[],[2003],[],[],[],[],[],[],[],[],[],"[1036, 1042]",[],[],[],"[6670, 1053]",[],[],"[1001, 1042]",[3340],[],[],"[1018, 1042]",[],[],[],"[3086, 1042]",[],[]
participant_7_UNDO,[],[],[],[],[],[],[],[],[],[],[],[],[],[],[],[],[],[],[],[],"[[0, 1042]]",[],[],[],[],[],[],[],[],[],[],[]
participant_8_GOLD,500,500,562,769,1085,1368,1491,1711,1882,2124,2365,2563,2833,3067,3260,3540,4229,4422,4629,4856,4978,5451,5914,6121,6314,6624,7074,7196,7603,7726,7904,8097
participant_8_CURRENTGOLD,500,0,62,269,585,868,91,311,482,724,965,513,483,717,260,540,1229,1422,129,356,478,451,614,821,414,124,574,696,1103,26,204,397
participant_8_LEVEL,1,1,1,2,3,4,4,5,5,6,6,7,7,8,8,8,9,9,10,10,10,11,11,11,11,12,12,12,13,13,14,14
participant_8_MINIONSKILLED,0,0,2,7,15,22,22,28,31,38,45,45,50,56,60,64,78,79,81,83,83,95,96,96,101,107,110,110,118,118,121,125
participant_8_KILLS,0,0,0,0,0,0,0,0,0,0,0,1,1,1,1,1,1,1,1,1,1,2,2,2,2,2,2,2,2,2,3,3
participant_8_BUY,[],[],"[1039, 2031]",[],"[1001, 1042]",[],"[1036, 2055]",[],[],[6670],[],[],[3006],[],[1018],[],[],[3086],[],"[1037, 1042]",[],[3085],[1018],[],[],[1037],[],[],[],[6672],[1053],[]
participant_8_SOLD,[],[],[],[],[],[],[],[2055],[1039],"[1036, 1042]",[],[],[1001],[],[],[],[],[1018],[],[],[],"[1037, 3086, 1042]",[],[],[2031],[],[],[],[],"[6670, 1018, 1037]",[],[]
participant_8_UNDO,[],[],[],[],[],[],[],[],[],[],[],[],[],[],[],[],[],[],[],[],[],[],[],[],[],[],[],[],[],[],[],[]
participant_9_GOLD,500,500,543,706,922,1056,1191,1367,1651,1800,1962,2186,2458,2627,2783,2992,3250,3440,3630,3932,4072,4263,4478,4618,4759,4974,5114,5255,5405,5546,5700,5840
participant_9_CURRENTGOLD,500,0,43,206,422,556,391,567,251,0,162,386,658,827,108,317,575,765,305,607,747,88,303,443,334,549,140,280,430,571,725,866
participant_9_LEVEL,1,1,1,2,3,3,3,4,4,5,5,6,7,7,7,8,8,8,8,9,9,10,10,10,10,11,11,11,11,11,11,11
participant_9_MINIONSKILLED,0,0,1,3,5,5,5,7,7,8,10,11,14,16,17,17,20,20,20,22,22,22,22,22,22,22,22,22,23,23,24,24
participant_9_KILLS,0,0,0,0,0,0,0,0,0,0,0,1,1,1,1,1,1,1,1,1,1,1,2,2,2,3,4,4,4,5,5,5
participant_9_BUY,[],"[1054, 2003, 3340]",[],[],[],[],[],"[6660, 1029]",[],[],[],[],[3068],[],"[1029, 1029]",[],[3076],[],[],[3075],[1028],[],[],[3211],[],[3067],[],"[3065, 1033]","[3111, 3111]",[],[],[1011]
participant_9_SOLD,[],[],[],[],[2003],[],[],[],[],[],[],[],"[6660, 1029]",[],[],[],"[1029, 1029]",[],[],[3076],[],[],[],[1028],[],[],[],"[3211, 3067]","[1033, 2422, 1033, 2422]",[],[],[]
participant_9_UNDO,[],[],[],[],[],[],[],[],[],[],[],[],[],[],[],[],[],[],[],[],[],[],[],[],[],[],[],[],"[[0, 3111]]",[],[],[]
team0_KILLS,0,0,0,0,0,0,0,1,2,3,3,5,5,5,7,7,7,8,9,10,11,13,15,15,16,20,22,23,26,26,27,31
team0_CURRENTGOLD,2500,0,438,1881,2900,4226,4077,3292,2458,4587,5957,6036,3915,2096,5451,3608,1882,3714,3518,3881,5656,6307,4770,2006,3732,2896,4417,5053,2550,2677,4182,7599
team0_TOTALGOLD,2500,2500,2938,4381,5700,7026,8352,10667,12233,14362,15732,17811,19265,20356,23711,25498,26772,28603,30458,32221,33995,37016,39130,40640,42366,45719,47392,48763,51669,54260,56201,60431
team0_LEVEL,5,5,6,13,17,22,23,27,29,34,35,39,39,41,45,46,47,51,52,54,56,58,60,61,62,65,67,69,71,75,75,78
team0_SBIRES,0,0,10,35,56,81,107,128,148,189,210,234,254,283,306,332,346,372,388,405,434,449,468,480,501,526,528,534,560,569,585,608
team1_KILLS,0,0,0,0,0,0,0,0,1,1,1,3,4,4,4,5,6,6,7,8,8,9,11,11,11,12,14,14,15,16,17,17
team1_CURRENTGOLD,2500,500,412,1621,2355,3690,3035,1347,2539,2542,3922,4011,2646,3949,2188,2694,4968,5954,4229,2678,3396,2836,3860,2193,2650,2046,4180,3840,3303,2041,2747,2731
team1_TOTALGOLD,2500,2500,2912,4121,5455,6800,7780,8692,10494,11547,12927,14816,16461,17764,18738,20494,22968,24554,26829,28353,29471,31286,33210,34343,35590,37261,39942,40905,42368,43779,45387,46267
team1_LEVEL,5,5,6,13,17,20,23,25,28,31,32,37,38,42,42,45,47,48,50,53,54,56,57,59,59,61,63,63,66,66,69,69
team1_SBIRES,0,0,11,34,60,86,99,113,136,157,190,208,229,262,278,303,338,356,380,390,407,426,436,451,474,486,501,515,528,544,561,572
delta_KILLS,0,0,0,0,0,0,0,1,1,2,2,2,1,1,3,2,1,2,2,2,3,4,4,4,5,8,8,9,11,10,10,14
delta_CURRENTGOLD,0,-500,26,260,545,536,1042,1945,-81,2045,2035,2025,1269,-1853,3263,914,-3086,-2240,-711,1203,2260,3471,910,-187,1082,850,237,1213,-753,636,1435,4868
delta_TOTALGOLD,0,0,26,260,245,226,572,1975,1739,2815,2805,2995,2804,2592,4973,5004,3804,4049,3629,3868,4524,5730,5920,6297,6776,8458,7450,7858,9301,10481,10814,14164
delta_LEVEL,0,0,0,0,0,2,0,2,1,3,3,2,1,-1,3,1,0,3,2,1,2,2,3,2,3,4,4,6,5,9,6,9
delta_SBIRES,0,0,-1,1,-4,-5,8,15,12,32,20,26,25,21,28,29,8,16,8,15,27,23,32,29,27,40,27,19,32,25,24,36
