name,frame_0,frame_1,frame_2,frame_3,frame_4,frame_5,frame_6,frame_7,frame_8,frame_9,frame_10,frame_11,frame_12,frame_13,frame_14,frame_15,frame_16,frame_17,frame_18,frame_19,frame_20,frame_21,frame_22
nameStamp,Tstart,Tearly,Tearly,Tearly,Tearly,Tearly,Tearly,Tearly,Tearly,Tearly,Tmid,Tmid,Tmid,Tmid,Tmid,Tmid,Tmid,Tmid,Tend,Tend,Tend,Tend,Tend
timestamp,0,60002,120031,180045,240060,300088,360115,420145,480178,540196,600227,660233,720265,780270,840282,900289,960314,1020323,1080334,1140358,1200363,1260368,1320368
participant_0_GOLD,500,518,708,1308,2589,3324,4800,6339,7410,8204,9758,10371,10951,11997,13380,14076,15098,15783,17074,17838,18198,18835,19610
participant_0_CURRENTGOLD,500,18,208,808,2089,2824,1415,2954,760,754,2308,421,1001,512,1895,286,873,493,1784,948,1308,1945,2560
participant_0_LEVEL,1,1,2,3,4,4,6,6,7,8,9,10,10,11,13,13,14,16,17,17,17,17,18
participant_0_MINIONSKILLED,0,0,5,9,15,27,39,48,55,67,79,79,84,88,97,99,100,100,110,112,112,119,122
participant_0_KILLS,0,0,0,0,1,1,2,4,6,6,8,8,8,9,11,12,14,14,15,16,16,16,16
participant_0_BUY,[],"[1056, 2003, 2003, 3340]",[],[],[],[],"[3802, 1026, 1001, 1052]",[],"[3135, 3285]","[3020, 3020]",[],"[1058, 1058]",[],"[3089, 1052]",[],"[3191, 3157]",[1052],[3136],[],[3151],[],[],[]
participant_0_SOLD,[],[2003],[2003],[],[],[],[],[],"[1026, 1052, 3802]","[1001, 1001]",[],[],[],"[1058, 1058]",[],"[1052, 1056, 3191]",[],[1052],[],[3136],[],[],[]
participant_0_UNDO,[],[],[],[],[],[],[],[],[],"[[0, 3020]]",[],[],[],[],[],[],[],[],[],[],[],[],[]
participant_1_GOLD,500,538,656,1192,2141,2637,3853,4774,6033,6578,7785,8305,9012,10213,11258,11648,12587,13661,14128,14664,15095,16173,17506
participant_1_CURRENTGOLD,500,38,106,642,716,1212,1078,1999,3258,353,1560,230,937,1288,2333,173,1112,1096,28,564,995,2073,3246
participant_1_LEVEL,1,1,1,2,3,4,5,6,8,8,9,9,10,11,13,13,15,16,17,17,17,19,20
participant_1_MINIONSKILLED,0,0,0,3,5,6,7,9,14,15,20,21,22,28,35,35,35,47,47,47,50,53,60
participant_1_KILLS,0,0,0,0,1,1,2,2,4,4,5,5,6,7,8,8,9,9,9,9,9,10,11
participant_1_BUY,[],"[1056, 1056, 2003, 2003, 3340]",[2003],[],"[3067, 2055]",[],"[3145, 1001]",[],[],"[3152, 3152, 3065]",[],"[3020, 3057]",[],[3113],[],"[3100, 1058]",[],[1058],"[3089, 1052]",[],[],[],[]
participant_1_SOLD,[],[],"[2003, 2003]",[2003],[],[],[],[2055],[],"[3145, 3067]",[],[1001],[],[],[],"[3057, 3113]",[],[1056],"[1058, 1058]",[],[],[],[]
participant_1_UNDO,[],"[[0, 1056]]",[],[],[],[],[],[],[],"[[0, 3152]]",[],[],[],[],[],[],[],[],[],[],[],[],[]
participant_2_GOLD,500,800,980,2082,3187,3701,5454,6573,7302,8201,8799,9877,10292,10901,12511,12871,14323,14983,15796,16156,16601,16961,17686
participant_2_CURRENTGOLD,500,315,195,1297,1387,1901,1369,2488,752,401,564,427,842,166,1776,421,1873,1283,2096,2456,551,911,1636
participant_2_LEVEL,1,1,1,2,4,5,6,7,8,8,8,9,9,10,12,12,15,16,17,17,17,17,18
participant_2_MINIONSKILLED,0,0,3,5,6,8,8,9,13,16,22,28,28,34,35,35,44,44,49,49,49,49,53
participant_2_KILLS,0,1,1,2,4,4,7,9,10,11,11,12,12,12,14,14,15,15,15,15,15,15,15
participant_2_BUY,[],"[1052, 2003]",[1001],[],"[3145, 1028]",[],"[3152, 3020, 1029, 1052]",[],[3157],[1058],[1052],[3907],[],"[1026, 1052]",[],"[3102, 2055]",[],[1058],[],[],[3089],[],[]
participant_2_SOLD,[],[],[],[2003],[1052],[],"[3145, 1028, 1001]",[],[1052],[],[],"[1058, 1052]",[],[],[],"[1052, 1026]",[],[],[],[],[1058],[],[]
participant_2_UNDO,[],[],[],[],[],[],"[[0, 1029]]",[],[],[],[],[],[],[],[],"[[0, 2055]]",[],[],[],[],[],[],[]
participant_3_GOLD,500,518,1255,2450,3623,4282,5789,6897,7979,9161,10195,10842,11733,13373,14545,15642,17063,18077,19504,20141,20876,21886,23833
participant_3_CURRENTGOLD,500,68,455,350,1523,1307,1589,1297,279,1461,1195,242,333,1973,3145,977,1098,2112,1014,1651,286,796,1833
participant_3_LEVEL,1,1,1,3,4,4,6,7,8,9,10,10,11,13,14,15,16,17,18,18,19,20,21
participant_3_MINIONSKILLED,0,0,2,12,23,32,45,55,62,80,96,101,101,124,125,132,139,145,146,153,153,153,162
participant_3_KILLS,0,0,2,3,4,4,4,5,6,6,6,7,8,9,10,10,12,12,14,14,15,17,20
participant_3_BUY,[],"[1036, 2003, 2003, 2003]",[1036],[1038],[],[1037],[3031],"[1038, 1018]","[3031, 1018]",[],[1038],"[3031, 1042]",[1018],[],[],"[3031, 1037]",[1038],[],"[3031, 1038]",[],[3031],[2140],[]
participant_3_SOLD,[],[2003],[],[2010],"[2010, 2003]",[2010],"[1038, 1037]","[2010, 1036, 1036, 2422]","[1038, 1018]",[],[],"[1038, 1018]",[],[],[],"[1018, 1042]",[],[],"[1038, 1037]",[],[1038],[2140],[]
participant_3_UNDO,[],"[[0, 2003]]",[],[],[],[],[],[],[],[],[],[],[],[],[],[],[],[],[],[],[],[],[]
participant_4_GOLD,500,518,878,1488,2054,2649,3269,3716,4316,5017,5662,6191,6614,7903,8631,9262,9688,10627,11262,11995,12355,12760,13597
participant_4_CURRENTGOLD,500,18,378,988,1554,749,1369,366,266,967,1612,641,364,1653,2381,262,688,1627,437,1170,490,895,1672
participant_4_LEVEL,1,1,1,3,4,5,6,6,7,7,8,8,9,11,12,12,13,14,15,16,16,16,18
participant_4_MINIONSKILLED,0,0,0,7,14,20,27,30,37,41,42,47,47,50,50,51,52,52,55,60,60,60,62
participant_4_KILLS,0,0,1,1,1,1,1,1,1,1,1,1,1,2,2,2,2,2,2,2,2,2,2
participant_4_BUY,[],"[1036, 2031, 3340]",[],[],[],"[3134, 1001, 1036]",[],[3147],"[1036, 1036]",[],[],"[3134, 3133]",[3142],[],[],"[3044, 3067, 3117]",[],[],"[3071, 1037]",[],[3134],[],[]
participant_4_SOLD,[],[],[],[],[],[1036],[],"[3134, 1036]",[],[],[],"[1036, 1036]","[3133, 3134]",[],[],[1001],[],[],"[3044, 3067]",[],[2031],[],[]
participant_4_UNDO,[],[],[],[],[],[],[],[],[],[],[],[],[],[],[],[],[],[],[],[],[],[],[]
participant_5_GOLD,500,843,999,1587,2145,2989,4176,4565,6085,6886,7741,8361,8876,9336,9733,10448,11285,11668,12540,13870,14817,15425,16147
participant_5_CURRENTGOLD,500,358,214,367,345,1189,526,480,685,836,791,1411,176,386,783,1498,1235,898,590,1920,1967,475,697
participant_5_LEVEL,1,1,2,3,4,5,6,6,7,7,8,9,10,11,11,12,14,14,15,16,19,19,19
participant_5_MINIONSKILLED,0,0,3,8,15,19,28,28,36,39,49,54,55,59,59,69,70,70,73,75,75,77,81
participant_5_KILLS,0,1,1,1,1,2,3,3,4,4,4,4,4,4,4,4,5,5,6,7,8,8,8
participant_5_BUY,[],"[3340, 1052, 2003]",[1001],[1052],"[3145, 1028]",[],"[3152, 1033, 3111]",[1052],"[3108, 3113]",[3905],[3108],[],"[3191, 2420]",[3157],[],[],[3010],[1057],[3001],[],[3108],[3102],[2138]
participant_5_SOLD,[],[2003],[],[],"[1052, 1052]",[],"[3145, 1028, 1001, 1033]",[],[1052],"[3108, 3113]",[],[],[],"[3191, 3108, 2420]",[],[],[],[],"[3010, 1057]",[],[],[3108],[2138]
participant_5_UNDO,[],[],[],[],[],[],[],[],[],[],[],[],[],[],[],[],[],[],[],[],[],[],[]
participant_6_GOLD,500,568,741,1242,2307,3005,3569,4086,4565,5275,6898,7500,8200,8567,9146,9998,10708,11501,12380,13625,14453,15129,15477
participant_6_CURRENTGOLD,500,133,306,372,1007,855,69,586,1065,975,48,650,1350,182,761,763,108,901,130,1375,803,1479,427
participant_6_LEVEL,1,1,1,2,3,4,5,5,6,7,8,9,10,11,11,13,14,15,16,17,18,18,19
participant_6_MINIONSKILLED,0,0,0,3,4,10,11,17,18,18,22,30,31,31,36,40,40,54,70,75,89,93,93
participant_6_KILLS,0,0,0,0,0,0,0,0,0,0,0,0,0,0,0,1,1,1,1,1,1,1,1
participant_6_BUY,[],"[1052, 2003, 3340]",[],[],[],"[3802, 1026, 1052]",[3802],[],"[3285, 1052]",[],"[3145, 1001]","[1028, 3067]",[3152],[],[3020],[],[1058],[1058],[3089],[],"[1026, 1028]",[],[3136]
participant_6_SOLD,[],[],[],[2003],[],[1052],"[1052, 1052]",[],"[3802, 1026]",[],[1052],[1028],"[3145, 3067]",[],[1001],[],[],[],"[1058, 1058]",[],[],[],[1028]
participant_6_UNDO,[],[],[],[],[],"[[0, 3802]]",[],[],[],[],[],[],[],[],[],[],[],[],[],[],[],[],[]
participant_7_GOLD,500,1225,1622,2270,3109,3677,4118,4694,5180,6018,6378,7296,8896,9588,10032,11579,13034,13511,14171,15280,15640,16326,16674
participant_7_CURRENTGOLD,500,725,272,920,159,727,118,294,430,918,558,296,1896,238,682,2229,3684,1361,931,2040,200,886,574
participant_7_LEVEL,1,1,1,2,4,4,5,5,6,7,7,10,11,11,12,14,14,15,15,17,17,17,17
participant_7_MINIONSKILLED,0,0,0,10,15,17,19,22,24,30,30,39,41,42,45,49,51,56,56,68,68,72,72
participant_7_KILLS,0,2,3,3,4,4,4,4,4,4,4,5,7,8,8,10,11,11,12,13,13,13,13
participant_7_BUY,[],"[1056, 2003, 2003]",[3073],[],"[3802, 1001]",[],[3007],[1028],[1027],[3010],[1057],[3001],[],"[3136, 1026]",[],[],[],"[3151, 3020, 1058]",[1058],[],"[3089, 3191]",[],[2139]
participant_7_SOLD,[],[2003],[2003],[],[],[],"[3073, 3802]",[],[],"[1028, 1027, 3007]",[],"[3010, 1057]",[],[],[],[],[],"[3136, 1026, 1001]",[1056],[],"[1058, 1058]",[],[2139]
participant_7_UNDO,[],[],[],[],[],[],[],[],[],[],[],[],[],[],[],[],[],[],[],[],[],[],[]
participant_8_GOLD,500,543,1274,2072,2646,4005,4737,5919,7053,8543,9458,10664,12345,13115,13475,15374,16136,16917,17352,18413,19686,20445,21477
participant_8_CURRENTGOLD,500,43,424,1222,1796,205,937,2119,353,1843,2758,264,1945,715,1075,274,1036,1817,452,1513,2786,3545,4077
participant_8_LEVEL,1,1,1,3,4,5,6,7,7,9,9,10,11,12,12,14,14,15,16,17,18,19,19
participant_8_MINIONSKILLED,0,0,3,14,21,30,42,51,57,63,69,70,80,87,87,105,106,119,119,122,127,127,131
participant_8_KILLS,0,0,2,2,2,2,2,2,3,4,5,7,10,10,10,12,13,13,13,14,16,17,18
participant_8_BUY,[],"[1036, 1006, 3340]",[1036],[],[],"[3074, 1001]",[],[],[3142],[],[],"[3147, 3111]",[],"[3105, 1053]",[],"[3812, 3134]",[],[],[3814],[],[],[],[2140]
participant_8_SOLD,[],[],[],[],[],"[1036, 1006, 1036]",[],[],[],[],[],[1001],[],[],[],"[3105, 1053]",[],[],[3134],[],[],[],[2140]
participant_8_UNDO,[],[],[],[],[],[],[],[],[],[],[],[],[],[],[],[],[],[],[],[],[],[],[]
participant_9_GOLD,500,568,704,1203,1882,2350,2816,3266,3839,4516,4882,5691,6314,6843,7233,8604,9099,10005,10595,11355,11930,12662,13064
participant_9_CURRENTGOLD,500,83,219,718,1397,580,616,1066,154,831,282,291,264,793,383,1754,999,655,145,905,230,962,264
participant_9_LEVEL,1,1,1,2,3,4,5,5,6,7,7,8,10,10,10,13,14,15,15,17,17,17,17
participant_9_MINIONSKILLED,0,0,0,1,3,3,7,7,10,15,15,21,26,26,26,28,28,42,44,48,53,56,56
participant_9_KILLS,0,0,0,0,1,1,1,1,1,2,3,3,3,3,3,4,5,5,5,6,6,6,6
participant_9_BUY,[],[1052],[],[1052],[3802],[1026],"[3285, 1001]",[],[],[3020],"[1058, 1058]",[],[],"[3089, 1052]",[],[1026],[3135],[],[3916],[],[3165],[],[3136]
participant_9_SOLD,[],[],[],[],"[1052, 1052]",[],"[3802, 1026]",[],[],[1001],[],[],[],"[1058, 1058]",[],[],"[1026, 1052]",[],[],[],[3916],[],[]
participant_9_UNDO,[],[],[],[],[],[],[],[],[],[],[],[],[],[],[],[],[],[],[],[],[],[],[]
team0_KILLS,0,1,4,6,11,11,16,21,27,28,31,33,35,39,45,46,52,52,55,56,57,60,64
team0_CURRENTGOLD,2500,457,1342,4085,7269,7993,6820,9104,5315,3936,7239,1961,3477,5592,11530,2119,5644,6611,5359,6789,3630,6620,10947
team0_TOTALGOLD,2500,2892,4477,8520,13594,16593,23165,28299,33040,37161,42199,45586,48602,54387,60325,63499,68759,73131,77764,80794,83125,86615,92232
team0_LEVEL,5,5,6,13,19,22,29,32,38,40,44,46,49,56,64,65,73,79,84,85,86,89,95
team0_SBIRES,0,0,10,36,63,93,126,151,181,219,259,276,282,324,342,352,370,388,407,421,424,434,459
team1_KILLS,0,3,6,6,8,9,10,10,12,14,16,19,24,25,25,31,35,35,37,41,44,45,46
team1_CURRENTGOLD,2500,1342,1435,3599,4704,3556,2266,4545,2687,5403,4437,2912,5631,2314,3684,6518,7062,5632,2248,7753,5986,7347,6039
team1_TOTALGOLD,2500,3747,5340,8374,12089,16026,19416,22530,26722,31238,35357,39512,44631,47449,49619,56003,60262,63602,67038,72543,76526,79987,82839
team1_LEVEL,5,5,6,12,18,22,27,28,32,37,39,46,52,55,56,66,70,74,77,84,89,90,91
team1_SBIRES,0,0,6,36,58,79,107,125,145,165,185,214,233,245,253,291,295,341,362,388,412,425,433
delta_KILLS,0,-2,-2,0,3,2,6,11,15,14,15,14,11,14,20,15,17,17,18,15,13,15,18
delta_CURRENTGOLD,0,-885,-93,486,2565,4437,4554,4559,2628,-1467,2802,-951,-2154,3278,7846,-4399,-1418,979,3111,-964,-2356,-727,4908
delta_TOTALGOLD,0,-855,-863,146,1505,567,3749,5769,6318,5923,6842,6074,3971,6938,10706,7496,8497,9529,10726,8251,6599,6628,9393
delta_LEVEL,0,0,0,1,1,0,2,4,6,3,5,0,-3,1,8,-1,3,5,7,1,-3,-1,4
delta_SBIRES,0,0,4,0,5,14,19,26,36,54,74,62,49,79,89,61,75,47,45,33,12,9,26
