name,team0,team1
win,Win,Fail
firstBlood,True,False
firstTower,False,True
firstInhibitor,True,False
firstBaron,True,False
firstDragon,True,False
firstRiftHerald,True,False
towerKills,11,1
inhibitorKills,3,0
baronKills,1,0
dragonKills,5,0
riftHeraldKills,1,0
