name,frame_0,frame_1,frame_2,frame_3,frame_4,frame_5,frame_6,frame_7,frame_8,frame_9,frame_10,frame_11,frame_12,frame_13,frame_14,frame_15,frame_16,frame_17,frame_18,frame_19,frame_20,frame_21,frame_22,frame_23,frame_24,frame_25,frame_26,frame_27,frame_28,frame_29,frame_30,frame_31,frame_32,frame_33,frame_34
nameStamp,Tstart,Tearly,Tearly,Tearly,Tearly,Tearly,Tearly,Tearly,Tearly,Tearly,Tearly,Tearly,Tearly,Tearly,Tearly,Tearly,Tearly,Tmid,Tmid,Tmid,Tmid,Tmid,Tmid,Tmid,Tmid,Tmid,Tmid,Tmid,Tmid,Tend,Tend,Tend,Tend,Tend,Tend
timestamp,0,60030,120060,180063,240078,300079,360093,420119,480142,540174,600194,660222,720244,780273,840293,900325,960344,1020364,1080389,1140411,1200434,1260439,1320462,1380468,1440498,1500526,1560546,1620570,1680588,1740612,1800638,1860640,1920669,1980673,2040673
participant_0_GOLD,500,500,563,762,955,1091,1333,2179,2468,2724,2951,3130,3329,3479,3770,4137,4415,4635,5086,5230,5735,5858,6162,6868,7347,7801,8060,8441,8863,9703,9964,10497,10620,10757,11253
participant_0_CURRENTGOLD,500,0,63,262,455,591,133,979,1268,1524,251,430,629,79,370,737,140,360,811,180,685,158,462,368,447,501,760,408,130,970,831,1365,687,824,1320
participant_0_LEVEL,1,1,1,3,4,4,5,6,6,7,7,8,9,9,9,10,10,10,11,11,12,12,12,13,13,14,14,14,15,15,16,16,16,16,17
participant_0_MINIONSKILLED,0,0,2,6,10,11,15,20,26,34,40,43,47,49,53,63,69,75,87,88,102,102,102,111,122,132,132,138,138,142,146,162,162,163,176
participant_0_KILLS,0,0,0,0,0,0,0,1,1,1,1,1,1,1,1,1,1,1,1,1,1,1,1,2,2,2,2,2,2,4,4,4,4,4,4
participant_0_BUY,[],[2033],[],[],[],[],[3057],[],[],[],"[1053, 1042, 1001]",[],[],[1043],[],[],"[1037, 3111, 1037]",[],[],"[3153, 1033]",[],"[3111, 1042]",[],[3051],[1028],[3067],[],[3078],"[1036, 1036]",[],"[1053, 1053, 3133]",[],"[3077, 3067]",[],[]
participant_0_SOLD,[],[],[],[2010],[],[2010],[],[],[],[2010],[],[],[],[1042],[],[],[1001],[],[],"[1053, 1043, 1037]",[],"[1001, 1033]",[],[1042],[],[1028],[],"[3057, 3051, 3067]",[],[],"[1036, 1036, 1036, 1036]",[],[],[],[]
participant_0_UNDO,[],[],[],[],[],[],[],[],[],[],[],[],[],[],[],[],"[[0, 1037], [0, 3111]]",[],[],[],[],[],[],[],[],[],[],[],[],[],"[[0, 1053], [0, 1053]]",[],"[[0, 3077]]",[],[]
participant_1_GOLD,500,500,621,843,1185,1430,1713,2054,2427,2575,2782,3110,3232,3439,3909,5231,5404,5611,5894,6126,6348,6951,7073,7195,7318,7440,7892,9014,9457,9601,9888,10010,10238,10391,10511
participant_1_CURRENTGOLD,500,0,121,343,685,930,1213,304,677,825,332,660,82,214,684,106,204,261,544,776,598,101,223,345,118,240,692,1814,2257,111,398,521,348,501,211
participant_1_LEVEL,1,1,2,2,3,3,4,5,5,5,6,6,6,7,8,9,9,9,9,9,9,10,10,10,10,10,10,11,11,12,12,12,12,13,13
participant_1_MINIONSKILLED,0,0,0,0,0,0,0,0,0,0,0,0,0,0,0,0,0,0,0,0,0,0,0,0,0,0,2,2,3,4,8,8,8,8,8
participant_1_KILLS,0,0,0,0,0,0,0,0,0,0,0,0,0,0,0,0,0,0,0,0,0,0,0,0,0,1,1,1,1,2,2,2,2,2,2
participant_1_BUY,[],"[3850, 2003, 2003]",[],[],[],[],[],"[3009, 2055]",[],[],[1052],[],[],"[3364, 3802, 1026, 1027]",[],[1052],[3802],[],[],[],[],[],"[6655, 1033]",[],[1052],[],"[4632, 1052]",[],[3102],"[3802, 3108]",[],[],[6653],[],[]
participant_1_SOLD,[],[],[],[],[2003],[],[2003],[],[2055],[],[3850],[],[],"[3340, 1052]",[],[],"[1052, 1027, 1052]",[],[3851],[],[],[],"[3802, 1026]",[],[],[],"[1033, 1052]",[],"[1052, 4632]",[6655],[],[],"[3802, 3108]",[],[]
participant_1_UNDO,[],[],[],[],[],[],[],[],[],[],[],[],[],"[[0, 3802]]",[],[],[],[],[],[],[],[],[],[],[],[],[],[],[],[],[],[],[],[],[]
participant_2_GOLD,500,500,584,871,1113,1483,2042,2311,2670,3047,3232,3598,3966,4267,4841,5615,6072,6424,6849,7244,7415,8443,8715,8912,9035,9157,9547,9865,10730,11112,11745,11951,12247,12630,12750
participant_2_CURRENTGOLD,500,0,84,361,73,358,907,391,740,1107,402,758,1116,517,1081,1855,312,664,1089,1484,755,1783,15,212,335,57,448,765,1130,823,1455,1662,708,1090,1050
participant_2_LEVEL,1,1,1,3,4,5,6,6,7,8,8,9,9,10,10,11,11,12,12,12,13,13,13,13,13,13,14,14,15,16,16,16,16,17,17
participant_2_MINIONSKILLED,0,0,4,11,18,30,43,51,62,73,77,88,99,113,126,136,141,151,156,167,170,176,176,176,176,176,178,185,201,203,215,220,226,232,232
participant_2_KILLS,0,0,0,0,0,0,0,0,0,0,0,0,0,0,0,3,3,3,3,3,3,4,4,4,4,4,5,6,6,6,6,6,6,6,6
participant_2_BUY,[],"[1035, 2003, 2003, 2031]",[],[],[],[],[],"[3134, 2055, 2055]",[],[],"[1036, 1036]",[],"[3133, 1029]",[2055],[],"[6693, 3047, 1028]",[2055],"[2055, 2055]",[],[],[3067],[3133],[],[],[1036],[],[],[],[],"[6333, 1036]",[],[],[3133],[],[1036]
participant_2_SOLD,[],[],[],[],[],[],[],[],[2055],[1035],[],[2055],"[1036, 1036]",[],[],"[3134, 3133, 1029, 2422]","[2055, 2055]",[],[],[2055],[1028],[],[],[2055],[],[],[],[],[],"[3133, 2031]",[],[],"[1036, 1036]",[],[]
participant_2_UNDO,[],"[[0, 2003], [0, 2003]]",[],[],[],[],[],[],[],[],[],[],[],[],[],[],[],[],[],[],[],[],[],[],[],[],[],[],[],[],[],[],[],[],[]
participant_3_GOLD,500,500,584,941,1204,1557,1722,1991,2301,2655,3097,3505,4052,4642,5049,5684,5857,6153,6458,6581,6738,6861,8493,8615,8948,9255,9833,10067,10831,11340,11491,11613,12190,12386,12506
participant_3_CURRENTGOLD,500,0,84,441,704,1057,47,316,626,980,72,480,1027,67,474,309,132,278,233,356,513,236,148,270,303,610,99,32,796,431,581,314,891,461,-369
participant_3_LEVEL,1,1,1,2,3,4,4,5,5,6,6,7,7,8,8,9,9,10,10,10,10,10,11,11,11,11,12,12,13,13,14,14,14,14,14
participant_3_MINIONSKILLED,0,0,3,14,22,34,36,44,52,65,65,79,85,90,103,109,109,115,122,122,124,124,124,124,127,128,130,132,144,153,155,155,165,170,170
participant_3_KILLS,0,0,0,0,0,0,0,0,0,0,1,1,2,3,3,3,3,3,3,3,3,3,6,6,6,6,7,7,7,7,7,7,7,7,7
participant_3_BUY,[],"[1055, 3340, 2003]",[],[],[],[],"[1036, 1042, 1001, 2055, 2003, 2003, 2003]",[],[],[],"[6670, 1018, 2003, 2003]",[],[],"[6672, 2003]",[],[3006],[1036],"[2003, 2003, 2003]",[1036],[],[],[3134],"[1037, 6676]",[],[1042],[],[1038],[1042],[],[1037],[],[1018],[],[3031],[1036]
participant_3_SOLD,[],[],[],[],"[2003, 2010]",[2010],[],[2055],[2010],[],"[2003, 2003, 1036, 1042]",[2003],[2003],"[6670, 1018]",[2003],"[2003, 1001]",[],[2003],[2003],[],[2003],"[1036, 1036]","[1055, 3134]",[],[],[],[1042],[],[],[],[],[1042],[],"[1038, 1037, 1018]",[]
participant_3_UNDO,[],[],[],[],[],[],[],[],[],[],[],[],[],[],[],[],[],[],[],[],[],[],"[[0, 1037]]",[],[],[],[],[],[],[],[],[],[],[],[]
participant_4_GOLD,500,500,523,737,952,1186,1335,1598,1832,1967,2316,2516,2907,3218,3478,3694,4194,4394,4644,4848,5018,5504,5719,5934,6075,6592,6734,7117,7558,8069,8209,8350,8490,8675,8814
participant_4_CURRENTGOLD,500,0,23,237,452,686,835,123,357,492,406,606,997,108,368,149,569,769,1020,1223,1393,1879,394,610,315,832,224,607,183,874,1015,1155,95,281,-1961
participant_4_LEVEL,1,1,1,2,3,4,4,5,5,6,6,6,7,7,7,8,8,8,8,8,8,10,10,10,10,10,11,11,12,12,13,13,13,13,14
participant_4_MINIONSKILLED,0,0,0,0,0,0,1,6,6,6,6,6,7,7,9,9,10,12,12,16,17,19,19,19,19,24,24,29,29,30,30,30,30,31,31
participant_4_KILLS,0,0,0,0,0,0,0,0,0,0,0,0,0,0,0,1,1,1,1,1,1,2,2,2,2,2,2,2,2,2,2,2,2,2,2
participant_4_BUY,[],"[1056, 2003, 2003, 3340]",[],[],"[1056, 2031]",[2055],[],"[1027, 1052]",[],[],"[3802, 1001, 2055]",[],[],[3108],[],[],"[6653, 3020]",[],[],[],[1011],[],[4637],[],[],[1028],[],[],[1011],[1026],[],[],[3116],[],[]
participant_4_SOLD,[],[],[],[2003],[2003],[2055],[],[],[],[],"[1052, 1027]",[2055],[],[],[],[],"[3802, 3108, 1001]",[],[],[],[],[],"[2031, 1011]",[],[],[],[],[],[1028],[1056],[],[],"[1026, 1011]",[],[]
participant_4_UNDO,[],[],[],[],[],[],[],[],[],[],[],[],[],[],[],[],[],[],[],[],[],[],[],[],[],[],[],[],[],[],[],[],[],[],[]
participant_5_GOLD,500,500,563,776,983,1336,1873,2145,2456,3102,3482,3813,4181,4805,5061,5232,5720,6576,6755,7344,7480,7639,8062,8459,8696,8869,9192,9509,9631,10159,10310,10621,10893,11015,11603
participant_5_CURRENTGOLD,500,0,63,276,483,836,1373,145,456,1102,82,413,781,155,411,582,1070,1926,355,944,1080,1239,762,1159,196,369,692,1009,232,759,911,521,394,516,1103
participant_5_LEVEL,1,1,1,2,4,5,6,6,7,8,8,9,10,10,11,11,12,12,12,13,13,13,14,14,14,14,15,15,15,15,15,16,16,16,16
participant_5_MINIONSKILLED,0,0,2,7,12,22,23,23,34,38,44,52,63,65,73,76,82,87,91,105,106,106,106,106,107,107,115,122,122,129,130,133,133,133,135
participant_5_KILLS,0,0,0,0,0,0,0,0,0,0,0,0,0,0,0,0,0,0,1,2,2,2,3,3,3,3,4,4,4,4,4,7,7,7,7
participant_5_BUY,[],"[3850, 2003, 2003, 3340]",[],[],[],[],[],"[1027, 1001, 2003]",[],[],"[1052, 2055]",[],[3802],"[2055, 2003]",[],"[3020, 3364]",[],[],[1026],[2055],[],"[6655, 2055]",[1033],[],[4632],[],[],[3102],[],[1052],[3108],[],[3157],[],[]
participant_5_SOLD,[],[],[],[2003],[],[2003],[],[],[2003],[],[],[2055],"[1052, 1027]",[2419],"[2055, 3850]","[2003, 1001, 3340]",[],[],[],[2055],[],"[3851, 3802, 1026]",[],[],[1033],[],[],[4632],[],[2055],[1052],[],"[3108, 2423]",[],[]
participant_5_UNDO,[],[],[],[],[],[],[],[],[],[],[],[],[],[],[],[],[],[],[],[],[],[],[],[],[],[],[],[],[],[],[],[],[],[],[]
participant_6_GOLD,500,500,621,1018,1141,1460,1738,2285,2677,3041,3673,3911,4333,4864,5233,5376,6033,6490,6790,7302,7683,8233,8995,9216,9756,10482,11609,11866,12293,13300,13623,13874,14311,14469,15184
participant_6_CURRENTGOLD,500,0,121,518,641,960,1238,185,577,941,1573,611,1033,1564,1933,101,758,90,390,902,1283,1833,2595,76,616,1342,2469,477,903,1911,533,784,1222,1379,2034
participant_6_LEVEL,1,1,2,3,3,4,4,5,5,6,7,7,7,8,9,9,9,10,10,10,11,11,12,12,13,13,14,14,15,15,16,16,16,16,17
participant_6_MINIONSKILLED,0,0,0,0,0,0,0,0,0,2,2,3,3,5,8,8,8,8,8,8,8,10,10,10,10,13,14,14,17,17,17,19,26,26,27
participant_6_KILLS,0,0,0,0,0,0,0,1,1,1,2,2,3,3,3,3,4,4,4,5,5,6,7,7,7,8,10,10,10,12,12,12,12,12,13
participant_6_BUY,[],"[1039, 2031, 3340]",[],[],[],[],[],"[6660, 1001, 1029]",[],[],[],[3105],[],[],[],"[3068, 3047, 1028, 2055, 3364]",[],"[3067, 3801, 2055]",[],[],[],[],[],"[3083, 3067, 1033]",[],[],[],"[3065, 1033, 2055, 2055]",[],[],"[2055, 2055, 3105, 2139]",[],[],[],[]
participant_6_SOLD,[],[],[],[],[],[],[],[],[],[],[],[1029],[],"[3340, 3513]",[],"[6660, 3105, 1001, 3340]","[2055, 1039]",[1028],[2055],[],[],[],[],"[3067, 3801, 2031]",[],[],[],"[1033, 3067]","[2055, 2055]",[],"[1033, 2139]",[],[2055],[],[]
participant_6_UNDO,[],[],[],[],[],[],[],[],[],[],[],[],[],[],[],[],[],[],[],[],[],[],[],[],[],[],[],[],[],[],[],[],[],[],[]
participant_7_GOLD,500,500,577,929,1161,1502,1674,1933,2181,2515,2862,3251,3443,3767,3959,4186,5153,5847,6103,6573,6779,7169,7292,7714,7997,8583,8806,8942,9620,9748,10093,10335,10457,10600,11477
participant_7_CURRENTGOLD,500,0,77,419,651,982,69,328,576,900,732,1111,1303,777,169,396,1363,2057,193,663,869,1259,1202,1624,817,403,626,763,1440,318,664,905,78,221,977
participant_7_LEVEL,1,1,1,3,4,5,5,6,7,8,8,8,9,9,9,9,10,10,10,11,11,12,12,12,12,13,13,13,14,14,14,14,14,15,15
participant_7_MINIONSKILLED,0,0,3,14,20,30,33,41,49,58,58,70,74,77,81,82,82,91,91,97,102,109,109,109,114,114,114,115,123,123,132,134,134,135,143
participant_7_KILLS,0,0,0,0,0,0,0,0,0,0,0,0,0,0,0,0,2,2,2,2,2,2,2,3,3,4,4,4,5,5,5,5,5,5,6
participant_7_BUY,[],"[1056, 2003, 2003]",[],[],[],[],"[1027, 1052, 1001]",[],[],[],[3802],[],[],[1026],[3020],[],[],[],"[6655, 1052, 1052]",[],[],[],[3145],[],[1058],"[4628, 1029]",[],[],[],"[2420, 3191]",[],[],[3157],[],[]
participant_7_SOLD,[],[],[],[],[2003],[2003],[],[],[],[],"[1052, 1027]",[],[],[],[1001],[],[],[],"[3802, 1026]",[],[],[],"[1052, 1052]",[],[1056],"[1058, 3145]",[],[],[],[1029],[],[2420],"[3191, 2421]",[],[]
participant_7_UNDO,[],[],[],[],[],[],[],[],[],[],[],[],[],[],[],[],[],[],[],[],[],[],[],[],[],[],[],[],[],[],[],[],[],[],[]
participant_8_GOLD,500,500,542,776,1095,1315,1714,1836,2188,2542,2964,3285,3568,3690,4267,5566,5937,6438,7263,7790,8227,8834,9256,10215,11202,11725,12571,12993,13200,13323,13791,14389,14947,15542,16365
participant_8_CURRENTGOLD,500,0,42,276,595,815,1214,286,638,992,114,435,718,540,1117,2416,787,1288,2113,740,1177,1784,406,1365,812,1336,2181,1183,191,313,782,1380,637,1233,1755
participant_8_LEVEL,1,1,1,2,3,3,4,4,5,6,6,7,7,7,8,9,9,10,11,11,11,11,12,12,13,13,14,14,14,14,15,15,15,16,16
participant_8_MINIONSKILLED,0,0,1,8,20,23,36,36,46,59,59,70,79,79,88,92,103,115,126,132,133,135,135,145,145,155,161,161,161,161,162,168,168,177,183
participant_8_KILLS,0,0,0,0,0,0,0,0,0,0,1,1,1,1,2,4,4,4,5,5,6,7,8,10,12,12,13,14,14,14,14,14,15,15,16
participant_8_BUY,[],"[1055, 2003, 3340]",[],[],[],[],[],"[1018, 1001, 2031]",[],[],[6670],[],[],[1042],[],[],"[6672, 3006]",[],[],"[1038, 1018, 3364, 3363]",[],[],"[3031, 1042]",[],"[3086, 2015]",[],[],"[3094, 3123]",[3086],[],[],[],"[3033, 1018]",[],[]
participant_8_SOLD,[],[],[],[2003],[],[],[],[],[],[],[],[],[],[],[],[],"[6670, 1018, 1001, 1042]",[],[],"[2031, 3340, 3364]",[],[],"[1038, 1018]",[],"[1042, 2031]",[],[],"[3086, 2015, 1055]",[],[],[],[],"[3123, 3086]",[],[]
participant_8_UNDO,[],[],[],[],[],[],[],[],[],[],[],[],[],[],[],[],[],[],[],"[[2031, 0]]",[],[],[],[],[],[],[],[],[],[],[],[],[],[],[]
participant_9_GOLD,500,500,523,677,913,1047,1202,1336,1550,1685,2002,2167,2361,2537,2983,3218,3758,4039,4698,5224,5493,5634,6074,6403,6830,7172,7891,8031,8336,8744,8914,10028,10188,10329,10798
participant_9_CURRENTGOLD,500,0,23,177,413,547,702,136,350,485,292,457,136,187,633,68,608,889,698,1149,1418,234,224,553,230,572,1291,131,437,439,144,1258,69,209,648
participant_9_LEVEL,1,1,1,2,3,3,4,4,5,6,6,7,7,7,8,8,9,9,10,10,10,10,10,11,11,11,12,12,12,13,13,13,13,13,14
participant_9_MINIONSKILLED,0,0,0,0,1,1,1,1,1,1,3,3,3,5,10,10,10,12,13,13,13,13,13,17,17,19,20,20,21,24,24,29,31,31,34
participant_9_KILLS,0,0,0,0,0,0,1,1,1,2,2,2,2,3,3,3,4,5,5,5,5,5,6,6,6,6,6,6,6,7,7,7,7,7,8
participant_9_BUY,[],[2033],[],[],[],[],[],"[1031, 1028, 1001]",[],[],"[6660, 1029, 3047]",[],[],"[1033, 3067]",[],[],[],[],"[6662, 3066]",[],[],[],[1057],[],[4401],[],[],[],[3024],[],[],[3050],[1028],[],[]
participant_9_SOLD,[],[],[],[],[],[],[],[],[],[],"[1028, 1001, 1029]",[],[],[],[],[],[],[],"[6660, 1033, 1031]",[],[],[],[],[],"[1057, 3066]",[],[],[],[],[],[],"[3067, 3024]",[],[],[]
participant_9_UNDO,[],[],[],[],[],[],[],[],[],[],[],[],[],[],[],[],[],[],[],[],[],[],[],[],[],[],[],[],[],[],[],[],[],[],[]
team0_KILLS,0,0,0,0,0,0,0,1,1,1,2,2,3,4,4,8,8,8,8,8,8,10,13,14,14,15,17,18,18,21,21,21,21,21,21
team0_CURRENTGOLD,2500,0,375,1644,2369,3622,3135,2113,3668,4928,1463,2934,3851,985,2977,3156,1357,2332,3697,4019,3944,4157,1242,1805,1518,2240,2223,3626,4496,3209,4280,5017,2729,3157,251
team0_TOTALGOLD,2500,2500,2875,4154,5409,6747,8145,10133,11698,12968,14378,15859,17486,19045,21047,24361,25942,27217,28931,30029,31254,33617,36162,37524,38723,40245,42066,44504,47439,49825,51297,52421,53785,54839,55834
team0_LEVEL,5,5,6,12,17,20,23,27,28,32,33,36,38,41,42,47,47,49,50,50,52,55,56,57,57,58,61,62,66,68,71,71,71,73,75
team0_SBIRES,0,0,9,31,50,75,95,121,146,178,188,216,238,259,291,317,329,353,377,393,413,421,421,430,444,460,466,486,515,532,554,575,591,604,617
team1_KILLS,0,0,0,0,0,0,1,2,2,3,5,5,6,7,8,10,14,15,17,19,20,22,26,29,31,33,37,38,39,42,42,45,46,46,50
team1_CURRENTGOLD,2500,0,326,1666,2783,4140,4596,1080,2597,4420,2793,3027,3971,3223,4263,3563,4586,6250,3749,4398,5827,6349,5189,4777,2671,4022,7259,3563,3203,3740,3034,4848,2400,3558,6517
team1_TOTALGOLD,2500,2500,2826,4176,5293,6660,8201,9535,11052,12885,14983,16427,17886,19663,21503,23578,26601,29390,31609,34233,35662,37509,39679,42007,44481,46831,50069,51341,53080,55274,56731,59247,60796,61955,65427
team1_LEVEL,5,5,6,12,17,20,23,25,29,34,35,38,40,41,45,46,49,51,53,55,56,57,60,61,63,64,68,68,70,71,73,74,74,76,78
team1_SBIRES,0,0,6,29,53,76,93,101,130,158,166,198,222,231,260,268,285,313,329,355,362,373,373,387,393,408,424,432,444,454,465,483,492,502,522
delta_KILLS,0,0,0,0,0,0,-1,-1,-1,-2,-3,-3,-3,-3,-4,-2,-6,-7,-9,-11,-12,-12,-13,-15,-17,-18,-20,-20,-21,-21,-21,-24,-25,-25,-29
delta_CURRENTGOLD,0,0,49,-22,-414,-518,-1461,1033,1071,508,-1330,-93,-120,-2238,-1286,-407,-3229,-3918,-52,-379,-1883,-2192,-3947,-2972,-1153,-1782,-5036,63,1293,-531,1246,169,329,-401,-6266
delta_TOTALGOLD,0,0,49,-22,116,87,-56,598,646,83,-605,-568,-400,-618,-456,783,-659,-2173,-2678,-4204,-4408,-3892,-3517,-4483,-5758,-6586,-8003,-6837,-5641,-5449,-5434,-6826,-7011,-7116,-9593
delta_LEVEL,0,0,0,0,0,0,0,2,-1,-2,-2,-2,-2,0,-3,1,-2,-2,-3,-5,-4,-2,-4,-4,-6,-6,-7,-6,-4,-3,-2,-3,-3,-3,-3
delta_SBIRES,0,0,3,2,-3,-1,2,20,16,20,22,18,16,28,31,49,44,40,48,38,51,48,48,43,51,52,42,54,71,78,89,92,99,102,95
