name,frame_0,frame_1,frame_2,frame_3,frame_4,frame_5,frame_6,frame_7,frame_8,frame_9,frame_10,frame_11,frame_12,frame_13,frame_14,frame_15,frame_16,frame_17,frame_18,frame_19,frame_20,frame_21,frame_22,frame_23,frame_24,frame_25,frame_26,frame_27,frame_28,frame_29,frame_30,frame_31,frame_32,frame_33,frame_34,frame_35,frame_36,frame_37,frame_38,frame_39,frame_40,frame_41
nameStamp,Tstart,Tearly,Tearly,Tearly,Tearly,Tearly,Tearly,Tearly,Tearly,Tearly,Tearly,Tearly,Tearly,Tearly,Tearly,Tearly,Tearly,Tmid,Tmid,Tmid,Tmid,Tmid,Tmid,Tmid,Tmid,Tmid,Tmid,Tmid,Tmid,Tmid,Tmid,Tmid,Tmid,Tend,Tend,Tend,Tend,Tend,Tend,Tend,Tend,Tend
timestamp,0,60004,120035,180064,240078,300086,360095,420096,480107,540132,600164,660188,720189,780199,840222,900228,960258,1020287,1080296,1140324,1200329,1260358,1320391,1380422,1440448,1500452,1560477,1620478,1680479,1740502,1800529,1860547,1920575,1980589,2040612,2100619,2160647,2220676,2280680,2340713,2400720,2460720
participant_0_GOLD,500,500,538,798,1178,1552,1751,1928,2185,2421,2949,3153,3399,3642,3894,4041,4307,4542,4712,4959,5266,5451,5767,5942,6434,6588,6859,7123,7285,7659,8162,8304,8692,9507,9798,10063,10379,10611,11271,11412,11677,11929
participant_0_CURRENTGOLD,500,100,138,398,778,1152,1351,178,435,671,1199,53,299,542,794,941,1207,142,312,559,866,501,817,992,384,539,809,1073,1235,1609,2113,254,642,1458,1748,264,579,811,322,462,728,979
participant_0_LEVEL,1,1,1,2,3,4,4,4,5,6,6,6,7,7,8,8,9,9,9,9,10,10,10,11,11,11,12,12,12,12,13,13,14,14,14,14,15,15,15,15,16,16
participant_0_MINIONSKILLED,0,0,0,1,1,1,4,6,10,14,14,18,24,27,36,37,44,51,51,56,57,57,57,59,63,64,71,74,75,80,85,85,91,91,91,91,94,97,101,101,101,101
participant_0_KILLS,0,0,0,0,0,0,0,0,0,0,0,0,0,0,0,0,0,0,0,0,0,0,0,0,0,0,0,0,0,0,1,1,1,2,2,2,2,2,3,3,3,3
participant_0_BUY,[],"[3850, 3340]",[],[],[],[],[],"[1001, 3114, 1004, 1004]",[],[],[],"[3117, 2420]",[],[],[],[],[],[3107],[],[],[],[3114],[],[],[3191],[],[],[],[],[],[],"[3157, 3113]",[],[],[],"[3504, 3105]",[3382],[],[3050],[],[],[]
participant_0_SOLD,[],[],[],[],[],[],[],[],[],[],[3850],[1001],[],[],[],[],[],[3114],[],[],[],"[3851, 1004, 1004]",[],[],[],[],[],[],[],[],[],"[3191, 2420]",[],[],[],"[3114, 3113]",[3107],[],[3105],[],[],[]
participant_0_UNDO,[],[],[],[],[],[],[],[],[],[],[],[],[],[],[],[],[],[],[],[],[],[],[],[],[],[],[],[],[],[],[],[],[],[],[],[],[],[],[],[],[],[]
participant_1_GOLD,500,500,521,713,1428,2024,2189,2544,2903,3026,3916,4269,4412,4606,4729,4851,5767,7089,7288,7630,7852,8024,8565,8757,9810,10381,10587,11180,11419,11591,12405,12628,12850,13586,13872,14734,14856,15213,15436,16412,16974,17632
participant_1_CURRENTGOLD,500,0,21,213,928,1524,139,494,853,76,966,44,187,381,504,126,1042,2364,163,505,727,299,840,1032,2085,2656,263,55,294,467,1280,1504,426,1161,1448,1009,332,689,912,1888,2450,3107
participant_1_LEVEL,1,1,1,2,3,4,4,5,5,6,6,6,7,7,7,7,8,9,9,9,10,10,10,10,11,12,12,12,12,13,13,13,13,14,14,15,15,15,15,16,17,17
participant_1_MINIONSKILLED,0,0,0,4,12,18,20,24,34,34,39,43,44,47,47,47,47,48,48,55,55,58,69,73,81,91,96,96,99,99,110,110,110,119,120,133,133,133,133,138,147,151
participant_1_KILLS,0,0,0,0,1,2,2,2,2,2,4,4,4,4,4,4,6,9,9,9,9,9,9,9,11,11,11,12,12,12,13,13,13,14,14,14,14,14,14,15,15,16
participant_1_BUY,[],"[1036, 2003, 2003, 2003, 3340]",[],[],[],[],"[3144, 1001]",[],[],"[1042, 1042, 1042]",[],"[3153, 2055, 2003, 2003]",[],[],[],[3006],[],[],"[3086, 1042, 1042, 1028]",[],[],[3085],[],[],[3389],[],[3071],[1018],[],[],[],[],[1038],[],[],[3031],"[1036, 3123]",[],[],[],[],[]
participant_1_SOLD,[],[],[],[2003],"[2003, 2003]",[],[1036],[],[],[],[],"[3144, 1042, 1042]",[],[2055],[],"[1001, 1042]",[2003],[2003],[],[3340],[],"[1042, 3086, 1042]",[3513],[],[3153],[],[1028],[],[],[],[],[],[],[],[],"[1038, 1018]",[1036],[],[],[],[],[]
participant_1_UNDO,[],[],[],[],[],[],[],[],[],[],[],[],[],[],[],[],[],[],[],[],[],[],[],[],[],[],[],[],[],[],[],[],[],[],[],[],[],[],[],[],[],[]
participant_2_GOLD,500,500,577,871,1036,1333,1561,1872,2141,2420,2626,3403,3602,3780,4015,4347,5332,5607,5834,6013,6431,6554,6921,7071,7442,7565,7819,7941,8342,8704,8977,9100,9264,9437,9709,9881,10143,10357,10479,10677,11149,11476
participant_2_CURRENTGOLD,500,0,77,371,536,833,1061,1372,1641,270,476,1253,2,180,415,747,1732,522,749,78,496,219,586,736,1107,315,569,256,657,1019,227,350,514,687,959,1132,1393,7,130,327,800,1126
participant_2_LEVEL,1,1,1,3,4,5,6,7,7,8,8,9,9,9,10,11,11,11,12,12,12,12,13,13,13,13,13,13,14,14,14,14,14,15,15,15,15,15,15,15,16,16
participant_2_MINIONSKILLED,0,0,3,10,13,20,26,37,45,51,56,64,68,72,78,86,97,102,108,112,117,117,124,126,128,128,132,132,140,141,141,141,143,143,143,143,147,149,149,149,149,151
participant_2_KILLS,0,0,0,0,0,0,0,0,0,0,0,1,1,1,1,1,1,1,1,1,1,1,1,1,1,1,1,1,1,1,1,1,1,1,1,1,1,1,1,1,2,2
participant_2_BUY,[],"[1056, 2003, 2003, 3340]",[],[],[],[],[],[],[],"[3802, 1001, 2003]",[],[],"[3158, 1026, 3158]",[],[],[],[],"[3285, 1052]",[],[1026],[],[1028],[],[],[],[3116],[],[1052],[3390],[],[3136],[],[],[],[],[],[],[3151],[],[],[],[]
participant_2_SOLD,[],[],[],[],[],[],[],[2003],[2003],[],[],[],"[1001, 1001]",[],[],[],[],"[3802, 1026]",[],[2003],[],[],[],[],[],"[1026, 1052, 1028]",[],[],[3285],[],[1052],[],[],[],[],[],[],[3136],[],[],[],[]
participant_2_UNDO,[],[],[],[],[],[],[],[],[],[],[],[],"[[0, 3158]]",[],[],[],[],[],[],[],[],[],[],[],[],[],[],[],[],[],[],[],[],[],[],[],[],[],[],[],[],[]
participant_3_GOLD,500,500,621,948,1156,1459,1613,2035,2334,2515,2637,2915,3257,3379,3527,3870,4177,4599,4926,5070,5619,6138,6311,6723,7118,7240,7580,7795,8034,8772,9184,9308,9820,10276,10916,11305,11467,11640,12287,12409,12932,13489
participant_3_CURRENTGOLD,500,0,121,448,656,959,1113,410,709,890,112,390,732,204,352,695,1002,24,351,495,1044,1563,186,598,993,42,382,147,386,1124,1536,110,622,278,918,1307,270,442,1089,612,1134,1631
participant_3_LEVEL,1,1,2,3,3,4,4,4,5,5,5,5,6,6,6,7,7,8,9,9,10,11,11,11,12,12,12,12,13,13,14,14,14,15,15,16,16,16,17,17,17,17
participant_3_MINIONSKILLED,0,0,0,0,0,0,0,0,0,0,0,0,0,0,0,2,2,2,2,3,6,6,6,6,6,6,6,6,8,19,24,24,25,33,52,57,57,57,57,57,57,58
participant_3_KILLS,0,0,0,0,0,0,0,1,1,1,1,1,1,1,1,1,1,1,1,1,2,2,2,2,2,2,2,2,2,3,3,3,4,4,4,4,4,4,5,5,6,7
participant_3_BUY,[],"[1041, 2031, 3340]",[],[],[],[],[],"[3057, 2055]",[],[],[3751],[],[],[3706],[],[],[],"[1401, 3047]",[],[],[],[],"[3044, 1042]",[],[],[3078],[],[1033],[],[],[3384],"[3211, 3067]",[],[3065],[],[],"[1031, 1028]",[],[],[1011],[],[]
participant_3_SOLD,[],[],[],[],[],[],[],[],[],[],[],[],[],[1041],[],[],[],"[3751, 3706, 2422]",[],[],[2055],[],[],[],[],"[2031, 1042, 3057, 3044]",[],[],[],[],[3078],[1033],[],"[3211, 3067]",[],[],[],[],[],[1028],[],[]
participant_3_UNDO,[],[],[],[],[],[],[],[],[],[],[],[],[],[],[],[],[],[],[],[],[],[],[],[],[],[],[],[],[],[],[],[],[],[],[],[],[],[],[],[],[],[]
participant_4_GOLD,500,500,598,881,1074,1455,1704,1910,2151,2379,2769,3100,3447,3688,4074,4413,4757,5026,5274,5397,5917,6689,6861,7096,7520,7705,8008,8131,8999,9560,9682,9805,9956,10505,11004,12374,12651,12823,14084,14282,14982,15199
participant_4_CURRENTGOLD,500,0,98,381,274,655,404,210,451,179,569,900,1247,88,474,813,407,226,474,327,847,1619,311,546,70,255,558,331,1199,310,432,155,306,856,1354,2725,501,404,1665,1212,1913,1949
participant_4_LEVEL,1,1,1,3,4,5,6,6,7,8,8,9,10,10,11,11,11,12,12,12,13,13,13,14,14,14,15,15,15,15,16,16,16,16,17,18,18,18,18,18,18,18
participant_4_MINIONSKILLED,0,0,4,13,17,29,36,40,47,53,65,74,84,91,102,111,117,125,133,133,135,137,137,144,147,151,158,158,166,169,169,169,171,176,186,193,202,202,202,202,209,209
participant_4_KILLS,0,0,0,0,0,0,0,0,0,0,0,0,0,0,0,0,0,0,0,0,1,3,3,3,3,3,3,3,4,4,4,4,4,5,5,8,8,8,9,9,10,10
participant_4_BUY,[],"[1054, 2003, 3340]",[],[],[1029],[],[1031],[1028],[],[3751],[],[],[],"[3068, 1027]",[],[],[3010],[1033],[],[1057],[3373],[],"[3001, 3379, 1001]",[],[3024],[],[],[1027],[],[3025],[],[1028],[],[],[],[],[3075],[1033],[],[3105],[],[]
participant_4_SOLD,[],[],[],[2003],[],[],[1029],[],[],[1028],[],[],[],"[1031, 3751]",[],[],[1027],[],[],[1033],[3068],[],"[3010, 1057, 3001]",[],[],[],[],[],[],"[1027, 3024]",[],[],[],[],[],[],[1028],[1054],[],[1033],[],[]
participant_4_UNDO,[],[],[],[],[],[],[],[],[],[],[],[],[],[],[],[],[],[],[],[],[],[],[],[],[],[],[],[],[],[],[],[],[],[],[],[],[],[],[],[],[],[]
participant_5_GOLD,500,500,521,913,1136,1363,1571,1810,2135,2363,2635,2772,2964,3416,3699,4121,4376,4498,4620,4833,5035,5293,5943,6326,6644,7198,7406,7699,8075,8415,8538,8786,9230,9768,10148,10485,10811,11023,11299,11456,11653,11721
participant_5_CURRENTGOLD,500,0,21,413,636,213,421,660,985,213,485,222,414,866,1149,471,726,148,270,133,235,143,793,1176,1494,2048,2256,349,725,365,138,386,830,468,848,445,771,34,309,166,364,371
participant_5_LEVEL,1,1,1,2,3,3,4,4,5,5,5,5,6,6,7,7,7,7,7,8,8,8,9,10,10,11,11,12,12,13,13,13,14,14,15,15,15,16,16,16,16,16
participant_5_MINIONSKILLED,0,0,0,0,0,0,0,0,0,0,0,1,5,5,5,5,5,5,5,10,11,11,13,19,25,29,29,29,37,40,40,40,41,41,53,57,63,64,66,68,68,68
participant_5_KILLS,0,0,0,0,0,0,0,0,0,0,0,0,0,1,1,2,2,2,2,2,2,2,3,3,3,4,4,4,4,4,4,4,4,4,4,4,4,4,4,4,4,4
participant_5_BUY,[],"[1039, 3340, 2031]",[],[],[],[3706],[],[],[],"[1036, 1036, 1001]",[],[3133],[],[],[],[3134],[],"[3142, 3147, 3142]",[],[1036],[1033],[3111],[],[],[],[],[],"[3134, 3133]",[],[3147],[1036],[],[],[3044],[],[3067],[],[3071],[],[1029],[],[]
participant_5_SOLD,[],[],[],[],[],[1039],[],[],[],[],[],"[1036, 1036]",[],[],[],[],[],"[3133, 3134, 3134, 3133, 3133, 3134]",[],[],[],"[1001, 1033]",[],[],[],[],[],[],[],"[3134, 3133]",[],[],[],[1036],[],[2031],[],"[3044, 3067]",[],[],[],[]
participant_5_UNDO,[],[],[],[],[],[],[],[],[],[],[],[],[],[],[],[],[],"[[0, 3142], [0, 3147]]",[],[],"[[0, 1036]]",[],[],[],[],[],[],[],[],[],[],[],[],[],[],[],[],[],[],[],[],[]
participant_6_GOLD,500,500,598,892,1190,1508,1722,1972,2268,2391,2650,2932,3181,3595,3922,4341,4541,4904,5125,5276,5594,6254,6502,6872,7094,7514,7685,9034,9415,9851,10134,10632,11218,11459,11581,12274,12945,13687,14042,14438,14567,15118
participant_6_CURRENTGOLD,500,0,98,392,690,1008,1222,1472,1768,41,300,582,396,810,1137,1556,391,754,975,1126,694,104,352,722,144,564,735,2084,115,551,834,1332,1919,559,681,1375,2045,2788,1742,2139,368,918
participant_6_LEVEL,1,1,1,3,4,5,6,6,7,7,8,8,9,9,10,10,10,11,11,11,12,12,12,13,13,13,13,14,14,14,15,15,16,16,16,17,17,18,18,18,18,18
participant_6_MINIONSKILLED,0,0,4,11,21,29,35,42,49,49,58,64,68,71,79,84,88,98,102,104,108,108,108,110,110,111,114,115,117,124,129,129,133,136,136,144,149,152,152,152,152,154
participant_6_KILLS,0,0,0,0,0,0,0,0,0,0,0,0,0,0,0,0,0,0,0,0,0,1,1,2,2,2,2,5,5,5,5,6,6,6,6,7,8,10,10,11,11,12
participant_6_BUY,[],"[1056, 2003, 2003, 3340]",[],[],[],[],[],[],[],"[3136, 1027]",[],[],[1052],[],[],[],"[3802, 1026]",[],[],[],[3151],[1058],[],[],[3020],[],[],[],[3089],[],[],[],[],[3916],[],[],[],[],[3165],[],[3285],[]
participant_6_SOLD,[],[],[],[],[2003],[2003],[],"[2010, 2010]",[2010],[],[],[],[],[],[],[],"[1052, 1027]",[],[],[],"[3136, 1026]",[],[],[],[2422],[],[],[],[1058],[],[],[],[],[],[],[],[],[],[3916],[],[3802],[]
participant_6_UNDO,[],[],[],[],[],[],[],[],[],[],[],[],[],[],[],[],[],[],[],[],[],[],[],[],[],[],[],[],[],[],[],[],[],[],[],[],[],[],[],[],[],[]
participant_7_GOLD,500,500,556,783,1022,1172,1501,1658,1871,2099,2535,2805,3150,3771,3943,4575,4740,5411,5723,6083,6443,7046,7335,7621,8555,8761,9015,9481,9700,10117,10459,11027,11450,11795,11917,12366,12488,12679,13242,13483,13896,13964
participant_7_CURRENTGOLD,500,200,256,483,722,572,901,183,396,624,210,480,825,146,318,950,1115,886,1198,1558,68,671,960,146,1080,686,940,1406,325,742,284,853,50,395,518,966,1089,1280,1842,784,1197,214
participant_7_LEVEL,1,1,1,2,3,3,4,4,5,5,6,6,7,7,8,8,9,9,9,10,10,11,11,12,12,12,13,13,13,14,14,15,15,15,15,16,16,16,16,16,17,17
participant_7_MINIONSKILLED,0,0,2,8,12,14,17,19,25,31,32,40,43,46,49,57,59,59,66,75,78,84,89,97,106,110,114,123,125,132,132,145,145,154,154,164,164,167,168,175,184,184
participant_7_KILLS,0,0,0,0,0,0,0,0,0,0,1,1,1,2,2,3,3,5,5,5,5,6,6,6,6,6,6,6,6,6,7,7,7,7,7,7,7,7,8,8,8,8
participant_7_BUY,[],[1001],[],[],[],[1042],[],[1037],[],[],"[3006, 1036]",[],[],[1038],[],[],[],"[1053, 1036]",[],[],"[3072, 1042, 1042, 1042]",[],[],[3086],[],[3085],[],[],[1038],[],[1018],[],"[3031, 1031]",[],[],[],[],[],[],[1038],[],"[3026, 1036]"
participant_7_SOLD,[],[],[],[],[],[],[],[],[],[],"[1001, 1042]",[],[],[],[],[],[],[1036],[],[],"[1038, 1036, 1053]",[],[],[1042],[],"[1042, 3086, 1042]",[],[],[],[],[],[],"[1038, 1037, 1018]",[],[],[],[],[],[],[],[],"[1038, 1031]"
participant_7_UNDO,[],[],[],[],[],[],[],[],[],[],[],[],[],[],[],[],[],[],[],[],[],[],[],[],[],[],[],[],[],[],[],[],[],[],[],[],[],[],[],[],[],[]
participant_8_GOLD,500,530,553,777,993,1187,1823,2061,2195,2330,2526,2682,2851,3216,3472,3792,3963,4437,4608,4748,5150,5416,5631,5772,6080,6370,6511,6836,7347,7538,7678,8170,8610,8750,8891,9477,9617,9758,9973,10163,10645,10722
participant_8_CURRENTGOLD,500,30,53,277,493,287,923,1161,1295,1430,76,232,401,766,1022,92,263,302,173,313,216,481,231,372,680,970,311,636,1147,438,578,1070,1510,151,291,877,168,308,523,713,1195,522
participant_8_LEVEL,1,1,1,2,2,3,4,4,5,5,5,6,6,7,7,8,8,8,8,9,9,9,10,10,10,11,11,12,12,12,12,13,14,14,14,14,14,15,15,15,16,16
participant_8_MINIONSKILLED,0,0,0,0,1,1,2,3,3,3,3,3,4,5,9,9,9,9,9,9,12,12,12,12,16,16,16,17,18,18,18,18,18,18,18,19,19,19,19,22,24,24
participant_8_KILLS,0,0,0,0,0,0,1,1,1,1,1,1,1,1,1,1,1,1,1,1,1,1,1,1,1,1,1,1,2,2,2,2,2,2,2,3,3,3,3,3,4,4
participant_8_BUY,[],"[3850, 2003, 2003, 3340]",[],[],[],[1028],[],[],[],[],"[1026, 3010]",[],[],[],[],"[3027, 1001, 1029]",[],[1052],[1029],[],"[3191, 1052]",[],[3108],[],[],[],[3020],[],[],[3157],[],[],[],[3136],[],[],[1026],[],[],[],[],[3151]
participant_8_SOLD,[],[],[],"[2003, 2003]",[],[],[],[],[],[],"[3850, 1028]",[],[],[],[],"[3010, 1026]",[],[],[],[],"[3851, 1029, 1052, 1029]",[],[1052],[],[],[],[1001],[],[],"[3191, 3108]",[],[],[],[],[],[],[],[],[],[],[],"[3136, 1026]"
participant_8_UNDO,[],[],[],[],[],[],[],[],[],[],[],[],[],[],[],[],[],[],[],[],[],[],[],[],[],[],[],[],[],[],[],[],[],[],[],[],[],[],[],[],[],[]
participant_9_GOLD,500,500,563,860,1067,1315,1578,1826,2066,2287,2563,2908,3079,3335,3630,3857,4099,4361,4630,4844,5295,6779,6929,7206,7428,7871,8119,9140,9803,9975,10215,11390,11833,11980,12103,12300,12443,12991,14169,14429,14572,14639
participant_9_CURRENTGOLD,500,0,63,360,567,815,1078,76,316,537,813,1158,1329,1585,480,707,949,1211,1480,244,695,104,254,531,178,621,869,440,1103,475,716,1890,583,731,853,201,344,891,2070,329,473,539
participant_9_LEVEL,1,1,1,3,4,5,6,6,7,7,8,9,9,10,10,11,11,12,12,12,13,14,14,14,14,14,14,15,15,15,15,16,16,16,16,17,17,17,18,18,18,18
participant_9_MINIONSKILLED,0,0,2,12,17,24,32,39,43,48,57,67,70,75,81,88,95,103,112,117,130,130,132,141,141,141,148,148,153,153,156,157,158,158,158,158,159,176,176,176,177,177
participant_9_KILLS,0,0,0,0,0,0,0,0,0,0,0,0,0,0,0,0,0,0,0,0,0,2,2,2,2,3,3,5,5,5,5,8,8,8,8,8,8,8,10,10,10,10
participant_9_BUY,[],"[1054, 2003, 3340]",[],[],[],[],[],"[1031, 1028, 2003]",[],[],[],[],[],[],"[1011, 1006, 1036, 1001]",[],[],[],[],"[3742, 1036]",[],"[3052, 3077, 1028]",[],[],[3748],[],[],"[3801, 3067]",[],[3006],[],[],"[3083, 1036]",[],[],[3052],[],[],[],[3053],[],[]
participant_9_SOLD,[],[],[],[2003],[],[],[],[],[],[],[],[],[2003],[],[1028],[],[],[],[],"[1031, 1011]",[],"[1036, 1036, 1006]",[],[],"[3077, 1028, 3052]",[],[],[],[],[1001],[],[],"[3067, 3801]",[],[],[1036],[],[],[],[3052],[],[]
participant_9_UNDO,[],[],[],[],[],[],[],[],[],[],[],[],[],[],[],[],[],[],[],[],[],[],[],[],[],[],[],[],[],[],[],[],[],[],[],[],[],[],[],[],[],[]
team0_KILLS,0,0,0,0,1,2,2,3,3,3,5,6,6,6,6,6,8,11,11,11,13,15,15,15,17,17,17,18,19,20,22,22,23,26,26,29,29,29,32,33,36,38
team0_CURRENTGOLD,2500,100,455,1811,3172,5123,4068,2664,4089,2086,3322,2640,2467,1395,2539,3322,5390,3278,2049,1964,3980,4201,2740,3904,4639,3807,2581,1862,3771,4529,5588,2373,2510,4440,6427,6437,3075,2353,4118,4501,7025,8792
team0_TOTALGOLD,2500,2500,2855,4211,5872,7823,8818,10289,11714,12761,14897,16840,18117,19095,20239,21522,24340,26863,28034,29069,31085,32856,34425,35589,38324,39479,40853,42170,44079,46286,48410,49145,50582,53311,55299,58357,59496,60644,63557,65192,67714,69725
team0_LEVEL,5,5,6,13,17,22,24,26,29,33,33,35,39,39,42,44,46,49,51,51,55,56,57,59,61,62,64,64,66,67,70,70,71,74,75,78,79,79,80,81,84,84
team0_SBIRES,0,0,7,28,43,68,86,107,136,152,174,199,220,237,263,283,307,328,342,359,370,375,393,408,425,440,463,466,488,508,529,529,540,562,592,617,633,638,642,647,663,670
team1_KILLS,0,0,0,0,0,0,1,1,1,1,2,2,2,4,4,6,6,8,8,8,8,12,13,14,14,16,16,21,22,22,23,27,27,27,27,29,30,32,35,36,37,38
team1_CURRENTGOLD,2500,230,491,1925,3108,2895,4545,3552,4760,2845,1884,2674,3365,4173,4106,3776,3444,3301,4096,3374,1908,1503,2590,2947,3576,4889,5111,4915,3415,2571,2550,5531,4892,2304,3191,3864,4417,5301,6486,4131,3597,2564
team1_TOTALGOLD,2500,2530,2791,4225,5408,6545,8195,9327,10535,11470,12909,14099,15225,17333,18666,20686,21719,23611,24706,25784,27517,30788,32340,33797,35801,37714,38736,42190,44340,45896,47024,50005,52341,53752,54640,56902,58304,60138,62725,63969,65333,66164
team1_LEVEL,5,5,5,12,16,19,24,24,29,29,32,34,37,39,42,44,45,47,47,50,52,54,56,59,59,61,62,66,66,68,69,72,75,75,76,79,79,82,83,83,85,85
team1_SBIRES,0,0,8,31,51,68,86,103,120,131,150,175,190,202,223,243,256,274,294,315,339,345,354,379,398,407,421,432,450,467,475,489,495,507,519,542,554,578,581,593,605,607
delta_KILLS,0,0,0,0,1,2,1,2,2,2,3,4,4,2,2,0,2,3,3,3,5,3,2,1,3,1,1,-3,-3,-2,-1,-5,-4,-1,-1,0,-1,-3,-3,-3,-1,0
delta_CURRENTGOLD,0,-130,-36,-114,64,2228,-477,-888,-671,-759,1438,-34,-898,-2778,-1567,-454,1946,-23,-2047,-1410,2072,2698,150,957,1063,-1082,-2530,-3053,356,1958,3038,-3158,-2382,2136,3236,2573,-1342,-2948,-2368,370,3428,6228
delta_TOTALGOLD,0,-30,64,-14,464,1278,623,962,1179,1291,1988,2741,2892,1762,1573,836,2621,3252,3328,3285,3568,2068,2085,1792,2523,1765,2117,-20,-261,390,1386,-860,-1759,-441,659,1455,1192,506,832,1223,2381,3561
delta_LEVEL,0,0,1,1,1,3,0,2,0,4,1,1,2,0,0,0,1,2,4,1,3,2,1,0,2,1,2,-2,0,-1,1,-2,-4,-1,-1,-1,0,-3,-3,-2,-1,-1
delta_SBIRES,0,0,-1,-3,-8,0,0,4,16,21,24,24,30,35,40,40,51,54,48,44,31,30,39,29,27,33,42,34,38,41,54,40,45,55,73,75,79,60,61,54,58,63
