name,frame_0,frame_1,frame_2,frame_3,frame_4,frame_5,frame_6,frame_7,frame_8,frame_9,frame_10,frame_11,frame_12,frame_13,frame_14,frame_15,frame_16,frame_17,frame_18,frame_19,frame_20,frame_21,frame_22,frame_23,frame_24,frame_25,frame_26,frame_27,frame_28,frame_29,frame_30,frame_31,frame_32,frame_33
nameStamp,Tstart,Tearly,Tearly,Tearly,Tearly,Tearly,Tearly,Tearly,Tearly,Tearly,Tearly,Tearly,Tearly,Tmid,Tmid,Tmid,Tmid,Tmid,Tmid,Tmid,Tmid,Tmid,Tmid,Tmid,Tmid,Tmid,Tend,Tend,Tend,Tend,Tend,Tend,Tend,Tend
timestamp,0,60006,120008,180034,240043,300044,360076,420091,480105,540146,600173,660202,720225,780234,840261,900264,960290,1020294,1080323,1140330,1200362,1260375,1320405,1380405,1440430,1500434,1560461,1620464,1680491,1740520,1800543,1860548,1920581,1980581
participant_0_GOLD,500,500,520,1266,1459,1784,1963,2246,2486,2849,3368,3768,4046,4295,5378,5501,5954,6181,6430,7153,7967,8089,8211,8543,8701,9165,11083,11495,12091,12528,12727,13204,13757,13798
participant_0_CURRENTGOLD,500,0,20,766,959,1284,63,271,511,874,1393,1793,621,870,1953,3,456,333,582,1305,1269,116,238,570,728,468,2385,77,674,311,509,986,1540,140
participant_0_LEVEL,1,1,1,3,3,5,5,6,6,7,8,8,8,9,9,9,10,10,11,11,12,12,12,12,12,13,14,14,14,15,15,15,15,15
participant_0_MINIONSKILLED,0,0,0,12,16,25,28,37,41,52,57,61,64,68,76,76,86,86,94,100,105,105,105,113,115,118,126,126,126,126,126,139,141,141
participant_0_KILLS,0,0,0,0,0,0,0,1,1,1,1,1,1,1,1,2,2,2,2,2,2,2,2,3,3,3,3,3,3,3,3,3,3,3
participant_0_BUY,[],"[3850, 2003, 2003]",[],[],[],[],"[3070, 2055]",[],[],[],[],[3802],"[3020, 2055, 3364]",[],[],[],"[3030, 2055]",[],[],[],[],[3802],[],[],[],"[3003, 2055, 2055]",[],[],[1058],[],[],[1058],[],[]
participant_0_SOLD,[],[],[],[2010],"[2003, 2003]",[2010],[],[],[],[3850],[2010],[],"[2422, 3340]",[],[],[2055],[3802],[],[],"[3851, 2055]",[],[],[],[2055],[],"[3070, 3802]",[3003],[],[],[],[],"[2055, 2055]",[],[]
participant_0_UNDO,[],[],[],[],[],[],[],[],[],[],[],[],[],[],[],[],[],[],[],[],[],[],[],[],[],[],[],[],[],[],[],[],[],[]
participant_1_GOLD,500,500,611,990,1667,2319,3310,3495,4080,5052,5195,6163,7520,8327,9043,9165,9532,10175,10493,11455,12031,12453,12687,13074,14100,14852,15942,16265,16457,16864,17497,17835,18118,18159
participant_1_CURRENTGOLD,500,0,111,490,67,719,1710,120,705,1677,45,1013,2370,3177,3893,590,607,1251,1568,2530,856,1279,712,1099,2125,878,1967,1570,1763,2170,303,641,424,284
participant_1_LEVEL,1,1,1,3,4,5,6,7,7,9,9,10,11,11,12,12,12,12,13,13,13,14,14,14,15,15,16,16,16,17,17,17,17,17
participant_1_MINIONSKILLED,0,0,5,17,22,31,42,46,51,65,65,72,88,98,106,106,109,118,125,132,137,150,152,164,166,173,192,193,197,205,206,215,217,217
participant_1_KILLS,0,0,0,0,1,1,3,3,3,3,4,4,4,4,5,5,5,5,5,5,5,5,6,6,7,7,7,7,7,7,8,8,8,8
participant_1_BUY,[],"[1056, 2003, 2003, 1039, 2055, 2055]",[],[],[],[],[],[],[3157],[],[],"[3706, 2055]",[],"[1052, 1001]",[],[],[],[],"[1402, 1052]","[1028, 1028]",[],[],[],[],[],"[3020, 1026, 3916]",[],[],[3165],[],[],"[1026, 1052]",[],[]
participant_1_SOLD,[],[],[2055],[],[],[],[],"[2055, 2419]",[2423],[],[],"[1039, 2055]",[],[],[],[],[],[],"[1052, 3706]",[],[],[],[],[],[],"[1001, 1028, 1052]",[],[],"[3916, 1026]",[],[],[],[],[]
participant_1_UNDO,[],"[[0, 2003], [0, 2003], [0, 1056]]",[],[],[],[],[],[],[],[],[],[],[],[],[],[],[],[],[],"[[0, 1028]]",[],[],[],[],[],[],[],[],[],[],[],[],[],[]
participant_2_GOLD,500,500,605,963,1563,1875,2704,2964,3182,3414,3965,4187,4548,4721,5347,5604,5891,6307,6429,6782,6969,7091,7688,8030,8592,9099,9483,9656,9778,9900,10715,10837,11037,11078
participant_2_CURRENTGOLD,500,0,105,463,1063,1375,2204,2464,32,264,815,312,673,111,737,994,1281,1697,319,272,459,581,1178,1520,2082,174,558,731,303,426,1240,77,278,318
participant_2_LEVEL,1,1,2,3,3,4,5,5,6,6,6,7,7,7,8,8,9,9,9,10,10,10,11,11,12,12,13,13,13,13,14,14,14,14
participant_2_MINIONSKILLED,0,0,0,0,0,0,0,0,0,0,2,2,7,7,8,8,10,13,13,14,14,14,20,20,20,20,20,20,20,20,23,23,25,25
participant_2_KILLS,0,0,0,1,1,1,1,1,2,3,3,3,5,6,6,6,7,7,8,9,9,9,10,10,10,10,10,10,10,10,11,11,11,11
participant_2_BUY,[],"[1055, 2003]",[],[],[],[],"[1038, 1001, 2055]",[],[],[],[],"[3508, 1042, 2055]",[],"[3006, 1042, 1042]",[1043],[],"[1037, 1052]",[],[],"[3124, 1042, 1042]",[],[3101],[1052],[],[],"[3115, 2055, 3363]",[],[],[],[3108],[2420],[],[],[]
participant_2_SOLD,[],[],[],[],[2003],[],[],[],[2055],[],[],[1038],[2055],"[1001, 1042]","[1042, 1042]",[],[],[],[3340],"[1052, 1043, 1037]",[],"[1042, 1042]",[3513],[],[],"[3101, 1052, 3340]",[],[2055],[],[],"[1055, 2420]",[],[],[]
participant_2_UNDO,[],[],[],[],[],[],[],[],[],[],[],[],[],[],[],[],[],[],[],[],[],[],[],[],[],[],[],[],[],[],[],[],[],[]
participant_3_GOLD,500,500,611,1304,1616,2070,2298,2785,3591,4174,4573,4737,5586,6129,6491,7030,7540,7747,8236,8877,9207,9515,10133,10505,10752,11389,11773,11945,12521,12699,13197,13320,13442,13483
participant_3_CURRENTGOLD,500,0,111,804,1116,1570,123,610,1416,1999,2398,187,1036,479,441,980,180,387,876,127,458,265,448,821,1067,165,549,721,1296,575,603,726,848,708
participant_3_LEVEL,1,1,1,2,3,4,4,5,6,6,7,7,7,8,8,9,9,9,10,10,10,11,11,12,12,13,13,13,14,14,14,14,14,14
participant_3_MINIONSKILLED,0,0,5,18,29,41,47,61,68,78,89,91,96,100,100,110,110,110,115,115,115,115,120,120,123,123,123,123,135,139,139,139,139,139
participant_3_KILLS,0,0,0,1,1,1,1,1,1,1,1,1,1,1,3,3,3,3,3,4,5,5,5,5,5,5,9,10,11,12,12,12,13,13
participant_3_BUY,[],"[1055, 2003, 3340]",[],[],[],[],[3044],"[2031, 2055]",[],[],[],[],"[3101, 1027]",[],[],"[3078, 1001, 1029, 3047]",[],[1036],[],[],[3052],"[1037, 1028]",[],[],[],[3053],[],"[1011, 1031, 3742]",[],[3067],[],[],[],[3211]
participant_3_SOLD,[],[],[2003],[2010],[],[2010],[],[2055],[2010],[],[],[],[],[],[],"[3101, 1027, 3044, 2031, 1001, 1029]",[],[],[],[],[1036],[],[],[],[],"[3052, 1037, 1028]",[],"[1055, 1031, 1011]",[],[],[],[],[],[]
participant_3_UNDO,[],[],[],[],[],[],[],[],[],[],[],[],[],[],[],[],[],[],[],[],[],[],[],[],[],[],[],[],[],[],[],[],[],[]
participant_4_GOLD,500,500,537,857,1081,1370,1505,2043,2398,2877,3231,3372,3757,4212,4545,4950,5255,5515,5670,6124,6419,6559,6849,7353,7712,8333,9062,9527,9668,9902,10186,10326,10517,10584
participant_4_CURRENTGOLD,500,0,37,357,581,870,80,618,973,1452,1806,647,157,612,946,1350,80,340,495,949,1244,84,375,878,1237,658,1387,1853,743,977,1261,211,402,409
participant_4_LEVEL,1,1,1,2,3,4,4,5,5,6,7,7,7,8,8,8,8,9,9,10,10,10,11,11,12,12,13,14,14,14,15,15,15,15
participant_4_MINIONSKILLED,0,0,0,0,0,0,0,1,1,6,7,7,7,12,12,12,13,13,14,14,20,20,20,24,24,30,34,48,48,57,65,65,65,66
participant_4_KILLS,0,0,0,0,1,2,2,2,3,5,5,7,7,7,7,7,8,9,9,10,11,11,11,11,13,13,13,13,13,13,14,14,14,14
participant_4_BUY,[],"[1055, 2003, 3340]",[],[],"[1042, 1001, 1042, 2003, 3006]",[],[],"[3086, 1042, 2055]",[],[],"[3046, 1037]",[],[],[],[],"[3031, 1053]",[1036],[],[],[],[3072],[],[3123],[],[],[3033],[],[1053],[],[],[3139],[],[2140],[]
participant_4_SOLD,[],[],[],[],[],[2003],[],[],[],[],"[1042, 3086]",[],[],[2055],[],[1037],[],[],[],[],"[1036, 1053]",[],[],[],[],[3123],[],[1055],[],[],[1053],[],[2140],[]
participant_4_UNDO,[],[],[],[],"[[0, 2003], [0, 1042], [0, 1001], [0, 1042]]",[],[],[],[],[],[],[],[],[],[],[],[],[],[],[],[],[],[],[],[],[],[],[],[],[],[],[],[],[]
participant_5_GOLD,500,500,520,713,1004,1301,1871,2164,2558,2911,3483,3620,3986,5269,5767,6441,7211,7658,8159,8627,8979,9703,10225,10452,10575,10844,11446,12335,13208,13957,14341,15221,15942,16033
participant_5_CURRENTGOLD,500,0,20,213,504,801,1371,114,508,861,533,670,1036,219,717,1391,1411,558,1059,277,629,1354,325,553,675,945,1546,2435,1909,2658,241,1122,1843,1933
participant_5_LEVEL,1,1,1,1,3,4,6,6,7,8,8,8,9,9,10,11,11,12,12,12,13,13,14,14,14,14,15,15,16,17,17,18,18,18
participant_5_MINIONSKILLED,0,0,0,4,14,21,30,37,50,54,54,55,60,69,81,92,100,108,115,119,129,144,144,144,144,153,164,170,173,187,190,209,225,225
participant_5_KILLS,0,0,0,0,0,0,1,1,1,1,2,2,2,3,3,3,4,4,4,5,5,5,6,6,6,6,6,7,8,8,8,8,8,8
participant_5_BUY,[],"[1055, 2003, 3340]",[],[],[],[],[],"[3006, 1036, 2003, 2003]",[],[],"[1053, 1036]",[],[],"[3181, 1036]",[],[],[3133],[1038],[],"[3508, 1036]",[],[],"[3144, 1042]",[],[],[],[],[],[3153],[],[3026],[],[],[]
participant_5_SOLD,[],[],[2003],[],[],[],[],[],"[2003, 2003]",[],[1036],[],[],"[1036, 1053]",[],[],[1036],[],[],"[1038, 3133]",[],[],[1036],[],[],[],[],[],"[3144, 1042]",[],[],[],[],[]
participant_5_UNDO,[],[],[],[],[],[],[],[],[],[],[],[],[],[],[],[],[],[],[],[],[],[],[],[],[],[],[],[],[],[],[],[],[],[]
participant_6_GOLD,500,500,620,1005,1283,1540,1739,2052,2387,2695,3602,4063,4327,5546,5698,6620,7612,8318,8844,9116,10039,10586,12094,12477,12773,13014,13461,14078,15338,15498,16897,18034,18588,18679
participant_6_CURRENTGOLD,500,0,120,505,58,315,79,392,727,1035,452,913,477,1696,198,1120,1262,1968,794,1067,1989,1286,2794,827,1124,574,221,839,2099,659,2058,3194,3749,3779
participant_6_LEVEL,1,1,2,3,3,4,4,5,5,6,7,7,8,9,9,9,10,11,11,11,12,13,14,14,14,14,15,15,16,16,17,17,18,18
participant_6_MINIONSKILLED,0,0,0,0,0,1,1,1,2,2,2,7,10,10,11,11,15,19,32,32,32,32,41,41,47,50,50,57,65,65,71,82,83,83
participant_6_KILLS,0,0,0,0,0,0,0,0,0,0,1,1,1,4,4,5,7,8,8,8,10,11,14,14,14,14,14,15,17,17,20,21,21,21
participant_6_BUY,[],"[1039, 2031]",[],[],"[3706, 2055]",[],[1052],[],[],[],"[1402, 1027, 2055, 3364]",[],"[3020, 3057]",[],"[3020, 1026]",[],[3113],[],"[3100, 1058]",[],[],[1058],[],"[3089, 1058]",[],[3113],[3907],[],[],[3916],[],[],[],[]
participant_6_SOLD,[],[],[],[],[1039],[],[],[2055],[],[],"[1052, 3706, 3340]",[],"[2422, 1027]",[2055],[2422],[],[],[],"[3057, 3113, 1026]",[],[],[],[],"[1058, 1058]",[],[2031],"[1058, 3113]",[],[],[],[],[],[],[]
participant_6_UNDO,[],[],[],[],[],[],[],[],[],[],[],[],"[[0, 3020]]",[],[],[],[],[],[],[],[],[],[],[],[],[],[],[],[],[],[],[],[],[]
participant_7_GOLD,500,500,597,895,1380,1649,1807,2041,2358,2565,2871,2994,3436,3766,3888,4060,4233,4701,4874,5481,5674,6140,6623,6837,6980,7236,7561,7854,8277,8699,9415,9714,10337,10428
participant_7_CURRENTGOLD,500,0,97,395,180,149,307,541,58,265,571,394,36,366,188,360,533,1001,274,881,199,665,1148,272,415,670,196,64,487,109,825,774,847,728
participant_7_LEVEL,1,1,1,3,4,5,5,6,6,7,7,7,7,7,7,7,8,9,9,9,10,10,11,11,11,11,12,12,13,13,14,14,14,14
participant_7_MINIONSKILLED,0,0,4,14,16,25,27,34,34,39,40,40,40,45,45,45,45,62,62,63,64,75,83,88,89,91,93,94,100,100,104,104,107,107
participant_7_KILLS,0,0,0,0,0,0,0,0,0,0,0,1,1,1,1,1,1,1,1,1,2,2,2,2,2,2,3,4,4,4,4,4,4,4
participant_7_BUY,[],"[3850, 2003, 2003, 3340]",[],[],[2055],[],[],"[1052, 1001]",[],[],[1052],[],[3802],[],[3020],[],[],[],[1026],[],[],[3285],[],[],[3191],[],[],[3157],[],[],[1058],[],[],[]
participant_7_SOLD,[],[],[],[],[],[2003],[],[],[2055],[2003],[],[2419],"[1052, 1052]",[],[1001],[3850],[],[2423],[],[],[],"[3802, 1026]",[],[],[],[],[3851],"[3191, 2424]",[],[],[],[],[],[]
participant_7_UNDO,[],[],[],[],[],[],[],[],[],[],[],[],[],[],[],[],[],[],[],[],[],[],[],[],[],[],[],[],[],[],[],[],[],[]
participant_8_GOLD,500,500,562,755,973,1116,1494,1696,2466,2610,2844,3217,3476,3806,3928,4195,4651,4794,5207,5482,6486,7041,7213,7429,7669,8129,8821,10191,10652,11510,12111,12358,13921,14083
participant_8_CURRENTGOLD,500,0,62,105,323,166,544,746,141,285,519,892,51,381,503,370,886,229,642,917,1921,776,148,364,529,988,81,1451,512,1370,721,419,1981,2083
participant_8_LEVEL,1,1,1,2,3,3,4,4,5,5,5,6,6,7,7,7,8,9,9,9,10,11,11,11,11,12,12,13,14,14,15,15,16,16
participant_8_MINIONSKILLED,0,0,2,6,9,10,22,22,24,25,31,42,44,49,49,49,55,56,61,66,72,89,89,94,97,105,105,117,122,131,135,135,146,147
participant_8_KILLS,0,0,0,0,0,0,0,0,1,1,1,1,1,1,1,1,1,1,1,1,2,2,2,2,2,2,3,4,4,5,5,5,8,8
participant_8_BUY,[],"[1055, 2003]",[],[2031],[],[1001],[],[],"[1038, 2055]",[],[],[],"[3006, 1042]",[],[],[2015],[],[1018],[],[],[],"[3095, 1038]",[1018],[],[2055],[],"[3031, 1042]",[],"[3086, 1042]",[],"[3046, 1036]",[1053],[],[]
participant_8_SOLD,[],[],[],[2003],[],[],[],[],[],[],[],[],[1001],[],[],[1042],[2031],[],[],[2055],[],"[1038, 1018, 2015]",[],[],[],[2055],"[1038, 1018]",[],[1042],[],"[1042, 3086]",[1036],[],[]
participant_8_UNDO,[],[],[],[],[],[],[],[],[],[],[],[],[],[],[],[],[],[],[],[],[],[],[],[],[],[],[],[],[],[],[],[],[],[]
participant_9_GOLD,500,500,522,672,828,1028,1163,1464,1733,1893,2062,2512,2721,3235,3384,3693,3847,4168,4388,4528,5283,5510,6275,6415,6580,6847,7432,8361,8741,9056,9272,9547,9996,10093
participant_9_CURRENTGOLD,500,0,22,172,253,453,588,154,423,583,317,767,546,1060,409,718,872,1193,563,703,1458,635,1400,1540,605,872,1457,837,1216,1531,498,772,1221,1318
participant_9_LEVEL,1,1,1,2,2,3,4,5,5,5,6,6,7,7,7,8,8,9,9,9,10,10,11,11,11,11,12,12,13,14,14,14,15,15
participant_9_MINIONSKILLED,0,0,0,0,1,2,2,5,5,6,8,8,8,9,9,9,10,10,11,11,16,19,22,22,23,23,23,24,28,28,28,34,36,36
participant_9_KILLS,0,0,0,0,1,1,1,1,1,1,1,1,2,2,2,2,2,2,2,3,3,3,3,3,3,3,3,3,3,4,5,5,6,6
participant_9_BUY,[],"[1055, 2003, 3340]",[],[],"[1001, 1042, 2003, 2003]",[1029],[],[],"[3006, 1042]",[],[],[1042],[1018],[],[3086],[],[],[],[3046],[],[1037],[],[],[1038],[],[],[1018],[3031],[],[3123],[],[1036],[1053],[]
participant_9_SOLD,[],[],[2003],[],[],[],[],[2003],"[2003, 1001, 1042]",[],[],[],[],[],"[1018, 1042]",[],[],[],"[1042, 3086]",[],[],[],[],[1029],[],[],[],"[1038, 1037, 1018]",[],[],[],[],[1036],[]
participant_9_UNDO,[],[],[],[],[],[],[],[],[],[],[],[],[],[],[],[],[],[],[],[],[],[],[],[],[],[],[],[],[],[],[],[],[],[]
team0_KILLS,0,0,0,2,4,5,7,8,10,13,14,16,18,19,22,23,25,26,27,30,32,32,34,35,38,38,42,43,44,45,48,48,49,49
team0_CURRENTGOLD,2500,0,384,2880,3786,5818,4180,4083,3637,6266,6457,3952,4857,5249,7970,3917,2604,4008,3840,5183,4286,2325,2951,4888,7239,2343,6846,4952,4779,4459,3916,2641,3492,1859
team0_TOTALGOLD,2500,2500,2884,5380,7386,9418,11780,13533,15737,18366,20332,22227,25457,27684,30804,32250,34172,35925,37258,40391,42593,43707,45568,47505,49857,52838,57343,58888,60515,61893,64322,65522,66871,67102
team0_LEVEL,5,5,6,13,16,22,24,28,30,34,37,39,40,43,45,46,48,49,52,54,55,57,59,60,63,65,69,70,71,73,75,75,75,75
team0_SBIRES,0,0,10,47,67,97,117,145,161,201,220,233,262,285,302,312,328,340,361,375,391,404,417,441,448,464,495,510,526,547,559,581,587,588
team1_KILLS,0,0,0,0,1,1,2,2,3,3,5,6,7,11,11,12,15,16,16,18,22,23,27,27,27,27,29,33,36,38,42,43,47,47
team1_CURRENTGOLD,2500,0,321,1390,1318,1884,2889,1947,1857,3029,2392,3636,2146,3722,2015,3959,4964,4949,3332,3845,6196,4716,5815,3556,3348,4049,3501,5626,6223,6327,4343,6281,9641,9841
team1_TOTALGOLD,2500,2500,2821,4040,5468,6634,8074,9417,11502,12674,14862,16406,17946,21622,22665,25009,27554,29639,31472,33234,36461,38980,42430,43610,44577,46070,48721,52819,56216,58720,62036,64874,68784,69316
team1_LEVEL,5,5,6,11,15,19,23,26,28,31,33,34,37,39,40,42,45,50,50,50,55,57,61,61,61,62,66,67,72,74,77,78,81,81
team1_SBIRES,0,0,6,24,40,59,82,99,115,126,135,152,162,182,195,206,225,255,281,291,313,359,379,389,400,422,435,462,488,511,528,564,597,598
delta_KILLS,0,0,0,2,3,4,5,6,7,10,9,10,11,8,11,11,10,10,11,12,10,9,7,8,11,11,13,10,8,7,6,5,2,2
delta_CURRENTGOLD,0,0,63,1490,2468,3934,1291,2136,1780,3237,4065,316,2711,1527,5955,-42,-2360,-941,508,1338,-1910,-2391,-2864,1332,3891,-1706,3345,-674,-1444,-1868,-427,-3640,-6149,-7982
delta_TOTALGOLD,0,0,63,1340,1918,2784,3706,4116,4235,5692,5470,5821,7511,6062,8139,7241,6618,6286,5786,7157,6132,4727,3138,3895,5280,6768,8622,6069,4299,3173,2286,648,-1913,-2214
delta_LEVEL,0,0,0,2,1,3,1,2,2,3,4,5,3,4,5,4,3,-1,2,4,0,0,-2,-1,2,3,3,3,-1,-1,-2,-3,-6,-6
delta_SBIRES,0,0,4,23,27,38,35,46,46,75,85,81,100,103,107,106,103,85,80,84,78,45,38,52,48,42,60,48,38,36,31,17,-10,-10
