name,frame_0,frame_1,frame_2,frame_3,frame_4,frame_5,frame_6,frame_7,frame_8,frame_9,frame_10,frame_11,frame_12,frame_13,frame_14,frame_15,frame_16,frame_17,frame_18,frame_19,frame_20,frame_21,frame_22,frame_23,frame_24,frame_25,frame_26,frame_27,frame_28,frame_29,frame_30,frame_31,frame_32,frame_33,frame_34,frame_35,frame_36,frame_37,frame_38
nameStamp,Tstart,Tearly,Tearly,Tearly,Tearly,Tearly,Tearly,Tearly,Tearly,Tearly,Tearly,Tearly,Tearly,Tearly,Tearly,Tearly,Tearly,Tmid,Tmid,Tmid,Tmid,Tmid,Tmid,Tmid,Tmid,Tmid,Tmid,Tmid,Tmid,Tmid,Tmid,Tmid,Tmid,Tmid,Tend,Tend,Tend,Tend,Tend
timestamp,0,60028,120053,180077,240100,300128,360147,420162,480182,540205,600225,660255,720279,780303,840322,900352,960373,1020379,1080400,1140412,1200438,1260442,1320461,1380465,1440481,1500485,1560504,1620536,1680560,1740591,1800612,1860613,1920640,1980667,2040687,2100712,2160740,2220745,2280745
participant_0_GOLD,500,500,577,920,1339,1461,1696,2290,2560,2964,3654,4071,4334,4827,5170,5957,6093,6499,6923,7646,8354,8476,9093,9900,10437,10609,11341,11884,12131,12711,12972,13289,13412,14194,14785,15118,15711,16062,16797
participant_0_CURRENTGOLD,500,0,77,420,839,61,296,15,285,689,1379,246,509,1002,1345,2132,93,499,923,1646,2354,326,943,225,762,135,866,134,382,961,503,820,942,1725,616,949,492,843,1397
participant_0_LEVEL,1,1,1,3,4,4,5,6,7,8,9,9,9,9,10,11,11,12,12,13,14,14,14,15,15,15,15,16,16,16,16,16,16,17,17,18,18,18,18
participant_0_MINIONSKILLED,0,0,3,13,20,20,27,34,43,56,66,66,71,83,92,98,99,107,118,128,140,140,160,161,161,161,174,174,177,179,180,180,180,180,191,192,192,193,199
participant_0_KILLS,0,0,0,0,0,0,0,0,0,0,1,1,1,1,3,3,3,3,3,3,3,3,4,5,5,5,5,5,6,6,7,8,8,8,8,11,11,11,11
participant_0_BUY,[],"[2003, 3858, 3340, 2003]",[],[],[1001],[],[],[],[],[],[],"[3047, 1031, 2003, 2003, 2055]",[],[],[],"[3193, 3364, 2055]",[],[],[],[],"[1031, 1011]",[],[],"[3742, 1029]",[2055],[1028],[],[],"[3751, 1031]",[],[],[],[],"[3068, 1011]",[],[],[3083],[],[]
participant_0_SOLD,[],[],[],[],[2003],[],[],[],[],[],"[2003, 2419, 2423]","[1001, 2424, 2055]",[3858],[],"[2010, 2003]","[1031, 3340]",[],[2055],[],[],"[2003, 2010, 2010]",[3859],[],"[1031, 1011]",[],[],[2055],[],[1028],[],[],[],[],"[1031, 3751]",[],[],[1011],[],[]
participant_0_UNDO,[],[],[],[],[],[],[],[],[],[],[],[],[],[],[],[],[],[],[],[],[],[],[],[],"[[0, 1029]]",[],[],[],[],[],[],[],[],[],[],[],[],[],[]
participant_1_GOLD,500,500,606,913,1518,1689,1947,2154,2466,2699,3596,3859,4066,4385,5233,5620,6522,6824,7131,7654,8151,8519,8941,9113,9584,10840,11182,11858,12978,13440,14073,14792,15063,15535,15856,16249,16457,17010,17201
participant_1_CURRENTGOLD,500,0,106,413,1018,1189,22,229,541,274,1171,1434,466,785,1632,2020,2922,124,431,139,636,1004,1426,98,569,1825,2168,2843,3964,4426,1258,1978,148,121,442,835,187,741,-1019
participant_1_LEVEL,1,1,2,2,4,4,4,5,5,6,6,7,7,8,9,9,10,10,10,11,12,12,13,13,13,14,14,15,15,16,16,16,17,17,17,17,18,18,18
participant_1_MINIONSKILLED,0,0,0,0,0,3,3,3,3,4,4,4,4,4,10,11,15,21,21,21,21,22,22,22,27,32,32,38,42,43,48,49,52,52,52,56,56,56,56
participant_1_KILLS,0,0,0,0,0,0,0,0,0,1,1,1,1,2,2,2,2,3,4,5,5,5,5,5,6,6,6,8,8,8,8,8,8,9,9,9,9,12,12
participant_1_BUY,[],"[1055, 2003, 3340]",[],[],[],"[1001, 1042, 2031]",[],[],[],[],[],"[3086, 2015, 3006, 1042]",[],[],[3087],"[2031, 2055]",[1036],[],[],[],"[3052, 1037, 1028, 1038, 3052, 3363]",[],[1018],[1018],[],[3031],[],[3053],[],[],"[2420, 1053]",[],[],[1038],[],"[3072, 1042]",[2420],[],[3026]
participant_1_SOLD,[],[],[],[],[],[2003],[],[],[],[],[],"[1042, 1001, 2031]",[],[],"[3086, 1042]",[],[],[2055],[],[],"[1036, 1055, 1036, 3340]",[],[2031],[],[],"[1038, 1018]",[],[3052],[],[],[1055],[],[],[],[],"[1038, 1053]",[],[],[2420]
participant_1_UNDO,[],[],[],[],[],[],[],[],[],[],[],"[[0, 2015]]",[],[],[],[],[],[],[],[],"[[0, 1028], [1055, 0], [0, 1037], [0, 3052]]",[],"[[0, 1018]]",[],[],[],[],[],[],[],"[[0, 2420]]",[],[],[],[],"[[0, 1042]]",[],[],[]
participant_2_GOLD,500,500,542,794,1043,1228,1742,1955,2188,2441,2563,2823,2973,3117,3766,3916,4602,4724,5036,5404,5620,5805,6948,7260,7396,7869,7991,8372,8721,9155,10084,10234,10357,10779,11054,11177,11299,11828,12125
participant_2_CURRENTGOLD,500,0,42,294,543,218,297,435,238,491,538,798,183,327,976,76,762,84,396,329,545,730,708,1020,306,229,351,732,1081,1515,2444,94,217,639,915,1037,59,589,725
participant_2_LEVEL,1,1,1,3,4,4,5,6,6,7,7,7,7,7,9,9,10,10,10,10,11,11,11,11,12,12,12,13,13,14,15,15,15,15,15,15,15,16,16
participant_2_MINIONSKILLED,0,0,1,6,14,15,20,26,29,33,33,33,35,36,41,43,48,48,52,56,60,64,65,69,70,70,70,70,70,80,86,88,88,88,90,90,90,93,96
participant_2_KILLS,0,0,0,0,1,1,1,1,1,1,3,3,3,3,4,4,6,6,6,7,7,7,7,7,7,9,9,9,10,11,12,13,13,13,13,13,13,13,13
participant_2_BUY,[],"[1039, 2031, 3340]",[],[],[],[],"[3117, 3117, 1036, 2055, 3364]",[],[],"[1006, 1036]",[],[],"[3077, 1036, 1036]",[],[],[],[],"[3142, 1053]",[],[1037],[],[],[],"[3074, 3133]",[],[],[],[],[],[],"[3031, 3812, 1038]",[],[3031],[2140],[],[],"[3134, 3133]",[],"[1018, 3086]"
participant_2_SOLD,[],[],[],[],[],[],[3340],[],[2055],[],[],[],"[1036, 1006, 1036]",[],[],[],[],"[1036, 1036]",[],[2031],[],[],[],"[3077, 1053, 1037]",[],[],[],[],[],[],[3133],[],[1038],[2140],[],[1039],[1039],[],"[3133, 1018]"
participant_2_UNDO,[],[],[],[],[],[],"[[0, 3117]]",[],[],[],[],[],[],[],[],[],[],[],[],[],[],[],[],[],[],[],[],[],[],[],"[[0, 3031]]",[],[],[],[],"[[1039, 0]]","[[0, 3134]]",[],[]
participant_3_GOLD,500,500,584,825,1141,1326,1725,2022,2186,2848,3367,3581,3956,4332,4613,4848,4970,5755,6491,7303,7425,7743,8100,8407,9185,9490,10038,11222,11344,11779,11952,12643,12868,13871,14647,15048,15284,17179,17420
participant_3_CURRENTGOLD,500,0,84,325,641,76,475,772,936,1598,2117,191,566,942,323,333,105,890,1626,2438,410,728,1145,652,1430,435,983,167,289,725,177,868,1094,796,1573,674,259,2155,-235
participant_3_LEVEL,1,1,1,2,3,3,4,5,5,6,6,7,7,7,8,8,8,9,10,10,10,11,11,11,12,12,12,13,13,13,13,14,14,15,16,16,16,17,17
participant_3_MINIONSKILLED,0,0,3,10,18,22,36,46,48,58,64,69,80,81,86,93,93,98,108,115,115,127,128,128,129,137,146,150,150,155,155,166,172,172,189,190,192,200,200
participant_3_KILLS,0,0,0,0,0,0,0,1,1,1,2,3,3,3,3,5,5,6,6,6,7,7,7,8,9,9,10,11,11,12,12,12,12,12,12,12,13,13,14
participant_3_BUY,[],"[1054, 2003, 3340]",[],[],[],"[1036, 1036, 1006, 2003]",[],"[3077, 1001, 2003, 2003]",[],[],[],"[3111, 1036, 1028]",[],[],[],[],"[3044, 3067, 1037]",[],[],[],[],"[3071, 3052]",[],"[3053, 1028]",[],[3052],[],"[3748, 1029]",[],[],"[1031, 1028]",[],[],[],[3742],[],[3057],[],[]
participant_3_SOLD,[],[],[],[2003],[],[],[],"[2003, 1036, 1006, 1036]",[],[],"[2003, 2003]",[1001],[],[],[],[],"[1028, 1036]",[],[],[],[],"[3044, 3067]",[],"[3052, 1037]",[],[1028],[],"[3077, 3052]",[],[],"[1029, 1054]",[],[],[],"[1031, 1028]",[],[],[],[]
participant_3_UNDO,[],[],[],[],[],[],[],[],[],[],[],[],[],[],[],[],[],[],[],[],[],[],[],[],[],[],[],[],[],[],[],[],[],[],[],[],[],[],[]
participant_4_GOLD,500,500,565,699,915,1168,1390,1545,1679,2101,2706,2841,3021,3271,4272,4412,4609,4889,5407,5961,6102,6314,6818,7459,7674,7864,8090,8631,9196,9411,10144,10584,10869,11359,11616,12721,12861,13276,13580
participant_4_CURRENTGOLD,500,0,65,199,115,368,590,745,879,1301,1906,306,486,736,1737,102,299,579,1097,1651,72,284,788,29,469,259,485,1026,291,507,1239,1679,1964,404,661,1766,56,471,655
participant_4_LEVEL,1,1,1,2,3,4,4,5,5,6,7,7,7,7,8,8,9,9,10,10,11,11,12,12,12,12,13,13,14,14,15,15,15,16,16,16,16,17,17
participant_4_MINIONSKILLED,0,0,2,2,4,8,10,11,11,15,16,16,18,18,21,21,24,25,28,29,29,32,33,33,33,33,33,33,33,33,36,36,38,38,38,39,39,39,39
participant_4_KILLS,0,0,0,0,0,0,1,1,1,1,1,1,1,1,2,2,3,3,3,3,3,3,5,5,5,5,5,5,5,5,6,6,6,6,6,6,6,7,7
participant_4_BUY,[],"[1056, 2003, 2003, 3340]",[],[],[],"[1052, 2055]","[1027, 1052]",[2055],[3802],[],[2055],[],"[1026, 2055]",[],[],[3285],[],"[3363, 3020]",[],[1052],[],[],[3916],[],[1026],[3165],[],[],[],[],[],"[1058, 1058]",[],[],[],[],[3089],[],[]
participant_4_SOLD,[],[],[],[],"[2003, 2003]",[2403],[2055],[],"[2403, 1052, 1052]","[2403, 2055]",[],[2055],"[1056, 2055]",[],[],"[3802, 1026]",[],"[3340, 2422]",[],[],[],[],[1052],[],[],"[3916, 1026]",[],[],[],[],[],[],[],[],[],[],"[1058, 1058]",[],[]
participant_4_UNDO,[],[],[],[],[],[],"[[0, 1027]]",[],[],[],[],[],[],[],[],[],[],[],[],[],[],[],[],[],[],[],[],[],[],[],[],[],[],[],[],[],[],[],[]
participant_5_GOLD,500,500,563,825,1113,1445,1728,1927,2091,2382,2618,3109,3698,3946,4304,4447,5153,5659,5928,6128,7156,7474,7701,7823,7946,8228,8470,8759,9098,9749,10048,10170,10813,11278,11400,11537,12584,12731,12822
participant_5_CURRENTGOLD,500,0,63,325,613,345,53,252,416,707,23,514,1103,1351,1709,27,233,689,225,425,1453,321,548,120,243,525,767,57,395,1046,245,368,610,1075,323,459,782,229,59
participant_5_LEVEL,1,1,1,2,4,5,5,5,6,6,7,7,8,8,9,9,10,10,11,11,12,12,12,12,12,12,13,13,13,14,14,14,15,15,16,16,17,17,17
participant_5_MINIONSKILLED,0,0,2,10,17,27,27,31,33,43,47,56,64,71,82,83,87,92,100,105,110,117,123,123,123,128,135,135,144,152,156,156,162,167,167,168,191,192,192
participant_5_KILLS,0,0,0,0,0,0,0,0,0,0,0,1,1,1,1,1,3,3,4,5,5,6,6,7,8,8,8,11,11,12,13,13,13,13,13,13,13,13,14
participant_5_BUY,[],"[3854, 2003, 2003, 3340]",[],[],[],[],"[1001, 1036, 2003, 2003]",[],[],[],"[3134, 2003, 2003]",[],"[3117, 1036, 2055, 2003, 2003]",[],[1036],[],"[3179, 1036, 1036]","[3364, 3134]",[],[],[3133],[],"[3142, 3134]",[],[],[3147],[],[],[1038],[],"[3026, 2140]",[],[],[2140],[],[2140],[],[2140],[]
participant_5_SOLD,[],[],[],[2003],[2003],[],[],[],[2003],[2003],[1036],"[2003, 2003, 3400]",[1001],"[3854, 2003, 2003]",[],[],"[3134, 1036, 1036]","[3340, 1036, 1036]",[],[],[],[],"[3133, 3134]",[],[],[3134],[],[],[2055],[],"[1038, 2140]",[3855],[],[2140],[],[2140],[],[2140],[]
participant_5_UNDO,[],[],[],[],[],[],[],[],[],[],[],[],[],[],[],[],[],[],[],[],[],[],[],[],[],[],[],[],[],[],[],[],[],[],[],[],[],[],[]
participant_6_GOLD,500,500,621,873,1256,1463,2041,2353,2702,2918,3173,3542,3989,4279,4874,5096,5905,6282,6574,6697,7004,7841,8603,8866,9226,9473,9623,9747,9869,10121,10301,10879,11290,11568,12215,12447,13112,13728,13819
participant_6_CURRENTGOLD,500,0,121,373,106,313,891,103,452,668,923,1292,114,404,999,271,1080,1457,1749,1872,729,1566,378,641,1001,498,649,72,194,447,627,1204,1615,794,626,858,1522,114,144
participant_6_LEVEL,1,1,2,2,3,4,4,5,5,6,6,7,8,8,8,9,9,9,10,10,10,11,12,12,13,13,13,13,13,14,14,14,15,15,15,16,17,17,17
participant_6_MINIONSKILLED,0,0,0,0,0,0,0,0,0,0,3,6,6,9,15,15,19,19,19,19,19,26,26,27,37,37,39,39,39,41,41,41,46,49,51,52,60,60,60
participant_6_KILLS,0,0,0,0,0,0,0,0,0,0,1,2,3,3,3,3,3,4,4,4,4,4,4,4,4,7,7,7,7,7,7,7,8,8,8,10,11,11,12
participant_6_BUY,[],"[1083, 3340, 2003]",[],[],"[1028, 2031, 2055]",[],"[1001, 1036]",[],[],"[3044, 1027]",[],[],[],[],[],"[3078, 3020, 1036]",[],[1038],[],[3133],[3508],[],[],[1037],[],[],[1038],[],[],[3031],[1053],[],[],[1038],[3072],[],[1038],[3026],[]
participant_6_SOLD,[],[],[2003],[],[],[],[],[2055],[],"[1028, 1036]",[],[],[3400],[],[],"[1027, 3044, 1001]",[],[],[],[1036],"[1038, 3133, 1083, 1083]",[],[],[],[],[],[],[],[],"[1038, 1037]",[3400],[],[],[2031],"[1038, 1053]",[],[],[1038],[]
participant_6_UNDO,[],[],[],[],[],[],[],[],[],[],[],[],[],[],[],[],[],[],[],[],"[[1083, 0]]",[],[],[],[],[],[],[],[],[],[],[],[],[],[],[],[],[],[]
participant_7_GOLD,500,500,617,1007,1204,1531,1908,2174,2481,2781,3248,3681,5273,5776,6078,6222,6405,7339,8203,8490,8952,9074,9567,9905,10057,11327,11673,11996,12408,12846,13372,13896,15330,15453,15638,17414,18200,18544,19284
participant_7_CURRENTGOLD,500,0,117,507,79,406,133,399,706,156,623,1056,2648,3151,3453,314,497,131,995,532,274,397,889,352,505,1774,821,1144,1555,769,395,919,2353,1235,121,1897,1383,227,546
participant_7_LEVEL,1,1,1,3,4,5,5,6,7,7,8,8,9,9,10,10,10,10,11,11,12,12,12,13,13,13,14,14,15,15,15,16,16,16,16,17,18,18,18
participant_7_MINIONSKILLED,0,0,5,17,21,30,35,43,53,60,62,62,72,84,94,95,95,100,110,111,123,123,128,137,138,142,151,151,160,166,168,179,189,189,193,201,207,207,210
participant_7_KILLS,0,0,0,0,0,0,1,1,1,1,1,1,1,1,2,2,2,2,2,2,2,2,4,4,4,4,4,4,4,4,4,5,5,5,6,6,6,7,7
participant_7_BUY,[],"[1041, 2031, 3340]",[],[],[3706],[],[],[3134],[],[],[],[],[1400],[],[],"[1001, 1029, 1036]",[],[],[],[],[3142],[],"[3047, 3134, 1036]",[],[],[3133],[],[3147],[],[],[],[],[],[3134],[1037],[],[],"[3814, 3134]",[]
participant_7_SOLD,[],[],[],[],[1041],[],[],[],[],[],[],[],[3706],[],[],[],"[3340, 3513]",[],[],[],"[1036, 3134]",[3400],"[1001, 1029]",[],[],[1036],[],"[3134, 3133]",[],[],[],[],[],[],[2031],[],[],"[1037, 3134]",[]
participant_7_UNDO,[],[],[],[],[],[],[],[],[],[],[],[],[],[],[],[],[],[],[],[],[],[],[],[],[],[],[],[],[],[],[],[],[],[],[],[],[],[],[]
participant_8_GOLD,500,500,584,864,1610,1907,2065,2379,2766,2889,3139,3262,3637,3850,4186,4350,4702,4884,5048,5171,6067,6281,6793,7368,7547,7929,8073,8609,8788,8981,9385,9723,9846,10430,10719,11834,12436,12558,12670
participant_8_CURRENTGOLD,500,0,84,364,1110,1407,90,404,791,139,389,12,387,125,461,275,127,309,473,521,1417,1631,2143,393,572,954,1098,759,938,331,310,298,71,655,195,1309,261,384,95
participant_8_LEVEL,1,1,1,2,3,4,4,5,5,5,6,6,6,6,7,7,8,8,8,8,9,10,10,11,11,12,12,12,13,13,13,14,14,14,15,16,17,17,17
participant_8_MINIONSKILLED,0,0,3,10,22,29,31,39,51,51,55,55,66,71,76,78,83,83,86,86,95,100,100,105,108,109,110,110,113,114,124,132,132,143,148,155,155,155,156
participant_8_KILLS,0,0,0,0,0,0,0,0,0,0,0,0,0,0,0,0,0,0,0,0,1,1,1,1,1,1,1,1,1,1,1,1,2,2,2,2,2,2,2
participant_8_BUY,[],"[3340, 2033]",[],[],[1036],"[1028, 1042, 1042]","[3101, 2055, 2055]",[],[],[],"[1001, 1028, 1029, 1036]",[],[],[],[],"[3047, 3057, 1028, 2055]",[3044],"[2003, 2003]","[3078, 1028, 1028]",[],[],"[3052, 1036, 1042]",[],[1053],[],[],[],"[3144, 1042]",[],[],"[1043, 3153]",[],[1028],[],[1037],[],[3053],"[1029, 1028]",[]
participant_8_SOLD,[],[],[],[2010],[],[],"[1042, 1042, 2010]","[2010, 2010]",[],[],[2055],[],[],[],[],"[1001, 1029, 2033]","[1028, 1036]",[],"[3101, 3057, 3044]",[],"[2055, 2003]",[1028],[],[1036],[],[],[],[1053],[],[],"[1042, 1042, 3144, 1043]",[],[],[],[],[],"[3052, 1037, 1028]",[],[]
participant_8_UNDO,[],[],[],[],"[[0, 1036]]","[[0, 1028]]","[[0, 2055], [2010, 0]]",[],[],[],"[[0, 1028]]",[],[],[],[],[],[],"[[0, 2003]]","[[0, 1028]]",[],[],[],[],[],[],[],[],[],[],[],[],[],[],[],[],[],[],[],[]
participant_9_GOLD,500,500,565,759,1096,1252,1386,1629,1798,1932,2181,3290,3517,3692,3942,4224,5315,5630,6187,6628,6888,8267,8457,9295,9886,10166,10307,11757,11897,12828,13568,13786,14087,14242,14666,14881,15344,15514,16382
participant_9_CURRENTGOLD,500,0,65,259,596,752,136,379,548,682,81,1190,192,367,267,549,340,255,812,1253,413,1792,182,1020,1611,91,232,1682,552,1483,223,442,742,397,821,536,999,669,1507
participant_9_LEVEL,1,1,1,2,3,4,4,5,5,5,6,6,7,7,7,8,8,9,9,10,11,12,12,12,13,13,13,14,14,14,14,14,15,15,15,16,16,16,17
participant_9_MINIONSKILLED,0,0,2,3,4,5,5,8,10,10,13,13,15,17,19,27,27,30,36,36,38,45,45,51,51,52,52,57,57,58,58,63,67,68,72,72,76,77,78
participant_9_KILLS,0,0,0,0,1,1,1,1,1,1,1,1,1,1,1,1,1,1,1,1,2,2,3,3,3,3,3,3,3,3,3,3,3,3,3,5,5,5,5
participant_9_BUY,[],"[1055, 2003, 3340]",[],[],[],[],"[1038, 2003, 2003, 2055]",[],[],"[1001, 1042, 2055, 2003, 2003]",[],"[2003, 3006]",[],"[1036, 2055, 2003]",[],[1036],"[3133, 2003, 2003]",[],[],[2055],[],[],[],"[3508, 1038, 2055, 2003, 3363]",[],[],[],[1037],[],[1018],[3031],[1036],[1036],[],[3035],[],"[3036, 1042]",[],[2015]
participant_9_SOLD,[],[],[],[],[],[2003],[],[],[],"[2003, 2003, 2055]",[2003],"[2003, 1001, 1042]",[],[2055],[2003],[],"[1036, 1036]",[],[2055],[],"[2003, 2055]",[],[2003],"[3400, 1038, 3133, 3340]","[2055, 2003]",[],[],[3400],[],[],"[1038, 1037, 1018]",[],[],[],"[1036, 1036]",[],[3035],[],[1042]
participant_9_UNDO,[],[],[],[],[],[],[],[],[],[],[],"[[0, 2003]]",[],[],[],[],[],[],[],[],[],[],[],[],[],[],[],[],[],[],[],[],[],[],[],[],[],[],[]
team0_KILLS,0,0,0,0,1,1,2,3,3,4,8,9,9,10,14,16,19,21,22,24,25,25,28,30,32,34,35,38,40,42,45,47,47,48,48,51,52,56,57
team0_CURRENTGOLD,2500,0,374,1651,3156,1912,1680,2196,2879,4353,7111,2975,2210,3792,6013,4663,4181,2176,4473,6203,4017,3072,5010,2024,3536,2883,4853,4902,6007,8134,5621,5439,4365,3685,4207,5261,1053,4799,1523
team0_TOTALGOLD,2500,2500,2874,4151,5956,6872,8500,9966,11079,13053,15886,17175,18350,19932,23054,24753,26796,28691,30988,33968,35652,36857,39900,42139,44276,46672,48642,51967,54370,56496,59225,61542,62569,65738,67958,70313,71612,75355,77123
team0_LEVEL,5,5,6,12,18,19,22,27,28,33,35,37,37,38,44,45,48,50,52,54,58,59,61,62,64,65,66,70,71,73,75,76,77,80,81,82,83,86,86
team0_SBIRES,0,0,9,31,56,68,96,120,134,166,183,188,208,222,250,266,279,299,327,349,365,385,408,413,420,433,455,465,472,490,505,519,530,530,560,567,569,581,590
team1_KILLS,0,0,0,0,1,1,2,2,2,2,3,5,6,6,7,7,9,10,11,12,14,15,18,19,20,23,23,26,26,27,28,29,31,31,32,36,37,38,40
team1_CURRENTGOLD,2500,0,450,1828,2504,3223,1303,1537,2913,2352,2039,4064,4444,5398,6889,1436,2277,2841,4254,4603,4286,5707,4140,2526,3932,3842,3567,3714,3634,4076,1800,3231,5391,4156,2086,5059,4947,1623,2351
team1_TOTALGOLD,2500,2500,2950,4328,6279,7598,9128,10462,11838,12902,14359,16884,20114,21543,23384,24339,27480,29794,31940,33114,36067,38937,41121,43257,44662,47123,48146,50868,52060,54525,56674,58454,61366,62971,64638,68113,71676,73075,74977
team1_LEVEL,5,5,6,11,17,22,22,26,28,29,33,34,38,38,41,43,45,46,49,50,54,57,58,60,62,63,65,66,68,70,70,72,75,75,77,81,85,85,86
team1_SBIRES,0,0,12,40,64,91,98,121,147,164,180,192,223,252,286,298,311,324,351,357,385,411,422,443,457,468,487,492,513,531,547,571,596,616,631,648,689,691,696
delta_KILLS,0,0,0,0,0,0,0,1,1,2,5,4,3,4,7,9,10,11,11,12,11,10,10,11,12,11,12,12,14,15,17,18,16,17,16,15,15,18,17
delta_CURRENTGOLD,0,0,-76,-177,652,-1311,377,659,-34,2001,5072,-1089,-2234,-1606,-876,3227,1904,-665,219,1600,-269,-2635,870,-502,-396,-959,1286,1188,2373,4058,3821,2208,-1026,-471,2121,202,-3894,3176,-828
delta_TOTALGOLD,0,0,-76,-177,-323,-726,-628,-496,-759,151,1527,291,-1764,-1611,-330,414,-684,-1103,-952,854,-415,-2080,-1221,-1118,-386,-451,496,1099,2310,1971,2551,3088,1203,2767,3320,2200,-64,2280,2146
delta_LEVEL,0,0,0,1,1,-3,0,1,0,4,2,3,-1,0,3,2,3,4,3,4,4,2,3,2,2,2,1,4,3,3,5,4,2,5,4,1,-2,1,0
delta_SBIRES,0,0,-3,-9,-8,-23,-2,-1,-13,2,3,-4,-15,-30,-36,-32,-32,-25,-24,-8,-20,-26,-14,-30,-37,-35,-32,-27,-41,-41,-42,-52,-66,-86,-71,-81,-120,-110,-106
