name,team0,team1
win,Win,Fail
firstBlood,False,True
firstTower,False,True
firstInhibitor,True,False
firstBaron,False,False
firstDragon,False,True
firstRiftHerald,False,False
towerKills,4,3
inhibitorKills,1,0
baronKills,0,0
dragonKills,1,1
riftHeraldKills,0,0
