name,frame_0,frame_1,frame_2,frame_3,frame_4,frame_5,frame_6,frame_7,frame_8,frame_9,frame_10,frame_11,frame_12,frame_13,frame_14,frame_15,frame_16,frame_17,frame_18,frame_19,frame_20,frame_21,frame_22,frame_23,frame_24,frame_25,frame_26,frame_27
nameStamp,Tstart,Tearly,Tearly,Tearly,Tearly,Tearly,Tearly,Tearly,Tearly,Tearly,Tearly,Tearly,Tearly,Tearly,Tearly,Tearly,Tmid,Tmid,Tmid,Tmid,Tmid,Tmid,Tmid,Tmid,Tmid,Tmid,Tmid,Tmid
timestamp,0,60017,120046,180077,240105,300113,360135,420164,480184,540185,600202,660204,720233,780236,840238,900269,960298,1020305,1080306,1140330,1200356,1260363,1320389,1380403,1440406,1500420,1560428,1620428
participant_0_GOLD,500,500,598,892,1078,1452,2151,2448,2794,3105,3702,3825,4462,4718,5224,5669,6148,6641,7004,7403,7825,8355,8533,8753,8994,9249,10056,10293
participant_0_CURRENTGOLD,500,0,98,392,153,527,91,388,734,1045,1642,100,287,543,699,1144,373,866,1229,418,840,1370,48,268,509,364,1172,1268
participant_0_LEVEL,1,1,1,3,3,5,5,6,7,7,8,8,9,10,10,11,11,12,12,12,13,13,13,14,14,14,14,14
participant_0_MINIONSKILLED,0,0,4,11,15,27,34,37,47,58,69,69,89,97,102,114,117,121,126,134,147,149,149,155,162,166,172,177
participant_0_KILLS,0,0,0,0,0,0,0,0,0,0,0,1,1,1,1,2,3,3,3,3,3,6,6,7,7,7,7,7
participant_0_BUY,[],"[1055, 3340, 2003]",[],[],"[1001, 1042, 2003]",[],[],[1037],[],[],"[3006, 1042]",[],[],[],[1038],[],[3031],[1018],[3086],[1042],[1042],[],"[3085, 1018, 1042]",[],"[3086, 1042]",[],[],[]
participant_0_SOLD,[],[],[],[],[],[],[],"[2003, 2003]",[],[],"[1001, 1042]",[],[],[],[],[],"[1038, 1037]",[],"[1018, 1042]",[],[],[],"[1042, 3086, 1042]",[],"[1018, 1042]",[],[],[]
participant_0_UNDO,[],[],[],[],[],[],[],[],[],[],[],[],[],[],[],[],[],[],[],[],[],[],[],[],[],[],[],[]
participant_1_GOLD,500,500,676,1048,1453,1718,2493,2786,3281,3639,3966,4386,4576,4975,5662,6154,6462,7542,8201,8770,9238,10798,11357,11664,11815,12043,13393,13574
participant_1_CURRENTGOLD,500,0,176,548,953,268,1043,1336,1831,139,466,886,276,675,1362,1854,462,1542,2201,80,548,2108,867,375,525,753,2104,2224
participant_1_LEVEL,1,1,2,3,4,4,5,6,7,7,8,9,9,9,10,11,11,12,12,13,13,14,14,15,15,15,15,15
participant_1_MINIONSKILLED,0,0,0,0,0,0,0,7,7,7,7,8,9,10,15,15,15,27,28,30,32,35,43,43,45,46,49,51
participant_1_KILLS,0,0,0,0,0,0,0,0,0,0,0,1,1,1,1,1,1,1,1,2,2,2,2,2,2,2,3,3
participant_1_BUY,[],"[3854, 2003, 2003, 3340]",[],[],[],[],[],[],"[1001, 1028, 2003, 2003, 2003, 2055]",[],[],[],"[1031, 3067, 2003, 2003, 2003]",[],[1029],[],[],"[3109, 1029]",[],"[3047, 1033, 2003, 2003]",[],[],"[3105, 1028]",[],[],[1033],[],[]
participant_1_SOLD,[],[],[],[],[],[],[],"[2003, 2010, 2003, 2010, 2010]",[2055],[],[2003],"[2003, 2003]","[3854, 1028]",[],[],[2003],[],"[3067, 1031]","[2003, 2003]","[1001, 1029]",[],[],"[2003, 2003, 1033, 1029]",[],[],[],[],[3855]
participant_1_UNDO,[],[],[],[],[],[],[],[],[],[],[],[],[],[],[],[],[],[],[],[],[],[],[],[],[],[],[],[]
participant_2_GOLD,500,500,577,818,1534,1712,1961,2588,2864,3372,3742,4601,4832,5046,6368,6687,6830,7622,8058,8290,8427,8922,9074,9356,9569,9903,10383,10579
participant_2_CURRENTGOLD,500,0,77,318,174,352,601,1228,339,412,782,1641,7,221,1542,612,755,1547,1983,166,302,797,149,432,644,978,1458,1654
participant_2_LEVEL,1,1,1,3,4,5,6,7,7,8,9,9,9,10,10,11,11,11,11,12,12,12,12,12,12,13,13,14
participant_2_MINIONSKILLED,0,0,3,9,18,21,28,41,47,49,63,69,72,78,84,89,90,92,93,95,96,99,99,99,100,104,106,106
participant_2_KILLS,0,0,0,0,0,0,1,1,1,1,2,2,2,2,3,3,4,4,4,4,4,4,4,4,4,4,5,5
participant_2_BUY,[],"[1082, 2031, 3340]",[],[],"[2033, 2055]",[],"[1028, 1052, 1001]",[],[],[],[],[3152],[1033],[],[3111],[],"[1026, 1028]",[],[],[3116],[],[],[3136],[],[],[1028],[],[]
participant_2_SOLD,[],[],[],[],[2031],[],[],[2055],[],[],[],"[1052, 1028]",[],[],"[1001, 1033]",[],[],[],[],"[1082, 1026, 1028]",[],[],[],[],[],[],[],[]
participant_2_UNDO,[],[],[],[],[],[],[],[],[],[],[],[],[],[],[],[],[],[],[],[],[],[],[],[],[],[],[],[]
participant_3_GOLD,500,500,584,874,1155,1501,1872,2029,2381,2807,2929,3577,3750,4103,4303,5584,6171,6393,6670,7056,7178,8735,8857,9454,9576,10120,10464,10624
participant_3_CURRENTGOLD,500,0,84,374,5,351,722,4,356,782,104,752,925,1278,178,1459,821,243,220,306,128,1685,107,704,226,771,1115,1274
participant_3_LEVEL,1,1,1,2,3,3,4,4,5,6,6,6,7,7,8,9,9,9,10,10,10,11,11,12,12,12,13,13
participant_3_MINIONSKILLED,0,0,3,12,19,30,41,43,53,68,68,68,70,83,88,99,104,104,110,117,117,123,123,129,129,138,143,144
participant_3_KILLS,0,0,0,0,0,0,1,1,1,1,1,1,1,1,1,1,1,2,3,4,4,6,6,6,6,6,8,8
participant_3_BUY,[],"[1039, 2031, 3340]",[],[],[],"[3706, 1001]",[],[],[],"[1400, 1036, 2055]",[],[],"[3111, 3111]",[],[],[],"[3044, 1028, 3067]",[],[],"[3071, 3133, 3105, 1036, 1036]",[],[],[3812],[1031],[],[],[],[]
participant_3_SOLD,[],[],[],[],[],[1039],[],[],[],[3706],[],[],"[1001, 1001]",[2055],[],[],"[1036, 1028]",[],[],"[3044, 3067, 2031]",[],[],"[3105, 1036, 1036]",[],[],[],[],[]
participant_3_UNDO,[],[],[],[],[],[],[],[],[],[],[],[],"[[0, 3111]]",[],[],[],[],[],[],"[[0, 3133]]",[],[],[],[],[],[],[],[]
participant_4_GOLD,500,500,544,699,894,1126,1327,1461,1637,1874,2008,2727,2949,3131,3285,3647,3951,4192,4582,5097,5238,5697,5837,6052,6193,6333,6911,7064
participant_4_CURRENTGOLD,500,0,44,199,394,626,827,961,212,449,583,1302,174,356,210,572,876,217,607,72,213,672,62,278,418,108,686,839
participant_4_LEVEL,1,1,1,2,3,3,4,4,5,5,6,7,7,7,7,8,9,9,9,10,10,10,10,11,11,11,11,11
participant_4_MINIONSKILLED,0,0,1,2,3,6,7,7,9,11,11,13,13,15,16,17,18,18,21,21,21,22,22,22,22,22,22,22
participant_4_KILLS,0,0,0,0,1,1,1,2,2,3,3,4,4,4,6,6,6,7,8,8,8,8,8,8,8,8,8,8
participant_4_BUY,[],"[3340, 2033]",[],[],"[1052, 1027, 2055]",[],[],[],"[3802, 1001, 1052, 1082]",[1052],[],[],"[3030, 3020]",[],[],"[1026, 1028]",[],[],[],"[3165, 1029]",[],[],[3191],[],[],[],[],[]
participant_4_SOLD,[],[],[],[],[2010],[],[],"[2010, 2010]","[1052, 1027]",[],[2055],[],"[3802, 1052, 1001]",[],[],[],[],[],[],"[1028, 1026]",[],[],[1029],[],[],[],[],[]
participant_4_UNDO,[],[],[],[],[],[],[],[],"[[0, 1052]]",[],[],[],[],[],[],[],[],[],[],[],[],[],[],[],[],[],[],[]
participant_5_GOLD,500,500,521,762,1183,1326,1962,2231,2655,2911,3119,3542,3699,3961,4270,4392,5536,5658,5924,6347,7015,7138,7710,7882,8442,8780,8945,8991
participant_5_CURRENTGOLD,500,0,21,262,683,126,762,406,830,1086,144,392,549,811,320,142,1286,428,694,117,785,908,30,202,762,501,365,391
participant_5_LEVEL,1,1,1,3,4,4,5,6,7,8,8,8,8,9,9,9,10,10,10,11,11,11,12,12,13,13,13,13
participant_5_MINIONSKILLED,0,0,0,7,22,23,26,35,49,57,59,59,61,69,77,77,83,83,85,85,89,89,89,89,92,101,104,104
participant_5_KILLS,0,0,0,0,0,0,0,2,2,2,2,2,3,4,4,4,4,4,4,4,4,4,4,6,6,6,6,8
participant_5_BUY,[],"[1055, 2003, 3340]",[],[],[],"[1037, 2003, 2055, 2003]",[],[],"[1038, 1001]",[],[],[1018],[],[],[],"[3031, 3009, 3086]",[],[1042],[],[3094],[],[3123],[],[],"[1038, 1018]",[],[],[]
participant_5_SOLD,[],[],[],[],[],[],[],[2003],[2003],[],[2003],[],[2055],[],[],"[1038, 1037, 1018, 1001]",[],[],[],"[3086, 1042]",[],[],[],[],[1055],[],[],[]
participant_5_UNDO,[],[],[],[],[],[],[],[],[],[],[],[],[],[],[],[],[],[],[],[],[],[],[],[],[],[],[],[]
participant_6_GOLD,500,500,682,1013,1241,1570,2033,2270,2587,2810,3067,3982,4774,5561,5714,5936,6144,6957,7735,8043,9082,9309,9523,9966,10265,10800,11265,11450
participant_6_CURRENTGOLD,500,0,182,513,741,1070,883,220,537,85,342,1257,2049,2836,139,361,134,947,1725,268,1307,1004,1218,461,210,746,1210,1375
participant_6_LEVEL,1,1,2,3,3,4,4,5,5,6,6,7,8,9,9,9,10,10,11,11,12,12,12,13,13,13,14,14
participant_6_MINIONSKILLED,0,0,0,0,0,0,0,1,1,1,3,9,9,9,10,10,10,12,16,16,17,17,20,22,22,22,24,25
participant_6_KILLS,0,0,0,0,0,0,0,0,0,0,1,1,1,1,1,1,1,1,1,1,1,1,1,1,1,1,1,1
participant_6_BUY,[],"[3858, 2003, 2003, 3340]",[],[],[],"[1001, 2055]",[],[],"[3117, 2003, 2055, 3364]",[],[],"[3024, 1028]",[],[],[],"[3067, 1033]",[],"[3105, 2055]",[],[3050],[],[1031],[],[],[],"[3109, 2055]",[1028],[]
participant_6_SOLD,[],[],[],[],[],[],[],"[2003, 2010, 2010, 2055, 2010]","[2003, 1001, 3340]",[],"[2055, 2003]",[],[3858],[],[],[1028],[],[1033],[],"[3105, 3024]",[],[],[],[2055],[],"[3067, 1031, 3859]",[],[]
participant_6_UNDO,[],[],[],[],[],[],[],[],[],[],[],[],[],[],[],[],[],[],[],[],[],[],[],[],[],[],[],[]
participant_7_GOLD,500,500,556,899,1071,1410,1718,1980,2116,2710,3035,3228,3637,4087,4210,4542,5227,5822,6094,6367,6825,6947,7782,8339,9613,9930,10053,10148
participant_7_CURRENTGOLD,500,0,56,399,221,560,868,1130,416,140,465,228,637,1087,160,492,1177,122,394,667,1125,47,332,889,2163,1230,1353,1448
participant_7_LEVEL,1,1,1,3,4,5,5,6,7,7,7,8,8,9,9,10,10,11,11,11,12,12,12,13,13,13,13,14
participant_7_MINIONSKILLED,0,0,2,12,15,25,32,40,41,42,54,58,62,72,72,81,88,94,94,94,100,100,104,109,112,119,119,119
participant_7_KILLS,0,0,0,0,0,0,0,0,0,1,1,1,1,1,1,1,2,3,3,3,3,3,4,5,6,6,6,6
participant_7_BUY,[],"[3340, 1056, 2003, 2033]",[],[],[1082],[],[],[],[1026],"[1052, 1052]",[],[3802],[],[],[3145],[],[],"[3030, 3020, 1028]",[],[],[],[3916],[3165],[],[],[1058],[],[]
participant_7_SOLD,[],[],[],[],[2010],[],[2010],[2010],[],[],[],"[1052, 1052]",[],[],[],[],[],"[3802, 3145, 2422]",[],[],[],[1028],"[3916, 1026]",[],[],[],[],[]
participant_7_UNDO,[],"[[0, 2003], [0, 1056]]",[],[],[],[],[],[],[],[],[],[],[],[],[],[],[],[],[],[],[],[],[],[],[],[],[],[]
participant_8_GOLD,500,500,612,867,1211,1578,1841,2872,3168,3462,4110,4233,5144,5767,6360,6559,6899,7230,7504,7835,8440,8562,9121,10209,10677,11127,11250,11978
participant_8_CURRENTGOLD,500,0,112,367,711,28,291,1322,38,332,980,303,1214,1837,2430,204,544,575,849,280,885,207,766,1854,402,853,975,1503
participant_8_LEVEL,1,1,1,2,3,3,4,5,6,6,7,7,8,8,9,9,10,10,10,11,11,11,12,12,13,13,13,14
participant_8_MINIONSKILLED,0,0,5,12,22,34,42,55,62,72,87,87,102,108,121,125,134,142,145,153,162,162,173,180,186,201,201,203
participant_8_KILLS,0,0,0,0,0,0,1,1,1,1,1,2,2,2,2,2,3,3,3,4,5,5,6,6,7,7,7,7
participant_8_BUY,[],"[1054, 2003, 3340]",[],[],[],"[1028, 1001]",[],"[1033, 2055, 2003, 2003]",[],[],"[3211, 3067]","[2055, 2003, 2003]",[],[],[3065],[1029],[],"[3009, 1031, 1028]",[],"[3751, 1031]",[],[],"[3068, 1028]",[],[],[1011],[1029],[]
participant_8_SOLD,[],[],[],[2003],[],[],[],[],[2055],[],"[2003, 2003, 1028, 1033]",[],[],[2003],"[3211, 3067]",[],[],"[1001, 2003, 1029]",[],"[1028, 1029]",[],[],"[1031, 3751]",[2055],[],[1028],[],[]
participant_8_UNDO,[],[],[],[],[],[],[],[],[],[],[],[],[],[],[],[],[],"[[0, 1031]]",[],[],[],[],[],[],[],[],[],[]
participant_9_GOLD,500,500,544,678,876,1073,1250,1771,1905,2284,2880,3014,3347,3658,3839,4020,4338,4786,4950,5090,5650,5791,5931,6196,6483,6653,6793,7006
participant_9_CURRENTGOLD,500,0,44,178,376,198,375,896,205,584,1180,14,347,658,839,170,488,211,375,265,825,166,306,572,858,353,93,306
participant_9_LEVEL,1,1,1,2,3,3,4,5,5,6,7,7,7,8,8,9,9,10,10,10,11,11,11,12,12,12,12,13
participant_9_MINIONSKILLED,0,0,1,1,4,5,7,9,9,14,17,17,20,21,24,26,28,32,33,33,36,36,36,36,36,37,37,39
participant_9_KILLS,0,0,0,0,0,0,1,1,1,1,1,1,2,3,3,3,3,4,6,6,8,8,8,8,8,8,9,9
participant_9_BUY,[],"[1039, 3340, 2003, 2003, 2003]",[],[],[],[],[3715],[3108],[],"[1414, 2055]",[],[],[],[],"[3057, 1026, 3158, 3020, 2055, 2055]",[],[1052],[],[],"[3100, 1026, 2003]",[],"[1028, 2055, 2055]",[],[3916],[3165],[],[],[]
participant_9_SOLD,[],[],[],"[2003, 2003, 2003]",[],[],[1039],[],[],"[3108, 3715]","[2055, 3340]",[3513],[],[],"[2422, 2422]",[2055],[],[2055],[],"[3057, 1052, 1026]",[],[2003],[],[1028],"[3916, 1026]",[],[],[]
participant_9_UNDO,[],[],[],[],[],[],[],[],[],[],[],[],[],[],"[[0, 3158]]",[],[],[],[],[],[],[],[],[],[],[],[],[]
team0_KILLS,0,0,0,0,1,1,3,4,4,5,6,9,9,9,12,13,15,17,19,21,21,26,26,27,27,27,31,31
team0_CURRENTGOLD,2500,0,479,1831,1679,2124,3284,3917,3472,2827,3577,4681,1669,3073,3991,5641,3287,4415,6240,1042,2031,6632,1233,2057,2322,2974,6535,7259
team0_TOTALGOLD,2500,2500,2979,4331,6114,7509,9804,11312,12957,14797,16347,19116,20569,21973,24842,27741,29562,32390,34515,36616,37906,42507,43658,45279,46147,47648,51207,52134
team0_LEVEL,5,5,6,13,17,20,24,27,31,33,37,39,41,43,45,50,51,53,54,57,58,60,60,64,64,65,66,67
team0_SBIRES,0,0,11,34,55,84,110,135,163,193,218,227,253,283,305,334,344,362,378,397,413,428,436,448,458,476,492,500
team1_KILLS,0,0,0,0,0,0,2,4,4,5,6,7,9,11,11,11,13,15,17,18,21,21,23,26,28,28,29,31
team1_CURRENTGOLD,2500,0,415,1719,2732,1982,3179,3974,2026,2227,3111,2194,4796,7229,3888,1369,3629,2283,4037,1597,4927,2332,2652,3978,4395,3683,3996,5023
team1_TOTALGOLD,2500,2500,2915,4219,5582,6957,8804,11124,12431,14177,16211,17999,20601,23034,24393,25449,28144,30453,32207,33682,37012,37747,40067,42592,45480,47290,48306,49573
team1_LEVEL,5,5,6,13,17,19,22,27,30,33,35,37,39,43,44,46,49,51,52,54,57,57,59,62,64,64,65,68
team1_SBIRES,0,0,8,32,63,87,107,140,162,186,220,230,254,279,304,319,343,363,373,381,404,404,422,436,448,480,485,490
delta_KILLS,0,0,0,0,1,1,1,0,0,0,0,2,0,-2,1,2,2,2,2,3,0,5,3,1,-1,-1,2,0
delta_CURRENTGOLD,0,0,64,112,-1053,142,105,-57,1446,600,466,2487,-3127,-4156,103,4272,-342,2132,2203,-555,-2896,4300,-1419,-1921,-2073,-709,2539,2236
delta_TOTALGOLD,0,0,64,112,532,552,1000,188,526,620,136,1117,-32,-1061,449,2292,1418,1937,2308,2934,894,4760,3591,2687,667,358,2901,2561
delta_LEVEL,0,0,0,0,0,1,2,0,1,0,2,2,2,0,1,4,2,2,2,3,1,3,1,2,0,1,1,-1
delta_SBIRES,0,0,3,2,-8,-3,3,-5,1,7,-2,-3,-1,4,1,15,1,-1,5,16,9,24,14,12,10,-4,7,10
