name,frame_0,frame_1,frame_2,frame_3,frame_4,frame_5,frame_6,frame_7,frame_8,frame_9,frame_10,frame_11,frame_12,frame_13,frame_14,frame_15,frame_16,frame_17,frame_18,frame_19,frame_20,frame_21,frame_22,frame_23,frame_24,frame_25,frame_26,frame_27,frame_28
nameStamp,Tstart,Tearly,Tearly,Tearly,Tearly,Tearly,Tearly,Tearly,Tearly,Tearly,Tmid,Tmid,Tmid,Tmid,Tmid,Tmid,Tmid,Tmid,Tmid,Tmid,Tmid,Tmid,Tmid,Tmid,Tmid,Tmid,Tmid,Tmid,Tmid
timestamp,0,60013,120026,180036,240046,300058,360067,420078,480092,540101,600107,660116,720127,780139,840147,900160,960174,1020189,1080204,1140219,1200232,1260245,1320256,1380267,1440278,1500288,1560299,1620309,1680309
participant_0_GOLD,1400,1400,1876,2422,2920,3491,4298,4703,5917,6834,7448,8389,8838,9422,10014,10727,11662,12143,12549,13476,14080,15760,16543,17293,17905,18667,19401,20555,20868
participant_0_CURRENTGOLD,1400,0,476,1022,1520,2091,2898,503,1717,934,1548,2489,538,1122,1714,2427,3362,3843,309,1236,1840,3520,4303,5053,5665,4792,2126,3280,2868
participant_0_LEVEL,1,3,4,5,6,7,8,8,10,10,11,12,13,13,14,15,16,16,16,17,18,18,18,18,18,18,18,18,18
participant_0_MINIONSKILLED,0,0,3,7,8,10,14,15,20,27,34,41,46,52,59,64,75,79,80,93,101,112,114,119,127,136,140,151,155
participant_0_KILLS,0,0,0,0,0,0,1,1,2,3,3,3,3,3,3,4,5,5,5,6,6,9,10,11,11,11,11,12,12
participant_0_BUY,[],"[3184, 1001, 2031]",[],[],[],[],[],"[6670, 1053, 1018]",[],"[6673, 3006, 1042]",[],[],[3094],[],[],[],[],[],"[3031, 1018]",[],[],[],[],[],[],[3036],[3072],[],[]
participant_0_SOLD,[],[],[],[],[],[],[],[],[],"[6670, 1018, 1053, 1001]",[],[],[1042],[],[],[],[],[],[2031],[],[],[],[],[],[],"[1018, 3184]",[],[],[]
participant_0_UNDO,[],[],[],[],[],[],[],[],[],[],[],[],[],[],[],[],[],[],[],[],[],[],[],[],[],[],[],[],[]
participant_1_GOLD,1400,1400,1862,2372,2812,3201,3819,4185,4629,5023,5528,6128,6524,6905,7384,7865,8303,8699,9232,9820,10243,10753,11234,11594,11954,12700,13384,14063,14269
participant_1_CURRENTGOLD,1400,0,462,972,112,101,219,145,189,183,688,38,699,230,709,140,278,374,907,1495,1918,2428,1459,469,379,225,509,1188,519
participant_1_LEVEL,1,3,4,5,6,6,7,7,8,9,9,11,11,11,12,12,13,14,14,15,16,16,17,17,17,18,18,18,18
participant_1_MINIONSKILLED,0,0,2,5,5,6,8,8,8,8,10,10,10,11,12,14,14,14,18,22,23,23,23,23,23,28,28,31,32
participant_1_KILLS,0,0,0,0,0,0,1,1,1,1,1,1,1,1,1,1,1,1,1,1,1,1,1,1,1,2,2,2,2
participant_1_BUY,[],"[2051, 1006, 1006, 1006]",[],[],"[3801, 1028, 3067]",[1028],[1011],[3083],[1028],[3067],[],"[1028, 1028, 1033]",[3211],[3065],[],"[6660, 1033]",[1029],[1001],[],[],[],[],[3068],"[1011, 1033]",[1057],[3001],[1028],[],[]
participant_1_SOLD,[],[],[],[],"[1006, 1028]",[],[1028],"[1006, 1006, 1011, 3067, 3801]",[],[1028],[],[],"[2051, 1028, 1033]","[3211, 3067]",[],[1028],[],[],[],[],[],[],"[6660, 1033, 1029]",[],[1033],"[1011, 1057]",[],[],[]
participant_1_UNDO,[],[],[],[],[],[],[],[],[],[],[],[],[],[],[],[],[],[],[],[],[],[],[],[],[],[],[],[],[]
participant_2_GOLD,1400,1400,1833,2307,2818,3641,4135,4602,5004,5515,6162,6983,7559,7937,8396,8862,9879,10311,11337,11845,12292,12908,14084,14456,14934,15575,16404,16902,17019
participant_2_CURRENTGOLD,1400,0,433,907,1418,1041,1535,2002,404,515,1162,1983,2559,337,796,1262,2279,2711,1237,1745,2192,308,184,556,1034,1675,2504,502,619
participant_2_LEVEL,1,3,4,5,6,7,8,8,9,10,11,12,12,13,13,14,15,15,16,17,18,18,18,18,18,18,18,18,18
participant_2_MINIONSKILLED,0,0,1,2,4,6,8,9,9,9,10,11,11,11,13,13,15,15,19,19,20,20,24,24,26,27,28,28,28
participant_2_KILLS,0,0,0,0,0,1,1,1,1,1,2,3,4,4,4,4,6,6,8,8,8,8,10,10,10,10,10,10,10
participant_2_BUY,[],"[3802, 2003, 2003]",[],[],[],"[3108, 1001]",[],[],"[6653, 3020]",[1028],[],[],[],[4637],[],[],[],[],[3165],[],[],"[1058, 1058]",[3089],[],[],[],[],[3135],[]
participant_2_SOLD,[],[2003],[],[2003],[],[],[],[],"[3802, 3108, 1001]",[],[2052],[],[],[1028],[],[],[],[],[],[],[],[],"[1058, 1058]",[],[],[],[],[],[]
participant_2_UNDO,[],[],[],[],[],[],[],[],[],[],[],[],[],[],[],[],[],[],[],[],[],[],[],[],[],[],[],[],[]
participant_3_GOLD,1400,1400,1853,2324,2858,3302,3744,4226,4727,5382,5861,6954,7374,7879,8369,8817,9369,9828,10391,11154,11758,12724,13455,13827,14343,15000,15690,16275,16422
participant_3_CURRENTGOLD,1400,0,453,924,1458,352,794,1276,227,432,911,2004,2424,2929,3419,417,719,1178,1741,2504,3108,4074,2755,187,703,1360,930,1515,972
participant_3_LEVEL,1,3,4,5,6,6,7,8,9,10,10,12,12,13,13,14,15,15,16,17,18,18,18,18,18,18,18,18,18
participant_3_MINIONSKILLED,0,0,2,2,4,4,4,6,6,6,6,9,9,10,12,12,12,14,15,18,19,20,21,21,22,24,24,24,24
participant_3_KILLS,0,0,0,0,0,0,0,0,0,1,1,2,2,2,2,2,2,2,2,3,4,5,6,6,6,6,6,6,6
participant_3_BUY,[],"[4642, 1001, 2003]",[],[],[],"[3067, 3158, 2031]",[],[],"[4005, 1033, 1004]",[1057],[],[],[],[],[],"[3222, 3504]",[1004],[],[],[],[],[],[6616],[4629],[],[],"[1058, 2139]",[],[]
participant_3_SOLD,[],[],[],[2003],[],[1001],[],[],"[3067, 4642]",[1033],[],[],[],[],[],"[1004, 1057]",[],[],[],[],[],[],[1004],[2031],[],[],"[3158, 2139]",[],[]
participant_3_UNDO,[],[],[],[],[],[],[],[],[],[],[],[],[],[],[],[],[],[],[],[],[],[],[],[],[],[],[],[],[]
participant_4_GOLD,1400,1400,1856,2352,3270,4139,4596,4989,6016,6666,7193,8871,9291,10238,10668,11288,12340,12892,13392,14211,14594,15546,16036,16431,16956,18334,19134,20192,20505
participant_4_CURRENTGOLD,1400,0,456,952,1870,889,746,539,466,516,243,1921,466,613,1043,238,990,1542,1242,2061,444,761,1251,1646,2171,3549,2249,2807,2455
participant_4_LEVEL,1,3,4,5,6,7,7,8,9,10,10,11,12,13,13,13,14,15,15,16,16,17,18,18,18,18,18,18,18
participant_4_MINIONSKILLED,0,0,2,4,6,10,12,13,16,16,20,29,29,32,33,34,34,40,43,44,44,48,52,53,57,65,70,75,75
participant_4_KILLS,0,0,0,0,2,3,3,3,5,6,6,9,9,10,10,11,12,12,12,13,13,14,14,14,14,18,18,21,22
participant_4_BUY,[],"[3177, 1036, 2003, 2003]",[],[],[],"[1053, 1018, 1036, 1036]",[6670],[6673],"[3006, 1042]",[1018],[3123],[],"[3033, 1037]",[1031],[],[6333],[1042],[],[3051],[],[3091],[1038],[],[],[],[],[3072],[2139],[]
participant_4_SOLD,[],[],"[2003, 2003]",[],[],[1036],"[1036, 1036]","[6670, 1018, 1053]",[2422],[],[],[],"[3123, 1018, 1042]",[],[],"[1031, 1037]",[],[],[1042],[],[3051],[3177],[],[],[],[],[1038],[2139],[]
participant_4_UNDO,[],[],[],[],[],[],[],[],[],[],[],[],[],[],[],[],[],[],[],[],[],[],[],[],[],[],[],[],[]
participant_5_GOLD,1400,1400,1853,2394,2852,3654,4198,4901,5334,6253,6689,7245,7872,8320,8820,9354,9769,10286,10926,11418,11832,12221,12906,13289,13733,14301,14857,15359,15498
participant_5_CURRENTGOLD,1400,0,453,994,302,354,898,1601,534,1453,589,445,1072,1520,2020,2554,269,786,1426,318,432,321,1006,1389,1248,1816,722,1224,698
participant_5_LEVEL,1,3,4,5,6,6,7,8,9,10,10,11,12,12,13,14,14,15,16,16,17,17,18,18,18,18,18,18,18
participant_5_MINIONSKILLED,0,0,2,8,12,15,21,26,26,29,30,30,33,34,37,40,40,43,49,53,53,54,63,64,64,65,65,66,66
participant_5_KILLS,0,0,0,0,0,2,2,2,2,3,3,4,4,4,4,4,4,4,4,4,4,4,4,4,4,4,4,4,4
participant_5_BUY,[],"[3184, 2003, 1001, 2003, 2003]",[],[],"[3111, 1036]",[3044],[],[],"[3067, 3057]",[],"[6632, 1029, 1029]","[3082, 1029]",[],[],[],[],"[3143, 1057, 1028]",[],[],[4401],[1029],[3076],[],[],[3211],[],[3065],[],[]
participant_5_SOLD,[],[],[],[],[1001],[1036],[],[],[],[2003],"[3044, 3057, 3067]","[2003, 1029, 1029]",[2003],[],[],[],"[3082, 1029]",[],[],"[1057, 1028]",[],[1029],[],[],[3184],[],[3211],[],[]
participant_5_UNDO,[],[],[],[],[],[],[],[],[],[],[],[],[],[],[],[],[],[],[],[],[],[],[],[],[],[],[],[],[]
participant_6_GOLD,1400,1400,1926,2406,3045,3534,4066,4799,5768,6658,7295,7742,8567,9129,9677,10280,10850,11532,12351,12861,13765,14341,15779,16412,17170,18457,19278,20051,20190
participant_6_CURRENTGOLD,1400,0,526,1006,1645,884,1416,2149,3118,4008,4645,392,1217,1779,2327,2930,1000,1682,351,861,1765,256,1329,1962,2720,4007,2628,3401,3040
participant_6_LEVEL,1,3,4,5,6,7,8,9,10,11,12,12,13,14,14,15,15,16,17,17,18,18,18,18,18,18,18,18,18
participant_6_MINIONSKILLED,0,0,7,10,12,12,13,16,21,24,32,34,42,48,54,58,58,71,74,78,94,94,97,107,121,126,142,152,152
participant_6_KILLS,0,0,0,0,0,0,0,1,2,3,3,3,4,4,4,4,5,5,6,6,7,8,11,11,11,12,12,12,12
participant_6_BUY,[],"[3145, 2003, 2003, 2003, 2003, 2003, 1001]",[],[],[],"[1026, 1028]",[],[],[],[],[],"[4636, 3020, 3003]",[],[],[],[],"[1058, 1058]",[],"[3089, 1052, 1026]",[],[],"[3135, 1052]",[3916],[],[],[],"[3165, 2139]",[],[2139]
participant_6_SOLD,[],[],[2003],[],[],[],[],[],[],[],[],"[3145, 1028, 1026, 1001]",[],[],[],[],[],[],"[1058, 1058]",[],[3003],[1026],[1052],[],[],[],"[3916, 2139]",[],[2139]
participant_6_UNDO,[],"[[0, 2003], [0, 2003], [0, 2003], [0, 2003]]",[],[],[],[],[],[],[],[],[],[],[],[],[],[],[],[],"[[0, 1052]]",[],[],[],[],[],[],[],[],[],[]
participant_7_GOLD,1400,1400,1852,2303,2820,3459,4172,5015,5672,6587,7157,7642,8868,9828,10270,11307,12059,12461,13427,13859,14297,14680,15470,15949,16456,17180,17648,18318,18458
participant_7_CURRENTGOLD,1400,0,452,903,1420,2059,2772,3615,1072,437,107,107,1333,428,870,1907,709,1111,827,1259,397,380,1170,1149,1656,280,718,1388,758
participant_7_LEVEL,1,3,4,5,6,7,8,9,10,11,11,12,13,13,14,15,15,16,16,17,17,17,18,18,18,18,18,18,18
participant_7_MINIONSKILLED,0,0,1,2,2,2,4,6,6,8,8,9,10,12,13,17,22,22,22,22,22,23,27,28,30,32,32,37,37
participant_7_KILLS,0,0,0,0,0,0,1,2,3,4,5,5,7,8,8,10,11,11,13,13,13,13,14,14,14,15,15,15,15
participant_7_BUY,[],"[3802, 2003, 2003]",[],[],[],[],[],[],"[6655, 3020]","[3191, 2420]","[1052, 3108]","[3157, 1052]",[],"[1058, 3145]",[],[],"[4628, 1058]",[],[1058],[],[3089],[1028],[],[1011],[],[3116],[3916],[],[]
participant_7_SOLD,[],[],[],[],[2003],[2003],[],[],[3802],[],[1052],"[3191, 2420, 3108]",[],[1052],[],[],"[1058, 3145]",[],[],[],"[1058, 1058]",[],[],[1028],[],[1011],[3020],[],[]
participant_7_UNDO,[],[],[],[],[],[],[],[],[],[],[],[],[],[],[],[],[],[],[],[],[],[],[],[],[],[],[],[],[]
participant_8_GOLD,1400,1400,1772,2135,2495,3189,3667,4306,4979,5736,6191,6635,7367,7952,8544,8955,9514,10004,10657,11154,11559,12083,12751,13393,13925,14703,15216,16471,16610
participant_8_CURRENTGOLD,1400,450,822,1185,1545,2239,582,1221,1894,2651,3106,150,882,1467,2059,570,254,744,1397,669,374,498,291,933,1465,118,631,86,-440
participant_8_LEVEL,1,3,4,4,5,6,7,8,9,10,10,11,12,12,13,13,14,14,15,16,16,17,18,18,18,18,18,18,18
participant_8_MINIONSKILLED,0,0,0,0,0,6,6,12,15,19,22,25,33,40,47,47,53,57,61,65,65,66,73,80,83,91,95,105,105
participant_8_KILLS,0,0,0,0,0,0,0,0,1,1,1,1,1,1,1,1,1,1,1,1,1,1,1,1,1,2,2,4,4
participant_8_BUY,[],[3184],[],[],[],[],"[6670, 1053, 1018]",[],[],[],[],"[6673, 1038, 1053, 1018]",[],[],[],"[3072, 1038]",[1037],[],[],[3031],"[1036, 1036]",[3134],[1037],[],[],"[6676, 3133]",[],[3508],[]
participant_8_SOLD,[],[],[],[],[],[2052],[3184],[],[],[],[],"[6670, 1018, 1053]",[],[2052],[],"[1038, 1018, 1053]",[],[],[],"[1038, 1037]",[],"[1036, 1036]",[],[],[],"[3134, 1037]",[],[3133],[]
participant_8_UNDO,[],[],[],[],[],[],[],[],[],[],[],[],[],[],[],[],[],[],[],[],[],[],[],[],[],[],[],[],[]
participant_9_GOLD,1400,1400,1838,2285,3148,4236,4876,5740,6410,7316,7827,8312,8849,9447,9947,10535,11045,11541,11979,12428,12879,13756,14375,14789,15249,15885,16930,17422,18185
participant_9_CURRENTGOLD,1400,0,438,885,1748,336,176,1040,460,181,692,362,899,547,1047,385,895,1391,1829,2278,229,1106,755,1169,1629,965,1160,1652,-15
participant_9_LEVEL,1,3,4,5,6,7,8,9,9,10,11,11,12,13,13,13,14,15,16,16,17,18,18,18,18,18,18,18,18
participant_9_MINIONSKILLED,0,0,0,0,2,4,7,9,10,14,14,17,19,19,21,21,24,25,25,26,26,31,31,31,32,36,36,36,40
participant_9_KILLS,0,0,0,0,2,4,5,7,8,9,9,9,9,10,10,11,11,11,11,11,11,12,12,12,12,12,13,13,14
participant_9_BUY,[],"[3070, 3108, 2003, 2003]",[],[],[],[6653],[3916],[],"[1026, 1028]","[3165, 1052, 1029]",[],"[3191, 2420]",[],[3157],[],[4630],[],[],[],[],"[3135, 1058]",[],[1058],[],[],[3089],[1026],[],[3116]
participant_9_SOLD,[],[],"[2003, 2003]",[],[],[3108],[],[],[],"[1026, 3916, 1028]",[],"[1052, 1029]",[2420],"[3191, 2421]",[],[],[],[],[],[],[4630],[],[3070],[],[],"[1058, 1058]",[],[],[1026]
participant_9_UNDO,[],[],[],[],[],[],[],[],[],[],[],[],[],[],[],[],[],[],[],[],[],[],[],[],[],[],[],[],[]
team0_KILLS,0,0,0,0,2,4,6,6,9,12,13,18,19,20,20,22,26,26,28,31,32,37,41,42,42,47,47,51,52
team0_CURRENTGOLD,7000,0,2280,4777,6378,4474,6192,4465,3003,2580,4552,8435,6686,5231,7681,4484,7628,9648,5436,9041,9502,11091,9952,7911,9952,11601,8318,9292,7433
team0_TOTALGOLD,7000,7000,9280,11777,14678,17774,20592,22705,26293,29420,32192,37325,39586,42381,44831,47559,51553,53873,56901,60506,62967,67691,71352,73601,76092,80276,84013,87987,89083
team0_LEVEL,5,15,20,25,30,33,37,39,45,49,51,58,60,63,65,68,73,75,77,82,86,87,89,89,89,90,90,90,90
team0_SBIRES,0,0,10,20,27,36,46,51,59,66,80,100,105,116,129,137,150,162,175,196,207,223,234,240,255,280,290,309,314
team1_KILLS,0,0,0,0,2,6,8,12,16,20,21,22,25,27,27,30,32,32,35,35,36,38,42,42,42,45,46,48,49
team1_CURRENTGOLD,7000,450,2691,4973,6660,5872,5844,9626,7078,8730,9139,1456,5403,5741,8323,8346,3127,5714,5830,5385,3197,2561,4551,6602,8718,7186,5859,7751,4041
team1_TOTALGOLD,7000,7000,9241,11523,14360,18072,20979,24761,28163,32550,35159,37576,41523,44676,47258,50431,53237,55824,59340,61720,64332,67081,71281,73832,76533,80526,83929,87621,88941
team1_LEVEL,5,15,20,24,29,33,38,43,47,52,54,57,62,64,67,70,72,76,80,82,85,87,90,90,90,90,90,90,90
team1_SBIRES,0,0,10,20,28,39,51,69,78,94,106,115,137,153,172,183,197,218,231,244,260,268,291,310,330,350,370,396,400
delta_KILLS,0,0,0,0,0,-2,-2,-6,-7,-8,-8,-4,-6,-7,-7,-8,-6,-6,-7,-4,-4,-1,-1,0,0,2,1,3,3
delta_CURRENTGOLD,0,-450,-411,-196,-282,-1398,348,-5161,-4075,-6150,-4587,6979,1283,-510,-642,-3862,4501,3934,-394,3656,6305,8530,5401,1309,1234,4415,2459,1541,3392
delta_TOTALGOLD,0,0,39,254,318,-298,-387,-2056,-1870,-3130,-2967,-251,-1937,-2295,-2427,-2872,-1684,-1951,-2439,-1214,-1365,610,71,-231,-441,-250,84,366,142
delta_LEVEL,0,0,0,1,1,0,-1,-4,-2,-3,-3,1,-2,-1,-2,-2,1,-1,-3,0,1,0,-1,-1,-1,0,0,0,0
delta_SBIRES,0,0,0,0,-1,-3,-5,-18,-19,-28,-26,-15,-32,-37,-43,-46,-47,-56,-56,-48,-53,-45,-57,-70,-75,-70,-80,-87,-86
