name,frame_0,frame_1,frame_2,frame_3,frame_4,frame_5,frame_6,frame_7,frame_8,frame_9,frame_10,frame_11,frame_12,frame_13,frame_14,frame_15,frame_16,frame_17,frame_18,frame_19,frame_20,frame_21,frame_22,frame_23,frame_24
nameStamp,Tstart,Tearly,Tearly,Tearly,Tearly,Tearly,Tearly,Tearly,Tearly,Tearly,Tearly,Tearly,Tearly,Tearly,Tearly,Tearly,Tearly,Tmid,Tmid,Tmid,Tmid,Tmid,Tmid,Tmid,Tmid
timestamp,0,60007,120024,180045,240067,300086,360099,420112,480123,540141,600164,660186,720203,780222,840236,900263,960289,1020309,1080321,1140342,1200363,1260387,1320405,1380428,1440428
participant_0_GOLD,500,500,562,871,1482,1800,2175,2490,2771,2956,3723,3845,4073,4649,4806,5698,6077,7205,7780,8426,9487,10016,10514,11507,11857
participant_0_CURRENTGOLD,500,0,62,371,82,400,775,1090,296,481,1248,70,298,874,231,1123,252,1380,1955,2601,3662,441,939,1932,2282
participant_0_LEVEL,1,1,1,3,4,5,6,7,7,8,9,9,9,10,11,12,12,13,13,14,15,15,16,16,16
participant_0_MINIONSKILLED,0,0,2,11,16,27,38,49,50,54,66,66,72,81,83,96,104,122,133,139,150,153,165,171,171
participant_0_KILLS,0,0,0,0,0,1,1,1,1,1,1,1,1,1,1,1,1,1,2,4,4,5,5,6,7
participant_0_BUY,[],"[2033, 3340]",[],[],[],[],[],"[1052, 1001]",[],[],[],[3802],[2055],[],[],[],[1026],[],"[3285, 2055]",[3020],[],[],"[2420, 1052]",[],[]
participant_0_SOLD,[],[],[],[],[],[],[],[],[],[],[],[1052],[2055],[],[],[],[],[],"[3802, 1026]",[1001],[],[],[],[],[]
participant_0_UNDO,[],[],[],[],[],[],[],[],[],[],[],[],[],[],[],[],[],[],[],[],[],[],[],[],[]
participant_1_GOLD,500,500,635,1033,1233,1602,2045,2402,3204,3527,3884,4061,4318,5185,5680,6026,6409,7203,7736,8480,8652,9523,9853,10605,10858
participant_1_CURRENTGOLD,500,0,135,533,733,1102,195,552,1354,1676,2034,2211,93,960,1455,1801,2184,2978,3511,330,502,148,478,1230,1483
participant_1_LEVEL,1,1,2,3,3,4,4,5,6,6,7,7,7,8,9,9,10,10,11,12,12,12,12,13,13
participant_1_MINIONSKILLED,0,0,0,0,0,0,0,0,0,0,0,0,0,1,1,1,1,10,12,18,18,20,20,26,26
participant_1_KILLS,0,0,0,0,1,1,1,1,1,1,2,2,2,3,3,5,5,6,7,8,12,13,13,15,16
participant_1_BUY,[],"[2033, 3340, 3364, 3340]",[],[],"[1029, 1029, 1001]",[],[],[],"[3076, 1029, 1029, 2055]",[],[],[3075],[],[],[3067],[],[3044],[],[],[],[],"[3071, 3006, 3133, 1036, 1053]",[],[],[]
participant_1_SOLD,[],"[3340, 3364]",[],[],[],[],[],[],"[1029, 1029]",[],[],"[3076, 1029, 1029]",[],[2055],[],[],[],[],[],[],[],"[3044, 3067, 1001, 1036]",[],[],[]
participant_1_UNDO,[],[],[],[],[],[],[],[],[],[],[],[],[],[],[],[],[],[],[],[],[],[],[],[],[]
participant_2_GOLD,500,500,576,748,976,1426,1549,1720,1891,2184,2362,2721,2913,3168,3333,3539,3712,4159,4631,5290,5530,5983,6241,6743,7069
participant_2_CURRENTGOLD,500,0,76,248,476,926,1049,485,656,949,1127,621,738,993,1158,1364,687,1134,481,340,580,1033,206,708,1034
participant_2_LEVEL,1,1,1,3,4,4,4,5,6,7,7,8,8,9,9,10,10,10,11,11,11,12,12,13,13
participant_2_MINIONSKILLED,0,0,3,6,12,14,14,17,20,27,30,41,45,53,56,61,61,67,67,67,70,74,76,77,77
participant_2_KILLS,0,0,0,0,0,0,0,0,0,0,0,0,0,0,0,1,1,2,2,2,2,2,2,2,2
participant_2_BUY,[],"[3854, 2003, 2003, 3340]",[],[],[],[],[],[1001],[],[3024],[],[],[],[],"[1031, 3067, 3364]",[],[3109],[],"[3117, 1029, 1029]",[],[3082],[],[],[3024],[]
participant_2_SOLD,[],[],[],"[2003, 2010]",[2003],[2010],[],[],[],[2010],[],[],[],[3854],"[3024, 3340]",[],"[3067, 1031]",[],[1001],[],"[1029, 1029]",[],[],[],[]
participant_2_UNDO,[],[],[],[],[],[],[],[],[],[],[],[],[],[],[],[],[],[],[],[],[],[],[],[],[]
participant_3_GOLD,500,500,583,864,1148,1305,1463,1676,1972,2151,2750,3034,3411,4088,4391,5165,5629,6365,7189,7504,8429,8651,9306,9921,9996
participant_3_CURRENTGOLD,500,0,83,364,648,805,963,326,622,801,1400,1684,2061,2738,141,915,1379,2115,2939,571,1496,218,873,1488,663
participant_3_LEVEL,1,1,1,2,3,3,4,4,5,5,6,7,7,8,8,9,9,10,10,11,11,11,12,12,13
participant_3_MINIONSKILLED,0,0,3,9,18,20,22,27,34,37,45,54,64,76,77,89,94,95,102,105,111,111,115,118,118
participant_3_KILLS,0,0,0,0,0,0,0,0,0,0,1,1,1,1,1,2,2,4,4,4,5,5,5,6,6
participant_3_BUY,[],"[1055, 2003, 3340]",[],[],[],[],[],[3070],[],[],[],[],[],[],"[3004, 3057, 1001]",[],[],[],[],[3078],[],"[3020, 1036, 1036]",[],[],[3144]
participant_3_SOLD,[],[],[],[],[],[2003],[],[],[],[],[],[],[],[],[3070],[],[],[],[],[3057],[],[1001],[3004],[],"[1036, 1036]"
participant_3_UNDO,[],[],[],[],[],[],[],[],[],[],[],[],[],[],[],[],[],[],[],[],[],[],[],[],[]
participant_4_GOLD,500,500,543,759,915,1049,1334,1510,1679,1814,1997,2184,2398,2663,2803,3384,3897,4412,4706,4896,5299,5565,5840,6081,6110
participant_4_CURRENTGOLD,500,0,43,259,415,549,834,710,879,114,297,484,698,963,133,714,627,1142,136,326,329,595,870,211,-390
participant_4_LEVEL,1,1,1,2,3,3,3,4,4,5,5,5,6,6,6,8,8,9,9,9,10,11,11,11,11
participant_4_MINIONSKILLED,0,0,1,3,4,4,4,6,8,8,11,14,14,17,17,18,21,23,25,25,25,25,27,27,27
participant_4_KILLS,0,0,0,0,0,0,1,1,3,3,3,3,3,5,6,6,6,6,6,6,6,8,8,8,8
participant_4_BUY,[],"[1041, 2031, 3340]",[],[],[],[],"[3715, 1036, 1036]",[],[],[],[],[],"[1412, 3134, 1036]",[],[],[],[],[],[],"[3147, 1001, 1038, 1037]",[],[3031],[],[],[]
participant_4_SOLD,[],[],[],[],[],[],[1041],[],[],[],[],[],"[1036, 1036, 3715]",[],[],[],[],[],[],"[3134, 1036]",[],"[1038, 1037]",[],[],[]
participant_4_UNDO,[],[],[],[],[],[],[],[],[],[],[],[],[],[],[],[],[],[],[],[],[],[],[],[],[]
participant_5_GOLD,500,500,520,704,1011,1290,1493,1665,1825,2088,2210,3161,3560,3731,3854,3991,4135,4344,4490,4627,4799,7043,7319,7824,7850
participant_5_CURRENTGOLD,500,0,20,204,161,440,643,815,25,288,60,1011,1410,1581,104,241,385,594,740,107,279,2523,24,29,-125
participant_5_LEVEL,1,1,1,2,4,4,5,6,6,7,7,8,9,9,9,10,10,10,10,10,10,11,12,12,12
participant_5_MINIONSKILLED,0,0,0,3,10,16,20,22,24,33,33,41,53,56,56,56,57,58,59,60,60,68,77,80,80
participant_5_KILLS,0,0,0,0,0,0,0,0,0,0,0,1,1,1,1,1,1,1,1,1,1,3,3,4,4
participant_5_BUY,[],"[1054, 2003, 3340]",[],[],"[1001, 1036]",[],[],[],"[3067, 3044, 2003]",[],"[1001, 2003]",[],[],[3047],"[3067, 3047]",[],[],[],[],[3071],[],[],"[3052, 1037, 1028, 1029]","[1031, 1031]",[]
participant_5_SOLD,[],[],[],[2003],[],[],[],[],[1036],[],[2003],[2003],[],[1001],[1001],[],[],[],[],"[1054, 3044, 3067]",[],[],[],"[1029, 1029]",[]
participant_5_UNDO,[],[],[],[],"[[0, 1001]]",[],[],[],"[[0, 3067]]",[],[],[],[],"[[0, 3047]]",[],[],[],[],[],[],[],[],[],"[[0, 1031]]",[]
participant_6_GOLD,500,500,620,913,1241,1363,1507,1748,1870,2078,2435,2558,2760,3072,3195,3417,3540,3662,3805,3928,4100,4348,4505,4627,4653
participant_6_CURRENTGOLD,500,0,120,413,741,213,357,598,20,228,585,308,510,822,70,292,415,537,680,803,975,423,580,702,728
participant_6_LEVEL,1,1,2,2,3,3,3,4,4,4,5,5,5,6,6,6,6,7,7,7,7,8,9,10,10
participant_6_MINIONSKILLED,0,0,0,0,0,0,1,2,2,2,2,2,2,2,2,2,2,2,3,3,3,3,5,5,5
participant_6_KILLS,0,0,0,0,0,0,0,0,0,0,0,0,0,0,0,0,0,0,0,0,0,0,0,0,0
participant_6_BUY,[],"[1055, 2003, 3340]",[],[],[],[],[],[1038],[],[],[],[3006],"[2003, 2055]",[],[1018],[],[],[1037],[],[3031],[1042],[],[],[1018],[]
participant_6_SOLD,[],[],[],[],[],[2003],[],[],[],[],[],[],[],"[2055, 2003]",[],[],[],[],[],"[1055, 1038, 1037, 1018]",[],[],[],[],[]
participant_6_UNDO,[],[],[],[],[],[],[],[],[],[],[],[],[],[],[],[],[],[],[],[],[],[],[],[],[]
participant_7_GOLD,500,500,597,895,1088,1210,1333,1518,1842,2112,2395,2747,3190,3487,3747,4065,4310,4446,4603,4859,5541,5769,5919,6181,6207
participant_7_CURRENTGOLD,500,0,97,395,588,710,33,218,542,812,1095,347,790,1087,1347,1665,1910,2046,153,19,131,359,209,471,-143
participant_7_LEVEL,1,1,1,3,4,4,4,4,5,6,7,7,8,8,9,9,10,10,10,10,10,11,11,11,12
participant_7_MINIONSKILLED,0,0,4,14,18,18,18,22,30,38,47,57,67,77,82,89,92,93,95,98,99,101,103,107,107
participant_7_KILLS,0,0,0,0,0,0,0,0,0,0,0,0,0,0,0,0,0,0,0,0,0,0,0,0,0
participant_7_BUY,[],"[1041, 2031, 3340]",[],[],[],[3706],[],[],"[1001, 1028]",[],[],[1028],[],[],[1037],[],[],[],[],[],[],[3052],[],[],[]
participant_7_SOLD,[],[],[],[],[],[1041],[],[],[],[],[],[],[],[],[],[],[],[],[],[],[],[1028],[],[],[]
participant_7_UNDO,[],[],[],[],[],[],[],[],[],[],[],[],[],[],[],[],[],[],[],[],[],[],[],[],[]
participant_8_GOLD,500,500,576,906,1176,1382,1505,1840,2248,2597,2977,3329,3627,3819,4089,4295,4656,4792,5021,5205,5461,5848,6010,6300,6326
participant_8_CURRENTGOLD,500,0,76,406,676,882,1005,40,448,797,1177,429,602,794,264,470,831,92,321,260,216,603,765,255,101
participant_8_LEVEL,1,1,1,2,3,3,4,4,5,6,6,6,7,7,8,8,8,8,8,9,9,10,10,11,11
participant_8_MINIONSKILLED,0,0,3,12,20,25,25,35,49,59,64,74,81,85,94,99,109,110,116,120,125,129,131,137,137
participant_8_KILLS,0,0,0,0,0,0,0,0,0,0,0,0,0,0,0,0,0,0,0,0,1,1,1,1,1
participant_8_BUY,[],"[1055, 2003, 3340]",[],[],[],[],"[1055, 1042, 2003]",[],[],[],[],"[3006, 1042]",[],[],[],[],[],[],"[3086, 1018, 2031]",[1033],[3211],[],[1042],[],[2015]
participant_8_SOLD,[],[],[],[],[],[],[],[],[2003],[],[],[1042],[],[],[],[],[],[2003],[1042],[2031],"[1055, 1033]",[],[],[],[1042]
participant_8_UNDO,[],[],[],[],[],[],[],[],[],[],[],[],[],[],[],[],[],[],[],[],[],[],[],[],[]
participant_9_GOLD,500,500,557,713,869,1024,1159,1373,1597,1784,1918,2151,2305,2467,2637,2777,2981,3121,3276,3426,3566,3707,3857,4074,4103
participant_9_CURRENTGOLD,500,0,57,213,369,524,659,48,272,459,68,301,455,192,362,52,256,396,551,351,491,632,132,349,378
participant_9_LEVEL,1,1,1,2,3,3,3,4,5,5,5,6,6,6,6,7,7,7,7,8,8,8,8,9,9
participant_9_MINIONSKILLED,0,0,2,3,4,5,5,7,9,12,12,14,15,16,17,17,21,21,22,22,22,22,22,23,23
participant_9_KILLS,0,0,0,0,0,0,0,0,0,0,0,0,0,0,0,0,0,0,0,0,0,0,0,0,0
participant_9_BUY,[],"[3858, 3340, 2003, 2003]",[],[],[],[],[],"[1001, 1029, 2031, 3364, 2055]",[],[],"[1033, 2055]",[],[],"[3105, 2055]",[],[1033],[],[],[],[2033],[],[],[3190],[],[]
participant_9_SOLD,[],[],[],[],[],"[2003, 2003]",[],[3340],[],[2055],[],[3858],[2055],"[1033, 1029]",[],[],[],[],[],[2031],[],[],"[3105, 1033]",[],[]
participant_9_UNDO,[],[],[],[],[],[],[],[],[],[],[],[],[],[],[],[],[],[],[],[],[],[],[],[],[]
team0_KILLS,0,0,0,0,1,2,3,3,5,5,7,7,7,10,11,15,15,19,21,24,29,33,33,37,39
team0_CURRENTGOLD,2500,0,399,1775,2354,3782,3816,3163,3807,4021,6106,5070,3888,6528,3118,5917,5129,8749,9022,4168,6569,2435,3366,5569,5072
team0_TOTALGOLD,2500,2500,2899,4275,5754,7182,8566,9798,11517,12632,14716,15845,17113,19753,21013,23812,25724,29344,32042,34596,37397,39738,41754,44857,45890
team0_LEVEL,5,5,6,13,17,19,21,25,28,31,34,36,37,41,43,48,49,52,54,57,59,61,63,65,66
team0_SBIRES,0,0,9,29,50,65,78,99,112,126,152,175,195,228,234,265,281,317,339,354,374,383,403,419,419
team1_KILLS,0,0,0,0,0,0,0,0,0,0,0,1,1,1,1,1,1,1,1,1,2,4,4,5,5
team1_CURRENTGOLD,2500,0,370,1631,2535,2769,2697,1719,1307,2584,2985,2396,3767,4476,2147,2720,3797,3665,2445,1540,2092,4540,1710,1806,939
team1_TOTALGOLD,2500,2500,2870,4131,5385,6269,6997,8144,9382,10659,11935,13946,15442,16576,17522,18545,19622,20365,21195,22045,23467,26715,27610,29006,29139
team1_LEVEL,5,5,6,11,17,17,19,22,25,28,30,32,35,36,38,40,41,42,42,44,44,48,50,53,54
team1_SBIRES,0,0,9,32,52,64,69,88,114,144,158,188,218,236,251,263,281,284,295,303,309,323,338,352,352
delta_KILLS,0,0,0,0,1,2,3,3,5,5,7,6,6,9,10,14,14,18,20,23,27,29,29,32,34
delta_CURRENTGOLD,0,0,29,144,-181,1013,1119,1444,2500,1437,3121,2674,121,2052,971,3197,1332,5084,6577,2628,4477,-2105,1656,3763,4133
delta_TOTALGOLD,0,0,29,144,369,913,1569,1654,2135,1973,2781,1899,1671,3177,3491,5267,6102,8979,10847,12551,13930,13023,14144,15851,16751
delta_LEVEL,0,0,0,2,0,2,2,3,3,3,4,4,2,5,5,8,8,10,12,13,15,13,13,12,12
delta_SBIRES,0,0,0,-3,-2,1,9,11,-2,-18,-6,-13,-23,-8,-17,2,0,33,44,51,65,60,65,67,67
