name,team0,team1
win,Win,Fail
firstBlood,True,False
firstTower,True,False
firstInhibitor,True,False
firstBaron,True,False
firstDragon,False,True
firstRiftHerald,True,False
towerKills,11,3
inhibitorKills,5,0
baronKills,2,0
dragonKills,4,2
riftHeraldKills,1,0
