name,frame_0,frame_1,frame_2,frame_3,frame_4,frame_5,frame_6,frame_7,frame_8,frame_9,frame_10,frame_11,frame_12,frame_13,frame_14,frame_15,frame_16,frame_17,frame_18,frame_19,frame_20,frame_21,frame_22,frame_23,frame_24,frame_25,frame_26,frame_27,frame_28,frame_29,frame_30,frame_31,frame_32,frame_33,frame_34,frame_35,frame_36,frame_37
nameStamp,Tstart,Tearly,Tearly,Tearly,Tearly,Tearly,Tearly,Tearly,Tearly,Tearly,Tearly,Tearly,Tearly,Tearly,Tmid,Tmid,Tmid,Tmid,Tmid,Tmid,Tmid,Tmid,Tmid,Tend,Tend,Tend,Tend,Tend,Tend,Tend,Tend,Tend,Tend,Tend,Tend,Tend,Tend,Tend
timestamp,0,60014,120024,180039,240061,300070,360093,420111,480132,540156,600180,660198,720206,780217,840226,900239,960247,1020258,1080270,1140284,1200300,1260311,1320323,1380325,1440337,1500350,1560362,1620395,1680411,1740434,1800457,1860486,1920497,1980511,2040530,2100531,2160546,2220546
participant_0_GOLD,500,500,582,777,912,1746,2049,2263,2508,2768,2939,3171,3556,3791,4021,4242,4412,5682,6029,6169,6560,6730,6870,7732,7944,8169,8324,8478,8761,9301,9982,10185,10400,10540,10681,11035,11507,11831
participant_0_CURRENTGOLD,500,0,82,202,337,1171,24,88,333,593,64,296,281,516,746,567,737,2007,2354,744,1135,1305,95,957,279,505,409,563,296,836,1517,1020,335,476,616,970,1442,1706
participant_0_LEVEL,1,1,1,1,2,3,4,4,4,5,5,6,6,6,6,6,6,8,8,9,9,9,9,11,11,11,11,12,12,13,14,14,14,14,15,15,16,16
participant_0_MINIONSKILLED,0,0,0,0,0,0,2,2,3,3,4,8,10,12,13,13,14,15,17,17,17,18,18,19,23,24,25,26,28,28,33,33,33,33,33,34,35,35
participant_0_KILLS,0,0,0,0,0,1,1,1,1,1,1,1,2,2,2,2,2,2,2,2,2,2,2,2,2,2,2,2,3,3,3,3,4,4,4,4,4,4
participant_0_BUY,[],"[1055, 2003, 3340]",[],[],"[2003, 2003]",[],"[1036, 1036, 1042, 2003, 2003, 2055]",[],[],[],"[6670, 1018]",[],"[1001, 1042, 2003, 2003]",[],[],"[3006, 2055]",[],[],[],"[6672, 3363]",[],"[1042, 1042]",[],[],"[1043, 1036]",[],[1053],[],[1037],[],"[3153, 3123, 1042]",[],[],[3086],[],[3033],[1042],[]
participant_0_SOLD,[],[],[],"[2010, 2003]",[],"[2003, 2010, 2003]",[],[2003],"[2055, 2010]",[],"[2003, 1036, 1042, 1036]",[],[],[],[],"[1001, 1042]",[],[],[],"[6670, 1018, 3340]","[2003, 2003]",[],[],[],"[1042, 1042, 2055]",[],[1036],[],[],[],"[1053, 1043, 1037]",[],[],"[1055, 1042]",[],"[3123, 3086]",[],[]
participant_0_UNDO,[],[],[],[],[],[],[],[],[],[],[],[],[],[],[],[],[],[],[],[],[],[],[],[],[],[],[],[],[],[],[],[],[],[],[],[],[],[]
participant_1_GOLD,500,500,576,727,955,1639,1863,2142,2418,2614,2736,3081,3603,3775,4077,4199,4343,4946,5480,5703,6030,6286,6596,7282,7405,7541,7845,8176,8948,9603,9941,10113,10677,10800,11049,11535,11959,12285
participant_1_CURRENTGOLD,500,0,76,227,355,1039,88,367,643,839,61,406,228,400,702,249,393,996,1530,253,580,236,546,1232,605,741,495,826,723,1378,291,463,1027,430,679,466,589,735
participant_1_LEVEL,1,1,1,2,3,4,4,5,6,6,6,7,7,7,8,8,8,9,9,9,10,10,11,12,12,12,12,13,13,14,15,15,15,15,15,16,17,17
participant_1_MINIONSKILLED,0,0,3,5,11,18,19,29,38,43,43,53,53,53,60,60,61,69,79,79,80,88,95,98,98,99,105,113,113,116,118,118,120,120,122,123,123,124
participant_1_KILLS,0,0,0,0,0,0,0,0,1,1,1,1,1,1,1,1,1,1,1,1,1,1,1,1,1,2,2,2,3,3,3,3,3,3,3,3,3,4
participant_1_BUY,[],"[1056, 2003, 2003, 3340]",[],[],[],[],"[3191, 2003, 2003]",[],[1027],[1052],[],[],"[3802, 1001]",[],[1026],[],[],[],[6655],[],[],"[3020, 2420]",[],[],"[3157, 2055, 2055]",[],[1052],[],[3108],[],[3102],[1028],[],[],"[1011, 3364]",[],[],[]
participant_1_SOLD,[],[],[],[],[2003],[2003],[],[],[],[],[],[],"[1052, 1027]",[],[2003],[2003],[],[],"[3802, 1026]",[],[],[1001],[],[],"[2420, 3191, 2421]",[],[],[2055],[1052],[2055],[3108],[],[],[],"[1028, 3340]",[],[],[]
participant_1_UNDO,[],[],[],[],[],[],[],[],[],[],[],[],[],[],[],[],[],[],[],[],[],[],[],[],[],[],[],[],[],[],[],[],[],[],[],[],[],[]
participant_2_GOLD,500,500,620,1268,1568,1901,2123,2390,2712,3255,3717,4952,5276,5885,6346,6468,6591,7838,8215,8516,9758,10108,10285,10566,10765,10887,11236,12078,12334,13828,15849,16059,16553,16955,17847,18213,18662,19844
participant_2_CURRENTGOLD,500,0,120,768,1068,1401,173,440,762,1305,1767,3002,3326,35,496,618,741,1988,2365,116,1358,508,685,966,1165,1288,1636,1078,535,2028,2135,2345,39,440,1353,1719,468,469
participant_2_LEVEL,1,1,2,3,4,4,5,5,6,6,7,8,9,9,10,10,10,10,11,11,12,12,12,13,13,13,14,14,14,15,16,16,17,17,17,17,18,18
participant_2_MINIONSKILLED,0,0,0,0,0,1,2,2,2,2,2,14,16,20,21,21,21,21,21,21,21,25,25,25,25,25,27,27,28,34,43,43,53,59,59,69,69,70
participant_2_KILLS,0,0,0,1,1,1,1,1,1,2,2,4,4,4,4,4,4,6,6,6,9,9,9,9,9,9,9,10,10,12,17,17,17,17,18,18,18,21
participant_2_BUY,[],"[1035, 2031]",[],[],[],[],"[3134, 1036]",[3364],[],[],[],[],[],"[6691, 3134, 1001, 1036, 1028]",[],[],[],[],[],"[3814, 3047, 1036, 1036]",[],"[3133, 3067]",[],[],[],[],[],[3071],[3123],[],"[6609, 2055]",[],[3026],[],[3134],[],[6695],[]
participant_2_SOLD,[],[],[],[],[],[],[],[3340],[1035],[],[3364],[],[],"[3513, 3134, 1036]",[],[],[],[],[3364],"[1036, 3134, 1028, 1001]",[],"[1036, 1036]",[3513],[],[],[],[],"[3133, 3067]",[],[],"[3123, 2031, 2055]",[],[],[],[3026],[],[3134],[]
participant_2_UNDO,[],[],[],[],[],[],[],[],[],[],[],[],[],[],[],[],[],[],[],[],[],[],[],[],[],[],[],[],[],[],[],[],[],[],[],[],[],[]
participant_3_GOLD,500,500,583,804,1162,1403,1659,1924,2081,2636,2912,3349,3541,4737,5095,5322,5715,6487,7752,8314,9149,9445,9567,11805,12102,12634,12757,13110,13232,13913,14318,14523,14874,14996,15118,16985,17561,18150
participant_3_CURRENTGOLD,500,0,83,304,662,903,1159,274,281,836,1112,49,241,437,795,522,615,1387,2652,814,459,755,257,2495,542,1075,1197,1550,223,903,308,514,864,987,1109,2976,1352,1595
participant_3_LEVEL,1,1,1,2,4,5,6,6,7,8,8,8,9,9,10,10,11,11,12,12,13,13,13,14,14,15,15,15,15,16,16,17,17,17,17,18,18,18
participant_3_MINIONSKILLED,0,0,3,8,19,26,34,40,42,55,64,65,69,78,88,94,106,119,130,134,134,140,140,151,161,170,170,174,174,185,192,193,198,198,198,208,213,214
participant_3_KILLS,0,0,0,0,0,1,1,1,1,1,1,1,1,1,1,1,1,3,3,3,3,3,3,3,3,3,3,3,3,3,3,3,3,3,3,3,3,3
participant_3_BUY,[],"[3850, 2003, 2003, 3340]",[],[2055],[],[],"[4642, 1001, 2003, 2003]",[2031],[],[],"[3117, 3364]",[],[1028],[],[],[3067],[],[],[],"[4005, 3108]",[],[],[3157],[],"[3067, 2055, 2055]",[],[1004],[],[3114],[],[],[3107],[1011],[],[],[],[],[]
participant_3_SOLD,[],[],[],[2003],[2055],[2003],[],"[2003, 2003]",[3850],[],"[1001, 3340]",[2419],[2423],[],[],"[1028, 3851]",[],[],[],"[3067, 4642]",[],[],"[3108, 2424]",[],[2031],"[2055, 2055]",[],[],[1004],[],[],"[3067, 3114]",[],[],[],[],[],[]
participant_3_UNDO,[],[],[],[],[],[],[],[],[],[],[],[],[],[],[],[],[],[],[],[],[],[],[],[],[],[],[],[],[],[],[],[],[],[],[],[],[],[]
participant_4_GOLD,500,500,576,825,1113,1382,1568,1893,2573,2864,3133,3457,3741,4227,4522,4644,4903,5384,5556,6178,6699,6822,6944,7711,7939,8361,8484,8891,9412,10153,10492,10851,11059,11181,11606,11779,12202,12860
participant_4_CURRENTGOLD,500,0,76,325,603,862,48,373,258,549,818,1132,591,1077,512,634,893,1374,296,918,1439,112,234,1001,129,551,239,646,702,1443,183,142,349,471,397,569,993,1710
participant_4_LEVEL,1,1,1,3,4,5,5,6,8,8,9,9,10,10,10,10,11,11,11,12,13,13,13,13,13,13,13,14,14,15,16,16,16,16,16,16,17,17
participant_4_MINIONSKILLED,0,0,3,10,18,24,28,40,52,62,71,79,85,94,100,100,104,109,109,125,131,131,131,139,139,139,139,148,151,159,159,165,165,165,170,170,170,175
participant_4_KILLS,0,0,0,0,0,0,0,0,0,0,0,0,0,1,1,1,1,1,2,3,5,5,5,10,10,10,10,10,10,10,10,10,10,10,10,14,14,15
participant_4_BUY,[],"[1054, 2003]",[],[],[],[],[],"[6660, 1029, 2031]",[1006],[],[],"[1029, 3105]",[],"[3068, 1029]",[],[3047],[1029],[],[],[3075],[3211],[],[3067],[],"[3065, 3801, 1011]",[],[],[],[3083],[],[3082],[],[],[],[],[],"[3143, 2138]",[]
participant_4_SOLD,[],[],[],[],[],[],[],[2003],[],[],[],[1029],[],"[6660, 3105]",[],"[1029, 2422]",[],[],[],[1029],"[1006, 2031]",[],[1054],[],"[3211, 3067, 1006]",[],[],[],"[1011, 3801]",[],[],[],[],[],[],[],"[3082, 2138]",[]
participant_4_UNDO,[],[],[],[],[],[],[],"[[0, 1029]]",[],[],[],[],[],[],[],[],[],[],[],[],"[[1006, 0]]",[],[],[],[],[],[],[],[],[],[],[],[],[],[],[],[],[]
participant_5_GOLD,500,500,597,895,1060,1399,1655,1882,2234,2476,2887,3180,3323,3558,4243,4512,5070,5448,5570,5842,6015,6506,7723,7977,8370,8908,9491,9836,10834,11006,11674,11881,12632,13146,13290,13898,14021,14145
participant_5_CURRENTGOLD,500,0,97,395,560,899,1155,57,409,101,512,505,648,883,1568,187,295,673,345,617,440,531,1748,402,795,993,1576,371,1369,241,910,266,1018,1532,575,383,157,220
participant_5_LEVEL,1,1,1,3,4,5,6,6,7,7,8,8,9,9,10,10,10,11,11,11,11,12,13,13,13,14,14,14,15,15,15,15,16,17,17,17,17,17
participant_5_MINIONSKILLED,0,0,4,14,16,26,33,39,49,55,68,68,69,73,84,93,93,93,93,98,98,111,115,119,126,126,135,144,149,149,149,155,169,173,174,175,175,175
participant_5_KILLS,0,0,0,1,1,1,1,2,2,2,3,3,3,3,4,5,5,5,5,5,5,5,6,6,6,6,6,6,8,8,8,8,8,8,8,8,8,8
participant_5_BUY,[],"[3858, 2003, 2003, 3340]",[],[],[6660],[2055],[],[],"[1029, 1033, 1001, 2055]",[],[],"[1033, 3047, 3364]","[1029, 2055]",[],"[3105, 2055]",[],"[3068, 1029]",[1028],[],[3066],"[2055, 1029]",[],[],"[1031, 1028, 3742]",[],[],[],"[1011, 2055]",[],[],[],[3075],[],[1033],[],[],[],[]
participant_5_SOLD,[],[],[],"[2010, 2003, 2003]",[],[2010],[2055],[2010],[],[],[],"[1001, 1029, 3340]","[2055, 3858]",[],"[2055, 1033, 1029]",[],"[6660, 3105]",[],[],"[2055, 1028]",[],[],[2055],"[1029, 3066, 1028, 1031]",[],[],[3859],[],[],[],[],[1011],[2055],[],[],[],[],[]
participant_5_UNDO,[],[],[],[],[],[],[],[],"[[0, 1033]]",[],[],[],[],[],[],[],"[[0, 1029]]",[],[],[],[],[],[],[],[],[],[],[],[],[],[],[],[],[],[],[],[],[]
participant_6_GOLD,500,500,620,1018,1218,1530,1738,1958,2315,2518,2860,3283,3602,4071,4294,4700,5272,5963,6299,6762,6884,7219,8254,8377,8899,9296,9638,10254,10803,10976,11126,11270,11672,11944,12306,12783,12907,13031
participant_6_CURRENTGOLD,500,0,120,518,273,585,793,413,770,973,1315,338,657,1126,149,555,1127,1118,554,1017,289,624,1659,132,654,1051,443,1060,1609,431,582,185,587,860,1221,709,32,-429
participant_6_LEVEL,1,1,2,3,3,4,4,5,5,6,6,7,7,8,8,9,9,10,10,11,11,11,12,12,13,13,14,14,15,15,15,15,16,16,16,17,17,17
participant_6_MINIONSKILLED,0,0,0,0,0,0,0,0,0,0,0,0,0,0,0,1,1,4,9,9,9,9,9,9,9,9,17,17,23,23,25,26,27,27,31,32,32,32
participant_6_KILLS,0,0,0,0,0,0,0,0,0,0,0,1,1,1,1,1,2,3,3,3,3,3,4,4,5,5,5,6,6,6,6,6,6,6,6,7,7,7
participant_6_BUY,[],"[1035, 1006, 3340]",[],[],"[1028, 2031]",[],[],[6660],[],[],[],"[3111, 1029]",[],[],[3105],[],[],[3068],[1011],[],[1026],[],[],"[4637, 1028]",[],[],"[1011, 1033]",[],[],[3001],[],"[1029, 1029]",[],[],[],"[3105, 3105]",[3916],[]
participant_6_SOLD,[],[],[],[],[1006],[],[],[1028],[1035],[],[],[],[],[],[1029],[],[],"[6660, 3105]",[],[],[],[],[],"[1026, 1011]",[],[],[1028],[],[],"[1011, 1033]",[],[2031],[],[1029],[],"[1029, 1029, 1029]",[],[]
participant_6_UNDO,[],[],[],[],[],[],[],[],[],[],[],[],[],[],[],[],[],[],[],[],[],[],[],[],[],[],[],[],[],[],[],[],[],"[[1029, 0]]",[],"[[0, 3105]]",[],[]
participant_7_GOLD,500,500,534,850,1064,1480,1872,2092,2318,2532,2773,3064,3313,4318,4751,5424,6123,6259,6513,6944,7116,7420,8094,8216,8520,9032,9482,9924,10430,10602,10924,11221,12075,12420,12863,13039,13399,13805
participant_7_CURRENTGOLD,500,0,34,340,554,960,1342,112,103,317,558,849,288,153,586,1259,238,374,628,1059,631,485,859,981,185,697,1147,664,1170,572,895,591,1445,1791,633,210,569,55
participant_7_LEVEL,1,1,1,3,4,5,6,6,7,7,8,8,9,9,10,11,12,12,12,12,13,13,14,14,14,14,15,15,15,15,16,16,17,17,17,17,18,18
participant_7_MINIONSKILLED,0,0,1,9,14,28,40,45,48,53,61,71,75,79,83,93,105,106,110,121,121,127,134,134,140,140,141,141,144,144,145,151,162,171,171,171,179,179
participant_7_KILLS,0,0,0,2,2,2,2,2,2,2,3,3,4,4,4,5,6,6,6,6,7,7,8,8,8,11,11,11,11,11,11,12,14,14,14,14,14,14
participant_7_BUY,[],"[1055, 2003, 3340]",[],[],"[3134, 2031]",[],[],[],"[1053, 1001, 2055]",[],[],[6692],[],[],"[3009, 1037, 1036, 1036]",[],[],[6676],[1036],[1018],[1036],[],[],[3036],[],[],[],[3094],[1036],[],[1038],[],[],"[3095, 2140]",[],[2140],[],[]
participant_7_SOLD,[],[],[],[2003],[],[],[],[],[],[],[],"[3134, 1053]",[],[],"[1001, 2055, 2055]",[],[],"[2031, 1036, 1037]",[],[],[1055],[],[],"[1036, 1036, 1018]",[],[],[],[],[],[],[],[],[],"[1038, 2140]",[],[2140],[],[]
participant_7_UNDO,[],[],[],[],[],[],[],[],[],[],[],[],[],[],"[[0, 1036], [2055, 0]]",[],[],[],[],[],[],[],[],[],[],[],[],[],"[[0, 1036]]",[],[],[],[],[],[],[],[],[]
participant_8_GOLD,500,500,541,1535,1843,2043,2420,3093,3257,3568,4403,4602,5433,6106,6300,6938,7661,8048,8184,8761,9458,9580,10471,10594,11038,13025,13372,13693,13916,14273,14486,15260,16486,16776,17391,17547,17997,18184
participant_8_CURRENTGOLD,500,0,41,1035,93,293,670,1343,232,543,1378,377,1208,1881,250,888,1611,283,69,46,573,696,1586,109,553,2541,2888,509,731,1089,2,776,2002,392,1007,663,1113,1029
participant_8_LEVEL,1,1,1,2,3,3,4,5,5,6,6,7,8,8,8,9,9,10,10,10,11,11,12,12,12,13,13,14,14,14,14,15,15,16,16,16,16,17
participant_8_MINIONSKILLED,0,0,1,11,19,23,35,48,50,62,72,76,89,94,95,104,110,121,122,134,134,134,137,137,147,153,154,157,157,157,162,168,181,187,193,193,208,211
participant_8_KILLS,0,0,0,0,0,0,0,0,0,0,0,0,0,0,1,1,2,2,2,2,2,2,3,3,3,4,4,4,6,6,7,7,7,8,8,9,9,9
participant_8_BUY,[],"[1055, 1036, 2003, 2003, 2003, 3340]",[],[],[],[],[],"[3133, 1036, 2031, 2055]",[],[1053],[],[1001],[],[],[],"[3074, 1036]","[3123, 3364]",[],[1033],[],[3111],[1028],[],"[3067, 6029]",[],[1028],[],"[6630, 2420]",[],[1038],[],[3026],[],[],[3133],[6609],[1036],[]
participant_8_SOLD,[],[],[],[],[2003],[2003],[],"[2003, 1036]",[],[1036],[],[],[],[],[],"[1053, 3133]","[1036, 3340]",[],[],[2055],"[1001, 1033]",[],[],[1028],[],[2031],[],"[6029, 1028, 3067]",[2420],[],[],"[1038, 2421]",[],[],[],"[3123, 3133]",[],[]
participant_8_UNDO,[],"[[0, 1055]]",[],[],[],[],[],[],[],[],[],[],[],[],[],[],[],[],[],[],[],[],[],[],[],[],[],[],[],[],[],[],[],[],[],[],[],[]
participant_9_GOLD,500,500,522,1365,1581,1736,1981,2458,2592,2771,3348,3483,3786,4097,4664,5154,5495,5636,5863,6178,6369,6509,7965,8105,8495,8836,9254,9424,10521,10711,10991,11201,11491,11632,11822,11997,12138,12275
participant_9_CURRENTGOLD,500,0,22,865,81,161,406,883,342,521,1098,282,211,522,264,754,395,136,363,203,94,234,1690,30,420,761,1179,374,1471,1662,1941,351,642,332,522,697,839,975
participant_9_LEVEL,1,1,1,2,3,3,4,5,5,5,6,6,6,7,8,8,9,9,9,9,9,9,11,11,11,12,12,13,14,14,14,14,15,15,15,15,15,15
participant_9_MINIONSKILLED,0,0,0,3,5,6,10,12,12,14,17,17,19,25,30,30,30,30,34,34,34,34,35,35,35,35,36,37,40,40,44,48,48,48,48,48,48,48
participant_9_KILLS,0,0,0,0,0,0,0,0,0,0,0,0,0,1,1,2,2,2,2,2,2,2,2,2,2,3,3,4,4,4,4,4,5,5,6,6,6,7
participant_9_BUY,[],"[1055, 2003, 3340, 1054, 2003, 3340]",[],[],[],[],[],"[3006, 1042, 2003]","[2055, 2031]",[],[],[],"[6677, 1042]","[1018, 1018]",[],[],"[6670, 1053]",[],[],[],[6673],[1033],[1042],[],[3124],[],[],"[3140, 2055, 3364]",[],[3123],[],[1018],[],[],"[3139, 1018]",[3086],[],[3033]
participant_9_SOLD,[],[],[],[],[],[],[2003],[],[2003],[2055],[],[],[1042],[2031],[],[],"[1042, 1054]",[],[],[],"[6670, 1018, 1053]",[],[],[],"[6677, 1018, 1042]",[],[],"[1033, 3340]",[],[2055],[],[],[],[],"[3140, 1018]",[1018],[],"[3123, 3086]"
participant_9_UNDO,[],"[[3340, 0], [0, 2003], [0, 1055]]",[],[],[],[],[],[],[],[],[],[],[],[],[],[],[],[],[],[],[],[],[],[],[],[],[],[],[],[],[],[],[],[],[],[],[],[]
team0_KILLS,0,0,0,1,1,3,3,3,4,5,5,7,8,9,9,9,9,13,14,15,20,20,20,25,25,26,26,27,29,31,36,36,37,37,38,42,42,47
team0_CURRENTGOLD,2500,0,437,1826,3025,5376,1492,1542,2277,4122,3822,4885,4667,2465,3251,2590,3379,7752,9197,2845,4971,2916,1817,6651,2720,4160,3976,4663,2479,6588,4434,4484,2614,2804,4154,6700,4844,6215
team0_TOTALGOLD,2500,2500,2937,4401,5710,8071,9262,10612,12292,14137,15437,18010,19717,22415,24061,24875,25964,30337,33032,34880,38196,39391,40262,45096,46155,47592,48646,50733,52687,56798,60582,61731,63563,64472,66301,69547,71891,74970
team0_LEVEL,5,5,6,11,17,21,24,26,31,33,35,38,41,41,44,44,46,49,51,53,57,57,58,63,63,64,65,68,68,73,77,78,79,79,80,82,86,86
team0_SBIRES,0,0,9,23,48,69,85,113,137,165,184,219,233,257,282,288,306,333,356,376,383,402,409,432,446,457,466,488,494,522,545,552,569,575,582,604,610,618
team1_KILLS,0,0,0,3,3,3,3,4,4,4,6,7,8,9,11,14,17,18,18,18,19,19,23,23,24,29,29,31,35,35,36,37,40,41,42,44,44,45
team1_CURRENTGOLD,2500,0,314,3153,1561,2898,4366,2808,1856,2455,4861,2351,3012,4565,2817,3643,3666,2584,1959,2942,2027,2570,7542,1654,2607,6043,7233,2978,6350,3995,4330,2169,5694,4907,3958,2662,2710,1850
team1_TOTALGOLD,2500,2500,2814,5663,6766,8188,9666,11483,12716,13865,16271,17612,19457,22150,24252,26728,29621,31354,32429,34487,35842,37234,42507,43269,45322,49097,51237,53131,56504,57568,59201,60833,64356,65918,67672,69264,70462,71440
team1_LEVEL,5,5,6,13,17,20,24,27,29,31,34,36,39,41,44,47,49,52,52,53,55,56,62,62,63,66,68,70,73,73,74,75,79,81,81,82,83,84
team1_SBIRES,0,0,6,37,54,83,118,144,159,184,218,232,252,271,292,321,339,354,368,396,396,415,430,434,457,463,483,496,513,513,525,548,587,606,617,619,642,645
delta_KILLS,0,0,0,-2,-2,0,0,-1,0,1,-1,0,0,0,-2,-5,-8,-5,-4,-3,1,1,-3,2,1,-3,-3,-4,-6,-4,0,-1,-3,-4,-4,-2,-2,2
delta_CURRENTGOLD,0,0,123,-1327,1464,2478,-2874,-1266,421,1667,-1039,2534,1655,-2100,434,-1053,-287,5168,7238,-97,2944,346,-5725,4997,113,-1883,-3257,1685,-3871,2593,104,2315,-3080,-2103,196,4038,2134,4365
delta_TOTALGOLD,0,0,123,-1262,-1056,-117,-404,-871,-424,272,-834,398,260,265,-191,-1853,-3657,-1017,603,393,2354,2157,-2245,1827,833,-1505,-2591,-2398,-3817,-770,1381,898,-793,-1446,-1371,283,1429,3530
delta_LEVEL,0,0,0,-2,0,1,0,-1,2,2,1,2,2,0,0,-3,-3,-3,-1,0,2,1,-4,1,0,-2,-3,-2,-5,0,3,3,0,-2,-1,0,3,2
delta_SBIRES,0,0,3,-14,-6,-14,-33,-31,-22,-19,-34,-13,-19,-14,-10,-33,-33,-21,-12,-20,-13,-13,-21,-2,-11,-6,-17,-8,-19,9,20,4,-18,-31,-35,-15,-32,-27
