name,frame_0,frame_1,frame_2,frame_3,frame_4,frame_5,frame_6,frame_7,frame_8,frame_9,frame_10,frame_11,frame_12,frame_13,frame_14,frame_15,frame_16,frame_17,frame_18,frame_19,frame_20,frame_21,frame_22,frame_23,frame_24,frame_25,frame_26,frame_27,frame_28,frame_29,frame_30,frame_31,frame_32,frame_33
nameStamp,Tstart,Tearly,Tearly,Tearly,Tearly,Tearly,Tearly,Tearly,Tearly,Tearly,Tearly,Tearly,Tearly,Tearly,Tearly,Tearly,Tearly,Tmid,Tmid,Tmid,Tmid,Tmid,Tmid,Tmid,Tmid,Tmid,Tmid,Tmid,Tmid,Tmid,Tmid,Tmid,Tmid,Tmid
timestamp,0,60018,120024,180050,240051,300076,360081,420098,480110,540138,600165,660166,720187,780188,840212,900221,960241,1020245,1080270,1140273,1200292,1260315,1320342,1380373,1440389,1500395,1560423,1620426,1680457,1740488,1800516,1860519,1920548,1980548
participant_0_GOLD,500,500,520,657,917,1144,1508,1714,2324,2447,2795,3512,3887,4094,4216,5363,5854,6389,7148,7403,7526,7948,8170,8715,9046,9559,9891,10717,11467,11679,12164,12894,13138,13216
participant_0_CURRENTGOLD,500,0,20,157,417,194,558,764,1374,97,445,62,437,644,16,1163,104,639,1398,1653,101,523,490,1035,576,115,446,1272,2022,135,619,1349,269,166
participant_0_LEVEL,1,1,1,1,3,4,5,5,6,6,7,8,9,9,9,10,10,11,12,12,12,13,13,13,14,14,14,15,15,15,16,16,17,17
participant_0_MINIONSKILLED,0,0,0,1,7,10,21,25,35,35,45,45,56,61,61,66,69,75,83,90,90,103,103,111,119,120,128,137,140,141,153,158,159,159
participant_0_KILLS,0,0,0,0,0,0,0,0,0,0,0,0,0,0,0,0,0,1,2,2,3,3,3,4,4,4,4,5,6,6,6,6,6,6
participant_0_BUY,[],"[1041, 2031, 3340]",[],[],[],[],[],"[3706, 1036, 1036, 2055, 2055]",[],[],[],[1400],[1028],[],[],[],"[3047, 3067, 2055]",[],[],[],[],[],"[3071, 1031]",[2033],[],[2420],[],[],[],[],"[3026, 3052]",[],[],[]
participant_0_SOLD,[],[],[],[],[],[],[],[1041],[2055],[],[],"[1036, 1036, 3706]",[],[],[2055],[],"[2422, 1028]",[],[],[],[2055],[],[3067],[2031],[],[],[],[],[],[],"[1031, 2420]",[],[],[]
participant_0_UNDO,[],[],[],[],[],[],[],[],[],[],[],[],[],[],[],[],[],[],[],[],[],[],[],[],[],[],[],[],[],[],[],[],[],[]
participant_1_GOLD,500,500,520,848,1198,1504,1882,2089,2381,2689,3017,3225,3529,3786,4102,4422,4715,5438,6079,6528,7345,7612,8019,8621,9004,9141,9424,10514,11109,11421,11554,11822,12534,12612
participant_1_CURRENTGOLD,500,0,20,348,698,1004,1382,89,381,689,1017,300,204,461,777,1097,115,838,1479,1928,2745,3012,419,671,1054,542,824,1914,2509,2822,404,673,1385,1462
participant_1_LEVEL,1,1,1,2,3,4,4,5,5,6,6,7,8,8,8,9,9,10,11,11,12,12,12,13,13,13,14,14,15,15,15,15,16,16
participant_1_MINIONSKILLED,0,0,0,0,0,1,1,1,1,1,2,2,6,6,13,15,15,20,20,25,26,33,35,35,39,39,39,39,40,40,41,41,41,41
participant_1_KILLS,0,0,0,0,0,0,1,1,1,1,2,2,3,3,3,3,3,3,4,4,4,4,5,6,8,8,8,8,11,11,12,12,14,14
participant_1_BUY,[],"[1056, 2003, 2003, 3340]",[],[],[],[],[3802],[],[],[],[],"[1026, 1001]",[3020],[],[1052],[],[],[1028],[],[3285],[],[],[],[],[3165],[1026],[],[1052],[],"[3135, 1029]",[1052],[],[],[]
participant_1_SOLD,[],[],[],[2003],[],[2003],[],[],[],[],[],[],[1001],[],[],[],[],[],[],"[1056, 3802, 1026]",[],[],[],[],"[1028, 1052]",[],[],[],[],"[1026, 1052]",[],[],[],[]
participant_1_UNDO,[],[],[],[],[],[],[],[],[],[],[],[],[],[],[],[],[],[],[],[],[],[],[],[],[],[],[],[],[],[],[],[],[],[]
participant_2_GOLD,500,500,590,885,1085,1347,1840,2067,2336,2720,3236,3503,3946,4181,4303,4447,4569,4719,5523,5666,5885,6092,6892,7678,8460,8667,9100,9423,10471,10694,11253,11397,12394,12471
participant_2_CURRENTGOLD,500,0,90,385,585,847,40,267,536,920,1436,553,196,431,118,262,384,134,938,191,410,617,1417,2203,819,177,610,498,1547,104,229,372,1369,1286
participant_2_LEVEL,1,1,1,3,4,5,6,6,7,8,9,9,9,10,10,10,10,11,11,12,12,12,13,13,13,14,14,14,15,15,15,15,16,16
participant_2_MINIONSKILLED,0,0,4,11,16,22,26,33,41,53,60,65,66,72,72,73,73,75,81,82,83,83,91,95,95,95,102,102,106,106,106,107,108,108
participant_2_KILLS,0,0,0,0,0,0,0,0,1,1,1,3,3,3,3,5,6,6,7,7,7,7,7,7,7,8,8,8,9,9,9,10,10,10
participant_2_BUY,[],"[1055, 2003, 3340]",[],[],[],"[1036, 2003, 2003]",[],[],[],"[3144, 2003, 2003, 2003]",[],"[1043, 2003, 2003]",[],[],"[3153, 2003]",[],"[3006, 1036, 2003, 2003, 2003, 1042, 2003, 2003, 2003]",[],[],[],"[1037, 1043, 2003, 2003]",[],[1052],[],[3124],"[1037, 2003, 2003]",[],[],[],"[1038, 1018]",[],[],"[3031, 1053]",[]
participant_2_SOLD,[],[],[],[2003],[],[],[2003],[2003],[],[1036],"[2003, 2003, 2003]",[],[2003],[2003],"[3144, 1043]",[2003],[],[2003],[2003],[2003],[1042],[],[1055],[2003],"[1052, 1043, 1037]",[2003],[],[],"[2003, 2003]",[],[],[],"[1038, 1037, 1018]",[]
participant_2_UNDO,[],[],[],[],[],[],[],[],[],[],[],[],[],[],[],[],"[[0, 2003], [0, 2003], [0, 2003], [0, 1036]]",[],[],[],[],[],[],[],[],[],[],[],[],[],[],[],[],[]
participant_3_GOLD,500,500,520,832,1127,1480,2077,2290,2656,3026,3556,3887,4179,4322,4494,4847,5075,5350,5549,5784,6741,6864,8010,9232,9591,9940,10614,11845,12323,12445,12957,13080,14584,14711
participant_3_CURRENTGOLD,500,0,20,332,627,980,1577,190,556,926,656,987,404,547,719,1072,75,350,549,184,1141,89,1235,2457,2816,345,1020,2250,928,281,793,915,2419,2336
participant_3_LEVEL,1,1,1,2,3,4,4,5,6,6,7,7,7,8,8,8,9,9,9,10,11,11,12,13,13,14,14,14,15,15,15,15,16,16
participant_3_MINIONSKILLED,0,0,0,11,18,29,38,43,54,65,71,80,80,81,84,87,93,98,102,109,117,117,132,133,142,142,152,165,168,168,168,168,177,177
participant_3_KILLS,0,0,0,0,0,0,0,0,0,0,1,1,3,3,5,5,5,5,5,5,5,5,5,5,5,5,6,6,6,6,6,6,6,6
participant_3_BUY,[],"[3850, 2003, 2003, 3340]",[],[],"[1001, 2003]",[],[],"[1052, 1027]",[],[],[],"[3802, 1082]",[],[1026],[],[3285],[2031],[],[3020],[],[],[1052],[],[],[3113],[1026],[],[],[],[3100],[],[1052],[],[]
participant_3_SOLD,[],[],[],[],[],[],[2003],"[2003, 2003]",[],[],[],"[1052, 1027]",[3850],[],[],"[3802, 1026]",[],[],[1001],[],[],[],[],[3851],[1052],[2031],[],[],[],"[3113, 1026]",[],[],[],[]
participant_3_UNDO,[],[],[],[],[],[],[],[],[],[],[],[],[],[],[],[],[],[],[],[],[],[],[],[],[],[],[],[],[],[],[],[],[],[]
participant_4_GOLD,500,500,552,762,897,1096,1441,1664,1813,1963,2514,2649,3530,3713,4591,4761,4946,5087,5392,5574,5805,5987,6362,6680,7107,7248,7717,8226,8621,8782,9033,9173,9716,9797
participant_4_CURRENTGOLD,500,0,52,262,47,246,591,29,178,328,879,149,1030,363,1241,361,396,537,42,224,455,202,577,895,907,258,727,1236,1631,293,543,248,791,812
participant_4_LEVEL,1,1,1,2,3,4,4,5,5,6,6,6,8,8,9,9,9,9,9,9,10,10,10,11,11,11,12,12,13,13,13,13,14,14
participant_4_MINIONSKILLED,0,0,0,0,0,2,2,3,3,3,5,5,10,12,17,17,17,17,17,20,20,23,24,25,25,25,25,25,28,29,31,31,31,31
participant_4_KILLS,0,0,0,0,0,0,1,1,1,1,1,1,1,1,1,1,1,1,1,1,3,3,4,6,6,6,7,8,8,8,9,9,11,11
participant_4_BUY,[],"[1055, 2003, 3340]",[],[],[],[],[],"[1038, 1001]",[],[],[3006],[],[1037],[],[],[],[3031],[],[],"[1042, 1042]",[],"[3086, 2055]",[],[],[],"[3085, 3086, 2015]",[],[],"[3094, 1038]",[1018],[],[],[],[]
participant_4_SOLD,[],[],[],[],[],[],[],[],[2003],[],[1001],[],[],[],[],[],"[1038, 1037]",[],[],[],[],[1042],[],[],[],"[1042, 3086, 1055]",[],[],"[3086, 2015]",[2055],[],[],[],[]
participant_4_UNDO,[],[],[],[],[],[],[],[],[],[],[],[],[],[],[],[],[],[],[],[],[],[],[],[],[],[],[],[],[],[],[],[],[],[]
participant_5_GOLD,500,500,590,734,931,1342,1486,1905,2069,2362,2547,2820,3019,3211,4176,4298,4621,5015,5228,5400,5881,6225,6517,6681,6804,7084,7221,7552,7737,8143,8485,8628,9311,9338
participant_5_CURRENTGOLD,500,0,90,234,431,842,136,555,69,362,547,100,299,491,1456,78,101,495,308,480,961,405,197,361,484,764,251,582,367,773,115,259,341,188
participant_5_LEVEL,1,1,1,2,4,5,5,6,7,7,8,8,8,9,10,10,10,11,11,11,12,12,12,12,12,13,13,13,14,14,15,15,16,16
participant_5_MINIONSKILLED,0,0,4,5,7,14,15,30,32,39,43,43,47,51,53,53,53,65,70,73,74,75,75,78,78,82,83,92,96,98,98,99,110,110
participant_5_KILLS,0,0,0,0,0,0,0,0,0,0,0,0,1,1,1,1,2,2,3,3,4,4,4,4,4,6,6,6,6,6,7,7,7,7
participant_5_BUY,[],"[1055, 2003, 3340]",[],[],[],[],"[1042, 1042, 1001, 2003]",[],[],[],"[3086, 1042, 2003]",[],[3046],[],[],[1037],[],[],"[1038, 3006]",[],[],"[3031, 3133]",[],[1053],[],[],[3105],[3812],[],[1029],[],"[1031, 2420]",[],[]
participant_5_SOLD,[],[],[],[],[],[],[],[],"[2003, 2003]",[],[1042],[2003],"[1042, 3086]",[],[],[],"[3340, 3513]",[],"[1001, 1042]",[],[],"[1038, 1037]",[],[],[],[],[1055],"[3105, 1053, 3133]",[],[],[],[1029],[],[]
participant_5_UNDO,[],[],[],[],[],[],[],[],[],[],[],[],[],[],[],[],[],[],[],[],[],[],[],[],[],[],[],[],[],[],[],[],[],[]
participant_6_GOLD,500,500,620,828,1028,1635,1773,2070,2390,2513,2750,3173,3917,4095,4518,4765,5038,5160,5442,5565,6037,6322,6687,6858,7009,7726,7849,8082,8413,9307,10129,10251,10400,10427
participant_6_CURRENTGOLD,500,0,120,328,528,1135,1273,110,430,553,250,73,817,995,108,355,628,135,417,140,612,497,862,1033,99,816,474,257,588,1482,2304,427,500,467
participant_6_LEVEL,1,1,2,2,3,3,4,4,5,5,5,6,7,7,8,8,8,8,9,9,9,9,10,11,11,12,12,12,12,13,14,14,14,14
participant_6_MINIONSKILLED,0,0,0,0,0,0,0,0,0,0,1,1,7,10,10,10,10,10,16,16,16,23,26,29,31,31,31,33,42,57,57,57,57,57
participant_6_KILLS,0,0,0,0,0,0,0,0,0,0,1,1,1,2,2,2,4,4,5,5,5,5,6,6,6,6,6,6,7,7,8,8,8,8
participant_6_BUY,[],"[3854, 2003, 2003, 3340]",[],[],[],[],[],"[1036, 1036]",[],[],[],"[3117, 3134]",[1036],[],"[3133, 3142]",[],[],[],[],[],[],"[3082, 3024, 3110]",[],[1036],[],[],[],[3044],[3067],[],[],"[3071, 1029]",[1031],[]
participant_6_SOLD,[],[],[],[],[2003],[2003],[],[],[],[],[],"[3400, 1036, 1036]",[],[],"[1036, 3400, 3133, 3134]",[],[3854],[],[],[],[3400],"[3082, 3024]",[],[],[],[],[],[1036],[],[3855],[],"[3044, 3067]",[1029],[]
participant_6_UNDO,[],[],[],[],[],[],[],[],[],[],[],[],[],[],[],[],[],[],[],[],[],[],[],[],[],[],[],[],[],[],[],[],[],[]
participant_7_GOLD,500,500,590,895,1193,1497,1704,2175,2534,2855,2998,3510,4144,4413,4771,5019,6104,6527,7116,7239,8577,9004,9396,9981,10104,10950,11072,11279,11517,11806,12610,13073,13196,13224
participant_7_CURRENTGOLD,500,0,90,395,693,997,254,725,1084,1405,98,610,344,613,971,344,1429,1852,641,764,2102,205,596,281,404,1250,453,159,397,387,1190,504,627,474
participant_7_LEVEL,1,1,1,3,4,5,6,6,7,8,8,8,9,9,10,10,11,11,12,12,13,13,13,14,14,14,14,14,15,15,15,16,16,16
participant_7_MINIONSKILLED,0,0,4,14,24,32,37,48,59,67,68,78,80,88,98,102,109,118,127,127,142,142,148,159,159,164,164,169,170,175,180,192,192,192
participant_7_KILLS,0,0,0,0,0,1,1,1,1,1,1,2,3,3,4,4,4,4,4,4,5,5,5,5,5,6,6,6,6,7,8,8,8,8
participant_7_BUY,[],"[1039, 2031, 3340]",[],[],[],[],[],"[3706, 1052, 1001, 2055]",[],[],"[3108, 2055]",[1402],[],[],"[3020, 1052, 2055]",[],[],[3145],[],[1028],[],[3067],[],[],"[3152, 1052]",[],[3108],"[1052, 2055]",[],[],[],"[3157, 1052]",[2055],[]
participant_7_SOLD,[],[],[],[],[],[],[],[1039],[],[],"[1052, 2055]","[3108, 3706]",[],[],[1001],[],[],[1052],[],[],[],[1028],[],[],"[3145, 3067]",[],"[1052, 2055]",[2031],[],[],[],"[1052, 3108, 2055]",[],[]
participant_7_UNDO,[],[],[],[],[],[],[],[],[],[],[],[],[],[],[],[],[],[],[],[],[],[],[],[],[],[],[],[],[],[],[],[],[],[]
participant_8_GOLD,500,500,583,825,1488,1771,1964,2128,2417,2624,2895,3130,3552,3765,4225,4718,5290,5412,5534,5831,6167,6354,7126,7263,7399,7521,7735,7947,8145,8267,9528,9651,9774,9801
participant_8_CURRENTGOLD,500,0,83,325,988,1271,1464,103,392,599,120,355,777,990,150,643,1215,137,259,556,892,179,201,337,474,596,810,1022,1219,287,1548,371,194,-24
participant_8_LEVEL,1,1,1,2,3,4,4,5,6,6,7,7,7,8,8,8,9,9,9,10,10,10,10,11,11,11,11,11,12,12,12,12,12,12
participant_8_MINIONSKILLED,0,0,3,10,18,25,29,32,39,44,50,56,56,62,66,70,78,78,78,84,85,86,86,87,88,88,93,94,94,94,98,98,98,98
participant_8_KILLS,0,0,0,0,1,1,1,1,1,1,1,1,2,2,3,3,3,3,3,3,3,3,4,4,4,4,4,4,4,4,5,5,5,5
participant_8_BUY,[],"[1055, 2003, 3340]",[],[],[],[],[],"[3006, 1036, 2055]",[],[],[3133],[],[],[],[1038],[],[],"[3508, 1042]",[],[],[],[1053],"[1036, 2015]",[],[],[],[],[],[],[1038],[],[3072],[1042],[]
participant_8_SOLD,[],[],[],[2003],[],[],[],[],[],[],[1036],[],[],[],[],[3400],[2055],"[1038, 3133]",[],[],[],[],[1042],[],[],[],[],[],[],[1036],[],"[1038, 1053]",[],[]
participant_8_UNDO,[],[],[],[],[],[],[],[],[],[],[],[],[],[],[],[],[],[],[],[],[],[],[],[],[],[],[],[],[],[],[],[],[],[]
participant_9_GOLD,500,500,522,706,1061,1210,1379,1576,1774,1954,2532,2980,3264,4069,4503,4659,5572,5783,6327,6557,7048,7308,7748,7889,8057,8198,8338,8478,9619,10002,10757,10897,11038,11070
participant_9_CURRENTGOLD,500,0,22,206,561,710,879,376,574,754,1332,380,314,1119,103,259,1172,1383,1927,2157,2648,208,648,439,607,748,888,128,469,852,1607,497,139,170
participant_9_LEVEL,1,1,1,2,3,4,4,4,5,6,6,7,7,8,8,9,9,10,10,11,11,11,11,11,12,12,12,12,12,13,13,14,14,14
participant_9_MINIONSKILLED,0,0,0,3,4,5,7,10,14,15,17,18,18,23,23,24,27,31,33,34,34,38,38,38,40,40,40,40,40,46,47,47,47,47
participant_9_KILLS,0,0,0,0,0,0,0,0,0,0,0,0,0,0,1,1,1,1,1,1,1,1,1,1,1,1,1,1,1,1,1,1,2,2
participant_9_BUY,[],"[1054, 2003, 3340]",[],[],[],[],"[1027, 1028, 2003, 2003]",[],"[3010, 1001]",[],[],"[1026, 2003]",[],[],[],"[3027, 3047, 2003]",[1029],[],[1028],[],[],"[3751, 1028]",[1031],[],[],[],[3068],[],[1028],[],[3082],[],[1011],[]
participant_9_SOLD,[],[],[],[2003],[],[],[2003],[2003],"[1028, 1027]",[],[],[1054],[],[2003],[],"[3010, 1026, 1001, 2003]",[],[],[],[],[],[1028],[1029],[],[],[],"[1031, 1028, 3751]",[],[],[],[],[],[1028],[]
participant_9_UNDO,[],[],[],[],[],[],[],[],[],[],[],[],[],[],[],[],[],[],[],[],[],[],[],[],[],[],[],[],[],[],[],[],[],[]
team0_KILLS,0,0,0,0,0,0,2,2,3,3,5,7,10,10,12,14,15,16,19,19,22,22,24,28,30,31,33,35,40,40,42,43,47,47
team0_CURRENTGOLD,2500,0,202,1484,2374,3271,4148,1339,3025,2960,4433,2051,2271,2446,2871,3955,1074,2498,4406,4180,4852,4443,4138,7261,6172,1437,3627,7170,8637,3635,2588,3557,6233,6062
team0_TOTALGOLD,2500,2500,2702,3984,5224,6571,8748,9824,11510,12845,15118,16776,19071,20096,21706,23840,25159,26983,29691,30955,33302,34503,37453,40926,43208,44555,46746,50725,53991,55021,56961,58366,62366,62807
team0_LEVEL,5,5,5,10,16,21,23,26,29,32,35,37,41,43,44,46,47,50,52,54,57,58,60,63,64,66,68,69,73,73,74,74,79,79
team0_SBIRES,0,0,4,23,41,64,88,105,134,157,183,197,218,232,247,258,267,285,303,326,336,359,385,399,420,421,446,468,482,484,499,505,516,516
team1_KILLS,0,0,0,0,1,2,2,2,2,2,3,4,7,8,11,11,14,14,16,16,18,18,20,20,20,23,23,23,24,25,29,29,30,30
team1_CURRENTGOLD,2500,0,405,1488,3201,4955,4006,1869,2549,3673,2347,1518,2551,4208,2788,1679,4545,4002,3552,4097,7215,1494,2504,2451,2068,4174,2876,2148,3040,3781,6764,2058,1801,1275
team1_TOTALGOLD,2500,2500,2905,3988,5701,7455,8306,9854,11184,12308,13722,15613,17896,19553,22193,23459,26625,27897,29647,30592,33710,35213,37474,38672,39373,41479,42215,43338,45431,47525,51509,52500,53719,53860
team1_LEVEL,5,5,6,11,17,21,23,25,30,32,34,36,38,41,44,45,47,49,51,53,55,55,56,59,60,62,62,62,65,67,69,71,72,72
team1_SBIRES,0,0,11,32,53,76,88,120,144,165,179,196,208,234,250,259,277,302,324,334,351,364,373,391,396,405,411,428,442,470,480,493,504,504
delta_KILLS,0,0,0,0,-1,-2,0,0,1,1,2,3,3,2,1,3,1,2,3,3,4,4,4,8,10,8,10,12,16,15,13,14,17,17
delta_CURRENTGOLD,0,0,-203,-4,-827,-1684,142,-530,476,-713,2086,533,-280,-1762,83,2276,-3471,-1504,854,83,-2363,2949,1634,4810,4104,-2737,751,5022,5597,-146,-4176,1499,4432,4787
delta_TOTALGOLD,0,0,-203,-4,-477,-884,442,-30,326,537,1396,1163,1175,543,-487,381,-1466,-914,44,363,-408,-710,-21,2254,3835,3076,4531,7387,8560,7496,5452,5866,8647,8947
delta_LEVEL,0,0,-1,-1,-1,0,0,1,-1,0,1,1,3,2,0,1,0,1,1,1,2,3,4,4,4,4,6,7,8,6,5,3,7,7
delta_SBIRES,0,0,-7,-9,-12,-12,0,-15,-10,-8,4,1,10,-2,-3,-1,-10,-17,-21,-8,-15,-5,12,8,24,16,35,40,40,14,19,12,12,12
