name,frame_0,frame_1,frame_2,frame_3,frame_4,frame_5,frame_6,frame_7,frame_8,frame_9,frame_10,frame_11,frame_12,frame_13,frame_14,frame_15,frame_16,frame_17,frame_18,frame_19,frame_20,frame_21,frame_22,frame_23
nameStamp,Tstart,Tearly,Tearly,Tearly,Tearly,Tearly,Tearly,Tearly,Tearly,Tearly,Tearly,Tearly,Tearly,Tearly,Tearly,Tmid,Tmid,Tmid,Tmid,Tmid,Tmid,Tmid,Tmid,Tmid
timestamp,0,60017,120033,180036,240053,300057,360074,420116,480134,540146,600150,660171,720173,780182,840197,900219,960225,1020227,1080237,1140264,1200268,1260280,1320313,1380313
participant_0_GOLD,500,500,521,748,1120,1347,1648,1837,2215,2531,2875,3193,3382,3668,3895,4039,4235,4602,4798,5153,5585,5818,6453,6520
participant_0_CURRENTGOLD,500,0,21,123,495,147,448,37,415,731,1075,1393,282,268,495,639,835,902,1098,1453,685,918,253,320
participant_0_LEVEL,1,1,1,2,3,4,5,6,6,7,7,8,8,9,9,9,9,10,10,11,11,11,11,11
participant_0_MINIONSKILLED,0,0,0,6,18,24,31,35,42,49,61,69,73,83,85,86,90,100,104,113,114,120,125,125
participant_0_KILLS,0,0,0,0,0,0,0,0,1,1,1,1,1,1,1,1,1,1,1,1,1,1,1,1
participant_0_BUY,[],"[3850, 3340, 2003, 2003]",[2055],[],[],[],"[1001, 1082, 2003]",[],[3009],[],[],[],[],"[3108, 3364, 2055]",[],"[1033, 2055]",[],[3028],[2055],[],[],"[3174, 2055, 2055]",[2055],[1052]
participant_0_SOLD,[],[],[2003],[],[],"[2003, 2055]",[],[],[1001],[],[3850],[2003],[],[3340],[2055],[],[2055],[1033],[],"[3851, 2055]",[],"[3108, 3028, 2055]",[],[]
participant_0_UNDO,[],[],[],[],[],[],[],[],[],[],[],[],[],[],[],[],[],[],[],[],[],[],[],[]
participant_1_GOLD,500,500,629,920,1310,1651,1994,2201,2811,3022,3144,3614,4141,4393,5766,6003,6261,6398,7038,7435,8327,8449,8670,8736
participant_1_CURRENTGOLD,500,0,129,420,810,1151,1494,276,886,1097,219,689,41,293,266,503,61,198,838,1235,877,200,420,486
participant_1_LEVEL,1,1,2,2,4,5,5,6,6,7,7,7,8,8,9,9,9,10,10,11,11,11,11,11
participant_1_MINIONSKILLED,0,0,0,0,0,3,3,3,5,7,7,8,8,9,9,13,13,14,17,19,19,19,26,26
participant_1_KILLS,0,0,0,0,0,0,0,0,0,0,0,0,0,0,0,0,0,0,0,0,1,1,1,1
participant_1_BUY,[],"[1055, 2003, 3340]",[],"[2003, 2055]",[],"[1083, 2055, 2003]",[],"[1001, 1042]",[],[],[],[],"[3006, 1018]",[1042],[],[],[],[3086],[],[],[3046],[],[1038],[]
participant_1_SOLD,[],[],[],[2003],[],[2003],[],[],[2055],[],[2003],[2055],"[1001, 1042]",[],[],[],[],"[1018, 1042]",[],[],[3086],[],[],[]
participant_1_UNDO,[],[],[],[],[],[],[],[],[],[],[],[],[],[],[],[],[],[],[],[],[],[],[],[]
participant_2_GOLD,500,500,535,885,1141,1389,1725,1973,2536,2813,3214,3491,3833,4124,4985,5387,5807,6166,6654,7177,7420,7587,7912,7978
participant_2_CURRENTGOLD,500,0,35,385,641,889,1225,223,786,1063,1464,1741,-67,224,1085,252,-178,181,269,27,270,437,762,78
participant_2_LEVEL,1,1,1,3,4,5,5,6,7,7,8,8,9,9,10,11,11,11,12,13,13,13,13,13
participant_2_MINIONSKILLED,0,0,1,12,20,27,36,44,54,57,64,73,77,83,93,105,118,128,137,137,137,138,146,146
participant_2_KILLS,0,0,0,0,0,0,0,0,1,1,1,1,2,2,4,4,4,4,5,5,6,6,6,6
participant_2_BUY,[],"[1041, 3340, 2031]",[],[],[],[],[],"[3715, 1036, 1036, 2055, 3364]",[],[],"[1412, 2055]",[],"[3134, 2055]",[],"[3133, 1001]",[],"[3142, 3147]",[],[],[],[3044],[3067],[],[]
participant_2_SOLD,[],[],[],[],[],[],[],"[1041, 3340]",[2055],[],"[1036, 1036, 3715]",[],[2055],[],[2055],[],"[3133, 3134, 3134, 3133]",[],[],[],[],[],[],[]
participant_2_UNDO,[],[],[],[],[],[],[],[],[],[],[],[],[],[],[],[],"[[0, 3142]]",[],[],[],[],[],[],[]
participant_3_GOLD,500,500,542,762,1071,1256,1379,1589,1966,2229,2528,2816,2981,3361,3639,3761,4164,4577,4971,5483,6122,6244,6389,6455
participant_3_CURRENTGOLD,500,0,42,262,571,756,254,464,841,1104,1403,1691,131,511,789,111,514,927,1321,1833,2472,494,639,705
participant_3_LEVEL,1,1,1,2,3,3,4,4,5,6,6,7,7,7,8,8,9,9,10,10,11,11,11,11
participant_3_MINIONSKILLED,0,0,1,6,15,19,19,23,34,41,50,56,58,69,70,70,81,93,102,107,112,112,113,113
participant_3_KILLS,0,0,0,0,0,0,0,0,0,0,0,0,0,0,1,1,1,1,1,2,2,2,2,2
participant_3_BUY,[],"[1056, 2003, 2003, 3340]",[],[],[],[],[],"[3108, 1001, 2003]",[],[],[],[],"[1058, 3113]",[],[],"[3907, 1052, 3363]",[3020],[],[1028],[3916],[],[],[],[1026]
participant_3_SOLD,[],[],[],[],[],"[2003, 2003]",[],[],[2003],[],[],[],[],[],[],"[1058, 3113, 3340]",[1001],[],[],"[1028, 1052]",[],[],[],[]
participant_3_UNDO,[],[],[],[],[],[],[],[],[],[],[],[],[],[],[],[],[],[],[],[],[],[],[],[]
participant_4_GOLD,500,515,613,792,987,1196,1331,1495,1944,2194,2360,2606,2761,2946,3467,3607,3748,3948,4088,4369,4555,4695,4835,4911
participant_4_CURRENTGOLD,500,15,38,217,412,621,56,220,69,319,485,731,886,96,617,232,373,223,288,569,755,345,411,51
participant_4_LEVEL,1,1,1,1,2,3,4,4,4,4,5,5,6,6,7,8,8,8,8,9,9,10,10,10
participant_4_MINIONSKILLED,0,0,0,0,0,0,0,0,0,0,0,0,0,0,1,1,1,2,2,3,3,3,3,3
participant_4_KILLS,0,0,0,0,0,0,0,0,0,0,0,0,0,0,0,0,0,0,0,1,2,2,2,2
participant_4_BUY,[],"[1055, 3340, 2003]",[],[],[],[],"[1083, 1001, 2003, 2003, 2055]",[],[],[],[],[],"[1038, 1001, 2055, 2003]",[],[],[1018],[],[],[],[],[],"[3031, 1018, 3363]",[],[]
participant_4_SOLD,[],[],[2003],[],[],[],[],[],[2055],[2003],[],[2003],[],[2055],[],[],[],[],[],[],[],"[1038, 1018, 3340]",[],[]
participant_4_UNDO,[],[],[],[],[],[],"[[0, 1001]]",[],[],[],[],[],[],[],[],[],[],[],[],[],[],[],[],[]
participant_5_GOLD,500,500,521,1189,1403,2093,2271,3111,3373,4077,4404,4685,5256,5743,7131,7388,8457,8845,9785,10601,10955,11600,12645,13321
participant_5_CURRENTGOLD,500,0,21,689,253,943,271,1111,323,1027,1354,160,731,1218,356,613,1682,637,1577,2393,248,892,1938,2613
participant_5_LEVEL,1,1,1,2,3,5,5,6,7,8,8,9,9,10,10,11,12,12,13,14,14,14,15,15
participant_5_MINIONSKILLED,0,0,0,7,12,25,28,44,52,64,75,81,95,99,106,106,124,135,147,152,155,155,163,164
participant_5_KILLS,0,0,0,1,1,2,2,3,3,3,3,3,3,4,5,5,7,7,8,9,9,10,11,12
participant_5_BUY,[],"[2033, 3340]",[],[],"[1001, 1036]",[],"[1053, 1042]",[],"[1043, 1036]",[],[],"[3153, 1027, 2055]",[],[],"[3057, 3044, 1029]",[],[],[3078],[],[],"[3047, 1053, 3105]",[],[],[]
participant_5_SOLD,[],[],[],[2010],[],[2010],[1036],[2010],[1042],[],[],"[1053, 1036, 1043]",[],[2055],[1027],[],[],"[3057, 3044]",[],[],"[1001, 1029]",[],[],[]
participant_5_UNDO,[],[],[],[],[],[],[],[],[],[],[],[],[],[],[],[],[],[],[],[],[],[],[],[]
participant_6_GOLD,500,500,521,933,1182,1397,1724,2047,2452,2680,3245,3502,4398,4620,5237,5588,6271,6478,6981,8072,9199,9527,10524,10967
participant_6_CURRENTGOLD,500,0,21,433,257,472,199,522,927,1155,1720,277,1173,270,887,1238,1921,678,1181,2272,3399,419,1416,1859
participant_6_LEVEL,1,1,1,3,3,4,4,5,6,7,8,8,9,9,10,11,12,12,12,13,13,14,14,14
participant_6_MINIONSKILLED,0,0,0,0,0,0,0,2,2,3,6,6,6,6,6,6,7,7,8,14,16,16,23,27
participant_6_KILLS,0,0,0,0,0,0,0,0,0,0,0,0,1,1,2,2,2,2,2,3,5,5,7,7
participant_6_BUY,[],"[1039, 2031, 3340, 3364]",[],[],"[1041, 2055]",[],"[3706, 1042]",[],[],[],[],"[1416, 1001, 2055]",[],"[3057, 2055]",[],[],[],"[3101, 1036]",[],[],[],"[3078, 3047, 3052, 2055]",[],[]
participant_6_SOLD,[],[3340],[],[],[],[2055],"[1039, 1041]",[],[],[],[],"[1042, 3706]",[2055],[2055],[3364],[3513],[],[],[],[],[],"[3101, 3057, 1036, 1001]",[],[]
participant_6_UNDO,[],[],[],[],[],[],[],[],[],[],[],[],[],[],[],[],[],[],[],[],[],[],[],[]
participant_7_GOLD,500,500,535,783,1099,1347,1620,1812,2066,2252,2479,2817,3431,3931,4495,4906,5395,5588,5851,6165,6413,6636,7033,7354
participant_7_CURRENTGOLD,500,0,35,283,599,847,245,137,391,227,454,792,281,781,695,1106,1595,1788,51,365,613,836,1233,1554
participant_7_LEVEL,1,1,1,2,4,5,5,6,7,7,7,8,9,9,10,10,11,11,12,12,12,12,13,13
participant_7_MINIONSKILLED,0,0,1,8,17,21,27,31,36,40,46,55,57,66,80,87,97,101,106,108,110,110,114,120
participant_7_KILLS,0,0,0,0,0,0,0,0,1,1,2,2,2,2,3,3,3,3,3,3,5,5,6,6
participant_7_BUY,[],"[3850, 3340, 2003, 2003]",[],[],"[1001, 2031]",[],[],[],"[3009, 1028]",[],"[1011, 3364, 2055]",[],[1029],[],[1031],[],[],"[3742, 1004, 1004]",[],[3114],[1028],[],[],[]
participant_7_SOLD,[],[],[],"[2003, 2003]",[],[],[],[],[1001],[3850],"[1028, 3340]",[],[],[2055],[1029],[],[],"[1031, 1011]",[3851],"[1004, 1004]",[],[],[],[]
participant_7_UNDO,[],[],[],[],[],[],[],[],[],[],[],[],[],[],[],[],[],[],[],[],[],[],[],[]
participant_8_GOLD,500,500,563,990,1218,1487,1841,2162,2465,2728,3085,3545,4014,4349,4674,5099,6029,6360,6790,7188,7784,7907,8627,8899
participant_8_CURRENTGOLD,500,0,63,490,718,987,1341,1662,315,578,935,1395,1864,374,699,1124,2054,60,490,288,884,107,827,1099
participant_8_LEVEL,1,1,1,2,3,4,5,5,6,6,7,8,8,9,9,9,10,10,11,11,12,12,12,13
participant_8_MINIONSKILLED,0,0,2,17,23,29,42,51,59,67,77,88,100,108,112,125,140,148,158,158,159,159,168,171
participant_8_KILLS,0,0,0,0,0,0,0,0,0,0,0,0,0,0,0,0,1,1,1,1,2,2,3,3
participant_8_BUY,[],"[1055, 2003, 3340]",[],[],[],[],[],[],"[1038, 1001, 2003]",[],[],[],[],"[1037, 3006, 2031]",[3363],[],[],"[3031, 1018, 1042]",[],"[3086, 1042]",[],[3094],[],[]
participant_8_SOLD,[],[],[],[],[],[2003],[],[],[],[],[],[2003],[],[1001],[3340],[],[],"[1038, 1037]",[],"[1018, 1042]",[],"[3086, 1042]",[],[]
participant_8_UNDO,[],[],[],[],[],[],[],[],[],[],[],[],[],[],[],[],[],[],[],[],[],[],[],[]
participant_9_GOLD,500,515,583,777,972,1166,1376,1585,2019,2259,2760,3070,3320,3586,4226,4368,4854,4994,5301,5716,6573,6939,7805,8175
participant_9_CURRENTGOLD,500,15,83,277,22,216,426,635,69,309,135,445,395,661,801,943,1429,219,526,391,848,1214,2080,2450
participant_9_LEVEL,1,1,1,2,3,3,4,4,5,5,5,6,6,6,7,8,8,8,9,9,10,11,11,12
participant_9_MINIONSKILLED,0,0,0,0,0,0,1,1,1,3,4,4,4,5,5,6,8,8,12,12,14,18,19,19
participant_9_KILLS,0,0,0,0,0,0,0,0,0,0,0,0,1,1,1,1,1,1,1,1,1,1,1,1
participant_9_BUY,[],"[2033, 3340]",[],[],[],[],"[3067, 2055]",[1001],[],[1082],[],[],"[3145, 2055]",[],[3152],[],[],[],"[3020, 3113, 1027]",[],[],[],[],[]
participant_9_SOLD,[],[],[],[],[2403],"[2403, 2403]",[],[2055],[],[],[],[],[],[],"[3145, 3067]",[],[],[2055],[1001],[],[],[],[],[]
participant_9_UNDO,[],[],[],[],[],[],[],[],[],[],[],[],[],[],[],[],[],[],[],[],[],[],[],[]
team0_KILLS,0,0,0,0,0,0,0,0,2,2,2,2,3,3,6,6,6,6,7,9,12,12,12,12
team0_CURRENTGOLD,2500,15,265,1407,2929,3564,3477,1220,2997,4314,4646,6245,1273,1392,3252,1737,1605,2431,3814,5117,5059,2394,2485,1640
team0_TOTALGOLD,2500,2515,2840,4107,5629,6839,8077,9095,11472,12789,14121,15720,17098,18492,21752,22797,24215,25691,27549,29617,32009,32793,34259,34600
team0_LEVEL,5,5,6,10,16,20,23,26,28,31,33,35,38,39,43,45,46,48,50,54,55,56,56,56
team0_SBIRES,0,0,2,24,53,73,89,105,135,154,182,206,216,244,258,275,303,337,362,379,385,392,413,413
team1_KILLS,0,0,0,1,1,2,2,3,4,4,5,5,7,8,11,11,14,14,15,17,22,23,28,29
team1_CURRENTGOLD,2500,15,223,2172,1849,3465,2482,4067,2025,3296,4598,3069,4444,3304,3438,5024,8681,3382,3825,5709,5992,3468,7494,9575
team1_TOTALGOLD,2500,2515,2723,4672,5874,7490,8832,10717,12375,13996,15973,17619,20419,22229,25763,27349,31006,32265,34708,37742,40924,42609,46634,48716
team1_LEVEL,5,5,5,11,16,21,23,26,31,33,35,39,41,43,46,49,53,53,57,59,61,63,65,67
team1_SBIRES,0,0,3,32,52,75,98,129,150,177,208,234,262,284,309,330,376,399,431,444,454,458,487,501
delta_KILLS,0,0,0,-1,-1,-2,-2,-3,-2,-2,-3,-3,-4,-5,-5,-5,-8,-8,-8,-8,-10,-11,-16,-17
delta_CURRENTGOLD,0,0,42,-765,1080,99,995,-2847,972,1018,48,3176,-3171,-1912,-186,-3287,-7076,-951,-11,-592,-933,-1074,-5009,-7935
delta_TOTALGOLD,0,0,117,-565,-245,-651,-755,-1622,-903,-1207,-1852,-1899,-3321,-3737,-4011,-4552,-6791,-6574,-7159,-8125,-8915,-9816,-12375,-14116
delta_LEVEL,0,0,1,-1,0,-1,0,0,-3,-2,-2,-4,-3,-4,-3,-4,-7,-5,-7,-5,-6,-7,-9,-11
delta_SBIRES,0,0,-1,-8,1,-2,-9,-24,-15,-23,-26,-28,-46,-40,-51,-55,-73,-62,-69,-65,-69,-66,-74,-88
