name,frame_0,frame_1,frame_2,frame_3,frame_4,frame_5,frame_6,frame_7,frame_8,frame_9,frame_10,frame_11,frame_12,frame_13,frame_14,frame_15,frame_16,frame_17,frame_18,frame_19,frame_20,frame_21,frame_22,frame_23,frame_24
nameStamp,Tstart,Tearly,Tearly,Tearly,Tearly,Tearly,Tearly,Tearly,Tearly,Tearly,Tearly,Tearly,Tearly,Tearly,Tearly,Tmid,Tmid,Tmid,Tmid,Tmid,Tmid,Tmid,Tmid,Tmid,Tmid
timestamp,0,60030,120055,180060,240062,300119,360135,420156,480189,540190,600222,660234,720237,780262,840269,900294,960298,1020299,1080312,1140326,1200334,1260358,1320364,1380381,1440391
participant_0_GOLD,500,500,563,790,983,1252,1665,1843,2112,2441,2607,3065,3530,3980,4626,5183,5453,5983,6377,6797,6982,7381,8133,8255,8542
participant_0_CURRENTGOLD,500,0,63,290,483,752,1165,218,487,16,182,640,455,905,1551,173,443,973,452,872,207,606,373,60,347
participant_0_LEVEL,1,1,1,2,4,5,6,6,7,7,7,8,8,9,10,10,10,11,11,12,12,12,13,13,13
participant_0_MINIONSKILLED,0,0,2,7,11,16,30,33,41,45,47,49,56,66,73,80,89,92,104,111,115,117,117,117,123
participant_0_KILLS,0,0,0,0,0,0,0,0,0,0,0,1,1,1,1,1,1,1,1,1,1,1,2,2,2
participant_0_BUY,[],"[1054, 2003, 3340]",[],[],[],[],[],"[3145, 2055]",[],[3067],[],[],[3152],[],[],"[3020, 1052, 1028]",[],[],"[3916, 2055, 2055]",[],[1026],[],"[3165, 1052]","[3108, 2055, 2055]",[]
participant_0_SOLD,[],[],[],[2010],[],[],[],[],[],"[2055, 2010]",[],"[2419, 2010, 2003]","[3145, 3067]",[],[],[],[],[],"[1028, 1052, 2055]",[2055],[],[],"[2423, 3916, 1026]","[1054, 1052]",[2055]
participant_0_UNDO,[],[],[],[],[],[],[],[],[],[],[],[],[],[],[],[],[],[],[],[],[],[],[],[],[]
participant_1_GOLD,500,500,694,1048,1376,1708,1991,2370,2953,3676,4138,4311,5684,6127,6979,7439,8177,8475,8923,9346,10093,10754,11196,11718,12540
participant_1_CURRENTGOLD,500,0,194,548,91,423,56,435,1018,1741,703,76,1449,1892,843,1304,677,975,1423,597,1343,2004,156,679,1500
participant_1_LEVEL,1,1,2,3,4,4,5,6,6,7,7,8,9,9,10,10,11,11,12,12,13,14,14,14,15
participant_1_MINIONSKILLED,0,0,0,0,0,0,0,0,0,0,0,2,2,2,2,3,3,3,3,3,9,13,13,13,14
participant_1_KILLS,0,0,0,0,0,0,0,0,0,0,2,2,2,2,2,2,2,4,4,5,5,6,7,7,7
participant_1_BUY,[],"[1055, 2003]",[],[],[],[],[],"[1038, 2031, 2055]",[],[],"[3006, 2055]",[],[1037],[],[],"[3031, 3363, 1042, 1042]",[],[],"[3086, 2015]",[],"[3094, 1018]",[],[],[3095],[]
participant_1_SOLD,[],[],[],[],[],[2003],[],[],[],[],[],[],[],[2055],[],"[1038, 1037, 3340]",[],[],"[1042, 1042]",[],"[3086, 2015]",[],[],[1018],[]
participant_1_UNDO,[],[],[],[],[],[],[],[],[],[],"[[0, 2055]]",[],[],[],[],[],[],[],[],[],[],[],[],[],[]
participant_2_GOLD,500,500,605,962,1499,1859,2178,2435,2654,2969,3695,4242,4900,5113,5534,5980,6102,6835,6991,7633,7953,8778,9001,9633,9962
participant_2_CURRENTGOLD,500,0,105,462,49,409,728,210,129,444,1170,17,175,388,809,1255,77,810,91,733,1053,678,101,733,1063
participant_2_LEVEL,1,1,1,3,4,5,6,6,6,7,7,8,9,9,10,10,10,11,11,12,12,13,13,14,14
participant_2_MINIONSKILLED,0,0,5,16,17,28,39,46,49,52,61,65,68,73,84,96,96,108,108,121,126,137,137,156,159
participant_2_KILLS,0,0,0,0,1,1,1,1,1,1,2,3,4,4,4,4,4,5,5,6,6,6,6,6,6
participant_2_BUY,[],"[1055, 2003, 3340]",[],[],"[1053, 2003]",[],[],"[3144, 2055]",[1042],[],[],"[3153, 1042]",[3006],[],[],[],"[3508, 3133, 1038]",[],"[1018, 2055]",[],[],[3508],[1018],[],[]
participant_2_SOLD,[],[],[],[2010],[2003],[],[2010],[1053],[2003],"[2055, 2010]",[],"[3144, 1042]","[1042, 2422]",[],[],[],[3153],[],[],[1055],[],"[1038, 1018]",[2055],[],[]
participant_2_UNDO,[],[],[],[],[],[],[],[],[],[],[],[],[],[],[],[],"[[0, 3508], [3153, 0], [0, 3133]]",[],[],"[[1055, 0]]",[],[],[],[],[]
participant_3_GOLD,500,500,584,783,1141,1417,1743,2064,2442,2826,3727,4176,4418,4841,5633,6016,6393,7692,7946,8676,8914,9771,11284,11406,11717
participant_3_CURRENTGOLD,500,0,84,283,641,917,1243,39,417,801,602,1051,418,841,1633,191,568,1867,621,1351,289,1146,2659,382,692
participant_3_LEVEL,1,1,1,2,3,3,4,5,5,6,6,7,7,8,8,9,9,10,10,11,11,12,13,13,13
participant_3_MINIONSKILLED,0,0,3,7,18,24,35,44,54,66,71,87,91,99,115,123,134,146,150,161,163,174,189,189,196
participant_3_KILLS,0,0,0,0,0,0,0,0,0,0,0,0,0,0,0,0,0,0,0,0,0,0,2,2,2
participant_3_BUY,[],"[3850, 2003, 2003]",[],[],[],[],[],[3158],"[1052, 1001, 2055, 2003, 1004]",[],"[3108, 3158]",[],[],[],[],[],[],[],"[3174, 3108, 1026, 3364]",[],[1052],[],[],"[3116, 2055, 2055]",[]
participant_3_SOLD,[],[],[],[],[],[],[],[],[],"[2055, 2003, 2003]","[1052, 1001]",[],[3850],[2003],[],[],[],[3851],"[3108, 1004, 3340]",[],[],[],[],"[1026, 1052]",[]
participant_3_UNDO,[],[],[],[],[],[],[],[],"[[0, 3158]]",[],[],[],[],[],[],[],[],[],[],[],[],[],[],[],[]
participant_4_GOLD,500,500,538,732,942,1076,1301,1450,1659,1864,2591,2756,3082,3512,4058,4248,4629,5345,5485,5730,5870,6279,7233,7373,7610
participant_4_CURRENTGOLD,500,0,38,232,442,576,801,50,174,379,41,206,532,962,1508,1698,2079,2795,110,355,60,469,1423,98,335
participant_4_LEVEL,1,1,1,2,3,3,4,5,5,6,6,6,7,8,8,8,9,10,10,10,10,10,11,11,12
participant_4_MINIONSKILLED,0,0,0,0,0,0,0,0,0,1,2,2,5,6,6,6,6,8,8,10,10,13,14,14,15
participant_4_KILLS,0,0,0,0,0,0,0,0,1,3,3,3,7,7,9,9,10,10,10,10,12,13,14,14,16
participant_4_BUY,[],"[1039, 2031, 3340]",[],[],"[1052, 1082]",[],[3706],[],[],[],"[1402, 1052]",[3020],[],[],"[3041, 1026]",[],[3135],[],[],[1058],[],[],"[1058, 3363, 3089]",[],[]
participant_4_SOLD,[],[],[],[],[],[],[1039],[],[],[],"[1052, 3706]",[2422],[],[],[1082],[],"[1026, 1052]",[],[],[3340],[],[3513],"[2031, 3340, 1058, 1058]",[],[]
participant_4_UNDO,[],[],[],[],[],[],[],[],[],[],[],[],[],[],[],[],[],[],[],[],[],[],[],[],[]
participant_5_GOLD,500,500,563,927,1176,1508,1701,2127,2458,3481,3750,4173,5021,5248,5578,5826,6096,6494,6679,6970,7220,7733,8505,9011,9155
participant_5_CURRENTGOLD,500,0,63,427,676,1008,226,652,983,2006,230,683,56,258,588,386,656,54,239,180,355,868,140,646,790
participant_5_LEVEL,1,1,1,3,4,5,5,6,7,7,8,8,8,9,9,9,10,10,11,11,11,12,12,13,13
participant_5_MINIONSKILLED,0,0,2,14,21,33,37,52,62,62,71,71,79,85,87,91,100,112,116,126,128,129,129,147,148
participant_5_KILLS,0,0,0,0,0,0,0,0,0,2,2,3,4,4,4,4,4,4,4,4,4,5,6,6,6
participant_5_BUY,[],"[2003, 1055]",[],[],[],[],"[3070, 2055, 1053, 2055]",[],[],[],"[3070, 1037, 1036]",[],"[3004, 3111]","[3134, 2055]",[],[1033],[],[3181],[],[3111],[2055],[],"[1037, 1018, 2015]",[],[3364]
participant_5_SOLD,[],[],[],[],[],[],[2055],[],[],"[2003, 2010]","[2010, 2010, 2010]",[2010],"[3070, 1037, 2422]","[1036, 2055]",[],[],[],"[3134, 1053]",[],"[1033, 2422]",[2055],[],[],[],[3340]
participant_5_UNDO,[],[],[],[],[],[],"[[0, 2055], [0, 3070]]",[],[],[],"[[2010, 0], [2010, 0]]",[],[],"[[0, 3111]]",[],[],[],[],[],[],[],[],"[[0, 1037]]",[],[]
participant_6_GOLD,500,500,621,1018,1318,1549,1898,2125,2582,2865,3248,3599,3796,4208,4446,4787,5108,5540,5832,6219,6585,6966,7751,9200,9635
participant_6_CURRENTGOLD,500,0,121,518,818,1049,1398,190,647,140,523,874,1071,608,846,412,733,1165,207,594,960,401,1186,985,320
participant_6_LEVEL,1,1,2,3,4,4,5,5,6,7,7,8,8,9,9,9,10,10,11,11,12,12,13,14,14
participant_6_MINIONSKILLED,0,0,0,0,0,0,4,4,4,4,6,11,11,11,12,15,17,21,25,27,33,44,54,65,72
participant_6_KILLS,0,0,0,0,0,0,0,0,1,1,1,1,1,1,1,2,2,2,2,4,4,4,4,4,4
participant_6_BUY,[],"[1056, 2003, 2003, 3340]",[],[],"[1029, 2031, 2055]",[],[],"[1029, 1029, 1001]",[],[3191],"[1052, 1052]",[3802],[],[],[],[],[3030],[],[],"[1052, 2055]",[3020],[],[],[],[]
participant_6_SOLD,[],[],[],"[2010, 2003, 2003]",[2055],[2010],[],[2010],[],"[1029, 1029]",[],"[1052, 1052]",[],[],[],[],"[2031, 3802]",[],[],[],[1001],[],[],[],[2055]
participant_6_UNDO,[],[],[],[],"[[0, 1029]]",[],[],[],[],[],[],[],[],[],[],[],[],[],[],[],[],[],[],[],[]
participant_7_GOLD,500,500,563,727,976,1266,1602,1794,2481,2985,3163,3513,3685,3828,4242,4818,4941,5140,5450,6215,6511,6669,6991,7315,7558
participant_7_CURRENTGOLD,500,0,63,227,251,541,877,169,856,860,168,88,260,403,817,1393,76,275,585,840,336,494,816,1140,1383
participant_7_LEVEL,1,1,1,3,4,4,5,6,6,7,7,8,8,8,9,10,10,10,10,11,11,11,12,12,12
participant_7_MINIONSKILLED,0,0,2,4,11,18,27,31,43,46,49,55,55,56,69,78,78,83,90,93,99,101,101,108,115
participant_7_KILLS,0,0,0,0,0,0,0,0,0,0,0,0,1,1,1,1,1,1,1,1,1,1,3,3,3
participant_7_BUY,[],"[1055, 2003]",[],[],[],[],[],"[1038, 1001]",[],[],[3009],[],"[1042, 1018]",[],"[2015, 2055]",[],"[3095, 2055, 3363]",[1042],[],"[2015, 1042]",[],[],"[3094, 3094, 1037]",[],[2420]
participant_7_SOLD,[],[],[],[],[2003],[],[],[],[],[],[1001],[],[],[],[1042],[],"[2055, 1038, 1018, 2015, 3340]",[],[],[1042],[2055],[],"[1042, 1042, 1042, 1042, 1055]",[],[]
participant_7_UNDO,[],[],[],[],[],[],[],[],[],[],[],[],[],[],[],[],[],[],[],"[[0, 2015]]",[],[],"[[0, 3094]]",[],[]
participant_8_GOLD,500,500,598,874,1151,1567,1903,2137,2468,2696,2923,3247,3974,4250,4524,4856,5105,5290,5713,6077,6199,6621,8121,8382,8735
participant_8_CURRENTGOLD,500,0,98,374,651,1067,1403,37,368,596,223,547,174,450,249,581,355,240,663,727,849,1271,76,337,40
participant_8_LEVEL,1,1,1,2,3,4,5,5,6,6,6,7,7,8,8,8,9,9,9,10,10,10,11,12,12
participant_8_MINIONSKILLED,0,0,4,13,22,36,45,52,61,67,73,81,87,97,102,114,118,122,131,136,136,146,148,152,161
participant_8_KILLS,0,0,0,0,0,0,0,0,0,0,0,0,0,0,0,0,0,0,0,0,0,0,0,0,0
participant_8_BUY,[],"[3858, 2003, 2003, 3340]",[],[],[],[],[],"[1001, 1029, 2031, 2055]",[],[2055],[],[],[],"[1057, 2055]",[],[],[3009],[],[],[],[],[],[],[],[]
participant_8_SOLD,[],[],[],[],[2003],[],"[2003, 2010]",[2010],[2055],[],[2010],[],"[3858, 2055]",[],[],[],[1001],[],[],[],[],[],[],[],[]
participant_8_UNDO,[],[],[],[],[],[],[],[],[],[],[],[],[],[],[],[],[],[],[],[],[],[],[],[],[]
participant_9_GOLD,500,500,544,692,869,1011,1247,1381,1605,1761,1895,2156,2447,2615,2791,3123,3264,3404,3544,3781,3921,4062,4402,4692,4833
participant_9_CURRENTGOLD,500,0,44,192,369,511,747,56,280,361,495,756,1047,420,596,928,469,609,749,986,1126,1267,1607,1897,2038
participant_9_LEVEL,1,1,1,2,3,3,4,4,4,5,5,6,6,7,7,8,8,8,8,8,8,9,10,10,10
participant_9_MINIONSKILLED,0,0,1,2,4,4,7,7,9,10,10,13,15,17,19,21,21,21,21,22,22,22,22,22,22
participant_9_KILLS,0,0,0,0,0,0,0,0,0,0,0,0,0,0,0,0,0,0,0,0,0,0,0,1,1
participant_9_BUY,[],"[1039, 2031]",[],[],[],[],[],"[3706, 1052, 1027]",[],"[1402, 2055, 3364]",[],[],[],"[3111, 2055]",[],"[1028, 1029, 2055]",[],[],"[3211, 1033]",[],[],[1011],[],"[3194, 1031]",[3742]
participant_9_SOLD,[],[],[],[],[],[],[],[1039],[],"[1052, 1027, 3706, 3340]",[],[],[2055],[2422],[2055],[],[],[2055],[1028],[],[],[2031],[],"[1033, 3211, 1029]","[1031, 1011]"
participant_9_UNDO,[],[],[],[],[],[],[],[],[],[],[],[],[],[],[],[],[],[],[],[],[],[],[],[],[]
team0_KILLS,0,0,0,0,1,1,1,1,2,4,7,9,14,14,16,16,17,20,20,22,24,26,31,31,33
team0_CURRENTGOLD,2500,0,484,1815,1706,3077,3993,952,2225,3381,2698,1990,3029,4988,6344,4621,3844,7420,2697,3908,2952,4903,4712,1952,3937
team0_TOTALGOLD,2500,2500,2984,4315,5941,7312,8878,10162,11820,13776,16758,18550,21614,23573,26830,28866,30754,34330,35722,38182,39812,42963,46847,48385,50371
team0_LEVEL,5,5,6,12,18,20,25,28,29,33,33,37,40,43,46,47,49,53,54,57,58,61,64,65,67
team0_SBIRES,0,0,10,30,46,68,104,123,144,164,181,205,222,246,280,308,328,357,373,406,423,454,470,489,507
team1_KILLS,0,0,0,0,0,0,0,0,1,3,3,4,6,6,6,7,7,7,7,9,9,10,13,14,14
team1_CURRENTGOLD,2500,0,389,1738,2765,4176,4651,1104,3134,3963,1639,2948,2608,2139,3096,3700,2289,2343,2443,3327,3626,4301,3825,5005,4571
team1_TOTALGOLD,2500,2500,2889,4238,5490,6901,8351,9564,11594,13788,14979,16688,18923,20149,21581,23410,24514,25868,27218,29262,30436,32051,35770,38600,39916
team1_LEVEL,5,5,6,13,18,20,24,26,29,32,33,37,37,41,42,44,47,47,49,51,52,54,58,61,61
team1_SBIRES,0,0,9,33,58,91,120,146,179,189,209,231,247,266,289,319,334,359,383,404,418,442,454,494,518
delta_KILLS,0,0,0,0,1,1,1,1,1,1,4,5,8,8,10,9,10,13,13,13,15,16,18,17,19
delta_CURRENTGOLD,0,0,95,77,-1059,-1099,-658,-152,-909,-582,1059,-958,421,2849,3248,921,1555,5077,254,581,-674,602,887,-3053,-634
delta_TOTALGOLD,0,0,95,77,451,411,527,598,226,-12,1779,1862,2691,3424,5249,5456,6240,8462,8504,8920,9376,10912,11077,9785,10455
delta_LEVEL,0,0,0,-1,0,0,1,2,0,1,0,0,3,2,4,3,2,6,5,6,6,7,6,4,6
delta_SBIRES,0,0,1,-3,-12,-23,-16,-23,-35,-25,-28,-26,-25,-20,-9,-11,-6,-2,-10,2,5,12,16,-5,-11
