name,frame_0,frame_1,frame_2,frame_3,frame_4,frame_5,frame_6,frame_7,frame_8,frame_9,frame_10,frame_11,frame_12,frame_13,frame_14,frame_15,frame_16,frame_17,frame_18,frame_19,frame_20,frame_21,frame_22,frame_23,frame_24,frame_25,frame_26,frame_27,frame_28
nameStamp,Tstart,Tearly,Tearly,Tearly,Tearly,Tearly,Tearly,Tearly,Tearly,Tearly,Tearly,Tearly,Tearly,Tearly,Tearly,Tearly,Tmid,Tmid,Tmid,Tmid,Tmid,Tmid,Tmid,Tmid,Tmid,Tmid,Tmid,Tend,Tend
timestamp,0,60021,120028,180033,240048,300054,360086,420117,480133,540138,600144,660177,720207,780240,840249,900251,960280,1020306,1080335,1140338,1200359,1260362,1320383,1380404,1440410,1500425,1560449,1620456,1680456
participant_0_GOLD,500,500,577,927,1547,1914,2229,2545,3238,3622,3744,4368,4755,4926,5221,5939,6062,6577,7063,7465,7701,7924,8463,9231,9469,10067,11108,11510,11887
participant_0_CURRENTGOLD,500,0,77,427,47,414,729,210,903,1287,54,678,65,236,291,159,282,797,133,535,771,194,733,1501,404,1003,378,780,937
participant_0_LEVEL,1,1,1,3,3,5,6,6,7,8,8,9,9,9,10,10,10,11,11,12,12,12,13,14,14,14,15,15,16
participant_0_MINIONSKILLED,0,0,2,13,14,26,34,41,52,64,64,81,87,90,97,108,108,112,126,138,144,144,153,169,169,174,176,176,179
participant_0_KILLS,0,0,0,0,0,0,0,0,0,0,0,1,1,1,1,1,1,1,1,1,1,1,1,1,1,2,2,2,2
participant_0_BUY,[],"[3862, 2003, 2003, 3340]",[],[],[],[],[],"[2031, 3123, 3123, 1001, 2003]",[],"[3009, 3364]",[],"[1036, 1036]",[],[],[],"[3134, 1036]",[],[1053],[],[],[],[6692],[],[],"[3067, 2055]",[],"[2055, 2055, 3133]",[],[]
participant_0_SOLD,[],[],[],"[2003, 2010, 2003]",[],[],[],[],[3862],"[2010, 2010, 1001, 3340]",[],[2003],[],[2419],[],"[3863, 1036, 1036]",[],[1036],[],[],[],"[2423, 3134, 1053, 2424]",[],[],[],[2055],[],[],[]
participant_0_UNDO,[],[],[],[],[],[],[],"[[0, 3123], [0, 2031]]",[],[],[],[],[],[],[],[],[],[],[],[],[],[],[],[],[],[],"[[0, 2055], [0, 2055]]",[],[]
participant_1_GOLD,500,500,597,908,1552,1863,2150,3026,3454,3740,4051,4417,4764,5104,5227,5954,6248,6544,7147,7409,7685,8323,8920,9313,9658,9964,10795,11003,11866
participant_1_CURRENTGOLD,500,0,97,408,1052,1353,330,1206,1624,625,936,17,354,694,17,744,1038,359,962,374,650,1288,635,1028,98,404,1236,68,991
participant_1_LEVEL,1,1,1,3,4,5,5,6,7,7,8,9,9,10,10,10,10,11,11,12,12,12,12,13,13,13,14,14,14
participant_1_MINIONSKILLED,0,0,4,15,20,28,35,44,50,57,68,79,89,101,101,111,117,123,135,138,147,147,150,154,162,163,163,163,169
participant_1_KILLS,0,0,0,0,1,1,1,1,1,1,1,1,1,1,1,1,1,2,2,2,2,2,2,2,2,3,4,4,4
participant_1_BUY,[],"[1056, 3340, 2003, 2003]",[],[],"[1026, 2031]",[],[],"[1052, 1028]",[],[],"[4635, 4633]",[],[1043],[],"[1001, 3364]",[1026],[],[],[3115],[],[],[3020],[],[],"[1011, 1052]",[],[4637],[],[]
participant_1_SOLD,[],[],[],[],"[2003, 2003]",[],[],[],[],[],"[1028, 1052, 1056, 4635, 1026]",[],[],[],"[2031, 3340]",[],[],[],"[1043, 1026]",[],[],[1001],[],[],[],[],"[1011, 1052]",[],[]
participant_1_UNDO,[],[],[],[],[],[],[],[],[],[],[],[],[],[],[],[],[],[],[],[],[],[],[],[],[],[],[],[],[]
participant_2_GOLD,500,500,669,1047,1983,2240,2622,3073,3259,3567,3859,4149,4476,4675,5343,6308,6544,6815,8266,8521,8963,9491,10123,10729,11072,11739,13008,13371,14006
participant_2_CURRENTGOLD,500,0,169,547,1483,1740,2122,2573,259,567,859,74,401,600,1268,2233,2469,265,1716,1971,163,691,1323,15,357,1024,2293,707,1281
participant_2_LEVEL,1,1,2,3,4,5,5,6,6,6,7,7,8,8,9,10,10,10,11,11,12,12,13,13,13,14,14,15,15
participant_2_MINIONSKILLED,0,0,0,0,0,0,0,0,0,0,1,4,4,4,7,9,11,11,14,15,16,16,22,27,27,32,32,41,42
participant_2_KILLS,0,0,0,0,0,0,0,0,0,0,0,0,0,0,0,0,0,0,0,1,1,1,1,1,1,1,2,2,3
participant_2_BUY,[],"[1054, 2003, 3340]",[],[],[],[],[],"[3009, 2031]",[1029],[],[],"[1028, 1028]",[],[],[],"[6660, 1033]",[],[],[],[3068],"[1028, 1029]",[],"[3024, 3363]",[],[],"[3050, 2055]",[],[1011],[]
participant_2_SOLD,[],[],[],[2003],[],[],[],[],[],[],[],[],[],[],[],"[1028, 1028]",[],[],[],"[6660, 1033, 1029]",[],[],"[1029, 3340]",[],[],"[1028, 3024]",[],[2055],[]
participant_2_UNDO,[],[],[],[],[],[],[],[],[],[],[],[],[],[],[],[],[],[],[],[],[],[],[],[],[],[],[],[],[]
participant_3_GOLD,500,500,520,779,1057,1221,1599,1742,1955,2169,2531,2812,3102,3301,3424,3796,4206,4495,4807,5522,5855,6173,6659,7113,7292,7452,8391,8555,9169
participant_3_CURRENTGOLD,500,0,20,279,557,721,1099,192,105,319,681,162,452,651,774,496,906,1195,1507,772,405,723,609,1063,1242,227,1166,430,1044
participant_3_LEVEL,1,1,1,2,3,3,4,5,5,5,6,6,7,7,8,8,9,9,9,10,10,11,11,11,12,12,13,13,14
participant_3_MINIONSKILLED,0,0,0,6,15,17,30,31,36,41,52,56,66,70,70,71,84,90,91,103,110,111,126,129,133,133,133,135,135
participant_3_KILLS,0,0,0,0,1,1,1,3,3,3,3,3,3,3,3,4,4,4,4,4,4,5,6,6,6,6,7,7,9
participant_3_BUY,[],"[1056, 2003, 2003]",[],[],[],[],[3802],[],[],"[3108, 1001, 2055]",[],"[6653, 2055]",[],[],[3020],[],[],"[1011, 2055]",[],[1026],[],[],"[4637, 3364]",[],"[4632, 2055]",[],[],"[3102, 2055]",[]
participant_3_SOLD,[],[],[],[2003],[2003],[],[],[],[],[],[2055],"[3802, 3108]",[],[2055],[1001],[],[],[],[],[],[2055],[],"[1026, 1011, 3340]",[],[],[],[],[4632],[]
participant_3_UNDO,[],[],[],[],[],[],[],[],[],[],[],[],[],[],[],[],[],[],[],[],[],[],[],[],[],[],[],[],[]
participant_4_GOLD,500,500,582,846,1114,1371,1665,1859,2135,2278,2496,3244,3404,3592,3845,4130,4286,4449,4810,5237,5480,5670,6037,6384,6527,7147,7814,7969,8379
participant_4_CURRENTGOLD,500,0,82,346,614,871,1165,209,485,28,246,314,474,662,915,450,606,219,580,1007,1250,280,648,994,262,882,449,604,954
participant_4_LEVEL,1,1,1,2,3,3,4,5,6,6,6,7,7,7,8,8,8,9,9,10,10,10,11,11,11,12,13,13,13
participant_4_MINIONSKILLED,0,0,0,1,1,1,4,4,7,7,10,11,12,13,15,15,15,16,16,19,23,23,24,24,24,27,27,27,29
participant_4_KILLS,0,0,0,0,1,1,1,1,1,1,1,1,1,1,2,3,3,3,4,4,4,5,5,5,5,6,8,8,9
participant_4_BUY,[],"[1039, 2031, 3340]",[],[],[],[],[],[],"[1001, 6660, 1029, 1057]",[],[],"[6664, 2055, 3364]",[],[],[],[],[],"[3111, 3066, 1031, 2055]",[],[],"[3742, 3076, 2055, 2055]",[],[],"[1011, 3075, 2055]",[],[],[],"[3105, 1033]",[]
participant_4_SOLD,[],[],[],[],[],[],[],[],[1039],[],[],"[6660, 1029, 1057, 3340]",[],[2055],[],[],[],[1001],[2055],[3364],"[3066, 1031, 2055]",[2055],[3513],"[2031, 3076, 1011]",[],[2055],[],[],[]
participant_4_UNDO,[],[],[],[],[],[],[],[],[],[],[],[],[],[],[],[],[],[],[],[],[],[],[],[],[],[],[],[],[]
participant_5_GOLD,500,500,562,747,1308,1627,1820,2125,2303,2489,2796,2990,3411,3767,4456,4702,4824,5106,6060,6267,6906,7078,7333,7752,7958,8189,8612,9124,9236
participant_5_CURRENTGOLD,500,0,62,247,58,377,570,875,203,389,246,440,861,767,1456,269,41,323,1277,209,848,120,375,794,1000,91,114,226,278
participant_5_LEVEL,1,1,1,2,4,4,5,6,7,7,7,8,8,9,9,10,10,10,11,11,12,12,12,13,13,13,13,14,14
participant_5_MINIONSKILLED,0,0,2,5,10,18,22,26,29,33,35,36,42,43,48,50,50,55,63,68,77,77,85,90,95,96,96,110,111
participant_5_KILLS,0,0,0,0,0,0,0,1,1,1,2,3,4,4,5,7,8,8,8,8,8,8,8,8,8,8,8,8,8
participant_5_BUY,[],"[1056, 3340, 2003, 2003]",[],[],"[1001, 2055]",[],[],"[3145, 1028]",[2055],[],"[1026, 2055, 3364]",[],"[3152, 2055, 2055]",[],[],"[3111, 3191, 2055]",[2420],[3157],[],[],[],[1058],[],"[2055, 2055]",[],[],[],[1058],[]
participant_5_SOLD,[],[],[],[],[2003],[2055],[],[],[2055],[],"[2003, 3340]",[],"[2055, 3145, 1028, 1026, 2055]",[],[],[1001],[],"[2055, 3191, 2420]",[],[2055],[],[],[],[],[2055],[],[],"[1056, 2055]",[]
participant_5_UNDO,[],[],[],[],[],[],[],[],[],[],[],[],[],[],[],[],[],[],[],[],[],[],[],[],[],[],[],[],[]
participant_6_GOLD,500,500,620,1017,1391,1695,1918,2220,2760,3168,3510,3872,4184,4769,5202,5449,5903,6026,6699,7318,7660,7782,8015,8658,9095,9316,9439,9920,10041
participant_6_CURRENTGOLD,500,0,120,517,91,395,618,120,660,1068,1410,1772,184,769,11,259,713,86,759,1377,20,67,300,868,1305,101,224,705,766
participant_6_LEVEL,1,1,2,3,3,4,4,5,5,6,7,7,8,9,9,9,10,10,11,12,12,12,12,13,13,13,14,14,14
participant_6_MINIONSKILLED,0,0,0,0,0,0,0,0,0,1,7,12,12,20,24,24,29,29,31,47,52,52,53,55,56,59,59,59,60
participant_6_KILLS,0,0,0,0,0,0,0,0,0,0,0,0,0,0,0,0,0,0,0,0,0,0,0,0,0,0,0,0,0
participant_6_BUY,[],"[3850, 2003, 2003]",[],[],[],[],"[3067, 2055]",[],[],"[2055, 3364, 1082]",[],[],"[1004, 1052, 2055]",[],[],"[4642, 2055]",[],[],[],"[4005, 2055]",[],[1004],[],[],[],[],"[3041, 2055]",[],[]
participant_6_SOLD,[],[],[],[],[],[],"[2003, 2003]",[],[3850],"[2055, 3340]",[2055],[],[],[],[2055],"[1004, 1052]",[2055],[],[3851],"[3067, 4642]",[2055],[],[],[],[],[],"[1004, 1082]",[],[]
participant_6_UNDO,[],[],[],[],[],[],[],[],[],[],[],[],[],[],[],[],[],[],[],[],[],[],[],[],[],[],[],[],[]
participant_7_GOLD,500,500,625,961,1169,1543,1916,2429,2746,3130,3615,4200,4815,5087,6155,6824,7729,8039,8305,8611,8916,9088,9301,9586,9969,10179,10302,10738,10954
participant_7_CURRENTGOLD,500,0,125,451,284,648,1011,74,306,680,260,835,390,662,1720,614,869,229,495,801,1106,29,241,376,760,970,1092,438,554
participant_7_LEVEL,1,1,1,3,4,5,6,6,7,8,8,9,9,10,11,11,12,12,12,13,13,13,13,13,14,14,14,14,14
participant_7_MINIONSKILLED,0,0,6,15,20,33,44,49,58,70,74,80,89,97,104,105,117,124,130,136,143,143,144,154,166,166,166,182,185
participant_7_KILLS,0,0,0,0,0,0,0,0,1,1,1,1,1,1,1,1,1,1,1,1,1,1,1,2,2,2,2,2,2
participant_7_BUY,[],"[1039, 2031, 3340]",[],[],"[1028, 1028]",[],[],"[6660, 1029, 1001, 3364]",[],[],[],[],[3068],[],"[3066, 1033]",[],[],"[3111, 1028]",[],[],[4401],[2055],[],[2055],[],"[1011, 1033, 2055]",[],[],[]
participant_7_SOLD,[],[],[],[],[],[],[],"[1028, 1028, 3340]",[],[],[1039],[],"[6660, 1029]",[3364],"[3513, 2031]",[],[],"[1001, 1033]",[],[],"[1028, 3066]",[],[2055],[],[],[2055],[],[],[]
participant_7_UNDO,[],[],[],[],[],[],[],[],[],[],[],[],[],[],[],[],[],[],[],[],[],[],[],[],[],[],[],[],[]
participant_8_GOLD,500,500,562,817,1134,1452,1645,2050,2337,2635,2850,2973,3193,3610,3985,4245,4546,4884,5393,5593,5917,6515,6763,7038,7356,8531,8653,8797,8888
participant_8_CURRENTGOLD,500,0,62,317,634,952,45,450,737,35,250,373,593,1010,1385,120,421,409,918,68,392,135,383,658,976,101,224,367,438
participant_8_LEVEL,1,1,1,2,3,4,4,5,5,6,6,6,7,7,8,8,8,8,9,9,9,10,10,10,10,11,11,11,11
participant_8_MINIONSKILLED,0,0,2,9,17,30,34,47,49,60,65,65,70,84,95,99,105,113,128,132,139,139,147,151,158,159,159,160,160
participant_8_KILLS,0,0,0,0,0,0,0,0,0,0,0,0,0,0,0,0,0,0,0,0,0,1,1,1,1,3,3,3,3
participant_8_BUY,[],"[1055, 2003]",[],[],[],[],[3134],[],[],"[1036, 1036, 1001]",[],[],[],[],[],"[6691, 2055, 2003]",[],[1036],[],"[3134, 1042]",[],[1037],[],[],[],"[6676, 3006, 1033, 2055, 3363]",[],[],[]
participant_8_SOLD,[],[],[],[2003],[],[],[],[],[],[],[],[],[],[],[],"[3134, 1036, 1036]",[2055],[],[],[1036],[],[2003],[],[],[],"[3134, 1037, 1001, 1042, 3340]",[],[2055],[]
participant_8_UNDO,[],[],[],[],[],[],[],[],[],[],[],[],[],[],[],[],[],[],[],[],[],[],[],[],[],[],[],[],[]
participant_9_GOLD,500,500,562,756,972,1206,1381,1575,1866,2036,2208,2498,2654,2874,3044,3280,3460,3600,3852,3992,4208,4398,4538,4679,4819,5047,5337,5478,5582
participant_9_CURRENTGOLD,500,0,62,256,472,706,46,240,531,276,448,738,134,354,524,320,500,640,892,107,323,263,403,544,684,912,53,193,82
participant_9_LEVEL,1,1,1,2,3,4,4,4,5,5,6,6,6,6,7,7,7,8,8,8,9,9,9,10,10,10,11,11,11
participant_9_MINIONSKILLED,0,0,0,0,0,0,0,0,0,0,1,1,1,1,1,1,1,1,3,3,3,3,3,3,3,3,3,3,3
participant_9_KILLS,0,0,0,0,1,1,1,1,1,1,1,1,1,2,2,2,2,2,3,3,4,4,4,4,4,4,5,5,5
participant_9_BUY,[],"[1055, 3340, 2003]",[],[],"[1036, 1028]",[],[],[],"[3057, 1033, 3067]",[],"[1042, 2031]",[],[],[3051],[],[3078],[3111],[],[],"[3077, 2055]",[],[1053],[],[],[],[3074],[1028],[1028],[]
participant_9_SOLD,[],[],[],[],"[2003, 2010]",[],[2010],[2010],[1028],[],[],[],[],"[1042, 1036]",[],"[3051, 3067]","[1033, 2422]",[],[],[2055],[],[],[],[],[],"[2031, 3077, 1053]",[],[],[]
participant_9_UNDO,[],[],[],[],[],[],[],[],"[[0, 3057]]",[],[],[],[],[],[],[],[],[],[],[],[],[],[],[],[],[],[],[],[]
team0_KILLS,0,0,0,0,3,3,3,5,5,5,5,6,6,6,7,9,9,10,11,12,12,14,15,15,15,18,23,23,27
team0_CURRENTGOLD,2500,0,445,2007,3753,5099,5445,4390,3376,2826,2776,1245,1746,2843,3265,4082,5301,2835,4898,4659,3239,3176,3948,4601,2363,3540,5522,2589,5207
team0_TOTALGOLD,2500,2500,2945,4507,7253,8609,10265,12245,14041,15376,16681,18990,20501,21598,23060,26127,27346,28880,32093,34154,35684,37581,40202,42770,44018,46369,51116,52408,55307
team0_LEVEL,5,5,6,13,17,21,24,28,31,32,35,38,40,41,45,46,47,50,51,55,56,57,60,62,63,65,69,70,72
team0_SBIRES,0,0,6,35,50,72,103,120,145,169,195,231,258,278,290,314,335,352,382,413,440,441,475,503,515,529,531,542,554
team1_KILLS,0,0,0,0,1,1,1,2,3,3,4,5,6,7,8,10,11,11,12,12,13,14,14,15,15,17,18,18,18
team1_CURRENTGOLD,2500,0,431,1788,1539,3078,2290,1759,2437,2448,2614,4158,2162,3562,5096,1582,2544,1687,4341,2562,2689,614,1702,3240,4725,2175,1707,1929,2118
team1_TOTALGOLD,2500,2500,2931,4298,5974,7523,8680,10399,12012,13458,14979,16533,18257,20107,22842,24500,26462,27655,30309,31781,33607,34861,35950,37713,39197,41262,42343,44057,44701
team1_LEVEL,5,5,6,12,17,21,23,26,29,32,34,36,38,41,44,45,47,48,51,53,55,56,56,59,60,61,63,64,64
team1_SBIRES,0,0,10,29,47,81,100,122,136,164,182,194,214,245,272,279,302,322,355,386,414,414,432,453,478,483,483,514,519
delta_KILLS,0,0,0,0,2,2,2,3,2,2,1,1,0,-1,-1,-1,-2,-1,-1,0,-1,0,1,0,0,1,5,5,9
delta_CURRENTGOLD,0,0,14,219,2214,2021,3155,2631,939,378,162,-2913,-416,-719,-1831,2500,2757,1148,557,2097,550,2562,2246,1361,-2362,1365,3815,660,3089
delta_TOTALGOLD,0,0,14,209,1279,1086,1585,1846,2029,1918,1702,2457,2244,1491,218,1627,884,1225,1784,2373,2077,2720,4252,5057,4821,5107,8773,8351,10606
delta_LEVEL,0,0,0,1,0,0,1,2,2,0,1,2,2,0,1,1,0,2,0,2,1,1,4,3,3,4,6,6,8
delta_SBIRES,0,0,-4,6,3,-9,3,-2,9,5,13,37,44,33,18,35,33,30,27,27,26,27,43,50,37,46,48,28,35
