name,frame_0,frame_1,frame_2,frame_3,frame_4,frame_5,frame_6,frame_7,frame_8,frame_9,frame_10,frame_11,frame_12,frame_13,frame_14,frame_15,frame_16,frame_17,frame_18,frame_19,frame_20,frame_21
nameStamp,Tstart,Tearly,Tearly,Tearly,Tearly,Tearly,Tearly,Tearly,Tearly,Tearly,Tearly,Tearly,Tearly,Tmid,Tmid,Tmid,Tmid,Tmid,Tmid,Tmid,Tmid,Tmid
timestamp,0,60007,120030,180062,240070,300112,360140,420144,480176,540178,600204,660212,720212,780227,840230,900231,960236,1020237,1080258,1140276,1200281,1260281
participant_0_GOLD,500,500,522,717,852,1481,1616,1765,2025,2160,2474,2654,2788,2936,3131,3265,3565,3749,4083,4401,4732,5088
participant_0_CURRENTGOLD,500,50,72,267,402,1031,366,515,775,810,1124,304,438,586,781,915,1215,1399,1733,751,1082,1438
participant_0_LEVEL,1,1,1,2,2,3,3,4,5,5,5,6,6,7,7,7,8,8,9,9,9,10
participant_0_MINIONSKILLED,0,0,0,0,0,0,0,0,1,1,1,1,1,2,2,2,2,2,2,2,2,2
participant_0_KILLS,0,0,0,0,0,1,1,1,1,1,1,1,1,1,1,1,1,1,1,1,1,1
participant_0_BUY,[],"[3850, 2003]",[],[],[],[],[3114],[],[],"[2003, 2003]",[],[3117],[],[],[],[],[],[],[],[3107],[],[]
participant_0_SOLD,[],[],[],[],[],[],[],[],[2003],[],[],[],[],[],[],[],[],[],[],"[3850, 3114]",[],[]
participant_0_UNDO,[],[],[],[],[],[],[],[],[],[],[],[],[],[],[],[],[],[],[],[],[],[]
participant_1_GOLD,500,500,541,741,913,1401,1545,1772,2135,2363,3196,3363,4182,4437,4560,4738,5429,5880,6522,7364,8325,9064
participant_1_CURRENTGOLD,500,0,41,241,263,751,160,387,750,113,946,263,32,287,410,153,844,1295,37,879,1840,2579
participant_1_LEVEL,1,1,1,2,2,3,4,4,5,5,6,6,7,8,8,8,9,10,10,10,11,12
participant_1_MINIONSKILLED,0,0,1,6,9,18,19,25,30,36,41,43,48,56,56,60,71,83,83,87,97,103
participant_1_KILLS,0,0,0,0,0,0,0,0,0,0,1,1,2,2,2,2,3,3,4,6,7,8
participant_1_BUY,[],"[1056, 3340, 2003, 2003]",[],[],[2031],[],"[1052, 1001]",[],[],"[1026, 3802]",[],[1026],[3285],[],[],[1052],[],[],"[3020, 3191, 1052]",[],[],[]
participant_1_SOLD,[],[],[],[2003],[2003],[],[],[],[],[1052],[],[],"[3802, 1026]",[],[],[],[],[],"[1001, 1052]",[],[],[]
participant_1_UNDO,[],[],[],[],[],[],[],[],[],"[[0, 1026]]",[],[],[],[],[],[],[],[],[],[],[],[]
participant_2_GOLD,500,500,583,839,1106,1354,1603,2211,2866,3115,3644,3871,4282,4572,5120,5488,5820,6034,6743,7018,7344,7635
participant_2_CURRENTGOLD,500,0,83,339,31,279,528,86,741,990,1519,296,707,997,270,638,970,199,908,1183,659,710
participant_2_LEVEL,1,1,1,2,3,4,5,5,7,7,8,8,9,9,10,11,11,11,12,12,13,13
participant_2_MINIONSKILLED,0,0,3,10,16,21,27,36,50,57,68,75,88,97,104,114,126,129,142,146,151,160
participant_2_KILLS,0,0,0,0,0,0,0,1,2,2,2,2,2,2,3,3,3,3,3,3,3,3
participant_2_BUY,[],"[1054, 2003, 3340]",[],[],"[1082, 2055, 2031]",[],[],[3145],[],[],[],[3152],[],[],"[3158, 1052]",[],[],[3916],[],[],[1026],[]
participant_2_SOLD,[],[],[],"[2010, 2003]",[],[],[2010],[2010],[],[],[],[3145],[],[],[2031],[],[],"[1054, 1052]",[],[],[],[]
participant_2_UNDO,[],[],[],[],[],[],[],[],[],[],[],[],[],[],[],[],[],[],[],[],[],[]
participant_3_GOLD,500,500,562,1070,1343,1707,2082,2293,2963,3300,3841,4248,4370,4816,5285,7379,7652,8530,9116,9423,10344,10757
participant_3_CURRENTGOLD,500,0,62,120,393,757,1132,393,1063,550,116,523,345,791,1260,3354,227,1105,891,98,1020,1432
participant_3_LEVEL,1,1,1,2,3,5,6,6,7,8,9,9,9,10,11,12,12,12,12,13,13,14
participant_3_MINIONSKILLED,0,0,2,7,13,24,35,40,51,60,67,80,80,95,105,112,112,115,118,120,123,127
participant_3_KILLS,0,0,0,1,1,1,1,1,2,2,3,3,3,3,3,7,7,8,9,9,11,12
participant_3_BUY,[],"[2033, 3340]",[],[1083],[],[],[],"[1037, 2055]",[],[3070],"[3004, 1042]",[],[1001],[],[],[],[3031],[],"[3006, 1042]",[3086],[],[]
participant_3_SOLD,[],[],[],[],[],[],[],[],[],[],"[3070, 1037]",[],[],[2055],[],[],[],[],"[1001, 1042]",[1042],[],[]
participant_3_UNDO,[],[],[],[],[],[],[],[],[],[],[],[],[],[],[],[],[],[],[],[],[],[]
participant_4_GOLD,500,500,620,1033,1553,2072,2393,2693,3327,3449,3681,4329,4636,5439,5746,6349,6820,7184,7357,7479,8401,8928
participant_4_CURRENTGOLD,500,0,120,533,103,622,943,143,777,199,431,454,461,1264,1571,2174,345,709,7,129,1051,1578
participant_4_LEVEL,1,1,2,3,4,4,5,5,6,6,7,7,8,8,9,10,10,11,11,11,12,12
participant_4_MINIONSKILLED,0,0,0,0,0,0,0,1,1,1,1,1,1,1,1,4,6,8,8,8,11,14
participant_4_KILLS,0,0,0,0,1,2,2,2,3,3,3,4,4,5,5,5,6,6,6,6,6,7
participant_4_BUY,[],"[1041, 2031, 3340]",[],[],"[3715, 1001]",[],[],"[3006, 1042]",[],[1043],[],[1419],[1042],[],[],[],[3087],[],[1037],[],[],[]
participant_4_SOLD,[],[],[],[],[1041],[],[],[1001],[],[1042],[],"[1043, 3715]",[],[],[3340],[],[1042],[3513],[],[],[],[]
participant_4_UNDO,[],[],[],[],[],[],[],[],[],[],[],[],[],[],[],[],[],[],[],[],[],[]
participant_5_GOLD,500,500,562,783,1011,1196,1431,1574,1814,2063,2271,2825,3137,3392,4000,4290,4574,4766,5118,5660,5995,6071
participant_5_CURRENTGOLD,500,0,62,283,211,396,631,339,179,428,636,1190,1502,292,50,290,574,766,1118,10,345,421
participant_5_LEVEL,1,1,1,3,4,4,6,6,6,7,7,8,9,9,10,10,11,11,11,12,12,12
participant_5_MINIONSKILLED,0,0,2,8,15,18,25,26,30,37,39,52,60,68,70,76,77,81,82,85,89,89
participant_5_KILLS,0,0,0,0,0,0,0,0,0,0,0,0,0,0,1,1,2,2,2,3,3,3
participant_5_BUY,[],"[1056, 2003, 2003, 3340]",[],[],[1001],[],[],[1052],[1028],[],[],[],[],"[3136, 3020]",[1026],[2003],[],[],[],"[3151, 1052, 3108]",[],[]
participant_5_SOLD,[],[],[],[2003],[],[],[],[2003],[],[],[],[],[],"[1028, 1052, 1001]",[],[],[2003],[],[],"[3136, 1026, 1052]",[],[]
participant_5_UNDO,[],[],[],[],[],[],[],[],[],[],[],[],[],[],[],[],[],[],[],[],[],[]
participant_6_GOLD,500,500,522,657,1156,1311,1533,1667,1801,2165,2300,2804,3412,3546,4105,4464,4598,4733,5111,5245,5429,5512
participant_6_CURRENTGOLD,500,0,22,157,656,811,1033,1167,1301,1665,125,629,1237,71,629,239,73,208,586,720,404,487
participant_6_LEVEL,1,1,1,2,3,3,4,5,5,6,6,7,8,8,9,9,9,10,10,10,10,10
participant_6_MINIONSKILLED,0,0,0,0,1,2,4,4,4,5,5,9,9,9,10,10,10,10,10,10,10,10
participant_6_KILLS,0,0,0,0,0,0,0,0,0,0,0,0,0,0,1,1,1,1,1,1,1,1
participant_6_BUY,[],"[3854, 2003, 2003, 3340]",[],[],[],[],[],[],[],[],"[3024, 1001, 1027, 2055, 2003]",[],[],"[3057, 3158, 3057]",[],[3025],[1029],[],[],[],[1031],[]
participant_6_SOLD,[],[],[],[2003],[2010],"[2003, 2010]",[],[2010],[],[],[2055],[2003],[],"[1027, 1001, 1027]",[],"[3057, 3024]",[],[],[],[],[1029],[]
participant_6_UNDO,[],[],[],[],[],[],[],[],[],[],[],[],[],"[[0, 3057]]",[],[],[],[],[],[],[],[]
participant_7_GOLD,500,500,611,895,1899,2140,2699,2989,3202,4890,5012,6317,7115,7384,8175,8802,9095,10345,11234,11551,12116,12191
participant_7_CURRENTGOLD,500,0,111,395,1399,340,899,1189,77,1765,42,1347,145,414,1205,32,325,1575,164,482,6,-159
participant_7_LEVEL,1,1,1,2,3,4,4,5,5,6,6,7,7,8,9,9,9,10,10,11,11,11
participant_7_MINIONSKILLED,0,0,5,14,23,27,40,50,55,59,59,68,78,87,102,103,109,120,131,138,144,144
participant_7_KILLS,0,0,0,0,2,2,2,2,2,5,5,8,8,8,9,11,11,12,13,13,13,13
participant_7_BUY,[],"[1055, 2003, 3340]",[],[],[],[1038],[],[],"[1037, 1001, 2031]",[],"[3031, 1042, 3006]",[],"[2015, 1018, 1038]",[],[],"[3095, 1042, 1042]",[],[],"[3094, 1042]",[],"[1042, 1018, 3086]",[]
participant_7_SOLD,[],[],[],[],[],[],[],[],[2003],[],"[1038, 1037, 1055, 1001, 1042]",[],[],[],[],"[1038, 2015]",[],[],"[1042, 1042]",[],"[2031, 1018, 1042]",[]
participant_7_UNDO,[],[],[],[],[],[],[],[],[],[],[],[],"[[0, 1018]]",[],[],[],[],[],[],[],"[[0, 1042]]",[]
participant_8_GOLD,500,500,597,1168,1375,1602,1753,1980,2262,2745,2972,3303,4066,4314,4716,4908,5052,5324,5538,5835,6168,6243
participant_8_CURRENTGOLD,500,0,97,68,275,502,53,280,112,595,22,353,441,689,1091,383,527,59,273,570,28,43
participant_8_LEVEL,1,1,1,2,4,4,5,5,6,7,7,8,8,8,9,9,9,10,10,11,11,11
participant_8_MINIONSKILLED,0,0,4,6,11,14,16,22,29,36,42,51,52,59,71,75,76,76,78,79,81,81
participant_8_KILLS,0,0,0,1,1,1,1,1,1,1,1,1,2,2,2,2,2,2,2,3,3,3
participant_8_BUY,[],"[1055, 2003]",[],"[1001, 1042]",[],[],"[3006, 2003, 2003]",[],"[1042, 2031]",[],[1018],[],"[3086, 1042, 2055]",[],[],[3046],[],[1018],[],[],[1037],[]
participant_8_SOLD,[],[],[2003],[],[],[],"[1001, 1042]",[2003],[2003],[],[],[],"[1018, 1042]",[2055],[],"[1042, 3086]",[],[2031],[],[],[],[]
participant_8_UNDO,[],[],[],[],[],[],[],[],[],[],[],[],[],[],[],[],[],[],[],[],[],[]
participant_9_GOLD,500,500,636,913,1241,1440,1742,1878,2206,3010,3132,3340,4315,4622,4934,5057,5263,5928,6241,6419,6892,6968
participant_9_CURRENTGOLD,500,0,136,413,741,290,292,428,756,1560,1682,190,1165,1472,484,207,413,1078,91,269,742,818
participant_9_LEVEL,1,1,2,2,3,4,4,5,5,6,6,6,7,7,8,8,9,10,10,10,11,11
participant_9_MINIONSKILLED,0,0,0,0,0,0,3,4,5,7,7,7,8,8,8,8,13,20,20,24,26,26
participant_9_KILLS,0,0,0,0,0,0,0,0,0,1,1,1,3,3,3,3,3,4,5,5,5,5
participant_9_BUY,[],"[1041, 2031]",[],[],[],[3706],[1001],[],[],[],[],"[1400, 2055]",[],[],"[3047, 1036, 2055, 2055]",[1028],[],[],"[3044, 1028, 3067]",[],[],[]
participant_9_SOLD,[],[],[],[],[],[1041],[],[],[],[],[],"[3706, 2055]",[],[],[1001],[2055],[],[],"[2055, 1028, 1036, 1028]",[],[],[]
participant_9_UNDO,[],[],[],[],[],[],[],[],[],[],[],[],[],[],[],[],[],[],[],[],[],[]
team0_KILLS,0,0,0,1,2,4,4,5,8,8,10,11,12,13,14,18,20,21,23,25,28,31
team0_CURRENTGOLD,2500,50,378,1500,1192,3440,3129,1524,4106,2662,4136,1840,1983,3925,4292,7234,3601,4707,3576,3040,5652,7737
team0_TOTALGOLD,2500,2500,2828,4400,5767,8015,9239,10734,13316,14387,16836,18465,20258,22200,23842,27219,29286,31377,33821,35685,39146,41472
team0_LEVEL,5,5,6,11,14,19,23,24,30,31,35,36,39,42,45,48,50,52,54,55,58,61
team0_SBIRES,0,0,6,23,38,63,81,102,133,155,178,200,218,251,268,292,317,337,353,363,384,406
team1_KILLS,0,0,0,1,3,3,3,3,3,7,7,10,13,13,16,18,19,21,23,25,25,25
team1_CURRENTGOLD,2500,0,428,1316,3282,2339,2908,3403,2425,6013,2507,3709,4490,2938,3459,1151,1912,3686,2232,2051,1525,1610
team1_TOTALGOLD,2500,2500,2928,4416,6682,7689,9158,10088,11285,14873,15687,18589,22045,23258,25930,27521,28582,31096,33242,34710,36600,36985
team1_LEVEL,5,5,6,11,17,19,23,26,27,32,32,36,39,40,45,45,47,51,51,54,55,55
team1_SBIRES,0,0,11,28,50,61,88,106,123,144,152,187,207,231,261,272,285,307,321,336,350,350
delta_KILLS,0,0,0,0,-1,1,1,2,5,1,3,1,-1,0,-2,0,1,0,0,0,3,6
delta_CURRENTGOLD,0,50,-50,184,-2090,1101,221,-1879,1681,-3351,1629,-1869,-2507,987,833,6083,1689,1021,1344,989,4127,6127
delta_TOTALGOLD,0,0,-100,-16,-915,326,81,646,2031,-486,1149,-124,-1787,-1058,-2088,-302,704,281,579,975,2546,4487
delta_LEVEL,0,0,0,0,-3,0,0,-2,3,-1,3,0,0,2,0,3,3,1,3,1,3,6
delta_SBIRES,0,0,-5,-5,-12,2,-7,-4,10,11,26,13,11,20,7,20,32,30,32,27,34,56
