name,team0,team1
win,Fail,Win
firstBlood,True,False
firstTower,True,False
firstInhibitor,True,False
firstBaron,True,False
firstDragon,False,True
firstRiftHerald,True,False
towerKills,8,6
inhibitorKills,1,1
baronKills,1,1
dragonKills,2,3
riftHeraldKills,1,0
