name,frame_0,frame_1,frame_2,frame_3,frame_4,frame_5,frame_6,frame_7,frame_8,frame_9,frame_10,frame_11,frame_12,frame_13,frame_14,frame_15,frame_16,frame_17,frame_18,frame_19,frame_20,frame_21
nameStamp,Tstart,Tearly,Tearly,Tearly,Tearly,Tearly,Tearly,Tearly,Tmid,Tmid,Tmid,Tmid,Tmid,Tmid,Tmid,Tmid,Tmid,Tmid,Tmid,Tmid,Tmid,Tmid
timestamp,0,60029,120040,180072,240091,300095,360123,420145,480172,540199,600221,660253,720277,780281,840301,900322,960341,1020368,1080388,1140411,1200437,1260437
participant_0_GOLD,1400,1400,2130,2768,3348,4027,4739,5478,5850,6591,7538,8243,8841,9480,10441,11048,11420,11780,12364,12759,13524,13825
participant_0_CURRENTGOLD,1400,0,730,1368,498,222,934,1673,245,111,1058,238,836,225,1186,143,515,425,159,484,1249,1025
participant_0_LEVEL,1,3,4,5,6,7,8,8,9,10,11,12,13,13,14,15,15,15,16,16,17,18
participant_0_MINIONSKILLED,0,0,5,6,8,9,11,16,16,20,22,26,26,27,30,31,31,31,34,35,42,43
participant_0_KILLS,0,0,1,2,2,3,4,4,4,5,6,7,7,8,9,10,10,10,10,10,11,11
participant_0_BUY,[],"[2051, 2031, 1001, 1036, 1036, 1036, 1036]",[],[],"[3044, 1001, 1028]","[3067, 3111]",[],[],"[6630, 3133]",[1037],[],"[6333, 1028]",[],"[3211, 1028]",[],"[3065, 1028]",[],"[1011, 1033]",[3155],[1036],[],[]
participant_0_SOLD,[],[],[],[],[1036],"[1028, 1036, 1001]",[],[],"[3044, 3067, 1036, 1036]",[],[],"[3133, 1037]",[],[1028],[],"[3211, 1028]",[],[1028],[1033],[1028],[],[]
participant_0_UNDO,[],"[[0, 1001], [0, 2031], [0, 2051]]",[],[],[],[],[],[],[],[],[],[],[],[],[],[],[],"[[0, 1011]]",[],[],[],[]
participant_1_GOLD,1400,1400,1938,2381,3046,3574,4314,5041,5488,6678,7751,8716,9076,9941,10839,11199,12105,13544,14133,14581,15466,15658
participant_1_CURRENTGOLD,1400,0,538,381,1046,474,1214,1941,488,478,1551,2516,136,401,399,224,1130,1369,1058,306,841,-442
participant_1_LEVEL,1,3,4,5,6,7,8,8,9,10,11,12,12,13,14,14,15,16,17,17,18,18
participant_1_MINIONSKILLED,0,0,1,4,6,10,16,20,23,29,33,34,34,34,37,37,39,40,43,44,45,45
participant_1_KILLS,0,0,0,0,1,1,2,2,2,3,5,6,6,7,8,8,9,12,12,12,13,13
participant_1_BUY,[],"[3184, 1042, 2031]",[],[1018],[],"[6670, 3006, 1042]",[],[],"[6670, 1053]","[6673, 1018]",[],[],"[1038, 1037, 3031]",[1018],"[3086, 1042]",[3046],"[1018, 1018]",[3077],[1053],[3074],[1036],[3044]
participant_1_SOLD,[],[],[],[],[],"[1042, 1042]",[2052],[],[1042],"[6670, 1018, 1053]",[],[],"[2031, 1038, 1037, 1018]",[],[1018],"[3184, 1042, 3086]",[],[],[],"[3077, 1053]",[],[1036]
participant_1_UNDO,[],[],[],[],[],"[[0, 6670]]",[],[],[],[],[],[],[],[],[],[],"[[0, 1018], [0, 1018]]",[],[],[],[],[]
participant_2_GOLD,1400,1400,2088,2628,3127,3746,4262,4944,5565,6318,6952,7517,8296,9066,9651,10074,10583,11304,11814,12341,12998,13372
participant_2_CURRENTGOLD,1400,0,688,1228,477,1096,1612,2294,765,1518,2152,167,946,916,701,399,908,414,924,1451,1023,837
participant_2_LEVEL,1,3,4,5,6,7,8,9,10,11,12,13,13,14,15,15,16,17,17,18,18,18
participant_2_MINIONSKILLED,0,0,2,5,5,11,12,14,17,19,21,21,22,23,24,26,32,36,36,41,43,51
participant_2_KILLS,0,0,1,1,1,1,1,1,2,3,3,3,5,6,6,6,6,6,6,6,7,7
participant_2_BUY,[],"[3145, 2003, 1001]",[],[],"[1026, 1028]",[],[],[],"[3152, 1058]",[],[],[3089],[],"[1058, 3020]",[3067],"[4630, 1026, 1052]",[],[3135],[],[],"[2420, 1052]",[]
participant_2_SOLD,[],[],[2003],[],[],[],[],[],"[3145, 1028, 1026]",[],[],[1058],[],[1001],[],[3067],[],"[1052, 1026]",[],[],[],[2420]
participant_2_UNDO,[],[],[],[],[],[],[],[],[],[],[],[],[],"[[0, 1058]]",[],"[[0, 4630]]",[],[],[],[],[],[]
participant_3_GOLD,1400,1400,1880,2384,3065,3659,4042,4742,5403,6120,6654,7190,7658,8041,9289,9772,10184,10731,11241,11693,12400,12800
participant_3_CURRENTGOLD,1400,0,480,984,765,1359,192,892,753,420,954,240,708,391,1639,872,1284,1831,2341,1543,950,1350
participant_3_LEVEL,1,3,4,5,6,7,8,8,9,10,10,11,12,12,13,14,14,15,15,16,17,17
participant_3_MINIONSKILLED,0,0,1,3,8,10,10,14,16,17,17,21,25,25,34,35,37,41,41,44,48,51
participant_3_KILLS,0,0,0,0,1,1,1,1,2,3,3,3,3,3,5,5,5,5,5,5,6,6
participant_3_BUY,[],"[3802, 2003, 2003]",[],[],"[1026, 2003]",[],"[6655, 1001]",[],[3020],"[1052, 1052, 3145]",[],[1058],[],[4628],[],[1058],[],[],[],[1058],[3089],[]
participant_3_SOLD,[],[],[],[2003],[],"[2003, 2003]","[3802, 1026]",[],[1001],"[1052, 1052]",[],[],[],"[1058, 3145]",[],[],[],[],[],[],"[1058, 1058]",[]
participant_3_UNDO,[],[],[],[],[],[],[],[],[],[],[],[],[],[],[],[],[],[],[],[],[],[]
participant_4_GOLD,1400,1400,2134,2829,3258,4261,4805,5674,6144,7358,8231,8853,9328,9818,10567,10927,11433,12704,13214,13983,14778,15235
participant_4_CURRENTGOLD,1400,50,784,1479,608,411,955,1824,294,908,881,1503,503,993,502,862,143,614,1124,1893,638,1035
participant_4_LEVEL,1,3,4,5,6,7,8,9,9,10,11,12,13,13,14,14,15,17,17,17,18,18
participant_4_MINIONSKILLED,0,0,3,5,6,8,12,16,16,18,26,27,31,33,37,37,38,40,40,42,42,45
participant_4_KILLS,0,0,1,2,2,4,4,5,5,6,6,7,7,7,7,7,7,9,9,10,11,11
participant_4_BUY,[],"[1053, 1042, 2031]",[],[],"[6670, 1001]",[6673],[],[],"[3006, 3086, 3086]","[1042, 1042]",[3046],[],"[1038, 1037, 1018]",[],[1038],[],"[3031, 1042, 1042]",[3051],[],[],"[3091, 1036]",[]
participant_4_SOLD,[],[],[],[],[1042],"[6670, 1053]",[],[],[1001],[],"[1042, 3086, 1042]",[],[],[],[2031],[],"[1038, 1037, 1018]",[1042],[],[],"[3051, 1042]",[]
participant_4_UNDO,[],[],[],[],[],[],[],[],"[[0, 3086]]",[],[],[],"[[0, 1038]]",[],[],[],[],[],[],[],[],[]
participant_5_GOLD,1400,1400,2101,2629,3356,4342,4920,5369,6164,6813,7230,7981,8621,9894,10395,11507,12069,12728,13503,14160,15231,15423
participant_5_CURRENTGOLD,1400,0,701,1229,1956,2942,3520,3969,4764,563,980,1731,221,1494,1995,3107,719,1378,903,1560,1331,273
participant_5_LEVEL,1,3,4,5,6,8,9,9,10,11,12,13,13,15,15,17,17,18,18,18,18,18
participant_5_MINIONSKILLED,0,0,0,2,5,7,10,11,14,17,18,24,28,33,39,46,46,47,53,60,65,65
participant_5_KILLS,0,0,1,1,2,4,4,4,5,6,6,6,7,9,9,10,10,11,12,12,13,13
participant_5_BUY,[],"[3802, 2003, 2003]",[],[],[],[],[],[],[],"[6653, 3020, 3070, 1058]",[],[],"[3003, 3916]",[],[],[],"[3165, 1058]",[],[1058],[],[3089],[4630]
participant_5_SOLD,[],[],[],[2003],[],[2003],[],[],[],[3802],[],[],"[3070, 1058]",[],[],[],[3916],[3003],[],[],"[1058, 1058]",[]
participant_5_UNDO,[],[],[],[],[],[],[],[],[],[],[],[],[],[],[],[],[],[],[],[],[],[]
participant_6_GOLD,1400,1400,1891,2340,2925,3337,3697,4206,4739,5158,5653,6292,6697,7390,7812,8395,9122,9842,10665,11334,12174,12366
participant_6_CURRENTGOLD,1400,0,491,590,75,487,847,1356,1889,658,278,917,197,590,212,395,1122,592,1415,1234,974,291
participant_6_LEVEL,1,3,4,5,6,7,7,7,9,9,10,11,11,13,13,14,15,15,17,17,18,18
participant_6_MINIONSKILLED,0,0,3,6,14,16,16,20,24,25,32,39,39,50,51,55,58,63,70,74,74,74
participant_6_KILLS,0,0,0,0,0,0,0,0,0,0,0,0,0,0,0,0,0,1,2,3,4,4
participant_6_BUY,[],"[3070, 1043]",[],[1036],"[3133, 1027]",[],[],[],[],"[3004, 1053]",[1037],[],"[3153, 1036, 1036]",[1001],[3006],[3134],[],"[1053, 1036]",[],[6692],"[3086, 3134]",[1037]
participant_6_SOLD,[],[],[],[],[1036],[],[],[],[],"[3070, 3133, 1027]",[],[],"[1053, 1043, 1037]",[],"[3004, 1001]","[1036, 1036]",[],[],[],"[3134, 1036, 1053]",[],[]
participant_6_UNDO,[],[],[],[],[],[],[],[],[],[],[],[],[],[],[],[],[],[],[],[],"[[0, 3086]]",[]
participant_7_GOLD,1400,1400,1880,2714,3554,4089,4711,5169,6063,6858,7224,8304,8817,9478,9985,11041,11895,12787,13390,13956,15074,15266
participant_7_CURRENTGOLD,1400,0,480,964,1804,389,1011,619,1513,808,374,1454,1967,1028,735,1791,2645,3537,1440,2006,3124,1016
participant_7_LEVEL,1,3,4,5,6,7,8,8,9,10,11,12,13,13,14,15,15,16,17,18,18,18
participant_7_MINIONSKILLED,0,0,0,1,1,1,1,3,4,4,4,6,8,8,9,13,15,18,21,23,25,25
participant_7_KILLS,0,0,0,1,2,2,3,3,4,6,6,7,7,8,8,10,11,12,12,12,13,13
participant_7_BUY,[],"[3184, 1036, 2003, 2003]",[],[1036],[],"[1053, 3134, 1036, 1036, 1001]",[],[6692],[],"[3044, 1028]",[3111],[],[],[3053],[3123],[],[],[],"[6609, 1031]",[],[],[6333]
participant_7_SOLD,[],[],[],[2003],[],"[1036, 1036]",[],"[3134, 1036, 1053]",[2003],[],[1001],[],[],"[3044, 1028]",[],[],[],[],[3123],[],[],[1031]
participant_7_UNDO,[],[],[],[],[],"[[0, 1036]]",[],[],[],[],[],[],[],[],[],[],[],[],[],[],[],[]
participant_8_GOLD,1400,1400,1847,2275,2745,3444,3971,4373,4886,5579,5939,6398,6860,7476,7941,8431,9134,9599,10078,10548,11869,12061
participant_8_CURRENTGOLD,1400,0,447,440,610,349,876,478,591,34,394,38,500,266,331,666,1369,1834,448,918,289,-274
participant_8_LEVEL,1,3,4,5,6,6,7,8,9,10,10,11,11,13,13,14,15,16,16,17,18,18
participant_8_MINIONSKILLED,0,0,1,1,3,3,6,6,7,7,7,8,11,12,12,13,15,15,16,17,18,18
participant_8_KILLS,0,0,0,0,0,1,1,1,1,2,2,2,2,2,2,2,2,2,2,2,3,3
participant_8_BUY,[],"[3802, 2003, 2003]",[],[1052],"[1028, 1001]","[1026, 2031]",[],[3020],[1028],[6655],[],[4630],[],[1026],[3135],[1052],[],[],"[3145, 1058]",[],"[4628, 1058]",[1052]
participant_8_SOLD,[],[],[],[],[],"[2003, 2003]",[],[1001],[],"[3802, 1026]",[],"[2052, 1052]",[],[],"[4630, 1026]",[1028],[],[],[1052],[],"[1058, 3145]",[2031]
participant_8_UNDO,[],[],[],[],"[[0, 1028]]",[],[],[],[],[],[],[],[],[],[],[],[],[],[],[],[],[]
participant_9_GOLD,1400,1400,2059,2702,3204,3606,4085,4534,5580,6048,6414,7734,8094,8925,9681,10308,11467,12061,12728,13386,14333,14525
participant_9_CURRENTGOLD,1400,100,759,552,1054,406,185,634,1680,448,214,1534,244,225,331,523,1682,2276,1528,2186,3133,825
participant_9_LEVEL,1,3,4,5,6,7,8,8,10,10,11,12,12,13,13,14,15,16,17,18,18,18
participant_9_MINIONSKILLED,0,0,1,2,4,4,6,8,12,12,12,12,12,12,12,19,20,22,28,30,33,33
participant_9_KILLS,0,0,1,2,2,2,2,2,5,5,5,8,8,10,12,12,15,15,15,16,16,16
participant_9_BUY,[],[4635],[],[1026],[],[4633],[3057],[],[],"[3113, 1026]",[3100],[],"[1011, 3047, 3916, 1026]",[3165],[2420],[1052],[],[],[3157],[],[],"[1058, 1058]"
participant_9_SOLD,[],[],[],[],[],"[4635, 1026]",[],[],[],[],"[3057, 3113, 1026]",[],[],"[1026, 3916]",[],[],[2420],[],"[1052, 2421]",[],[],[]
participant_9_UNDO,[],[],[],[],[],[],[],[],[],[],[],[],"[[0, 1011], [0, 3047]]",[],[],[],[],[],[],[],[],[]
team0_KILLS,0,0,3,5,7,10,12,13,15,20,23,26,28,31,35,36,37,42,42,43,48,48
team0_CURRENTGOLD,7000,50,3220,5440,3394,3562,4907,8624,2545,3435,6596,4664,3129,2926,4427,2500,3980,4653,5606,5677,4701,3805
team0_TOTALGOLD,7000,7000,10170,12990,15844,19267,22162,25879,28450,33065,37126,40519,43199,46346,50787,53020,55725,60063,62766,65357,69166,70890
team0_LEVEL,5,15,20,25,30,35,40,42,46,51,55,60,63,65,70,72,75,80,82,84,88,89
team0_SBIRES,0,0,12,23,33,48,61,80,88,103,119,129,138,142,162,166,177,188,194,206,220,235
team1_KILLS,0,0,2,4,6,9,10,10,15,19,19,23,24,29,31,34,38,41,43,45,49,49
team1_CURRENTGOLD,7000,100,2878,3775,5499,4573,6439,7056,10437,2511,2240,5674,3129,3603,3604,6482,7537,9617,5734,7904,8851,2131
team1_TOTALGOLD,7000,7000,9778,12660,15784,18818,21384,23651,27432,30456,32460,36709,39089,43163,45814,49682,53687,57017,60364,63384,68681,69641
team1_LEVEL,5,15,20,25,30,35,39,40,47,50,54,59,60,67,68,74,77,81,85,88,90,90
team1_SBIRES,0,0,5,12,27,31,39,48,61,65,73,89,98,115,123,146,154,165,188,204,215,215
delta_KILLS,0,0,1,1,1,1,2,3,0,1,4,3,4,2,4,2,-1,1,-1,-2,-1,-1
delta_CURRENTGOLD,0,-50,342,1665,-2105,-1011,-1532,1568,-7892,924,4356,-1010,0,-677,823,-3982,-3557,-4964,-128,-2227,-4150,1674
delta_TOTALGOLD,0,0,392,330,60,449,778,2228,1018,2609,4666,3810,4110,3183,4973,3338,2038,3046,2402,1973,485,1249
delta_LEVEL,0,0,0,0,0,0,1,2,-1,1,1,1,3,-2,2,-2,-2,-1,-3,-4,-2,-1
delta_SBIRES,0,0,7,11,6,17,22,32,27,38,46,40,40,27,39,20,23,23,6,2,5,20
