name,team0,team1
win,Win,Fail
firstBlood,True,False
firstTower,False,True
firstInhibitor,False,True
firstBaron,False,True
firstDragon,False,True
firstRiftHerald,False,True
towerKills,6,11
inhibitorKills,2,2
baronKills,0,1
dragonKills,1,4
riftHeraldKills,0,2
