name,team0,team1
win,Win,Fail
firstBlood,True,False
firstTower,False,True
firstInhibitor,True,False
firstBaron,True,False
firstDragon,True,False
firstRiftHerald,False,True
towerKills,11,4
inhibitorKills,3,0
baronKills,2,0
dragonKills,5,1
riftHeraldKills,0,1
