name,frame_0,frame_1,frame_2,frame_3,frame_4,frame_5,frame_6,frame_7,frame_8,frame_9,frame_10,frame_11,frame_12,frame_13,frame_14,frame_15,frame_16,frame_17,frame_18,frame_19,frame_20,frame_21,frame_22,frame_23,frame_24,frame_25,frame_26,frame_27,frame_28,frame_29,frame_30
nameStamp,Tstart,Tearly,Tearly,Tearly,Tearly,Tearly,Tearly,Tearly,Tearly,Tearly,Tearly,Tearly,Tearly,Tmid,Tmid,Tmid,Tmid,Tmid,Tmid,Tmid,Tmid,Tmid,Tmid,Tmid,Tmid,Tmid,Tmid,Tmid,Tmid,Tend,Tend
timestamp,0,60021,120038,180051,240051,300070,360086,420094,480107,540139,600168,660189,720208,780215,840228,900258,960264,1020282,1080306,1140329,1200352,1260354,1320370,1380375,1440388,1500400,1560403,1620415,1680426,1740433,1800433
participant_0_GOLD,500,500,542,727,1290,1412,1682,1989,2215,2478,2628,2952,3137,3358,3632,3985,4195,4415,4600,4863,5461,5689,6289,6495,6763,6998,7344,8236,8631,8844,8890
participant_0_CURRENTGOLD,500,0,42,227,790,262,532,439,665,928,103,427,177,98,72,425,635,855,275,538,1136,864,164,295,563,798,1144,1186,1581,309,355
participant_0_LEVEL,1,1,1,2,4,4,5,6,6,7,7,8,8,9,9,10,10,10,10,10,11,11,12,12,13,13,13,14,14,15,15
participant_0_MINIONSKILLED,0,0,1,4,12,12,20,28,31,40,42,50,54,56,61,70,71,77,81,86,101,107,129,134,138,142,151,162,172,173,173
participant_0_KILLS,0,0,0,0,0,1,1,1,4,4,4,5,6,7,8,9,9,10,10,10,11,12,13,14,16,16,16,16,16,16,16
participant_0_BUY,[],"[3340, 1035, 2031]",[],[],[],"[1036, 1036, 2055]",[],[],"[3134, 3133]",[6691],[],[],"[3077, 1001]",[],[],[3134],"[1037, 1036]",[],[],[3142],[6676],"[3134, 1028]",[],[3814],[3035],[],[],[],[],[],[3036]
participant_0_SOLD,[],[],[],[],[],[],[],[],"[1036, 1036]","[3134, 3133]",[],[1035],[2055],[],[],[2031],[],[],[],"[3134, 1037]","[3134, 1037]",[1036],[],"[3134, 1028]",[],[],[],[],[],[],[3035]
participant_0_UNDO,[],[],[],[],[],[],[],[],[],[],[],[],[],[],[],[],[],[],[],[],"[[0, 3142]]",[],[],[],[],[],[],[],[],[],[]
participant_1_GOLD,500,500,621,928,1383,2175,2532,2801,3798,3920,4228,5199,5621,6304,6729,7152,7564,7986,8224,8536,9633,10106,10658,11310,12633,12819,13134,13581,14233,14356,14401
participant_1_CURRENTGOLD,500,0,121,428,883,900,1257,1526,1023,145,453,1424,376,1059,1484,867,54,476,714,1,1099,421,973,226,98,285,600,1046,1699,1821,326
participant_1_LEVEL,1,1,2,2,4,4,5,6,6,6,7,8,9,10,10,11,11,11,11,12,12,13,13,14,14,15,15,15,16,16,16
participant_1_MINIONSKILLED,0,0,0,0,0,4,5,7,7,7,7,8,8,12,13,13,13,13,14,14,14,14,14,20,20,21,24,30,32,32,32
participant_1_KILLS,0,0,0,0,0,0,0,0,0,0,1,1,1,1,1,1,1,1,1,1,1,1,1,1,1,1,1,1,1,1,1
participant_1_BUY,[],"[1055, 2003, 3340]",[],[],[],"[1042, 1036, 1001]",[],[],[],"[6670, 2003]","[1018, 1037, 2003, 2003]",[],[],[],[6672],[1036],[],[],"[3134, 3006, 1042]",[1042],[],[],[],[3086],[],[],[3085],[],[],[3134],[]
participant_1_SOLD,[],[],[],[],[2003],[],[],[],[],"[1036, 1042]",[2003],[],"[2003, 2003]",[],"[6670, 1037]",[],[],[],"[1036, 1001]",[],[],[],[],[1042],[],[],"[1055, 3086, 1042]",[],[],[1036],[]
participant_1_UNDO,[],[],[],[],[],[],[],[],[],[],"[[0, 1018]]",[],[],[],[],[],[],[],"[[0, 3134]]",[],[],[],[],[],[],[],[],[],[],[],[]
participant_2_GOLD,500,500,563,899,1099,1445,2109,2280,2988,3216,3855,4027,4310,4721,4974,5285,5734,5945,6389,6596,8011,8797,8933,9599,9981,10655,11014,11437,11694,11816,11876
participant_2_CURRENTGOLD,500,0,63,389,104,440,629,215,923,286,925,197,180,591,834,1145,1594,170,614,821,2236,1432,13,679,161,835,1195,367,624,747,626
participant_2_LEVEL,1,1,1,3,4,5,6,7,8,8,9,9,9,10,10,10,11,11,12,12,13,13,13,14,15,15,15,15,15,15,16
participant_2_MINIONSKILLED,0,0,2,12,17,27,38,41,48,54,67,70,79,95,99,106,116,117,127,132,145,153,154,164,170,178,188,188,188,188,189
participant_2_KILLS,0,0,0,0,1,1,1,1,1,1,1,1,1,1,1,1,1,1,1,1,1,1,1,1,1,1,1,2,2,2,2
participant_2_BUY,[],"[1056, 2003, 2003, 3340]",[],[],[],"[1042, 1042, 2003]",[],[1043],[],[],"[1052, 1026, 2055, 2003]",[],[1052],[1001],[1042],[],[],[],"[3115, 2003]",[],[],[3006],[4635],[2055],[],[],[],[1026],[],"[4633, 1052]",[]
participant_2_SOLD,[],[],[],"[2003, 2003]",[],[],[2003],"[1042, 1042]",[],[],[],"[2055, 2003]",[],[],[],[],[],[],"[1043, 1026, 1052]",[],[2003],"[1001, 1042]",[],[],[],[],[],[],[],"[4635, 1026]",[]
participant_2_UNDO,[],[],[],[],[],[],[],[],[],[],"[[0, 1052]]",[],[],[],[],[],[],[],[],[],[],[],[],[],[],[],[],[],[],[],[]
participant_3_GOLD,500,500,542,853,1204,1492,1856,2076,2608,2744,3358,3810,4038,4406,4721,4942,5545,5787,6041,6254,6715,6922,7282,7530,7715,8591,8902,9144,9602,10043,10089
participant_3_CURRENTGOLD,500,0,42,353,704,42,406,626,1158,594,233,685,913,1281,371,242,845,1087,241,154,615,822,1182,530,715,1591,182,425,882,573,439
participant_3_LEVEL,1,1,1,2,3,4,5,5,6,6,6,7,7,8,8,8,9,9,10,10,11,11,11,12,12,13,13,13,14,14,14
participant_3_MINIONSKILLED,0,0,1,12,23,28,39,44,60,61,69,80,86,97,104,110,122,129,133,138,145,145,155,162,166,182,183,183,191,196,196
participant_3_KILLS,0,0,0,0,0,2,2,2,2,2,2,2,2,2,3,3,3,3,3,3,3,3,3,3,3,4,4,4,4,4,4
participant_3_BUY,[],"[3862, 2003, 2003]",[],[],[1036],[],"[3134, 1036]",[],[],"[1053, 2003, 2003]","[1036, 2055]",[],[],"[6692, 3364, 2003]",[],[3133],[2055],[],[1028],[1036],[],[],[3067],[],[3071],[],"[3158, 3111, 2055]",[],[1036],[],[]
participant_3_SOLD,[],[],[],[],[],"[2003, 2010]",[1036],"[2003, 2010]",[2010],"[3862, 1036]","[2003, 2003]",[2055],[],"[3134, 1036, 1053, 3340]",[2003],[],[],[2055],[3863],[],[],[],[1028],[],"[3133, 3067, 1036]",[],"[2422, 2422]",[],[],[],[]
participant_3_UNDO,[],[],[],[],[],[],[],[],[],[],[],[],[],[],[],[],[],[],[],[],[],[],[],[],[],[],"[[0, 3158]]",[],[],[],[]
participant_4_GOLD,500,500,523,781,1022,1991,2126,2369,2725,2888,3261,3738,3881,4067,4714,5090,5299,5625,5768,5917,6407,6759,7082,7225,7636,8183,8323,8559,8924,9237,9290
participant_4_CURRENTGOLD,500,0,23,281,172,1141,176,419,775,288,276,753,896,182,829,30,240,565,308,108,597,949,872,1015,377,923,188,424,439,753,765
participant_4_LEVEL,1,1,1,1,2,3,3,4,5,5,6,6,7,7,8,8,9,9,9,9,11,11,12,12,12,13,13,13,13,14,14
participant_4_MINIONSKILLED,0,0,0,1,1,1,1,1,1,1,1,1,1,1,2,2,4,5,5,5,5,7,7,7,7,8,8,8,14,19,19
participant_4_KILLS,0,0,0,0,0,0,1,1,2,2,3,3,3,3,3,3,3,3,3,3,5,6,6,7,7,8,8,9,9,9,9
participant_4_BUY,[],"[1056, 2003, 2003]",[],[],"[1052, 2003]",[],[3191],"[1052, 2031]",[],[3802],[],[3108],[1001],[],[],[],[],"[6653, 1052]",[],[],[3135],"[3020, 1026]","[3363, 4637]",[],[3108],[],[],[1058],[],[],[]
participant_4_SOLD,[],[],[],[2003],[],[2003],"[1052, 2003]",[],[],[1052],[],[],[],[],[],[],[],"[3802, 3108]",[],[],[1052],"[1001, 2031]","[1056, 3340, 1026, 1052]",[],[],[],[],[],[],[],[]
participant_4_UNDO,[],[],[],[],[],[],[],[],[],[],[],[],[],[],[],[],[],[],[],[],"[[0, 3135]]",[],[],[],[],[],[],[],[],[],[]
participant_5_GOLD,500,500,584,899,1071,1417,1802,2238,2611,2832,3571,4043,4494,4793,5544,5788,6158,6421,7051,7448,7874,8172,8597,8900,9675,9868,10234,11193,11990,12351,12871
participant_5_CURRENTGOLD,500,0,84,399,46,392,777,163,536,757,1496,468,219,518,1269,1513,283,546,176,573,259,557,82,385,1160,1353,1719,2678,3475,3837,4296
participant_5_LEVEL,1,1,1,3,3,4,5,6,7,7,9,9,10,10,11,11,12,12,12,13,13,13,14,14,15,15,15,16,17,17,17
participant_5_MINIONSKILLED,0,0,3,12,15,25,37,38,50,55,70,71,78,85,96,99,110,119,125,128,133,133,141,148,153,157,167,172,172,176,176
participant_5_KILLS,0,0,0,0,0,1,1,1,1,1,2,2,3,3,3,3,4,5,5,5,5,6,6,6,6,6,6,6,6,6,6
participant_5_BUY,[],"[1054, 2003, 3340]",[],[],[2033],[2055],"[3057, 1001]",[],"[1036, 1042, 1036]",[],"[3051, 3067]",[],[],"[3078, 1053, 3067, 2055]",[],"[1036, 3047, 2055]",[],[3133],[],[],[3071],[],"[1036, 1036]",[],[1053],[],[],[],"[3077, 3133, 3074, 3074, 3074, 2055]",[],[]
participant_5_SOLD,[],[],[2003],[],[2010],[],[2010],[2055],[2010],[],"[1042, 1036]",[],[],"[3057, 3051, 3067]",[2055],[1001],[],[2055],[],[],"[2033, 3133, 3067]",[],[],[],[1036],[],[],[],"[1054, 1036, 3077, 1053, 3133, 3077, 1053, 1036, 1053, 1036]",[],[]
participant_5_UNDO,[],[],[],[],[],[],[],[],"[[0, 1036]]",[],[],[],[],"[[0, 1053]]",[],"[[0, 1036]]",[],[],[],[],[],[],[],[],[],[],[],[],"[[0, 3074], [0, 3133], [0, 3074], [0, 3077], [1054, 0]]",[],[]
participant_6_GOLD,500,500,598,913,1403,1675,1988,2330,2682,3010,3402,3637,4520,4762,5409,6406,6849,7086,7343,7989,8111,8829,8951,9300,9507,10108,10580,10865,11577,12015,12229
participant_6_CURRENTGOLD,500,0,98,413,903,125,438,780,1122,600,992,1227,2110,452,1099,2096,39,276,533,1178,366,219,341,290,497,1098,1571,1855,1268,1705,1929
participant_6_LEVEL,1,1,2,2,4,4,5,5,6,6,7,7,8,8,9,10,11,11,11,12,12,12,12,13,13,14,14,15,16,16,16
participant_6_MINIONSKILLED,0,0,0,0,0,0,0,0,5,5,5,5,6,8,8,8,8,9,9,13,13,16,16,17,17,25,25,25,25,26,26
participant_6_KILLS,0,0,0,0,0,0,0,0,0,0,0,0,0,0,1,3,3,3,3,4,4,5,5,5,5,6,7,7,7,7,7
participant_6_BUY,[],"[1039, 2031]",[],[],[],[3145],[],[],[],[1026],[],[],[],"[4636, 1001, 1029]",[],[],"[3157, 1029]",[],[],[],"[3047, 1052]","[3108, 1028]",[],[3067],[],[],[],[],[4629],[],[]
participant_6_SOLD,[],[],[],[],[],[],[],[],[],[],[1039],[],"[3330, 3513]","[3145, 1026]",[],[],[1029],[],[],[],"[1001, 1029]",[1052],[],[1028],[],[],[],[],"[3108, 3067]",[],[]
participant_6_UNDO,[],[],[],[],[],[],[],[],[],[],[],[],[],[],[],[],[],[],[],[],[],[],[],[],[],[],[],[],[],[],[]
participant_7_GOLD,500,500,626,860,1274,1905,2161,2580,2779,3470,4227,4427,5598,5748,6340,6662,7528,8075,8277,8637,8850,9575,9697,10169,10367,10639,11095,11917,12339,13447,13740
participant_7_CURRENTGOLD,500,0,126,360,264,810,66,475,54,735,242,442,1603,145,727,174,1040,487,689,1049,62,787,209,682,329,601,1058,1880,177,1284,1227
participant_7_LEVEL,1,1,1,3,4,5,6,7,7,8,9,9,10,10,10,11,12,12,12,12,12,13,13,14,14,14,14,15,15,16,16
participant_7_MINIONSKILLED,0,0,6,12,27,35,43,58,62,83,89,94,104,106,118,118,135,141,141,151,156,162,162,167,167,167,180,189,189,210,219
participant_7_KILLS,0,0,0,0,1,2,2,2,2,3,5,5,5,7,7,8,8,8,9,10,10,10,10,12,12,12,12,14,14,15,16
participant_7_BUY,[],"[1055, 2003]",[],[],[],[],"[6670, 1001]",[],[3006],[],[],[6673],[],[],"[6677, 1018, 1042]",[],"[3363, 3124]",[],[],"[1043, 1036]",[],[],"[1053, 1037, 3153]",[],[3082],[1028],[],[3067],[3143],[],[]
participant_7_SOLD,[],[],[],[],[],[2003],[],[],[1001],[],[],[6670],[],[],[],[],"[3340, 6677, 1018, 1042]",[],[],[3363],[],[3513],"[1036, 1055, 1053, 1043, 1037]",[],[],[],[],[1028],"[3082, 3067]",[],[]
participant_7_UNDO,[],[],[],[],[],[],[],[],[],[],[],[],[],[],[],[],[],[],[],[],[],[],[],[],[],[],[],[],[],[],[]
participant_8_GOLD,500,500,591,1043,1695,2202,2394,2751,3005,3957,5012,5294,5752,6684,6806,7677,7890,8383,8954,9376,9735,10724,10981,11739,11937,12261,12468,13225,13933,14832,15341
participant_8_CURRENTGOLD,500,0,91,543,1195,1702,294,651,105,1057,2112,294,752,1684,106,977,90,583,1154,226,585,1574,161,920,117,42,249,606,413,1313,1641
participant_8_LEVEL,1,1,1,2,3,4,5,5,6,6,7,7,8,8,8,9,9,10,10,11,11,12,12,13,13,13,13,14,14,15,15
participant_8_MINIONSKILLED,0,0,4,14,26,31,35,46,51,57,70,70,82,94,94,106,111,121,126,126,136,157,157,160,160,168,168,169,175,187,192
participant_8_KILLS,0,0,0,0,0,0,0,1,1,1,2,3,3,3,4,4,4,4,5,5,6,6,6,6,7,7,7,8,9,9,10
participant_8_BUY,[],"[1054, 2003, 3340]",[],[],"[1028, 2003, 2055]",[],[],"[6660, 1029, 2031]",[],[],[],"[3105, 1001]",[3068],[],[],[],"[3047, 3076]",[],[3082],[],[3067],[],[3143],[],[],[],[],[],[],[],[]
participant_8_SOLD,[],[],[],[],[2003],[],[2003],[1028],[],[],[],[1029],"[6660, 3105]",[],[],[2055],[1001],[],[],[],[2031],[],"[3082, 3067]",[],[],[],[],[],[],[],[]
participant_8_UNDO,[],[],[],[],[],[],[],[],[],[],[],[],[],[],[],[],[],[],[],[],[],[],[],[],[],[],[],[],[],[],[]
participant_9_GOLD,500,500,563,1231,1603,2370,2522,2776,2997,3327,3881,4112,4462,5043,5406,5901,6234,6388,6861,7470,7641,7831,8027,8168,8580,9084,9239,9532,10297,11120,11291
participant_9_CURRENTGOLD,500,0,63,731,1103,1870,107,361,147,477,1031,1262,1612,2193,16,511,844,998,1471,2080,351,541,737,878,40,545,699,992,957,1780,1791
participant_9_LEVEL,1,1,1,2,3,4,4,5,5,5,6,7,7,8,8,9,10,10,11,12,12,12,12,12,13,13,13,14,14,15,15
participant_9_MINIONSKILLED,0,0,0,1,1,2,2,2,2,2,3,8,10,10,14,15,18,19,24,27,28,28,32,32,44,46,47,48,48,51,51
participant_9_KILLS,0,0,0,1,1,2,2,2,2,2,2,2,2,2,2,2,2,2,2,3,3,3,3,3,3,4,4,4,5,6,6
participant_9_BUY,[],"[3850, 2003, 2003, 3340]",[],[],[],[],"[3802, 1001, 2055, 3850]",[],[1052],[],[3364],[],[],[],"[6653, 3020, 2055]",[],[],[],[],[],"[1011, 1026, 2055, 2055]",[],[],[],[4637],[],[],[],"[2420, 2055, 2055]",[],[]
participant_9_SOLD,[],[],[],[],[2003],[2003],[3850],[3850],[],[],[3340],[],[2055],[3851],"[3802, 1052, 1001]",[2055],[],[],[],[],[],[],[],[],"[1026, 1011]",[],[2055],[2055],[],[],[]
participant_9_UNDO,[],[],[],[],[],[],[],[],[],[],[],[],[],[],[],[],[],[],[],[],[],[],[],[],[],[],[],[],[],[],[]
team0_KILLS,0,0,0,0,1,4,5,5,9,9,11,12,13,14,16,17,17,18,18,18,21,23,24,26,28,30,30,32,32,32,32
team0_CURRENTGOLD,2500,0,291,1678,2653,2785,3000,3225,4544,2241,1990,3486,2542,3211,3590,2709,3368,3153,2152,1622,5683,4488,3204,2745,1914,4432,3309,3448,5225,4203,2511
team0_TOTALGOLD,2500,2500,2791,4188,5998,8515,10305,11515,14334,15246,17330,19726,20987,22856,24770,26454,28337,29758,31022,32166,36227,38273,40244,42159,44728,47246,48717,50957,53084,54296,54546
team0_LEVEL,5,5,6,10,17,20,24,28,31,32,35,38,40,44,45,47,50,50,52,53,58,59,61,64,66,69,69,70,72,74,75
team0_SBIRES,0,0,4,29,53,72,103,121,147,163,186,209,228,261,279,301,326,341,360,375,410,426,459,487,501,531,554,571,597,608,609
team1_KILLS,0,0,0,1,2,5,5,6,6,7,11,12,13,15,17,20,21,22,24,27,28,30,30,32,33,35,36,39,41,43,45
team1_CURRENTGOLD,2500,0,462,2446,3511,4899,1682,2430,1964,3626,5873,3693,6296,4992,3217,5271,2296,2890,4023,5106,1623,3678,1530,3155,2143,3639,5296,8011,6290,9919,10884
team1_TOTALGOLD,2500,2500,2962,4946,7046,9569,10867,12675,14074,16596,20093,21513,24826,27030,29505,32434,34659,36353,38486,40920,42211,45131,46253,48276,50066,51960,53616,56732,60136,63765,65472
team1_LEVEL,5,5,6,12,17,21,25,28,31,32,38,39,43,44,46,50,54,55,56,60,60,62,63,66,68,69,69,74,76,79,79
team1_SBIRES,0,0,13,39,69,93,117,144,170,202,237,248,280,303,330,346,382,409,425,445,466,496,508,524,541,563,587,603,609,650,664
delta_KILLS,0,0,0,-1,-1,-1,0,-1,3,2,0,0,0,-1,-1,-3,-4,-4,-6,-9,-7,-7,-6,-6,-5,-5,-6,-7,-9,-11,-13
delta_CURRENTGOLD,0,0,-171,-768,-858,-2114,1318,795,2580,-1385,-3883,-207,-3754,-1781,373,-2562,1072,263,-1871,-3484,4060,810,1674,-410,-229,793,-1987,-4563,-1065,-5716,-8373
delta_TOTALGOLD,0,0,-171,-758,-1048,-1054,-562,-1160,260,-1350,-2763,-1787,-3839,-4174,-4735,-5980,-6322,-6595,-7464,-8754,-5984,-6858,-6009,-6117,-5338,-4714,-4899,-5775,-7052,-9469,-10926
delta_LEVEL,0,0,0,-2,0,-1,-1,0,0,0,-3,-1,-3,0,-1,-3,-4,-5,-4,-7,-2,-3,-2,-2,-2,0,0,-4,-4,-5,-4
delta_SBIRES,0,0,-9,-10,-16,-21,-14,-23,-23,-39,-51,-39,-52,-42,-51,-45,-56,-68,-65,-70,-56,-70,-49,-37,-40,-32,-33,-32,-12,-42,-55
