name,frame_0,frame_1,frame_2,frame_3,frame_4,frame_5,frame_6,frame_7,frame_8,frame_9,frame_10,frame_11,frame_12,frame_13,frame_14,frame_15,frame_16,frame_17,frame_18,frame_19,frame_20,frame_21,frame_22,frame_23,frame_24,frame_25,frame_26,frame_27,frame_28,frame_29,frame_30,frame_31,frame_32,frame_33,frame_34,frame_35,frame_36,frame_37,frame_38,frame_39,frame_40,frame_41,frame_42
nameStamp,Tstart,Tearly,Tearly,Tearly,Tearly,Tearly,Tearly,Tearly,Tearly,Tearly,Tearly,Tearly,Tearly,Tearly,Tearly,Tearly,Tearly,Tmid,Tmid,Tmid,Tmid,Tmid,Tmid,Tmid,Tmid,Tmid,Tmid,Tmid,Tmid,Tmid,Tmid,Tmid,Tmid,Tmid,Tmid,Tmid,Tmid,Tmid,Tmid,Tmid,Tmid,Tmid,Tmid
timestamp,0,60020,120051,180085,240114,300115,360143,420172,480197,540224,600251,660269,720298,780329,840361,900389,960406,1020427,1080450,1140473,1200493,1260513,1320537,1380569,1440596,1500629,1560660,1620687,1680701,1740725,1800751,1860761,1920785,1980816,2040849,2100850,2160854,2220870,2280874,2340900,2400905,2460932,2520932
participant_0_GOLD,500,500,563,860,1127,1480,1701,2022,2228,2535,2657,3080,3379,3522,3893,4079,4251,4398,4619,5277,5575,5739,5905,6264,6389,6658,7454,7990,8112,8444,8581,8905,9159,9534,9953,10286,10533,10937,11059,11410,12370,12981,13377
participant_0_CURRENTGOLD,500,0,63,360,627,980,1201,1522,1728,2035,207,80,369,512,873,1059,631,778,399,1057,205,369,85,444,569,838,1634,270,392,724,861,285,540,914,1333,566,814,117,240,591,1550,2162,2577
participant_0_LEVEL,1,1,1,3,4,5,6,7,7,8,8,9,9,9,10,10,10,11,11,12,12,12,12,12,13,13,14,14,14,14,14,15,15,15,16,16,16,17,17,17,18,18,18
participant_0_MINIONSKILLED,0,0,2,12,18,29,34,43,48,56,56,63,70,71,82,86,86,88,91,99,99,101,103,113,114,118,129,132,132,137,138,146,149,157,159,159,162,164,164,169,180,183,185
participant_0_KILLS,0,0,0,0,1,1,2,2,3,3,4,4,5,5,5,5,6,6,7,8,10,10,10,10,14,14,18,18,18,21,22,22,23,23,26,26,26,27,27,27,27,28,28
participant_0_BUY,[],"[1036, 2031]",[],[],"[3134, 2055]",[],[],[3133],[],"[6693, 1001]",[],[],"[3117, 3077, 1036]",[],[],"[1053, 1036]",[3074],[],[],"[3140, 1037]",[],[],"[6035, 3134, 3123, 3133]",[],[],"[6609, 3134]",[],"[6676, 3814]",[],[],[],[],[],[],[],[],[],[],[],[3156],[],[],[]
participant_0_SOLD,[],[],[],[],[1036],[],[3400],[],[2055],"[3134, 3133, 3400]",[3400],[],"[3400, 1001]",[],[],[1036],"[3077, 1053, 1036]",[],[],[3400],[],[],"[3140, 1037, 2031]",[],[],"[3123, 3133]",[],"[3134, 3117]",[],[],[],[],[],[],[],[],[],[],[],[3814],[],[],[]
participant_0_UNDO,[],[],[],[],[],[],[],[],[],[],[],[],[],[],[],[],[],[],[],[],[],[],"[[0, 3134]]",[],[],[],[],[],[],[],[],[],[],[],[],[],[],[],[],[],[],[],[]
participant_1_GOLD,500,500,663,963,1263,1850,1975,2182,2625,2873,2996,3303,3525,3648,3915,4248,4690,4931,5239,5675,5903,6025,6148,6620,6742,7274,7713,8217,8339,8512,8634,8952,9240,9991,10627,11284,11541,12064,12981,13838,14895,15177,15541
participant_1_CURRENTGOLD,500,0,163,463,763,1350,75,207,650,898,321,338,560,208,475,408,850,1091,316,752,180,302,25,497,319,851,1290,1794,141,314,436,405,692,1443,2079,711,244,691,1609,2466,3522,3805,4108
participant_1_LEVEL,1,1,2,3,3,4,5,5,6,6,6,7,7,7,7,8,8,9,9,10,10,10,10,10,10,11,12,12,12,12,12,12,13,13,14,15,15,15,16,17,18,18,18
participant_1_MINIONSKILLED,0,0,0,0,0,0,1,1,1,2,2,2,2,2,6,6,6,7,7,8,9,9,9,10,10,17,18,19,19,19,19,21,22,24,26,26,26,26,40,44,49,49,51
participant_1_KILLS,0,0,0,0,0,0,0,0,0,0,0,0,0,0,1,1,1,1,1,1,1,1,2,2,2,2,2,3,4,4,5,6,6,6,6,6,6,7,7,7,7,8,8
participant_1_BUY,[],"[3850, 2003, 2003]",[],[],[],"[1052, 2055, 2055, 3364]",[],[],[],"[3802, 2055]",[],[],"[1052, 1001]",[3108],[],"[3020, 2055, 2055]",[],[],"[1028, 2055, 2055]",[],[6653],[],"[2055, 2055]",[],[],[1028],[],"[1058, 2055, 2055]",[],[1058],[],[],[3089],[],[],[3114],[],[],[3107],[],[],[],[]
participant_1_SOLD,[],[],[],[],[2010],[3340],[],"[2010, 2055]",[],[1052],"[2010, 2003, 2055]","[2419, 2003, 2423, 3850]",[2424],[1052],[2055],[1001],"[2055, 2055]",[],[],[3851],"[2055, 1028, 2055, 3802, 3108]",[],[],[2055],[],[],"[2055, 3400]",[],"[2055, 2055]","[3400, 1028]",[],[],"[3400, 1058, 1058]",[],[],[],[],[],"[3400, 3114]",[],[],[],[]
participant_1_UNDO,[],[],[],[],[],[],[],[],[],[],[],[],[],[],[],[],[],[],[],[],[],[],[],[],[],[],[],[],[],[],[],[],[],[],[],[],[],[],[],[],[],[],[]
participant_2_GOLD,500,500,626,920,1478,1940,2712,2890,3469,3811,4624,5310,6095,6471,6907,7078,7800,8054,9062,10228,12436,12558,12930,13303,15999,16147,18236,18646,18887,21335,22359,22631,23056,23628,25476,25807,25930,26915,27038,27160,27282,27890,28256
participant_2_CURRENTGOLD,500,0,126,410,143,595,1367,445,1014,56,869,1555,90,466,902,173,45,299,1307,298,2506,2628,335,708,3405,1652,3742,51,293,2741,3764,4037,4462,5034,6882,7213,7336,8321,8444,7496,7618,8226,5831
participant_2_LEVEL,1,1,1,3,4,5,6,6,7,7,8,9,10,10,11,11,12,12,12,13,14,14,14,14,15,15,15,16,16,17,17,17,17,18,18,18,18,18,18,18,18,18,18
participant_2_MINIONSKILLED,0,0,6,13,15,24,36,39,49,49,55,66,69,81,90,93,93,97,109,116,116,116,118,128,128,128,130,130,130,140,140,140,141,147,148,155,155,158,158,158,158,158,159
participant_2_KILLS,0,0,0,0,0,0,0,0,2,2,2,3,3,4,4,5,5,6,6,8,9,9,9,9,9,9,9,9,10,10,10,10,10,11,12,12,12,13,13,14,14,15,16
participant_2_BUY,[],"[1055, 3340, 2003]",[],[],[],"[1036, 1036, 2003]",[],[],[],"[3134, 1001, 1036]","[3134, 1053]",[],[1036],[],[],"[6692, 3009]",[3134],[],[],[],[6676],[],[1037],[],[],"[1038, 1018]",[],[],[],[],"[3031, 3086]",[1042],[],[],[],"[3094, 1031]",[],[],[],[],"[3026, 2140]",[],[]
participant_2_SOLD,[],[],[],[],[2003],[],[],[],[],"[1036, 1036]","[2003, 1036, 1036]",[],[],[],[],"[3134, 1036, 1053, 1001]",[],[],[],[],[3134],[],[],[],"[3400, 3400]","[3400, 1055]",[],[],[],[],"[1038, 1037, 1018]",[],[],[],[],"[3086, 1042]",[],[],[],[],"[1031, 2140]",[],[]
participant_2_UNDO,[],[],[],[],[],[],[],[],[],[],"[[0, 3134]]",[],[],[],[],[],[],[],[],[],[],[],[],[],[],[],[],[],[],[],[],[],[],[],[],[],[],[],[],[],[],[],[]
participant_3_GOLD,500,500,563,874,1113,1354,1641,1843,2708,2852,3123,3656,3778,4355,4609,5123,5955,6553,6950,7811,8447,8696,8819,9076,10046,10468,10674,11066,11558,12177,12374,12597,12902,13719,14604,15078,15250,15760,16102,16846,17068,17628,18230
participant_3_CURRENTGOLD,500,0,63,374,613,104,391,593,1458,552,273,806,578,1155,1409,473,205,803,1200,2061,797,1046,294,551,1521,224,429,822,1313,1932,305,227,533,1350,2235,709,880,1391,1733,2477,199,759,1180
participant_3_LEVEL,1,1,1,2,3,4,4,5,5,6,6,7,7,8,8,8,9,10,10,11,11,11,12,12,13,13,13,13,14,14,14,14,15,15,16,16,16,17,17,18,18,18,18
participant_3_MINIONSKILLED,0,0,2,13,17,24,31,31,34,35,41,44,44,50,53,55,67,74,82,86,87,87,87,89,91,91,91,91,91,96,96,96,102,110,115,121,124,128,128,133,133,137,142
participant_3_KILLS,0,0,0,0,0,0,0,0,0,0,0,1,1,1,1,1,1,1,1,2,2,2,2,2,2,2,3,3,3,3,3,3,3,3,3,3,3,3,3,3,4,5,5
participant_3_BUY,[],"[1055, 2003, 3340]",[],[],[],[],[],[],[],[],"[6670, 1036, 1001]",[1053],[],[],[],[],[1018],[],[6673],[],"[3006, 1036]",[],[3123],[],[],[],[],[3033],[],[],[],[1057],[],[],[],"[1042, 3051]",[],[3091],[],[],[],[],[]
participant_3_SOLD,[],[],[],[],[],[],[],[2003],[],[],[],[1036],[],[],[],[],[],[],"[6670, 1018, 1053]",[],[1001],[],[1036],[],[],[],[],"[3400, 3123]",[],[],[],[],[],[],[],[1042],[],"[3051, 1057]",[],[],[],[],[]
participant_3_UNDO,[],[],[],[],[],[],[],[],[],[],[],[],[],[],[],[],[],[],[],[],[],[],[],[],[],[],[],[],[],[],[],[],[],[],[],[],[],[],[],[],[],[],[]
participant_4_GOLD,500,500,523,677,886,1104,1302,1606,2290,2459,2708,2914,3166,3517,4127,4383,4651,5001,5192,5407,5597,5738,6154,6294,6435,6575,7102,7667,8058,8848,9303,9743,10184,10374,10851,10991,11132,11722,12162,12378,12864,13354,13636
participant_4_CURRENTGOLD,500,0,23,177,386,19,217,521,1205,434,683,889,446,332,942,248,516,866,507,722,23,163,429,569,710,450,977,142,533,354,808,1248,389,579,1056,396,537,1127,68,283,769,1259,911
participant_4_LEVEL,1,1,1,2,3,3,4,4,5,5,6,6,6,7,7,7,8,8,8,9,9,9,9,10,10,10,11,11,11,12,13,13,13,13,14,14,14,15,15,15,16,16,16
participant_4_MINIONSKILLED,0,0,0,0,1,3,6,7,12,13,15,16,19,19,19,19,22,22,22,22,22,22,22,22,22,22,22,22,22,22,23,23,23,23,23,23,23,23,23,23,27,27,27
participant_4_KILLS,0,0,0,0,0,1,1,1,1,1,1,1,1,1,1,1,1,1,1,1,1,1,1,1,1,1,1,1,1,1,1,1,1,2,3,3,3,4,4,5,7,7,7
participant_4_BUY,[],"[3340, 2031, 1039]",[],[],[],[],"[3051, 1001, 3364]",[2055],[],[],[3057],[1036],[],"[1028, 2055]",[],[3067],[],[],"[3078, 1036]",[],"[3133, 1029, 3111]",[],[3133],[],[1029],[],[],[],"[6333, 2055]",[],[],[1036],[],[],[],"[3044, 1028, 1037]",[3053],[2055],[],[],[],[],[]
participant_4_SOLD,[],[],[],[],[],[],[3340],[],[1039],[],[2055],[2031],[3364],[],[3513],[1028],[2055],[],"[3057, 3051, 3067]",[],"[1036, 1036, 1001]",[],"[1036, 1036]",[],[],[],[3400],[],"[1029, 3133]",[],[],[],[2055],[],[],"[3400, 1036]","[1037, 3044, 1028]",[],[3400],[],[],[2055],[]
participant_4_UNDO,[],[],[],[],[],[],[],[],[],[],[],[],[],[],[],[],[],[],[],[],"[[0, 1029], [0, 3133]]",[],[],[],[],[],[],[],[],[],[],[],[],[],[],[],[],[],[],[],[],[],[]
participant_5_GOLD,500,500,563,741,913,1196,1354,1518,1765,1965,2171,2294,2507,2685,2857,3168,3532,3724,3910,4033,4239,5431,5740,6246,6689,6811,6955,7077,7502,7638,7888,8061,8421,8593,8814,8978,9212,9542,9665,9899,10021,10144,10210
participant_5_CURRENTGOLD,500,0,63,241,413,696,854,1018,1265,1465,1671,144,57,235,407,718,282,474,660,33,239,1431,1740,1296,539,661,805,227,102,238,488,661,1021,343,264,428,663,142,265,499,622,744,60
participant_5_LEVEL,1,1,1,2,4,5,6,6,7,8,8,8,8,9,9,10,10,11,11,11,12,12,13,13,14,14,14,14,14,14,15,15,15,15,15,16,16,17,17,17,17,17,17
participant_5_MINIONSKILLED,0,0,2,5,8,15,17,19,23,28,33,33,38,41,44,51,56,60,61,61,66,69,70,75,86,86,87,87,87,88,92,92,98,98,100,102,104,104,104,106,106,106,106
participant_5_KILLS,0,0,0,0,0,0,0,0,0,0,0,0,0,0,0,0,0,0,0,0,0,1,1,1,1,1,1,1,1,1,1,1,1,1,1,1,1,1,1,1,1,1,1
participant_5_BUY,[],"[1054, 2003, 3340]",[],[],[],[],[],[],[],[],[],"[6029, 1028, 2003]",[1001],[],[],[],[3047],[],[],"[3067, 1036]",[],[],[],[6630],[3077],[],[],"[1036, 1036]",[1053],[],[],[],[],"[3133, 3074]",[1029],[],[],"[1031, 1036]",[],[],[],[],[3133]
participant_5_SOLD,[],[],[],[],[2003],[],[],[],[],[],[],[],[2003],[],[],[],[1001],[],[],[1028],[],[],[],"[6029, 1036, 3067]",[],[],[],[],[1036],[],[],[],[],"[1036, 3077, 1053, 3133]",[],[],[],[1029],[],[],[],[],[1036]
participant_5_UNDO,[],[],[],[],[],[],[],[],[],[],[],[],[],[],[],[],[],[],[],[],[],[],[],[],[],[],[],[],[],[],[],[],[],[],[],[],[],[],[],[],[],[],[]
participant_6_GOLD,500,500,621,973,1241,1583,1908,2160,2552,3075,3197,3993,4403,5025,5148,5455,6147,6454,6876,6999,7571,8083,8656,8991,9326,9533,10033,10155,10765,10887,11521,11683,11905,12098,12435,12593,12865,13175,13297,13553,13718,14042,14108
participant_6_CURRENTGOLD,500,0,121,473,741,1083,1408,1660,2052,2575,72,858,1268,1890,263,570,1262,1569,1991,1214,886,1398,1971,2306,541,748,398,520,1130,2,636,799,1020,1214,301,458,731,1041,323,579,744,1068,1083
participant_6_LEVEL,1,1,2,3,3,4,5,5,6,7,7,8,9,10,10,10,10,11,11,11,12,12,13,13,13,13,14,14,14,14,14,14,15,15,15,15,16,16,16,16,16,17,17
participant_6_MINIONSKILLED,0,0,0,0,0,0,0,0,0,0,0,10,10,10,10,10,10,10,11,11,11,12,12,16,16,16,21,21,21,21,27,27,30,31,32,34,34,34,34,39,42,50,50
participant_6_KILLS,0,0,0,0,0,0,0,0,0,0,0,1,1,1,2,2,2,3,3,3,3,3,3,3,3,3,3,3,4,4,4,4,4,4,4,4,5,6,6,7,7,7,7
participant_6_BUY,[],"[1056, 2003, 3340, 2003]",[],[],[],[],[],[3108],[],[],[],[],"[3020, 1027]",[],[],[],"[3802, 1052]",[],[],[6653],[],[],[],[],[],[1011],[1026],[],[],[4637],[],[1052],[],[4630],[],[],[],[3135],[3191],[],[],[],[]
participant_6_SOLD,[],[],[],[],[2003],[2003],[],[],[],[],[],[],[],[],[],[],[1027],[],[],"[3802, 3108]",[],[],[],[],[],[],[],[],[],"[1026, 1011, 1052]",[],[],[],[1052],[],[],[],[4630],[],[],[],[],[]
participant_6_UNDO,[],[],[],[],[],[],[],[],[],[],[],[],[],[],[],[],[],[],[],[],[],[],[],[],[],[],[],[],[],[],[],[],[],[],[],[],[],[],[],[],[],[],[]
participant_7_GOLD,500,500,542,734,857,1042,1215,1421,1668,1812,2164,2308,2571,2782,3028,3290,3550,3941,4454,4625,4769,4891,5306,5478,5675,5819,5941,6217,6377,6499,6680,7022,7223,7395,7643,7828,8340,8694,9108,9529,9652,9774,9903
participant_7_CURRENTGOLD,500,500,542,734,357,542,280,486,723,517,869,248,501,712,948,1210,370,761,1274,195,39,161,576,748,145,289,411,287,447,134,315,657,858,665,912,1098,1610,664,1078,1499,722,844,1003
participant_7_LEVEL,1,1,1,3,3,4,4,5,6,6,7,7,7,8,9,9,10,11,11,11,11,11,12,12,12,12,12,12,13,13,13,14,14,14,14,14,15,15,16,16,16,16,16
participant_7_MINIONSKILLED,0,0,1,5,5,8,8,13,17,18,22,23,28,29,33,41,41,44,49,52,53,53,58,58,58,59,59,64,64,64,65,68,70,70,70,74,88,94,103,112,112,112,116
participant_7_KILLS,0,0,0,0,0,0,2,2,2,2,3,4,5,6,7,7,8,8,8,8,9,9,10,10,12,12,12,12,13,13,14,15,15,15,17,17,18,20,20,20,20,20,20
participant_7_BUY,[],"[3850, 3340, 2003, 2003]",[],[],[],[1052],[],[3802],"[1052, 2055]",[],[],[],"[6653, 3364, 2055]","[1001, 1042]",[],[],"[3006, 1043]",[],[1026],[],[],[3115],[],[3041],[],[2420],[],[],[],[],[],"[3157, 1058]",[],[],[3089],[],[],[],"[3072, 2140, 2139]",[],[2139],[],[2139]
participant_7_SOLD,[],[],[],[2003],[2003],[],[],[1052],[],[2055],[],[3850],"[3802, 1052, 3340]",[],[],[],"[1001, 1042]","[2055, 3851]",[],[],[],"[1043, 1026]",[],[],[],[],[],[],[],[],[],"[2420, 3853]",[],[],[1058],[],[],[],"[3041, 2140, 2139]",[],[2139],[],[2139]
participant_7_UNDO,[],[],[],[],[],[],[],[],[],[],[],[],[],[],[],[],[],[],[],[],[],[],[],[],[],[],[],[],[],[],[],[],[],[],[],[],[],[],"[[0, 3072], [3041, 0]]",[],[],[],[]
participant_8_GOLD,500,500,542,783,962,1154,1402,1524,1674,1946,2309,2987,3246,3383,3847,4265,4615,5149,5394,5537,5659,5857,6382,6676,7083,7205,7377,7694,8217,8339,8687,8859,9268,9786,9929,10503,11450,12085,12207,12838,12961,13271,13337
participant_8_CURRENTGOLD,500,0,42,283,462,654,902,124,274,546,909,1587,396,533,997,1415,380,914,1159,102,224,422,947,1241,1648,870,192,509,1032,339,687,424,834,536,679,1254,2200,1585,808,1439,1561,1872,1937
participant_8_LEVEL,1,1,1,2,3,4,4,4,5,5,6,7,7,8,8,9,9,10,10,10,10,11,11,12,12,12,12,13,13,13,14,14,14,14,14,15,16,16,16,16,16,17,17
participant_8_MINIONSKILLED,0,0,1,8,11,16,16,16,18,24,29,36,36,37,40,53,62,69,73,74,74,74,82,89,98,98,101,108,108,108,114,114,120,128,129,143,149,149,149,157,157,164,164
participant_8_KILLS,0,0,0,0,0,0,0,0,0,0,0,0,0,0,0,0,0,1,1,1,1,1,1,1,1,1,1,1,1,1,1,1,1,1,1,1,1,1,1,1,1,1,1
participant_8_BUY,[],[],[],[],"[1056, 2003, 2003]",[],[1052],[],[],[1027],[],"[3802, 2003, 2003, 2003, 2003, 2003]",[],[],[],[],"[1026, 2003, 2003, 2003, 2003, 2003]",[],[],[6655],[1001],[],[],[],[3020],[],[],[1028],[],[1052],[],[],[],[3916],[],[],[],[3165],[],[],[3191],[3108],[]
participant_8_SOLD,[],[],[],[],[],[2003],[],[],[],[],[2003],"[1052, 1027]",[2003],[],"[2003, 2003]","[2003, 2003]",[],[],[],"[2003, 3802, 1026]",[],[],[2003],[],[1001],[],[],[],[],[],[2003],[],[],[1052],[],[],[],"[3916, 1028]",[],[],[],[],[]
participant_8_UNDO,[],[],[],[],[],[],[],[],[],[],[],[],[],[],[],[],[],[],[],[],[],[],[],[],[],[],[],[],[],[],[],[],[],[],[],[],[],[],[],[],[],"[[0, 3191]]",[]
participant_9_GOLD,500,500,543,717,972,1106,2091,2225,2400,2586,3293,4049,4559,5093,5825,6025,6563,6953,7186,7521,8174,8315,9814,10057,10772,10942,11083,11223,11916,12098,13329,13870,14306,14629,16101,16251,17216,18303,18425,18822,19098,19345,19411
participant_9_CURRENTGOLD,500,0,43,217,472,171,1156,425,90,276,983,1739,509,443,1175,1375,413,803,186,521,1175,165,1664,307,1022,542,683,823,1516,1699,2929,530,967,1289,211,362,1326,2413,1535,1933,1708,1956,241
participant_9_LEVEL,1,1,1,2,3,3,4,4,4,5,5,6,6,7,8,8,8,9,9,9,10,10,11,11,11,11,11,11,12,12,13,13,13,13,14,14,15,15,15,16,16,16,16
participant_9_MINIONSKILLED,0,0,0,0,1,1,1,1,2,4,8,9,11,12,13,13,17,19,21,28,32,32,42,44,44,45,45,45,47,50,51,56,60,60,60,62,73,80,80,83,88,91,91
participant_9_KILLS,0,0,0,0,0,0,0,0,0,1,1,2,2,3,3,3,4,4,4,4,5,6,7,7,7,7,8,8,9,9,10,10,10,10,10,10,10,10,10,10,10,10,10
participant_9_BUY,[],"[1039, 2031]",[],[],[],[],[],[],[],[],"[3145, 3020, 1028, 2055]",[],[],[],[4636],[],[],[],[],[3191],[3108],[],[],[],"[3157, 1026, 3916]",[],[3165],[],[],[4630],[],[],[],[],[3135],[],[],[],[3108],[],[],[],[]
participant_9_SOLD,[],[],[],[],[],[],[],[],[],"[2419, 1039]",[],[2055],[],[],"[3145, 1028]",[],[],[],[],[],[],[2423],[],[],"[3191, 3108, 2424]",[],"[1026, 3916]",[],[],[],[],[],[],[],[4630],[],[],[],[2031],[],[],[],[]
participant_9_UNDO,[],[],[],[],[],[],[],[],[],[],[],[],[],[],[],[],[],[],[],[],[],[],[],[],[],[],[],[],[],[],[],[],[],[],[],[],[],[],[],[],[],[],[]
team0_KILLS,0,0,0,0,1,2,3,3,6,6,7,9,10,11,12,13,14,15,16,20,23,23,24,24,28,28,33,34,36,39,41,42,43,45,50,50,50,54,54,56,59,63,64
team0_CURRENTGOLD,2500,0,438,1784,2532,3048,3251,3288,6055,3975,2353,3668,2043,2673,4601,2361,2247,3837,3729,4890,3711,4508,1168,2769,6524,4015,8072,3079,2672,6065,6174,6202,6616,9320,13585,9595,9811,11647,12094,13313,13658,16211,14607
team0_TOTALGOLD,2500,2500,2938,4294,5867,7728,9331,10543,13320,14530,16108,18263,19943,21513,23451,24911,27347,28937,31062,34398,37958,38756,39956,41557,45611,47122,51179,53586,54954,59316,61251,62828,64541,67246,71511,73446,74386,77398,79342,81632,84479,87030,89040
team0_LEVEL,5,5,6,13,17,21,25,27,30,32,34,38,39,41,43,44,47,50,50,55,56,56,57,58,61,62,65,66,67,69,70,71,73,74,78,79,79,82,83,85,88,88,88
team0_SBIRES,0,0,10,38,51,80,108,121,144,155,169,191,204,223,250,259,274,288,311,331,333,335,339,362,365,376,390,394,394,414,416,426,437,461,471,484,490,499,513,527,547,554,564
team1_KILLS,0,0,0,0,0,0,2,2,2,3,4,7,8,10,12,12,14,16,16,16,18,20,22,22,24,24,25,25,28,28,30,31,31,31,33,33,35,38,38,39,39,39,39
team1_CURRENTGOLD,2500,500,811,1948,2445,3146,4600,3713,4404,5379,4504,4576,2731,3813,3790,5288,2707,4521,5270,2065,2563,3577,6898,5898,3895,3110,2489,2366,4227,2412,5055,3071,4700,4047,2367,3600,6530,5845,4009,5949,5357,6484,4324
team1_TOTALGOLD,2500,2500,2811,3948,4945,6081,7970,8848,10059,11384,13134,15631,17286,18968,20705,22203,24407,26221,27820,28715,30412,32577,35898,37448,39545,40310,41389,42366,44777,45461,48105,49495,51123,52501,54922,56153,59083,61799,62702,64641,65450,66576,66969
team1_LEVEL,5,5,6,12,16,20,23,24,28,31,33,36,37,42,44,46,47,52,52,52,55,56,60,61,62,62,63,64,66,66,69,70,71,71,72,74,78,79,80,81,81,83,83
team1_SBIRES,0,0,4,18,25,40,42,49,60,74,92,111,123,129,140,168,186,202,215,226,236,240,264,282,302,304,313,325,327,331,349,357,378,387,391,415,448,461,470,497,505,523,527
delta_KILLS,0,0,0,0,1,2,1,1,4,3,3,2,2,1,0,1,0,-1,0,4,5,3,2,2,4,4,8,9,8,11,11,11,12,14,17,17,15,16,16,17,20,24,25
delta_CURRENTGOLD,0,-500,-373,-164,87,-98,-1349,-425,1651,-1404,-2151,-908,-688,-1140,811,-2927,-460,-684,-1541,2825,1148,931,-5730,-3129,2629,905,5583,713,-1555,3653,1119,3131,1916,5273,11218,5995,3281,5802,8085,7364,8301,9727,10283
delta_TOTALGOLD,0,0,127,346,922,1647,1361,1695,3261,3146,2974,2632,2657,2545,2746,2708,2940,2716,3242,5683,7546,6179,4058,4109,6066,6812,9790,11220,10177,13855,13146,13333,13418,14745,16589,17293,15303,15599,16640,16991,19029,20454,22071
delta_LEVEL,0,0,0,1,1,1,2,3,2,1,1,2,2,-1,-1,-2,0,-2,-2,3,1,0,-3,-3,-1,0,2,2,1,3,1,1,2,3,6,5,1,3,3,4,7,5,5
delta_SBIRES,0,0,6,20,26,40,66,72,84,81,77,80,81,94,110,91,88,86,96,105,97,95,75,80,63,72,77,69,67,83,67,69,59,74,80,69,42,38,43,30,42,31,37
