name,frame_0,frame_1,frame_2,frame_3,frame_4,frame_5,frame_6,frame_7,frame_8,frame_9,frame_10,frame_11,frame_12,frame_13,frame_14,frame_15,frame_16,frame_17,frame_18,frame_19,frame_20,frame_21,frame_22,frame_23,frame_24,frame_25,frame_26,frame_27,frame_28,frame_29,frame_30,frame_31,frame_32,frame_33,frame_34,frame_35,frame_36
nameStamp,Tstart,Tearly,Tearly,Tearly,Tearly,Tearly,Tearly,Tearly,Tearly,Tearly,Tearly,Tearly,Tearly,Tmid,Tmid,Tmid,Tmid,Tmid,Tmid,Tmid,Tmid,Tmid,Tmid,Tmid,Tmid,Tmid,Tend,Tend,Tend,Tend,Tend,Tend,Tend,Tend,Tend,Tend,Tend
timestamp,0,60010,120022,180031,240052,300060,360080,420085,480115,540135,600139,660151,720155,780181,840182,900212,960222,1020249,1080253,1140260,1200270,1260280,1320285,1380295,1440304,1500309,1560316,1620337,1680366,1740389,1800393,1860397,1920426,1980429,2040456,2100463,2160463
participant_0_GOLD,500,500,611,905,1057,1340,1505,1739,1924,2667,2852,3294,3416,3588,4101,4508,4844,5224,5404,5547,6313,6582,6899,7516,7707,7880,8219,8426,8690,8942,9630,10096,10408,10750,11717,12132,12538
participant_0_CURRENTGOLD,500,0,111,405,82,365,530,214,399,1142,127,569,691,863,1376,1783,429,809,189,332,298,567,484,1101,52,225,564,171,160,413,1100,1566,979,500,268,682,638
participant_0_LEVEL,1,1,1,3,3,5,5,6,6,8,8,8,8,8,9,9,10,10,10,10,11,11,12,13,13,13,13,14,14,14,15,15,16,16,17,17,17
participant_0_MINIONSKILLED,0,0,5,12,14,24,26,33,36,44,48,54,54,54,61,61,69,80,80,81,94,102,109,115,116,116,125,125,130,132,141,150,150,154,154,157,160
participant_0_KILLS,0,0,0,0,0,0,0,0,0,2,2,2,2,2,2,2,2,2,2,2,2,2,2,2,2,3,3,3,3,3,3,3,3,3,5,5,5
participant_0_BUY,[],"[3858, 3340, 2003, 2003]",[],[],[],"[1028, 2003, 2003]",[],"[3067, 1001, 2003]",[],"[3066, 1004, 2003]",[],[],"[2065, 2003, 3364]",[],[],[3117],[],[3024],[],[1028],[3067],[],[],[],[3050],[],"[3067, 1028]",[],[],[3801],[],[],[3109],[],[1057],[],[]
participant_0_SOLD,[],[],[],"[2010, 2003, 2003]",[],[2010],"[2003, 2003]","[2010, 1028]",[2003],[],[2003],[3858],"[3067, 1004, 3066, 3340]",[],[2003],[1001],[],[],[3859],[],[1028],[],[],[],"[3067, 3024]",[],[],[],[],[1028],[],[],"[3801, 3067]",[],[],[],[]
participant_0_UNDO,[],[],[],[],[],[],[],[],[],[],[],[],[],[],[],[],[],[],[],[],[],[],[],[],[],[],[],[],[],[],[],[],[],[],[],[],[]
participant_1_GOLD,500,500,522,698,1076,1279,1545,1816,2083,2887,3236,3720,3860,4585,4725,5177,5405,5559,5917,6058,6398,6703,6919,7180,7378,7869,8059,8199,8427,8568,8816,9092,9233,9440,10438,10743,11063
participant_1_CURRENTGOLD,500,0,22,198,576,279,545,66,333,37,386,870,110,835,975,727,955,209,567,308,248,553,769,1030,528,1019,9,150,377,268,516,792,83,291,388,693,1013
participant_1_LEVEL,1,1,1,2,3,3,4,4,5,6,6,7,7,8,8,9,9,9,10,10,10,10,10,11,12,12,13,13,13,13,14,14,14,14,15,16,16
participant_1_MINIONSKILLED,0,0,0,2,5,5,7,7,11,15,16,19,19,22,22,25,26,27,33,33,33,34,37,38,39,39,39,39,39,39,39,40,40,41,41,41,45
participant_1_KILLS,0,0,0,0,2,3,3,4,4,4,6,7,7,9,9,9,9,9,9,10,10,10,10,11,11,12,12,12,12,12,12,13,13,13,13,15,15
participant_1_BUY,[],"[1055, 2003, 3340]",[],[2055],[],"[1037, 1001]",[],[6670],[],[],[3009],[],"[6671, 1037]",[],[],[1038],[],"[1018, 3031]",[],[1042],[3086],[],[],[],[3094],[],[],"[1036, 1036]",[3035],[],[],[1018],[],[],[3036],[1018],[]
participant_1_SOLD,[],[],[],[],[],[2055],[2003],[],[],[],[1001],[],"[6670, 1037]",[],[],[],[],"[1055, 1038, 1037, 1018]",[],[],[1042],[],[],[],[3086],[],[],[],"[1036, 1036]",[],[],[],[],[],"[3035, 1018]",[],[]
participant_1_UNDO,[],[],[],[],[],[],[],[],[],[],[],[],[],[],[],[],[],[],[],[],[],[],[],[],[],[],[],[],[],[],[],[],[],[],[],[],[]
participant_2_GOLD,500,500,541,1110,1297,1636,2227,2517,2862,3183,3489,3841,4334,5361,5691,6155,6456,6671,7426,8443,8766,9611,9908,10765,11195,11368,12240,12572,13370,13716,14919,15341,15564,16316,17038,17745,18130
participant_2_CURRENTGOLD,500,0,41,610,62,391,982,257,592,903,1209,1551,2034,3061,381,45,346,186,941,1958,516,461,758,1616,2046,968,1841,2173,2971,3316,880,867,474,1227,1949,705,930
participant_2_LEVEL,1,1,1,3,4,5,6,6,7,8,8,9,10,10,11,11,11,11,12,13,13,13,13,14,14,14,14,15,15,15,16,16,16,16,17,17,18
participant_2_MINIONSKILLED,0,0,1,10,14,24,34,44,54,63,73,83,92,102,111,113,120,124,131,134,134,137,143,149,152,152,152,160,167,176,177,177,177,178,180,183,183
participant_2_KILLS,0,0,0,0,0,0,0,0,0,1,2,2,2,2,3,4,4,4,5,5,5,5,5,6,6,6,6,6,7,7,8,8,8,8,8,10,10
participant_2_BUY,[],"[1035, 2031, 3340]",[],[],"[1001, 1036]",[],[],"[3044, 1028]",[],[],[],[],"[6632, 3364, 2055, 2055]",[],[],"[3047, 1028, 1029]",[],"[3066, 1031]",[],[],[],[],"[3742, 1057]",[],[3066],[],[],[4401],[1036],[],[],[],[],[],"[6609, 3140]",[],[]
participant_2_SOLD,[],[],[],[],[],[],[],[1036],[1035],[],[],[],"[3044, 1028, 3340]",[2055],[],[1001],[2055],"[1028, 1029]",[],[],[],[],"[3066, 1031]",[],[],[],[],"[1057, 3066]",[],[],[],[],[],[],"[1036, 2031]",[],[]
participant_2_UNDO,[],[],[],[],[],[],[],[],[],[],[],[],[],[],[],[],[],[],[],[],[],[],[],[],[],[],[],[],[],[],[],[],[],[],[],[],[]
participant_3_GOLD,500,500,562,803,1755,2218,2588,3135,3452,4168,5012,5733,5940,6972,7258,7577,7990,8112,8570,9034,9517,9848,10069,10758,11058,11711,11934,12318,12552,12841,12964,13360,13583,13860,14526,15391,15687
participant_3_CURRENTGOLD,500,0,62,228,1180,468,838,85,402,1118,1362,2083,190,1222,1508,527,940,17,475,640,222,553,775,1463,263,917,1139,824,308,597,719,516,739,1015,832,1097,1212
participant_3_LEVEL,1,1,1,2,3,3,4,5,5,6,7,7,8,8,9,9,10,10,10,11,11,11,11,12,12,13,13,14,14,14,14,14,14,15,16,16,16
participant_3_MINIONSKILLED,0,0,2,9,20,23,32,38,47,58,63,77,82,92,93,98,111,111,120,123,128,136,137,145,148,154,154,158,158,163,163,163,163,166,170,171,175
participant_3_KILLS,0,0,0,0,0,0,0,0,0,1,1,1,1,1,1,1,1,1,1,1,1,1,1,1,1,1,1,1,1,1,1,1,1,1,2,2,2
participant_3_BUY,[],"[1054, 2003, 3340]",[],[],"[1028, 2055]",[],[],"[1028, 2031]",[],[],"[6660, 1029, 1028, 1029]",[],[],[],[],[],[6664],[],[3047],[],[1031],[],[3066],[],[3742],[],[],"[1029, 1029]","[3076, 2055, 3364]",[],[],[],[3024],[3082],"[3110, 1028]",[],[]
participant_3_SOLD,[],[],[],[],[],[2055],[2003],[],[],[],"[1028, 1028]",[],[],[],[],[],"[1029, 6660, 1029]",[],[2422],[],[],[],[1028],[],"[2031, 3066, 1031]",[],[],[],"[1029, 1029, 3340]",[2055],[],[],[],[1054],"[3082, 3024]",[],[]
participant_3_UNDO,[],[],[],[],[],[],[],[],[],[],[],[],[],[],[],[],[],[],[],[],[],[],[],[],[],[],[],[],[],[],[],[],[],[],[],[],[]
participant_4_GOLD,500,500,662,1047,1348,1704,1911,2309,2556,3268,3881,4194,4365,5180,5757,6446,6764,6886,7570,8030,8387,8963,9241,10040,10458,10630,10907,11445,12152,12497,13502,13984,14535,14850,15355,16160,16600
participant_4_CURRENTGOLD,500,0,162,547,198,554,761,9,256,968,1581,1894,115,930,1507,696,1014,236,920,1380,1737,2313,391,1190,808,980,1258,595,952,1298,2302,2784,3336,3651,566,1371,1750
participant_4_LEVEL,1,1,2,3,4,4,5,6,6,7,8,8,9,10,10,10,11,11,11,12,12,13,13,14,14,14,14,15,15,15,16,16,17,17,18,18,18
participant_4_MINIONSKILLED,0,0,0,0,0,1,1,1,1,1,1,1,4,16,17,22,23,23,24,27,29,32,36,39,44,44,45,47,54,57,62,68,76,78,78,80,81
participant_4_KILLS,0,0,0,1,1,1,2,2,2,2,2,2,2,4,4,4,4,4,5,6,6,8,8,10,11,11,13,13,14,14,17,18,18,20,20,21,22
participant_4_BUY,[],"[1056, 2003, 2003, 3340]",[],[],"[1001, 1052]",[],[],"[3802, 2031]",[],[],[],[],[],[],"[6655, 3191, 3108]",[3020],[],[1052],[],[],"[3157, 1026]",[1011],[],[],[],[4637],[],[],[],[],[3089],[1052],[3145],[],[],[4628],[]
participant_4_SOLD,[],[],[2003],[2003],[],[],[],[1052],[],[],[],[2419],[],[2423],[3802],[1001],[],[2031],[],[],"[1052, 3108, 2424]",[],[],[],[],"[1026, 1011]",[],[],[],[],[1056],[],[1052],[],[],[3145],[]
participant_4_UNDO,[],[],[],[],[],[],[],[],[],[],[],[],[],[],"[[0, 3191]]",[],[],[],[],[],[],[],[],[],[],[],[],[],[],[],[],[],[],[],[],[],[]
participant_5_GOLD,500,545,607,841,1221,1427,1770,2171,2460,2618,3033,3588,4032,4217,4610,5685,5913,7049,7415,7965,8975,9355,9568,9810,10336,10903,11047,11346,11510,11633,11887,12183,12661,13131,13385,13682,13764
participant_5_CURRENTGOLD,500,45,107,341,21,227,570,196,485,243,658,913,1357,39,432,1507,135,1271,87,112,1122,1502,165,407,933,751,94,393,558,280,535,831,408,479,733,1030,881
participant_5_LEVEL,1,1,1,3,3,4,5,6,6,7,7,8,8,8,9,10,10,11,11,12,12,13,13,13,14,14,14,14,15,15,15,15,15,16,16,16,16
participant_5_MINIONSKILLED,0,0,2,8,14,16,26,33,40,42,50,57,63,67,79,83,89,94,104,105,114,125,130,137,142,142,143,146,148,148,152,158,171,183,187,193,193
participant_5_KILLS,0,0,0,0,0,0,0,0,0,0,0,1,1,1,1,2,2,4,4,5,7,7,7,7,8,8,8,8,8,8,8,8,8,8,8,8,8
participant_5_BUY,[],"[2033, 3340]",[],[],"[1028, 1042]",[],[],"[3057, 2055]",[],[3067],[],[1029],[],[3078],[],[],"[3047, 3133]",[],"[3077, 1036]","[3074, 3363, 2055]",[],[],"[3051, 1033]",[],[],"[1057, 1042]",[3091],[],[],[1028],[],[],[1057],[3066],[],[],[]
participant_5_SOLD,[],[],[],[],[],[],[],[],[],[1028],[],[],[],"[2055, 3057, 1042, 3067]",[],[],"[1029, 2422]",[],[],"[2033, 3077, 1036, 3133, 3340]",[],[],[],[],[],"[2055, 1033]","[3051, 1057, 1042]",[],[],[],[],[],[],[1028],[],[],[]
participant_5_UNDO,[],[],[],[],[],[],[],[],[],[],[],[],[],[],[],[],[],[],[],[],[],[],[],[],[],[],[],[],[],[],[],[],[],[],[],[],[]
participant_6_GOLD,500,545,665,992,1436,1825,1978,2235,2660,2883,3005,3312,3904,4173,4901,5727,5850,6417,6855,7451,7837,8279,8506,8629,9411,9909,10436,10658,10876,11083,11205,11328,11450,11602,11725,11847,11930
participant_6_CURRENTGOLD,500,45,165,492,936,1325,1478,235,660,183,305,612,1204,40,768,1594,117,334,772,1368,879,246,474,196,978,1476,2003,726,943,860,983,1105,178,330,52,175,197
participant_6_LEVEL,1,1,2,3,3,4,4,5,6,6,6,6,7,7,8,9,9,10,10,11,11,12,12,12,13,13,14,14,14,14,14,15,15,15,15,15,15
participant_6_MINIONSKILLED,0,0,0,0,0,0,1,1,1,1,1,2,2,4,6,11,11,13,13,15,16,16,16,16,16,16,16,16,16,16,16,16,16,16,16,16,16
participant_6_KILLS,0,1,1,1,2,2,2,2,2,2,2,2,2,2,3,3,3,4,4,4,4,4,4,4,4,5,5,5,5,5,5,6,6,6,6,6,6
participant_6_BUY,[],"[2033, 1082]",[],[2055],[],[1026],[1052],[1052],[],[],[],"[3802, 1001]",[],[],[3057],[],"[6655, 2055]",[],[3020],[1052],[],[3113],[],[],[],[3100],[1058],[],[],[1058],[],[],[],[],[3089],[],[]
participant_6_SOLD,[],[],[],[],[2010],[],[2010],[2055],[],[],[],"[2010, 1052, 1052]",[],[],[],[],"[3802, 1026, 2055]",[],[1001],[],[],[1052],[],[],[],"[3057, 3113]",[],[],[],[2033],[],[],[],[],"[1058, 1058]",[],[]
participant_6_UNDO,[],[],[],[],[],[],[],[],[],[],[],[],[],[],[],[],[],[],[],[],[],[],[],[],[],[],[],[],[],[],[],[],[],[],[],[],[]
participant_7_GOLD,500,920,1003,1202,1860,2157,2427,2682,3027,3276,3482,3900,4162,4305,5021,5551,5803,6335,6631,6754,7065,7279,7436,7558,7723,9755,10190,10647,10899,11210,11427,11944,12067,12262,12384,12674,12756
participant_7_CURRENTGOLD,500,70,153,277,925,362,197,17,352,601,807,485,747,890,906,1436,363,895,391,79,390,189,346,468,633,1215,401,857,1109,370,587,1105,1227,1422,245,534,456
participant_7_LEVEL,1,1,1,3,4,5,6,6,7,8,8,8,9,9,10,10,11,11,11,11,12,12,12,12,12,13,14,14,14,14,15,15,15,15,15,15,15
participant_7_MINIONSKILLED,0,0,3,7,18,26,34,42,52,60,65,70,74,75,77,87,91,92,98,98,102,107,109,109,112,119,130,141,143,149,149,149,149,149,149,155,155
participant_7_KILLS,0,0,0,0,1,1,1,1,1,1,1,1,1,1,2,3,3,3,3,4,4,4,4,4,5,5,6,6,6,6,6,6,6,6,6,6,6
participant_7_BUY,[],"[1035, 2031]",[],[],[],[],[],"[3051, 1028]",[],"[3067, 1001]",[],[],[],[3078],[],[],"[3047, 1031]",[1036],[],[],[1037],[6333],[],[1028],[],[],[],"[3133, 3067]",[],"[1036, 3364]",[],[],[3071],[],[1028],[],[]
participant_7_SOLD,[],[],[],[],[],[],[],[],[1035],[1028],[],[],"[3340, 3513]","[3051, 3067]",[],[],[1001],[],[],[],[],"[1031, 1036, 1037]",[],[],[],[],[],[1028],[],"[2031, 3340]",[],[],"[3133, 3067, 1036]",[],[],[],[]
participant_7_UNDO,[],[],[],[],[],[],[],[],[],[],[],[],[],[],[],[],[],[],[],[],[],[],[],[],[],[],[],[],[],[],[],[],[],[],[],[],[]
participant_8_GOLD,500,525,622,1156,1417,1729,2027,2516,2781,3028,3311,4495,4968,5090,5414,5663,5926,7010,7326,7731,8626,8849,9696,9992,10490,11482,11729,11894,12287,12771,13180,13702,14364,14487,15097,15432,15515
participant_8_CURRENTGOLD,500,25,122,656,67,379,677,66,331,278,561,1145,1618,240,264,513,776,1360,336,741,1636,240,1086,107,605,1597,800,364,757,1242,1650,1273,1935,207,818,1153,815
participant_8_LEVEL,1,1,1,2,3,3,4,5,5,6,6,6,7,7,8,8,9,10,10,11,11,12,12,12,13,14,14,14,15,15,15,16,16,16,17,17,17
participant_8_MINIONSKILLED,0,0,4,11,16,24,33,37,42,46,55,61,74,74,77,80,88,98,100,105,120,121,138,144,144,148,148,150,158,171,178,178,190,190,204,208,208
participant_8_KILLS,0,0,0,0,0,0,0,0,0,0,0,0,0,0,0,0,0,1,2,2,2,2,2,2,2,2,2,2,3,3,4,4,4,4,4,4,4
participant_8_BUY,[],"[3858, 2003, 2003, 3340]",[],[],"[1001, 2055]",[],[1029],[1028],[],[],[],[3067],[1028],[],[1028],[],[],"[6660, 1033]","[3364, 1057]",[3117],[],[],[],[],[],"[6664, 2055, 2055]",[3801],[],[3109],[2055],[],[1028],[3067],[],[1029],[],[]
participant_8_SOLD,[],[],[],"[2003, 2003]",[],[2055],[],[],[],[],[],[1028],[],[],[],[3858],[],"[1028, 1028]","[3340, 1033]",[1001],[],[],[],[],[],"[6660, 1029, 1057]",[],"[3859, 2055]","[3801, 3067]",[],[],[],[1028],"[2055, 2055]",[],[],[]
participant_8_UNDO,[],[],[],[],[],[],[],[],[],[],[],[],[],[],[],[],[],[],[],[],[],[],[],[],[],[],[],[],[],[],[],[],[],[],[],[],[]
participant_9_GOLD,500,525,568,838,1055,1189,1366,1650,1853,2060,2266,2400,2585,2719,2854,3170,3331,3932,4393,4672,5006,5147,5287,5428,5803,6293,6584,6854,7295,7479,7954,8170,8310,8480,8621,8836,8931
participant_9_CURRENTGOLD,500,25,68,338,180,314,191,75,278,485,691,425,210,344,79,395,556,507,518,97,431,572,712,853,1228,568,209,479,70,179,254,470,210,380,221,436,531
participant_9_LEVEL,1,1,1,2,3,3,3,4,4,4,5,6,6,6,6,7,7,8,8,9,9,9,9,9,10,11,12,12,12,12,13,13,13,13,13,13,13
participant_9_MINIONSKILLED,0,0,1,2,4,4,6,6,7,8,11,11,11,11,11,13,14,16,17,18,18,18,18,18,19,19,19,22,22,24,26,26,26,27,27,30,30
participant_9_KILLS,0,0,0,1,1,1,1,2,2,2,2,3,3,3,3,3,3,4,4,4,4,4,4,4,5,6,6,6,6,6,6,7,7,7,7,7,7
participant_9_BUY,[],"[1055, 2003, 3340]",[],[],"[1083, 1036, 2003]",[],[],"[6670, 2031]",[],[1001],[],[1018],[],[6672],[1042],[],[],[3006],"[6677, 1018]",[3363],[],"[3124, 1042, 1042]",[],"[1043, 1037]",[],[],[3153],"[1042, 1042]",[],[],[],[3086],[],"[3046, 1033]",[],[],[]
participant_9_SOLD,[],[],[],[2003],[],[],[2003],[1036],[],[],[],[],[],"[6670, 1018]",[],[],[],"[1001, 1042]",[2031],[3340],[],"[6677, 1018, 1055]",[],"[1042, 1042]",[],[],"[1043, 1037, 1083]",[],[],[],[],[1042],[],"[1042, 3086]",[],[],[]
participant_9_UNDO,[],[],[],[],[],[],[],[],[],[],[],[],[],[],[],[],[],[],[],[],[],[],[],[],[],[],[],[],[],[],[],[],[],[],[],[],[]
team0_KILLS,0,0,0,1,3,4,5,6,6,10,13,14,14,18,19,20,20,20,22,24,24,26,26,30,31,33,35,35,37,37,41,43,43,45,48,53,54
team0_CURRENTGOLD,2500,0,398,1988,2098,2057,3656,631,1982,4168,4665,6967,3140,6911,5747,3778,3684,1457,3092,4618,3021,4447,3177,6400,3697,4109,4811,3913,4768,5892,5517,6525,5611,6684,4003,4548,5543
team0_TOTALGOLD,2500,2500,2898,4563,6533,8177,9776,11516,12877,16173,18470,20782,21915,25686,27532,29863,31459,32452,34887,37112,39381,41707,43036,46259,47796,49458,51359,52960,55191,56564,59831,61873,63323,65216,69074,72171,74018
team0_LEVEL,5,5,6,13,17,20,24,27,29,35,37,39,42,44,47,48,51,51,53,56,57,58,59,64,65,66,67,71,71,71,75,75,77,78,83,84,85
team0_SBIRES,0,0,8,33,53,77,100,123,149,181,201,234,251,286,304,319,349,365,388,398,418,441,462,486,499,505,515,529,548,567,582,598,606,617,623,632,644
team1_KILLS,0,1,1,2,4,4,4,5,5,5,5,7,7,7,9,11,11,16,17,19,21,21,21,21,24,26,27,27,28,28,29,31,31,31,31,31,31
team1_CURRENTGOLD,2500,210,615,2104,2129,2607,3113,589,2106,1790,3022,3580,5136,1553,2449,5445,1947,4367,2104,2397,4458,2749,2783,2031,4377,5607,3507,2819,3437,2931,4009,4784,3958,2818,2069,3328,2880
team1_TOTALGOLD,2500,3060,3465,5029,6989,8327,9568,11254,12781,13865,15097,17695,19651,20504,22800,25796,26823,30743,32620,34573,37509,38909,40493,41417,43763,48342,49986,51399,52867,54176,55653,57327,58852,59962,61212,62471,62896
team1_LEVEL,5,5,6,13,16,19,22,26,28,31,32,34,37,37,41,44,46,50,50,54,55,58,58,58,62,65,68,68,70,70,72,74,74,75,76,76,76
team1_SBIRES,0,0,10,28,52,70,100,119,142,157,182,201,224,231,250,274,293,313,332,341,370,387,411,424,433,444,456,475,487,508,521,527,552,565,583,602,602
delta_KILLS,0,-1,-1,-1,-1,0,1,1,1,5,8,7,7,11,10,9,9,4,5,5,3,5,5,9,7,7,8,8,9,9,12,12,12,14,17,22,23
delta_CURRENTGOLD,0,-210,-217,-116,-31,-550,543,42,-124,2378,1643,3387,-1996,5358,3298,-1667,1737,-2910,988,2221,-1437,1698,394,4369,-680,-1498,1304,1094,1331,2961,1508,1741,1653,3866,1934,1220,2663
delta_TOTALGOLD,0,-560,-567,-466,-456,-150,208,262,96,2308,3373,3087,2264,5182,4732,4067,4636,1709,2267,2539,1872,2798,2543,4842,4033,1116,1373,1561,2324,2388,4178,4546,4471,5254,7862,9700,11122
delta_LEVEL,0,0,0,0,1,1,2,1,1,4,5,5,5,7,6,4,5,1,3,2,2,0,1,6,3,1,-1,3,1,1,3,1,3,3,7,8,9
delta_SBIRES,0,0,-2,5,1,7,0,4,7,24,19,33,27,55,54,45,56,52,56,57,48,54,51,62,66,61,59,54,61,59,61,71,54,52,40,30,42
