name,team0,team1
win,Fail,Win
firstBlood,True,False
firstTower,False,True
firstInhibitor,False,True
firstBaron,False,True
firstDragon,False,True
firstRiftHerald,True,False
towerKills,4,7
inhibitorKills,0,1
baronKills,0,1
dragonKills,2,3
riftHeraldKills,1,0
