name,team0,team1
win,Fail,Win
firstBlood,True,False
firstTower,True,False
firstInhibitor,False,True
firstBaron,False,True
firstDragon,False,True
firstRiftHerald,False,False
towerKills,6,8
inhibitorKills,0,1
baronKills,0,2
dragonKills,1,5
riftHeraldKills,0,0
