name,frame_0,frame_1,frame_2,frame_3,frame_4,frame_5,frame_6,frame_7,frame_8,frame_9,frame_10,frame_11,frame_12,frame_13,frame_14,frame_15,frame_16,frame_17,frame_18,frame_19,frame_20,frame_21
nameStamp,Tstart,Tearly,Tearly,Tearly,Tearly,Tearly,Tearly,Tearly,Tearly,Tearly,Tearly,Tearly,Tearly,Tearly,Tearly,Tmid,Tmid,Tmid,Tmid,Tmid,Tmid,Tmid
timestamp,0,60002,120022,180060,240082,300109,360135,420164,480191,540221,600240,660263,720284,780316,840334,900349,960372,1020393,1080413,1140440,1200458,1260458
participant_0_GOLD,500,500,541,874,1057,1333,1547,1823,2161,2417,2877,3091,3280,3769,3941,4869,5521,6138,6711,6833,7355,7548
participant_0_CURRENTGOLD,500,0,41,374,57,333,47,273,611,867,1327,166,355,844,196,1124,276,893,1466,88,610,623
participant_0_LEVEL,1,1,1,3,3,4,5,5,6,7,7,8,8,8,8,9,10,10,11,11,11,12
participant_0_MINIONSKILLED,0,0,1,13,14,20,25,34,43,50,67,73,74,77,77,78,82,90,90,90,90,90
participant_0_KILLS,0,0,0,0,0,0,1,1,2,2,2,2,2,3,3,3,3,3,3,4,4,4
participant_0_BUY,[],"[1041, 3340, 2031]",[],[],[],[],"[3706, 1036, 1036, 2055, 3364]",[],[],[],[],"[1400, 1001, 2055]",[],[],[3044],[],[],[],[],[],[],[3078]
participant_0_SOLD,[],[],[],[],[],[],"[1041, 3340]",[],[],[],[2055],"[1036, 1036, 3706]",[],[],[],[2055],[],[],[3364],[],[],[3044]
participant_0_UNDO,[],[],[],[],[],[],[],[],[],[],[],[],[],[],[],[],[],[],[],[],[],[]
participant_1_GOLD,500,500,620,948,1262,1469,1989,2296,2808,3129,3360,3503,3764,4348,4655,4778,5046,5302,5864,6638,7113,7276
participant_1_CURRENTGOLD,500,0,120,448,762,969,64,371,883,1204,1435,278,539,1123,180,303,571,827,1389,2163,2638,318
participant_1_LEVEL,1,1,2,3,4,4,5,5,6,7,7,7,8,8,8,9,9,9,10,11,11,12
participant_1_MINIONSKILLED,0,0,0,0,1,1,1,1,5,6,7,8,8,10,10,10,13,14,14,16,20,24
participant_1_KILLS,0,0,0,0,0,0,0,0,0,0,0,0,0,0,0,2,3,4,5,5,6,6
participant_1_BUY,[],"[1055, 2003, 3340, 2003, 3340, 1054]",[],[],"[1055, 2003]",[],"[1055, 2003]",[2003],[],[],[],"[3077, 2003]",[],[],"[1001, 1036, 1036, 3364]",[],"[3134, 3133]",[],[],"[3147, 3142, 3147, 1028, 3047, 3047, 3047]",[],[]
participant_1_SOLD,[],[],[],[2003],[],[],[2003],[],[],"[2003, 2003]",[],[],[2003],[],"[1054, 3340]",[],"[1036, 1036]",[],[],"[3134, 3133, 3133, 3134, 3134, 3133, 1001, 1001, 1001]",[],[]
participant_1_UNDO,[],"[[3340, 0], [0, 2003], [0, 1055]]",[],[],[],[],[],[],[],[],[],[],[],[],[],[],[],[],[],"[[0, 3147], [0, 3142], [0, 1028], [0, 3047], [0, 3047]]",[],[]
participant_2_GOLD,500,500,562,1249,1930,2080,2631,3234,3516,4173,4626,4769,5384,5520,6438,6586,7552,8092,8453,8673,9136,9250
participant_2_CURRENTGOLD,500,0,62,149,830,130,681,1284,116,773,1226,169,784,120,1038,311,1277,1817,453,673,237,350
participant_2_LEVEL,1,1,1,2,4,4,5,6,7,8,8,8,9,9,10,10,10,10,10,11,11,11
participant_2_MINIONSKILLED,0,0,2,8,22,24,29,38,44,55,64,65,72,73,80,80,85,87,93,99,100,101
participant_2_KILLS,0,0,0,1,2,2,2,3,3,4,4,4,5,5,5,5,7,8,8,8,9,9
participant_2_BUY,[],"[1055, 2003, 3340]",[],"[1001, 1042]",[],"[3006, 1042, 2003]",[],[],"[3086, 1042, 2003]",[],[],"[3087, 1042]",[],[1018],[],[1037],[],[],[3031],[],[1053],[]
participant_2_SOLD,[],[],[],[2003],[],"[1001, 1042]",[],[2003],[1042],[],[2003],"[3086, 1042]",[],[],[],[],[],[],"[1037, 1018]",[],[],[]
participant_2_UNDO,[],[],[],[],[],[],[],[],[],[],[],[],[],[],[],[],[],[],[],[],[],[]
participant_3_GOLD,500,500,583,860,1130,1406,1749,1983,2265,2549,3211,3458,3622,3969,4456,4673,5006,5840,6248,6835,7504,7775
participant_3_CURRENTGOLD,500,0,83,360,630,906,1249,1483,65,349,1011,1258,447,794,1281,1498,306,1140,1548,2135,904,1175
participant_3_LEVEL,1,1,1,2,3,4,5,5,5,6,7,7,7,8,8,8,9,9,10,10,11,11
participant_3_MINIONSKILLED,0,0,3,12,21,27,37,43,50,59,67,71,74,84,89,89,89,99,104,107,111,116
participant_3_KILLS,0,0,0,0,0,0,0,0,0,0,1,1,1,1,1,1,1,2,2,3,4,4
participant_3_BUY,[],"[1055, 2003, 3340]",[],[],[],[],[],[],"[1038, 1001, 2003, 2003]",[],[],[],"[1037, 2003, 2003]",[],[],[],"[3031, 1042]",[],[],[],"[3006, 3086]",[]
participant_3_SOLD,[],[],[],[],[],[],[2003],[],[],[],[],"[2003, 2003]",[],[],[],[2003],"[1038, 1037]",[2003],[],[],"[1001, 1042]",[]
participant_3_UNDO,[],[],[],[],[],[],[],[],[],[],[],[],[],[],[],[],[],[],[],[],[],[]
participant_4_GOLD,500,500,564,720,876,1073,1274,1450,1653,1830,2194,2329,2463,2641,3242,3488,3778,4083,4468,4848,5454,5560
participant_4_CURRENTGOLD,500,0,64,220,376,573,774,950,53,230,594,354,488,166,767,1013,178,483,868,1248,754,860
participant_4_LEVEL,1,1,1,2,3,4,4,5,5,6,6,6,7,7,7,8,8,9,9,9,10,10
participant_4_MINIONSKILLED,0,0,2,3,4,5,6,8,9,11,11,11,11,13,15,16,16,17,19,20,21,21
participant_4_KILLS,0,0,0,0,0,0,0,0,0,0,0,0,0,0,1,1,1,1,1,1,2,2
participant_4_BUY,[],"[3854, 2003, 2003]",[],[],[],[],[],[],"[3067, 1001]",[],[],"[1029, 2055]",[],[1031],[],[],"[3109, 3364, 1033, 2055]",[],[],[],"[3111, 1033, 1029]",[]
participant_4_SOLD,[],[],[],"[2003, 2003, 2010]",[],[],[],[],[],[],[2010],[],[2010],"[1029, 3854, 2055]",[],[],"[3067, 1031, 3340]",[],[],[],"[1001, 1033, 3855]",[]
participant_4_UNDO,[],[],[],[],[],[],[],[],[],[],[],[],[],[],[],[],[],[],[],[],[],[]
participant_5_GOLD,500,500,611,790,994,1396,1902,2244,2505,2805,2962,3300,3422,3912,4310,4432,4555,4893,5196,5682,6044,6137
participant_5_CURRENTGOLD,500,0,111,290,194,596,1102,644,470,770,927,1265,137,627,1025,1147,355,693,996,1482,1844,437
participant_5_LEVEL,1,1,1,3,3,5,6,6,7,8,8,9,9,10,10,10,10,10,11,11,12,12
participant_5_MINIONSKILLED,0,0,5,8,10,23,26,36,41,48,50,59,59,72,78,78,78,87,94,98,103,103
participant_5_KILLS,0,0,0,1,1,1,1,1,1,1,1,1,1,2,4,4,4,4,4,4,4,5
participant_5_BUY,[],"[1056, 2003, 2003, 3340]",[],"[1056, 2055]",[2003],[],[1028],[1027],[3010],[2031],[],[],[1026],[],[],"[3027, 3158]",[],[1052],[],[3108],[],[3191]
participant_5_SOLD,[],[],[],[],[2003],"[2003, 2003]",[],[],"[1028, 1027]",[2055],[],[],[],[],[],"[3010, 1026]",[],[],[],[1052],[],[2031]
participant_5_UNDO,[],[],[],[],[],[],[],[],[],[],[],[],[],[],[],[],[],[],[],[],[],[]
participant_6_GOLD,500,500,587,1040,1240,1622,1764,2000,2205,2346,2572,3097,3219,3805,4584,4812,4935,5190,5425,5864,5986,7012
participant_6_CURRENTGOLD,500,0,87,65,215,597,339,225,80,71,297,822,94,680,1459,137,260,80,315,289,411,337
participant_6_LEVEL,1,1,1,2,3,4,5,5,6,6,6,7,7,8,9,9,9,9,10,10,10,11
participant_6_MINIONSKILLED,0,0,3,4,8,18,19,24,28,29,34,42,42,45,47,47,47,53,55,57,57,61
participant_6_KILLS,0,0,0,0,0,0,0,0,0,0,0,1,2,2,2,2,2,2,2,2,2,2
participant_6_BUY,[],"[3858, 2003, 3340, 2003]",[],[],[],[],[],[],[],[],"[1001, 3114, 1029, 3364]",[],[],"[3117, 3024, 2055]",[],[],"[1033, 1029]",[],[],[],[3050],[2055]
participant_6_SOLD,[],[],[],[],"[2010, 2003]",[],"[2003, 2010]",[],[],[],"[3858, 3340]",[2010],[],"[1001, 1029]",[],[2055],[],[],[],[],"[1033, 1029, 3024, 3859]",[]
participant_6_UNDO,[],[],[],[],[],[],[],[],[],[],[],[],[],[],[],[],[],[],[],[],[],[]
participant_7_GOLD,500,500,620,743,866,1073,1196,1353,1635,1886,2008,3070,3213,3349,3622,3835,4588,5024,5146,6039,6726,6819
participant_7_CURRENTGOLD,500,500,620,-57,66,273,46,203,485,36,158,1220,1363,274,-3,-190,563,999,421,-169,518,561
participant_7_LEVEL,1,1,1,1,1,1,1,2,3,4,4,5,6,6,7,7,8,9,9,9,10,10
participant_7_MINIONSKILLED,0,0,0,0,0,0,0,2,8,12,12,14,15,16,16,21,25,28,28,28,33,33
participant_7_KILLS,0,0,0,0,0,0,0,0,0,0,0,0,1,1,1,1,1,1,2,2,2,2
participant_7_BUY,[],"[1055, 2003, 3340]",[],[],[],[],[],[],[],[],"[1038, 1036, 1036]",[],[],"[3133, 1018, 3508]",[],"[2003, 2003, 1042]",[],[1001],[],[3006],[],[1037]
participant_7_SOLD,[],[],[],[],[],[],[],[],[],[],[],[2003],[],"[1036, 1036, 1038, 3133, 1018]",[],[],[],[],[],"[1001, 1042]",[],[]
participant_7_UNDO,[],[],[],[],[],[],[],[],[],[],[],[],[],[],[],[],[],[],[],[],[],[]
participant_8_GOLD,500,500,520,748,1057,1340,1551,1914,2231,2538,2674,3194,3914,4079,4299,4422,4544,4750,5249,5449,5851,5943
participant_8_CURRENTGOLD,500,0,20,248,557,840,1051,1414,1731,2038,174,694,1414,279,499,222,344,250,749,449,851,68
participant_8_LEVEL,1,1,1,1,3,4,4,5,5,6,6,7,7,8,8,8,8,8,8,9,9,9
participant_8_MINIONSKILLED,0,0,0,6,14,20,24,34,42,50,51,60,64,66,72,72,72,77,80,82,88,88
participant_8_KILLS,0,0,0,0,0,0,1,1,1,1,1,1,1,1,1,1,1,1,1,1,1,1
participant_8_BUY,[],"[2003, 1054, 3340]",[],[],[1029],[],[],"[3111, 3047]",[1052],[],[],[],"[1026, 1028]",[],[],[],[3116],[],[],[],[],[3136]
participant_8_SOLD,[],[],[],[2003],[],[],[],[1029],[],[],[],[],[],[],[],[],"[1026, 1052, 1028]",[],[],[],[],[]
participant_8_UNDO,[],[],[],[],[],[],[],"[[0, 3111]]",[],[],[],[],[],[],[],[],[],[],[],[],[],[]
participant_9_GOLD,500,500,522,699,915,1112,1247,1489,1692,1920,2059,2611,3337,3499,3683,3823,4114,4289,4546,4737,4919,5026
participant_9_CURRENTGOLD,500,0,22,199,415,612,747,989,1192,1420,159,711,1437,224,408,548,89,264,521,712,294,326
participant_9_LEVEL,1,1,1,2,3,4,4,5,6,6,6,7,8,8,8,8,9,9,9,9,10,10
participant_9_MINIONSKILLED,0,0,0,2,4,5,5,8,9,11,11,13,15,16,18,18,18,20,22,22,24,24
participant_9_KILLS,0,0,0,0,0,0,0,0,0,0,0,1,1,1,1,1,2,2,2,3,4,4
participant_9_BUY,[],[],[],"[1055, 2003, 1006, 2003, 2003]",[],[],[1036],[],[],"[1036, 1001]",[],[],[],"[3077, 1036, 1028]",[3044],[1027],[],[],[3057],[3078],[],[1029]
participant_9_SOLD,[],[],[],[2003],[2003],[2003],[],[],[],[],[],[],[],"[2419, 1036, 1006, 1036]","[1028, 1036]",[],[],[],[1027],"[2423, 3057, 3044]",[],[]
participant_9_UNDO,[],[],[],[],[],[],[],[],[],[],[],[],[],[],[],[],[],[],[],[],[],[]
team0_KILLS,0,0,0,1,2,2,3,4,5,6,7,7,8,9,10,12,15,18,19,21,25,25
team0_CURRENTGOLD,2500,0,370,1551,2655,2911,2815,4361,1728,3423,5593,2225,2613,3047,3462,4249,2608,5160,5724,6307,5143,3326
team0_TOTALGOLD,2500,2500,2870,4651,6255,7361,9190,10786,12403,14098,16268,17150,18513,20247,22732,24394,26903,29455,31744,33827,36562,37409
team0_LEVEL,5,5,6,12,17,20,24,26,29,34,35,36,39,40,41,44,46,47,50,52,54,56
team0_SBIRES,0,0,8,36,62,77,98,124,151,181,216,228,239,257,271,273,285,307,320,332,342,352
team1_KILLS,0,0,0,1,1,1,2,2,2,2,2,4,6,7,9,9,10,10,11,12,13,14
team1_CURRENTGOLD,2500,500,860,745,1447,2918,3285,3475,3958,4335,1715,4712,4445,2084,3388,1864,1611,2286,3002,2763,3918,1729
team1_TOTALGOLD,2500,2500,2860,4020,5072,6543,7660,9000,10268,11495,12275,15272,17105,18644,20498,21324,22736,24146,25562,27771,29526,30937
team1_LEVEL,5,5,5,9,13,18,20,23,27,30,30,35,37,40,42,42,44,45,47,48,51,52
team1_SBIRES,0,0,8,20,36,66,74,104,128,150,158,188,195,215,231,236,240,265,279,287,305,309
delta_KILLS,0,0,0,0,1,1,1,2,3,4,5,3,2,2,1,3,5,8,8,9,12,11
delta_CURRENTGOLD,0,-500,-490,806,1208,-7,-470,886,-2230,-912,3878,-2487,-1832,963,74,2385,997,2874,2722,3544,1225,1597
delta_TOTALGOLD,0,0,10,631,1183,818,1530,1786,2135,2603,3993,1878,1408,1603,2234,3070,4167,5309,6182,6056,7036,6472
delta_LEVEL,0,0,1,3,4,2,4,3,2,4,5,1,2,0,-1,2,2,2,3,4,3,4
delta_SBIRES,0,0,0,16,26,11,24,20,23,31,58,40,44,42,40,37,45,42,41,45,37,43
