name,frame_0,frame_1,frame_2,frame_3,frame_4,frame_5,frame_6,frame_7,frame_8,frame_9,frame_10,frame_11,frame_12,frame_13,frame_14,frame_15,frame_16,frame_17,frame_18,frame_19,frame_20,frame_21,frame_22,frame_23,frame_24,frame_25,frame_26,frame_27,frame_28,frame_29,frame_30,frame_31,frame_32
nameStamp,Tstart,Tearly,Tearly,Tearly,Tearly,Tearly,Tearly,Tearly,Tearly,Tearly,Tearly,Tearly,Tearly,Tearly,Tearly,Tearly,Tearly,Tmid,Tmid,Tmid,Tmid,Tmid,Tmid,Tmid,Tmid,Tmid,Tmid,Tmid,Tmid,Tmid,Tmid,Tmid,Tmid
timestamp,0,60021,120030,180039,240056,300062,360081,420090,480112,540124,600141,660156,720179,780187,840210,900221,960234,1020243,1080267,1140283,1200291,1260300,1320306,1380319,1440330,1500336,1560360,1620370,1680378,1740390,1800397,1860407,1920407
participant_0_GOLD,500,500,562,776,997,1252,1375,1619,1922,2115,2561,2829,3080,3356,3658,3927,4691,5015,5374,6074,6196,6570,6950,7261,7578,7944,8650,8863,9085,9221,9344,9598,9703
participant_0_CURRENTGOLD,500,0,62,276,497,752,100,344,647,840,286,554,805,381,683,952,1066,670,629,1329,451,825,1205,1516,653,1019,1725,1939,2160,246,369,623,728
participant_0_LEVEL,1,1,1,2,4,5,5,6,7,7,8,8,9,10,10,10,11,12,12,13,13,13,14,14,14,15,15,16,16,16,16,17,17
participant_0_MINIONSKILLED,0,0,2,7,13,18,18,23,31,35,51,56,64,73,80,85,95,103,113,124,124,135,146,153,160,170,178,183,186,187,187,191,191
participant_0_KILLS,0,0,0,0,0,0,0,0,0,0,0,0,0,0,0,0,1,1,1,1,1,1,1,1,1,1,2,2,2,2,2,2,2
participant_0_BUY,[],"[1054, 2003, 3340]",[],[],[],[],"[1028, 1029, 2055]",[],[],[],"[1031, 3751]",[],[],"[1028, 1001]",[],[],[3068],"[1033, 1057]",[1028],[3373],"[3010, 1029]",[],[],[],"[3001, 3379]",[],[],[],[],"[3047, 3801, 3024]",[],[],[]
participant_0_SOLD,[],[],[],[],[],[2010],[],[],[],"[2010, 2010, 2003]","[1029, 1028]",[],[2055],[],[],[],"[1031, 1028, 3751]",[1033],[],[3068],[1028],[],[],[],"[3010, 1057, 3001]",[],[],[],[],"[1001, 1029]",[],[],[]
participant_0_UNDO,[],[],[],[],[],[],[],[],[],[],[],[],[],[],[],[],[],[],[],[],[],[],[],[],[],[],[],[],[],[],[],[],[]
participant_1_GOLD,500,500,665,954,1163,1520,1748,1989,2280,2636,2758,2977,3199,3426,3719,3941,4189,4640,4912,5669,6001,6123,6246,6530,6653,7046,7243,7498,7849,7972,8349,8562,8667
participant_1_CURRENTGOLD,500,0,165,454,663,1020,1248,139,430,286,408,627,249,476,769,991,1239,1690,1962,2719,451,573,696,980,3,396,593,848,349,122,499,312,417
participant_1_LEVEL,1,1,2,3,3,4,4,5,5,6,6,6,7,7,7,8,8,9,9,10,11,11,11,11,11,12,12,12,12,12,13,13,13
participant_1_MINIONSKILLED,0,0,0,0,0,0,0,1,1,3,3,5,5,5,5,5,5,5,6,6,11,11,11,15,15,17,17,17,17,17,23,28,28
participant_1_KILLS,0,0,0,0,0,1,1,1,1,2,2,2,2,2,2,2,4,4,4,4,4,4,4,4,4,5,5,5,5,6,6,7,7
participant_1_BUY,[],"[1056, 2003, 2003, 3340]",[],[],[],[],"[2003, 1026, 2003, 2003, 2003]",[],[],[],[],"[3802, 1001]","[2003, 2003]","[2003, 2003, 2003, 2003, 2003]",[],[],[],"[3285, 3020, 2003, 2003, 2055, 2003, 2003]",[2003],[],[],"[1052, 2003, 2003]",[],[],"[3108, 1028, 2003]",[],[3010],[],[],[3115],[],[3390],"[1026, 2003, 2003, 2003, 2003]"
participant_1_SOLD,[],[],[],"[2003, 2003]",[],[],[],"[2003, 2003]",[],"[2003, 2003]",[],[],[2003],[2003],[2003],[2003],[],"[2003, 2003, 3802, 1026, 1001]","[2003, 2055, 2003]",[],[2003],[],[],"[2003, 2003, 2003]","[1052, 1056]",[],"[2003, 1028]",[],[],[3108],[2003],[3285],[1056]
participant_1_UNDO,[],[],[],[],[],[],[],[],[],[],[],[],[],[],[],[],[],[],[],[],[],[],[],[],"[[1056, 0]]",[],[],[],[],[],[],[],[]
participant_2_GOLD,500,500,597,885,1085,1569,1783,2003,2292,2854,3151,3274,3480,3602,3890,4145,5636,5772,5936,6179,6350,6647,6867,7038,7161,8094,8312,8566,9301,9999,10121,10779,10884
participant_2_CURRENTGOLD,500,0,97,385,585,1069,233,453,742,1304,1601,124,230,102,390,645,2136,147,261,504,675,437,657,828,36,969,487,741,1476,74,196,855,-251
participant_2_LEVEL,1,1,1,3,3,4,5,6,6,7,8,8,8,8,9,9,10,10,10,11,11,12,12,12,12,13,13,13,13,14,14,15,15
participant_2_MINIONSKILLED,0,0,4,11,11,14,19,24,31,37,47,47,52,52,59,66,68,69,71,75,78,84,90,93,93,98,98,102,112,115,115,124,124
participant_2_KILLS,0,0,0,0,1,1,1,2,3,3,4,4,5,5,6,6,6,6,6,6,6,6,6,6,6,6,7,7,8,8,8,8,8
participant_2_BUY,[],"[3340, 2003, 1055]",[],[],"[1036, 1036]",[],[],"[3133, 1001]",[],[],[],[1038],[],[],"[3508, 3006]",[],"[1042, 1042]",[],[2015],[],[1018],[],[3086],[],[],[],[],"[3094, 1042, 1018]",[],"[3086, 1042]",[],[],[]
participant_2_SOLD,[],[],[],[],[],[2003],[],"[1036, 1036]",[],[],[],[],[],[],"[1038, 3133, 1001]",[],[],[],[1042],[],[],[],"[1018, 1042]",[],[],[],[],"[3086, 2015]",[],[1018],[],[],[]
participant_2_UNDO,[],[],[],[],[],[],[],[],[],[],[],[],[],[],[],[],[],[],[],[],[],[],[],[],[],[],[],"[[0, 1042]]",[],[],[],[],[]
participant_3_GOLD,500,500,562,811,1428,1550,1823,2265,2812,3126,3690,3854,4366,4572,5117,5379,5796,6112,6269,6612,6735,6996,7160,7283,7405,7651,8183,8701,9385,9618,9761,9884,9989
participant_3_CURRENTGOLD,500,0,62,311,228,350,623,365,912,1226,1790,654,1166,1372,217,479,296,612,369,712,35,296,160,283,405,651,1183,401,1085,418,562,684,789
participant_3_LEVEL,1,1,1,2,3,3,4,4,4,5,6,6,7,7,8,8,9,9,9,10,10,10,10,10,10,11,11,12,12,13,13,13,13
participant_3_MINIONSKILLED,0,0,2,9,11,11,17,17,24,32,41,44,48,53,55,60,60,64,66,69,69,73,75,75,75,77,78,89,93,95,96,96,96
participant_3_KILLS,0,0,0,0,0,0,0,0,0,0,0,0,0,0,0,0,0,1,1,2,2,2,2,2,2,2,2,2,2,2,2,2,2
participant_3_BUY,[],"[1039, 2031, 3340, 3364]",[],[],[],[],[],"[3715, 1001, 1028]",[],[3751],[],[],[1413],[],[],[],[],[],[],[],"[3111, 1011, 1031]",[],[],[],[3742],[],[],[],"[1033, 1028]",[3211],[],[1028],[]
participant_3_SOLD,[],[3340],[],[],[],[],[],[1039],[],[1028],[],[],"[3751, 3715]",[],[],[],[],[],[],[],[1001],[],[],[],"[1031, 1011]",[],[],[],[],"[1028, 1033]",[],[],[]
participant_3_UNDO,[],[],[],[],[],[],[],[],[],[],[],[],[],[],[],[],[],[],[],[],[],[],[],[],[],[],[],[],[],[],[],[],[]
participant_4_GOLD,500,500,541,713,871,993,1130,1604,1924,2082,2563,2700,3088,3245,3573,3716,4480,4645,4781,5163,5286,5457,5692,5835,5985,6108,6244,6381,6588,6710,7365,7536,7641
participant_4_CURRENTGOLD,500,0,41,213,371,493,630,1104,1424,1582,813,950,1338,1495,573,716,1480,270,406,788,911,232,466,610,760,883,1019,1156,1363,120,775,296,-59
participant_4_LEVEL,1,1,1,2,3,3,4,4,5,6,6,7,7,8,8,8,9,9,9,9,9,10,10,10,10,10,11,11,11,12,13,13,13
participant_4_MINIONSKILLED,0,0,1,4,6,6,7,9,11,13,15,16,20,22,24,25,32,34,35,36,36,39,47,48,50,50,51,52,54,54,64,67,67
participant_4_KILLS,0,0,0,0,0,0,0,0,0,0,0,0,0,0,0,0,0,0,0,1,1,1,1,1,1,1,1,1,1,1,2,2,2
participant_4_BUY,[],"[2003, 2003, 1056, 3340]",[],[],[],[],[],[],[],[],[1058],[],[],[],[1058],[],[],"[3089, 1052]",[],[],[],[1026],[],[],[],[],[],[3374],[],[3135],[],[2420],[1029]
participant_4_SOLD,[],[],[],[],[],[],[],[2003],[],[],[2003],[],[],[],[],[],[],"[1058, 1058, 1056]",[],[],[],[],[],[],[],[],[],[3089],[],"[1026, 1052]",[],[],[]
participant_4_UNDO,[],[],[],[],[],[],[],[],[],[],[],[],[],[],[],[],[],[],[],[],[],[],[],[],[],[],[],[],[],[],[],[],[]
participant_5_GOLD,500,500,562,885,1176,1361,1561,1816,2113,2455,2752,3090,3366,3621,3867,4089,4373,4537,4924,5110,5316,5657,6017,6331,6824,7205,7440,7562,7762,8311,9421,9543,9748
participant_5_CURRENTGOLD,500,0,62,385,676,11,211,466,763,1105,1402,1740,2016,2271,342,564,848,112,499,685,391,732,1092,1406,1899,2280,2515,2637,187,736,1846,1094,1298
participant_5_LEVEL,1,1,1,3,4,4,5,6,7,7,8,8,9,10,10,10,10,10,11,11,12,12,13,13,13,14,14,14,14,15,16,16,16
participant_5_MINIONSKILLED,0,0,2,11,21,24,29,37,47,57,67,76,85,93,97,97,103,106,117,121,126,134,141,149,159,167,174,174,176,191,201,201,201
participant_5_KILLS,0,0,0,0,0,0,0,0,0,1,1,2,2,4,5,5,5,6,6,7,10,10,11,12,16,16,19,19,20,24,26,28,31
participant_5_BUY,[],"[1041, 2031]",[],[],[],[3706],[],[],[],[],[],[1416],[3111],[],[],[],"[3101, 3044, 1027]",[],[],[],[],"[3078, 1043, 1037]",[],[],[],"[3124, 3052]",[],"[3053, 1036]",[],[],"[3147, 2140]",[],[]
participant_5_SOLD,[],[],[],[],[],[1041],[],[],[],[],[],[3706],[],[],[],[],[],[],[],[],[],"[3101, 1027, 3044]",[],[],[],"[1043, 1037]",[],"[3052, 2031]",[],[],"[1036, 2140]",[],[]
participant_5_UNDO,[],[],[],[],[],[],[],[],[],[],[],[],[],[],[],[],[],[],[],[],[],[],[],[],[],[],[],[],[],[],[],[],[]
participant_6_GOLD,500,500,636,928,1156,1378,1586,1824,2162,2876,3224,4226,4538,5505,6450,6692,6914,7546,7948,8485,9813,10135,10820,11654,13009,13382,14603,14750,15673,17230,18412,19188,20630
participant_6_CURRENTGOLD,500,0,136,428,656,228,436,674,1012,1726,2074,1451,663,1630,2575,2817,339,971,1373,1910,3238,652,1337,2171,3527,1474,2695,552,1476,3033,1165,1941,3322
participant_6_LEVEL,1,1,2,2,3,3,4,5,5,6,7,7,8,9,10,10,10,11,11,12,12,13,13,13,14,14,15,15,16,16,17,17,18
participant_6_MINIONSKILLED,0,0,0,0,0,0,0,0,0,4,5,11,11,11,15,15,15,15,27,27,28,28,30,38,46,46,49,49,56,64,71,72,86
participant_6_KILLS,0,0,0,0,0,0,0,1,1,1,1,1,1,1,1,1,1,1,1,1,1,1,1,2,2,2,2,2,2,2,2,2,2
participant_6_BUY,[],[1001],[],[],[],[],[],[1038],[],[],[],[],[1018],[],[],[],[],[],[3133],[3508],[],[],[],[],[],"[3006, 1037]",[],[],[],[1018],[],[],[]
participant_6_SOLD,[],[],[],[],[],[],[],[],[],[],[],[],[],[],[],[],[],[],[],"[1038, 3133, 1018]",[],[],[],[],[],[1001],[],[],[],[],[],[],[]
participant_6_UNDO,[],[],[],[],[],[],[],[],[],[],[],[],[],[],[],[],[],[],[],[],[],[],[],[],[],[],[],[],[],[],[],[],[]
participant_7_GOLD,500,500,590,804,1074,1364,1606,1819,2018,2291,2462,2999,3358,3523,3792,4104,4582,4781,5584,6006,6633,7230,7701,8026,8507,8890,9013,9302,10428,10775,11273,11410,11794
participant_7_CURRENTGOLD,500,0,90,304,574,864,1106,1319,468,41,212,749,1108,773,1042,1354,332,531,99,521,1148,880,501,826,1307,641,413,702,1828,176,674,810,1194
participant_7_LEVEL,1,1,1,3,4,5,6,6,7,7,8,9,9,10,10,11,11,12,12,12,13,13,14,14,14,15,15,15,16,16,16,16,16
participant_7_MINIONSKILLED,0,0,4,9,18,25,32,37,42,42,45,53,58,61,70,77,80,85,94,94,106,112,118,123,128,130,130,135,145,145,145,146,149
participant_7_KILLS,0,0,0,0,0,0,0,0,0,0,0,0,0,0,0,0,0,0,0,0,0,0,0,0,0,0,0,0,0,0,0,0,0
participant_7_BUY,[],"[3850, 2003, 2003, 3340]",[],[],[],[],"[1004, 1004]",[],[],[3028],[],[],[],[],[3174],[],"[1004, 1004]",[],[],[],[],[],[],[3504],[],[],[],"[3801, 3114]",[],[],[3107],[],[]
participant_7_SOLD,[],[],[],[],[2003],[],[],[2003],[],"[1004, 1004]",[],[],[],[],[3028],[],[],[],[],[3850],[],[],[],"[1004, 1004]",[],[],[],[],[],[],"[3114, 3801]",[3851],[]
participant_7_UNDO,[],[],[],[],[],[],[],[],[],[],[],[],[],[],[],[],[],[],[],[],[],[],[],[],[],[],[],[],[],[],[],[],[]
participant_8_GOLD,500,500,597,776,959,1081,1225,1661,1873,2031,2239,2383,2519,2683,2901,3079,3202,3441,3563,3707,3927,4155,4402,5065,5257,5430,5552,5674,5937,6109,6411,6561,6787
participant_8_CURRENTGOLD,500,200,297,476,659,781,925,61,273,431,639,783,119,283,501,679,802,1041,63,107,327,555,802,1465,1657,155,277,399,662,34,336,486,712
participant_8_LEVEL,1,1,1,2,2,2,3,3,4,4,5,5,5,6,6,7,7,8,8,8,8,9,10,10,10,10,10,11,11,11,11,11,12
participant_8_MINIONSKILLED,0,0,4,7,8,8,9,10,12,14,16,17,18,21,23,26,26,29,29,30,35,41,41,46,50,50,50,50,51,51,51,53,54
participant_8_KILLS,0,0,0,0,0,0,0,0,0,0,0,1,1,1,1,1,2,2,3,4,4,5,5,5,5,5,5,5,7,7,8,8,8
participant_8_BUY,[],[2033],[],[],[],[],[],[],"[1001, 1028, 1027]","[3010, 1027]",[],[],[],[3070],[],[],[3027],[],"[3020, 1052]",[],[],[3802],[3113],[],[],[],"[3003, 1027]",[],[],[3100],[],[],[]
participant_8_SOLD,[],[],[],[],[],[],[],[],[],"[1028, 1027]",[],[],[],[1027],[],[],[3010],[],[1001],[],[],[1052],[],[],[],[],"[3070, 3802]",[],[],"[1027, 3113]",[3003],[],[]
participant_8_UNDO,[],[],[],[],[],[],[],[],[],[],[],[],[],[],[],[],[],[],[],[],[],[],[],[],[],[],[],[],[],[],[],[],[]
participant_9_GOLD,500,500,522,687,871,1005,1140,1454,1632,1767,1922,2237,2386,2586,2751,2900,3050,3304,3454,3831,4220,4570,4865,5249,5602,5914,6399,6539,6972,7697,8372,8677,9123
participant_9_CURRENTGOLD,500,0,22,187,371,505,390,704,882,467,622,937,1086,1286,151,300,200,454,603,981,1370,1720,2015,349,702,1014,1499,189,622,1347,1372,1677,2123
participant_9_LEVEL,1,1,1,2,3,3,3,4,5,5,6,6,7,7,7,8,8,8,9,9,10,10,11,11,12,12,12,12,13,14,15,15,16
participant_9_MINIONSKILLED,0,0,0,0,3,3,3,3,4,4,5,5,5,6,6,6,6,6,6,6,6,6,6,6,6,7,7,7,7,8,8,8,8
participant_9_KILLS,0,0,0,0,0,0,0,0,0,0,0,0,0,0,0,0,0,0,0,0,0,0,0,0,0,0,0,0,0,0,1,1,1
participant_9_BUY,[],"[1055, 2003, 3340]",[],[],[],"[1006, 1001, 1036, 2003]",[],[],[],[],[],[],[],[],"[3077, 3044, 2003, 2003]",[],[],"[3047, 2003, 2003]",[],[],"[1028, 2003, 2003]",[],[],[],[],[],[],[],"[3071, 3052, 2003, 2003]",[],[],[1037],[]
participant_9_SOLD,[],[],[],[],[2003],[],[],[],[2003],[],[],[],[],[],"[1036, 1006, 2003]","[2003, 3340]",[],[1001],"[2003, 2003]",[3513],[],[2003],[2003],[],[],[],[],[],"[3044, 1028]",[],"[2003, 2003]",[],[]
participant_9_UNDO,[],[],[],[],[],[],[],[],[],[],[],[],[],[],[],[],[],[],[],[],[],[],[],[],[],[],[],[],[],[],[],[],[]
team0_KILLS,0,0,0,0,1,2,2,3,4,5,6,6,7,7,8,8,11,12,12,14,14,14,14,14,14,15,17,17,18,19,20,21,21
team0_CURRENTGOLD,2500,0,427,1639,2344,3684,2834,2405,4155,5238,4898,2909,3788,3826,2632,3783,6217,3389,3627,6052,2523,2363,3184,4217,1857,3918,5007,5085,6433,980,2401,2770,1624
team0_TOTALGOLD,2500,2500,2927,4139,5544,6884,7859,9480,11230,12813,14723,15634,17213,18201,19957,21108,24792,26184,27272,29697,30568,31793,32915,33947,34782,36843,38632,40009,42208,43520,44940,46359,46884
team0_LEVEL,5,5,6,12,16,19,22,25,27,31,34,35,38,40,42,43,47,49,49,53,54,56,57,57,57,61,62,64,64,67,69,71,71
team0_SBIRES,0,0,9,31,41,49,61,74,98,120,157,168,189,205,223,241,260,275,291,310,318,342,369,384,393,412,422,443,462,468,485,506,506
team1_KILLS,0,0,0,0,0,0,0,1,1,2,2,4,4,6,7,7,8,9,10,12,15,16,17,19,23,23,26,26,29,33,37,39,42
team1_CURRENTGOLD,2500,200,607,1780,2936,2389,3068,3224,3398,3770,4949,5660,4992,6243,4611,5714,2521,3109,2637,4204,6474,4539,5747,6217,9092,5564,7399,4479,4775,5326,5393,6008,8649
team1_TOTALGOLD,2500,2500,2907,4080,5236,6189,7118,8574,9798,11420,12599,14935,16167,17918,19761,20864,22121,23609,25473,27139,29909,31747,33805,36325,39199,40821,43007,43827,46772,50122,53889,55379,58082
team1_LEVEL,5,5,6,12,16,17,21,24,28,29,34,35,38,42,43,46,46,49,51,52,55,57,61,61,63,65,66,67,70,72,75,75,78
team1_SBIRES,0,0,10,27,50,60,73,87,105,121,138,162,177,192,211,221,230,241,273,278,301,321,336,362,389,400,410,415,435,459,476,480,498
delta_KILLS,0,0,0,0,1,2,2,2,3,3,4,2,3,1,1,1,3,3,2,2,-1,-2,-3,-5,-9,-8,-9,-9,-11,-14,-17,-18,-21
delta_CURRENTGOLD,0,-200,-180,-141,-592,1295,-234,-819,757,1468,-51,-2751,-1204,-2417,-1979,-1931,3696,280,990,1848,-3951,-2176,-2563,-2000,-7235,-1646,-2392,606,1658,-4346,-2992,-3238,-7025
delta_TOTALGOLD,0,0,20,59,308,695,741,906,1432,1393,2124,699,1046,283,196,244,2671,2575,1799,2558,659,46,-890,-2378,-4417,-3978,-4375,-3818,-4564,-6602,-8949,-9020,-11198
delta_LEVEL,0,0,0,0,0,2,1,1,-1,2,0,0,0,-2,-1,-3,1,0,-2,1,-1,-1,-4,-4,-6,-4,-4,-3,-6,-5,-6,-4,-7
delta_SBIRES,0,0,-1,4,-9,-11,-12,-13,-7,-1,19,6,12,13,12,20,30,34,18,32,17,21,33,22,4,12,12,28,27,9,9,26,8
