name,frame_0,frame_1,frame_2,frame_3,frame_4,frame_5,frame_6,frame_7,frame_8,frame_9,frame_10,frame_11,frame_12,frame_13,frame_14,frame_15,frame_16,frame_17,frame_18,frame_19,frame_20,frame_21,frame_22,frame_23,frame_24,frame_25,frame_26,frame_27,frame_28,frame_29,frame_30,frame_31,frame_32,frame_33
nameStamp,Tstart,Tearly,Tearly,Tearly,Tearly,Tearly,Tearly,Tearly,Tearly,Tearly,Tearly,Tearly,Tearly,Tearly,Tearly,Tmid,Tmid,Tmid,Tmid,Tmid,Tmid,Tmid,Tmid,Tmid,Tmid,Tmid,Tmid,Tmid,Tmid,Tmid,Tmid,Tend,Tend,Tend
timestamp,0,60011,120044,180062,240084,300111,360136,420155,480170,540184,600192,660202,720220,780238,840240,900254,960272,1020295,1080308,1140331,1200339,1260359,1320371,1380396,1440413,1500434,1560446,1620449,1680463,1740494,1800511,1860542,1920560,1980560
participant_0_GOLD,500,500,542,713,1057,1354,1568,2087,2390,2802,3085,4070,4241,5059,5369,5625,5876,6461,6583,6957,7651,7906,8133,8256,8559,8731,8972,9109,9377,9956,10560,11347,11597,11998
participant_0_CURRENTGOLD,500,0,42,63,407,704,918,37,340,752,1035,1220,201,1019,379,285,536,1121,143,517,161,416,643,766,1069,141,382,169,438,1017,870,158,408,748
participant_0_LEVEL,1,1,1,2,3,5,6,6,7,8,8,9,9,10,10,11,11,11,11,12,13,13,13,13,13,13,13,13,14,14,15,15,15,16
participant_0_MINIONSKILLED,0,0,1,4,14,22,27,31,38,52,61,71,74,83,86,86,90,100,100,111,118,122,128,128,135,135,138,139,143,144,150,157,159,161
participant_0_KILLS,0,0,0,0,0,0,0,0,1,1,1,2,3,3,3,3,5,5,5,5,7,7,7,7,8,8,9,10,10,11,11,11,11,13
participant_0_BUY,[],"[1055, 2003, 3340]",[],[],[],"[2015, 2003]",[],[],[],"[3009, 2003, 2003]",[],"[1038, 2055]",[],[1042],[],"[3095, 1042, 3363]",[],"[3086, 2015]",[],"[3094, 1042]",[],[],[1038],[],[1037],[],[],[],"[3031, 1018]",[],[3046],[],[],[]
participant_0_SOLD,[],[],[],[2003],[],[],[2003],[],[],[],[],[],[2003],"[2003, 2055]",[3400],"[1038, 2015, 3340]",[3400],"[1042, 1042]",[],"[3086, 2015]",[],[],[],[],[1055],[],[],[],"[1038, 1037]",[],"[1042, 1018]",[],[],[]
participant_0_UNDO,[],[],[],[],[],[],[],[],[],[],[],[],[],[],[],[],[],[],[],[],[],[],[],[],[],[],[],[],[],[],[],[],[],[]
participant_1_GOLD,500,500,621,933,1233,1655,1778,2441,2768,3354,3672,4050,4362,5359,6081,6877,7454,8324,8630,9053,9932,10300,10658,10780,11292,11606,12116,12499,12994,13789,14450,14739,15273,15696
participant_1_CURRENTGOLD,500,0,121,433,733,1155,328,991,1318,1904,2222,300,612,1609,221,1017,1594,2464,230,653,1532,401,758,90,603,166,677,1060,704,1500,361,650,1184,1546
participant_1_LEVEL,1,1,2,3,3,4,4,5,5,6,7,7,8,8,9,9,10,11,11,12,12,13,13,13,14,14,14,15,15,16,16,17,17,17
participant_1_MINIONSKILLED,0,0,0,0,0,0,0,0,0,2,3,3,3,3,5,14,15,19,24,24,28,32,39,39,39,42,45,45,53,58,59,59,64,66
participant_1_KILLS,0,0,0,0,0,0,0,0,0,1,2,2,2,2,3,3,3,3,3,3,3,3,3,3,3,3,3,3,3,3,3,3,3,3
participant_1_BUY,[],"[3862, 2003, 2003, 3340]",[],[],[],"[1001, 2003, 2003]",[],[],[],"[3009, 1036, 2003]",[],"[3134, 1036, 2031]",[],[3364],[],"[3179, 3123, 2055, 2055]",[],[3067],[],[],[],[3044],[],[],[],"[3071, 2055, 2055]",[],[],[1036],[],"[3033, 2055, 2055]",[],[],[1038]
participant_1_SOLD,[],[],[],"[2003, 2010]",[2003],[],[2003],"[2010, 2003, 2010]",[],"[1001, 2419, 2003]",[3862],[1036],[],[3340],[],"[3134, 1036, 2031]","[2055, 2423]",[2055],[3863],[],[],[2424],[],[],[],"[3044, 3067, 2055]",[],[2055],[],[],"[1036, 3123]",[],[],"[2055, 2055]"
participant_1_UNDO,[],[],[],[],[],[],[],[],[],[],[],[],[],[],[],[],[],[],[],[],[],[],[],[],[],[],[],[],[],[],[],[],[],[]
participant_2_GOLD,500,500,577,906,1127,1689,2304,2691,3099,3577,3825,4306,4813,5041,6413,6585,7658,7983,8576,8698,9620,10024,10695,11768,11966,12288,13104,13304,13427,14370,14793,15295,16151,16643
participant_2_CURRENTGOLD,500,0,77,406,627,339,954,1341,1749,2227,450,931,338,566,1938,310,1383,68,661,83,655,1059,1730,1133,1331,1653,1070,1270,92,1036,1459,1960,2816,3068
participant_2_LEVEL,1,1,1,3,4,5,6,6,7,8,8,9,9,10,10,10,11,11,11,11,12,12,12,13,13,13,13,13,13,14,14,15,15,15
participant_2_MINIONSKILLED,0,0,3,13,18,24,32,38,52,57,65,70,80,86,86,86,91,95,96,96,96,96,96,96,96,96,96,98,98,98,98,107,108,110
participant_2_KILLS,0,0,0,0,0,1,2,2,2,2,2,3,3,3,5,5,6,6,7,7,8,9,10,12,12,12,13,13,13,15,15,15,16,17
participant_2_BUY,[],"[1054, 2003]",[],[],[],"[1036, 1036, 2031]",[],[],[],[],"[3077, 3134, 1001]",[],[3133],[],[],"[3147, 3134]",[],"[3133, 3158]",[],[3142],[1036],[],[],"[3133, 3105]",[],[],[3812],[],[1038],[],[],[],[],[]
participant_2_SOLD,[],[],[],[2003],[],[],[],[],[],[],"[1036, 1036]",[],[],[],[],"[3134, 3133]",[],"[2031, 1001]",[],"[3133, 3134]",[3400],[],[],"[1036, 1054]",[],[],"[3105, 3133]",[],[],[],[],[],[],[]
participant_2_UNDO,[],[],[],[],[],[],[],[],[],[],[],[],[],[],[],[],[],[],[],[],[],[],[],[],[],[],[],[],[],[],[],[],[],[]
participant_3_GOLD,500,500,584,913,1204,1326,1569,1859,2415,2701,3038,3780,4244,4422,5423,5658,6973,7188,7457,7774,8703,8903,9127,9423,9895,10413,10893,11722,11997,12809,13381,13875,14405,15274
participant_3_CURRENTGOLD,500,0,84,413,704,76,319,609,1165,451,788,155,619,517,1518,253,1568,283,552,69,998,1198,122,418,196,713,1193,2022,273,1085,157,651,1181,1849
participant_3_LEVEL,1,1,1,2,3,3,4,4,5,6,6,7,7,8,9,9,10,10,11,11,11,12,12,13,13,13,13,14,14,15,15,16,16,16
participant_3_MINIONSKILLED,0,0,3,12,22,22,25,34,39,45,53,59,61,64,74,78,87,90,99,107,116,121,124,130,130,137,141,151,156,164,164,170,178,182
participant_3_KILLS,0,0,0,0,0,0,0,1,1,1,1,2,2,2,2,2,2,3,3,3,4,4,4,4,4,4,4,4,4,4,4,4,4,4
participant_3_BUY,[],"[1055, 2003, 3340]",[],[2031],[],[],[],"[3133, 1001]",[],[],[],[3067],[3044],[],[3071],[1036],[],[],[3105],[],[3812],[],[],[],[],[3134],[],[1036],[],[],[3133],"[3142, 3123]",[],[]
participant_3_SOLD,[],[],[],[2003],[],[],[],[],[],[],[],[],[2031],[],"[3044, 3067]",[],[],[],[],[],"[3105, 1036, 3133]",[],[],[],[],[],[],[],[],[],[1036],"[3133, 3134]",[],[]
participant_3_UNDO,[],[],[],[],[],[],[],[],[],[],[],[],[],[],[],[],[],[],[],[],[],[],[],[],[],[],[],[],[],[],[],[],[],[]
participant_4_GOLD,500,500,523,732,903,1067,1361,1558,1926,2395,3028,3334,3510,3818,4685,5175,5578,5851,6247,6447,7373,7688,7900,8081,8435,8689,9019,9253,9404,9858,10377,10657,11369,11685
participant_4_CURRENTGOLD,500,0,23,232,403,167,461,658,1026,495,1128,184,360,669,1535,185,588,61,457,657,1583,688,900,1081,1435,589,919,1153,954,1408,127,407,1119,35
participant_4_LEVEL,1,1,1,2,3,3,4,4,5,5,6,6,6,7,7,8,8,9,9,9,10,11,11,11,11,11,12,12,12,13,14,14,14,15
participant_4_MINIONSKILLED,0,0,0,0,0,0,0,0,0,0,0,0,1,1,1,1,1,2,3,5,5,5,7,9,10,12,15,17,17,20,23,24,24,24
participant_4_KILLS,0,0,0,0,0,1,1,2,2,3,3,3,3,5,5,6,7,8,8,9,10,10,10,10,10,10,10,10,10,11,11,11,11,11
participant_4_BUY,[],"[1041, 2031, 3340]",[],[],[],[],"[3706, 1001, 3364]",[],[],[],[],"[1402, 3020, 3020]",[],[],"[3916, 1052, 2055]",[],[],[],"[3157, 2055]",[],[],[3136],[],[1026],[],[3151],[],[],[1026],[],[3135],[],[],[]
participant_4_SOLD,[],[],[],[],[],[],"[1041, 3340]",[],[],[],[],"[3706, 1001, 1001]",[],[],[3364],"[3513, 2055]",[],[],"[1052, 2055]",[],[],[],[],[2031],[],"[3136, 1026]",[3400],[],[],[],[1026],[],[],[]
participant_4_UNDO,[],[],[],[],[],[],[],[],[],[],[],"[[0, 3020]]",[],[],[],[],[],[],[],[],[],[],[],[],[],[],[],[],[],[],[],[],[],[]
participant_5_GOLD,500,500,542,1148,1330,1606,1869,2246,2570,2714,3069,3269,3559,3681,4310,4708,4831,5385,5652,6023,6445,6819,7177,7531,7842,8136,8334,8456,8620,8868,9206,9409,9595,9776
participant_5_CURRENTGOLD,500,0,42,648,155,431,694,396,720,174,529,729,1019,441,20,418,131,685,602,973,295,669,1027,281,192,486,234,356,170,418,356,160,345,426
participant_5_LEVEL,1,1,1,3,3,4,5,6,7,7,8,8,8,8,9,10,10,10,11,11,11,12,12,13,13,13,14,14,14,14,14,15,15,15
participant_5_MINIONSKILLED,0,0,1,6,10,16,24,37,45,46,57,62,71,71,74,83,83,86,90,99,99,109,114,120,127,132,132,132,135,135,144,145,149,149
participant_5_KILLS,0,0,0,0,0,1,1,1,1,1,1,3,3,4,4,5,5,5,5,5,5,5,5,5,5,5,5,5,5,5,5,5,5,5
participant_5_BUY,[],"[1039, 2031, 3340]",[3364],[],[],[],"[3715, 1036, 1001]",[],[],[],[3133],"[1412, 1036, 1036]",[],[],"[3134, 3133]",[3147],[1036],[],[1029],[],[3047],[],[],[],"[1036, 3134]",[],[1028],[],[],[1037],[],[3814],[],[1036]
participant_5_SOLD,[],[],[3340],[],[],[],[1039],[],[],[],[1036],"[3133, 3715]",[],[],"[1036, 1036]","[3134, 3133]",[],[],[],[],"[1001, 1029]",[],[],[],"[1036, 1036]",[],[],[],[],[2031],[],"[1037, 3134, 1028]",[],[]
participant_5_UNDO,[],[],[],[],[],[],[],[],[],[],[],[],[],[],[],[],[],[],[],[],[],[],[],[],[],[],[],[],[],[],[],[],[],[]
participant_6_GOLD,500,500,637,913,1318,1760,1914,2096,2537,2760,2882,4193,4504,5246,5693,6285,6433,6646,6768,7076,7198,7321,7551,7773,8046,8477,8689,8938,9125,9324,9531,9774,9896,10003
participant_6_CURRENTGOLD,500,0,137,413,818,1260,114,296,737,960,332,418,729,1471,418,310,108,321,143,451,73,196,426,648,171,602,415,664,850,234,442,159,282,-22
participant_6_LEVEL,1,1,2,2,4,4,4,4,5,6,6,6,7,7,8,9,9,9,10,10,10,10,11,11,11,12,12,12,12,13,13,13,13,14
participant_6_MINIONSKILLED,0,0,0,0,0,0,0,0,0,0,0,0,3,3,3,3,3,8,8,8,8,8,8,8,8,8,9,10,10,10,10,13,13,13
participant_6_KILLS,0,0,0,0,0,0,0,0,0,0,0,0,0,0,0,1,1,1,1,1,1,1,1,1,1,1,2,2,2,2,2,3,3,4
participant_6_BUY,[],"[1056, 2003, 2003]",[],[],[],"[1028, 2031]",[],[],[],"[3010, 1001]",[],[3070],[],[3020],[1026],[],"[3027, 1052]",[],[3802],[],[],[],[],[],[3003],[3363],[3020],[],[3113],[],[],[],[3057],[3100]
participant_6_SOLD,[],[],[2003],[2003],[],[],[],[],[],[1028],[],[],[],[1001],[],[],"[3010, 1026]",[],[1052],[],[],[],[],[],"[3070, 3802]",[3340],[1001],[],[3003],[],[],[],[2031],"[3057, 3113]"
participant_6_UNDO,[],[],[],[],[],[],[],[],[],[],[],[],[],"[[0, 3020]]",[],[],[],[],[],[],[],[],[],[],[],[],[],[],[],[],[],[],[],[]
participant_7_GOLD,500,500,563,808,1050,1298,1463,1868,2157,2399,2654,2992,3276,3737,4088,4772,5087,5265,5715,5880,6044,6372,6536,6853,7039,7525,8136,8454,8771,8964,9501,10237,10694,11077
participant_7_CURRENTGOLD,500,0,63,308,550,248,413,818,1107,349,604,92,376,837,338,1022,252,430,15,180,344,672,836,1153,289,775,586,904,371,564,1101,1838,1304,327
participant_7_LEVEL,1,1,1,3,4,5,5,6,7,7,7,8,8,9,10,10,11,11,11,12,12,12,12,12,13,13,14,14,14,15,15,15,16,16
participant_7_MINIONSKILLED,0,0,2,6,13,20,22,36,42,49,57,66,72,83,93,96,104,107,122,125,127,135,138,145,149,161,168,175,181,185,188,198,209,210
participant_7_KILLS,0,0,0,1,1,1,1,1,1,1,1,1,1,1,2,2,2,3,3,3,4,4,4,4,4,4,4,4,4,4,4,4,4,4
participant_7_BUY,[],"[3340, 2033]",[],[],"[1001, 1029, 2055]",[],[],"[3024, 2055]",[],"[1027, 1028]",[],[],[],[3057],"[3025, 1029]",[],[1033],[],[3111],[],"[1011, 1031]",[],[],[3742],[1028],[],[1033],[],[3211],[],[1028],[3067],[],[]
participant_7_SOLD,[],[],[],[2010],[2055],[],[2010],[1029],[],"[2010, 2055]",[],[],[],"[2419, 2423, 1027]","[3057, 3024]",[],[2424],[],"[1001, 1033]",[],"[1028, 1029]",[],[],"[1031, 1011]",[],[],[],[],"[1028, 1033]",[],[],[1028],[],[]
participant_7_UNDO,[],[],[],[],[],[],[],[],[],[],[],[],[],[],[],[],[],[],[],[],[],[],[],[],[],[],[],[],[],[],[],[],[],[]
participant_8_GOLD,500,500,584,846,1469,1741,2179,2521,3330,3474,3864,4151,4997,5189,5568,5879,6032,6359,7075,7554,7826,8169,9879,11090,12033,12636,12763,13114,13481,14091,14269,14581,14766,15923
participant_8_CURRENTGOLD,500,0,84,346,969,66,504,846,1655,104,494,106,952,194,323,634,787,364,1080,1559,331,674,2384,75,668,1271,299,650,1016,726,905,1216,1402,2348
participant_8_LEVEL,1,1,1,2,3,3,4,5,6,6,7,7,8,8,8,8,9,9,10,10,10,11,12,12,13,13,13,14,14,14,14,15,15,15
participant_8_MINIONSKILLED,0,0,3,11,20,20,38,48,59,60,73,74,87,91,102,109,110,118,130,137,137,146,152,157,161,168,168,173,183,185,188,195,198,198
participant_8_KILLS,0,0,0,0,0,1,1,1,2,2,2,2,2,2,2,2,2,2,2,2,2,2,3,3,3,3,3,4,4,5,5,5,5,6
participant_8_BUY,[],"[3850, 2003, 2003, 3340]",[],[],[],"[3028, 3113, 2055, 2003]",[],[],[],"[3114, 1001]",[],"[1052, 2055]",[],"[3504, 3364]",[],[],[3158],[],"[1052, 2055, 2055]",[],[3802],[],[],[3030],[],[1052],[],[1028],[],[],[3916],[],[1026],[]
participant_8_SOLD,[],[],[],[2003],[],"[2003, 2010, 2010]",[2055],"[2003, 2010]",[],[],[],[3850],[],"[3114, 3113, 3340]",[],[],[1001],[],"[2055, 2055]",[],"[1052, 1052, 3851]",[],[],[3802],[],[2055],[],[],[],[],"[1028, 1052]",[],[],[]
participant_8_UNDO,[],[],[],[],[],"[[0, 3028]]",[],[],[],[],[],[],[],[],[],[],[],[],[],[],[],[],[],[],[],[],[],[],[],[],[],[],[],[]
participant_9_GOLD,500,500,523,717,1077,1556,1721,1928,2587,2737,2916,3215,3725,3865,4031,4306,4492,5044,5339,5510,5650,5819,6723,6964,7119,7364,7639,8063,8219,8739,8920,9132,9302,10495
participant_9_CURRENTGOLD,500,0,23,217,577,81,246,453,1112,162,341,130,640,130,296,571,157,709,419,590,300,469,1373,114,269,79,354,378,534,1054,470,682,3,1195
participant_9_LEVEL,1,1,1,2,3,3,3,4,5,5,6,6,7,7,8,8,8,9,9,9,9,10,11,11,11,12,12,12,12,13,13,13,13,14
participant_9_MINIONSKILLED,0,0,0,0,0,0,0,2,2,2,2,3,3,3,4,5,5,13,15,15,15,17,18,20,21,22,25,26,27,28,30,31,32,32
participant_9_KILLS,0,0,0,0,1,1,1,1,2,2,2,2,3,3,3,3,3,3,4,4,4,4,6,7,9,10,10,10,10,11,11,11,11,13
participant_9_BUY,[],"[1055, 2003, 3340]",[],[],[],"[3057, 2055, 2003]",[],[],[],"[3070, 1037]",[],[3004],[],"[1001, 1027, 1029]",[3024],[],[],"[3025, 3363]",[],[],"[3047, 1036, 1036]",[],[],"[3812, 1036, 3123]",[1036],[],[3035],[],[],"[3033, 1036]",[],[],[],[]
participant_9_SOLD,[],[],[],[],[],[2003],[],[2003],[],[2055],[],"[3070, 1037]",[],[],"[1027, 1029]",[],[],"[3057, 3024, 3340]",[],[],[1001],[3004],[],"[1036, 1036, 1055, 1036]",[],[],[1036],[],[],"[3035, 3123]",[],[],[],[]
participant_9_UNDO,[],[],[],[],[],[],[],[],[],[],[],[],[],[],[],[],[],[],[],[],[],[],[],[],[],[],[],[],[],[],[],[],[],[]
team0_KILLS,0,0,0,0,0,2,3,5,6,8,9,12,13,15,18,19,23,25,26,27,32,33,34,36,37,37,39,40,40,44,44,44,45,48
team0_CURRENTGOLD,2500,0,347,1547,2874,2441,2980,3636,5598,5829,5623,2790,2130,4380,5591,2050,5669,3997,2043,1979,4929,3762,4153,3488,4634,3262,4241,5674,2461,6046,2974,3826,6708,7246
team0_TOTALGOLD,2500,2500,2847,4197,5524,7091,8580,10636,12598,14829,16648,19540,21170,23699,27971,29920,33539,35807,37493,38929,43279,44821,46513,48308,50147,51727,54104,55887,57199,60782,63561,65913,68795,71296
team0_LEVEL,5,5,6,12,16,20,24,25,29,33,35,38,39,43,45,47,50,52,53,55,58,61,61,63,64,64,65,67,68,72,74,77,77,79
team0_SBIRES,0,0,7,29,54,68,84,103,129,156,182,203,219,237,252,265,284,306,322,343,363,376,394,402,410,422,435,450,467,484,494,517,533,543
team1_KILLS,0,0,0,1,2,4,4,4,6,6,6,8,9,10,11,13,13,14,15,15,16,16,19,20,22,23,24,25,25,27,27,28,28,32
team1_CURRENTGOLD,2500,0,349,1932,3069,2086,1971,2809,5331,1749,2300,1475,3716,3073,1395,2955,1435,2509,2259,3753,1343,2680,6046,2271,1589,3213,1888,2952,2941,2996,3274,4055,3336,4274
team1_TOTALGOLD,2500,2500,2849,4432,6244,7961,9146,10659,13181,14084,15385,17820,20061,21718,23690,25950,26875,28699,30549,32043,33163,34500,37866,40211,42079,44138,45561,47025,48216,49986,51427,53133,54253,57274
team1_LEVEL,5,5,6,12,17,19,21,25,30,31,34,35,38,39,43,45,47,48,51,52,52,55,58,59,61,63,65,66,66,69,69,71,72,74
team1_SBIRES,0,0,6,23,43,56,84,123,148,157,189,205,236,251,276,296,305,332,365,384,386,415,430,450,466,491,502,516,536,543,560,582,601,602
delta_KILLS,0,0,0,-1,-2,-2,-1,1,0,2,3,4,4,5,7,6,10,11,11,12,16,17,15,16,15,14,15,15,15,17,17,16,17,16
delta_CURRENTGOLD,0,0,-2,-385,-195,355,1009,827,267,4080,3323,1315,-1586,1307,4196,-905,4234,1488,-216,-1774,3586,1082,-1893,1217,3045,49,2353,2722,-480,3050,-300,-229,3372,2972
delta_TOTALGOLD,0,0,-2,-235,-720,-870,-566,-23,-583,745,1263,1720,1109,1981,4281,3970,6664,7108,6944,6886,10116,10321,8647,8097,8068,7589,8543,8862,8983,10796,12134,12780,14542,14022
delta_LEVEL,0,0,0,0,-1,1,3,0,-1,2,1,3,1,4,2,2,3,4,2,3,6,6,3,4,3,1,0,1,2,3,5,6,5,5
delta_SBIRES,0,0,1,6,11,12,0,-20,-19,-1,-7,-2,-17,-14,-24,-31,-21,-26,-43,-41,-23,-39,-36,-48,-56,-69,-67,-66,-69,-59,-66,-65,-68,-59
