name,frame_0,frame_1,frame_2,frame_3,frame_4,frame_5,frame_6,frame_7,frame_8,frame_9,frame_10,frame_11,frame_12,frame_13,frame_14,frame_15,frame_16,frame_17,frame_18,frame_19,frame_20,frame_21,frame_22,frame_23,frame_24,frame_25,frame_26,frame_27
nameStamp,Tstart,Tearly,Tearly,Tearly,Tearly,Tearly,Tearly,Tearly,Tearly,Tearly,Tearly,Tearly,Tearly,Tearly,Tearly,Tmid,Tmid,Tmid,Tmid,Tmid,Tmid,Tmid,Tmid,Tmid,Tmid,Tmid,Tend,Tend
timestamp,0,60007,120018,180038,240058,300065,360089,420104,480121,540130,600154,660166,720177,780196,840213,900232,960243,1020252,1080261,1140275,1200286,1260296,1320305,1380320,1440330,1500358,1560366,1620366
participant_0_GOLD,500,500,887,1185,1392,1782,2224,2516,3279,3528,3739,4231,4545,4961,6524,6820,7575,7747,8122,8737,8859,9319,10015,10394,11270,11567,12073,12101
participant_0_CURRENTGOLD,500,0,387,685,892,282,724,1016,4,253,464,956,1270,1686,3249,262,1017,1189,389,834,506,967,287,666,443,739,326,-2620
participant_0_LEVEL,1,1,1,2,3,5,6,6,7,7,8,8,9,9,10,10,11,11,11,12,12,12,12,13,14,14,14,14
participant_0_MINIONSKILLED,0,0,2,12,17,31,46,55,62,69,74,82,92,100,109,115,127,127,137,140,140,150,159,166,175,181,186,186
participant_0_KILLS,0,0,0,0,0,0,0,0,0,0,0,0,0,0,0,0,0,0,0,0,0,0,0,1,1,1,2,2
participant_0_BUY,[],"[1055, 2003, 3340]",[],[],[],[],[3006],[],[],[1018],[],[],[3086],[],[3046],[],[1033],[],[3140],[],[],[],[1038],[],[],[1018],[],[]
participant_0_SOLD,[],[],[],[2003],[],[],[],[],[],[],[],[],[1018],[],[3086],[],[],[],[1033],[],[],[],[],[],[],[],[],[]
participant_0_UNDO,[],[],[],[],[],[],[],[],[],[],[],[],[],[],[],[],[],[],[],[],[],[],[],[],[],[],[],[]
participant_1_GOLD,500,500,664,957,1156,1364,1686,1900,2272,2584,2904,3179,3345,3642,4586,5028,5214,5625,5907,6731,6853,7142,7550,7672,7955,8077,8364,8392
participant_1_CURRENTGOLD,500,0,164,457,656,214,536,750,1122,59,379,654,220,517,1461,1903,89,500,782,1606,338,227,635,182,465,137,154,122
participant_1_LEVEL,1,1,2,2,3,3,4,5,5,6,6,6,7,7,8,9,9,9,10,10,10,11,11,11,12,12,12,12
participant_1_MINIONSKILLED,0,0,0,0,0,0,1,1,1,1,2,3,5,5,8,8,12,14,14,15,15,18,19,19,19,19,20,20
participant_1_KILLS,0,0,1,1,1,2,2,2,2,2,3,3,3,4,4,5,5,6,6,7,7,8,8,8,8,8,8,8
participant_1_BUY,[],"[1055, 2003, 3340]","[1036, 2055]",[],[],"[3133, 1001]",[],[1053],[],[],[],[1038],[1042],[],[3508],[3006],[],[1038],[3140],[],[1038],[],[1037],[],[],[],[3031],[]
participant_1_SOLD,[],[],[],[2055],[],"[2003, 1036]",[],[],[],[],[],[],[],[],"[1038, 3133]","[1001, 1042]",[],[],[],[],[1055],[],[],[],[],[],"[1038, 1037]",[]
participant_1_UNDO,[],[],[],[],[],[],[],[],[],[],[],[],[],[],[],[],[],"[[0, 1038]]",[],[],[],[],[],[],[],[],[],[]
participant_2_GOLD,500,500,681,979,1206,1595,1850,2113,2402,2680,3050,3394,3644,3878,4321,4584,4748,5296,5687,5922,6128,6404,6863,7397,7569,7691,8247,8275
participant_2_CURRENTGOLD,500,0,181,479,706,1095,250,513,802,280,650,994,644,878,121,384,98,646,187,421,628,904,63,597,768,91,647,675
participant_2_LEVEL,1,1,1,3,4,5,6,6,7,7,8,9,9,9,10,10,10,11,11,11,12,12,12,13,13,13,13,13
participant_2_MINIONSKILLED,0,0,4,14,19,32,40,48,55,61,75,84,88,95,104,108,110,121,130,136,141,141,153,155,158,158,159,159
participant_2_KILLS,0,0,0,0,0,0,0,0,0,0,0,0,0,0,1,1,1,1,1,2,2,2,2,2,2,2,2,2
participant_2_BUY,[],"[1039, 2031, 3340]",[],[],[],"[3715, 3364]",[],[],[],"[3751, 1028, 2055]",[],[],[1413],[],[],[],"[3111, 1011, 1029]",[],[],[],"[3067, 3801]",[3083],[],"[1031, 2055]",[],[1033],[1057],[]
participant_2_SOLD,[],[],[],[],[],"[1039, 3340]",[],[],[],[],[],[2055],"[3751, 3715]",[3364],[3513],[],[1028],[],[],[],[2031],"[1011, 3067, 3801]",[],[1029],[],[],[1033],[]
participant_2_UNDO,[],[],[],[],[],[],[],[],[],[],[],[],[],[],[],[],[],[],[],[],[],[],[],[],[],[],[],[]
participant_3_GOLD,500,500,1014,1372,1641,2257,2593,2980,3332,3497,4310,4675,4818,5438,5731,6345,6638,7396,7720,8284,8407,9072,9279,9430,10068,10190,10627,10654
participant_3_CURRENTGOLD,500,0,89,447,716,282,618,105,457,622,1435,500,343,963,356,469,763,1521,545,1109,112,777,110,260,898,1021,232,79
participant_3_LEVEL,1,1,1,2,3,3,4,4,5,5,6,7,7,8,8,9,9,9,10,10,10,11,11,11,12,12,12,12
participant_3_MINIONSKILLED,0,0,2,13,21,24,33,39,49,51,67,78,79,91,96,107,113,124,132,135,135,144,146,148,159,159,167,167
participant_3_KILLS,0,0,1,1,1,1,1,1,2,2,2,2,2,2,2,2,2,2,2,3,3,3,3,3,4,4,5,5
participant_3_BUY,[],"[1055, 2003, 3340]",[],[],[],"[1083, 1036, 1006, 2003]",[],[],"[3044, 1037]",[],[],[],[],[],[],"[3078, 3047]",[],[],[3077],[1036],[3123],[],"[3074, 2055]",[],[3133],[],[3105],[]
participant_3_SOLD,[],[],[],[],[2003],[],[],[2003],[1036],[2010],"[2010, 2010]",[],[],[],[],"[3044, 2422]",[],[],"[1006, 3078]",[1083],[1036],[],"[3077, 1037, 2055]",[],[],[],[1055],[]
participant_3_UNDO,[],[],[],[],[],[],[],[],[],[],[],[],[],[],[],[],[],[],"[[3078, 0]]",[],[],[],[],[],[],[],[],[]
participant_4_GOLD,500,500,641,836,992,1603,1838,1973,2197,2346,2700,2932,3072,4275,4515,4960,5208,5605,5745,6020,6313,6588,6831,7141,8071,8212,8447,8479
participant_4_CURRENTGOLD,500,0,141,336,492,28,263,398,222,371,375,257,397,1600,365,810,359,355,95,370,663,938,1181,1491,1021,812,1047,1079
participant_4_LEVEL,1,1,1,2,3,3,4,4,5,5,6,6,6,7,7,8,8,8,8,9,9,10,10,10,11,11,11,11
participant_4_MINIONSKILLED,0,0,2,3,4,4,7,7,9,10,11,13,13,15,15,20,22,25,25,25,30,33,35,35,35,35,35,35
participant_4_KILLS,0,0,0,0,0,1,1,1,1,1,1,1,1,2,2,2,2,2,2,2,2,2,2,2,4,4,4,4
participant_4_BUY,[],"[3854, 3340, 2003, 2003]",[],[],[],"[1036, 1036, 1001, 2055]",[],[],[3134],[],"[1036, 2055]",[1036],[3364],[],"[3179, 3111, 2055]",[],"[1036, 1036]",[3134],"[1036, 1028]",[],[],[],[],[],[3814],[1036],[],[]
participant_4_SOLD,[],[],[],[2003],[],[2003],[2055],[],"[1036, 1036]",[],[],[3854],[3340],[],"[3134, 1036, 1036, 1001]",[],[],"[1036, 1036]",[3855],[],[],[],[],[],"[3134, 1028]",[],[],[]
participant_4_UNDO,[],[],[],[],[],[],[],[],[],[],"[[0, 2055]]",[],[],[],[],[],[],[],"[[0, 1036]]",[],[],[],[],[],[],[],[],[]
participant_5_GOLD,500,500,562,797,1141,1368,1603,1889,2011,2225,2813,3172,3393,3641,3764,4172,4518,4839,5122,5908,7411,7697,7933,8471,8614,9770,10192,10219
participant_5_CURRENTGOLD,500,0,62,297,641,283,518,804,126,340,313,672,893,1141,179,587,933,1254,287,1073,2576,512,748,1286,164,1320,302,169
participant_5_LEVEL,1,1,1,3,4,5,5,6,6,7,7,8,8,9,9,10,10,11,11,12,13,13,13,13,13,14,14,14
participant_5_MINIONSKILLED,0,0,2,8,18,22,29,35,35,41,47,57,60,67,67,81,87,95,104,115,127,128,134,140,141,149,149,149
participant_5_KILLS,0,0,0,0,0,2,2,3,3,3,4,5,7,7,8,8,9,9,9,9,9,9,9,11,12,12,13,13
participant_5_BUY,[],"[2031, 1041, 3340, 3364]",[],[],[],"[3715, 1036, 1036, 2055]",[],[],[],"[1412, 2055, 1042, 1027, 1042, 2055]",[],[],[],"[3142, 2055]",[],[3006],[],[],"[3086, 1042, 2055]",[],[2055],[3046],[],[],[1038],[],[],[]
participant_5_SOLD,[],[3340],[],[],[],[1041],[],[],[],"[1036, 1036, 3715]",[2055],[],[],[],[],"[1042, 2422]",[],[2055],[2031],[2055],[],"[1042, 3086]",[],[],[],[],[2055],[]
participant_5_UNDO,[],[],[],[],[],[],[],[],[],"[[0, 1042], [0, 2055], [0, 1027], [0, 2055]]",[],[],[],[],[],[],[],[],[],[],[],[],[],[],[],[],[],[]
participant_6_GOLD,500,500,620,948,1248,2024,2367,2999,3246,3469,4176,4883,5845,5968,6475,6894,7541,7980,8462,8678,8875,9208,9515,10836,11407,11879,12596,12624
participant_6_CURRENTGOLD,500,0,120,448,748,99,442,1074,1321,319,1026,1733,2695,-207,300,219,866,1305,72,288,410,-157,100,1422,692,1164,1882,1949
participant_6_LEVEL,1,1,2,3,3,4,4,5,6,6,7,8,8,8,9,10,10,10,11,11,11,12,12,13,13,14,14,14
participant_6_MINIONSKILLED,0,0,0,0,0,1,1,1,1,1,2,2,2,2,2,2,3,6,8,8,8,9,9,12,14,14,16,16
participant_6_KILLS,0,0,0,0,0,0,0,0,0,0,0,0,0,0,0,0,0,0,0,0,0,0,0,1,1,1,2,2
participant_6_BUY,[],"[3340, 1055, 2003]",[],[],[],"[1042, 1042, 2031]",[],[],"[3006, 1083]",[],[1036],[1053],[],[],[],[3144],[],"[1042, 1043]",[],"[3153, 3363]",[],[],[1037],[1043],[],[3124],"[1018, 1042]",[]
participant_6_SOLD,[],[],[],[],[],[2003],[],[],[1042],[],[],[1036],[],[],[],[1053],[],"[2031, 1042, 1042]",[],"[3144, 1043, 3340]",[],[],[],[],[],"[1043, 1037]",[1083],[]
participant_6_UNDO,[],[],[],[],[],[],[],[],[],[],[],[],[],[],[],[],[],[],[],[],[],[],[],[],[],[],[],[]
participant_7_GOLD,500,500,597,895,1253,1578,1862,2225,2584,3212,3481,3977,4970,5199,5606,5980,6531,6813,7334,7783,8483,9037,9312,9969,10287,11433,11754,11900
participant_7_CURRENTGOLD,500,0,97,395,753,1078,127,490,849,612,881,1377,2370,264,671,245,796,1078,34,483,333,887,327,985,1302,2448,955,900
participant_7_LEVEL,1,1,1,3,4,5,6,7,7,8,9,10,10,10,11,11,12,12,12,12,13,13,14,14,14,15,16,16
participant_7_MINIONSKILLED,0,0,4,14,26,35,44,56,67,76,85,95,104,111,121,132,141,147,153,158,163,174,179,188,195,204,207,210
participant_7_KILLS,0,0,0,0,0,0,0,0,0,1,1,1,2,2,2,2,2,2,3,4,5,5,5,5,5,6,6,6
participant_7_BUY,[],[2033],[],[],[],[],"[1082, 1052, 1001, 2055, 2055]",[],[],[3802],[],[],[],"[3285, 1052]",[],[3020],[],[],"[3108, 3191, 3363]",[],"[3157, 2055, 2055]",[],"[1052, 1028]",[],[],[],"[3916, 3041]",[]
participant_7_SOLD,[],[],[],[],[],"[2010, 2010]",[],[2055],[2010],[1052],[2055],[],[],[3802],[],[1001],[],[],"[1052, 3340]",[],"[3191, 3108, 2033]",[2055],[2055],[],[],[],"[1028, 1052, 1082]",[]
participant_7_UNDO,[],[],[],[],[],[],[],[],[],[],[],[],[],[],[],[],[],[],[],[],[],[],[],[],[],[],[],[]
participant_8_GOLD,500,500,583,839,1120,1338,1636,2299,2611,2955,3188,3498,3754,3935,4058,4180,4613,4772,5350,5615,5896,6516,6959,8162,8489,8977,9564,9591
participant_8_CURRENTGOLD,500,0,83,339,620,108,406,1069,131,475,358,118,374,555,678,100,533,52,630,195,476,1096,664,867,1194,457,124,-109
participant_8_LEVEL,1,1,1,2,3,3,4,5,6,6,6,7,7,7,8,8,8,8,9,9,10,11,11,12,12,13,13,13
participant_8_MINIONSKILLED,0,0,3,10,17,18,28,41,48,57,63,70,78,81,81,81,93,95,112,112,117,130,144,150,152,152,152,152
participant_8_KILLS,0,0,0,0,0,0,0,1,1,1,1,1,1,1,2,2,2,2,2,2,2,3,3,3,3,4,5,5
participant_8_BUY,[],"[3858, 2003, 2003, 3340]",[],[],[],[3009],[],[],[3024],[],[],"[1033, 3364, 1029, 2055, 2055, 3364]",[1033],[],"[3050, 1029]",[],[],[3067],[],[],"[1031, 2055, 2055]",[],"[3109, 1029]",[],[3076],[],[2055],[]
participant_8_SOLD,[],[],[],[2003],[],[2003],[],[],[],[],[3858],"[3340, 3340]",[],[],"[1033, 1029, 3024]",[],[2055],[],[],"[2055, 3859]",[1029],[],"[3067, 1031]",[],[1029],[2055],[2055],[2055]
participant_8_UNDO,[],[],[],[],[],[],[],[],[],[],[],"[[3364, 0], [0, 1033]]",[],[],[],[],[],[],[],[],[],[],[],[],[],[],[],[]
participant_9_GOLD,500,500,522,699,915,1274,1409,2026,2229,2457,2663,2804,3307,3490,4144,4491,4897,5038,5273,5539,5879,6515,6655,7270,7411,8381,8897,8928
participant_9_CURRENTGOLD,500,0,22,199,415,-176,-41,576,-171,57,263,-96,-43,90,-206,141,547,-162,73,339,-21,615,-195,420,-189,781,1222,1703
participant_9_LEVEL,1,1,1,2,3,3,3,4,5,5,6,6,7,7,8,9,9,9,9,10,11,11,11,12,12,13,13,13
participant_9_MINIONSKILLED,0,0,0,2,4,4,4,7,8,10,13,13,14,16,25,34,38,38,44,46,46,46,46,46,46,47,47,47
participant_9_KILLS,0,0,0,0,0,0,0,0,0,0,0,0,0,0,0,0,0,0,0,1,3,3,3,3,3,4,5,5
participant_9_BUY,[],"[1056, 2003, 2003]",[],[],[],"[1052, 2031]",[],[],[3067],[],[3145],[],[],[],"[3152, 1052]",[],[],[],[1058],[],[],[3089],[],[],"[3020, 3108]",[],[3916],[]
participant_9_SOLD,[],[],[],[2003],[2003],[],[],[],[],[],[1052],[],[],[],"[3145, 3067]",[],[],[],[],[],[],[1058],[],[],"[2422, 1052]",[],[1056],[]
participant_9_UNDO,[],[],[],[],[],[],[],[],[],[],[],[],[],[],[],[],[],[],[],[],[],[],[],[],[],[],[],[]
team0_KILLS,0,0,2,2,2,4,4,4,5,5,6,6,6,8,9,10,10,11,11,14,14,15,15,16,19,19,21,21
team0_CURRENTGOLD,2500,0,962,2404,3462,1901,2391,2782,2607,1585,3303,3361,2874,5644,5552,3828,2326,4211,1998,4340,2247,3813,2276,3196,3595,2800,2406,-665
team0_TOTALGOLD,2500,2500,3887,5329,6387,8601,10191,11482,13482,14635,16703,18411,19424,22194,25677,27737,29383,31669,33181,35694,36560,38525,40538,42034,44933,45737,47758,47901
team0_LEVEL,5,5,6,11,16,19,24,25,29,30,34,36,38,40,43,46,47,48,50,52,53,56,56,58,62,62,62,62
team0_SBIRES,0,0,10,42,61,91,127,150,176,192,229,260,277,306,332,358,384,411,438,451,461,486,512,523,546,552,567,567
team1_KILLS,0,0,0,0,0,2,2,4,4,5,6,7,10,10,12,12,13,13,14,16,19,20,20,23,24,27,31,31
team1_CURRENTGOLD,2500,0,384,1678,3177,1392,1452,4013,2256,1803,2841,3804,6289,1843,1622,1292,3675,3527,1096,2378,3774,2953,1644,4980,3163,6170,4485,4612
team1_TOTALGOLD,2500,2500,2884,4178,5677,7582,8877,11438,12681,14318,16321,18334,21269,22233,24047,25717,28100,29442,31541,33523,36544,38973,40374,44708,46208,50440,53003,53262
team1_LEVEL,5,5,6,13,17,20,22,27,30,32,35,39,40,41,45,48,49,50,52,54,58,60,61,64,64,69,70,70
team1_SBIRES,0,0,9,34,65,80,106,140,159,185,210,237,258,277,296,330,362,381,421,439,461,487,512,536,548,566,571,574
delta_KILLS,0,0,2,2,2,2,2,0,1,0,0,-1,-4,-2,-3,-2,-3,-2,-3,-2,-5,-5,-5,-7,-5,-8,-10,-10
delta_CURRENTGOLD,0,0,578,726,285,509,939,-1231,351,-218,462,-443,-3415,3801,3930,2536,-1349,684,902,1962,-1527,860,632,-1784,432,-3370,-2079,-5277
delta_TOTALGOLD,0,0,1003,1151,710,1019,1314,44,801,317,382,77,-1845,-39,1630,2020,1283,2227,1640,2171,16,-448,164,-2674,-1275,-4703,-5245,-5361
delta_LEVEL,0,0,0,-2,-1,-1,2,-2,-1,-2,-1,-3,-2,-1,-2,-2,-2,-2,-2,-2,-5,-4,-5,-6,-2,-7,-8,-8
delta_SBIRES,0,0,1,8,-4,11,21,10,17,7,19,23,19,29,36,28,22,30,17,12,0,-1,0,-13,-2,-14,-4,-7
