name,frame_0,frame_1,frame_2,frame_3,frame_4,frame_5,frame_6,frame_7,frame_8,frame_9,frame_10,frame_11,frame_12,frame_13,frame_14,frame_15,frame_16,frame_17,frame_18,frame_19,frame_20,frame_21,frame_22,frame_23,frame_24,frame_25
nameStamp,Tstart,Tearly,Tearly,Tearly,Tearly,Tearly,Tearly,Tearly,Tearly,Tearly,Tearly,Tearly,Tearly,Tearly,Tearly,Tmid,Tmid,Tmid,Tmid,Tmid,Tmid,Tmid,Tmid,Tmid,Tmid,Tmid
timestamp,0,60024,120033,180035,240051,300055,360077,420108,480114,540146,600175,660180,720201,780206,840233,900245,960276,1020283,1080308,1140320,1200346,1260379,1320412,1380417,1440421,1500421
participant_0_GOLD,500,500,584,906,1155,1798,1977,2417,2960,3343,3655,3861,4088,4457,4807,5063,5563,6102,6225,6396,6519,7017,7385,7975,8209,8295
participant_0_CURRENTGOLD,500,0,84,406,655,1298,147,587,1130,413,725,31,258,627,977,33,533,272,395,216,339,837,1205,395,629,345
participant_0_LEVEL,1,1,1,3,4,5,5,6,7,8,9,9,9,10,10,10,11,11,11,11,11,12,12,12,13,13
participant_0_MINIONSKILLED,0,0,3,12,19,34,37,53,61,73,84,88,94,105,114,122,126,126,126,129,129,132,141,150,157,157
participant_0_KILLS,0,0,0,0,0,0,0,0,0,0,0,0,0,0,0,0,0,0,0,1,1,1,1,1,1,1
participant_0_BUY,[],"[1055, 2003]",[],[],[],[],"[1036, 1042]",[],[],"[6670, 6670, 2003, 2003]",[],[],[1001],[],[],[],[],[],[1037],[],[6672],[],[],"[3009, 1042]",[],[]
participant_0_SOLD,[],[],[],[],[],[],[2003],[],[],"[1036, 1042, 1036, 1042]",[],[],[],[],[],[],[2003],[],[],[2003],"[6670, 1037]",[],[],[1001],[],[]
participant_0_UNDO,[],[],[],[],[],[],[],[],[],"[[0, 6670]]",[],[],[],[],[],[],[],[],[],[],[],[],[],[],[],[]
participant_1_GOLD,500,500,621,928,1233,1805,2011,2218,2440,2648,2975,3210,3356,3645,3868,4225,4403,4525,4647,4905,5027,5438,5645,5993,6222,6307
participant_1_CURRENTGOLD,500,0,121,428,733,1305,1511,1718,1940,2148,275,510,656,945,293,650,53,175,297,555,127,538,745,1093,222,307
participant_1_LEVEL,1,1,2,2,3,4,4,5,5,5,6,6,6,7,7,7,8,8,8,8,8,9,9,10,10,10
participant_1_MINIONSKILLED,0,0,0,0,0,0,2,2,2,2,2,2,2,3,3,3,3,3,3,5,5,12,12,12,13,13
participant_1_KILLS,0,0,0,0,0,1,1,1,1,1,1,1,1,1,1,1,1,1,1,1,1,1,1,1,1,1
participant_1_BUY,[],"[1039, 2031, 3340]",[],[],[],[],[],[],[],[],"[1001, 1053, 1043]",[],[],[],[1037],[],"[3153, 1036]",[],[],[],[1053],[],[],[],[3134],[]
participant_1_SOLD,[],[],[],[],[],[],[],[],[],[],[],[],[],[],[],[1039],"[1053, 1043, 1037]",[],[],[],[1036],[],[],[],[],[]
participant_1_UNDO,[],[],[],[],[],[],[],[],[],[],[],[],[],[],[],[],[],[],[],[],[],[],[],[],[],[]
participant_2_GOLD,500,500,612,846,1197,1494,1774,2064,2388,2688,2859,3197,3425,3673,3964,4389,4643,5131,5253,5625,5921,6245,6398,6541,6813,7016
participant_2_CURRENTGOLD,500,0,112,346,687,974,1244,1534,343,633,504,832,1050,323,614,1039,1293,581,268,640,366,689,842,986,1257,-79
participant_2_LEVEL,1,1,1,3,4,5,6,7,7,8,8,8,9,9,10,10,11,11,11,12,12,12,12,12,13,13
participant_2_MINIONSKILLED,0,0,5,11,22,29,35,45,54,61,64,73,76,84,94,107,110,118,118,124,130,132,134,135,136,139
participant_2_KILLS,0,0,0,0,0,0,0,0,0,0,0,0,0,0,0,0,0,0,0,0,0,0,0,0,0,0
participant_2_BUY,[],"[1056, 2003, 2003, 3340]",[],[],[],[],[],[],"[3802, 2031, 2055]",[],"[1052, 1001]",[],[],"[3108, 2055]",[],[],[],[6653],[1052],[],"[3020, 2055, 3364]",[],[],[],[],"[1026, 1052]"
participant_2_SOLD,[],[],[],[],[],[],[2003],[],[2003],[2055],[],[],[],[],[2055],[],[],"[3802, 3108]",[],[],"[1052, 1001, 3340]",[2055],[],[],[],[]
participant_2_UNDO,[],[],[],[],[],[],[],[],[],[],"[[0, 1052]]",[],[],[],[],[],[],[],[],[],[],[],[],[],[],[]
participant_3_GOLD,500,500,563,755,997,1154,1277,1563,1825,2004,2217,2354,2539,2696,2819,2990,3127,3500,3622,4518,4640,5139,5333,5480,5703,5788
participant_3_CURRENTGOLD,500,0,63,255,497,654,127,413,675,104,317,454,339,496,619,790,927,1300,547,1443,340,839,1033,280,503,588
participant_3_LEVEL,1,1,1,2,3,4,4,4,5,5,6,6,6,7,7,7,7,8,8,9,9,10,10,10,10,10
participant_3_MINIONSKILLED,0,0,2,6,13,15,15,22,30,33,38,39,43,45,45,48,49,60,60,69,69,84,88,88,88,88
participant_3_KILLS,0,0,0,0,0,0,0,0,0,0,0,0,0,0,0,0,0,0,0,0,0,0,0,0,0,0
participant_3_BUY,[],"[3862, 2003, 2003, 3340]",[],[],[],[],"[1036, 1036]",[],[],"[3134, 2055]",[],[],"[1036, 1036]",[],[3133],[],[],[],[],[6691],[],[],[3009],[],"[3364, 1036]",[]
participant_3_SOLD,[],[],[],[],[],[2010],[],[],[],"[1036, 1036]",[2055],[2003],[3862],"[2003, 2010, 2010]","[1036, 1036]",[],[],[],[],"[3134, 3133]",[],[3863],[2422],[],[3340],[]
participant_3_UNDO,[],[],[],[],[],[],[],[],[],[],[],[],[],[],[],[],[],[],[],[],[],[],[],[],[],[]
participant_4_GOLD,500,500,523,709,927,1201,1377,1540,1726,1884,2083,2291,2430,2684,2905,3085,3395,3538,3799,4057,4257,4453,4599,4739,4880,4978
participant_4_CURRENTGOLD,500,0,23,209,427,701,177,340,526,209,408,616,55,309,130,311,620,763,1024,282,482,678,224,365,155,253
participant_4_LEVEL,1,1,1,2,3,3,4,4,5,5,6,6,6,6,6,7,8,8,8,8,8,9,9,9,9,9
participant_4_MINIONSKILLED,0,0,0,0,1,1,2,2,2,2,5,6,6,10,11,13,15,15,15,15,15,18,18,18,18,18
participant_4_KILLS,0,0,0,0,0,0,0,0,1,1,1,1,1,1,1,1,2,3,3,3,3,4,4,5,5,5
participant_4_BUY,[],"[1055, 2003, 1054, 2003, 3340]",[],[],[],[],"[3077, 2031]",[],[],[3133],[],[1053],[],[],[],"[3074, 3044]",[],[3067],[],[1036],[],[],[],[6632],[],[1036]
participant_4_SOLD,[],[],[],[],[],[],[2003],[],[],[],[],[],[],[],[],"[3077, 1053, 3133]",[],[],[],[],[],[],[],"[3044, 3067]",[],[]
participant_4_UNDO,[],"[[0, 2003], [0, 1055]]",[],[],[],[],[],[],[],[],[],[],[],[],[],[],[],[],[],[],[],[],[],[],[],[]
participant_5_GOLD,500,500,563,839,1106,1256,1512,1669,1847,2082,2311,2852,3364,3612,3992,4114,4329,4451,4836,4959,5631,5768,6022,6244,6367,6524
participant_5_CURRENTGOLD,500,0,63,339,606,306,562,719,462,697,926,1467,214,462,842,64,279,101,486,108,781,918,322,244,367,524
participant_5_LEVEL,1,1,1,3,4,4,5,6,6,7,7,8,9,9,10,10,10,10,10,10,10,11,11,11,11,11
participant_5_MINIONSKILLED,0,0,2,11,17,19,27,29,33,40,43,49,53,61,69,69,72,72,75,75,76,77,81,81,81,82
participant_5_KILLS,0,0,0,0,0,0,0,0,0,0,0,1,1,1,1,1,1,1,1,1,2,2,2,2,2,2
participant_5_BUY,[],"[1054, 2003]",[],[],[],"[1028, 2003]",[],[],[1052],[],[],[],"[3145, 1026, 1001]",[],[],[4636],[],[1029],[],[3047],[],[],[1026],[1042],[],[]
participant_5_SOLD,[],[],[],[],[],[2003],[],[2003],[],[],[],[],[1052],[],[],"[3145, 1028, 1026]",[],[],[],"[1001, 1029]",[],[],[],[],[],[]
participant_5_UNDO,[],[],[],[],[],[],[],[],[],[],[],[],[],[],[],[],[],[],[],[],[],[],[],[],[],[]
participant_6_GOLD,500,500,606,1018,1303,1624,1937,2194,2492,2800,3027,3547,3735,4207,4564,4686,4947,5404,6085,6208,6777,6913,7136,7473,7694,8034
participant_6_CURRENTGOLD,500,0,106,518,803,1124,1437,1694,1992,2300,227,747,935,1407,464,286,47,504,1185,108,677,113,336,673,894,1234
participant_6_LEVEL,1,1,2,3,4,4,5,5,6,6,7,8,8,9,9,9,9,10,10,10,11,11,11,11,11,12
participant_6_MINIONSKILLED,0,0,0,0,0,1,1,1,1,1,1,3,3,9,12,12,12,13,13,13,14,15,15,16,17,17
participant_6_KILLS,0,0,0,0,0,0,0,0,0,1,1,1,1,1,1,1,1,1,1,1,1,1,1,1,1,2
participant_6_BUY,[],"[2033, 3340]",[],[],[],[],[],[3802],[],[],[],[],[],"[1026, 1001, 2055, 2055]",[],[],[],[6655],"[2055, 2055]",[],[],"[1082, 3020]",[],[],[],[]
participant_6_SOLD,[],[],[],[],[],[],[],[],[],[],[],[],[],[],[2055],[2055],[],"[3802, 1026]",[],[],[],"[2055, 1001]",[2055],[],[],[]
participant_6_UNDO,[],[],[],[],[],[],[],[],[],[],[],[],[],[],[],[],[],[],[],[],[],[],[],[],[],[]
participant_7_GOLD,500,500,605,846,1067,1413,1728,1906,2175,2747,3044,3258,3522,3693,4029,4256,4534,4684,4959,5145,5589,5735,6018,6333,6655,6967
participant_7_CURRENTGOLD,500,0,105,346,567,903,1208,86,355,917,1214,1428,1692,563,899,1126,1404,304,429,615,1059,55,338,653,975,1317
participant_7_LEVEL,1,1,1,3,4,5,6,6,7,8,9,9,10,10,10,11,11,11,12,12,12,12,13,13,13,13
participant_7_MINIONSKILLED,0,0,5,12,17,27,35,39,48,54,64,70,73,76,85,92,97,99,104,108,112,114,120,124,130,131
participant_7_KILLS,0,0,0,0,0,0,0,0,0,0,0,0,1,1,1,1,1,1,1,1,1,1,1,1,1,1
participant_7_BUY,[],"[3854, 2003, 2003, 3340]",[],[],[],[],"[3067, 3117]",[],[],[],"[3067, 1029]",[],[],"[1033, 3105]","[3190, 3067]",[],[],"[1027, 1029]",[],[],[],"[3050, 1006]",[],[],[],[]
participant_7_SOLD,[],[],[],[],[],"[2003, 2003]",[],[],[],[2010],[],[3854],[2010],"[1033, 1029]","[3067, 3105]",[],[2010],[],[],[3855],[],"[3067, 1027, 1029]",[],[],[],[]
participant_7_UNDO,[],[],[],[],[],[],"[[0, 3067]]",[],[],[],[],[],[],[],[],[],[],[],[],[],[],[],[],[],[],[]
participant_8_GOLD,500,500,521,797,1134,1396,2250,2984,3323,4289,4575,5313,6252,6741,7845,8219,9191,9568,9785,10105,11149,11425,11973,12565,12793,13390
participant_8_CURRENTGOLD,500,0,21,297,634,896,75,809,1148,2114,300,1038,1177,491,150,524,1496,1873,490,811,1855,30,578,1171,778,1165
participant_8_LEVEL,1,1,1,2,3,3,4,5,5,6,7,7,8,8,9,9,10,10,10,11,11,11,12,12,12,12
participant_8_MINIONSKILLED,0,0,0,9,19,27,32,48,57,72,77,87,100,105,118,129,139,141,141,148,157,161,176,184,184,190
participant_8_KILLS,0,0,0,0,0,0,2,3,3,5,5,6,7,8,11,11,13,13,13,13,15,15,15,15,15,16
participant_8_BUY,[],"[1054, 2003, 3340]",[],[],[],[],"[6670, 1001, 2055]",[],[],[],[6672],[],[3006],"[3134, 2055]","[1037, 1018]",[],[],[],"[6676, 3133, 2055]",[],[],"[3508, 1042]",[],[],[3123],[]
participant_8_SOLD,[],[],[],[],[],[2003],[],[],[2055],[],[6670],[],[1001],[],[2055],[],[],[],"[3134, 1037, 1018]",[2055],[],[3133],[],[],[1054],[]
participant_8_UNDO,[],[],[],[],[],[],[],[],[],[],[],[],[],[],[],[],[],[],[],[],[],[],[],[],[],[]
participant_9_GOLD,500,500,565,741,950,1105,1582,1895,2134,2601,2815,3138,3759,3979,5150,5312,5724,5864,6186,6371,6848,6988,7129,7579,7720,7956
participant_9_CURRENTGOLD,500,0,65,241,450,605,82,395,634,1101,215,538,1159,179,150,312,724,214,536,721,1198,239,379,829,970,1206
participant_9_LEVEL,1,1,1,2,3,4,4,5,6,7,7,7,8,8,9,9,9,9,10,10,10,10,11,11,11,11
participant_9_MINIONSKILLED,0,0,2,4,6,7,9,11,14,16,16,17,21,21,25,26,26,26,29,31,31,31,31,33,33,33
participant_9_KILLS,0,0,0,0,0,0,0,0,0,0,0,0,0,0,0,0,0,0,2,2,2,2,2,2,2,3
participant_9_BUY,[],"[1039, 3340, 2031]",[],[],[],[],[],[],[],[],"[6029, 3044]",[],[],[],"[6630, 1001]",[1029],[3047],[],[],[3077],[],"[1036, 1036]",[],[],[],[]
participant_9_SOLD,[],[],[],[],[],[],[],[],[1039],[],[],[],[],[],"[6029, 3044]",[],"[1001, 1029]",[],[],[],[],[],[],[],[],[]
participant_9_UNDO,[],[],[],[],[],[],[],[],[],[],[],[],[],[],[],[],[],[],[],[],[],[],[],[],[],[]
team0_KILLS,0,0,0,0,0,1,1,1,2,2,2,2,2,2,2,2,3,4,4,5,5,6,6,7,7,7
team0_CURRENTGOLD,2500,0,403,1644,2999,4932,3206,4592,4614,3507,2229,2443,2358,2700,2633,2823,3426,3091,2531,3136,1654,3581,4049,3119,2766,1414
team0_TOTALGOLD,2500,2500,2903,4144,5509,7452,8416,9802,11339,12567,13789,14913,15838,17155,18363,19752,21131,22796,23546,25501,26364,28292,29360,30728,31827,32384
team0_LEVEL,5,5,6,12,17,21,23,26,29,31,35,35,36,39,40,41,45,46,46,48,48,52,52,53,55,55
team0_SBIRES,0,0,10,29,55,79,91,124,149,171,193,208,221,247,267,293,303,322,322,342,348,378,393,403,412,415
team1_KILLS,0,0,0,0,0,0,2,3,3,6,6,8,10,11,14,14,16,16,18,18,21,21,21,21,21,24
team1_CURRENTGOLD,2500,0,360,1741,3060,3834,3364,3703,4591,7129,2882,5218,5177,3102,2505,2312,3950,2996,3126,2363,5570,1355,1953,3570,3984,5446
team1_TOTALGOLD,2500,2500,2860,4241,5560,6794,9009,10648,11971,14519,15772,18108,20632,22232,25580,26587,28725,29971,31851,32788,35994,36829,38278,40194,41229,42871
team1_LEVEL,5,5,6,13,18,20,24,27,30,34,37,39,43,44,47,48,49,50,52,53,54,55,58,58,58,59
team1_SBIRES,0,0,9,36,59,81,104,128,153,183,201,226,250,272,309,328,346,351,362,375,390,398,423,438,445,453
delta_KILLS,0,0,0,0,0,1,-1,-2,-1,-4,-4,-6,-8,-9,-12,-12,-13,-12,-14,-13,-16,-15,-15,-14,-14,-17
delta_CURRENTGOLD,0,0,43,-97,-61,1098,-158,889,23,-3622,-653,-2775,-2819,-402,128,511,-524,95,-595,773,-3916,2226,2096,-451,-1218,-4032
delta_TOTALGOLD,0,0,43,-97,-51,658,-593,-846,-632,-1952,-1983,-3195,-4794,-5077,-7217,-6835,-7594,-7175,-8305,-7287,-9630,-8537,-8918,-9466,-9402,-10487
delta_LEVEL,0,0,0,-1,-1,1,-1,-1,-1,-3,-2,-4,-7,-5,-7,-7,-4,-4,-6,-5,-6,-3,-6,-5,-3,-4
delta_SBIRES,0,0,1,-7,-4,-2,-13,-4,-4,-12,-8,-18,-29,-25,-42,-35,-43,-29,-40,-33,-42,-20,-30,-35,-33,-38
