name,frame_0,frame_1,frame_2,frame_3,frame_4,frame_5,frame_6,frame_7,frame_8,frame_9,frame_10,frame_11,frame_12,frame_13,frame_14,frame_15,frame_16,frame_17,frame_18,frame_19,frame_20,frame_21,frame_22,frame_23
nameStamp,Tstart,Tearly,Tearly,Tearly,Tearly,Tearly,Tearly,Tearly,Tearly,Tearly,Tearly,Tearly,Tearly,Tmid,Tmid,Tmid,Tmid,Tmid,Tmid,Tmid,Tmid,Tmid,Tmid,Tmid
timestamp,0,60018,120038,180049,240074,300090,360110,420124,480135,540151,600162,660181,720193,780218,840231,900245,960253,1020271,1080290,1140307,1200320,1260338,1320353,1380353
participant_0_GOLD,500,500,584,1192,1315,1542,1952,2477,3196,3695,4473,4595,4747,5320,5442,5565,5687,5809,5932,6054,6177,6299,6421,6526
participant_0_CURRENTGOLD,500,0,84,692,115,342,752,77,796,495,1273,295,447,1020,1142,1265,1387,1509,1632,1754,1877,1999,2121,2226
participant_0_LEVEL,1,1,1,3,3,4,5,6,7,8,9,9,9,9,9,9,9,9,9,9,9,9,9,9
participant_0_MINIONSKILLED,0,0,3,11,11,16,30,35,40,44,54,54,55,55,55,55,55,55,55,55,55,55,55,55
participant_0_KILLS,0,0,0,0,0,1,1,1,1,1,2,2,3,3,3,3,4,4,4,4,4,4,4,4
participant_0_BUY,[],"[1039, 2031, 3340]",[3364],[],"[1052, 2055]",[],"[3145, 1001]",[],[],[],[],"[1028, 1026, 2055]",[],[],[3152],[],[1052],"[3113, 3020]",[],[],[1052],[],[3113],[]
participant_0_SOLD,[],[],[3340],[],[],[2055],[1052],[],[1039],[],[],[],[],[],"[3145, 1028, 1026]",[],[],"[1052, 1052, 1001]",[],[],[],[],[1052],[]
participant_0_UNDO,[],[],[],[],[],[],[],[],[],[],[],[],[],[],[],[],[],"[[0, 3113]]",[],[],[],[],[],[]
participant_1_GOLD,500,500,621,963,1086,1604,1954,2211,2343,2749,3339,3462,3990,4266,4452,4574,4997,5119,5255,5510,5657,5780,6041,6196
participant_1_CURRENTGOLD,500,0,121,463,76,594,29,286,418,824,1414,212,740,1016,302,424,412,38,175,429,142,264,110,-39
participant_1_LEVEL,1,1,2,3,3,3,4,4,4,5,6,6,7,8,8,8,9,9,9,9,10,10,10,11
participant_1_MINIONSKILLED,0,0,0,0,0,1,1,1,2,2,7,7,8,11,14,14,14,14,15,19,23,23,24,24
participant_1_KILLS,0,0,0,0,0,0,1,1,1,1,1,1,1,2,2,2,2,2,3,3,3,3,4,4
participant_1_BUY,[],"[1056, 2003, 2003, 3340]",[],[2031],[],[],"[1026, 1028, 1052]",[],[],[],[4635],[],[],"[1026, 1001]",[1029],[],[3047],[],"[4633, 1052]",[],[],[1028],[1011],[]
participant_1_SOLD,[],"[2003, 2003]",[],[],[],[],[],[],[],[],"[1028, 1052]",[],[],[],[],[],"[1001, 1029]",[],"[4635, 1026]",[],[],[],[1028],[]
participant_1_UNDO,[],[],[],[],[],[],"[[0, 1026]]",[],[],[],[],[],[],[],[],[],[],[],[],[],[],[],[],[]
participant_2_GOLD,500,500,591,734,857,1168,1633,1888,2289,2517,2639,2886,3275,3697,3862,4166,4389,4752,5474,5625,5887,6100,6872,7166
participant_2_CURRENTGOLD,500,0,91,84,207,508,138,393,794,1022,679,916,1295,567,432,736,459,822,59,210,472,285,557,881
participant_2_LEVEL,1,1,1,2,2,4,4,5,6,7,7,7,8,8,8,9,9,10,10,10,11,11,11,12
participant_2_MINIONSKILLED,0,0,4,5,5,14,16,25,32,38,38,42,54,54,57,64,64,75,80,82,90,91,91,95
participant_2_KILLS,0,0,0,0,0,0,0,0,0,0,1,1,2,2,2,2,2,2,2,2,2,2,2,2
participant_2_BUY,[],"[3854, 2003, 2003, 3340]",[],[],[],[],[3067],[],[1029],[],[],"[1033, 1001]",[],[3105],[],"[3190, 1029]",[3047],[],[],[1028],[1029],[],[],[]
participant_2_SOLD,[],[],[],[],[2003],[2003],[],[],[],[],[],[],[2010],"[2010, 1033, 1029]",[],"[3854, 3067, 3105]","[1001, 1029]",[],[2010],[],[],[],[],[]
participant_2_UNDO,[],[],[],[],[],[],[],[],[],[],[],[],[],[],[],[],[],[],[],[],[],[],[],[]
participant_3_GOLD,500,500,521,787,1081,1668,1865,2134,2256,2453,2746,2985,3332,3527,4089,4233,4453,4619,4741,4864,4986,5109,5914,7818
participant_3_CURRENTGOLD,500,0,21,287,581,1168,240,509,31,228,171,410,757,227,789,933,553,719,241,64,186,309,1114,3018
participant_3_LEVEL,1,1,1,2,3,4,4,5,5,5,5,6,7,7,7,7,8,8,8,8,8,9,9,10
participant_3_MINIONSKILLED,0,0,0,7,14,22,26,34,34,38,39,46,46,49,57,58,64,66,66,66,66,66,70,73
participant_3_KILLS,0,0,0,0,0,1,1,1,1,1,1,1,1,1,1,1,1,1,1,1,1,1,2,4
participant_3_BUY,[],"[1083, 2003, 3340]",[],[],[],[],"[2031, 1053, 2055]",[],"[1036, 1042, 1001]",[],[1036],[],[],"[6670, 2055]",[],[],[1018],[],[6673],[1042],[],[],[],[]
participant_3_SOLD,[],[],[],[],[],[2003],[],[],[2055],[],[],[],[],"[1036, 1042, 2055]",[],[],[],[],"[6670, 1018, 1053]",[],[],[],[],[]
participant_3_UNDO,[],[],[],[],[],[],[],[],"[[0, 1036]]",[],[],[],[],[],[],[],[],[],[],[],[],[],[],[]
participant_4_GOLD,500,500,523,713,862,1298,1433,1588,1722,1857,2550,2734,3278,3433,3952,4092,4352,4492,4824,4965,5126,5266,5532,5702
participant_4_CURRENTGOLD,500,0,23,213,362,798,133,288,122,257,950,384,928,333,852,292,51,192,524,265,126,266,532,702
participant_4_LEVEL,1,1,1,2,3,4,4,5,5,5,6,6,7,7,8,8,8,8,8,9,9,9,10,10
participant_4_MINIONSKILLED,0,0,0,3,4,8,8,9,9,9,16,19,21,22,27,27,30,30,32,32,33,33,33,33
participant_4_KILLS,0,0,0,1,1,1,1,2,3,4,4,4,4,5,5,5,5,5,5,5,5,5,5,5
participant_4_BUY,[],"[1055, 2003, 3340]",[],[],[3057],[],[],[3077],[],[3067],[],[3044],[],[],[],[],[],[],[],[],[],[],[],[]
participant_4_SOLD,[],[],[],[2003],[],[],[],[],[],[],[],[],[],[],[],[],[],[],[],[],[],[],[],[]
participant_4_UNDO,[],[],[],[],[],[],[],[],[],[],[],[],[],[],[],[],[],[],[],[],[],[],[],[]
participant_5_GOLD,500,500,542,734,1162,1312,1463,1913,2495,2869,2991,3852,4817,5153,5438,6111,6567,6739,7552,7769,8762,9147,9893,10098
participant_5_CURRENTGOLD,500,0,42,234,662,812,128,68,650,1024,65,926,1891,2227,277,950,1406,563,1376,903,996,1381,2127,1253
participant_5_LEVEL,1,1,1,2,4,5,5,6,7,7,7,8,9,9,9,10,10,10,11,11,11,12,12,12
participant_5_MINIONSKILLED,0,0,1,5,20,22,24,31,39,44,44,53,60,61,64,64,65,65,65,65,71,79,79,79
participant_5_KILLS,0,0,0,0,1,1,1,1,1,1,1,2,3,3,4,4,4,4,4,4,4,4,4,4
participant_5_BUY,[],"[3854, 2003, 2003, 3340]",[],[],[],"[1036, 1036, 2031]",[],[],"[3134, 1036, 2055]",[],"[1001, 2055]",[],[1053],[3364],[],[],"[6692, 3111, 2055, 2055]",[],[],[],[3155],[],[1036],[]
participant_5_SOLD,[],[],[],[],[2003],[2003],[],[],"[1036, 1036]",[2055],[],[3854],[1036],"[3340, 2055]",[],[],"[3134, 1053, 1001]",[],[],[],[2055],[],"[2031, 3855]",[]
participant_5_UNDO,[],[],[],[],[],[],[],[],[],[],[],[],[],[],[],[],[],[],[],[],[],[],[],[]
participant_6_GOLD,500,500,621,928,1546,1668,2273,2715,3087,3395,3707,4135,5209,5573,5781,6283,7131,7558,7806,8098,8638,9452,10120,10776
participant_6_CURRENTGOLD,500,0,121,428,1046,68,673,1115,187,495,807,1235,2309,2673,256,758,1606,2033,72,365,905,1719,2387,3043
participant_6_LEVEL,1,1,2,2,3,3,4,5,5,6,6,7,8,8,8,9,10,10,10,10,11,12,12,13
participant_6_MINIONSKILLED,0,0,0,0,1,1,1,1,1,1,1,1,4,6,6,6,6,6,6,6,6,10,13,13
participant_6_KILLS,0,0,0,0,0,0,0,0,0,0,1,1,1,1,1,1,1,2,2,2,2,3,3,3
participant_6_BUY,[],"[3070, 2003, 2003]",[],[],[],"[1042, 1042]",[],[],"[6670, 1001]",[],[1018],[],[],[1037],[],[],"[6672, 3006, 2055]",[],[],[],[3004],[],"[1018, 1042]",[]
participant_6_SOLD,[],[],[],[],[],"[2003, 2003]",[],[],[1042],[],[],[],[],[],[],[],"[6670, 1018, 1037, 1001, 1042]",[],[],[],[3070],[],[],[]
participant_6_UNDO,[],[],[],[],[],[],[],[],[],[],[],[],[],[],[],[],[],[],[],[],[],[],[],[]
participant_7_GOLD,500,500,563,1263,1540,1718,2299,2540,3644,3920,4670,5191,5538,5844,6449,7372,7705,8580,8955,9614,10844,11151,12767,13377
participant_7_CURRENTGOLD,500,0,63,753,330,508,89,330,284,560,1310,1821,2168,174,769,1692,2025,2900,475,1134,1064,1372,2988,1527
participant_7_LEVEL,1,1,1,3,4,5,5,6,6,7,8,9,9,10,10,11,11,12,12,12,13,13,14,14
participant_7_MINIONSKILLED,0,0,2,9,18,21,24,31,32,41,49,59,69,77,84,84,97,111,114,122,128,128,135,138
participant_7_KILLS,0,0,0,0,1,1,2,3,3,3,3,3,4,4,4,4,6,6,6,6,6,7,8,9
participant_7_BUY,[],"[1035, 2031, 3340]",[],[],[],[3133],[],[],"[3067, 1036, 2055, 2055]",[],[],[],[],[],"[3071, 3067, 3057, 2055]",[],[],[],"[3078, 1001, 2055]",[],[],[],[],[]
participant_7_SOLD,[],[],[],[],[],[],[],[],[],[],[2055],[],"[3340, 1035, 3513]",[],"[3133, 3067, 1036]",[],[],"[2055, 2055]","[3057, 3067]",[],"[3340, 3513]",[],[],[]
participant_7_UNDO,[],[],[],[],[],[],[],[],[],[],[],[],[],[],[],[],[],[],[],[],[],[],[],[]
participant_8_GOLD,500,500,598,892,1183,1368,1704,2055,2458,2800,3326,3859,4292,4611,4903,5162,5284,6169,6694,7166,7450,8273,8496,8810
participant_8_CURRENTGOLD,500,0,98,392,683,268,604,955,58,400,326,859,1292,736,1028,1287,209,1094,1619,2091,175,998,321,635
participant_8_LEVEL,1,1,1,2,3,3,4,5,5,6,6,7,7,8,8,8,8,9,10,10,10,11,11,11
participant_8_MINIONSKILLED,0,0,4,11,21,22,32,39,45,55,60,71,76,85,88,88,88,101,113,119,119,136,136,137
participant_8_KILLS,0,0,0,1,1,1,2,2,5,5,6,6,6,6,6,7,7,8,8,9,11,11,14,15
participant_8_BUY,[],"[1055, 2003, 3340]",[],[],"[1036, 1036]",[],"[6670, 1036, 2003]",[],"[1053, 1018]",[],[],[],[],"[6673, 3006, 1018]",[],[],[],[],[6675],[],[1038],[],[],[3031]
participant_8_SOLD,[],[],[],[],[],[],"[1036, 1036]",[],[1036],[],[],[],[],"[6670, 1018, 1053]",[],[],[],[],[1018],[],[],[],[],[1038]
participant_8_UNDO,[],[],[],[],[],[],[],[],[],[],[],[],[],[],[],[],[],[],[],[],[],[],[],[]
participant_9_GOLD,500,500,544,759,1202,1400,1621,1877,2202,2452,2799,3287,3797,4029,4610,5188,5370,5954,6594,6769,7129,7283,7523,7765
participant_9_CURRENTGOLD,500,0,44,259,702,50,271,527,27,277,249,737,697,929,1510,2088,120,704,1344,1519,579,733,684,865
participant_9_LEVEL,1,1,1,2,3,3,4,4,5,5,6,6,6,7,7,8,8,8,9,9,10,10,10,10
participant_9_MINIONSKILLED,0,0,1,3,4,5,7,9,9,12,14,16,16,18,18,21,24,26,28,30,30,31,31,32
participant_9_KILLS,0,0,0,0,0,0,0,0,1,1,1,2,2,2,2,3,3,3,5,5,7,7,7,7
participant_9_BUY,[],"[1056, 2003, 2003, 3340]",[],[],[],[],"[1052, 1028]","[1052, 2055]",[],[],"[3076, 1011, 1001]",[],[],[],"[3047, 3075, 1052]",[],[],"[3145, 1028]",[],[1026],[4636],[],[],[]
participant_9_SOLD,[],[],[],"[2003, 2003]",[],[],[],[],[],[],"[1052, 2055, 1052, 1028]",[],[],[],"[1001, 3076, 1011]",[],[],[1052],[],[1056],"[3145, 1028, 1026]",[],[],[]
participant_9_UNDO,[],[],[],[],[],[],[],[],[],[],[],[],[],[],[],[],[],[],[],[],[],[],[],[]
team0_KILLS,0,0,0,1,1,3,4,5,6,7,9,9,11,13,13,13,14,14,15,15,15,15,17,19
team0_CURRENTGOLD,2500,0,340,1739,1341,3410,1292,1553,2161,2826,4487,2217,4167,3163,3517,3650,2862,3280,2631,2722,2803,3123,4434,6788
team0_TOTALGOLD,2500,2500,2840,4389,5201,7280,8837,10298,11806,13271,15747,16662,18622,20243,21797,22630,23878,24791,26226,27018,27833,28554,30780,33408
team0_LEVEL,5,5,6,12,14,19,21,25,27,30,33,34,38,39,40,41,43,44,44,45,47,48,49,52
team0_SBIRES,0,0,7,26,34,61,81,104,117,131,154,168,184,191,210,218,227,240,248,254,267,268,273,280
team1_KILLS,0,0,0,1,3,3,5,6,10,10,12,14,16,16,17,19,21,23,25,26,30,32,36,38
team1_CURRENTGOLD,2500,0,368,2066,3423,1706,1765,2995,1206,2756,2757,5578,8357,6739,3840,6775,5366,7294,4886,6012,3719,6203,8507,7323
team1_TOTALGOLD,2500,2500,2868,4576,6633,7466,9360,11100,13886,15436,17493,20324,23653,25210,27181,30116,32057,35000,37601,39416,42823,45306,48799,50826
team1_LEVEL,5,5,6,11,17,19,22,26,28,31,33,37,39,42,42,46,47,49,52,52,55,58,59,60
team1_SBIRES,0,0,8,28,64,71,88,111,126,153,168,200,225,247,260,263,280,309,326,342,354,384,394,399
delta_KILLS,0,0,0,0,-2,0,-1,-1,-4,-3,-3,-5,-5,-3,-4,-6,-7,-9,-10,-11,-15,-17,-19,-19
delta_CURRENTGOLD,0,0,-28,-327,-2082,1704,-473,-1442,955,70,1730,-3361,-4190,-3576,-323,-3125,-2504,-4014,-2255,-3290,-916,-3080,-4073,-535
delta_TOTALGOLD,0,0,-28,-187,-1432,-186,-523,-802,-2080,-2165,-1746,-3662,-5031,-4967,-5384,-7486,-8179,-10209,-11375,-12398,-14990,-16752,-18019,-17418
delta_LEVEL,0,0,0,1,-3,0,-1,-1,-1,-1,0,-3,-1,-3,-2,-5,-4,-5,-8,-7,-8,-10,-10,-8
delta_SBIRES,0,0,-1,-2,-30,-10,-7,-7,-9,-22,-14,-32,-41,-56,-50,-45,-53,-69,-78,-88,-87,-116,-121,-119
