name,frame_0,frame_1,frame_2,frame_3,frame_4,frame_5,frame_6,frame_7,frame_8,frame_9,frame_10,frame_11,frame_12,frame_13,frame_14,frame_15,frame_16,frame_17,frame_18,frame_19,frame_20,frame_21,frame_22,frame_23,frame_24,frame_25,frame_26,frame_27,frame_28,frame_29,frame_30,frame_31,frame_32,frame_33,frame_34,frame_35,frame_36,frame_37
nameStamp,Tstart,Tearly,Tearly,Tearly,Tearly,Tearly,Tearly,Tearly,Tearly,Tearly,Tearly,Tearly,Tearly,Tearly,Tearly,Tearly,Tearly,Tearly,Tearly,Tearly,Tmid,Tmid,Tmid,Tmid,Tmid,Tmid,Tend,Tend,Tend,Tend,Tend,Tend,Tend,Tend,Tend,Tend,Tend,Tend
timestamp,0,60025,120051,180058,240063,300067,360068,420080,480081,540114,600117,660124,720139,780172,840181,900200,960220,1020236,1080260,1140285,1200304,1260339,1320364,1380386,1440402,1500420,1560427,1620441,1680459,1740478,1800508,1860521,1920537,1980563,2040566,2100567,2160586,2220586
participant_0_GOLD,500,500,581,788,1040,1345,1990,2175,2375,2609,2774,3132,3436,4130,4325,4616,4850,5219,5551,5931,6054,7140,7395,7623,7745,8433,8904,9076,9504,9942,10488,10711,11134,11384,11897,12369,12492,13008
participant_0_CURRENTGOLD,500,0,81,288,105,410,1055,225,425,659,124,482,786,1480,190,481,715,234,566,946,404,1490,1745,423,110,798,1269,1441,1869,2307,289,511,935,335,847,1320,1442,1958
participant_0_LEVEL,1,1,1,2,3,4,5,6,7,7,7,8,9,9,10,10,10,11,11,12,12,13,13,13,13,14,14,15,15,15,16,16,16,16,17,17,17,18
participant_0_MINIONSKILLED,0,0,0,5,10,18,30,34,39,45,47,57,68,73,78,87,93,99,107,118,118,128,136,142,142,149,155,155,160,161,163,163,163,165,165,165,165,173
participant_0_KILLS,0,0,1,1,1,2,2,2,2,2,2,2,4,4,4,4,6,6,8,8,9,9,9,9,9,9,9,9,9,9,9,9,10,10,10,10,10,10
participant_0_BUY,[],"[1036, 2003, 2003, 2031, 3340]",[1001],[],[],[],[3144],[],[],[],[3145],[2055],[3146],[3020],[2055],[],"[1026, 1052]",[],[],[3916],[],[3165],[1029],[],[],[],[],[],"[3191, 2420]",[],[],[3157],[],[],"[1033, 1026]",[],[],[]
participant_0_SOLD,[],[],[],[],[],[],[1036],[],[],[],[],[2055],"[3144, 3145]",[1001],[],[2055],[],[],[],[1052],[],"[3916, 1026]",[],[],[],[],[],[],[1029],[],[2031],"[3191, 2420]",[],[],[],[],[],[]
participant_0_UNDO,[],"[[0, 2003], [0, 2003]]",[],[],[],[],[],[],[],[],[],[],[],[],[],[],[],[],[],[],[],[],[],[],[],[],[],[],[],[],[],[],[],[],[],[],[],[]
participant_1_GOLD,500,500,521,939,1276,1575,1848,2140,2362,2540,3259,3414,4156,4278,5253,5375,5833,6265,6812,7396,8424,8834,9870,10177,10599,11212,11735,12150,13160,13716,14365,14914,15458,16125,16934,17613,17955,18764
participant_1_CURRENTGOLD,500,0,21,439,776,1075,1348,15,237,415,1134,89,831,43,1018,75,533,965,1512,2096,3124,284,1320,1627,160,772,1295,1711,2721,627,1275,1825,2369,3035,1445,2124,2466,3214
participant_1_LEVEL,1,1,1,3,3,4,4,5,5,5,7,7,8,8,9,9,10,11,11,12,13,13,14,14,14,15,15,15,16,16,17,17,17,18,18,18,18,18
participant_1_MINIONSKILLED,0,0,0,0,0,0,0,0,0,1,9,9,10,10,19,19,20,20,21,25,30,35,37,37,37,37,45,48,48,51,51,53,54,57,57,67,67,70
participant_1_KILLS,0,0,0,0,0,0,1,1,1,1,1,1,1,2,2,2,2,2,2,2,2,3,3,3,3,4,4,4,4,4,5,5,5,5,6,6,6,6
participant_1_BUY,[],"[1054, 2003, 3340]",[],[],[1052],[],[],"[3145, 1028]",[],[],"[3067, 1001]",[],[],[],"[3152, 1028, 1052]",[],[],[1026],[],[],[3136],[],[],"[3151, 3111]",[1052],[],[],[],[],[],[3115],[],[],[1026],[],[],[],[]
participant_1_SOLD,[],[],[],[2003],[],[],[],[1052],[],[],[1028],[],[],[],"[3145, 3067]",[],[],[],[],[],"[1028, 1052]",[],[],"[3136, 1026, 1001]",[],[],[],[],[],[],[1052],[],[],[],[],[],[],[]
participant_1_UNDO,[],[],[],[],[],[],[],[],[],[],[],[],[],[],[],[],[],[],[],[],[],[],[],[],[],[],[],[],[],[],[],[],[],[],[],[],[],[]
participant_2_GOLD,500,500,821,1206,1462,1961,2213,2468,2806,3027,3310,3634,4351,4856,5048,5339,6199,6412,7178,7469,7860,8114,8299,8485,8682,9001,9402,9752,9926,10462,10634,10770,11686,12281,12441,12813,13040,13285
participant_2_CURRENTGOLD,500,0,21,406,662,1161,163,418,756,977,210,459,426,131,248,539,114,327,1093,219,610,314,199,385,582,901,1302,1653,377,912,1144,131,1046,1642,502,874,1100,1285
participant_2_LEVEL,1,1,1,3,4,5,5,6,7,7,8,9,9,10,10,10,11,12,12,13,13,13,13,13,13,14,14,14,15,15,15,15,16,16,16,16,17,17
participant_2_MINIONSKILLED,0,0,0,13,20,25,30,38,47,53,63,72,73,84,89,95,99,105,115,124,127,131,135,139,139,143,148,149,150,160,160,161,164,173,173,173,175,175
participant_2_KILLS,0,0,1,1,1,1,1,1,1,1,1,1,1,1,1,2,2,3,3,3,3,3,3,3,3,3,3,3,3,3,3,3,3,3,4,4,4,6
participant_2_BUY,[],"[3850, 2003, 2003, 3340]",[],[],[],"[1052, 1001, 2055]",[],[],[],[],"[3802, 2055]",[2031],[],[],[3020],[],[],[],[1026],[],"[3285, 3364]",[],[],"[1052, 1027]",[],[],[3802],[1052],[],[3145],[],[],[],"[3030, 1026, 1052]",[],[],[3116],[]
participant_2_SOLD,[],[],[],[],"[2010, 2003]",[],"[2055, 2010]",[],[2010],[],"[1052, 3850]",[2003],[],[2055],[1001],[],[],[],[],[3851],"[3802, 1026, 3340]",[],[],[],[],[],"[1052, 1027]",[],[],[1052],[],[],[],"[3802, 3145, 2031]",[],[],"[1026, 1052]",[]
participant_2_UNDO,[],[],[],[],[],[],[],[],[],[],[],[],[],[],[],[],[],[],[],[],[],[],[],[],[],[],[],[],[],[],[],[],[],[],[],[],[],[]
participant_3_GOLD,500,500,861,1219,1432,1681,1978,2254,2517,2823,3246,3577,4114,4299,4553,4932,5174,5420,5543,5840,6169,6525,6777,6963,7460,7912,8219,8392,9830,10421,10697,11215,12188,12587,13067,13440,14029,14720
participant_3_CURRENTGOLD,500,0,361,719,932,256,553,829,1092,1398,46,377,914,299,552,932,1214,235,58,355,384,440,102,288,185,637,944,92,1530,2121,548,1065,2038,338,818,590,1179,1620
participant_3_LEVEL,1,1,1,2,3,3,4,4,5,6,6,6,7,7,8,8,9,9,9,9,10,11,11,11,12,12,12,12,13,14,14,14,15,15,16,16,17,17
participant_3_MINIONSKILLED,0,0,0,11,16,25,35,44,52,60,60,63,72,75,79,87,90,93,93,104,108,113,113,117,117,128,128,128,133,133,136,146,162,162,169,169,188,195
participant_3_KILLS,0,0,1,1,1,1,1,1,1,1,2,2,3,3,3,3,3,3,3,3,3,3,3,3,4,4,4,4,6,6,6,6,6,6,6,6,6,6
participant_3_BUY,[],"[1055, 2003, 3340]",[],[],[],"[1037, 2003]",[],[],[],[],"[1038, 1001, 2003, 2003, 2055]",[],[],[3006],[],[],[],[3031],[1042],[],[1042],[1042],[1018],[],"[3086, 1042]",[],[],"[3085, 1036, 2055]",[],[],"[1038, 1053]",[],[],"[3072, 1018]",[],[3086],[],[]
participant_3_SOLD,[],[],[2003],[],[],[],[2003],[],[],[],[],[2055],[],[1001],[],[],"[2003, 2003]","[1038, 1037]",[],[],[],[],[1042],[],"[1018, 1042]",[],[],"[1042, 3086, 1042]",[2055],[],[1036],[],[],"[1038, 1053]",[],[1018],[],[]
participant_3_UNDO,[],[],[],[],[],[],[],[],[],[],[],[],[],[],[],[],[],[],[],[],[],[],[],[],[],[],[],[],[],[],[],[],[],[],[],[],[],[]
participant_4_GOLD,500,545,898,1107,1287,1421,1703,1911,2104,2305,2441,2626,2949,3187,3491,3911,4051,4657,4873,5043,5183,5438,5903,6044,6334,6638,6828,7091,7422,7662,7890,8144,8886,9362,9925,10497,10917,11991
participant_4_CURRENTGOLD,500,45,398,607,787,111,393,601,794,995,191,226,549,787,291,711,851,1457,823,993,84,338,803,159,449,753,428,256,587,212,441,694,1436,237,800,1372,478,1491
participant_4_LEVEL,1,1,1,2,2,3,4,5,5,5,6,6,7,7,7,8,8,9,9,9,9,10,11,11,11,11,11,12,12,12,13,13,14,14,15,15,16,16
participant_4_MINIONSKILLED,0,0,0,0,0,0,2,3,4,5,5,5,5,8,10,10,10,15,15,16,16,22,25,25,25,26,26,30,32,32,35,38,45,45,46,51,52,56
participant_4_KILLS,0,0,0,0,0,0,0,0,0,0,1,1,2,2,4,4,5,5,5,6,7,7,10,10,11,11,11,11,13,13,14,15,15,15,17,17,17,18
participant_4_BUY,[],"[1039, 2031, 3340]",[],[],[],[],[],"[3751, 3706, 2055]",[],[],[],"[1401, 3158]",[],"[1028, 1052, 2055]",[],"[3136, 1028]",[],[],[],[],[],"[3065, 1026]",[],[],"[3151, 3067, 1028]",[],[],[],[],"[3083, 3076]",[],[],[],[],"[3075, 2138]",[],[],[]
participant_4_SOLD,[],[],[],[],[],[],[],[1039],[2055],[],[],"[3751, 3706, 2422]",[],[],[],"[1028, 1052]",[2055],[],[],[],[],[1028],[],[],"[3136, 1026, 2031]",[],[],[],[],"[1028, 3067]",[],[],[],[],"[3076, 2138]",[],[],[]
participant_4_UNDO,[],[],[],[],[],[],[],[],[],[],[],[],[],[],[],[],[],[],[],[],[],[],[],[],[],[],[],[],[],[],[],[],[],[],[],[],[],[]
participant_5_GOLD,500,525,565,785,1058,1363,1506,1884,2139,2563,2882,3149,3342,4614,5057,5322,5797,6104,6526,7069,7477,8079,8397,8766,9351,9773,9896,10409,11301,11716,11992,12115,12363,12640,13015,13227,13460,13625
participant_5_CURRENTGOLD,500,25,65,285,558,863,171,549,804,1228,1547,1814,2007,1329,1772,2037,2512,2819,3241,818,1227,279,597,966,301,723,846,1359,2252,316,593,75,324,600,976,1188,1420,1425
participant_5_LEVEL,1,1,1,2,4,5,5,6,7,8,8,9,9,9,10,10,11,11,12,13,13,14,14,14,15,15,15,15,16,16,16,16,17,17,17,17,18,18
participant_5_MINIONSKILLED,0,0,1,7,13,23,24,36,43,55,66,71,75,75,81,88,100,105,118,122,134,140,147,158,158,158,158,169,179,185,187,187,190,196,200,201,203,207
participant_5_KILLS,0,0,0,0,0,0,0,0,0,0,0,0,0,2,2,2,2,2,2,3,3,3,3,3,4,4,4,4,4,4,4,4,4,4,4,4,4,4
participant_5_BUY,[],"[1056, 2003, 2003, 3340]",[],[],[],[],"[1052, 1001, 2003, 2003]",[],[],[],[],[],[],"[3101, 1026]",[],[],[],[],[],"[3115, 3136]",[],"[3151, 3020]",[],[],[1058],[],[],[],[],[3089],[],"[1036, 3123]",[],[],[],[],[],[]
participant_5_SOLD,[],[],"[2003, 2003]",[],[],[],[],"[2003, 2003]",[],[],[],[],[],[],[],[],[],[],[],"[3101, 1052]",[],"[3136, 1026, 1001]",[],[],[],[],[],[],[],[1058],[],"[1056, 1036]",[],[],[],[],[],[]
participant_5_UNDO,[],[],[],[],[],[],[],[],[],[],[],[],[],[],[],[],[],[],[],[],[],[],[],[],[],[],[],[],[],[],[],[],[],[],[],[],[],[]
participant_6_GOLD,500,545,605,912,1559,1759,1966,2266,2591,2983,3311,3621,3774,4649,4903,5727,5879,6292,6499,6872,7334,7840,8040,8347,8727,9291,9559,9976,10348,10471,10803,10925,11194,11797,12144,12266,12646,13040
participant_6_CURRENTGOLD,500,45,105,412,1059,84,291,591,916,1308,1636,1946,124,999,303,1127,89,502,709,56,519,1025,25,332,712,1276,1544,1961,2334,456,788,110,380,982,1330,152,531,865
participant_6_LEVEL,1,1,1,2,3,3,4,4,5,6,6,7,7,8,8,9,9,10,10,10,11,11,12,12,12,13,14,14,14,14,15,15,15,15,16,16,16,16
participant_6_MINIONSKILLED,0,0,0,0,0,0,0,3,3,3,3,4,4,6,6,9,9,10,10,10,10,16,16,16,19,19,21,26,35,35,36,36,40,45,45,45,49,58
participant_6_KILLS,0,0,0,0,1,1,1,1,1,1,1,1,1,2,2,3,3,3,3,3,3,3,3,3,3,3,3,3,3,3,3,3,3,4,4,4,4,4
participant_6_BUY,[],"[1041, 2031, 3340]",[],[],[],"[3133, 2055]",[],[],[],[],[],[],"[1412, 3047]",[],"[3067, 2055, 2055]",[],"[1028, 1036, 3044]",[],[],"[3071, 2055]",[],[],[3052],[],[],[],[],[],[],[3053],[],[1031],[],[],[],[1038],[],[]
participant_6_SOLD,[],[],[],[],[],[],[2055],[],[],[],[],[],"[3133, 1041, 2422]",[],[],[],"[2031, 1028, 1036]",[2055],[],"[3044, 3067]",[2055],[],[2055],[],[],[],[],[],[],[3052],[],[],[],[],[],[],[],[]
participant_6_UNDO,[],[],[],[],[],[],[],[],[],[],[],[],[],[],[],[],[],[],[],[],[],[],[],[],[],[],[],[],[],[],[],[],[],[],[],[],[],[]
participant_7_GOLD,500,525,579,778,984,1191,1554,1796,2113,2412,2619,2783,2906,3473,4212,4787,4909,5363,5576,6144,6419,7565,7722,8005,8765,9431,9554,9845,10067,10358,10567,10794,10931,11368,11764,12067,12623,12718
participant_7_CURRENTGOLD,500,25,79,278,484,106,469,711,1028,1327,234,398,86,653,362,937,624,1078,1291,1858,519,1665,1822,305,265,931,1054,95,318,608,817,1204,242,678,1075,93,648,583
participant_7_LEVEL,1,1,1,2,4,4,5,6,7,7,8,8,8,9,9,10,10,10,11,11,11,12,12,12,13,14,14,14,14,14,15,15,15,16,16,16,17,17
participant_7_MINIONSKILLED,0,0,3,7,12,14,26,32,41,48,53,55,55,62,66,74,74,86,91,99,104,110,112,122,122,132,132,140,140,150,153,160,161,168,174,180,188,188
participant_7_KILLS,0,0,0,0,0,0,0,0,0,0,0,0,0,0,0,1,1,1,1,1,1,2,2,2,4,4,4,4,4,4,4,4,4,4,4,4,5,5
participant_7_BUY,[],"[1056, 2003, 3340, 2003]",[],[],[],"[1052, 2055, 2055]",[],[],[],[],"[3802, 1052]",[],[1052],[],"[3030, 1028]",[],[1052],[],[],[],"[3916, 1026]",[],[],"[1058, 3165]",[3020],[],[],[1058],[],[],[],[],[3089],[],[],"[1026, 1052]",[],[]
participant_7_SOLD,[],[],[2003],"[2003, 2010]",[],[2010],[2055],[2010],[],[],[1052],[],[],"[2055, 3340]","[3513, 3802, 1052, 1052]",[],[],[],[],[],"[1028, 1052]",[],[],"[3916, 1026]",[2422],[],[],[],[],[],[],[1056],"[1058, 1058]",[],[],[],[],[]
participant_7_UNDO,[],[],[],[],[],[],[],[],[],[],[],[],[],[],[],[],[],[],[],[],[],[],[],[],[],[],[],[],[],[],[],[],[],[],[],[],[],[]
participant_8_GOLD,500,900,1221,1462,1874,2248,2471,2684,2911,3327,3603,3831,4195,4317,4640,4839,5046,5342,5614,5940,6146,6493,6809,7071,7842,8265,8630,9122,9348,9755,9993,10289,10541,10990,11868,12130,12329,12899
participant_8_CURRENTGOLD,500,400,71,312,724,1098,496,709,136,552,828,206,570,42,365,564,296,592,429,755,196,468,94,356,1127,350,715,107,333,740,978,375,626,825,1704,680,880,1259
participant_8_LEVEL,1,1,1,2,3,4,4,5,5,6,6,7,7,7,8,8,9,9,9,10,10,10,11,11,12,12,13,13,13,13,14,14,14,14,15,15,15,16
participant_8_MINIONSKILLED,0,0,1,8,18,30,36,41,47,56,65,71,81,81,89,94,99,105,105,114,119,125,127,136,138,138,144,148,148,156,156,162,164,175,175,179,184,194
participant_8_KILLS,0,0,0,0,0,0,0,0,0,1,1,1,1,3,3,3,4,4,6,6,8,8,9,9,10,10,11,12,12,12,14,14,14,14,14,14,14,14
participant_8_BUY,[],"[2003, 2003, 2003, 3340, 2003, 3850, 3340]",[],[],[],[],[],"[1001, 1026]",[],[],"[1001, 1052]",[],[1028],[],"[3020, 3136]",[],[3151],[],"[2420, 1052]",[],"[3108, 1052]",[],[3157],[],[],"[3916, 3916]",[],[1026],[],[],[3165],[1058],[],[],[],[],[],[]
participant_8_SOLD,[],[],"[2003, 2003]",[],[],[],[],[],[],[],[],[],[3850],[],"[1001, 1028, 1052]",[],"[3136, 1026]",[],[],[],"[2420, 1052]",[],"[1052, 3108, 2421, 3851]",[],[],[],[],[],[],[],"[3916, 1026]",[],[],[],[],[],[],[]
participant_8_UNDO,[],"[[0, 2003], [3340, 0], [0, 2003]]",[],[],[],[],[],"[[0, 1001]]",[],[],[],[],[],[],[],[],[],[],[],[],[],[],[],[],[],"[[0, 3916]]",[],[],[],[],[],[],[],[],[],[],[],[]
participant_9_GOLD,500,585,687,866,1121,1255,1434,1584,1787,2267,2431,2655,2840,3944,4129,4273,4773,5099,5930,6325,7156,7346,7874,8021,9165,9606,10102,10718,10965,11195,11938,12100,12244,12435,12723,12864,13004,13114
participant_9_CURRENTGOLD,500,85,187,366,621,755,934,234,437,917,346,570,355,1459,179,323,73,400,145,540,471,661,275,421,1565,406,902,669,915,1145,1339,250,395,585,873,1014,1154,1264
participant_9_LEVEL,1,1,1,1,2,3,4,4,5,5,6,6,6,8,8,8,9,9,10,10,11,11,11,11,12,13,13,14,14,14,14,14,14,15,15,15,15,15
participant_9_MINIONSKILLED,0,0,0,0,0,0,0,0,1,1,1,2,2,5,5,5,5,10,13,18,19,19,21,21,23,23,27,27,27,28,28,29,29,29,32,32,32,32
participant_9_KILLS,0,1,2,2,2,2,2,2,2,2,2,2,2,2,2,2,2,2,2,2,2,2,2,2,3,3,3,3,3,3,3,3,3,3,5,5,5,6
participant_9_BUY,[],"[1056, 2003, 2003, 3340]","[1028, 1027, 1001]",[],[],[],"[3010, 2055]",[],[3020],[],[],[1026],[],[3027],[],[],"[1028, 2055]",[],[1052],[],[3916],[2055],[1026],[],[],"[3165, 2420]",[],[3191],[],[],[],[3108],[],[3157],[],"[3136, 1026, 1052]",[],[]
participant_9_SOLD,[],[],[],[],[2003],[],[1027],[2003],[1001],[2055],[],[],[],"[3010, 1026]",[],[],[],[],[],[],"[1028, 1052]",[2055],"[2055, 1056]",[2055],[],"[3916, 1026]",[],[],[],[],[2420],[],[],"[3191, 3108, 2421]",[],[],[],[]
participant_9_UNDO,[],[],"[[0, 1028]]",[],[],[],[],[],[],[],[],[],[],[],[],[],[],[],[],[],[],[],"[[2055, 0]]",[],[],[],[],[],[],[],[],[],[],[],[],"[[0, 3136]]",[],[]
team0_KILLS,0,0,3,3,3,4,5,5,5,5,7,7,11,12,14,15,18,19,21,22,24,25,28,28,30,31,31,31,35,35,37,38,39,39,43,43,43,46
team0_CURRENTGOLD,2500,45,882,2459,3262,3013,3512,2088,3304,4444,1705,1633,3506,2740,2299,2738,3427,3218,4052,4609,4606,2866,4169,2882,1486,3861,5238,5153,7084,6179,3697,4226,7824,5587,4412,6280,6665,9568
team0_TOTALGOLD,2500,2545,3682,5259,6497,7983,9732,10948,12164,13304,15030,16383,19006,20750,22670,24173,26107,27973,29957,31679,33690,36051,38244,39292,40820,43196,45088,46461,49842,52203,54074,55754,59352,61739,64264,66732,68433,71768
team0_LEVEL,5,5,5,12,15,19,22,26,29,30,34,36,40,41,44,45,48,52,52,55,57,60,62,62,63,66,66,68,71,72,75,75,78,79,82,82,85,86
team0_SBIRES,0,0,0,29,46,68,97,119,142,164,184,206,228,250,275,298,312,332,351,387,399,429,446,460,460,483,502,510,523,537,545,561,588,602,610,625,647,669
team1_KILLS,0,1,2,2,3,3,3,3,3,4,4,4,4,9,9,11,12,12,14,15,17,18,19,19,24,24,25,26,26,26,28,28,28,29,31,31,32,33
team1_CURRENTGOLD,2500,580,507,1653,3446,2906,2361,2794,3321,5332,4591,4934,3142,4482,2981,4988,3594,5391,5815,4027,2932,4098,2813,2380,3970,3686,5061,4191,6152,3265,4515,2014,1967,3670,5958,3127,4633,5396
team1_TOTALGOLD,2500,3080,3657,4803,6596,7816,8931,10214,11541,13552,14846,16039,17057,20997,22941,24948,26404,28200,30145,32350,34532,37323,38842,40210,43850,46366,47741,50070,52029,53495,55293,56223,57273,59230,61514,62554,64062,65396
team1_LEVEL,5,5,5,9,16,19,22,25,29,32,34,37,37,41,43,45,48,49,52,54,56,58,60,60,64,67,69,70,71,71,74,74,75,77,79,79,81,82
team1_SBIRES,0,0,5,22,43,67,86,112,135,163,188,203,217,229,247,270,287,316,337,363,386,410,423,453,460,470,482,510,529,554,560,574,584,613,626,637,656,679
delta_KILLS,0,-1,1,1,0,1,2,2,2,1,3,3,7,3,5,4,6,7,7,7,7,7,9,9,6,7,6,5,9,9,9,10,11,10,12,12,11,13
delta_CURRENTGOLD,0,-535,375,806,-184,107,1151,-706,-17,-888,-2886,-3301,364,-1742,-682,-2250,-167,-2173,-1763,582,1674,-1232,1356,502,-2484,175,177,962,932,2914,-818,2212,5857,1917,-1546,3153,2032,4172
delta_TOTALGOLD,0,-535,25,456,-99,167,801,734,623,-248,184,344,1949,-247,-271,-775,-297,-227,-188,-671,-842,-1272,-598,-918,-3030,-3170,-2653,-3609,-2187,-1292,-1219,-469,2079,2509,2750,4178,4371,6372
delta_LEVEL,0,0,0,3,-1,0,0,1,0,-2,0,-1,3,0,1,0,0,3,0,1,1,2,2,2,-1,-1,-3,-2,0,1,1,1,3,2,3,3,4,4
delta_SBIRES,0,0,-5,7,3,1,11,7,7,1,-4,3,11,21,28,28,25,16,14,24,13,19,23,7,0,13,20,0,-6,-17,-15,-13,4,-11,-16,-12,-9,-10
