name,frame_0,frame_1,frame_2,frame_3,frame_4,frame_5,frame_6,frame_7,frame_8,frame_9,frame_10,frame_11,frame_12,frame_13,frame_14,frame_15,frame_16,frame_17,frame_18,frame_19,frame_20,frame_21,frame_22,frame_23,frame_24,frame_25,frame_26,frame_27,frame_28,frame_29,frame_30,frame_31,frame_32,frame_33,frame_34,frame_35,frame_36
nameStamp,Tstart,Tearly,Tearly,Tearly,Tearly,Tearly,Tearly,Tearly,Tearly,Tearly,Tearly,Tearly,Tearly,Tearly,Tearly,Tearly,Tearly,Tearly,Tearly,Tearly,Tmid,Tmid,Tmid,Tmid,Tmid,Tmid,Tmid,Tmid,Tmid,Tmid,Tmid,Tmid,Tmid,Tend,Tend,Tend,Tend
timestamp,0,60026,120044,180049,240065,300072,360074,420075,480093,540123,600127,660133,720133,780162,840173,900176,960191,1020197,1080207,1140234,1200263,1260285,1320309,1380345,1440357,1500358,1560371,1620371,1680390,1740403,1800409,1860435,1920455,1980470,2040479,2100486,2160486
participant_0_GOLD,500,500,694,1048,1376,1575,1918,2040,2297,2626,3005,3128,3349,3496,4225,4697,5433,5735,5857,6376,7266,7460,7919,8125,8248,8447,8750,8873,9651,9877,10050,10922,11419,11712,12073,12432,12453
participant_0_CURRENTGOLD,500,0,194,548,876,1075,1418,1540,497,826,1205,53,274,421,100,572,1308,160,282,401,1291,1485,1944,350,123,322,626,748,1526,303,125,998,1495,197,559,918,878
participant_0_LEVEL,1,1,2,3,4,4,5,5,5,6,7,7,7,7,8,8,9,10,10,10,11,12,12,12,12,12,12,13,14,14,14,15,15,16,16,16,16
participant_0_MINIONSKILLED,0,0,0,0,0,0,0,0,0,1,2,2,3,3,4,4,4,4,4,5,8,9,14,19,19,24,30,30,31,33,33,33,33,33,37,43,43
participant_0_KILLS,0,0,0,0,0,0,0,0,0,0,0,0,0,0,1,1,2,2,2,3,4,4,4,4,4,4,4,4,5,5,5,6,6,6,6,6,6
participant_0_BUY,[],"[2031, 1039, 3340]",[],[],[],[],[],[],"[3706, 1001, 1036]",[],[],[1400],[],[],"[3117, 1036]",[],[],"[3134, 1036, 1036]",[],[3133],[],[],[],"[3147, 3134]",[1036],[],[],[],[],[3142],[1036],[],[],"[1053, 3105]",[],[],[]
participant_0_SOLD,[],[],[],[],[],[],[],[],[1039],[],[],"[1036, 3706]",[],[],[1001],[],[],[1036],[],"[1036, 1036]",[],[],[],"[3134, 3133]",[],[],[],[],[],"[1036, 3134]",[],[],[],"[1036, 2031]",[],[],[]
participant_0_UNDO,[],[],[],[],[],[],[],[],[],[],[],[],[],[],[],[],[],[],[],[],[],[],[],[],[],[],[],[],[],[],[],[],[],[],[],[],[]
participant_1_GOLD,500,500,584,825,1162,1326,1512,1770,2115,2287,2521,2679,3061,3183,3411,3736,3978,4260,4431,4772,5264,5624,6046,6600,6786,7124,7372,7494,8131,8665,8837,9440,10038,10720,10984,11560,11580
participant_1_CURRENTGOLD,500,0,84,325,662,826,537,795,1140,62,296,454,836,283,511,836,1078,1360,231,572,189,549,536,1090,1276,1614,472,94,731,1265,537,1141,738,20,285,860,880
participant_1_LEVEL,1,1,1,2,3,4,4,5,6,6,6,7,7,7,8,8,9,9,9,10,10,10,11,11,11,12,12,12,12,12,13,13,14,14,15,15,15
participant_1_MINIONSKILLED,0,0,3,10,19,21,25,30,39,42,49,51,62,62,68,75,82,87,90,100,104,111,111,115,118,126,129,129,146,148,148,155,158,161,163,170,170
participant_1_KILLS,0,0,0,0,0,0,0,0,0,0,0,0,0,0,0,0,0,0,0,0,0,0,1,2,2,2,2,2,2,3,3,3,3,4,4,4,4
participant_1_BUY,[],"[1055, 2003, 3340]",[],[],[],[],"[1027, 1004]",[],[],"[1037, 3070]",[],[],[],[3004],[],[],[],[],"[1043, 1001]",[],[1037],[],[1052],[],[],[],"[3124, 1042, 1042]",[3101],[],[],[3108],[],[3115],[3086],[],[],[]
participant_1_SOLD,[],[],[],[],[],[],[],[],[],"[1027, 1004]",[],[2003],[],"[3070, 1037]",[],[],[],[],[],[],[],[],[],[],[],[],"[1052, 1043, 1037]","[1042, 1042]",[3004],[],[],[],"[3101, 3108]",[],[],[],[]
participant_1_UNDO,[],[],[],[],[],[],[],[],[],[],[],[],[],[],[],[],[],[],[],[],[],[],[],[],[],[],[],[],[],[],[],[],[],[],[],[],[]
participant_2_GOLD,500,500,538,717,927,1142,1352,1486,1645,1908,2134,2370,2533,2715,3311,3502,3688,4068,4208,4687,5071,5562,5852,6067,6208,6348,6545,7135,7289,7445,7635,8389,9360,10459,10739,11426,11449
participant_2_CURRENTGOLD,500,0,38,117,327,542,752,151,110,373,599,835,998,1179,11,202,388,768,108,587,171,662,517,732,408,148,345,85,139,295,485,1239,2210,3309,389,1076,1099
participant_2_LEVEL,1,1,1,1,2,3,4,4,5,5,6,7,7,7,8,8,9,9,9,10,10,11,11,11,11,11,12,12,12,12,13,14,15,15,15,16,16
participant_2_MINIONSKILLED,0,0,0,0,0,1,1,1,1,7,11,14,15,15,16,17,17,17,17,21,22,22,22,22,22,22,25,25,26,27,27,28,31,39,39,43,43
participant_2_KILLS,0,0,0,0,0,0,0,0,0,0,0,0,0,0,1,1,1,1,1,1,1,2,2,2,2,2,2,3,3,3,3,3,4,6,6,7,7
participant_2_BUY,[],"[3850, 2003, 2003, 3340]",[],"[2003, 2003]",[],[],[],"[1052, 1004, 1004, 2003]","[2003, 2003, 2003, 2003]",[],[],[],[],[],"[3504, 2003, 2003, 2003]",[],[],[],[3020],[],[3028],[],[1052],[],[3108],[3174],[],[1026],"[2003, 2003]",[],[],[],[],[],"[3285, 1026]",[],[]
participant_2_SOLD,[],[],[],[2003],"[2003, 2003, 2003]",[],[],[],[],[],"[2003, 2003]","[2003, 2003, 2003]",[],[3850],"[1004, 1004, 1052]",[2003],"[2003, 2003]",[],[2422],[],[3851],[],[],[],[1052],"[3108, 3028]",[],[],[],[],[],[],"[2003, 2003]",[],[1026],[],[]
participant_2_UNDO,[],[],[],[],[],[],[],[],[],[],[],[],[],[],[],[],[],[],[],[],[],[],[],[],[],[],[],[],[],[],[],[],[],[],[],[],[]
participant_3_GOLD,500,500,563,818,1496,1667,1856,2153,2833,3124,3472,3658,3780,4008,4862,5005,5275,5717,6048,6245,6612,7140,7436,7957,8094,8286,8644,9281,9542,10050,11850,12773,13246,13537,14404,15565,15585
participant_3_CURRENTGOLD,500,0,63,318,996,117,306,603,583,24,372,108,230,458,1312,505,275,84,415,612,279,87,383,604,741,933,411,48,310,817,2617,1441,313,605,671,1833,952
participant_3_LEVEL,1,1,1,2,4,4,5,5,7,7,8,8,8,9,9,10,10,10,10,11,11,11,12,12,12,12,13,13,14,14,15,15,16,17,17,17,17
participant_3_MINIONSKILLED,0,0,2,9,21,24,25,35,44,54,64,68,68,72,78,79,84,84,86,90,97,103,109,111,112,112,119,127,131,145,152,158,158,160,164,167,167
participant_3_KILLS,0,0,0,0,1,1,1,1,2,2,2,2,2,2,4,4,4,5,5,5,5,5,5,6,6,6,6,7,7,7,9,10,10,10,10,13,13
participant_3_BUY,[],"[2033, 3340]",[],[],[],[3057],[],[],"[1001, 1028]",[3044],[],"[1042, 1033]",[],[],[],"[3111, 1042, 1042]",[3101],"[3078, 1042]",[],[],[1043],[1057],[],[1042],[],[],[3091],[1043],[],[],[],[3124],[3144],[],[1043],[],[3153]
participant_3_SOLD,[],[],[],[],[],[],[],[],[],[1028],[],[],[],[],[],"[1001, 1033]","[1042, 1042]","[3101, 3057, 3044]",[],[],[1042],[],[],[],[],[],"[1043, 1057, 1042]",[],[],[],[],[1043],[],[],[2033],[],"[3144, 1043]"
participant_3_UNDO,[],[],[],[],[],[],[],[],[],[],[],"[[0, 1042]]",[],[],[],[],[],[],[],[],[],[],[],[],[],[],[],[],[],[],[],[],[],[],[],[],[]
participant_4_GOLD,500,500,563,829,1036,1284,1564,1714,1940,2154,2796,3149,3405,3660,4083,4443,5069,5310,5791,6324,7272,7533,7655,7916,8138,8275,8439,8861,8998,9223,9828,11041,12066,12683,12933,13540,13560
participant_4_CURRENTGOLD,500,0,63,329,536,784,1064,114,340,204,846,749,705,960,113,473,1099,1340,221,754,1702,1963,185,446,68,205,369,91,228,453,1059,1671,2697,2013,524,1130,910
participant_4_LEVEL,1,1,1,3,4,5,6,6,6,7,8,8,9,9,10,10,11,12,12,12,13,13,13,13,13,13,14,14,14,14,15,16,17,17,17,18,18
participant_4_MINIONSKILLED,0,0,2,8,13,18,24,26,29,34,38,42,46,54,54,64,65,72,77,79,82,83,83,86,86,87,89,89,90,92,100,101,107,107,109,109,109
participant_4_KILLS,0,0,0,0,0,0,0,0,0,0,1,1,1,1,1,1,2,2,3,3,5,5,5,5,5,5,5,6,6,6,6,8,8,9,9,9,9
participant_4_BUY,[],"[1054, 2003, 3340]",[],[],[],[],[],"[1033, 1028, 1006, 2003, 2003]",[],[3211],[],[1033],[1001],[],"[3194, 1029, 2031]",[],[],[],"[3010, 3047]",[],[],[],[3001],[],"[1029, 1029]",[],[],"[3082, 1029]",[],[],[],[3024],[],"[3110, 2138]","[1011, 1031]",[],[]
participant_4_SOLD,[],[],[],[],[],[],[],[],[2003],"[2003, 1028, 1033]",[],[2003],[],[],"[1033, 3211, 1006, 1054]",[],[],[],"[1001, 1029]",[],[],[],[3010],[],[],[],[],"[1029, 1029]",[],[],[],[1029],[],"[3082, 3024]","[2138, 2031]",[],[]
participant_4_UNDO,[],[],[],[],[],[],[],[],[],[],[],[],[],[],[],[],[],[],[],[],[],[],[],[],[],[],[],[],[],[],[],[],[],[],[],[],[]
participant_5_GOLD,500,500,563,832,1011,1231,1445,1689,2264,2499,2854,3627,3833,4305,4465,4875,5597,6169,6426,6885,7007,7467,7730,8101,8223,8820,9006,9535,9935,10284,10406,10660,10783,11576,11698,12985,13026
participant_5_CURRENTGOLD,500,0,63,332,511,296,510,754,339,574,929,202,408,880,240,650,1372,619,876,1335,32,492,355,726,413,1010,1196,210,610,959,331,586,273,1067,184,1470,1351
participant_5_LEVEL,1,1,1,3,4,4,5,6,7,8,8,9,9,10,10,10,11,12,12,12,12,13,13,14,14,14,14,15,15,15,15,15,15,16,16,16,17
participant_5_MINIONSKILLED,0,0,2,10,13,16,22,26,32,38,48,48,53,60,60,73,78,78,83,87,87,87,92,98,98,98,101,104,113,117,117,120,120,121,121,128,129
participant_5_KILLS,0,0,0,0,0,0,0,0,1,1,1,3,3,3,3,3,4,5,5,5,5,6,6,6,6,7,7,8,8,8,8,8,8,9,9,10,10
participant_5_BUY,[],"[1056, 2003, 2003, 3340]",[],[],[],"[1052, 1052]",[],[],"[3145, 1001, 2055]",[],[],"[3152, 2003]",[],[],[3020],[],[],"[1026, 1028, 2055]",[],[],"[3116, 2055]",[],[1028],[],[1052],[],[],"[3136, 1026]",[],[],[3151],[],[1052],[],[3916],[],[]
participant_5_SOLD,[],[],[],[],[],[],"[2003, 2003]",[],[1052],[2055],[],[3145],[2003],[],[1001],[],[],[2055],[],[],"[1026, 1028]",[2055],[],[],[],[],[],"[1028, 1052]",[],[],"[3136, 1026]",[],[],[],"[1056, 1052]",[],[]
participant_5_UNDO,[],[],[],[],[],"[[0, 1052]]",[],[],[],[],[],[],[],[],[],[],[],[],[],[],[],[],[],[],[],[],[],[],[],[],[],[],[],[],[],[],[]
participant_6_GOLD,500,500,563,1182,1375,1644,1823,2161,2422,2587,2737,2979,3171,3303,3525,3823,4022,4228,4421,4946,5068,5810,6423,6724,7012,7429,7963,8181,8324,8622,8929,9080,9313,9703,10061,10304,10325
participant_6_CURRENTGOLD,500,0,63,682,875,1144,1323,1661,1922,87,237,479,451,183,105,403,602,183,376,901,148,890,103,104,392,808,631,123,267,564,437,187,421,811,294,537,290
participant_6_LEVEL,1,1,1,2,3,4,4,5,6,6,6,7,7,7,7,8,8,8,9,9,9,9,10,10,11,11,11,11,12,12,12,12,12,13,14,14,14
participant_6_MINIONSKILLED,0,0,2,6,10,16,19,29,34,36,38,45,49,50,52,59,64,69,69,76,76,76,76,78,82,85,88,88,89,92,93,95,97,100,105,106,106
participant_6_KILLS,0,0,0,1,1,1,1,1,1,1,1,1,1,1,1,1,1,1,1,1,1,2,3,3,3,3,4,4,4,4,4,4,4,4,4,4,4
participant_6_BUY,[],"[1055, 3340, 2003, 3364]",[],[],[],[],[],[],[],"[1038, 1036, 1036]",[],[],[3134],[1028],[1042],[],[],"[3006, 1004]",[],[],"[3363, 1037]",[],"[3814, 1037]",[1042],[],[],[1018],"[3031, 1042]",[],[],[1052],[1043],[],[],[1037],[],[]
participant_6_SOLD,[],[3340],[],"[2003, 2010]",[],[2010],[],[2010],[],[],[],[],"[1036, 1036, 1055]",[],[],[],[],"[1042, 2422]",[],"[3364, 3513]",[3364],[],"[1037, 3134, 1028]",[],[],[],[1004],"[1038, 1037, 1018]",[],[],[],"[1042, 1042]",[],[],[],[],[]
participant_6_UNDO,[],[],[],[],[],[],[],[],[],[],[],[],[],[],[],[],[],[],[],[],[],[],[],[],[],[],[],[],[],[],[],[],[],[],[],[],[]
participant_7_GOLD,500,500,570,885,1162,1424,1739,2181,2498,3134,3452,4006,4290,4490,4650,5010,5237,5423,5595,5768,6064,6265,6848,7347,7859,8661,8886,9914,10229,10813,11256,11552,11675,11834,12235,12647,12667
participant_7_CURRENTGOLD,500,0,70,385,662,924,1239,81,398,1034,252,806,1090,1290,125,485,712,173,345,518,814,1015,48,547,1059,1861,186,1214,1529,2114,256,553,555,715,315,728,567
participant_7_LEVEL,1,1,1,3,4,5,6,6,7,8,8,9,10,10,10,11,11,11,11,11,12,12,12,13,13,13,14,14,15,15,15,15,15,16,16,16,16
participant_7_MINIONSKILLED,0,0,3,11,20,25,33,33,42,51,53,59,65,70,70,80,85,89,89,89,96,97,102,105,109,116,117,129,133,135,135,141,141,141,149,157,157
participant_7_KILLS,0,0,0,0,0,0,0,1,1,2,2,3,3,3,3,3,3,3,3,3,3,3,4,5,6,7,7,8,8,9,10,10,10,10,10,10,10
participant_7_BUY,[],"[1055, 2003, 3340]",[],[],[],[],[],"[3006, 1042, 2003, 2003, 2003, 2003]",[],[],[3086],[],[],[],"[3085, 1004]",[],[],"[1027, 3070]",[],[],[],[],[3004],[],[],[],"[1043, 1053]",[],[],[],"[3153, 3108]",[],[1042],[],[],[3101],[]
participant_7_SOLD,[],[],[],[2003],[],[],[],[],[],[2003],"[2003, 2003, 1042]",[],[2003],[],[3086],[],[],"[1027, 1004]",[],[],[],[],[3070],[],[],[],[],[],[],[],"[1053, 1043]",[],[1055],[],[],[1042],[]
participant_7_UNDO,[],[],[],[],[],[],[],[],[],[],[],[],[],[],[],[],[],[],[],[],[],[],[],[],[],[],[],[],[],[],[],[],[],[],[],[],[]
participant_8_GOLD,500,500,621,978,1233,1460,1668,1790,2012,2470,2727,3055,3289,3497,3737,4060,4301,4529,4951,5271,5393,5653,5859,6183,6319,6607,6998,7637,7759,8301,8590,8712,8834,9594,9877,10299,10319
participant_8_CURRENTGOLD,500,0,121,478,733,960,1168,140,362,820,1077,1405,1639,1847,2087,2410,801,279,701,1021,243,503,369,693,829,1117,1508,347,19,561,850,222,345,304,587,209,169
participant_8_LEVEL,1,1,2,3,3,4,4,4,4,6,6,7,7,8,8,8,9,9,9,9,9,10,10,11,11,11,12,12,12,13,13,13,13,14,14,14,14
participant_8_MINIONSKILLED,0,0,0,0,0,0,0,0,0,0,0,0,0,0,1,1,1,1,1,2,2,2,7,8,9,11,11,14,14,18,24,24,24,24,29,29,29
participant_8_KILLS,0,0,0,0,0,0,0,0,0,0,0,0,0,0,0,0,0,0,1,1,1,1,1,1,1,1,1,2,2,3,3,3,3,5,5,6,6
participant_8_BUY,[],"[1041, 2031, 3340]",[],[],[],[],[],"[1036, 1028, 1028]",[],[],[],[],[],[],[],[],[3071],"[1001, 1033]",[],[],[3751],[],[1028],[],[],[],[],"[3068, 3111]",[1033],[],[],[3211],[],[3067],[],[3065],[]
participant_8_SOLD,[],[],[],[],[],[],[],[],[],[],[],[],[],[],[],[],"[1028, 1036, 1028]",[],[],[],[],[],[2031],[],[],[],[],"[1028, 3751, 1001, 1033]",[],[],[],[1033],[],[],[],"[3211, 3067]",[]
participant_8_UNDO,[],[],[],[],[],[],[],[],[],[],[],[],[],[],[],[],[],[],[],[],[],[],[],[],[],[],[],[],[],[],[],[],[],[],[],[],[]
participant_9_GOLD,500,500,521,802,924,1047,1211,1362,1533,1725,1990,2147,2305,2582,3004,3127,3263,3421,3599,4127,4264,4623,4820,5540,5738,6012,6315,6788,6910,7120,7242,7379,7515,7800,8006,8321,8341
participant_9_CURRENTGOLD,500,0,21,302,424,547,11,162,333,525,790,947,1105,1382,154,277,413,571,749,427,564,923,220,940,1138,1412,915,938,310,520,492,629,765,1050,1256,1571,1591
participant_9_LEVEL,1,1,1,2,3,4,4,5,5,6,6,7,7,8,8,8,9,9,10,10,11,11,11,12,12,12,12,13,13,13,13,14,14,14,15,15,15
participant_9_MINIONSKILLED,0,0,0,2,2,2,4,6,9,13,18,20,22,28,28,28,29,31,35,38,39,42,42,48,48,49,56,59,59,59,59,60,61,61,67,70,70
participant_9_KILLS,0,0,0,0,0,0,0,0,0,0,0,0,0,0,1,1,1,1,1,2,2,2,2,3,3,3,3,4,4,4,4,4,4,4,4,4,4
participant_9_BUY,[],"[3340, 2003, 2003, 1056]",[],[],[],[],"[1001, 1028]",[],[],[],[],[],[],[],"[3067, 3111, 1033]",[],[],[],[],[1026],[],[],[3108],[],[],[],[3102],[1033],[3211],[],[1006],[],[],[],[],[],[]
participant_9_SOLD,[],[],[],[],[2003],[2003],[],[],[],[],[],[],[],[],"[1028, 1001]",[],[],[],[],[],[],[],[],[],[],[],"[3108, 1033, 1026]",[],[1033],[],[],[],[],[],[],[],[]
participant_9_UNDO,[],[],[],[],[],[],[],[],[],[],[],[],[],[],[],[],[],[],[],[],[],[],[],[],[],[],[],[],[],[],[],[],[],[],[],[],[]
team0_KILLS,0,0,0,0,1,1,1,1,2,2,3,3,3,3,7,7,9,10,11,12,15,16,17,19,19,19,19,22,23,24,26,30,31,35,35,39,39
team0_CURRENTGOLD,2500,0,442,1637,3397,3344,4077,3203,2670,1489,3318,2199,3043,3301,2047,2588,4148,3712,1257,2926,3632,4746,3565,3222,2616,3222,2223,1066,2934,3133,4823,6490,7453,6144,2428,5817,4719
team0_TOTALGOLD,2500,2500,2942,4237,5997,6994,8202,9163,10830,12099,13928,14984,16128,17062,19892,21383,23443,25090,26335,28404,31485,33319,34908,36665,37474,38480,39750,41644,43611,45260,48200,52565,56129,59111,61133,64523,64627
team0_LEVEL,5,5,6,11,17,20,24,25,29,31,35,37,38,39,43,44,48,50,50,53,55,57,59,59,59,60,63,64,66,66,70,73,77,79,80,82,82
team0_SBIRES,0,0,7,27,53,64,75,92,113,138,164,177,194,206,220,239,252,264,274,295,313,328,339,353,357,371,392,400,424,445,460,475,487,500,512,532,532
team1_KILLS,0,0,0,1,1,1,1,2,3,4,4,7,7,7,8,8,9,10,11,12,12,14,16,18,19,21,22,26,26,28,29,29,29,32,32,34,34
team1_CURRENTGOLD,2500,0,338,2179,3205,3871,4251,2798,3354,3040,3285,3839,4693,5582,2711,4225,3900,1825,3047,4202,1801,3823,1095,3010,3831,6208,4436,2832,2735,4718,2366,2177,2359,3947,2636,4515,3968
team1_TOTALGOLD,2500,2500,2838,4679,5705,6806,7886,9183,10729,12415,13760,15814,16888,18177,19381,20895,22420,23770,24992,26997,27796,29818,31680,33895,35151,37529,39168,42055,43157,45140,46423,47383,48120,50507,51877,54556,54678
team1_LEVEL,5,5,6,13,17,21,23,26,29,34,34,39,40,43,43,45,48,49,51,51,53,55,56,60,61,61,63,65,67,68,68,69,69,73,75,75,76
team1_SBIRES,0,0,7,29,45,59,78,94,117,138,157,172,189,208,211,241,257,268,277,292,300,304,319,337,346,359,373,394,408,421,428,440,443,447,471,490,491
delta_KILLS,0,0,0,-1,0,0,0,-1,-1,-2,-1,-4,-4,-4,-1,-1,0,0,0,0,3,2,1,1,0,-2,-3,-4,-3,-4,-3,1,2,3,3,5,5
delta_CURRENTGOLD,0,0,104,-542,192,-527,-174,405,-684,-1551,33,-1640,-1650,-2281,-664,-1637,248,1887,-1790,-1276,1831,923,2470,212,-1215,-2986,-2213,-1766,199,-1585,2457,4313,5094,2197,-208,1302,751
delta_TOTALGOLD,0,0,104,-442,292,188,316,-20,101,-316,168,-830,-760,-1115,511,488,1023,1320,1343,1407,3689,3501,3228,2770,2323,951,582,-411,454,120,1777,5182,8009,8604,9256,9967,9949
delta_LEVEL,0,0,0,-2,0,-1,1,-1,0,-3,1,-2,-2,-4,0,-1,0,1,-1,2,2,2,3,-1,-2,-1,0,-1,-1,-2,2,4,8,6,5,7,6
delta_SBIRES,0,0,0,-2,8,5,-3,-2,-4,0,7,5,5,-2,9,-2,-5,-4,-3,3,13,24,20,16,11,12,19,6,16,24,32,35,44,53,41,42,41
