name,team0,team1
win,Win,Fail
firstBlood,True,False
firstTower,False,True
firstInhibitor,True,False
firstBaron,True,False
firstDragon,False,True
firstRiftHerald,False,True
towerKills,8,5
inhibitorKills,1,0
baronKills,1,0
dragonKills,0,4
riftHeraldKills,0,1
