name,frame_0,frame_1,frame_2,frame_3,frame_4,frame_5,frame_6,frame_7,frame_8,frame_9,frame_10,frame_11,frame_12,frame_13,frame_14,frame_15,frame_16,frame_17,frame_18,frame_19,frame_20,frame_21,frame_22,frame_23,frame_24,frame_25,frame_26,frame_27,frame_28
nameStamp,Tstart,Tearly,Tearly,Tearly,Tearly,Tearly,Tearly,Tearly,Tearly,Tmid,Tmid,Tmid,Tmid,Tmid,Tmid,Tmid,Tmid,Tmid,Tmid,Tmid,Tmid,Tmid,Tmid,Tend,Tend,Tend,Tend,Tend,Tend
timestamp,0,60026,120028,180047,240061,300077,360099,420110,480115,540132,600150,660176,720197,780211,840239,900247,960250,1020272,1080286,1140319,1200346,1260367,1320387,1380400,1440409,1500427,1560458,1620470,1680470
participant_0_GOLD,500,500,560,1275,2419,3269,4622,5336,6753,7631,8570,9729,10321,10755,11285,11833,12445,13520,14071,14860,15778,16302,16790,17235,17716,18361,19997,20478,20833
participant_0_CURRENTGOLD,500,0,60,775,1919,169,822,636,1703,211,275,1434,726,360,65,613,875,400,951,1740,1258,582,1070,1515,1996,741,1877,2358,-867
participant_0_LEVEL,1,1,1,2,3,4,5,6,7,7,8,9,10,10,11,11,12,13,14,14,16,16,17,17,17,17,19,19,19
participant_0_MINIONSKILLED,0,0,0,5,10,13,19,19,26,28,33,41,47,49,49,49,55,55,56,68,71,74,78,79,82,93,102,103,103
participant_0_KILLS,0,0,0,0,1,2,4,5,5,6,7,8,8,8,8,8,8,10,10,10,10,10,10,10,10,10,11,11,11
participant_0_BUY,[],"[1055, 2003]",[],[],[],"[3144, 1043]",[3153],[1053],[1036],"[1001, 3072]",[1037],[],[1038],[1018],"[3031, 1036, 1028]",[],[1036],"[3134, 3006]",[],[],[3814],[3052],[],[],[],[3022],[2140],[],[3146]
participant_0_SOLD,[],[],[],[],"[2003, 2010, 2010]",[],"[2010, 3144, 1043]",[2010],[],"[1055, 1036, 1053]",[],[],[],[],"[1038, 1037, 1018]",[],[],"[1036, 1001]",[],[],"[3134, 1028]",[],[],[],[],[3052],[2140],[],"[3814, 3022]"
participant_0_UNDO,[],[],[],[],[],[],[],[],[],[],[],[],[],[],"[[0, 1036]]",[],[],[],[],[],[],[],[],[],[],[],[],[],[]
participant_1_GOLD,500,500,689,1434,2304,2915,3852,4691,5253,6220,6707,7151,7757,8433,8864,9603,10345,10970,11480,11930,12492,13077,13623,14345,14801,15449,15863,16431,16936
participant_1_CURRENTGOLD,500,0,189,934,1804,2415,3352,4191,1453,1120,1607,2051,557,1233,1664,2403,3145,3770,980,1430,1992,2577,3123,945,1401,2049,2463,3031,3336
participant_1_LEVEL,1,1,1,3,3,4,5,6,6,7,8,9,9,10,11,12,12,13,14,14,15,16,16,17,17,17,19,19,20
participant_1_MINIONSKILLED,0,0,5,12,19,22,30,37,41,52,56,58,64,70,73,79,79,79,79,81,85,85,88,96,97,101,103,107,107
participant_1_KILLS,0,0,0,0,0,0,0,1,1,1,1,1,1,1,1,1,2,2,2,2,2,2,2,2,2,2,2,2,2
participant_1_BUY,[],"[1055, 2003, 3340]",[],[],[],[],[],[],[3153],[3140],[],[],[3139],[],[],[],[],[],[3072],[],[],[],[],[3157],[],[],[],[],[]
participant_1_SOLD,[],[],[],[],[],[],[],[],[],[],[],[],[3140],[],[],[],[],[],"[1055, 2003]",[],[],[],[],[],[],[],[],[],[]
participant_1_UNDO,[],[],[],[],[],[],[],[],[],[],[],[],[],[],[],[],[],[],[],[],[],[],[],[],[],[],[],[],[]
participant_2_GOLD,500,500,685,1400,2412,3097,3869,4629,5211,6326,6919,7544,8004,8439,9310,9965,11014,11704,12106,12913,13583,14013,14373,14783,15198,15594,15961,16379,16770
participant_2_CURRENTGOLD,500,0,185,900,1912,647,1419,329,311,1426,2019,644,754,439,1310,665,1714,584,636,1443,113,543,903,1313,1728,741,758,276,487
participant_2_LEVEL,1,1,1,3,3,4,5,6,6,8,8,9,9,9,11,12,14,14,15,15,16,16,17,17,17,17,17,17,17
participant_2_MINIONSKILLED,0,0,5,10,11,16,21,23,23,31,33,33,33,36,36,36,42,42,42,44,44,44,44,44,44,44,44,46,46
participant_2_KILLS,0,0,0,0,1,1,1,2,2,3,3,3,3,3,3,3,4,5,5,6,6,6,6,6,6,6,6,6,6
participant_2_BUY,[],"[1054, 2003, 3340]",[],[],[],"[1038, 1036, 1001]",[],[3072],[3009],[],[],"[3105, 1053]",[1036],[3133],[],"[3812, 3067]",[],"[3211, 3065]",[1036],[],"[3101, 3044]",[],[],[],[],[3078],[1036],[3044],[]
participant_2_SOLD,[],[],[],[2003],[],[],[],"[1038, 1036]",[1001],[],[],[],[],[1036],[],"[3105, 1053, 3133]",[],"[1054, 3211, 3067]",[],[],[1036],[],[],[],[],"[3101, 3044]",[],[1036],[]
participant_2_UNDO,[],[],[],[],[],[],[],[],[],[],[],[],[],[],[],[],[],[],[],[],[],[],[],[],[],[],[],[],[]
participant_3_GOLD,500,500,575,1644,2159,3098,3946,4634,5837,7408,7853,8455,9778,10397,11265,12580,13600,14422,14858,15307,16047,17208,17568,18183,19156,19543,19903,20325,20766
participant_3_CURRENTGOLD,500,0,75,1144,309,298,146,134,537,2108,253,855,2178,697,1565,680,1700,1402,538,687,727,1888,348,1693,2666,3053,1913,1835,66
participant_3_LEVEL,1,1,1,2,4,5,5,6,7,8,8,9,10,11,11,12,13,14,15,15,15,16,16,17,17,18,18,18,18
participant_3_MINIONSKILLED,0,0,0,4,7,7,11,17,22,24,24,26,33,39,47,47,52,61,61,61,61,61,61,61,76,77,77,78,78
participant_3_KILLS,0,0,0,1,1,2,3,3,4,6,6,6,7,7,8,9,10,10,10,10,11,14,14,14,14,14,14,14,14
participant_3_BUY,[],"[1054, 2003, 3340]",[],[],"[1053, 1036, 2003, 2003]","[3144, 1042, 1042]","[1043, 1042, 1042]",[3153],[1018],[],"[3085, 3006]",[],[],"[1038, 1018]",[],"[3031, 1053]",[],[1038],[3072],[1042],[1043],[],[3091],[1038],[],[],[3026],[2140],[]
participant_3_SOLD,[],[2003],[],[],[],"[2003, 2003, 1053, 1036]","[1042, 1042]","[3144, 1043]",[],[],"[1042, 1018, 1042]",[],[],[],[],"[1038, 1018]",[],[1054],"[1038, 1053]",[],[1042],[],[1043],[3091],[],[],[1038],[2140],[]
participant_3_UNDO,[],[],[],[],[],[],[],[],[],[],[],[],[],[],[],[],[],[],[],[],[],[],[],[],[],[],[],[],[]
participant_4_GOLD,500,505,565,1203,2220,3393,4028,4595,5597,6821,7266,8627,9292,10062,12387,13568,14218,14900,16631,17066,19128,19808,21057,22164,22814,23259,24065,25265,25965
participant_4_CURRENTGOLD,500,5,65,703,1720,793,1428,495,697,1921,366,1727,492,462,2787,1368,2018,500,2231,246,3078,2988,4237,5344,5994,6439,7245,8445,8015
participant_4_LEVEL,1,1,1,2,3,4,4,5,6,7,7,9,10,11,12,13,14,14,16,16,17,18,19,20,20,20,21,22,23
participant_4_MINIONSKILLED,0,0,0,2,8,14,19,28,34,41,41,43,43,51,58,58,58,58,58,58,70,70,84,91,91,91,92,92,92
participant_4_KILLS,0,0,0,0,1,3,3,3,4,4,4,6,6,7,10,12,12,13,17,17,19,19,20,21,21,21,22,23,24
participant_4_BUY,[],"[1055, 2003, 3340]",[],[],[],"[1038, 1018]",[],"[3508, 1042]",[3006],[],"[3086, 1042, 1042]",[],"[3085, 1038]",[1018],[],"[3031, 1038]",[],[3072],[],[3046],[],[],[],[],[],[],[],[],[]
participant_4_SOLD,[],[],[],[],[],"[2010, 2003, 2010]",[2010],"[2010, 1038, 1018]",[1042],[],[],[],"[1042, 3086, 1042]",[],[],"[1038, 1018]",[],"[1038, 1055]",[],[1055],[3006],[],[],[],[],[],[],[],[]
participant_4_UNDO,[],[],[],[],[],[],[],[],[],[],[],[],[],[],[],[],[],"[[1055, 0]]",[],[],[],"[[3006, 0]]",[],[],[],[],[],[],[]
participant_5_GOLD,500,500,586,1009,1431,1918,2298,2721,3335,3731,4203,4635,5138,5839,6261,6649,7021,7393,7976,8390,8826,9328,10097,10857,11368,11991,12556,12993,13906
participant_5_CURRENTGOLD,500,0,86,509,531,583,313,221,835,381,853,235,738,799,1221,1609,381,753,1336,350,786,38,807,1567,2078,2702,481,918,1671
participant_5_LEVEL,1,1,1,2,2,3,4,4,5,6,6,7,8,9,9,10,10,12,13,13,14,15,16,17,18,19,20,20,21
participant_5_MINIONSKILLED,0,0,1,1,1,2,2,2,3,3,5,5,5,7,7,7,7,7,13,14,14,14,18,25,25,31,31,32,32
participant_5_KILLS,0,0,0,0,0,0,0,0,0,0,0,0,0,0,0,0,0,0,0,0,0,0,0,0,0,0,0,0,2
participant_5_BUY,[],"[1056, 2003, 2003, 3340]",[],[],"[1001, 3850]",[1052],"[1027, 1001]",[3802],[],[1026],[],[3285],[],[3020],[],[],[3916],[],[],[3165],[],[1058],[],[],[],[],"[3089, 1052]",[],[]
participant_5_SOLD,[],[],[2003],[2003],[],[],[],"[1052, 1027]",[],[],[],"[3802, 1026]",[],"[1001, 1056]",[],[],[],[],[],[3916],[],[],[],[],[],[],[1058],[],[]
participant_5_UNDO,[],[],[],[],"[[0, 1001]]",[],[],[],[],[],[],[],[],[],[],[],[],[],[],[],[],[],[],[],[],[],[],[],[]
participant_6_GOLD,500,500,587,997,1439,2565,3445,4567,5689,6196,7059,8169,9661,10992,11778,12825,13185,14070,14830,16290,17063,18610,19421,21043,22864,23822,24567,25630,25885
participant_6_CURRENTGOLD,500,0,87,497,238,265,644,1767,106,213,1076,386,478,609,595,1642,202,447,1207,767,753,2300,3111,4733,6554,7513,8257,9321,3602
participant_6_LEVEL,1,1,1,1,2,3,5,6,6,7,8,9,10,12,12,14,14,14,15,16,16,17,18,19,20,21,21,22,22
participant_6_MINIONSKILLED,0,0,1,1,1,1,2,2,2,6,8,8,8,9,9,12,12,12,12,12,15,15,15,24,30,42,42,49,49
participant_6_KILLS,0,0,0,0,0,2,2,3,5,5,6,8,11,14,15,17,17,18,19,21,22,24,24,25,29,30,31,33,33
participant_6_BUY,[],"[1036, 2031, 3340]",[],[],"[1001, 1028]","[3044, 1042, 1042]",[3101],[],"[3078, 3117, 1036, 1036]",[3134],[],[3142],[3086],[3087],"[1042, 1018]",[],"[3086, 3046]",[2015],[],[3094],[3031],[],[],[],[],[],[],[],[3153]
participant_6_SOLD,[],[],[],[],[],"[1028, 1036]","[1042, 1042]",[],"[3101, 3044, 1001]","[1036, 1036]",[],[3134],[],[3086],[],[],"[1018, 3086]",[2031],[],[2015],[3078],[],[],[],[],[],[],[],[3031]
participant_6_UNDO,[],[],[],[],[],[],[],[],[],[],[],[],[],[],"[[0, 1042]]",[],[],[],[],[],[],[],[],[],[],[],[],[],[]
participant_7_GOLD,500,500,597,1110,1661,2508,3011,4013,4641,5103,5626,6110,6711,7603,8194,9509,9964,11273,11645,12122,12728,13843,14697,15268,16147,16682,17598,18231,18591
participant_7_CURRENTGOLD,500,0,97,610,726,873,1376,2378,841,1303,576,360,961,603,369,1684,364,1673,1145,1622,878,1993,907,1478,2357,2892,3808,4441,791
participant_7_LEVEL,1,1,1,2,3,5,5,7,7,8,8,9,9,11,11,12,13,14,14,14,15,16,18,18,19,20,21,21,22
participant_7_MINIONSKILLED,0,0,1,3,4,12,16,23,25,28,29,32,36,46,51,51,53,53,53,55,55,55,56,56,56,56,60,60,60
participant_7_KILLS,0,0,0,0,0,0,0,0,0,0,0,0,0,0,0,1,1,2,2,2,2,4,4,4,5,5,5,5,5
participant_7_BUY,[],"[3850, 2003, 2003, 3340]",[],[],[1052],"[1028, 1001]",[],[],[3165],[],[1058],[3117],[],[1058],"[3504, 3174, 1006, 1004]",[],"[3114, 3801, 2065]",[],[3024],[],[3050],[],[3107],[],[],[],[],[],[]
participant_7_SOLD,[],[],[],"[2003, 2003]",[],[],[],[],"[1028, 1052]",[],[],[1001],[],[],"[1058, 1058, 3165]",[],"[1004, 1006, 3114, 3801]",[],[],[],"[3850, 3024]",[],[3851],[],[],[],[],[],[]
participant_7_UNDO,[],[],[],[],[],[],[],[],[],[],[],[],[],[],[],[],[],[],[],[],[],[],[],[],[],[],[],[],[]
participant_8_GOLD,500,500,560,1206,1685,2359,3442,4167,4991,5919,6395,7268,7955,8473,9068,9601,10087,11237,11697,12215,13232,13712,14799,15333,16101,16735,17814,18373,18753
participant_8_CURRENTGOLD,500,0,60,706,485,1159,942,1117,991,619,220,1093,980,1498,1668,2201,587,1237,297,815,632,812,1009,823,1591,2225,3304,3863,1353
participant_8_LEVEL,1,1,1,3,3,4,5,6,7,7,8,9,10,10,11,11,12,13,13,14,15,16,17,18,19,19,20,21,22
participant_8_MINIONSKILLED,0,0,0,5,9,18,20,27,29,31,32,42,49,52,53,53,53,53,53,58,59,59,59,60,63,64,79,79,79
participant_8_KILLS,0,0,0,0,0,0,1,1,2,3,3,3,3,3,3,3,3,5,5,5,6,6,7,7,7,8,8,8,8
participant_8_BUY,[],"[1055, 2003, 3340]",[],[],"[1036, 1036]",[],[1038],[1053],[3072],[1038],[1037],[],[1018],[],[3031],[],"[3086, 2015]",[3094],[3086],[],[3046],[1042],[3006],[1053],[],[],[],[],[3139]
participant_8_SOLD,[],[],"[2003, 2010]",[],[2010],[],[2010],"[2010, 1036]","[1038, 1036, 1053]",[],[],[],[],[],"[1038, 1037, 1018]",[],[],"[3086, 2015]",[],[],[3086],[],[1042],[1055],[],[],[],[],[1053]
participant_8_UNDO,[],[],[],[],[],[],[],[],[],[],[],[],[],[],[],[],[],[],[],[],[],[],[],[],[],[],[],[],[]
participant_9_GOLD,500,500,683,1332,2280,3489,4402,5989,7586,8774,9837,10972,12189,13144,14194,15250,15798,16533,17237,17866,19550,20208,21371,22545,23366,23805,25160,26515,26940
participant_9_CURRENTGOLD,500,15,198,847,1795,1289,2202,89,586,1774,2837,537,1754,2709,1544,1100,48,783,1487,2116,1650,2308,3471,4645,5466,5905,7260,8615,9040
participant_9_LEVEL,1,1,1,3,4,5,6,6,8,8,9,9,10,11,12,13,13,14,14,15,17,17,19,20,20,21,21,22,23
participant_9_MINIONSKILLED,0,0,5,13,25,33,40,40,59,70,74,84,84,96,100,108,116,116,125,130,141,146,148,158,167,170,181,200,204
participant_9_KILLS,0,0,0,0,1,1,2,5,6,7,8,9,10,10,12,13,13,14,14,14,17,17,18,19,19,19,20,21,21
participant_9_BUY,[],"[1052, 2003, 3340]",[],[],[],"[3802, 1026]",[],"[3285, 3191, 3108, 2420]","[3157, 1026]",[],[],"[3165, 1052, 1026]",[],[],"[3135, 1026]",[3136],"[3151, 1026]",[],[],[],[3102],[],[],[],[],[],[],[],[]
participant_9_SOLD,[],[2003],[],[],[],[1052],[],"[3802, 1026]","[3191, 3108, 2420]",[],[],[1026],[],[],"[1026, 1052]",[],"[3136, 1026]",[],[],[],[1026],[],[3340],[],[],[],[3513],[],[]
participant_9_UNDO,[],[],[],[],[],[],[],[],[],[],[],[],[],[],[],[],[],[],[],[],[],[],[],[],[],[],[],[],[]
team0_KILLS,0,0,0,1,4,8,11,14,16,20,21,24,25,26,30,33,36,40,44,45,48,51,52,53,53,53,55,56,57
team0_CURRENTGOLD,2500,5,574,4456,7664,4322,7167,5785,4701,6786,4520,6711,4707,3191,7391,5729,9452,6656,5336,5546,7168,8578,9681,10810,13785,13023,14256,15945,11037
team0_TOTALGOLD,2500,2505,3074,6956,11514,15772,20317,23885,28651,34406,37315,41506,45152,48086,53111,57549,61622,65516,69146,72076,77028,80408,83411,86710,89685,92206,95789,98878,101270
team0_LEVEL,5,5,5,12,16,21,24,29,32,37,39,45,48,51,56,60,65,68,74,74,79,82,85,88,88,89,94,95,97
team0_SBIRES,0,0,10,33,55,72,100,124,146,176,187,201,220,245,263,269,286,295,296,312,331,334,355,371,390,406,418,426,426
team1_KILLS,0,0,0,0,1,3,5,9,13,15,17,20,24,27,30,34,34,39,40,42,47,51,53,55,60,62,64,67,69
team1_CURRENTGOLD,2500,15,528,3169,3775,4169,5477,5572,3359,4290,5562,2611,4911,6218,5397,8236,1582,4893,5472,5670,4699,7451,9305,13246,18046,21237,23110,27158,16457
team1_TOTALGOLD,2500,2500,3013,5654,8496,12839,16598,21457,26242,29723,33120,37154,41654,46051,49495,53834,56055,60506,63385,66883,71399,75701,80385,85046,89846,93035,97695,101742,104075
team1_LEVEL,5,5,5,11,14,20,25,29,33,36,39,43,47,53,55,60,62,67,69,72,77,81,88,92,96,100,103,106,110
team1_SBIRES,0,0,8,23,40,66,80,94,118,138,148,171,182,210,220,231,241,241,256,269,284,289,296,323,341,363,393,420,424
delta_KILLS,0,0,0,1,3,5,6,5,3,5,4,4,1,-1,0,-1,2,1,4,3,1,0,-1,-2,-7,-9,-9,-11,-12
delta_CURRENTGOLD,0,-10,46,1287,3889,153,1690,213,1342,2496,-1042,4100,-204,-3027,1994,-2507,7870,1763,-136,-124,2469,1127,376,-2436,-4261,-8214,-8854,-11213,-5420
delta_TOTALGOLD,0,5,61,1302,3018,2933,3719,2428,2409,4683,4195,4352,3498,2035,3616,3715,5567,5010,5761,5193,5629,4707,3026,1664,-161,-829,-1906,-2864,-2805
delta_LEVEL,0,0,0,1,2,1,-1,0,-1,1,0,2,1,-2,1,0,3,1,5,2,2,1,-3,-4,-8,-11,-9,-11,-13
delta_SBIRES,0,0,2,10,15,6,20,30,28,38,39,30,38,35,43,38,45,54,40,43,47,45,59,48,49,43,25,6,2
