name,frame_0,frame_1,frame_2,frame_3,frame_4,frame_5,frame_6,frame_7,frame_8,frame_9,frame_10,frame_11,frame_12,frame_13,frame_14,frame_15,frame_16,frame_17,frame_18,frame_19,frame_20,frame_21,frame_22,frame_23,frame_24,frame_25,frame_26,frame_27,frame_28,frame_29,frame_30
nameStamp,Tstart,Tearly,Tearly,Tearly,Tearly,Tearly,Tearly,Tearly,Tearly,Tearly,Tearly,Tearly,Tmid,Tmid,Tmid,Tmid,Tmid,Tmid,Tmid,Tmid,Tmid,Tmid,Tmid,Tend,Tend,Tend,Tend,Tend,Tend,Tend,Tend
timestamp,0,60032,120041,180043,240071,300073,360087,420088,480106,540107,600128,660157,720164,780168,840168,900175,960192,1020205,1080212,1140243,1200247,1260258,1320269,1380281,1440281,1500290,1560291,1620302,1680330,1740337,1800337
participant_0_GOLD,500,500,584,941,1471,1908,2331,2544,2910,3217,3831,4493,4666,5188,5506,6013,6150,6691,7113,7299,7533,7790,8394,9364,9860,10067,10505,10952,11487,12172,12744
participant_0_CURRENTGOLD,500,0,84,441,171,608,1031,69,435,742,1356,193,366,888,1206,1713,50,591,1013,349,583,840,294,1264,1760,127,565,1012,1547,1033,1544
participant_0_LEVEL,1,1,1,3,3,5,6,6,7,7,8,8,9,9,10,11,11,12,12,12,13,13,14,14,14,15,15,15,16,16,16
participant_0_MINIONSKILLED,0,0,3,15,15,31,39,44,55,62,77,81,82,102,110,125,126,146,152,156,163,168,172,183,189,194,200,209,212,215,216
participant_0_KILLS,0,0,0,1,1,1,1,1,1,1,1,1,1,1,1,1,1,1,1,1,1,1,1,1,1,1,1,1,1,1,1
participant_0_BUY,[],"[3850, 2003, 2003, 3340]",[],[],"[1001, 1082, 2003, 2003]",[],[],[2003],[],"[3117, 2003, 2003]",[],"[3364, 2031, 1052, 2055]",[],[],[],"[4642, 1028]",[],[],[],[3067],[],[],"[4005, 2055, 2055]",[],[],[1026],[],[],[],[],[]
participant_0_SOLD,[],[],[],"[2003, 2003]",[],[],"[2003, 2003]",[],[2003],"[1001, 2003]","[3850, 2003]","[3340, 2055]",[],[],[],[1052],[3851],[],[],[1028],[],[],"[3067, 4642]","[2055, 2055]",[],[],[],[],[],[],[]
participant_0_UNDO,[],[],[],[],[],[],[],[],[],[],[],[],[],[],[],[],[],[],[],[],[],[],[],[],[],[],[],[],[],[],[]
participant_1_GOLD,500,500,706,1037,1237,1649,1772,1979,2327,2568,2870,3492,3669,4124,4709,4859,5052,5285,5833,6019,6141,6485,7068,7400,7918,8192,8314,8657,9149,9459,9765
participant_1_CURRENTGOLD,500,0,206,537,312,724,847,229,577,818,1120,117,294,749,1334,1484,527,760,1308,294,416,760,243,575,1093,1367,239,582,1074,1384,1690
participant_1_LEVEL,1,1,2,3,3,4,4,5,5,6,6,6,7,7,8,8,8,8,9,9,9,10,11,11,12,12,12,13,13,14,14
participant_1_MINIONSKILLED,0,0,0,0,0,0,1,1,5,13,13,15,16,16,18,20,20,20,20,23,23,23,23,23,27,28,28,31,32,32,33
participant_1_KILLS,0,0,0,0,1,1,1,1,1,1,2,2,2,2,2,2,2,2,3,3,3,5,5,6,6,6,6,7,7,9,11
participant_1_BUY,[],"[2003, 3340, 1055]",[],[],"[1036, 1036, 2055]",[],[],"[3134, 1036]","[1036, 1001, 2055]",[],[],"[1053, 1036, 2055]",[],[],"[6692, 1036]",[1036],[],[],[],"[3134, 1037, 1042]",[],[],"[6676, 3006, 1036, 3363]",[],[3035],[2055],[1036],[],[6694],[],[]
participant_1_SOLD,[],[],[],[],[],[],[2003],"[1036, 1036]",[2055],[],[2055],[1036],[],[2055],"[3134, 1036, 1053]",[],[],[],[],"[1036, 1036]",[],[],"[3134, 1037, 1001, 1042, 3340]",[],[1036],[2055],[],[],"[1036, 3035]",[],[]
participant_1_UNDO,[],[],[],[],[],[],[],[],"[[0, 1036]]",[],[],[],[],[],[],[],[],[],[],[],[],[],[],[],[],[],[],[],[],[],[]
participant_2_GOLD,500,500,598,825,1448,1696,2348,2548,3067,3289,3601,3988,4181,4471,5159,5331,5729,6068,6448,6765,7188,7974,8774,9040,9262,9671,9956,10143,10984,11887,12160
participant_2_CURRENTGOLD,500,0,98,325,123,361,1003,333,842,324,636,163,356,646,1324,246,644,983,1363,445,53,839,389,655,177,586,871,1059,1899,2802,2935
participant_2_LEVEL,1,1,1,3,4,5,6,6,7,8,8,9,9,10,10,10,11,11,12,12,12,12,13,13,13,14,14,14,15,15,16
participant_2_MINIONSKILLED,0,0,4,10,19,24,36,41,52,55,66,75,79,89,101,104,116,125,136,143,143,144,149,155,155,168,172,175,178,188,192
participant_2_KILLS,0,0,0,0,1,1,2,2,2,2,2,2,2,2,3,3,3,3,3,3,4,5,5,5,5,5,5,5,6,6,6
participant_2_BUY,[],[2033],[],[],"[1082, 1056]",[2055],[],"[1052, 1052]",[],"[3802, 1001]",[],[1026],[],[],[],[6655],[],[],[],"[3020, 1052]",[4630],[],"[3135, 3364]",[],[3108],[],[],[],[],[],[]
participant_2_SOLD,[],[],[],[],"[2403, 2403]",[2055],[2403],[],[],"[1052, 1052]",[],[],[],[],[],"[3802, 1026]",[],[],[],[1001],[1052],[],"[4630, 3340]",[],[2033],[],[],[],[],[],[]
participant_2_UNDO,[],[],[],[],[],[],[],[],[],[],[],[],[],[],[],[],[],[],[],[],[],[],[],[],[],[],[],[],[],[],[]
participant_3_GOLD,500,500,563,899,1435,1663,2030,2344,2544,2820,3355,3630,3997,4401,4922,5045,5370,5841,6338,6655,6941,8081,8693,9369,9675,10097,10331,11033,11535,12939,13869
participant_3_CURRENTGOLD,500,0,63,399,160,388,755,319,144,420,955,255,622,1026,347,120,445,915,1413,155,441,1581,318,994,200,547,432,1133,36,1439,2369
participant_3_LEVEL,1,1,1,2,2,3,4,4,5,5,6,6,7,7,8,8,9,9,10,10,10,11,12,12,12,13,13,13,14,15,15
participant_3_MINIONSKILLED,0,0,2,10,10,13,27,36,40,48,55,58,73,86,96,96,108,120,120,127,132,138,142,157,158,164,170,172,173,183,187
participant_3_KILLS,0,0,0,0,1,1,1,1,1,1,1,1,1,1,1,1,1,1,1,1,1,1,1,2,2,2,2,2,2,3,4
participant_3_BUY,[],"[1056, 2003, 2003, 3340]",[],[],"[1028, 1028]",[],[],"[6660, 1033, 1001, 2031, 2055]",[],[],[],"[3068, 2055]",[],[],[],[],"[3111, 1043]",[],[],[1026],[],[],[3115],[],[],"[3133, 1031]",[],[],[],[6333],[]
participant_3_SOLD,[],[],[],[2003],[],[],[2003],"[1028, 1028]",[2055],[],[],"[6660, 1033]",[2055],[],[],[],[1001],[],[],[],[],[],"[1043, 1026]",[],[],[2031],[],[],[],"[1031, 3133]",[]
participant_3_UNDO,[],[],[],[],[],[],[],[],[],[],[],[],[],[],[],[],[],[],[],[],[],[],[],[],[],[],[],[],[],[],[]
participant_4_GOLD,500,500,543,1197,1378,1553,1801,1935,2150,2284,2734,2932,3092,3323,3723,3943,4104,4244,4610,4750,4900,5355,5906,6096,6436,6577,6717,6967,7458,8000,8344
participant_4_CURRENTGOLD,500,0,43,697,128,303,551,635,850,184,633,172,332,563,963,169,329,469,835,575,726,1180,731,921,1261,552,692,943,1433,1975,2319
participant_4_LEVEL,1,1,1,2,2,3,3,4,4,5,5,6,6,7,7,7,8,8,8,9,9,9,10,10,10,11,11,11,12,13,13
participant_4_MINIONSKILLED,0,0,0,0,0,0,1,1,1,1,1,1,1,2,2,2,2,2,2,2,2,2,4,4,4,4,4,6,6,7,7
participant_4_KILLS,0,0,0,0,0,0,0,0,0,0,0,0,0,0,1,1,1,1,2,2,2,2,2,2,2,2,2,2,2,2,2
participant_4_BUY,[],"[1035, 2031, 3340]",[],[],"[1036, 2055, 3364]",[],[],"[3134, 2055]",[],[],[],"[1053, 1036, 1001, 2055]",[],[],[],[],"[6692, 1042]",[],[],"[3006, 1036, 1036]",[],[],"[3133, 3057]",[],[],[],"[3508, 2055, 2055]",[],[],[],[]
participant_4_SOLD,[],[],[],[],"[3340, 2055]",[],[],[1036],[],[2055],"[1035, 3364, 3513]",[],[2055],[],[],[],"[3134, 1036, 1053]",[],[],"[1001, 1042]",[],[],"[1036, 1036]",[],[],[],"[3133, 3057]",[],[2055],[],[]
participant_4_UNDO,[],[],[],[],[],[],[],[],[],[],[],[],[],[],[],[],[],[],[],[],[],[],[],[],[],[],[],[],[],[],[]
participant_5_GOLD,500,500,584,804,1162,1347,1505,1816,2112,2531,2779,3149,3369,3564,3908,4490,4875,5133,5583,5811,5958,6291,6539,7261,7873,8155,8409,9068,9190,9313,9401
participant_5_CURRENTGOLD,500,0,84,304,662,297,455,366,662,1081,1329,1699,219,414,58,640,175,433,883,311,458,791,1039,1021,1133,265,519,1178,330,453,451
participant_5_LEVEL,1,1,1,2,4,5,5,6,6,7,8,9,9,9,10,10,10,11,11,12,12,12,13,13,13,14,14,14,14,14,14
participant_5_MINIONSKILLED,0,0,3,8,19,23,25,36,42,56,63,77,83,83,92,92,103,106,121,127,128,141,148,148,155,155,158,168,168,168,170
participant_5_KILLS,0,0,0,0,0,0,0,0,1,1,1,1,1,1,1,1,1,1,1,1,1,1,1,1,1,1,1,1,1,1,3
participant_5_BUY,[],"[2033, 3340]",[],[],[1052],[],[],"[1027, 1001]",[],"[3802, 1033]",[],[3111],[],[],[],"[1026, 2055]",[],[],"[6655, 2055]",[],[],[1026],[1052],[],[],[],[],"[4632, 3108]",[],[3102],[]
participant_5_SOLD,[],[],[],[2010],[],[],[2010],[],[],"[1052, 1027]",[2010],"[1001, 1033]",[],[],[],[],[2055],[],"[3802, 1026]",[2055],[],[],[],[],[],[],[],[1052],[],"[3108, 4632]",[]
participant_5_UNDO,[],[],[],[],[],[],[],[],[],[],[],[],[],[],[],[],[],[],[],[],[],[],[],[],[],[],[],[],[],[],[]
participant_6_GOLD,500,500,726,1263,1806,2120,2353,2677,3032,3455,3700,4007,4449,4786,5079,5925,6210,6442,6749,7452,7674,7797,8189,8514,9555,10016,10203,10547,10880,11002,11063
participant_6_CURRENTGOLD,500,0,226,763,206,520,753,1077,232,655,900,1207,349,686,979,1825,170,402,709,1412,1634,307,49,374,1415,1876,489,832,1165,413,413
participant_6_LEVEL,1,1,2,3,3,4,5,5,6,7,7,7,8,9,9,10,10,10,10,11,11,11,12,12,13,13,14,14,14,14,14
participant_6_MINIONSKILLED,0,0,0,0,0,1,1,8,8,9,10,11,12,13,13,13,13,14,14,14,14,14,14,18,21,31,33,36,36,36,36
participant_6_KILLS,0,0,0,0,0,0,0,0,0,0,0,0,0,0,1,1,1,1,1,1,1,1,1,1,1,2,2,2,2,2,2
participant_6_BUY,[],"[3850, 2003, 2003, 3340]",[],[],"[1001, 1004]",[],"[1029, 2031]",[],[],[3009],[],[],"[3067, 3364]",[],[],[3105],[],[],[],"[3190, 2055, 2055]",[3114],[],"[2055, 2055]",[],"[2055, 2055]","[1026, 2055]",[],"[2055, 2055]",[],"[6616, 2055]",[]
participant_6_SOLD,[],[],[],"[2010, 2003]",[],[],"[2003, 2010]",[],[3850],[1001],[2010],[],[3340],[],[],[1029],[],[],[3851],"[3067, 3105]","[2031, 1004]",[],"[2055, 2055]","[2055, 2055]",[2055],[2055],[],[2055],[2055],"[3114, 1026]",[]
participant_6_UNDO,[],[],[],[],[],[],[],[],[],[],[],[],[],[],[],[],[],[],[],[],[],[],[],[],[],[],[],[],[],[],[]
participant_7_GOLD,500,500,584,896,1134,1341,1603,1795,2507,2678,2962,3180,3548,3876,4247,4412,4761,5030,5404,5755,5972,6230,6588,7185,7488,7711,7966,8230,8433,8806,9466
participant_7_CURRENTGOLD,500,0,84,396,199,406,668,210,912,118,402,260,618,946,1307,547,896,1165,214,565,782,190,113,710,1013,1236,1491,90,293,266,966
participant_7_LEVEL,1,1,1,3,3,4,5,5,7,7,8,8,9,9,10,10,10,11,11,12,12,12,13,13,14,14,14,14,14,15,15
participant_7_MINIONSKILLED,0,0,3,10,13,18,26,30,35,38,48,50,61,72,83,86,95,103,114,124,127,131,137,148,155,155,164,169,174,185,185
participant_7_KILLS,0,0,0,0,0,0,0,0,1,1,2,2,2,2,2,2,2,2,2,2,2,2,2,2,2,2,3,3,3,3,3
participant_7_BUY,[],"[1055, 2003, 3340]",[],[2031],[],[],"[3070, 1036, 1036]",[],[],[3057],[3133],"[1027, 1001]",[],[],"[3004, 1036]",[1028],[],[],[3051],[3067],[],[],"[3078, 3363]",[],[1036],[],[],[],"[3133, 3035]",[],[]
participant_7_SOLD,[],[],[],[2003],[],[],[],[],[],[],"[1036, 1036]",[2031],[],[],"[3070, 3133, 1027]",[],[],[],[1036],[1028],[],[],"[3057, 3051, 3067, 3340]",[],[],[],[3004],[],[1036],[],[]
participant_7_UNDO,[],[],[],[],[],[],[],[],[],[],[],[],[],[],[],[],[],[],[],[],[],[],[],[],[],[],[],[],[],[],[]
participant_8_GOLD,500,500,542,769,1169,1613,1827,2218,2759,2938,3614,3767,4163,4533,4936,5198,5562,5852,6065,6348,6661,6805,7052,7279,7605,8013,8774,9212,9612,9867,10137
participant_8_CURRENTGOLD,500,0,42,119,519,963,77,468,1009,488,764,327,723,1093,396,258,622,912,375,258,571,715,229,456,432,840,1601,2039,239,494,704
participant_8_LEVEL,1,1,1,2,3,4,4,5,6,6,7,7,7,8,8,9,9,10,10,10,10,11,11,11,11,12,12,13,13,13,13
participant_8_MINIONSKILLED,0,0,1,7,21,37,42,55,62,65,77,78,90,100,104,108,118,121,126,131,137,138,141,147,154,162,173,177,184,188,190
participant_8_KILLS,0,0,0,1,2,2,2,2,2,2,2,2,2,2,2,3,3,3,3,4,4,4,4,4,5,5,5,5,5,5,5
participant_8_BUY,[],"[1039, 2031, 3340, 3364]",[],[],[3051],[],[],[],[6029],[],[],[],"[6631, 1001]",[],[],[],"[3047, 3077]",[],[],[],[],"[3133, 1036]",[3074],[],[],[],"[3044, 1028, 2055]",[],[],[1037],[]
participant_8_SOLD,[],[3340],[],[],[],[],[],[],[],[1039],[],[],"[6029, 3051]",[],[],[],"[1001, 2031]",[],[],[],[],[],"[3077, 1036, 3133]",[],[],[],[],[2055],[],[],[]
participant_8_UNDO,[],[],[],[],[],[],[],[],[],[],[],[],[],[],[],[],[],[],[],[],[],[],[],[],[],[],[],[],[],[],[]
participant_9_GOLD,500,540,583,901,1142,1297,1531,1714,2100,2290,2680,2959,3129,3460,4011,4151,4334,4609,4763,4979,5159,5300,5440,5580,5796,6486,6723,6943,7128,7269,7518
participant_9_CURRENTGOLD,500,40,83,401,92,247,31,214,600,190,580,859,229,560,1111,51,234,509,664,329,19,160,150,291,356,121,358,428,614,29,218
participant_9_LEVEL,1,1,1,2,2,3,3,4,5,5,5,6,7,7,8,8,8,8,9,9,9,9,9,9,10,10,11,11,11,11,12
participant_9_MINIONSKILLED,0,0,0,0,0,0,0,3,3,4,4,9,10,11,13,13,15,17,18,18,18,18,18,18,18,18,19,20,22,22,22
participant_9_KILLS,0,0,0,0,0,0,0,0,0,0,0,0,0,0,0,1,1,1,1,1,1,1,1,2,3,3,3,3,3,3,3
participant_9_BUY,[],"[1054, 2003, 3340]",[],[],[],"[1028, 2031]",[],[1028],[],[],[],[],"[3105, 6660]",[],[3068],[],"[1033, 1028]",[],[],[3047],[],[],[],"[1011, 1029]",[3076],"[3075, 3364, 2055, 2055]",[],[],[3082],[],[]
participant_9_SOLD,[],[],[],[2003],[],[],[],[],[],[],[],[],"[1028, 1028]",[],"[6660, 3105]",[],[],[],[],[2422],[],[],[],"[1028, 2031]",[1029],"[3076, 1011, 3340]",[2055],[],[2055],[],[]
participant_9_UNDO,[],[],[],[],[],[],[],[],[],[],[],[],[],[],[],[],[],[],[],[],[],[],[],[],[],[],[],[],[],[],[]
team0_KILLS,0,0,0,1,4,4,5,5,5,5,6,6,6,6,8,8,8,8,10,10,11,14,14,16,16,16,16,17,18,21,24
team0_CURRENTGOLD,2500,0,494,2399,894,2384,4187,1585,2848,2488,4700,900,1970,3872,5174,3732,1995,3718,5932,1818,2219,5200,1975,4409,4491,3179,2799,4729,5989,8633,10857
team0_TOTALGOLD,2500,2500,2994,4899,6969,8469,10282,11350,12998,14178,16391,18535,19605,21507,24019,25191,26405,28129,30342,31488,32703,35685,38835,41269,43151,44604,45823,47752,50613,54457,56882
team0_LEVEL,5,5,6,13,14,20,23,25,28,31,33,35,38,40,43,44,47,48,51,52,53,55,60,60,61,65,65,66,70,73,74
team0_SBIRES,0,0,9,35,44,68,104,123,153,179,212,230,251,295,327,347,372,413,430,451,463,475,490,522,533,558,574,593,601,625,635
team1_KILLS,0,0,0,1,2,2,2,2,4,4,5,5,5,5,6,8,8,8,8,9,9,9,9,10,12,13,14,14,14,14,16
team1_CURRENTGOLD,2500,40,519,1983,1678,2433,1984,2335,3415,2532,3975,4352,2138,3699,3851,3321,2097,3421,2845,2875,3464,2163,1580,2852,4349,4338,4458,4567,2641,1655,2752
team1_TOTALGOLD,2500,2540,3019,4633,6413,7718,8819,10220,12510,13892,15735,17062,18658,20219,22181,24176,25742,27066,28564,30345,31424,32423,33808,35819,38317,40381,42075,44000,45243,46257,47585
team1_LEVEL,5,5,6,12,15,20,22,25,30,32,35,37,40,42,45,47,47,50,51,54,54,55,58,58,61,63,65,66,66,67,68
team1_SBIRES,0,0,7,25,53,79,94,132,150,172,202,225,256,279,305,312,344,361,393,414,424,442,458,479,503,521,547,570,584,599,603
delta_KILLS,0,0,0,0,2,2,3,3,1,1,1,1,1,1,2,0,0,0,2,1,2,5,5,6,4,3,2,3,4,7,8
delta_CURRENTGOLD,0,-40,-25,416,-784,-49,2203,-750,-567,-44,725,-3452,-168,173,1323,411,-102,297,3087,-1057,-1245,3037,395,1557,142,-1159,-1659,162,3348,6978,8105
delta_TOTALGOLD,0,-40,-25,266,556,751,1463,1130,488,286,656,1473,947,1288,1838,1015,663,1063,1778,1143,1279,3262,5027,5450,4834,4223,3748,3752,5370,8200,9297
delta_LEVEL,0,0,0,1,-1,0,1,0,-2,-1,-2,-2,-2,-2,-2,-3,0,-2,0,-2,-1,0,2,2,0,2,0,0,4,6,6
delta_SBIRES,0,0,2,10,-9,-11,10,-9,3,7,10,5,-5,16,22,35,28,52,37,37,39,33,32,43,30,37,27,23,17,26,32
