name,frame_0,frame_1,frame_2,frame_3,frame_4,frame_5,frame_6,frame_7,frame_8,frame_9,frame_10,frame_11,frame_12,frame_13,frame_14,frame_15,frame_16,frame_17,frame_18,frame_19,frame_20,frame_21,frame_22,frame_23,frame_24,frame_25,frame_26,frame_27,frame_28,frame_29,frame_30,frame_31,frame_32,frame_33,frame_34,frame_35,frame_36,frame_37,frame_38,frame_39,frame_40,frame_41,frame_42,frame_43,frame_44,frame_45,frame_46
nameStamp,Tstart,Tearly,Tearly,Tearly,Tearly,Tearly,Tearly,Tearly,Tearly,Tearly,Tearly,Tearly,Tearly,Tearly,Tearly,Tearly,Tearly,Tmid,Tmid,Tmid,Tmid,Tmid,Tmid,Tmid,Tmid,Tmid,Tmid,Tmid,Tmid,Tmid,Tmid,Tmid,Tmid,Tmid,Tmid,Tmid,Tmid,Tmid,Tmid,Tmid,Tmid,Tmid,Tmid,Tmid,Tmid,Tend,Tend
timestamp,0,60032,120034,180036,240056,300059,360072,420073,480090,540121,600153,660163,720166,780166,840198,900227,960229,1020235,1080236,1140244,1200245,1260251,1320254,1380261,1440294,1500301,1560305,1620314,1680343,1740373,1800405,1860419,1920423,1980427,2040428,2100438,2160468,2220498,2280520,2340542,2400573,2460576,2520578,2580586,2640589,2700621,2760621
participant_0_GOLD,500,500,521,870,1070,1395,1724,1881,2198,2496,2618,2879,3364,3584,3777,3934,4057,4671,4857,5233,5405,5619,5791,5914,6036,6391,6822,7014,7254,7742,8185,8502,8675,8872,9015,9173,9610,9968,10105,10341,10668,10791,10962,11722,12262,12485,12659
participant_0_CURRENTGOLD,500,0,21,370,570,895,1224,1381,1698,1996,68,329,814,1034,427,584,257,121,307,683,155,369,541,264,386,740,1172,114,354,842,485,402,575,272,415,573,1010,369,205,441,769,391,563,223,763,290,284
participant_0_LEVEL,1,1,1,3,3,5,6,6,7,7,7,8,8,9,9,10,10,10,11,11,11,11,11,11,11,12,12,12,13,13,13,14,14,14,14,14,15,16,16,16,16,16,17,17,18,18,18
participant_0_MINIONSKILLED,0,0,0,4,8,17,26,28,38,47,47,52,55,61,65,67,67,70,71,71,71,76,76,76,76,85,93,97,99,102,112,120,120,120,121,123,124,129,130,134,134,134,137,137,140,140,140
participant_0_KILLS,0,0,0,1,1,1,1,1,1,1,1,2,2,2,2,2,3,3,5,6,6,6,6,6,7,7,7,7,7,7,7,7,7,7,7,7,8,8,8,10,10,10,10,11,11,11,11
participant_0_BUY,[],"[1035, 2031, 3340]",[],[],[],[],[],"[1001, 6670]",[],[1018],[],[],"[3006, 2055, 3364]",[],[],[],"[6672, 2055]",[],"[6677, 1042]",[],[],[],"[3124, 2055]",[],[2015],[],[],[],[],[1038],[],[],[3095],[],[],[],"[1018, 1036]",[],[1053],[],[3072],[1018],[],[],[],[],[]
participant_0_SOLD,[],[],[],[],[],[],[],[],[],[],[],[1035],"[1001, 3340]",[],[2055],[],"[6670, 1018]",[],[],[],[2055],[],"[6677, 1042]",[],[2055],[],[],[],[],[2031],[],[],"[1038, 2015]",[],[],[],[],[],[1036],[],"[1018, 1053]",[],[],[],[],[],[]
participant_0_UNDO,[],[],[],[],[],[],[],[],[],[],[],[],[],[],[],[],[],[],[],[],[],[],[],[],[],[],[],[],[],[],[],[],[],[],[],[],[],[],[],[],[],[],[],[],[],[],[]
participant_1_GOLD,500,500,621,1353,1553,1860,2118,2325,2687,2895,3140,3642,3813,3992,4349,4604,5198,5567,6480,6922,7498,7805,8148,8396,8838,9151,9508,9691,10271,10443,10641,10763,10978,11121,11243,11366,12108,12255,12510,14425,14633,14776,15072,15831,16648,17380,17555
participant_1_CURRENTGOLD,500,0,121,853,1053,1360,1618,225,587,195,440,942,238,417,774,1029,48,417,230,672,1248,1555,123,371,113,426,783,967,1546,478,676,799,313,457,579,701,494,641,346,2261,568,112,408,1168,1984,2716,2830
participant_1_LEVEL,1,1,2,3,3,4,4,5,6,6,6,7,7,7,8,8,9,10,10,11,12,12,13,13,13,13,13,14,14,14,14,14,14,15,15,15,15,15,15,16,17,17,17,18,18,18,18
participant_1_MINIONSKILLED,0,0,0,0,0,0,0,0,2,2,2,2,5,8,8,10,11,14,14,14,18,18,20,20,20,20,20,20,25,25,25,25,27,28,28,28,28,28,31,41,41,42,48,49,55,55,55
participant_1_KILLS,0,0,0,0,0,0,0,1,1,2,2,2,2,2,2,3,3,4,5,5,5,5,5,5,5,6,6,6,6,6,6,6,6,6,6,6,7,7,8,8,8,8,8,9,10,10,12
participant_1_BUY,[],"[1056, 2003, 3340, 2003]",[],[],[1027],[],[],[],[3802],[],[],[1026],[],[],[],[6655],[],[],[],[1058],[],[],[],[],[1058],[3089],[],[],[],[1033],[],[3140],[],[],[],[],[],[3020],[],[],[4630],[],[],[],[],[3135],[]
participant_1_SOLD,[],[],[],"[2010, 2003, 2003]",[],[2010],[],[2010],[1027],[],[],[],[],[],[],"[3802, 1026]",[],[],[],[],[],[],[],[],[],"[1058, 1058]",[],[],[],[],[],[1033],[],[],[],[],[],[],[],[],[],[],[],[],[],[4630],[]
participant_1_UNDO,[],[],[],[],[],[],[],[],[],[],[],[],[],[],[],[],[],[],[],[],[],[],[],[],[],[],[],[],[],[],[],[],[],[],[],[],[],[],[],[],[],[],[],[],[],[],[]
participant_2_GOLD,500,500,584,783,906,1203,1497,2052,2244,2695,3029,3331,3631,3949,4299,4696,4947,5421,6031,6229,6575,6740,7038,7202,7325,7810,7933,8271,8531,8772,8965,9088,9455,9694,9845,9988,10410,10561,10958,11570,11741,11913,12110,12979,13806,14183,15129
participant_2_CURRENTGOLD,500,0,84,283,56,343,627,1182,424,875,1199,651,951,1269,1609,756,1007,1481,2091,1039,1385,1550,1848,2012,885,70,193,531,791,582,776,48,415,655,805,949,1371,421,818,1431,352,523,721,1589,2417,1544,2529
participant_2_LEVEL,1,1,1,3,3,4,5,6,7,8,8,9,9,9,10,10,10,10,11,11,12,12,12,12,12,13,13,13,14,14,14,14,14,14,14,15,15,15,15,16,16,16,16,17,18,18,18
participant_2_MINIONSKILLED,0,0,4,9,9,17,25,33,37,39,49,52,54,56,66,66,70,74,78,78,84,87,94,97,97,101,101,110,114,114,114,114,122,125,127,128,128,130,130,134,137,140,140,144,150,157,159
participant_2_KILLS,0,0,0,0,0,0,0,0,1,1,1,1,1,1,1,1,1,1,2,3,3,4,4,4,4,4,4,4,5,5,6,6,6,7,7,7,7,7,7,7,7,7,7,7,7,7,7
participant_2_BUY,[],"[3850, 2055, 3340, 2003, 2003]",[],[],[],"[1052, 2055]","[2003, 2003]",[],[],[],[],[],[],"[3802, 1026, 2055, 2055, 2003, 2003]",[],[],[],[],[],[],"[6655, 3111, 3020]",[],[],[],"[2420, 1052]",[],"[3191, 3364]",[],[],[3157],[],[3140],[],[],[],[],[1011],[],[],[1026],[],[],[],[3116],[],[],[]
participant_2_SOLD,[],[],[],[2003],[2003],[],[2055],"[2003, 2003]",[3850],[],[],[],[],"[3851, 1052]",[2055],[],[2003],[],[2003],[2055],"[3802, 1026]",[],[],[],[],[],"[1052, 3340]",[],[],"[2420, 3191, 2421]",[],[],[],[],[],[],[],[],[],[3853],[],[],[],"[1026, 1011]",[],[],[]
participant_2_UNDO,[],"[[0, 2055]]",[],[],[],[],[],[],[],[],[],[],[],[],[],[],[],[],[],[],"[[0, 3111]]",[],[],[],[],[],[],[],[],[],[],[],[],[],[],[],[],[],[],[],[],[],[],[],[],[],[]
participant_3_GOLD,500,500,591,832,1095,1336,1627,1861,2213,2441,3005,3509,3652,3930,4136,4525,4875,5257,5788,6790,7123,7792,8397,8651,8944,9171,9585,9732,10139,10680,10953,11201,11980,12313,12534,12840,14599,14896,15018,16121,16821,16964,17452,18190,19043,20086,20919
participant_3_CURRENTGOLD,500,0,91,332,595,836,1127,1361,1713,241,805,1309,202,480,36,425,775,232,763,1765,198,867,597,851,169,321,736,882,419,961,1234,181,961,1294,214,521,1380,477,599,1701,2402,1445,1933,471,1324,2367,3019
participant_3_LEVEL,1,1,1,2,3,4,4,5,6,6,7,7,7,8,8,9,9,10,10,11,11,12,12,12,12,13,13,13,14,14,14,14,15,15,15,15,16,17,17,18,18,18,18,18,18,18,18
participant_3_MINIONSKILLED,0,0,4,11,20,24,34,41,51,57,66,76,77,83,88,95,104,114,118,129,131,146,156,160,160,167,176,176,185,198,198,201,206,208,214,217,225,232,232,245,256,257,260,265,275,281,288
participant_3_KILLS,0,0,0,0,0,0,0,0,0,0,1,1,1,1,1,1,1,1,1,3,3,3,4,4,4,4,4,4,4,4,4,4,4,4,4,4,6,6,6,7,8,8,9,10,10,12,13
participant_3_BUY,[],"[1055, 2003, 3340]",[],[],[],[],[],[],[],"[6670, 1036, 2003]",[],[],"[1018, 1053, 2003, 2003]",[],"[6673, 2003]",[],[],"[3006, 2003, 2003, 2055]",[],[],"[1038, 1018]",[],[1037],[],"[3031, 1036]",[2055],[],[],"[3123, 1018]",[],[],"[3086, 3033]",[],[],[1038],[],[1053],[3072],[],[],[],[3133],[],[3071],[],[],[]
participant_3_SOLD,[],[],[],[],"[2010, 2003]",[2010],[],[2010],[],[],[2003],[],"[1036, 2003]",[2003],"[6670, 1018, 1053]",[],[2003],[2422],[],[2003],[],[2055],[],[],"[1038, 1037, 1018]",[],[],[2055],"[1036, 1055]",[],[],"[1018, 3123, 3086]",[],[],[],[],[],"[1038, 1053]",[],[],[],[],[],[3133],[],[],[]
participant_3_UNDO,[],[],[],[],[],[],[],[],[],[],[],[],[],[],[],[],[],"[[0, 2003]]",[],[],[],[],[],[],[],[],[],[],[],[],[],[],[],[],[],[],[],[],[],[],[],[],[],[],[],[],[]
participant_4_GOLD,500,500,563,837,1072,1206,1341,1629,2188,2429,2777,2997,3218,3438,3578,3729,3869,4120,4949,5407,5736,6177,6667,6808,6948,7088,7229,7369,8538,8797,9221,9362,9552,9992,10237,10620,10761,10911,11107,11444,11566,11745,11942,12198,12620,13218,13626
participant_4_CURRENTGOLD,500,0,63,337,572,196,231,519,1078,1319,1667,1887,2108,363,503,654,794,1045,1874,2332,312,752,1242,1383,438,579,254,394,1563,872,1297,137,327,768,1012,1396,636,786,983,629,752,930,1128,133,556,1154,1401
participant_4_LEVEL,1,1,1,2,3,3,4,5,5,6,6,7,7,7,7,8,8,9,9,10,10,11,11,11,11,11,11,11,12,12,12,12,13,13,13,13,13,14,14,15,15,15,15,16,16,17,18
participant_4_MINIONSKILLED,0,0,0,0,0,0,0,1,1,2,3,3,3,3,3,3,3,4,4,5,6,6,6,6,6,6,6,6,8,8,9,9,9,9,11,17,17,18,22,22,22,26,26,26,26,28,29
participant_4_KILLS,0,0,0,0,0,0,0,0,0,0,0,0,1,1,1,1,1,2,2,2,2,2,2,2,2,2,2,2,2,3,3,3,3,3,3,3,3,3,3,3,3,3,3,4,4,4,4
participant_4_BUY,[],"[1054, 2003]",[],[],[],[],[],[],[],[],"[6660, 1029, 1033, 1001]",[],[],[],[3211],[],[1033],[3105],[],[],[3068],[],[],[1028],[],[],[],[3065],[],[],[3076],[1028],[],[1011],[],[],[],[3075],[1042],[],[],[3006],[],[3044],[],[1037],[]
participant_4_SOLD,[],[],[],[],[],[],[],[2003],[],[],[],[],[],[],[1033],[],[],"[1033, 1029]",[],[],"[6660, 3105]",[],[],[],[],[],[],"[3211, 1028]",[],[],[],[],[],[1028],[],[],[],"[3076, 1011]",[],[],[],"[1001, 1042]",[],[],[],[1054],[]
participant_4_UNDO,[],[],[],[],[],[],[],[],[],[],[],[],[],[],[],[],[],[],[],[],[],[],[],[],[],[],[],[],[],[],[],[],[],[],[],[],[],[],[],[],[],[],[],[],[],[],[]
participant_5_GOLD,500,500,584,790,1050,1298,1519,1725,2007,2214,2399,2688,3308,3716,4164,4669,5455,6030,6152,6745,6944,7659,7994,8411,10009,10472,11048,11701,11956,12266,13015,13752,14027,14663,14961,15204,15572,15864,16198,16372,16589,16711,17001,17208,17480,17790,17864
participant_5_CURRENTGOLD,500,0,84,290,250,498,719,925,1207,1414,99,288,908,1316,14,519,1305,180,302,45,244,959,859,461,2059,873,163,817,351,662,1410,2147,758,1394,442,685,1052,1345,1679,1853,2070,2192,2482,139,412,221,114
participant_5_LEVEL,1,1,1,2,4,5,5,6,7,7,8,8,9,9,10,10,11,12,12,12,12,13,13,13,14,15,15,15,15,16,16,17,17,17,17,17,17,18,18,18,18,18,18,18,18,18,18
participant_5_MINIONSKILLED,0,0,3,8,14,18,24,29,35,40,44,51,53,60,66,70,79,87,87,87,92,104,108,108,114,115,123,133,136,143,153,159,164,165,169,175,175,175,177,177,177,177,183,183,183,189,189
participant_5_KILLS,0,0,0,0,0,1,1,1,1,1,1,1,1,2,3,3,3,3,3,3,3,3,3,3,3,3,3,3,3,3,3,4,4,4,4,5,5,6,6,6,6,7,7,7,7,7,7
participant_5_BUY,[],"[1036, 2031, 3340]",[],[],[],[],"[3134, 1036]",[],[],[1036],[],"[3133, 1001]",[],[],[],[],"[6691, 1033]",[],[3111],[],[],[],"[1036, 1036]",[],[3134],[],[],[],"[1036, 1028]",[],[],[3814],[1036],[1036],[3134],[],[1036],[],[],[3133],[],[],"[3179, 2420]",[],[1029],[],[1031]
participant_5_SOLD,[],[],[],[],[],[],[1036],[],[],[],[],"[1036, 1036]",[],[],[],[],"[3134, 3133]",[],"[1001, 1033]",[],[],[],[],[],"[1036, 1036]",[],[],[],[],[],[],"[1036, 3134, 1028]",[],[],"[1036, 1036]",[],[],[],[],[1036],[],[],"[3134, 3133]",[],[2031],[],[1029]
participant_5_UNDO,[],[],[],[],[],[],[],[],[],[],[],[],[],[],[],[],[],[],[],[],[],[],[],[],[],[],[],[],[],[],[],[],[],[],[],[],[],[],[],[],[],[],[],[],[],[],[]
participant_6_GOLD,500,500,621,948,1206,1603,1803,2023,2316,2729,2951,3538,3838,4045,4503,4925,5540,5767,5914,6357,6629,6858,7270,7538,8535,8658,9015,9339,9482,9764,10107,10419,10746,11138,11549,11987,12228,12476,12783,13183,13928,14404,14526,14698,15036,15357,15432
participant_6_CURRENTGOLD,500,0,121,448,706,1103,1303,1523,1816,2229,151,738,138,345,793,1215,1830,2057,304,747,1019,1248,1660,1928,2925,148,505,829,972,354,697,1009,437,829,1240,1678,1918,2167,974,1374,2119,2595,2717,1250,1137,408,432
participant_6_LEVEL,1,1,2,3,3,4,4,5,5,6,6,7,8,8,8,9,10,10,10,11,11,12,12,12,13,13,13,13,13,14,14,14,15,15,15,16,16,16,17,17,18,18,18,18,18,18,18
participant_6_MINIONSKILLED,0,0,0,0,0,0,0,3,3,3,3,4,6,6,10,10,11,11,11,11,14,15,17,17,17,17,17,20,21,21,21,21,21,21,22,24,27,27,27,33,36,36,36,36,40,40,40
participant_6_KILLS,0,0,0,0,0,0,0,0,0,0,0,1,1,1,1,2,3,3,3,3,3,3,3,3,4,4,4,4,4,4,4,4,4,4,4,4,4,4,4,4,6,6,6,6,6,6,6
participant_6_BUY,[],"[1035, 2003, 2031, 3340]",[],[],[],[],[],[],[],[],"[3066, 1031, 1028, 1001]",[],[3742],[],[],[],[],[],"[3047, 3044]",[],[],[],[],[],[],"[3053, 1057]",[],[],[],[1011],[],[],[3001],[],[],[],[],[],[3105],[],[],[],[],[3068],[1033],[3105],[]
participant_6_SOLD,[],[],[],[],[],[],[],[],[],[1035],[],[],"[3066, 1028, 1031]",[],[],[],[],[],[1001],[],[],[],[],[],[],[3044],[],[],[],[],[],[],"[1011, 1057]",[],[],[],[],[],[],[],[],[],[],"[3105, 2031]",[],[1033],[]
participant_6_UNDO,[],"[[0, 2003]]",[],[],[],[],[],[],[],[],[],[],[],[],[],[],[],[],[],[],[],[],[],[],[],[],[],[],[],[],[],[],[],[],[],[],[],[],[],[],[],[],[],[],[],[],[]
participant_7_GOLD,500,500,584,741,913,1433,1689,1909,2163,2400,2648,2862,3005,3455,3948,4070,4313,4463,4641,4764,4900,5236,5536,5746,5919,6222,6462,6585,6707,6851,7169,7873,8296,8468,8640,8982,9105,9527,9663,9987,10503,10933,11055,11228,11364,11647,11721
participant_7_CURRENTGOLD,500,0,84,241,413,933,89,309,553,430,678,192,335,785,1278,1400,193,343,171,294,430,766,366,576,348,652,892,1015,387,530,849,503,576,398,170,512,285,707,844,417,933,1364,236,408,305,587,121
participant_7_LEVEL,1,1,1,2,3,4,5,6,6,6,7,8,8,9,9,9,9,10,10,10,10,11,11,11,11,12,12,12,12,12,13,13,14,14,14,14,15,15,15,15,16,16,16,16,16,17,17
participant_7_MINIONSKILLED,0,0,3,5,8,14,22,28,33,37,44,50,51,53,57,57,61,63,66,66,67,71,73,76,76,82,85,85,85,86,93,99,113,113,113,114,114,114,115,115,127,127,127,127,128,133,133
participant_7_KILLS,0,0,0,0,0,0,0,0,0,0,0,0,1,1,1,2,2,3,3,4,4,5,5,6,8,9,10,11,11,11,12,12,12,13,13,13,13,13,13,13,13,13,13,13,13,13,13
participant_7_BUY,[],"[1054, 2003, 3340]",[],[],[1001],[],[],[],[],[],"[3145, 1028, 2003]","[2003, 2003]",[],[],[3152],[],[],"[3111, 1011]",[],[1026],[],[],[1052],[4637],[],"[3916, 1026]","[3165, 1052]",[],[1011],[],[],[],[3116],[],[1058],[],[],[],[],[],[],[],[],[3089],[],[2139],[]
participant_7_SOLD,[],[],[],[2003],[],[],[],[],[],[],[],[],[2003],"[2003, 2003]","[3145, 1028]",[],[],[1001],[],[],[],[],[],"[1026, 1011, 1052]",[],[],"[1026, 3916]",[],[1054],[],[],[],"[1011, 1052]",[],[],[],[],[],[],[],[],[],[],[1058],[],[2139],[]
participant_7_UNDO,[],[],[],[],[],[],[],[],[],[],[],[],[],[],[],[],[],[],[],[],[],[],[],[],[],[],[],[],[],[],[],[],[],[],[],[],[],[],[],[],[],[],[],[],[],[],[]
participant_8_GOLD,500,500,542,783,1029,1291,1526,1896,2150,2399,2705,3064,3442,4011,4306,4505,4846,4982,5613,6113,6395,6581,7062,7315,8619,8742,9091,9869,10076,11108,11681,12414,12836,14072,14327,14944,15751,15874,16647,17166,18154,18599,18923,19371,19807,20443,20567
participant_8_CURRENTGOLD,500,0,42,283,79,341,576,946,100,274,10,369,747,1316,286,485,826,112,43,143,425,611,492,745,2049,172,521,1299,1507,538,1111,1845,272,1508,538,855,762,884,1658,177,1165,1610,1934,2382,2818,3454,3347
participant_8_LEVEL,1,1,1,2,3,3,4,5,5,5,6,6,7,8,8,8,9,9,10,10,10,11,11,11,12,12,13,13,13,14,15,15,15,16,16,17,17,17,17,17,18,18,18,18,18,18,18
participant_8_MINIONSKILLED,0,0,1,7,12,18,24,35,40,47,55,65,76,84,91,95,105,106,114,119,124,128,141,141,152,152,159,167,167,175,175,180,180,184,188,195,197,197,204,205,212,222,229,229,230,240,243
participant_8_KILLS,0,0,0,0,0,0,0,0,0,0,0,0,0,0,0,0,0,0,0,0,0,0,0,0,0,0,0,0,0,0,0,0,0,0,0,0,0,0,0,0,0,0,0,0,0,0,0
participant_8_BUY,[],"[3850, 2003, 2003, 3340]",[],[],[],[],"[1052, 2055, 3364]",[],"[1052, 2031]",[],"[2055, 2055]",[],[],[],"[3802, 1001, 2055]",[],[],[1026],[],[],[],[],"[2055, 2055]",[],[],[6656],[],[],[],[],"[3009, 2420]",[1029],[],[],[3191],[],[],[3157],[],"[2055, 2055]",[],[1004],[],[],"[3114, 1033]",[],[]
participant_8_SOLD,[],[],[],[],"[2010, 2003]","[2010, 2003]",[3340],[2010],[],[2055],[2055],[],[3850],[],"[1052, 1052]",[],[2055],[2055],[],[],[],[],[],"[2055, 2055, 3851]",[],"[3802, 1026]",[],[],[],[],[1001],[],[2420],[],[1029],[],[],"[2031, 3853, 3191, 2421]",[],[],[],[],[],[],[1004],[],[]
participant_8_UNDO,[],[],[],[],[],[],[],[],[],[],[],[],[],[],[],[],[],[],[],[],[],[],[],[],[],[],[],[],[],[],[],[],[],[],[],[],[],[],[],[],[],[],[],[],[],[],[]
participant_9_GOLD,500,500,523,751,926,1121,1256,1484,1658,1863,1997,2186,2392,2702,2842,3043,3313,3454,3784,4094,4235,4395,4585,4756,5146,5312,5466,5730,5870,6114,6404,6595,6735,7000,7203,7405,7620,7744,7883,8056,8389,8511,8724,8896,9067,9204,9327
participant_9_CURRENTGOLD,500,0,23,251,426,621,246,474,63,268,252,441,647,957,292,493,763,84,414,724,865,1025,1065,1236,1626,542,696,960,1101,1344,384,275,415,681,284,485,700,94,233,256,589,462,674,847,18,154,27
participant_9_LEVEL,1,1,1,2,3,4,4,5,5,6,6,6,7,7,7,7,8,8,8,9,9,9,9,10,10,10,11,11,11,12,12,12,12,13,13,13,14,14,14,14,15,15,15,15,15,15,16
participant_9_MINIONSKILLED,0,0,0,1,1,2,2,3,3,4,4,5,5,5,5,5,5,5,5,5,5,5,5,6,6,6,7,8,8,10,10,10,10,10,10,13,13,13,13,13,14,14,15,15,18,19,22
participant_9_KILLS,0,0,0,0,0,0,0,0,0,0,0,0,0,1,1,1,1,1,2,3,3,3,3,3,4,4,4,5,5,7,8,9,10,13,13,14,16,16,17,18,19,19,19,20,21,21,21
participant_9_BUY,[],"[2003, 1055]",[],[],"[1001, 2003, 2003, 2003]",[],[],[],[3134],[2055],[3009],[],[],[],"[1053, 1036, 2055]",[],[],[6692],"[1036, 1036]",[3134],[],[],[1018],[],[],"[6676, 2015]",[],[],[],[3094],[],[],"[1038, 1037]",[],[3031],[1042],[3086],[],[],"[3033, 2140]",[],[],[],[],[],[],[]
participant_9_SOLD,[],[],[],[2003],[],[],[],[],[2003],[],"[2003, 2003, 2055, 1001]",[],[],[2003],[],[],[2055],"[3134, 1036, 1053]",[],"[1036, 1036]",[],[],[],[],[],"[3134, 1018]",[],[],[],[2015],[],[],[1055],[],"[1038, 1037]",[],[1042],[],[],"[3086, 2140]",[],[],[],[],[],[],[]
participant_9_UNDO,[],[],[],[],[],[],[],[],[],[],"[[2003, 0]]",[],[],[],[],[],[],[],[],[],[],[],[],[],[],[],[],[],[],[],[],[],[],[],[],[],[],[],[],[],[],[],[],[],[],[],[]
team0_KILLS,0,0,0,1,1,1,1,2,3,4,5,6,7,7,7,8,9,11,15,19,19,20,21,21,22,23,23,23,24,25,26,26,26,27,27,27,31,31,32,35,36,36,37,41,42,44,47
team0_CURRENTGOLD,2500,0,380,2175,2846,3630,4827,4668,5500,4626,4179,5118,4313,3563,3349,3448,2881,3296,5265,6491,3298,5093,4351,4881,1991,2136,3138,2888,4673,3735,4468,1567,2591,3446,3025,4140,4891,2694,2951,6463,4843,3401,4753,3584,7044,8071,10063
team0_TOTALGOLD,2500,2500,2880,4675,5696,7000,8307,9748,11530,12956,14569,16358,17678,18893,20139,21488,22946,25036,28105,30581,32337,34133,36041,36971,38091,39611,41077,42077,44733,46434,47965,48916,50640,51992,52874,53987,57488,58591,59698,63901,65429,66189,67538,70920,74379,77352,79888
team0_LEVEL,5,5,6,13,15,20,23,27,31,33,34,38,38,40,42,45,46,49,51,54,56,58,59,59,59,62,62,63,67,67,67,68,70,71,71,72,74,77,77,81,82,82,83,86,88,89,90
team0_SBIRES,0,0,8,24,37,58,85,103,129,147,167,185,194,211,230,241,255,276,285,297,310,333,352,359,359,379,396,409,431,447,458,469,484,490,501,513,522,537,545,576,590,599,611,621,646,661,671
team1_KILLS,0,0,0,0,0,1,1,1,1,1,1,2,3,5,6,8,9,10,11,13,13,14,14,15,19,20,21,23,23,25,27,29,30,34,34,36,38,39,40,41,44,45,45,46,47,47,47
team1_CURRENTGOLD,2500,0,354,1513,1874,3496,2933,4177,3739,4615,1190,2028,2775,4719,2663,4112,4917,2776,1234,1953,2983,4609,4442,4946,9007,2387,2777,4920,4318,3428,4451,5779,2458,4810,2674,4215,4717,5197,5388,4077,6876,8223,8043,5026,4690,4824,4041
team1_TOTALGOLD,2500,2500,2854,4013,5124,6746,7793,9037,10294,11605,12700,14338,15985,17929,19763,21212,23467,24696,26104,28073,29103,30729,32447,33766,38228,39406,41082,43224,44091,46103,48376,51053,52640,55341,56680,58522,60276,61485,63174,64764,67563,69158,70229,71401,72754,74441,74911
team1_LEVEL,5,5,6,11,16,20,22,27,28,30,33,35,39,41,42,43,47,49,50,52,52,56,56,57,60,62,64,64,64,68,70,71,73,75,75,77,79,80,81,81,85,85,85,85,85,86,87
team1_SBIRES,0,0,7,21,35,52,72,98,114,131,150,175,191,208,229,237,261,272,283,288,302,323,344,348,365,372,391,413,417,435,452,469,488,493,502,521,526,526,536,543,566,576,590,590,599,621,627
delta_KILLS,0,0,0,1,1,0,0,1,2,3,4,4,4,2,1,0,0,1,4,6,6,6,7,6,3,3,2,0,1,0,-1,-3,-4,-7,-7,-9,-7,-8,-8,-6,-8,-9,-8,-5,-5,-3,0
delta_CURRENTGOLD,0,0,26,662,972,134,1894,491,1761,11,2989,3090,1538,-1156,686,-664,-2036,520,4031,4538,315,484,-91,-65,-7016,-251,361,-2032,355,307,17,-4212,133,-1364,351,-75,174,-2503,-2437,2386,-2033,-4822,-3290,-1442,2354,3247,6022
delta_TOTALGOLD,0,0,26,662,572,254,514,711,1236,1351,1869,2020,1693,964,376,276,-521,340,2001,2508,3234,3404,3594,3205,-137,205,-5,-1147,642,331,-411,-2137,-2000,-3349,-3806,-4535,-2788,-2894,-3476,-863,-2134,-2969,-2691,-481,1625,2911,4977
delta_LEVEL,0,0,0,2,-1,0,1,0,3,3,1,3,-1,-1,0,2,-1,0,1,2,4,2,3,2,-1,0,-2,-1,3,-1,-3,-3,-3,-4,-4,-5,-5,-3,-4,0,-3,-3,-2,1,3,3,3
delta_SBIRES,0,0,1,3,2,6,13,5,15,16,17,10,3,3,1,4,-6,4,2,9,8,10,8,11,-6,7,5,-4,14,12,6,0,-4,-3,-1,-8,-4,11,9,33,24,23,21,31,47,40,44
