name,frame_0,frame_1,frame_2,frame_3,frame_4,frame_5,frame_6,frame_7,frame_8,frame_9,frame_10,frame_11,frame_12,frame_13,frame_14,frame_15,frame_16,frame_17,frame_18,frame_19,frame_20,frame_21,frame_22,frame_23,frame_24,frame_25,frame_26,frame_27,frame_28
nameStamp,Tstart,Tearly,Tearly,Tearly,Tearly,Tearly,Tearly,Tearly,Tearly,Tearly,Tearly,Tearly,Tearly,Tearly,Tearly,Tmid,Tmid,Tmid,Tmid,Tmid,Tmid,Tmid,Tmid,Tmid,Tmid,Tend,Tend,Tend,Tend
timestamp,0,60023,120050,180080,240106,300131,360152,420173,480191,540211,600236,660264,720283,780312,840330,900354,960372,1020378,1080399,1140430,1200457,1260469,1320486,1380498,1440519,1500523,1560549,1620550,1680550
participant_0_GOLD,500,500,628,762,1072,1360,1606,1832,2006,2174,2329,2625,3030,3479,4057,4341,5193,5363,5678,6230,6385,6746,6886,7316,7772,8443,8889,9030,9420
participant_0_CURRENTGOLD,500,0,128,187,497,785,1031,7,181,274,429,50,455,469,1047,66,918,38,352,905,260,231,371,801,137,808,1254,245,545
participant_0_LEVEL,1,1,1,1,3,4,5,6,7,7,7,8,8,8,9,9,10,10,10,11,11,11,12,12,13,13,13,14,14
participant_0_MINIONSKILLED,0,0,0,0,9,15,23,25,28,32,33,39,39,39,40,40,44,45,48,48,48,48,48,49,49,51,51,51,52
participant_0_KILLS,0,0,0,0,0,0,0,0,0,0,0,0,0,1,2,2,4,4,4,4,4,4,4,4,4,5,5,5,5
participant_0_BUY,[],"[3850, 2003, 2003, 3340]",[],[2055],[],[],[],"[3028, 2031, 1001]",[],[2055],[],"[3158, 2055]",[],[1052],[],"[3174, 1029, 1028, 3364]",[],"[3114, 3801]",[],[],"[3107, 2055, 2055]",[1033],[],[],"[3028, 3114]",[],[],"[3222, 2420]",[]
participant_0_SOLD,[],[],[],[],[2003],[],[],"[2055, 2003]",[],[],[2055],[1001],[2055],[],[],"[1052, 3028, 3340]",[3850],[1028],[],[],"[3114, 3801]",[2031],[],[2055],"[1033, 2055]",[],[3851],"[3028, 3114]",[2420]
participant_0_UNDO,[],[],[],[],[],[],[],[],[],[],[],[],[],[],[],"[[0, 1029]]",[],[],[],[],[],[],[],[],[],[],[],[],[]
participant_1_GOLD,500,500,621,948,1462,2104,2312,2630,3280,3942,5029,5766,6348,6608,7477,8134,8985,9268,9894,10718,11132,11704,12071,12960,13538,14003,14569,14993,15531
participant_1_CURRENTGOLD,500,0,121,448,962,1604,162,480,1130,67,1154,716,1298,283,1152,184,1035,218,844,1668,932,1504,1021,1911,538,713,754,1179,1656
participant_1_LEVEL,1,1,2,3,3,4,4,5,6,6,7,8,9,9,10,10,10,11,12,12,12,12,13,13,14,14,15,15,16
participant_1_MINIONSKILLED,0,0,0,0,1,1,1,1,6,7,7,8,8,8,9,9,10,10,11,11,14,15,15,21,23,23,31,37,45
participant_1_KILLS,0,0,0,1,1,1,1,1,1,2,2,2,3,3,3,3,3,3,3,4,4,4,4,4,4,4,4,4,6
participant_1_BUY,[],"[3850, 2003, 2003, 3340]",[],[],"[1001, 1052]",[],"[1029, 1052]",[],[3108],[],"[3117, 2055]",[1029],"[3191, 2055, 3364]",[],[],"[3157, 2055]",[1029],"[1028, 1006]",[],[],"[3801, 3114]",[],"[3107, 1033]",[],"[3105, 2055, 2055]",[],[],[3190],[]
participant_1_SOLD,[],[],[],[2003],[2003],[],[],[],[1052],[2419],"[1001, 2055]",[2423],"[3850, 1029, 1052, 3340]",[2055],[],"[3191, 3108, 2424, 2055]",[],[],[],[3851],"[1028, 1006]",[],"[3114, 3801]",[],"[1033, 1029]",[2055],[],[3105],[2055]
participant_1_UNDO,[],[],[],[],[],[],"[[0, 1029]]",[],[],[],[],[],[],[],[],[],[],[],[],[],[],[],[],[],[],[],[],[],[]
participant_2_GOLD,500,500,598,906,1277,1661,2039,2615,3291,3674,4258,4588,4752,5126,5743,5866,6548,7190,8080,8686,9135,10815,11105,11690,12176,12969,13888,14095,15538
participant_2_CURRENTGOLD,500,0,98,406,777,211,589,1165,241,624,1208,138,152,526,1143,466,298,940,1830,186,635,2315,766,1351,86,879,1798,416,1638
participant_2_LEVEL,1,1,1,3,4,5,6,6,8,8,9,9,10,10,11,11,11,12,13,13,14,14,15,15,16,17,17,17,18
participant_2_MINIONSKILLED,0,0,4,12,18,22,34,43,56,68,77,85,87,92,105,105,106,113,125,131,143,153,157,167,171,192,201,201,216
participant_2_KILLS,0,0,0,0,0,0,0,1,2,2,3,3,3,3,3,3,4,5,6,6,6,10,10,11,11,12,13,13,15
participant_2_BUY,[],"[2003, 2003, 1056, 3340]",[],[],[],"[3070, 2003, 2003]",[],[],"[1001, 3802]",[],[],"[3003, 1082]",[2031],[],[],[3020],[1026],[],[],[3151],[],[],"[3041, 1026]",[],[3116],[],[],"[1058, 2139]",[]
participant_2_SOLD,[],[],[2003],[2003],[],[],[],[],[2003],[2003],[],"[3070, 3802]",[],[],[],[1001],[],[3003],[],[1026],[],[],"[1082, 2031]",[],[1026],[],[],"[1056, 2139]",[]
participant_2_UNDO,[],[],[],[],[],[],[],[],[],[],[],[],[],[],[],[],[],[],[],[],[],[],[],[],[],[],[],[],[]
participant_3_GOLD,500,500,545,867,1003,1199,1412,1988,2207,2738,3055,3177,3389,3997,4714,4947,5335,5828,6187,6626,6909,7136,7650,8194,8956,9219,9951,10225,10602
participant_3_CURRENTGOLD,500,0,45,237,373,219,432,558,277,808,525,647,859,652,1369,577,965,1458,1067,1506,1789,216,730,54,816,1079,1811,885,942
participant_3_LEVEL,1,1,1,2,2,3,3,3,4,5,5,5,6,7,8,8,9,10,10,11,11,11,12,12,13,13,14,14,14
participant_3_MINIONSKILLED,0,0,1,5,6,10,15,15,16,26,28,28,33,39,51,57,65,77,83,93,101,101,114,115,124,132,134,138,144
participant_3_KILLS,0,0,0,0,0,0,0,1,1,1,1,1,1,2,2,2,2,2,2,2,2,2,2,2,2,2,3,3,3
participant_3_BUY,[],"[1055, 3340, 2003]",[],[2031],[],[1027],[],[1083],[3070],[],[3009],[],[],[1037],[],"[3004, 1036]",[],[],[3134],[],[],[3814],[],"[3363, 3086]",[],[],[],[3094],[]
participant_3_SOLD,[],[],[],[2003],[],[],[],[],"[2010, 1027]",[],[2422],[],[],"[2031, 2010, 2010]",[],"[3070, 1037]",[],[],[1036],[],[],[3134],[],"[1083, 3340]",[],[],[],"[3086, 3004]",[]
participant_3_UNDO,[],[],[],[],[],[],[],[],[],[],[],[],[],"[[2031, 0]]",[],[],[],[],[],[],[],[],[],[],[],[],[],[],[]
participant_4_GOLD,500,500,598,1077,1307,1543,1708,2107,2361,2988,3302,3480,3950,4215,4484,4639,5272,5412,5877,6552,6798,7134,7274,7639,8079,8414,8806,9001,9815
participant_4_CURRENTGOLD,500,0,98,577,72,308,38,437,226,853,392,270,300,565,834,264,597,187,652,1327,673,1009,49,414,354,689,1081,176,990
participant_4_LEVEL,1,1,1,1,3,3,4,5,5,6,6,7,7,8,8,8,8,8,9,10,10,11,11,11,12,12,12,13,14
participant_4_MINIONSKILLED,0,0,0,0,3,7,7,12,12,15,15,17,17,19,19,19,19,19,19,19,21,24,24,25,25,28,28,29,29
participant_4_KILLS,0,0,0,0,1,2,2,2,3,4,6,8,9,9,11,12,14,14,14,16,17,18,19,21,21,22,23,23,24
participant_4_BUY,[],"[1041, 2031, 3340, 3364]",[],[],[],[],"[3706, 1001, 1036, 1036]",[],[],"[1400, 3111]",[],"[3134, 2055]",[],"[1037, 1028]",[],"[3814, 3134]",[],[3133],[],[],"[3142, 1033]",[],[3155],[],[3156],[1036],[1037],[],[]
participant_4_SOLD,[],[3340],[],[],[],[],[1041],[],[],"[1036, 1036, 3706, 1001]",[],[],[2055],[],[],"[1037, 3134, 1028]",[],[],[],[],"[3133, 3134]",[],[1033],[],[3155],[2031],[],[],[]
participant_4_UNDO,[],[],[],[],[],[],[],[],[],[],[],[],[],[],[],[],[],[],[],[],[],[],[],[],[],[],"[[0, 1036]]",[],[]
participant_5_GOLD,500,500,584,902,1193,1490,1718,1875,2046,2458,2835,3187,3644,3878,5083,5353,5526,6240,6412,6991,7127,7345,7690,7854,8180,8344,8795,8918,9189
participant_5_CURRENTGOLD,500,0,84,402,693,40,268,125,296,708,1085,437,894,328,1533,1803,126,840,162,741,127,345,340,154,480,94,546,668,939
participant_5_LEVEL,1,1,1,3,4,5,5,6,6,7,7,8,8,9,9,10,10,11,11,12,12,12,12,12,13,13,14,14,14
participant_5_MINIONSKILLED,0,0,3,15,24,32,38,40,43,57,67,77,87,94,108,112,112,131,131,146,147,147,156,159,171,174,189,189,194
participant_5_KILLS,0,0,0,0,0,0,1,1,3,3,3,3,4,4,5,5,6,6,6,6,6,6,6,7,7,7,7,7,7
participant_5_BUY,[],"[1055, 2003]",[],[],[],[1037],[],[],[],"[3004, 1036, 2003]",[1033],[],"[1038, 3363]",[],[],"[3111, 3133]",[3508],[2055],[1042],[],[],[3086],[],[],"[3094, 2055]",[],[],[1038],[]
participant_5_SOLD,[],[],[2003],[],[2010],[2010],[],[2010],[],[1037],[],[],"[2003, 3340]",[],[],"[1033, 2422, 1036]","[1038, 3133]",[],[2055],[],[],[1042],[],[],"[3004, 3086]",[2055],[],[],[]
participant_5_UNDO,[],[],[],[],[],[],[],[],[],[],[],[],[],[],[],[],[],[],[],[],[],[],[],[],[],[],[],[],[]
participant_6_GOLD,500,500,621,963,1583,1840,2153,2380,2722,3135,3337,3550,3757,4119,4292,4633,5051,5363,5725,5848,6160,6283,6701,6823,6946,8088,8517,8829,8954
participant_6_CURRENTGOLD,500,0,121,463,1083,340,653,880,1222,1635,162,375,182,19,42,383,801,313,675,798,410,533,551,323,446,1588,717,339,54
participant_6_LEVEL,1,1,2,3,4,4,5,5,6,6,7,7,7,8,8,8,9,9,10,10,10,10,11,11,11,11,12,12,12
participant_6_MINIONSKILLED,0,0,0,0,0,0,0,0,0,0,0,0,0,0,0,6,6,6,6,6,6,6,6,6,6,6,6,6,7
participant_6_KILLS,0,0,0,1,1,2,2,2,2,3,4,5,5,6,7,8,8,8,8,8,8,9,9,9,9,9,10,10,10
participant_6_BUY,[],"[3850, 2003, 2003, 3340]",[],"[1052, 2055]",[],[],[],"[1026, 1052, 2055, 2003]",[],[3802],"[1001, 1052]",[],"[3364, 3285]",[],[3020],"[1052, 1028, 2055, 2055]",[],[],[],[1026],[],[3135],[],"[1052, 2055, 2055]",[],[],[],[],[1058]
participant_6_SOLD,[],[],[],[2003],[2055],[2003],[],[],[],"[1052, 1052]",[2003],"[2055, 3850]","[1052, 3340, 3802, 1026]",[],[1001],[2055],[],[],[],[2055],[],"[3851, 1028, 1026, 1052]",[],[],[],[],[],[2055],[2055]
participant_6_UNDO,[],[],[],[],[],[],[],[],[],[],[],[],[],[],[],[],[],[],[],[],[],[],[],[],[],[],[],[],[]
participant_7_GOLD,500,500,626,948,1347,1600,2081,2420,3238,3495,3765,4210,5067,5343,6028,6378,7127,7434,7794,7925,8408,8580,8838,9651,10163,10627,10882,11485,11589
participant_7_CURRENTGOLD,500,0,126,448,847,255,736,1075,1893,225,45,490,47,323,1008,258,107,339,399,530,1013,85,343,1156,393,857,1112,416,489
participant_7_LEVEL,1,1,1,3,4,5,5,6,7,7,8,8,9,9,10,10,11,11,11,11,12,12,12,13,14,14,14,15,15
participant_7_MINIONSKILLED,0,0,6,15,22,29,34,47,50,55,63,67,72,81,84,88,98,103,107,107,122,123,123,136,136,146,149,163,163
participant_7_KILLS,0,0,0,0,0,0,0,0,0,0,0,0,0,0,0,0,0,0,0,0,0,0,0,0,0,0,0,0,0
participant_7_BUY,[],"[1055, 2003, 3340]",[],[],[],"[1053, 2003]",[],[1001],[],[],[],"[3144, 1042]",[],"[3111, 3047]",[],[],"[3153, 1033]",[],[3155],[],"[1033, 1029]",[],[3105],[1036],[],"[1053, 1053]",[],[],[]
participant_7_SOLD,[],[],[],[],[2003],[],[],[2003],[],[],[],[1053],[],"[1001, 1001]",[],[],"[3144, 1042]",[],[1033],[],[],[],"[1033, 1029]",[],[],"[1036, 1036]",[],[],[]
participant_7_UNDO,[],[],[],[],[],[],[],[],[],[],[],[],[],"[[0, 3111]]",[],[],[],[],[],[],[],[],[],[],[],"[[0, 1053]]",[],[],[]
participant_8_GOLD,500,500,521,888,1136,1654,2423,2668,3229,3592,3885,4413,4633,5308,5603,5873,6892,7118,7726,7848,8759,8956,9209,9332,9739,9861,10216,10470,10574
participant_8_CURRENTGOLD,500,0,21,388,636,1154,1923,2168,2729,342,635,1163,533,158,378,648,1667,293,901,1023,1934,881,1134,167,574,697,1051,205,149
participant_8_LEVEL,1,1,1,2,3,4,5,5,6,6,7,7,8,8,9,9,10,10,10,10,11,11,12,12,12,12,13,13,13
participant_8_MINIONSKILLED,0,0,0,5,12,23,35,37,43,49,50,62,68,78,82,87,100,102,116,116,123,123,131,131,138,138,153,157,157
participant_8_KILLS,0,0,0,0,0,0,1,1,1,1,1,1,1,1,1,1,2,2,2,2,3,3,3,3,3,3,3,3,3
participant_8_BUY,[],"[2003, 1056, 3340, 2003]",[],[],[],[],[],[],[],"[3802, 1001, 3020, 1082]",[],[],[1026],[3285],[2055],[],[],"[3916, 3363]",[],[],[],[1058],[],[1058],[],[],[],[3089],[]
participant_8_SOLD,[],[],[],[2003],[2003],[],[],[],[],[],[],[],[],"[3802, 1026]",[],[],[],"[3340, 2055]",[],[],[],[],[],[1056],[],[],[],"[1058, 1058]",[]
participant_8_UNDO,[],[],[],[],[],[],[],[],[],"[[0, 1001]]",[],[],[],[],[],[],[],[],[],[],[],[],[],[],[],[],[],[],[]
participant_9_GOLD,500,500,553,1147,1357,1812,2141,2472,2801,3295,3730,4283,4516,5115,5830,6270,6511,6707,7027,7213,7661,8102,8485,8725,9074,9215,9656,9855,9974
participant_9_CURRENTGOLD,500,0,53,137,347,802,1131,52,381,445,144,698,185,784,699,155,395,592,912,277,726,81,464,120,469,609,1051,1249,-496
participant_9_LEVEL,1,1,1,1,1,3,4,4,4,5,5,6,6,6,7,8,8,8,9,9,9,10,10,10,11,11,11,12,12
participant_9_MINIONSKILLED,0,0,0,0,0,1,2,5,6,6,6,8,10,11,11,11,11,14,17,17,23,23,28,28,37,37,37,40,40
participant_9_KILLS,0,0,0,0,1,1,1,1,1,1,1,1,1,1,1,1,1,1,1,1,1,1,1,1,1,2,2,2,2
participant_9_BUY,[],"[3340, 1041, 2031]",[],[],[],"[3715, 1036]",[],[],[],[],"[1412, 1036, 3077, 1036, 1036]",[],[3133],[1412],"[2055, 2055]",[],[],[3111],[],[],"[1036, 1036]",[3133],[3134],[1036],[],[],"[3179, 1036]",[3134],[1036]
participant_9_SOLD,[],[],[],[],[],[1041],[],[],[],[],"[1036, 3715, 1036]",[],"[1036, 1036]","[3133, 3715]",[],[2055],[],[2422],[2055],[],[],"[1036, 1036]","[1036, 1036]",[],[],[],"[3134, 1036]","[2031, 1036]",[]
participant_9_UNDO,[],[],[],[],[],[],[],[],[],[],"[[0, 1036], [0, 1412]]",[],[],[],[],[],[],[],[],[],[],"[[0, 3133]]",[],[],[],[],[],[],[]
team0_KILLS,0,0,0,1,2,3,3,5,7,9,12,14,16,18,21,22,27,28,29,32,33,38,39,42,42,45,48,48,53
team0_CURRENTGOLD,2500,0,490,1855,2681,3127,2252,2647,2055,2626,3708,1821,3064,2495,5545,1557,3813,2841,4745,5592,4289,5275,2937,4531,1931,4168,6698,2901,5771
team0_TOTALGOLD,2500,2500,2990,4560,6121,7867,9077,11172,13145,15516,17973,19636,21469,23425,26475,27927,31333,33061,35716,38812,40359,43535,44986,47799,50521,53048,56103,57344,60906
team0_LEVEL,5,5,6,10,15,19,22,25,30,32,34,37,40,42,46,46,48,51,54,57,58,59,63,63,68,69,71,73,76
team0_SBIRES,0,0,5,17,37,55,80,96,118,148,160,177,184,197,224,230,244,264,286,302,327,341,358,377,392,426,445,456,486
team1_KILLS,0,0,0,1,2,3,5,5,7,8,9,10,11,12,14,15,17,17,17,17,18,19,19,20,20,21,22,22,22
team1_CURRENTGOLD,2500,0,405,1838,3606,2591,4711,4300,6521,3355,2071,3163,1841,1612,3660,3247,3096,2377,3049,3369,4210,1925,2832,1920,2362,3845,4477,2877,1135
team1_TOTALGOLD,2500,2500,2905,4848,6616,8396,10516,11815,14036,15975,17552,19643,21617,23763,26836,28507,31107,32862,34684,35825,38115,39266,40923,42385,44102,46135,48066,49557,50280
team1_LEVEL,5,5,6,12,16,21,24,26,29,31,34,36,38,40,43,45,48,49,51,52,54,55,57,58,61,61,64,66,66
team1_SBIRES,0,0,9,35,58,85,109,129,142,167,186,214,237,264,285,304,327,356,377,392,421,422,444,460,488,501,534,555,561
delta_KILLS,0,0,0,0,0,0,-2,0,0,1,3,4,5,6,7,7,10,11,12,15,15,19,20,22,22,24,26,26,31
delta_CURRENTGOLD,0,0,85,17,-925,536,-2459,-1653,-4466,-729,1637,-1342,1223,883,1885,-1690,717,464,1696,2223,79,3350,105,2611,-431,323,2221,24,4636
delta_TOTALGOLD,0,0,85,-288,-495,-529,-1439,-643,-891,-459,421,-7,-148,-338,-361,-580,226,199,1032,2987,2244,4269,4063,5414,6419,6913,8037,7787,10626
delta_LEVEL,0,0,0,-2,-1,-2,-2,-1,1,1,0,1,2,2,3,1,0,2,3,5,4,4,6,5,7,8,7,7,10
delta_SBIRES,0,0,-4,-18,-21,-30,-29,-33,-24,-19,-26,-37,-53,-67,-61,-74,-83,-92,-91,-90,-94,-81,-86,-83,-96,-75,-89,-99,-75
