name,team0,team1
win,Win,Fail
firstBlood,False,True
firstTower,False,True
firstInhibitor,True,False
firstBaron,True,False
firstDragon,True,False
firstRiftHerald,False,True
towerKills,9,4
inhibitorKills,2,0
baronKills,1,1
dragonKills,3,1
riftHeraldKills,0,1
