name,team0,team1
win,Fail,Win
firstBlood,False,True
firstTower,False,True
firstInhibitor,False,True
firstBaron,False,True
firstDragon,False,True
firstRiftHerald,False,True
towerKills,3,9
inhibitorKills,0,2
baronKills,0,1
dragonKills,2,4
riftHeraldKills,0,1
