name,frame_0,frame_1,frame_2,frame_3,frame_4,frame_5,frame_6,frame_7,frame_8,frame_9,frame_10,frame_11,frame_12,frame_13,frame_14,frame_15,frame_16,frame_17,frame_18,frame_19,frame_20,frame_21,frame_22,frame_23,frame_24,frame_25,frame_26,frame_27,frame_28
nameStamp,Tstart,Tearly,Tearly,Tearly,Tearly,Tearly,Tearly,Tearly,Tearly,Tearly,Tearly,Tearly,Tearly,Tmid,Tmid,Tmid,Tmid,Tmid,Tmid,Tmid,Tmid,Tmid,Tmid,Tend,Tend,Tend,Tend,Tend,Tend
timestamp,0,60032,120062,180088,240089,300119,360150,420178,480202,540220,600234,660263,720270,780271,840288,900321,960346,1020369,1080396,1140403,1200421,1260427,1320435,1380462,1440489,1500519,1560528,1620534,1680534
participant_0_GOLD,500,500,584,895,1246,1466,1865,2029,2381,2602,2724,3062,3381,3796,4224,5564,6093,6243,6620,7292,7469,8494,9243,9973,10171,10393,10668,10973,11401
participant_0_CURRENTGOLD,500,0,84,395,746,46,445,79,431,652,374,712,1031,1446,124,664,793,93,395,312,489,1514,2263,378,576,98,299,603,851
participant_0_LEVEL,1,1,1,3,4,4,6,6,7,7,7,8,8,9,9,11,11,11,12,12,12,13,14,14,14,14,15,15,16
participant_0_MINIONSKILLED,0,0,3,14,25,30,43,46,56,61,61,70,79,87,101,111,119,121,127,127,130,137,148,159,159,159,164,171,174
participant_0_KILLS,0,0,0,0,2,2,2,2,3,3,4,5,5,5,6,6,7,7,7,7,7,7,7,7,8,8,8,8,9
participant_0_BUY,[],"[1055, 3340, 2003]",[],[],[],"[1036, 1042, 1042, 1036]",[],[],[],"[6670, 3006, 1018]",[],[],[6672],[],[],[3086],[],"[2015, 3094]",[],[],[1018],[],[1037],[],[],[1038],[],[3031],[]
participant_0_SOLD,[],[],[],[2003],[],[],[],[],[],"[1036, 1042, 1036]",[],[],"[1055, 6670, 1018]",[],[],[],[],"[3086, 2015]",[],[],[],[],[],[],[],[],[],"[1038, 1037, 1018]",[]
participant_0_UNDO,[],[],[],[],[],"[[0, 1042]]",[],[],[],[],[],[],[],[],[],[],[],[],[],[],[],[],[],[],[],[],[],[],[]
participant_1_GOLD,500,500,621,854,1062,1361,1754,1931,2153,2582,2944,3278,4467,4837,5059,5267,5963,6335,6563,7404,7762,8285,8898,9292,9916,10138,10260,10484,12098
participant_1_CURRENTGOLD,500,150,271,154,287,586,979,206,428,847,34,368,1557,402,324,532,1228,300,528,1369,27,550,288,682,1306,328,451,674,1398
participant_1_LEVEL,1,1,2,2,3,3,4,4,5,6,6,7,8,8,9,9,10,10,10,11,12,12,13,13,14,14,14,14,15
participant_1_MINIONSKILLED,0,0,0,0,0,0,0,0,0,2,2,2,4,4,4,4,4,4,4,11,11,11,12,13,15,15,15,15,15
participant_1_KILLS,0,0,0,0,0,0,0,0,0,0,1,1,2,2,2,2,3,3,3,4,4,4,4,4,5,5,5,5,8
participant_1_BUY,[],[1035],[],[1036],[2055],[],[],[6670],[],[],"[1037, 1001]",[],[],"[1042, 6672]",[1029],[],[],"[3047, 6677, 1042]",[],[],[3124],[],"[1031, 2055]",[],[],"[1028, 3066, 1028]",[],[],[3742]
participant_1_SOLD,[],[],[],[],[],[],[],[1036],[2055],[1035],[],[],"[3340, 3513]","[6670, 1037]",[],[],[],"[1001, 1029, 1042]",[],[],"[6677, 1042]",[],[],[2055],[],[1028],[],[],"[3066, 1028, 1031]"
participant_1_UNDO,[],[],[],[],[],[],[],[],[],[],[],[],[],[],[],[],[],[],[],[],[],[],[],[],[],[],[],[],[]
participant_2_GOLD,500,500,626,927,1553,1850,2186,2687,3692,3871,4251,4436,5271,5784,5991,6232,6467,6764,7144,7382,7700,8443,9040,9572,9979,10501,10638,10761,11129
participant_2_CURRENTGOLD,500,0,126,417,1043,280,606,157,1152,31,411,196,1031,744,51,292,527,824,1204,542,860,1603,1150,1682,2089,272,408,531,779
participant_2_LEVEL,1,1,1,3,4,5,6,7,8,8,9,9,10,10,10,11,11,12,12,12,13,13,14,14,14,15,15,15,15
participant_2_MINIONSKILLED,0,0,6,13,25,33,43,49,62,65,71,75,82,88,93,100,104,110,121,121,133,134,140,142,143,143,144,144,152
participant_2_KILLS,0,0,0,0,0,0,0,0,0,0,0,0,0,0,0,2,2,2,3,4,4,6,6,6,6,6,6,6,6
participant_2_BUY,[],"[1054, 1055, 2003, 3340]",[],[],[],"[1052, 1052, 2003]",[],"[3145, 1001, 2003]",[],[],[1028],[],[],[],[3152],[3020],[1028],[1026],[2055],"[1011, 1052]",[],[],[],"[4637, 3191, 3108]",[],[3157],[2055],[],[]
participant_2_SOLD,[],[],[],[],[],[2003],[],"[2003, 1052, 1052]",[],[2003],[],[],[],[],"[3145, 1028]",[1001],[],[],[],"[1028, 1055]",[],[],[],"[1026, 1011, 1052]",[],"[2055, 3191, 3108]",[],[2055],[]
participant_2_UNDO,[],"[[0, 1054]]",[],[],[],[],[],[],[],[],[],[],[],[],[],[],[],[],[],[],[],[],[],[],[],[],[],[],[]
participant_3_GOLD,500,500,563,825,1686,1836,2209,2450,3202,3538,3961,4664,4906,5210,5904,6111,6988,7563,7685,8209,8421,8735,9548,9928,10619,10842,11049,11374,11930
participant_3_CURRENTGOLD,500,0,63,325,1186,336,709,950,1702,38,461,1164,86,390,1084,90,967,43,165,689,301,615,554,933,1625,547,754,455,830
participant_3_LEVEL,1,1,1,2,2,3,4,4,5,6,6,7,7,7,8,8,9,10,10,11,11,11,13,13,13,13,13,14,14
participant_3_MINIONSKILLED,0,0,2,10,15,17,27,34,45,50,56,63,67,68,80,85,97,105,105,113,114,117,128,132,134,134,134,141,144
participant_3_KILLS,0,0,0,0,0,0,0,0,1,2,2,2,3,3,3,3,3,6,8,8,8,8,9,9,10,10,10,10,11
participant_3_BUY,[],"[3850, 3340, 2003, 2003]",[],[],"[1052, 1052]",[],[],"[3802, 2003]",[],"[3108, 1001, 3364, 2055]",[],[3020],[],[],[],"[2055, 2055, 6653]",[],[3108],[],[3157],[],[],[],[],[],"[1011, 1026]",[],[4637],[]
participant_3_SOLD,[],[],[],"[2003, 2003]",[],[],[],"[1052, 1052]","[2003, 3850, 2419]",[3340],[],"[2423, 1001]",[],"[2055, 3851]",[],"[3802, 3108]",[],[],[2055],"[3108, 2424]",[2055],[],[],[],[],[],[],"[1026, 1011]",[]
participant_3_UNDO,[],[],[],[],[],[],[],[],[],[],[],[],[],[],[],[],[],[],[],[],[],[],[],[],[],[],[],[],[]
participant_4_GOLD,500,500,583,857,1391,1603,1837,1971,2784,3184,3506,3999,4610,4902,5223,5364,5663,6703,7484,7674,7854,8100,8915,9344,10039,10280,10450,10652,11293
participant_4_CURRENTGOLD,500,0,83,357,21,233,467,121,934,59,381,74,685,977,1298,89,388,528,1309,149,329,575,1390,1819,2514,1005,1175,127,768
participant_4_LEVEL,1,1,1,1,2,4,4,4,5,6,6,7,8,8,8,9,9,10,11,11,11,11,12,12,13,13,13,13,14
participant_4_MINIONSKILLED,0,0,0,0,0,5,5,5,6,6,7,9,15,20,21,21,22,22,23,23,23,24,24,25,29,29,30,32,41
participant_4_KILLS,0,0,0,0,1,1,1,2,3,3,3,3,3,4,4,4,4,4,4,4,4,6,6,7,8,9,9,9,9
participant_4_BUY,[],"[1056, 2003, 3340, 2003]",[],[],[],[3145],[],"[1026, 2003, 2003, 2003]",[],[3152],[],"[1001, 2003, 2003]",[],[3020],[3191],[],[],[],[],[3108],[],[],"[3157, 1082]",[],[],"[1058, 1058]",[],[],[]
participant_4_SOLD,[],[],[],[2003],[],[],[2003],[],"[2003, 2003]","[3145, 1026]",[],[],[2003],"[1001, 2003]",[],[],[],[],[],[],[],[],"[3191, 3108]",[],[],[1056],[],[],[]
participant_4_UNDO,[],[],[],[],[],[],[],"[[0, 2003]]",[],[],[],[],[],[],[],[],[],[],[],[],[],[],[],[],[],[],[],[],[]
participant_5_GOLD,500,500,584,976,1211,1508,1708,2360,2795,3222,3853,4190,4642,4848,5220,5552,6352,7091,7436,7749,7976,8099,8419,8878,9001,9165,9921,10316,10740
participant_5_CURRENTGOLD,500,0,84,476,711,1008,308,960,45,472,1103,1040,1492,198,570,402,1202,41,386,699,926,1049,1369,428,151,315,1072,241,665
participant_5_LEVEL,1,1,1,3,4,5,5,7,7,8,9,9,10,10,10,11,11,12,12,12,13,13,13,13,13,13,14,14,15
participant_5_MINIONSKILLED,0,0,3,16,22,32,36,49,55,68,79,84,100,105,116,124,131,140,149,149,156,156,160,171,171,173,174,179,179
participant_5_KILLS,0,0,0,1,2,3,3,3,3,4,4,5,6,7,7,7,9,10,11,11,12,12,12,12,12,16,17,17,17
participant_5_BUY,[],"[1035, 2031]",[],[],[],[],"[1001, 3134, 3364, 1036, 1036]",[],[],[],[],"[6692, 3047]",[],[],[],"[3134, 1037, 1018]",[],"[6676, 3123, 1036, 1028]",[],[3133],[],[6609],[1018],[],[],[],[],"[3072, 1038]",[]
participant_5_SOLD,[],[],[],[],[],[],[3340],[],[],[1035],[],"[3134, 1036, 1036, 1001]",[],[],[],[],[],"[3134, 1037, 1018, 2031]",[],[1036],[],"[3123, 1028, 3133]",[],[],[],[],[],[1018],[]
participant_5_UNDO,[],[],[],[],[],[],[],[],[],[],[],[],[],[],[],[],[],[],[],[],[],[],[],[],[],[],[],[],[]
participant_6_GOLD,500,500,621,1272,1792,2674,2920,3096,3576,4602,4824,5431,6480,7108,7663,7785,9155,9597,10291,10488,11082,11226,11572,11934,12087,14578,15511,15923,16048
participant_6_CURRENTGOLD,500,0,121,772,1292,2174,320,496,976,2002,2224,631,1670,2298,2843,390,1760,287,981,428,1023,766,512,875,1027,3519,4452,764,848
participant_6_LEVEL,1,1,2,2,3,4,5,5,6,7,7,8,8,9,9,9,10,11,11,11,12,12,12,13,13,13,14,15,15
participant_6_MINIONSKILLED,0,0,0,0,0,0,0,3,7,8,8,9,13,14,28,28,31,31,32,32,34,35,41,48,49,53,58,62,63
participant_6_KILLS,0,0,0,0,0,0,0,0,0,0,1,2,2,2,2,2,2,2,2,2,2,2,2,2,2,2,2,2,2
participant_6_BUY,[],"[1054, 2003, 3340]",[],[],"[1052, 2031]",[],[],[3145],[],[],"[1026, 1028]",[],[3152],[],[3158],[],[3108],[1029],[],[],[],"[3191, 3157]",[],[1052],[3916],[1028],[],[],[3165]
participant_6_SOLD,[],[],[2003],[],[],[],[],[1052],[],[],[],[],"[3145, 1028, 1026]",[],[2422],[],[],[],[],[],[],"[1029, 2031, 3191, 3108]",[],[],[1052],[],[],[],"[3916, 1028]"
participant_6_UNDO,[],[],[],[],[],[],[],[],[],[],[],[],[],[],[],[],[],[],[],[],[],[],[],[],[],[],[],[],[]
participant_7_GOLD,500,500,612,983,1176,1508,1774,1980,2151,2789,3288,3942,4127,4561,4705,5072,5668,5923,6212,6481,6820,6964,7353,7476,7940,8505,8875,9431,9700
participant_7_CURRENTGOLD,500,0,112,473,81,403,659,250,421,1049,298,952,237,671,215,582,278,233,522,791,1130,34,423,111,210,375,745,1301,250
participant_7_LEVEL,1,1,1,3,4,5,5,6,6,7,8,9,9,10,10,10,11,11,12,12,12,12,13,13,13,14,14,15,15
participant_7_MINIONSKILLED,0,0,5,17,21,31,36,41,44,53,58,71,75,84,85,95,103,111,116,125,133,134,144,144,160,164,173,185,186
participant_7_KILLS,0,0,0,0,0,0,0,1,1,1,1,1,1,1,1,1,1,2,2,2,2,2,2,2,2,2,3,3,4
participant_7_BUY,[],"[1055, 3340, 2003]",[],[],[],[],[1053],[],"[1036, 1036, 1036, 1001]",[],[],[3134],[],"[6692, 1029, 1036]",[],[3047],[],"[3133, 3067, 1036]",[],[],[],[],[],"[3071, 1036]",[1028],[],[],"[3044, 1037]",[]
participant_7_SOLD,[],[],[],[],[],[],[],[2003],[],[],[],"[1036, 1036]",[],"[3134, 1036, 1053]",[],"[1001, 1029]",[],[1036],[],[],[],[],[],"[3133, 3067, 1036]",[],[],[],"[1028, 1036]",[]
participant_7_UNDO,[],[],[],[],[],[],[],[],[],[],[],[],[],[],[],[],[],[],[],[],[],[],[],[],[],[],[],[],[]
participant_8_GOLD,500,500,584,901,1101,1447,1695,1972,2136,2301,2656,2883,3301,3521,3886,4092,4328,4790,4912,6330,6494,6819,7411,7610,7796,8349,9128,9523,9702
participant_8_CURRENTGOLD,500,0,84,401,126,472,720,997,161,326,681,608,151,371,736,267,503,965,112,780,269,594,236,435,21,574,328,48,227
participant_8_LEVEL,1,1,1,2,3,4,4,5,5,5,6,6,7,7,8,8,8,9,9,10,10,10,11,11,11,12,13,13,13
participant_8_MINIONSKILLED,0,0,3,10,14,24,31,40,43,45,56,62,70,76,86,91,92,108,108,115,117,124,129,133,137,149,152,156,156
participant_8_KILLS,0,0,0,0,0,0,0,0,1,1,1,1,1,1,1,1,1,1,1,1,1,1,1,1,1,1,1,1,1
participant_8_BUY,[],"[3850, 2003, 2003]",[],[],"[1001, 1004, 2031, 2055]",[],[],[],"[4642, 2055, 3364]",[],[],[1028],[],[],[3067],[3117],[],[3067],[4005],"[1004, 2055]",[],[],[3114],[],[],[],[1057],"[2055, 2055]",[]
participant_8_SOLD,[],[],[],"[2003, 2003]",[],[],[2055],[3850],[3340],[],[],[],[],[2055],[1028],[1001],[3851],[1028],"[3067, 4642]",[],[2055],[],[1004],[],[],[],[],"[2031, 2055]",[]
participant_8_UNDO,[],[],[],[],"[[0, 1004]]",[],[],[],[],[],[],[],[],[],[],"[[0, 3067]]",[],[],[],[],[],[],[],[],[],[],[],[],[]
participant_9_GOLD,500,500,543,900,1115,1269,1503,1739,2228,2368,2618,2800,3055,3245,3436,3596,4180,4470,4686,4901,5223,5364,5554,5704,5845,6135,6425,6692,6811
participant_9_CURRENTGOLD,500,0,43,400,90,244,478,714,78,218,469,250,505,696,486,346,930,820,186,76,398,539,179,329,470,760,151,327,386
participant_9_LEVEL,1,1,1,2,2,2,3,3,4,5,5,5,6,6,7,7,8,8,9,9,10,10,10,10,10,12,12,12,12
participant_9_MINIONSKILLED,0,0,0,0,0,0,0,1,2,2,3,4,4,5,5,5,6,6,6,6,9,9,9,9,9,9,9,9,9
participant_9_KILLS,0,0,0,0,0,0,0,0,0,0,0,0,0,0,0,0,0,0,0,2,2,2,2,2,2,2,3,3,3
participant_9_BUY,[],"[1055, 2003]",[],[],"[1036, 2003, 2055]",[],[],[],"[6670, 2003]",[],[],[1001],[1037],[],[],"[1018, 2055]",[],[],"[6671, 1036]",[3134],"[3009, 3363, 2055]",[],"[1037, 2055]",[],[1018],[],"[6676, 1018]","[3086, 2055]",[]
participant_9_SOLD,[],[],[2003],[],[],[2055],[2003],[],[1036],[],[2003],[],[],[],[],[],[],[2055],"[6670, 1018, 1037]",[1036],"[1001, 3340]",[2055],[2055],[],[],[],"[3134, 1037, 1018]",[1018],[]
participant_9_UNDO,[],[],[],[],[],[],[],[],[],[],[],[],[],[],[],[],[],[],[],[],[],[],[],[],[],[],[],[],[]
team0_KILLS,0,0,0,0,3,3,3,4,7,8,10,11,13,14,15,17,19,22,25,27,27,31,32,33,37,38,38,38,43
team0_CURRENTGOLD,2500,150,627,1648,3283,1481,3206,1513,4647,1627,1661,2514,4390,3959,2881,1667,3903,1788,3601,3061,2006,4857,5645,5494,8110,2250,3087,2390,4626
team0_TOTALGOLD,2500,2500,2977,4358,6938,8116,9851,11068,14212,15777,17386,19439,22635,24529,26401,28538,31174,33608,35496,37961,39206,42057,45644,48109,50724,52154,53065,54244,57851
team0_LEVEL,5,5,6,11,15,19,24,25,30,33,34,38,41,42,44,48,50,53,55,57,59,60,66,66,68,69,70,71,74
team0_SBIRES,0,0,11,37,65,85,118,134,169,184,197,219,247,267,299,321,346,362,380,395,411,423,452,471,480,480,487,503,526
team1_KILLS,0,0,0,1,2,3,3,4,5,6,7,9,10,11,11,11,13,15,16,18,19,19,19,19,19,23,26,26,27
team1_CURRENTGOLD,2500,0,444,2522,2300,4301,2485,3417,1681,4067,4775,3481,4055,4234,4850,1987,4673,2346,2187,2774,3746,2982,2719,2178,1879,5543,6748,2681,2376
team1_TOTALGOLD,2500,2500,2944,5032,6395,8406,9600,11147,12886,15282,17239,19246,21605,23283,24910,26097,29683,31871,33537,35949,37595,38472,40309,41602,42669,46732,49860,51885,53001
team1_LEVEL,5,5,6,12,16,20,22,26,28,32,35,37,40,42,44,45,48,51,53,54,57,57,59,60,60,64,67,69,70
team1_SBIRES,0,0,11,43,57,87,103,134,151,176,204,230,262,284,320,343,363,396,411,427,449,458,483,505,526,548,566,591,593
delta_KILLS,0,0,0,-1,1,0,0,0,2,2,3,2,3,3,4,6,6,7,9,9,8,12,13,14,18,15,12,12,16
delta_CURRENTGOLD,0,150,183,-874,983,-2820,721,-1904,2966,-2440,-3114,-967,335,-275,-1969,-320,-770,-558,1414,287,-1740,1875,2926,3316,6231,-3293,-3661,-291,2250
delta_TOTALGOLD,0,0,33,-674,543,-290,251,-79,1326,495,147,193,1030,1246,1491,2441,1491,1737,1959,2012,1611,3585,5335,6507,8055,5422,3205,2359,4850
delta_LEVEL,0,0,0,-1,-1,-1,2,-1,2,1,-1,1,1,0,0,3,2,2,2,3,2,3,7,6,8,5,3,2,4
delta_SBIRES,0,0,0,-6,8,-2,15,0,18,8,-7,-11,-15,-17,-21,-22,-17,-34,-31,-32,-38,-35,-31,-34,-46,-68,-79,-88,-67
