name,frame_0,frame_1,frame_2,frame_3,frame_4,frame_5,frame_6,frame_7,frame_8,frame_9,frame_10,frame_11,frame_12,frame_13,frame_14,frame_15,frame_16,frame_17,frame_18,frame_19,frame_20,frame_21
nameStamp,Tstart,Tearly,Tearly,Tearly,Tearly,Tearly,Tearly,Tearly,Tearly,Tearly,Tearly,Tearly,Tearly,Tmid,Tmid,Tmid,Tmid,Tmid,Tmid,Tmid,Tmid,Tmid
timestamp,0,60002,120023,180044,240048,300059,360070,420081,480101,540115,600146,660165,720194,780201,840217,900235,960253,1020277,1080300,1140325,1200352,1260352
participant_0_GOLD,500,500,555,864,1120,1382,1725,1917,2227,2436,2635,2984,4242,4456,4779,4952,5250,6101,6364,6487,6609,6683
participant_0_CURRENTGOLD,500,0,55,364,270,532,875,167,477,261,460,509,1767,206,529,702,300,1151,264,387,509,583
participant_0_LEVEL,1,1,1,3,4,5,6,6,7,7,8,8,9,9,9,10,10,11,11,11,11,11
participant_0_MINIONSKILLED,0,0,2,10,18,24,34,38,46,48,52,56,63,65,73,75,85,87,92,92,92,92
participant_0_KILLS,0,0,0,0,0,0,0,0,0,0,0,0,0,0,0,0,0,1,1,1,1,1
participant_0_BUY,[],"[3854, 2003, 3340, 2003]",[],[2003],[],[],[],"[1001, 1028, 2055, 2003, 2003]",[],[],"[3067, 2055, 2003, 2003]",[1029],[],[2055],[],"[3117, 3009, 2055]",[3364],[3024],[],[],[],[]
participant_0_SOLD,[],[],"[2003, 2003]",[2010],[],[],"[2003, 2010]",[2010],"[2055, 2003, 2003]",[],[1028],"[2419, 2003, 2003, 2423]",[],[3854],[2055],"[1001, 1001]",[3340],[1029],[],[],[],[]
participant_0_UNDO,[],[],[],[],[],[],[],[],[],[],[],[],[],[],[],"[[0, 3117]]",[],[],[],[],[],[]
participant_1_GOLD,500,500,620,743,1043,1370,1939,2296,2513,3028,3334,3927,4671,4897,5628,6718,6981,8083,8355,8739,8912,8985
participant_1_CURRENTGOLD,500,0,120,243,543,870,1439,846,263,778,1084,777,1521,172,903,118,381,1483,515,399,572,585
participant_1_LEVEL,1,1,2,2,3,4,5,6,6,7,7,8,9,9,9,10,10,11,11,11,12,12
participant_1_MINIONSKILLED,0,0,0,0,0,2,9,9,10,11,16,16,18,21,29,34,35,41,41,41,51,51
participant_1_KILLS,0,0,0,0,0,0,0,0,0,0,0,0,0,1,1,1,2,2,3,3,3,3
participant_1_BUY,[],"[1036, 2031, 3340]",[],[],[],"[3123, 1036, 2055]",[],[1036],[],[],"[1053, 2055]",[],[],"[3145, 3144, 3363, 2055]",[],[1001],[],[3146],[],"[3020, 1028]",[1052],[]
participant_1_SOLD,[],[],[],[],[],[1036],[],[2055],[],[],[1036],[2055],[],"[1053, 1036, 3340]",[],[],[],"[3144, 3145]",[],[1001],[2031],[]
participant_1_UNDO,[],[],[],[],[],[],[],[],[],[],[],[],[],[],[],[],[],[],[],[],[],[]
participant_2_GOLD,500,500,590,934,1148,1501,1638,1809,2184,2419,2562,2949,3374,3887,4080,4314,4856,5223,6154,6493,6615,6689
participant_2_CURRENTGOLD,500,0,90,434,648,126,263,84,459,694,212,599,1024,62,255,189,731,348,1279,418,165,179
participant_2_LEVEL,1,1,1,3,4,5,5,5,6,7,7,8,8,9,9,10,10,11,12,12,12,12
participant_2_MINIONSKILLED,0,0,4,15,20,30,31,34,45,52,53,65,76,81,85,92,99,106,114,122,122,122
participant_2_KILLS,0,0,0,0,0,0,0,0,0,0,0,0,0,0,0,0,0,0,0,0,0,0
participant_2_BUY,[],[2033],[],[],[1036],[],[],"[1053, 1036]",[],"[3144, 2055]",[],[1001],[],"[3153, 2055]",[],[],"[1028, 1042]",[],"[3044, 1042]",[],[],[]
participant_2_SOLD,[],[],[],[],[2010],[],[2010],"[2010, 1036]",[],"[1053, 1036]",[],[2055],[],[3144],[],[2055],[],[],[1028],[],[],[]
participant_2_UNDO,[],[],[],[],[],[],[],[],[],[],[],[],[],[],[],[],[],[],[],[],[],[]
participant_3_GOLD,500,500,520,699,1057,1312,1892,2063,2729,2987,3200,3510,3787,3986,4620,4770,5144,5507,6034,6360,6503,6883
participant_3_CURRENTGOLD,500,0,20,199,557,812,1392,113,779,1037,1250,360,637,436,1070,20,394,757,484,810,53,433
participant_3_LEVEL,1,1,1,1,2,3,4,4,5,5,6,6,7,7,7,7,8,9,9,10,10,10
participant_3_MINIONSKILLED,0,0,0,3,14,19,25,28,40,47,52,60,66,70,77,79,81,86,98,110,111,121
participant_3_KILLS,0,0,0,0,0,0,1,1,2,2,2,2,2,2,3,3,3,3,3,3,3,3
participant_3_BUY,[],"[1055, 2003]",[],[],[],[],[],"[2031, 1038]",[],[],[],"[3009, 1042]",[],[2015],[],"[1018, 3095]",[],[],"[1037, 1018, 3363]",[],"[3086, 1042]",[]
participant_3_SOLD,[],[],[],[2003],[],[],[],[],[],[],[],[],[],[1042],[],"[1038, 1018, 2015]",[],[],[3340],[],[1018],[]
participant_3_UNDO,[],[],[],[],[],[],[],[],[],[],[],[],[],[],[],[],[],[],"[[0, 1037]]",[],[],[]
participant_4_GOLD,500,500,522,678,915,1112,1477,1611,1905,2082,2237,2372,2628,2786,3052,3206,3347,3879,4174,4564,4704,4789
participant_4_CURRENTGOLD,500,0,22,128,365,562,927,186,480,657,237,72,328,411,677,156,297,229,524,914,1054,1139
participant_4_LEVEL,1,1,1,1,2,3,4,4,5,5,5,6,6,6,7,7,7,8,8,9,9,9
participant_4_MINIONSKILLED,0,0,0,1,4,5,7,7,8,10,11,11,14,15,16,17,17,20,22,28,28,28
participant_4_KILLS,0,0,0,0,0,0,0,0,0,0,0,1,1,1,1,2,2,4,4,4,4,4
participant_4_BUY,[],"[3340, 1039, 2031]",[],[3364],[],[],[],"[3706, 1001]",[3047],[],[],[3108],[],"[1402, 3024, 2055]",[],"[3110, 2055]",[],[],"[1011, 1029]",[1031],[],[]
participant_4_SOLD,[],[],[],[3340],[],[],[],[1039],[1001],[],[3364],[3513],[],"[3108, 3706]",[2055],[3024],[],[],"[2031, 2055]",[1029],[],[]
participant_4_UNDO,[],[],[],[],[],[],[],[],[],[],[],[],[],[],[],[],[],[],[],[],[],[]
participant_5_GOLD,500,500,562,811,1155,1424,1624,2272,2540,2824,3565,4187,4485,5878,6327,7553,7858,8579,9601,10085,11334,11660
participant_5_CURRENTGOLD,500,0,62,311,655,924,1124,22,290,574,1315,1037,285,1678,643,1870,225,946,1968,2452,3701,4027
participant_5_LEVEL,1,1,1,3,4,5,6,7,7,8,9,9,10,11,11,12,12,13,14,14,14,15
participant_5_MINIONSKILLED,0,0,2,9,19,25,29,38,43,52,69,76,83,94,109,119,121,142,153,159,167,172
participant_5_KILLS,0,0,0,0,0,0,0,1,1,1,2,2,2,3,3,5,5,5,6,6,8,8
participant_5_BUY,[],"[1054, 2003, 3340]",[],[],[],[],[],"[3006, 1036, 1042]",[],[],[],[3044],[3057],[],"[3078, 1036]",[],"[3133, 1053, 1029]",[],[],[],[],[]
participant_5_SOLD,[],[],[],[2003],[],[],[],[],[],[],[],[1036],[],[],"[1042, 3057, 3044]",[],[1036],[],[],[],[],[]
participant_5_UNDO,[],[],[],[],[],[],[],[],[],[],[],[],[],[],[],[],[],[],[],[],[],[]
participant_6_GOLD,500,500,520,1533,1741,1915,2131,2655,2988,3234,3356,3714,4079,5144,5657,6179,6704,7562,7834,8304,9097,9510
participant_6_CURRENTGOLD,500,0,20,1033,1241,340,556,1080,1413,1659,1781,439,804,1869,2382,704,1229,1037,109,579,1373,1785
participant_6_LEVEL,1,1,1,2,3,3,4,5,5,6,6,7,7,8,9,10,11,12,12,12,13,13
participant_6_MINIONSKILLED,0,0,0,0,0,1,1,4,8,8,8,8,8,16,16,16,23,23,23,29,33,37
participant_6_KILLS,0,0,0,2,2,2,2,3,3,3,3,3,3,5,5,6,6,8,8,8,9,9
participant_6_BUY,[],"[1039, 2031, 3364]",[],[],[],"[3706, 1036, 2055]",[],[],[],[],[],"[1400, 1036, 2055]",[],[],[],"[3134, 3133, 1036]",[],"[3147, 1036]","[3134, 3111]",[],[],[]
participant_6_SOLD,[],[3340],[],[],[],[1039],[2055],[],[],[],[],"[1036, 3706]",[2055],[],[],[1036],[],"[3134, 3133]","[3364, 1036, 1036, 2422]",[3513],[],[]
participant_6_UNDO,[],[],[],[],[],[],[],[],[],[],[],[],[],[],[],[],[],[],[],[],[],[]
participant_7_GOLD,500,500,541,829,1099,1361,1662,1931,2258,2493,2762,3093,3435,3806,4157,4867,5445,5638,6026,6325,6705,7108
participant_7_CURRENTGOLD,500,0,41,329,599,311,612,71,398,633,902,198,540,481,832,1542,185,378,301,600,980,1383
participant_7_LEVEL,1,1,1,3,4,5,5,6,7,7,7,8,9,9,10,11,11,11,11,12,12,13
participant_7_MINIONSKILLED,0,0,1,8,17,25,32,41,51,58,67,75,84,87,97,107,113,114,123,131,136,146
participant_7_KILLS,0,0,0,0,0,0,0,0,0,0,0,0,0,0,0,1,2,2,2,2,2,2
participant_7_BUY,[],"[1056, 2003, 2003, 3340]",[],[],[],"[1056, 2031]",[],"[1001, 1052, 2055]",[],[],[],"[3158, 1052, 3364]",[],[3802],[],[],"[3030, 1052]",[],[3108],[],[],[]
participant_7_SOLD,[],[],[2003],[],"[2010, 2003]",[],[2010],[2010],[2055],[],[],"[1001, 3340]",[],"[1052, 1052]",[],[],[3802],[],[1052],[],[],[]
participant_7_UNDO,[],[],[],[],[],[],[],[],[],[],[],[],[],[],[],[],[],[],[],[],[],[]
participant_8_GOLD,500,500,520,948,1277,1673,1942,2264,2456,3083,3440,4292,4640,5383,5921,6393,7112,7425,8072,8456,8990,9178
participant_8_CURRENTGOLD,500,0,20,448,777,1173,1442,189,31,658,1015,1867,640,1383,1921,193,912,325,972,1356,1890,2078
participant_8_LEVEL,1,1,1,2,3,4,4,5,5,6,6,7,8,8,9,9,10,10,10,11,11,11
participant_8_MINIONSKILLED,0,0,0,8,17,31,39,48,52,61,70,81,91,102,111,111,124,124,140,146,153,154
participant_8_KILLS,0,0,0,1,1,1,1,1,1,1,1,2,2,2,2,2,2,2,2,2,2,2
participant_8_BUY,[],"[3858, 2003, 2003, 3340]",[],"[1001, 1004]",[],[],[3028],[1004],[],[],[],[],"[3174, 3364, 2055]",[],[],"[3158, 1004, 2055, 2055]",[],"[3114, 1006]",[],[],[],[]
participant_8_SOLD,[],[],"[2003, 2003]",[2010],[],[],"[2010, 1004]",[],[],[2010],[],[3858],"[3028, 3340, 2055]",[],[],[1001],[],"[1004, 1004]",[],"[3859, 2055]",[2055],[]
participant_8_UNDO,[],[],[],[],[],[],[],[],[],[],[],[],[],[],[],[],[],[],[],[],[],[]
participant_9_GOLD,500,500,522,1043,1273,1470,1625,1781,1936,2335,2570,3089,3308,3759,4040,4231,4634,4937,5308,5598,6064,6248
participant_9_CURRENTGOLD,500,0,22,118,348,545,25,56,211,610,845,1364,208,659,940,256,659,262,633,923,1389,1573
participant_9_LEVEL,1,1,1,1,2,3,3,4,4,5,5,6,7,7,8,8,8,9,9,9,10,10
participant_9_MINIONSKILLED,0,0,0,1,4,5,6,7,8,11,12,15,16,18,21,21,25,28,31,31,31,31
participant_9_KILLS,0,0,0,0,0,0,0,0,0,1,1,2,2,3,4,5,5,6,6,6,6,6
participant_9_BUY,[],"[1055, 2003, 3340]",[],[],[],[],[],"[3006, 1036, 2055, 2003]",[1036],[],[],[],"[3144, 1042, 1042, 2055]",[],[],"[3153, 1018, 1042]",[],"[3086, 1042, 1042]",[],[],[],[]
participant_9_SOLD,[],[],[2003],[],[],[],"[2010, 2010]",[],[2055],[2010],[2003],[],"[1036, 1036, 2055]",[],[],"[3144, 1042, 1042]",[],"[1018, 1042]",[],[],[],[]
participant_9_UNDO,[],[],[],[],[],[],[],[],[],[],[],[],[],[],[],[],[],[],[],[],[],[]
team0_KILLS,0,0,0,0,0,0,1,1,2,2,2,3,3,4,5,6,7,10,11,11,11,11
team0_CURRENTGOLD,2500,0,307,1368,2383,2902,4896,1396,2458,3427,3243,2317,5277,1287,3434,1185,2103,3968,3066,2928,2353,2919
team0_TOTALGOLD,2500,2500,2807,3918,5283,6677,8671,9696,11558,12952,13968,15742,18702,20012,22159,23960,25578,28793,31081,32643,33343,34029
team0_LEVEL,5,5,6,10,15,20,24,25,29,31,33,36,39,40,41,44,45,50,51,53,54,54
team0_SBIRES,0,0,6,29,56,80,106,116,149,168,184,208,237,252,280,297,317,340,367,393,404,414
team1_KILLS,0,0,0,3,3,3,3,5,5,6,7,9,9,13,14,19,20,23,24,24,27,27
team1_CURRENTGOLD,2500,0,165,2239,3620,3293,3759,1418,2343,4134,5858,4905,2477,6070,6718,4565,3210,2948,3983,5910,9333,10846
team1_TOTALGOLD,2500,2500,2665,5164,6545,7843,8984,10903,12178,13969,15693,18375,19947,23970,26102,29223,31753,34141,36841,38768,42190,43704
team1_LEVEL,5,5,5,11,16,20,22,27,28,32,33,37,41,43,47,50,52,55,56,58,60,62
team1_SBIRES,0,0,3,26,57,87,107,138,162,190,226,255,282,317,354,374,406,431,470,496,520,540
delta_KILLS,0,0,0,-3,-3,-3,-2,-4,-3,-4,-5,-6,-6,-9,-9,-13,-13,-13,-13,-13,-16,-16
delta_CURRENTGOLD,0,0,142,-871,-1237,-391,1137,-22,115,-707,-2615,-2588,2800,-4783,-3284,-3380,-1107,1020,-917,-2982,-6980,-7927
delta_TOTALGOLD,0,0,142,-1246,-1262,-1166,-313,-1207,-620,-1017,-1725,-2633,-1245,-3958,-3943,-5263,-6175,-5348,-5760,-6125,-8847,-9675
delta_LEVEL,0,0,1,-1,-1,0,2,-2,1,-1,0,-1,-2,-3,-6,-6,-7,-5,-5,-5,-6,-8
delta_SBIRES,0,0,3,3,-1,-7,-1,-22,-13,-22,-42,-47,-45,-65,-74,-77,-89,-91,-103,-103,-116,-126
