name,team0,team1
win,Win,Fail
firstBlood,True,False
firstTower,False,True
firstInhibitor,True,False
firstBaron,True,False
firstDragon,True,False
firstRiftHerald,False,True
towerKills,7,4
inhibitorKills,2,0
baronKills,1,0
dragonKills,4,1
riftHeraldKills,0,1
