name,team0,team1
win,Win,Fail
firstBlood,True,False
firstTower,True,False
firstInhibitor,True,False
firstBaron,True,False
firstDragon,False,True
firstRiftHerald,True,False
towerKills,9,3
inhibitorKills,2,0
baronKills,1,0
dragonKills,1,2
riftHeraldKills,1,0
