name,frame_0,frame_1,frame_2,frame_3,frame_4,frame_5,frame_6,frame_7,frame_8,frame_9,frame_10,frame_11,frame_12,frame_13,frame_14,frame_15,frame_16,frame_17,frame_18,frame_19,frame_20,frame_21,frame_22,frame_23,frame_24,frame_25,frame_26,frame_27,frame_28,frame_29,frame_30,frame_31,frame_32
nameStamp,Tstart,Tearly,Tearly,Tearly,Tearly,Tearly,Tearly,Tearly,Tearly,Tearly,Tearly,Tearly,Tearly,Tearly,Tearly,Tmid,Tmid,Tmid,Tmid,Tmid,Tmid,Tmid,Tmid,Tmid,Tmid,Tmid,Tmid,Tmid,Tmid,Tmid,Tmid,Tmid,Tmid
timestamp,0,60013,120029,180044,240067,300082,360105,420119,480128,540147,600154,660175,720192,780204,840222,900235,960246,1020259,1080273,1140281,1200290,1260300,1320312,1380325,1440342,1500351,1560360,1620374,1680403,1740436,1800447,1860461,1920461
participant_0_GOLD,500,500,541,797,1071,1305,1561,1910,2269,2609,3110,3338,3950,4532,4820,5229,5622,6715,7310,8362,8804,9170,9512,10894,11016,11139,11261,11384,11506,11628,11751,11873,11922
participant_0_CURRENTGOLD,500,0,41,297,571,455,161,510,869,1209,1710,588,325,907,70,479,122,1215,1810,2862,421,788,379,61,184,306,429,551,673,796,918,1041,1089
participant_0_LEVEL,1,1,1,3,4,5,5,6,7,8,8,9,9,10,10,11,11,12,12,13,13,13,14,14,14,14,14,14,14,14,14,14,14
participant_0_MINIONSKILLED,0,0,1,8,15,19,27,37,48,60,70,76,76,84,90,101,101,117,122,134,134,144,149,149,149,149,149,149,149,149,149,149,149
participant_0_KILLS,0,0,0,0,0,0,0,0,0,0,1,1,1,1,1,1,1,1,1,1,1,1,1,1,1,1,1,1,1,1,1,1,1
participant_0_BUY,[],"[1035, 3340, 2003, 2003, 2003]",[],[],[1001],[],[],[3134],[1036],[],[],"[1053, 1036, 1029]",[3047],[],[],[6692],[],[],[],[],"[1036, 1036, 3134, 1018]",[],[],"[3364, 1037]",[],[],"[6676, 1028]",[1028],[],[],[3044],[1037],[]
participant_0_SOLD,[],[],[2003],[],"[2003, 2003]",[],[],[],[],[],[],"[1036, 1035]","[1001, 1029]",[],[],"[3134, 1036, 1053]",[],[],[],[],"[1036, 1036]",[],[],[3340],[],[],"[3134, 1037, 1018]",[],[],[],[1028],[],[]
participant_0_UNDO,[],[],[],[],[],[],[],[],[],[],[],[],[],[],[],[],[],[],[],[],[],[],[],[],[],[],[],[],[],[],[],[],[]
participant_1_GOLD,500,533,578,902,1129,1386,1600,2062,2405,2865,3794,4001,4273,4591,4713,4936,5158,5641,6195,6668,6791,7169,7481,7679,8135,8377,8680,8852,9224,9932,10320,10442,10491
participant_1_CURRENTGOLD,500,33,78,402,329,586,800,162,155,615,1544,551,323,641,763,136,358,841,1395,1868,291,669,981,304,760,1002,480,252,624,1332,1020,267,316
participant_1_LEVEL,1,1,1,2,3,3,4,5,5,6,7,7,7,8,8,8,8,9,10,10,10,11,11,12,12,12,13,13,13,14,14,14,14
participant_1_MINIONSKILLED,0,0,0,0,0,0,1,1,1,3,10,10,10,15,15,15,15,15,22,23,23,24,30,30,42,43,50,50,57,66,76,76,76
participant_1_KILLS,0,1,2,2,3,3,3,5,7,8,8,8,9,10,10,11,11,11,12,13,13,13,13,13,13,13,13,13,13,13,13,13,13
participant_1_BUY,[],"[3070, 2003, 2003, 3340]","[1036, 1036]",[],"[3133, 1027, 2055]",[],[],[],"[3004, 3057, 2055]",[],"[3044, 3067]",[],[],"[6632, 3134]",[2055],[],"[1037, 2055]",[],[6676],[3009],[],[3057],[2055],[],[],[1036],[],[],[],[3133],[3508],[],[]
participant_1_SOLD,[],[],[],[],"[2003, 2003, 1036, 1036]",[],[],[2010],"[3070, 3133, 1027]","[2055, 2010]",[2010],[],[],"[2055, 3044, 3057, 3067]",[2055],[],[],[],"[3134, 1037]",[2422],"[3004, 2055]",[],[],[],[2055],[],[],[],[],[1036],"[3133, 3057]",[],[]
participant_1_UNDO,[],[],[],[],[],[],[],[],[],[],[],[],[],[],[],[],[],[],[],[],[],[],[],[],[],[],[],[],[],[],[],[],[]
participant_2_GOLD,500,533,578,867,1136,1426,1696,1937,2609,2908,3431,3761,4934,5147,5434,5599,6319,6665,6787,7504,8119,8747,9012,9333,9671,10119,10740,11730,12200,12323,12717,13082,13131
participant_2_CURRENTGOLD,500,33,78,357,626,906,76,242,254,543,1066,336,1509,197,484,149,869,1215,237,954,1569,297,562,183,521,369,990,380,851,973,1367,1733,1831
participant_2_LEVEL,1,1,1,2,3,4,5,6,7,7,8,8,9,9,10,10,11,11,11,11,12,12,12,13,13,13,14,14,15,15,15,15,15
participant_2_MINIONSKILLED,0,0,0,7,16,23,32,39,46,53,60,69,69,75,81,83,93,102,102,109,112,115,118,121,130,130,136,142,154,154,167,173,173
participant_2_KILLS,0,0,0,0,0,0,0,0,1,1,2,2,4,4,4,4,4,4,4,5,6,7,7,7,7,8,9,10,10,10,10,10,10
participant_2_BUY,[],"[1055, 3340, 2003]",[],[],[],[],"[1036, 1042, 1036, 2003, 2003]",[2055],"[6670, 1001, 2003]",[],[],"[1037, 2055, 2003, 2003]",[],"[6672, 1042]",[],[3006],[],[],"[3134, 3363]",[],[],[6676],[],[3057],[],[1018],[],[3508],[],[],[],[],[]
participant_2_SOLD,[],[],[],[],[],[],[2003],[],"[2003, 1036, 1042, 1036]",[2055],"[2003, 2003]",[],"[2055, 2003, 2003]","[6670, 1037]",[],"[1001, 1042]",[],[],[3340],[],[],[3134],[],[],[],[],[],"[3057, 1018]",[],[],[],[],[]
participant_2_UNDO,[],[],[],[],[],[],[],[],[],[],[],[],[],[],[],[],[],[],[],[],[],[],[],[],[],[],[],[],[],[],[],[],[]
participant_3_GOLD,500,900,1226,1457,2116,2378,2543,3734,4828,5387,5598,6127,6666,7291,7437,8170,8726,9106,9529,10154,10429,10822,10968,11125,11313,11666,12029,12513,12709,12831,12953,13246,13295
participant_3_CURRENTGOLD,500,400,26,257,91,353,518,1709,1278,1837,148,677,1216,41,112,845,451,831,229,254,530,222,293,451,638,642,1005,1489,1684,1057,79,372,420
participant_3_LEVEL,1,1,1,1,2,3,4,5,5,6,6,7,8,8,8,9,9,10,10,10,11,11,11,11,12,12,12,13,13,14,14,14,14
participant_3_MINIONSKILLED,0,0,0,6,8,13,16,25,28,36,37,48,59,62,64,73,78,86,86,86,86,97,98,100,103,103,103,110,110,110,110,115,115
participant_3_KILLS,0,0,0,0,0,0,0,0,0,0,0,0,1,1,1,1,1,2,3,3,4,4,4,7,7,7,7,7,7,7,7,7,7
participant_3_BUY,[],"[2033, 3340]",[],[],[],[1036],[1053],[],[],[],[],"[1043, 1036]",[1037],[],"[3153, 3067]",[],[3051],[],[],[],"[3078, 3047, 1029, 1036]",[],[3133],[6333],[],[],[],[],[],[],[],[],[]
participant_3_SOLD,[],[],[],[],[],[],[1036],[],[],[],[],[],[],[],"[1053, 1043, 1037]",[],[1036],[],[3340],[3513],"[3051, 3067, 2422]",[],[1036],"[1029, 3133]",[],[],[],[],[],[],[],[],[]
participant_3_UNDO,[],[],[],[],[],[],[],[],[],[],[],[],[],[],[],[],[],[],[],[],[],[],[],[],[],[],[],[],[],[],[],[],[]
participant_4_GOLD,500,573,660,916,1599,1773,2043,2178,2619,2914,3149,3354,3704,3944,4105,4959,5550,5740,6180,6526,6816,7057,7359,7574,7745,8260,8460,9129,9299,10028,10183,10323,10379
participant_4_CURRENTGOLD,500,73,160,416,1099,223,193,203,644,939,374,579,79,319,45,899,375,565,205,551,841,182,484,214,385,285,411,1079,1250,758,213,353,379
participant_4_LEVEL,1,1,1,1,3,3,3,3,4,5,5,6,6,7,7,7,8,8,9,9,9,10,10,10,10,11,11,12,13,13,14,14,14
participant_4_MINIONSKILLED,0,0,0,0,3,3,6,6,6,6,6,8,8,8,8,9,9,9,9,10,10,10,15,15,16,16,18,25,26,27,28,28,28
participant_4_KILLS,0,0,0,0,1,1,1,1,1,1,1,1,1,1,1,2,3,3,4,4,4,4,4,4,4,5,5,6,6,8,8,8,8
participant_4_BUY,[],"[2003, 3340, 3850, 2003]",[],[],[],[4642],[1001],"[2055, 2003]",[],[],[3067],[],[4005],[],[1052],[],"[2420, 3108]",[],[3020],[],[],"[1026, 1052, 3191]",[],"[3157, 1052]",[3364],[3145],[2055],[],[],[1058],[4628],[],[]
participant_4_SOLD,[],[],[2003],[2003],[],[],[],[],[3850],[],[2003],[],"[3067, 4642]",[],[],[3851],[1052],[2420],[1001],[],[2055],[1052],[],"[3191, 3108, 2421]",[3340],[1052],[],[],[],[2055],"[1058, 3145]",[],[]
participant_4_UNDO,[],[],[],[],[],[],[],[],[],[],[],[],[],[],[],[],[],[],[],[],[],"[[0, 1026]]",[],[],[],[],[],[],[],[],[],[],[]
participant_5_GOLD,500,500,576,983,1505,2228,2605,3083,3394,3777,4334,5075,6005,6191,7509,8460,9362,9680,9802,10564,11183,11458,11845,12969,13136,13499,14379,14796,15199,15955,16077,16873,17263
participant_5_CURRENTGOLD,500,0,76,483,1005,1728,605,1083,244,627,34,775,1705,191,1509,2460,3362,280,52,815,863,788,1176,2299,417,779,1660,377,480,1235,658,1454,1663
participant_5_LEVEL,1,1,1,3,4,5,6,7,7,8,8,9,10,10,11,12,12,12,12,13,13,13,14,14,14,14,15,15,16,16,16,17,17
participant_5_MINIONSKILLED,0,0,3,17,23,37,49,60,68,81,85,99,108,112,132,133,150,157,157,157,157,162,173,185,185,185,198,198,202,213,213,216,220
participant_5_KILLS,0,0,2,2,2,2,2,3,3,3,3,3,3,4,4,4,5,5,5,5,5,5,5,6,6,6,6,6,6,6,6,6,7
participant_5_BUY,[],"[1039, 2031, 3340, 1035, 3340, 2031]",[],[],[],[],[],"[3802, 3108]",[],[1001],[],[],"[6653, 1052]",[],[],[],"[1026, 1011]",[],[],[],"[4637, 3047]",[3916],[],[1026],[],[3165],[],[],[],[],[],[],[]
participant_5_SOLD,[],[],[],[],[],[],[],[],[],[1035],[],[],"[3802, 3108]",[],[],[],[],[],[],[],"[1026, 1011, 1052, 1001]",[],[],[],[],"[1026, 3916]",[],[],[],[],[],[],[]
participant_5_UNDO,[],"[[3340, 0], [0, 2031], [0, 1039]]",[],[],[],[],[],[],[],[],[],[],[],[],[],[],[],[],[],[],[],[],[],[],[],[],[],[],[],[],[],[],[]
participant_6_GOLD,500,500,1313,1726,2163,2420,2713,3261,3602,3930,4322,4679,4877,5572,6125,6652,7124,7407,7899,8355,8855,9077,9432,9953,10351,10613,10735,10958,11405,12103,12361,12708,13202
participant_6_CURRENTGOLD,500,0,813,1226,1663,1920,2213,561,902,930,1322,1679,242,937,1490,2017,739,1022,1514,1970,855,277,632,304,701,113,236,458,906,1604,1861,2209,2702
participant_6_LEVEL,1,1,1,3,3,4,4,5,5,6,7,7,7,8,9,10,10,10,11,12,12,12,13,13,13,14,14,14,14,15,15,15,16
participant_6_MINIONSKILLED,0,0,0,0,0,0,0,1,1,1,1,1,1,5,6,6,6,6,12,22,27,27,30,30,30,31,31,31,31,40,40,40,40
participant_6_KILLS,0,0,0,0,1,2,2,2,2,2,3,3,5,5,5,7,7,7,7,8,9,9,9,10,10,10,11,12,12,12,12,13,13
participant_6_BUY,[],"[1055, 2003, 3340]",[],[],[],[],"[6029, 1036, 1001]",[],"[3047, 1036]",[],"[3044, 1028]",[],[],"[6630, 3133]",[],[],[],"[3071, 3077]",[1036],[],[3133],[1036],[],[],"[3074, 3133, 1029]",[],[],[6333],[1029],[],[3082],[],[]
participant_6_SOLD,[],[],[],[],[2003],[],[],[],[1001],[],[1036],[],[],"[6029, 3044, 1028]",[],[],[],[3133],[],[],"[1036, 1055]",[],[],[],"[3077, 1036, 3133]",[],[],"[1029, 3133]",[],[],[1029],[],[]
participant_6_UNDO,[],[],[],[],[],[],"[[0, 1036]]",[],[],[],[],[],[],[],[],[],[],[],[],[],[],[],[],[],[],[],[],[],[],[],[],[],[]
participant_7_GOLD,500,500,997,1334,1562,1866,2066,2729,2998,3361,3804,4228,4550,4756,5083,5415,5698,6148,6653,7482,7887,8249,8512,9138,9350,9472,9793,9941,10332,11061,11183,11813,12462
participant_7_CURRENTGOLD,500,0,497,824,1052,1356,206,869,338,691,1134,1548,270,401,728,1060,493,943,1448,2277,2682,1094,1357,983,380,153,473,621,1013,1741,314,943,1562
participant_7_LEVEL,1,1,1,3,3,5,5,6,7,7,8,9,9,9,10,10,10,11,12,12,13,13,13,14,14,14,14,14,14,15,15,15,16
participant_7_MINIONSKILLED,0,0,0,10,15,26,30,38,47,58,67,80,80,85,88,96,100,115,119,128,132,132,141,142,143,143,150,150,156,162,162,179,185
participant_7_KILLS,0,0,0,0,1,1,3,3,4,4,5,5,5,5,5,5,5,6,6,7,8,8,8,8,8,9,10,10,10,11,11,12,12
participant_7_BUY,[],"[1055, 2003, 3340]",[2003],[],"[1036, 1042, 2003, 2055]",[],[],"[6670, 1018, 1001, 2003, 2055]","[1037, 2003]",[],[],[6672],[],[3006],[],[],"[1036, 1042]",[],"[3086, 2055]",[],[],"[1037, 1042, 3364]",[],[3085],[1042],[],[],[],[3124],[],[],[],[]
participant_7_SOLD,[],[],[2003],[],[2003],[2003],[2055],"[1036, 1042]",[2003],[2055],[2003],"[6670, 1037]",[],[1001],[],[],[1036],[],[1042],[],[2055],[3340],[],"[1037, 3086, 1042]",[],[],[],[],[1042],[],[],[],[]
participant_7_UNDO,[],[],[],[],[],[],[],"[[0, 1018]]",[],[],[],[],[],[],[],[],[],[],[],[],[],[],[],[],[],[],[],[],[],[],[],[],[]
participant_8_GOLD,500,500,676,978,1422,1747,2567,2951,3442,3679,4542,4748,4983,5377,5559,5801,6144,6658,6855,7690,8253,8375,8721,9211,9459,10191,11158,11761,12050,13446,14014,14815,15297
participant_8_CURRENTGOLD,500,0,126,428,97,422,1242,551,117,354,1217,198,433,27,209,451,389,903,125,960,1523,470,816,281,229,961,1928,2531,321,1716,2284,3086,3322
participant_8_LEVEL,1,1,1,2,2,3,4,4,5,5,7,7,7,8,8,8,8,9,9,10,10,10,10,11,12,12,13,14,14,15,15,16,16
participant_8_MINIONSKILLED,0,0,0,8,9,18,24,27,27,34,42,47,53,61,62,69,75,80,80,83,89,89,98,101,108,113,121,135,141,153,170,172,183
participant_8_KILLS,0,0,1,1,1,1,1,2,3,3,3,3,3,3,5,5,5,5,6,6,6,7,7,9,9,11,11,11,12,13,14,15,15
participant_8_BUY,[],"[3854, 2003, 2003, 3340]",[1001],[],[1036],[],[],"[3044, 1033]",[3111],[],[1028],[],[3067],[],[],[6632],[],[],[3133],[1029],[],[],[1037],[],"[6333, 1037, 3364]",[],[3044],[],[],[],"[3053, 3077]",[],[]
participant_8_SOLD,[],[],[],"[2003, 2010]",[],[],"[2010, 2003]","[2010, 1036]","[1001, 1033]",[],[],[],[1028],[],[3854],"[3044, 3067]",[],[],[],[],[],[],[],[],"[3855, 1029, 3133, 1037, 3340]",[],[],[],[],[],"[1037, 3044]",[],[]
participant_8_UNDO,[],[],[],[],[],[],[],[],[],[],[],[],[],[],[],[],[],[],[],[],[],[],[],[],[],[],[],[],[],[],[],[],[]
participant_9_GOLD,500,500,842,1117,1252,1617,2113,2562,2998,3167,3351,3609,3778,4057,4925,5065,5385,5664,6224,6461,6761,7334,7673,8980,9120,9970,10414,10828,11493,12328,12784,13294,13580
participant_9_CURRENTGOLD,500,0,42,317,102,467,963,212,298,467,251,509,278,557,1425,165,484,764,224,160,461,1034,498,1805,245,1096,439,854,1518,2353,484,994,1280
participant_9_LEVEL,1,1,1,2,2,4,4,5,5,5,5,6,6,7,7,7,8,8,8,9,9,10,10,11,11,12,12,13,13,14,14,14,15
participant_9_MINIONSKILLED,0,0,0,8,8,18,19,21,22,24,27,31,33,36,38,38,41,43,43,44,45,51,54,57,57,57,59,65,67,67,68,68,68
participant_9_KILLS,0,0,1,1,1,1,1,2,2,2,2,2,2,2,2,2,2,2,3,4,4,4,4,5,5,5,5,5,5,5,5,5,6
participant_9_BUY,[],"[1054, 2003, 3340]",[],[],[],[],"[6029, 2031]",[],[3067],[],[],[],"[6630, 1029]",[2055],[],[],"[3047, 1036]",[],[],[],[],"[3133, 3077]",[],[3074],"[3123, 2055]",[1036],[],[],[],[],[6609],[],[]
participant_9_SOLD,[],[],[],[],[2003],[],[],[],[],[],[],[],"[6029, 3067]",[2055],[],[],"[1029, 2422]",[],[],[],[],[1036],[],"[3077, 3133]","[2031, 2055]",[],[],[],[],[],"[3123, 1036]",[],[]
participant_9_UNDO,[],[],[],[],[],[],[],[],[],[],[],[],[],[],[],[],[],[],[],[],[],[],[],[],[],[],[],[],[],[],[],[],[]
team0_KILLS,0,1,2,2,4,4,4,6,9,10,12,12,16,17,17,19,20,21,24,26,28,29,29,32,32,34,35,37,37,39,39,39,39
team0_CURRENTGOLD,2500,539,383,1729,2716,2523,1748,2826,3200,5143,4842,2731,3452,2105,1474,2508,2175,4667,3876,6489,3652,2158,2699,1213,2488,2604,3315,3751,5082,4916,3597,3766,4035
team0_TOTALGOLD,2500,3039,3583,4939,7051,8268,9443,11821,14730,16683,19082,20581,23527,25505,26509,28893,31375,33867,36001,39214,40959,42965,44332,46605,47880,49561,51170,53608,54938,56742,57924,58966,59218
team0_LEVEL,5,5,5,9,15,18,21,25,28,32,34,37,39,42,43,45,47,50,52,53,55,57,58,60,61,62,64,66,68,70,71,71,71
team0_SBIRES,0,0,1,21,42,58,82,108,129,158,183,211,222,244,258,281,296,329,341,362,365,390,410,415,440,441,456,476,496,506,530,541,541
team1_KILLS,0,0,4,4,6,7,9,12,14,14,16,16,18,19,21,23,24,25,27,30,32,33,33,38,38,41,43,44,45,47,48,51,53
team1_CURRENTGOLD,2500,0,1554,3278,3919,5893,5229,3276,1899,3069,3958,4709,2928,2113,5361,6153,5467,3912,3363,6182,6384,3663,4479,5672,1972,3102,4736,4841,4238,8649,5601,8686,10529
team1_TOTALGOLD,2500,2500,4404,6138,7904,9878,12064,14586,16434,17914,20353,22339,24193,25953,29201,31393,33713,35557,37433,40552,42939,44493,46183,50251,51416,53745,56479,58284,60479,64893,66419,69503,71804
team1_LEVEL,5,5,5,13,14,21,23,27,29,31,35,38,39,42,45,47,48,50,52,56,57,58,60,63,64,66,68,70,71,75,75,77,80
team1_SBIRES,0,0,3,43,55,99,122,147,165,198,222,258,275,299,326,342,372,401,411,434,450,461,496,515,523,529,559,579,597,635,653,675,696
delta_KILLS,0,1,-2,-2,-2,-3,-5,-6,-5,-4,-4,-4,-2,-2,-4,-4,-4,-4,-3,-4,-4,-4,-4,-6,-6,-7,-8,-7,-8,-8,-9,-12,-14
delta_CURRENTGOLD,0,539,-1171,-1549,-1203,-3370,-3481,-450,1301,2074,884,-1978,524,-8,-3887,-3645,-3292,755,513,307,-2732,-1505,-1780,-4459,516,-498,-1421,-1090,844,-3733,-2004,-4920,-6494
delta_TOTALGOLD,0,539,-821,-1199,-853,-1610,-2621,-2765,-1704,-1231,-1271,-1758,-666,-448,-2692,-2500,-2338,-1690,-1432,-1338,-1980,-1528,-1851,-3646,-3536,-4184,-5309,-4676,-5541,-8151,-8495,-10537,-12586
delta_LEVEL,0,0,0,-4,1,-3,-2,-2,-1,1,-1,-1,0,0,-2,-2,-1,0,0,-3,-2,-1,-2,-3,-3,-4,-4,-4,-3,-5,-4,-6,-9
delta_SBIRES,0,0,-2,-22,-13,-41,-40,-39,-36,-40,-39,-47,-53,-55,-68,-61,-76,-72,-70,-72,-85,-71,-86,-100,-83,-88,-103,-103,-101,-129,-123,-134,-155
