name,frame_0,frame_1,frame_2,frame_3,frame_4,frame_5,frame_6,frame_7,frame_8,frame_9,frame_10,frame_11,frame_12,frame_13,frame_14,frame_15,frame_16,frame_17,frame_18,frame_19,frame_20,frame_21,frame_22,frame_23,frame_24
nameStamp,Tstart,Tearly,Tearly,Tearly,Tearly,Tearly,Tearly,Tearly,Tearly,Tearly,Tearly,Tearly,Tearly,Tearly,Tearly,Tearly,Tearly,Tmid,Tmid,Tmid,Tmid,Tmid,Tmid,Tmid,Tmid
timestamp,0,60028,120032,180047,240051,300068,360099,420102,480118,540146,600151,660152,720171,780173,840207,900229,960239,1020278,1080285,1140301,1200304,1260323,1320325,1380369,1440369
participant_0_GOLD,500,500,562,776,1120,1557,2066,2272,2681,2957,3156,3391,4272,4500,5692,6365,6608,6975,8293,8578,9215,9670,10110,10576,10973
participant_0_CURRENTGOLD,500,0,62,276,45,482,191,397,806,1082,1281,466,1347,675,1867,2540,433,800,2118,3,640,1095,1535,2001,2398
participant_0_LEVEL,1,1,1,2,3,4,5,6,6,7,8,8,9,9,10,11,11,11,13,13,13,13,14,14,14
participant_0_MINIONSKILLED,0,0,2,7,8,24,28,32,46,55,60,67,77,83,95,105,109,117,128,132,132,136,138,142,145
participant_0_KILLS,0,0,0,0,0,0,0,0,0,0,1,1,2,2,5,5,5,6,6,6,6,6,7,7,8
participant_0_BUY,[],"[1056, 2003, 2003, 3340]",[],[],[],[],"[1052, 1001, 2055, 2031]",[],[],[3802],[],[],[],"[3285, 2055]",[],[],"[3111, 1028, 1052]",[],[],"[3916, 1026]",[],[],[],"[3165, 2420, 2055, 2055]",[]
participant_0_SOLD,[],[],[],[2003],"[2010, 2003]",[2010],[],[],[2010],[1052],[2055],[],[],[3802],[],[2055],[1001],[],[],"[1028, 1052, 2031]",[],[],[],"[3916, 1026]",[2420]
participant_0_UNDO,[],[],[],[],[],[],[],[],[],[],[],[],[],[],[],[],[],[],[],[],[],[],[],[],[]
participant_1_GOLD,500,500,630,1055,1578,1937,2314,2569,3261,3524,3646,3783,4482,4633,5035,5572,5858,6466,7238,7677,8180,8908,9522,9804,10143
participant_1_CURRENTGOLD,500,0,130,555,128,487,864,1119,1811,1474,96,233,932,1083,1485,2022,2308,2916,3688,452,955,1683,2297,179,458
participant_1_LEVEL,1,1,2,3,3,4,5,6,7,7,7,7,8,9,9,10,11,11,12,12,12,13,13,14,14
participant_1_MINIONSKILLED,0,0,0,0,0,0,5,6,6,6,6,7,9,11,12,13,14,15,15,15,15,16,16,16,16
participant_1_KILLS,0,0,0,0,0,0,0,0,0,0,0,0,0,0,0,0,1,1,2,2,3,3,4,4,4
participant_1_BUY,[],"[2003, 2003, 3302, 3340]",[],[],[],[],[],"[3097, 1001]","[2055, 2055]",[],[1028],[],[],[],"[3105, 2055, 2055, 3364]",[],[],"[3117, 1029, 2055]",[],[],[],[],[],"[3190, 3067, 1031, 3109]",[]
participant_1_SOLD,[],[],[],[],[2003],[],[],"[2003, 2010, 2010, 3302]",[2055],[2010],[],[2055],[],[],[3340],[2055],[],[1001],[],[2055],[2055],[],[],"[3105, 1028, 1029, 3067, 1031]",[]
participant_1_UNDO,[],[],[],[],[],[],[],[],[],[],[],[],[],[],[],[],[],[],[],[],[],[],[],[],[]
participant_2_GOLD,500,500,597,895,1239,1518,1697,1959,2255,2420,2954,3367,4061,4545,5513,6016,6314,6935,7283,7506,7878,8232,8917,9130,9557
participant_2_CURRENTGOLD,500,0,97,395,739,1018,237,499,795,95,629,1042,1736,245,1213,1716,379,1000,1348,16,388,742,1427,340,707
participant_2_LEVEL,1,1,1,3,4,5,5,6,7,7,7,8,9,9,9,10,10,11,11,11,12,12,13,13,13
participant_2_MINIONSKILLED,0,0,4,14,24,34,37,46,53,55,62,72,79,81,85,95,102,109,117,122,130,141,141,147,147
participant_2_KILLS,0,0,0,0,0,0,0,0,1,1,1,2,2,2,2,2,2,2,2,2,2,2,2,2,3
participant_2_BUY,[],"[1055, 2003, 3340]",[],[],[],[],[],[],[],"[1038, 3133, 1001]",[],"[3508, 2003]",[],[],[],[],"[3006, 3044, 1042]",[],[3101],[],[1027],[],[],"[3078, 1037]",[]
participant_2_SOLD,[],[],[],[],[],[],[],[2003],[],[],[],"[1038, 3133]",[],[2003],[],[],[1001],[],[1042],[],[],[],[],"[3101, 1027, 3044, 1055]",[]
participant_2_UNDO,[],[],[],[],[],[],[],[],[],[],[],[],[],[],[],[],[],[],[],[],[],[],[],[],[]
participant_3_GOLD,500,500,562,878,1141,1466,1816,2043,3161,3305,3658,4256,4595,5081,5827,6259,6807,7209,7530,7817,8324,8763,9448,9570,9810
participant_3_CURRENTGOLD,500,0,62,378,641,966,1316,1543,2661,105,458,106,445,931,1677,2109,307,709,230,517,674,1113,1798,192,252
participant_3_LEVEL,1,1,1,2,3,4,5,5,6,6,6,7,8,8,9,10,10,10,11,11,12,12,12,12,13
participant_3_MINIONSKILLED,0,0,2,10,18,27,37,43,54,55,61,70,76,88,100,113,119,123,129,130,135,140,150,150,150
participant_3_KILLS,0,0,0,0,0,0,1,1,1,1,1,1,2,2,3,4,4,4,6,6,8,8,8,8,9
participant_3_BUY,[],"[1036, 2003, 2003, 2003, 3340]",[],[],"[1036, 2031, 2055]",[],"[3133, 1028]",[],[],[],[],"[3067, 1029, 1036]",[],[3044],[],[],"[3071, 1053, 3047]",[],[],"[3812, 2420, 1029]",[],[],[],[],[]
participant_3_SOLD,[],[],[],"[2003, 2003, 2003]",[],[2055],"[1036, 1036]",[],[],[],[],[1028],[],[1036],[],[],"[3044, 3067, 1029, 2422]",[],[],"[1053, 3133]",[],[],[2420],[],[]
participant_3_UNDO,[],[],[],[],[],[],[],[],[],[],[],[],[],[],[],[],[],[],[],[],[],[],[],[],[]
participant_4_GOLD,500,500,521,752,902,1107,1316,1465,1676,1805,2008,2305,2564,2755,3128,3277,3980,4247,4805,5065,5613,5913,6563,6692,6842
participant_4_CURRENTGOLD,500,0,21,252,402,607,816,215,276,405,208,505,763,955,78,226,930,222,780,1040,1588,1888,2539,67,217
participant_4_LEVEL,1,1,1,2,3,4,5,5,5,6,6,6,7,7,8,8,9,9,10,10,11,11,11,11,12
participant_4_MINIONSKILLED,0,0,0,3,4,6,8,9,11,11,11,16,16,19,21,23,30,32,33,36,38,39,41,41,42
participant_4_KILLS,0,0,0,0,1,1,1,1,2,2,2,2,3,3,3,4,4,4,5,6,6,7,8,8,9
participant_4_BUY,[],"[1039, 2031, 3340]",[],[],"[3706, 1001]",[],[],[],[],[3117],[1402],[],[],[],[],[],[],[],[],"[3041, 3057, 1026, 1052]",[],[],[],"[3100, 3191, 1052]",[]
participant_4_SOLD,[],[],[],[],[1039],[],[],[],[],[1001],[3706],[],[],[],[],[],[],[],[],[2031],[],[],[],"[3057, 1052, 1026]",[]
participant_4_UNDO,[],[],[],[],[],[],[],[],[],[],[],[],[],[],[],[],[],[],[],[],[],[],[],[],[]
participant_5_GOLD,500,500,562,920,1283,1587,1957,2290,2526,2767,3308,3858,4401,4739,4861,5145,5484,5670,5792,6402,6525,6675,6826,7179,7243
participant_5_CURRENTGOLD,500,0,62,420,333,137,157,490,176,417,958,1508,531,869,116,400,339,525,297,907,330,130,281,634,118
participant_5_LEVEL,1,1,1,3,4,4,5,5,6,7,7,8,9,9,9,9,10,10,10,11,11,11,11,12,12
participant_5_MINIONSKILLED,0,0,2,13,19,20,26,38,44,50,56,67,78,81,81,91,93,97,97,111,111,113,115,121,121
participant_5_KILLS,0,0,0,0,0,0,0,0,0,0,1,1,1,1,1,1,1,1,1,1,1,1,1,1,1
participant_5_BUY,[],"[1055, 2003]",[],[],"[1001, 1006]","[1036, 2031]",[1036],[],"[3077, 2055]",[],[],[],"[1053, 3047]",[],[1037],[],[3074],[],[1027],[],"[3057, 3363]",[1036],[],[],[1028]
participant_5_SOLD,[],[],[],[2003],[],[],[],[],"[1036, 1006, 1036, 2055]",[],[],[],"[1055, 1001]",[],[],[],"[3077, 1053, 1037]",[],[],[],"[1027, 3340]",[],[],[],[]
participant_5_UNDO,[],[],[],[],[],[],[],[],[],[],[],[],[],[],[],[],[],[],[],[],[],[],[],[],[]
participant_6_GOLD,500,500,620,829,1692,2040,2571,2788,2910,4054,4617,4839,5074,5382,5504,5627,6815,7160,7296,7628,7751,7873,8031,8163,8227
participant_6_CURRENTGOLD,500,0,120,329,1192,1540,2071,463,60,1204,1767,364,249,482,179,227,1415,370,106,438,36,83,241,373,377
participant_6_LEVEL,1,1,2,2,4,4,5,5,6,7,8,8,8,9,9,9,10,10,10,11,11,11,11,11,11
participant_6_MINIONSKILLED,0,0,0,0,0,1,3,3,3,3,4,4,4,4,4,4,10,11,12,19,19,19,21,22,22
participant_6_KILLS,0,0,0,0,0,0,1,1,1,2,2,2,2,2,3,3,3,3,4,4,4,4,4,4,4
participant_6_BUY,[],"[1054, 2003, 3340]",[],[],[],[],[],"[3108, 3067, 2003]",[],[],"[3145, 1082]",[],[3152],"[3152, 1001, 2055]",[],[3020],[],[1028],[],"[3211, 3067, 1028, 1033]",[],[3211],[3065],[],[]
participant_6_SOLD,[],[],[],[],[2003],[],[],[],[],[2003],[],[],"[3145, 3067]","[3145, 3067, 1082]",[],"[1054, 1001]",[],[],[2055],"[1028, 1028]",[],"[1028, 1033]","[3211, 3067]",[],[]
participant_6_UNDO,[],[],[],[],[],[],[],[],[],[],[],[],[],"[[0, 3152]]",[],[],[],[],[],"[[0, 3211]]",[],[],[],[],[]
participant_7_GOLD,500,500,625,930,1221,1511,2165,2434,2821,3595,3934,4278,4527,4712,5164,5469,5861,6179,6906,7167,7681,7957,8226,8483,8561
participant_7_CURRENTGOLD,500,0,125,430,721,1011,1665,184,571,1345,284,628,227,177,629,314,706,624,1351,362,876,802,271,528,286
participant_7_LEVEL,1,1,1,3,4,5,6,7,7,8,8,9,9,10,10,10,11,11,12,12,12,13,13,13,13
participant_7_MINIONSKILLED,0,0,6,16,26,33,46,54,67,78,81,91,98,102,103,110,119,126,132,136,148,158,162,169,170
participant_7_KILLS,0,0,0,0,0,0,0,0,0,0,0,0,0,0,0,0,0,0,0,1,1,1,1,1,1
participant_7_BUY,[],"[3301, 2003, 2003, 3340]",[],[],[],[],[],[],"[3096, 1001, 2055, 2055, 2003, 2003]",[],[],"[3117, 2055, 2003, 3364]",[2003],[],[1028],[],"[3069, 1028]",[],[],[],"[3801, 3114]",[],[],[],[]
participant_7_SOLD,[],[],[],[2003],[2010],[2003],[],[],"[2010, 2010, 3301]",[],"[2055, 2003, 2003]","[1001, 3340]",[2003],[2003],[],[],"[3096, 1028]",[],[],[],[1028],[],[],[],[]
participant_7_UNDO,[],[],[],[],[],[],[],[],[],[],[],[],[],[],[],[],[],[],[],[],[],[],[],[],[]
participant_8_GOLD,500,500,583,853,1197,1543,1785,2374,2670,2919,3267,3439,3645,3921,4202,4452,4702,5183,5475,5668,5916,6074,6433,6604,6759
participant_8_CURRENTGOLD,500,0,83,353,697,1043,1285,1874,45,294,642,514,720,996,1277,1527,302,783,1075,393,641,199,558,729,884
participant_8_LEVEL,1,1,1,2,3,4,4,5,5,6,6,7,7,7,8,8,9,9,10,10,10,10,11,11,11
participant_8_MINIONSKILLED,0,0,3,11,21,31,38,46,53,60,70,73,77,86,92,98,103,116,116,120,127,129,139,142,143
participant_8_KILLS,0,0,0,0,2,2,3,3,3,5,5,5,5,5,5,5,6,6,6,6,6,6,6,6,6
participant_8_BUY,[],"[1041, 2031, 3340]",[],[],[],[],[],"[3715, 1036, 3133, 2055]",[1412],[],[],"[3111, 3134, 1033, 2055]",[3111],[2055],"[1036, 2055]",[2055],[],"[3133, 3147]","[1036, 1036, 2003]",[],"[1033, 2055]",[2055],[],[],[]
participant_8_SOLD,[],[],[],[],[],[],[],"[1041, 1036]","[2055, 3133, 3715]",[],[],[2422],"[2055, 1033, 2422]",[2055],[],[2055],[2055],"[1036, 2031, 3134, 3133]",[],[2003],[],[2055],[],[2055],[]
participant_8_UNDO,[],[],[],[],[],[],[],[],[],[],[],"[[0, 3111]]",[],[],[],[],[],[],"[[0, 1036]]",[],[],[],[],[],[]
participant_9_GOLD,500,500,522,741,932,1122,1285,1550,1740,1989,2263,2448,2632,2826,3011,3195,3430,3614,3798,4433,4567,4802,4936,5070,5191
participant_9_CURRENTGOLD,500,0,22,241,432,622,785,1050,240,489,763,223,357,551,336,520,105,289,473,1108,192,426,561,695,816
participant_9_LEVEL,1,1,1,2,3,4,4,5,5,6,6,7,7,7,7,8,8,8,8,9,9,9,9,10,10
participant_9_MINIONSKILLED,0,0,0,0,0,0,0,0,0,1,3,3,3,4,4,4,4,4,4,4,4,4,4,4,4
participant_9_KILLS,0,0,0,0,0,0,0,1,1,1,1,1,1,1,1,1,1,1,1,1,1,1,1,1,1
participant_9_BUY,[],"[1055, 2003, 3340]",[],[],[],[],[],[],"[3144, 1001, 1042, 2031, 2055]",[],[],[1001],[],[],[],[],"[3153, 2055]",[],[],"[3006, 3363, 2055]",[],"[1042, 1042]",[],[],[]
participant_9_SOLD,[],[],[],[],[],[2003],[],[],[],[],[],[],[],[],[],[2055],"[3144, 1042]",[],[2055],"[1001, 3340, 2055]",[],[],[],[],[]
participant_9_UNDO,[],[],[],[],[],[],[],[],"[[0, 1001]]",[],[],[],[],[],[],[],[],[],[],[],[],[],[],[],[]
team0_KILLS,0,0,0,0,1,1,2,2,4,4,5,6,9,9,13,15,16,17,21,22,25,26,29,29,33
team0_CURRENTGOLD,2500,0,372,1856,1955,3560,3424,3773,6349,3161,2672,2352,5223,3889,6320,8613,4357,5647,8164,2028,4245,6521,9596,2779,4032
team0_TOTALGOLD,2500,2500,2872,4356,5980,7585,9209,10308,13034,14011,15422,17102,19974,21514,25195,27489,29567,31832,35149,36643,39210,41486,44560,45772,47325
team0_LEVEL,5,5,6,12,16,21,25,28,31,33,34,36,41,42,45,49,51,52,57,57,60,61,63,64,66
team0_SBIRES,0,0,8,34,54,91,115,136,170,182,200,232,257,282,313,349,374,396,422,435,450,472,486,496,500
team1_KILLS,0,0,0,0,2,2,4,5,5,8,9,9,9,9,10,10,11,11,12,13,13,13,13,13,13
team1_CURRENTGOLD,2500,0,412,1773,3375,4353,5963,4061,1092,3749,4414,3237,2084,3075,2537,2988,2867,2591,3302,3208,2075,1640,1912,2959,2481
team1_TOTALGOLD,2500,2500,2912,4273,6325,7803,9763,11436,12667,15324,17389,18862,20279,21580,22742,23888,26292,27806,29267,31298,32440,33381,34452,35499,35981
team1_LEVEL,5,5,6,12,18,21,24,27,29,34,35,39,40,42,43,44,48,48,50,53,53,54,55,57,57
team1_SBIRES,0,0,11,40,66,85,113,141,167,192,214,238,260,277,284,307,329,354,361,390,409,423,441,458,460
delta_KILLS,0,0,0,0,-1,-1,-2,-3,-1,-4,-4,-3,0,0,3,5,5,6,9,9,12,13,16,16,20
delta_CURRENTGOLD,0,0,-40,83,-1420,-793,-2539,-288,5257,-588,-1742,-885,3139,814,3783,5625,1490,3056,4862,-1180,2170,4881,7684,-180,1551
delta_TOTALGOLD,0,0,-40,83,-345,-218,-554,-1128,367,-1313,-1967,-1760,-305,-66,2453,3601,3275,4026,5882,5345,6770,8105,10108,10273,11344
delta_LEVEL,0,0,0,0,-2,0,1,1,2,-1,-1,-3,1,0,2,5,3,4,7,4,7,7,8,7,9
delta_SBIRES,0,0,-3,-6,-12,6,2,-5,3,-10,-14,-6,-3,5,29,42,45,42,61,45,41,49,45,38,40
