name,frame_0,frame_1,frame_2,frame_3,frame_4,frame_5,frame_6,frame_7,frame_8,frame_9,frame_10,frame_11,frame_12,frame_13,frame_14,frame_15,frame_16,frame_17,frame_18,frame_19,frame_20,frame_21,frame_22,frame_23,frame_24
nameStamp,Tstart,Tearly,Tearly,Tearly,Tearly,Tearly,Tearly,Tearly,Tearly,Tearly,Tearly,Tearly,Tearly,Tmid,Tmid,Tmid,Tmid,Tmid,Tmid,Tmid,Tmid,Tmid,Tmid,Tmid,Tmid
timestamp,0,60002,120015,180040,240055,300082,360105,420124,480149,540161,600172,660183,720198,780208,840222,900233,960240,1020255,1080276,1140291,1200298,1260304,1320315,1380330,1440330
participant_0_GOLD,500,500,541,811,1137,1476,1676,2130,2503,2710,2967,3410,3768,4044,4611,4775,5711,6154,6555,7044,7194,7387,7509,7727,7748
participant_0_CURRENTGOLD,500,0,41,311,637,976,1176,1630,2003,235,192,635,993,1269,1836,125,1061,304,705,1194,344,537,659,877,898
participant_0_LEVEL,1,1,1,3,4,5,5,6,7,7,8,8,9,10,10,10,12,12,12,13,13,13,13,13,13
participant_0_MINIONSKILLED,0,0,1,9,21,30,34,51,62,67,72,72,85,94,107,109,130,131,143,149,151,155,155,156,156
participant_0_KILLS,0,0,0,0,0,0,0,0,0,0,0,1,1,1,1,1,2,2,2,2,2,2,2,2,2
participant_0_BUY,[],"[1055, 2003, 3340]",[],[],[],[],[],[],[],"[6670, 1018, 2055]",[1001],[],[],[],[],"[6672, 1042, 2055, 3363]",[],"[3006, 1036, 1036]",[],[],"[3133, 1018]",[],[],[],[]
participant_0_SOLD,[],[],[],[],[],[],[],[],[],[],[],[2003],[],[2055],[],"[6670, 1018, 3340]",[],"[1001, 1042]",[],[2055],"[1036, 1036]",[],[],[],[]
participant_0_UNDO,[],[],[],[],[],[],[],[],[],[],[],[],[],[],[],[],[],[],[],[],[],[],[],[],[]
participant_1_GOLD,500,500,651,963,1163,1560,1832,2040,2450,2788,3075,3338,3680,3921,4379,4683,4899,5238,5381,5824,6050,6173,6379,6665,6686
participant_1_CURRENTGOLD,500,0,151,463,238,635,907,65,475,813,1100,1363,205,446,904,1208,74,413,256,149,375,98,304,590,611
participant_1_LEVEL,1,1,2,3,3,4,4,5,6,6,7,7,7,8,8,9,9,10,10,10,10,10,11,11,11
participant_1_MINIONSKILLED,0,0,0,0,0,0,0,0,0,1,2,3,3,3,3,3,3,9,10,10,12,12,17,18,18
participant_1_KILLS,0,0,0,0,0,0,0,0,1,1,1,1,1,1,1,1,1,1,1,1,1,1,1,2,2
participant_1_BUY,[],"[1054, 2003, 3340]",[],[],[],"[1052, 2031, 2055]",[],[],[],"[4635, 1029, 2055]",[],[1052],[],"[3191, 1001]",[],[],[],[1026],[],[],[4633],[],[],"[3020, 1026]",[]
participant_1_SOLD,[],[],[],[2003],[],[],[2055],[],[],[1052],[],[2055],[],"[1052, 1029]",[],[],[],[],[],[],"[1054, 4635, 1026]",[],[],[1001],[]
participant_1_UNDO,[],[],[],[],[],[],[],[],[],[],[],[],[],[],[],[],[],[],[],[],[],[],[],[],[]
participant_2_GOLD,500,500,541,843,1036,1221,1553,1829,2474,2597,2938,3124,3386,3571,3824,3988,4195,4541,4813,5013,5210,5333,5738,6774,6795
participant_2_CURRENTGOLD,500,0,41,333,526,51,373,649,1284,167,498,249,511,231,474,638,845,341,613,813,140,263,668,54,-55
participant_2_LEVEL,1,1,1,3,4,4,5,6,7,7,8,8,9,9,9,9,10,10,10,11,11,11,12,12,12
participant_2_MINIONSKILLED,0,0,1,8,12,15,24,33,43,43,53,57,65,69,73,76,81,87,87,87,87,87,95,96,96
participant_2_KILLS,0,0,0,0,0,0,0,0,0,0,0,1,1,1,1,1,1,1,2,2,2,2,3,3,3
participant_2_BUY,[],"[3850, 2003, 2003]",[],[],"[1029, 1001]",[],[],[1052],[],"[3191, 1052]",[],"[3157, 3364]",[],[],[],"[3158, 1028]",[],[3067],[],[4642],[],[],[],[6617],[]
participant_2_SOLD,[],[],[],"[2003, 2003]",[],[],[],[],[],"[3850, 1052, 1029]",[],"[3191, 1052, 3340]",[],[],[],[1001],[],"[3851, 1028]",[],[],[],[],[],"[3067, 4642]",[]
participant_2_UNDO,[],[],[],[],[],[],[],[],[],[],[],[],[],[],[],[],[],[],[],[],[],[],[],[],[]
participant_3_GOLD,500,500,562,860,1440,1674,2017,2209,2784,3028,3325,3918,4131,4759,5131,5274,5649,6193,6652,6876,7491,7740,7925,8375,8396
participant_3_CURRENTGOLD,500,0,62,360,940,274,617,109,684,328,625,123,336,664,1036,79,454,998,257,481,1096,145,330,430,271
participant_3_LEVEL,1,1,1,2,3,4,5,5,6,6,7,7,7,8,8,8,9,9,10,10,11,11,11,12,12
participant_3_MINIONSKILLED,0,0,2,12,17,23,33,37,45,49,60,60,65,68,75,76,87,91,99,106,116,123,126,128,128
participant_3_KILLS,0,0,0,0,1,1,1,1,2,2,2,3,3,4,4,4,4,5,5,5,6,6,6,7,7
participant_3_BUY,[],"[1055, 2003]",[],[],[],[1053],[],"[1036, 1036]",[],[6670],[],"[6673, 2055]",[],[1001],[],"[3006, 1042]",[],[],"[3086, 1042, 3363]",[],[],"[1042, 3046]",[],[1036],[]
participant_3_SOLD,[],[],[],[2003],[],[],[],[],[],"[1036, 1036]",[],"[1055, 6670, 1053]",[],[],[2055],[1001],[],[],"[1042, 3340]",[],[],"[1042, 3086, 1042]",[],[],[]
participant_3_UNDO,[],[],[],[],[],[],[],[],[],[],[],[],[],[],[],[],[],[],[],[],[],[],[],[],[]
participant_4_GOLD,500,500,542,777,1155,1303,1537,1692,2125,2265,2487,3425,3625,4129,4413,4594,4804,5154,5995,6145,6361,6633,7494,7710,7733
participant_4_CURRENTGOLD,500,0,42,277,55,203,437,157,590,130,352,125,325,829,1113,294,504,454,1295,395,611,883,1744,1110,1133
participant_4_LEVEL,1,1,1,2,3,3,4,4,5,5,5,6,7,7,8,8,8,8,9,9,9,10,10,11,11
participant_4_MINIONSKILLED,0,0,0,0,0,1,1,1,4,4,5,10,10,15,17,17,18,18,18,18,18,22,23,23,23
participant_4_KILLS,0,0,0,0,0,0,0,0,0,0,0,0,0,0,0,0,0,0,0,1,1,1,1,1,1
participant_4_BUY,[],"[1035, 2031, 3340, 3364]",[],[],"[1036, 2055]",[],[],"[3044, 1001]",[],[],[],[],"[3057, 3067]",[],[],[],"[6632, 1042, 1036]",[],[1042],[1053],[],[1043],[],[],[]
participant_4_SOLD,[],[3340],[],[],[2055],[],[],[1036],[],[1035],[],[],[],[],[],[],"[3044, 3057, 3067]",[],[],[1036],[],"[1042, 1042]",[],[],[]
participant_4_UNDO,[],[],[],[],[],[],[],[],[],[],[],[],[],[],[],[],[],[],[],[],[],[],[],[],[]
participant_5_GOLD,500,500,597,892,1197,1424,1851,2001,2451,2744,3632,4071,4413,4754,5113,5495,5996,6661,7123,7410,7968,8532,9471,9757,9778
participant_5_CURRENTGOLD,500,0,97,392,697,924,1351,201,651,944,1832,71,413,754,63,445,96,761,1223,235,793,1357,1571,558,578
participant_5_LEVEL,1,1,1,3,4,5,6,6,7,8,9,9,10,10,10,11,11,12,12,13,13,14,15,15,15
participant_5_MINIONSKILLED,0,0,4,12,22,25,40,42,58,65,72,78,80,89,97,109,111,120,124,132,143,146,157,158,158
participant_5_KILLS,0,0,0,0,0,0,0,0,0,0,1,1,1,1,1,1,1,2,2,2,2,3,5,5,5
participant_5_BUY,[],"[1056, 2003, 2003]",[],[],[],[],[],"[6660, 1029]",[],[],[],"[6662, 1001]",[],[],"[1028, 1036, 1029]",[],"[3047, 1029, 3044]",[],[],"[1028, 1037]",[],[],[3053],"[3082, 1029]",[]
participant_5_SOLD,[],[],[],[],[],[],[],[],[],[],[2003],"[2003, 6660, 1029]",[],[],[],[],"[1001, 1029, 1028, 1036]",[],[],[],[],[],"[1037, 3044, 1028]",[],[]
participant_5_UNDO,[],[],[],[],[],[],[],[],[],[],[],[],[],[],[],[],"[[0, 1029]]",[],[],[],[],[],[],[],[]
participant_6_GOLD,500,500,620,1033,1716,2478,2821,3058,3466,3988,4408,5354,6156,6646,6818,7091,7748,8196,8717,9129,10147,10604,10802,11836,11857
participant_6_CURRENTGOLD,500,0,120,533,1216,1978,2321,458,866,1388,1808,2754,106,596,798,471,1128,1576,1672,434,1452,1909,282,1317,1307
participant_6_LEVEL,1,1,2,3,4,4,5,5,6,6,7,8,8,9,9,9,10,11,11,11,12,12,13,13,13
participant_6_MINIONSKILLED,0,0,0,0,4,4,4,5,10,10,10,15,19,19,19,19,19,19,21,21,23,24,24,24,24
participant_6_KILLS,0,0,0,0,1,1,1,1,2,2,2,3,4,4,4,6,7,7,7,8,8,8,10,10,10
participant_6_BUY,[],"[1055, 2003, 3340]",[],[],[],"[1036, 1001, 2003]",[],[],[],"[6670, 1042, 2055]",[],[3006],[],[1037],[],[],"[6672, 1042]",[],"[6677, 1042]",[],[],[1018],[],[3124],"[1053, 1042]"
participant_6_SOLD,[],[],[],[2003],[],[],[],[2003],[],[1036],[],"[1001, 1042]",[2055],[],[],[],"[6670, 1037]",[],[1042],[],[],[],[],"[6677, 1018, 1042]",[]
participant_6_UNDO,[],[],[],[],[],[],[],[],[],[],[],[],[],[],[],[],[],[],[],[],[],[],[],[],[]
participant_7_GOLD,500,500,611,927,1433,1928,2278,2624,2983,3297,3851,4453,5242,5789,6642,7209,7781,8088,8511,8927,9958,10265,11058,12179,12249
participant_7_CURRENTGOLD,500,0,111,417,923,33,373,719,1068,422,976,43,822,269,1112,1679,101,408,331,747,1778,460,1253,2374,2524
participant_7_LEVEL,1,1,1,3,4,5,6,6,7,8,8,9,10,10,11,11,12,12,12,13,13,13,14,14,14
participant_7_MINIONSKILLED,0,0,5,14,25,34,44,57,67,75,82,88,101,107,119,128,140,140,146,154,164,164,177,185,185
participant_7_KILLS,0,0,0,0,1,3,3,3,3,4,4,5,5,5,5,5,6,6,7,7,9,9,9,10,10
participant_7_BUY,[],"[1035, 2003, 3340, 2003, 2003]",[],[],[],[],[],"[3134, 1001, 1036, 1036]",[],[],[],[],"[6691, 3134, 1037, 2055]",[],[],[1018],[],[],[6676],"[1038, 1036]",[],[],"[3072, 2055]",[],[]
participant_7_SOLD,[],[],[],[2003],[2003],[2003],[],[],[],[],[],"[3340, 3513]","[3134, 1036, 1036]",[],[2055],[],[1035],[],"[3134, 1037, 1018]",[],[],[],"[1038, 1036]",[],[2055]
participant_7_UNDO,[],[],[],[],[],[],[],[],[],[],[],[],[],[],[],[],[],[],[],[],[],[],[],[],[]
participant_8_GOLD,500,500,562,818,1303,1474,1639,1960,2538,2818,3031,3509,4156,4323,4495,5516,6008,6393,6592,7086,7461,7730,8612,9133,9154
participant_8_CURRENTGOLD,500,0,62,318,803,274,439,760,1338,293,506,484,1131,423,595,1616,583,968,367,861,1236,905,1787,1208,29
participant_8_LEVEL,1,1,1,2,3,4,4,5,6,6,6,7,7,8,8,9,9,10,10,10,11,11,12,13,13
participant_8_MINIONSKILLED,0,0,2,10,12,15,17,26,29,29,34,36,42,43,43,46,46,57,61,64,68,72,72,74,74
participant_8_KILLS,0,0,0,0,0,0,0,0,0,0,1,1,2,2,2,2,2,2,3,3,4,4,4,6,6
participant_8_BUY,[],"[1055, 2003, 3340]",[],[],[],"[6670, 2055]",[],[],[],"[1037, 2055]",[],"[6672, 1042]",[],[3133],[],[],"[3508, 1036]",[],[3006],[],[],"[3133, 1037]",[],[],[]
participant_8_SOLD,[],[],[],[2010],[2003],[2010],[],[2055],[],[],"[2055, 2010]","[6670, 1037]",[],[],[],[],[3133],[3340],"[1042, 2422]",[],[3513],[1036],[],[],[]
participant_8_UNDO,[],[],[],[],[],[],[],[],[],[],[],[],[],[],[],[],[],[],[],[],[],[],[],[],[]
participant_9_GOLD,500,500,582,838,1021,1759,1954,2196,2643,2860,3174,3554,3988,4231,4589,5330,5625,5838,6104,6395,6733,6895,7195,8198,8221
participant_9_CURRENTGOLD,500,0,82,338,121,424,194,436,368,360,674,154,588,681,1039,1780,475,688,304,595,933,295,595,1598,1621
participant_9_LEVEL,1,1,1,2,2,4,4,5,5,6,6,7,7,7,8,8,9,9,9,9,10,10,10,11,11
participant_9_MINIONSKILLED,0,0,0,1,3,8,9,11,12,17,19,20,21,26,28,29,30,34,34,34,35,36,36,36,36
participant_9_KILLS,0,0,0,0,0,1,1,1,1,1,1,1,1,1,1,2,2,2,2,2,2,2,2,4,4
participant_9_BUY,[],"[3850, 2003, 2003, 3340]",[],[],"[1001, 2003, 2003]",[1052],"[1027, 2055]",[],[3802],"[2055, 3364, 2031]",[],[3108],[],"[2055, 2055]",[],[],"[6653, 1028]",[],"[1011, 2055, 2055]",[],[],[3020],[],[],[]
participant_9_SOLD,[],[],[],"[2003, 2003]",[],[],[],"[2003, 2003]","[2055, 3850, 1052, 1027]",[3340],[2055],[],[],[],[],[3851],"[3802, 3108, 2055]",[2055],[1028],[],[],[1001],[2055],[],[]
participant_9_UNDO,[],[],[],[],[],[],[],[],[],[],[],[],[],[],[],[],[],[],[],[],[],[],[],[],[]
team0_KILLS,0,0,0,0,1,1,1,1,3,3,3,6,6,7,7,7,8,9,10,11,12,12,13,15,15
team0_CURRENTGOLD,2500,0,337,1744,2396,2139,3510,2610,5036,1673,2767,2495,2370,3439,5363,2344,2938,2510,3126,3032,2566,1926,3705,3061,2858
team0_TOTALGOLD,2500,2500,2837,4254,5931,7234,8615,9900,12336,13388,14792,17215,18590,20424,22358,23314,25258,27280,29396,30902,32306,33266,35045,37251,37358
team0_LEVEL,5,5,6,13,17,20,23,26,31,31,35,36,39,42,43,44,48,49,51,53,54,55,57,59,59
team0_SBIRES,0,0,4,29,50,69,92,122,154,164,192,202,228,249,275,281,319,336,357,370,384,399,416,421,421
team1_KILLS,0,0,0,0,2,5,5,5,6,7,9,11,13,13,13,16,18,19,21,22,25,26,30,35,35
team1_CURRENTGOLD,2500,0,472,1998,3760,3633,4678,2574,4291,3407,5796,3506,3060,2723,3607,5991,2383,4401,3897,2872,6192,4926,5488,7055,6059
team1_TOTALGOLD,2500,2500,2972,4508,6670,9063,10543,11839,14081,15707,18096,20941,23955,25743,27657,30641,33158,35176,37047,38947,42267,44026,47138,51103,51259
team1_LEVEL,5,5,6,13,17,22,25,27,31,34,36,40,42,44,46,48,51,54,54,56,59,60,64,66,66
team1_SBIRES,0,0,11,37,66,86,114,141,176,196,217,237,263,284,306,331,346,370,386,405,433,442,466,477,477
delta_KILLS,0,0,0,0,-1,-4,-4,-4,-3,-4,-6,-5,-7,-6,-6,-9,-10,-10,-11,-11,-13,-14,-17,-20,-20
delta_CURRENTGOLD,0,0,-135,-254,-1364,-1494,-1168,36,745,-1734,-3029,-1011,-690,716,1756,-3647,555,-1891,-771,160,-3626,-3000,-1783,-3994,-3201
delta_TOTALGOLD,0,0,-135,-254,-739,-1829,-1928,-1939,-1745,-2319,-3304,-3726,-5365,-5319,-5299,-7327,-7900,-7896,-7651,-8045,-9961,-10760,-12093,-13852,-13901
delta_LEVEL,0,0,0,0,0,-2,-2,-1,0,-3,-1,-4,-3,-2,-3,-4,-3,-5,-3,-3,-5,-5,-7,-7,-7
delta_SBIRES,0,0,-7,-8,-16,-17,-22,-19,-22,-32,-25,-35,-35,-35,-31,-50,-27,-34,-29,-35,-49,-43,-50,-56,-56
