name,frame_0,frame_1,frame_2,frame_3,frame_4,frame_5,frame_6,frame_7,frame_8,frame_9,frame_10,frame_11,frame_12,frame_13,frame_14,frame_15,frame_16,frame_17,frame_18,frame_19,frame_20,frame_21,frame_22,frame_23,frame_24,frame_25,frame_26,frame_27,frame_28,frame_29,frame_30,frame_31,frame_32,frame_33,frame_34,frame_35,frame_36,frame_37,frame_38,frame_39,frame_40,frame_41,frame_42,frame_43,frame_44,frame_45,frame_46,frame_47
nameStamp,Tstart,Tearly,Tearly,Tearly,Tearly,Tearly,Tearly,Tearly,Tearly,Tearly,Tearly,Tearly,Tearly,Tearly,Tearly,Tmid,Tmid,Tmid,Tmid,Tmid,Tmid,Tmid,Tmid,Tmid,Tmid,Tmid,Tmid,Tmid,Tmid,Tmid,Tmid,Tmid,Tmid,Tend,Tend,Tend,Tend,Tend,Tend,Tend,Tend,Tend,Tend,Tend,Tend,Tend,Tend,Tend
timestamp,0,60014,120018,180024,240043,300054,360059,420073,480101,540106,600124,660135,720151,780157,840178,900187,960209,1020221,1080231,1140262,1200279,1260321,1320327,1380346,1440347,1500365,1560366,1620384,1680392,1740412,1800413,1860436,1920453,1980465,2040469,2100482,2160491,2220515,2280518,2340537,2400543,2460575,2520582,2580594,2640595,2700618,2760629,2820629
participant_0_GOLD,500,500,520,691,920,1112,1256,1497,1696,1819,2053,2669,2950,3143,3479,4051,4603,4775,4898,5139,5373,5796,6568,7141,7537,8635,9072,9244,9471,9893,10333,10970,11113,11249,11432,12057,12179,13527,13649,13824,14154,14297,14678,15086,15208,15480,15653,15666
participant_0_CURRENTGOLD,500,0,20,191,420,612,106,347,546,319,553,1169,1450,253,589,236,788,960,683,924,1158,96,103,601,562,260,697,435,661,233,674,250,393,94,277,902,359,807,929,204,534,243,623,1032,89,361,533,81
participant_0_LEVEL,1,1,1,2,4,5,5,6,7,7,8,8,9,9,10,10,11,11,12,12,12,12,13,13,13,13,14,14,14,14,15,15,15,15,16,16,16,16,16,17,17,17,17,18,18,18,18,18
participant_0_MINIONSKILLED,0,0,0,3,9,13,14,21,25,25,32,35,41,45,54,54,58,58,58,66,72,72,72,72,72,72,72,72,74,74,84,85,86,87,88,93,93,93,93,94,102,103,107,112,112,119,119,119
participant_0_KILLS,0,0,0,0,0,0,0,0,0,0,0,0,1,1,1,1,2,2,3,4,4,4,4,5,5,5,6,6,6,6,8,8,8,8,10,10,10,11,11,11,12,12,12,12,12,12,12,12
participant_0_BUY,[],[3850],[],[],[],[1052],[],[3191],[],[1052],[],[3108],[],"[3157, 1001]",[],[],"[3117, 1026]",[],[],[3802],[],[],[3285],[],[],[],[1058],[],[],[1058],[],[3089],[1058],[],[],[3907],[],[],[],[],[],[],[3089],[],[],[],[],[]
participant_0_SOLD,[],[],[],[],[],[],[],[1052],[],[],[3850],[1052],[2419],"[3191, 3108, 2423]",[],[],[1001],[],[3851],[],[],[],"[3802, 1026]",[],[],[],[],[],[],[],[],"[1058, 1058]",[],[],[],[1058],[],[],[],[],[],[],[3907],[],[],[],[],[]
participant_0_UNDO,[],[],[],[],[],[],[],[],[],[],[],[],[],[],[],[],[],[],[],[],[],[],[],[],[],[],[],[],[],[],[],[],[],[],[],[],[],[],[],[],[],[],[],[],[],[],[],[]
participant_1_GOLD,500,500,620,1140,1445,1881,2300,2557,2917,3490,3902,4547,5892,6119,6326,6479,6861,7033,7286,7477,7820,8282,8887,9285,9758,10448,10963,12010,12392,12515,12937,13764,13972,14355,14847,15534,15656,15978,16306,17108,17430,17937,18179,18927,19349,19766,20057,20071
participant_1_CURRENTGOLD,500,0,120,640,945,1381,1800,307,667,340,752,1397,2742,819,1026,79,461,233,486,77,420,882,1487,1885,2358,3048,3564,4610,293,175,598,825,1032,1416,1908,2594,2717,1239,1567,640,961,1468,1710,2458,2881,3297,3589,2771
participant_1_LEVEL,1,1,2,2,3,4,5,6,6,7,7,8,9,9,9,9,10,10,10,10,11,11,12,12,13,14,14,15,15,15,16,16,16,16,17,17,17,18,18,18,18,18,18,18,18,18,18,18
participant_1_MINIONSKILLED,0,0,0,0,0,0,0,0,0,0,0,3,3,5,5,5,5,5,5,6,6,6,14,14,19,19,20,23,23,23,23,24,24,27,33,38,38,38,38,40,41,41,48,58,73,79,85,85
participant_1_KILLS,0,0,0,1,1,1,1,1,1,2,2,3,4,4,4,4,4,4,4,4,4,4,5,5,5,6,7,9,9,9,10,11,11,11,11,12,12,12,12,13,13,14,14,15,15,15,15,15
participant_1_BUY,[],"[1039, 2031, 3340]",[],[],[],[],[],"[3706, 3111]",[],[3751],[],[],[],"[1401, 3024, 3801]",[],[3800],[],[1028],[],"[1011, 3364]",[],[],[],[],[],[],[],[],"[3742, 3065]",[1029],[],[3024],[],[],[],[],[],[3110],[],[3193],[],[],[],[],[],[],[],[]
participant_1_SOLD,[],[],[],[],[],[],[],[1039],[],[],[],[],[],"[3751, 3706]",[],"[3024, 3801]",[],[],[],"[1028, 3340]",[],[],[],[],[],[],[],[],[1011],[2031],[],[1029],[],[],[],[],[],[3024],[],[3111],[],[],[],[],[],[],[],[]
participant_1_UNDO,[],[],[],[],[],[],[],[],[],[],[],[],[],[],[],[],[],[],[],[],[],[],[],[],[],[],[],[],[],[],[],[],[],[],[],[],[],[],[],[],[],[],[],[],[],[],[],[]
participant_2_GOLD,500,500,520,663,857,1028,1214,1427,1640,1913,2398,2754,2890,3082,3554,3739,3946,4167,4633,4756,4899,5072,5303,5474,5722,6041,6258,6757,6880,7072,8080,8505,8871,9404,9547,9968,10111,10436,10691,11205,11459,11671,12010,12864,13307,14623,14927,14940
participant_2_CURRENTGOLD,500,0,20,163,357,528,714,627,840,313,798,1154,990,1182,1654,1839,2046,167,633,756,899,1072,1303,1474,422,741,958,1157,80,272,1280,1705,371,904,1047,1469,311,636,892,105,360,572,910,1115,1557,724,1028,1040
participant_2_LEVEL,1,1,1,2,3,4,4,5,6,6,7,7,8,8,8,9,10,10,10,10,11,11,11,12,12,12,12,13,13,13,13,14,14,14,15,15,15,16,16,16,16,17,17,17,17,18,18,18
participant_2_MINIONSKILLED,0,0,0,1,5,8,12,17,22,22,34,38,39,43,54,58,63,66,71,71,72,72,73,76,79,83,83,86,86,86,86,91,101,102,103,106,106,111,119,119,122,123,128,130,130,136,140,140
participant_2_KILLS,0,0,0,0,0,0,0,0,0,0,0,1,1,1,1,1,1,1,1,1,1,1,1,1,1,1,1,1,1,1,1,1,1,1,1,1,1,1,1,1,1,1,2,2,2,2,2,2
participant_2_BUY,[],"[1055, 2003]",[],[],"[2003, 2003, 2003, 2003]",[],[],[],[],"[2003, 2003]",[],[1043],[],[3006],[],[],[],[],[],"[3086, 1042]",[],[],[3085],[],[],[],[],[],[1038],[],[],[],[],[],[],[],[],[],[3031],[1052],[],[],[],"[3124, 2003, 2003, 2003, 2003]",[],[],[],[]
participant_2_SOLD,[],[],[],[2003],[],[],[],[],[2003],[],[],[],[],[2422],[],[2003],[],[],[],[],[],[],"[2003, 1042, 3086]",[],[],[],[],[],[],[],[],[],[],[],[],[],[],[],"[1038, 1055]",[2003],[],[2003],[],"[1052, 1043]",[],[2003],[],[]
participant_2_UNDO,[],[],[],[],[],[],[],[],[],[],[],[],[],[],[],[],[],[],[],[],[],[],[],[],[],[],[],[],[],[],[],[],[],[],[],[],[],[],[],[],[],[],[],[],[],[],[],[]
participant_3_GOLD,500,500,590,733,857,1105,1228,1350,1528,1700,2007,2430,2723,2845,3147,3325,3476,4097,4219,4512,4648,5011,5273,5504,5721,5995,6303,6725,6986,7179,7695,8148,8292,8509,8746,8918,9040,9254,9377,9627,9845,10134,10716,10964,11316,11761,11954,11968
participant_3_CURRENTGOLD,500,0,90,233,157,405,528,650,828,900,1207,630,923,245,547,725,876,1497,1619,212,348,711,73,304,520,795,1103,1525,486,679,1195,1648,1792,2009,2246,2418,2540,2755,957,773,990,1280,1862,244,597,1042,1235,1068
participant_3_LEVEL,1,1,1,2,2,3,3,4,5,5,6,6,6,6,7,7,8,8,8,9,9,10,10,10,11,11,12,12,12,12,13,14,14,14,14,14,14,15,15,15,15,15,16,16,17,17,17,17
participant_3_MINIONSKILLED,0,0,4,5,5,10,10,10,13,16,22,22,27,27,34,37,39,49,49,49,50,56,56,57,59,59,61,63,67,67,68,70,71,71,74,77,77,79,79,79,79,85,93,93,102,113,114,114
participant_3_KILLS,0,0,0,0,0,0,0,0,0,0,0,1,1,1,1,2,3,3,3,3,3,3,5,6,7,8,9,9,9,10,10,11,11,11,11,12,12,14,14,14,14,14,14,14,14,14,14,14
participant_3_BUY,[],"[1056, 2003, 2003, 3340]",[],[],[],[],"[1001, 2055, 1052]",[],[],[1027],[],[],[],"[3020, 3802, 2055]",[],"[1026, 2055]",[],[],[1028],[],[],"[3285, 1052]",[3916],[2055],[1052],[3165],[],[1052],[],[1026],[],[3135],[],[1052],[],[],[3191],[3108],[],[3157],[],[1052],[],[],[3136],[],[],[]
participant_3_SOLD,[],[],[],"[2003, 2003]",[],[],[1056],[],[2055],[],[],[],[],"[1001, 1052, 1027]",[2055],[],[2055],[],[],[],[],"[3802, 1026]","[1028, 1052]",[],[],[3916],[],[],[2055],[],[],"[1052, 1026, 1052]",[],[],[],[],[1052],[],[],"[3191, 3108]",[],[],[],[],[1052],[],[],[]
participant_3_UNDO,[],[],[],[],[],[],[],[],[],[],[],[],[],[],[],[],[],[],[],[],[],[],[],[],[],[],[],[],[],[],[],[],[],[],[],[],[],[],[],[],[],[],[],[],[],[],[],[]
participant_4_GOLD,500,500,522,804,970,1148,1363,1576,1834,2020,2374,2736,3663,3849,4031,4348,4995,5410,5910,6650,6867,7177,7492,8007,8193,8371,9112,9442,9596,9786,11863,12327,12468,12748,13773,14118,14259,14974,15114,15461,16007,16189,16380,16520,16674,16887,17106,17121
participant_4_CURRENTGOLD,500,100,122,404,570,313,528,76,334,85,439,336,1263,499,681,998,95,510,1010,450,668,977,242,758,944,1121,612,942,1096,37,2113,1478,368,648,1673,369,509,1224,1365,1712,2257,2440,1060,1200,1355,1568,1786,-229
participant_4_LEVEL,1,1,1,2,2,2,3,4,4,4,5,6,7,7,7,7,8,9,9,9,10,10,11,11,11,12,12,12,13,13,14,14,14,14,15,15,15,16,16,16,16,17,17,17,17,18,18,18
participant_4_MINIONSKILLED,0,0,0,2,2,3,5,8,11,12,16,18,26,26,29,33,35,40,41,41,46,53,53,53,53,53,53,54,55,55,61,64,64,66,71,71,71,71,71,74,80,82,82,82,83,85,87,87
participant_4_KILLS,0,0,0,0,0,0,0,0,0,0,0,0,0,0,0,0,0,0,0,0,0,0,0,0,0,0,0,0,0,0,2,2,2,3,3,3,3,3,3,4,4,4,4,5,6,7,7,7
participant_4_BUY,[],"[1055, 2003]",[],[],[],[],[],[1042],[],[1018],[],[],[3086],[],[],[],[],"[1038, 1018]",[],[],[],[],[],[],[3031],[],[],[1001],[3046],[],[],[],"[3006, 1053]",[],[],[],[1038],[],[],[3072],[],[],[],[2420],[],[3026],[],[]
participant_4_SOLD,[],[],[2003],[],[],[],[],[],[],[],[],[],"[1018, 1042]",[],[],[],[],[],[],[],[],[],[],[],"[1038, 1018]",[],[],[],[3086],[],[],[],[1001],[],[],[],[],[],[],"[1038, 1053]",[],[],[],[],[],[2420],[],[]
participant_4_UNDO,[],[],[],[],[],[],[],[],[],[],[],[],[],[],[],[],[],[],[],[],[],[],[],[],[],[],[],[],[],[],[],[],[],[],[],[],[],[],[],[],[],[],[],[],[],[],[],[]
participant_5_GOLD,500,500,583,866,1148,1347,1648,1840,2109,2379,2522,2797,3059,3314,3673,3928,4093,4265,4457,4650,4793,5111,5901,6393,6536,7607,7893,8016,8187,8759,8948,9881,10304,10757,10900,11279,11532,12259,12395,13556,13728,14586,14858,16073,16244,16366,16610,16693
participant_5_CURRENTGOLD,500,0,83,366,648,847,1148,1340,1609,1879,372,647,909,1164,1523,1778,1943,465,657,850,193,511,1301,1793,136,1207,1493,216,387,959,348,1281,984,1087,1231,359,612,1339,276,637,809,1667,1139,2353,2525,1447,1691,1593
participant_5_LEVEL,1,1,1,3,4,4,6,6,7,8,8,9,9,10,10,11,11,11,11,12,12,12,13,13,13,14,14,15,15,15,15,16,16,17,17,17,17,18,18,18,18,18,18,18,18,18,18,18
participant_5_MINIONSKILLED,0,0,3,12,18,23,31,35,43,51,52,58,66,73,80,88,90,90,94,99,100,107,109,113,113,117,118,118,121,121,121,122,122,127,128,131,133,133,134,141,141,141,141,144,147,147,148,148
participant_5_KILLS,0,0,0,0,1,1,1,1,1,1,1,2,2,3,3,3,4,4,4,5,5,5,5,5,5,5,5,5,5,8,8,8,8,10,10,11,11,11,11,12,12,12,12,12,12,12,15,16
participant_5_BUY,[],"[1055, 3340]",[],[],[],"[2015, 1042]",[],[],[],[],[3087],[1042],[],[],[3006],[],[1038],[1037],[],[],[3031],[],[1036],[1036],[],[],[],[3133],[],[],[3508],"[1036, 1036, 1053]",[],[],[1038],[],[],[3072],[],[1036],[],[],[],[],[3044],[],[],[]
participant_5_SOLD,[],[],[],[],[],[],[],[],[],[],"[1042, 2015]",[],[],[],[1042],[],[],[],[],[],"[1038, 1037]",[],[],[],[],[],[],"[1036, 1036]",[],[],"[3133, 1055]",[],[],[],[],[],[],"[1038, 1053]",[],[],[],[],[],[],[1036],[],[],[]
participant_5_UNDO,[],[],[],[],[],[],[],[],[],[],[],[],[],[],[],[],[],[],[],[],[],[],[],[],[],[],[],[],[],[],[],"[[0, 1036], [0, 1036]]",[],[],[],[],[],[],[],[],[],[],[],[],[],[],[],[]
participant_6_GOLD,500,500,620,763,905,1217,1470,1677,1899,2239,2484,2607,3189,3339,3826,4092,4357,5023,5202,5349,5762,6094,6556,7580,7750,8660,8833,9800,10027,10766,10990,12153,12614,12937,13144,13882,14005,14920,15097,16121,16639,17386,18375,18497,19001,19124,20088,20171
participant_6_CURRENTGOLD,500,0,120,213,355,667,220,427,49,389,334,57,639,164,651,917,182,848,427,574,987,219,81,1105,75,985,158,25,252,992,316,1478,640,962,1169,608,330,446,623,1647,265,1012,2001,1223,1728,860,1824,-1104
participant_6_LEVEL,1,1,2,2,2,3,4,4,4,5,5,5,6,6,7,8,8,9,9,10,10,10,11,12,12,13,13,14,14,15,15,16,16,17,17,17,17,18,18,18,18,18,18,18,18,18,18,18
participant_6_MINIONSKILLED,0,0,0,1,1,1,1,1,1,1,1,1,4,4,4,4,4,9,12,12,12,15,15,16,18,24,24,29,29,30,32,38,39,39,39,41,41,41,41,41,41,41,51,51,61,61,67,67
participant_6_KILLS,0,0,0,0,2,2,3,3,3,5,5,6,6,7,7,8,9,11,11,14,14,14,14,14,14,14,14,15,15,15,15,15,15,15,15,15,15,18,18,18,18,18,19,19,19,19,19,19
participant_6_BUY,[],"[1054, 2003, 3340]",[],[],[],[3006],[],[],[],[],[],[1038],[1053],[],[3072],[1018],[],[1038],[],[],"[3031, 2015]",[],[],[],[],[],[3086],[],[3087],[],[1018],[],[],[3086],[1042],"[1038, 3077]",[],[1038],[1018],[],[3095],[],[],[3044],[],[],[],[]
participant_6_SOLD,[],[],[],[],[],[],[],[2003],[],[],[],[],[],[],"[1038, 1053]",[1054],[],[],[],[],"[1038, 1018]",[],[],[],[],[],[],[],"[3086, 2015]",[],[],[],[],[1018],[],"[3086, 1042]",[],[3077],[],[],"[1038, 1018]",[],[],[],[],[],[],[]
participant_6_UNDO,[],[],[],[],[],[],[],[],[],[],[],[],[],[],[],[],[],[],[],[],[],[],[],[],[],[],[],[],[],[],[],[],[],[],[],"[[0, 1038]]",[],[],[],[],[],[],[],[],[],[],[],[]
participant_7_GOLD,500,500,541,1291,1457,1938,2287,2618,2804,3251,3457,3656,4122,5198,5384,5745,6038,6721,6906,7039,7314,7437,7714,8177,8299,8422,8684,9376,9499,9926,10098,10795,11343,12308,12431,13441,13765,13925,14048,14384,14556,15758,16135,16567,16690,16833,17228,17291
participant_7_CURRENTGOLD,500,0,41,791,122,603,952,243,429,526,732,81,547,1623,109,470,763,1446,346,479,754,637,149,612,184,307,569,1262,284,711,234,930,329,1294,1416,1527,1851,2011,2133,2470,542,1744,2121,2553,216,359,754,516
participant_7_LEVEL,1,1,1,3,4,5,6,6,7,7,8,8,9,9,10,10,11,11,11,12,12,12,12,13,13,13,13,14,14,14,14,15,15,16,16,17,17,17,17,18,18,18,18,18,18,18,18,18
participant_7_MINIONSKILLED,0,0,1,12,15,20,30,33,37,43,48,52,59,64,65,75,81,84,88,88,93,93,93,95,95,95,96,100,100,100,100,105,105,109,109,113,121,121,121,125,125,127,133,135,135,136,138,138
participant_7_KILLS,0,0,0,1,1,2,2,2,2,3,3,3,3,5,5,5,5,6,6,6,6,6,6,6,6,6,6,7,7,7,7,8,8,10,10,12,12,12,12,12,12,15,15,15,15,15,15,15
participant_7_BUY,[],"[1056, 2003, 2003]",[],[],"[1052, 1028]",[],[],"[3136, 1001, 2055]",[],[1082],[],[1026],[],[],"[3151, 3020, 2055, 2055]",[],[],[],"[1026, 1052]",[],[],[1028],[3916],[],[3165],[],[],[],[3191],[],[2420],[],[3157],[],[],[3108],[],[],[],[],[3102],[],[],[],[3116],[],[],[]
participant_7_SOLD,[],[],[2003],[],[],[],[2003],"[1028, 1052]",[],[],[2055],[],[],[],"[3136, 1026, 1001]","[2055, 2055]",[],[],[],[],[],[1056],"[1028, 1052]",[],"[3916, 1026]",[],[],[],[],[],[],[],"[3191, 2420]",[],[],[],[],[],[],[],[3108],[],[],[],[1082],[],[],[]
participant_7_UNDO,[],[],[],[],[],[],[],[],[],[],[],[],[],[],[],[],[],[],[],[],[],[],[],[],[],[],[],[],[],[],[],[],[],[],[],[],[],[],[],[],[],[],[],[],[],[],[],[]
participant_8_GOLD,500,500,520,677,1614,1757,2195,2415,2798,3084,3220,3606,3728,4594,5190,5418,6081,6457,6691,7617,7802,8079,8201,8324,8531,8653,8962,9084,9418,11093,11282,11654,12161,13059,13216,13848,13971,14231,14534,15070,15284,15481,15754,16257,16379,16846,18284,18697
participant_8_CURRENTGOLD,500,50,70,227,1164,307,745,965,1348,1634,170,256,378,1244,1040,1268,631,132,366,1292,252,529,301,74,281,403,712,434,769,2443,612,84,592,1489,347,979,1101,61,365,551,765,963,1235,1738,961,1427,2866,3097
participant_8_LEVEL,1,1,1,2,3,3,4,5,5,6,6,6,6,8,8,8,9,10,10,11,11,12,12,12,12,12,12,12,12,13,13,14,14,15,15,15,15,16,16,16,17,17,17,18,18,18,18,18
participant_8_MINIONSKILLED,0,0,0,2,7,8,16,22,30,36,37,37,37,47,52,58,64,64,72,78,81,90,90,90,90,90,91,91,98,106,106,106,106,106,108,113,113,113,119,119,121,121,121,130,130,140,146,146
participant_8_KILLS,0,0,0,0,0,0,0,0,0,0,0,0,1,1,1,1,1,1,1,1,1,1,2,4,4,4,4,5,5,6,6,7,7,7,7,8,8,9,9,11,11,11,11,11,11,11,12,12
participant_8_BUY,[],"[1041, 2003, 2003, 2003, 3340]",[],[2003],[],[],"[3706, 2003]",[],"[1042, 1001]",[],[1042],[1043],[],[1416],[],[],"[3117, 1042]",[],"[1042, 1042]",[],[],[3086],[3085],[],"[1053, 1042]",[],"[3144, 1042]",[3153],[],[],[1053],[],[1038],[],[],[3072],[1028],[3052],[],[],[3022],[],[],"[3006, 2140]",[],"[3033, 2140]",[],[]
participant_8_SOLD,[],[],[],"[2003, 2003, 2003]",[],[2003],[1041],[2003],[],[],[],"[1042, 1042]",[],"[1043, 3706]",[],[],[1001],[],[],[],[],[1042],"[1042, 3086, 1042]",[],[],[],[1053],"[3144, 1042, 1042]",[],[],[],[],[],[],[],"[1038, 1053]",[],[1028],[],[],[3052],[],[],"[3117, 2140]",[],"[3153, 2140]",[],[]
participant_8_UNDO,[],[],[],[],[],[],[],[],[],[],[],[],[],[],[],[],[],[],[],[],[],[],[],[],[],[],[],[],[],[],[],[],[],[],[],[],[],[],[],[],[],[],[],[],[],[],[],[]
participant_9_GOLD,500,500,541,726,1646,1803,2296,2440,2677,3293,3415,4073,4195,4917,5490,5933,6567,7413,7536,8953,9176,9298,9656,9905,10208,10330,10603,11096,11339,11631,11853,11976,12398,12520,12743,13010,13157,14385,14781,14980,15152,15274,16468,16590,16813,16935,17415,17428
participant_9_CURRENTGOLD,500,0,41,226,1146,203,696,840,1077,1693,1815,1173,395,1117,390,213,847,393,516,1933,156,278,636,885,1188,1311,183,677,419,712,134,256,679,201,124,256,403,1259,855,1053,126,248,1442,314,536,659,1139,-1147
participant_9_LEVEL,1,1,1,2,3,3,5,5,6,6,6,7,7,8,9,9,9,10,10,11,11,11,12,12,12,12,12,13,13,13,13,13,14,14,14,14,14,15,16,16,16,16,17,17,17,17,18,18
participant_9_MINIONSKILLED,0,0,1,5,7,8,10,11,13,14,14,21,21,22,23,23,30,34,34,35,35,35,36,36,42,42,42,45,47,47,47,47,47,47,47,47,47,47,53,53,53,53,64,64,64,64,71,71
participant_9_KILLS,0,0,0,0,0,0,0,0,0,0,0,0,0,0,0,0,0,0,0,0,0,0,2,3,3,6,6,6,6,7,7,9,9,9,9,9,9,10,10,12,12,14,14,17,17,17,17,17
participant_9_BUY,[],"[1054, 2003, 3340]",[],[],[],[],[],[],[],[],"[3044, 1028]",[],[],[],[],[],[],"[3071, 1001]",[],[],[3111],[],[],[],"[1011, 1031]",[],[],"[3742, 1029]",[],[],[3105],[],[1053],[1036],[],[3812],[],[],[3211],[3067],[],[],[3065],[],[],[3052],[],[]
participant_9_SOLD,[],[],[],[],[],[2003],[],[],[],[],[],[],[],[],[],[],[],"[3044, 1028]",[],[],[1001],[],[],[],[],[],[],"[1031, 1011]",[],[],[1029],[],[1054],[],[],"[3105, 1053, 1036]",[],[],[],[],[],[],"[3211, 3067]",[],[],[],[],[]
participant_9_UNDO,[],[],[],[],[],[],[],[],[],[],[],[],[],[],[],[],[],[],[],[],[],[],[],[],[],[],[],[],[],[],[],[],[],[],[],[],[],[],[],[],[],[],[],[],[],[],[],[]
team0_KILLS,0,0,0,1,1,1,1,1,1,2,2,5,7,7,7,8,10,10,11,12,12,12,15,17,18,20,23,25,25,26,31,33,33,34,36,38,38,41,41,43,44,45,46,48,49,50,50,50
team0_CURRENTGOLD,2500,100,372,1631,2449,3239,3676,2007,3215,1957,3749,4686,7368,2998,4497,3877,4266,3367,4431,2419,3493,3738,3208,5022,4806,5965,6934,8669,2616,1396,5860,5906,3956,5071,7151,7752,6436,6661,5710,3434,5102,6003,6165,6049,6479,6992,8171,4731
team0_TOTALGOLD,2500,2500,2772,4031,5049,6274,7361,8407,9615,10942,12734,15136,18118,19038,20537,21942,23881,25482,26946,28534,29607,31338,33523,35411,36931,39490,41708,44178,45325,46445,50908,53714,54716,56265,58345,60595,61245,64169,65137,67225,68895,70228,71963,74361,75854,78517,79697,79766
team0_LEVEL,5,5,6,10,14,18,20,25,28,29,33,35,39,39,41,42,47,48,49,50,53,54,57,58,60,62,64,66,67,67,71,73,73,73,77,77,77,81,81,82,82,84,85,86,87,89,89,89
team0_SBIRES,0,0,4,11,21,34,41,56,71,75,104,116,136,146,176,187,200,218,224,233,246,259,268,272,282,286,289,298,305,305,322,334,346,353,369,385,385,392,400,406,424,434,458,475,500,532,545,545
team1_KILLS,0,0,0,1,4,5,6,6,6,9,9,11,12,16,16,17,19,22,22,26,26,26,29,32,32,35,35,38,38,43,43,47,47,51,51,55,55,60,60,65,65,70,71,74,74,74,78,79
team1_CURRENTGOLD,2500,50,355,1823,3435,2627,3761,3815,4512,6121,3423,2214,2868,5312,3713,4646,4366,3284,2312,5128,2342,2174,2468,4469,1864,4213,3115,2614,2111,5817,1644,4029,3224,5033,4287,3729,4297,5116,4252,6358,2507,5634,7938,8181,5966,4752,8274,2955
team1_TOTALGOLD,2500,2500,2805,4323,6770,8062,9896,10990,12287,14246,15098,16739,18293,21362,23563,25116,27136,29879,30792,33608,34847,36019,38028,40379,41324,43672,44975,47372,48470,52175,53171,56459,58820,61581,62434,65460,66430,69720,70855,74111,75359,78485,81590,83984,85127,86104,89625,90280
team1_LEVEL,5,5,6,12,16,18,25,26,29,32,33,35,37,41,44,46,48,51,51,56,56,57,60,62,62,64,64,68,68,70,70,74,75,79,79,80,80,84,85,86,87,87,88,89,89,89,90,90
team1_SBIRES,0,0,5,32,48,60,88,102,124,145,152,169,187,210,224,248,269,281,300,312,321,340,343,350,358,368,371,383,395,404,406,418,419,428,431,445,455,455,468,479,481,483,510,524,537,548,570,570
delta_KILLS,0,0,0,0,-3,-4,-5,-5,-5,-7,-7,-6,-5,-9,-9,-9,-9,-12,-11,-14,-14,-14,-14,-15,-14,-15,-12,-13,-13,-17,-12,-14,-14,-17,-15,-17,-17,-19,-19,-22,-21,-25,-25,-26,-25,-24,-28,-29
delta_CURRENTGOLD,0,50,17,-192,-986,612,-85,-1808,-1297,-4164,326,2472,4500,-2314,784,-769,-100,83,2119,-2709,1151,1564,740,553,2942,1752,3819,6055,505,-4421,4216,1877,732,38,2864,4023,2139,1545,1458,-2924,2595,369,-1773,-2132,513,2240,-103,1776
delta_TOTALGOLD,0,0,-33,-292,-1721,-1788,-2535,-2583,-2672,-3304,-2364,-1603,-175,-2324,-3026,-3174,-3255,-4397,-3846,-5074,-5240,-4681,-4505,-4968,-4393,-4182,-3267,-3194,-3145,-5730,-2263,-2745,-4104,-5316,-4089,-4865,-5185,-5551,-5718,-6886,-6464,-8257,-9627,-9623,-9273,-7587,-9928,-10514
delta_LEVEL,0,0,0,-2,-2,0,-5,-1,-1,-3,0,0,2,-2,-3,-4,-1,-3,-2,-6,-3,-3,-3,-4,-2,-2,0,-2,-1,-3,1,-1,-2,-6,-2,-3,-3,-3,-4,-4,-5,-3,-3,-3,-2,0,-1,-1
delta_SBIRES,0,0,-1,-21,-27,-26,-47,-46,-53,-70,-48,-53,-51,-64,-48,-61,-69,-63,-76,-79,-75,-81,-75,-78,-76,-82,-82,-85,-90,-99,-84,-84,-73,-75,-62,-60,-70,-63,-68,-73,-57,-49,-52,-49,-37,-16,-25,-25
