name,frame_0,frame_1,frame_2,frame_3,frame_4,frame_5,frame_6,frame_7,frame_8,frame_9,frame_10,frame_11,frame_12,frame_13,frame_14,frame_15,frame_16,frame_17,frame_18,frame_19,frame_20,frame_21,frame_22
nameStamp,Tstart,Tearly,Tearly,Tearly,Tearly,Tearly,Tearly,Tearly,Tearly,Tearly,Tearly,Tearly,Tearly,Tmid,Tend,Tend,Tend,Tend,Tend,Tend,Tend,Tend,Tend
timestamp,0,60005,120008,180017,240030,300035,360063,420069,480102,540108,600137,660155,720178,780208,840220,900251,960268,1020287,1080297,1140304,1200323,1260341,1320362
participant_0_GOLD,500,1172,1265,1841,2399,3076,3913,4396,5146,5822,6692,7498,8438,9367,10402,10868,12642,13961,14321,14875,15352,16237,16597
participant_0_CURRENTGOLD,500,672,365,941,1499,2176,3013,596,246,922,557,1363,388,567,1602,468,2242,1021,691,1245,672,1557,1267
participant_0_LEVEL,1,1,1,2,3,4,5,6,6,7,8,9,11,11,13,13,14,15,15,16,16,17,17
participant_0_MINIONSKILLED,0,0,0,5,11,19,24,28,30,34,43,49,55,66,81,88,88,95,95,101,103,107,107
participant_0_KILLS,0,2,2,2,2,2,3,3,3,3,4,4,5,5,5,5,7,8,8,8,8,9,9
participant_0_BUY,[],"[1056, 2003, 3340, 2003]",[1056],[],[],[],[],"[3116, 1058, 1058, 1001, 2003, 2003]",[3089],[],"[3020, 1052]",[],"[3136, 1026]",[3151],[],[3916],[],"[3165, 3802]","[1026, 1026]",[],[3285],[],[2420]
participant_0_SOLD,[],[],[],[],[],[],[],[2003],"[2003, 1058, 1058]","[2003, 2003]",[1001],[],[1052],"[3136, 1026]",[],[],[],"[3916, 1056]","[1056, 1056]",[],"[3802, 1026]",[],[]
participant_0_UNDO,[],[],[],[],[],[],[],"[[0, 3116]]",[],[],[],[],[],[],[],[],[],[],"[[0, 1026], [1056, 0]]",[],[],[],[]
participant_1_GOLD,500,673,778,1473,1957,2465,3169,3728,5002,5607,6237,7103,7584,8707,9316,9761,10834,11916,12510,12870,13289,13944,14411
participant_1_CURRENTGOLD,500,173,278,973,1457,415,1119,878,402,1007,537,1003,609,1207,1816,811,1134,366,960,570,369,224,691
participant_1_LEVEL,1,1,1,2,3,4,5,6,7,7,8,9,9,11,11,12,13,14,15,15,15,16,17
participant_1_MINIONSKILLED,0,0,0,9,12,14,18,24,33,41,43,48,49,53,57,57,57,61,68,68,68,68,70
participant_1_KILLS,0,0,0,0,0,0,0,0,2,2,2,3,3,4,4,4,5,5,5,5,5,5,5
participant_1_BUY,[],"[1054, 2003, 3340]",[],[],[],"[3044, 1001]",[],[3067],"[3071, 3111]",[],"[3044, 3101, 1036, 3134]",[1028],[1037],[3814],"[3134, 1036]","[3105, 1036]",[3133],[3812],[1033],[3211],[3067],[3065],[]
participant_1_SOLD,[],[],[2003],[],[],[],[],[],"[3044, 3067, 1001]",[],[],[],[],"[1037, 3134, 1028]",[],[],[1036],"[3105, 3133]",[],[1033],[1054],"[3211, 3067]",[]
participant_1_UNDO,[],[],[],[],[],[],[],[],[],[],"[[0, 3044], [0, 1036], [0, 3101]]",[],[],[],"[[0, 1036], [0, 3134]]",[],[],[],[],[],[],[],[]
participant_2_GOLD,500,1321,1492,2229,2867,3430,4075,4721,5775,6825,7947,8661,9949,10744,11434,11804,13086,13947,14307,15087,15610,15970,16443
participant_2_CURRENTGOLD,500,821,992,1729,2367,2930,3575,321,1375,25,1147,161,1449,944,334,404,1686,2547,1787,2567,990,360,833
participant_2_LEVEL,1,1,1,3,3,4,5,5,6,7,8,9,10,12,12,12,13,14,14,15,16,16,16
participant_2_MINIONSKILLED,0,0,4,16,27,31,41,52,65,75,89,90,103,104,112,112,117,122,122,131,133,133,136
participant_2_KILLS,0,2,2,2,2,2,2,2,3,4,5,6,7,7,7,7,8,8,8,8,8,8,8
participant_2_BUY,[],"[1055, 2003, 3340]",[],[],[],[],[],"[3046, 1038]",[],"[3031, 1001]",[],"[1053, 3006]",[],[1038],[3072],[1042],[],[],[3140],[],[3139],[3211],[]
participant_2_SOLD,[],[2003],[],[],[],[],[],[],[],[1038],[],[1001],[],[],"[1038, 1053]",[],[],[],[1055],[],[3140],[1042],[]
participant_2_UNDO,[],[],[],[],[],[],[],[],[],[],[],[],[],[],[],[],[],[],[],[],[],[],[]
participant_3_GOLD,500,616,745,1271,1787,2261,2802,3303,3981,4832,5532,6627,7343,7973,8497,8898,9554,10366,10767,11318,11838,12814,13199
participant_3_CURRENTGOLD,500,116,245,771,1287,1761,2302,703,1381,2232,2932,1527,2243,1773,612,597,1254,1266,367,918,48,1023,1409
participant_3_LEVEL,1,1,1,3,3,4,5,5,6,7,8,10,10,11,12,12,13,14,14,14,15,16,16
participant_3_MINIONSKILLED,0,0,0,0,0,0,0,0,0,0,0,1,1,1,1,1,2,4,4,6,6,6,6
participant_3_KILLS,0,0,0,0,0,0,0,0,0,1,1,1,1,1,1,1,1,1,1,1,1,2,2
participant_3_BUY,[],"[3850, 2003, 2003, 3340]",[],[],[],[],[],[3174],[],[],[],"[1058, 1058]",[],[3089],"[1058, 1052]",[3113],[],[3907],[3802],[],[3504],[],[3113]
participant_3_SOLD,[],[],[],[],[],[],[],[],[2003],[2003],[],[],[],"[3850, 1058, 1058]",[],[1052],[],"[1058, 3113]",[],[],[3802],[],[]
participant_3_UNDO,[],[],[],[],[],[],[],[],[],[],[],[],[],[],[],[],[],[],[],[],[],[],"[[0, 3113]]"
participant_4_GOLD,500,923,1417,2950,3550,4285,4785,5661,6372,6929,7504,9298,10158,11840,12921,13560,14820,15883,16328,16884,18706,20016,20472
participant_4_CURRENTGOLD,500,423,267,1800,2400,3135,285,811,1522,629,1204,1898,683,2365,3446,1160,2420,433,878,1434,1906,3216,3672
participant_4_LEVEL,1,1,1,3,4,5,6,7,8,8,9,10,10,12,13,13,14,15,15,16,17,17,17
participant_4_MINIONSKILLED,0,0,4,9,18,27,32,39,49,57,66,77,77,84,87,93,93,107,107,107,118,118,119
participant_4_KILLS,0,1,2,4,4,4,4,5,5,5,5,8,8,11,12,12,13,13,13,13,15,17,17
participant_4_BUY,[],"[2033, 3340]","[1001, 1036]",[],[],[],"[3814, 3111]",[1036],[],"[3134, 1036, 1036]",[],[3147],"[3052, 1037]",[],[],"[3053, 1053, 3105]",[],"[3812, 3035]",[],[],[3033],[],[]
participant_4_SOLD,[],[],[],[],[],[],"[1036, 1001]",[],[],[1036],[],"[3134, 1036, 1036]",[],[],[],"[3052, 1037, 2033]",[],"[3105, 1053]",[],[],[3035],[],[]
participant_4_UNDO,[],[],[],[],[],[],[],[],[],[],[],[],[],[],[],[],[],[],[],[],[],[],[]
participant_5_GOLD,500,505,766,1329,2062,2792,4092,5445,6291,7335,8120,9437,10798,11589,12469,14197,14657,15159,15946,16931,17932,19173,20654
participant_5_CURRENTGOLD,500,5,266,394,1127,742,2042,110,955,2001,120,1437,1648,2439,819,2547,307,809,906,1891,2892,683,2164
participant_5_LEVEL,1,1,2,3,4,5,6,7,8,9,10,10,11,12,13,14,15,15,16,17,18,18,19
participant_5_MINIONSKILLED,0,0,6,10,21,33,43,54,66,75,84,94,102,106,109,113,113,115,115,118,121,125,126
participant_5_KILLS,0,0,0,0,0,0,0,1,1,2,2,3,4,4,4,6,6,6,7,7,8,9,11
participant_5_BUY,[],"[1056, 2003, 2003, 3340]",[],[1052],[],"[3136, 2003]",[],"[3151, 1026, 1028, 1052]",[],[],"[3116, 3191, 2420]",[],[3157],[],"[1058, 1058]",[],"[3089, 3916]",[],[1026],[],[],"[3165, 3907]",[]
participant_5_SOLD,[],[2003],[2003],[],[],[1052],[2003],[3136],[],[],"[1026, 1052, 1028]",[],"[3191, 2420]",[3340],[],[3513],"[1058, 1058]",[],[1056],[3340],[3513],"[3916, 1026]",[]
participant_5_UNDO,[],[],[],[],[],[],[],[],[],[],[],[],[],[],[],[],[],[],[],[],[],[],[]
participant_6_GOLD,500,500,589,1160,1708,2385,2995,3624,4424,4988,5623,6472,7987,9154,10408,11290,11767,12428,13112,13813,15288,16126,16858
participant_6_CURRENTGOLD,500,0,89,660,1208,285,545,1174,699,538,273,372,1887,1104,358,1240,1717,778,1462,973,2448,2336,3068
participant_6_LEVEL,1,1,1,2,3,4,5,6,7,7,8,9,11,13,14,15,15,16,16,17,18,18,19
participant_6_MINIONSKILLED,0,0,0,4,9,20,27,38,48,55,60,64,70,82,88,91,93,95,103,104,108,115,115
participant_6_KILLS,0,0,0,0,0,0,0,0,0,0,0,1,3,3,5,5,5,5,5,5,8,8,9
participant_6_BUY,[],"[1036, 2031]",[],[],[],"[3052, 1001, 1033]",[3111],[],"[1037, 1028]",[3053],[1053],"[1029, 1033]",[],[3812],"[1028, 1033, 3211, 1028, 3067]",[],[],"[3065, 3067]",[],[3044],[],[3071],[]
participant_6_SOLD,[],[],[],[],[],[1036],"[1001, 1033]",[],[],"[3052, 1037, 1028]",[],[],[],"[1033, 1029, 1053]","[1028, 1033, 1028]",[],[],"[3211, 3067]",[],[2031],[],"[3044, 3067]",[]
participant_6_UNDO,[],[],[],[],[],[],[],[],[],[],[],[],[],[],[],[],[],[],[],[],[],[],[]
participant_7_GOLD,500,500,967,1602,2223,2815,3452,4236,4950,5460,5999,6505,6938,8058,9012,10944,11367,13341,14188,15330,15834,17233,17646
participant_7_CURRENTGOLD,500,0,467,752,1373,1965,2602,3386,4100,427,166,272,255,1025,1179,3111,234,2208,3055,1397,1081,580,993
participant_7_LEVEL,1,1,1,2,3,4,5,5,6,7,7,8,8,11,11,13,13,14,15,16,17,17,18
participant_7_MINIONSKILLED,0,0,2,9,19,25,35,49,59,59,65,68,70,76,89,95,97,107,109,124,130,131,131
participant_7_KILLS,0,0,1,1,1,1,1,1,1,1,1,1,1,2,2,4,4,7,8,8,8,11,11
participant_7_BUY,[],"[1027, 1054, 2003]",[],[1027],[],[],[],[],[],"[3078, 3047]",[3067],[1028],[1033],[3211],[3065],[],"[3075, 1028]",[],[],[3053],[3082],"[3110, 3143]",[]
participant_7_SOLD,[],[],[],[],[],"[2003, 2010, 2010]",[2010],[2010],[],"[1027, 2422]",[],[],[],"[1028, 1033]","[3211, 3067]",[],[],[],[],[1028],[1054],"[3082, 3082]",[]
participant_7_UNDO,[],"[[0, 1027]]",[],[],[],[],[],[],[],[],[],[],[],[],[],[],[],[],[],[],[],"[[0, 3110]]",[]
participant_8_GOLD,500,550,1032,1596,2146,2651,3284,3721,4738,5387,6424,7129,8185,9018,9497,11015,11438,12056,12944,14245,14807,15601,16518
participant_8_CURRENTGOLD,500,50,532,1096,1646,2151,2784,371,338,552,1589,729,935,1218,447,1965,38,656,694,1995,757,1551,2468
participant_8_LEVEL,1,1,1,3,4,4,5,5,6,7,8,9,10,12,12,13,13,14,15,16,17,18,19
participant_8_MINIONSKILLED,0,2,4,9,14,14,19,20,20,25,31,36,37,42,45,50,51,54,61,79,79,86,93
participant_8_KILLS,0,0,1,1,1,1,1,1,2,2,3,3,4,4,4,6,6,6,7,7,7,7,7
participant_8_BUY,[],"[1056, 2003, 2003]",[],[],[],[],[],"[3802, 1026, 1001, 1028]",[3285],[1052],[],"[3020, 3916]",[1026],[3165],[1058],[],[3089],[],[1026],[],[3135],[],[]
participant_8_SOLD,[],[],[2003],[],[],[],[2003],[],"[3802, 1026]",[],[],"[1001, 1028, 1052]",[],"[3916, 1026]",[],[],[1058],[],[],[],[1026],[],[]
participant_8_UNDO,[],[],[],[],[],[],[],[],[],[],[],[],[],[],[],[],[],[],[],[],[],[],[]
participant_9_GOLD,500,500,646,1107,1573,2003,2472,2961,3435,4445,4869,5329,5702,6579,7230,8403,8777,9702,10390,11070,11748,12707,13136
participant_9_CURRENTGOLD,500,50,196,657,1123,1553,2022,2511,685,895,1319,479,852,479,1130,2303,2677,1152,1840,720,1398,1257,436
participant_9_LEVEL,1,1,1,2,3,4,5,5,6,6,7,8,8,10,11,13,13,14,15,16,17,18,18
participant_9_MINIONSKILLED,0,0,0,0,0,0,0,0,1,1,1,1,1,1,1,1,1,1,1,1,1,3,3
participant_9_KILLS,0,0,0,0,0,0,0,0,0,1,1,1,1,1,1,1,1,2,2,2,2,2,2
participant_9_BUY,[],"[2003, 1056]",[],[],[],[],[],[],[3504],[3028],[],[3174],[],[1058],[],[],[],"[3916, 1026]",[],"[3165, 1058]",[],[3089],"[1058, 1058]"
participant_9_SOLD,[],[],[2003],[],[],[],[],[],[],[],[],[3028],[],[],[],[],[],[],[],"[3916, 1026]",[],"[1058, 1058]",[]
participant_9_UNDO,[],[],[],[],[],[],[],[],[],[],[],[],[],[],[],[],[],[],[],[],[],[],"[[0, 1058]]"
team0_KILLS,0,5,6,8,8,8,9,10,13,15,17,22,24,28,29,29,34,35,35,35,37,41,41
team0_CURRENTGOLD,2500,2205,2147,6214,9010,10417,10294,3309,4926,4815,6377,5952,5372,6856,7810,3440,8736,5633,4683,6734,3985,6380,7872
team0_TOTALGOLD,2500,4705,5697,9764,12560,15517,18744,21809,26276,30015,33912,39187,43472,48631,52570,54891,60936,66073,68233,71034,74795,78981,81122
team0_LEVEL,5,5,5,13,16,21,26,29,33,36,41,47,50,57,61,62,67,72,73,76,79,82,83
team0_SBIRES,0,0,8,39,68,91,115,143,177,207,241,265,285,308,338,351,357,389,396,413,428,432,438
team1_KILLS,0,0,2,2,2,2,2,3,4,6,7,9,13,14,16,22,22,26,29,29,33,37,40
team1_CURRENTGOLD,2500,105,1550,3559,6477,6696,9995,7552,6777,4413,3467,3289,5577,6265,3933,11166,4973,5603,7957,6976,8576,6407,9129
team1_TOTALGOLD,2500,2555,4000,6794,9712,12646,16295,19987,23838,27615,31035,34872,39610,44398,48616,55849,58006,62686,66580,71389,75609,80840,84812
team1_LEVEL,5,5,6,12,17,21,26,28,33,36,40,44,48,58,61,68,69,73,77,82,87,89,93
team1_SBIRES,0,2,12,32,63,92,124,161,194,215,241,263,280,307,332,350,355,372,389,426,439,460,468
delta_KILLS,0,5,4,6,6,6,7,7,9,9,10,13,11,14,13,7,12,9,6,6,4,4,1
delta_CURRENTGOLD,0,2100,597,2655,2533,3721,299,-4243,-1851,402,2910,2663,-205,591,3877,-7726,3763,30,-3274,-242,-4591,-27,-1257
delta_TOTALGOLD,0,2150,1697,2970,2848,2871,2449,1822,2438,2400,2877,4315,3862,4233,3954,-958,2930,3387,1653,-355,-814,-1859,-3690
delta_LEVEL,0,0,-1,1,-1,0,0,1,0,0,1,3,2,-1,0,-6,-2,-1,-4,-6,-8,-7,-10
delta_SBIRES,0,-2,-4,7,5,-1,-9,-18,-17,-8,0,2,5,1,6,1,2,17,7,-13,-11,-28,-30
