name,frame_0,frame_1,frame_2,frame_3,frame_4,frame_5,frame_6,frame_7,frame_8,frame_9,frame_10,frame_11,frame_12,frame_13,frame_14,frame_15,frame_16,frame_17,frame_18,frame_19,frame_20,frame_21,frame_22,frame_23,frame_24
nameStamp,Tstart,Tearly,Tearly,Tearly,Tearly,Tearly,Tearly,Tearly,Tearly,Tearly,Tearly,Tearly,Tearly,Tearly,Tearly,Tearly,Tearly,Tmid,Tmid,Tmid,Tmid,Tmid,Tmid,Tmid,Tend
timestamp,0,60030,120036,180057,240062,300096,360098,420109,480115,540133,600165,660182,720185,780207,840209,900217,960247,1020258,1080259,1140274,1200280,1260283,1320314,1380326,1440326
participant_0_GOLD,500,500,521,804,1132,1401,1671,2222,2434,2790,3163,3522,3686,3990,4655,4819,5219,5341,6035,6439,6645,7144,7478,7601,7941
participant_0_CURRENTGOLD,500,0,21,304,632,151,421,972,84,440,813,372,536,840,1505,169,169,291,985,589,295,794,1128,201,541
participant_0_LEVEL,1,1,1,2,4,4,5,6,6,7,7,8,8,9,10,10,11,11,11,12,12,13,13,13,14
participant_0_MINIONSKILLED,0,0,0,9,14,20,28,41,43,53,59,69,71,82,84,87,96,96,108,113,118,133,133,133,143
participant_0_KILLS,0,0,0,0,0,0,0,0,0,0,0,0,0,0,1,1,1,1,1,1,1,1,1,1,1
participant_0_BUY,[],"[1054, 2003, 3340]",[],[],[],"[1001, 1029, 2031, 1029, 1029, 2031]",[],[],"[3047, 1029]",[],[],"[3082, 1028]",[],[],[],[3143],[1028],[],[],"[3751, 1029]",[1031],[],[],[3068],[]
participant_0_SOLD,[],[],[],[],[2003],[],[],[],[1029],[],[],"[1029, 1029]",[],[],[],"[3082, 1028]",[],[],[],[1028],[1029],[],[],"[1031, 3751]",[]
participant_0_UNDO,[],[],[],[],[],"[[0, 2031], [0, 1029], [0, 1001]]",[],[],[],[],[],[],[],[],[],[],[],[],[],[],[],[],[],[],[]
participant_1_GOLD,500,500,690,928,1160,1549,1847,2014,2524,2904,3784,4127,4375,4632,5366,5784,6277,6694,7056,7512,7660,7782,8000,8122,8521
participant_1_CURRENTGOLD,500,0,190,428,660,1049,1347,189,699,1079,859,1202,1450,307,1041,1459,552,169,531,237,385,507,725,97,496
participant_1_LEVEL,1,1,2,3,3,4,5,5,6,6,8,8,9,9,10,10,11,11,11,11,12,12,12,12,12
participant_1_MINIONSKILLED,0,0,0,0,1,1,1,1,1,3,3,3,4,4,10,14,14,14,14,15,15,15,15,15,22
participant_1_KILLS,0,0,0,0,0,0,0,0,0,0,2,2,2,2,2,2,2,3,3,4,4,4,4,4,4
participant_1_BUY,[],"[1041, 3340, 2003, 2003, 2003]",[],[],[],[],[],"[3077, 3364]",[],[],[3134],[],[],"[3133, 1001]",[],[],"[3147, 1036, 1036]",[3047],[],"[3134, 1036]",[],[],[],[3133],[]
participant_1_SOLD,[],[],[2003],"[2003, 2003]",[],[],[],[3340],[],[],[],[],[],[],[],[],"[3134, 3133]",[1001],[],"[1036, 1036]",[],[],[],[1036],[]
participant_1_UNDO,[],[],[],[],[],[],[],[],[],[],[],[],[],[],[],[],[],[],[],[],[],[],[],[],[]
participant_2_GOLD,500,510,622,972,1458,1741,2011,2238,2604,2981,3194,3462,3844,4176,4569,4985,5357,5625,6122,6545,7749,7872,9526,9649,9836
participant_2_CURRENTGOLD,500,10,122,472,958,1241,136,363,729,261,474,67,449,781,1174,540,912,380,877,900,2104,184,1838,286,203
participant_2_LEVEL,1,1,1,3,4,4,5,6,6,7,7,8,8,9,9,10,10,11,11,12,12,12,13,13,13
participant_2_MINIONSKILLED,0,1,6,17,21,28,36,42,53,64,69,74,86,98,110,123,131,136,153,166,169,169,180,180,185
participant_2_KILLS,0,0,0,0,0,0,0,0,0,0,0,0,0,0,0,0,0,0,0,0,0,0,0,0,0
participant_2_BUY,[],"[3854, 2003, 2003, 3340]",[3364],[],"[1001, 2031]",[],[],[3117],[],[],"[1036, 1036]",[],[],[3134],[],[],"[1036, 2055, 2055]",[],[],"[3123, 2055]",[2055],[],[],[1036],[]
participant_2_SOLD,[],[],[3340],[2003],[2003],[],[],[1001],[],[],[],[],[3854],"[1036, 1036]",[],[],[],[],[2055],[1036],[2055],[],"[2055, 3855, 2055]",[],[]
participant_2_UNDO,[],[],[],[],[],[],[],[],[],[],[],[],[],[],[],[],[],[],[],[],[],[],[],[],[]
participant_3_GOLD,500,500,584,1383,1527,1929,2118,2429,2910,3218,3573,3981,4208,4597,5810,5933,6722,6872,7087,8009,8464,8586,8759,8945,9166
participant_3_CURRENTGOLD,500,0,84,883,202,604,343,654,1135,68,423,831,158,547,1760,1883,272,422,637,1559,94,216,389,275,316
participant_3_LEVEL,1,1,1,2,3,4,4,5,6,6,7,7,8,8,9,9,9,9,9,10,11,11,11,11,11
participant_3_MINIONSKILLED,0,0,3,17,18,32,33,44,57,63,74,87,93,105,116,116,125,127,129,129,136,136,138,142,145
participant_3_KILLS,0,0,0,0,1,1,1,1,1,1,1,1,1,1,1,1,1,1,1,1,2,2,5,5,5
participant_3_BUY,[],"[2003, 1055, 3340]",[],[],[],[],"[3070, 1001, 2055, 2031]",[],[],[1037],[],[3004],[],[],[],[3057],[],[3020],[],[1028],[],[3078],[],"[3123, 1037]",[]
participant_3_SOLD,[],[],[],[],[],[2003],[],[],[],[2055],[],"[3070, 1037]",[],[],[],[],[],[1001],[],[],[],"[3004, 2031, 1055, 3057, 1028]",[],[],[]
participant_3_UNDO,[],[],[],[],[],[],[],[],[],[],[],[],[],[],[],[],[],[],[],[],[],[],[],[],[]
participant_4_GOLD,500,500,523,908,1091,1324,1538,1687,1936,2150,2357,2521,2660,2879,3019,3159,3506,3736,3948,4088,4303,4444,4764,4904,5022
participant_4_CURRENTGOLD,500,0,23,408,161,394,608,57,306,520,27,191,330,149,289,429,276,506,718,333,473,614,934,724,822
participant_4_LEVEL,1,1,1,2,3,4,4,4,5,5,6,6,6,6,6,7,7,7,8,8,8,8,9,9,10
participant_4_MINIONSKILLED,0,0,0,3,6,9,11,12,14,14,15,16,16,17,17,17,21,22,23,23,23,23,24,24,24
participant_4_KILLS,0,0,0,1,1,1,1,1,1,1,1,1,1,1,3,3,3,3,3,4,4,4,4,4,4
participant_4_BUY,[],"[2003, 3340, 1055]",[],[],"[1036, 1036, 2055, 2003]",[],"[3133, 2055, 2003]",[],[],"[1038, 2055]",[],[],[3508],[],[],[],"[1038, 3047]",[],[],[3363],[3031],[],[],[1029],[]
participant_4_SOLD,[],[],[],[],[],[2003],"[2003, 1036, 1036, 2055]",[],[],[],[2003],[],"[1038, 3133]",[],[],[2055],[],[],[],[3340],"[1055, 1038]",[],[],[],[]
participant_4_UNDO,[],[],[],[],[],[],"[[0, 2055]]",[],[],[],[],[],[],[],[],[],[],[],[],[],[],[],[],[],[]
participant_5_GOLD,500,500,626,832,1127,1466,1750,2001,2722,2845,3458,3727,4515,4868,5894,6016,6307,7589,8263,9110,9282,9994,10337,12774,13886
participant_5_CURRENTGOLD,500,0,126,332,27,366,650,901,1622,145,758,1027,1815,518,1544,516,232,1514,1388,2235,2407,249,592,229,1311
participant_5_LEVEL,1,1,1,2,3,4,5,5,7,7,8,9,10,10,11,11,11,12,12,13,13,13,13,15,15
participant_5_MINIONSKILLED,0,0,6,11,18,28,37,41,54,54,66,74,85,90,99,99,109,109,120,130,130,130,134,134,141
participant_5_KILLS,0,0,0,0,0,0,1,1,1,1,1,2,2,2,2,2,2,2,2,4,6,6,6,6,6
participant_5_BUY,[],"[3340, 2033]",[],[],[1036],[],[],[3144],[],"[1043, 3057]",[],[],[],"[1043, 1029]",[],[3153],[],[],[],"[3044, 3047, 1042]","[3078, 1028]","[1029, 1029]",[3082],[],[1011]
participant_5_SOLD,[],[],[],[],[],[],[],[1036],[],[],[],[],[],[],[],"[3144, 1043]",[],[],[],"[1029, 2422]","[1042, 3057, 3044]",[],"[1029, 1029]",[],[]
participant_5_UNDO,[],[],[],[],[],[],[],[],[],"[[0, 1043]]",[],[],[],[],[],[],[],[],[],[],[],"[[0, 1028]]",[],[],[]
participant_6_GOLD,500,500,616,933,1156,1376,1764,2120,2242,2655,2802,3265,3755,4114,4405,4918,5210,5859,6361,6762,7119,7860,7983,8515,8962
participant_6_CURRENTGOLD,500,0,116,433,146,366,754,1110,117,530,77,540,1030,1389,1680,93,385,1034,1536,287,644,1385,108,325,712
participant_6_LEVEL,1,1,2,3,3,4,5,5,5,6,6,7,8,8,9,10,10,11,11,12,12,12,12,13,13
participant_6_MINIONSKILLED,0,0,1,1,1,2,2,3,3,3,3,3,4,5,5,5,5,10,13,13,13,16,16,16,16
participant_6_KILLS,0,0,0,0,0,0,0,0,1,1,2,2,3,3,4,4,4,7,8,8,8,9,9,13,15
participant_6_BUY,[],"[1055, 2003, 3340]",[],[],"[1042, 1042]",[],[],[],[],"[1018, 3006]",[],[],[],"[1038, 1036]",[],"[3508, 1042]","[3101, 2055]",[],[1018],[],[],"[3031, 1042]",[],[3124],[]
participant_6_SOLD,[],[],[],[2003],[],[],[],[],[],[1042],[],[],[],[],[],"[1038, 1036, 1018]","[1042, 1042]",[],[],[],[],"[1018, 2055]",[],[1042],[]
participant_6_UNDO,[],[],[],[],[],[],[],[],[],[],[],[],[],[],[],[],[],[],[],[],[],[],[],[],[]
participant_7_GOLD,500,500,598,818,1144,1462,2181,2366,2725,3172,3413,4078,4390,4659,5052,5552,5937,6510,7221,8159,9066,9439,9590,10321,10531
participant_7_CURRENTGOLD,500,0,98,318,294,612,1331,266,625,22,263,928,1240,209,602,402,787,1360,2071,959,333,506,257,988,198
participant_7_LEVEL,1,1,1,2,4,5,6,6,7,8,8,9,9,10,10,11,11,12,12,13,13,14,14,15,15
participant_7_MINIONSKILLED,0,0,4,9,22,31,44,48,58,74,81,90,98,107,119,137,148,152,165,167,177,181,183,189,193
participant_7_KILLS,0,0,0,0,0,0,0,0,0,0,0,0,1,1,1,1,1,2,2,2,2,4,4,4,5
participant_7_BUY,[],"[1039, 2031, 3340, 3364]",[],[],"[1052, 2055]",[],[],[],"[3706, 3108]",[],[1402],[],[],[],[],"[3047, 1026, 2055, 2055]",[],[],[],"[3136, 2055, 2055]",[],[],"[3151, 2420]","[1029, 2055]",[]
participant_7_SOLD,[],[3340],[],[],[],[],[],[2055],"[1039, 1052]",[],"[3108, 3706]",[],[],[],[],[3364],"[2055, 2055]",[3513],[],[],[],[],"[3136, 1026]","[2055, 2031]",[]
participant_7_UNDO,[],[],[],[],[],[],[],[],[],[],[],[],[],[],[],[],[],[],[],[],[],[],[],[],[]
participant_8_GOLD,500,500,563,734,1134,1298,1994,2329,2591,2891,3090,3332,3721,3948,4071,4193,4585,4707,4984,5380,5851,6233,6355,7373,7622
participant_8_CURRENTGOLD,500,0,63,84,484,648,1344,1679,141,441,640,207,596,523,76,198,590,362,639,1035,456,838,410,328,547
participant_8_LEVEL,1,1,1,2,3,3,4,5,5,6,6,6,7,7,7,7,8,8,8,9,9,10,10,12,12
participant_8_MINIONSKILLED,0,0,2,5,19,21,34,44,52,59,63,70,82,88,88,88,100,100,106,115,118,126,126,144,145
participant_8_KILLS,0,0,0,0,0,0,1,1,1,1,1,1,1,1,1,1,1,1,1,1,1,1,1,1,1
participant_8_BUY,[],"[1055, 2003, 3340]",[],[2031],[],[],[],[],"[3070, 1037, 2055]",[],[],[3004],[],[1001],[3158],[],[],[1027],[],[],"[3057, 1027]",[],[3024],"[3025, 1036, 3363]",[]
participant_8_SOLD,[],[],[],[2003],[],[],[],[2010],[2010],[],[2055],"[3070, 1037]",[],[],"[2010, 1001]",[],[],[],[],[],[1027],[],[1027],"[3057, 3024, 3340]",[]
participant_8_UNDO,[],[],[],[],[],[],[],[],[],[],[],[],[],[],[],[],[],[],[],[],[],[],[],[],[]
participant_9_GOLD,500,500,538,804,939,1133,1358,1507,1686,1842,2036,2171,2320,2454,2637,2777,2948,3388,3593,3972,4178,4617,5107,5997,6582
participant_9_CURRENTGOLD,500,500,38,304,439,633,858,1007,36,192,386,446,595,179,362,27,198,638,43,72,278,717,1207,397,982
participant_9_LEVEL,1,1,1,2,3,3,4,5,5,6,6,6,7,7,7,7,7,8,8,9,9,9,10,12,12
participant_9_MINIONSKILLED,0,0,0,2,2,2,2,2,2,3,3,3,3,3,3,3,4,4,4,4,4,5,5,5,5
participant_9_KILLS,0,0,0,0,0,0,0,0,0,0,0,0,0,0,0,0,0,0,0,0,0,0,1,1,1
participant_9_BUY,[],[],"[3850, 2003, 2003, 3340]",[],[],[],[],[],"[3108, 1004, 1004]",[],[],[2055],[],[3028],[],"[3174, 2055, 3364]",[],[],[3114],"[1028, 1082]",[],[],[],"[3504, 2055, 1004]",[]
participant_9_SOLD,[],[],[],[2003],[],[],[2003],[],[],[],[],[],[],"[1004, 1004]",[3850],"[2055, 3108, 3028, 3340]",[],[],[],[],[],[2055],[],"[3114, 3851]",[]
participant_9_UNDO,[],[],[],[],[],[],[],[],[],[],[],[],[],[],[],[],[],[],[],"[[0, 1028]]",[],[],[],[],[]
team0_KILLS,0,0,0,1,2,2,2,2,2,2,4,4,4,4,7,7,7,8,8,10,11,11,14,14,14
team0_CURRENTGOLD,2500,10,440,2495,2613,3439,2855,2235,2953,2368,2596,2663,2923,2624,5769,4480,2181,1768,3748,3618,3351,2315,5014,1583,2378
team0_TOTALGOLD,2500,2510,2940,4995,6368,7944,9185,10590,12408,14043,16071,17613,18773,20274,23419,24680,27081,28268,30248,32593,34821,35828,38527,39221,40486
team0_LEVEL,5,5,6,12,17,20,23,26,29,31,35,37,39,41,44,46,48,49,50,53,55,56,58,58,60
team0_SBIRES,0,1,9,46,60,90,109,140,168,197,220,249,270,306,337,357,387,395,427,446,461,476,490,494,519
team1_KILLS,0,0,0,0,0,0,2,2,3,3,4,5,7,7,8,8,8,12,13,15,17,20,21,25,28
team1_CURRENTGOLD,2500,500,441,1471,1390,2625,4937,4963,2541,1330,2124,3148,5276,2818,4264,1236,2192,4908,5677,4588,4118,3695,2574,2267,3750
team1_TOTALGOLD,2500,2500,2941,4121,5500,6735,9047,10323,11966,13405,14799,16573,18701,20043,22059,23456,24987,28053,30422,33383,35496,38143,39372,44980,47583
team1_LEVEL,5,5,6,11,16,19,24,26,29,33,34,37,41,42,44,46,47,51,51,56,56,58,59,67,67
team1_SBIRES,0,0,13,28,62,84,119,138,169,193,216,240,272,293,314,332,366,375,408,429,442,458,464,488,500
delta_KILLS,0,0,0,1,2,2,0,0,-1,-1,0,-1,-3,-3,-1,-1,-1,-4,-5,-5,-6,-9,-7,-11,-14
delta_CURRENTGOLD,0,-490,-1,1024,1223,814,-2082,-2728,412,1038,472,-485,-2353,-194,1505,3244,-11,-3140,-1929,-970,-767,-1380,2440,-684,-1372
delta_TOTALGOLD,0,10,-1,874,868,1209,138,267,442,638,1272,1040,72,231,1360,1224,2094,215,-174,-790,-675,-2315,-845,-5759,-7097
delta_LEVEL,0,0,0,1,1,1,-1,0,0,-2,1,0,-2,-1,0,0,1,-2,-1,-3,-1,-2,-1,-9,-7
delta_SBIRES,0,1,-4,18,-2,6,-10,2,-1,4,4,9,-2,13,23,25,21,20,19,17,19,18,26,6,19
