name,team0,team1
win,Fail,Win
firstBlood,False,True
firstTower,True,False
firstInhibitor,False,True
firstBaron,False,True
firstDragon,False,True
firstRiftHerald,False,False
towerKills,1,8
inhibitorKills,0,2
baronKills,0,1
dragonKills,1,3
riftHeraldKills,0,0
