name,frame_0,frame_1,frame_2,frame_3,frame_4,frame_5,frame_6,frame_7,frame_8,frame_9,frame_10,frame_11,frame_12,frame_13,frame_14,frame_15,frame_16,frame_17,frame_18,frame_19,frame_20,frame_21,frame_22,frame_23,frame_24,frame_25,frame_26,frame_27
nameStamp,Tstart,Tearly,Tearly,Tearly,Tearly,Tearly,Tearly,Tearly,Tearly,Tearly,Tearly,Tearly,Tearly,Tearly,Tmid,Tmid,Tmid,Tmid,Tmid,Tmid,Tmid,Tmid,Tmid,Tmid,Tmid,Tmid,Tmid,Tmid
timestamp,0,60019,120048,180083,240108,300113,360145,420147,480177,540185,600213,660228,720232,780238,840241,900246,960247,1020275,1080299,1140322,1200323,1260347,1320376,1380387,1440390,1500402,1560432,1620432
participant_0_GOLD,500,500,556,771,957,1142,1322,1773,1907,2242,2429,2671,2960,3478,3664,3959,4102,4466,4681,4888,5076,5225,5369,5602,6280,6575,6715,6809
participant_0_CURRENTGOLD,500,0,56,271,57,242,422,873,132,467,254,496,110,628,214,509,653,1016,331,538,376,526,244,477,1155,700,841,934
participant_0_LEVEL,1,1,1,2,2,3,3,4,4,5,5,6,6,7,7,7,8,8,9,9,9,9,9,9,11,11,11,11
participant_0_MINIONSKILLED,0,0,0,0,0,0,0,1,1,3,4,10,11,12,12,15,15,21,22,23,23,23,23,24,24,25,25,25
participant_0_KILLS,0,0,0,0,0,0,0,0,0,0,0,0,0,1,1,1,1,1,1,1,1,1,1,1,2,2,2,2
participant_0_BUY,[],"[3862, 2003, 2003, 3340]",[],[],[1028],[],[],[],"[3052, 2055]",[],[1028],[],"[3009, 2055, 3364]",[],[1011],[],[],[],[3022],[],[1036],[],"[1036, 2055]",[],[],"[3134, 1036]",[],[]
participant_0_SOLD,[],[],[],"[2003, 2003]",[],[],[],[],[1028],[2055],[3862],[],"[2422, 3340]",[],[1028],[2055],[],[],"[3052, 1011]",[],[3863],[],[],[],[],"[1036, 1036]",[],[]
participant_0_UNDO,[],[],[],[],[],[],[],[],[],[],[],[],[],[],[],[],[],[],[],[],[],[],[],[],[],[],[],[]
participant_1_GOLD,500,500,563,811,1071,1389,1697,2744,2866,3136,3370,3842,4285,4692,4815,5161,5347,5798,5955,6192,6335,6486,6761,7047,8301,8511,8758,8850
participant_1_CURRENTGOLD,500,0,63,311,136,19,327,1374,396,666,245,717,260,667,50,396,582,1033,190,427,570,721,996,432,126,336,584,615
participant_1_LEVEL,1,1,1,2,3,3,4,5,5,6,6,7,7,8,8,8,9,9,9,10,10,10,10,11,11,11,12,12
participant_1_MINIONSKILLED,0,0,2,9,15,24,32,42,42,51,58,65,66,78,78,88,92,101,103,109,110,112,117,118,121,124,127,127
participant_1_KILLS,0,0,0,0,0,0,0,2,2,2,2,2,3,3,3,3,3,3,3,3,3,3,3,3,4,4,4,4
participant_1_BUY,[],"[1056, 2003, 2003, 3340]",[],[],[1052],[1052],[],[],"[3108, 3101]",[],"[3802, 2031, 2055]",[],"[3020, 3108]",[],[3020],[],[],[],[3115],[],[],[],[],[1026],"[3285, 1052, 2055]",[],[],[]
participant_1_SOLD,[],[],[],"[2003, 2003]",[],[],[],[],[1052],[],"[1052, 1052, 2055]",[],[2422],[],"[2031, 2422]",[],[],[],"[3101, 3108]",[],[],[],[],[],"[3802, 1026]",[2055],[],[]
participant_1_UNDO,[],[],[],[],[],[],[],[],"[[0, 3108]]",[],[],[],"[[0, 3020]]",[],[],[],[],[],[],[],[],[],[],[],[],[],[],[]
participant_2_GOLD,500,500,556,892,1190,1522,1757,2127,2340,2654,2832,3144,3376,3610,3856,4062,4377,4591,4992,5310,6432,6750,6963,7685,8902,9200,9322,9639
participant_2_CURRENTGOLD,500,0,56,392,690,1022,1257,1627,240,554,732,1044,426,660,16,222,537,751,1152,1470,42,360,138,145,1362,410,533,689
participant_2_LEVEL,1,1,1,3,4,5,6,7,7,8,8,8,9,9,9,10,10,10,11,11,11,11,12,12,13,13,13,13
participant_2_MINIONSKILLED,0,0,2,12,22,31,37,49,55,63,66,77,79,86,90,95,102,105,117,124,124,131,136,136,146,153,153,153
participant_2_KILLS,0,0,0,0,0,0,0,0,0,0,0,0,0,0,0,0,0,0,0,0,1,1,1,2,3,3,3,4
participant_2_BUY,[],"[2003, 2003, 1056, 3340]",[],[],[],[],[],[],"[1001, 3802]",[],[],[],[1026],[],[3285],[],[],[],[],[],"[3020, 2420, 3191]",[],[1052],[3157],[],[1058],[],[]
participant_2_SOLD,[],[],[],[2003],"[2010, 2003]",[2010],[],[2010],[],[],[],[],[],[],"[1056, 3802, 1026]",[],[],[],[],[],[1001],[],[],"[2420, 3191, 1052, 2421]",[],[],[],[]
participant_2_UNDO,[],[],[],[],[],[],[],[],[],[],[],[],[],[],[],[],[],[],[],[],[],[],[],[],[],[],[],[]
participant_3_GOLD,500,500,584,853,1496,1793,1993,2262,2593,2730,2915,3274,3487,3679,4079,4734,4962,5405,5527,5692,6072,6411,6610,6965,7332,7758,7881,7897
participant_3_CURRENTGOLD,500,0,84,353,996,443,643,12,343,30,215,574,787,179,579,84,312,755,527,692,1072,311,510,865,382,808,931,947
participant_3_LEVEL,1,1,1,3,4,5,5,6,7,7,7,8,8,9,9,10,10,10,11,11,11,12,12,12,13,13,13,13
participant_3_MINIONSKILLED,0,0,3,11,21,28,32,41,50,51,54,65,70,74,87,91,93,97,97,99,110,119,124,128,138,145,145,145
participant_3_KILLS,0,0,0,0,1,1,1,1,1,1,1,1,1,1,1,2,2,2,2,2,2,2,2,2,2,2,2,2
participant_3_BUY,[],"[1056, 2003, 2003, 3340]",[],[],[],"[3067, 2003]",[],"[1033, 1054]",[],"[1028, 2003]",[],[],[],"[3111, 1033]",[],[3065],[],[],[1027],[],[],"[3057, 1028]",[],[],[3044],[],[],[]
participant_3_SOLD,[],[],[],[2003],[2003],[],[2003],[],[],[],[],[],[2003],"[1033, 2422]",[],"[1028, 1033, 3067]",[],[],[],[],[],[1027],[],[],[1028],[],[],[]
participant_3_UNDO,[],[],[],[],[],[],[],[],[],[],[],[],[],[],[],[],[],[],[],[],[],[],[],[],[],[],[],[]
participant_4_GOLD,500,500,621,958,1386,1704,1843,2109,2378,2614,2926,3184,3306,3503,3910,4426,4562,4856,5321,5493,5840,6008,6130,6952,7293,8098,8565,8581
participant_4_CURRENTGOLD,500,0,121,458,886,1204,168,434,703,939,601,859,156,53,460,976,1112,1406,1871,258,605,308,430,290,630,1436,1902,81
participant_4_LEVEL,1,1,2,3,3,4,4,5,5,6,6,7,7,7,8,8,8,9,9,9,10,10,10,11,11,12,12,12
participant_4_MINIONSKILLED,0,0,0,0,0,1,1,1,1,1,1,1,1,1,6,6,6,6,11,14,14,14,14,14,16,30,38,38
participant_4_KILLS,0,0,0,0,0,0,0,0,0,0,0,0,0,0,0,0,0,0,0,0,0,0,0,1,1,1,1,1
participant_4_BUY,[],"[1041, 2031, 3340]",[],[],[],[],"[3133, 2055]",[],[],[],[3715],[],"[1412, 1001]",[1042],[],[],[],[],[],"[3006, 3070, 3070, 3006, 1052]",[],[3108],[],"[1414, 3108, 1042]",[],[],[],[]
participant_4_SOLD,[],[],[],[],[],[],[],[2055],[],[],[1041],[],"[3133, 3715]",[],[],[],[],[],[],"[1001, 1042, 1001, 1042]",[],[1052],[],"[1412, 3108]",[],[],[],[]
participant_4_UNDO,[],[],[],[],[],[],[],[],[],[],[],[],[],[],[],[],[],[],[],"[[0, 3070], [0, 3006]]",[],[],[],[],[],[],[],[]
participant_5_GOLD,500,500,598,962,1246,1557,1942,2183,2417,2730,3238,3667,4361,5111,5605,5930,6411,7063,7827,8311,8482,8808,9339,9669,9869,10091,10763,10779
participant_5_CURRENTGOLD,500,0,98,462,746,1057,1442,158,392,705,1213,307,1001,1751,295,620,1101,503,1267,1751,608,933,1464,544,744,966,1638,1654
participant_5_LEVEL,1,1,1,3,4,5,6,7,7,8,8,9,10,10,11,11,12,12,13,13,13,14,14,14,15,15,15,15
participant_5_MINIONSKILLED,0,0,4,15,24,32,44,51,58,65,76,91,98,108,117,126,138,146,162,174,177,188,193,198,202,202,212,212
participant_5_KILLS,0,0,0,0,0,0,0,0,0,0,0,0,1,1,1,1,1,1,1,1,1,1,2,2,2,2,3,3
participant_5_BUY,[],"[1056, 2003, 2003, 3340]",[],[],[],[],[],"[3802, 2003, 2055, 2003, 2003, 2055]",[],[],[],"[1026, 1052, 2003]",[],[],"[3285, 3020, 2003, 2003]",[],[],"[1026, 1028]",[],[],[3165],[],[],[1058],[],[],[],[]
participant_5_SOLD,[],[],[],[],"[2010, 2003]",[2010],[2003],[],[2055],"[2010, 2003]",[2003],[],[],[2003],"[2003, 3802, 1026, 2422]",[],"[2003, 2003]",[],[],[],"[1028, 1052, 1026]",[],[],[],[],[],[],[]
participant_5_UNDO,[],[],[],[],[],[],[],"[[0, 2055]]",[],[],[],[],[],[],[],[],[],[],[],[],[],[],[],[],[],[],[],[]
participant_6_GOLD,500,500,544,699,1148,1481,1786,1986,2604,2866,3172,3453,3669,4188,4479,4841,5131,5876,6296,6561,6731,7155,7712,7952,8458,8948,9825,9843
participant_6_CURRENTGOLD,500,0,44,199,298,331,61,261,879,391,22,303,169,88,379,741,1031,451,871,1136,117,540,1097,37,543,1033,510,468
participant_6_LEVEL,1,1,1,2,3,3,4,4,5,5,6,6,7,7,7,8,8,9,9,9,9,10,11,11,11,11,12,12
participant_6_MINIONSKILLED,0,0,1,2,5,7,7,8,11,15,16,18,18,20,27,30,35,36,38,42,43,45,48,48,48,49,53,53
participant_6_KILLS,0,0,0,0,0,0,0,0,1,1,1,1,1,2,2,2,2,3,3,3,3,4,5,5,6,7,9,9
participant_6_BUY,[],"[3854, 3854, 3340, 2003, 2003]",[],[],[1036],[1001],"[1036, 2055, 2031]",[],[],"[3134, 1036]","[3009, 2055, 3364]",[],[1036],[3179],[],[],[],"[3044, 2055]",[],[],"[3067, 1033]",[],[],"[3071, 1036]",[],[],"[3105, 3133]",[]
participant_6_SOLD,[],[],[],"[2003, 2003]",[],[],[],[],[],"[1036, 1036]","[2055, 1001, 3340]","[3854, 2055]",[],"[3134, 1036, 1036]",[],[],[],[],[2055],[],[2031],[],[3855],"[3044, 3067]",[],[],"[1033, 1036]",[]
participant_6_UNDO,[],"[[0, 3854]]",[],[],[],[],[],[],[],[],[],[],[],[],[],[],[],[],[],[],[],[],[],[],[],[],[],[]
participant_7_GOLD,500,500,666,933,1218,1496,2059,2564,2912,3658,3965,4538,5029,5426,6318,6835,7307,8116,8550,8958,9135,9257,9380,9939,10061,10183,10633,10649
participant_7_CURRENTGOLD,500,0,166,433,718,996,1559,764,62,808,1115,313,804,451,1343,560,1032,391,825,1233,20,143,265,824,947,369,818,774
participant_7_LEVEL,1,1,2,3,3,4,5,5,6,7,7,8,8,8,9,10,10,10,11,12,12,12,12,12,12,12,13,13
participant_7_MINIONSKILLED,0,0,0,0,0,1,1,4,7,7,7,8,8,9,9,9,10,10,11,14,14,14,14,14,14,14,16,16
participant_7_KILLS,0,0,0,0,0,0,1,2,2,3,3,4,4,4,6,7,8,10,10,10,10,10,10,11,11,11,11,11
participant_7_BUY,[],"[1039, 3340, 2031]",[],[],[],[],[],"[3706, 1001, 1036]","[3133, 1029, 3364]",[],[],"[1400, 3047, 1036]",[],[3134],[],[3179],[],"[3134, 1036]",[],[],"[3133, 3147]",[],[],[],[],"[1036, 1036]",[],[]
participant_7_SOLD,[],[],[],[],[],[],[],[1039],"[1036, 3340]",[],[],"[3133, 3706, 1001, 1029]",[3364],"[3513, 1036]",[],[3134],[],[],[],[3364],"[1036, 2031, 3134, 3133]",[],[],[3513],[],[],[],[]
participant_7_UNDO,[],[],[],[],[],[],[],[],[],[],[],[],[],[],[],[],[],[],[],[],[],[],[],[],[],[],[],[]
participant_8_GOLD,500,500,542,857,1057,1326,1634,1903,2331,2925,3315,3578,4072,5158,5424,5561,6180,6930,7123,7724,7957,8252,8674,9297,9589,10002,10582,10598
participant_8_CURRENTGOLD,500,25,67,382,207,476,784,1053,181,775,1165,378,872,1658,274,61,680,680,873,824,1057,1352,1774,2397,189,602,1182,1198
participant_8_LEVEL,1,1,1,3,4,5,6,7,7,7,8,9,9,10,10,10,11,11,11,12,12,12,13,13,13,14,14,14
participant_8_MINIONSKILLED,0,0,1,10,14,23,31,40,45,46,59,67,73,80,85,86,89,91,92,94,96,100,106,108,108,109,109,109
participant_8_KILLS,0,0,0,0,0,0,0,0,0,1,1,1,2,2,2,2,3,3,3,5,5,5,5,5,5,5,5,5
participant_8_BUY,[],"[1027, 1004, 3340]",[],[],[3070],[],[],[],[3802],[],[],[3003],[],[],"[1001, 3111, 1026]",[1027],[],[3010],[],[3027],[],[],[],[],"[1058, 1058]",[],[],[]
participant_8_SOLD,[],[],[],[],"[2010, 1027, 1004]",[],[],[2010],[],[2010],[],"[3070, 3802]",[],[],[1001],[],[],[1027],[3003],"[3010, 1026]",[],[],[],[],[],[],[],[]
participant_8_UNDO,[],[],[],[],[],[],[],[],[],[],[],[],[],[],[],[],[],[],[],[],[],[],[],[],[],[],[],[]
participant_9_GOLD,500,500,612,811,1638,2111,2401,2589,2900,3387,3909,4376,4894,5690,6132,6290,6722,7460,7904,8026,8148,8775,9718,10548,10860,11109,11775,11792
participant_9_CURRENTGOLD,500,0,112,311,1138,461,751,939,325,812,34,501,1019,565,457,615,1047,485,129,251,128,755,1698,2528,240,489,1156,992
participant_9_LEVEL,1,1,1,2,3,3,4,5,5,5,6,6,7,7,8,8,9,9,9,10,10,11,11,12,12,13,13,13
participant_9_MINIONSKILLED,0,0,5,9,23,26,36,37,45,54,60,71,78,83,83,85,94,94,104,104,104,107,110,115,115,115,121,121
participant_9_KILLS,0,0,0,0,1,2,2,2,2,2,3,3,3,3,4,4,4,5,5,5,5,6,8,10,10,10,11,11
participant_9_BUY,[],"[1055, 2003, 3340]",[],[],[],"[2015, 2003, 2003, 1001, 2003]",[],"[1018, 2003]","[1037, 2003]",[],[1038],[],[],"[3031, 3095, 3095, 2003]",[3009],[],[],[1038],[1018],[],[3031],[],[],[],[3094],[],[],[]
participant_9_SOLD,[],[],[],[2003],[],[],[],[2003],[],[2003],"[2003, 2003]",[],[],"[1038, 1037, 1038, 2015, 1038, 2015]",[1001],[],[],[],[],[],"[1055, 1038, 1037, 1018]",[],[],[],[],[],[],[]
participant_9_UNDO,[],[],[],[],[],[],[],"[[0, 2003], [0, 1018]]",[],[],[],[],[],"[[0, 3031], [0, 3095]]","[[0, 2003]]",[],[],[],[],[],[],[],[],[],[],[],[],[]
team0_KILLS,0,0,0,0,1,1,1,3,3,3,3,3,4,5,5,6,6,6,6,6,7,7,7,9,12,12,12,13
team0_CURRENTGOLD,2500,0,380,1785,2765,2930,2817,4320,1814,2656,2047,3690,1739,2187,1319,2187,3196,4961,4071,3385,2665,2226,2318,2209,3655,3690,4791,3266
team0_TOTALGOLD,2500,2500,2880,4285,6100,7550,8612,11015,12084,13376,14472,16115,17414,18962,20324,22342,23350,25116,26476,27575,29755,30880,31833,34251,38108,40142,41241,41776
team0_LEVEL,5,5,6,13,16,20,22,27,28,32,32,36,37,40,41,43,45,46,49,50,51,52,53,55,59,60,61,61
team0_SBIRES,0,0,7,32,58,84,102,134,149,169,183,218,227,251,273,295,308,330,350,369,381,399,414,420,445,477,488,488
team1_KILLS,0,0,0,0,1,2,3,4,5,7,8,9,11,12,15,16,18,22,22,24,24,26,30,33,34,35,39,39
team1_CURRENTGOLD,2500,25,487,1787,3107,3321,4597,3175,1839,3491,3549,1802,3865,4513,2748,2597,4891,2510,3965,5195,1930,3723,6298,6330,2663,3459,5304,5086
team1_TOTALGOLD,2500,2500,2962,4262,6307,7971,9822,11225,13164,15566,17599,19612,22025,25573,27958,29457,31751,35445,37700,39580,40453,42247,44823,47405,48837,50333,53578,53661
team1_LEVEL,5,5,6,13,17,20,25,28,30,32,35,38,41,42,45,47,50,51,53,56,56,59,61,62,63,65,67,67
team1_SBIRES,0,0,11,36,66,89,119,140,166,187,218,255,275,300,321,336,366,377,407,428,434,454,471,483,487,489,511,511
delta_KILLS,0,0,0,0,0,-1,-2,-1,-2,-4,-5,-6,-7,-7,-10,-10,-12,-16,-16,-18,-17,-19,-23,-24,-22,-23,-27,-26
delta_CURRENTGOLD,0,-25,-107,-2,-342,-391,-1780,1145,-25,-835,-1502,1888,-2126,-2326,-1429,-410,-1695,2451,106,-1810,735,-1497,-3980,-4121,992,231,-513,-1820
delta_TOTALGOLD,0,0,-82,23,-207,-421,-1210,-210,-1080,-2190,-3127,-3497,-4611,-6611,-7634,-7115,-8401,-10329,-11224,-12005,-10698,-11367,-12990,-13154,-10729,-10191,-12337,-11885
delta_LEVEL,0,0,0,0,-1,0,-3,-1,-2,0,-3,-2,-4,-2,-4,-4,-5,-5,-4,-6,-5,-7,-8,-7,-4,-5,-6,-6
delta_SBIRES,0,0,-4,-4,-8,-5,-17,-6,-17,-18,-35,-37,-48,-49,-48,-41,-58,-47,-57,-59,-53,-55,-57,-63,-42,-12,-23,-23
