name,team0,team1
win,Fail,Win
firstBlood,True,False
firstTower,False,True
firstInhibitor,False,True
firstBaron,False,False
firstDragon,False,True
firstRiftHerald,False,True
towerKills,3,9
inhibitorKills,0,1
baronKills,0,0
dragonKills,3,1
riftHeraldKills,0,2
