name,team0,team1
win,Fail,Win
firstBlood,True,False
firstTower,True,False
firstInhibitor,True,False
firstBaron,False,True
firstDragon,False,True
firstRiftHerald,False,True
towerKills,8,9
inhibitorKills,1,1
baronKills,0,2
dragonKills,3,3
riftHeraldKills,1,1
