name,frame_0,frame_1,frame_2,frame_3,frame_4,frame_5,frame_6,frame_7,frame_8,frame_9,frame_10,frame_11,frame_12,frame_13,frame_14,frame_15,frame_16,frame_17,frame_18,frame_19,frame_20,frame_21,frame_22,frame_23,frame_24,frame_25,frame_26,frame_27,frame_28,frame_29,frame_30,frame_31,frame_32,frame_33,frame_34,frame_35,frame_36,frame_37
nameStamp,Tstart,Tearly,Tearly,Tearly,Tearly,Tearly,Tearly,Tearly,Tearly,Tearly,Tearly,Tearly,Tearly,Tmid,Tmid,Tmid,Tmid,Tmid,Tmid,Tmid,Tmid,Tmid,Tmid,Tmid,Tmid,Tmid,Tend,Tend,Tend,Tend,Tend,Tend,Tend,Tend,Tend,Tend,Tend,Tend
timestamp,0,60019,120033,180035,240044,300058,360075,420084,480101,540113,600133,660142,720159,780177,840200,900217,960233,1020241,1080244,1140275,1200277,1260301,1320311,1380321,1440335,1500353,1560370,1620395,1680423,1740431,1800455,1860485,1920506,1980512,2040534,2100567,2160599,2220619
participant_0_GOLD,500,500,584,783,1366,1733,2111,2763,2989,3523,4271,4478,6003,6740,6968,7435,7812,8123,9119,9950,10712,10855,11143,11329,11549,11777,12865,13189,13695,14505,14627,14820,15677,16889,17296,17954,18146,19677
participant_0_CURRENTGOLD,500,0,84,283,866,458,836,1488,1714,673,1421,228,1753,2490,368,835,1212,198,1194,1125,787,580,118,304,25,252,1341,644,1151,1961,128,320,1178,2390,2797,655,847,2378
participant_0_LEVEL,1,1,1,2,4,5,5,6,7,7,8,8,10,10,10,11,11,12,13,13,14,14,14,14,14,14,15,15,16,16,16,16,17,18,18,18,18,18
participant_0_MINIONSKILLED,0,0,3,7,15,26,38,50,53,58,72,77,96,102,108,122,133,144,156,168,168,169,174,175,181,181,188,194,206,212,212,212,219,229,236,240,240,247
participant_0_KILLS,0,0,0,0,0,0,0,0,0,0,0,0,1,1,1,2,2,2,2,2,4,4,5,6,6,6,6,6,6,7,7,7,7,8,8,8,9,9
participant_0_BUY,[],"[2055, 2033, 3340]",[],[],[],"[1052, 1052]",[],"[3145, 1028, 2055]",[],[],"[3152, 2055]",[],[],"[3020, 1027]",[],[3057],[],[],[3113],[],[],[3100],[],"[3191, 2420]",[],[],[],[3157],[],[],"[1058, 3916, 2055]",[],[],[],[3165],[],[],[1058]
participant_0_SOLD,[],[],[],[],[],[2403],"[2403, 2403]","[1052, 1052]",[2055],[],"[3145, 1028]",[],[],[],[],[1027],[],[],[],[2055],[],"[3057, 3113]",[],[],[2420],[],[],"[3191, 2421]",[],[],[2033],[],[],[],[3916],[],[2055],[]
participant_0_UNDO,[],"[[0, 2055]]",[],[],[],[],[],[],[],[],[],[],[],[],[],[],[],[],[],[],[],[],[],[],[],[],[],[],[],[],"[[0, 1058]]",[],[],[],[],[],[],[]
participant_1_GOLD,500,500,636,1033,1380,1638,2205,2753,3038,3758,4386,4772,5295,5495,5852,6127,6470,6972,7516,7788,8765,9057,9380,9552,9959,10094,10536,10907,11043,11361,11532,12040,12556,12694,12818,12940,13148,13507
participant_1_CURRENTGOLD,500,0,136,533,180,438,180,728,1013,1733,661,1047,1570,120,477,752,1095,1597,2141,513,1490,1783,340,512,919,979,1421,1792,504,821,418,925,1367,1505,1629,1751,1958,318
participant_1_LEVEL,1,1,2,3,3,4,4,5,5,6,7,7,8,8,9,9,9,10,10,11,11,12,12,12,13,13,13,14,14,14,14,15,15,15,16,16,16,16
participant_1_MINIONSKILLED,0,0,0,0,0,0,0,0,1,4,4,10,10,12,12,12,12,13,17,17,18,18,18,18,20,20,20,23,24,24,27,28,28,28,28,28,28,28
participant_1_KILLS,0,0,0,0,0,0,1,1,1,1,1,1,1,1,1,1,1,1,1,1,1,1,2,2,2,2,3,3,3,3,3,3,3,3,3,4,4,4
participant_1_BUY,[],"[3850, 2003, 2003, 3340]",[],[],[],[],[],"[3028, 2003, 2003, 2055, 2055]",[],[],[],[],[],"[3108, 3364, 3174]",[],"[1052, 2055]",[],[],[],[],"[3113, 1082, 1004]",[],[],[3114],[],"[3504, 1028]",[],[],"[3041, 3801, 2055, 2055]",[],[2055],[],[2055],[],[],[3107],[],[]
participant_1_SOLD,[],[],[],[],[],[],[],[2003],[2055],[],[],[],[],"[3850, 3340, 3108, 3028]",[],"[2003, 2003, 2003]",[2055],[],[],[],[1052],[2055],[],[1004],[3851],"[3114, 3113]",[],[],"[1082, 1028]",[2055],[],[],[2055],[],[],[3801],[],[]
participant_1_UNDO,[],[],[],[],[],[],[],[],[],[],[],[],[],[],[],[],[],[],[],[],[],[],[],[],[],[],[],[],[],[],[],[],[],[],[],[],[],[]
participant_2_GOLD,500,500,577,878,1064,1438,1816,2151,2448,2891,3341,3895,4465,4700,4946,5368,5683,5938,6276,6629,7609,7997,8656,9428,9586,9903,10184,10512,11093,11753,11876,12155,12667,13324,13644,13766,14743,15053
participant_2_CURRENTGOLD,500,0,77,378,564,68,446,126,423,866,191,745,1315,100,346,68,383,638,126,479,1459,546,1206,228,386,703,984,162,744,1404,51,330,843,1500,419,542,1519,579
participant_2_LEVEL,1,1,1,3,4,5,6,6,7,8,8,9,9,10,10,10,10,11,11,11,12,12,13,14,14,14,15,15,15,15,15,16,16,17,17,17,17,18
participant_2_MINIONSKILLED,0,0,3,11,15,27,39,43,53,62,72,84,90,93,97,97,104,112,114,120,125,136,146,146,148,156,157,161,175,178,178,180,181,187,194,194,209,209
participant_2_KILLS,0,0,0,0,0,0,1,2,2,3,4,4,4,4,4,4,4,4,5,5,6,6,6,6,6,6,6,6,6,6,6,7,7,7,7,7,7,7
participant_2_BUY,[],"[1041, 2031, 3340]",[],[],"[1036, 1036]",[],"[3133, 1039, 2055]",[],[],[],"[1400, 3047, 2055]",[],[],"[3044, 1028]",[],[],[],[],[],"[3071, 1028, 2055, 2055]",[],[],"[3052, 1037, 2055, 2055]",[],[],[2055],[],[],"[3053, 1029]",[],"[1031, 2055]",[],[2055],[],[],[],[],[3026]
participant_2_SOLD,[],[],[],[],[],[],"[1036, 1036]",[],[2055],[],"[3133, 1039, 1041, 2422]",[],"[3340, 3513]",[],[],[2055],[],[],[],"[3044, 1028]","[2055, 2055]",[],"[1028, 2031]",[],[2055],[],[],[],"[3052, 1037]",[2055],[1029],[2055],[],[],[],[],[2055],[1031]
participant_2_UNDO,[],[],[],[],[],[],[],[],[],[],[],[],[],[],[],[],[],[],[],[],[],[],[],[],[],[],[],[],[],[],[],[],[],[],[],[],[],[]
participant_3_GOLD,500,500,584,860,1176,1536,2106,2228,2636,2975,3307,3680,3915,4157,4601,5299,5606,5993,6738,7510,7708,8151,8303,8511,8983,9205,9946,10364,10663,11233,11355,11948,12504,12647,13268,13554,13826,14866
participant_3_CURRENTGOLD,500,0,84,360,676,1036,1606,128,536,875,1207,1580,1815,407,851,1549,481,868,1613,2385,483,926,263,46,518,441,1182,1599,98,668,291,884,639,613,1233,420,142,1182
participant_3_LEVEL,1,1,1,2,3,4,5,5,5,6,6,7,7,7,8,9,9,9,10,11,11,12,12,12,12,12,13,13,13,14,14,14,15,15,15,15,16,16
participant_3_MINIONSKILLED,0,0,3,12,20,30,45,45,59,72,84,95,98,102,116,126,133,144,155,168,168,176,177,179,179,179,186,189,191,193,193,193,201,202,211,212,212,214
participant_3_KILLS,0,0,0,0,1,1,1,1,1,2,2,2,3,3,3,3,3,3,4,5,7,7,7,7,7,7,9,9,9,10,10,10,10,11,11,12,12,13
participant_3_BUY,[],"[2033, 3340]",[],[],[],"[1036, 1036, 2055]",[],[],[],"[3144, 1042, 1042, 2055]",[],"[3153, 1001]",[],[],"[3044, 3067, 1029]",[],[],"[3071, 3047, 2055]",[],[1053],[3105],[1036],[3133],[],[3812],[],[],"[1057, 1042]",[],[],"[3091, 2055]",[],[],[],[],[3026],[],[]
participant_3_SOLD,[],[],[],[2010],[],[2055],[2010],[2010],[],"[1036, 1036]",[],"[3144, 1042, 1042]",[],[2055],[],[],[],"[3044, 3067, 2033, 1001, 1029]",[2055],[],[],[],[1036],[],"[3105, 1053, 3133]",[],[],[],[],[],"[1042, 1057]",[2055],[],[],[],[],[],[]
participant_3_UNDO,[],[],[],[],[],[],[],[],[],[],[],[],[],[],[],[],[],[],[],[],[],[],[],[],[],[],[],[],[],[],[],[],[],[],[],[],[],[]
participant_4_GOLD,500,500,553,747,897,1091,1646,1795,1959,2119,2268,2433,2737,2926,3141,3424,3610,3780,4198,4539,4679,4865,5380,5636,5897,6037,7096,7342,7512,7825,7965,8231,8672,8887,9097,9613,9803,10361
participant_4_CURRENTGOLD,500,0,53,247,397,591,1146,245,409,569,718,883,1187,76,291,64,250,420,838,1179,429,615,1130,711,972,62,1122,1367,87,400,465,732,1097,1312,1523,588,778,1336
participant_4_LEVEL,1,1,1,2,3,4,5,5,5,6,6,7,7,7,7,7,7,8,8,9,9,9,9,9,10,10,11,11,12,12,12,12,13,14,14,15,15,15
participant_4_MINIONSKILLED,0,0,0,0,0,0,0,0,1,2,2,2,3,3,4,4,5,6,10,10,10,13,13,14,14,14,15,17,18,19,19,20,20,20,20,20,20,21
participant_4_KILLS,0,0,0,0,0,0,0,0,0,0,0,0,0,0,0,1,1,1,2,3,3,3,3,3,4,4,5,5,5,6,6,7,7,7,8,8,8,10
participant_4_BUY,[],"[1055, 2003, 3340]",[],[],[],[],[],"[1038, 1001]",[],[],[],[],[],"[3133, 3006, 1036, 1036, 2031]",[],[],"[3508, 2055, 3363]",[],[],[],"[1038, 1018]",[],[1037],[3031],[],[1042],[],[],"[3086, 2015]",[],[3094],[],[3123],[1036],[],[3035],[3033],[]
participant_4_SOLD,[],[],[],[2003],[],[],[],[],[],[],[],[],[],[1001],[],[],"[1038, 1036, 1036, 3340]",[2055],[],[],[],[],[2031],"[1038, 1037, 1018]",[],[],[],[],[1042],[],"[3086, 2015]",[],[],[1055],[],[1036],"[3035, 3123]",[]
participant_4_UNDO,[],[],[],[],[],[],[],[],[],[],[],[],[],"[[0, 3133]]",[],[],[],[],[],[],[],[],[],[],[],[],[],[],[],[],[],[],[],[],[],[],[],[]
participant_5_GOLD,500,500,542,913,1757,1970,2270,2406,2761,3576,4012,4427,4549,4981,5725,6678,7035,7429,7782,8037,8660,9033,9340,9904,10668,11090,11723,11845,12289,13042,13185,13337,13460,13951,14089,14325,14848,15045
participant_5_CURRENTGOLD,500,0,42,413,407,145,445,56,411,1226,412,27,149,581,1325,2278,585,979,1332,687,1310,409,25,589,1353,526,1158,1280,1725,477,221,373,495,987,1125,1361,1883,81
participant_5_LEVEL,1,1,1,3,4,5,5,6,6,7,8,8,8,9,10,10,11,11,12,12,12,13,13,13,14,14,15,15,15,16,16,16,16,16,16,17,17,17
participant_5_MINIONSKILLED,0,0,1,13,14,20,29,30,41,50,51,65,65,75,82,92,102,113,126,130,132,140,145,147,149,149,164,164,174,186,187,188,188,201,202,204,204,204
participant_5_KILLS,0,0,0,0,0,0,0,0,0,0,0,0,0,0,0,0,0,0,0,0,0,0,2,2,4,4,4,4,4,4,4,4,4,5,5,6,6,6
participant_5_BUY,[],"[1041, 2031, 3340]",[],[],[],"[3706, 1001, 1042, 1042]",[],[],[],[],"[1043, 3047, 3364]",[1036],[],[1036],[],[3706],[3077],[],[],[3706],[],[1416],[],[],[],"[3748, 3052, 1028]",[],[1011],[],[],[],[3022],[],[],[],[3211],[3067],[]
participant_5_SOLD,[],[],[],[],[],[1041],[],[],[],[],"[1042, 1042, 1001, 3340]",[],[],[],[],[1041],"[1036, 1036]",[],[],[1041],[],"[1043, 3706]",[],[],[],[3077],[],[1028],[],[],[],"[3052, 1011]",[],[],[],[],[2031],[]
participant_5_UNDO,[],[],[],[],[],"[[0, 3706]]",[],[],[],[],[],[],[],[],[],[],"[[0, 3706]]",[],[],[],[],[],[],[],[],[],[],[],[],[],[],[],[],[],[],[],[],[]
participant_6_GOLD,500,500,726,848,1148,1452,1600,2075,2402,2610,2982,3210,3467,3614,4057,4200,4542,4749,4913,5246,5396,5726,7234,7841,8906,9353,9550,9673,10064,10222,10451,10573,10780,11527,11690,12590,12848,12970
participant_6_CURRENTGOLD,500,0,226,348,648,52,200,675,1002,1210,382,260,517,314,757,250,617,824,988,671,821,526,2034,2641,3706,378,575,98,489,648,876,98,306,1052,1216,916,433,556
participant_6_LEVEL,1,1,2,2,3,4,4,5,6,6,7,7,7,7,8,9,9,9,9,10,10,11,11,12,13,13,13,14,14,14,14,14,14,15,15,16,16,16
participant_6_MINIONSKILLED,0,0,0,0,0,0,0,0,0,0,0,0,1,1,2,3,3,3,5,7,9,9,15,22,23,23,23,23,27,27,28,28,28,32,34,51,52,52
participant_6_KILLS,0,0,0,0,0,0,0,0,0,0,0,0,1,1,1,1,1,1,1,1,1,2,2,2,2,2,2,2,2,2,2,2,2,2,2,2,2,2
participant_6_BUY,[],"[3850, 2003, 2003, 3340]",[],[],[],[],"[1001, 1004, 1004, 2055, 2003]",[],[],[],"[3028, 2003, 2031, 2055]",[],[],[],"[3108, 2055, 3364]",[3174],[],[],[],"[3801, 2055]",[],[],"[3107, 2055]",[],[],"[3111, 3114]",[],"[2055, 2055]",[],[],[],[],[],[3504],[],[],[],[]
participant_6_SOLD,[],[],[],[2003],[],[2003],[],[],"[2003, 2055]",[],"[1004, 1004]",[3850],[2055],[],[3340],"[3108, 3028]",[2055],[],[],[],[],"[3851, 2055]",[3801],[],[],"[1001, 2031]",[2055],[],[],[],[],[],[2055],[3114],[],[],[2055],[]
participant_6_UNDO,[],[],[],[],[],[],[],[],[],[],"[[0, 2003]]",[],[],[],[],[],[],[],[],[],[],[],[],[],[],[],[],[],[],[],[],[],[],[],[],[],[],[]
participant_7_GOLD,500,500,577,857,1155,1445,1781,2322,2646,2923,3115,3411,3645,3844,4352,4502,4901,5302,5424,5910,6132,6629,7855,8159,9073,9496,9923,10106,10357,11789,12659,13067,13587,14164,14587,15084,15447,15960
participant_7_CURRENTGOLD,500,0,77,357,655,945,496,1037,336,613,190,486,720,469,977,327,726,1127,399,885,1107,54,1280,334,1248,421,848,1032,1282,1614,1634,2042,763,1539,363,860,1223,335
participant_7_LEVEL,1,1,1,3,4,5,6,7,7,8,8,8,9,9,10,10,10,11,11,11,11,12,13,13,13,14,14,14,14,15,16,16,17,17,17,17,18,18
participant_7_MINIONSKILLED,0,0,3,9,19,26,36,43,52,60,64,71,78,83,93,95,107,119,119,123,123,133,143,146,147,147,148,148,150,156,183,189,199,201,201,201,208,209
participant_7_KILLS,0,0,0,0,0,0,0,0,0,0,0,0,1,1,1,1,1,1,1,1,1,1,1,2,2,2,2,2,2,4,4,4,4,4,4,6,6,6
participant_7_BUY,[],"[1055, 2003, 3340]",[],[],[],[],"[3123, 1001]",[],[],[],"[1038, 2003, 2003, 2055]",[],[],[],[],[],"[3031, 2003, 2055, 3363]",[],[],[3086],[],[3009],[1042],[],[],[],"[3094, 1018, 1042]",[],[],[],[3095],[],[],[],[],[3036],[],[]
participant_7_SOLD,[],[],[],[],[2003],[],[],[],[],[],[],[],[],[2055],[2003],[2003],"[1038, 3340, 2003]",[],[],[1055],[],[1001],[2055],[],[],[],"[3086, 1042]",[],[],[],"[1018, 1042]",[],[],[],[],[],[],[]
participant_7_UNDO,[],[],[],[],[],[],[],[],[],[],[],[],[],[],[],[],[],[],[],[],[],[],[],[],[],[],[],[],[],[],[],[],[],[],[],[],[],[]
participant_8_GOLD,500,500,598,930,1186,1581,1781,2179,2524,2801,3163,3550,4382,4778,5199,5391,5671,6051,6438,6561,6959,7310,7488,8310,8865,9483,9669,9864,10281,11429,11857,12080,12376,12940,13369,14476,15003,15126
participant_8_CURRENTGOLD,500,0,98,430,686,1081,181,579,924,1201,88,475,1307,1703,2124,2316,371,751,1138,41,439,190,68,890,1445,2063,249,445,861,2009,338,560,857,1420,1850,157,684,806
participant_8_LEVEL,1,1,1,2,3,4,4,5,5,6,6,7,8,8,9,9,9,10,10,10,11,11,11,12,13,14,14,14,14,15,15,15,15,16,16,17,17,17
participant_8_MINIONSKILLED,0,0,4,16,23,36,40,53,63,72,83,95,107,113,127,131,136,147,158,158,165,170,173,187,194,201,202,205,213,220,230,230,236,248,258,260,266,266
participant_8_KILLS,0,0,0,0,0,0,0,1,1,1,1,1,1,1,1,1,1,1,1,2,2,2,3,3,5,5,5,5,5,8,8,8,8,9,10,11,11,12
participant_8_BUY,[],"[3340, 2033]",[],[],[],[],"[1052, 1027]",[],"[3802, 1052, 2055]",[],[3145],[],[],[3030],[],[3020],[],[],"[1026, 3113]",[],[],[3905],[],"[3191, 1058]",[],[1058],[],[],[],[3089],[1026],[],[3135],[],[3916],[],[],[3165]
participant_8_SOLD,[],[],[],[],[],[],[],[],"[1052, 1027]",[2055],[1052],[],"[2010, 2010]","[2010, 3802, 3145]",[],[2422],[],[],[],[],[],[3113],[],[],[],[],[],[],[],"[1058, 1058]",[],[],[1026],[2033],[],[],[],[3916]
participant_8_UNDO,[],[],[],[],[],[],[],[],[],[],[],[],[],[],[],[],[],[],"[[0, 1026]]",[],[],[],[],"[[0, 3191]]",[],[],[],[],[],[],[],[],[],[],[],[],[],[]
participant_9_GOLD,500,500,553,777,942,1151,1361,1525,1689,1845,2009,2162,2872,3026,3257,3397,3598,3798,4013,4169,4384,5299,5816,6136,6547,7144,7334,7595,7735,8150,8291,8446,8616,8857,9148,9589,9775,9990
participant_9_CURRENTGOLD,500,0,53,277,442,651,186,350,514,670,59,212,922,1077,332,72,273,473,689,119,334,1250,241,561,973,29,219,330,470,886,1026,1181,1352,92,384,824,1010,1226
participant_9_LEVEL,1,1,1,2,3,4,4,5,5,5,6,6,7,7,7,7,7,8,8,8,8,9,10,11,11,12,12,12,13,14,14,14,14,14,15,15,16,16
participant_9_MINIONSKILLED,0,0,0,0,0,0,0,0,0,1,1,1,2,3,4,4,5,7,8,8,8,10,10,11,11,12,12,14,14,14,14,15,16,16,16,16,16,16
participant_9_KILLS,0,0,0,0,2,2,2,2,2,2,3,3,3,3,4,6,6,6,6,6,7,7,7,8,9,9,9,9,9,9,9,9,9,9,9,9,10,10
participant_9_BUY,[],"[1055, 2003, 3340]",[],[],"[1036, 1006, 1036]",[3077],[],"[1001, 2031, 2055]",[],[],"[1053, 1036]",[3047],[],[],[],[],[3153],[],[],[1053],[],[3074],"[1029, 1033]",[],[],"[3105, 1053]",[],[],[],"[3812, 1028]",[3067],[],[],[],[],[],[],[3065]
participant_9_SOLD,[],[],[],[],[2003],"[1036, 1006, 1036]",[],[],[2055],[],[],[1001],[],[],[],[],"[1053, 1036]",[],[],[],[],"[3077, 1053]",[2031],[],[],"[1033, 1029]",[],[],[],"[3105, 1053]",[1028],[],[],[],[],[],[],[3067]
participant_9_UNDO,[],[],[],[],[],[],[],[],[],[],[],[],[],[],[],[],[],[],[],[],[],[],[],[],[],[],[],[],[],[],[],[],[],[],[],[],[],[]
team0_KILLS,0,0,0,0,1,1,3,4,4,6,7,7,9,9,9,11,11,11,14,16,21,21,23,24,25,25,29,29,29,32,32,34,34,36,37,39,40,43
team0_CURRENTGOLD,2500,0,434,1801,2683,2591,4214,2715,4095,4716,4198,4483,7640,3193,2333,3268,3421,3721,5912,5681,4648,4450,3057,1801,2820,2437,6050,5564,2584,5254,1353,3191,5124,7320,7601,3956,5244,5793
team0_TOTALGOLD,2500,2500,2934,4301,5883,7436,9884,11690,13070,15266,17573,19258,22415,24018,25508,27653,29181,30806,33847,36416,39473,40925,42862,44456,45974,47016,50627,52314,54006,56677,57355,59194,62076,64441,66123,67827,69666,73464
team0_LEVEL,5,5,6,12,17,22,25,27,29,33,35,38,41,42,44,46,46,50,52,55,57,59,60,61,63,63,67,68,70,71,71,73,76,79,80,81,82,83
team0_SBIRES,0,0,9,30,50,83,122,138,167,198,234,268,297,312,337,361,387,419,452,483,489,512,528,532,542,550,566,584,614,626,629,633,649,666,689,694,709,719
team1_KILLS,0,0,0,0,2,2,2,3,3,3,4,4,6,6,7,9,9,9,9,10,11,12,15,17,22,22,22,22,22,27,27,27,27,29,30,34,35,36
team1_CURRENTGOLD,2500,0,496,1825,2838,2874,1508,2697,3187,4920,1131,1460,3615,4144,5515,5243,2572,4154,4546,2403,4011,2429,3648,5015,8725,3417,3049,3185,4827,5634,4095,4254,3773,5090,4938,4118,5233,3004
team1_TOTALGOLD,2500,2500,2996,4325,6188,7599,8793,10507,12022,13755,15281,16760,18915,20243,22590,24168,25747,27329,28570,29923,31531,33997,37733,40350,44059,46566,48199,49083,50726,54632,56443,57503,58819,61439,62883,66064,67921,69091
team1_LEVEL,5,5,6,12,17,22,23,28,29,32,35,36,39,40,44,45,46,49,50,51,52,56,58,61,64,67,68,69,70,74,75,75,76,78,79,82,84,84
team1_SBIRES,0,0,8,38,56,82,105,126,156,183,199,232,253,275,308,325,353,389,416,426,437,462,486,513,524,532,549,554,578,603,642,650,667,698,711,732,746,747
delta_KILLS,0,0,0,0,-1,-1,1,1,1,3,3,3,3,3,2,2,2,2,5,6,10,9,8,7,3,3,7,7,7,5,5,7,7,7,7,5,5,7
delta_CURRENTGOLD,0,0,-62,-24,-155,-283,2706,18,908,-204,3067,3023,4025,-951,-3182,-1975,849,-433,1366,3278,637,2021,-591,-3214,-5905,-980,3001,2379,-2243,-380,-2742,-1063,1351,2230,2663,-162,11,2789
delta_TOTALGOLD,0,0,-62,-24,-305,-163,1091,1183,1048,1511,2292,2498,3500,3775,2918,3485,3434,3477,5277,6493,7942,6928,5129,4106,1915,450,2428,3231,3280,2045,912,1691,3257,3002,3240,1763,1745,4373
delta_LEVEL,0,0,0,0,0,0,2,-1,0,1,0,2,2,2,0,1,0,1,2,4,5,3,2,0,-1,-4,-1,-1,0,-3,-4,-2,0,1,1,-1,-2,-1
delta_SBIRES,0,0,1,-8,-6,1,17,12,11,15,35,36,44,37,29,36,34,30,36,57,52,50,42,19,18,18,17,30,36,23,-13,-17,-18,-32,-22,-38,-37,-28
