name,team0,team1
win,Win,Fail
firstBlood,True,False
firstTower,True,False
firstInhibitor,True,False
firstBaron,False,True
firstDragon,False,True
firstRiftHerald,False,True
towerKills,7,10
inhibitorKills,2,2
baronKills,1,1
dragonKills,3,3
riftHeraldKills,0,1
