name,frame_0,frame_1,frame_2,frame_3,frame_4,frame_5,frame_6,frame_7,frame_8,frame_9,frame_10,frame_11,frame_12,frame_13,frame_14,frame_15,frame_16,frame_17,frame_18,frame_19,frame_20,frame_21,frame_22,frame_23,frame_24,frame_25,frame_26,frame_27
nameStamp,Tstart,Tearly,Tearly,Tearly,Tearly,Tearly,Tearly,Tearly,Tearly,Tearly,Tearly,Tearly,Tearly,Tearly,Tearly,Tearly,Tmid,Tmid,Tmid,Tmid,Tmid,Tmid,Tmid,Tmid,Tmid,Tmid,Tend,Tend
timestamp,0,60016,120017,180047,240053,300077,360094,420123,480146,540175,600200,660232,720261,780275,840307,900336,960360,1020368,1080392,1140400,1200408,1260432,1320461,1380469,1440497,1500508,1560520,1620520
participant_0_GOLD,500,500,583,776,1057,1193,1400,1564,2167,2416,2699,3657,4257,4471,4712,4891,5691,5977,6115,6461,7099,7333,7692,8986,9282,9425,9597,9664
participant_0_CURRENTGOLD,500,0,83,276,157,68,275,39,642,291,574,1532,582,196,437,41,841,227,65,411,349,583,942,336,632,776,947,294
participant_0_LEVEL,1,1,1,2,4,4,5,6,7,7,8,9,10,10,10,11,11,11,12,12,12,13,13,14,14,14,14,14
participant_0_MINIONSKILLED,0,0,3,7,13,14,19,21,28,35,44,54,63,68,75,79,81,87,88,94,109,116,126,127,133,134,137,137
participant_0_KILLS,0,0,0,0,0,0,0,0,0,0,1,1,2,2,2,2,2,2,2,2,3,3,3,3,3,3,3,3
participant_0_BUY,[],"[3340, 2003, 1055]",[],[],"[1036, 2055]",[],[],[],[],[],"[1038, 3006, 2003, 2003]",[],"[1053, 1036]",[],[],[],[],[],"[3072, 1037, 3363, 2003]",[],"[1036, 1036]",[],[1018],[],[],[],[],[]
participant_0_SOLD,[],[],[],[],[],[],[2003],[2055],[],[],[],[],"[2003, 1036]",[],[],[],[],[2003],"[1038, 1036, 1053, 3340]",[],[2003],[],"[1036, 1036]",[],[],[],[],[]
participant_0_UNDO,[],[],[],[],[],[],[],[],[],[],[],[],[],[],[],[],[],[],[],[],[],[],[],[],[],[],[],[]
participant_1_GOLD,500,500,635,1033,1170,1467,2255,2567,3001,3329,3866,4265,4624,4852,5209,6022,7133,7466,7674,8016,8873,9164,9370,9693,10270,10578,10700,10767
participant_1_CURRENTGOLD,500,0,135,533,20,317,355,667,1101,1429,216,615,974,1202,359,1172,2283,241,449,791,1648,349,556,878,1455,1763,135,142
participant_1_LEVEL,1,1,2,3,3,4,4,5,6,7,7,8,8,9,9,10,10,11,11,11,12,12,12,13,13,13,13,13
participant_1_MINIONSKILLED,0,0,0,0,1,1,1,1,4,8,8,11,14,14,14,15,17,17,17,22,23,23,28,29,29,29,29,29
participant_1_KILLS,0,0,0,0,0,0,0,0,0,0,0,0,0,0,0,0,0,0,0,0,0,0,0,0,0,0,0,0
participant_1_BUY,[],"[3850, 2003, 2003, 3340]",[],[],[],[],[],[],[],[],[],"[3108, 3028, 1052, 2055]",[3108],[1004],[],[],[],[],"[3174, 1052, 1004]",[],[3113],[],[],[3114],[],[],[],[]
participant_1_SOLD,[],[],[],[],[],[],[],[],[],[],[],[],[1052],[],[],[],[],[2055],"[3108, 3028]",[],"[3850, 1052]",[],[],"[2003, 2003, 1004, 1004]",[],[],[],[]
participant_1_UNDO,[],[],[],[],[],[],[],[],[],[],[],"[[0, 3108]]",[],[],[],[],[],[],[],[],[],[],[],[],[],[],[],[]
participant_2_GOLD,500,500,611,885,1190,1466,1729,1942,2575,2733,2918,3285,3407,3613,3950,4334,4572,4975,5167,5346,5746,5981,6124,6445,6568,6795,6918,7006
participant_2_CURRENTGOLD,500,0,111,385,690,966,1229,167,800,233,418,785,357,213,550,934,177,580,772,151,551,786,929,1250,288,515,638,546
participant_2_LEVEL,1,1,1,3,4,5,6,6,8,8,8,8,9,9,9,10,10,11,11,11,12,12,12,13,13,13,14,14
participant_2_MINIONSKILLED,0,0,5,11,22,31,39,45,54,56,60,65,65,70,79,86,89,100,104,107,112,119,120,123,123,129,129,130
participant_2_KILLS,0,0,0,0,0,0,0,0,1,1,1,2,3,3,3,3,4,4,4,4,4,4,4,6,6,6,6,6
participant_2_BUY,[],"[1056, 2003, 2003, 3340]",[],[],"[1029, 2003, 2003]","[2003, 2003, 2055, 2003]",[],[1028],[],"[1031, 2003, 2003]",[],[],[3068],"[1001, 1029, 2003, 2003, 1029]",[],"[3047, 2055]",[],[3024],"[1029, 2003]",[],[3082],[],[],"[3110, 3010]",[],[],[],[1057]
participant_2_SOLD,[],[],[],"[2003, 2003]",[2003],[2003],"[2003, 2003]",[2003],[],[1029],[2003],[],"[1031, 1028, 2003]",[],[],"[2055, 1001, 1029]",[2055],[],[],[],[1029],[],[],"[3082, 3024]",[],[],[],[]
participant_2_UNDO,[],[],[],[],[],[],[],[],[],[],[],[],[],"[[0, 2003], [0, 2003], [0, 1029]]",[],[],[],[],"[[0, 2003]]",[],[],[],[],[],[],[],[],[]
participant_3_GOLD,500,500,583,895,1183,1494,1912,2069,2463,2621,3461,3729,4450,4642,4947,5279,5665,6045,6223,6346,7029,7325,7537,7681,7878,8029,8221,8288
participant_3_CURRENTGOLD,500,0,83,395,258,569,987,1144,1538,1696,36,304,125,317,622,954,1340,1720,23,146,129,425,327,471,668,819,1011,588
participant_3_LEVEL,1,1,1,2,3,3,4,4,5,6,6,6,7,7,7,8,8,9,9,9,9,10,10,10,10,10,11,11
participant_3_MINIONSKILLED,0,0,3,14,21,29,39,41,54,56,60,65,77,81,92,100,108,119,122,122,122,127,128,129,129,131,135,135
participant_3_KILLS,0,0,0,0,0,0,0,0,1,1,1,1,1,1,1,1,1,1,1,1,1,1,1,1,1,1,1,1
participant_3_BUY,[],"[1055, 2003, 3340]",[],[],[],[],[],"[3145, 2031, 2055]",[],"[1001, 1036, 2055]",[],[],[1053],[1036],[],[],"[3144, 3146, 2055]",[],[],[3020],[],[],[],[],"[2420, 1052]",[],[],[]
participant_3_SOLD,[],[],[],[],[],[2003],[],[],[2055],[],[2055],[],[1036],[],[],[],"[1053, 1036, 1055, 3144, 3145, 2055]",[],[],[1001],[],[],[],[],[],[],[2420],[]
participant_3_UNDO,[],[],[],[],[],[],[],[],[],[],[],[],[],[],[],[],[],[],[],[],[],[],[],[],[],[],[],[]
participant_4_GOLD,500,500,522,657,849,1018,1243,1407,1541,1691,2005,2140,2454,2588,2738,2887,3102,3236,3446,3625,3903,4043,4213,4353,4598,4739,4984,5091
participant_4_CURRENTGOLD,500,0,22,157,349,518,743,907,1041,1191,1505,330,179,188,338,487,702,836,85,265,128,268,438,68,313,454,699,766
participant_4_LEVEL,1,1,1,2,3,4,5,5,6,6,6,7,7,7,8,8,8,9,9,9,10,10,10,10,11,11,11,11
participant_4_MINIONSKILLED,0,0,0,0,2,4,4,4,4,4,4,4,4,4,4,4,4,4,5,5,5,5,6,6,6,6,7,7
participant_4_KILLS,0,0,0,0,0,0,1,1,1,1,2,2,2,2,2,3,4,4,4,4,6,6,6,6,7,7,7,7
participant_4_BUY,[],"[1041, 2031, 3340]",[],[],"[1036, 1029]",[],[3133],[],[],[],"[1400, 3047, 2055]",[],[],[],[3052],[],[],"[3022, 1028, 2055]",[],[],[],"[3044, 3067]",[],[],[],[],"[3071, 1031]",[]
participant_4_SOLD,[],[],[],[],[],[],[1036],[],[],[],"[3133, 1041, 1029, 2422]",[],[],[],[],[],"[2055, 3340]",[3052],[],[3513],[],"[1028, 2031]",[2055],[],[],[],"[3044, 3067]",[]
participant_4_UNDO,[],[],[],[],[],[],[],[],[],[],[],[],[],[],[],[],[],[],[],[],[],[],[],[],[],[],[],[]
participant_5_GOLD,500,500,541,913,1595,2036,2385,2880,3079,3328,3799,3942,4317,5312,5837,6886,7072,7518,7910,8208,8480,8826,9312,10334,10572,11458,12204,12633
participant_5_CURRENTGOLD,500,0,41,413,1095,336,685,1180,229,478,949,142,117,1112,1637,2686,122,568,960,1258,130,476,962,1984,2223,3108,704,1133
participant_5_LEVEL,1,1,1,3,4,5,6,7,7,8,8,9,9,10,11,11,11,12,12,13,13,13,13,14,14,15,16,16
participant_5_MINIONSKILLED,0,0,1,13,23,30,40,48,52,60,71,72,87,95,105,121,122,129,139,139,139,143,154,159,164,175,178,183
participant_5_KILLS,0,0,0,0,0,0,0,0,1,1,1,1,2,3,3,4,4,4,4,4,4,4,4,4,5,5,6,7
participant_5_BUY,[],"[1056, 2003, 2003, 3340]",[],[],[],[],"[3802, 2003]",[],[],"[1026, 2055]",[],[3285],[],[],"[3020, 1026]",[],[1052],[3916],[3165],[],[1052],[],[3108],[],[1026],[],[],[]
participant_5_SOLD,[],[],[],"[2003, 2003]",[],[],[],[],[],[],[],"[3802, 1026]",[],[2055],[2422],[],[],[1052],"[3916, 1026]",[],[2003],[],[1052],[],[],[],[],[]
participant_5_UNDO,[],[],[],[],[],[],[],[],[],[],[],[],[],[],[],[],[],[],[],[],[],[],[],[],[],[],[],[]
participant_6_GOLD,500,500,620,1033,1896,2313,2690,2974,3283,3545,4295,4737,5583,6115,6452,7008,7280,7598,8100,8541,9008,9309,9957,11408,11530,12294,13606,14396
participant_6_CURRENTGOLD,500,0,120,533,1396,163,40,324,633,895,1645,2087,908,1440,1777,2333,30,348,850,1291,258,559,1207,2658,405,1170,2481,3271
participant_6_LEVEL,1,1,2,3,4,4,5,5,6,7,7,8,9,9,9,10,10,11,11,11,12,12,12,13,13,14,15,15
participant_6_MINIONSKILLED,0,0,0,0,0,0,0,0,1,5,7,7,12,12,13,14,14,15,17,20,24,30,30,37,37,46,59,64
participant_6_KILLS,0,0,0,0,1,1,1,1,1,1,1,1,1,1,1,1,1,1,1,1,1,1,2,2,2,2,2,2
participant_6_BUY,[],"[1054, 2003, 3340]",[],[],[],"[1043, 2003, 2003]",[],[],[],[],"[1053, 1036]",[],[3153],[],[],[],[],"[3006, 1042, 1042]",[],[],[],[],[],"[3046, 1037]",[],[],[],[]
participant_6_SOLD,[],[],[],[],"[2003, 2010]",[],[],[],[],[],"[2010, 2003]",[],"[2010, 1053, 1036, 1043]",[],[],[],[],"[2003, 2422]",[],[],[],[],[],"[1042, 1042]",[],[],[],[]
participant_6_UNDO,[],[],[],[],[],[],[],[],[],[],[],[],[],[],[],[],[],[],[],[],[],[],[],[],[],[],[],[]
participant_7_GOLD,500,500,562,864,1141,1480,1858,2134,2800,2986,3595,3907,4744,5556,5852,6517,7110,7521,7802,8127,8445,8846,9152,9792,10231,10820,11693,12256
participant_7_CURRENTGOLD,500,0,62,364,641,980,8,284,950,211,820,82,919,1731,377,1042,1200,446,177,502,385,786,628,1267,856,1445,2318,2881
participant_7_LEVEL,1,1,1,3,4,5,6,7,7,8,8,9,10,10,10,11,12,12,12,13,13,13,14,14,14,15,15,16
participant_7_MINIONSKILLED,0,0,2,10,19,29,41,50,61,65,75,82,95,99,104,116,122,134,139,144,151,163,168,174,176,182,188,188
participant_7_KILLS,0,0,0,0,0,0,1,1,1,1,1,1,1,1,1,1,1,1,1,1,1,1,1,1,1,1,1,1
participant_7_BUY,[],"[3858, 3340, 2003, 2003]",[],[],[],"[1028, 1001, 2003]",[],[],[],[],"[3067, 3117, 3364]",[],[],"[1029, 2055, 2055, 1006]",[],[],[],[],[1031],[],"[3109, 1033, 2055, 2055]",[],[],[],"[1057, 1031]",[],[],[]
participant_7_SOLD,[],[],[],[],"[2003, 2003, 2010]",[],[],[],[],[],"[1028, 1001, 3340]",[],"[2010, 2003, 2010, 3858]",[2055],[],[],[],[],[1029],[2055],"[3067, 1031]",[],[3859],[],"[1033, 1006]",[],[],[]
participant_7_UNDO,[],[],[],[],[],[],[],[],[],[],[],[],[],[],[],[],[],[],[],[],[],[],[],[],[],[],[],[]
participant_8_GOLD,500,500,597,811,1401,1684,1975,2387,2741,3004,3140,3562,3960,4107,4439,4843,5340,5714,6010,6608,6898,7306,7909,8333,8555,9003,9805,10137
participant_8_CURRENTGOLD,500,0,97,311,901,84,375,787,1141,1404,290,712,60,207,539,943,1440,414,710,1308,1598,2006,2609,158,381,828,1630,1962
participant_8_LEVEL,1,1,1,2,3,4,4,5,6,6,6,7,7,7,8,8,9,9,9,10,10,11,11,12,12,12,13,13
participant_8_MINIONSKILLED,0,0,4,9,17,24,34,48,57,64,65,79,79,79,91,100,115,125,131,144,149,162,163,163,163,163,168,169
participant_8_KILLS,0,0,0,0,2,3,3,3,3,3,4,4,6,7,7,7,7,7,8,8,9,9,10,13,13,13,14,15
participant_8_BUY,[],"[1006, 1041, 3340]",[],[],[],"[3077, 1028, 2055, 3364]",[3751],[],[],[],[],[],"[1401, 2033, 1001, 1001, 1028, 2055]",[],[],[],"[3748, 1033, 3111]",[],[],[],"[3211, 1029]",[],[],[],"[3065, 3076, 1029, 2055]",[],[],[]
participant_8_SOLD,[],[],[],[],[],"[1006, 3340]",[1028],[2055],[],[],[],[],"[3751, 1041]",[],[],[],"[3077, 1028, 1001, 1033]",[],[2055],[],[],[],[],[],"[3211, 1029, 2055]",[],[],[]
participant_8_UNDO,[],[],[],[],[],[],[],[],[],[],[],[],"[[0, 1001], [0, 2033]]",[],[],[],[],[],[],[],[],[],[],[],"[[0, 1029]]",[],[],[]
participant_9_GOLD,500,500,557,713,1061,1258,1707,1921,2124,2280,2414,2598,3047,3187,3386,3608,3826,4002,4142,4544,4699,4959,5241,5913,6053,6509,6975,7248
participant_9_CURRENTGOLD,500,0,57,213,561,8,457,671,874,1030,64,248,697,237,436,658,876,1052,692,1094,49,309,591,1263,438,894,1360,1528
participant_9_LEVEL,1,1,1,2,3,4,4,5,6,6,6,6,7,7,8,8,9,9,9,10,10,10,10,12,12,12,13,13
participant_9_MINIONSKILLED,0,0,2,3,7,8,9,11,12,13,13,16,17,17,21,23,25,27,27,32,33,35,37,39,39,40,44,44
participant_9_KILLS,0,0,0,0,0,0,0,1,1,1,1,1,1,2,2,3,3,3,3,3,3,3,3,5,5,5,5,5
participant_9_BUY,[],"[1054, 2003, 3340]",[],[],[],"[1001, 1053]",[],[],"[3111, 1036]",[],[],"[3144, 1042, 1042]","[1043, 3363]",[],[],[],"[3153, 3044, 3067]",[],[],[],"[3071, 1033]",[],[],[],[],[],[3812],[]
participant_9_SOLD,[],[],[],[2003],[],[],[],[],[1001],[],[],"[1053, 1036]","[1042, 1042, 3340]",[],[],[],"[3144, 1043]",[],[],[],"[3044, 3067]",[],[],[],[],[],[1033],[]
participant_9_UNDO,[],[],[],[],[],[],[],[],[],[],[],[],[],[],[],[],[],[],[],[],[],[],[],[],[],[],[],[]
team0_KILLS,0,0,0,0,0,0,1,1,3,3,5,6,8,8,8,9,11,11,11,11,14,14,14,16,17,17,17,17
team0_CURRENTGOLD,2500,0,434,1746,1474,2438,3589,2924,5122,4840,2749,3566,2217,2116,2306,3588,5343,3604,1394,1764,2805,2411,3192,3003,3356,4327,3430,2336
team0_TOTALGOLD,2500,2500,2934,4246,5449,6638,8539,9549,11747,12790,14949,17076,19192,20166,21556,23413,26163,27699,28625,29794,32650,33846,34936,37158,38596,39566,40420,40816
team0_LEVEL,5,5,6,12,17,20,24,26,32,34,35,38,41,42,43,47,47,51,52,52,55,57,57,60,61,61,63,63
team0_SBIRES,0,0,11,32,59,79,102,112,144,159,176,199,223,237,264,284,299,327,336,350,371,390,408,414,420,429,437,438
team1_KILLS,0,0,0,0,3,4,5,6,7,7,8,8,11,14,14,16,16,16,17,17,18,18,20,25,26,26,28,30
team1_CURRENTGOLD,2500,0,377,1834,4594,1571,1565,3246,3827,4018,3768,3271,2701,4727,4766,7662,3668,2828,3389,5453,2420,4136,5997,7330,4303,7445,8493,10775
team1_TOTALGOLD,2500,2500,2877,4334,7094,8771,10615,12296,14027,15143,17243,18746,21651,24277,25966,28862,30628,32353,33964,36028,37530,39246,41571,45780,46941,50084,54283,56670
team1_LEVEL,5,5,6,13,18,22,25,29,32,35,35,39,42,43,46,48,51,53,53,57,58,59,60,65,65,68,72,73
team1_SBIRES,0,0,9,35,66,91,124,157,183,207,231,256,290,302,334,374,398,430,453,479,496,533,552,572,579,606,637,648
delta_KILLS,0,0,0,0,-3,-4,-4,-5,-4,-4,-3,-2,-3,-6,-6,-7,-5,-5,-6,-6,-4,-4,-6,-9,-9,-9,-11,-13
delta_CURRENTGOLD,0,0,57,-88,-3120,867,2024,-322,1295,822,-1019,295,-484,-2611,-2460,-4074,1675,776,-1995,-3689,385,-1725,-2805,-4327,-947,-3118,-5063,-8439
delta_TOTALGOLD,0,0,57,-88,-1645,-2133,-2076,-2747,-2280,-2353,-2294,-1670,-2459,-4111,-4410,-5449,-4465,-4654,-5339,-6234,-4880,-5400,-6635,-8622,-8345,-10518,-13863,-15854
delta_LEVEL,0,0,0,-1,-1,-2,-1,-3,0,-1,0,-1,-1,-1,-3,-1,-4,-2,-1,-5,-3,-2,-3,-5,-4,-7,-9,-10
delta_SBIRES,0,0,2,-3,-7,-12,-22,-45,-39,-48,-55,-57,-67,-65,-70,-90,-99,-103,-117,-129,-125,-143,-144,-158,-159,-177,-200,-210
