name,frame_0,frame_1,frame_2,frame_3,frame_4,frame_5,frame_6,frame_7,frame_8,frame_9,frame_10,frame_11,frame_12,frame_13,frame_14,frame_15,frame_16,frame_17,frame_18,frame_19,frame_20,frame_21,frame_22,frame_23,frame_24,frame_25,frame_26,frame_27,frame_28,frame_29,frame_30,frame_31
nameStamp,Tstart,Tearly,Tearly,Tearly,Tearly,Tearly,Tearly,Tearly,Tearly,Tearly,Tearly,Tearly,Tearly,Tearly,Tearly,Tearly,Tmid,Tmid,Tmid,Tmid,Tmid,Tmid,Tmid,Tmid,Tend,Tend,Tend,Tend,Tend,Tend,Tend,Tend
timestamp,0,60031,120063,180103,240107,300136,360138,420170,480201,540212,600216,660226,720234,780265,840269,900270,960297,1020304,1080308,1140316,1200336,1260353,1320386,1380392,1440409,1500421,1560427,1620442,1680474,1740488,1800499,1860499
participant_0_GOLD,500,500,584,846,1106,1403,1568,1903,2150,2371,2656,2779,3133,3680,4128,4292,4646,4860,5226,5509,6203,6505,6947,7480,7826,8331,8453,8750,8872,9016,9228,9269
participant_0_CURRENTGOLD,500,0,84,346,606,903,1068,153,400,621,906,29,383,930,28,192,546,160,526,209,253,555,222,755,551,1056,89,385,157,301,63,-106
participant_0_LEVEL,1,1,1,3,4,5,6,6,7,7,8,8,9,10,10,10,11,11,12,12,12,13,13,13,14,14,14,14,14,15,15,15
participant_0_MINIONSKILLED,0,0,3,11,16,24,26,36,40,46,52,52,62,68,74,76,90,93,103,109,120,121,121,137,146,150,150,157,157,158,159,159
participant_0_KILLS,0,0,0,0,0,0,0,0,0,0,0,1,1,2,3,3,3,3,4,4,4,4,4,5,5,5,6,6,7,7,8,8
participant_0_BUY,[],"[1055, 2003, 3340]",[],[],[],[],[],[6670],[],[],"[1037, 1042]",[],[1018],[],[],"[6672, 3006, 1018, 1042]",[],[],"[3086, 1037, 1042]",[],"[3085, 1042]",[1042],[],[3086],[],[],"[2015, 3094]",[],[],[],[1038],[]
participant_0_SOLD,[],[],[],[],[],[2010],"[2010, 2003]",[2010],[],[],[],[],[],[],[],"[6670, 1018, 1037, 1042, 2422]",[],[],"[1018, 1042]",[],"[1037, 3086, 1042]",[],[],[1042],[],[],"[3086, 2015]",[],[],[],[],[]
participant_0_UNDO,[],[],[],[],[],[],[],[],[],[],[],[],[],[],[],[],[],[],[],[],[],"[[0, 1042]]",[],[],[],[],[],[],[],[],[],[]
participant_1_GOLD,500,500,621,963,1171,1307,1650,1962,2191,2535,3163,3371,3791,4048,4271,4608,4847,5202,5462,5670,6027,6678,6875,6997,7310,7482,7619,7741,8267,8418,8625,8666
participant_1_CURRENTGOLD,500,0,121,463,271,407,750,1062,316,660,88,296,16,273,496,833,1072,1427,887,195,552,1203,185,307,620,192,329,51,577,228,435,416
participant_1_LEVEL,1,1,2,3,3,3,4,5,5,6,6,6,7,7,8,8,8,9,9,10,10,11,11,11,11,11,11,11,12,12,12,12
participant_1_MINIONSKILLED,0,0,0,0,0,1,1,1,1,3,6,6,10,10,10,11,13,13,15,15,15,17,17,17,17,17,18,18,20,22,22,22
participant_1_KILLS,0,0,0,0,0,0,0,0,0,0,0,0,0,0,0,0,1,1,1,1,1,2,2,2,2,2,2,2,2,2,2,2
participant_1_BUY,[],"[3858, 2003, 2003, 3340]",[],[],[],[],[],"[1028, 1029, 1028, 2003, 2055]",[],[],"[1028, 3364]",[],"[6660, 1033]",[],[],"[1057, 3047]",[],[],[1029],[],[],"[6664, 2003]",[3067],[],[1029],[1027],[],[3024],[],[],[3050],[]
participant_1_SOLD,[],[],[],[],[2010],"[2010, 2003]",[2003],[2010],[2055],"[3858, 2003]",[3340],[],"[1028, 1028]",[],[],"[1033, 1029, 2422]",[3859],[],[],[],[],"[6660, 1029, 1057]",[2003],[],[],[],[],"[1027, 1029]",[],[],"[3067, 3024]",[]
participant_1_UNDO,[],[],[],[],[],[],[],"[[0, 1028]]",[],[],[],[],[],[],[],[],[],[],[],[],[],[],[],[],[],[],[],[],[],[],[],[]
participant_2_GOLD,500,500,584,892,1106,1410,1718,1882,2178,2478,2600,3224,3738,4056,5231,5521,5864,6085,6313,6436,6713,7106,7242,7364,7634,7846,8147,9129,9401,10011,10203,10244
participant_2_CURRENTGOLD,500,0,84,382,596,890,1188,252,238,528,100,714,88,406,1581,321,664,885,1113,336,613,256,392,414,684,896,497,1079,651,1261,703,744
participant_2_LEVEL,1,1,1,3,4,5,6,6,6,7,7,8,9,9,10,10,11,11,11,11,12,12,12,12,13,13,13,14,15,15,15,15
participant_2_MINIONSKILLED,0,0,3,11,16,24,32,34,41,49,49,58,61,73,75,81,90,93,96,96,102,109,110,110,119,120,122,128,128,146,150,150
participant_2_KILLS,0,0,0,0,0,0,0,0,0,0,0,1,2,2,3,3,3,3,3,3,3,3,3,3,3,3,3,4,4,4,4,4
participant_2_BUY,[],"[1036, 2003, 2031]",[],[],[],[],[],"[3134, 1036]",[1001],[],[1053],[],[6692],[],[],"[3077, 1036]",[],[],[],"[1053, 1036]",[],[3133],[],[3074],[],[],"[1036, 1036]",[3133],"[1036, 1036]",[],[3035],[]
participant_2_SOLD,[],[],[],[],[],[],[],[1036],[],[],[1036],[],"[2031, 3134, 1053]",[],[],[],[],[],[],[1036],[],[1036],[],"[3077, 1053, 3133]",[],[],[],"[1036, 1036]",[],[],"[1036, 1036]",[]
participant_2_UNDO,[],"[[0, 2003]]",[],[],[],[],[],[],[],[],[],[],[],[],[],[],[],[],[],[],[],[],[],[],[],[],[],[],[],[],[],[]
participant_3_GOLD,500,500,584,948,1309,1648,1900,2092,2529,2799,3123,3973,4193,4923,5604,5852,6408,7039,7874,8100,8549,8722,9018,9575,9936,10233,10814,11143,11648,12167,12758,12799
participant_3_CURRENTGOLD,500,0,84,448,809,1148,1400,292,729,999,148,998,618,1348,2029,252,808,1439,799,1025,149,322,618,276,636,933,15,343,849,1368,659,699
participant_3_LEVEL,1,1,1,2,3,4,4,5,5,6,6,7,7,8,8,8,9,9,10,10,11,11,11,11,12,12,12,13,13,14,14,14
participant_3_MINIONSKILLED,0,0,3,15,29,38,43,48,63,72,74,86,92,105,115,119,131,139,153,158,160,160,166,166,171,177,181,184,188,203,209,209
participant_3_KILLS,0,0,0,0,0,0,0,0,0,0,0,0,0,1,1,1,1,1,1,1,1,1,2,2,2,3,3,3,3,3,3,3
participant_3_BUY,[],"[1054, 2003, 3340]",[],[],[],[],[],"[3134, 2003, 2003, 2003]",[],[],[],"[1053, 2003, 2003]",[],[],"[6692, 2003, 2003, 2003]",[],[],"[1001, 1029]",[],"[3047, 2003, 2003]","[1036, 1042]",[],"[1043, 2055]",[],[1053],[],[3153],[],[1036],[],[1033],[]
participant_3_SOLD,[],[],[],[],[2003],[],[],[],[],"[2003, 2003, 2003]",[],[],[],"[2003, 2003]","[3134, 1053]",[],[],"[2003, 2003]",[],"[1001, 1029, 2003]",[],[],"[2003, 2003, 1042]",[],[1036],[],"[1054, 2055, 1053, 1043]",[],[],[],[],[]
participant_3_UNDO,[],[],[],[],[],[],[],[],[],[],[],[],[],[],[],[],[],[],[],[],[],[],[],[],[],[],[],[],[],[],[],[]
participant_4_GOLD,500,500,544,752,922,1140,1341,1475,1720,1914,2246,2676,2817,3201,3522,3761,4197,4387,4577,4739,4929,5370,5585,6035,6176,6366,6507,6647,6958,7099,7411,7458
participant_4_CURRENTGOLD,500,0,44,252,422,640,841,150,395,589,521,951,442,826,1148,436,872,1062,953,1114,1304,695,110,561,401,241,382,272,584,724,337,383
participant_4_LEVEL,1,1,1,2,3,4,4,4,5,5,6,7,7,7,8,8,9,9,9,9,10,10,10,11,11,11,11,11,12,12,12,12
participant_4_MINIONSKILLED,0,0,1,3,5,7,8,8,11,14,16,20,20,25,26,28,29,29,29,30,30,30,30,35,35,35,35,35,36,36,38,38
participant_4_KILLS,0,0,0,0,0,0,0,0,0,0,1,1,1,1,1,1,1,1,1,1,1,2,2,2,2,2,2,2,3,3,3,3
participant_4_BUY,[],"[1035, 2031, 3340]",[],[],[1028],[],[],[],"[6660, 2055, 3364, 1029]",[],[3105],[],[3068],[],[],[],[],[],[3111],"[1029, 1029, 1029]",[],[],"[3082, 3067, 2055]",[],[],[3143],[],[1028],[],[1011],[],[]
participant_4_SOLD,[],[],[],[],[],[],[],[],"[1028, 3340]",[],[1029],[],"[6660, 3105]",[2055],[],[1035],[],[],[2422],[],[],[],"[1029, 1029, 2031]",[],[],"[3082, 1029, 3067, 2055]",[],[],[],[1028],[],[]
participant_4_UNDO,[],[],[],[],[],[],[],[],[],[],[],[],[],[],[],[],[],[],[],[],[],[],[],[],[],[],[],[],[],[],[],[]
participant_5_GOLD,500,500,598,927,1190,1550,1872,2245,2576,2860,3303,3927,4084,4276,4797,5649,5800,6473,6805,7187,7330,7453,7687,8890,9412,10448,11109,12073,13170,13427,14847,15327
participant_5_CURRENTGOLD,500,0,98,427,690,1050,1372,295,326,610,1053,527,684,176,697,1549,300,973,1305,1687,330,53,287,1490,313,1348,2009,223,1320,658,2077,67
participant_5_LEVEL,1,1,1,3,4,5,6,6,7,8,8,9,10,10,11,11,11,12,13,13,13,13,13,14,15,15,16,16,17,17,18,18
participant_5_MINIONSKILLED,0,0,4,14,22,33,41,46,55,64,73,81,83,87,93,105,107,117,122,130,131,131,137,140,152,163,174,176,179,179,197,198
participant_5_KILLS,0,0,0,0,0,0,0,0,0,0,0,1,1,1,2,2,2,3,3,3,3,3,3,4,4,5,5,7,9,9,10,11
participant_5_BUY,[],"[1055, 2003]",[],[],[],[],[],"[3057, 1036, 1028]",[1001],[],[],"[3044, 3067]",[],[6632],[],[],"[3158, 3123]",[],[],[],"[3133, 1028]",[6609],[],[],"[3134, 1018]",[],[],"[6676, 3035]",[],[3133],[],[]
participant_5_SOLD,[],[],[],[],[2003],[],[],[],[],[],[],"[1028, 1036]",[],"[3044, 3057, 3067]",[],[],[1001],[],[],[],[],"[3123, 1028, 3133]",[],[],[],[],[],"[3134, 1018]",[],"[6632, 1055]",[],[]
participant_5_UNDO,[],[],[],[],[],[],[],[],[],[],[],[],[],[],[],[],[],[],[],[],[],[],[],[],[],[],[],[],[],"[[6632, 0]]",[],[]
participant_6_GOLD,500,500,621,948,1696,1895,2095,2422,2771,3185,4048,4300,5515,5738,5949,6436,6744,6986,7671,8504,9060,9692,9945,10502,10709,11786,12428,13030,13778,14001,14882,15215
participant_6_CURRENTGOLD,500,0,121,448,1196,1395,1595,397,746,1160,2023,2275,3490,488,399,886,1194,1436,2121,304,860,1493,1745,2302,45,1122,1763,2365,3114,336,1217,1215
participant_6_LEVEL,1,1,2,3,4,4,4,5,6,6,7,8,9,9,9,9,10,10,11,11,12,12,13,13,13,14,15,15,16,16,17,17
participant_6_MINIONSKILLED,0,0,0,0,4,4,4,4,4,4,8,8,9,9,9,9,9,9,15,17,18,18,18,18,18,18,25,25,27,27,27,29
participant_6_KILLS,0,0,0,0,0,0,0,2,2,2,2,2,2,2,2,2,2,2,2,2,2,2,2,2,2,3,4,4,5,5,6,6
participant_6_BUY,[],"[1055, 3340, 2003]",[],[],[],[],[],"[6670, 1001, 1042]",[],[],[],"[1037, 3006, 1042]",[],[1018],[],[],[6672],[],[],"[3086, 1042]",[],[],[1037],[],[],[3085],[],[1053],[1037],[3077],[],[]
participant_6_SOLD,[],[],[],[2003],[],[],[],[],[],[3400],[],"[1001, 1042]",[],[],[],[],"[6670, 1018, 1037]",[],[],[1042],[],[],[],[],[],"[1037, 3086, 1042]",[],[],[1055],[1037],[],[]
participant_6_UNDO,[],[],[],[],[],[],[],[],[],[],[],[],[],[],[],[],[],[],[],[],[],[],[],[],[],[],[],[],[],[],[],[]
participant_7_GOLD,500,500,626,969,1232,1557,1816,2113,2716,3204,3770,4115,4481,4688,5175,5553,5867,6227,6845,7467,7856,8414,8536,9841,10279,10856,11038,11824,12561,12864,13569,14123
participant_7_CURRENTGOLD,500,0,126,459,722,1037,236,58,651,279,845,280,346,553,1040,183,497,857,1475,132,521,1078,166,1471,794,1371,168,954,1692,490,1195,1648
participant_7_LEVEL,1,1,1,3,4,5,5,6,7,8,8,9,9,9,10,10,11,11,11,12,12,13,13,14,14,15,15,15,16,16,17,17
participant_7_MINIONSKILLED,0,0,6,16,24,32,38,48,55,64,72,82,87,92,97,104,111,121,128,128,137,147,147,152,161,163,164,171,172,178,179,185
participant_7_KILLS,0,0,0,0,0,0,0,0,1,1,1,1,1,1,2,2,2,2,3,3,3,4,4,5,5,6,6,7,8,8,8,9
participant_7_BUY,[],"[1056, 2003, 2003]",[],[],[],[],[3145],"[1028, 2055, 3364, 3340]",[],[1026],[],"[3152, 3364]",[1001],[],[],"[3020, 1052]",[],[],[],"[3113, 3057, 1026]",[],[],"[3100, 1052]",[],"[3191, 2420]",[],"[3157, 1052]",[],[],"[4630, 1026]",[],[]
participant_7_SOLD,[],[],[],[],[2003],[],[],"[3340, 3364]",[2003],[],[],"[3145, 1028, 1026, 3340]",[],[2055],[],[1001],[],[],[],"[3400, 1052]",[],[],"[3057, 3113, 1026]",[3400],[1052],[2420],"[3191, 2421]",[],[],"[1052, 1056]",[],[]
participant_7_UNDO,[],[],[],[],[],[],[],[],[],[],[],[],[],[],[],[],[],[],[],[],[],[],[],[],[],[],[],[],[],[],[],[]
participant_8_GOLD,500,500,598,874,1155,1452,1771,2629,2960,3490,4065,4187,4526,4718,4931,5125,5464,5650,6129,6712,6997,7265,7388,7888,8373,8871,9366,9602,10305,10648,11610,12050
participant_8_CURRENTGOLD,500,0,98,374,655,952,1271,229,560,1090,1665,112,451,43,256,450,164,350,829,212,497,765,13,513,998,471,966,302,311,328,1291,1550
participant_8_LEVEL,1,1,1,2,3,3,4,5,5,6,7,7,7,8,8,8,8,8,9,9,10,10,10,11,12,12,13,13,14,14,15,15
participant_8_MINIONSKILLED,0,0,4,13,20,27,38,43,52,60,72,72,77,81,86,87,96,100,114,126,132,136,136,138,148,152,161,162,168,168,174,181
participant_8_KILLS,0,0,0,0,1,1,1,1,1,1,3,3,6,6,6,6,6,6,6,7,8,8,8,8,8,10,10,10,11,11,12,12
participant_8_BUY,[],"[1039, 3340, 2031]",[],[],[],[],[],"[3134, 1036, 2055]",[],[],[],[],[],"[6692, 3134, 1028, 1001, 2055]","[1036, 1029]",[],[],[],[],"[3814, 3047, 1036]",[],[],[],[],"[1038, 3026]",[],[],[],[],[3142],[],[]
participant_8_SOLD,[],[],[],[],[],[],[],[],[],[],[],[2055],[1039],"[3134, 1036]",[],[],[3340],[],[3513],"[3134, 1001, 1029]",[],[],[],[],"[1036, 2031, 2055, 1038]",[],[],[],[],[],[],[]
participant_8_UNDO,[],[],[],[],[],[],[],[],[],[],[],[],[],"[[0, 1028]]","[[0, 1036]]",[],[],[],[],[],[],[],[],[],[],[],[],[],[],[],[],[]
participant_9_GOLD,500,500,544,713,908,1147,1303,1803,2071,2505,3290,3430,4039,4179,4388,4630,4855,4995,5368,6523,6713,7280,7720,8934,9075,9215,9416,9860,10200,10340,10831,10977
participant_9_CURRENTGOLD,500,0,44,213,408,647,803,78,346,780,465,180,789,229,438,681,905,1045,1418,123,314,880,570,1185,225,365,566,1010,475,616,81,227
participant_9_LEVEL,1,1,1,2,3,3,4,5,5,6,7,7,8,8,8,8,8,8,9,10,10,10,10,11,11,12,12,12,13,13,13,13
participant_9_MINIONSKILLED,0,0,1,3,4,7,8,9,13,14,15,15,19,19,19,22,23,23,29,30,30,30,30,30,30,30,30,32,32,32,32,32
participant_9_KILLS,0,0,0,0,0,0,0,0,0,1,2,2,2,2,2,2,2,2,2,3,3,4,4,5,5,5,5,5,5,5,5,5
participant_9_BUY,[],"[3854, 3340, 2003, 2003]",[],[],[],[],[],"[3134, 2055, 2003]",[],[],[3133],"[2055, 1001, 2003, 3364]",[],[3117],[],[],[],[],[],"[6691, 3134, 1036]",[],[],[3133],[3179],[3134],[],[],[],[1037],[],[3142],[]
participant_9_SOLD,[],[],[],[],[2003],[],[2003],[],[2055],"[3854, 2003]",[3400],[3340],[2055],"[1001, 2003]",[],[],[],[],[],"[3400, 3855, 3134, 3133]",[],[],"[3400, 1036]","[3400, 3134, 3133]",[],[],[],[],[],[],"[3134, 1037]",[]
participant_9_UNDO,[],[],[],[],[],[],[],[],[],[],[],[],[],[],[],[],[],[],[],[],[],[],[],[],[],[],[],[],[],[],[],[]
team0_KILLS,0,0,0,0,0,0,0,0,0,0,1,3,4,6,8,8,9,9,10,10,10,12,13,14,14,15,16,17,19,19,20,20
team0_CURRENTGOLD,2500,0,417,1891,2704,3988,5247,1909,2078,3397,1763,2988,1547,3783,5282,2034,3962,4973,4278,2879,2871,3031,1527,2313,2892,3318,1312,2130,2818,3882,2197,2136
team0_TOTALGOLD,2500,2500,2917,4401,5614,6908,8177,9314,10768,12097,13788,16023,17672,19908,22756,24034,25962,27573,29452,30454,32421,34381,35667,37451,38882,40258,41540,43410,45146,46711,48225,48436
team0_LEVEL,5,5,6,13,17,21,24,26,28,31,33,36,39,41,44,44,48,49,51,52,55,57,57,58,61,61,61,63,66,68,68,68
team0_SBIRES,0,0,10,40,66,94,110,127,156,184,197,222,245,281,300,315,353,367,396,408,427,437,444,465,488,499,506,522,529,565,578,578
team1_KILLS,0,0,0,0,1,1,1,3,4,5,8,9,12,12,14,14,14,15,16,18,19,21,21,24,24,29,30,33,38,38,41,43
team1_CURRENTGOLD,2500,0,487,1921,3671,5081,5277,1057,2629,3919,6051,3374,5760,1489,2830,3749,3060,4661,7148,2458,2522,4269,2781,6961,2375,4677,5472,4854,6912,2428,5861,4707
team1_TOTALGOLD,2500,2500,2987,4431,6181,7601,8857,11212,13094,15244,18476,19959,22645,23599,25240,27393,28730,30331,32818,36393,37956,40104,41276,46055,47848,51176,53357,56389,60014,61280,65739,67692
team1_LEVEL,5,5,6,13,18,20,23,27,30,34,37,40,43,44,46,46,48,49,53,55,57,58,59,63,65,68,71,71,76,76,80,80
team1_SBIRES,0,0,15,46,74,103,129,150,179,206,240,258,275,288,304,327,346,370,408,431,448,462,468,478,509,526,554,566,578,584,609,625
delta_KILLS,0,0,0,0,-1,-1,-1,-3,-4,-5,-7,-6,-8,-6,-6,-6,-5,-6,-6,-8,-9,-9,-8,-10,-10,-14,-14,-16,-19,-19,-21,-23
delta_CURRENTGOLD,0,0,-70,-30,-967,-1093,-30,852,-551,-522,-4288,-386,-4213,2294,2452,-1715,902,312,-2870,421,349,-1238,-1254,-4648,517,-1359,-4160,-2724,-4094,1454,-3664,-2571
delta_TOTALGOLD,0,0,-70,-30,-567,-693,-680,-1898,-2326,-3147,-4688,-3936,-4973,-3691,-2484,-3359,-2768,-2758,-3366,-5939,-5535,-5723,-5609,-8604,-8966,-10918,-11817,-12979,-14868,-14569,-17514,-19256
delta_LEVEL,0,0,0,0,-1,1,1,-1,-2,-3,-4,-4,-4,-3,-2,-2,0,0,-2,-3,-2,-1,-2,-5,-4,-7,-10,-8,-10,-8,-12,-12
delta_SBIRES,0,0,-5,-6,-8,-9,-19,-23,-23,-22,-43,-36,-30,-7,-4,-12,7,-3,-12,-23,-21,-25,-24,-13,-21,-27,-48,-44,-49,-19,-31,-47
