name,frame_0,frame_1,frame_2,frame_3,frame_4,frame_5,frame_6,frame_7,frame_8,frame_9,frame_10,frame_11,frame_12,frame_13,frame_14,frame_15,frame_16,frame_17,frame_18,frame_19,frame_20,frame_21,frame_22,frame_23,frame_24,frame_25,frame_26,frame_27,frame_28,frame_29,frame_30,frame_31,frame_32
nameStamp,Tstart,Tearly,Tearly,Tearly,Tearly,Tearly,Tearly,Tearly,Tearly,Tearly,Tearly,Tearly,Tearly,Tearly,Tearly,Tearly,Tmid,Tmid,Tmid,Tmid,Tmid,Tmid,Tmid,Tmid,Tmid,Tmid,Tmid,Tmid,Tmid,Tmid,Tmid,Tmid,Tmid
timestamp,0,60025,120046,180070,240083,300103,360115,420137,480151,540172,600195,660223,720245,780274,840274,900277,960297,1020302,1080324,1140355,1200377,1260383,1320389,1380399,1440426,1500458,1560478,1620511,1680529,1740538,1800539,1860554,1920554
participant_0_GOLD,500,500,584,804,1301,1521,1707,2147,2854,3158,3280,3708,3963,4190,4502,4828,5028,5432,6035,6252,6424,6797,6919,7041,7164,7663,8439,8987,9176,9469,9882,10520,10811
participant_0_CURRENTGOLD,500,0,84,304,101,321,507,547,1254,58,180,598,153,380,692,1018,118,522,1125,1342,314,687,409,131,254,753,1529,2077,116,409,822,1460,1311
participant_0_LEVEL,1,1,1,2,4,4,5,6,7,7,7,8,8,8,9,9,10,10,11,11,11,11,11,11,11,12,13,13,13,14,14,15,15
participant_0_MINIONSKILLED,0,0,3,9,11,14,18,28,40,41,41,46,48,54,65,74,79,87,93,94,94,94,94,94,94,107,121,122,122,122,122,127,127
participant_0_KILLS,0,0,0,0,1,1,1,1,1,1,1,1,1,1,1,1,1,1,1,1,1,1,1,1,1,1,1,1,1,1,1,1,1
participant_0_BUY,[],"[2033, 3340]",[],[],[3057],[],[],[1028],[],"[3067, 3044]",[],[],[6632],[],[],[],[3047],[],[],[],"[1031, 1028]",[],[3066],[1028],[],[],[],[],"[3742, 3066, 1033]",[],[],[],[1057]
participant_0_SOLD,[],[],[],[],[],[],[],[],[],[1028],[],[],"[3044, 3057, 3067]",[],[],[],[],[],[],[],[],[],[1028],[],[],[],[],[],"[3066, 1028, 1031]",[],[],[],[1033]
participant_0_UNDO,[],[],[],[],[],[],[],[],[],[],[],[],[],[],[],[],[],[],[],[],[],[],[],[],[],[],[],[],[],[],[],[],[]
participant_1_GOLD,500,500,726,933,1233,1525,1733,2315,2727,2850,3841,4493,4814,5330,5671,6077,6340,7128,7300,7743,8191,8642,8864,9582,9729,9921,10245,11715,12119,12242,12860,13118,13389
participant_1_CURRENTGOLD,500,0,226,433,733,1025,1233,1815,2227,600,1591,2243,314,830,1171,1577,1840,2628,300,743,1191,842,664,82,229,422,745,2215,2619,1868,2486,2743,789
participant_1_LEVEL,1,1,2,3,3,4,4,5,6,6,7,8,8,8,9,9,10,10,10,11,11,11,11,12,12,12,12,13,13,14,14,15,15
participant_1_MINIONSKILLED,0,0,0,0,0,0,0,3,3,3,4,7,10,11,11,13,16,16,16,16,20,21,21,21,21,21,21,23,23,23,26,28,28
participant_1_KILLS,0,0,0,0,0,0,0,0,0,0,0,1,1,1,1,1,1,1,1,1,1,3,3,3,3,3,3,3,3,3,3,3,3
participant_1_BUY,[],"[3850, 3340, 2003, 2055]",[],[],[],[],"[2055, 2031, 1082, 1004]",[],"[2055, 1028]",[],[],[],"[2055, 4642, 3067, 3364]",[],[],[],"[4005, 2055]",[],[],"[3117, 2055]",[],[],[3041],[],[1052],[],[],[3145],[],[2420],[],[],[]
participant_1_SOLD,[],[2055],[],[],[],[],[2055],[],"[2010, 2010, 2010]","[2055, 3850]",[],[],"[2055, 1004, 1028, 3340]",[],[],[],"[3851, 3067, 4642]",[2055],[],[2422],[],[],"[1082, 2055]",[],[],[],[],[1052],[],[2031],[],[],[]
participant_1_UNDO,[],"[[0, 2003]]",[],[],[],[],[],[],[],[],[],[],[],[],[],[],[],[],[],[],[],[],[],[],[],[],[],[],[],[],[],[],[]
participant_2_GOLD,500,500,591,867,1137,1476,1742,2394,2690,3453,3802,4103,4615,5025,5530,6213,6686,7039,7530,7652,8092,8407,8551,9124,9247,9439,9789,10251,10925,11123,11565,12119,13291
participant_2_CURRENTGOLD,500,0,91,367,637,976,1232,59,345,133,482,163,675,1085,55,738,1210,1564,2055,62,502,17,161,149,272,464,349,811,1485,233,241,795,1806
participant_2_LEVEL,1,1,1,3,4,5,6,7,8,8,9,9,9,10,10,11,11,12,12,12,12,12,13,13,13,13,13,14,14,14,14,14,15
participant_2_MINIONSKILLED,0,0,4,12,20,33,38,50,57,57,62,64,68,70,74,79,83,83,93,93,95,98,99,101,101,101,103,105,108,108,108,110,116
participant_2_KILLS,0,0,0,0,0,1,1,1,1,1,1,2,2,4,4,4,4,6,7,7,7,7,9,9,9,10,10,12,13,14,15,16,18
participant_2_BUY,[],"[1055, 3340, 2003]",[],[],[],[],"[1036, 1036, 1042, 1001]",[],[6670],[],[],[],"[1053, 1018, 3009]",[],[6673],[],[],[],"[1018, 1037, 1036]",[],[],[6676],[],"[3086, 2015]",[],[3094],[],[1018],[],[3036],[],[],"[3031, 2140]"
participant_2_SOLD,[],[],[],[],[],[2003],[],[],"[1036, 1036]",[],[],[],[1001],[],"[1055, 6670, 1053]",[],[],[],[],[],[],"[1036, 1037, 1018]",[],[],[],"[3086, 2015]",[],[],[],[1018],[],[],[2140]
participant_2_UNDO,[],[],[],[],[],[],"[[0, 1042]]",[],[],[],[],[],"[[0, 1018]]",[],[],[],[],[],[],[],[],[],[],[],[],[],[],[],[],[],[],[],[]
participant_3_GOLD,500,500,584,969,1246,1696,1868,2168,2290,2583,2838,3577,3826,4643,4766,5176,5456,6380,6772,7090,7770,7967,9884,10064,10395,10992,11399,12454,13194,13642,14539,16024,17296
participant_3_CURRENTGOLD,500,0,84,469,746,1196,368,668,190,483,738,1477,226,1043,146,556,836,1760,327,645,1325,347,2264,544,876,672,1079,1534,2274,422,1320,2804,-4
participant_3_LEVEL,1,1,1,2,3,3,4,5,5,6,6,7,7,8,8,9,9,10,10,10,11,11,13,13,13,14,14,14,15,15,15,16,16
participant_3_MINIONSKILLED,0,0,3,16,24,26,29,36,36,43,51,57,61,65,65,75,80,85,85,93,104,104,114,114,122,125,131,135,138,138,138,158,167
participant_3_KILLS,0,0,0,0,0,0,0,1,1,1,2,3,3,4,4,4,4,5,5,5,5,6,6,7,7,7,7,10,10,10,11,11,11
participant_3_BUY,[],"[1035, 2031, 3340]",[],[],[],[],[],[],[],"[6660, 1029, 1033]",[],[],"[3068, 3067]",[],[],[],[],[],"[3065, 1028]",[],[],[],"[1031, 3066]",[3742],[],[],[],[],[],[1037],[],[],[3053]
participant_3_SOLD,[],[],[],[],[],[],[],[],[1035],[],[],[],"[6660, 1033, 1029]",[],[],[],[],[],[3067],[],[],[],[1028],"[3066, 1031]",[],[],[],[],[],[],[],[],[1037]
participant_3_UNDO,[],[],[],[],[],[],[],[],[],[],[],[],[],[],[],[],[],[],[],[],[],[],[],[],[],[],[],[],[],[],[],[],[]
participant_4_GOLD,500,500,563,777,992,1376,1511,1685,1819,2046,2301,3073,3214,3479,3679,4212,4352,4589,4834,4995,5186,6152,6292,6582,6722,6862,7063,7303,7585,7832,7972,8287,8834
participant_4_CURRENTGOLD,500,25,88,302,517,901,211,385,134,361,616,1388,254,519,719,1252,467,704,949,335,526,1492,382,672,377,518,718,343,625,282,422,738,1134
participant_4_LEVEL,1,1,1,2,3,3,3,4,4,5,5,6,6,7,7,7,8,8,8,9,9,10,10,10,10,10,11,11,11,12,12,12,13
participant_4_MINIONSKILLED,0,0,0,0,0,0,0,0,0,1,2,5,5,6,6,6,6,6,6,7,7,8,8,8,8,8,9,9,9,10,10,10,13
participant_4_KILLS,0,0,0,0,0,0,0,1,1,3,3,3,4,4,5,6,7,7,7,7,8,8,8,9,9,9,9,9,10,10,11,12,14
participant_4_BUY,[],"[1054, 2003, 3340]",[],[],[],[],[],"[4635, 1001, 2003, 2003, 2003, 2055]",[],"[1026, 2003, 2055]",[],[3111],[],[],"[4633, 1052, 2003]",[],[],[],[],"[3157, 2003]",[],[3067],[],"[1052, 2003, 2003, 2003]",[],[],[3108],[],[],"[4629, 2003, 2003, 2003]",[1052],[],[]
participant_4_SOLD,[],[],[],[],[],[],[2003],[],[2055],[],[],"[1054, 1001]",[],[],"[2055, 2003, 3340, 4635, 1026]","[3513, 2003]",[2003],[],[2003],[1052],[2003],[],[],[2003],[],[],"[1052, 2003]","[2003, 2003]",[],"[3108, 3067]",[],[],[]
participant_4_UNDO,[],[],[],[],[],[],[],[],[],[],[],[],[],[],[],[],[],[],[],[],[],[],[],[],[],[],[],[],[],[],[],[],[]
participant_5_GOLD,500,500,584,898,1553,2207,2540,2982,3844,4433,5190,5376,6401,7011,7380,7780,8506,8629,9813,10081,10848,11356,11492,12058,12654,13316,13509,13766,14970,16520,17142,17939,18061
participant_5_CURRENTGOLD,500,0,84,398,53,707,1040,157,1019,1608,932,168,1193,1803,2172,2572,3298,321,1505,1773,2540,3048,135,700,1296,1959,431,689,1893,3442,2565,1152,603
participant_5_LEVEL,1,1,1,3,4,5,6,6,7,7,8,8,9,10,10,11,11,11,12,12,13,13,13,14,14,14,15,15,15,16,16,16,16
participant_5_MINIONSKILLED,0,0,3,11,18,27,40,40,50,60,66,70,84,94,104,113,124,124,136,141,152,155,156,161,181,181,185,193,196,205,205,207,207
participant_5_KILLS,0,0,0,0,1,2,2,3,4,5,6,6,7,7,7,7,7,7,9,9,10,10,10,11,11,11,11,11,13,14,15,17,17
participant_5_BUY,[],"[1054, 3340, 2003]",[],[],"[1001, 1036, 1042, 2003]",[],[],"[3051, 3067, 2055, 3364]",[],[],[3078],"[3111, 2055, 2055]",[],[],[],[],[],[3156],[],[],[],[],"[3742, 2055, 2055]",[],[],[],"[3086, 2015]",[],[],[],[3046],[3075],[]
participant_5_SOLD,[],[],[],[2003],[],[],[2003],"[1042, 1036, 3340]",[],[2055],"[3051, 3067]",[1001],[2055],[],[],[2055],[],[],[],[],[],[],[],[2055],[2055],[],[1054],[],[],[],[3086],[2015],[]
participant_5_UNDO,[],[],[],[],[],[],[],[],[],[],[],[],[],[],[],[],[],[],[],[],[],[],[],[],[],[],[],[],[],[],[],[],[]
participant_6_GOLD,500,500,621,949,1318,1715,1863,2275,2615,3152,3564,3769,3936,4059,4216,4607,4880,5172,5295,5612,5906,6322,6635,6807,7164,7337,7744,7912,8145,8289,8544,8725,9010
participant_6_CURRENTGOLD,500,0,121,449,818,1215,1363,1775,2115,2652,3064,3269,336,159,316,707,180,472,245,562,856,22,335,157,514,687,544,112,345,139,394,275,110
participant_6_LEVEL,1,1,2,3,4,4,4,5,5,6,7,7,7,8,8,8,9,9,9,9,10,10,11,11,11,11,11,12,12,12,13,13,13
participant_6_MINIONSKILLED,0,0,0,0,0,0,0,0,1,1,1,3,3,3,5,6,6,6,6,6,7,7,7,7,7,7,20,20,22,23,27,28,29
participant_6_KILLS,0,0,0,0,0,0,0,0,0,1,1,1,1,1,1,1,1,1,1,1,1,2,2,2,2,2,2,2,2,2,2,2,2
participant_6_BUY,[],"[1035, 3340, 2031]",[],[],[],[],[],[],[],[],[],[],"[3124, 1001]",[1042],[],[],"[3006, 1042]",[],"[1042, 1036]",[],[],"[6670, 1018]",[],[1036],[],[],[1053],[6673],[],[1036],[],[1042],[3051]
participant_6_SOLD,[],[],[],[],[],[],[],[],[],[],[1035],[],[],[],[],[],"[1001, 1042]",[],[],[],[],"[1036, 1042]",[],[],[],[],[1036],"[6670, 1018, 1053]",[],[],[],[],"[1042, 1036]"
participant_6_UNDO,[],[],[],[],[],[],[],[],[],[],[],[],[],[],[],[],[],[],"[[0, 1042]]",[],[],[],[],[],[],[],[],[],[],[],[],[],[]
participant_7_GOLD,500,500,598,853,1067,1252,1588,1934,2230,2850,3184,3307,3629,3772,4109,4309,4583,5280,5402,6426,6590,7597,7876,8049,8440,8933,9140,9582,9845,9968,10581,10945,11067
participant_7_CURRENTGOLD,500,0,98,353,132,307,633,364,650,1270,454,177,499,642,969,1169,543,1240,127,1151,200,1207,236,79,470,963,270,63,325,448,1061,476,-918
participant_7_LEVEL,1,1,1,3,4,4,5,6,7,8,8,8,9,9,9,9,9,10,10,10,10,11,12,12,12,12,12,12,13,13,13,14,14
participant_7_MINIONSKILLED,0,0,4,12,17,18,27,40,47,54,57,57,63,64,73,75,77,83,83,89,91,101,101,101,102,102,102,102,106,106,106,108,108
participant_7_KILLS,0,0,0,0,0,0,0,0,1,1,1,1,2,2,4,4,4,4,4,4,4,5,5,5,5,5,5,5,5,5,5,5,6
participant_7_BUY,[],"[2003, 3340, 1055]",[],[],[],[],[],"[1036, 1036, 1042]",[],"[6670, 1037]",[],[1001],[],[],[],"[6672, 3006, 1042, 1042]",[],[],[3086],[],[],[2015],[3094],[],[],[],[1038],[1037],[],[],[3031],[],[1053]
participant_7_SOLD,[],[],[],[],[2003],[],[],[],[],"[1036, 1042, 1036]",[],[],[],[],[],"[6670, 1037, 1001]",[],[],[1042],[],[],[1042],"[3086, 2015]",[],[],[],[],[],[],[],"[1055, 1038, 1037]",[],[]
participant_7_UNDO,[],[],[],[],[],[],[],[],[],[],[],[],[],[],[],[],[],[],[],[],[],[],[],[],[],[],[],[],[],[],[],[],[]
participant_8_GOLD,500,500,563,846,1134,1396,1729,1851,2512,2805,3032,3232,3867,4102,5383,5885,6198,6652,7131,7328,7499,8000,8192,8815,9133,9622,9779,10057,10304,10905,11048,11300,12481
participant_8_CURRENTGOLD,500,0,63,346,634,896,1229,351,1012,130,357,257,892,1127,2408,285,598,1052,631,828,999,1100,492,1115,1433,1922,779,182,430,1030,129,380,481
participant_8_LEVEL,1,1,1,2,3,4,5,5,6,6,7,7,7,8,9,9,9,10,11,11,11,12,12,12,12,13,13,13,13,14,14,14,15
participant_8_MINIONSKILLED,0,0,2,10,17,23,36,36,42,43,49,54,58,64,71,77,85,93,110,112,115,117,121,124,128,134,136,139,139,150,151,154,159
participant_8_KILLS,0,0,0,0,0,0,0,0,0,0,0,0,0,0,0,0,0,0,0,0,0,0,1,1,1,1,1,1,1,1,1,1,1
participant_8_BUY,[],"[3858, 2003, 3340, 2003]",[],[],[],[1028],[],[],[],"[6660, 1029]",[],[1033],[],[1001],[],[],[],[],[3068],[],[1028],[],[3067],[],[],[3117],"[1029, 1027]",[],[3024],[1028],[],[],[3050]
participant_8_SOLD,[],[],[],"[2003, 2003]",[],"[2010, 2010]",[],[],[2010],[1028],[],[],[],[],[3858],[],[],[],"[6660, 1033, 1029]",[],[],[],[1028],[],[3859],[1001],[],[],"[1027, 1029]",[],[],[],"[3067, 3024]"
participant_8_UNDO,[],[],[],[],[],[],[],[],[],[],[],[],[],[],[],[],[],[],[],[],[],[],[],[],[],[],[],[],[],[],[],[],[]
participant_9_GOLD,500,500,523,678,915,1049,1198,1332,1700,1910,2079,2289,2498,2632,2964,3364,3705,3910,4200,4466,4606,4961,5508,5773,5956,6146,6286,6577,6905,7046,7195,7469,7608
participant_9_CURRENTGOLD,500,0,23,178,415,149,298,432,800,110,279,39,248,82,414,814,1155,1360,200,466,206,561,708,973,1156,646,136,427,505,247,395,669,108
participant_9_LEVEL,1,1,1,2,3,3,3,4,4,5,6,6,6,6,7,7,8,8,9,9,9,10,10,11,11,11,11,11,12,12,12,13,13
participant_9_MINIONSKILLED,0,0,0,1,4,4,5,5,8,8,10,11,11,11,14,15,20,23,23,26,26,27,31,31,33,33,33,33,37,37,37,39,39
participant_9_KILLS,0,0,0,0,0,0,0,0,0,1,1,1,1,1,1,1,1,2,2,3,3,5,5,5,6,7,7,8,8,8,9,9,9
participant_9_BUY,[],"[1082, 2031, 3340]",[],[],[1052],[],[],[3145],[],[],"[1026, 1001]",[1028],[],[],[],[],[4636],[],"[3020, 1052]",[],"[3113, 3057]",[],[3041],[3100],[],[],[3108],[2420],[],[],[],[3157],[1052]
participant_9_SOLD,[],[],[],[],[],[],[],[1052],[],[],[],[],[],[],[],[],"[3145, 1028, 1026]",[],[1001],[],[1052],[],[1082],"[3041, 3057, 3113]",[],[],[],[],[],[],[],"[2420, 3108]",[]
participant_9_UNDO,[],[],[],[],[],[],[],[],[],[],[],[],[],[],[],[],[],[],[],[],[],[],[],[],[],[],[],[],[],[],[],[],[]
team0_KILLS,0,0,0,0,1,2,2,4,4,6,7,10,11,14,15,16,17,20,21,21,22,25,27,29,29,30,30,35,37,38,41,43,47
team0_CURRENTGOLD,2500,25,573,1875,2734,4419,3551,3474,4150,1635,3607,5869,1622,3857,2783,5141,4471,7178,4756,3127,3858,3385,3880,1578,2008,2829,4420,6980,7119,3214,5291,8540,5036
team0_TOTALGOLD,2500,2500,3048,4350,5909,7594,8561,10709,12380,14090,16062,18954,20432,22667,24148,26506,27862,30568,32471,33732,35663,37965,40510,42393,43257,44877,46935,50710,52999,54308,56818,60068,63621
team0_LEVEL,5,5,6,12,17,19,22,27,30,32,34,38,38,41,43,45,48,50,51,53,54,55,58,59,59,61,63,65,66,69,69,72,74
team0_SBIRES,0,0,10,37,55,73,85,117,136,145,160,179,192,206,221,247,264,277,293,303,320,325,336,338,346,362,385,394,400,401,404,433,451
team1_KILLS,0,0,0,0,1,2,2,3,5,8,9,9,11,11,13,13,13,14,16,17,18,22,23,24,25,26,26,27,29,30,32,34,35
team1_CURRENTGOLD,2500,0,389,1724,2052,3274,4563,3079,5596,5770,5086,3910,3168,3813,6279,5547,5774,4445,2708,4780,4801,5938,1906,3024,4869,6177,2160,1473,3498,5306,4544,2952,384
team1_TOTALGOLD,2500,2500,2889,4224,5987,7619,8918,10374,12901,15150,17049,17973,20331,21576,24052,25945,27872,29643,31841,33913,35449,38236,39703,41502,43347,45354,46458,47894,50169,52728,54510,56378,58227
team1_LEVEL,5,5,6,13,18,20,23,26,29,32,36,36,38,41,43,44,46,48,51,51,53,56,58,60,60,61,62,63,65,67,68,70,71
team1_SBIRES,0,0,9,34,56,72,108,121,148,166,183,195,219,236,267,286,312,329,358,374,391,407,416,424,451,457,476,487,500,521,526,536,542
delta_KILLS,0,0,0,0,0,0,0,1,-1,-2,-2,1,0,3,2,3,4,6,5,4,4,3,4,5,4,4,4,8,8,8,9,9,12
delta_CURRENTGOLD,0,25,184,151,682,1145,-1012,395,-1446,-4135,-1479,1959,-1546,44,-3496,-406,-1303,2733,2048,-1653,-943,-2553,1974,-1446,-2861,-3348,2260,5507,3621,-2092,747,5588,4652
delta_TOTALGOLD,0,0,159,126,-78,-25,-357,335,-521,-1060,-987,981,101,1091,96,561,-10,925,630,-181,214,-271,807,891,-90,-477,477,2816,2830,1580,2308,3690,5394
delta_LEVEL,0,0,0,-1,-1,-1,-1,1,1,0,-2,2,0,0,0,1,2,2,0,2,1,-1,0,-1,-1,0,1,2,1,2,1,2,3
delta_SBIRES,0,0,1,3,-1,1,-23,-4,-12,-21,-23,-16,-27,-30,-46,-39,-48,-52,-65,-71,-71,-82,-80,-86,-105,-95,-91,-93,-100,-120,-122,-103,-91
