name,frame_0,frame_1,frame_2,frame_3,frame_4,frame_5,frame_6,frame_7,frame_8,frame_9,frame_10,frame_11,frame_12,frame_13,frame_14,frame_15,frame_16,frame_17,frame_18,frame_19,frame_20,frame_21,frame_22,frame_23,frame_24,frame_25,frame_26,frame_27,frame_28,frame_29,frame_30,frame_31,frame_32,frame_33,frame_34,frame_35,frame_36,frame_37,frame_38
nameStamp,Tstart,Tearly,Tearly,Tearly,Tearly,Tearly,Tearly,Tearly,Tearly,Tearly,Tearly,Tearly,Tearly,Tearly,Tearly,Tearly,Tearly,Tearly,Tearly,Tmid,Tmid,Tmid,Tend,Tend,Tend,Tend,Tend,Tend,Tend,Tend,Tend,Tend,Tend,Tend,Tend,Tend,Tend,Tend,Tend
timestamp,0,60024,120033,180063,240075,300079,360080,420090,480091,540094,600097,660127,720155,780188,840216,900218,960247,1020277,1080307,1140335,1200336,1260339,1320340,1380358,1440366,1500374,1560389,1620418,1680439,1740470,1800480,1860506,1920507,1980530,2040533,2100540,2160569,2220570,2280570
participant_0_GOLD,500,500,542,776,976,1196,1333,1539,1821,2300,2844,3203,3409,3672,3987,4320,4533,4899,5093,5502,5834,6644,6816,7113,7391,7514,7985,8176,8632,8791,9001,9295,9741,9913,10036,10526,10705,10841,11447
participant_0_CURRENTGOLD,500,0,42,276,476,346,33,239,521,50,594,993,399,362,677,1010,23,389,583,292,624,1434,151,448,76,199,670,211,667,426,237,530,576,749,871,512,690,827,1147
participant_0_LEVEL,1,1,1,3,4,5,5,6,7,8,8,9,9,9,10,11,11,11,11,12,12,13,13,14,14,14,14,14,15,15,15,16,16,16,17,17,17,17,18
participant_0_MINIONSKILLED,0,0,1,7,11,17,18,23,29,32,42,46,51,59,67,75,80,90,91,101,109,113,113,119,119,119,125,125,125,125,127,127,130,130,130,131,134,135,136
participant_0_KILLS,0,0,0,0,0,0,0,0,0,0,0,1,1,1,1,1,1,1,1,2,2,3,3,3,7,7,8,8,9,9,9,9,11,11,11,11,11,11,12
participant_0_BUY,[],"[1056, 2003, 2003, 3340]",[],[],[],"[6660, 2031]",[],[],"[1033, 1029]",[],[],[3105],[],"[3068, 1001]",[],[],[3111],[],[],"[1057, 1028]",[],[3001],[],[],[],[7004],[],"[3075, 1057]",[3066],[],[],[],[],[],[],"[4401, 1011]",[],[3083],[]
participant_0_SOLD,[],[],[2003],[],[2003],[],[],[],[],[],[],"[1033, 1029]",[],"[6660, 3105]",[],[],[1001],[],[],[],[],"[1028, 1057]",[],[],[],[3068],[],[2031],[1056],[],[],[],[],[],[],"[1057, 3066]",[],[1011],[]
participant_0_UNDO,[],[],[],[],[],[],[],[],[],[],[],[],[],[],[],[],[],[],[],[],[],[],[],[],[],[],[],[],[],[],[],[],[],[],[],[],[],[],[]
participant_1_GOLD,500,500,692,949,1277,1476,1598,2016,2164,2571,3064,3531,4039,4287,4787,5095,5402,5933,6346,6682,6805,7302,7771,8162,8611,8733,9033,9430,10089,10345,10841,10964,11211,11383,11677,12333,12625,12747,13182
participant_1_CURRENTGOLD,500,0,192,449,777,976,1098,1516,214,621,1114,1571,179,427,177,485,792,1323,1736,422,545,542,1011,202,351,473,384,780,1439,495,992,64,311,84,377,133,426,548,932
participant_1_LEVEL,1,1,2,2,3,4,4,4,5,5,6,7,8,8,9,9,9,10,10,10,10,11,12,12,13,13,13,13,14,14,14,14,15,15,15,16,16,16,17
participant_1_MINIONSKILLED,0,0,0,0,0,0,0,1,1,1,1,4,4,5,7,7,7,8,9,10,10,10,15,16,17,17,18,18,22,25,26,26,26,26,26,28,28,28,28
participant_1_KILLS,0,0,0,0,0,0,0,0,0,1,2,2,2,2,2,2,2,2,2,2,2,2,2,2,2,2,2,2,2,2,2,2,2,2,2,2,2,2,2
participant_1_BUY,[],"[1054, 3340, 2003]",[],[],[],[1027],"[1028, 2003]",[],[],"[6660, 1029, 1001, 2003]",[],[],[3111],[1029],[],[],[3105],[],[],[3068],[],[7004],"[1011, 1028, 3067]",[],[3801],[],[],[3083],[],[1028],[3067],[],[1028],[],[],[3211],[],[],[]
participant_1_SOLD,[],[],[],[],"[2003, 2010]",[],[],[],[2010],[1028],[],"[2003, 2003]",[1001],[],[],[],"[2010, 1029]",[],[],"[6660, 3105]",[],[3068],"[1027, 1028]",[],[],[],[],"[1011, 3067, 3801]",[],[],[1028],[],[],[],[],[1028],[],[],[]
participant_1_UNDO,[],[],[],[],[],[],[],[],[],"[[0, 1029]]",[],[],[],[],[],[],[],[],[],[],[],[],[],[],[],[],[],[],[],[],[],[],[],[],[],[],[],[],[]
participant_2_GOLD,500,500,737,1094,1399,1717,1982,2196,2685,3037,3208,3625,4160,4555,4719,5132,5276,5530,5843,6562,6684,7802,8454,8770,10647,10837,11396,11518,12415,12594,12776,13073,13948,14622,14969,15520,15898,16153,17097
participant_2_CURRENTGOLD,500,0,237,584,889,47,302,516,245,587,758,425,950,345,509,922,266,520,833,252,374,92,744,1060,2937,3127,3686,268,525,704,886,1184,2059,2732,3080,1531,1909,63,847
participant_2_LEVEL,1,1,2,3,4,5,6,6,7,8,8,8,9,10,10,10,11,11,11,12,12,13,13,13,15,15,15,15,16,16,16,16,17,17,17,18,18,18,18
participant_2_MINIONSKILLED,0,0,6,17,27,36,42,48,56,67,70,70,81,88,91,96,97,107,116,120,120,120,129,137,147,150,150,150,150,150,150,151,155,171,172,172,172,176,177
participant_2_KILLS,0,0,2,2,3,3,3,4,5,5,6,6,6,6,6,6,6,6,6,7,7,7,8,8,8,8,8,8,9,9,9,12,12,12,13,15,15,16,18
participant_2_BUY,[],"[1055, 2003, 3340]","[1036, 1001, 2003]",[],[],[],[],"[1053, 3006, 1036]",[],[],[],[],[],[],[6673],"[2015, 1042]",[],[],[],[],[3094],[1038],[],[],[1037],[],[],[],"[3031, 1037]",[7008],[],[],[3139],[],[],[],[3086],[],[]
participant_2_SOLD,[],[],[],[],[],[2010],[2010],"[1036, 1001]",[2003],[],"[2003, 2010]",[],[],[],"[1036, 1053]",[],[],[],[],[],"[1042, 2015]",[],[],[],[],[],[],[],"[1038, 1037]",[6673],[],[],[1037],[],[],[],[1055],[],[]
participant_2_UNDO,[],[],[],[],[],[],[],[],[],[],[],[],[],[],[],[],[],[],[],[],[],[],[],[],[],[],[],[],[],[],[],[],[],[],[],[],[],[],[]
participant_3_GOLD,500,500,1261,1569,2180,2473,2708,3204,3713,3950,4652,5039,5309,5564,6144,6322,6500,6830,7500,8480,8662,9176,9784,10012,10310,10586,10966,11405,12216,12527,12854,13911,14083,14356,14972,16036,16158,16575,17683
participant_3_CURRENTGOLD,500,0,61,369,980,1273,1508,304,813,1050,1752,2139,2409,2664,1094,272,450,780,1450,2430,912,126,734,962,386,661,1041,1480,192,503,830,1887,34,307,923,1986,1089,1506,2433
participant_3_LEVEL,1,1,1,2,3,3,4,5,6,6,7,7,8,8,9,9,10,10,10,11,11,12,12,13,13,13,13,14,15,15,15,15,15,15,16,16,16,16,17
participant_3_MINIONSKILLED,0,0,0,8,18,23,27,29,38,42,55,61,70,78,82,86,89,95,100,106,108,110,117,118,118,122,128,132,132,136,136,136,136,136,142,142,142,142,143
participant_3_KILLS,0,0,0,0,0,0,0,0,1,1,2,2,2,2,3,3,3,3,4,4,4,4,5,6,7,7,9,9,10,11,11,11,11,11,11,12,12,12,13
participant_3_BUY,[],"[3850, 2003, 2003, 3340]",[],[],[],[],[3802],[],[],"[3108, 2055, 3364]",[],[1001],[],[3020],[],[],[],[],"[6653, 1052, 2055]",[3108],[],[2420],[],"[3157, 1028]",[1011],[2055],[1026],[],"[3116, 2055, 2055, 2055, 2055]",[],[],[],"[7012, 4641, 2055, 2055]",[],[],"[4643, 2139]",[],[],[]
participant_3_SOLD,[],[],[],[],[2003],[],[3850],[],[2003],[3340],[],[],[3851],[1001],[],[],[2055],[],"[3802, 3108]",[1052],[],[],[],"[2420, 3108, 2055]",[1028],[2055],[],[],"[1026, 1011]",[],"[2055, 2055]",[2055],"[6653, 4641, 2055, 4641, 2055, 2055]",[],[],"[4638, 2139]",[],[],[]
participant_3_UNDO,[],[],[],[],[],[],[],[],[],[],[],[],[],[],[],[],[],[],[],[],[],[],[],[],[],[],[],[],"[[0, 2055], [0, 2055]]",[],"[[2055, 0], [2055, 0]]",[],[],[],[],[],[],[],[]
participant_4_GOLD,500,520,616,865,1269,1624,1840,2061,2742,2942,3677,3837,4133,4273,4763,4904,5238,5514,6046,6298,6502,7160,7960,8460,9029,9170,9950,10384,11149,11571,11866,12252,12485,12775,12946,13895,14196,14493,15274
participant_4_CURRENTGOLD,500,20,116,365,769,1124,40,261,942,167,902,762,1058,398,889,1029,1363,1639,461,248,452,460,1260,410,480,545,475,909,274,696,991,1378,360,650,822,71,371,669,1389
participant_4_LEVEL,1,1,1,2,3,3,4,4,5,5,6,6,7,7,8,8,8,9,10,10,10,11,12,12,12,12,13,13,14,14,14,15,15,15,15,16,16,16,17
participant_4_MINIONSKILLED,0,0,0,1,1,1,1,1,3,3,4,4,8,8,9,9,16,18,21,24,28,31,40,42,43,43,43,43,44,46,46,47,50,50,52,54,54,54,58
participant_4_KILLS,0,0,0,0,0,0,0,1,1,1,1,1,2,2,3,3,3,4,4,4,4,4,4,4,4,4,4,5,5,5,6,6,6,6,6,6,6,6,6
participant_4_BUY,[],"[1039, 2031, 3340]",[],[],[],[],[],[],"[6660, 1033]",[],[],[],"[3068, 2055, 2055]",[],"[1001, 1033]",[],[],[],[],"[3111, 1057, 1028]",[],[1011],[],"[3001, 1029]",[1029],[],[1033],[],[],"[3105, 1033]",[],[3193],[],"[1028, 3364]",[],"[1011, 1028]",[7004],[],[]
participant_4_SOLD,[],[],[],[],[],[],[],[],[],[1039],[],[],"[6660, 1033]",[],[],[],[2055],[],[],"[1001, 1033]",[],"[1028, 2055]",[],"[1011, 1057]",[],[],[2031],[],[],"[1033, 1029]",[],"[1029, 3105, 1033]",[],[3340],[],[1028],[3068],[],[]
participant_4_UNDO,[],[],[],[],[],[],[],[],[],[],[],[],[],[],[],[],[],[],[],[],[],[],[],[],[],[],[],[],[],[],[],[],[],[],[],[],[],[],[]
participant_5_GOLD,500,500,563,846,1018,1168,1361,1640,1999,2192,2386,3180,3407,3606,3859,4247,4900,5175,6152,6646,6811,6954,7265,7604,8346,8851,8974,9291,9413,9814,10566,10689,11201,11323,11720,11961,13021,13144,13260
participant_5_CURRENTGOLD,500,0,63,346,218,368,261,540,899,392,286,1080,1307,106,359,747,1400,800,1777,146,311,454,465,804,151,657,454,421,194,594,1347,719,1231,54,450,242,1302,324,-2120
participant_5_LEVEL,1,1,1,3,4,4,5,6,6,7,7,8,9,9,10,10,11,11,12,13,13,13,13,14,14,14,14,15,15,15,16,16,16,16,16,16,17,17,17
participant_5_MINIONSKILLED,0,0,2,11,14,16,20,27,38,42,43,51,57,62,66,78,90,95,107,117,120,121,125,134,134,148,148,155,155,163,178,178,178,178,182,185,191,191,191
participant_5_KILLS,0,0,0,0,0,0,0,0,0,0,0,0,0,0,1,1,1,1,1,1,1,1,1,1,1,1,1,1,1,1,2,2,3,3,3,3,3,3,3
participant_5_BUY,[],"[1039, 2003, 2003]",[],[],[],[],[],"[3145, 1028]",[],[],[],[],[3152],[],[],[],[],[],[],"[3111, 1058, 1052]",[],[],[4628],[],[],[],[3191],[],[],[],[],[],[3157],[1026],[],[],[3916],[],[]
participant_5_SOLD,[],[],[],[2003],[2003],[],[],[],[1039],[],[],[2419],"[3145, 1028]",[],[],[],[],[],"[3330, 3513]",[],[],[],"[1058, 1052]",[],[],[],[],[],[],[],[],[],"[3191, 2423]",[],[],[],[],[],[]
participant_5_UNDO,[],[],[],[],[],[],[],[],[],[],[],[],[],[],[],[],[],[],[],[],[],[],[],[],[],[],[],[],[],[],[],[],[],[],[],[],[],[],[]
participant_6_GOLD,500,500,521,933,1314,1583,1888,2145,2537,3006,3341,3549,3786,4181,4800,5022,5478,5730,6336,6700,7002,7545,7780,8071,8393,8516,8788,9036,9159,9336,9908,10164,11024,11230,11612,11736,11858,12022,12229
participant_6_CURRENTGOLD,500,50,71,483,864,1133,1438,245,637,1106,1441,1649,136,531,1150,1372,1828,2080,2686,265,567,1110,30,321,643,766,138,387,509,686,1259,1514,1024,381,763,886,209,373,579
participant_6_LEVEL,1,1,1,3,3,4,5,5,6,6,7,7,7,8,9,9,10,10,11,11,11,12,12,12,13,13,13,13,13,13,13,14,14,14,14,14,15,15,15
participant_6_MINIONSKILLED,0,0,0,0,0,0,0,0,0,5,7,7,7,11,12,12,18,19,20,22,22,22,22,22,25,25,25,25,25,25,25,33,33,39,50,50,50,53,54
participant_6_KILLS,0,0,0,0,0,0,0,0,0,0,0,0,0,1,1,1,2,2,2,3,4,4,4,4,5,5,6,6,6,6,6,6,7,7,7,7,7,7,7
participant_6_BUY,[],"[1056, 3340, 2003, 2003]",[],[],[],[],"[1052, 1052, 2055, 2003, 2003]",[],[3802],[],[],[1026],[],[],"[3020, 2055]",[],[],[],[],"[6655, 3108]",[],[],[],"[3157, 2055]",[],[1026],[],[],[1052],[],[],[],[],[3116],[],[],[],[],[1058]
participant_6_SOLD,[],[],[],[],"[2003, 2010]","[2010, 2003]",[],"[2055, 2003]","[1052, 1052]",[2010],[2003],[],[],[],[2422],[],[2055],[],[],"[3802, 1026]",[],[],[],[3108],[],[],[],[2055],[],[],[],[],[],"[1026, 1052]",[],[],[],[],[]
participant_6_UNDO,[],[],[],[],[],[],[],[],[],[],[],[],[],[],[],[],[],[],[],[],[],[],[],[],[],[],[],[],[],[],[],[],[],[],[],[],[],[],[]
participant_7_GOLD,500,500,598,878,1141,1431,1788,2099,2270,2498,2769,2934,3098,3604,3892,4168,4769,5024,5504,5977,6734,7031,7495,7634,8351,8474,8896,9167,9290,9489,9707,9949,10929,11177,11522,11646,12046,12467,12583
participant_7_CURRENTGOLD,500,0,98,368,631,921,223,534,275,503,764,79,243,749,152,428,1029,1284,1764,87,844,1141,1605,69,786,59,481,752,440,639,858,1099,2079,612,958,1081,1482,1903,808
participant_7_LEVEL,1,1,1,3,4,5,6,7,7,7,8,8,9,9,10,10,11,11,11,12,12,12,13,13,14,14,14,14,14,14,15,15,16,16,16,16,16,17,17
participant_7_MINIONSKILLED,0,0,4,11,20,30,41,52,55,61,67,69,72,76,82,87,93,101,110,110,115,121,130,130,134,134,134,141,141,146,147,150,154,161,169,169,177,187,187
participant_7_KILLS,0,0,0,0,0,0,0,0,0,0,0,1,2,2,2,2,2,2,2,2,2,2,2,2,2,2,2,2,2,2,3,3,3,3,3,3,3,3,3
participant_7_BUY,[],"[3070, 2003, 2003, 3340]",[],[],[],[],[],[3158],[],[],[3133],[],[],[],"[3004, 3057, 1028]",[],[],[],[],"[3067, 3044]",[],[],[],[6632],[],[],[],[3133],"[3363, 2055, 2055]",[],[3067],[],[],"[3071, 1036]",[],[],[],"[3133, 1036]",[]
participant_7_SOLD,[],[],[],[],[2003],[2003],[],[],[],[],[],[],[],[],"[3070, 3133]",[],[],[3004],[],[1028],[],[],[],"[3044, 3067]",[],[],[],[],[3340],[],[],[],[],"[3133, 3067]",[],"[2055, 2055]",[],[1036],[]
participant_7_UNDO,[],[],[],[],[],[],[],[],[],[],[],[],[],[],"[[0, 3057]]",[],[],[],[],[],[],[],[],[],[],[],[],[],[],[],[],[],[],[],[],[],[],[],[]
participant_8_GOLD,500,500,521,839,1120,1361,1655,1854,1990,2536,2679,3249,3811,4095,4396,4777,5162,5521,5896,6069,6191,6567,6899,7022,7144,7629,7801,8083,8206,8617,9796,10060,10571,10964,11276,11400,11850,12118,12235
participant_8_CURRENTGOLD,500,0,21,339,620,861,1155,454,590,1136,179,749,1311,1595,396,777,1162,1521,1896,569,691,1067,1399,122,244,729,901,83,56,467,846,1110,1621,264,577,700,1151,319,435
participant_8_LEVEL,1,1,1,2,2,4,5,5,5,6,6,7,7,8,8,9,9,10,10,10,10,11,11,11,11,12,12,12,12,12,13,13,14,14,15,15,15,15,15
participant_8_MINIONSKILLED,0,0,0,11,17,23,30,34,35,47,48,56,64,69,71,82,93,102,107,107,107,117,123,123,123,136,136,141,141,147,150,152,155,162,163,163,178,182,182
participant_8_KILLS,0,0,0,0,0,0,0,0,0,2,2,2,2,2,2,2,2,3,3,3,3,3,3,3,4,4,4,4,4,4,4,4,4,4,4,4,4,4,4
participant_8_BUY,[],"[3858, 2003, 2003, 3340]",[],[],[2031],[1029],[],"[1001, 2055]",[2055],[],"[3111, 6660]",[2055],[],[],"[1031, 2055, 2055, 3364]",[],[],[],"[1033, 2055, 2055]",[6662],[],[],[],"[1033, 2055]",[1057],[],[],[],[3066],"[2055, 2055]",[],[],[4401],[],[],[],"[2055, 2055]",[],[]
participant_8_SOLD,[],[],[2003],[2003],[],[],[],[2055],[],[2055],[1001],"[2055, 3858]",[],[],"[1029, 3340]",[2055],[],[2055],[],"[3859, 6660, 1031]","[2055, 2055]",[],[],[],[1033],[],[],[],[2055],[2031],[],[],"[1057, 3066]",[],[2055],[2055],[],[],[]
participant_8_UNDO,[],[],[],[],[],[],[],[],[],[],[],[],[],[],[],[],[],[],"[[0, 1033]]",[],[],[],[],[],[],[],[],[],[],[],[],[],[],[],[],[],[],[],[]
participant_9_GOLD,500,500,565,741,936,1091,1334,1540,1674,3127,3261,3468,3705,3965,4105,4339,4587,5028,5358,5548,5764,5934,6187,6327,7318,7479,7669,7820,7960,8111,8251,8495,8723,9004,9175,9317,9457,9597,9731
participant_9_CURRENTGOLD,500,0,65,241,286,141,384,215,274,1727,61,193,430,690,180,414,662,1103,1283,73,289,459,712,328,868,1029,1220,1370,710,771,911,1156,184,464,635,777,767,908,981
participant_9_LEVEL,1,1,1,2,3,3,4,4,4,5,5,6,6,7,7,7,8,8,9,9,9,9,9,9,10,11,11,11,11,11,12,12,12,13,13,13,13,14,14
participant_9_MINIONSKILLED,0,0,2,4,5,6,9,12,12,17,17,20,21,24,24,28,30,30,31,31,31,32,32,32,32,33,33,34,34,35,35,37,37,46,48,48,48,48,48
participant_9_KILLS,0,0,0,0,0,0,0,0,0,0,0,1,1,1,1,1,2,2,3,3,3,3,3,3,4,4,4,4,4,4,4,4,5,5,5,5,6,6,6
participant_9_BUY,[],"[1055, 2003, 3340]",[],[],[1042],[],[1042],[],[],"[1036, 1036]",[6670],[],[],"[1018, 3006]",[],[],[],[1037],[],"[6672, 1053, 1018]",[],[],[1042],[],"[1043, 1037]",[],"[3153, 3153]","[1042, 1036]",[1036],[],[],[3035],[],"[3036, 1033]",[],"[1057, 1057]",[],[3051],[]
participant_9_SOLD,[],[],[],[2003],[],[],[],[],[],[],"[1036, 1042, 1036]",[],[],[1042],[],[],[],[],[],"[6670, 1018, 1037]",[],[],[],[],"[1042, 1055]",[],"[1053, 1043, 1037, 6672, 1053, 1043, 1037]",[],[],[],[],"[1036, 1036]",[],"[3035, 1018]",[],"[1033, 1033]",[],[],[]
participant_9_UNDO,[],[],[],[],[],[],[],[],[],[],[],[],[],[],[],[],[],[],[],[],[],[],[],[],[],[],"[[6672, 0], [0, 3153]]","[[0, 1042]]",[],[],[],[],[],[],[],"[[0, 1057]]",[],[],[]
team0_KILLS,0,0,2,2,3,3,3,5,7,8,11,12,13,13,15,15,15,16,17,19,19,20,22,23,28,28,31,32,35,36,37,40,42,42,43,46,46,47,51
team0_CURRENTGOLD,2500,20,648,2043,3891,3766,2981,2836,2735,2475,5120,5890,4995,4196,3346,3718,2894,4651,5063,3644,2907,2654,3900,3082,4230,5005,6256,3648,3097,2824,3936,5043,3340,4522,6073,4233,4485,3613,6748
team0_TOTALGOLD,2500,2520,3848,5253,7101,8486,9461,11016,13125,14800,17445,19235,21050,22351,24400,25773,26949,28706,30828,33524,34487,38084,40785,42517,45988,46840,49330,50913,54501,55828,57338,59495,61468,63049,64600,68310,69582,70809,74683
team0_LEVEL,5,5,7,12,17,20,23,25,30,32,35,37,41,42,46,47,49,51,52,55,55,60,62,64,67,67,68,69,74,74,74,76,78,78,80,83,83,83,87
team0_SBIRES,0,0,7,33,57,77,88,102,127,145,172,185,214,238,256,273,289,318,337,361,375,384,414,432,444,451,464,468,473,482,485,487,497,513,522,527,530,535,542
team1_KILLS,0,0,0,0,0,0,0,0,0,2,2,4,5,6,7,7,9,10,11,12,13,13,13,13,16,16,17,17,17,17,19,19,22,22,22,22,23,23,23
team1_CURRENTGOLD,2500,50,318,1777,2619,3424,3461,1988,2675,4864,2731,3750,3427,3671,2237,3738,6081,6788,9406,1140,2702,4231,4211,1644,2692,3240,3194,3013,1909,3157,5221,5598,6139,1775,3383,3686,4911,3827,683
team1_TOTALGOLD,2500,2500,2768,4237,5529,6634,8026,9278,10470,13359,14436,16380,17807,19451,21052,22553,24896,26478,29246,30940,32502,34031,35626,36658,39552,40949,42128,43397,44028,45367,48228,49357,52448,53698,55305,56060,58232,59348,60038
team1_LEVEL,5,5,5,13,16,20,25,27,28,31,33,36,38,41,44,45,49,50,53,55,55,57,58,59,62,64,64,65,65,65,69,70,72,73,74,74,76,78,78
team1_SBIRES,0,0,8,37,56,75,100,125,140,172,182,203,221,242,255,287,324,347,375,387,395,413,432,441,448,476,476,496,496,516,535,550,557,586,612,615,644,661,662
delta_KILLS,0,0,2,2,3,3,3,5,7,6,9,8,8,7,8,8,6,6,6,7,6,7,9,10,12,12,14,15,18,19,18,21,20,20,21,24,23,24,28
delta_CURRENTGOLD,0,-30,330,266,1272,342,-480,848,60,-2389,2389,2140,1568,525,1109,-20,-3187,-2137,-4343,2504,205,-1577,-311,1438,1538,1765,3062,635,1188,-333,-1285,-555,-2799,2747,2690,547,-426,-214,6065
delta_TOTALGOLD,0,20,1080,1016,1572,1852,1435,1738,2655,1441,3009,2855,3243,2900,3348,3220,2053,2228,1582,2584,1985,4053,5159,5859,6436,5891,7202,7516,10473,10461,9110,10138,9020,9351,9295,12250,11350,11461,14645
delta_LEVEL,0,0,2,-1,1,0,-2,-2,2,1,2,1,3,1,2,2,0,1,-1,0,0,3,4,5,5,3,4,4,9,9,5,6,6,5,6,9,7,5,9
delta_SBIRES,0,0,-1,-4,1,2,-12,-23,-13,-27,-10,-18,-7,-4,1,-14,-35,-29,-38,-26,-20,-29,-18,-9,-4,-25,-12,-28,-23,-34,-50,-63,-60,-73,-90,-88,-114,-126,-120
