name,team0,team1
win,Fail,Win
firstBlood,True,False
firstTower,False,True
firstInhibitor,False,False
firstBaron,False,True
firstDragon,True,False
firstRiftHerald,True,False
towerKills,4,4
inhibitorKills,0,0
baronKills,0,1
dragonKills,2,2
riftHeraldKills,1,0
