name,frame_0,frame_1,frame_2,frame_3,frame_4,frame_5,frame_6,frame_7,frame_8,frame_9,frame_10,frame_11,frame_12,frame_13,frame_14,frame_15,frame_16,frame_17,frame_18,frame_19,frame_20,frame_21,frame_22,frame_23,frame_24,frame_25
nameStamp,Tstart,Tearly,Tearly,Tearly,Tearly,Tearly,Tearly,Tearly,Tearly,Tearly,Tearly,Tmid,Tmid,Tmid,Tmid,Tmid,Tmid,Tmid,Tmid,Tmid,Tmid,Tmid,Tmid,Tmid,Tmid,Tmid
timestamp,0,60002,120017,180028,240041,300059,360065,420079,480095,540104,600124,660136,720168,780190,840198,900213,960219,1020235,1080263,1140287,1200293,1260297,1320314,1380315,1440316,1500316
participant_0_GOLD,500,853,1317,1877,2721,3841,5120,6401,7366,8273,9269,10043,12157,12517,13166,13809,14494,15762,18064,19637,21140,22137,22771,23681,24720,25776
participant_0_CURRENTGOLD,500,353,467,127,971,791,870,2151,3116,323,1079,753,247,207,156,449,1134,1102,3404,1827,930,1927,2061,2971,4010,4646
participant_0_LEVEL,1,1,1,2,3,5,6,6,7,8,8,10,11,11,12,12,14,15,17,18,20,20,20,21,22,23
participant_0_MINIONSKILLED,0,0,2,4,12,21,32,43,55,61,72,79,88,88,96,101,111,117,129,150,157,168,168,179,196,209
participant_0_KILLS,0,1,2,2,3,5,6,6,6,7,7,7,10,10,10,10,10,11,14,15,17,17,18,18,18,18
participant_0_BUY,[],"[1055, 2003, 3340]",[1036],"[3133, 2003, 2003, 2003]",[],[1038],"[3508, 1001, 1042]",[],[],"[3031, 1042]",[1042],[3086],"[3085, 3144, 1042, 1042]",[1043],[3153],[1036],[],[1038],[],"[3072, 1038]","[3072, 3095, 2140]",[],[2140],[],[],[]
participant_0_SOLD,[],[],[],[1036],[],[],"[1038, 3133]",[2003],[],[],"[1055, 2003, 2003, 2003]",[1042],"[1042, 3086, 1042, 1055]","[1042, 1042]","[3144, 1043]",[],[],[],[],"[1038, 1036]","[1038, 1038, 2140]",[],[2140],[],[],[]
participant_0_UNDO,[],[],[],[],[],[],"[[0, 1001]]",[],[],[],"[[1055, 0]]",[],[],[],[],[],[],[],[],[],"[[0, 3072]]",[],[],[],[],[]
participant_1_GOLD,500,928,1302,3083,3885,4771,5471,6066,7568,8575,9847,10819,11422,11804,13501,14879,15293,16289,16982,18487,19801,20190,20716,21225,21670,22118
participant_1_CURRENTGOLD,500,428,802,2583,685,871,471,1066,2568,675,1597,1119,1722,1304,901,2280,2694,3690,1742,3247,4561,4950,5476,5986,6431,6558
participant_1_LEVEL,1,1,1,3,3,5,5,7,8,8,8,9,10,10,12,14,14,14,15,16,17,17,17,18,18,18
participant_1_MINIONSKILLED,0,0,0,5,7,11,12,15,21,22,23,23,26,26,27,32,32,34,34,41,49,49,50,52,52,52
participant_1_KILLS,0,1,2,4,5,6,7,7,9,9,10,11,11,11,12,13,13,13,14,14,15,15,15,15,15,15
participant_1_BUY,[],"[3854, 2003, 2003, 3340]",[3364],[],"[3179, 1001]",[3117],[3133],[],[],"[3147, 3133]",[1036],[3142],[],[1031],[3742],[],[],[],[3026],[],[],[],[],[],[],[]
participant_1_SOLD,[],[],"[2003, 2003, 3340]",[],[],[1001],[],[],[],"[3400, 3133]",[],"[3133, 1036, 3400]",[],[],[1031],[],[3854],[],[3854],[],[],[],[],[],[],[]
participant_1_UNDO,[],[],[],[],[],[],[],[],[],[],[],[],[],[],[],[],"[[3854, 0]]",[],[],[],[],[],[],[],[],[]
participant_2_GOLD,500,835,1023,2071,2596,3144,3825,4315,5394,6537,7550,8224,8716,9076,9996,10563,11139,11771,12214,13460,13945,14305,14665,15090,15450,15954
participant_2_CURRENTGOLD,500,335,523,1571,2096,2644,825,215,1294,287,1000,1674,2166,626,1546,2113,2689,371,814,2060,1075,1435,195,620,980,1454
participant_2_LEVEL,1,1,1,3,3,4,5,6,7,8,9,9,10,10,11,12,13,14,14,15,16,16,16,16,16,16
participant_2_MINIONSKILLED,0,0,1,6,6,7,7,7,7,12,12,12,13,13,16,18,19,20,23,25,25,25,25,26,26,29
participant_2_KILLS,0,1,1,2,2,2,3,3,5,7,9,10,10,10,11,11,11,11,11,12,12,12,12,12,12,12
participant_2_BUY,[],"[1056, 3340, 2003, 2003]",[],[],[],[],"[1058, 1058]",[3089],[],"[1026, 3802]",[1001],[],[],"[3165, 3285, 1026]",[],[],[],"[3165, 3020]",[],[],[3136],[],[3151],[],[],[]
participant_2_SOLD,[],[],[],"[2003, 2010]","[2010, 2003]",[],[],"[1058, 1058]",[],[],[],[],[],"[1026, 3802, 1026]",[],[],[],"[1026, 1001]",[],[2010],[2010],[],[3136],[],[],[]
participant_2_UNDO,[],[],[],[],[],[],[],[],[],[],[],[],[],"[[0, 3165]]",[],[],[],[],[],[],[],[],[],[],[],[]
participant_3_GOLD,500,553,1095,2112,2625,3920,4832,5442,6363,7024,8388,9505,10310,10745,11604,13733,14692,15492,16512,17900,18610,19202,19768,22802,23162,23585
participant_3_CURRENTGOLD,500,153,695,1712,725,420,1032,1142,2063,2724,488,1170,885,1320,414,2543,3502,652,1672,1660,1240,2602,1428,4462,4822,-12445
participant_3_LEVEL,1,1,2,3,4,5,6,7,8,9,9,11,11,12,13,15,15,16,17,18,18,19,19,22,22,22
participant_3_MINIONSKILLED,0,0,6,17,21,27,30,39,45,49,54,66,77,80,82,93,99,100,100,113,113,114,121,138,138,138
participant_3_KILLS,0,0,0,0,0,2,3,3,3,3,4,4,4,4,4,6,7,8,9,10,10,10,10,13,13,13
participant_3_BUY,[],"[1056, 3340]",[],[],[3136],"[1026, 3151]",[1029],[3047],[],[],"[1058, 1058, 3089]",[1052],"[1026, 1028]",[],"[3116, 1026, 1028, 1036, 3113]",[],[],"[3907, 3916]",[],[3165],"[3111, 3089, 3089, 3907, 3113]",[],"[3020, 3165]",[],[],[3907]
participant_3_SOLD,[],[],[],[],[],"[3136, 1026]",[],"[1029, 2422]",[],[],"[3400, 1058, 1058]",[3400],[1056],[],"[1026, 1052, 1028]",[],[],[3113],[],[3916],"[3047, 3907, 3907, 3907, 3165, 3111]",[3111],[3907],[],[],"[3165, 3165]"
participant_3_UNDO,[],[],[],[],[],[],[],[],[],[],[],[],[],[],"[[0, 1026], [0, 1036], [0, 1028]]",[],[],[],[],[],"[[3907, 0], [0, 3089], [3907, 0], [0, 3089], [3907, 0], [0, 3113], [3111, 0]]",[],"[[0, 3020], [3111, 0]]",[],[],"[[3165, 0]]"
participant_4_GOLD,500,593,774,1236,2076,2911,3595,4340,5819,6437,7042,8033,8468,8849,9808,10389,10946,11857,12449,12954,13776,14151,14761,15838,16413,16836
participant_4_CURRENTGOLD,500,93,274,301,526,961,595,490,1534,397,167,393,828,359,768,1349,656,1567,2159,314,286,226,836,548,73,336
participant_4_LEVEL,1,1,2,2,4,5,5,6,7,8,8,10,11,11,12,13,13,14,16,16,16,16,17,19,19,19
participant_4_MINIONSKILLED,0,0,4,6,8,16,16,20,29,37,38,47,50,51,53,59,63,67,67,68,80,80,85,91,97,97
participant_4_KILLS,0,0,0,0,1,1,1,2,2,2,2,3,3,3,4,4,4,4,4,4,4,4,4,5,5,5
participant_4_BUY,[],"[1056, 2003, 2003, 3340]",[],[1052],[3145],[1028],[3152],[1026],[1052],[3100],"[1052, 1028]",[3916],[],[1026],[3165],[],[1058],[],[],"[1058, 3089]",[1026],[1052],[],[3135],[3145],[]
participant_4_SOLD,[],"[2003, 2003]",[],[],[1052],[],"[3145, 1028]",[],[3400],"[1056, 1052, 1026]",[],"[1028, 1052]",[],[],"[3916, 1026]",[],[],[],[],"[1058, 1058]",[],[],[],"[1026, 1052]",[],[]
participant_4_UNDO,[],[],[],[],[],[],[],[],[],[],[],[],[],[],[],[],[],[],[],[],[],[],[],[],[],[]
participant_5_GOLD,500,500,2382,3256,4240,5376,6857,8398,9302,10700,12002,13853,15599,18779,19543,19968,21290,22738,23098,23538,24148,25139,26258,27823,28670,29916
participant_5_CURRENTGOLD,500,0,1882,431,1415,1026,87,1628,1232,590,992,2843,1989,5169,733,1158,2480,3428,3788,1598,2208,3199,4318,5383,6230,6466
participant_5_LEVEL,1,1,1,2,4,5,6,7,8,8,9,11,12,14,15,15,15,16,16,16,16,18,19,20,21,22
participant_5_MINIONSKILLED,0,0,4,10,20,35,46,54,63,65,73,89,101,117,123,125,139,149,149,149,155,164,170,181,181,187
participant_5_KILLS,0,0,5,6,7,8,9,11,11,13,14,16,19,24,24,24,25,26,26,26,26,27,27,28,29,31
participant_5_BUY,[],"[1055, 3340, 2003]",[],"[1038, 1037, 2031]",[],"[3006, 3031, 1042]","[3006, 1018, 1038]",[],[3031],"[1038, 1037, 1018]","[1036, 1053]",[],"[3072, 1038]",[],"[3031, 3031, 2140, 3363, 3364]",[],[],[2140],[],[3031],[],[],[],[2140],[],[]
participant_5_SOLD,[],[],[],[2003],[],"[2010, 2422, 1038, 1037]","[1042, 2422, 1055]","[2010, 2010, 2010]","[1038, 1018]",[2031],[1036],[],"[1038, 1053]",[],"[1038, 1018, 2140, 3340, 3363]",[],[],[2140],[],[3006],[],[],[],[2140],[],[]
participant_5_UNDO,[],[],[],[],[],"[[0, 3006]]",[],[],[],"[[0, 1037]]",[],[],[],[],[],[],[],[],[],[],[],[],[],[],[],[]
participant_6_GOLD,500,500,693,1136,1587,2168,2634,3428,3928,4696,5506,6073,6433,7646,8283,9064,9424,10301,10661,11071,11772,12376,13191,13616,14338,14919
participant_6_CURRENTGOLD,500,0,193,286,187,168,234,1028,128,596,906,1473,83,1296,18,799,34,911,71,481,1182,1786,1201,726,1448,769
participant_6_LEVEL,1,1,1,2,3,3,4,5,6,7,8,9,10,12,13,14,14,14,14,14,15,17,17,18,19,20
participant_6_MINIONSKILLED,0,0,0,0,1,2,5,6,9,14,15,15,15,17,19,31,31,40,40,40,49,55,64,64,71,71
participant_6_KILLS,0,0,0,0,0,0,0,0,0,0,1,1,1,1,1,1,1,1,1,1,1,1,1,1,1,1
participant_6_BUY,[],"[3340, 2033]",[],[1036],[1053],"[1042, 1042]",[1043],[],"[3144, 3153]",[1029],[1031],[],"[1038, 3026]",[],"[1038, 1037, 1018]",[],"[3031, 1036, 1036]",[],"[1018, 3133]",[],[],[],[3508],[3006],[],[]
participant_6_SOLD,[],[],"[2419, 2010]",[2423],[1036],"[2010, 2010]","[1042, 1042]",[2010],"[1053, 3144, 1043]",[],[1029],[],"[1038, 1031, 2424]",[],[3026],[],"[1038, 1037, 1018]",[],"[1036, 1036]",[],[],[],"[3133, 1018]",[2033],[],[]
participant_6_UNDO,[],[],[],[],[],[],[],[],[],[],[],[],[],[],[],[],[],[],[],[],[],[],[],[],[],[]
participant_7_GOLD,500,500,652,1095,1576,1956,2405,2908,3409,4111,5063,5672,6225,7062,7860,8346,8943,10043,10846,11291,12205,12821,14995,15355,16087,16467
participant_7_CURRENTGOLD,500,0,152,295,776,306,755,458,209,561,863,622,75,262,210,696,193,243,506,951,365,981,3155,835,1567,-893
participant_7_LEVEL,1,1,1,2,3,3,4,5,6,7,8,9,10,11,12,12,13,14,16,16,17,18,19,20,21,21
participant_7_MINIONSKILLED,0,0,0,0,1,1,3,3,5,9,11,17,18,27,31,31,32,32,42,43,47,48,49,49,50,52
participant_7_KILLS,0,0,0,0,0,0,0,0,0,0,1,1,1,1,2,2,2,3,3,3,4,4,7,7,8,8
participant_7_BUY,[],"[1056, 2003, 2003]",[],[1001],[],[1026],[],[3020],"[1027, 1028]",[3010],[3029],[1026],"[1027, 1028, 3010]",[3029],[1026],[],"[3364, 3010]","[3029, 1028]",[3010],[],[3029],[],[],"[3029, 1026]",[],[3029]
participant_7_SOLD,[],[],"[2003, 2003]",[],[],[],[],[1001],[],"[1028, 1027]","[3010, 1026]",[],"[1028, 1027]","[3010, 1026]",[],[],[3340],"[3010, 1026, 1056]","[1028, 1056]",[],[3010],[],[],[3020],[],[1026]
participant_7_UNDO,[],[],[],[],[],[],[],[],[],[],[],[],[],[],[],[],[],"[[1056, 0]]",[],[],[],[],[],[],[],[]
participant_8_GOLD,500,500,1395,2175,3374,3750,4577,5749,6558,7554,9490,10713,11495,12345,13168,13528,14146,15195,16288,16723,17083,17809,18219,19232,20418,21026
participant_8_CURRENTGOLD,500,65,110,890,274,50,877,2049,158,1154,190,1413,2195,3045,3868,928,1546,595,1688,1423,1783,2509,619,1632,2818,3426
participant_8_LEVEL,1,1,1,2,3,4,4,5,6,7,8,11,12,12,14,14,14,15,16,16,16,17,18,19,21,22
participant_8_MINIONSKILLED,0,0,0,3,5,5,7,8,12,22,26,34,37,38,44,44,51,54,59,60,60,65,65,79,79,84
participant_8_KILLS,0,0,2,2,3,3,3,4,5,6,9,11,12,13,14,14,14,15,17,17,17,17,17,17,18,18
participant_8_BUY,[],"[1052, 3340]",[1026],[],[3151],"[1042, 1042]",[],[],"[3115, 1001]",[],"[3020, 1058, 3113]",[],[],[],[],"[3907, 1058, 1058]",[],"[3089, 1053]",[],[3144],[],[],"[3146, 2139]",[],[],[]
participant_8_SOLD,[],[],[],[],"[1052, 1026]",[],[],[],"[1042, 1042]",[],[1001],[],[],[],[],"[1058, 3113]",[],"[1058, 1058]",[],[1053],[],[],"[3144, 2139]",[],[],[]
participant_8_UNDO,[],[],[],[],[],[],[],[],[],[],[],[],[],[],[],[],[],[],[],[],[],[],[],[],[],[]
participant_9_GOLD,500,500,799,1775,2556,3145,4084,4948,5644,6692,7874,8809,9357,9924,10726,11305,11968,12761,14192,15190,16237,17169,18501,19478,20513,21169
participant_9_CURRENTGOLD,500,65,364,1340,2121,445,1384,2248,144,1192,2374,3309,1257,1824,2626,3205,233,1026,1092,2090,3137,4069,5401,798,1833,1769
participant_9_LEVEL,1,1,2,3,4,4,6,6,7,8,9,11,11,12,13,13,14,15,17,17,19,20,20,21,22,23
participant_9_MINIONSKILLED,0,0,2,10,14,20,28,35,40,40,48,58,61,62,66,66,66,73,80,87,98,104,117,121,141,152
participant_9_KILLS,0,0,0,1,2,2,2,2,2,3,3,4,4,4,5,6,7,7,9,9,10,11,12,13,13,13
participant_9_BUY,[],"[1052, 3340]",[],[],[],"[3136, 1026, 1001]",[],[],"[3151, 3020, 1026, 1028, 3364]",[],[],[],"[3116, 1058, 3340]",[],[],[],"[3089, 1026, 1052]",[],[3135],[],[],[],[],"[3102, 2139, 3083]",[],[]
participant_9_SOLD,[],[],[],[],[],[1052],[],[],"[3136, 1026, 1001, 3340]",[],[],[],"[1026, 1028, 3364]",[],[],[],[1058],[],"[1026, 1052]",[],[],[],[],"[2139, 3020]",[],[]
participant_9_UNDO,[],[],[],[],[],[],[],[],[],[],[],[],[],[],[],[],[],[],[],[],[],[],[],[],[],[]
team0_KILLS,0,3,5,8,11,16,20,21,25,28,32,35,38,38,41,44,45,47,52,55,58,58,59,63,63,63
team0_CURRENTGOLD,2500,1362,2761,6294,5003,5687,3793,5064,10575,4406,4331,5109,5848,3816,3785,8734,10675,7382,9791,9108,8092,11140,9996,14587,16316,549
team0_TOTALGOLD,2500,3762,5511,10379,13903,18587,22843,26564,32510,36846,42096,46624,51073,52991,58075,63373,66564,71171,76221,82438,87272,89985,92681,98636,101415,104269
team0_LEVEL,5,5,7,13,17,24,27,32,37,41,42,49,53,54,60,66,69,73,79,83,87,88,89,96,97,98
team0_SBIRES,0,0,13,38,54,82,97,124,157,181,199,227,254,258,274,303,324,338,353,397,424,436,449,486,509,525
team1_KILLS,0,0,7,9,12,13,14,17,18,22,28,33,37,43,46,47,49,52,56,56,58,60,64,66,69,71
team1_CURRENTGOLD,2500,130,2701,3242,4773,1995,3337,7411,1871,4093,5325,9660,5599,11596,7455,6786,4486,6203,7145,6543,8675,12544,14694,9374,13896,11537
team1_TOTALGOLD,2500,2500,5921,9437,13333,16395,20557,25431,28841,33753,39935,45120,49109,55756,59580,62211,65771,71038,75085,77813,81445,85314,91164,95504,100026,103497
team1_LEVEL,5,5,6,11,17,19,24,28,33,37,42,51,55,61,67,68,70,74,79,79,83,90,93,98,104,108
team1_SBIRES,0,0,6,23,41,63,89,106,129,150,173,213,232,261,283,297,319,348,370,379,409,436,465,494,522,546
delta_KILLS,0,3,-2,-1,-1,3,6,4,7,6,4,2,1,-5,-5,-3,-4,-5,-4,-1,0,-2,-5,-3,-6,-8
delta_CURRENTGOLD,0,1232,60,3052,230,3692,456,-2347,8704,313,-994,-4551,249,-7780,-3670,1948,6189,1179,2646,2565,-583,-1404,-4698,5213,2420,-10988
delta_TOTALGOLD,0,1262,-410,942,570,2192,2286,1133,3669,3093,2161,1504,1964,-2765,-1505,1162,793,133,1136,4625,5827,4671,1517,3132,1389,772
delta_LEVEL,0,0,1,2,0,5,3,4,4,4,0,-2,-2,-7,-7,-2,-1,-1,0,4,4,-2,-4,-2,-7,-10
delta_SBIRES,0,0,7,15,13,19,8,18,28,31,26,14,22,-3,-9,6,5,-10,-17,18,15,0,-16,-8,-13,-21
