name,team0,team1
win,Win,Fail
firstBlood,False,True
firstTower,False,True
firstInhibitor,False,True
firstBaron,False,True
firstDragon,True,False
firstRiftHerald,False,True
towerKills,8,9
inhibitorKills,1,3
baronKills,0,1
dragonKills,2,3
riftHeraldKills,0,2
