name,frame_0,frame_1,frame_2,frame_3,frame_4,frame_5,frame_6,frame_7,frame_8,frame_9,frame_10,frame_11,frame_12,frame_13,frame_14,frame_15,frame_16,frame_17,frame_18,frame_19,frame_20,frame_21
nameStamp,Tstart,Tearly,Tearly,Tearly,Tearly,Tearly,Tearly,Tearly,Tmid,Tmid,Tmid,Tmid,Tmid,Tmid,Tmid,Tmid,Tmid,Tmid,Tmid,Tmid,Tmid,Tmid
timestamp,0,60015,120025,180036,240047,300057,360075,420089,480108,540122,600137,660150,720165,780178,840197,900210,960226,1020240,1080250,1140264,1200283,1260283
participant_0_GOLD,1400,1430,1893,2676,3268,4274,4694,5750,6705,7193,7899,8420,9249,10423,11112,11442,11948,12820,13626,14319,15358,15585
participant_0_CURRENTGOLD,1400,30,43,826,318,1324,511,317,872,1360,116,637,1466,2640,229,559,115,987,1793,2486,725,152
participant_0_LEVEL,1,3,4,5,6,8,8,10,11,11,12,13,14,15,15,16,16,17,18,18,18,18
participant_0_MINIONSKILLED,0,0,4,7,9,18,20,25,29,32,37,42,47,50,57,57,59,71,80,87,94,94
participant_0_KILLS,0,0,0,1,2,3,3,5,7,7,8,8,10,12,13,13,13,14,14,14,16,16
participant_0_BUY,[],"[3057, 1001, 2003]","[1036, 2003, 2003]",[],[3101],[],[3078],"[1033, 3111, 3902, 1033]",[1028],[],[3065],[],[],[3901],"[3105, 3133, 1036, 1053]",[],"[3812, 1033]",[],[],[],[3156],[3123]
participant_0_SOLD,[],[2052],[2003],"[2003, 2003]",[],[],"[3101, 3057, 1036]","[1001, 1033, 3902]",[],[],"[1028, 1033]",[],[],[3901],[1036],[],"[3105, 1053, 3133]",[],[2052],[],[1033],[]
participant_0_UNDO,[],[],[],[],[],[],[],[],[],[],[],[],[],[],[],[],[],[],[],[],[],[]
participant_1_GOLD,1400,1420,1965,2327,2736,3786,4206,4793,5253,5853,6385,7065,7541,8063,8938,9517,10114,10745,11385,11777,12215,12442
participant_1_CURRENTGOLD,1400,20,265,192,186,1236,1656,1043,203,803,1335,1215,501,1023,648,127,289,920,295,287,725,892
participant_1_LEVEL,1,3,4,5,6,7,8,9,10,10,11,12,13,13,14,14,15,17,17,17,18,18
participant_1_MINIONSKILLED,0,0,0,0,0,0,0,1,3,5,6,6,6,6,6,8,8,8,8,8,9,9
participant_1_KILLS,0,0,1,1,1,3,3,4,4,5,5,6,6,7,8,9,10,11,12,12,12,12
participant_1_BUY,[],"[3802, 2003, 2003]",[1001],[1052],[3113],[],[],"[3057, 2031]","[1026, 3100]",[],[],[3020],[1058],[],[1058],[3089],[1052],[],"[3028, 3108]",[3174],[],[]
participant_1_SOLD,[],"[2003, 2003]",[],[],[1052],[2052],[],[],"[3057, 3113, 1026]",[],[],[1001],[2031],[],[],"[1058, 1058]",[],[],[1052],"[3108, 3028]",[],[]
participant_1_UNDO,[],[],[],[],[],[],[],[],[],[],[],[],[],[],[],[],[],[],[],[],[],[]
participant_2_GOLD,1400,1420,1884,2403,2876,3263,3714,4506,5108,5530,6198,6666,7090,7577,8484,8928,9974,10553,11038,11933,12424,12625
participant_2_CURRENTGOLD,1400,20,184,703,1176,313,764,506,258,680,1348,716,390,877,134,578,1189,453,938,1833,1074,1275
participant_2_LEVEL,1,3,4,5,6,7,8,9,10,10,11,12,12,13,14,15,16,17,17,18,18,18
participant_2_MINIONSKILLED,0,0,5,8,14,15,17,21,24,28,32,37,39,40,41,44,52,56,56,61,64,64
participant_2_KILLS,0,0,0,0,0,0,0,2,2,2,3,3,3,3,4,4,5,5,5,7,7,7
participant_2_BUY,[],"[3802, 2003, 2003]",[1001],[],[],"[1026, 1028]",[],[3285],[1026],[],[],[3136],[3151],[],"[3020, 1026]",[],[1052],[3116],[],[],[1058],[]
participant_2_SOLD,[],[],[2003],[2003],[],[],[],"[3802, 1026]",[],[],[],[1028],"[3136, 1026]",[],[1001],[],[],"[1026, 1052]",[],[],[],[]
participant_2_UNDO,[],[],[],[],[],[],[],[],[],[],[],[],[],[],[],[],[],[],[],[],[],[]
participant_3_GOLD,1400,1640,2059,2542,2996,4014,4650,5192,5776,6275,6910,7421,7885,8444,8929,9529,10808,11628,12513,12917,13419,13647
participant_3_CURRENTGOLD,1400,240,659,117,571,364,1000,742,226,725,160,71,235,494,979,479,408,1228,2113,167,669,897
participant_3_LEVEL,1,3,4,5,6,7,8,9,10,10,11,11,12,13,13,14,15,16,17,17,18,18
participant_3_MINIONSKILLED,0,0,2,6,8,10,15,21,25,30,32,33,36,43,46,55,57,68,73,74,80,80
participant_3_KILLS,0,1,1,1,1,3,4,4,5,5,6,7,7,7,7,7,9,10,11,11,11,11
participant_3_BUY,[],"[1038, 2003, 2003]",[],"[1037, 2031]",[],[3031],[],[1018],"[3086, 3006]",[],"[3086, 1042, 1042]",[3085],[1042],[1042],[],[3086],"[3046, 1033]",[],[],[3065],[],[]
participant_3_SOLD,[],[2003],[2003],[],[],"[1038, 1037]",[],[],[1018],[],[1018],"[1042, 3086, 1042]",[],[],[],[1042],"[1042, 3086]",[],[],[1033],[],[]
participant_3_UNDO,[],[],[],[],[],[],[],[],"[[0, 3086]]",[],[],[],[],[],[],[],[],[],[],[],[],[]
participant_4_GOLD,1400,1400,1730,2137,2507,2837,3167,3579,3909,4343,4713,5133,5493,5895,6301,6726,7096,7506,8106,8601,9021,9391
participant_4_CURRENTGOLD,1400,0,330,737,1107,1437,1767,679,209,643,1013,1433,493,895,1301,1726,196,606,371,866,621,141
participant_4_LEVEL,1,3,4,5,6,6,6,7,7,8,9,10,10,11,12,13,14,14,15,16,17,17
participant_4_MINIONSKILLED,0,0,0,0,0,0,0,1,1,1,1,1,1,1,4,4,4,4,4,4,4,4
participant_4_KILLS,0,0,0,0,0,0,0,0,0,0,0,0,0,0,0,0,0,0,0,1,1,2
participant_4_BUY,[],"[3010, 1001]",[],[],[],[],[],[3029],[3020],[],[],[],[3802],[],[],[],[3285],[],"[1028, 1052]",[],[3136],[1026]
participant_4_SOLD,[],[],[],[],[],[],[],[3010],[1001],"[2010, 2010, 2010]",[],[],[],[],[],[],[3802],[],[],[],"[1028, 1052]",[]
participant_4_UNDO,[],[],[],[],[],[],[],[],[],[],[],[],[],[],[],[],[],[],[],[],[],[]
participant_5_GOLD,1400,1400,1894,2552,3064,3587,4569,5250,5952,6411,7178,7751,8548,8972,9858,10433,11648,12001,12716,13465,14330,15341
participant_5_CURRENTGOLD,1400,100,594,1252,1764,387,1369,150,852,1311,2078,901,1698,872,508,1083,2298,326,1041,1790,1290,2241
participant_5_LEVEL,1,3,5,5,7,7,8,9,10,11,12,13,13,14,15,16,17,17,18,18,18,18
participant_5_MINIONSKILLED,0,0,1,6,8,14,18,25,29,32,43,45,50,55,58,61,69,70,73,83,83,96
participant_5_KILLS,0,0,0,1,1,1,3,3,4,4,4,5,7,7,7,8,10,10,11,12,13,16
participant_5_BUY,[],"[3073, 1028, 1001, 2031]",[],[],[],"[3802, 3158]",[],"[3007, 1026]",[],[],[],[3029],[],[1058],[1058],[],[],"[3089, 1026, 1052]",[],[],[3135],[]
participant_5_SOLD,[],[],[],[],[],[1001],[],"[3073, 3802]",[],[],[3007],[1026],[],[],[],[],[],"[1058, 1058, 2031]",[],[],"[1026, 1052]",[]
participant_5_UNDO,[],"[[0, 1028]]",[],[],[],[],[],[],[],[],[],[],[],[],[],[],[],[],[],[],[],[]
participant_6_GOLD,1400,1400,2197,2605,3108,3488,3868,4420,4965,5386,6472,7010,7471,8636,9141,9695,10845,11345,11752,12259,12712,13028
participant_6_CURRENTGOLD,1400,0,797,1205,1708,438,818,70,615,1036,2122,2660,3121,4286,591,1145,695,695,1102,1609,812,1128
participant_6_LEVEL,1,3,5,5,6,7,8,9,10,10,11,12,13,14,15,16,16,17,17,18,18,18
participant_6_MINIONSKILLED,0,0,1,2,2,2,2,2,6,7,8,10,11,11,11,13,16,16,19,20,24,24
participant_6_KILLS,0,0,2,2,2,2,2,2,2,2,4,4,4,6,6,6,8,9,9,9,9,9
participant_6_BUY,[],"[3010, 1001]",[],[],[],"[3029, 2031]",[],[3802],[],[],[],[],[],[],"[3285, 3020, 3136]",[],[3151],[2139],[],[],[1058],[]
participant_6_SOLD,[],[],[],[],[],[3010],[],[],[],[],[],[],[],[],"[3802, 1001]",[],[3136],[2139],[],[],[],[]
participant_6_UNDO,[],[],[],[],[],[],[],[],[],[],[],[],[],[],[],[],[],[],[],[],[],[]
participant_7_GOLD,1400,1400,2022,2518,3340,3862,4394,4939,5698,6125,6612,7031,7490,8016,9000,9623,10515,10941,11625,12287,12777,13143
participant_7_CURRENTGOLD,1400,0,622,1118,1940,562,1094,539,1298,475,962,1381,1840,1116,2100,2723,3615,291,975,1637,527,893
participant_7_LEVEL,1,3,5,5,7,8,8,9,10,11,11,12,12,13,15,16,17,18,18,18,18,18
participant_7_MINIONSKILLED,0,0,10,13,16,23,27,30,35,39,41,42,43,45,50,54,60,60,67,73,73,73
participant_7_KILLS,0,0,0,0,2,2,2,2,3,3,3,3,3,3,4,4,4,4,5,5,6,7
participant_7_BUY,[],"[3802, 2003, 2003]",[],[],[],[3285],[],[3020],[],[1058],[],[],[],[1058],[],[],[],"[3135, 3089]",[],[],"[3916, 3916]",[]
participant_7_SOLD,[],[],[2003],[],[2003],[3802],[],[],[],[],[],[],[],[],[],[],[],"[1058, 1058]",[],[],[],[]
participant_7_UNDO,[],[],[],[],[],[],[],[],[],[],[],[],[],[],[],[],[],[],[],[],"[[0, 3916]]",[]
participant_8_GOLD,1400,1400,2052,2660,3812,4248,5044,5844,6782,7193,7758,8403,9001,9673,10442,10772,11530,12074,12469,12906,13768,14350
participant_8_CURRENTGOLD,1400,0,652,1260,1412,398,1194,744,432,843,308,118,11,683,852,247,540,1084,479,916,928,1450
participant_8_LEVEL,1,3,4,5,6,7,8,9,9,10,10,11,12,13,13,14,14,15,16,16,18,18
participant_8_MINIONSKILLED,0,0,1,1,3,4,8,8,11,14,14,17,19,23,26,26,26,28,30,31,38,39
participant_8_KILLS,0,0,1,2,5,5,6,7,9,9,10,11,12,13,14,14,14,15,15,15,16,16
participant_8_BUY,[],"[3010, 1001]",[],[],"[1026, 2031]","[3029, 3020]",[],[1058],[1058],[],[3089],"[1028, 1052]",[3916],[],"[1042, 1042]","[3101, 1052]",[3108],[],[3115],[],[1026],[]
participant_8_SOLD,[],[],[],[],[],"[3010, 1026, 1001]",[],[],[],[],"[1058, 1058]",[],"[2031, 1028, 1052]",[],[],"[1042, 1042]",[1052],[],"[3101, 3108]",[],[],[]
participant_8_UNDO,[],[],[],[],[],[],[],[],[],[],[],[],[],[],[],[],[],[],[],[],[],[]
participant_9_GOLD,1400,1400,2014,2480,3003,3668,4330,4889,5319,5664,6196,7242,7801,8171,9365,10220,10926,11311,11832,12811,13242,13561
participant_9_CURRENTGOLD,1400,50,264,730,453,68,730,239,234,164,696,1742,2301,121,65,920,526,911,782,1761,1392,1711
participant_9_LEVEL,1,3,4,5,6,7,8,8,9,9,10,11,12,13,14,15,16,16,17,18,18,18
participant_9_MINIONSKILLED,0,0,3,5,9,9,12,13,13,13,18,27,33,33,35,35,35,37,40,42,43,44
participant_9_KILLS,0,0,1,1,1,2,3,3,3,3,3,5,5,5,8,11,11,11,11,12,12,12
participant_9_BUY,[],"[3145, 1001]",[1028],[],[3020],"[3067, 3152]",[],[3057],[1052],[3113],[],[],[],"[3100, 1058]",[1058],[],[3089],[],[2420],[],"[3191, 3123]",[]
participant_9_SOLD,[],[],[],[],[1001],"[1028, 3145, 3067]",[],[],[],[1052],[],[],[],"[3057, 3113]",[],[],"[1058, 1058]",[],[],[],[],[]
participant_9_UNDO,[],[],[],[],[],[],[],[],[],[],[],[],[],[],[],[],[],[],[],[],"[[0, 3191]]",[]
team0_KILLS,0,1,2,3,4,9,10,15,18,19,22,24,26,29,32,33,37,40,42,45,47,48
team0_CURRENTGOLD,7000,310,1481,2575,3358,4674,5698,3287,1768,4211,3972,4072,3085,5929,3291,3469,2197,4194,5510,5639,3814,3357
team0_TOTALGOLD,7000,7310,9531,12085,14383,18174,20431,23820,26751,29194,32105,34705,37258,40402,43764,46142,49940,53252,56668,59547,62437,63690
team0_LEVEL,5,15,20,25,30,35,38,44,48,49,54,58,61,65,68,72,76,81,84,86,89,89
team0_SBIRES,0,0,11,21,31,43,52,69,82,96,108,119,129,140,154,168,180,207,221,234,251,251
team1_KILLS,0,0,4,6,11,12,16,17,21,21,24,28,31,34,39,43,47,49,51,53,56,60
team1_CURRENTGOLD,7000,150,2929,5565,7277,1853,5205,1742,3431,3829,6166,6802,8971,7078,4116,6118,7674,3307,4379,7713,4949,7423
team1_TOTALGOLD,7000,7000,10179,12815,16327,18853,22205,25342,28716,30779,34216,37437,40311,43468,47806,50743,55464,57672,60394,63728,66829,69423
team1_LEVEL,5,15,23,25,32,36,40,44,48,51,54,59,62,67,72,77,80,83,86,88,90,90
team1_SBIRES,0,0,16,27,38,52,67,78,94,105,124,141,156,167,180,189,206,211,229,249,261,276
delta_KILLS,0,1,-2,-3,-7,-3,-6,-2,-3,-2,-2,-4,-5,-5,-7,-10,-10,-9,-9,-8,-9,-12
delta_CURRENTGOLD,0,160,-1448,-2990,-3919,2821,493,1545,-1663,382,-2194,-2730,-5886,-1149,-825,-2649,-5477,887,1131,-2074,-1135,-4066
delta_TOTALGOLD,0,310,-648,-730,-1944,-679,-1774,-1522,-1965,-1585,-2111,-2732,-3053,-3066,-4042,-4601,-5524,-4420,-3726,-4181,-4392,-5733
delta_LEVEL,0,0,-3,0,-2,-1,-2,0,0,-2,0,-1,-1,-2,-4,-5,-4,-2,-2,-2,-1,-1
delta_SBIRES,0,0,-5,-6,-7,-9,-15,-9,-12,-9,-16,-22,-27,-27,-26,-21,-26,-4,-8,-15,-10,-25
