name,team0,team1
win,Fail,Win
firstBlood,False,True
firstTower,True,False
firstInhibitor,True,False
firstBaron,True,False
firstDragon,True,False
firstRiftHerald,False,True
towerKills,5,11
inhibitorKills,1,3
baronKills,1,1
dragonKills,4,2
riftHeraldKills,0,2
