name,frame_0,frame_1,frame_2,frame_3,frame_4,frame_5,frame_6,frame_7,frame_8,frame_9,frame_10,frame_11,frame_12,frame_13,frame_14,frame_15,frame_16,frame_17,frame_18,frame_19,frame_20,frame_21,frame_22,frame_23,frame_24,frame_25,frame_26,frame_27,frame_28,frame_29,frame_30,frame_31
nameStamp,Tstart,Tearly,Tearly,Tearly,Tearly,Tearly,Tearly,Tearly,Tearly,Tearly,Tearly,Tearly,Tearly,Tearly,Tearly,Tearly,Tearly,Tearly,Tmid,Tmid,Tmid,Tmid,Tmid,Tmid,Tmid,Tmid,Tmid,Tmid,Tmid,Tmid,Tend,Tend
timestamp,0,60023,120032,180045,240045,300077,360089,420099,480102,540118,600125,660134,720158,780173,840186,900198,960229,1020242,1080269,1140286,1200289,1260307,1320329,1380345,1440366,1500368,1560370,1620392,1680424,1740437,1800467,1860467
participant_0_GOLD,500,500,562,804,1392,1787,2036,2434,2814,2965,3704,3916,4206,4503,5013,5374,5772,5957,6248,6461,6648,7153,7561,8647,9119,9866,10490,10897,11906,12446,12787,13857
participant_0_CURRENTGOLD,500,0,62,304,192,587,836,1234,1614,415,1154,1366,481,778,413,774,1172,382,673,36,223,28,436,1522,259,1006,1630,673,1141,1682,472,1382
participant_0_LEVEL,1,1,1,3,4,5,5,6,7,7,8,8,9,10,10,11,11,11,12,12,12,13,13,14,14,15,16,16,16,17,17,17
participant_0_MINIONSKILLED,0,0,2,8,15,28,35,48,60,62,77,79,89,99,103,113,125,128,138,143,144,158,170,187,187,201,222,230,230,233,241,246
participant_0_KILLS,0,0,0,0,0,0,0,0,0,0,0,1,1,1,1,1,1,1,1,2,2,2,2,3,4,7,8,8,8,8,8,8
participant_0_BUY,[],"[1055, 2003, 3340]",[],[],[],[],[6670],[],[],[],[],[],"[1018, 1037, 1001]",[],[6672],[1042],[],[3006],[],[],"[3123, 1037]",[],[1018],[6676],[],[],[],[3031],[],[],[3086],"[3033, 2420]"
participant_0_SOLD,[],[],[],[],[2003],[],[],[],[],[],[],[],[],[],"[6670, 1018, 1037]",[],[],"[1001, 1042]",[],[],[],[],[],"[1037, 1018]",[],[],[],[],[],[],[1055],"[3123, 3086]"
participant_0_UNDO,[],[],[],[],[],[],[],[],[],[],[],[],[],[],[],[],[],[],[],[],[],[],[],[],[],[],[],[],[],[],[],[]
participant_1_GOLD,500,500,665,1013,1269,1588,1736,1858,2300,2463,2981,3360,3722,4179,4302,4763,5041,5163,5520,5972,6322,6608,6990,7337,7690,8223,8707,8964,10137,10714,11210,12530
participant_1_CURRENTGOLD,500,0,165,513,769,1088,1236,183,625,138,656,1035,197,654,427,888,166,288,645,1097,347,633,115,462,815,1348,1832,389,1562,2139,335,1655
participant_1_LEVEL,1,1,2,3,4,4,5,5,6,6,7,7,7,8,8,9,9,9,10,11,11,11,12,12,12,13,14,14,14,15,16,16
participant_1_MINIONSKILLED,0,0,0,0,2,4,4,4,4,6,7,9,9,10,10,10,10,10,10,13,18,18,18,18,18,19,21,21,22,23,30,34
participant_1_KILLS,0,0,0,0,0,0,0,0,0,0,0,0,0,0,0,0,0,0,0,0,1,1,1,1,1,1,1,1,1,1,1,1
participant_1_BUY,[],"[1055, 3340, 2003]",[],[],[],[],[],[],[],"[6670, 1001, 1036, 2003, 2003]",[],[],"[1018, 1053]",[],[],[],[],"[6673, 3006, 2031]",[],[1042],[],"[6677, 1042, 3123]",[],[],[],[],[],"[3033, 1018]",[],[],[1038],[]
participant_1_SOLD,[],[],[],[],[],[],[2003],[],[],[],[],[],"[2003, 1036]",[],[],[],[],"[2003, 6670, 1018, 1053, 1001]",[],[],[],[1042],[],[],[],[],[],"[3123, 1042]",[],[],[1055],[]
participant_1_UNDO,[],[],[],[],[],[],[],[],[],[],[],[],[],[],[],[],[],[],[],[],[],"[[0, 1042], [0, 6677]]",[],[],[],[],[],[],[],[],[],[]
participant_2_GOLD,500,500,625,920,1204,1571,1935,2183,2598,2863,3167,3575,3965,4227,4601,5003,5332,5552,5918,6041,6582,6782,6932,7202,7821,8577,8906,9195,9661,10265,10583,11126
participant_2_CURRENTGOLD,500,0,125,410,694,1051,1405,1653,2058,263,567,965,100,362,726,1128,1457,127,493,316,857,257,407,677,1296,2052,2381,470,936,1541,738,926
participant_2_LEVEL,1,1,1,3,4,5,6,6,7,8,8,9,9,9,10,10,11,11,12,12,12,12,12,13,13,14,14,15,15,16,16,17
participant_2_MINIONSKILLED,0,0,6,13,22,33,44,51,65,70,80,93,95,103,113,125,133,138,148,148,151,155,157,163,174,180,182,187,197,200,201,207
participant_2_KILLS,0,0,0,0,1,1,1,1,1,1,2,2,2,2,3,3,3,3,3,3,3,3,3,4,4,5,5,5,7,7,7,9
participant_2_BUY,[],"[1056, 2003, 2003, 3340]",[],[],"[1036, 1042, 2003]",[],[],[],[],"[6670, 1001, 1042, 2003, 2003]",[],[],"[3006, 1018, 2055]",[],[1037],[],[],"[6672, 1036]",[],"[1053, 1042]",[],[1043],[],[],"[1037, 3153, 1052]",[],[],"[3191, 3108]",[3157],[],"[3113, 3057]",[]
participant_2_SOLD,[],[],[],[],[2003],[],[2003],[],[2003],"[1036, 1042]",[],"[2003, 2003]","[1001, 1042]",[],[],[],[2055],"[6670, 1018, 1037]",[],[1036],[],[1042],[],[],"[1053, 1043, 1037]",[],[],[1052],"[1056, 3191, 3108]",[],[],[]
participant_2_UNDO,[],[],[],[],[],[],[],[],[],[],[],[],[],[],[],[],[],[],[],[],[],[],[],[],[],[],[],[],[],[],[],[]
participant_3_GOLD,500,500,583,916,1246,1578,1862,1984,2350,2690,3003,3767,4086,4418,4562,4705,5125,5303,5857,6873,7240,7726,8121,9123,9813,11689,12408,12531,13126,13584,14139,14596
participant_3_CURRENTGOLD,500,0,83,416,746,1078,62,184,550,890,1203,1967,511,843,362,205,625,303,857,1873,565,1051,846,323,1013,2889,3609,331,926,1385,919,-154
participant_3_LEVEL,1,1,1,2,3,4,4,4,5,5,6,7,7,7,7,8,8,8,9,10,10,11,11,12,12,13,13,13,14,14,15,15
participant_3_MINIONSKILLED,0,0,3,15,25,34,44,44,55,68,76,92,100,112,113,114,127,130,147,160,167,184,196,197,199,208,220,220,223,225,242,242
participant_3_KILLS,0,0,0,0,0,0,0,0,0,0,0,0,0,0,0,0,0,0,0,0,0,0,0,0,0,0,0,0,0,0,0,0
participant_3_BUY,[],"[3854, 2003, 2003]",[],[],[],[],[],"[1029, 1028, 2055, 2003]",[],[],[],[],"[6660, 1001, 2055]",[],[1033],"[3047, 2003, 3364, 2003, 2003]",[],"[1029, 2003, 2003, 2003]",[],[],[],[],"[1057, 2003]",[],[],[],[],"[6664, 1028]",[],[],"[3114, 3067]",[]
participant_3_SOLD,[],[],[],"[2010, 2003]",[2003],[2010],[],[],"[2055, 2010]",[2003],[],[],"[1028, 3854]",[],[],"[1001, 1029, 3340]","[2003, 2003]",[2003],[],[2003],[2055],[2003],[3855],"[2003, 2003]",[],[],[],"[6660, 1029, 1057]",[],[],[1028],[]
participant_3_UNDO,[],[],[],[],[],[],[],[],[],[],[],[],[],[],[],"[[0, 1033]]",[],[],[],[],[],[],[],[],[],[],[],[],[],[],[],[]
participant_4_GOLD,500,500,543,699,936,1112,1268,1402,1619,1799,1954,2281,2498,2680,2937,3077,3430,3571,3789,3959,4330,4620,4876,5111,5376,5813,6028,6169,6500,6965,7217,7611
participant_4_CURRENTGOLD,500,0,43,199,436,612,768,77,294,474,629,956,198,380,187,127,480,171,389,560,930,1220,526,761,1027,1463,1678,419,750,1215,267,661
participant_4_LEVEL,1,1,1,2,3,4,4,5,5,6,6,7,7,7,8,8,9,9,9,9,10,10,10,11,11,12,12,12,13,13,14,14
participant_4_MINIONSKILLED,0,0,1,2,5,7,8,8,10,12,13,15,16,18,21,21,25,25,29,30,31,34,39,41,41,42,42,42,43,43,45,45
participant_4_KILLS,0,0,0,0,0,0,0,0,0,0,0,0,0,0,0,0,0,0,0,0,0,0,0,0,0,0,0,0,2,2,2,5
participant_4_BUY,[],"[1035, 2031, 3340]",[],[],[],[],[],"[3134, 2055]",[],"[1036, 1001]",[],[],"[3133, 1033]",[],[3111],[],[6691],[],[],[],[3134],[],[1053],[],[],[],[],"[3181, 1036, 1036]",[],[],[6676],[]
participant_4_SOLD,[],[],[],[],[],[],[],[2055],[1035],[],[],"[3340, 3513]",[1036],[],"[1001, 1033]",[],"[3134, 3133]",[],[],[],[],[],[],[],[],[],[],"[3134, 1053]",[],[],"[1036, 1036]",[]
participant_4_UNDO,[],[],[],[],[],[],[],[],[],[],[],[],[],[],[],[],[],[],[],[],[],[],[],[],[],[],[],[],[],[],[],[]
participant_5_GOLD,500,500,583,983,1576,1817,2157,2569,2845,3052,3393,3738,4127,4459,4768,5121,5419,6229,6553,7005,7532,7906,8091,8262,8706,8933,9160,9596,9850,10480,10717,10824
participant_5_CURRENTGOLD,500,0,83,483,1076,217,557,969,1245,127,468,813,1202,1534,43,396,694,54,378,830,87,461,296,117,561,388,616,1051,1305,1936,272,199
participant_5_LEVEL,1,1,1,3,4,4,5,6,7,7,8,8,9,9,10,10,11,11,12,12,12,13,13,13,14,14,14,15,15,15,15,16
participant_5_MINIONSKILLED,0,0,3,17,21,26,38,52,61,66,76,86,98,110,117,127,137,144,152,164,170,181,185,188,203,209,216,226,230,244,246,246
participant_5_KILLS,0,0,0,0,0,0,0,0,0,0,0,0,0,0,1,2,2,5,5,5,5,5,5,5,5,5,5,5,5,5,5,6
participant_5_BUY,[],"[1055, 2003]",[],[],[],[],"[1053, 2055, 2003]",[],[],[],[],[6670],[],[],[],"[6673, 3117, 3047]",[],[],"[3134, 1018]",[],[],[6676],[],[],[1018],[1036],[],[],[1053],[],[],[]
participant_5_SOLD,[],[],[],[],[2003],[],[],[],[],[],[],[],[2003],[],[],"[6670, 1053]",[],[],[],[],[],"[3134, 1018]",[],[],[2055],[],[],[],[1036],[],[1055],[]
participant_5_UNDO,[],[],[],[],[],[],[],[],[],[],[],[],[],[],[],"[[0, 3117]]",[],[],[],[],[],[],[],[],[],[],[],[],[],[],"[[1055, 0]]",[]
participant_6_GOLD,500,500,620,1033,1318,1660,1918,2315,2535,3213,3710,3833,4060,4297,4643,4956,5398,5771,6329,6927,7295,7417,7789,8081,8368,8546,8668,8875,8998,9205,9517,9624
participant_6_CURRENTGOLD,500,0,120,533,818,160,343,740,960,1638,2135,58,285,522,868,81,523,896,1454,2052,2420,407,779,1071,568,746,53,261,383,190,503,-511
participant_6_LEVEL,1,1,2,3,4,4,5,6,6,7,7,7,8,8,9,9,10,10,11,12,12,12,13,13,13,13,13,14,14,14,14,14
participant_6_MINIONSKILLED,0,0,0,0,0,0,0,0,0,0,0,0,1,2,4,4,4,5,5,6,6,6,7,7,7,7,7,7,7,7,7,7
participant_6_KILLS,0,0,0,0,0,0,0,0,0,1,1,1,1,1,1,1,1,1,1,2,2,2,2,2,2,2,2,2,2,2,2,2
participant_6_BUY,[],"[1039, 3340, 2031]",[],[],[],[6660],"[3364, 2055]",[],[],[],[],"[3105, 3068]",[],[],[],[3047],[],[],[],[],[],"[3076, 1011, 1052]",[],[],[1026],[],[4637],[],[],[1028],[],[1011]
participant_6_SOLD,[],[],[],[],[],[],[3340],[],[2055],[],[1039],"[6660, 3105]",[],[],[],[],[],[],[],[],[3364],[3076],[3513],[],[2031],[],"[1026, 1011, 1052]",[],[],[],[],[1028]
participant_6_UNDO,[],[],[],[],[],[],[],[],[],[],[],[],[],[],[],[],[],[],[],[],[],"[[3076, 0]]",[],[],[],[],[],[],[],[],[],[]
participant_7_GOLD,500,500,604,909,1288,1648,1967,2365,2640,3159,3484,3815,4407,4808,5664,5955,6423,6714,6900,7304,7595,8061,8443,9272,9555,9678,9912,10446,10722,10934,11289,12160
participant_7_CURRENTGOLD,500,0,104,409,778,1128,1447,1835,250,759,1084,100,682,1083,1939,2230,2698,2989,350,204,495,961,43,872,256,78,312,847,822,1035,190,1110
participant_7_LEVEL,1,1,1,3,4,5,6,7,7,8,8,9,9,10,10,11,11,12,12,12,12,13,13,13,14,14,14,14,15,15,15,16
participant_7_MINIONSKILLED,0,0,5,15,27,38,49,62,68,78,90,99,104,111,118,128,144,151,155,164,167,177,181,184,193,193,200,211,216,217,224,237
participant_7_KILLS,0,0,0,0,0,0,0,0,0,0,0,0,1,1,3,3,3,3,3,3,3,3,3,5,5,5,5,5,5,5,5,6
participant_7_BUY,[],"[1055, 2003, 3340]",[],[],[],[],[],[],"[1001, 1053, 1042, 1036]",[],[],"[6670, 1018, 2055, 3363]",[],[],[],[],[],[],"[6673, 3006, 1043, 1036, 2055]",[1053],[],[],[3153],[],"[1018, 1042]",[3086],[],[],[1042],[],[3046],[]
participant_7_SOLD,[],[],[],[],[],[],[],[],[],[],[],"[1036, 1042, 2003, 3340]",[2055],[],[],[],[],[],"[6670, 1018, 1053, 1001]","[2055, 1036]",[],[],"[1053, 1043]",[],[],"[1018, 1042]",[],[],[],[],"[1042, 3086]",[]
participant_7_UNDO,[],[],[],[],[],[],[],[],[],[],[],[],[],[],[],[],[],[],[],[],[],[],[],[],[],[],[],[],[],[],[],[]
participant_8_GOLD,500,500,583,944,1221,1539,1732,2144,2496,2745,3091,3291,3613,3945,4688,5194,5474,6865,7126,7611,7872,8178,8732,8923,9130,9365,9633,9930,10052,10223,10478,11606
participant_8_CURRENTGOLD,500,0,83,444,721,1039,207,619,971,1220,1566,466,788,1120,1863,69,349,1740,301,786,1047,53,607,798,406,290,558,855,427,599,853,1801
participant_8_LEVEL,1,1,1,2,3,4,4,5,5,6,6,6,7,8,8,9,9,10,11,11,11,12,12,12,12,13,13,13,13,13,13,14
participant_8_MINIONSKILLED,0,0,3,17,26,34,38,52,63,70,83,87,87,99,105,110,115,125,129,136,137,143,159,159,159,165,169,175,175,178,181,182
participant_8_KILLS,0,0,0,0,1,1,1,1,1,1,1,1,1,1,1,1,1,2,2,2,2,2,2,2,2,2,2,2,2,2,2,2
participant_8_BUY,[],"[1055, 2003]",[],[],[],[3134],[],[],[],"[3133, 2055, 2031]",[],[],[],[],"[6691, 3111]",[],[],"[3134, 1036]",[],[],[3814],[],[1036],[1036],[],[3134],[],[],[],[],[3142],[]
participant_8_SOLD,[],[],[],[],"[2003, 2010]",[],[],"[2010, 2010]",[],[],[2055],[],[],[],"[3134, 3133, 2422]",[],[],[],[],[],"[1055, 1036, 3134]",[],[],[],[],"[1036, 1036]",[],[],[],[],[3134],[]
participant_8_UNDO,[],[],[],[],[],[],[],[],[],[],[],[],[],[],[],[],[],[],[],[],[],[],[],[],[],[],[],[],[],[],[],[]
participant_9_GOLD,500,500,542,817,1012,1226,1361,1495,1729,1907,2081,2466,3036,3284,3939,4230,4398,4928,5390,5719,6209,6497,6667,6906,7230,7370,7510,7783,7923,8098,8267,8465
participant_9_CURRENTGOLD,500,0,42,317,512,726,86,220,454,632,806,1191,11,259,914,655,823,1353,890,1219,835,1122,442,681,355,495,561,833,973,1149,142,340
participant_9_LEVEL,1,1,1,2,3,4,4,5,5,6,6,7,7,8,9,9,9,10,10,11,11,11,11,12,12,12,12,12,12,12,13,13
participant_9_MINIONSKILLED,0,0,0,0,0,0,0,0,0,0,1,5,5,7,8,8,10,11,12,13,13,14,15,16,24,24,24,28,28,30,32,32
participant_9_KILLS,0,0,0,0,0,0,0,0,0,0,0,0,1,1,1,1,1,1,2,2,3,3,3,3,3,3,3,3,3,3,3,3
participant_9_BUY,[],"[3850, 2003, 2003]",[],[],[],[],"[1028, 1001, 2055]",[],[],[],[],[],"[4642, 3117, 3364]",[],[],"[3067, 2055, 2055]",[],[],"[4005, 2055]",[],"[3114, 2055]",[],[1026],[],[6616],[],[2055],[],[],[],"[4641, 2055]",[]
participant_9_SOLD,[],[],[],[],[],[2003],[2055],[],[2003],[3850],[],[],"[1001, 3340]",[],[],"[3851, 1028]",[],[],"[2055, 3067, 4642]",[2055],[],[],[2055],[],"[3114, 1026]",[],[],[],[],[],"[2055, 2055, 4641, 2055]",[]
participant_9_UNDO,[],[],[],[],[],[],[],[],[],[],[],[],[],[],[],[],[],[],[],[],[],[],[],[],[],[],[],[],[],[],[],[]
team0_KILLS,0,0,0,0,1,1,1,1,1,1,2,3,3,3,4,4,4,4,4,5,6,6,6,8,9,13,14,14,18,18,18,23
team0_CURRENTGOLD,2500,0,478,1842,2837,4416,4307,3331,5141,2180,4209,6289,1487,3017,2115,3122,3900,1271,3057,3882,2922,3189,2330,3745,4410,8758,11130,2282,5315,7962,2731,4470
team0_TOTALGOLD,2500,2500,2978,4352,6047,7636,8837,9861,11681,12780,14809,16899,18477,20007,21415,22922,24700,25546,27332,29306,31122,32889,34480,37420,39819,44168,46539,47756,51330,53974,55936,59720
team0_LEVEL,5,5,6,13,18,22,24,26,30,32,35,38,39,41,43,46,48,48,52,54,55,57,58,62,62,67,69,70,72,75,78,79
team0_SBIRES,0,0,12,38,69,106,135,155,194,218,253,288,309,342,360,383,420,431,472,494,511,549,580,606,619,650,687,700,715,724,759,774
team1_KILLS,0,0,0,0,1,1,1,1,1,2,2,2,4,4,7,8,8,12,13,14,15,15,15,17,17,17,17,17,17,17,17,19
team1_CURRENTGOLD,2500,0,432,2186,3905,3270,2640,4383,3880,4376,6059,2628,2968,4518,5627,3431,5087,7032,3373,5091,4884,3004,2167,3539,2146,1997,2100,3847,3910,4909,1960,2939
team1_TOTALGOLD,2500,2500,2932,4686,6415,7890,9135,10888,12245,14076,15759,17143,19243,20793,23702,25456,27112,30507,32298,34566,36503,38059,39722,41444,42989,43892,44883,46630,47545,48940,50268,52679
team1_LEVEL,5,5,6,13,18,21,24,29,30,34,35,37,40,43,46,48,50,53,56,58,58,61,62,63,65,66,66,68,69,69,70,73
team1_SBIRES,0,0,11,49,74,98,125,166,192,214,250,277,295,329,352,377,410,436,453,483,493,521,547,554,586,598,616,647,656,676,690,704
delta_KILLS,0,0,0,0,0,0,0,0,0,-1,0,1,-1,-1,-3,-4,-4,-8,-9,-9,-9,-9,-9,-9,-8,-4,-3,-3,1,1,1,4
delta_CURRENTGOLD,0,0,46,-344,-1068,1146,1667,-1052,1261,-2196,-1850,3661,-1481,-1501,-3512,-309,-1187,-5761,-316,-1209,-1962,185,163,206,2264,6761,9030,-1565,1405,3053,771,1531
delta_TOTALGOLD,0,0,46,-334,-368,-254,-298,-1027,-564,-1296,-950,-244,-766,-786,-2287,-2534,-2412,-4961,-4966,-5260,-5381,-5170,-5242,-4024,-3170,276,1656,1126,3785,5034,5668,7041
delta_LEVEL,0,0,0,0,0,1,0,-3,0,-2,0,1,-1,-2,-3,-2,-2,-5,-4,-4,-3,-4,-4,-1,-3,1,3,2,3,6,8,6
delta_SBIRES,0,0,1,-11,-5,8,10,-11,2,4,3,11,14,13,8,6,10,-5,19,11,18,28,33,52,33,52,71,53,59,48,69,70
