name,team0,team1
win,Win,Fail
firstBlood,False,True
firstTower,True,False
firstInhibitor,True,False
firstBaron,False,True
firstDragon,True,False
firstRiftHerald,True,False
towerKills,9,8
inhibitorKills,4,2
baronKills,1,2
dragonKills,4,1
riftHeraldKills,1,0
