name,frame_0,frame_1,frame_2,frame_3,frame_4,frame_5,frame_6,frame_7,frame_8,frame_9,frame_10,frame_11,frame_12,frame_13,frame_14,frame_15,frame_16,frame_17,frame_18,frame_19,frame_20
nameStamp,Tstart,Tearly,Tearly,Tearly,Tearly,Tearly,Tearly,Tearly,Tearly,Tearly,Tearly,Tearly,Tmid,Tmid,Tmid,Tmid,Tmid,Tmid,Tmid,Tmid,Tmid
timestamp,0,60027,120048,180055,240079,300097,360107,420118,480126,540141,600146,660165,720171,780202,840212,900221,960252,1020274,1080290,1140314,1200345
participant_0_GOLD,500,500,1182,1617,2368,4758,5504,6264,7339,8523,9898,10724,11880,14111,15874,16114,17575,18055,18687,19002,19555
participant_0_CURRENTGOLD,500,0,682,417,268,1118,214,174,1249,1300,2675,226,382,2613,676,66,1527,7,639,454,1007
participant_0_LEVEL,1,1,3,4,6,7,8,9,10,11,12,13,14,15,17,17,18,18,18,18,18
participant_0_MINIONSKILLED,0,0,0,4,10,11,12,13,13,19,19,20,22,35,35,35,44,44,45,45,45
participant_0_KILLS,0,0,0,0,0,0,1,2,2,3,4,4,7,9,9,13,13,13,14,14,15
participant_0_BUY,[],"[1036, 2003, 2003, 2003]",[],[],"[1052, 1052]","[3145, 1053, 1036]",[1001],"[3144, 2003]",[3146],[],"[3020, 1028, 1052]","[3916, 2003]","[1026, 3165]","[3191, 2003]",[3108],[3157],[],"[1058, 1058]",[3089],"[2420, 1052]",[2139]
participant_0_SOLD,[],[],[],[],[],"[1052, 1052, 1036]","[2003, 2003]","[2003, 1036, 1036]","[3144, 3145]",[2003],[1001],"[1028, 1052, 2003]","[3916, 1026]",[2003],[],"[3191, 3108]",[],[],"[1058, 1058]","[2420, 2421]",[2139]
participant_0_UNDO,[],[],[],[],[],"[[0, 1053]]",[],[],[],[],[],[],[],[],[],[],[],[],[],[],[]
participant_1_GOLD,500,500,1182,1424,2423,3164,3931,4461,5805,6373,7460,8074,9033,9609,10859,11451,12681,13006,14348,15096,16576
participant_1_CURRENTGOLD,500,0,682,324,623,1144,1911,116,1460,778,865,1479,88,664,564,1156,1086,536,653,251,1731
participant_1_LEVEL,1,1,3,4,6,7,8,9,9,10,11,12,13,14,15,15,16,16,17,18,18
participant_1_MINIONSKILLED,0,0,0,0,0,0,1,1,2,4,4,6,9,9,9,11,11,11,18,18,18
participant_1_KILLS,0,0,0,1,1,2,3,3,3,4,4,5,6,6,6,6,6,6,6,6,6
participant_1_BUY,[],"[4201, 2003]",[],[3010],[1001],[1026],[],[3029],[],"[3024, 3067, 1031]","[3109, 1029]",[3047],[1011],[1029],[3143],[1028],[],[3076],[],"[3075, 2138]",[2420]
participant_1_SOLD,[],[],[],[2003],[],[],[],"[3010, 1026]",[],[],"[3067, 1031]","[1001, 1029]",[],[],"[1029, 1011]",[],[],[1028],[],"[3076, 2138]","[4201, 2420]"
participant_1_UNDO,[],[],[],[],[],[],[],[],[],"[[0, 3024]]",[],[],[],[],[],[],[],[],[],[],[]
participant_2_GOLD,500,500,798,1135,1431,2193,3044,3848,4169,4962,6164,7026,8618,9649,10856,12275,13297,13642,15139,15462,16158
participant_2_CURRENTGOLD,500,0,298,635,61,293,844,698,269,1062,629,676,868,749,1056,1575,2597,442,839,337,533
participant_2_LEVEL,1,1,2,4,5,7,8,9,9,10,11,12,13,14,15,15,16,16,17,18,18
participant_2_MINIONSKILLED,0,0,0,0,0,0,4,6,6,10,12,21,22,22,22,23,29,29,42,42,42
participant_2_KILLS,0,0,0,0,1,2,2,2,4,5,5,5,5,5,5,5,5,5,5,7,11
participant_2_BUY,[],"[4101, 2003, 3340]",[],"[1042, 1042]","[1043, 1001]",[],[],"[4105, 3006, 1036]",[],[3144],[1043],[],"[3153, 3044, 1028]",[],[3071],[],[1038],[1037],[3031],"[2140, 2420]",[]
participant_2_SOLD,[],[],[],[],"[1042, 1042]",[2003],[],"[1043, 4101, 1001]",[],[1036],[],[],"[3144, 1043]",[],"[3340, 3044, 1028]",[],[],[3513],"[1038, 1037]",[2140],[]
participant_2_UNDO,[],[],[],[],[],[],[],[],[],[],[],[],[],[],[],[],[],[],[],[],[]
participant_3_GOLD,500,500,1056,1754,2215,3048,3811,4205,4872,5492,6458,7057,8108,8604,9929,10420,11692,12067,13215,13620,14061
participant_3_CURRENTGOLD,500,0,556,154,315,78,841,585,1252,272,338,437,488,684,409,500,1772,1427,2575,580,552
participant_3_LEVEL,1,1,3,4,6,7,8,8,10,10,11,12,13,14,15,15,16,17,18,18,18
participant_3_MINIONSKILLED,0,0,6,7,7,7,10,10,14,14,16,16,16,16,16,16,24,24,30,30,30
participant_3_KILLS,0,0,0,0,0,1,1,1,1,1,2,2,2,3,3,3,3,3,3,4,4
participant_3_BUY,[],"[4202, 2003, 3340]",[],[],"[3073, 1001]",[],[],[3008],[],[3057],[3158],[3123],[3035],[],[],"[3033, 1053, 3025]",[],[1053],[],[1038],[]
participant_3_SOLD,[],[],[],[],[2003],[],[],[3073],[],[],[1001],[],[4202],[],[],"[3008, 3035, 3123, 3057]",[],[],[],[],[]
participant_3_UNDO,[],[],[],[],[],[],[],[],[],[],[],[],[],[],[],"[[0, 1053]]",[],[],[],[],[]
participant_4_GOLD,500,500,1081,1609,1909,2572,3078,3596,4302,4791,5918,6259,7175,7968,9422,9869,10673,11477,12360,13128,13784
participant_4_CURRENTGOLD,500,0,581,1109,259,702,1208,176,882,321,848,389,35,828,2282,529,1333,1237,2121,1588,2244
participant_4_LEVEL,1,1,3,5,6,7,8,8,10,10,11,11,12,13,14,15,16,17,18,18,18
participant_4_MINIONSKILLED,0,0,6,11,12,12,16,16,23,23,23,24,29,30,32,32,37,45,53,53,53
participant_4_KILLS,0,0,0,0,1,8,8,8,9,11,13,14,15,19,20,20,21,22,22,22,23
participant_4_BUY,[],"[4101, 2003, 3340]",[],"[1036, 1036]",[3044],[],"[3057, 1042, 1042]","[3101, 1001]",[],"[3078, 3047]",[],"[3005, 4103, 3105]",[3076],[],"[3075, 3005]",[3052],[],[3053],[],[2140],[]
participant_4_SOLD,[],[],[],[2003],[1036],[],[],"[1042, 1042]",[],"[3101, 3057, 3044, 1001]",[],[4101],[],[],"[3076, 3105]",[1036],[],[3052],[],[2140],[]
participant_4_UNDO,[],[],[],[],[],[],[],[],[],[],[],"[[0, 3005]]",[],[],[],[],[],[],[],[],[]
participant_5_GOLD,500,500,1156,1706,2358,2712,3476,4074,4734,5405,6889,7682,8850,9688,10765,12642,13165,14051,14617,14960,15536
participant_5_CURRENTGOLD,500,0,656,1206,758,412,1176,1774,2434,355,689,1482,1150,1488,1465,3342,2065,2951,1567,425,1001
participant_5_LEVEL,1,1,3,4,6,6,7,9,9,10,11,11,12,13,14,16,16,18,18,18,18
participant_5_MINIONSKILLED,0,0,0,0,3,3,3,4,7,7,7,11,11,13,13,19,22,25,26,26,26
participant_5_KILLS,0,0,0,1,1,3,3,5,5,5,6,6,7,8,8,9,9,9,10,13,13
participant_5_BUY,[],"[2033, 3340]",[],[],"[3052, 1037, 1001, 1028, 1028]",[],"[3053, 1036]",[],"[3067, 1028]",[3044],[],"[3071, 1029, 1001]","[3024, 1029, 3067]",[3211],[3065],[],"[3111, 1053]",[3105],[3812],[],"[2140, 1038]"
participant_5_SOLD,[],[],[],[],[],[],"[2033, 3052, 1037, 1028]",[],[],"[1028, 1036]",[],"[3044, 3067]",[1029],[],"[3211, 3067]",[],[1001],[1029],"[3105, 1053]",[],[2140]
participant_5_UNDO,[],[],[],[],"[[0, 1001], [0, 1028]]",[],[],[],[],[],[],[],"[[0, 1029], [0, 3024]]",[],[],[],[],[],[],[],[]
participant_6_GOLD,500,500,1138,1682,2522,2839,3617,4339,4754,5239,6336,7047,8290,8802,10361,10875,11722,12483,13491,13941,14463
participant_6_CURRENTGOLD,500,0,638,82,22,339,1117,1839,229,713,511,1222,1215,927,386,450,597,608,216,16,198
participant_6_LEVEL,1,1,3,4,6,6,7,8,9,10,10,11,12,13,14,14,15,16,17,17,18
participant_6_MINIONSKILLED,0,0,0,0,1,1,2,4,7,7,7,8,8,10,10,10,12,14,22,23,23
participant_6_KILLS,0,0,0,1,1,2,2,2,2,3,3,3,3,3,4,4,4,4,5,5,6
participant_6_BUY,[],"[1036, 2003, 2003, 2003, 2031]",[],[],"[3134, 1036, 1036]","[3133, 1036]",[],"[3147, 1036, 1001]",[1036],[3134],[1037],[1028],[],"[3814, 3134, 1036, 3044]",[3067],"[3071, 1036]",[],[1037],[3035],[3036],[]
participant_6_SOLD,[],[],[],[],[1036],"[1036, 1036]",[],"[3134, 3133]",[],"[1036, 1036]",[],[2031],[],"[1037, 3134, 1028, 1036, 1036]",[],"[3044, 3067]",[],[],[1036],"[3035, 1037]",[]
participant_6_UNDO,[],"[[0, 2003], [0, 2003], [0, 2003]]",[],[],[],[],[],[],[],[],[],[],[],"[[0, 1036], [0, 3134]]",[],[],[],[],[],[],[]
participant_7_GOLD,500,500,1148,2229,3247,4072,4418,5485,5985,6357,7551,7995,9073,9993,11022,12969,13338,14331,15020,16572,17032
participant_7_CURRENTGOLD,500,0,648,1729,272,657,128,1195,495,367,1561,455,733,453,682,2629,1298,1491,580,2132,792
participant_7_LEVEL,1,1,3,5,6,7,8,8,9,10,11,11,12,13,14,15,15,17,18,18,18
participant_7_MINIONSKILLED,0,0,9,17,20,22,23,25,25,28,30,34,40,44,44,49,50,62,65,66,66
participant_7_KILLS,0,0,0,0,3,3,3,6,6,7,7,7,7,7,7,9,9,10,10,10,10
participant_7_BUY,[],"[4202, 2003, 3340]",[],"[1036, 1036]",[],"[3144, 1042, 1042, 1043]",[1001],[],"[3153, 3047, 3052]",[1028],[1037],[3053],[3067],"[1033, 1028]",[3211],[3065],"[1053, 1033]","[3105, 3812]",[],"[2138, 1036]",[]
participant_7_SOLD,[],[],[],[],[],"[1036, 1036, 1042, 1042]",[],[2003],"[3144, 1043, 1001]",[],[],"[4202, 3052, 1037, 1028]",[],[],"[1028, 1033]","[3211, 3067]",[],"[1033, 3105, 1053]",[],[2138],[]
participant_7_UNDO,[],[],[],[],[],[],[],[],[],[],[],[],[],[],[],[],[],[],[],[],[]
participant_8_GOLD,500,500,968,1503,2979,3294,3734,5917,6224,6764,7906,8793,9318,9749,10667,12198,12703,14369,15031,15574,15814
participant_8_CURRENTGOLD,500,0,468,303,1779,194,334,2517,124,264,531,873,598,179,747,1478,633,49,711,404,644
participant_8_LEVEL,1,1,3,4,7,7,8,9,10,10,11,12,12,13,13,15,15,17,18,18,18
participant_8_MINIONSKILLED,0,0,3,8,18,18,21,26,26,27,35,40,40,43,43,48,53,60,68,68,68
participant_8_KILLS,0,0,0,0,0,0,0,0,0,0,1,1,1,2,2,3,3,3,3,3,4
participant_8_BUY,[],"[4202, 2003, 4101, 2003, 3340]",[],[],[3134],"[1036, 1036]",[],[],[],"[3147, 3134, 3009, 1036, 1036, 1036]","[3133, 3134]",[],"[3142, 1033, 1036]",[3155],"[3134, 3364]",[],"[3179, 2140]",[],[3156],"[2140, 1038]",[]
participant_8_SOLD,[],[],[],[],[],[],[],[2003],[],"[3134, 1036, 1036, 2422]","[1036, 1036, 1036]",[],"[3133, 3134]","[1036, 1033]",[3340],[],"[3134, 2140]",[],[3155],"[2140, 4101]",[]
participant_8_UNDO,[],"[[0, 2003], [0, 4202]]",[],[],[],[],[],[],[],"[[0, 3134]]",[],[],[],[],"[[3364, 0]]",[],[],[],[],[],[]
participant_9_GOLD,500,500,1135,1945,2639,3154,3811,4331,4691,5530,6375,6839,7747,8253,9392,9901,10249,10924,11780,12270,13327
participant_9_CURRENTGOLD,500,0,635,1445,689,234,891,61,71,510,480,604,1512,593,932,141,489,289,45,60,1117
participant_9_LEVEL,1,1,3,6,7,7,8,9,9,10,11,11,12,13,13,14,15,16,17,17,18
participant_9_MINIONSKILLED,0,0,8,14,19,19,28,29,29,35,35,36,42,42,42,42,42,48,52,52,52
participant_9_KILLS,0,0,0,0,1,1,1,1,1,1,1,1,3,3,4,4,5,6,6,6,7
participant_9_BUY,[],"[4101, 2003, 3340]",[],[3047],[3751],[],[],[],"[4103, 1028, 1036]",[],"[3044, 3067]",[],"[3071, 1029]",[3105],"[1037, 3005, 1029, 1029]","[1028, 1033]","[3105, 1036]",[3133],[3812],"[2031, 2138]",[1028]
participant_9_SOLD,[],[],[],[2003],[],[],[],[],"[3751, 4101]",[],"[1028, 1036]",[],"[3044, 3067]",[1029],"[3105, 1037]",[],"[1033, 1029]",[1036],"[3105, 3133]",[2138],[2031]
participant_9_UNDO,[],[],[],[],[],[],[],[],[],[],[],[],[],[],"[[0, 1029]]","[[0, 1028]]",[],[],[],[],[]
team0_KILLS,0,0,0,1,3,13,15,16,19,24,28,30,35,42,43,47,48,49,50,53,59
team0_CURRENTGOLD,2500,0,2799,2639,1526,3335,5018,1749,5112,3733,5355,3207,1861,5538,4987,3826,8315,3649,6827,3210,6067
team0_TOTALGOLD,2500,2500,5299,7539,10346,15735,19368,22374,26487,30141,35898,39140,44814,49941,56940,60129,65918,68247,73749,76308,80134
team0_LEVEL,5,5,14,21,29,35,40,43,48,51,56,60,65,70,76,77,82,84,88,90,90
team0_SBIRES,0,0,12,22,29,30,43,46,58,70,74,87,98,112,114,117,145,153,188,188,188
team1_KILLS,0,0,0,2,6,9,9,14,14,16,18,18,21,23,25,29,30,32,34,37,40
team1_CURRENTGOLD,2500,0,3045,4765,3520,1836,3646,7386,3353,2209,3772,4636,5208,3640,4212,8040,5082,5388,3119,3037,3752
team1_TOTALGOLD,2500,2500,5545,9065,13745,16071,19056,24146,26388,29295,35057,38356,43278,46485,52207,58585,61177,66158,69939,73317,76172
team1_LEVEL,5,5,15,23,32,33,38,43,46,50,54,56,60,65,68,74,76,84,88,88,90
team1_SBIRES,0,0,20,39,61,63,77,88,94,104,114,129,141,152,152,168,179,209,233,235,235
delta_KILLS,0,0,0,-1,-3,4,6,2,5,8,10,12,14,19,18,18,18,17,16,16,19
delta_CURRENTGOLD,0,0,-246,-2126,-1994,1499,1372,-5637,1759,1524,1583,-1429,-3347,1898,775,-4214,3233,-1739,3708,173,2315
delta_TOTALGOLD,0,0,-246,-1526,-3399,-336,312,-1772,99,846,841,784,1536,3456,4733,1544,4741,2089,3810,2991,3962
delta_LEVEL,0,0,-1,-2,-3,2,2,0,2,1,2,4,5,5,8,3,6,0,0,2,0
delta_SBIRES,0,0,-8,-17,-32,-33,-34,-42,-36,-34,-40,-42,-43,-40,-38,-51,-34,-56,-45,-47,-47
