name,frame_0,frame_1,frame_2,frame_3,frame_4,frame_5,frame_6,frame_7,frame_8,frame_9,frame_10,frame_11,frame_12,frame_13,frame_14,frame_15,frame_16,frame_17,frame_18,frame_19,frame_20,frame_21,frame_22,frame_23,frame_24,frame_25
nameStamp,Tstart,Tearly,Tearly,Tearly,Tearly,Tearly,Tmid,Tmid,Tmid,Tmid,Tmid,Tmid,Tmid,Tmid,Tmid,Tmid,Tmid,Tmid,Tmid,Tmid,Tmid,Tmid,Tmid,Tmid,Tmid,Tmid
timestamp,0,60013,120037,180057,240072,300103,360127,420144,480156,540172,600196,660221,720246,780274,840299,900302,960324,1020331,1080349,1140375,1200393,1260421,1320436,1380455,1440473,1500473
participant_0_GOLD,1400,1400,1805,2523,2987,4169,4824,5560,6166,6587,7538,8158,8565,9132,9872,10340,10838,11495,12164,12593,13357,13931,14460,14954,15729,16116
participant_0_CURRENTGOLD,1400,50,455,473,537,519,374,1110,316,237,313,608,215,782,672,390,248,905,674,228,667,41,570,614,939,1266
participant_0_LEVEL,1,3,4,5,6,7,8,9,9,10,11,11,12,12,13,14,14,15,16,16,17,18,18,18,18,18
participant_0_MINIONSKILLED,0,0,0,4,7,10,11,11,12,14,18,18,18,20,25,27,27,32,39,41,43,44,47,51,53,53
participant_0_KILLS,0,0,0,1,1,4,5,6,6,6,7,7,7,7,8,8,8,9,9,9,10,11,11,11,11,11
participant_0_BUY,[],"[3134, 1053, 2031, 1001]",[],"[1036, 1036]",[3134],[6692],[3111],[],"[3133, 1029]",[1031],[1037],[6333],"[1033, 1036]",[],"[3155, 1036]",[3133],[3156],[],[1011],[1037],[3077],[3748],[],[1033],[1057],[]
participant_0_SOLD,[],[],[],[],"[1036, 1036]","[3134, 1053]",[1001],[],[],[1029],[],"[1031, 3133, 1037]",[],[],"[1036, 1033]",[1036],"[2031, 3155, 3133]",[],[],[],[1037],"[3077, 1011]",[],[],[1033],[]
participant_0_UNDO,[],"[[0, 3134]]",[],[],[],[],[],[],[],[],[],[],[],[],[],[],[],[],[],[],[],[],[],[],[],[]
participant_1_GOLD,1400,1400,1858,2384,2821,3430,3928,4501,5039,5527,6102,6779,7455,8226,8754,9222,9678,10212,11383,11785,12811,13486,14137,14581,15693,16086
participant_1_CURRENTGOLD,1400,200,658,1184,156,765,63,636,1174,1662,2237,2914,3590,4361,4889,5357,373,907,2078,1230,1006,1681,182,626,1738,1336
participant_1_LEVEL,1,3,4,5,6,7,8,9,10,11,12,12,13,14,15,16,16,17,18,18,18,18,18,18,18,18
participant_1_MINIONSKILLED,0,0,0,0,0,0,0,0,1,3,4,5,5,8,8,8,8,8,10,10,10,11,11,11,15,15
participant_1_KILLS,0,0,0,0,0,0,0,0,0,0,0,0,1,2,2,2,2,2,4,4,5,5,6,6,7,7
participant_1_BUY,[],"[4642, 2031]",[],[],"[3802, 3108]",[],[6653],[],[],[],[],[],[],[],[],[],"[4637, 3135]",[],[],[1058],[1058],[],"[3089, 1026]",[],[],[]
participant_1_SOLD,[],[],[],[],[4642],[],"[3802, 3108]",[],[],[],[],[],[],[],[],[],[2031],[],[],[],[],[],"[1058, 1058]",[],[],[]
participant_1_UNDO,[],[],[],[],[],[],[],[],[],[],[],[],[],[],[],[],[],[],[],[],[],[],[],[],[],[]
participant_2_GOLD,1400,1400,1866,2548,3162,3636,4310,4726,5695,6168,7182,7768,8545,9381,10032,10675,11173,11744,12698,13393,14031,15037,15794,16154,17453,17846
participant_2_CURRENTGOLD,1400,0,466,1148,1762,2236,2910,376,1345,1818,2832,3418,1195,781,1432,2075,1323,1894,2848,3543,381,1387,1244,1604,2903,3296
participant_2_LEVEL,1,3,4,5,6,7,8,9,10,10,12,12,13,14,14,15,16,16,17,18,18,18,18,18,18,18
participant_2_MINIONSKILLED,0,0,1,2,3,3,5,6,7,8,8,8,8,9,11,12,15,17,21,29,36,50,51,51,55,55
participant_2_KILLS,0,0,0,1,2,2,3,3,5,5,8,8,10,12,13,14,14,14,16,17,17,18,19,19,22,22
participant_2_BUY,[],"[3145, 1001, 2003]",[],[],[],[],[],"[4636, 3020]",[],[],[],[],[3100],[1058],[],[],[1058],[],[],[],"[3089, 4630, 1026, 3135]",[],[3108],[],[],[]
participant_2_SOLD,[],[2052],[2003],[],[],[],[],"[3145, 1001]",[],[],[],[],[],[],[2052],[],[],[],[],[],"[1058, 1058, 4630, 1026]",[],[],[],[],[]
participant_2_UNDO,[],[],[],[],[],[],[],[],[],[],[],[],[],[],[],[],[],[],[],[],[],[],[],[],[],[]
participant_3_GOLD,1400,1400,1883,2459,2901,3981,4525,5125,6012,6512,7400,8617,9227,9874,10324,10872,11994,12708,13328,13808,14858,15333,15964,17420,18554,18947
participant_3_CURRENTGOLD,1400,0,483,1059,101,1181,790,575,1462,312,1200,2417,3027,1024,1474,872,1094,208,453,468,1018,1493,524,1980,3114,3447
participant_3_LEVEL,1,3,4,5,6,7,8,8,9,10,11,12,13,14,14,15,15,16,17,18,18,18,18,18,18,18
participant_3_MINIONSKILLED,0,0,2,6,6,9,14,14,18,22,30,36,42,48,52,58,63,70,71,74,74,79,81,104,115,115
participant_3_KILLS,0,0,0,0,0,1,1,2,3,3,4,7,7,7,7,7,9,10,11,11,13,13,13,15,16,16
participant_3_BUY,[],"[4642, 1001, 2003]",[],[],"[1026, 1028, 2031]",[],"[1011, 1052]",[3116],[],[4005],[],[],[],"[3111, 1043, 1026]",[],[3115],[3108],[3157],[1052],[3108],[2139],[],[3102],[],[],[]
participant_3_SOLD,[],[2052],[],[2003],[],[],[1028],"[1026, 1011, 1052]",[],[4642],[],[],[],"[2052, 1001]",[],"[1043, 1026]",[],[3108],[2031],[1052],[2139],[],[3108],[],[],[]
participant_3_UNDO,[],[],[],[],[],[],[],[],[],[],[],[],[],[],[],[],[],[],[],[],[],[],[],[],[],[]
participant_4_GOLD,1400,1400,2067,2778,3274,3792,4405,5081,5697,6165,6828,7547,8301,9211,9645,10166,11072,11432,11990,12383,12933,13327,14226,15069,15798,16241
participant_4_CURRENTGOLD,1400,0,667,1378,1874,242,855,281,597,265,928,397,716,311,745,1266,922,1282,490,883,183,577,1476,434,663,441
participant_4_LEVEL,1,3,4,5,6,7,8,9,9,10,11,12,13,14,14,15,15,15,16,16,17,17,18,18,18,18
participant_4_MINIONSKILLED,0,0,4,6,10,14,21,24,27,28,33,38,40,48,50,54,54,54,57,57,58,59,60,63,69,69
participant_4_KILLS,0,0,1,2,2,2,2,3,4,4,4,4,5,6,6,6,7,7,7,7,7,7,9,10,10,10
participant_4_BUY,[],"[3112, 3070, 2003]",[],[],[],"[3802, 1026]",[],[6655],[1001],[3020],[],[1058],[1052],[4628],[],[],[1058],[],[3003],[],[1058],[],[],[3089],[2139],[]
participant_4_SOLD,[],[],[2003],[],[],[],[],"[3802, 1026]",[],[1001],[],[],[],"[1058, 1052]",[],[],[],[],"[3070, 1058, 3003]",[],[],[],[],"[3112, 1058]",[2139],[]
participant_4_UNDO,[],[],[],[],[],[],[],[],[],[],[],[],[],[],[],[],[],[],[],[],[],[],[],[],[],[]
participant_5_GOLD,1400,1400,1851,2315,2869,3871,4488,5260,5870,6536,6896,7370,7786,8369,8934,9549,10346,10706,11066,11652,12192,12642,13324,13714,14249,14336
participant_5_CURRENTGOLD,1400,130,581,315,869,221,838,360,170,836,346,420,836,234,799,1414,2211,371,731,502,1042,242,924,1314,1849,1936
participant_5_LEVEL,1,3,4,5,6,7,7,9,9,10,10,11,11,12,13,14,15,15,16,17,17,17,18,18,18,18
participant_5_MINIONSKILLED,0,0,1,2,6,6,6,7,9,13,13,17,17,19,23,28,30,30,30,36,36,36,38,38,42,42
participant_5_KILLS,0,0,0,0,0,1,2,3,4,5,5,5,5,5,5,5,5,5,5,5,5,5,6,6,6,6
participant_5_BUY,[],"[3070, 1052, 1052]",[],"[3802, 1001]",[],"[1026, 3020]",[],[6655],[3916],[],[1026],[1028],[],"[3165, 1029, 1052]",[],[],[],"[3157, 1052]",[],[4630],[],[3135],[],[],[],[]
participant_5_SOLD,[],[],[],"[1052, 1052]",[],[1001],[],"[2052, 3802, 1026]",[],[],[],[],[],"[1026, 3916, 1028]",[],[],[],"[1052, 1029]",[],[1052],[],[4630],[],[],[],[]
participant_5_UNDO,[],[],[],[],[],[],[],[],[],[],[],[],[],[],[],[],[],[],[],[],[],[],[],[],[],[]
participant_6_GOLD,1400,1443,2000,2740,3538,4186,4895,5451,6103,6514,7088,7601,8503,8892,9285,10495,11551,12121,12930,13904,14756,15204,15600,16386,17015,17102
participant_6_CURRENTGOLD,1400,43,600,1340,2138,886,1595,51,703,364,938,701,1603,692,485,1695,1751,521,230,1204,2056,1204,1600,286,415,502
participant_6_LEVEL,1,3,4,5,6,7,8,9,10,10,11,12,13,13,14,15,15,16,17,18,18,18,18,18,18,18
participant_6_MINIONSKILLED,0,0,6,12,17,20,28,30,38,39,39,43,51,52,53,61,67,73,75,81,81,83,83,87,89,89
participant_6_KILLS,0,0,0,1,2,2,2,2,2,2,3,3,4,4,4,6,7,7,9,11,12,12,12,13,14,14
participant_6_BUY,[],"[3070, 1053, 2003, 2003]",[],[],[],"[6670, 1018]",[],"[6673, 3006, 1036, 1036]",[],"[3133, 1027]",[],[3004],[],[3140],[1018],[],[3139],"[3133, 3057]",[3508],[],[],[1038],[],[3031],[2140],[]
participant_6_SOLD,[],[2052],"[2003, 2003]","[2010, 2052]",[],[2010],[],"[2010, 6670, 1018, 1053, 2422]",[],"[1036, 1036]",[2052],"[3070, 3133, 1027, 3004]",[],[],[],[],"[3140, 1018]",[],"[3133, 3057]",[],[],[],[],[1038],[2140],[]
participant_6_UNDO,[],[],[],[],[],[],[],[],[],[],[],[],[],[],[],[],[],[],[],[],[],[],[],[],[],[]
participant_7_GOLD,1400,1400,1873,2316,2928,3592,4224,5277,5637,6219,6736,7242,7930,9016,9745,10362,11022,11806,12274,13079,13846,14261,15387,15827,16291,16378
participant_7_CURRENTGOLD,1400,0,473,566,1178,367,999,2052,37,619,1136,342,1030,1016,1745,2362,382,1166,234,1039,1806,221,1347,1252,216,-422
participant_7_LEVEL,1,3,4,5,6,7,8,9,9,10,11,11,12,13,14,15,16,16,17,18,18,18,18,18,18,18
participant_7_MINIONSKILLED,0,0,3,4,7,11,16,25,25,31,34,37,44,46,58,59,59,63,64,72,75,75,92,96,96,96
participant_7_KILLS,0,0,0,0,0,0,0,2,2,2,2,2,2,3,3,3,3,4,4,4,4,4,5,5,5,5
participant_7_BUY,[],"[3184, 1001, 2031]",[],[1036],[],"[6670, 1037, 1018]",[],[],"[6672, 3006]",[],[],[3155],[],[3133],[],[],"[3156, 3086, 3123]",[],"[3033, 2015]",[],[],[3094],[],[3086],[3046],[]
participant_7_SOLD,[],[],[],[],[],[1036],[],[],"[1036, 1018, 1037, 1001]",[],[],[],[],[],[],[],"[3155, 3133, 2031]",[],"[3123, 3086]",[],[],[2015],[],[3184],[3086],[]
participant_7_UNDO,[],[],[],[],[],"[[0, 6670]]",[],[],[],[],[],[],[],[],[],[],[],[],[],[],[],[],[],[],[],[]
participant_8_GOLD,1400,1433,2096,2687,3526,4372,5011,6055,6455,7531,7960,8630,9090,10011,10701,11688,12785,13455,14019,15183,16256,16958,17996,18386,18879,18966
participant_8_CURRENTGOLD,1400,48,711,1302,2141,172,811,1855,305,1381,110,780,640,311,1001,1988,100,770,519,1683,1506,373,1411,1301,1794,-114
participant_8_LEVEL,1,3,4,5,6,7,8,9,10,11,11,12,13,13,14,15,16,17,17,18,18,18,18,18,18,18
participant_8_MINIONSKILLED,0,0,3,7,9,9,9,9,11,14,14,16,16,16,19,19,21,28,31,33,33,33,33,33,36,36
participant_8_KILLS,0,0,1,1,3,4,5,6,6,8,8,9,9,10,11,13,14,14,14,16,17,18,20,20,20,20
participant_8_BUY,[],"[3112, 1052]",[],[],[],"[3802, 1026, 1001, 3020]",[],[],"[6655, 3057]",[],"[1026, 3113]",[],[3100],[1058],[],[],"[3089, 1052]",[],[4630],[],[3135],[3157],[],[2139],[],[]
participant_8_SOLD,[],[],[],[],[],"[1052, 1001]",[],[],"[3802, 1026]",[],[],[],"[3057, 3113, 1026]",[],[],[],[1058],[],[1052],[],"[4630, 3112, 3112]",[3112],[],[2139],[],[]
participant_8_UNDO,[],[],[],[],[],[],[],[],[],[],[],[],[],[],[],[],[],[],[],[],"[[3112, 0], [3112, 0]]",[],[],[],[],[]
participant_9_GOLD,1400,1680,2173,2622,3174,3805,4541,5113,5602,6137,6515,6908,8239,8957,9353,10086,10873,11789,12149,12563,13726,14276,14972,15486,15864,15951
participant_9_CURRENTGOLD,1400,280,773,72,624,1255,741,178,667,1202,315,108,1439,507,503,1236,73,289,214,1063,226,376,572,1086,1464,1551
participant_9_LEVEL,1,3,4,5,6,7,8,8,9,10,11,11,12,13,13,14,15,16,16,16,18,18,18,18,18,18
participant_9_MINIONSKILLED,0,0,1,2,2,3,4,4,6,9,9,10,11,11,11,11,12,12,12,12,13,13,15,17,17,17
participant_9_KILLS,0,1,1,1,1,1,2,3,3,3,3,3,5,6,6,7,7,8,8,8,10,11,12,12,12,12
participant_9_BUY,[],"[3802, 2003, 2003]",[],"[1026, 1001, 1026]",[],[],[6655],"[3057, 1052]",[1052],[],"[1026, 3113]",[3100],[],"[3211, 1028]",[3067],[],"[3065, 3020, 1042]",[1043],[1052],[],[3115],[1028],[1011],[],[],[]
participant_9_SOLD,[],[],"[2003, 2003]",[],[],[],"[3802, 1026]",[],[],[],[1052],"[3057, 3113, 1026]",[],[],[1028],"[2052, 2052]","[3211, 3067, 1001]",[1042],[],[],[1043],[],[1028],[],[],[]
participant_9_UNDO,[],[],[],"[[0, 1026]]",[],[],[],[],"[[0, 1052]]",[],[],[],[],[],[],[],[],[],[],"[[0, 1052]]",[],[],[],[],[],[]
team0_KILLS,0,0,1,4,5,9,11,14,18,18,23,26,30,34,36,37,40,42,47,48,52,54,58,61,66,66
team0_CURRENTGOLD,7000,250,2729,5242,4430,4943,4992,2978,4894,4294,7510,9754,8743,7259,9212,9960,3960,5196,6543,6352,3255,5179,3996,5258,9357,9786
team0_TOTALGOLD,7000,7000,9479,12692,15145,19008,21992,24993,28609,30959,35050,38869,42093,45824,48627,51275,54755,57591,61563,63962,67990,71114,74581,78178,83227,85236
team0_LEVEL,5,15,20,25,30,35,40,44,47,51,57,59,64,68,70,75,76,79,84,86,88,89,90,90,90,90
team0_SBIRES,0,0,7,18,26,36,51,55,65,75,93,105,113,133,146,159,167,181,198,211,221,243,250,280,307,307
team1_KILLS,0,1,2,3,6,8,11,16,17,20,21,22,25,28,29,34,36,38,40,44,48,50,55,56,57,57
team1_CURRENTGOLD,7000,501,3138,3595,6950,2901,4984,4496,1882,4402,2845,2351,5548,2760,4533,8695,4517,3117,1928,5491,6636,2416,5854,5239,5738,3453
team1_TOTALGOLD,7000,7356,9993,12680,16035,19826,23159,27156,29667,32937,35195,37751,41548,45245,48018,52180,56577,59877,62438,66381,70776,73341,77279,79799,82298,82733
team1_LEVEL,5,15,20,25,30,35,39,44,47,51,54,57,61,64,68,73,77,80,83,87,89,89,90,90,90,90
team1_SBIRES,0,0,14,27,41,49,63,75,89,106,109,123,139,144,164,178,189,206,212,234,238,240,261,271,280,280
delta_KILLS,0,-1,-1,1,-1,1,0,-2,1,-2,2,4,5,6,7,3,4,4,7,4,4,4,3,5,9,9
delta_CURRENTGOLD,0,-251,-409,1647,-2520,2042,8,-1518,3012,-108,4665,7403,3195,4499,4679,1265,-557,2079,4615,861,-3381,2763,-1858,19,3619,6333
delta_TOTALGOLD,0,-356,-514,12,-890,-818,-1167,-2163,-1058,-1978,-145,1118,545,579,609,-905,-1822,-2286,-875,-2419,-2786,-2227,-2698,-1621,929,2503
delta_LEVEL,0,0,0,0,0,0,1,0,0,0,3,2,3,4,2,2,-1,-1,1,-1,-1,0,0,0,0,0
delta_SBIRES,0,0,-7,-9,-15,-13,-12,-20,-24,-31,-16,-18,-26,-11,-18,-19,-22,-25,-14,-23,-17,3,-11,9,27,27
