name,frame_0,frame_1,frame_2,frame_3,frame_4,frame_5,frame_6,frame_7,frame_8,frame_9,frame_10,frame_11,frame_12,frame_13,frame_14,frame_15,frame_16,frame_17,frame_18,frame_19,frame_20,frame_21,frame_22,frame_23
nameStamp,Tstart,Tearly,Tearly,Tearly,Tearly,Tearly,Tearly,Tearly,Tearly,Tearly,Tearly,Tearly,Tearly,Tearly,Tearly,Tearly,Tearly,Tmid,Tmid,Tmid,Tmid,Tmid,Tmid,Tmid
timestamp,0,60018,120049,180066,240083,300100,360120,420139,480158,540189,600213,660227,720245,780270,840288,900313,960334,1020363,1080379,1140408,1200432,1260446,1320467,1380467
participant_0_GOLD,500,500,563,818,1197,1515,1900,2462,2779,3084,4052,4439,4652,5083,5692,6319,6542,7874,8921,9317,10199,11215,11486,12468
participant_0_CURRENTGOLD,500,0,63,318,697,1015,1400,112,429,734,1702,2089,52,483,242,869,257,1589,2636,427,1309,2325,2597,3418
participant_0_LEVEL,1,1,1,3,4,5,6,7,7,8,9,10,10,11,11,12,12,13,14,14,15,16,16,16
participant_0_MINIONSKILLED,0,0,2,10,22,30,42,50,58,68,78,90,95,109,116,127,127,149,162,168,187,200,206,207
participant_0_KILLS,0,0,0,0,0,0,0,1,1,1,1,1,1,2,2,2,2,2,3,3,3,3,3,3
participant_0_BUY,[],"[1035, 2031, 3340]",[],[],"[1036, 2055, 2055]",[],[],[],"[3134, 1036, 1001, 2055, 2055]",[],[],"[1053, 2055]",[],[],[6692],[1029],[],[],[],[],"[3047, 3134, 1037, 2055, 2055]",[],[],[]
participant_0_SOLD,[],[],[],[],[],[],[2055],[2055],"[1036, 2055]",[1035],[],[],[],[],"[3134, 1053]",[2055],[],[],[2055],[],"[1001, 1029, 2031]",[],[2055],[]
participant_0_UNDO,[],[],[],[],[],[],[],[],"[[0, 1036]]",[],[],[],[],[],[],[],[],[],[],[],[],[],[],[]
participant_1_GOLD,500,500,637,963,1086,1498,1706,2298,2520,2918,3145,3368,3765,4744,5102,5309,5843,6180,6763,7160,7283,7675,8108,8698
participant_1_CURRENTGOLD,500,0,137,463,86,498,706,1298,320,718,945,193,590,1569,727,634,1168,1505,2088,2485,43,435,868,1398
participant_1_LEVEL,1,1,2,3,3,4,4,4,5,5,6,6,7,8,8,8,9,10,10,11,11,11,11,12
participant_1_MINIONSKILLED,0,0,0,0,0,0,0,0,0,0,6,6,6,6,6,6,6,9,9,9,9,9,9,13
participant_1_KILLS,0,0,0,0,0,0,0,0,0,0,0,0,0,0,0,0,0,0,1,1,2,2,2,3
participant_1_BUY,[],"[2003, 3070, 3340, 2003]",[],[],"[1036, 2055]",[],[],"[1036, 2055]",[3133],[],[1027],[],[],"[3004, 1042, 2055]",[1036],[2055],[],[],[],"[3020, 3051, 1028, 2055]",[],[3067],[],[]
participant_1_SOLD,[],[],[],[],"[2003, 2003]","[2055, 2010]",[2010],[2010],"[1036, 1036]",[],[],[2055],[],"[3070, 3133, 1027]",[],[],[],[],[],"[2055, 2422, 1042, 1036]",[],[1028],[],[]
participant_1_UNDO,[],[],[],[],[],[],[],[],[],[],[],[],[],[],[],[],[],[],[],"[[0, 2055]]",[],[],[],[]
participant_2_GOLD,500,500,577,874,1039,1280,1487,1679,1974,2378,2535,2868,3187,3487,3743,4040,4681,4912,5430,5615,6199,6392,6675,7243
participant_2_CURRENTGOLD,500,0,77,374,114,345,552,319,214,598,405,728,1037,212,118,340,981,1212,1730,265,849,642,925,1543
participant_2_LEVEL,1,1,1,3,3,4,5,5,6,7,7,8,8,9,9,10,10,10,10,11,11,11,11,12
participant_2_MINIONSKILLED,0,0,3,13,16,20,25,29,35,45,47,56,64,66,73,79,89,92,92,96,106,107,109,113
participant_2_KILLS,0,0,0,0,0,0,0,0,0,0,0,0,1,1,1,2,2,2,3,3,3,3,3,4
participant_2_BUY,[],"[1055, 2003, 3340]",[],[],"[1036, 2055]",[1036],[],[],[6670],[],[],[],[],[],"[3006, 1037, 1018]",[],"[6672, 1018]",[],[],[3133],[],[],[],[]
participant_2_SOLD,[],[],[],[2003],[],[],[],[],"[1036, 1036]",[2055],[],[],[],[],[],[],"[6670, 1018, 1037]",[],[],[],[],[],[],[]
participant_2_UNDO,[],[],[],[],[],[],[],[],[],[],[],[],[],[],[],[],[],[],[],[],[],[],[],[]
participant_3_GOLD,500,500,598,839,1064,1361,1631,1828,2196,2399,2710,3219,3828,4441,4668,5248,5975,6235,6937,7150,7535,7931,8431,8796
participant_3_CURRENTGOLD,500,0,98,339,139,86,356,553,321,524,835,1344,1953,2566,218,798,300,560,1262,375,760,1156,1656,2021
participant_3_LEVEL,1,1,1,2,3,3,4,5,5,5,6,7,8,8,9,9,9,10,10,11,11,12,12,12
participant_3_MINIONSKILLED,0,0,4,11,14,22,30,30,31,36,47,57,64,75,81,91,97,103,109,114,121,130,134,135
participant_3_KILLS,0,0,0,0,0,0,0,0,2,2,2,3,3,4,4,4,4,4,4,4,4,4,4,4
participant_3_BUY,[],"[3850, 2003, 2003, 3340]",[],[],[],"[1001, 1027]",[],[],"[3802, 3158, 2055]",[],[],[],[],[],"[6655, 2003, 3364]",[],[],[],[],"[1058, 2003, 2003, 2003]",[],[],[],[]
participant_3_SOLD,[],[],[],[],"[2010, 2003]","[2010, 2003]",[],[2010],"[1027, 1001]",[],"[3850, 2055]",[],[],[],"[3802, 3340, 2003]",[3851],[],[],[],[],"[2003, 2003]",[2003],[],[]
participant_3_UNDO,[],[],[],[],[],[],[],[],[],[],[],[],[],[],[],[],[],[],[],[],[],[],[],[]
participant_4_GOLD,500,500,523,758,947,1181,1316,1751,2825,3000,3239,3819,4322,4922,5063,5373,5613,5901,6287,6427,6642,6927,7213,7521
participant_4_CURRENTGOLD,500,0,23,258,447,31,166,601,50,225,464,1044,1547,2147,138,448,688,976,1362,102,318,602,888,1196
participant_4_LEVEL,1,1,1,2,3,3,4,5,5,6,6,7,7,8,8,9,9,9,10,10,10,11,11,12
participant_4_MINIONSKILLED,0,0,0,1,2,2,2,10,10,10,10,10,13,13,13,13,13,15,15,15,15,19,20,20
participant_4_KILLS,0,0,0,0,0,0,0,1,1,1,2,2,2,2,3,4,4,5,6,6,7,9,9,12
participant_4_BUY,[],"[1056, 2003, 2003, 3340]",[],[],[],[],[],"[1043, 1026]",[],[],[],[],"[3115, 3006]",[],[1026],[],"[1028, 1052]",[],[],"[4633, 1058]",[],[],[],[]
participant_4_SOLD,[],[],[],[],[],[],[2003],[2003],[],[],[],[],"[1043, 1026]",[],[],[],[],[],[],"[1028, 1052, 1026, 1056]",[],[],[],[]
participant_4_UNDO,[],[],[],[],[],[],[],[],[],[],[],[],[],[],[],[],[],[],[],[],[],[],[],[]
participant_5_GOLD,500,500,584,874,1158,1483,1753,2273,2611,2832,2954,3229,3667,3901,4188,4551,4789,4911,5179,5791,5969,6323,6598,6668
participant_5_CURRENTGOLD,500,500,84,374,658,983,1253,523,61,282,104,379,817,1051,138,501,739,221,489,1101,546,900,1175,-155
participant_5_LEVEL,1,1,1,3,4,5,6,7,7,8,8,8,9,9,10,11,11,11,11,12,12,12,12,12
participant_5_MINIONSKILLED,0,0,3,13,22,31,39,45,55,60,60,65,80,86,87,92,95,95,99,116,119,128,132,132
participant_5_KILLS,0,0,0,0,0,0,0,1,1,1,1,1,1,1,1,1,1,1,1,1,1,1,1,1
participant_5_BUY,[],[],"[1055, 2003, 3340]",[],[],[],[],"[3047, 2031]","[3070, 1028]",[],[1042],[],[],[],"[3051, 3067]",[],[],[3057],[],[],[3078],[],[],[3133]
participant_5_SOLD,[],[],[],[],[],[],[],[2003],[],[],[],[],[],[3340],"[1042, 1028]",[],[],"[3513, 1055, 2031, 2031]",[],[],"[3057, 3051, 3067]",[],[],[]
participant_5_UNDO,[],[],[],[],[],[],[],[],[],[],[],[],[],[],[],[],[],"[[2031, 0], [1055, 0]]",[],[],[],[],[],[]
participant_6_GOLD,500,500,726,948,1788,2473,2680,2830,3555,3905,4091,4403,4636,4868,5674,6201,6529,6752,6874,7266,7519,7641,7809,7900
participant_6_CURRENTGOLD,500,0,226,448,1288,1973,380,530,380,730,916,153,386,618,1424,726,1054,1277,299,691,544,666,834,925
participant_6_LEVEL,1,1,2,3,3,4,4,5,6,6,7,7,7,8,9,9,10,10,10,10,11,11,11,11
participant_6_MINIONSKILLED,0,0,0,0,0,1,1,3,3,4,5,5,6,7,16,17,24,24,24,25,27,27,27,28
participant_6_KILLS,0,0,0,0,0,0,0,0,1,1,1,1,1,1,1,1,1,1,1,1,1,1,1,1
participant_6_BUY,[],"[1055, 2003, 3340]",[],[],"[1042, 1036]",[2003],[],[],"[6670, 1001, 2003, 2003]",[],[],[],"[3006, 1036]",[],[],[1053],[],[],[6673],[],[1037],[],[1036],[]
participant_6_SOLD,[],[],[],[2003],[],[],[],[],"[1036, 1042]",[],"[2003, 2003, 2003]",[],[1001],[],[],[1036],[],[],"[6670, 1053]",[],[],[],[],[]
participant_6_UNDO,[],[],[],[],[],[],[],[],[],[],[],[],[],[],[],[],[],[],[],[],[],[],[],[]
participant_7_GOLD,500,500,521,657,1180,1767,1890,2012,2246,2368,2520,2673,2823,2946,3148,3312,3477,3599,3722,4006,4170,4293,4631,4702
participant_7_CURRENTGOLD,500,50,71,207,430,1017,1140,462,696,818,970,1123,423,546,748,127,292,414,22,306,470,593,931,1002
participant_7_LEVEL,1,1,1,2,2,3,4,4,5,5,6,6,7,7,7,7,8,8,8,9,9,9,10,10
participant_7_MINIONSKILLED,0,0,0,1,1,3,3,3,7,7,8,9,11,11,11,14,17,17,17,24,27,27,36,36
participant_7_KILLS,0,0,0,0,1,2,2,2,2,2,2,2,2,2,2,2,2,2,2,2,2,2,2,2
participant_7_BUY,[],"[1056, 3340, 2003]",[],[],[1001],[],[],[3020],[],[],[],[],[1026],[],[],"[1052, 1027]",[],[],[3802],[],[],[],[],[]
participant_7_SOLD,[],[],[],[2003],[],[],[2010],[1001],[],[2010],[2010],[],[],[],[],[],[],[],"[1052, 1027]",[],[],[],[],[]
participant_7_UNDO,[],[],[],[],[],[],[],[],[],[],[],[],[],[],[],[],[],[],[],[],[],[],[],[]
participant_8_GOLD,500,500,584,818,1204,1466,1816,2057,2565,3011,3210,3555,3677,3828,4307,4471,4891,5132,5255,5866,6163,6321,6471,6542
participant_8_CURRENTGOLD,500,0,84,318,54,266,616,857,315,761,960,1305,277,428,907,521,941,1182,105,716,138,296,96,167
participant_8_LEVEL,1,1,1,2,3,4,4,5,5,6,6,7,7,7,8,8,8,9,9,10,10,10,10,10
participant_8_MINIONSKILLED,0,0,3,9,14,20,30,37,39,55,59,69,69,71,83,85,98,99,99,113,113,115,117,117
participant_8_KILLS,0,0,0,0,0,0,0,0,3,3,3,4,4,5,5,5,5,5,5,5,6,6,6,6
participant_8_BUY,[],"[2033, 3340, 1056, 2003, 2003]",[],[],[],[3145],[],[],"[1028, 1026, 1001, 2055]",[],[],"[3152, 2055, 2055]",[],[],[],[],"[3020, 2420]",[],[1029],[],[],"[3191, 1052]",[3157],[]
participant_8_SOLD,[],[],[],[2003],"[2003, 2010]",[],[],"[2010, 2010]",[],[],[2055],"[3145, 1028, 1026]",[2055],[],[],[],[1001],"[2055, 2420]",[],[],[],[1029],"[3191, 1052, 2421]",[]
participant_8_UNDO,[],"[[3340, 0], [0, 2033]]",[],[],[],[],[],[],[],[],[],[],[],[],[],[],[],[],[],[],[],[],[],[]
participant_9_GOLD,500,500,605,969,1554,1803,2093,2299,3415,3670,3968,4390,4603,5026,5369,5660,5824,6030,6153,6513,7186,7496,7660,7731
participant_9_CURRENTGOLD,500,0,105,459,1044,233,523,729,220,475,773,145,358,781,1114,1405,119,325,148,508,1181,456,105,206
participant_9_LEVEL,1,1,1,3,4,5,6,6,6,7,8,8,9,9,10,10,11,11,11,11,11,11,11,12
participant_9_MINIONSKILLED,0,0,5,16,26,31,41,46,46,54,64,64,70,70,79,89,92,97,97,101,101,108,111,111
participant_9_KILLS,0,0,0,0,2,3,3,3,3,3,3,3,3,3,4,5,5,5,5,5,5,5,5,5
participant_9_BUY,[],"[1035, 2031, 3340, 3364]",[],[],[],[],"[3044, 3057]",[],"[3067, 2055]",[],[],"[6632, 1001, 2055]",[],[],[],"[3111, 1036, 2055]",[],[],"[3134, 1036]",[],[1028],[],[],[]
participant_9_SOLD,[],[3340],[],[],[],[],[],[],[],[2055],[1035],"[3044, 3057, 3067]",[],[2055],[],[1001],[2055],[],[1036],[],[],[],[],[]
participant_9_UNDO,[],[],[],[],[],[],[],[],[],[],[],[],[],[],[],[],[],[],[],[],[],[],[],[]
team0_KILLS,0,0,0,0,0,0,0,2,4,4,5,6,7,9,10,12,12,13,17,17,19,21,21,26
team0_CURRENTGOLD,2500,0,398,1752,1483,1975,3180,2883,1334,2799,4351,5398,5179,6977,1443,3089,3394,5842,9078,3654,3279,5160,6934,9576
team0_TOTALGOLD,2500,2500,2898,4252,5333,6835,8040,10018,12294,13779,15681,17713,19754,22677,24268,26289,28654,31102,34338,35669,37858,40140,41913,44726
team0_LEVEL,5,5,6,13,16,19,23,26,28,31,34,38,40,44,45,48,49,52,54,57,58,61,61,64
team0_SBIRES,0,0,9,35,54,74,99,119,134,159,188,219,242,269,289,316,332,368,387,402,438,465,478,488
team1_KILLS,0,0,0,0,3,5,5,6,10,10,10,11,11,12,13,14,14,14,14,14,15,15,15,15
team1_CURRENTGOLD,2500,550,570,1806,3474,4472,3912,3101,1672,3066,3723,3105,2261,3424,4331,3280,3145,3419,1063,3322,2879,2911,3141,2145
team1_TOTALGOLD,2500,2500,3020,4266,6884,8992,10232,11471,14392,15786,16743,18250,19406,20569,22686,24195,25510,26424,27183,29442,31007,32074,33169,33543
team1_LEVEL,5,5,6,13,16,21,24,27,29,32,35,36,39,40,44,45,48,49,49,52,53,53,54,55
team1_SBIRES,0,0,11,39,63,86,114,134,150,180,196,212,236,245,276,297,326,332,336,379,387,405,423,424
delta_KILLS,0,0,0,0,-3,-5,-5,-4,-6,-6,-5,-5,-4,-3,-3,-2,-2,-1,3,3,4,6,6,11
delta_CURRENTGOLD,0,-550,-172,-54,-1991,-2497,-732,-218,-338,-267,628,2293,2918,3553,-2888,-191,249,2423,8015,332,400,2249,3793,7431
delta_TOTALGOLD,0,0,-122,-14,-1551,-2157,-2192,-1453,-2098,-2007,-1062,-537,348,2108,1582,2094,3144,4678,7155,6227,6851,8066,8744,11183
delta_LEVEL,0,0,0,0,0,-2,-1,-1,-1,-1,-1,2,1,4,1,3,1,3,5,5,5,8,7,9
delta_SBIRES,0,0,-2,-4,-9,-12,-15,-15,-16,-21,-8,7,6,24,13,19,6,36,51,23,51,60,55,64
