name,frame_0,frame_1,frame_2,frame_3,frame_4,frame_5,frame_6,frame_7,frame_8,frame_9,frame_10,frame_11,frame_12,frame_13,frame_14,frame_15,frame_16,frame_17,frame_18,frame_19,frame_20,frame_21,frame_22
nameStamp,Tstart,Tearly,Tearly,Tearly,Tearly,Tearly,Tearly,Tearly,Tearly,Tearly,Tearly,Tearly,Tearly,Tearly,Tearly,Tearly,Tmid,Tmid,Tmid,Tmid,Tmid,Tmid,Tmid
timestamp,0,60026,120032,180041,240043,300068,360083,420119,480147,540171,600186,660214,720247,780275,840299,900302,960330,1020357,1080381,1140381,1200404,1260409,1320409
participant_0_GOLD,500,500,611,867,1116,1671,1965,2136,2383,2520,2796,2961,3280,3556,3823,3959,4274,4480,4755,4920,5042,5494,5870
participant_0_CURRENTGOLD,500,0,111,367,616,1171,1465,36,283,420,696,61,380,656,53,189,504,710,985,120,242,694,1070
participant_0_LEVEL,1,1,1,3,4,5,6,7,7,7,8,8,9,9,10,10,10,11,11,11,11,12,12
participant_0_MINIONSKILLED,0,0,5,13,20,25,32,35,39,40,49,52,60,69,74,75,83,88,93,96,96,108,111
participant_0_KILLS,0,0,0,0,0,1,1,1,1,1,1,1,1,1,1,1,1,1,1,1,1,1,2
participant_0_BUY,[],"[1056, 2003, 2003, 3340]",[],[],[],[],[],"[3802, 1001]",[],[],[],[3020],[],[],"[1052, 1052]",[],[],[],[],"[3030, 1028]",[],[],[]
participant_0_SOLD,[],[],[],[2003],[],[2003],[],[],[],[],[],[1001],[],[],[],[],[],[],[],"[3802, 1052, 1052]",[],[],[]
participant_0_UNDO,[],[],[],[],[],[],[],[],[],[],[],[],[],[],[],[],[],[],[],[],[],[],[]
participant_1_GOLD,500,500,522,678,813,1031,1166,1300,1434,1597,1780,1950,2176,2310,2480,2642,2801,2943,3078,3233,3517,3916,3956
participant_1_CURRENTGOLD,500,500,22,178,313,531,366,150,284,447,630,800,1026,460,180,342,501,243,377,533,817,116,156
participant_1_LEVEL,1,1,1,2,3,4,4,5,5,6,6,6,7,7,7,7,8,8,8,8,9,10,10
participant_1_MINIONSKILLED,0,0,0,1,1,6,6,6,6,8,11,13,15,15,17,19,19,19,19,20,20,25,25
participant_1_KILLS,0,0,0,0,0,0,0,0,0,0,0,0,0,0,0,0,0,0,0,0,0,0,0
participant_1_BUY,[],[],"[3854, 2003, 2003, 3340]",[],[],[],[1001],"[1029, 2003]",[],[],[],[],[],[3117],"[1028, 2003]",[],[],[3067],[],[],[],[3109],[]
participant_1_SOLD,[],[],[],[],[2003],[2003],[],[],[],[],[],[],[],[1001],[],[],[],[1028],[3340],[],"[2003, 3513]","[3854, 2003, 3067, 1029]",[]
participant_1_UNDO,[],[],[],[],[],[],[],[],[],[],[],[],[],[],[],[],[],[],[],[],[],[],[]
participant_2_GOLD,500,500,620,828,1156,1328,1598,1741,1985,2208,2330,2658,2889,3145,3330,3552,3675,4002,4124,4247,4382,4628,4662
participant_2_CURRENTGOLD,500,0,120,328,656,828,1098,241,485,708,80,408,639,895,255,477,600,927,449,572,707,353,387
participant_2_LEVEL,1,1,2,2,3,3,4,4,4,5,5,6,6,6,7,7,7,7,7,7,7,8,8
participant_2_MINIONSKILLED,0,0,0,0,0,2,2,2,2,2,2,2,2,2,2,2,2,2,2,2,2,2,2
participant_2_KILLS,0,0,0,0,0,0,0,0,0,0,0,0,0,0,0,0,0,0,0,0,0,0,0
participant_2_BUY,[],"[3340, 2031, 1041]",[],[],[],[],[],"[3715, 1036]",[],[],[3133],[],[],[],"[1412, 1001]",[],[],[],[3009],[],[],"[1042, 1042]",[]
participant_2_SOLD,[],[],[],[],[],[],[],[1041],[],[],[1036],[],[],[],"[3133, 3715]",[],[],[],[1001],[],[],[],[]
participant_2_UNDO,[],[],[],[],[],[],[],[],[],[],[],[],[],[],[],[],[],[],[],[],[],[],[]
participant_3_GOLD,500,500,562,825,948,1161,1305,1574,1821,1993,2185,2441,2746,2973,3096,3218,3561,3683,3868,3991,4181,4354,4388
participant_3_CURRENTGOLD,500,0,62,325,448,661,805,1074,1321,193,385,641,946,1173,96,218,561,83,268,391,581,754,788
participant_3_LEVEL,1,1,1,2,2,3,4,5,5,5,6,6,7,7,7,7,8,8,9,9,9,9,9
participant_3_MINIONSKILLED,0,0,2,10,10,16,17,26,30,33,37,44,51,57,57,57,66,66,69,69,69,69,69
participant_3_KILLS,0,0,0,0,0,0,0,0,0,0,0,0,0,0,0,0,0,0,0,0,0,0,0
participant_3_BUY,[],"[1054, 2003, 3340]",[],[],[],[],[],[],[],[1038],[],[],[],[],"[1053, 1001]",[],[],[3009],[],[],[],[],[]
participant_3_SOLD,[],[],[],[],[2003],[],[],[],[],[],[],[],[],[],[],[],[],[1001],[],[],[],[],[]
participant_3_UNDO,[],[],[],[],[],[],[],[],[],[],[],[],[],[],[],[],[],[],[],[],[],[],[]
participant_4_GOLD,500,500,562,759,903,1025,1518,1696,1985,2108,2961,3158,3528,3706,3931,4074,4308,4431,4806,4950,5719,6100,6135
participant_4_CURRENTGOLD,500,0,62,259,403,475,168,346,635,278,1131,278,48,226,451,94,328,451,826,620,1389,795,810
participant_4_LEVEL,1,1,1,3,4,4,5,6,7,7,8,8,9,10,10,10,11,11,12,12,12,12,12
participant_4_MINIONSKILLED,0,0,2,4,5,5,9,12,19,19,33,34,36,40,42,43,50,50,55,56,65,70,70
participant_4_KILLS,0,0,0,0,0,0,1,1,1,1,2,2,3,3,3,3,3,3,3,3,4,4,4
participant_4_BUY,[],"[2003, 1055]",[],[],[],[2003],[3123],[],[],[2033],[],[3057],"[1001, 1042]",[],[],[3006],[],[],[],[1036],[],[3077],[]
participant_4_SOLD,[],[],[],[],[2003],[],[],[],[],[2003],[],[],[],[],[],"[1001, 1042]",[],[],[],[],[],[1036],[]
participant_4_UNDO,[],[],[],[],[],[],[],[],[],[],[],[],[],[],[],[],[],[],[],[],[],[],[]
participant_5_GOLD,500,500,620,933,1233,1748,1933,2557,2779,3087,3554,3898,4093,4362,4765,5152,5474,5731,6340,6765,6930,7177,7282
participant_5_CURRENTGOLD,500,0,120,433,733,1248,133,757,154,462,929,1273,1468,62,465,852,1174,581,1190,1615,280,527,632
participant_5_LEVEL,1,1,2,3,3,4,4,5,6,6,6,7,7,8,8,9,9,9,10,10,10,11,11
participant_5_MINIONSKILLED,0,0,0,0,0,0,0,0,0,0,0,2,2,2,2,2,3,3,3,3,5,5,6
participant_5_KILLS,0,0,0,0,0,1,1,2,2,2,3,3,3,3,3,3,3,3,5,5,5,5,5
participant_5_BUY,[],"[1039, 3340, 2003, 2003, 2003]",[],[],[],[],"[3715, 1001, 1036]",[],"[3133, 3364, 2055]",[],[],[],[],"[1412, 3111, 1036]",[],[],[],"[1053, 1029]",[],[],"[3105, 1036, 1036]",[],[]
participant_5_SOLD,[],[],[2003],[2003],[],[2003],[1039],[],"[1036, 3340]",[2055],[],[],[],"[3133, 3715, 1001]",[],[],[],[1036],[],[],[1029],[],[]
participant_5_UNDO,[],[],[],[],[],[],[],[],[],[],[],[],[],[],[],[],[],[],[],[],[],[],[]
participant_6_GOLD,500,500,562,831,1045,1181,1492,1938,2208,2415,2678,2885,3066,3271,3800,4060,4325,4489,4803,5303,5425,5568,5987
participant_6_CURRENTGOLD,500,0,62,331,545,146,457,903,1173,165,428,635,266,471,1000,1260,1525,154,468,968,290,433,852
participant_6_LEVEL,1,1,1,3,4,4,5,6,7,7,8,8,9,9,10,10,10,11,11,12,12,12,12
participant_6_MINIONSKILLED,0,0,2,10,15,16,24,34,40,46,51,56,60,65,69,74,79,82,84,89,89,90,92
participant_6_KILLS,0,0,0,0,0,0,0,0,0,0,0,0,0,0,1,1,1,1,1,1,1,1,2
participant_6_BUY,[],"[2003, 3340, 1056, 2003]",[],[],[],"[1052, 2003, 2003]",[],[],[],"[3802, 1001, 2003]",[],[],"[1028, 2003, 2003, 2003]",[],[],[],[],"[3136, 1052]",[],[],[3020],[],[]
participant_6_SOLD,[],[],[],[2003],[2003],[],[],[2003],[2003],[1052],[2003],[],[],[2003],[2003],[],[],[1028],[],[],[1001],[],[]
participant_6_UNDO,[],[],[],[],[],[],[],[],[],[],[],[],[],[],[],[],[],[],[],[],[],[],[]
participant_7_GOLD,500,500,583,846,1529,1840,2465,2667,3224,3996,4647,4949,5391,5527,6163,7133,7551,8165,8641,9531,9992,10746,11131
participant_7_CURRENTGOLD,500,0,83,346,1029,1340,1965,192,749,1520,2172,2474,2916,352,988,1958,201,815,1291,2181,18,771,1156
participant_7_LEVEL,1,1,1,2,3,4,5,5,6,6,7,8,8,8,9,10,10,11,11,11,12,12,13
participant_7_MINIONSKILLED,0,0,3,11,19,27,37,39,47,49,61,68,78,79,86,98,101,116,125,133,135,152,153
participant_7_KILLS,0,0,0,0,1,1,2,2,3,5,5,5,5,5,6,7,8,9,10,11,12,13,14
participant_7_BUY,[],"[2003, 1055, 3340]",[],[],[],[],[],"[1038, 1001, 1042, 2055]",[],[],[],[],[],"[3095, 3006, 1042]",[],[],"[1038, 1037]",[],[],[],"[3031, 3086, 1042]",[],[]
participant_7_SOLD,[],[],[],[],[2003],[],[],[],[2055],[],[],[],[],"[1038, 1042, 1001]",[],[],[],[],[],[],"[1038, 1037, 1042]",[],[]
participant_7_UNDO,[],[],[],[],[],[],[],[],[],[],[],[],[],[],[],[],[],[],[],[],[],[],[]
participant_8_GOLD,500,500,541,748,1004,1401,1615,1908,2232,2518,2640,2943,3065,3355,3629,4269,4525,4769,5225,5727,5863,5986,6238
participant_8_CURRENTGOLD,500,0,41,248,504,901,515,808,1132,1418,240,543,265,555,829,369,625,869,1325,1827,913,236,488
participant_8_LEVEL,1,1,1,2,4,5,5,6,7,7,8,8,8,9,9,10,11,11,12,12,12,12,13
participant_8_MINIONSKILLED,0,0,1,6,14,17,22,29,37,43,43,50,50,60,65,67,74,77,78,90,91,91,96
participant_8_KILLS,0,0,0,0,0,0,0,0,0,0,0,0,0,0,0,1,1,1,2,2,2,2,2
participant_8_BUY,[],"[1054, 2003]",[],[],[],[],"[1001, 1029]",[],[],[],"[3047, 1031]",[],[1028],[],[],"[3751, 1029, 1029]",[],[],[],[],[3068],"[3076, 1028]",[]
participant_8_SOLD,[],[],[],[],[],[],[2003],[],[],[],"[1001, 1029]",[],[],[],[],[1028],[],[],[],[],"[1031, 3751]","[1029, 1029]",[]
participant_8_UNDO,[],[],[],[],[],[],[],[],[],[],[],[],[],[],[],[],[],[],[],[],[],[],[]
participant_9_GOLD,500,500,564,699,1047,1244,1550,1684,2005,2426,2689,2823,3138,3278,3855,4570,4820,5121,5408,5979,6299,6796,7056
participant_9_CURRENTGOLD,500,0,64,199,547,744,200,334,655,126,388,523,838,278,855,1570,220,521,808,1379,299,796,1056
participant_9_LEVEL,1,1,1,2,3,4,4,4,5,6,6,7,7,7,8,9,9,9,10,10,10,11,11
participant_9_MINIONSKILLED,0,0,2,2,3,4,5,5,8,8,12,12,14,14,15,17,17,18,19,21,24,24,24
participant_9_KILLS,0,0,0,0,0,0,0,0,0,0,0,0,0,0,1,2,2,2,2,2,2,3,3
participant_9_BUY,[],"[3854, 2003, 2003, 3340]",[],[],[],[],"[3067, 2003]",[],[],"[1001, 1029, 1027]",[],[],[],[3117],[],[],[3050],[],[],[],[3109],[],[]
participant_9_SOLD,[],[],[],[],[2003],[2003],[],[],[2003],[],[],[],[3854],[1001],[],[],"[1029, 1027]",[],[],[3855],[3067],[],[]
participant_9_UNDO,[],[],[],[],[],[],[],[],[],[],[],[],[],[],[],[],[],[],[],[],[],[],[]
team0_KILLS,0,0,0,0,0,1,2,2,2,2,3,3,4,4,4,4,4,4,4,4,5,5,6
team0_CURRENTGOLD,2500,500,377,1457,2436,3666,3902,1847,3008,2046,2922,2188,3039,3410,1035,1320,2494,2414,2905,2236,3736,2712,3211
team0_TOTALGOLD,2500,2500,2877,3957,4936,6216,7552,8447,9608,10426,12052,13168,14619,15690,16660,17445,18619,19539,20631,21341,22841,24492,25011
team0_LEVEL,5,5,6,12,16,19,23,27,28,30,33,34,38,39,41,41,44,45,47,47,48,51,51
team0_SBIRES,0,0,9,28,36,54,66,81,96,102,132,145,164,183,192,196,220,225,238,243,252,274,277
team1_KILLS,0,0,0,0,1,2,3,4,5,7,8,8,8,8,11,14,15,16,20,21,22,24,26
team1_CURRENTGOLD,2500,0,370,1557,3358,4379,3270,2994,3863,3691,4157,5448,5753,1718,4137,6009,3745,2940,5082,7970,1800,2763,4184
team1_TOTALGOLD,2500,2500,2870,4057,5858,7414,9055,10754,12448,14442,16208,17498,18753,19793,22212,25184,26695,28275,30417,33305,34509,36273,37694
team1_LEVEL,5,5,6,12,17,21,23,26,31,32,35,38,39,41,44,48,49,51,54,55,56,58,60
team1_SBIRES,0,0,8,29,51,64,88,107,132,146,167,188,204,220,237,258,274,296,309,336,344,362,371
delta_KILLS,0,0,0,0,-1,-1,-1,-2,-3,-5,-5,-5,-4,-4,-7,-10,-11,-12,-16,-17,-17,-19,-20
delta_CURRENTGOLD,0,500,7,-100,-922,-713,632,-1147,-855,-1645,-1235,-3260,-2714,1692,-3102,-4689,-1251,-526,-2177,-5734,1936,-51,-973
delta_TOTALGOLD,0,0,7,-100,-922,-1198,-1503,-2307,-2840,-4016,-4156,-4330,-4134,-4103,-5552,-7739,-8076,-8736,-9786,-11964,-11668,-11781,-12683
delta_LEVEL,0,0,0,0,-1,-2,0,1,-3,-2,-2,-4,-1,-2,-3,-7,-5,-6,-7,-8,-8,-7,-9
delta_SBIRES,0,0,1,-1,-15,-10,-22,-26,-36,-44,-35,-43,-40,-37,-45,-62,-54,-71,-71,-93,-92,-88,-94
