name,team0,team1
win,Fail,Win
firstBlood,False,True
firstTower,False,True
firstInhibitor,False,True
firstBaron,False,True
firstDragon,True,False
firstRiftHerald,False,True
towerKills,2,10
inhibitorKills,0,2
baronKills,0,1
dragonKills,3,1
riftHeraldKills,0,2
