name,frame_0,frame_1,frame_2,frame_3,frame_4,frame_5,frame_6,frame_7,frame_8,frame_9,frame_10,frame_11,frame_12,frame_13,frame_14,frame_15,frame_16,frame_17,frame_18,frame_19,frame_20,frame_21,frame_22,frame_23,frame_24,frame_25,frame_26,frame_27,frame_28,frame_29,frame_30,frame_31,frame_32,frame_33,frame_34
nameStamp,Tstart,Tearly,Tearly,Tearly,Tearly,Tearly,Tearly,Tearly,Tearly,Tearly,Tearly,Tearly,Tearly,Tearly,Tearly,Tmid,Tmid,Tmid,Tmid,Tmid,Tmid,Tmid,Tmid,Tmid,Tmid,Tmid,Tmid,Tmid,Tmid,Tmid,Tmid,Tmid,Tmid,Tend,Tend
timestamp,0,60020,120053,180059,240084,300096,360121,420165,480180,540187,600202,660223,720249,780289,840312,900321,960348,1020350,1080362,1140365,1200372,1260376,1320392,1380396,1440424,1500427,1560455,1620458,1680472,1740479,1800501,1860502,1920515,1980535,2040561
participant_0_GOLD,500,500,584,1001,1261,1635,1926,2111,2554,3211,3481,3727,3927,4427,4679,4984,5560,6068,6741,7220,7434,9054,9497,10071,10194,10316,10810,11032,11155,11821,12225,12347,12594,12718,12930
participant_0_CURRENTGOLD,500,0,84,501,61,435,726,911,1354,2011,430,277,177,677,429,733,1310,385,1058,137,351,1971,714,888,411,533,1027,150,272,319,722,845,342,465,678
participant_0_LEVEL,1,1,1,3,4,5,6,6,7,8,9,9,9,9,10,10,11,11,12,12,12,13,13,14,14,14,14,14,14,15,15,15,15,15,15
participant_0_MINIONSKILLED,0,0,3,12,18,30,40,43,59,70,79,83,84,97,101,112,121,126,132,133,136,139,139,139,139,139,140,140,140,141,149,149,152,152,153
participant_0_KILLS,0,0,0,0,0,0,0,0,0,1,1,1,1,1,1,1,1,2,3,4,4,8,9,11,11,11,12,12,12,14,14,14,14,14,14
participant_0_BUY,[],"[1054, 2003, 3340]",[],[],"[1001, 1036, 2003]",[],[],[],[],[],"[3057, 3111]",[1028],[1042],[],[3044],[],[],"[3078, 1042]",[],"[3086, 1042]",[],[],"[3087, 1031]",[1028],[1011],[],[],[3742],[],"[1033, 1036]",[],[],[3211],[],[]
participant_0_SOLD,[],[],[],[2003],[],[],[],[2003],[],[],[1001],[],[],[],"[1028, 1036]",[],[],"[1042, 3057, 3044]",[],[1042],[],[],"[3086, 1042]",[],[1028],[],[],"[1031, 1011]",[],[1054],[],[],[1033],[],[]
participant_0_UNDO,[],[],[],[],[],[],[],[],[],[],[],[],[],[],[],[],[],[],[],[],[],[],[],[],[],[],[],[],[],[],[],[],[],[],[]
participant_1_GOLD,500,500,621,1268,1468,1963,2118,2444,2665,2888,3300,3608,4092,4404,4947,5572,6431,6654,7056,7444,7801,8024,8185,8557,8710,8917,9359,9567,9879,10080,10317,10440,10562,10706,10829
participant_1_CURRENTGOLD,500,0,121,768,968,363,168,494,715,938,1350,458,142,454,997,1622,81,304,706,44,401,224,385,757,160,367,810,317,629,130,368,490,213,357,479
participant_1_LEVEL,1,1,2,3,3,4,4,5,5,6,7,7,7,8,9,9,10,10,11,11,11,12,12,13,13,13,13,13,13,14,14,14,14,14,14
participant_1_MINIONSKILLED,0,0,0,0,0,0,0,1,2,2,2,2,5,5,5,6,8,8,8,8,8,8,9,10,11,11,11,11,11,12,13,13,13,14,14
participant_1_KILLS,0,0,0,0,0,0,0,0,0,0,1,1,1,1,1,1,1,1,1,1,1,1,1,1,1,1,1,1,1,1,1,1,1,1,1
participant_1_BUY,[],"[1036, 2031, 3340]",[],[2055],[],[1036],[3134],[],[],[],"[3133, 3111]",[],"[1036, 1036, 1036]",[],[3133],[],[3147],[1036],[3134],[],[],"[1037, 1028]",[],[],[],[3814],"[1036, 1036]",[3133],[],[1036],[],[1053],[],[],[]
participant_1_SOLD,[],[],[],[],[2055],[],"[1036, 1036]",[],[],[],[],[],[],[],"[1036, 1036]",[],"[3134, 3133]",[],"[1036, 1036]",[],[],[],[],[],[],"[1037, 3134, 1028]",[],"[1036, 1036]",[],[],[],[1036],[],[],[]
participant_1_UNDO,[],[],[],[],[],[],[],[],[],[],"[[0, 3133]]",[],[],[],[],[],[],[],[],[],[],[],[],[],[],[],[],[],[],[],[],[],[],[],[]
participant_2_GOLD,500,500,612,790,1102,1385,1592,1912,2229,2550,3106,3376,3519,3788,4257,4520,4969,5237,5483,5893,6546,6879,7001,7452,7652,7983,8156,8278,8729,8924,9131,9253,9817,10046,10168
participant_2_CURRENTGOLD,500,0,112,215,527,460,267,587,904,1225,681,951,44,313,382,645,394,312,158,568,1221,279,401,852,1052,858,331,53,504,349,556,128,693,921,1044
participant_2_LEVEL,1,1,1,3,4,4,5,5,6,7,8,8,8,9,9,10,10,11,11,11,12,12,12,13,13,14,14,14,14,14,14,14,15,15,15
participant_2_MINIONSKILLED,0,0,5,8,19,26,31,42,50,58,63,71,72,81,88,93,105,110,113,123,136,139,139,151,156,164,164,164,174,174,179,179,188,194,194
participant_2_KILLS,0,0,0,1,1,2,2,2,2,2,2,2,2,2,3,4,5,5,5,5,5,5,5,5,5,5,6,6,6,6,6,6,6,6,6
participant_2_BUY,[],"[1041, 2003, 2003, 2003, 3340]",[],[],[],[3133],[1039],[],[],[],[],"[1400, 1001, 2055]",[3111],[],[],[],[3179],[],[],"[1036, 1036, 1036]",[],[3133],[],[],[3134],[],[],"[3147, 1036, 3147]",[],"[1036, 1036]",[],[],[3133],[],[]
participant_2_SOLD,[],[],[],[2003],[],[2003],[],[2003],[],[],[3340],"[3133, 1039, 1041, 3513]",[1001],[],[2055],[],[],[],[3340],[],[],"[1036, 1036]",[3513],[],[1036],[],[],"[3134, 3133, 3134, 3133]",[],[],[],[],"[1036, 1036]",[],[]
participant_2_UNDO,[],[],[],[],[],[],[],[],[],[],[],[],[],[],[],[],[],[],[],[],[],[],[],[],[],[],[],"[[0, 3147], [0, 1036]]",[],[],[],[],[],[],[]
participant_3_GOLD,500,500,563,818,1050,1284,1606,1878,2049,2305,2632,2980,3421,3829,4268,4675,5270,5679,5889,6451,6826,7450,7768,7968,8512,9019,9537,9819,9977,10228,10813,10935,11435,11572,12600
participant_3_CURRENTGOLD,500,0,63,318,125,359,381,653,124,380,707,55,496,904,123,530,1125,1534,944,1506,1881,2505,2823,423,967,1474,1992,975,1132,508,1093,51,550,338,266
participant_3_LEVEL,1,1,1,2,3,3,4,5,5,6,7,7,8,8,9,9,10,10,10,11,11,12,12,12,12,13,13,13,14,14,14,14,15,15,15
participant_3_MINIONSKILLED,0,0,2,10,14,18,21,30,33,41,49,58,65,72,75,80,84,96,96,97,105,109,116,118,121,139,140,145,147,152,163,163,172,173,176
participant_3_KILLS,0,0,0,0,0,0,1,1,1,1,1,1,2,2,2,3,3,3,4,4,4,4,4,5,5,5,5,5,5,5,5,5,5,5,6
participant_3_BUY,[],"[3850, 3340, 2003, 2003]",[],[],[],[],[3070],[2055],[],[],"[1001, 1082]",[],[],[],[3802],[],[],[],"[3003, 3158]",[],[],[],"[1058, 2055, 3364]",[],[],[],[],[3089],[],[],[],[1052],[],[3113],[]
participant_3_SOLD,[],[],[],[2003],[],[2003],[],[],[],[],[2055],[],[],[],[3850],[],[],[],"[3070, 3802, 1001]",[],[],[],"[3340, 3851]",[2055],[],[],[3003],[1058],[],[],[],[],[],[1052],[]
participant_3_UNDO,[],[],[],[],[],[],[],[],[],[],[],[],[],[],[],[],[],[],[],[],[],[],[],[],[],[],[],[],[],[],[],[],[],[],[]
participant_4_GOLD,500,500,523,672,822,1066,1531,1725,1859,2024,2158,2303,2846,3244,3593,4487,4908,5063,5552,5964,6155,6709,6937,7604,7985,8125,8545,8706,8862,9110,9376,9516,9687,9858,10791
participant_4_CURRENTGOLD,500,0,23,172,322,566,181,300,434,599,113,258,801,1199,248,1142,1563,1718,557,970,1160,1714,617,1284,1665,1805,2225,36,192,440,706,412,582,338,1271
participant_4_LEVEL,1,1,1,2,3,4,4,4,5,5,6,6,7,7,8,8,9,9,10,10,11,11,12,13,13,13,14,14,14,14,14,14,14,15,15
participant_4_MINIONSKILLED,0,0,0,0,0,2,2,2,2,2,2,3,4,5,7,7,9,9,15,18,18,19,22,23,24,24,29,30,31,33,33,33,34,35,38
participant_4_KILLS,0,0,0,0,0,0,0,0,0,0,0,0,0,0,1,1,2,2,2,3,3,3,3,3,4,4,5,5,5,5,5,5,5,5,6
participant_4_BUY,[],"[1055, 2003, 3340]",[],[],"[1036, 2055]",[],[1001],[],"[1053, 2031]",[],[],"[3144, 1042]",[],[],"[1043, 3153]",[],[],[],[3006],[3363],[],[],[],"[1038, 1037, 3085]",[],[],[],[1038],[],[1037],[],[3031],[],[1036],[3035]
participant_4_SOLD,[],[],[],[2003],[],[],[],[2055],[1036],[],[],[1053],[],[],"[1042, 1055, 3144, 1043]",[],[],[],[1001],[3340],[],[],[],[],[],[],[],[],[],[],[],"[2031, 1038, 1037]",[],[],[1036]
participant_4_UNDO,[],[],[],[],[],[],[],[],[],[],[],[],[],[],[],[],[],[],[],[],[],[],[],"[[0, 1037], [0, 1038]]",[],[],[],[],[],[],[],[],[],[],[]
participant_5_GOLD,500,500,577,769,1085,1256,1505,1847,2094,2287,2570,2714,3080,3371,4025,4283,4609,5111,5415,5887,6114,6606,6920,7184,7432,7575,7923,8045,8485,9115,9307,9703,10171,10441,11044
participant_5_CURRENTGOLD,500,0,77,269,510,681,930,1272,219,112,395,539,905,1196,250,508,834,1336,440,912,264,756,1070,1334,32,175,523,345,785,1415,567,963,452,721,1324
participant_5_LEVEL,1,1,1,2,4,4,5,6,6,7,7,7,8,9,9,10,10,11,11,12,12,12,13,13,13,13,14,14,14,15,15,15,16,16,17
participant_5_MINIONSKILLED,0,0,3,7,17,20,27,37,41,45,54,55,60,70,80,88,96,110,116,129,135,148,158,163,170,171,171,171,178,185,189,193,193,198,202
participant_5_KILLS,0,0,0,0,0,0,0,0,0,0,0,0,0,0,0,0,0,0,0,0,0,0,0,0,0,0,0,0,0,0,0,0,2,2,3
participant_5_BUY,[],"[3340, 2003, 1055]",[],[],[],[],[1038],[2055],[],[],[],"[1018, 1001]",[],[3006],[],[],[],[],[3095],"[3363, 2055]",[],"[1033, 2055]",[],[],[],"[3140, 2055]",[],"[1042, 1042]",[],[2015],[],[],"[3094, 2055, 2055]",[],[]
participant_5_SOLD,[],[],[],[],[],[],[],[2003],[],[],[],[],[],[1001],[],[2055],[],[],"[1038, 1018]",[3340],[2055],[],[2055],[],[],[1033],[2055],[],[],[1042],[],[],"[1042, 2015]",[],[1055]
participant_5_UNDO,[],[],[],[],[],[],[],[],[],[],[],[],[],[],[],[],[],[],[],[],[],[],[],[],[],[],[],[],[],[],[],[],[],[],[]
participant_6_GOLD,500,500,606,1013,1487,1715,2157,2414,2820,3530,3839,4066,4742,5084,5407,5763,5885,6171,6293,7588,7810,8232,8505,8627,8883,9124,9352,9916,10187,10597,10881,11424,12002,12328,13021
participant_6_CURRENTGOLD,500,0,106,513,987,190,632,104,510,1220,1529,241,917,1259,81,438,560,846,118,363,585,107,380,502,759,399,627,92,363,473,757,1300,487,814,1507
participant_6_LEVEL,1,1,2,3,3,4,5,5,6,7,7,8,8,9,9,9,9,10,10,11,11,11,12,12,12,12,12,13,14,14,14,15,15,16,16
participant_6_MINIONSKILLED,0,0,0,0,0,0,0,0,6,8,12,12,18,18,18,21,21,22,22,28,28,28,28,28,31,34,38,44,47,47,52,52,52,57,61
participant_6_KILLS,0,0,0,0,0,0,0,0,0,0,0,1,1,1,1,1,1,1,2,3,3,3,3,3,3,3,3,3,4,5,5,7,7,7,7
participant_6_BUY,[],"[3862, 2003, 2003, 3340]",[],[],[],[],"[1036, 1036, 2055]",[],[],[],[],"[3134, 1036, 3364, 2055]",[],[3179],[],[],[3009],[],[],[3044],[3067],[],[],[],"[3071, 2055]",[],[],[],[],[],"[1038, 1037]",[],"[3031, 1029]",[],[]
participant_6_SOLD,[],[],[],[],[],"[2003, 2010]",[],"[2003, 2010, 2010]",[2055],[],[3862],"[1036, 1036, 3340]",[],"[3134, 1036]",[],[],[2422],[],[],[],[],[],[],"[3863, 2055]","[3044, 3067]",[],[2055],[],[],[],[],[],"[1038, 1037]",[],[]
participant_6_UNDO,[],[],[],[],[],[],[],[],[],[],[],[],[],[],[],[],[],[],[],[],[],[],[],[],[],[],[],[],[],[],[],[],[],[],[]
participant_7_GOLD,500,500,584,1313,1464,1921,2922,3079,3279,3683,4036,4446,4908,5136,6015,6165,6399,6584,7028,7889,8096,8293,9178,9779,10291,10861,11479,12394,12748,14203,14326,15539,16327,16986,18627
participant_7_CURRENTGOLD,500,0,84,813,119,576,1577,1734,269,673,226,636,1098,526,1055,1205,799,984,343,1204,1411,93,978,604,1116,787,1404,2319,638,2094,2086,3300,1737,1232,2873
participant_7_LEVEL,1,1,1,3,4,5,6,7,7,8,8,9,9,9,10,10,10,11,11,12,12,12,13,13,13,14,14,15,15,16,16,17,17,18,18
participant_7_MINIONSKILLED,0,0,4,13,15,17,25,27,31,44,48,53,63,70,79,79,85,89,90,107,112,112,116,118,119,125,127,138,141,149,149,158,158,177,183
participant_7_KILLS,0,0,0,0,0,0,0,0,0,0,0,0,0,0,1,1,1,1,1,1,1,1,1,1,1,1,1,1,1,1,1,1,1,1,1
participant_7_BUY,[],"[1054, 2003, 3340]",[],[],[2055],[],[],[],"[3076, 1029]",[1001],[],[],[],[],[3075],[3364],[],[],"[3047, 1028]",[],"[3751, 1029, 2055]",[],[],[],[3068],[],[],[1029],[],[],"[1031, 1057]",[],[3193],[],[]
participant_7_SOLD,[],[],[],[2003],[],[],[],[],[],[],[],[2055],[],[],"[3076, 1029]",[3340],[],[],[1001],[],[1028],[],[],[],"[1029, 3751]",[],[],[],[],[],"[1029, 1054]",[],"[1031, 1057]",[],[]
participant_7_UNDO,[],[],[],[],[],[],[],[],[],[],[],[],[],[],[],[],[],[],[],[],[],[],[],[],[],[],[],[],[],[],[],[],[],[],[]
participant_8_GOLD,500,500,605,860,1267,1592,1862,2131,2490,2900,3148,3430,3720,3905,4148,4314,4451,4859,4981,5189,5495,5693,5954,6211,6369,6561,7071,7367,7830,8140,8665,8950,10072,10425,11149
participant_8_CURRENTGOLD,500,0,105,360,767,1092,62,256,615,1025,1273,455,745,130,373,539,676,1084,106,239,545,218,479,736,894,161,671,367,830,740,1265,1550,922,1275,2179
participant_8_LEVEL,1,1,1,2,3,4,4,5,6,6,7,7,7,8,8,8,8,8,9,9,9,10,10,10,11,11,11,11,12,12,13,13,14,15,15
participant_8_MINIONSKILLED,0,0,5,12,26,34,42,51,62,71,78,85,94,97,101,102,103,115,115,117,127,127,131,136,138,142,151,157,164,164,175,178,178,187,188
participant_8_KILLS,0,0,0,1,1,2,4,4,4,4,4,4,4,4,4,4,4,4,5,5,5,5,6,7,8,9,10,11,11,13,13,14,15,15,18
participant_8_BUY,[],"[3340, 2003, 2003, 1056]",[],[],"[1029, 1052, 2031]",[],[],[],"[3057, 3145]",[],[3191],[],[],[3020],[2033],[],[3067],[],"[3152, 1052]",[],[],"[3113, 3100]",[],"[3108, 3363, 2055]",[],[3157],[],[],"[3144, 1052]",[],[1058],[],[3089],[3916],[]
participant_8_SOLD,[],[],[],[],"[2003, 2003]",[],[],[],[1052],[],[1029],[],[],[2422],"[2031, 2031]",[],[1056],[],"[3145, 3067]",[],[],"[1052, 2033, 3057, 3113]",[],[3340],[2055],"[3191, 3108]",[],[],[],[],[3144],[],[1058],[1052],[]
participant_8_UNDO,[],[],[],[],[],[],[],[],[],[],[],[],[],[],"[[2031, 0]]",[],[],[],[],[],[],[],[],[],[],[],[],[],[],[],[],[],[],[],[]
participant_9_GOLD,500,500,529,756,951,1169,1364,1549,1713,2197,2361,2819,2980,3124,3497,3728,3920,4124,4973,6031,6177,6393,6594,6802,6943,7102,7494,7637,8095,8975,9149,10134,10780,10979,11585
participant_9_CURRENTGOLD,500,0,29,256,451,669,89,274,438,922,1086,719,880,74,447,678,270,474,1323,1131,477,693,894,1103,218,377,769,912,1371,2250,249,1235,356,554,1160
participant_9_LEVEL,1,1,1,2,3,4,4,4,5,5,6,6,6,7,7,8,8,9,10,11,11,11,12,12,12,12,12,12,13,13,13,14,15,15,15
participant_9_MINIONSKILLED,0,0,0,0,0,0,0,0,0,0,0,0,0,0,6,9,12,14,15,18,18,19,22,22,22,23,24,24,24,25,26,26,27,29,31
participant_9_KILLS,0,0,0,0,1,1,1,1,1,2,2,2,3,3,3,3,3,3,3,4,4,5,5,5,5,5,5,5,5,5,5,6,6,6,6
participant_9_BUY,[],"[1039, 2031, 3340]",[],[],[],"[3706, 1001, 2055]",[],"[1052, 1027]",[],[],[],"[1402, 3111, 3047]",[],[],[3136],[],[],[],[1026],"[3151, 1029]",[],"[1031, 1028]",[],[],[],[1011],[],[3742],[],[1029],[],[],"[3191, 2420]",[],[]
participant_9_SOLD,[],[],[],[],[],[1039],[2055],[],[],[],[],"[1052, 1027, 3706, 1001, 1001]",[],[],[],[],[],[],[],"[3136, 1026]",[],[1029],[],[],[],[1028],[],"[1031, 1011]",[],[],[],[],"[1029, 2031]",[2420],[]
participant_9_UNDO,[],[],[],[],[],[],[],[],[],[],[],"[[0, 3111]]",[],[],[],[],[],[],[],[],[],[],[],[],[],[],[],[],[],[],[],[],[],[],[]
team0_KILLS,0,0,0,1,1,2,3,3,3,4,5,5,6,6,8,10,12,13,15,17,17,21,22,25,26,26,29,29,29,31,31,31,31,31,33
team0_CURRENTGOLD,2500,0,403,1974,2003,2183,1723,2945,3531,5153,3281,1999,1660,3547,2179,4672,4473,4253,3423,3225,5014,6693,4940,4204,4255,5037,6385,1531,2729,1746,3445,1926,2380,2419,3738
team0_TOTALGOLD,2500,2500,2903,4549,5703,7333,8773,10070,11356,12978,14677,15994,17805,19692,21744,24238,27138,28701,30721,32972,34762,38116,39388,41652,43053,44360,46407,47402,48602,50163,51862,52491,54095,54900,57318
team0_LEVEL,5,5,6,13,17,20,23,25,28,32,37,37,39,41,45,46,50,51,54,55,57,60,61,65,65,67,68,68,69,71,71,71,73,74,74
team0_SBIRES,0,0,10,30,51,76,94,118,146,173,195,217,230,260,276,298,327,349,364,379,403,414,425,441,451,477,484,490,503,512,537,537,559,568,575
team1_KILLS,0,0,0,1,2,3,5,5,5,6,6,7,8,8,9,9,9,9,11,13,13,14,15,16,17,18,19,20,21,24,24,28,31,31,35
team1_CURRENTGOLD,2500,0,401,2211,2834,3208,3290,3640,2051,3952,4509,2590,4545,3185,2206,3368,3139,4724,2330,3849,3282,1867,3801,4279,3019,1899,3994,4035,3987,6972,4924,8348,3954,4596,9043
team1_TOTALGOLD,2500,2500,2901,4711,6254,7653,9810,11020,12396,14597,15954,17475,19430,20620,23092,24253,25264,26849,28690,32584,33692,35217,37151,38603,39918,41223,43319,45359,47345,51030,52328,55750,59352,61159,65426
team1_LEVEL,5,5,6,12,17,21,24,27,30,33,35,37,38,42,43,45,45,49,51,55,55,56,60,60,61,62,63,65,68,70,71,74,77,80,81
team1_SBIRES,0,0,12,32,58,71,94,115,140,168,192,205,235,255,284,299,317,350,358,399,420,434,455,467,480,495,511,534,554,570,591,607,608,648,665
delta_KILLS,0,0,0,0,-1,-1,-2,-2,-2,-2,-1,-2,-2,-2,-1,1,3,4,4,4,4,7,7,9,9,8,10,9,8,7,7,3,0,0,-2
delta_CURRENTGOLD,0,0,2,-237,-831,-1025,-1567,-695,1480,1201,-1228,-591,-2885,362,-27,1304,1334,-471,1093,-624,1732,4826,1139,-75,1236,3138,2391,-2504,-1258,-5226,-1479,-6422,-1574,-2177,-5305
delta_TOTALGOLD,0,0,2,-162,-551,-320,-1037,-950,-1040,-1619,-1277,-1481,-1625,-928,-1348,-15,1874,1852,2031,388,1070,2899,2237,3049,3135,3137,3088,2043,1257,-867,-466,-3259,-5257,-6259,-8108
delta_LEVEL,0,0,0,1,0,-1,-1,-2,-2,-1,2,0,1,-1,2,1,5,2,3,0,2,4,1,5,4,5,5,3,1,1,0,-3,-4,-6,-7
delta_SBIRES,0,0,-2,-2,-7,5,0,3,6,5,3,12,-5,5,-8,-1,10,-1,6,-20,-17,-20,-30,-26,-29,-18,-27,-44,-51,-58,-54,-70,-49,-80,-90
