name,team0,team1
win,Fail,Win
firstBlood,True,False
firstTower,True,False
firstInhibitor,True,False
firstBaron,False,True
firstDragon,True,False
firstRiftHerald,False,False
towerKills,10,9
inhibitorKills,3,1
baronKills,0,1
dragonKills,3,4
riftHeraldKills,0,0
