name,frame_0,frame_1,frame_2,frame_3,frame_4,frame_5,frame_6,frame_7,frame_8,frame_9,frame_10,frame_11,frame_12,frame_13,frame_14,frame_15,frame_16,frame_17,frame_18,frame_19,frame_20,frame_21,frame_22,frame_23,frame_24,frame_25,frame_26,frame_27,frame_28,frame_29,frame_30,frame_31,frame_32,frame_33,frame_34
nameStamp,Tstart,Tearly,Tearly,Tearly,Tearly,Tearly,Tearly,Tearly,Tearly,Tearly,Tearly,Tearly,Tearly,Tearly,Tearly,Tmid,Tmid,Tmid,Tmid,Tmid,Tmid,Tmid,Tmid,Tmid,Tmid,Tmid,Tmid,Tmid,Tmid,Tmid,Tmid,Tend,Tend,Tend,Tend
timestamp,0,60018,120039,180043,240073,300083,360103,420121,480133,540150,600183,660187,720206,780217,840240,900251,960279,1020279,1080291,1140316,1200342,1260352,1320367,1380382,1440399,1500424,1560432,1620445,1680452,1740480,1800500,1860515,1920533,1980574,2040574
participant_0_GOLD,500,500,521,836,1279,1638,2729,2944,3366,3769,4636,4981,5208,6162,7445,8142,8314,9074,9324,9599,10177,11860,12332,13002,13718,14160,15481,15913,16417,17561,18197,18361,19031,20780,20902
participant_0_CURRENTGOLD,500,0,21,336,54,413,1504,219,641,1044,28,373,75,1029,2312,3009,386,1146,1396,1672,124,1807,379,1050,1765,808,2129,2561,2265,2109,2745,909,1579,3328,3219
participant_0_LEVEL,1,1,1,3,4,5,6,7,8,8,9,9,9,11,11,12,12,13,13,13,14,14,14,15,15,15,16,16,16,17,18,18,18,18,18
participant_0_MINIONSKILLED,0,0,0,9,9,20,30,36,50,62,68,77,84,97,110,120,120,138,140,145,165,180,180,184,189,189,199,207,211,214,217,220,224,234,235
participant_0_KILLS,0,0,0,0,0,0,2,2,2,2,2,2,2,2,2,2,2,2,2,2,2,2,2,2,2,2,2,3,3,3,3,3,3,3,3
participant_0_BUY,[],"[2003, 3340, 1055]",[],[],[],"[2003, 2003, 1036]",[],[],[],"[3006, 1036, 2003, 2003]",[],[],[],"[3144, 2003]",[],[],[],"[1043, 2003]",[],"[2003, 2003]",[],[],"[3153, 2003, 2003]",[],[],"[1018, 2003]",[],[],[],"[3086, 1042, 1042]",[],"[3085, 2003]",[],"[1052, 1042]",[]
participant_0_SOLD,[],[],[],[2003],[],[],[],[2003],[2003],[],[2003],[],[2003],"[1036, 1036]",[],[],[2003],[],[2003],"[2003, 2003]",[],[],"[3144, 1043]",[],"[2003, 2003]",[],[2003],[],[],[1018],[],"[1042, 3086, 1042, 2003]",[],[],[]
participant_0_UNDO,[],[],[],[],[],[],[],[],[],[],[],[],[],[],[],[],[],[],[],[],[],[],[],[],[],[],[],[],[],[],[],[],[],[],[]
participant_1_GOLD,500,500,666,928,1233,1440,1713,2017,2439,2647,2869,3317,3739,4179,4352,5088,5534,5741,6013,6280,6727,7024,7417,7839,9351,10093,10757,11248,11432,11578,12175,12808,13482,13844,14113
participant_1_CURRENTGOLD,500,0,166,428,733,290,563,867,189,397,94,542,664,1104,1277,63,509,366,238,505,952,1249,1642,264,1776,2518,743,834,117,263,861,1493,567,930,1138
participant_1_LEVEL,1,1,2,2,3,4,4,5,5,5,6,7,7,8,8,9,9,9,10,10,10,11,12,12,13,14,14,14,14,14,15,16,16,16,16
participant_1_MINIONSKILLED,0,0,0,0,0,0,0,0,0,0,0,0,0,0,0,1,5,5,5,7,7,7,7,7,7,7,9,9,9,9,9,9,13,14,17
participant_1_KILLS,0,0,0,0,1,1,3,3,3,3,4,4,4,6,6,7,7,8,8,8,8,11,11,12,13,14,16,16,16,18,18,18,19,22,22
participant_1_BUY,[],"[2033, 3340]",[],[],"[1036, 1001, 2055]",[],[],"[3044, 1042, 1042]",[],[],[3078],[],"[1033, 2055]",[],[],[],"[3111, 3052, 1037, 1028]",[],[],[],"[3053, 3076, 1028]",[],"[3075, 1028]",[],[],"[3211, 3067]",[],[],[3065],[1038],[],"[3026, 2138]",[],[],[]
participant_1_SOLD,[],[],[],[],[],[],[],[1036],[2055],[],"[1042, 1042, 3044]",[],[],[],[],[],"[1001, 1033, 2055]",[],[],[],"[3052, 1037, 1028]",[],"[3076, 1028]",[],[],"[1028, 2033]",[],[],"[3211, 3067]",[],[],"[1038, 2138]",[],[],[]
participant_1_UNDO,[],[],[],[],[],[],[],[],[],[],[],[],[],[],[],[],[],[],[],[],[],[],[],[],[],[],[],[],[],[],[],[],[],[],[]
participant_2_GOLD,500,500,563,790,913,1335,1528,1720,1992,2185,2356,2617,2916,3073,3344,3466,3876,3998,4322,4445,5266,5389,5645,5842,5965,6233,7072,7194,7337,8296,8870,9013,9912,10588,10689
participant_2_CURRENTGOLD,500,500,63,290,413,300,493,685,242,435,606,867,1166,1323,144,266,676,348,672,795,1616,1389,345,542,215,483,1322,204,347,1306,1880,403,1302,378,4
participant_2_LEVEL,1,1,1,3,4,4,5,6,6,7,7,8,9,9,10,10,10,10,10,11,11,11,11,11,11,12,13,13,13,14,15,15,15,16,16
participant_2_MINIONSKILLED,0,0,2,9,9,9,13,17,17,21,24,29,39,41,47,47,53,53,61,61,64,64,69,69,69,70,75,75,76,81,82,83,86,86,86
participant_2_KILLS,0,0,0,0,0,0,0,0,0,0,0,0,0,0,0,0,0,0,1,1,1,1,1,1,1,1,1,1,2,2,3,3,3,3,3
participant_2_BUY,[],"[3850, 2003, 2003, 3340]",[],[],"[2003, 2055]",[],[],"[1001, 2031, 1029]",[],[],[3191],[],[],[],"[3020, 2055]",[],[],[1052],[],[],[3157],"[1004, 1033, 3028, 3364]",[1052],[],[3108],[],[3174],[],[],"[3108, 1033]",[],[],[],[3102],[]
participant_2_SOLD,[],[],[],[],[2003],[2055],"[2003, 2003]",[],[],[],[1029],[2419],[],[],[1001],[2055],[3850],[2423],[],[],"[3191, 1052, 2424]","[1004, 1033, 3340]",[2031],[],[1052],[],"[3108, 3028]",[],[3851],[],[],[],[],"[3108, 1033]",[]
participant_2_UNDO,[],[],[],[],[],[],[],[],[],[],[],[],[],[],[],[],[],[],[],[],[],[],[],[],[],[],[],[],[],[],[],[],[],[],[]
participant_3_GOLD,500,500,521,734,892,1070,1983,2196,2450,2573,2737,3110,3344,3508,3723,4085,4370,4569,4733,4856,5056,5496,5759,5956,6324,6531,6968,7479,7623,7745,8230,8484,8837,9155,9256
participant_3_CURRENTGOLD,500,0,21,234,392,120,1033,1246,1500,73,237,610,844,58,273,635,920,69,233,256,456,896,359,556,924,281,718,1229,1373,295,780,384,737,320,421
participant_3_LEVEL,1,1,1,2,3,3,4,5,5,5,5,6,6,7,7,8,8,8,9,9,9,10,10,10,11,11,12,12,13,13,13,13,14,14,14
participant_3_MINIONSKILLED,0,0,0,6,8,12,18,23,28,28,30,39,45,48,50,54,61,65,67,67,69,73,74,74,74,75,77,77,78,78,78,81,86,87,87
participant_3_KILLS,0,0,0,0,0,0,0,0,1,1,1,2,3,3,3,4,4,4,4,4,4,4,4,5,7,8,9,10,10,10,10,10,11,11,11
participant_3_BUY,[],"[1039, 2031, 3340]",[],[],[],[3706],[],[],[3133],[],[1400],[],[1029],[],[],"[3047, 3133, 1036]",[],[1036],[3134],[],[],[],[],"[3147, 3133]",[],[],"[3142, 1036, 1036]",[3133],[1053],[],[],[],[3812],[],[]
participant_3_SOLD,[],[],[],[],[],[1039],[],[],[],[],"[3133, 3706]",[],[],[],[3340],"[1029, 2422]",[3513],[],"[1036, 1036]",[],[],[],[],"[3134, 3133]",[],[],"[3133, 2031]","[1036, 1036]",[],[],[],[],"[1053, 3133]",[],[]
participant_3_UNDO,[],[],[],[],[],[],[],[],[],[],[],[],[],[],[],[],[],[],[],[],[],[],[],[],[],[],[],[],[],[],[],[],[],[],[]
participant_4_GOLD,500,500,523,702,852,996,1347,1496,1696,1950,2199,2539,2733,2981,3166,3315,3598,3782,4432,4761,5380,5638,5828,6014,6319,6630,7014,7350,8033,8174,9077,9218,9628,9868,9977
participant_4_CURRENTGOLD,500,0,23,202,227,371,722,121,321,575,24,364,558,806,116,265,547,297,947,1276,780,238,53,239,79,390,374,710,1393,184,1087,1228,1638,228,277
participant_4_LEVEL,1,1,1,2,2,3,4,4,5,6,6,7,7,8,8,8,9,9,9,10,10,10,10,11,11,11,12,12,13,13,14,14,14,14,14
participant_4_MINIONSKILLED,0,0,0,0,0,1,2,2,3,10,13,16,16,21,21,21,22,23,23,30,31,34,34,34,34,34,42,53,55,55,58,58,58,58,58
participant_4_KILLS,0,0,0,0,0,1,1,1,1,1,1,1,1,1,1,1,1,1,1,1,2,2,2,2,2,2,3,3,3,5,5,5,6,7,7
participant_4_BUY,[],[],"[1056, 2003, 2003, 3340]",[],[],"[1052, 2003, 2003]",[],[],"[3145, 2003, 2003]",[],[],[],[],[],[3152],[],[],[1033],[],[],[],[3111],"[3082, 1029]",[],[1033],[],[],[3110],[],[],[],"[3136, 1052]",[],[3151],[]
participant_4_SOLD,[],[],[],"[2010, 2003]",[2003],[],"[2010, 2003]","[2003, 2010]",[1052],[],[2003],[],[],[2003],[3145],[],[],[],[],[],[],"[1033, 2422]",[],[],[],[],[],"[1056, 3082, 1029]",[],[],[],[1033],[],[3136],[]
participant_4_UNDO,[],[],[],[],[],[],[],[],[],[],[],[],[],[],[],[],[],[],[],[],[],[],[],[],[],[],[],[],[],[],[],[],[],[],[]
participant_5_GOLD,500,500,521,643,1210,1500,1644,1951,2142,2426,2548,2741,3139,3275,3521,3979,4343,4886,5280,5772,6076,6241,6572,6769,7029,7374,7807,7929,8073,8284,8406,8794,8917,9149,9200
participant_5_CURRENTGOLD,500,0,21,143,60,350,44,351,542,826,128,321,719,255,501,959,1323,166,560,1052,1356,121,452,649,109,454,887,109,253,464,586,974,1097,1330,1200
participant_5_LEVEL,1,1,1,1,3,4,4,5,5,6,6,7,8,8,8,9,10,10,10,11,11,11,12,12,12,13,13,13,13,14,14,14,14,15,15
participant_5_MINIONSKILLED,0,0,0,0,6,13,14,22,23,33,33,37,44,45,48,64,73,74,86,98,108,110,117,117,117,126,131,131,132,133,133,144,144,146,146
participant_5_KILLS,0,0,0,0,0,0,0,0,1,1,2,2,2,2,2,2,3,3,3,3,4,4,5,7,8,8,8,8,8,9,9,9,9,9,9
participant_5_BUY,[],"[3340, 2003, 3850, 2003]",[],[],[],[],[],[3057],[],[],[],"[3113, 1026]",[],[],"[3100, 1052]",[],[],[],"[3113, 1058, 1052]",[],[],[3907],[],[],[1058],[],[3009],[],[],[],[1058],[],[],[],[3089]
participant_5_SOLD,[],[],[],[],[],[2003],[2003],[],[],[3850],[],[],[],[],"[3057, 3113, 1026]",[],[],[3851],[1052],[],[],"[1058, 3113]",[],[],[],[],[1052],[],[],[],[],[],[],[],"[1058, 1058]"
participant_5_UNDO,[],[],[],[],[],[],[],[],[],[],[],[],[],[],[],[],[],[],[],[],[],[],[],[],[],[],[],[],[],[],[],[],[],[],[]
participant_6_GOLD,500,500,726,1018,1327,1528,1706,1943,2248,2476,2683,3041,3933,4140,4362,5140,5553,6360,6757,7000,7750,7999,8205,8327,8778,9305,9476,9674,10193,10603,10726,11108,11231,11716,11767
participant_6_CURRENTGOLD,500,0,226,518,827,1028,1206,343,648,226,433,791,1158,265,187,165,578,1385,82,325,1075,624,300,122,273,800,672,869,488,899,321,704,77,561,342
participant_6_LEVEL,1,1,2,3,4,4,5,5,6,6,6,7,7,7,8,8,9,9,10,10,11,11,11,11,12,12,12,13,13,14,14,14,14,15,15
participant_6_MINIONSKILLED,0,0,0,0,0,0,0,0,2,2,2,2,2,2,2,2,2,3,3,5,8,8,13,13,18,18,21,21,37,37,37,42,42,44,44
participant_6_KILLS,0,0,0,0,1,1,1,1,1,1,2,2,2,3,3,3,3,4,4,4,4,4,4,4,5,5,6,6,6,6,7,7,8,10,10
participant_6_BUY,[],"[1055, 3340, 2003]",[],[],[],[],"[2015, 1038, 2003, 2055]",[],[],[],[],"[2015, 1018]",[],[],"[3095, 3009]",[],[],[],[1038],[],[],[1037],[],[],[1018],"[3031, 1037, 1036]",[],[],[],[],[3035],"[3036, 1031, 2420]",[],[],[3026]
participant_6_SOLD,[],[],[],[],[],[],[],[2055],[],[],[2003],[],[],[],"[1038, 1018, 2015]",[],[],[],[],[],[],[2003],[],[],[],"[1038, 1037, 1018]",[],[],[],[],[1036],"[3035, 1037]",[2420],[],[2421]
participant_6_UNDO,[],[],[],[],[],[],"[[0, 2015]]",[],[],[],[],[],[],[],[],[],[],[],[],[],[],[],[],[],[],[],[],[],[],[],[],"[[0, 1031]]",[],[],[]
participant_7_GOLD,500,500,556,822,1113,1312,1648,1882,2381,2807,3041,3590,3832,4069,4880,5002,5125,5861,6409,6972,7319,7470,7954,8226,8529,8651,8787,9752,9918,10580,10703,11023,11277,11414,12556
participant_7_CURRENTGOLD,500,0,56,322,613,162,498,732,156,582,816,1365,682,919,1730,802,125,861,1409,1972,2319,570,1054,26,329,451,588,1552,1718,2381,53,374,78,214,1356
participant_7_LEVEL,1,1,1,3,4,4,5,6,7,8,8,9,9,10,11,11,11,11,12,12,12,12,13,13,14,14,14,14,14,15,15,15,15,15,16
participant_7_MINIONSKILLED,0,0,2,8,18,23,32,38,42,57,63,71,75,82,92,92,92,103,103,112,112,114,122,122,129,129,130,132,134,135,135,141,144,145,150
participant_7_KILLS,0,0,0,0,0,0,0,0,1,1,1,2,2,2,3,3,3,3,4,5,5,5,5,5,5,5,5,6,6,7,7,7,7,7,8
participant_7_BUY,[],"[1056, 2003, 2003, 3340]",[],[],[],"[1052, 1027, 1001]",[],[],"[3802, 2003, 2055]",[],[],[],"[1026, 2055]",[],[],[3285],[3020],[],[],[],[],"[3057, 3113]",[],[3100],[],[],[],[],[],[],"[3916, 1026]",[],[3165],[],[]
participant_7_SOLD,[],[],[],[],[2003],[],[2003],[],[1027],[2055],[],[],[],"[2055, 2003]",[],"[3802, 1026]",[1001],[],[],[],[],[],[],"[3057, 3113]",[],[],[],[],[],[],[],[],"[3916, 1026]",[],[]
participant_7_UNDO,[],[],[],[],[],"[[0, 1052]]",[],[],[],[],[],[],[],[],[],[],[],[],[],[],[],[],[],[],[],[],[],[],[],[],[],[],[],[],[]
participant_8_GOLD,500,500,521,825,1611,1887,2031,2345,2537,2779,3601,3724,4223,4984,5244,5422,5821,6715,6838,7037,7405,7562,7832,8030,9275,9411,9890,10117,10553,10775,11493,11769,12388,13906,13957
participant_8_CURRENTGOLD,500,0,21,325,1111,1387,106,420,612,854,1676,299,798,1559,519,697,1096,1990,813,1012,1380,662,932,1130,1575,62,540,767,1203,1425,1044,194,813,2332,232
participant_8_LEVEL,1,1,1,2,3,4,4,5,6,6,7,7,8,8,9,9,10,10,10,11,11,11,11,12,12,12,13,13,13,14,14,14,14,15,15
participant_8_MINIONSKILLED,0,0,0,10,23,29,30,42,46,53,60,60,75,86,90,93,101,110,110,114,129,131,135,135,143,144,147,153,163,163,168,173,177,181,181
participant_8_KILLS,0,0,0,0,1,1,1,1,1,1,1,1,1,1,1,1,1,1,1,1,1,1,1,1,1,1,1,1,1,1,1,1,1,1,1
participant_8_BUY,[],"[1054, 2003, 3340]",[],[],"[1036, 1001]",[],[3123],[],[],[],[3076],[],[],"[1029, 1029]",[],[],[],"[3075, 1028]",[],[],[],"[3057, 1036]",[],[],"[3044, 1029]",[],[],"[3047, 1028]",[],[],[],[],[],[],[]
participant_8_SOLD,[],[],[],[2003],[],[],[1036],[],[],[],[1054],[],[],[],[],[],[],"[3076, 1029, 1029]",[],[],[],[],[],[],"[1028, 1036]",[],[],"[1001, 1029]",[],[],[],[],[],[],[]
participant_8_UNDO,[],[],[],[],[],[],[],[],[],[],[],[],[],[],[],[],[],[],[],[],[],[],[],[],[],[],[],[],[],[],[],[],[],[],[]
participant_9_GOLD,500,500,523,746,1121,1330,1539,1704,2242,2441,3201,3341,3539,3905,4220,4642,5477,6198,6338,6492,7008,7148,7589,8329,8744,9055,9285,9501,9641,10082,10483,10755,10972,11337,11567
participant_9_CURRENTGOLD,500,0,23,246,621,830,1039,154,692,891,1651,91,290,655,85,507,1342,2063,103,258,773,113,554,1294,459,770,405,620,761,1201,353,625,842,1207,32
participant_9_LEVEL,1,1,1,2,3,4,4,4,5,5,6,6,7,8,8,8,9,10,10,10,10,10,11,11,11,12,12,12,12,12,13,13,14,14,15
participant_9_MINIONSKILLED,0,0,0,1,1,1,1,1,2,3,4,4,6,6,6,9,9,11,11,12,12,12,12,12,12,13,14,14,14,14,16,19,19,19,20
participant_9_KILLS,0,0,0,0,0,0,0,0,0,0,0,0,1,1,1,2,2,3,3,3,4,4,4,4,4,5,5,5,5,5,5,5,5,6,6
participant_9_BUY,[],"[1041, 2031, 3340]",[],[],[],[],[],[3133],[],[3715],[],[],[1412],[3133],[1001],[1018],[],[],"[3508, 1029]",[],[],[3117],[1018],[1042],[3086],[],[1042],[],[3046],[],"[1036, 1036]",[],"[3134, 1036]",[],[]
participant_9_SOLD,[],[],[],[],[],[],[],[],[],[1041],[],[],"[3133, 3715]",[],[],[],[],[],"[3133, 1018]",[],[],[1001],"[2031, 1029]",[],"[1018, 1042]",[],[],[],"[1042, 3086]",[],[],[],"[1036, 1036]",[],[]
participant_9_UNDO,[],[],[],[],[],[],[],[],[],[],[],[],[],[],[],[],[],[],[],[],[],[],[],[],[],[],[],[],[],[],[],[],[],[],[]
team0_KILLS,0,0,0,0,1,2,6,6,7,7,8,9,10,12,12,14,14,15,16,16,17,20,20,22,25,27,31,33,34,38,39,39,42,46,46
team0_CURRENTGOLD,2500,500,294,1490,1819,1494,4315,3138,2893,2524,989,2756,3307,4320,4122,4238,3038,2226,3486,4504,3928,5579,2778,2651,4759,4480,5286,5538,5495,4157,7353,4417,5823,5184,5059
team0_TOTALGOLD,2500,2500,2794,3990,5169,6479,9300,10373,11943,13124,14797,16564,17940,19903,22030,24096,25692,27164,28824,29941,32606,35407,36981,38653,41677,43647,47292,49184,50842,53354,56549,57884,60890,64235,64937
team0_LEVEL,5,5,6,12,16,19,23,27,29,31,33,37,38,43,44,47,48,49,51,53,54,56,57,59,61,63,67,67,69,71,75,76,77,78,78
team0_SBIRES,0,0,2,24,26,42,63,78,98,121,135,161,184,207,228,243,261,284,296,310,336,358,364,368,373,375,402,421,429,437,444,451,467,479,483
team1_KILLS,0,0,0,0,2,2,2,2,4,4,6,7,8,9,10,11,12,14,15,16,18,18,19,21,23,24,25,26,26,28,29,29,30,33,34
team1_CURRENTGOLD,2500,0,347,1554,3232,3757,2893,2000,2650,3379,4704,2867,3647,3653,3022,3130,4464,6465,2967,4619,6903,2090,3292,3221,2745,2537,3092,3917,4423,6370,2357,2871,2907,5644,3162
team1_TOTALGOLD,2500,2500,2847,4054,6382,7557,8568,9825,11550,12929,15074,16437,18666,20373,22227,24185,26319,30020,31622,33273,35558,36420,38152,39681,42355,43796,45245,46973,48378,50324,51811,53449,54785,57522,59047
team1_LEVEL,5,5,6,11,17,20,22,25,29,31,33,36,39,41,44,45,49,50,52,54,55,55,58,59,61,63,64,65,65,69,70,70,71,74,76
team1_SBIRES,0,0,2,19,48,66,77,103,115,148,162,174,202,221,238,260,277,301,313,341,369,375,399,399,419,430,443,451,480,482,489,519,526,535,541
delta_KILLS,0,0,0,0,-1,0,4,4,3,3,2,2,2,3,2,3,2,1,1,0,-1,2,1,1,2,3,6,7,8,10,10,10,12,13,12
delta_CURRENTGOLD,0,500,-53,-64,-1413,-2263,1422,1138,243,-855,-3715,-111,-340,667,1100,1108,-1426,-4239,519,-115,-2975,3489,-514,-570,2014,1943,2194,1621,1072,-2213,4996,1546,2916,-460,1897
delta_TOTALGOLD,0,0,-53,-64,-1213,-1078,732,548,393,195,-277,127,-726,-470,-197,-89,-627,-2856,-2798,-3332,-2952,-1013,-1171,-1028,-678,-149,2047,2211,2464,3030,4738,4435,6105,6713,5890
delta_LEVEL,0,0,0,1,-1,-1,1,2,0,0,0,1,-1,2,0,2,-1,-1,-1,-1,-1,1,-1,0,0,0,3,2,4,2,5,6,6,4,2
delta_SBIRES,0,0,0,5,-22,-24,-14,-25,-17,-27,-27,-13,-18,-14,-10,-17,-16,-17,-17,-31,-33,-17,-35,-31,-46,-55,-41,-30,-51,-45,-45,-68,-59,-56,-58
