name,frame_0,frame_1,frame_2,frame_3,frame_4,frame_5,frame_6,frame_7,frame_8,frame_9,frame_10,frame_11,frame_12,frame_13,frame_14,frame_15,frame_16,frame_17,frame_18,frame_19,frame_20,frame_21,frame_22,frame_23,frame_24
nameStamp,Tstart,Tearly,Tearly,Tearly,Tearly,Tearly,Tearly,Tearly,Tearly,Tearly,Tearly,Tearly,Tearly,Tearly,Tearly,Tearly,Tearly,Tmid,Tmid,Tmid,Tmid,Tmid,Tmid,Tmid,Tmid
timestamp,0,60018,120022,180044,240045,300069,360071,420109,480137,540143,600161,660165,720179,780205,840223,900229,960250,1020263,1080277,1140287,1200310,1260311,1320334,1380334,1440334
participant_0_GOLD,500,500,541,1064,1257,1463,1698,1921,2078,2592,3382,3637,4116,4684,5037,5278,5401,5861,6431,7203,7376,7594,7970,8092,8919
participant_0_CURRENTGOLD,500,0,41,214,407,613,848,1071,1228,92,882,787,1266,184,537,778,901,1361,1931,1503,376,594,170,292,1119
participant_0_LEVEL,1,1,1,2,3,4,5,6,7,7,8,9,9,10,10,10,10,11,11,12,12,12,12,12,13
participant_0_MINIONSKILLED,0,0,1,1,5,10,16,19,21,26,28,36,36,44,48,51,51,62,67,72,72,73,73,73,79
participant_0_KILLS,0,0,0,0,0,0,0,0,0,0,1,1,2,2,2,4,4,4,4,4,4,5,5,5,6
participant_0_BUY,[],"[1035, 2031]",[],[1028],[],[],[],[],[],"[6660, 3105]",[],[],[],"[3068, 3066, 1028]",[],[],[1057],[],[],"[4401, 1033, 1029]",[],[],[],[],[]
participant_0_SOLD,[],[],[],[],[],[],[],[],[],[1028],[],[1035],[],"[6660, 3105]",[],[],[],[],[],"[1057, 1028, 3066]",[],[],[],[],[]
participant_0_UNDO,[],[],[],[],[],[],[],[],[],[],[],[],[],[],[],[],[],[],[],[],[],[],[],[],[]
participant_1_GOLD,500,500,628,963,1376,1794,2172,2529,2737,3234,3779,4167,4918,5156,5513,6275,6555,7030,7413,7770,8313,8906,9210,9800,10384
participant_1_CURRENTGOLD,500,0,128,63,476,894,1272,1629,1837,234,779,1167,1918,256,613,1375,755,1230,1613,420,963,1556,1860,2451,3034
participant_1_LEVEL,1,1,2,3,4,5,5,6,6,7,8,8,9,9,10,10,11,11,12,12,12,13,13,14,14
participant_1_MINIONSKILLED,0,0,0,0,0,2,2,2,2,2,6,6,6,7,7,7,7,7,9,9,9,9,9,17,18
participant_1_KILLS,0,0,0,1,1,1,1,1,1,2,4,4,5,5,5,5,5,5,5,6,6,6,6,6,7
participant_1_BUY,[],"[1055, 3340, 3340, 2003]",[],[1036],[],[],[],[],[],"[1053, 3134]",[],[1036],[],"[6692, 3047]",[],[],[],[],[],[3077],"[1011, 1028]",[],[3748],[],[]
participant_1_SOLD,[],[],[2003],[2010],[],[],[],"[2010, 2010]",[],[1036],[],[],[3340],"[3513, 3134, 1036, 1053, 2422]",[],[],[],[],[],[],[],[],"[3077, 1028, 1011]",[],[]
participant_1_UNDO,[],"[[3340, 0]]",[],[],[],[],[],[],[],[],[],[],[],[],[],[],[],[],[],[],[],[],[],[],[]
participant_2_GOLD,500,500,597,913,1497,1939,2609,2878,3258,3542,3664,4253,4781,5756,6023,6415,6772,7609,8092,8961,10008,10388,11185,12105,12497
participant_2_CURRENTGOLD,500,0,97,403,987,829,89,358,728,1012,134,713,1231,2206,2463,455,812,1649,232,1101,748,528,1326,295,747
participant_2_LEVEL,1,1,1,3,4,5,6,6,7,7,7,8,9,9,10,10,10,11,11,12,13,13,13,14,14
participant_2_MINIONSKILLED,0,0,4,13,22,22,34,42,54,63,63,77,88,96,101,101,111,122,128,137,141,152,166,168,169
participant_2_KILLS,0,0,0,0,1,2,3,3,3,3,3,3,3,5,5,5,5,6,6,7,9,9,10,12,12
participant_2_BUY,[],"[1055, 2003, 3340]",[],[],[],"[1001, 1042]","[3006, 1053]",[],[],[],"[1042, 1042, 1042, 1036, 1042, 1042, 1036]",[],[],[],[],[6672],[],[],"[1038, 1018]",[],"[3072, 3123]",[1018],[],"[3033, 2420]",[]
participant_2_SOLD,[],[],[],[2003],[],[],"[1001, 1042]",[],[],[],[],[],[],[],[],"[1036, 1042, 1036]",[],[],[],[],"[1038, 1018, 1053]",[],[],"[3123, 1018]",[]
participant_2_UNDO,[],[],[],[],[],[],[],[],[],[],"[[0, 1042], [0, 1042], [0, 1042], [0, 1042]]",[],[],[],[],[],[],[],[],[],[],[],[],[],[]
participant_3_GOLD,500,500,562,848,1319,2068,2253,2466,2603,3158,3595,4202,4324,4802,5023,5338,5770,6519,7369,7591,8095,8334,9254,9451,9898
participant_3_CURRENTGOLD,500,50,112,398,169,918,1103,1316,153,708,1145,1752,74,552,773,1088,420,1169,2019,341,845,1084,2004,226,673
participant_3_LEVEL,1,1,1,2,3,4,5,5,5,6,7,8,8,8,9,10,10,11,11,12,12,12,13,13,13
participant_3_MINIONSKILLED,0,0,2,4,7,12,16,22,23,31,40,42,42,49,55,59,61,69,73,73,80,82,84,84,84
participant_3_KILLS,0,0,0,1,1,1,1,1,1,2,2,3,3,3,3,3,3,4,4,5,5,5,5,6,7
participant_3_BUY,[],"[3850, 2003, 2003]",[],[],"[1052, 1052]",[],"[1052, 3145, 2031]",[],[],[],"[1026, 1028]",[],"[4636, 3364, 1001]",[],[],[],[3020],[],[1026],[],[1052],[],[],[1058],[4630]
participant_3_SOLD,[],[],[],"[2003, 2003]",[],[],"[1052, 1052]",[],[],[3850],[],[],"[3145, 1028, 1026, 3340, 2031]",[],[],[],[1001],[],[3851],[],[],[],[],[],[1052]
participant_3_UNDO,[],[],[],[],[],[],"[[0, 1052]]",[],[],[],[],[],[],[],[],[],[],[],[],[],[],[],[],[],[]
participant_4_GOLD,500,500,542,1097,1423,1809,1944,2098,2412,3017,3158,3942,4102,4452,4593,4733,5099,5669,5909,6558,6748,7075,7340,7930,8385
participant_4_CURRENTGOLD,500,0,42,597,53,439,244,398,712,1317,208,992,12,362,503,643,209,779,169,818,573,900,1165,506,85
participant_4_LEVEL,1,1,1,2,3,4,4,4,5,6,6,7,7,7,7,8,8,9,9,10,10,10,10,11,11
participant_4_MINIONSKILLED,0,0,0,0,1,3,3,3,12,12,12,13,13,13,13,13,15,15,15,15,15,20,20,20,21
participant_4_KILLS,0,0,0,0,1,3,3,3,3,4,4,5,5,5,5,5,6,8,9,9,9,9,11,11,12
participant_4_BUY,[],[1055],[],[],"[1036, 1036]",[],[],[],"[3134, 1053]",[],[],[],"[6692, 1042, 1001]",[],[],[],[3134],[],[],[6676],[],[],[],"[3006, 1018, 1037]",[]
participant_4_SOLD,[],[],[],[],[],[],[],[],"[1036, 1036]",[],[],[],"[3134, 1053]",[],[],[],[],[],[],[3134],[],[],[],"[1001, 1042]",[1055]
participant_4_UNDO,[],[],[],[],[],[],[],[],[],[],[],[],[],[],[],[],[],[],[],[],[],[],[],[],[]
participant_5_GOLD,500,500,583,878,1064,1403,1746,2217,2576,2699,2905,3187,3309,4350,4592,4840,5933,6055,6342,6657,6807,6930,7380,7592,8029
participant_5_CURRENTGOLD,500,0,83,378,139,478,821,1292,1651,174,380,262,84,1125,417,665,1758,280,217,182,332,255,355,567,804
participant_5_LEVEL,1,1,1,3,3,4,5,6,7,7,7,8,8,9,9,10,11,11,11,11,11,12,12,12,13
participant_5_MINIONSKILLED,0,0,3,11,15,25,35,46,57,57,63,69,69,76,76,84,93,93,94,96,98,98,100,101,102
participant_5_KILLS,0,0,0,0,0,0,0,0,0,0,0,1,1,1,1,1,1,1,2,2,2,2,2,2,2
participant_5_BUY,[],"[3850, 2003, 2003, 3340]",[],[],"[2003, 2003]",[1027],[2003],[],"[1033, 2003]",[],[1026],[],"[2003, 2003, 1052]","[1001, 2003]",[],[3802],[3364],"[2003, 2003]",[6655],[],[],[],[3020],[],[]
participant_5_SOLD,[],[],[],[2010],"[2003, 2003]","[2003, 2010]",[],[2003],[],"[2010, 1033]",[],"[2003, 2003]",[],"[2003, 3850]",[],"[1052, 1027]",[3340],"[2003, 2003]","[3802, 1026]",[],[],[],[1001],"[2003, 3851]",[]
participant_5_UNDO,[],[],[],[],[],[],[],[],[],[],[],[],[],[],[],[],[],[],[],[],[],[],[],[],[]
participant_6_GOLD,500,500,620,1018,1488,1736,1859,1981,2406,2776,2967,3190,3417,3624,3789,3911,4274,4581,4798,5056,5178,5378,5500,6942,7300
participant_6_CURRENTGOLD,500,0,120,518,988,926,299,421,846,1206,247,470,97,304,469,591,954,1261,28,286,108,308,430,322,700
participant_6_LEVEL,1,1,2,3,4,5,5,5,6,6,7,7,7,7,8,8,8,9,9,9,10,10,10,11,11
participant_6_MINIONSKILLED,0,0,0,0,0,5,5,5,5,6,9,9,9,9,12,12,12,12,12,12,12,17,17,17,17
participant_6_KILLS,0,0,0,0,0,0,0,0,0,0,0,0,0,1,1,1,2,2,2,2,2,2,3,3,4
participant_6_BUY,[],"[2033, 3340]",[],[],"[1036, 2055]",[],[],[],[],"[6029, 1028]",[],[3067],[1001],[],[6630],[],[],"[3047, 3067]",[1036],[1036],[],[3133],[1036],[],[]
participant_6_SOLD,[],[],[],[],[],[2055],[],[],[],[],[],[1028],[],[],"[6029, 1036, 3067]",[],[],[1001],[],[],[],"[2033, 1036, 1036]",[],[],[]
participant_6_UNDO,[],[],[],[],[],[],[],[],[],[],[],[],[],[],[],[],[],[],[],[],[],[],[],[],[]
participant_7_GOLD,500,500,576,776,1199,1363,1486,1657,1918,2641,2826,3115,3406,3765,3888,4010,4351,4640,4776,5699,5863,6028,6600,6764,6908
participant_7_CURRENTGOLD,500,0,76,276,699,163,286,457,708,1431,116,395,676,635,758,147,488,777,213,336,500,265,837,201,375
participant_7_LEVEL,1,1,1,3,4,4,4,5,6,7,7,7,8,8,8,8,9,9,9,10,10,11,11,11,11
participant_7_MINIONSKILLED,0,0,3,7,7,9,9,12,18,18,22,29,36,40,40,40,50,56,57,57,60,62,62,65,66
participant_7_KILLS,0,0,0,0,0,0,0,0,0,0,0,0,0,0,0,0,0,0,0,0,0,0,0,2,2
participant_7_BUY,[],"[1039, 2031, 3340]",[],[],[],[1001],"[1033, 1029]",[],[],[],"[3105, 1028]",[],[6660],[],[],[],[],[],"[3068, 1033, 1029]",[],[1029],[],[],"[3105, 3047, 1029]",[]
participant_7_SOLD,[],[],[],[],[],[],[],[],[],[],"[1033, 1029]",[1039],[1028],[],[],[],[],[],"[6660, 3105]",[],[],[],[],"[1033, 1029, 1001, 1029]",[]
participant_7_UNDO,[],[],[],[],[],[],[],[],[],[],[],[],[],[],[],[],[],[],[],[],[],[],[],[],[]
participant_8_GOLD,500,500,597,804,1088,1231,1490,1682,2466,3035,3318,3483,4053,4315,4603,4767,5073,5300,5422,6143,6342,6841,6984,7380,7593
participant_8_CURRENTGOLD,500,0,97,4,288,431,340,532,66,635,618,183,753,1015,1303,1467,148,375,147,868,117,616,759,280,493
participant_8_LEVEL,1,1,1,2,3,4,4,5,5,6,7,7,7,8,8,8,9,9,9,10,10,11,11,11,12
participant_8_MINIONSKILLED,0,0,4,9,19,20,25,29,32,40,50,52,65,73,79,82,86,92,92,100,104,107,108,111,112
participant_8_KILLS,0,0,0,0,0,0,0,0,1,2,2,2,2,2,2,2,2,2,2,3,3,4,4,4,4
participant_8_BUY,[],"[1055, 2003, 3340]",[],[1042],[],[],[1036],[],"[6670, 1018]",[],[1042],"[3006, 2003, 2003]",[],[],[],[],"[6672, 2003, 2055, 3363]",[],"[1042, 2003]",[],"[1053, 2003]",[],[],"[1043, 1037]",[]
participant_8_SOLD,[],[],[],"[2010, 2003]",[],[],[],"[2010, 2010]","[1036, 1042]",[],[],"[1042, 2422]",[],[2003],[2003],[],"[6670, 1018, 3340]",[2055],[],"[2003, 2003]",[],[2003],[],[1042],[]
participant_8_UNDO,[],[],[],[],[],[],[],[],[],[],[],[],[],[],[],[],[],[],[],[],[],[],[],"[[0, 1043]]",[]
participant_9_GOLD,500,500,522,798,933,1167,1330,1484,1687,1992,2126,2642,2996,3169,3349,3510,3770,3931,4823,5201,5341,5788,6072,6328,6709
participant_9_CURRENTGOLD,500,0,22,298,333,217,330,484,187,807,91,607,426,249,429,75,335,396,38,416,557,1003,487,743,809
participant_9_LEVEL,1,1,1,2,2,3,4,4,4,5,5,7,7,7,7,7,8,8,8,9,9,10,10,11,11
participant_9_MINIONSKILLED,0,0,0,1,1,1,3,3,4,4,4,5,5,6,6,6,11,12,17,19,19,26,28,28,33
participant_9_KILLS,0,0,0,0,1,1,1,1,1,2,2,2,2,2,2,2,2,2,2,3,3,3,4,4,4
participant_9_BUY,[],"[1054, 3340, 2003]",[],[],[],[3057],[],[],[],[],"[3051, 1028]",[],[],[3067],[],[3078],[],[],"[1001, 1056]",[3111],[],[1028],[],[3123],[]
participant_9_SOLD,[],[],[],[2003],[],[],[],[],[],[],[],[],[],[1028],[],"[3057, 3051, 3067]",[],[],[],[1001],[],[],[],[],[]
participant_9_UNDO,[],[],[],[],[],[],[],[],[],[],[],[],[],[],[],[],[],[],[],[],[],[],[],[],[]
team0_KILLS,0,0,0,2,4,7,8,8,8,11,14,16,18,20,20,22,23,27,28,31,33,34,37,40,44
team0_CURRENTGOLD,2500,50,420,1675,2092,3693,3556,4772,4658,3363,3148,5411,4501,3560,4889,4339,3097,6188,5964,4183,3505,4662,6525,3770,5658
team0_TOTALGOLD,2500,2500,2870,4885,6872,9073,10676,11892,13088,15543,17578,20201,22241,24850,26189,28039,29597,32688,35214,38083,40540,42297,44959,47378,50083
team0_LEVEL,5,5,6,12,17,22,25,27,30,33,36,40,42,43,46,48,49,53,54,58,59,60,61,64,65
team0_SBIRES,0,0,7,18,35,49,71,88,112,134,149,174,185,209,224,231,245,275,292,306,317,336,352,362,371
team1_KILLS,0,0,0,0,1,1,1,1,2,4,4,5,5,6,6,6,7,7,8,10,10,11,13,15,16
team1_CURRENTGOLD,2500,0,398,1474,2447,2215,2076,3186,3458,4253,1452,1917,2036,3328,3376,2945,3683,3089,643,2088,1614,2447,2868,2113,3181
team1_TOTALGOLD,2500,2500,2898,4274,5772,6900,7911,9021,11053,13143,14142,15617,17181,19223,20221,21038,23401,24507,26161,28756,29531,30965,32536,35006,36539
team1_LEVEL,5,5,6,13,16,20,22,25,28,31,33,36,37,39,40,41,45,46,46,49,50,54,54,56,58
team1_SBIRES,0,0,10,28,42,60,77,95,116,125,148,164,184,204,213,224,252,265,272,284,293,310,315,322,330
delta_KILLS,0,0,0,2,3,6,7,7,6,7,10,11,13,14,14,16,16,20,20,21,23,23,24,25,28
delta_CURRENTGOLD,0,50,22,201,-355,1478,1480,1586,1200,-890,1696,3494,2465,232,1513,1394,-586,3099,5321,2095,1891,2215,3657,1657,2477
delta_TOTALGOLD,0,0,-28,611,1100,2173,2765,2871,2035,2400,3436,4584,5060,5627,5968,7001,6196,8181,9053,9327,11009,11332,12423,12372,13544
delta_LEVEL,0,0,0,-1,1,2,3,2,2,2,3,4,5,4,6,7,4,7,8,9,9,6,7,8,7
delta_SBIRES,0,0,-3,-10,-7,-11,-6,-7,-4,9,1,10,1,5,11,7,-7,10,20,22,24,26,37,40,41
