name,team0,team1
win,Fail,Win
firstBlood,True,False
firstTower,False,True
firstInhibitor,False,True
firstBaron,False,False
firstDragon,False,True
firstRiftHerald,False,False
towerKills,1,11
inhibitorKills,0,3
baronKills,0,0
dragonKills,0,3
riftHeraldKills,0,0
