name,frame_0,frame_1,frame_2,frame_3,frame_4,frame_5,frame_6,frame_7,frame_8,frame_9,frame_10,frame_11,frame_12,frame_13,frame_14,frame_15,frame_16,frame_17,frame_18,frame_19,frame_20,frame_21,frame_22,frame_23,frame_24,frame_25,frame_26,frame_27,frame_28,frame_29,frame_30,frame_31,frame_32,frame_33,frame_34,frame_35,frame_36,frame_37,frame_38,frame_39,frame_40,frame_41,frame_42,frame_43,frame_44
nameStamp,Tstart,Tearly,Tearly,Tearly,Tearly,Tearly,Tearly,Tearly,Tearly,Tearly,Tearly,Tearly,Tearly,Tearly,Tearly,Tearly,Tearly,Tearly,Tmid,Tmid,Tmid,Tmid,Tmid,Tmid,Tmid,Tend,Tend,Tend,Tend,Tend,Tend,Tend,Tend,Tend,Tend,Tend,Tend,Tend,Tend,Tend,Tend,Tend,Tend,Tend,Tend
timestamp,0,60029,120062,180091,240115,300120,360139,420166,480193,540225,600251,660279,720298,780301,840327,900328,960352,1020376,1080404,1140432,1200457,1260458,1320482,1380486,1440509,1500542,1560565,1620596,1680625,1740655,1800683,1860686,1920718,1980747,2040772,2100776,2160804,2220806,2280809,2340810,2400841,2460865,2520887,2580894,2640894
participant_0_GOLD,500,500,563,832,1162,1396,1554,1941,2140,2417,2539,2828,3104,3653,4011,4210,4452,5223,5750,5873,6319,6673,7175,7656,8191,9339,9686,10073,10494,10666,10957,11339,11461,11897,12019,12141,12448,12670,13155,13466,13793,14365,14488,14610,14734
participant_0_CURRENTGOLD,500,0,63,332,662,896,109,496,295,572,154,443,719,1268,1626,230,171,867,1395,717,1164,1517,1119,730,565,1713,811,1197,369,541,832,24,146,582,704,827,1133,55,541,851,279,851,973,1096,824
participant_0_LEVEL,1,1,1,3,4,5,5,6,7,7,7,8,8,9,9,10,10,10,11,11,11,12,12,13,13,14,14,14,14,14,15,15,15,16,16,16,16,16,17,17,17,18,18,18,18
participant_0_MINIONSKILLED,0,0,2,11,21,28,30,44,48,58,58,65,74,86,96,101,108,111,117,117,123,123,132,133,133,134,137,145,150,150,153,158,158,169,169,169,174,174,178,182,188,188,188,188,188
participant_0_KILLS,0,0,0,0,0,0,0,0,0,0,0,0,0,1,1,1,1,1,1,1,1,1,1,2,2,2,3,3,4,5,5,5,6,6,6,6,6,6,7,8,8,8,8,12,12
participant_0_BUY,[],"[1055, 2003, 3340]",[],[],[],"[1042, 1042]",[],"[2015, 2031]",[],[],[],[1038],[],[],"[3095, 2055]",[],[],[6670],[],[],"[1053, 1037]",[],[3006],[],"[6672, 1042]",[],[2015],[],[],[],[3094],[],[],[],"[1053, 1018]",[],[],[],[],[],"[3035, 3036]",[],[],[],[]
participant_0_SOLD,[],[],[],[2003],[],[],[],[1042],[],[],[],[],[],[],"[1038, 2015, 2055]",[],[],[1042],[],[],[],[],[2422],[],"[6670, 1037]",[],[1042],[],[],[2031],[2015],[],[],[],[1055],[],[],[],[],[],"[1055, 3035]",[],[],[],[]
participant_0_UNDO,[],[],[],[],[],[],[],[],[],[],[],[],[],[],[],[],[],[],[],[],"[[0, 1053]]",[],[],[],[],[],[],[],[],[],[],[],[],[],"[[0, 1018], [1055, 0]]",[],[],[],[],[],[],[],[],[],[]
participant_1_GOLD,500,500,663,918,1116,1498,1621,1963,2185,2578,2866,3193,3345,3937,4100,4277,4585,5075,5247,6052,6395,7023,7533,8231,8728,9215,9618,10075,10344,10787,11132,11596,11791,11913,12036,12198,12919,13353,13842,14192,14645,14987,15572,16639,16712
participant_1_CURRENTGOLD,500,0,163,418,266,648,771,-87,85,478,76,403,80,-3,160,337,645,1135,1307,1012,1355,1983,293,991,88,575,178,635,905,-78,268,731,-99,-26,96,-191,530,963,1453,1803,-94,248,834,1900,2162
participant_1_LEVEL,1,1,2,3,3,4,4,5,5,6,6,7,7,7,7,7,8,9,9,9,10,11,11,12,12,13,13,14,14,14,15,15,15,15,15,15,16,17,17,17,18,18,18,18,18
participant_1_MINIONSKILLED,0,0,0,0,0,0,0,0,0,0,0,0,1,1,1,2,2,8,8,11,11,11,13,18,18,24,26,26,28,28,28,33,33,33,33,33,39,39,39,41,43,43,47,57,57
participant_1_KILLS,0,0,0,0,0,0,0,0,0,1,2,2,3,3,3,3,4,4,4,4,5,6,8,9,9,9,9,10,12,12,15,16,16,16,16,17,20,20,22,22,22,24,25,25,25
participant_1_BUY,[],"[2033, 3340]",[],[],[],"[1036, 2055]",[],[],"[1053, 1001, 2055]",[],[3134],[1036],[],"[6692, 2055, 3364]",[],[],[3117],[1037],[],[],[3134],[3142],[],[3134],[1028],[],"[3814, 1036]",[],[],[3035],[1036],[],"[6694, 1037]",[],[],[],[6676],[2140],[],[2140],[],[],[],[],[2140]
participant_1_SOLD,[],[],[],[],[],[],[2055],[],"[1036, 2055]",[],[],[],[],"[3134, 1036, 1053, 3340]",[2055],[],[1001],[],[],[],[],"[3134, 1037]",[],[],[],[],"[3134, 1028]",[],[],"[1036, 2033]",[],[],"[1036, 3035]",[],[],[],[1037],[2140],[],[2140],[],[],[],[],[2140]
participant_1_UNDO,[],[],[],[],[],[],[],[],[],[],[],[],[],[],[],[],[],[],[],[],[],[],[],[],[],[],[],[],[],[],[],[],[],[],[],[],[],[],[],[],[],[],[],[],[]
participant_2_GOLD,500,500,563,755,1053,1336,1592,1899,2063,2719,3375,3692,4332,4566,4966,5350,5923,6191,6447,6793,7447,8060,8882,9551,10114,10543,11278,11704,12581,12961,14055,14578,15140,15542,15804,16282,17756,18105,18851,18974,19465,20405,21014,21136,21209
participant_2_CURRENTGOLD,500,0,63,255,553,401,657,954,193,839,395,352,982,291,681,1065,938,331,587,933,487,75,897,466,629,1059,43,469,1346,827,1571,2093,180,583,844,1323,672,520,1267,890,1381,2321,2930,3052,2484
participant_2_LEVEL,1,1,1,3,4,4,5,6,7,7,8,9,10,10,10,11,12,12,12,12,13,13,14,14,15,15,15,16,16,16,17,17,17,17,17,18,18,18,18,18,18,18,18,18,18
participant_2_MINIONSKILLED,0,0,2,6,17,24,31,39,42,53,58,66,75,82,94,105,110,114,119,128,137,146,151,159,161,171,174,179,182,193,197,197,197,204,208,211,222,228,228,228,242,247,247,247,247
participant_2_KILLS,0,0,0,0,0,0,0,0,0,0,0,0,0,0,0,0,0,0,0,0,0,0,0,0,0,1,1,1,1,1,1,1,1,1,1,1,1,1,1,1,1,1,1,1,1
participant_2_BUY,[],"[3850, 2003, 2003, 3340]",[],[],[],"[1052, 2055, 2055]",[],"[1004, 2055]",[],[],[],[],"[4642, 1028, 3364]","[3067, 2055]",[],[],[],[6617],[],[2055],"[1001, 2055]",[1004],[3114],[2055],[3158],"[2055, 2055]",[],[1026],[],[3504],[],[1004],[3114],[],[],[],[],[],[],[3222],[],[],[],[],[]
participant_2_SOLD,[],[],[],[2003],[],[],"[2055, 2003]",[],[],[],[],[3850],"[1004, 1052, 3340]","[2055, 1028]",[],[],[2055],"[3067, 4642]",[],[2055],[],[],"[3851, 2055, 1004]",[],"[2055, 1001]",[2055],[],[],[],"[3114, 1026]",[],[],[1004],[],[],[],[],[],[],[3114],[2055],[2055],[],[],[]
participant_2_UNDO,[],[],[],[],[],[],[],[],[],[],[],[],[],[],[],[],[],[],[],[],[],[],[],[],[],[],[],[],[],[],[],[],[],[],[],[],[],[],[],[],[],[],[],[],[]
participant_3_GOLD,500,500,563,846,1106,1361,1645,1833,2122,2479,2622,2988,3194,3782,3905,4237,4617,4858,5170,5570,5713,6038,6415,7293,8002,8192,8833,9127,9700,10238,10410,10632,11281,11695,11817,11940,12062,12184,12637,13760,13967,14265,14597,16189,16262
participant_3_CURRENTGOLD,500,0,63,346,606,261,545,183,472,829,972,38,244,832,180,512,892,133,445,845,113,438,15,893,77,267,508,803,1375,1973,145,368,1016,1431,653,775,898,1020,1473,2595,83,381,713,2305,1957
participant_3_LEVEL,1,1,1,2,3,3,4,4,5,6,6,7,7,8,8,8,9,9,9,10,10,10,11,11,12,12,13,13,13,14,14,14,15,15,15,15,15,15,15,16,16,16,17,18,18
participant_3_MINIONSKILLED,0,0,2,11,17,23,32,33,39,48,49,60,65,70,70,82,89,96,104,111,112,120,126,129,135,136,138,140,143,144,144,144,144,153,153,153,153,153,157,161,161,163,166,173,173
participant_3_KILLS,0,0,0,0,0,0,0,0,0,0,0,0,0,1,1,1,1,1,1,3,3,4,5,6,6,6,6,6,6,7,7,7,7,7,7,7,7,7,7,7,7,7,7,8,8
participant_3_BUY,[],"[1035, 2031, 3340]",[],[],[1036],[],[],[6029],[],[],[3044],[],"[1028, 2055]","[2055, 6630]",[],[],[],[],[],[3133],[],[],[3071],[],"[3133, 1029]",[],[3111],[],[],"[1031, 1037]",[],[],"[6333, 1036, 1036]",[],[],[3133],[],[],[],[],[6694],[1036],[],[],[]
participant_3_SOLD,[],[],[],[],[],[],[],[],[],[1035],"[2031, 1036]",[],[],"[6029, 3044, 1028]",[],[2055],[],[],[2055],[],[],[],[3133],[],[],[],[2422],[],[],[1029],[],[],"[1031, 3133, 1037]",[],[],"[1036, 1036]",[],[],[],[],[3133],[],[],[],[]
participant_3_UNDO,[],[],[],[],[],[],[],[],[],[],[],[],[],[],[],[],[],[],[],[],[],[],[],[],[],[],[],[],[],[],[],[],[],[],[],[],[],[],[],[],[],"[[0, 1036]]",[],[],[]
participant_4_GOLD,500,500,543,737,973,1107,1262,1416,1624,1919,2127,2267,2407,2666,2867,3057,3359,3499,3749,4025,4225,4516,4880,5058,5611,6180,6496,6636,7100,7321,7696,8012,8152,8292,8433,8723,9038,9179,9636,9777,9917,10129,10368,10897,10974
participant_4_CURRENTGOLD,500,0,43,237,473,-28,127,-94,114,409,617,757,132,-134,67,257,559,-201,49,250,25,66,-120,-67,-164,255,571,-189,276,-154,171,237,-223,-82,58,348,664,804,1262,-98,-7,204,443,973,1599
participant_4_LEVEL,1,1,1,2,3,3,4,4,4,5,5,6,6,6,6,7,7,8,8,8,9,9,10,10,11,11,12,12,12,13,13,13,13,13,13,14,14,15,15,15,15,16,16,17,17
participant_4_MINIONSKILLED,0,0,0,0,1,1,1,1,2,2,3,3,3,5,5,6,9,9,9,11,11,11,12,12,12,13,13,13,13,14,14,14,14,14,14,14,14,14,15,15,15,16,16,17,17
participant_4_KILLS,0,0,0,0,0,0,0,0,0,0,0,0,0,0,0,0,0,1,1,1,1,1,1,1,1,4,4,4,4,4,4,4,4,4,4,4,4,4,5,5,5,6,6,6,6
participant_4_BUY,[],"[1082, 2031, 3340]",[],[],[],[],"[1052, 1052, 2055]",[],[1028],[],"[4635, 2055]",[],[],[],[],[4633],"[1001, 3363]",[2055],[],[3020],[],[],[3191],[3108],[3157],[],[3041],[],[1058],[],[],[1058],[],[],[],[],[],[3089],[],[],[1011],[],[],[],[]
participant_4_SOLD,[],[],[],[],[],[],[],[2055],[],[],"[1028, 1052]",[],[],[],[],"[1052, 4635]","[2055, 3340]",[],[],[1001],[],[],[],[2055],"[3191, 3108]",[],[1082],[],[],[],[],[2031],[],[],[],[],[],"[1058, 1058]",[],[],[],[],[],[],[]
participant_4_UNDO,[],[],[],[],[],[],[],[],[],[],[],[],[],[],[],[],[],[],[],[],[],[],[],[],[],[],[],[],[],[],[],[],[],[],[],[],[],[],[],[],[],[],[],[],[]
participant_5_GOLD,500,500,521,762,1011,1308,1581,1724,2321,2514,3014,3476,3661,3910,4246,4462,5047,5283,5463,6089,6464,7040,7226,7613,7978,8101,8418,8808,9068,10234,10420,10631,11130,11253,11594,12017,12202,12876,13152,13274,13688,14474,14813,15109,15132
participant_5_CURRENTGOLD,500,500,21,262,511,808,1081,104,701,364,864,426,611,760,1096,112,697,98,278,904,779,1355,36,423,788,111,428,818,228,495,245,456,956,263,605,227,413,1087,1362,635,199,985,424,720,582
participant_5_LEVEL,1,1,1,3,4,5,6,6,7,7,8,8,9,9,10,10,11,11,11,11,12,13,13,13,13,13,14,14,14,15,15,15,16,16,16,17,17,17,17,17,18,18,18,18,18
participant_5_MINIONSKILLED,0,0,0,6,13,23,29,30,41,45,47,54,58,66,75,80,92,96,98,104,114,128,132,144,147,147,154,158,162,173,177,178,187,187,193,193,197,209,214,214,223,233,235,241,241
participant_5_KILLS,0,0,0,0,1,1,1,1,1,1,2,2,2,2,2,2,2,2,2,2,2,2,4,4,4,4,4,4,4,4,5,7,8,8,9,9,9,9,9,9,9,9,11,11,11
participant_5_BUY,[],"[1056, 2003, 2003, 3340]",[],[],[],"[1026, 1001]",[],[],[3802],[],[3020],[],[],[],[],[6655],[1052],[],[],"[1058, 2055]",[],[3145],[4628],[],[],[],[],[],[1058],[],[],[1058],[],"[3089, 1026]",[],[1011],[4637],[],[1052],[3916],[],[],[],[3165],[]
participant_5_SOLD,[],[],[],[],"[2003, 2003]",[],[],[],[],[],[1001],[],[],[],[],"[3802, 1026]",[],[],[],[],[],"[2055, 1052]","[1058, 3145]",[],[],[],[1056],[],[],[],[],[],[],"[1058, 1058]",[],[1056],"[1026, 1011]",[],[],[1052],[],[],[],[3916],[]
participant_5_UNDO,[],[],[],[],[],[],[],[],[],[],[],[],[],[],[],[],[],[],[],[],[],[],[],[],[],[],"[[1056, 0]]",[],[],[],[],[],[],[],[],[],[],[],[],[],[],[],[],[],[]
participant_6_GOLD,500,500,621,1013,1318,1525,1860,2172,2388,2695,3215,3547,3860,4387,4674,5152,5411,5904,6482,6809,7332,7559,7919,8311,8483,8737,8859,8981,9179,9451,9773,9971,10243,10366,10714,11221,11418,11626,11748,12210,12614,12836,12996,13118,13142
participant_6_CURRENTGOLD,500,0,121,513,818,225,560,872,63,370,890,172,485,1012,1299,127,386,879,1457,584,1107,1334,1694,2086,308,562,234,357,554,586,909,356,329,451,799,257,454,361,484,246,650,72,232,354,317
participant_6_LEVEL,1,1,2,3,4,4,5,5,6,6,7,7,8,8,9,9,10,10,11,11,11,11,12,12,12,13,13,13,13,13,14,14,14,14,15,15,15,15,15,16,16,16,17,17,17
participant_6_MINIONSKILLED,0,0,0,0,0,0,0,0,0,0,0,0,0,6,6,6,6,6,7,7,7,7,16,16,16,16,16,16,16,16,17,17,17,17,17,17,17,17,17,19,23,23,23,23,23
participant_6_KILLS,0,0,0,0,0,0,0,0,1,1,2,2,2,2,2,2,3,3,3,3,3,3,3,3,3,3,3,3,3,4,4,4,4,4,4,4,4,4,4,4,4,5,5,5,5
participant_6_BUY,[],[],"[1056, 2003, 2003]",[],[],[],[],"[1052, 1052, 2003, 2003, 2055, 2055]",[],"[3802, 2003, 2003]",[],[3108],[],"[2003, 2003]",[],[6653],[],"[1028, 1052]",[],[],[1011],[],[4637],[],[],[3111],[],[],[1026],[1011],[1052],[],[],[3116],[],[3916],[],[],[],[1026],[3165],[],[3191],[],[]
participant_6_SOLD,[],[],[],[2003],[],[],[2003],[],"[2003, 2003]","[1052, 1052]","[2003, 2003]",[],[],[],"[2003, 2003]","[3802, 3108]",[],[],[],[],[1028],[],"[1056, 1011, 1052]",[],[2055],[2422],[],[2055],[],[],[],[],[],"[1026, 1011, 1052]",[],[],[],[],[],[],"[1026, 3916]",[],[],[],[]
participant_6_UNDO,[],[],[],[],[],[],[],[],[],[],[],[],[],[],[],[],[],[],[],[],[],[],[],[],[],[],[],[],[],[],[],[],[],[],[],[],[],[],[],[],[],[],[],[],[]
participant_7_GOLD,500,500,549,839,1460,1757,2135,2571,3027,3397,3819,4268,4573,4737,5191,5461,5667,6400,6672,7124,7247,7418,8169,8409,8878,9128,9515,9919,10188,10310,11391,12246,12989,13349,13893,14441,14890,15284,15492,15614,15736,15959,17486,17608,17632
participant_7_CURRENTGOLD,500,0,49,339,960,97,465,901,47,407,29,468,763,927,1371,391,162,895,1167,294,417,3,54,294,763,1013,1400,1805,823,945,2027,1631,2375,584,1129,936,136,530,302,60,182,405,1932,354,97
participant_7_LEVEL,1,1,1,3,4,5,6,6,7,8,8,8,9,9,9,10,10,10,11,11,11,11,12,12,12,12,13,13,13,13,14,14,15,15,16,16,16,17,17,17,17,17,18,18,18
participant_7_MINIONSKILLED,0,0,2,12,18,26,38,47,54,65,65,72,79,82,94,103,108,113,113,123,123,126,128,131,140,140,152,159,163,163,169,173,184,194,198,198,209,222,222,222,222,222,228,228,228
participant_7_KILLS,0,0,0,0,0,0,0,0,0,0,0,0,0,1,1,1,1,1,2,2,3,3,3,3,3,3,3,3,3,3,3,3,3,3,3,3,3,3,3,4,4,4,4,4,4
participant_7_BUY,[],"[1039, 2031, 3340]",[],[],[],"[1028, 1028]",[],[],"[6660, 1033, 1029, 2055]",[],[],"[3105, 1001]",[],[],[],"[3068, 3111, 2055, 2055]",[3364],[],[],"[3076, 1028]",[],[],[],[],"[3075, 1033]",[],[1033],[],[],[1029],[],[3105],[1029],[],[],[3193],[],[1029],[],"[1029, 3082]",[],[3067],[],[],[]
participant_7_SOLD,[],[],[],[],[],[],[],[],"[1028, 1028]",[],"[2055, 1039]","[1033, 1029]",[],[],[],"[6660, 3105, 1001]",[3340],[],[],[],"[2055, 2055]",[],[],[],"[3076, 1028]",[],[],[],[],[2031],[],"[1033, 1029]",[],[],[],"[1029, 3105, 1033]",[],[],[],"[1029, 1029]",[],[],[],[],[]
participant_7_UNDO,[],[],[],[],[],[],[],[],[],[],[],[],[],[],[],[],[],[],[],[],[],[],[],[],[],[],[],[],[],[],[],[],[],[],[],[],[],[],[],[],[],[],[],[],[]
participant_8_GOLD,500,500,577,846,1155,1501,1701,2471,2780,2923,3235,3399,3869,4085,4527,4810,5057,5320,5526,5951,6191,6622,6964,7233,7579,7731,8096,8336,8480,8692,8946,9202,9595,9717,10290,10866,11308,11743,12189,12401,12648,13217,13690,13833,13856
participant_8_CURRENTGOLD,500,0,77,346,655,1001,201,971,1280,248,560,124,594,135,577,860,1107,495,701,201,441,672,114,383,729,881,1246,386,530,442,197,452,845,68,641,1216,539,974,219,432,29,598,1070,1214,1056
participant_8_LEVEL,1,1,1,2,3,4,4,5,6,6,6,6,7,7,7,8,8,9,9,9,10,10,10,11,11,11,12,12,12,12,12,13,13,13,14,15,15,15,16,16,16,16,17,17,17
participant_8_MINIONSKILLED,0,0,3,11,19,29,33,45,51,52,63,65,77,83,83,88,95,100,105,109,112,113,117,121,127,129,135,138,139,140,143,150,157,157,159,164,164,173,178,179,182,185,198,199,199
participant_8_KILLS,0,0,0,0,0,0,0,0,1,1,1,1,1,1,1,2,2,2,2,2,2,2,2,2,2,2,2,2,3,3,3,3,3,3,5,5,5,5,6,6,6,6,6,6,6
participant_8_BUY,[],"[3850, 3340, 2003, 2003]",[],[],[],"[1027, 1001]",[],[],[],"[3802, 2055, 2003, 3364]",[],[3158],[],[],[1026],[],[],[1011],[],[1052],[3916],[],[],[],[],[],[],[6655],[],[1026],[],[],[],[],[],"[3116, 1026]",[3165],[],[1058],[],[],[],[],[],[]
participant_8_SOLD,[],[],[],[],[],[],[],"[2003, 3850, 2003]",[],"[1027, 3340]",[2003],[1001],[],[3851],[],[],[2055],[],[],[],[1052],[],[],[],[],[],[],"[3802, 1026]",[],[],[],[],[],[],[],"[1026, 1011]","[1026, 3916]",[],[],[],[],[],[],[],[]
participant_8_UNDO,[],[],[],[],[],[],[],[],[],[],[],[],[],[],[],[],[],[],[],[],[],[],[],[],[],[],[],[],[],[],[],[],[],[],[],[],[],[],[],[],[],[],[],[],[]
participant_9_GOLD,500,500,563,831,1086,1220,1435,1899,2408,2609,2809,3086,3411,3821,4007,4490,4660,4850,5033,5398,5539,5709,5923,6088,6278,6420,6623,6842,7710,8010,8271,8501,8704,8845,9859,10300,10515,10684,11824,12055,12296,12436,12738,12878,12905
participant_9_CURRENTGOLD,500,0,63,331,586,70,285,749,1258,384,584,261,586,996,332,815,985,276,458,388,164,334,549,713,903,1045,1248,217,1085,536,796,1026,1230,1370,2385,725,90,259,149,381,621,761,1063,1204,1230
participant_9_LEVEL,1,1,1,2,3,3,4,5,5,5,6,6,7,7,7,8,8,8,9,9,9,9,10,10,10,10,10,11,11,12,12,12,12,12,13,14,14,14,15,15,15,15,16,16,16
participant_9_MINIONSKILLED,0,0,0,1,1,1,1,1,2,2,2,6,8,8,8,11,12,12,15,15,15,16,19,21,21,21,25,30,32,37,39,40,44,44,46,46,46,48,48,54,60,60,63,63,63
participant_9_KILLS,0,0,0,0,0,0,0,1,1,1,1,1,1,1,2,2,2,2,2,2,2,3,3,3,3,3,3,3,3,3,3,3,3,3,4,4,5,5,5,5,5,6,6,6,6
participant_9_BUY,[],"[1055, 2003, 3340]",[],[],[],[],"[1036, 1036, 1001]",[],[],"[3006, 1042, 2055]",[],"[6670, 6670, 1042]",[],"[1018, 2055]",[],[],[],[1037],[],"[6672, 1042]",[],[6677],"[1018, 1042]",[],[],[],[],[3124],[],[1029],[1031],[],[],[1053],[],[],[1038],[],[3072],[],[2420],[],[],[],[]
participant_9_SOLD,[],[],[],[2003],[],[],[],[],[],[1001],[],"[1036, 1042, 1036, 1036, 1042, 1036]",[],[2055],[],[2055],[],[],[],"[6670, 1018, 1037]",[],"[1042, 1042]",[],[],[],[],[],"[6677, 1018, 1042]",[],[],[1029],[],[],[],[],[],[1055],[],"[1038, 1053]",[],[],[],[],[2420],[]
participant_9_UNDO,[],[],[],[],[],[],[],[],[],[],[],"[[0, 6670]]",[],[],[],[],[],[],[],[],[],[],[],[],[],[],[],[],[],[],[],[],[],[],[],[],[],[],[],[],[],[],[],[],[]
team0_KILLS,0,0,0,0,0,0,0,0,0,1,2,2,3,5,5,5,6,7,7,9,10,12,15,18,18,22,23,24,27,29,32,33,34,34,34,35,38,38,42,43,43,46,47,52,52
team0_CURRENTGOLD,2500,0,395,1588,2560,2178,2209,1452,1159,3127,2214,1993,2157,2254,2714,2401,3205,2265,3783,3757,3144,4079,2204,3013,1195,3869,2111,2915,4271,3109,2987,3453,1020,2488,2355,3082,3897,3362,5996,6041,1642,4005,5893,9326,9026
team0_TOTALGOLD,2500,2500,2895,4088,5410,6698,7674,9052,10134,12112,13529,14968,16382,18604,19849,21131,22936,24846,26363,28313,30099,32310,34885,37789,40646,43469,45911,47615,50219,51973,54250,56157,57825,59339,60109,61284,64223,65491,68121,70169,71787,74151,76039,79471,79891
team0_LEVEL,5,5,6,13,17,19,22,25,28,31,32,37,38,40,40,43,46,48,49,50,53,55,58,60,63,65,67,69,69,71,74,74,75,76,76,78,79,81,82,83,84,86,87,89,89
team0_SBIRES,0,0,6,28,56,76,94,117,131,161,168,194,218,244,266,296,318,338,357,378,394,411,434,451,459,478,488,503,516,529,536,546,546,573,577,580,602,608,617,627,649,657,664,682,682
team1_KILLS,0,0,0,0,1,1,1,2,4,4,6,6,6,7,8,9,10,10,11,11,12,13,15,15,15,15,15,15,16,17,18,20,21,21,25,25,26,26,27,28,28,30,32,32,32
team1_CURRENTGOLD,2500,500,331,1791,3530,2201,2592,3597,3349,1773,2927,1451,3039,3830,4675,2305,3337,2643,4061,2371,2908,3698,2447,3899,3491,3612,4556,3583,3220,3004,4174,3921,5735,2736,5559,3361,1632,3211,2516,1754,1681,2821,4721,3846,3282
team1_TOTALGOLD,2500,2500,2831,4291,6030,7311,8712,10837,12924,14138,16092,17776,19374,20940,22645,24375,25842,27757,29176,31371,32773,34348,36201,37654,39196,40117,41511,42886,44625,46697,48801,50551,52661,53530,56350,58845,60333,62213,64405,65554,66982,68922,71723,72546,72667
team1_LEVEL,5,5,6,13,18,21,25,27,31,32,35,35,40,40,42,45,47,48,51,51,53,54,57,58,58,59,62,63,63,65,67,68,70,70,74,77,77,78,80,81,82,82,86,86,86
team1_SBIRES,0,0,5,30,51,79,101,123,148,164,177,197,222,245,266,288,313,327,338,358,371,390,412,433,451,453,482,501,512,529,545,558,589,599,613,618,633,669,679,688,710,723,747,754,754
delta_KILLS,0,0,0,0,-1,-1,-1,-2,-4,-3,-4,-4,-3,-2,-3,-4,-4,-3,-4,-2,-2,-1,0,3,3,7,8,9,11,12,14,13,13,13,9,10,12,12,15,15,15,16,15,20,20
delta_CURRENTGOLD,0,-500,64,-203,-970,-23,-383,-2145,-2190,1354,-713,542,-882,-1576,-1961,96,-132,-378,-278,1386,236,381,-243,-886,-2296,257,-2445,-668,1051,105,-1187,-468,-4715,-248,-3204,-279,2265,151,3480,4287,-39,1184,1172,5480,5744
delta_TOTALGOLD,0,0,64,-203,-620,-613,-1038,-1785,-2790,-2026,-2563,-2808,-2992,-2336,-2796,-3244,-2906,-2911,-2813,-3058,-2674,-2038,-1316,135,1450,3352,4400,4729,5594,5276,5449,5606,5164,5809,3759,2439,3890,3278,3716,4615,4805,5229,4316,6925,7224
delta_LEVEL,0,0,0,0,-1,-2,-3,-2,-3,-1,-3,2,-2,0,-2,-2,-1,0,-2,-1,0,1,1,2,5,6,5,6,6,6,7,6,5,6,2,1,2,3,2,2,2,4,1,3,3
delta_SBIRES,0,0,1,-2,5,-3,-7,-6,-17,-3,-9,-3,-4,-1,0,8,5,11,19,20,23,21,22,18,8,25,6,2,4,0,-9,-12,-43,-26,-36,-38,-31,-61,-62,-61,-61,-66,-83,-72,-72
