name,team0,team1
win,Win,Fail
firstBlood,True,False
firstTower,True,False
firstInhibitor,True,False
firstBaron,False,True
firstDragon,True,False
firstRiftHerald,False,True
towerKills,7,9
inhibitorKills,2,5
baronKills,0,2
dragonKills,3,3
riftHeraldKills,1,1
