name,team0,team1
win,Fail,Win
firstBlood,False,True
firstTower,True,False
firstInhibitor,False,False
firstBaron,False,False
firstDragon,False,True
firstRiftHerald,False,True
towerKills,6,4
inhibitorKills,0,0
baronKills,0,0
dragonKills,1,4
riftHeraldKills,0,1
