name,team0,team1
win,Fail,Win
firstBlood,False,True
firstTower,False,True
firstInhibitor,True,False
firstBaron,False,True
firstDragon,True,False
firstRiftHerald,True,False
towerKills,4,10
inhibitorKills,1,1
baronKills,0,2
dragonKills,3,1
riftHeraldKills,2,0
