name,frame_0,frame_1,frame_2,frame_3,frame_4,frame_5,frame_6,frame_7,frame_8,frame_9,frame_10,frame_11,frame_12,frame_13,frame_14,frame_15,frame_16,frame_17,frame_18,frame_19,frame_20,frame_21,frame_22,frame_23,frame_24,frame_25,frame_26,frame_27
nameStamp,Tstart,Tearly,Tearly,Tearly,Tearly,Tearly,Tearly,Tearly,Tearly,Tearly,Tearly,Tearly,Tearly,Tearly,Tmid,Tmid,Tmid,Tmid,Tmid,Tmid,Tmid,Tmid,Tmid,Tmid,Tmid,Tmid,Tend,Tend
timestamp,0,60004,120032,180057,240065,300099,360124,420125,480128,540157,600179,660181,720208,780239,840264,900268,960293,1020300,1080331,1140361,1200386,1260419,1320421,1380434,1440436,1500444,1560471,1620471
participant_0_GOLD,500,500,597,839,1011,1448,1662,2137,2579,2964,3296,3433,3808,4014,4977,5260,5383,5847,6407,6635,7239,7817,7939,9238,10484,11130,11531,11767
participant_0_CURRENTGOLD,500,0,97,339,161,598,262,737,1179,189,521,258,633,139,1102,335,108,572,232,460,1064,1642,256,1555,2802,447,48,284
participant_0_LEVEL,1,1,1,3,3,5,5,6,6,7,8,8,9,9,10,10,10,11,11,11,12,12,12,13,14,14,15,15
participant_0_MINIONSKILLED,0,0,4,11,14,30,35,53,53,69,82,83,95,100,117,126,126,142,145,145,162,167,167,178,178,187,199,199
participant_0_KILLS,0,0,0,0,1,1,1,1,2,2,2,2,2,2,4,4,4,5,5,5,5,5,6,8,9,9,9,9
participant_0_BUY,[],"[1056, 2003, 2003, 3340]",[],[],"[1029, 1029, 2031, 1001]",[],[],"[3191, 2055]",[],[3047],[],[],[3802],[],"[3285, 2055]",[],[],[],[],"[3136, 1026, 3364]",[],"[3151, 2420]",[],"[3157, 2055]",[],[1058],[],[]
participant_0_SOLD,[],[],[],"[2003, 2003]",[],[],[],"[1029, 1029]",[],[1001],[2055],[],[],[],[3802],[],[2055],[],[],"[2031, 3340]",[],"[3136, 1026]",[],"[3191, 2420]",[2055],[],[],[]
participant_0_UNDO,[],[],[],[],[],[],[],[],[],[],[],[],[],[],[],[],[],[],[],[],[],[],[],[],[],[],[],[]
participant_1_GOLD,500,500,628,913,1136,1448,1706,1934,2236,2544,2766,3239,3545,3998,4281,4428,4592,4950,5922,6439,7604,7964,8293,8658,9265,9813,10177,10516
participant_1_CURRENTGOLD,500,0,128,413,286,598,206,434,86,394,616,1089,1395,1848,356,103,267,625,1597,813,1979,2339,518,883,1490,188,553,891
participant_1_LEVEL,1,1,2,2,3,4,4,5,5,6,6,6,7,7,8,8,8,8,9,10,11,11,12,12,13,13,14,14
participant_1_MINIONSKILLED,0,0,0,0,0,0,0,1,1,1,1,2,2,2,2,2,2,3,3,3,8,12,14,14,14,14,17,18
participant_1_KILLS,0,0,0,0,0,0,0,0,0,0,0,0,0,0,0,1,1,1,1,1,1,1,1,2,2,2,2,3
participant_1_BUY,[],"[3858, 2003, 2003, 3340]",[],[],[],[],[],[],[],"[3010, 1001]",[],[],[],"[1029, 1027]",[],"[3024, 1029]",[],[],[3082],[],[3110],[],[3117],[],[1011],[],[],[]
participant_1_SOLD,[],[],[],[],[2003],[2003],[],[],[],[],[],[],[3858],"[2419, 2423]",[],"[1027, 1029]",[],[],[1029],[],"[3082, 3024]",[],"[1001, 3859]",[],[],[],[],[]
participant_1_UNDO,[],[],[],[],[],[],[],[],[],[],[],[],[],[],[],[],[],[],[],[],[],[],[],[],[],[],[],[]
participant_2_GOLD,500,500,583,934,1553,1829,2249,2448,3182,3524,3845,4333,4588,5115,6437,7013,7363,8047,8473,8906,9666,9991,10479,11481,12083,12637,12976,13371
participant_2_CURRENTGOLD,500,0,83,434,3,279,699,323,1057,599,920,1408,363,890,237,813,1163,1847,2273,416,1177,102,589,366,968,273,611,946
participant_2_LEVEL,1,1,1,3,4,5,6,6,8,8,9,10,10,10,11,12,12,12,13,13,14,14,15,15,15,16,16,16
participant_2_MINIONSKILLED,0,0,3,14,26,32,47,51,62,72,84,93,101,113,113,122,131,139,141,147,159,162,167,173,173,177,186,190
participant_2_KILLS,0,0,0,0,0,0,0,0,1,1,1,1,1,1,1,1,1,1,1,1,1,2,2,3,6,6,6,6
participant_2_BUY,[],"[2033, 3340]",[],[],[1036],[],[1053],[],[],"[3144, 1042, 1042, 2055]",[],[1043],[],[3153],[],[3057],[1036],[],[3044],[],[],[],"[3078, 2055]",[],[],[3071],[3047],[]
participant_2_SOLD,[],[],[],[],[],[],[1036],[],[],"[1053, 2055]",[],"[1042, 1042]",[],"[3144, 1043]",[],[],[],[],[1036],[],[],[],"[3057, 3044, 2055]",[],[],[],[2422],[]
participant_2_UNDO,[],[],[],[],[],[],[],[],[],[],[],[],[],[],[],[],[],[],[],[],[],[],[],[],[],[],[],[]
participant_3_GOLD,500,500,583,853,1113,1466,1715,2019,2476,2704,2931,3374,3596,3739,4116,5003,5241,5858,6275,6734,7615,8194,8813,9076,9298,10016,10928,11414
participant_3_CURRENTGOLD,500,0,83,353,-37,166,415,719,226,-146,81,524,746,839,1216,-172,16,633,-225,234,15,594,1213,1476,-202,516,728,1564
participant_3_LEVEL,1,1,1,2,3,3,4,4,5,5,6,6,7,7,7,8,9,9,10,10,10,11,11,12,12,13,13,13
participant_3_MINIONSKILLED,0,0,3,11,17,28,35,46,48,54,60,76,81,82,89,91,96,100,110,120,125,128,135,137,137,137,138,141
participant_3_KILLS,0,0,0,0,0,0,0,0,0,0,0,1,1,2,2,2,2,2,4,5,7,7,7,7,7,7,7,7
participant_3_BUY,[],"[1041, 2031, 3340]",[],[],[1036],[],[3715],[],"[1029, 1036]",[],[],[],[],[],"[1412, 3047, 1036]",[1028],[],[],[],"[3044, 3067]",[],[],"[3071, 1031, 1028]",[],[],"[3742, 2055, 2055]",[],[]
participant_3_SOLD,[],[],[],[],[],[],[1041],[],[],[],[],[],[],[],"[1036, 1036, 3715, 1029, 2422]",[],[],[],[],"[1028, 1036]",[],[],"[3044, 3067]",[],[],"[1031, 1028]",[2055],[]
participant_3_UNDO,[],[],[],[],[],[],[],[],[],[],[],[],[],[],[],[],[],[],[],[],[],[],[],[],[],[],[],[]
participant_4_GOLD,500,500,522,699,915,1147,1282,1451,1804,1981,2161,2399,2558,2698,2934,3348,3559,3933,4214,4417,4882,5141,5468,6095,6435,6911,7236,7797
participant_4_CURRENTGOLD,500,0,22,199,415,647,782,951,1304,81,261,499,658,148,384,248,459,833,414,617,282,541,168,795,136,611,936,1497
participant_4_LEVEL,1,1,1,2,3,4,4,5,6,6,6,7,7,7,8,8,8,9,9,10,10,11,11,12,12,13,13,13
participant_4_MINIONSKILLED,0,0,0,2,4,7,7,9,10,12,13,16,17,17,19,19,23,26,27,28,28,28,30,30,30,32,34,34
participant_4_KILLS,0,0,0,0,0,0,0,0,1,1,1,1,1,1,1,3,3,4,4,4,5,6,7,7,7,7,9,9
participant_4_BUY,[],"[1054, 1055, 3340, 2003]",[],[],"[1036, 1042]","[2003, 2003]",[],[],"[1053, 1001, 2003]","[3006, 2003]",[],[],[],[2003],[],"[1038, 1036, 1037, 2003, 2003]",[],[],"[3363, 3031]",[],"[1018, 1042]",[],[],[],"[3046, 1036]",[],"[3144, 1042]",[]
participant_4_SOLD,[],[],[],[2003],[],[],[],[],"[2003, 2003, 1036]","[1001, 1042]",[],[],[2003],[2003],[2003],[],[],"[2003, 2003]","[3340, 1038, 1037]",[],[],[],[],[],"[1042, 1018]",[],"[1053, 1036]",[]
participant_4_UNDO,[],"[[0, 1054]]",[],[],[],[],[],[],[],[],[],[],[],[],[],"[[0, 1036]]",[],[],[],[],[],[],[],[],[],[],[],[]
participant_5_GOLD,500,500,583,797,1848,2103,2509,2673,2844,3156,3383,4372,4494,5064,5229,5519,5942,6064,6269,6586,6709,6871,7015,7137,7259,7382,7901,8189
participant_5_CURRENTGOLD,500,0,83,297,1348,253,659,-127,44,356,583,1572,-206,364,-136,154,577,699,-216,51,-176,-14,130,-248,-176,-53,466,299
participant_5_LEVEL,1,1,1,2,4,5,6,6,7,7,8,9,9,9,9,10,10,10,10,11,11,11,11,12,12,12,12,13
participant_5_MINIONSKILLED,0,0,3,8,19,25,38,40,43,54,60,70,70,76,78,88,88,88,89,96,96,96,97,97,97,97,112,120
participant_5_KILLS,0,0,0,0,2,2,2,2,2,2,2,2,2,3,3,3,4,4,4,4,4,4,4,4,4,4,4,4
participant_5_BUY,[],"[3340, 1056, 2003, 2003]",[],[],[],"[3057, 1027, 1029]",[],"[3024, 2031, 1006]",[],[],[],[],"[3025, 3010]",[],[1057],[],[],[],[3001],[],[1029],[],[],[3047],[],[],[],[]
participant_5_SOLD,[],[],[],"[2003, 2003]",[],[],[],[1029],[],[],[],[],"[3057, 3024]",[],[1006],[],[2031],[1056],"[1056, 2422, 2031, 3010, 1057]",[],[],[],[],"[1029, 2422]",[],[],[],[]
participant_5_UNDO,[],[],[],[],[],"[[0, 1027]]",[],[],[],[],[],[],[],[],[],[],"[[2031, 0]]","[[1056, 0]]","[[1056, 0], [2422, 0]]",[],[],[],[],[],[],[],[],[]
participant_6_GOLD,500,500,620,948,1517,1822,2114,2541,2958,3364,3637,4184,4604,5351,5474,6205,6647,7165,7708,8019,9131,9604,9726,10453,10685,11042,11452,11538
participant_6_CURRENTGOLD,500,0,120,448,1017,1322,264,691,183,589,862,1409,79,826,99,30,472,990,100,411,323,796,43,771,662,1019,405,430
participant_6_LEVEL,1,1,2,3,4,4,5,6,6,7,7,8,8,9,9,9,10,11,11,11,12,12,12,12,13,13,14,14
participant_6_MINIONSKILLED,0,0,0,0,0,0,0,0,0,0,2,2,2,2,2,2,2,8,8,10,10,10,10,10,11,11,13,13
participant_6_KILLS,0,0,0,0,0,0,0,0,0,0,0,0,0,1,1,4,4,4,4,4,4,4,4,4,5,5,6,6
participant_6_BUY,[],"[1055, 2003, 3340]",[],[],[],"[1018, 2055, 2003]",[],[],[],[1038],[],[],[],[],"[3095, 1001, 3009, 2055]","[3086, 1038, 1042]",[],[3363],[],[1018],[],[],[],"[3031, 1036]",[3123],[],[],[3086]
participant_6_SOLD,[],[],[],[],[],[],[],[],[],[2003],[],[2055],[],[2003],"[1038, 1018, 1001]",[],[],[3340],[],[2055],[],[],[],"[1038, 1018]",[1036],[],[],[1042]
participant_6_UNDO,[],[],[],[],[],[],[],[],[],[],[],[],[],[],[],"[[0, 3086]]",[],[],[],[],[],[],[],[],[],[],[],[]
participant_7_GOLD,500,500,597,955,1169,1431,1652,2157,2404,2767,3071,3388,3661,4027,4150,4375,4687,4927,5349,5472,5813,5971,6255,6377,7120,7696,8214,8425
participant_7_CURRENTGOLD,500,0,97,455,69,331,552,157,54,417,721,188,386,752,275,25,337,577,999,422,763,121,405,227,370,946,1464,775
participant_7_LEVEL,1,1,1,3,4,4,5,6,6,7,8,8,9,9,9,9,10,10,10,10,11,11,12,12,12,13,13,14
participant_7_MINIONSKILLED,0,0,4,15,20,26,31,35,39,50,60,68,74,81,81,83,94,97,110,110,122,124,134,134,134,149,158,165
participant_7_KILLS,0,0,0,0,0,0,0,1,1,1,1,1,1,1,1,1,1,1,1,1,1,1,1,1,2,2,2,2
participant_7_BUY,[],"[1055, 2003, 3340]",[],[],"[1042, 1001]",[],[],[1053],[1036],[],[],"[3144, 3006]",[2055],[],"[1042, 1042]","[1043, 2055]",[],[],[],[3153],[],[1018],[],[1042],"[3086, 1042]",[],[],[3046]
participant_7_SOLD,[],[],[],[2003],[],[],[],[],[],[],[],"[1053, 1036, 1001, 1042]",[],[2055],[],"[1042, 1042]",[],[],[],"[3144, 1043]",[],[],[],[],"[1018, 1042]",[2055],[],"[1042, 3086]"
participant_7_UNDO,[],[],[],[],[],[],[],[],[],[],[],[],[],[],[],[],[],[],[],[],[],[],[],[],[],[],[],[]
participant_8_GOLD,500,500,541,934,1232,1466,1893,2162,2594,2822,3000,3352,3572,4858,5065,6531,6783,6905,7278,7589,7786,8360,8845,9042,9542,9936,10786,10872
participant_8_CURRENTGOLD,500,0,41,434,732,41,468,737,1169,97,275,627,847,2133,265,131,383,505,878,419,616,1190,1675,222,272,666,1517,472
participant_8_LEVEL,1,1,1,2,3,3,4,5,6,6,6,7,7,8,8,9,9,9,10,10,10,11,11,12,12,12,13,13
participant_8_MINIONSKILLED,0,0,1,14,24,28,42,50,61,67,71,81,86,99,104,110,114,114,125,132,132,146,156,156,161,172,174,174
participant_8_KILLS,0,0,0,0,0,0,0,0,0,0,0,0,0,0,0,0,0,0,0,0,0,0,0,0,0,0,0,0
participant_8_BUY,[],"[3854, 3340, 2003, 2003]",[],[],[],"[1001, 2055]",[],[],[],"[3117, 2055]",[],[],[],[],"[3024, 3105, 1029, 2055, 2055, 3364]",[3024],[],[3050],[2055],[],[],[3067],[1029],[],[],[1031],[],[]
participant_8_SOLD,[],[],[],[],[2010],[],[2055],[2003],"[2003, 2010, 2010]",[1001],[],[3854],[2055],[],[3340],[1029],[2055],"[3105, 3024]",[],[],[],[],[],[],[],[1029],[2055],[]
participant_8_UNDO,[],[],[],[],[],[],[],[],[],[],[],[],[],[],"[[0, 3024]]",[],[],[],[],[],[],[],[],[],[],[],[],[]
participant_9_GOLD,500,500,543,759,915,1112,1358,1513,1796,1931,2156,2382,2532,3354,3539,3979,4150,4300,4509,4733,5099,5314,5454,5670,5895,6049,6234,6332
participant_9_CURRENTGOLD,500,0,43,259,415,237,483,638,921,281,506,732,882,1704,339,179,350,250,384,608,974,389,229,445,670,325,509,607
participant_9_LEVEL,1,1,1,2,3,3,4,5,6,6,6,7,7,8,8,9,9,9,9,9,10,10,10,11,11,11,11,11
participant_9_MINIONSKILLED,0,0,1,3,4,5,9,10,11,11,16,18,19,21,23,23,24,25,25,30,30,30,30,30,31,32,34,34
participant_9_KILLS,0,0,0,0,0,0,0,0,1,1,1,2,2,3,3,4,4,4,5,5,7,8,8,9,9,9,9,9
participant_9_BUY,[],"[1041, 2031, 3340]",[],[],[],[],"[3715, 1036, 1036]",[],[1412],[],[],[],"[3057, 1028, 1001]",[],[3044],[3047],[],[],[3078],[],[3052],[],[1037],[],[1028],[],"[3053, 1029]",[]
participant_9_SOLD,[],[],[],[],[],[],[1041],[],"[1036, 1036, 3715]",[],[],[],[3340],[3513],[1028],[1001],[],[],"[3057, 3044]",[],[],[],[],[],[2031],[],"[3052, 1037, 1028]",[]
participant_9_UNDO,[],[],[],[],[],[],[],[],[],[],[],[],[],[],[],[],[],[],[],[],[],[],[],[],[],[],[],[]
team0_KILLS,0,0,0,0,1,1,1,1,4,4,4,5,5,6,8,11,11,13,15,16,19,21,23,27,31,31,33,34
team0_CURRENTGOLD,2500,0,413,1738,828,2288,2364,3164,3852,1117,2399,3778,3795,3864,3295,1327,2013,4510,4291,2540,4517,5218,2744,5075,5194,2035,2876,5182
team0_TOTALGOLD,2500,2500,2913,4238,5728,7338,8614,9989,12277,13717,14999,16778,18095,19564,22745,25052,26138,28635,31291,33131,37006,39107,40992,44548,47565,50507,52848,54865
team0_LEVEL,5,5,6,12,16,21,23,26,30,32,35,37,40,40,44,46,47,49,52,54,57,59,61,64,66,69,71,71
team0_SBIRES,0,0,10,38,61,97,124,160,174,208,240,270,296,314,340,360,378,410,426,443,482,497,513,532,532,547,574,582
team1_KILLS,0,0,0,0,2,2,2,3,4,4,4,5,5,8,8,12,13,13,14,14,16,17,17,18,20,20,21,21
team1_CURRENTGOLD,2500,0,384,1893,3581,2184,2426,2096,2371,1740,2947,4528,1988,5779,842,519,2119,3021,2145,1911,2500,2482,2482,1417,1798,2903,4361,2583
team1_TOTALGOLD,2500,2500,2884,4393,6681,7934,9526,11046,12596,14040,15247,17678,18863,22654,23457,26609,28209,29361,31113,32399,34538,36120,37295,38679,40501,42105,44587,45356
team1_LEVEL,5,5,6,12,18,19,24,28,31,33,35,39,40,43,43,46,48,49,50,51,54,55,56,59,60,61,63,65
team1_SBIRES,0,0,9,40,67,84,120,135,154,182,209,239,251,279,288,306,322,332,357,378,390,406,427,427,434,461,491,506
delta_KILLS,0,0,0,0,-1,-1,-1,-2,0,0,0,0,0,-2,0,-1,-2,0,1,2,3,4,6,9,11,11,12,13
delta_CURRENTGOLD,0,0,29,-155,-2753,104,-62,1068,1481,-623,-548,-750,1807,-1915,2453,808,-106,1489,2146,629,2017,2736,262,3658,3396,-868,-1485,2599
delta_TOTALGOLD,0,0,29,-155,-953,-596,-912,-1057,-319,-323,-248,-900,-768,-3090,-712,-1557,-2071,-726,178,732,2468,2987,3697,5869,7064,8402,8261,9509
delta_LEVEL,0,0,0,0,-2,2,-1,-2,-1,-1,0,-2,0,-3,1,0,-1,0,2,3,3,4,5,5,6,8,8,6
delta_SBIRES,0,0,1,-2,-6,13,4,25,20,26,31,31,45,35,52,54,56,78,69,65,92,91,86,105,98,86,83,76
