name,frame_0,frame_1,frame_2,frame_3,frame_4,frame_5,frame_6,frame_7,frame_8,frame_9,frame_10,frame_11,frame_12,frame_13,frame_14,frame_15,frame_16,frame_17,frame_18,frame_19,frame_20,frame_21,frame_22,frame_23,frame_24,frame_25
nameStamp,Tstart,Tearly,Tearly,Tearly,Tearly,Tearly,Tearly,Tearly,Tearly,Tearly,Tearly,Tearly,Tearly,Tearly,Tearly,Tearly,Tearly,Tmid,Tmid,Tmid,Tmid,Tmid,Tmid,Tmid,Tmid,Tmid
timestamp,0,60030,120051,180069,240084,300100,360116,420137,480156,540177,600191,660218,720239,780263,840285,900314,960323,1020344,1080363,1140381,1200405,1260429,1320448,1380473,1440499,1500499
participant_0_GOLD,500,500,598,839,1092,1417,1729,1949,2273,2863,3315,3543,3906,4161,4554,5091,5464,5830,6177,6447,6759,7468,7892,8028,8251,8327
participant_0_CURRENTGOLD,500,0,98,339,592,917,1229,249,473,1063,65,293,656,911,1304,1841,414,780,1127,1397,59,768,442,578,801,77
participant_0_LEVEL,1,1,1,3,4,5,6,6,7,8,9,9,10,10,11,11,11,12,12,12,13,13,13,13,13,13
participant_0_MINIONSKILLED,0,0,4,10,16,24,35,41,50,58,65,71,81,88,100,100,105,115,125,133,134,146,150,151,151,151
participant_0_KILLS,0,0,0,0,0,0,0,0,0,1,1,1,1,1,1,2,2,2,2,2,2,2,2,2,2,2
participant_0_BUY,[],"[1055, 2003, 3340]",[],[],[],[],[],"[1053, 1042]","[2003, 2003]",[],"[1043, 3144, 2003]",[],[],[],[],[],"[3153, 3006]",[],[],[],"[1038, 1036]",[],[3133],[],[],[1018]
participant_0_SOLD,[],[],[],[2003],[],[],[],[],[2003],[2003],"[1042, 1053]",[],[],[],[],[2003],"[3144, 1043]",[],[],[],[],[],[1036],[],[],[]
participant_0_UNDO,[],[],[],[],[],[],[],[],[],[],[],[],[],[],[],[],[],[],[],[],[],[],[],[],[],[]
participant_1_GOLD,500,500,606,1018,1141,1340,1608,1775,2180,2408,2615,3233,3810,4306,4503,4860,5468,6655,7139,7371,7819,8048,8441,8800,9172,9393
participant_1_CURRENTGOLD,500,75,181,593,716,915,233,400,805,133,340,958,135,631,828,1185,1793,1430,1914,2146,809,1038,1431,1790,2162,2383
participant_1_LEVEL,1,1,2,3,3,3,4,4,5,5,6,6,7,7,7,8,9,9,10,10,11,11,11,12,12,12
participant_1_MINIONSKILLED,0,0,0,0,0,0,0,0,0,0,0,0,0,0,1,1,1,7,7,7,7,7,7,18,19,19
participant_1_KILLS,0,0,0,0,0,0,0,0,0,0,0,1,2,3,3,3,3,6,6,6,6,6,6,6,6,6
participant_1_BUY,[],"[1039, 2055]",[],[],[],[],"[3706, 1001]",[],[],[3108],[],[],"[1402, 3020]",[],[],[],[],"[2420, 3108]",[],[],"[3157, 1052]",[],[],[],[],[]
participant_1_SOLD,[],[2055],[],[],[],[],[1039],[],[],[],[],[],"[3108, 3706, 1001]",[],[],[],[],[],[],[],"[3108, 2420]",[],[],[],[],[]
participant_1_UNDO,[],[],[],[],[],[],[],[],[],[],[],[],[],[],[],[],[],[],[],[],[],[],[],[],[],[]
participant_2_GOLD,500,500,626,990,1218,1550,1893,2071,3008,3392,3995,4364,4711,5084,5694,6296,6918,7356,7763,8180,8850,9443,10281,10593,11569,12489
participant_2_CURRENTGOLD,500,0,126,490,118,450,793,96,1033,1417,2020,89,436,809,1419,721,1343,1781,88,505,1175,1768,2606,2918,3894,4814
participant_2_LEVEL,1,1,1,3,4,5,6,6,7,8,9,9,10,10,11,11,12,12,12,13,13,13,14,14,15,15
participant_2_MINIONSKILLED,0,0,6,17,23,33,42,45,54,66,75,81,91,97,104,109,114,122,127,139,148,160,166,166,176,180
participant_2_KILLS,0,0,0,0,0,0,0,0,1,1,2,2,2,2,3,4,4,4,4,4,4,4,5,5,7,9
participant_2_BUY,[],"[1055, 2003, 3340]",[],[],"[1042, 1001]",[],[],"[3006, 1042, 2055]",[],[],[],"[3046, 3363]",[],[],[],[1038],[],[],[3031],[],[],[],[],[],[],[]
participant_2_SOLD,[],[],[],[],[],[],[],"[1001, 1042]","[2055, 2003]",[],[],"[1042, 3340]",[],[],[],[],[],[],[1038],[],[],[],[],[],[],[]
participant_2_UNDO,[],[],[],[],[],[],[],[],[],[],[],[],[],[],[],[],[],[],[],[],[],[],[],[],[],[]
participant_3_GOLD,500,500,598,857,1099,1521,1826,2011,2325,2532,2852,3687,4029,4484,4948,5091,6191,6505,6818,6940,8002,8684,9509,9631,10574,11394
participant_3_CURRENTGOLD,500,0,98,357,599,146,451,336,650,857,1177,2012,254,709,1173,91,1191,205,518,290,1352,2034,2859,131,1075,1894
participant_3_LEVEL,1,1,1,2,3,3,4,5,5,5,6,7,7,8,8,8,9,9,10,10,10,10,11,11,12,13
participant_3_MINIONSKILLED,0,0,4,9,16,16,24,28,34,39,47,54,58,67,77,78,87,90,98,98,104,105,107,107,116,120
participant_3_KILLS,0,0,0,0,0,0,0,0,0,0,0,0,0,0,0,0,1,1,1,1,1,1,1,1,1,1
participant_3_BUY,[],"[3858, 3340, 2003, 2003]",[],[],[],"[1001, 1004]",[],[],[],[],[],[],"[3117, 3028, 2055, 3364, 2003, 2003]",[],[],[3108],[],[],[],"[3174, 3114, 1028]",[],[],[],"[3107, 3114]",[],[]
participant_3_SOLD,[],[],[],[],[],[],"[2003, 2003]",[],[],[],[],[3858],"[1001, 1004, 3340, 2055]",[],[],[],[],[],[],"[3108, 3028]",[],[3859],[2003],"[2003, 3114, 1028]",[],[]
participant_3_UNDO,[],[],[],[],[],[],[],[],[],[],[],[],[],[],[],[],[],[],[],[],[],[],[],[],[],[]
participant_4_GOLD,500,500,523,766,915,1070,1289,1458,1672,1828,2069,2431,2601,2969,3311,3452,4323,4613,4996,5166,5661,6087,6626,6766,7086,7399
participant_4_CURRENTGOLD,500,0,23,266,415,145,364,533,747,903,1144,1506,126,494,836,77,948,1239,1621,191,686,1112,1651,92,411,724
participant_4_LEVEL,1,1,1,2,3,3,4,5,5,6,6,7,7,7,8,8,8,9,9,10,10,10,11,11,12,12
participant_4_MINIONSKILLED,0,0,0,4,5,6,8,10,10,11,14,15,16,18,20,20,23,23,25,26,26,27,27,27,27,27
participant_4_KILLS,0,0,0,0,0,1,1,1,1,1,1,2,2,2,2,2,3,3,3,3,5,7,9,9,11,13
participant_4_BUY,[],"[1055, 2003, 3340]",[],[],[],[1037],[],[1001],[],[],[],[],"[1038, 1018]",[],[],"[3031, 3006]",[],[1038],[],[1036],[],[],[],"[3072, 2015, 1042]",[],[]
participant_4_SOLD,[],[],[],[],[],[2003],[],[],[],[],[],[],[],[],[],"[1038, 1037, 1018, 1001]",[],[],[],[],[],[],[],"[1038, 1036]",[],[]
participant_4_UNDO,[],[],[],[],[],[],[],[],[],[],[],[],[],[],[],[],[],[],[],[],[],[],[],[],[],[]
participant_5_GOLD,500,500,563,881,1137,1511,1882,2123,2517,2752,3619,4242,4652,4914,5356,5520,5800,6146,6373,6740,7797,8073,9547,9801,10177,10268
participant_5_CURRENTGOLD,500,0,63,381,637,1011,1382,1623,2017,2252,844,1467,1877,2139,2581,112,317,663,890,1257,239,515,1089,343,719,810
participant_5_LEVEL,1,1,1,3,4,5,6,6,7,8,9,9,10,10,11,11,11,12,12,13,13,14,14,15,15,15
participant_5_MINIONSKILLED,0,0,2,14,21,33,44,50,63,69,75,82,96,104,119,121,127,140,146,157,168,173,177,183,184,185
participant_5_KILLS,0,0,0,1,2,2,2,3,3,3,3,3,3,3,3,4,4,5,6,6,6,6,6,6,6,6
participant_5_BUY,[],"[1041, 2031, 3340]",[],[],[],[],"[3706, 3133, 1001]",[],[],[1400],[],[],"[1028, 1027, 1036]",[],[],"[3044, 3101]",[],[3057],[],[],"[3078, 1037]",[],[],[],[1043],[]
participant_5_SOLD,[],[],[],[],[],[],[1041],[],[],"[3133, 3706]",[],[],[],[],[],"[1028, 1036]",[],[],[],[],"[3340, 3101, 3057, 3044]",[],[3513],[],[],[]
participant_5_UNDO,[],[],[],[],[],[],[],[],[],[],[],[],"[[0, 1027]]",[],[],[],[],[],[],[],[],[],[],[],[],[]
participant_6_GOLD,500,500,621,1368,1963,2214,2498,2914,3137,3344,3511,3661,3783,4236,4615,5508,5820,6482,6945,7416,7689,8111,8519,8976,9188,9264
participant_6_CURRENTGOLD,500,0,121,868,1463,1714,-102,314,537,219,386,536,-142,311,690,-17,295,-93,320,791,-194,228,636,1093,305,581
participant_6_LEVEL,1,1,2,3,4,4,5,5,5,6,6,7,7,7,8,9,9,9,10,10,10,11,12,12,12,12
participant_6_MINIONSKILLED,0,0,0,0,0,0,0,0,0,0,2,4,4,4,4,4,4,8,8,11,11,24,37,44,45,45
participant_6_KILLS,0,0,0,0,1,1,1,1,1,1,1,1,1,1,1,1,1,1,1,1,1,1,1,1,1,1
participant_6_BUY,[],"[3858, 2003, 3340, 2003]",[],[],[],"[1001, 1031]",[],[1033],[],[],[],[],"[1057, 3117, 2055]","[2055, 2055]",[],[],"[1057, 1029, 2055, 3364]",[],[],[],[],[3193],[],[],[],[]
participant_6_SOLD,[],[],[2003],[],[],[2003],[],"[2010, 2010, 2010]",[],[],[],[],"[1033, 1001, 2055]",[],[2055],"[2055, 3858]","[1033, 3340]",[2055],[],[],[],"[1031, 1057]",[],[],[],[]
participant_6_UNDO,[],[],[],[],[],[],[],[],[],[],[],[],"[[0, 1057]]",[],[],[],[],[],[],[],[],[],[],[],[],[]
participant_7_GOLD,500,500,563,864,1217,1395,1702,2067,2189,2424,2693,2879,3085,3334,3457,3668,3854,4025,4197,4376,4632,4769,4966,5377,5499,5632
participant_7_CURRENTGOLD,500,0,63,364,717,160,467,832,189,424,693,229,435,684,57,268,454,225,397,576,432,569,331,127,249,382
participant_7_LEVEL,1,1,1,3,4,5,5,6,7,7,8,8,9,9,9,10,10,10,11,11,11,11,11,12,12,12
participant_7_MINIONSKILLED,0,0,2,10,15,19,26,32,32,38,46,50,55,63,63,64,68,71,74,78,83,84,84,85,85,88
participant_7_KILLS,0,0,0,0,0,1,2,2,2,2,2,2,2,2,2,2,2,2,2,2,2,2,2,2,2,2
participant_7_BUY,[],"[1055, 2003, 3340]",[],[],[],"[1053, 1036]",[],"[3144, 1042, 2003]",[],[],[],[3153],[],[],[1042],[],[3006],[1042],[],[],[1037],[],[1042],[],[1043],[1052]
participant_7_SOLD,[],[],[],[2003],[2010],[2010],[],"[2010, 1053, 1036]",[],[],[],"[2003, 3144, 1042]",[],[],[],[],"[1042, 2422]",[],[],[],[],[],[],[],"[1042, 1042]",[]
participant_7_UNDO,[],[],[],[],[],[],[],[],[],[],[],[],[],[],[],[],[],[],[],[],[],[],[],[],[],[]
participant_8_GOLD,500,500,521,1025,1320,1806,2374,2602,2940,3373,3642,3958,4222,4414,4551,4778,4900,5153,5435,5721,5914,6050,6236,6821,6944,7034
participant_8_CURRENTGOLD,500,0,21,525,820,56,624,152,490,923,1192,108,372,564,401,628,250,203,485,771,89,225,111,696,419,74
participant_8_LEVEL,1,1,1,2,3,3,4,4,5,6,6,6,7,7,7,7,8,8,9,9,9,9,10,10,10,10
participant_8_MINIONSKILLED,0,0,0,14,20,23,30,36,45,60,68,76,80,84,85,91,91,93,99,108,109,110,114,123,123,124
participant_8_KILLS,0,0,0,0,0,0,0,0,0,0,0,0,0,0,0,0,0,0,0,0,0,0,0,1,1,1
participant_8_BUY,[],"[1054, 2003]",[],[],[],"[1052, 1029]",[],[],"[3108, 1029]",[],[],[2420],[],[],"[3191, 3157]",[],[],[1028],[],[],[3067],[],[1052],[3145],[],[]
participant_8_SOLD,[],[],[],[],[],[],[2003],[],[1052],[],[],[],[],[],"[2420, 1029, 1029, 3191, 3108, 2421]",[],[],[],[],[],[1028],[],[],[1052],[],[]
participant_8_UNDO,[],[],[],[],[],[],[],[],[],[],[],[],[],[],[],[],[],[],[],[],[],[],[],[],[],[]
participant_9_GOLD,500,500,523,823,1278,1627,1925,2102,2326,2482,2658,2792,2927,3061,3237,3574,3729,3984,4155,4351,4592,4733,4962,5250,5390,5491
participant_9_CURRENTGOLD,500,0,23,323,778,27,325,52,276,432,608,742,102,86,262,599,109,364,534,731,972,133,362,649,790,891
participant_9_LEVEL,1,1,1,2,3,4,4,5,5,6,6,6,6,6,7,8,8,8,8,9,9,9,9,9,9,10
participant_9_MINIONSKILLED,0,0,0,3,4,6,7,9,11,12,14,14,14,14,16,21,22,24,25,28,30,30,31,35,35,36
participant_9_KILLS,0,0,0,0,0,0,0,0,0,0,1,1,1,1,1,1,1,1,1,1,2,2,4,4,5,5
participant_9_BUY,[],"[1055, 2003, 3340]",[],[],[],[],[],[],[],[],"[3111, 3101, 2055]",[],[],[],[],[3078],[2055],[],[],[],"[3082, 1011, 2055]",[],[3143],[3076],[],[]
participant_9_SOLD,[],[],[],[],[2003],[],[],[],[],[],[],[2055],[],[],[],[3101],[2055],[],[],[],[],[],"[3082, 1011]",[],[],[]
participant_9_UNDO,[],[],[],[],[],[],[],[],[],[],[],[],[],[],[],[],[],[],[],[],[],[],[],[],[],[]
team0_KILLS,0,0,0,0,0,1,1,1,2,3,4,6,7,8,9,11,13,16,16,16,18,20,23,23,27,31
team0_CURRENTGOLD,2500,75,526,2045,2440,2573,3070,1614,3708,4373,4746,4858,1607,3554,5560,3915,5689,5435,5268,4529,4081,6720,8989,5509,8343,9892
team0_TOTALGOLD,2500,2500,2951,4470,5465,6898,8345,9264,11458,13023,14846,17258,19057,21004,23010,24790,28364,30959,32893,34104,37091,39730,42749,43818,46652,49002
team0_LEVEL,5,5,6,13,17,19,24,26,29,32,36,38,41,42,45,46,49,51,53,55,57,57,60,61,64,65
team0_SBIRES,0,0,14,40,60,79,109,124,148,174,201,221,246,270,302,308,330,357,382,403,419,445,457,469,489,497
team1_KILLS,0,0,0,1,3,4,5,6,6,6,7,7,7,7,7,8,8,9,10,10,11,11,13,14,15,15
team1_CURRENTGOLD,2500,0,291,2461,4415,2968,2696,2973,3509,4250,3723,3082,2644,3784,3991,1590,1425,1362,2626,4126,1538,1670,2529,2908,2482,2738
team1_TOTALGOLD,2500,2500,2791,4961,6915,8553,10381,11808,13109,14375,16123,17532,18669,19959,21216,23048,24103,25790,27105,28604,30624,31736,34230,36225,37198,37689
team1_LEVEL,5,5,6,13,18,21,24,26,29,33,35,36,39,39,42,45,46,47,50,52,52,54,56,58,58,59
team1_SBIRES,0,0,4,41,60,81,107,127,151,179,205,226,249,269,287,301,312,336,352,382,401,421,443,470,472,478
delta_KILLS,0,0,0,-1,-3,-3,-4,-5,-4,-3,-3,-1,0,1,2,3,5,7,6,6,7,9,10,9,12,16
delta_CURRENTGOLD,0,75,235,-416,-1975,-395,374,-1359,199,123,1023,1776,-1037,-230,1569,2325,4264,4073,2642,403,2543,5050,6460,2601,5861,7154
delta_TOTALGOLD,0,0,160,-491,-1450,-1655,-2036,-2544,-1651,-1352,-1277,-274,388,1045,1794,1742,4261,5169,5788,5500,6467,7994,8519,7593,9454,11313
delta_LEVEL,0,0,0,0,-1,-2,0,0,0,-1,1,2,2,3,3,1,3,4,3,3,5,3,4,3,6,6
delta_SBIRES,0,0,10,-1,0,-2,2,-3,-3,-5,-4,-5,-3,1,15,7,18,21,30,21,18,24,14,-1,17,19
