name,frame_0,frame_1,frame_2,frame_3,frame_4,frame_5,frame_6,frame_7,frame_8,frame_9,frame_10,frame_11,frame_12,frame_13,frame_14,frame_15,frame_16,frame_17,frame_18,frame_19,frame_20,frame_21,frame_22,frame_23,frame_24
nameStamp,Tstart,Tearly,Tearly,Tearly,Tearly,Tearly,Tearly,Tearly,Tearly,Tearly,Tearly,Tearly,Tearly,Tearly,Tearly,Tmid,Tmid,Tmid,Tmid,Tmid,Tmid,Tmid,Tmid,Tend,Tend
timestamp,0,60003,120010,180021,240022,300053,360065,420098,480113,540130,600139,660175,720204,780221,840229,900237,960268,1020271,1080280,1140288,1200314,1260341,1320363,1380373,1440373
participant_0_GOLD,500,500,541,810,1147,1672,1851,2099,2374,2709,3050,4004,4154,4931,5208,5414,5762,5982,6351,6621,6848,7121,7243,7518,7561
participant_0_CURRENTGOLD,500,0,41,310,647,1172,351,299,574,909,1250,2204,154,131,408,614,162,382,751,221,448,721,843,1118,1161
participant_0_LEVEL,1,1,1,2,4,5,5,6,7,7,8,9,9,10,11,11,11,11,12,12,12,13,13,13,13
participant_0_MINIONSKILLED,0,0,1,9,19,33,36,44,50,57,66,70,72,77,87,92,99,105,112,121,127,127,127,132,132
participant_0_KILLS,0,0,0,0,0,0,0,0,0,0,0,1,1,2,2,2,2,2,2,2,2,2,2,2,2
participant_0_BUY,[],[2033],[],[],[],[],[6660],[1001],[],[],[],[],[3068],[3111],[],[],[3066],[],[],[1031],[],[],[],[],[]
participant_0_SOLD,[],[],[],[],[2010],[2010],[],[2010],[],[],[],[2419],[6660],"[2423, 1001]",[],[],[],[],[],[],[],[],[],[],[]
participant_0_UNDO,[],[],[],[],[],[],[],[],[],[],[],[],[],[],[],[],[],[],[],[],[],[],[],[],[]
participant_1_GOLD,500,500,750,1007,1497,2024,2367,2928,3560,3781,4024,4502,4896,5321,5798,6560,6892,8595,8717,9190,9392,9514,9667,9803,9846
participant_1_CURRENTGOLD,500,0,250,107,597,1124,1467,603,1235,1456,239,717,1111,261,738,250,582,2285,357,430,192,315,467,603,596
participant_1_LEVEL,1,1,2,3,4,5,5,6,6,7,7,8,9,9,10,10,11,11,11,12,12,12,12,12,12
participant_1_MINIONSKILLED,0,0,0,0,0,6,6,13,13,13,17,19,26,27,32,34,41,46,46,46,50,50,51,52,52
participant_1_KILLS,0,0,0,1,1,1,1,1,1,1,1,1,1,2,2,2,2,2,3,3,3,4,4,4,4
participant_1_BUY,[],"[3850, 3340, 2003, 2003]",[2055],[],"[1001, 1027]",[],[],[3802],[],[2055],[],[],[],"[6655, 3364]",[],"[1033, 1029]",[],[],[3047],[1052],[1052],[3145],[],[],[1058]
participant_1_SOLD,[],[],[],[2003],[],[],[2003],"[1027, 2055]",[3850],[],[],[],[],"[3802, 3340]",[],[],[],[],"[3851, 1001, 1029]",[],[],"[1052, 1052]",[],[],[]
participant_1_UNDO,[],[],[],[],[],[],[],[],[],[],[],[],[],[],[],"[[0, 1033]]",[],[],[],[],[],[],[],[],[]
participant_2_GOLD,500,500,580,744,972,1116,1274,1874,2191,2454,2604,2858,3351,3473,3596,3893,4066,4202,4505,4628,4750,4873,5241,5363,5406
participant_2_CURRENTGOLD,500,0,80,244,472,181,339,154,461,724,359,138,621,743,866,1163,136,272,575,398,520,643,1011,333,406
participant_2_LEVEL,1,1,1,3,4,5,5,6,7,7,7,8,8,8,8,9,9,10,10,10,10,11,11,11,11
participant_2_MINIONSKILLED,0,0,2,5,11,12,14,16,24,32,34,38,47,47,47,53,53,54,60,60,60,60,70,70,70
participant_2_KILLS,0,0,0,0,0,1,1,2,3,3,3,3,3,3,3,5,5,7,7,7,7,7,7,7,7
participant_2_BUY,[],"[1035, 2031, 3340]",[],"[1028, 3364]",[],[],[],"[6660, 1029, 1033, 2055]",[],[],[3068],[],[],"[3111, 1028, 2055]",[],"[3211, 1028]",[],[],"[3065, 3076]",[1028],[1011],[],[],[],[]
participant_2_SOLD,[],[],[],[3340],[],[],[],[1028],[],[3364],"[1035, 6660, 1033, 1029]",[],[3513],[2422],[],[1028],[2055],[2055],"[3211, 1028]",[],"[2031, 1028]",[],[],[],[]
participant_2_UNDO,[],[],[],[],[],[],[],[],[],[],[],[],[],[],[],[],[],[],[],[],[],[],[],[],[]
participant_3_GOLD,500,500,903,1567,1809,1995,2356,2873,3155,3306,3449,3656,3778,3970,4123,4488,5336,5695,6172,7537,7659,8188,8470,8648,8691
participant_3_CURRENTGOLD,500,0,103,767,9,195,556,98,380,531,674,6,128,320,473,393,441,450,927,2292,364,893,150,328,191
participant_3_LEVEL,1,1,1,2,3,3,4,5,5,5,5,6,6,6,6,7,8,9,9,10,10,11,11,11,11
participant_3_MINIONSKILLED,0,0,3,9,16,17,30,30,36,38,39,44,44,48,49,55,61,71,71,79,79,93,93,96,96
participant_3_KILLS,0,0,1,2,2,2,2,3,3,3,3,3,3,3,3,3,4,4,4,6,6,6,6,6,6
participant_3_BUY,[],"[1055, 2003, 3340]",[1001],[],"[1036, 1036, 1042]",[],[],"[6670, 1018, 2055]",[],[],[],[1037],[],[],[],[6672],[3006],[1036],[],[],"[3057, 3133, 1018]",[],"[3508, 1033, 3363, 2055]",[],[]
participant_3_SOLD,[],[],[],[2003],[],[],[],"[1036, 1042, 1036]",[],[],[],[],[2055],[],[],"[1055, 6670, 1018, 1037]",[1001],[],[],[],[1036],[],"[3133, 3057, 1018, 3340]",[2055],[]
participant_3_UNDO,[],[],[],[],[],[],[],[],[],[],[],[],[],[],[],[],[],[],[],[],[],[],[],[],[]
participant_4_GOLD,500,540,667,1349,1524,1659,1927,2287,2485,2665,2834,3028,3443,4469,4669,4904,5095,5305,5805,6021,6175,7065,7227,7416,7465
participant_4_CURRENTGOLD,500,40,92,774,299,434,702,112,310,415,584,778,1193,119,319,254,445,655,655,436,155,866,1027,1216,15
participant_4_LEVEL,1,1,1,2,2,3,4,4,5,5,5,6,6,7,7,7,7,8,8,9,9,9,10,10,10
participant_4_MINIONSKILLED,0,0,0,1,1,1,2,2,2,2,4,5,7,7,7,7,7,10,10,10,11,11,12,15,15
participant_4_KILLS,0,0,0,0,0,0,0,1,1,1,1,1,1,1,1,1,1,1,1,1,1,1,1,1,1
participant_4_BUY,[],[2033],[],[],[],[1052],[],"[1052, 1027]",[],[],"[3802, 1052]",[3108],[],[],[],[],[6653],[],[],[1001],[],[],[],[3020],[]
participant_4_SOLD,[],[],[],[2010],[],[2010],[],[],[],[2010],"[1052, 1027, 1052]",[1052],[],[],[],[],"[3802, 3108]",[],[],[],[],[],[],[1001],[]
participant_4_UNDO,[],[],[],[],[],[],[],[],[],[],[],[],[],[],[],[],[],[],[],[],[],[],[],[],[]
participant_5_GOLD,500,545,972,1262,1606,1841,2195,2777,3010,3422,3705,4092,4844,5480,5778,6041,6558,7085,7487,8121,8565,9193,9615,10257,10419
participant_5_CURRENTGOLD,500,45,72,362,706,206,560,677,310,722,1005,1392,2144,55,353,616,1133,310,712,1346,240,868,360,1002,944
participant_5_LEVEL,1,1,1,3,4,4,5,7,7,8,8,9,10,10,11,11,12,12,12,13,14,14,14,15,15
participant_5_MINIONSKILLED,0,0,2,12,22,26,39,48,51,65,74,86,97,99,107,115,125,131,144,153,158,158,158,164,164
participant_5_KILLS,0,0,0,0,0,0,0,0,0,0,0,1,1,1,3,3,3,3,3,3,3,4,4,5,5
participant_5_BUY,[],"[1039, 2031, 3340]",[],[],[],"[1029, 1028, 2055]",[],[],"[6660, 1033]","[6660, 1033]",[],[],[],[],[],"[3068, 3111, 1028]",[],[3067],[],[],[],[],[3065],[],[]
participant_5_SOLD,[],[],[],[],[],[],[2055],[],[1028],[1028],[],[1039],[],[],[],"[6660, 1033, 1029, 2422]",[],[1028],[3340],[],[3513],[],[3067],[],[]
participant_5_UNDO,[],[],[],[],[],[],[],[],[],"[[0, 1033], [0, 6660]]",[],[],[],[],[],[],[],[],[],[],[],[],[],[],[]
participant_6_GOLD,500,525,664,1056,1313,1437,1721,2093,2350,2572,2845,3372,3765,4175,4969,5329,5625,5797,6115,6287,6590,7233,7656,8188,8330
participant_6_CURRENTGOLD,500,25,164,556,813,162,446,818,25,247,520,1047,1440,1850,2644,354,650,422,740,912,1215,1858,181,713,855
participant_6_LEVEL,1,1,2,3,3,3,4,5,5,6,6,7,7,8,9,9,9,10,10,10,11,12,12,13,13
participant_6_MINIONSKILLED,0,0,0,0,0,0,0,1,1,1,1,1,1,2,2,2,3,3,4,4,5,5,5,5,5
participant_6_KILLS,0,0,1,1,2,2,2,3,3,4,5,6,6,8,9,11,12,13,13,16,17,17,17,17,18
participant_6_BUY,[],"[1036, 2003, 2003, 2003, 3340]",[1001],[],"[3134, 2055]",[],[1036],"[3133, 2055]",[],[],[6691],"[1036, 3006]","[1036, 3364, 2055]",[],[],"[3134, 1037, 1018]","[6676, 3134]","[2055, 2055]",[],[2055],[],"[3142, 2420]",[],[],[]
participant_6_SOLD,[],[],[],[],"[2003, 1036]","[2003, 2003]",[2055],[1036],[2055],[],"[3134, 3133]",[1001],[3340],[],[],[1036],"[3134, 1037, 1018]",[],[2055],[],[],[3134],[2055],[2055],[]
participant_6_UNDO,[],[],[],[],[],[],[],[],[],[],[],"[[0, 1036]]","[[0, 2055]]",[],[],[],[],[],[],[],[],[],[],[],[]
participant_7_GOLD,500,525,941,1305,1797,2138,2459,2910,3262,3931,4643,5273,5551,6388,7247,8097,8820,9158,9543,10640,11522,11645,12176,12390,12842
participant_7_CURRENTGOLD,500,25,141,495,162,493,454,80,422,1081,793,613,531,1368,2227,852,50,238,623,1645,2528,100,631,845,1367
participant_7_LEVEL,1,1,2,3,4,5,5,6,6,8,8,9,10,10,11,12,12,12,12,13,13,13,14,14,15
participant_7_MINIONSKILLED,0,0,4,15,20,30,39,41,52,63,74,83,89,95,104,115,115,115,120,120,132,132,137,138,140
participant_7_KILLS,0,0,0,0,0,0,0,0,0,0,0,0,0,0,0,0,2,2,2,2,2,2,2,2,3
participant_7_BUY,[],"[3850, 2003, 2003, 3340]",[],"[1001, 2003]",[],[],[],[3020],[],[],[],"[1052, 1052, 2055, 3364]",[],[],[],"[3802, 1026, 2055]",[],[6656],[],"[1052, 2055]",[],[],"[3145, 2055]",[],[]
participant_7_SOLD,[],[],[],[2003],[],[],[],[1001],[],"[2003, 2003]",[],[3340],[3850],[2055],[],"[1052, 1052]",[],"[3802, 1026]",[2055],[],[3851],[],"[2055, 1052]",[],[]
participant_7_UNDO,[],[],[],[],[],[],[],[],[],[],[],[],[],[],[],[],[],[],[],[],[],[],[],[],[]
participant_8_GOLD,500,900,1027,1282,1628,2090,2674,3169,3561,4337,4877,5725,5921,6344,7353,7925,8877,9324,9791,10658,10957,11737,12534,12955,13272
participant_8_CURRENTGOLD,500,400,527,332,378,840,1424,119,511,1287,1827,175,296,119,1128,1700,402,849,1316,2183,312,1093,439,860,817
participant_8_LEVEL,1,1,1,2,2,4,4,5,5,6,6,7,8,8,9,9,10,10,10,11,12,12,13,14,14
participant_8_MINIONSKILLED,0,0,3,11,15,31,39,40,52,64,74,86,90,90,108,108,114,120,125,136,136,144,147,150,153
participant_8_KILLS,0,1,1,1,1,1,2,3,3,4,4,5,5,6,6,8,8,8,9,10,10,11,12,12,12
participant_8_BUY,[],"[1055, 2003, 3340]",[],[1083],[1001],[],[],"[3134, 1036, 1036]",[],[],[],"[6691, 3134]",[2055],[3009],[],[],"[6676, 1036]",[],[],[3134],"[3123, 3033]",[],[3035],[],[]
participant_8_SOLD,[],[],[],[2003],[],[],[],[],[],[],[],"[3134, 1036, 1036]",[],[1001],[],[],"[2055, 3134]",[1083],[],[1036],"[1036, 1083, 3123]",[],[],[],[]
participant_8_UNDO,[],[],[],[],[],[],[],[],[],[],[],[],[],[],[],[],[],"[[1083, 0]]",[],"[[0, 3134]]",[],[],[],[],[]
participant_9_GOLD,500,585,671,885,1019,1155,1499,1784,1958,2417,2672,2806,3041,3457,4175,4336,5183,5373,5543,5820,6010,6396,6893,7238,7583
participant_9_CURRENTGOLD,500,85,171,35,169,305,649,134,308,767,1022,211,446,862,1580,386,1233,173,343,110,300,686,493,838,1183
participant_9_LEVEL,1,1,1,2,2,4,4,4,5,6,6,7,7,8,9,9,9,9,9,10,10,10,11,12,12
participant_9_MINIONSKILLED,0,0,0,0,0,0,0,0,0,2,2,2,8,11,11,11,14,14,14,14,14,14,17,22,23
participant_9_KILLS,0,0,1,1,1,1,1,2,2,2,2,2,3,4,4,4,4,4,4,5,5,7,7,9,9
participant_9_BUY,[],"[1056, 2003, 2003]",[1028],[],[],"[1052, 1001]",[],[4635],"[1033, 2031]",[],[],[],[],"[3111, 4633, 1028, 2055]",[],[],[],"[1026, 1011]",[],[],"[4637, 1042]",[],"[1026, 1042]",[],[]
participant_9_SOLD,[],[],[],[],[],[],[],"[2003, 2003, 1028, 1052]",[],[],[],[],[],"[1001, 1033, 4635]",[2055],[],[],[1028],[],[],"[1026, 1011]",[],"[2031, 1056]",[],[]
participant_9_UNDO,[],[],[],[],[],[],[],[],[],[],[],[],[],[],[],[],[],[],[],[],[],[],[],[],[]
team0_KILLS,0,0,1,3,3,4,4,7,8,8,8,9,9,11,11,13,14,16,17,19,19,20,20,20,20
team0_CURRENTGOLD,2500,40,566,2202,2024,3106,3415,1266,2960,4035,3106,3843,3207,1574,2804,2674,1766,4044,3265,3777,1679,3438,3498,3598,2369
team0_TOTALGOLD,2500,2540,3441,5477,6949,8466,9775,12061,13765,14915,15961,18048,19622,22164,23394,25259,27151,29779,31550,33997,34824,36761,37848,38748,38969
team0_LEVEL,5,5,6,12,17,21,23,27,30,31,32,37,38,40,42,44,46,49,50,53,53,56,57,57,57
team0_SBIRES,0,0,6,24,47,69,88,105,125,142,160,176,196,206,222,241,261,286,299,316,327,341,353,365,365
team1_KILLS,0,1,3,3,4,4,5,8,8,10,11,14,15,19,22,26,29,30,31,36,37,41,42,45,47
team1_CURRENTGOLD,2500,580,1075,1780,2228,2006,3533,1828,1576,4104,5167,3438,4857,4254,7932,3908,3468,1992,3734,6196,4595,4605,2104,4258,5166
team1_TOTALGOLD,2500,3080,4275,5790,7363,8661,10548,12733,14141,16679,18742,21268,23122,25844,29522,31728,35063,36737,38479,41526,43644,46204,48874,51028,52446
team1_LEVEL,5,5,7,13,15,20,22,27,28,34,34,39,42,44,49,50,52,53,53,57,60,61,64,68,69
team1_SBIRES,0,0,9,38,57,87,117,130,156,195,225,258,285,297,332,351,371,383,407,427,445,453,464,479,485
delta_KILLS,0,-1,-2,0,-1,0,-1,-1,0,-2,-3,-5,-6,-8,-11,-13,-15,-14,-14,-17,-18,-21,-22,-25,-27
delta_CURRENTGOLD,0,-540,-509,422,-204,1100,-118,-562,1384,-69,-2061,405,-1650,-2680,-5128,-1234,-1702,2052,-469,-2419,-2916,-1167,1394,-660,-2797
delta_TOTALGOLD,0,-540,-834,-313,-414,-195,-773,-672,-376,-1764,-2781,-3220,-3500,-3680,-6128,-6469,-7912,-6958,-6929,-7529,-8820,-9443,-11026,-12280,-13477
delta_LEVEL,0,0,-1,-1,2,1,1,0,2,-3,-2,-2,-4,-4,-7,-6,-6,-4,-3,-4,-7,-5,-7,-11,-12
delta_SBIRES,0,0,-3,-14,-10,-18,-29,-25,-31,-53,-65,-82,-89,-91,-110,-110,-110,-97,-108,-111,-118,-112,-111,-114,-120
