name,team0,team1
win,Fail,Win
firstBlood,False,True
firstTower,False,True
firstInhibitor,False,True
firstBaron,True,False
firstDragon,False,True
firstRiftHerald,False,True
towerKills,5,10
inhibitorKills,0,3
baronKills,2,0
dragonKills,2,3
riftHeraldKills,0,1
