name,frame_0,frame_1,frame_2,frame_3,frame_4,frame_5,frame_6,frame_7,frame_8,frame_9,frame_10,frame_11,frame_12,frame_13,frame_14,frame_15,frame_16,frame_17,frame_18,frame_19,frame_20,frame_21,frame_22
nameStamp,Tstart,Tearly,Tearly,Tearly,Tearly,Tearly,Tearly,Tearly,Tearly,Tmid,Tmid,Tmid,Tmid,Tmid,Tmid,Tmid,Tmid,Tmid,Tmid,Tmid,Tmid,Tmid,Tmid
timestamp,0,60012,120034,180044,240076,300091,360107,420125,480156,540164,600184,660198,720220,780227,840255,900275,960277,1020293,1080299,1140301,1200320,1260342,1320342
participant_0_GOLD,500,500,598,818,1446,1969,2691,3078,3571,4416,4869,5647,5926,7439,8824,10525,13049,13264,14586,16000,16485,17950,19828
participant_0_CURRENTGOLD,500,0,98,318,96,619,1341,253,746,1591,2044,2822,201,1714,199,1900,505,719,2041,3456,1641,3106,4803
participant_0_LEVEL,1,1,1,3,4,5,6,7,7,9,9,10,10,11,11,12,12,13,13,14,14,15,16
participant_0_MINIONSKILLED,0,0,4,10,16,20,30,36,42,51,59,71,74,79,83,85,87,90,90,95,95,98,98
participant_0_KILLS,0,0,0,0,1,2,3,3,3,4,5,6,7,11,12,15,20,20,23,27,28,32,37
participant_0_BUY,[],"[2003, 1054]",[],[],"[1036, 1036, 1006]",[],[],"[3117, 3077]",[],[],[],[],"[3142, 3363]",[],[3147],[],"[3181, 3134]",[],[],[],"[3814, 2140]",[],[]
participant_0_SOLD,[],[],[],[],[2003],[],[3400],"[1036, 1006, 1036]",[],[3400],[],[3400],[3340],[3400],"[3400, 3400]","[3400, 3400]","[3400, 3400, 1054]",[],[],[],"[3134, 2140]",[],[]
participant_0_UNDO,[],[],[],[],[],[],[],[],[],[],[],[],[],[],[],[],[],[],[],[],[],[],[]
participant_1_GOLD,500,500,542,734,1260,1697,2169,2591,3695,3866,4180,4303,4425,4569,4754,4926,5213,5427,5759,6565,6985,7157,7963
participant_1_CURRENTGOLD,500,50,92,284,810,1247,119,541,1645,141,455,578,700,44,229,401,263,477,809,1615,35,207,1013
participant_1_LEVEL,1,1,1,2,2,3,4,4,5,5,5,6,6,6,6,6,7,7,8,9,9,10,10
participant_1_MINIONSKILLED,0,0,1,5,7,12,15,15,20,23,25,25,25,26,29,29,34,36,44,50,53,56,63
participant_1_KILLS,0,0,0,0,1,1,2,3,5,5,5,5,5,5,5,5,5,5,5,5,5,5,5
participant_1_BUY,[],[1055],[],[],[],[],"[1038, 1001]",[],[],"[1037, 3006]",[],[],[],[1018],[],[],[3031],[],[],[],"[3086, 1042, 1042]",[],[]
participant_1_SOLD,[],[],[],[],[],[],[],[],[],[1001],[],[],[],[],[],[],"[1038, 1037, 1018]",[],[],[],[],[],[]
participant_1_UNDO,[],[],[],[],[],[],[],[],[],[],[],[],[],[],[],[],[],[],[],[],[],[],[]
participant_2_GOLD,500,500,523,671,956,1571,1900,2357,3042,3250,3863,4022,4623,4771,5583,6422,7487,7677,7818,8719,9360,9500,10191
participant_2_CURRENTGOLD,500,0,23,171,456,1071,500,957,542,750,163,322,273,421,183,1022,637,827,968,1869,77,217,908
participant_2_LEVEL,1,1,1,2,2,3,4,5,5,6,6,6,7,7,8,8,9,9,9,10,11,11,12
participant_2_MINIONSKILLED,0,0,0,1,1,5,9,19,22,28,32,36,38,39,39,39,45,45,45,55,59,59,65
participant_2_KILLS,0,0,0,0,0,1,1,1,1,1,2,2,3,3,3,3,3,3,3,4,5,5,5
participant_2_BUY,[],"[3854, 2003, 2003, 3340]",[],[],[],[],[3751],[],[3111],[],"[1031, 1028]",[],[3068],[],[3057],[],"[3101, 1036]",[],[],[],"[3078, 3211]",[],[]
participant_2_SOLD,[],[],[],[],[],"[2003, 2003]",[],[],[],[],[],[],"[1031, 1028, 3751]",[],"[3400, 3400]",[3400],"[3400, 3854]",[],[],[],"[3101, 3057, 1036]",[],[]
participant_2_UNDO,[],[],[],[],[],[],[],[],[],[],[],[],[],[],[],[],[],[],[],[],[],[],[]
participant_3_GOLD,500,500,542,748,1307,1450,2015,2354,2924,3145,3767,3974,4658,4780,5040,5212,5360,5632,6130,6353,6751,6923,7358
participant_3_CURRENTGOLD,500,0,42,248,807,150,715,1054,1624,145,767,974,58,180,440,612,260,532,1030,1253,1651,1823,2258
participant_3_LEVEL,1,1,1,2,2,2,4,4,5,5,6,7,7,7,8,8,8,8,10,10,10,11,12
participant_3_MINIONSKILLED,0,0,1,6,7,8,16,18,22,27,34,39,41,41,45,45,45,45,53,53,53,56,60
participant_3_KILLS,0,0,0,0,1,1,1,1,1,1,1,1,2,2,2,2,2,2,2,2,2,2,2
participant_3_BUY,[],"[1055, 2003, 3340]",[],[],[],[1018],[],[],[],"[1038, 1001, 2003, 2003]",[],[],"[3508, 1042, 2003, 2003]",[],[],[],[3006],[],[],[],[],[],[]
participant_3_SOLD,[],[],[],[],[],[],[],[],[],[],[],[],"[1038, 1018]",[],[],[2003],"[2003, 1001, 1042]",[],[],[2003],"[2003, 3340]",[3513],[]
participant_3_UNDO,[],[],[],[],[],[],[],[],[],[],[],[],[],[],[],[],[],[],[],[],[],[],[]
participant_4_GOLD,500,500,523,699,985,1385,1546,1771,1996,2281,2635,2895,3882,4297,4821,5503,5709,6196,6513,7203,7944,8562,8832
participant_4_CURRENTGOLD,500,0,23,199,485,885,1046,1271,371,656,310,570,1557,1972,2496,3178,334,821,1138,1828,2569,3187,282
participant_4_LEVEL,1,1,1,2,3,5,5,6,6,7,7,8,9,10,10,11,11,12,12,13,13,14,14
participant_4_MINIONSKILLED,0,0,0,2,8,21,24,34,37,44,45,50,62,70,80,91,96,105,112,122,132,135,135
participant_4_KILLS,0,0,0,0,0,0,0,0,0,0,0,0,2,2,2,2,2,2,2,2,3,5,5
participant_4_BUY,[],"[1056, 3850, 2003, 3340, 2003]",[],[],[],[],[],[],"[1026, 1052]",[],"[1001, 1028]",[],[],[],[],[],"[3136, 3136, 3151, 3020, 1052, 1028]",[],[],[],[],[],"[3165, 1026]"
participant_4_SOLD,[],[],[],[2003],[2003],[],[],[],[3850],[],[],[],[],[],[],[],"[1028, 1052, 3136, 1026, 1001]",[],[],[],[],[],"[1028, 1052]"
participant_4_UNDO,[],"[[0, 1056]]",[],[],[],[],[],[],[],[],[],[],[],[],[],[],"[[0, 3136]]",[],[],[],[],[],[]
participant_5_GOLD,500,500,521,741,878,1098,1541,1663,1785,2269,2711,3252,3694,3830,4076,4438,4838,5114,5279,5422,5643,5849,5969
participant_5_CURRENTGOLD,500,0,21,241,378,398,841,963,1085,269,411,252,694,830,276,238,338,614,779,222,443,649,769
participant_5_LEVEL,1,1,1,2,3,3,4,4,4,5,6,6,7,7,7,7,8,9,9,9,10,11,11
participant_5_MINIONSKILLED,0,0,0,5,6,9,9,9,9,10,10,16,16,17,20,20,22,23,26,27,33,37,37
participant_5_KILLS,0,0,0,0,0,0,1,1,1,1,2,3,4,4,4,5,5,5,5,5,5,5,5
participant_5_BUY,[],"[1054, 2003, 3340]",[],[],[],"[2003, 2003, 2003, 2003]",[],[],[],[1038],[1042],"[2015, 1001]",[],[],[1018],[3095],[1042],[],[],"[2015, 1042]",[],[],[]
participant_5_SOLD,[],[],[],[],[2003],[2003],"[2003, 2003]",[],[2003],[],[],[1042],[],[],[],"[1038, 1018, 2015]",[],[],[],[1042],[],[],[]
participant_5_UNDO,[],[],[],[],[],[],[],[],[],[],[],[],[],[],[],[],[],[],[],[],[],[],[]
participant_6_GOLD,500,500,521,713,850,993,1207,1371,1730,1853,2143,2315,2486,2747,2919,3078,3222,4408,4594,4744,5166,5289,5409
participant_6_CURRENTGOLD,500,0,21,213,350,493,707,871,1230,303,593,765,161,422,194,3,147,1333,1519,569,491,264,384
participant_6_LEVEL,1,1,1,2,3,4,4,5,6,6,7,7,7,8,8,8,9,9,10,10,11,11,11
participant_6_MINIONSKILLED,0,0,0,4,5,6,11,14,18,18,28,31,34,38,38,38,39,40,43,45,45,45,45
participant_6_KILLS,0,0,0,0,0,0,0,0,0,0,0,0,0,0,0,0,0,1,1,1,1,1,1
participant_6_BUY,[],"[1054, 2003, 3340]",[],[],[],[],[],[],[],"[1036, 1006, 1036, 2003, 2003, 2003, 2003]",[],[],"[3077, 1001]",[],[1028],[1036],[],[],[],"[3044, 1042, 1042]",[3101],[1027],[]
participant_6_SOLD,[],[],[],[2003],[],[],[],[],[],[],"[2003, 2003]","[2003, 2003]","[1036, 1006, 1036]",[],[],[],[],[],[],"[1028, 1036]","[1042, 1042]",[],[]
participant_6_UNDO,[],[],[],[],[],[],[],[],[],[],[],[],[],[],[],[],[],[],[],[],[],[],[]
participant_7_GOLD,500,500,535,755,955,1140,1284,1539,1696,1861,1983,2202,2324,2495,2895,3054,3190,3782,3904,4040,4163,4327,4552
participant_7_CURRENTGOLD,500,0,35,255,255,440,149,404,211,376,63,202,324,195,595,754,890,1482,1604,90,213,377,602
participant_7_LEVEL,1,1,1,3,4,5,5,6,6,7,7,7,7,8,8,8,9,10,10,10,10,10,11
participant_7_MINIONSKILLED,0,0,1,6,11,15,16,24,26,29,29,31,31,34,38,38,39,45,45,46,46,48,50
participant_7_KILLS,0,0,0,0,0,0,0,0,0,0,0,0,0,0,0,0,0,1,1,1,1,1,1
participant_7_BUY,[],"[1056, 2003, 2003, 3340]",[],[],"[2003, 2003, 2003, 2003]",[],[1052],[],[1027],[],[1052],[3802],[],[1001],[],[],[],[],[],"[1026, 3020]",[],[],[]
participant_7_SOLD,[],[],"[2003, 2003]",[],[],"[2003, 2003]",[2003],[],[2003],[],[],"[1052, 1027, 1052]",[],[],[],[],[],[],[],[1001],[],[],[]
participant_7_UNDO,[],[],[],[],[],[],[],[],[],[],[],[],[],[],[],[],[],[],[],[],[],[],[]
participant_8_GOLD,500,515,538,732,956,1200,1851,2058,2541,3834,4013,4251,4601,5201,6729,7023,8003,8449,8652,8974,9885,10350,10488
participant_8_CURRENTGOLD,500,15,38,232,31,275,51,258,741,1599,463,51,401,1001,1529,123,1103,1549,467,789,1700,350,488
participant_8_LEVEL,1,1,1,2,3,4,4,5,6,7,7,7,7,8,8,9,9,10,10,11,12,12,12
participant_8_MINIONSKILLED,0,0,0,0,1,3,4,6,9,16,16,21,21,27,29,32,33,39,43,49,50,50,50
participant_8_KILLS,0,0,0,0,0,0,1,1,2,4,4,4,4,5,7,7,10,10,10,10,12,13,13
participant_8_BUY,[],"[3850, 2003, 2003, 3340]",[],[],"[1001, 1004]",[],"[3114, 2003, 2003, 2003, 2003]",[],[],[1052],"[3108, 3113]",[3504],[],[],"[3117, 1029]","[3191, 2420, 3157]",[],[],"[1026, 1052]",[],[],"[3135, 1033]",[]
participant_8_SOLD,[],[],[2003],[],[2003],[],[1004],[2003],[2003],"[2003, 2003]",[1052],"[3850, 3114, 3113]",[],[],[1001],"[1029, 3191, 3108, 2420]",[],[3851],[],[],[],"[1026, 1052]",[]
participant_8_UNDO,[],[],[],[],[],[],[],[],[],[],[],[],[],[],[],[],[],[],[],[],[],[],[]
participant_9_GOLD,500,500,521,748,892,1035,1221,1493,1615,1794,1944,2109,2252,2443,2636,2885,3007,3200,3322,3444,3597,3719,3840
participant_9_CURRENTGOLD,500,0,21,248,392,535,721,993,165,344,494,659,102,293,186,435,7,200,172,294,447,69,190
participant_9_LEVEL,1,1,1,2,3,4,4,5,5,5,6,6,7,7,8,8,8,9,9,9,10,10,10
participant_9_MINIONSKILLED,0,0,0,6,7,8,12,18,18,21,23,25,26,26,27,34,34,38,38,38,39,39,39
participant_9_KILLS,0,0,0,0,0,0,0,0,0,0,0,0,0,0,0,0,0,0,0,0,0,0,0
participant_9_BUY,[],"[1054, 2003, 3340]",[],[],[],[],[],[],"[1028, 1027, 2003, 2003, 2003, 2003]",[],[],[],"[3010, 1027]",[],[1029],[],"[3024, 1001]",[],[1006],[],[],[3801],[]
participant_9_SOLD,[],[],[],[2003],[],[],[],[],[],"[2003, 2003, 2003]",[],[2003],"[1028, 1027]",[],[],[],"[1027, 1029]",[],[],[],[],[1006],[]
participant_9_UNDO,[],[],[],[],[],[],[],[],[],[],[],[],[],[],[],[],[],[],[],[],[],[],[]
team0_KILLS,0,0,0,0,3,5,7,8,10,11,13,14,19,23,24,27,32,32,35,40,43,49,54
team0_CURRENTGOLD,2500,50,278,1220,2654,3972,3721,4076,4928,3283,3739,5266,2789,4331,3547,7113,1999,3376,5986,10021,5973,8540,9264
team0_TOTALGOLD,2500,2500,2728,3670,5954,8072,10321,12151,15228,16958,19314,20841,23514,25856,29022,32588,36818,38196,40806,44840,47525,50092,54172
team0_LEVEL,5,5,5,11,13,18,23,26,28,32,33,37,39,41,43,45,47,49,52,56,57,61,64
team0_SBIRES,0,0,6,24,39,66,94,122,143,173,195,221,240,255,276,289,307,321,344,375,392,404,421
team1_KILLS,0,0,0,0,0,0,2,2,3,5,6,7,8,9,11,12,15,17,17,17,19,20,20
team1_CURRENTGOLD,2500,15,136,1189,1406,2141,2469,3489,3432,2891,2024,1929,1682,2741,2780,1553,2485,5178,4541,1964,3294,1709,2433
team1_TOTALGOLD,2500,2515,2636,3689,4531,5466,7104,8124,9367,11611,12794,14129,15357,16716,19255,20478,22260,24953,25751,26624,28454,29534,30258
team1_LEVEL,5,5,5,11,16,20,21,25,27,30,33,33,35,38,39,40,43,47,48,49,53,54,55
team1_SBIRES,0,0,1,21,30,41,52,71,80,94,106,124,128,142,152,162,167,185,195,205,213,219,221
delta_KILLS,0,0,0,0,3,5,5,6,7,6,7,7,11,14,13,15,17,15,18,23,24,29,34
delta_CURRENTGOLD,0,35,142,31,1248,1831,1252,587,1496,392,1715,3337,1107,1590,767,5560,-486,-1802,1445,8057,2679,6831,6831
delta_TOTALGOLD,0,-15,92,-19,1423,2606,3217,4027,5861,5347,6520,6712,8157,9140,9767,12110,14558,13243,15055,18216,19071,20558,23914
delta_LEVEL,0,0,0,0,-3,-2,2,1,1,2,0,4,4,3,4,5,4,2,4,7,4,7,9
delta_SBIRES,0,0,5,3,9,25,42,51,63,79,89,97,112,113,124,127,140,136,149,170,179,185,200
