name,team0,team1
win,Fail,Win
firstBlood,False,True
firstTower,True,False
firstInhibitor,True,False
firstBaron,False,True
firstDragon,True,False
firstRiftHerald,True,False
towerKills,11,8
inhibitorKills,6,1
baronKills,1,1
dragonKills,4,3
riftHeraldKills,1,0
