name,frame_0,frame_1,frame_2,frame_3,frame_4,frame_5,frame_6,frame_7,frame_8,frame_9,frame_10,frame_11,frame_12,frame_13,frame_14,frame_15,frame_16,frame_17,frame_18,frame_19,frame_20,frame_21,frame_22,frame_23,frame_24
nameStamp,Tstart,Tearly,Tearly,Tearly,Tearly,Tearly,Tearly,Tearly,Tearly,Tearly,Tearly,Tearly,Tmid,Tmid,Tmid,Tmid,Tmid,Tmid,Tmid,Tmid,Tmid,Tmid,Tmid,Tmid,Tmid
timestamp,0,60013,120019,180049,240080,300111,360138,420154,480176,540196,600214,660225,720253,780257,840286,900307,960312,1020342,1080342,1140356,1200386,1260406,1320426,1380459,1440459
participant_0_GOLD,1400,1400,1836,2403,2944,3316,3791,4234,4701,5121,5783,6551,7055,7687,8110,8677,9082,10029,10716,11393,11893,12382,12742,13236,13308
participant_0_CURRENTGOLD,1400,1000,386,953,1494,1266,841,84,551,171,833,1601,780,1412,285,852,157,1104,1791,268,768,1257,817,1311,1383
participant_0_LEVEL,1,3,4,5,6,6,7,8,8,9,10,11,11,12,13,14,14,15,16,17,18,18,18,18,18
participant_0_MINIONSKILLED,0,0,2,7,8,8,11,12,15,15,17,17,20,21,22,25,25,27,29,30,33,36,36,41,41
participant_0_KILLS,0,0,0,0,0,0,0,0,0,0,1,2,2,3,3,3,3,5,6,6,6,6,6,6,6
participant_0_BUY,[],[3070],"[1036, 1036, 1001, 2003]",[],[],[6670],[1053],[6673],[],"[1033, 3111]",[],[],"[1033, 1037]",[],"[1057, 3051]",[],[3091],[],[],[3004],[],[],[3123],[],[]
participant_0_SOLD,[],[],[],[2003],[],"[1036, 1036]",[],"[6670, 1053]",[],"[1001, 1033]",[],[],[],[],[1033],[],"[3051, 1057]",[],[],"[3070, 3004]",[],[],[],[],[]
participant_0_UNDO,[],[],[],[],[],[],[],[],[],[],[],[],[],[],[],[],[],[],[],[],[],[],[],[],[]
participant_1_GOLD,1400,1400,1858,2503,3142,3898,4684,5119,6039,7266,7824,8334,8927,9549,10119,10560,11571,12380,12991,13589,14085,14457,15615,15975,16047
participant_1_CURRENTGOLD,1400,0,458,1103,542,248,1034,234,304,1531,374,884,1477,2099,1419,610,321,1130,1741,789,1285,272,1430,1790,1862
participant_1_LEVEL,1,3,4,5,6,7,8,8,9,10,11,12,13,13,14,14,15,16,17,17,18,18,18,18,18
participant_1_MINIONSKILLED,0,0,1,1,2,2,2,5,6,7,7,7,8,9,9,9,9,10,14,16,18,18,18,18,18
participant_1_KILLS,0,0,0,1,2,4,5,5,7,10,10,10,10,11,12,12,13,14,14,14,14,14,16,16,16
participant_1_BUY,[],"[4635, 2003, 2003]",[],[],"[1026, 1001, 2003]",[4633],[],"[3020, 1052]",[1026],[],"[1011, 4637]",[],[],[1058],[1058],[1058],[3089],[],[],"[2420, 3191]",[],"[3157, 1052]",[],[],[]
participant_1_SOLD,[],[],"[2003, 2003]",[],[2003],"[4635, 1026]",[],[1001],[],[],"[1026, 1011, 1052]",[],[],[],[],[],"[1058, 1058]",[],[],[],[2420],"[3191, 2421]",[],[],[]
participant_1_UNDO,[],[],[],[],[],[],[],[],[],[],[],[],[],"[[0, 1058]]",[],[],[],[],[],[],[],[],[],[],[]
participant_2_GOLD,1400,1400,1796,2308,3151,3718,4197,4633,5250,5865,6683,7341,7746,8217,8659,9130,9653,10192,11014,11853,12243,12645,13448,13868,13940
participant_2_CURRENTGOLD,1400,15,411,923,901,1468,1097,1533,2150,780,798,1456,1246,1717,209,680,1203,1742,2564,903,1293,395,1198,1618,440
participant_2_LEVEL,1,3,4,5,6,7,8,8,9,10,11,12,12,12,13,14,15,16,16,17,17,18,18,18,18
participant_2_MINIONSKILLED,0,0,0,2,2,2,3,5,6,9,13,15,15,15,17,19,21,23,23,25,25,25,26,26,26
participant_2_KILLS,0,0,0,0,1,1,1,1,1,2,3,3,3,3,3,3,3,3,5,6,6,6,7,7,7
participant_2_BUY,[],"[3112, 1052]",[],[],[3802],[],[1026],[],[],"[6655, 1052, 1052, 1001]",[3020],[],[3145],[],[4628],[],[],[],[],"[1058, 1058]",[],[3089],[],[],[1058]
participant_2_SOLD,[],[],[],[],[1052],[],[],[],[],"[3802, 1026]",[1001],[],[1052],[],[3145],[],[],[],[],[],[],"[1058, 1058]",[],[],[]
participant_2_UNDO,[],[],[],[],[],[],[],[],[],"[[0, 1052]]",[],[],[],[],[],[],[],[],[],[],[],[],[],[],[]
participant_3_GOLD,1400,1400,1896,2448,3284,3902,4454,4906,5852,6390,7235,7941,9022,9470,10117,10631,11108,11820,12343,13330,13690,14251,14779,15296,15368
participant_3_CURRENTGOLD,1400,0,496,1048,1884,2502,3054,336,1282,220,1065,1771,2852,300,947,1461,1938,2650,233,1220,755,516,694,461,-7432
participant_3_LEVEL,1,3,4,5,6,7,8,9,10,11,12,12,13,14,15,15,15,16,17,18,18,18,18,18,18
participant_3_MINIONSKILLED,0,0,4,9,17,26,28,32,43,46,53,58,69,71,78,83,89,102,106,118,118,126,132,137,137
participant_3_KILLS,0,0,0,0,1,1,1,1,2,2,3,3,4,4,4,4,4,4,4,5,5,5,5,5,5
participant_3_BUY,[],"[3184, 1042, 2031]",[],[],[],[],[],[6692],[],"[3134, 3006]",[],[],[],"[6676, 3134]",[],[],[],[],"[3142, 3134]",[],"[6673, 3072, 3086, 2015]",[3094],[1036],[3133],[]
participant_3_SOLD,[],[],[],[],[2010],[2010],[],[2010],[],"[1042, 2422]",[],[],[],[3134],[],[],[],[],"[3134, 2031]",[],"[6676, 3184, 6692, 3134, 3142]","[3086, 2015]",[],[1036],[]
participant_3_UNDO,[],[],[],[],[],[],[],[],[],[],[],[],[],[],[],[],[],[],[],[],[],[],[],[],[]
participant_4_GOLD,1400,1400,1854,2318,2864,3254,3786,4224,4663,5128,5653,6303,7138,7581,8064,9044,9620,10149,10783,11328,11971,12442,13031,13491,13563
participant_4_CURRENTGOLD,1400,0,454,183,729,254,786,374,813,28,553,1203,788,1231,464,1444,2020,199,833,578,1221,1692,516,976,-422
participant_4_LEVEL,1,3,4,5,6,6,7,8,9,9,10,11,12,12,13,14,14,15,16,16,17,17,18,18,18
participant_4_MINIONSKILLED,0,0,1,3,8,8,15,15,17,17,20,25,28,31,36,38,45,48,49,50,54,56,65,67,67
participant_4_KILLS,0,0,0,0,0,0,0,0,0,0,0,0,2,2,2,5,5,5,6,6,7,7,7,7,7
participant_4_BUY,[],"[3112, 3070, 2003]",[],"[1052, 1001]",[],[3802],[],[1026],[],[6656],[],[],[1058],[],[1058],[],[],"[3089, 3145]",[],[3020],[],[],[3157],[],[]
participant_4_SOLD,[],[],[],[],[2003],[1052],[],[],[],"[3802, 1026]",[],[],[],[],[],[],[],"[1058, 1058]",[],[1001],[],[],"[3145, 3145]",[],[]
participant_4_UNDO,[],[],[],[],[],[],[],[],[],[],[],[],[],[],[],[],[],[],[],[],[],[],"[[3145, 0]]",[],[]
participant_5_GOLD,1400,1400,1899,2472,2898,3633,4227,4822,5350,5823,6385,7300,7909,8655,9302,9935,10553,11481,11938,13136,13831,14711,15944,16983,17055
participant_5_CURRENTGOLD,1400,50,549,1122,248,983,1577,2172,2700,173,735,1650,659,1405,2052,2685,3303,231,38,1236,1931,2811,4044,5083,5155
participant_5_LEVEL,1,3,4,5,6,7,8,9,10,10,11,12,13,14,14,15,16,17,17,18,18,18,18,18,18
participant_5_MINIONSKILLED,0,0,2,7,10,13,17,22,27,27,32,40,40,44,49,55,61,62,64,69,74,80,83,93,93
participant_5_KILLS,0,0,0,0,0,1,1,1,1,1,1,2,2,3,3,3,3,4,4,6,6,7,8,9,9
participant_5_BUY,[],"[3070, 3112]",[],[],"[1052, 1052, 1027, 3802]",[],[],[],[],"[6655, 3158]",[],[],"[1058, 1027]",[],[],[],[],"[3003, 4628]",[2420],[],[],[],[],[],[]
participant_5_SOLD,[],[2052],[],[],"[1052, 1027, 1052]",[],[],[],[],[3802],[],[],[],[],[],[],[],"[3070, 1058, 1027, 3003]",[],[],[2420],[],[],[],[]
participant_5_UNDO,[],[],[],[],[],[],[],[],[],[],[],[],[],[],[],[],[],[],[],[],[],[],[],[],[]
participant_6_GOLD,1400,1400,1826,2312,2767,3256,3931,4579,5104,5924,6466,6949,7582,8134,8775,9289,9802,10227,10744,11351,11894,12583,13525,14146,14218
participant_6_CURRENTGOLD,1400,0,426,912,1367,206,881,1529,2054,2874,3416,999,1632,2184,1575,839,1352,477,994,1601,2144,2833,3775,4396,4468
participant_6_LEVEL,1,3,4,5,6,7,8,9,9,11,11,12,13,14,14,15,15,16,16,17,18,18,18,18,18
participant_6_MINIONSKILLED,0,0,0,0,0,0,0,1,2,3,7,7,7,7,9,11,11,11,16,19,22,24,24,24,24
participant_6_KILLS,0,0,0,0,0,0,1,1,1,2,2,2,2,2,3,3,3,3,3,3,3,3,3,3,3
participant_6_BUY,[],"[4642, 4642, 2003, 1001]",[],[],[],"[3067, 6617]",[],[],[],[],[],"[6616, 3158]",[],[],[1058],[1058],[],[3089],[],[],[],[],[],[],[]
participant_6_SOLD,[],[],[],[2003],[],"[3067, 4642]",[],[],[],[],[],[1001],[],[],[],[],[],"[1058, 1058]",[],[],[],[],[],[],[]
participant_6_UNDO,[],"[[0, 4642]]",[],[],[],[],[],[],[],[],[],[],[],[],[],[],[],[],[],[],[],[],[],[],[]
participant_7_GOLD,1400,1400,1882,2490,3254,3793,4407,5262,5733,6855,7237,7739,8386,9678,10360,11310,11670,12185,12888,13423,13984,15063,16046,16878,16950
participant_7_CURRENTGOLD,1400,150,632,1240,2004,443,1057,1912,383,1505,412,489,1136,1528,2210,3160,420,935,1638,1633,2194,3273,2756,2288,2300
participant_7_LEVEL,1,3,4,5,6,7,8,9,9,10,11,11,12,13,14,14,15,15,16,17,17,18,18,18,18
participant_7_MINIONSKILLED,0,0,3,10,13,16,23,33,36,40,40,42,48,56,66,71,71,75,77,81,88,96,99,105,105
participant_7_KILLS,0,0,0,0,1,1,1,2,2,4,4,4,4,6,6,8,8,8,9,9,9,11,11,12,12
participant_7_BUY,[],"[3134, 2031]",[],[],[],[6692],[],[],"[3009, 3134]",[],"[1037, 1018]",[6676],[],"[1018, 1042]",[],[],"[3094, 1038]",[],[],[1018],[],[],[3031],[1038],[]
participant_7_SOLD,[],[],[],[],[],[3134],[],[],[],[],[],"[3134, 1037, 1018]",[],[],[],[],"[1018, 1042]",[],[],[2031],[],[],"[1038, 1018]",[],[]
participant_7_UNDO,[],[],[],[],[],[],[],[],[],[],[],[],[],[],[],[],[],[],[],[],[],[],[],[],[]
participant_8_GOLD,1400,1400,2191,2844,3222,3851,4335,4829,5393,6057,6746,7130,7723,8301,9062,9500,10174,10688,11252,11970,12779,13628,14480,15593,15665
participant_8_CURRENTGOLD,1400,0,791,1444,72,701,1185,1679,493,357,1046,180,773,1351,2112,2550,674,188,752,1470,2279,3128,330,1443,1515
participant_8_LEVEL,1,3,4,5,6,6,7,8,9,10,11,11,12,13,14,14,15,16,16,17,17,18,18,18,18
participant_8_MINIONSKILLED,0,0,6,7,7,9,11,12,12,13,16,16,17,21,23,23,28,32,32,35,40,44,44,46,46
participant_8_KILLS,0,0,1,2,2,3,3,3,4,5,6,6,6,6,7,7,8,8,9,10,11,12,12,15,15
participant_8_BUY,[],"[3145, 1026, 3070, 2003, 2003, 2003]",[],[],"[3145, 1028, 1001]",[],[],[],"[4636, 3020, 1026]",[3020],[],[1058],[],[],[],[],[3089],[1043],[],[],[],[],"[3115, 3135, 3115]",[],[]
participant_8_SOLD,[],[],[2003],"[2003, 2003]",[],[],[],[],"[3145, 1028, 1026, 1001]",[1001],[],[],[],[],[],[],[1058],[],[],[],[],[],"[1043, 1026, 1026, 1043]",[],[]
participant_8_UNDO,[],"[[0, 3145]]",[],[],[],[],[],[],"[[0, 3020]]",[],[],[],[],[],[],[],[],[],[],[],[],[],"[[0, 3115]]",[],[]
participant_9_GOLD,1400,1400,1887,2575,3042,3880,4516,5370,6084,6691,7268,7888,8642,9080,9648,10240,10888,11447,11928,12952,13532,14192,15066,15815,15887
participant_9_CURRENTGOLD,1400,0,487,325,42,880,516,1020,584,391,968,538,492,580,398,175,498,1057,1538,512,242,602,976,1225,1237
participant_9_LEVEL,1,3,4,5,6,7,7,8,9,10,11,11,12,12,13,13,14,15,16,16,17,18,18,18,18
participant_9_MINIONSKILLED,0,0,0,1,2,3,5,7,7,9,14,16,16,16,16,16,18,22,22,24,24,25,27,33,33
participant_9_KILLS,0,0,0,1,1,2,3,5,6,7,7,8,9,9,10,11,12,12,12,13,14,15,15,15,15
participant_9_BUY,[],"[3134, 1001]",[],"[1036, 1036, 2031]","[3133, 1036]",[],[6691],[1036],"[3134, 1028, 1036]",[3047],[],[3814],[1031],[1036],[3133],[1037],[6333],[],[],"[3211, 3211, 3067]",[3065],[1029],[3076],[2140],[]
participant_9_SOLD,[],[],[],[],"[1036, 1036]",[],"[3134, 3133]",[],"[1036, 1036]",[1001],[],"[1036, 3134, 1028]",[],[],[1036],[2031],"[1031, 3133, 1037]",[],[],[],"[3211, 3067]",[],[1029],[2140],[]
participant_9_UNDO,[],[],[],[],[],[],[],[],[],[],[],[],[],[],[],[],[],[],[],"[[0, 3211]]",[],[],[],[],[]
team0_KILLS,0,0,0,1,4,6,7,7,10,14,17,18,21,23,24,27,28,31,35,37,38,38,41,41,41
team0_CURRENTGOLD,7000,1015,2205,4210,5550,5738,6812,2561,5100,2730,3623,6915,7143,6759,3324,5047,5639,6825,7162,3758,5322,4132,4655,6156,-4169
team0_TOTALGOLD,7000,7000,9240,11980,15385,18088,20912,23116,26505,29770,33178,36470,39888,42504,45069,48042,51034,54570,57847,61493,63882,66177,69615,71866,72226
team0_LEVEL,5,15,20,25,30,33,38,41,45,49,54,58,61,63,68,71,73,78,82,85,88,89,90,90,90
team0_SBIRES,0,0,8,22,37,46,59,69,87,94,110,122,140,147,162,174,189,210,221,239,248,261,277,289,289
team1_KILLS,0,0,1,3,4,7,9,12,14,19,20,22,23,26,29,32,34,35,37,41,43,48,49,54,54
team1_CURRENTGOLD,7000,200,2885,5043,3733,3213,5216,8312,6214,5300,6577,3856,4692,7048,8347,9409,6247,2888,4960,6452,8790,12647,11881,14435,14675
team1_TOTALGOLD,7000,7000,9685,12693,15183,18413,21416,24862,27664,31350,34102,37006,40242,43848,47147,50274,53087,56028,58750,62832,66020,70177,75061,79415,79775
team1_LEVEL,5,15,20,25,30,34,38,43,46,51,55,57,62,66,69,71,75,79,81,85,87,90,90,90,90
team1_SBIRES,0,0,11,25,32,41,56,75,84,92,109,121,128,144,163,176,189,202,211,228,248,269,277,301,301
delta_KILLS,0,0,-1,-2,0,-1,-2,-5,-4,-5,-3,-4,-2,-3,-5,-5,-6,-4,-2,-4,-5,-10,-8,-13,-13
delta_CURRENTGOLD,0,815,-680,-833,1817,2525,1596,-5751,-1114,-2570,-2954,3059,2451,-289,-5023,-4362,-608,3937,2202,-2694,-3468,-8515,-7226,-8279,-18844
delta_TOTALGOLD,0,0,-445,-713,202,-325,-504,-1746,-1159,-1580,-924,-536,-354,-1344,-2078,-2232,-2053,-1458,-903,-1339,-2138,-4000,-5446,-7549,-7549
delta_LEVEL,0,0,0,0,0,-1,0,-2,-1,-2,-1,1,-1,-3,-1,0,-2,-1,1,0,1,-1,0,0,0
delta_SBIRES,0,0,-3,-3,5,5,3,-6,3,2,1,1,12,3,-1,-2,0,8,10,11,0,-8,0,-12,-12
