name,frame_0,frame_1,frame_2,frame_3,frame_4,frame_5,frame_6,frame_7,frame_8,frame_9,frame_10,frame_11,frame_12,frame_13,frame_14,frame_15,frame_16,frame_17,frame_18,frame_19,frame_20,frame_21,frame_22,frame_23,frame_24,frame_25,frame_26,frame_27,frame_28,frame_29,frame_30,frame_31,frame_32
nameStamp,Tstart,Tearly,Tearly,Tearly,Tearly,Tearly,Tearly,Tearly,Tearly,Tearly,Tearly,Tearly,Tearly,Tearly,Tearly,Tmid,Tmid,Tmid,Tmid,Tmid,Tmid,Tmid,Tmid,Tmid,Tmid,Tmid,Tmid,Tmid,Tmid,Tmid,Tmid,Tmid,Tmid
timestamp,0,60009,120024,180037,240066,300076,360085,420100,480111,540124,600148,660167,720174,780190,840201,900213,960221,1020230,1080232,1140250,1200256,1260268,1320296,1380311,1440321,1500339,1560351,1620359,1680366,1740388,1800405,1860421,1920421
participant_0_GOLD,500,500,604,832,1155,1494,1701,2057,2427,2748,3061,3448,3633,3944,4130,4408,4898,5273,5542,5881,6263,6561,6901,7265,7575,7782,7946,8159,8484,8662,9120,9409,9471
participant_0_CURRENTGOLD,500,0,104,332,655,259,466,822,177,498,21,408,293,604,290,568,1058,1433,52,391,773,1071,1411,1775,385,592,756,169,494,172,330,119,121
participant_0_LEVEL,1,1,1,3,4,5,5,6,7,7,8,8,9,9,9,10,10,11,11,12,12,13,13,13,14,14,14,14,15,15,15,15,15
participant_0_MINIONSKILLED,0,0,5,11,20,31,36,40,47,57,65,77,80,91,94,103,117,123,132,141,152,163,172,174,181,186,189,195,203,207,215,221,221
participant_0_KILLS,0,0,0,0,0,0,0,2,2,3,3,3,3,3,3,3,4,4,4,5,5,6,6,6,6,6,7,7,7,7,7,7,7
participant_0_BUY,[],"[1056, 2003, 2003, 3340]",[],[],[],[],"[3191, 2055, 2003]",[],"[1026, 1052, 4635]",[],[],"[1026, 2031]",[],[1001],[],"[4633, 2055]",[],[],[],[],"[3020, 2420]","[1052, 1052]",[],"[3157, 1052]",[],[],[3916],[1026],[],[],"[3165, 1052]",[],[]
participant_0_SOLD,[],[],[],[],"[2003, 2003]",[],[],[2003],[],[2055],[],[],[],[1056],[],"[4635, 1026]",[],[],[2055],[],[1001],"[1056, 2031]",[],"[2420, 3191, 1052, 2421]",[],[],[1052],[],[],[],"[1026, 3916, 1056]",[],[]
participant_0_UNDO,[],[],[],[],[],[],[],[],"[[0, 1052], [0, 1026]]",[],[],[],[],"[[1056, 0]]",[],[],[],[],[],[],[],"[[0, 1052], [1056, 0]]",[],[],[],[],[],[],[],[],[],[],[]
participant_1_GOLD,500,500,620,892,1177,1489,1661,1888,2480,2748,3076,3417,3680,3887,4213,4600,4924,5223,5345,5602,5851,6123,6764,7113,7235,7358,7480,7837,7969,8316,8629,8751,8813
participant_1_CURRENTGOLD,500,0,120,392,677,-61,111,338,930,73,401,742,1005,1212,1538,225,549,848,95,352,601,-27,614,963,435,558,-170,187,319,666,179,301,563
participant_1_LEVEL,1,1,2,2,3,4,4,5,6,6,7,7,8,8,9,9,10,10,10,10,10,11,11,12,12,12,12,12,12,13,13,13,13
participant_1_MINIONSKILLED,0,0,0,0,0,0,0,0,0,0,0,0,1,1,1,2,4,4,4,4,4,4,4,5,5,5,5,5,6,6,6,6,6
participant_1_KILLS,0,0,0,0,0,0,0,0,0,0,0,0,0,0,0,0,0,0,0,0,0,0,0,0,0,0,0,0,0,0,0,0,0
participant_1_BUY,[],"[1056, 2003, 3340, 2003]",[],[],[],"[1001, 1052]",[],[],"[4635, 2031]",[],[1026],[],[1029],[],[3047],[],[],[],"[4633, 1029, 1029]",[],[],[],[],[],"[3024, 3082, 1028]",[],[],[3110],[],[1011],[1029],[3076],[]
participant_1_SOLD,[],[],[],[2003],[2003],[],[],[],[1052],[],[2031],[],[],[],"[1001, 1029]",[],[],[],"[4635, 1026]",[],[],[],[],[],"[1029, 1029]",[],[],"[3082, 3024]",[],[1028],[],[1029],[]
participant_1_UNDO,[],[],[],[],[],[],[],[],[],[],[],[],[],[],[],[],[],[],[],[],[],[],[],[],[],[],[],[],[],[],[],[],[]
participant_2_GOLD,500,500,597,955,1239,1536,1827,2626,2964,3559,3829,3979,4364,4655,5026,5436,5858,6088,6211,6786,6909,7509,7872,8174,8352,8732,9259,9555,9866,10259,10645,10796,10872
participant_2_CURRENTGOLD,500,0,97,445,729,1026,292,1091,129,714,984,134,509,500,861,146,568,798,921,1496,169,394,757,109,287,667,829,276,586,979,241,391,-33
participant_2_LEVEL,1,1,1,3,4,5,6,7,7,8,8,9,9,9,10,11,11,11,11,11,11,11,12,12,12,13,13,13,13,14,14,14,14
participant_2_MINIONSKILLED,0,0,4,15,24,34,44,48,52,61,69,71,83,92,103,116,116,119,119,124,124,126,133,135,138,145,151,157,164,172,179,181,182
participant_2_KILLS,0,0,0,0,0,0,0,0,1,1,1,1,1,1,1,1,1,1,1,1,1,1,2,2,2,2,2,2,2,2,2,2,2
participant_2_BUY,[],"[1039, 2031, 3340, 3364]",[],[],[],[3117],[],[],[],"[4642, 2055]",[],[],[],[],[],[4005],[],[],"[3114, 2055]",[],[],[1026],[],[],[6616],[],[3067],[],[],[],[3114],[],[]
participant_2_SOLD,[],[3340],[],[],[],[],[],[],[],[],[],[1039],[2055],[],[],[4642],[],[],[],[],[],[],[],[],"[3114, 1026]",[2055],[],[],[],[],[],[],[]
participant_2_UNDO,[],[],[],[],[],[],[],[],[],[],[],[],[],[],[],[],[],[],[],[],[],[],[],[],[],[],[],[],[],[],[],[],[]
participant_3_GOLD,500,500,611,916,1267,1871,2151,2490,2612,2985,3304,3686,4383,4589,4980,5376,5807,6830,7126,7431,7554,7913,8553,9565,9687,9963,10311,10697,10875,11988,12289,12426,12488
participant_3_CURRENTGOLD,500,0,111,416,767,1371,251,590,362,735,1054,1436,2133,239,630,1026,1457,255,551,856,559,493,1133,2145,217,494,841,377,556,1318,570,106,-782
participant_3_LEVEL,1,1,1,2,3,4,4,5,5,6,6,6,7,7,8,8,9,10,10,11,11,11,12,12,12,12,13,13,13,14,14,14,14
participant_3_MINIONSKILLED,0,0,5,15,26,34,40,53,53,62,73,80,93,98,109,121,131,144,150,157,157,166,174,178,178,187,187,194,197,204,207,208,208
participant_3_KILLS,0,0,0,0,0,0,0,0,0,0,0,0,0,0,0,0,0,0,0,0,0,0,0,0,0,0,1,1,1,1,1,1,1
participant_3_BUY,[],"[3854, 2003, 2003, 3340]",[],[],[],[],"[1029, 1033, 2003]",[],[1001],[],[],[],[],"[3047, 1029, 1028, 3364]",[],[],[3105],[],[],[],[],"[3190, 2031]",[],[],"[1029, 1027]",[],"[3024, 3067]",[3050],[],[],[1028],[],[]
participant_3_SOLD,[],[],[],[],[2003],"[2003, 2010]",[],"[2003, 2010]",[2010],[],[3854],[],[],"[1001, 1029, 3340]",[],[],"[1033, 1029]",[],[3855],[],[],"[1028, 3105]",[],[],[],[],"[1027, 1029]","[3067, 3024]",[],[],[],[],[]
participant_3_UNDO,[],[],[],[],[],[],[],[],[],[],[],[],[],[],[],[],[],[],[],[],[],[],[],[],[],[],[],[],[],[],[],[],[]
participant_4_GOLD,500,500,522,692,929,1276,1498,1646,1780,2068,2227,2461,2811,2986,3318,3557,3718,3909,4139,4329,4470,4625,4886,5239,5497,5638,6737,6928,7083,7298,7439,7579,7650
participant_4_CURRENTGOLD,500,0,22,192,429,776,198,346,180,468,627,861,1211,186,518,757,168,359,589,779,920,125,386,739,348,488,537,28,183,399,139,279,350
participant_4_LEVEL,1,1,1,2,3,4,4,5,5,6,6,6,7,7,8,8,8,8,8,9,9,9,9,10,10,10,11,11,11,11,12,12,12
participant_4_MINIONSKILLED,0,0,0,2,5,6,8,9,9,12,13,14,18,20,23,25,26,26,27,27,27,28,28,28,31,31,34,37,38,38,38,38,38
participant_4_KILLS,0,0,0,0,0,1,1,1,1,1,1,1,2,2,2,2,2,3,3,3,3,3,4,6,6,6,6,6,6,8,8,8,8
participant_4_BUY,[],"[1055, 2003]",[],[],[],[],"[3134, 1001]",[],[1036],[],[],[],[],"[6692, 1036]",[],[],[],"[3009, 3134, 1037]",[],[],[1018],[6676],[],[],"[3035, 1018]",[],[],[3036],[],[1036],"[3123, 1018]",[3086],[]
participant_4_SOLD,[],[],[],[],[2003],[],[],[],[],[],[],[],[],"[3134, 1036]",[],[],[],"[1001, 1036]",[],[],"[3134, 1055]","[3134, 1037, 1018]",[],[],[],[],[],"[3035, 1018]",[],[],[1036],[1018],[]
participant_4_UNDO,[],[],[],[],[],[],[],[],[],[],[],[],[],[],[],[],[],[],[],[],"[[3134, 0]]",[],[],[],[],[],[],[],[],[],[],[],[]
participant_5_GOLD,500,500,541,755,1057,1747,1982,2512,2934,3239,3866,4266,5110,5380,6262,6574,7043,7466,7840,8220,8686,9151,9587,10961,11462,11759,12352,12801,13201,14099,14307,15309,15751
participant_5_CURRENTGOLD,500,0,41,255,557,22,257,787,59,364,991,591,1435,180,1062,574,1043,1466,1840,120,587,1051,1487,2861,3363,419,1012,1462,1862,2760,467,1470,1851
participant_5_LEVEL,1,1,1,3,4,5,5,6,7,7,8,9,10,10,10,11,11,12,12,13,13,14,14,14,15,15,15,16,16,16,16,17,17
participant_5_MINIONSKILLED,0,0,1,6,13,20,26,37,37,47,56,59,72,80,84,91,102,112,122,133,143,158,166,171,176,182,183,193,199,212,212,217,222
participant_5_KILLS,0,0,0,0,0,0,0,0,0,0,0,0,0,0,0,0,0,1,1,1,1,1,1,1,1,1,1,1,1,1,1,1,1
participant_5_BUY,[],"[2031, 1035, 3340]",[],[],[],[],[],"[6660, 1001]",[],[],[],[],[],[3068],[],[],"[3066, 1028]",[2055],[],[],"[3111, 1029]",[],[],[1031],[],[3742],[],[],"[3067, 1028]",[],[],[],[]
participant_5_SOLD,[],[],[],[],[],[],[],[],[],[1035],[],[],[],[6660],[],[],[],[],[],[2055],[1001],[],[],[1029],[],"[3066, 1028, 1031]",[],[],[],[],[],[],[]
participant_5_UNDO,[],[],[],[],[],[],[],[],[],[],[],[],[],[],[],[],[],[],[],[],[],[],[],[],[],[],[],[],[],[],[],[],[]
participant_6_GOLD,500,500,620,948,1183,1661,1869,2096,2321,2735,3270,3556,4037,4159,4738,5180,5333,5805,6217,6480,6627,6990,7297,7632,7804,8131,8496,9080,9279,9514,10125,10566,10821
participant_6_CURRENTGOLD,500,0,120,448,683,1161,1369,296,521,935,1470,1756,2237,159,738,1180,133,530,942,1235,282,645,952,787,959,386,751,1335,334,569,1180,1622,1846
participant_6_LEVEL,1,1,2,3,3,4,5,5,5,6,7,8,8,8,9,10,10,10,11,11,11,11,12,12,12,13,13,14,14,14,15,15,15
participant_6_MINIONSKILLED,0,0,0,0,2,3,3,3,5,5,7,9,16,16,25,25,26,26,26,34,34,35,35,35,35,36,39,43,45,45,54,56,59
participant_6_KILLS,0,0,0,0,0,0,0,0,0,0,0,0,0,0,0,0,1,1,1,1,2,2,2,4,4,4,5,5,5,5,5,5,5
participant_6_BUY,[],"[1036, 2031]",[],[],[],[],"[3134, 1001, 2055]",[],[],"[1036, 1036, 3111]",[],"[1036, 1036]",[],[],"[1053, 2055, 3363]",[],[],[],[],"[6692, 3134, 1028]",[],[],[],[],[],"[3814, 3134, 1031, 1031, 1037]",[1036],[],[],[],[],[],[]
participant_6_SOLD,[],[],[],[],[],[],[1036],[],[],[1001],[],[],[2055],[],"[1036, 3340]",[],[],[],[],"[3134, 1036, 1053]",[],[],[],[],[],"[3134, 1028, 2031]",[2055],[],[],[],[],[],[]
participant_6_UNDO,[],[],[],[],[],[],[],[],[],"[[0, 1036], [0, 1036]]",[],[],[],[],[],[],[],[],[],[],[],[],[],[],[],"[[0, 3134], [0, 1031]]",[],[],[],[],[],[],[]
participant_7_GOLD,500,500,611,895,1169,1501,1750,1956,2440,2747,3002,3368,3861,4151,4545,4828,5314,5917,6199,6322,7186,7484,7731,8633,9047,9297,9769,9992,10303,10715,11363,11755,12412
participant_7_CURRENTGOLD,500,0,111,395,659,981,105,311,785,282,537,193,676,966,725,1008,1494,2097,2379,152,1016,1314,1561,2463,2877,112,235,457,769,1181,1828,2220,2887
participant_7_LEVEL,1,1,1,3,4,5,5,6,7,7,8,8,9,9,10,10,10,11,11,11,12,12,12,13,13,13,14,14,14,15,15,16,16
participant_7_MINIONSKILLED,0,0,5,14,20,29,37,42,51,54,63,74,83,93,102,108,112,118,123,123,139,150,153,159,162,164,164,164,169,174,190,197,204
participant_7_KILLS,0,0,0,0,0,1,1,1,2,2,3,3,4,4,4,4,4,4,4,4,4,4,4,5,5,5,6,6,6,6,6,8,8
participant_7_BUY,[],"[1054, 2003, 3340]",[],[],[],"[3057, 1001, 2031, 2055]",[],[],"[3111, 1036]",[],[],[3067],[],"[6632, 2055]",[],[3067],[],[],[],[3065],[],[],[],[],[],"[3742, 1028]",[],[],[],[],[4401],[],[]
participant_7_SOLD,[],[],[],[2003],[],[2010],[2055],[2010],"[2010, 1001]",[],[],[],[],"[1036, 3057, 3067, 2055]",[],[],[],[],[],[3067],[],[],[],[],[],[2031],[],[],[],[],[1028],[],[]
participant_7_UNDO,[],[],[],[],[],[],[],[],[],[],[],[],[],[],[],[],[],[],[],[],[],[],[],[],[],[],[],[],[],[],[],[],[]
participant_8_GOLD,500,500,583,881,1176,1581,1767,2053,2402,2723,2950,3316,3438,3623,4038,4244,4588,4788,5300,5583,5747,6065,6327,6989,7451,7939,8432,9064,9773,10007,10130,11377,11660
participant_8_CURRENTGOLD,500,0,83,381,676,1081,167,453,127,448,675,1041,363,548,963,1169,1513,238,750,1033,1197,590,52,714,576,1064,157,789,1498,833,80,1327,1610
participant_8_LEVEL,1,1,1,2,3,4,4,5,5,6,6,6,7,7,7,8,8,8,9,9,9,10,10,11,11,11,12,12,13,13,13,14,14
participant_8_MINIONSKILLED,0,0,3,13,21,27,30,36,40,48,55,66,66,70,80,85,89,91,106,111,113,120,128,130,134,145,145,155,163,163,163,170,171
participant_8_KILLS,0,0,0,0,0,1,1,1,2,2,2,2,2,2,2,2,2,2,2,2,2,2,2,3,3,3,3,3,3,3,3,3,3
participant_8_BUY,[],"[3858, 2003, 2003, 3340]",[],[],[],[],"[1004, 1052, 1001]",[],"[4642, 2055]",[],[],[],[],[3067],[],[],[],"[6617, 3158]",[],[],[],[1004],[],[],[1026],[],[3114],[],[],[3504],[1004],[],[]
participant_8_SOLD,[],[],[],[],[],[],[2003],[],"[1004, 1052]",[2055],[],"[2003, 3858]",[],[],[],[],[],"[3067, 4642, 1001]",[],[3859],[],[],[],[],[],[],[1004],[],[],"[3114, 1026]",[],[],[]
participant_8_UNDO,[],[],[],[],[],[],[],[],[],[],[],[],[],[],[],[],[],[],[],[],[],[],[],[],[],[],[],[],[],[],[],[],[]
participant_9_GOLD,500,500,543,706,915,1412,1568,1768,2216,2423,2557,2783,3029,3170,3462,3632,3848,4188,4440,4580,4720,4861,5031,5646,5837,5977,6232,6372,6547,6800,6940,7295,7517
participant_9_CURRENTGOLD,500,0,43,206,415,912,83,283,291,498,632,858,1104,445,737,907,1123,13,265,405,545,436,606,1222,562,702,407,547,722,325,215,571,792
participant_9_LEVEL,1,1,1,2,3,4,4,4,5,5,6,6,7,7,7,8,8,9,9,9,9,9,10,11,11,11,11,12,12,12,12,13,13
participant_9_MINIONSKILLED,0,0,1,3,5,6,7,8,9,10,10,12,15,15,17,18,18,18,20,20,20,20,21,21,21,21,22,22,22,22,22,22,22
participant_9_KILLS,0,0,0,0,0,0,0,0,0,0,0,0,0,0,0,0,0,0,0,0,0,0,0,1,1,1,2,2,3,3,3,6,6
participant_9_BUY,[],"[1055, 2003, 3340]",[],[],[],[],"[1037, 1036, 1001, 1036, 2003, 2003]",[],"[6670, 2055]",[],[],[],[3006],[],[],[],[],"[1037, 1018]",[],[],[],"[6672, 1042]","[6677, 1042]",[],[1018],[],"[3124, 1042]",[],[],[3086],"[3363, 1037]",[],[]
participant_9_SOLD,[],[],[],[],[],[],[],"[2003, 2003]","[1036, 1036]",[],[],"[2003, 2055]",[1001],[],[],[],[],[],[],[],[],"[6670, 1018, 1037]",[1042],[],[],[],"[6677, 1018, 1042]",[],[],[1042],[3340],[],[]
participant_9_UNDO,[],[],[],[],[],[],"[[0, 1037]]",[],[],[],[],[],[],[],[],[],[],[],[],[],[],[],[],[],[],[],[],[],[],[],[],[],[]
team0_KILLS,0,0,0,0,0,1,1,3,4,5,5,5,6,6,6,6,7,8,8,9,9,10,12,14,14,14,16,16,16,18,18,18,18
team0_CURRENTGOLD,2500,0,454,1777,3257,3371,1318,3187,1778,2488,3087,3581,5151,2741,3837,2722,3800,3693,2208,3874,3022,2056,4301,5731,1672,2799,2793,1037,2138,3534,1459,1196,219
team0_TOTALGOLD,2500,2500,2954,4287,5767,7666,8838,10707,12263,14108,15497,16991,18871,20061,21667,23377,25205,27323,28363,30029,31047,32731,34976,37356,38346,39473,41733,43176,44277,46523,48122,48961,49294
team0_LEVEL,5,5,6,12,17,22,23,28,30,33,35,36,40,40,44,46,48,50,50,53,53,55,57,59,60,61,63,63,64,67,68,68,68
team0_SBIRES,0,0,14,43,75,105,128,150,161,192,220,242,275,302,330,367,394,416,432,453,464,487,511,520,533,554,566,588,608,627,645,654,655
team1_KILLS,0,0,0,0,0,2,2,2,4,4,5,5,6,6,6,6,7,8,8,8,9,9,9,14,14,14,17,17,18,18,18,23,23
team1_CURRENTGOLD,2500,0,398,1685,2990,4157,1981,2130,1783,2527,4305,4439,5815,2298,4225,4838,5306,4344,6176,2945,3627,4036,4658,8047,8337,2683,2562,4590,5185,5668,3770,7210,8986
team1_TOTALGOLD,2500,2500,2898,4185,5500,7902,8936,10385,12313,13867,15645,17289,19475,20483,23045,24458,26126,28164,29996,31185,32966,34551,35973,39861,41601,43103,45281,47309,49103,51135,52865,56302,58161
team1_LEVEL,5,5,6,13,17,22,23,26,29,31,35,37,41,41,43,47,47,50,52,53,54,56,58,61,62,63,65,68,69,70,71,75,75
team1_SBIRES,0,0,10,36,61,85,103,126,142,164,191,220,252,274,308,327,347,365,397,421,449,483,503,516,528,548,553,577,598,616,641,662,678
delta_KILLS,0,0,0,0,0,-1,-1,1,0,1,0,0,0,0,0,0,0,0,0,1,0,1,3,0,0,0,-1,-1,-2,0,0,-5,-5
delta_CURRENTGOLD,0,0,56,92,267,-786,-663,1057,-5,-39,-1218,-858,-664,443,-388,-2116,-1506,-651,-3968,929,-605,-1980,-357,-2316,-6665,116,231,-3553,-3047,-2134,-2311,-6014,-8767
delta_TOTALGOLD,0,0,56,102,267,-236,-98,322,-50,241,-148,-298,-604,-422,-1378,-1081,-921,-841,-1633,-1156,-1919,-1820,-997,-2505,-3255,-3630,-3548,-4133,-4826,-4612,-4743,-7341,-8867
delta_LEVEL,0,0,0,-1,0,0,0,2,1,2,0,-1,-1,-1,1,-1,1,0,-2,0,-1,-1,-1,-2,-2,-2,-2,-5,-5,-3,-3,-7,-7
delta_SBIRES,0,0,4,7,14,20,25,24,19,28,29,22,23,28,22,40,47,51,35,32,15,4,8,4,5,6,13,11,10,11,4,-8,-23
