name,frame_0,frame_1,frame_2,frame_3,frame_4,frame_5,frame_6,frame_7,frame_8,frame_9,frame_10,frame_11,frame_12,frame_13,frame_14,frame_15,frame_16,frame_17,frame_18,frame_19,frame_20,frame_21,frame_22,frame_23,frame_24
nameStamp,Tstart,Tearly,Tearly,Tearly,Tearly,Tearly,Tearly,Tearly,Tearly,Tmid,Tmid,Tmid,Tmid,Tmid,Tmid,Tmid,Tmid,Tmid,Tend,Tend,Tend,Tend,Tend,Tend,Tend
timestamp,0,60016,120033,180056,240065,300082,360108,420113,480131,540131,600154,660184,720206,780223,840240,900268,960301,1020325,1080354,1140359,1200387,1260411,1320435,1380467,1440467
participant_0_GOLD,500,500,654,1267,1830,2660,3616,4309,5092,6391,7842,8404,9018,9432,10018,11074,11735,13193,13832,14317,14863,15569,16079,17039,17843
participant_0_CURRENTGOLD,500,15,169,482,380,1210,116,809,42,1091,1692,1454,818,1232,568,1624,750,893,282,332,878,969,1479,2439,893
participant_0_LEVEL,1,1,1,3,4,5,6,7,8,9,10,10,11,11,12,13,14,16,16,17,17,17,18,19,20
participant_0_MINIONSKILLED,0,0,3,8,11,20,26,32,39,51,54,59,62,64,69,81,92,105,107,109,117,118,118,118,121
participant_0_KILLS,0,0,0,0,0,0,1,1,1,3,5,5,5,5,5,6,6,7,7,7,7,8,8,9,10
participant_0_BUY,[],"[1052, 3340, 2003]",[],[1029],"[3191, 1001]",[],"[1058, 3020]",[],"[1052, 3108, 2420]",[3157],[3113],[3907],[1058],[],[1058],[],"[3089, 1052]","[3108, 1026]",[3102],[1052],[],[3145],[],[],[3146]
participant_0_SOLD,[],[],[2003],[],"[1029, 1052]",[],[1001],[],[1052],"[3191, 3108, 2420]",[],"[1058, 3113]",[],[],[],[],"[1058, 1058]",[1052],"[3108, 1026]",[],[],[1052],[],[],[3145]
participant_0_UNDO,[],[],[],[],[],[],[],[],[],[],[],[],[],[],[],[],[],[],[],[],[],[],[],[],[]
participant_1_GOLD,500,500,662,1128,1864,2394,2831,3738,5114,5831,6683,7430,7939,8549,9034,9683,11039,12259,13108,14108,14468,15084,15819,16917,17722
participant_1_CURRENTGOLD,500,0,162,628,1364,244,131,163,1539,681,1533,880,489,1099,1584,2233,1489,1409,858,658,1198,1814,1249,2347,2972
participant_1_LEVEL,1,1,1,2,3,4,4,6,7,7,9,9,10,11,11,12,13,15,16,16,16,17,18,20,20
participant_1_MINIONSKILLED,0,0,3,5,10,16,18,25,35,41,49,55,60,63,63,67,71,73,76,86,86,90,90,98,98
participant_1_KILLS,0,0,0,0,0,0,0,1,2,2,2,3,3,3,3,3,4,5,6,7,7,7,8,8,9
participant_1_BUY,[],"[1055, 2003, 3340]",[],[],[],"[1038, 1042, 2003]","[3006, 2003]",[1037],[],"[3031, 1042, 2003]",[],"[3086, 1042]",[3094],[],[],[],"[1038, 1018]",[3031],[3086],[3046],[],[],[1038],[],[]
participant_1_SOLD,[],[],[],[2003],[],[],"[2003, 1042, 2422]",[2003],[],"[1038, 1037, 2003]",[],[1042],"[3086, 1042]",[],[],[],[],"[1038, 1018]",[],[3086],[1055],[],[],[3340],[]
participant_1_UNDO,[],[],[],[],[],[],[],[],[],[],[],[],[],[],[],[],[],[],[],[],[],[],[],[],[]
participant_2_GOLD,500,500,606,1052,1805,2607,3433,3995,5634,6780,7866,8326,9233,9761,10466,11286,12393,13226,13991,14436,14806,15205,15777,16537,17286
participant_2_CURRENTGOLD,500,0,106,552,570,407,683,545,2184,1345,966,126,1033,126,831,1651,2758,726,1491,1936,306,705,377,637,1186
participant_2_LEVEL,1,1,1,2,3,4,5,6,7,8,9,9,10,10,11,12,14,15,16,16,16,16,17,18,19
participant_2_MINIONSKILLED,0,0,0,1,1,3,8,13,14,15,20,20,25,28,36,45,45,48,48,48,49,50,52,52,52
participant_2_KILLS,0,0,0,0,1,2,3,3,4,5,6,6,7,7,7,7,8,8,8,8,8,8,8,8,9
participant_2_BUY,[],"[2033, 3340]",[],[],"[1001, 1052]","[3145, 1036]",[1053],[3144],[],"[3146, 3111, 1052]","[3057, 3113]","[1026, 3100]",[],"[1043, 1052]",[],[],[],"[3124, 3052]",[],[],[3053],[],[3105],[2138],[]
participant_2_SOLD,[],[],[],[],[],[1052],[1036],[1053],[],"[3144, 3145, 1001]",[1052],"[3057, 3113, 1026]",[],[],[],[],[],"[3340, 3513, 1052, 1043]",[],[],[3052],[],[2033],[2138],[]
participant_2_UNDO,[],[],[],[],[],[],[],[],[],[],[],[],[],[],[],[],[],[],[],[],[],[],[],[],[]
participant_3_GOLD,500,500,606,1249,2217,3297,4021,4942,5936,7262,7970,8809,9274,10070,10795,11889,13198,14054,15315,16339,16699,17385,18149,18859,19694
participant_3_CURRENTGOLD,500,15,121,64,1032,212,286,1207,601,1462,385,1224,524,470,645,1739,1763,1304,1315,2339,349,1035,1799,2509,3344
participant_3_LEVEL,1,1,1,3,4,5,5,6,7,8,9,10,10,11,12,13,13,15,16,16,16,17,18,19,20
participant_3_MINIONSKILLED,0,0,0,2,5,7,9,11,19,20,25,30,33,39,43,48,50,53,59,64,64,70,76,77,77
participant_3_KILLS,0,0,0,0,0,0,0,1,2,3,3,3,3,4,4,5,6,6,7,8,8,8,8,8,8
participant_3_BUY,[],"[1052, 3340, 2003]",[],"[1028, 1001]",[],"[3136, 1052, 1026, 3020]",[2420],[],[3151],[3108],"[3157, 1052]",[],[3916],[1026],[3165],[],"[1026, 1052]",[3116],[1058],[],[3089],[],[],[],[]
participant_3_SOLD,[],[],[],[2003],[],"[1028, 1052, 1001]",[],[],[3136],"[1052, 2420]","[3108, 2421]",[],[1052],[],"[3916, 1026]",[],[],"[1026, 1052]",[],[],[1058],[],[],[],[]
participant_3_UNDO,[],[],[],[],[],"[[0, 1026]]",[],[],[],[],[],[],[],[],[],[],[],[],[],[],[],[],[],[],[]
participant_4_GOLD,500,500,692,1642,2991,4284,5507,6458,7155,8753,10195,10960,11773,12308,13532,14325,15096,16277,17683,18664,19024,19440,22793,23486,25004
participant_4_CURRENTGOLD,500,0,192,1142,1341,534,1757,2708,430,503,1945,860,573,558,182,550,1321,52,1458,1349,1709,225,3578,3771,5079
participant_4_LEVEL,1,1,1,3,4,5,6,7,7,8,9,10,10,11,11,12,13,15,16,17,17,17,19,20,22
participant_4_MINIONSKILLED,0,0,5,14,22,32,44,55,62,73,78,78,87,91,97,105,114,114,124,142,142,144,159,159,170
participant_4_KILLS,0,0,0,1,3,5,6,6,6,7,9,10,10,10,11,11,11,12,13,13,13,13,17,17,19
participant_4_BUY,[],"[1036, 2003, 2003, 2003, 3340]",[],[],"[1053, 1042, 1042]","[3153, 1001]",[],[],"[1038, 1037, 1018]","[3031, 1018, 1042]",[],"[3094, 1036]","[3133, 1036]",[1053],"[3363, 3812]","[2055, 1036]",[],"[3035, 3033]",[],[1038],[],[3095],[],[2140],[]
participant_4_SOLD,[],[],[],[],"[1036, 2003, 2003]","[1053, 1042, 1042, 2003]",[],[],[],"[1038, 1037, 1018]",[],"[1018, 1042]",[1036],[1036],"[3340, 1053, 3133]",[2055],[],"[1036, 3035]",[],[1001],[],[1038],[],[2140],[]
participant_4_UNDO,[],[],[],[],[],[],[],[],[],[],[],[],[],[],[],[],[],[],[],[],[],[],[],[],[]
participant_5_GOLD,500,600,754,1452,2063,3231,4486,5970,6846,7423,8196,8838,9440,10152,10718,11193,11691,12101,12684,13575,14688,15127,15612,15972,16250
participant_5_CURRENTGOLD,500,115,269,967,1578,1231,1386,2870,346,373,1146,988,290,1002,1568,793,1291,451,1034,25,1138,277,762,622,900
participant_5_LEVEL,1,1,1,2,3,4,5,7,7,8,8,9,10,10,11,12,12,12,14,16,17,17,18,18,18
participant_5_MINIONSKILLED,0,0,3,7,8,9,13,22,23,31,32,36,39,44,44,46,48,48,48,52,52,52,52,52,54
participant_5_KILLS,0,0,0,0,0,1,3,6,6,6,6,6,6,6,6,6,6,6,6,6,7,7,7,7,7
participant_5_BUY,[],"[1052, 2003]",[],[],[],"[3191, 1026]",[3020],[],"[3157, 3916]",[3165],[],[3028],[],[3174],[],[1058],[],[1058],[],"[3089, 3114]",[],[3107],[],[2139],[]
participant_5_SOLD,[],[],[],[2003],[],[1052],[],[],[3191],"[3916, 1026]",[],[],[],[3028],[],[],[],[],[],"[1058, 1058]",[],[3114],[],[2139],[]
participant_5_UNDO,[],[],[],[],[],[],[],[],[],[],[],[],[],[],[],[],[],[],[],[],[],[],[],[],[]
participant_6_GOLD,500,920,1078,1772,2540,3853,4911,5842,7046,7709,8475,9059,9814,10787,11843,12540,13080,13597,14808,16595,17823,18490,19400,19796,20024
participant_6_CURRENTGOLD,500,420,228,922,1690,1453,1111,142,471,1134,1900,759,714,787,1843,840,860,1377,888,1275,803,1470,1880,2276,2324
participant_6_LEVEL,1,1,1,2,3,5,6,7,7,8,8,9,10,11,12,12,13,13,15,16,18,18,19,19,19
participant_6_MINIONSKILLED,0,0,3,7,17,25,32,34,48,57,66,70,82,88,92,100,106,110,124,131,144,149,149,149,149
participant_6_KILLS,0,1,1,1,1,2,2,2,2,2,2,2,2,2,4,4,4,4,5,7,8,8,9,9,9
participant_6_BUY,[],"[1055, 2003, 3340]",[1036],[],[],"[3144, 1042]",[3153],"[3006, 1018]",[1037],[],[],[3031],[1018],"[3086, 1042]",[],"[3085, 1018]",[2015],[],[3095],[3086],"[3094, 2140]",[],[2140],[],[]
participant_6_SOLD,[],[2003],[],[],[],[1036],"[3144, 1042]",[],[],[],[],"[1037, 1018]",[],[1018],[],"[1042, 3086]",[1055],[],"[1018, 2015]",[],"[3086, 2140]",[],[2140],[],[]
participant_6_UNDO,[],[],[],[],[],[],[],[],[],[],[],[],[],[],[],[],[],[],[],[],[],[],[],[],[]
participant_7_GOLD,500,500,587,1271,1833,2982,3710,4274,5589,6129,7093,8077,9082,11025,11684,12779,13720,14472,15385,15925,17907,18606,20048,21074,21377
participant_7_CURRENTGOLD,500,0,87,421,433,232,320,284,499,339,253,1237,112,2055,564,126,617,459,1372,512,2494,3193,1235,2261,894
participant_7_LEVEL,1,1,1,2,3,4,5,6,7,8,9,10,11,13,14,15,15,15,16,16,18,18,19,20,20
participant_7_MINIONSKILLED,0,0,0,8,14,17,20,27,31,37,43,55,65,84,92,105,111,113,132,135,149,153,160,173,173
participant_7_KILLS,0,0,0,0,0,2,2,2,3,3,4,4,4,6,6,7,8,8,8,8,10,10,12,12,12
participant_7_BUY,[],"[1036, 2031]",[],[1036],[1053],"[3144, 1043]",[3153],"[1001, 1029]","[3047, 1042, 1042]","[1043, 1042]","[3111, 1057]",[],"[3091, 1036, 3044]",[],"[3057, 3101]","[3078, 3052]",[1033],"[3105, 3133]",[],[3812],[],[],"[3139, 3031]",[],[]
participant_7_SOLD,[],[],[],[],[1036],"[1053, 1036]","[2031, 3144, 1043]",[],"[1001, 1029]","[1042, 1042]",[3047],[],"[1043, 1057, 1042, 1036]",[],[],"[3101, 3057, 3044]",[],"[1033, 3052]",[],"[3105, 3133]",[],[],[],[],[3111]
participant_7_UNDO,[],[],[],[],[],[],[],[],[],[],[],[],[],[],[],[],[],[],[],[],[],[],"[[0, 3139]]",[],[]
participant_8_GOLD,500,500,606,1131,1640,2325,3115,3646,4198,4616,5481,6522,7959,9178,9583,9991,10426,10851,11519,11947,13003,14200,14679,15039,15342
participant_8_CURRENTGOLD,500,15,121,181,390,775,65,296,413,380,495,1537,809,1428,733,1141,1576,201,869,197,1253,2450,729,1089,-2008
participant_8_LEVEL,1,1,1,2,3,5,5,6,6,7,7,9,10,12,12,12,13,13,13,14,16,17,18,18,18
participant_8_MINIONSKILLED,0,0,1,3,7,11,16,21,25,26,26,26,28,31,32,34,34,35,35,36,36,43,43,43,43
participant_8_KILLS,0,0,0,0,0,0,1,1,1,1,2,4,6,7,7,7,7,7,8,8,9,11,11,11,11
participant_8_BUY,[],"[1052, 3340, 2003]",[],[3108],[1042],[1042],"[3101, 3115]",[1001],[1052],[1033],"[3111, 1028]",[],"[3916, 1026, 3165]","[1042, 1042]",[3191],[],[],[3157],[],[3086],[],[],"[3085, 3031, 3363]",[],[1038]
participant_8_SOLD,[],[],[],"[2003, 1052]",[],[],"[1042, 1042, 3101, 3108]",[],[],[],"[1001, 1033]",[],"[1028, 1052, 3916, 1026]",[],[],[],[],[3191],[],[1042],[],[],"[1042, 3086, 3165, 3340]",[],[]
participant_8_UNDO,[],[],[],[],[],[],[],[],[],[],[],[],[],[],[],[],[],[],[],[],[],[],[],[],[]
participant_9_GOLD,500,500,654,1684,2590,3105,4245,5413,6644,7089,7786,8401,9899,10728,11173,11921,13002,14093,14528,14888,16845,17968,18908,19268,19823
participant_9_CURRENTGOLD,500,0,154,1184,2090,530,1295,1413,1194,389,1085,25,1524,753,98,496,127,1218,603,463,2420,360,1300,710,-6995
participant_9_LEVEL,1,1,1,3,4,5,6,7,8,8,9,9,11,12,12,13,14,16,16,16,18,19,19,19,20
participant_9_MINIONSKILLED,0,0,3,14,24,30,39,47,56,56,68,68,76,87,87,89,106,116,116,116,125,143,151,151,152
participant_9_KILLS,0,0,0,0,0,0,1,2,3,3,3,3,4,4,4,5,5,6,6,6,7,7,8,8,9
participant_9_BUY,[],"[1036, 2031, 3340]",[],[],[],"[3077, 3134]","[1001, 2055]","[2033, 1036, 1036]","[3147, 1036]","[3052, 1028]",[],"[3748, 1036, 3134]",[],"[1037, 1028, 3814]","[1036, 1036, 3134]",[1036],[3142],[],"[3044, 3044, 3057]",[2140],[],"[3078, 2140]",[3074],"[3031, 3031]",[2140]
participant_9_SOLD,[],[],[],[],[],[1036],[2055],[2031],"[3134, 1036, 1036]",[1036],[],"[3077, 1028, 3052, 1036]",[],"[2033, 1037, 3134, 1028]","[1036, 1036]",[],"[1036, 3134]",[],[],[2140],[],"[3057, 2140]","[3748, 3748]","[3748, 1001]",[2140]
participant_9_UNDO,[],[],[],[],[],[],[],[],[],[],[],[],[],[],[],[],[],[],"[[0, 3044], [0, 3044]]",[],[],[],"[[3748, 0], [0, 3074], [3748, 0]]","[[0, 3031], [1001, 0]]",[]
team0_KILLS,0,0,0,1,4,7,10,12,15,20,25,27,28,29,30,32,35,38,41,43,43,44,49,50,55
team0_CURRENTGOLD,2500,30,750,2868,4687,2607,2973,5432,4796,5082,6521,4544,3437,3485,3810,7797,8081,4384,5404,6614,4440,4748,8482,11703,13474
team0_TOTALGOLD,2500,2500,3220,6338,10707,15242,19408,23442,28931,35017,40556,43929,47237,50120,53845,58257,63461,69009,73929,77864,79860,82683,88617,92838,97549
team0_LEVEL,5,5,5,13,18,23,26,32,36,40,46,48,51,54,57,62,67,76,80,82,82,84,90,96,101
team0_SBIRES,0,0,11,30,49,78,105,136,169,200,226,242,267,285,308,346,372,393,414,449,458,472,495,504,518
team1_KILLS,0,1,1,1,1,5,9,13,15,15,17,19,22,25,27,29,30,31,33,35,41,43,47,47,48
team1_CURRENTGOLD,2500,550,859,3675,6181,4221,4177,5005,2923,2615,4879,4546,3449,6025,4806,3396,4471,3706,4766,2472,8108,7750,5906,6958,-4885
team1_TOTALGOLD,2500,3020,3679,7310,10666,15496,20467,25145,30323,32966,37031,40897,46194,51870,55001,58424,61919,65114,68924,72930,80266,84391,88647,91149,92816
team1_LEVEL,5,5,5,11,16,23,27,33,35,39,41,46,52,58,61,64,67,69,74,78,87,89,93,94,95
team1_SBIRES,0,0,10,39,70,92,120,151,183,207,235,255,290,334,347,374,405,422,455,470,506,540,555,568,571
delta_KILLS,0,-1,-1,0,3,2,1,-1,0,5,8,8,6,4,3,3,5,7,8,8,2,1,2,3,7
delta_CURRENTGOLD,0,-520,-109,-807,-1494,-1614,-1204,427,1873,2467,1642,-2,-12,-2540,-996,4401,3610,678,638,4142,-3668,-3002,2576,4745,18359
delta_TOTALGOLD,0,-520,-459,-972,41,-254,-1059,-1703,-1392,2051,3525,3032,1043,-1750,-1156,-167,1542,3895,5005,4934,-406,-1708,-30,1689,4733
delta_LEVEL,0,0,0,2,2,0,-1,-1,1,1,5,2,-1,-4,-4,-2,0,7,6,4,-5,-5,-3,2,6
delta_SBIRES,0,0,1,-9,-21,-14,-15,-15,-14,-7,-9,-13,-23,-49,-39,-28,-33,-29,-41,-21,-48,-68,-60,-64,-53
