name,team0,team1
win,Win,Fail
firstBlood,True,False
firstTower,False,True
firstInhibitor,False,False
firstBaron,True,False
firstDragon,True,False
firstRiftHerald,True,False
towerKills,5,4
inhibitorKills,0,0
baronKills,1,0
dragonKills,3,0
riftHeraldKills,1,0
