name,team0,team1
win,Win,Fail
firstBlood,True,False
firstTower,False,True
firstInhibitor,True,False
firstBaron,True,False
firstDragon,False,True
firstRiftHerald,False,True
towerKills,9,6
inhibitorKills,2,0
baronKills,1,0
dragonKills,4,1
riftHeraldKills,1,1
