name,frame_0,frame_1,frame_2,frame_3,frame_4,frame_5,frame_6,frame_7,frame_8,frame_9,frame_10,frame_11,frame_12,frame_13,frame_14,frame_15,frame_16,frame_17,frame_18,frame_19,frame_20,frame_21,frame_22,frame_23
nameStamp,Tstart,Tearly,Tearly,Tearly,Tearly,Tearly,Tearly,Tearly,Tearly,Tearly,Tearly,Tearly,Tearly,Tearly,Tearly,Tmid,Tmid,Tmid,Tmid,Tmid,Tmid,Tmid,Tmid,Tmid
timestamp,0,60032,120065,180090,240105,300105,360126,420154,480169,540196,600214,660243,720261,780276,840292,900320,960335,1020360,1080372,1140399,1200408,1260434,1320451,1380451
participant_0_GOLD,500,500,521,811,1099,1424,1882,2217,2548,2671,3063,3540,3901,4344,4615,5039,5546,5768,5890,6311,7081,7371,7626,7734
participant_0_CURRENTGOLD,500,0,21,311,599,924,132,467,798,336,728,1205,1566,194,465,889,261,483,305,726,1496,1786,2041,499
participant_0_LEVEL,1,1,1,3,4,5,6,7,7,7,8,9,9,10,10,11,11,11,11,12,12,13,13,13
participant_0_MINIONSKILLED,0,0,0,9,17,26,28,37,46,46,58,66,76,77,83,94,99,99,99,105,117,122,130,130
participant_0_KILLS,0,0,0,0,0,0,0,0,0,0,0,0,0,0,1,2,2,2,2,2,2,2,2,2
participant_0_BUY,[],"[1055, 2003, 3340]",[],[],[],[],"[1036, 1036, 1042, 2003, 2055, 2003]",[],[],[],"[6670, 1018, 2055, 2003, 2003]",[],[1037],[],[1042],"[6672, 3006, 2055]",[],[],[1018],[],[],[3133],[],[]
participant_0_SOLD,[],[],[],"[2010, 2003]",[],[2010],[],"[2055, 2010]","[2003, 2003]",[],"[1036, 1042, 1036, 2055]","[2003, 2003]",[],[],[],"[6670, 1018, 1037, 1042, 2422]",[],[],[],[],[],[],[2055],[]
participant_0_UNDO,[],[],[],[],[],[],[],[],[],[],[],[],[],[],[],[],[],[],[],[],[],[],[],[]
participant_1_GOLD,500,500,521,773,1156,1379,1587,1844,1966,2409,2821,3309,3516,3853,4026,4198,4643,4826,4969,5292,5619,5742,6023,6161
participant_1_CURRENTGOLD,500,150,21,273,656,879,1087,1344,166,609,1021,1509,1716,2053,226,398,843,1026,169,492,819,142,423,161
participant_1_LEVEL,1,1,1,2,3,3,4,4,4,5,6,7,7,8,8,8,8,9,9,9,9,9,10,10
participant_1_MINIONSKILLED,0,0,0,0,0,0,0,0,0,0,0,3,3,15,15,15,16,16,17,17,19,19,21,22
participant_1_KILLS,0,0,0,0,0,0,1,1,1,1,1,1,1,2,2,2,2,2,2,2,3,3,3,3
participant_1_BUY,[],"[1056, 2003, 3340, 2003]",[],[],[],[],"[1026, 1028]",[],[],"[1052, 2003, 2003, 2003]",[],[],[],"[4633, 1042]",[],[],"[1043, 1052]",[],[1001],[],[],[],[],"[3020, 1026]"
participant_1_SOLD,[],[],[],[],[],"[2003, 2003]",[],[],[],[],[],[],[],"[1028, 1052, 1026]",[],[],[1042],[],[],[],"[2003, 2003, 2003]",[],[],[1001]
participant_1_UNDO,[],[],[],[],[],[],[],[],[],[],[],[],[],[],[],[],[],[],[],[],[],[],[],[]
participant_2_GOLD,500,500,591,920,1204,1585,1764,2120,2396,2817,3037,3664,3891,4090,4784,5340,5631,5754,5897,6444,6783,6961,7314,7436
participant_2_CURRENTGOLD,500,0,91,410,694,1065,69,415,691,1102,247,864,216,415,809,165,456,579,122,669,1008,86,439,611
participant_2_LEVEL,1,1,1,3,4,5,5,6,7,8,8,9,9,9,10,10,10,10,10,10,11,11,11,11
participant_2_MINIONSKILLED,0,0,4,13,22,34,37,48,57,70,76,84,90,94,104,104,111,111,112,120,129,132,142,143
participant_2_KILLS,0,0,0,0,0,0,0,0,0,0,0,1,1,1,1,1,1,1,1,1,1,1,1,1
participant_2_BUY,[],[1039],"[2031, 3364]",[],[],[],[],[],"[1001, 6660]",[],[],[],[],[],"[1029, 1057, 3066]",[],[],[],[6664],[],[],[1031],[],[1028]
participant_2_SOLD,[],[],[3340],[],[],[],[],[],[],[1039],[],[],[],[],[],[],[],[3364],"[6660, 1029, 1057]",[3513],[],[],[],[]
participant_2_UNDO,[],[],[],[],[],[],[],[],[],[],[],[],[],[],[],[],[],[],[],[],[],[],[],[]
participant_3_GOLD,500,500,591,888,1235,1588,1871,2967,3153,3450,4527,4823,5078,5327,6162,6513,6741,7233,7543,7809,8105,8276,8580,8779
participant_3_CURRENTGOLD,500,0,91,388,85,438,721,1817,403,700,1777,273,528,276,1112,263,191,683,893,1159,1455,526,530,529
participant_3_LEVEL,1,1,1,2,2,4,4,5,5,6,7,7,7,7,8,8,8,9,9,10,10,10,10,10
participant_3_MINIONSKILLED,0,0,4,14,16,27,36,45,49,59,71,78,86,94,104,104,107,114,121,126,132,135,142,147
participant_3_KILLS,0,0,0,0,1,1,1,1,1,1,1,1,1,1,1,1,1,2,2,3,3,3,3,3
participant_3_BUY,[],"[3862, 3340, 2003, 2003]",[],[],"[1036, 1036, 3057, 2003, 2055]",[],[],[],"[3044, 2055]",[],[],"[3067, 3364]",[],[6632],[],"[3009, 1036]",[],[3134],[],[],[1037],[],[],[]
participant_3_SOLD,[],[],[],[2003],[2003],[2055],"[2003, 2010]","[2010, 2010, 3862]",[],[],[],[3340],"[2055, 3863]","[3044, 3057, 3067]",[],[2422],[],[1036],[],[],[],[],[],[]
participant_3_UNDO,[],[],[],[],"[[0, 1036], [0, 1036]]",[],[],[],[],[],[],[],[],[],[],[],[],[],[],[],[],[],[],[]
participant_4_GOLD,500,560,626,869,1367,1581,1765,2501,2694,2897,3623,3766,3996,4170,4786,5135,5332,5787,5954,6601,6741,6881,7066,7193
participant_4_CURRENTGOLD,500,60,126,369,42,256,440,1176,194,397,1123,466,696,170,786,185,382,87,254,901,166,307,491,618
participant_4_LEVEL,1,1,1,2,3,3,4,5,5,6,6,7,7,7,8,8,8,9,9,9,9,9,10,10
participant_4_MINIONSKILLED,0,0,0,0,0,0,0,0,0,0,0,0,1,2,2,2,2,2,3,3,3,3,5,5
participant_4_KILLS,0,0,0,0,0,0,0,2,2,2,4,4,4,4,4,4,4,4,4,4,4,4,4,4
participant_4_BUY,[],"[1055, 3340, 2003]",[],[],"[1036, 1042]",[],[],[],"[6670, 1018, 1001, 2003]",[],[],"[6672, 1042]",[],[3006],[],[3086],[1042],[],[1042],[],[],[3046],[1029],[]
participant_4_SOLD,[],[],[],[],[],[],[],[],"[1036, 1042]",[],[],"[6670, 1018]",[],"[1001, 1042]",[],[],[],[],"[1055, 2003, 2003]",[],[],"[1042, 3086, 1042]",[],[]
participant_4_UNDO,[],[],[],[],[],[],[],[],[],[],[],[],[],[],[],[],[],[],[],[],[],[],[],[]
participant_5_GOLD,500,500,598,811,1071,1340,1613,1812,2129,2684,2827,3165,3498,3648,3848,3970,4184,4515,5148,5728,5850,6197,6863,7241
participant_5_CURRENTGOLD,500,0,98,311,571,840,78,277,594,1149,392,730,1063,748,948,1070,434,765,1398,1978,1050,397,1063,1441
participant_5_LEVEL,1,1,1,3,3,5,5,5,6,7,8,8,9,9,9,9,10,10,11,12,12,12,13,13
participant_5_MINIONSKILLED,0,0,4,9,14,20,20,24,32,45,46,55,63,65,69,69,74,83,92,106,106,112,122,127
participant_5_KILLS,0,0,0,0,0,0,0,0,0,0,0,0,1,1,1,4,4,5,5,5,5,5,5,7
participant_5_BUY,[],"[1055, 2003]",[],[],[2055],[],[],[1053],[],[],[1036],[1036],[],"[3134, 1036, 2055, 1001]",[],[],"[6692, 1037, 1018, 1036, 2055]",[],[],[],[],[6676],[1018],[]
participant_5_SOLD,[],[],[],[2003],[],[],[],[],[],[],[],[],[],"[2055, 1036, 1036]",[2055],[],"[3134, 1036, 1053]",[],[],[],[2055],"[1036, 1018]",[],[]
participant_5_UNDO,[],[],[],[],[],[],[],[],[],[],[],[],[],[],[],[],"[[0, 1037]]",[],[],[],[],[],[],[]
participant_6_GOLD,500,500,606,1013,1913,2227,2953,3166,3546,4069,4291,4871,6102,6633,7361,7888,8081,8957,10019,10977,11810,12598,13191,14274
participant_6_CURRENTGOLD,500,0,106,513,1413,77,253,466,846,1369,391,971,2202,2733,3461,3988,31,907,1969,628,1460,2249,941,2074
participant_6_LEVEL,1,1,2,3,3,4,5,6,6,7,7,8,9,10,10,11,11,12,13,13,14,14,15,15
participant_6_MINIONSKILLED,0,0,0,0,0,0,12,12,12,12,12,18,21,21,21,30,34,35,40,50,50,52,52,59
participant_6_KILLS,0,0,0,0,2,2,3,3,3,4,4,5,6,7,8,8,8,10,11,13,14,16,16,18
participant_6_BUY,[],"[1039, 2003, 2003, 2003, 3340]",[],[],[],"[3134, 1036, 2055, 2055]",[1053],[],[],[],[6692],[],[],[],[],[],"[3004, 3117, 1036, 1036, 2055, 2055]",[],[],[3142],[],[],"[3123, 3133]",[]
participant_6_SOLD,[],[],[2003],[2003],[],[],[1036],[],[2055],"[2055, 2003, 3340]","[3134, 1053]",[],"[1039, 3513]",[],[],[],[2422],[2055],[],"[1036, 1036]",[],[2055],[],[]
participant_6_UNDO,[],[],[],[],[],[],[],[],[],[],[],[],[],[],[],[],[],[],[],[],[],[],[],[]
participant_7_GOLD,500,500,542,790,990,1343,1602,1850,2170,2526,2858,2981,3321,3763,4370,4792,5237,5571,6462,6605,6728,7306,7808,8138
participant_7_CURRENTGOLD,500,0,42,290,490,833,257,505,825,1171,1503,126,456,898,1195,642,1087,1421,2312,455,138,716,1218,1538
participant_7_LEVEL,1,1,1,3,4,5,5,6,7,8,8,8,9,9,10,10,11,11,12,12,12,12,13,13
participant_7_MINIONSKILLED,0,0,1,8,13,23,28,35,46,56,68,68,77,87,93,93,107,111,114,115,115,115,125,127
participant_7_KILLS,0,0,0,0,0,0,0,0,0,0,0,0,0,0,0,0,0,0,0,0,0,0,1,1
participant_7_BUY,[],[2033],[],[],[],[],"[1001, 1042, 1052]",[],[],[],"[3006, 1028]",[],[],"[1026, 4635]",[],[],[1026],[],[],[],[4633],[1043],[],[]
participant_7_SOLD,[],[],[],[],[],[],[],[],[],[],"[1001, 1042]",[],[],"[1028, 1052]",[],[],[],[],[],[],"[4635, 1026]",[],[],[]
participant_7_UNDO,[],[],[],[],[],[],[],[],[],[],[],[],[],"[[0, 1026]]",[],[],[],[],[],[],[],[],[],[]
participant_8_GOLD,500,500,521,748,885,1175,1466,1637,2027,2248,2370,2739,3423,3604,3954,5157,5366,6061,6719,7044,7553,7859,8009,8817
participant_8_CURRENTGOLD,500,0,21,248,310,600,891,162,552,773,545,564,1248,304,654,1857,191,886,1544,1869,2378,634,184,992
participant_8_LEVEL,1,1,1,2,2,3,4,4,5,5,5,6,7,7,7,8,8,9,10,10,11,11,11,11
participant_8_MINIONSKILLED,0,0,0,6,7,14,23,26,34,40,40,46,51,55,65,66,67,79,84,91,101,104,106,107
participant_8_KILLS,0,0,0,0,0,0,0,0,0,0,0,0,0,0,0,0,0,0,1,1,1,1,1,1
participant_8_BUY,[],"[1055, 2003, 3340]",[],[],[],[],"[1001, 1042, 2031, 2055]",[],[],[],[],"[3006, 1036, 1036, 1042]",[],[],[6670],"[1053, 2055]",[],[],[],"[6673, 6677]",[1038],[],[],[]
participant_8_SOLD,[],[],[],[2003],[],[],[],[],[2055],[],[],"[1001, 1042]",[],[],"[1036, 1042, 1036]",[],[],[],[2055],"[6670, 1053]",[2031],[],[],[]
participant_8_UNDO,[],[],[],[],[],[],[],[],[],[],[],[],[],[],[],[],[],[],[],[],"[[0, 6677]]",[],[],[]
participant_9_GOLD,500,500,523,713,1202,1337,1527,1710,2008,2156,2291,2671,3237,3377,3612,3753,3893,4277,4517,4880,5020,5231,5423,5740
participant_9_CURRENTGOLD,500,0,23,213,702,187,377,160,458,606,341,721,1287,102,337,178,318,2,242,605,745,956,273,590
participant_9_LEVEL,1,1,1,2,3,3,4,4,5,5,5,6,7,7,7,7,7,8,8,8,9,9,9,10
participant_9_MINIONSKILLED,0,0,0,3,4,4,7,10,12,13,13,19,21,21,23,23,23,26,26,30,30,31,33,34
participant_9_KILLS,0,0,0,0,0,0,0,0,0,0,0,0,0,0,0,0,0,0,0,0,0,0,0,0
participant_9_BUY,[],"[3858, 3340, 2003, 2003]",[],[],[],"[1028, 1004]",[],[3066],[],[],[1028],[],[],"[2065, 2055]",[],[1001],[],[3117],[3364],[],[],[],"[3114, 2055]",[]
participant_9_SOLD,[],[],[],"[2003, 2003]",[],[],[],[1028],[],[],[],[],[3858],"[1028, 1004, 3066, 2055]",[],[],[],[1001],[3340],[3859],[],[],[],[2055]
participant_9_UNDO,[],[],[],[],[],[],[],[],[],[],[],[],[],[],[],[],[],[],[],[],[],[],[],[]
team0_KILLS,0,0,0,0,1,1,2,4,4,4,6,7,7,8,9,10,10,11,11,12,13,13,13,13
team0_CURRENTGOLD,2500,210,350,1751,2076,3562,2449,5219,2252,3144,4896,4317,4722,3108,3398,1900,2133,2858,1743,3947,4944,2847,3924,2418
team0_TOTALGOLD,2500,2560,2850,4261,6061,7557,8869,11649,12757,14244,17071,19102,20382,21784,24373,26225,27893,29368,30253,32457,34329,35231,36609,37303
team0_LEVEL,5,5,5,12,16,20,23,27,28,32,35,39,39,41,44,45,45,48,48,50,51,52,54,54
team0_SBIRES,0,0,8,36,55,87,101,130,152,175,205,231,256,282,308,319,335,342,352,371,400,411,440,447
team1_KILLS,0,0,0,0,2,2,3,3,3,4,4,5,7,8,9,12,12,15,17,19,20,22,23,27
team1_CURRENTGOLD,2500,0,290,1575,3486,2537,1856,1570,3275,5068,3172,3112,6256,4785,6595,7735,2061,3981,7465,5535,5771,4952,3679,6635
team1_TOTALGOLD,2500,2500,2790,4075,6061,7422,9161,10175,11880,13683,14637,16427,19581,21025,23145,25560,26761,29381,32865,35234,36961,39191,41294,44210
team1_LEVEL,5,5,6,13,15,20,23,25,29,32,33,36,41,42,43,45,47,50,54,55,58,58,61,62
team1_SBIRES,0,0,5,26,38,61,90,107,136,166,179,206,233,249,271,281,305,334,356,392,402,414,438,454
delta_KILLS,0,0,0,0,-1,-1,-1,1,1,0,2,2,0,0,0,-2,-2,-4,-6,-7,-7,-9,-10,-14
delta_CURRENTGOLD,0,210,60,176,-1410,1025,593,3649,-1023,-1924,1724,1205,-1534,-1677,-3197,-5835,72,-1123,-5722,-1588,-827,-2105,245,-4217
delta_TOTALGOLD,0,60,60,186,0,135,-292,1474,877,561,2434,2675,801,759,1228,665,1132,-13,-2612,-2777,-2632,-3960,-4685,-6907
delta_LEVEL,0,0,-1,-1,1,0,0,2,-1,0,2,3,-2,-1,1,0,-2,-2,-6,-5,-7,-6,-7,-8
delta_SBIRES,0,0,3,10,17,26,11,23,16,9,26,25,23,33,37,38,30,8,-4,-21,-2,-3,2,-7
