name,frame_0,frame_1,frame_2,frame_3,frame_4,frame_5,frame_6,frame_7,frame_8,frame_9,frame_10,frame_11,frame_12,frame_13,frame_14,frame_15,frame_16,frame_17,frame_18,frame_19,frame_20,frame_21,frame_22,frame_23,frame_24
nameStamp,Tstart,Tearly,Tearly,Tearly,Tearly,Tearly,Tearly,Tearly,Tearly,Tearly,Tearly,Tearly,Tearly,Tmid,Tmid,Tmid,Tmid,Tmid,Tmid,Tmid,Tmid,Tmid,Tend,Tend,Tend
timestamp,0,60012,120025,180035,240063,300080,360095,420112,480132,540156,600175,660188,720203,780222,840238,900259,960274,1020297,1080317,1140341,1200366,1260389,1320414,1380445,1440445
participant_0_GOLD,500,500,633,1249,1522,2196,2658,2850,3021,4025,4656,4842,6239,6882,7229,8053,8749,9142,9597,9819,10694,11223,11645,12957,13358
participant_0_CURRENTGOLD,500,0,133,749,272,721,1183,50,221,1225,1856,327,1724,1967,414,1238,884,1277,74,296,1172,600,1023,2335,2675
participant_0_LEVEL,1,1,1,3,3,4,6,6,6,7,8,8,9,10,10,11,12,12,12,12,13,13,14,15,15
participant_0_MINIONSKILLED,0,0,3,12,12,24,41,45,48,60,71,75,92,98,111,112,130,134,141,141,144,145,158,164,171
participant_0_KILLS,0,0,0,1,1,1,1,1,1,1,1,1,1,1,1,1,1,1,1,1,1,1,1,1,1
participant_0_BUY,[],"[1056, 2003, 2003, 3340]",[],[],"[1082, 1052, 1004, 2055]",[],[3802],"[2055, 2003]",[],[],"[1052, 1052, 2003, 2055]",[],[3030],[2055],[],[],"[3136, 2055, 3363]",[],[],"[3020, 2055]",[],[1026],[],[3151],[]
participant_0_SOLD,[],[],[],[2003],"[2010, 2055]",[2010],"[1004, 1052]",[],[2055],"[2003, 2010, 2003]",[],"[2055, 2003]","[3802, 1052, 1052]",[],[],[2055],[3340],[2055],[],[2422],[],[],[2055],"[3136, 1026]",[]
participant_0_UNDO,[],[],[],[],"[[0, 1082]]",[],[],[],[],[],[],[],[],[],[],[],[],[],[],[],[],[],[],[],[]
participant_1_GOLD,500,500,1040,1327,1841,2127,2625,2924,3802,3967,4729,4957,6148,6742,7707,8119,8606,8892,9929,10181,10303,11067,11513,11980,12213
participant_1_CURRENTGOLD,500,0,540,827,391,327,825,1124,787,127,139,17,1208,102,1067,379,866,452,89,341,164,327,774,1240,1413
participant_1_LEVEL,1,1,2,3,3,3,4,5,7,7,7,7,8,9,10,10,11,11,12,12,12,13,14,14,14
participant_1_MINIONSKILLED,0,0,0,0,0,1,1,1,4,7,7,7,10,12,12,12,14,15,22,23,23,23,24,24,25
participant_1_KILLS,0,0,0,0,0,1,1,2,2,2,3,4,4,4,6,6,7,7,7,8,9,9,9,9,10
participant_1_BUY,[],"[2033, 3340]",[],[],[],[],[3802],[],"[1052, 1082, 2055]",[],[3030],[],[3108],[2055],[],"[3905, 3364]",[],[],[],"[3158, 3916, 3041, 1026]",[1052],[],[3916],[],[]
participant_1_SOLD,[],[],[],[],[],"[2010, 2010]",[],[],[2010],[2055],"[3802, 1052]",[],[],[2055],[],"[3108, 3340]",[],[],[],"[2422, 1082]",[2033],[],[1052],[],[]
participant_1_UNDO,[],[],[],[],[],[],[],[],[],[],[],[],[],[],[],[],[],[],[],"[[0, 3916]]",[],[],[],[],[]
participant_2_GOLD,500,500,626,924,1236,1819,2141,2563,3029,3392,3940,4498,5024,5391,6323,6839,7466,8011,8391,8987,9560,10144,10343,10616,11078
participant_2_CURRENTGOLD,500,0,126,424,736,1319,341,763,369,732,215,773,399,691,1623,639,1266,1811,2191,287,625,1209,244,516,778
participant_2_LEVEL,1,1,1,3,4,5,6,6,7,7,8,9,10,10,11,11,12,12,12,13,13,14,14,14,15
participant_2_MINIONSKILLED,0,0,3,13,24,31,40,40,47,58,66,76,84,89,98,107,111,121,132,138,138,143,148,148,148
participant_2_KILLS,0,0,0,0,0,0,0,0,2,2,2,2,2,2,3,3,3,3,3,3,4,4,4,4,4
participant_2_BUY,[],"[3862, 2003, 2003, 3340]",[],[],"[1036, 2055]",[2003],[],[],[],[],"[3179, 2055, 3364]",[],"[1036, 2055]",[],"[3134, 3009, 2055]",[],[],"[3134, 1036, 1036]",[],[],[],"[3142, 1036, 1036, 2055, 2055]",[],[],[]
participant_2_SOLD,[],[],[],[2003],[],"[2010, 2003]",[2055],[2010],[2003],[2010],"[3862, 1036, 3340]",[2055],[],[],"[2055, 1036, 2422]",[2055],[],[1036],[3863],[],[],"[1036, 1036, 3134]",[],[],"[2055, 2055]"
participant_2_UNDO,[],[],[],[],[],[],[],[],[],[],[],[],[],[],"[[0, 3134]]",[],[],[],[],[],[],"[[0, 1036]]",[],[],[]
participant_3_GOLD,500,500,562,1160,1388,1741,1983,2203,2684,2919,3069,3545,3942,4064,4422,5229,5612,5990,6392,6589,6828,7467,7707,7880,8223
participant_3_CURRENTGOLD,500,0,62,660,253,606,70,165,647,881,37,512,279,327,684,1492,299,678,1079,402,641,429,670,92,348
participant_3_LEVEL,1,1,1,2,3,4,5,5,6,6,6,7,7,8,8,9,9,10,10,10,11,12,12,12,12
participant_3_MINIONSKILLED,0,0,2,13,19,30,37,43,56,62,64,76,86,86,88,99,111,114,126,126,129,137,140,140,146
participant_3_KILLS,0,0,0,1,1,2,2,2,2,3,3,3,4,5,5,7,7,7,7,7,9,9,9,12,12
participant_3_BUY,[],"[1055, 2003, 3340]",[],[],"[1055, 1001]","[2031, 2055]",[],[3077],[],[],[],"[1053, 1037]",[],"[3074, 3363]","[3101, 3047]",[],[3057],[],"[3078, 2055]",[],[],[3133],[],[],[]
participant_3_SOLD,[],[],[2003],[],[],[2055],[],[],[],[],[],[2031],[],"[3077, 1053, 1037, 3340]",[1001],[],[],[],"[3101, 3057]",[2055],[],[],[],[],[]
participant_3_UNDO,[],[],[],[],[],[],[],[],[],[],[],[],[],[],[],[],[],[],[],[],[],[],[],[],[]
participant_4_GOLD,500,500,540,912,1046,1243,1390,1680,2676,2903,3236,3531,3793,4123,4684,5386,5863,6054,6246,6497,7195,7677,7897,8631,8975
participant_4_CURRENTGOLD,500,0,40,412,121,268,415,705,1701,1928,136,431,268,598,484,1186,1663,404,596,847,1545,427,647,1381,1725
participant_4_LEVEL,1,1,1,2,2,3,3,4,5,5,5,6,6,6,7,8,8,8,9,9,10,11,11,12,13
participant_4_MINIONSKILLED,0,0,0,0,0,0,0,0,0,0,0,2,3,13,15,16,18,18,19,20,22,23,27,31,32
participant_4_KILLS,0,0,1,1,2,2,2,2,3,3,5,5,6,6,7,7,7,7,9,9,9,9,10,11,11
participant_4_BUY,[],"[1041, 2031, 3340]",[],[],"[3706, 1001]",[1036],[],[],[1400],"[1036, 1036, 2003, 2055, 3364]","[3134, 1036]",[1036],[],"[3179, 3134]",[],[3133],[],[3142],"[3009, 1018]",[],[1042],"[3086, 1042]",[],[],[]
participant_4_SOLD,[],[],[],[],[1041],[],[],[],"[2031, 1036, 3706]","[3340, 2003]","[1036, 1036]",[],[],"[3134, 1036, 1036]",[],[],[3364],"[3133, 3134]",[1001],[2055],[3513],"[1018, 1042]",[],[],[]
participant_4_UNDO,[],[],[],[],[],[],[],[],[],[],[],[],[],[],[],[],[],[],[],[],[],[],[],[],[]
participant_5_GOLD,500,500,530,688,1167,1609,1816,2419,3231,3382,3609,4392,4640,5036,5307,5517,5689,6066,6463,6772,7059,7405,8047,8273,8336
participant_5_CURRENTGOLD,500,0,30,88,567,59,266,869,1331,32,259,42,290,686,257,67,239,616,163,472,759,305,947,223,286
participant_5_LEVEL,1,1,1,1,3,4,4,6,7,7,7,8,8,9,9,9,10,10,11,11,11,12,13,13,13
participant_5_MINIONSKILLED,0,0,1,3,12,12,17,27,39,41,47,54,62,75,79,81,84,95,101,106,106,115,115,117,117
participant_5_KILLS,0,0,0,0,0,1,1,3,3,3,3,3,3,4,4,4,4,4,5,6,6,6,6,6,6
participant_5_BUY,[],"[1083, 1001, 2003, 2003, 2003, 2003, 3340]",[],[2055],[],[],[1037],[],[1038],[],"[3009, 2055]",[],[],[],"[3031, 1018, 2055, 3363]",[1042],[],"[3086, 1042]",[],[],"[3094, 3123]",[2055],[],[],[1018]
participant_5_SOLD,[],[],[],[2003],[],[2003],[],[2003],[],"[2055, 2003]",[1001],[],[2055],[],"[1038, 1037, 3340]",[],[],"[1018, 1042, 2055]",[],[],"[3086, 1042]",[],[],[],[]
participant_5_UNDO,[],"[[0, 1083]]",[],[],[],[],[],[],[],[],[],[],[],[],[],[],[],[],[],[],[],[],[],[],[]
participant_6_GOLD,500,500,520,933,1518,1745,2173,2545,2957,3180,4287,4600,4864,5160,5856,6091,6598,6960,7933,8388,8510,8925,9282,9532,9594
participant_6_CURRENTGOLD,500,0,20,433,368,245,673,1045,557,780,1887,150,414,710,356,591,663,1025,33,488,176,590,947,732,794
participant_6_LEVEL,1,1,1,3,3,4,5,6,6,7,7,8,8,9,9,10,10,11,11,12,12,13,13,13,13
participant_6_MINIONSKILLED,0,0,0,0,0,0,0,0,0,0,0,0,7,7,8,12,12,12,12,16,16,25,25,26,26
participant_6_KILLS,0,0,0,0,1,1,1,1,1,1,3,3,3,3,4,4,5,5,6,6,6,6,6,6,6
participant_6_BUY,[],"[1039, 2003, 2003, 2003, 3340]",[],[],[3715],[1082],[],[],[3108],[],[],"[1414, 3158, 1026]",[],[],[3057],[],[1052],[],"[3100, 3191]",[],[1052],[],[],[3108],[]
participant_6_SOLD,[],[],"[2003, 2003]",[2003],[1039],[],[],[],[],[],[],"[3108, 3715, 2422]",[],[],[],[],[],[],"[3057, 1052, 1026]",[],[],[],[],[1052],[]
participant_6_UNDO,[],[],[],[],[],[],[],[],[],[],[],[],[],[],[],[],[],[],[],[],[],[],[],[],[]
participant_7_GOLD,500,500,590,899,1197,1480,1872,2144,2425,2846,3038,3313,4077,4234,4678,4842,5454,5796,6161,6284,6706,7015,8124,8246,8309
participant_7_CURRENTGOLD,500,0,90,399,697,230,622,894,230,651,363,638,602,789,433,597,1209,1551,216,339,761,1070,2179,151,184
participant_7_LEVEL,1,1,1,3,4,5,6,6,6,7,7,8,8,8,9,9,10,10,11,11,11,11,12,12,12
participant_7_MINIONSKILLED,0,0,4,12,23,30,43,43,48,61,66,72,75,77,78,81,92,100,106,106,106,108,118,118,118
participant_7_KILLS,0,0,0,0,0,0,0,0,1,1,1,1,1,1,1,1,1,1,1,1,2,2,2,2,2
participant_7_BUY,[],"[3850, 2003, 2003]",[],[],[1001],[1082],[2031],[],[3108],[],"[3158, 3364]","[1004, 2055, 2055]",[],[],[],"[3174, 1052]",[],[],[],[],[],"[3504, 1028]",[],[3801],[]
participant_7_SOLD,[],[],[],[],[],"[2003, 2003]",[],[],[],[],"[1001, 3340]",[3850],[],[2055],[],"[2055, 3108]",[],[],[],[],[3851],"[1052, 2031]",[],[1028],[]
participant_7_UNDO,[],[],[],[],[],[],[],[],[],[],[],"[[0, 1004]]",[],[],[],[],[],[],[],[],[],[],[],[],[]
participant_8_GOLD,500,500,562,769,1046,1671,1899,2824,3168,3627,3934,4300,4922,5463,5856,6161,6496,6822,7632,8138,8448,8587,9026,9204,9266
participant_8_CURRENTGOLD,500,0,62,194,471,1096,449,1374,418,877,509,875,1497,2038,331,336,671,397,1207,1713,324,387,826,1004,266
participant_8_LEVEL,1,1,1,1,3,4,4,5,6,6,7,8,8,9,9,10,10,10,11,11,12,12,12,12,12
participant_8_MINIONSKILLED,0,0,2,7,16,25,31,43,52,63,65,76,83,90,99,107,115,121,131,136,140,140,146,148,148
participant_8_KILLS,0,0,0,0,0,1,1,2,3,3,3,4,4,4,4,4,4,4,4,4,4,4,5,5,5
participant_8_BUY,[],"[1054, 2003, 3340, 1036, 2003, 2003, 2003, 3340]",[],"[2003, 2003]",[],"[1053, 1036, 2003]",[],[],[3144],"[1043, 1001, 2031]",[],"[3153, 1029]",[],[],"[3067, 3076]",[1028],[],[],[3044],[],[],[3067],[],[3071],[]
participant_8_SOLD,[],[],[],"[2003, 2003]",[2003],"[2003, 2003, 1036]",[2003],[],"[1053, 1036]",[],[],"[3144, 1043]",[],[],[1029],[],[],[],[1028],[],[],[],[],"[3044, 3067]",[]
participant_8_UNDO,[],"[[3340, 0], [0, 2003], [0, 1054]]",[],[],[],[],[],[],[],[],[],[],[],[],"[[0, 3067]]",[],[],[],[],[],[],[],[],[],[]
participant_9_GOLD,500,500,567,762,918,1306,1441,1815,2264,2569,2868,3225,3626,3949,4352,4597,4947,5133,5345,5635,6871,7041,7271,7425,7496
participant_9_CURRENTGOLD,500,0,67,262,118,156,141,515,64,369,68,275,676,999,1402,12,362,548,760,1051,2286,251,481,385,396
participant_9_LEVEL,1,1,1,2,3,4,4,4,5,5,6,6,7,7,8,8,9,9,9,10,10,10,11,11,11
participant_9_MINIONSKILLED,0,0,0,0,1,3,3,3,3,3,3,5,8,8,8,14,15,16,20,20,20,21,22,23,23
participant_9_KILLS,0,0,0,0,0,0,0,0,0,0,0,0,2,2,3,3,4,4,4,4,5,5,7,7,7
participant_9_BUY,[],[2033],[],[],[],"[1082, 1056]",[],[],"[1052, 1052, 2055, 3364]",[],"[3145, 1001]",[],[3111],[],[3067],[],[],[],"[3152, 3057]",[],[],[],[],[3100],[]
participant_9_SOLD,[],[],[],[],"[2403, 2403]",[2403],[],[],[3340],[],"[1052, 1052]",[],[1001],[2055],[],[],[],[],"[3145, 3067]",[],[],[],[],[3057],[]
participant_9_UNDO,[],[],[],[],[],[],[],[],[],[],[],[],[],[],[],[],[],[],[],[],[],[],[],[],[]
team0_KILLS,0,0,1,3,4,6,6,7,10,11,14,15,17,18,22,24,25,25,27,28,32,32,33,37,38
team0_CURRENTGOLD,2500,0,901,3072,1773,3241,2834,2807,3725,4893,2383,2060,3878,3685,4272,4934,4978,4622,4029,2173,4147,2992,3358,5564,6939
team0_TOTALGOLD,2500,2500,3401,5572,7033,9126,10797,12220,15212,17206,19630,21373,25146,27202,30365,33626,36296,38089,40555,42073,44580,47578,49105,52064,53847
team0_LEVEL,5,5,6,13,15,19,24,26,31,32,34,37,40,43,46,49,52,53,55,56,59,63,65,67,69
team0_SBIRES,0,0,8,38,55,86,119,129,155,187,208,236,275,298,324,346,384,402,440,448,456,471,497,507,522
team1_KILLS,0,0,0,0,1,3,3,6,8,8,10,11,13,14,16,16,18,18,20,21,23,23,26,26,26
team1_CURRENTGOLD,2500,0,269,1376,2221,1786,2151,4697,2600,2709,3086,1980,3479,5222,2779,1603,3144,4137,2379,4063,4306,2603,5380,2495,1926
team1_TOTALGOLD,2500,2500,2769,4051,5846,7811,9201,11747,14045,15604,17736,19830,22129,23842,26049,27208,29184,30777,33534,35217,37594,38973,41750,42680,43001
team1_LEVEL,5,5,5,10,16,21,23,27,30,32,34,38,39,42,44,46,49,50,53,55,56,58,61,61,61
team1_SBIRES,0,0,7,22,52,70,94,116,142,168,181,207,235,257,272,295,318,344,370,384,388,409,426,432,432
delta_KILLS,0,0,1,3,3,3,3,1,2,3,4,4,4,4,6,8,7,7,7,7,9,9,7,11,12
delta_CURRENTGOLD,0,0,632,1696,-448,1455,683,-1890,1125,2184,-703,80,399,-1537,1493,3331,1834,485,1650,-1890,-159,389,-2022,3069,5013
delta_TOTALGOLD,0,0,632,1521,1187,1315,1596,473,1167,1602,1894,1543,3017,3360,4316,6418,7112,7312,7021,6856,6986,8605,7355,9384,10846
delta_LEVEL,0,0,1,3,-1,-2,1,-1,1,0,0,-1,1,1,2,3,3,3,2,1,3,5,4,6,8
delta_SBIRES,0,0,1,16,3,16,25,13,13,19,27,29,40,41,52,51,66,58,70,64,68,62,71,75,90
