name,team0,team1
win,Win,Fail
firstBlood,False,True
firstTower,True,False
firstInhibitor,True,False
firstBaron,False,True
firstDragon,False,True
firstRiftHerald,True,False
towerKills,9,2
inhibitorKills,2,0
baronKills,0,1
dragonKills,2,2
riftHeraldKills,2,0
