name,team0,team1
win,Win,Fail
firstBlood,False,True
firstTower,False,True
firstInhibitor,True,False
firstBaron,False,True
firstDragon,True,False
firstRiftHerald,False,True
towerKills,11,4
inhibitorKills,4,0
baronKills,0,1
dragonKills,3,1
riftHeraldKills,1,1
