name,team0,team1
win,Fail,Win
firstBlood,True,False
firstTower,False,True
firstInhibitor,False,True
firstBaron,False,True
firstDragon,False,True
firstRiftHerald,False,True
towerKills,3,11
inhibitorKills,0,4
baronKills,0,2
dragonKills,0,4
riftHeraldKills,0,1
