name,frame_0,frame_1,frame_2,frame_3,frame_4,frame_5,frame_6,frame_7,frame_8,frame_9,frame_10,frame_11,frame_12,frame_13,frame_14,frame_15,frame_16,frame_17,frame_18,frame_19,frame_20,frame_21,frame_22,frame_23,frame_24,frame_25,frame_26,frame_27,frame_28
nameStamp,Tstart,Tearly,Tearly,Tearly,Tearly,Tearly,Tearly,Tearly,Tearly,Tearly,Tearly,Tearly,Tearly,Tearly,Tearly,Tearly,Tearly,Tmid,Tmid,Tmid,Tmid,Tmid,Tmid,Tmid,Tmid,Tmid,Tmid,Tmid,Tmid
timestamp,0,60019,120036,180042,240064,300075,360105,420131,480137,540138,600145,660160,720184,780188,840211,900222,960230,1020257,1080258,1140276,1200280,1260302,1320304,1380337,1440356,1500383,1560404,1620427,1680427
participant_0_GOLD,500,500,563,864,1113,1382,1732,1938,2269,2553,3207,3853,4052,5013,5219,5587,5936,7102,7441,7883,8006,8927,10120,10319,10441,10564,10686,11121,11139
participant_0_CURRENTGOLD,500,0,63,364,613,882,1232,238,569,853,1507,53,252,1213,319,687,1036,2202,2541,2983,606,1527,170,369,672,794,916,1352,1189
participant_0_LEVEL,1,1,1,3,4,4,5,6,7,7,8,9,10,10,11,11,12,13,13,14,14,14,14,14,14,14,14,15,15
participant_0_MINIONSKILLED,0,0,2,10,17,24,35,40,49,59,68,78,83,92,98,108,117,122,131,141,141,143,143,148,148,148,148,158,158
participant_0_KILLS,0,0,0,0,0,0,0,0,0,0,0,0,0,0,1,1,1,1,1,1,1,1,1,1,1,1,1,1,1
participant_0_BUY,[],"[1035, 2031]",[],[],[],[],[],[3134],[],[],[],[],[],[3133],[],[],[6691],[],[],[],[],"[1037, 2055]",[],[],[],[],"[1036, 1036]",[],[]
participant_0_SOLD,[],[],[],[],[],[],[],[],[1035],[],[],[],[],[],[],[],"[3134, 3133]",[],[],[],[],[],[],[],[],[2055],[],[],[]
participant_0_UNDO,[],[],[],[],[],[],[],[],[],[],[],[],[],[],[],[],[],[],[],[],[],[],[],[],[],[],[],[],[]
participant_1_GOLD,500,500,621,933,1191,1313,1436,1658,1879,2123,2450,2608,2835,2957,3522,3756,3879,4001,4123,4346,4618,4741,4913,5090,5213,5335,5597,5719,5736
participant_1_CURRENTGOLD,500,0,121,433,691,813,936,58,279,523,850,1008,1235,257,822,1056,179,301,423,646,918,91,263,440,563,685,247,369,386
participant_1_LEVEL,1,1,2,3,3,4,4,4,5,5,6,6,6,7,7,8,8,8,8,8,8,8,9,9,9,9,10,10,10
participant_1_MINIONSKILLED,0,0,0,0,0,0,0,0,0,0,0,2,2,2,4,4,4,4,4,4,4,4,4,4,4,4,8,8,8
participant_1_KILLS,0,0,0,0,0,0,0,0,0,0,1,2,2,3,3,3,3,6,6,6,6,8,9,9,9,9,9,9,9
participant_1_BUY,[],"[1055, 2003, 3340]",[],[],[],[],[],[6029],[],[],[],[6630],[],[],[3133],[],[],[],[],[],"[3071, 1001]",[],"[3133, 3035]",[],[],[],[],[],[]
participant_1_SOLD,[],[],[],[],[],[2003],[],[],[],[],[],[6029],[],[],[],[],[],[],[],[],[3133],[],[],[],[1055],[],[],[],[]
participant_1_UNDO,[],[],[],[],[],[],[],[],[],[],[],[],[],[],[],[],[],[],[],[],[],[],[],[],[],[],[],[],[]
participant_2_GOLD,500,500,577,818,1074,1343,1515,1735,2066,2266,2486,2609,2878,3188,3736,4075,4254,4550,4693,4816,5031,5273,5633,5860,5983,6226,6548,6837,6854
participant_2_CURRENTGOLD,500,0,77,318,574,833,145,365,686,21,241,364,633,943,591,930,1109,345,138,261,476,718,1078,55,178,421,743,32,-71
participant_2_LEVEL,1,1,1,3,4,5,5,6,7,7,8,8,8,9,9,10,10,10,10,10,11,11,11,12,12,12,12,13,13
participant_2_MINIONSKILLED,0,0,3,10,18,24,27,33,42,46,52,52,60,62,63,72,76,82,83,83,88,95,102,108,108,111,114,119,119
participant_2_KILLS,0,0,0,0,1,2,2,2,2,2,2,4,4,4,5,5,6,6,7,7,8,8,8,8,9,9,10,10,10
participant_2_BUY,[],"[1055, 2003, 3340]",[],[],[],[],"[6670, 2055, 1001, 2003, 2003]",[],[],[],[1018],[],"[6672, 2055]",[],"[3006, 1036]",[3363],[1053],[1042],[],[1043],[],[],[3153],[2055],[],"[3133, 1037]",[6675],[],[]
participant_2_SOLD,[],[],[],[],[2003],[],[],[2003],[2055],[2003],[],[],"[6670, 1018]",[2055],[1001],[3340],[1036],[],[],[1042],[],[],"[1053, 1043]",[],[2055],[],"[1055, 3133, 1037]",[],[]
participant_2_UNDO,[],[],[],[],[],[],[],[],[],[],[],[],[],[],[],[],[],[],[],[],[],[],[],[],[],[],[],[],[]
participant_3_GOLD,500,500,542,832,1530,2148,2355,2592,2847,3047,3169,4376,4742,5147,5831,6121,6544,6756,7234,7519,8296,8790,9553,9849,10822,11118,11840,12307,12324
participant_3_CURRENTGOLD,500,0,42,332,1030,1648,80,317,572,772,294,1501,292,697,231,521,394,306,784,369,1146,1640,1103,1325,2297,618,96,562,399
participant_3_LEVEL,1,1,1,2,3,4,5,5,6,6,6,7,8,8,9,9,10,10,11,11,12,12,13,13,14,14,14,15,15
participant_3_MINIONSKILLED,0,0,1,11,22,30,35,39,47,51,51,67,72,79,86,92,92,93,96,101,114,119,131,137,141,147,147,155,155
participant_3_KILLS,0,0,0,0,0,0,0,0,0,0,0,0,0,1,1,1,1,1,1,1,1,1,1,1,1,1,1,1,1
participant_3_BUY,[],"[3850, 2003, 2003]",[],[],[],[],[],[3108],[],[1027],[],[],[3802],[1001],[],[],[],[],[],[6653],[1033],[],[3020],[3111],[],[],[1028],[],[]
participant_3_SOLD,[],[],[],[2003],[2003],[],[],[],[],[],[],[3850],[1027],[],[],[],[],[],[],"[3802, 3108]",[],[3851],"[1001, 3020]",[1033],[],[],[],[],[]
participant_3_UNDO,[],[],[],[],[],[],[],[],[],[],[],[],[],[],[],[],[],[],[],[],[],[],[],[],[],[],[],[],[]
participant_4_GOLD,500,500,523,797,1187,1591,1726,1860,2063,2258,2434,2780,2962,3462,3773,3913,4134,4379,4686,4887,5027,5310,5500,5641,5781,5992,6146,6328,6348
participant_4_CURRENTGOLD,500,0,23,297,687,1091,1226,460,663,508,684,1030,262,462,773,913,1134,1379,1686,687,377,660,820,311,451,662,416,598,-152
participant_4_LEVEL,1,1,1,2,3,4,4,4,5,5,5,6,6,7,7,7,8,8,9,9,9,9,9,10,10,10,10,11,11
participant_4_MINIONSKILLED,0,0,0,0,0,0,0,0,1,1,4,4,7,7,9,9,9,16,22,22,22,30,30,30,30,35,36,39,39
participant_4_KILLS,0,0,0,0,0,0,0,0,0,0,0,0,0,0,1,1,1,1,1,1,1,1,1,1,1,1,1,1,1
participant_4_BUY,[],"[3070, 2003, 2003]",[],[],[],[],"[1052, 1027, 2055]",[],[],"[3802, 1082]",[],[],[],[],[3108],[],[],[6653],[1027],[],[],[],[],[1058],[],[],[],[3003],[]
participant_4_SOLD,[],[],[],[],[],"[2003, 2003]",[],[],[],"[2055, 1052, 1027]",[],[],[],[],[],[],[],"[1082, 3802, 3108]",[],[],[],[],[],[],[],[],[],"[3070, 1058, 1027, 3003]",[]
participant_4_UNDO,[],[],[],[],[],[],[],[],[],[],[],[],[],[],[],[],[],[],[],[],[],[],[],[],[],[],[],[],[]
participant_5_GOLD,500,500,542,776,969,1133,1298,1504,1647,1924,2116,2569,2846,3406,4111,4359,4616,4738,4903,5138,5865,6038,6342,6772,7063,7495,7703,8012,8080
participant_5_CURRENTGOLD,500,0,42,276,469,633,98,304,447,724,316,769,596,1156,1861,359,616,438,603,838,1565,438,742,1172,1463,995,1203,1512,1580
participant_5_LEVEL,1,1,1,2,4,5,5,6,7,7,8,9,9,9,10,10,11,11,11,12,12,12,12,13,13,14,14,14,14
participant_5_MINIONSKILLED,0,0,1,7,11,14,16,21,22,31,36,42,47,47,59,67,68,68,71,74,84,84,87,91,91,92,92,96,96
participant_5_KILLS,0,0,0,0,0,0,0,0,0,0,0,0,0,1,1,1,1,1,1,1,1,1,1,2,2,3,3,3,3
participant_5_BUY,[],"[1054, 2003, 3340]",[],[],[],[],"[1028, 1029]",[],[],[],[6660],[],[1033],[],[],"[3068, 1001]",[],[1029],[],[],[],"[3047, 3076]",[],[],[],[1011],[],[],[]
participant_5_SOLD,[],[],[],[2003],[],[],[],[],[],[],[1028],[],[],[],[],"[6660, 1033, 1029]",[],[],[],[],[],"[1001, 1029]",[],[],[],[],[],[],[]
participant_5_UNDO,[],[],[],[],[],[],[],[],[],[],[],[],[],[],[],[],[],[],[],[],[],[],[],[],[],[],[],[],[]
participant_6_GOLD,500,500,621,948,1148,1284,1407,1926,2118,2461,2718,3493,3850,4342,4564,4877,5599,5821,6043,6831,7003,7360,7483,7725,8365,8887,9370,9592,9659
participant_6_CURRENTGOLD,500,0,121,448,648,784,107,626,168,511,768,1533,1890,499,421,734,1456,178,400,1188,160,517,240,482,1122,1645,2127,249,326
participant_6_LEVEL,1,1,2,3,3,4,4,4,4,5,5,7,7,8,8,8,9,9,10,11,11,11,11,11,12,13,13,13,13
participant_6_MINIONSKILLED,0,0,0,0,0,1,1,1,1,1,2,3,3,3,3,3,5,6,6,6,6,6,6,9,11,11,16,16,16
participant_6_KILLS,0,0,0,0,0,0,0,1,1,1,1,2,2,3,3,3,4,4,4,4,4,4,4,4,4,5,5,5,5
participant_6_BUY,[],"[1035, 2031, 3340]",[],[],[],[],[3067],[],"[1036, 1042]",[],[],[],[],[3078],[1029],[],[],"[3047, 1036, 1036]",[],[],[3077],[],[3133],[],[],[],[],"[3074, 3044]",[]
participant_6_SOLD,[],[],[],[],[],[],[],[],[],[],[],[],[],"[1042, 1036, 3067]",[1035],[],[],[1029],[],[],[],[],"[1036, 1036]",[],[],[],[],"[3077, 3133]",[]
participant_6_UNDO,[],[],[],[],[],[],[],[],[],[],[],[],[],[],[],[],[],[],[],[],[],[],[],[],[],[],[],[],[]
participant_7_GOLD,500,500,563,913,1078,1417,1638,1837,2168,2935,3141,3692,3898,4096,4448,4752,4938,5180,5427,5857,6230,6552,7298,7508,8405,8794,9101,9347,9415
participant_7_CURRENTGOLD,500,0,63,403,133,462,683,882,338,1095,151,702,908,1031,133,287,473,715,962,1392,1765,437,283,493,140,529,101,347,455
participant_7_LEVEL,1,1,1,3,4,5,5,6,7,8,8,9,9,9,10,10,11,11,11,12,12,12,13,13,13,13,14,14,14
participant_7_MINIONSKILLED,0,0,2,13,16,26,32,37,47,55,61,70,75,75,76,83,84,91,94,97,104,104,107,107,107,107,107,107,107
participant_7_KILLS,0,0,0,0,0,0,0,0,0,1,1,2,2,2,3,3,3,3,3,3,3,3,5,5,7,7,7,7,7
participant_7_BUY,[],"[1056, 2003, 2003, 3340]",[],[],[1052],[],[],[],[3802],[],"[1001, 1026]",[],[],[2055],[6655],"[2055, 2055]",[],[],[],[],[],"[3020, 1026]",[1011],[],[3116],[],"[1052, 1029]",[],[]
participant_7_SOLD,[],[],[],[],[],[2003],[2003],[],[1052],[],[],[],[],[],"[2055, 3802, 1026]",[2055],[],[2055],[],[],[],[1001],[],[],"[1026, 1011]",[],[],[],[]
participant_7_UNDO,[],[],[],[],[],[],[],[],[],[],[],[],[],[],[],[],[],[],[],[],[],[],[],[],[],[],[],[],[]
participant_8_GOLD,500,500,570,790,1099,1340,1512,2296,2418,3080,3258,3547,3824,4297,4740,4989,5989,6285,6812,7151,8272,8747,9051,9623,10342,10783,11494,12030,12098
participant_8_CURRENTGOLD,500,0,70,290,599,840,412,1196,143,805,283,272,549,97,40,289,1289,385,212,551,1672,47,351,923,1642,2083,2795,3331,3398
participant_8_LEVEL,1,1,1,2,3,4,4,5,5,6,6,7,7,8,8,8,10,10,11,11,11,12,12,12,13,13,14,14,14
participant_8_MINIONSKILLED,0,0,3,8,16,20,23,30,30,39,42,48,53,56,61,65,73,79,84,87,91,96,102,106,111,111,116,116,116
participant_8_KILLS,0,0,0,0,0,0,0,1,1,2,2,2,2,3,3,3,3,3,4,4,6,6,6,7,7,7,8,10,10
participant_8_BUY,[],"[3340, 2003, 1055]",[],[],[],[],[1018],[],"[1037, 1042]",[],"[1036, 1036]",[6670],[],"[6672, 1042]",[3006],[],[],[3086],[2015],[],[],"[3094, 1038]",[],[],[],[],[],[],[]
participant_8_SOLD,[],[],[],[],"[2003, 2010]",[2010],[],[],[2010],[],[],"[1036, 1042, 1036]",[],"[6670, 1018, 1037]","[1042, 2422]",[],[],[],[],[],[],"[3086, 2015]",[],[],[],[],[],[],[]
participant_8_UNDO,[],[],[],[],[],[],[],[],[],[],[],[],[],[],[],[],[],[],[],[],[],[],[],[],[],[],[],[],[]
participant_9_GOLD,500,500,521,671,794,951,1074,1426,1562,1912,2362,2799,2949,3127,3778,3921,5569,5796,6275,7152,7382,7694,8266,8494,8995,9392,10064,10484,10551
participant_9_CURRENTGOLD,500,150,171,321,94,251,374,291,427,777,327,249,399,577,28,171,1819,96,575,252,482,794,916,1144,396,792,215,634,701
participant_9_LEVEL,1,1,1,2,2,3,4,4,4,6,6,7,7,8,8,9,10,10,11,11,11,12,13,13,14,14,14,14,14
participant_9_MINIONSKILLED,0,0,0,2,2,4,4,4,5,10,12,13,15,19,21,22,22,28,38,44,48,56,56,62,68,68,69,70,70
participant_9_KILLS,0,0,0,0,0,0,0,0,0,0,1,2,2,2,3,3,7,7,7,9,9,9,10,10,11,12,13,14,14
participant_9_BUY,[],[1082],[],[],[1027],[],[],[1052],[],[],"[3108, 1052]",[3802],[],[],[6653],[],[],"[3020, 1026]",[],"[3916, 1028]",[],[],[3165],[],[1058],[],[1058],[],[]
participant_9_SOLD,[],[],[],[],[],[],[],[],[],[],[1052],"[1052, 1027]",[],[],"[3802, 3108]",[],[],[],[],[],[],[],"[1026, 3916, 1028]",[],[],[],[],[],[]
participant_9_UNDO,[],[],[],[],[],[],[],[],[],[],[],[],[],[],[],[],[],[],[],[],[],[],[],[],[],[],[],[],[]
team0_KILLS,0,0,0,0,1,2,2,2,2,2,3,6,6,8,11,11,12,15,16,16,17,19,20,20,21,21,22,22,22
team0_CURRENTGOLD,2500,0,326,1744,3595,5267,3619,1438,2769,2677,3576,3956,2674,3572,2736,4107,3852,4533,5572,4946,3523,4636,3434,2500,4161,3180,2418,2913,1751
team0_TOTALGOLD,2500,2500,2826,4244,6095,7777,8764,9783,11124,12247,13746,16226,17469,19767,22081,23452,24747,26788,28177,29451,30978,33041,35719,36759,38240,39235,40817,42312,42401
team0_LEVEL,5,5,6,13,17,21,23,25,30,30,33,36,38,41,43,45,48,49,51,52,54,54,56,58,59,59,60,64,64
team0_SBIRES,0,0,6,31,57,78,97,112,139,157,175,203,224,242,260,285,298,317,336,351,369,391,410,427,431,445,453,479,479
team1_KILLS,0,0,0,0,0,0,0,2,2,4,5,8,8,11,13,13,18,18,19,21,23,23,26,28,31,34,36,39,39
team1_CURRENTGOLD,2500,150,467,1738,1943,2970,1674,3299,1523,3912,1845,3525,4342,3360,2483,1840,5653,1812,2752,4221,5644,2233,2532,4214,4763,6044,6441,6073,6460
team1_TOTALGOLD,2500,2500,2817,4098,5088,6125,6929,8989,9913,12312,13595,16100,17367,19268,21641,22898,26711,27820,29460,32129,34752,36391,38440,40122,43170,45351,47732,49465,49803
team1_LEVEL,5,5,6,12,16,21,22,25,27,32,33,39,39,42,44,45,51,51,54,57,57,59,61,62,65,67,69,69,69
team1_SBIRES,0,0,6,30,45,65,76,93,105,136,153,176,193,200,220,240,252,272,293,308,333,346,358,375,388,389,400,405,405
delta_KILLS,0,0,0,0,1,2,2,0,0,-2,-2,-2,-2,-3,-2,-2,-6,-3,-3,-5,-6,-4,-6,-8,-10,-13,-14,-17,-17
delta_CURRENTGOLD,0,-150,-141,6,1652,2297,1945,-1861,1246,-1235,1731,431,-1668,212,253,2267,-1801,2721,2820,725,-2121,2403,902,-1714,-602,-2864,-4023,-3160,-4709
delta_TOTALGOLD,0,0,9,146,1007,1652,1835,794,1211,-65,151,126,102,499,440,554,-1964,-1032,-1283,-2678,-3774,-3350,-2721,-3363,-4930,-6116,-6915,-7153,-7402
delta_LEVEL,0,0,0,1,1,0,1,0,3,-2,0,-3,-1,-1,-1,0,-3,-2,-3,-5,-3,-5,-5,-4,-6,-8,-9,-5,-5
delta_SBIRES,0,0,0,1,12,13,21,19,34,21,22,27,31,42,40,45,46,45,43,43,36,45,52,52,43,56,53,74,74
