name,frame_0,frame_1,frame_2,frame_3,frame_4,frame_5,frame_6,frame_7,frame_8,frame_9,frame_10,frame_11,frame_12,frame_13,frame_14,frame_15,frame_16,frame_17,frame_18,frame_19,frame_20,frame_21,frame_22,frame_23,frame_24,frame_25,frame_26,frame_27,frame_28,frame_29,frame_30,frame_31,frame_32,frame_33
nameStamp,Tstart,Tearly,Tearly,Tearly,Tearly,Tearly,Tearly,Tearly,Tearly,Tearly,Tearly,Tearly,Tearly,Tearly,Tearly,Tmid,Tmid,Tmid,Tmid,Tmid,Tmid,Tmid,Tmid,Tmid,Tmid,Tmid,Tmid,Tmid,Tmid,Tmid,Tmid,Tmid,Tmid,Tmid
timestamp,0,60028,120061,180092,240115,300137,360168,420187,480215,540245,600248,660274,720291,780308,840327,900346,960360,1020362,1080389,1140421,1200443,1260476,1320497,1380501,1440506,1500510,1560540,1620572,1680591,1740617,1800622,1860626,1920649,1980649
participant_0_GOLD,500,500,598,874,1204,1564,1771,2155,2423,3154,3423,3761,4222,4769,5233,5716,6223,6718,7126,7506,8540,8662,10137,10716,11096,11805,12013,12584,13386,13934,14372,14794,14917,15450
participant_0_CURRENTGOLD,500,0,98,374,704,1064,1271,1655,23,754,1023,1361,89,636,300,783,1290,1785,1093,673,307,430,1904,2483,963,1673,60,631,1434,1981,120,542,664,37
participant_0_LEVEL,1,1,1,3,4,5,6,6,7,8,9,9,10,10,10,11,11,12,12,13,13,13,14,14,15,15,15,15,16,16,17,17,17,17
participant_0_MINIONSKILLED,0,0,4,13,22,33,38,50,56,66,74,83,88,94,95,109,114,128,140,147,152,152,157,164,175,184,189,198,199,216,223,223,223,223
participant_0_KILLS,0,0,0,0,1,1,1,1,1,1,1,3,3,3,3,3,3,3,3,3,3,3,3,3,3,3,3,3,3,3,3,3,3,3
participant_0_BUY,[],"[1036, 2031, 3340]",[],[],[],[],"[3134, 1036]",[],[],"[3133, 1001, 1036]",[],[],[],[],[],"[6691, 3158, 1036]",[],[],[],[3134],[],[],[],[3142],[1036],[],[],[1028],[],[],[],[3134],[],[]
participant_0_SOLD,[],[],[],[],[],[],[1036],[],[],[1036],[],[],[],[],[],"[3134, 1036, 1036, 1001]",[],[],[],[1036],[],[],[],[3134],[],[],[],[],[],[],[],[1036],[],[]
participant_0_UNDO,[],[],[],[],[],[],[],[],[],"[[0, 3133]]",[],[],[],[],[],[],[],[],[],[],[],[],[],[],[],[],[],[],[],[],[],[],[],[]
participant_1_GOLD,500,500,706,1013,1389,1674,2016,2378,2501,3441,3839,4393,4736,5068,5595,5823,6385,7077,7392,7647,8125,8436,9634,9869,10076,10574,10697,11004,11834,12118,12443,12566,12963,13084
participant_1_CURRENTGOLD,500,0,206,513,54,339,681,1043,1166,2106,2504,3058,3401,1068,520,748,1310,2002,2317,272,750,1061,2259,1994,261,759,882,290,269,553,879,201,599,259
participant_1_LEVEL,1,1,2,3,3,4,5,6,6,6,7,8,8,9,9,10,10,11,11,11,12,12,13,13,13,14,14,14,15,15,15,15,16,16
participant_1_MINIONSKILLED,0,0,0,0,0,0,0,0,0,0,0,0,0,6,6,12,12,13,16,24,24,28,31,31,31,31,31,31,35,35,37,37,37,37
participant_1_KILLS,0,0,0,0,0,0,0,0,0,0,2,2,2,2,2,2,2,2,2,2,2,2,3,3,3,3,3,4,4,4,4,4,4,4
participant_1_BUY,[],"[1056, 2003, 2003, 3340]",[],[],[],"[1052, 1001]",[2031],[],[],"[3802, 2055]",[],"[3108, 1033]",[],[3111],[],[],[],"[6653, 1028]","[3363, 2055]",[],[1011],[],[],[1026],[1052],[],[],[],"[4637, 1028]",[],[],"[3191, 1052]",[],[]
participant_1_SOLD,[],[],[],[],[],[2003],[2003],[],[],[1052],[2055],[],[],"[1001, 1033]",[],[],[],"[3802, 3108]",[3340],[],"[2031, 1028]",[2055],[],[],[],[],[],[],"[1026, 1011, 1052]",[],[],[1028],[],[]
participant_1_UNDO,[],[],[],[],[],[],[],[],[],[],[],[],[],[],[],[],[],[],[],[],[],[],[],[],[],[],[],[],[],[],[],[],[],[]
participant_2_GOLD,500,500,612,818,1296,1593,1793,2180,2518,2844,3120,3857,4141,4355,4749,4984,5397,5891,6056,6199,6463,6627,7348,7533,7684,7940,8091,8214,8407,8530,8881,9053,9510,9652
participant_2_CURRENTGOLD,500,0,112,318,796,1093,193,580,908,574,850,1587,1861,2075,2459,344,757,1251,1416,809,1073,1237,1958,243,44,300,451,174,367,490,841,263,720,902
participant_2_LEVEL,1,1,1,3,4,5,5,6,7,7,8,8,9,9,10,10,11,11,12,12,12,12,13,13,13,13,13,13,13,13,14,14,14,14
participant_2_MINIONSKILLED,0,0,5,9,11,21,25,32,41,46,55,55,61,66,68,71,81,88,90,91,96,98,105,105,107,112,114,114,115,115,120,120,131,132
participant_2_KILLS,0,0,0,0,0,0,0,0,0,0,0,0,0,0,0,0,0,0,0,0,0,0,0,0,0,0,0,1,1,1,1,1,1,1
participant_2_BUY,[],"[3858, 2003, 2003]",[],[],[],[],[],"[1031, 2055, 2003]",[],[],[],"[6660, 1001]",[],[],"[1029, 1029, 3364]",[3047],[],[],[1033],[],[],[],[3105],"[3068, 1028, 2055]",[],[],[1011],[],[3076],[2055],[],[],[],[3075]
participant_2_SOLD,[],[],[],[],[],[2003],[2003],[],[],[],[3858],[2003],[],[],[3340],"[1001, 1029]",[2055],[],[],[],[],[],[1033],"[6660, 3105, 1031]",[3859],[2055],[1028],[],[],[],[2055],[],[],"[3076, 1011]"
participant_2_UNDO,[],[],[],[],[],[],[],[],[],[],[],[],[],[],"[[0, 1029]]",[],[],[],[],[],[],[],[],[],[],[],[],[],[],[],[],[],[],[]
participant_3_GOLD,500,500,563,909,1172,1371,1651,1948,2366,2531,3524,3697,4240,4481,4853,4975,5382,5644,5794,5917,6152,6299,7222,7407,7586,7904,8331,8856,9048,9445,9642,9814,10055,10197
participant_3_CURRENTGOLD,500,0,63,409,672,136,286,583,1001,226,1219,42,585,476,848,970,1377,39,114,237,32,179,1102,437,181,499,926,1451,428,825,1022,140,380,162
participant_3_LEVEL,1,1,1,2,3,3,4,4,5,5,6,7,7,8,8,8,9,9,9,9,9,10,11,11,11,11,12,12,12,13,13,13,13,13
participant_3_MINIONSKILLED,0,0,2,15,23,27,33,43,53,55,69,69,84,91,102,102,112,120,122,122,126,128,129,129,132,136,148,150,154,165,169,169,172,173
participant_3_KILLS,0,0,0,0,0,0,0,0,0,1,1,1,1,1,2,2,2,3,3,3,3,3,4,4,4,4,4,4,5,5,5,5,5,5
participant_3_BUY,[],"[1039, 2031, 3340]",[],[],"[1052, 1028]",[],[],[],[],[],[],[],[],"[4633, 1001]","[1043, 2055, 3364]",[],[],[],[],"[3115, 1029]",[],[],[],[3047],"[3076, 1011, 1031, 3066, 1028]",[],[],[3742],"[1033, 1028]",[],[],"[3211, 1028]",[],[3067]
participant_3_SOLD,[],[],[],[],[],[],[],[],[],[],[],[1039],[],"[1028, 1052]",[3340],[],[],[2055],[],[1043],[],[],[],"[1001, 1029]",[2031],[],[],"[3066, 1028, 1031]",[],[],[],"[1028, 1033]",[],[1028]
participant_3_UNDO,[],[],[],[],[],[],[],[],[],[],[],[],[],[],[],[],[],[],[],[],[],[],[],[],"[[0, 1011], [0, 3076]]",[],[],[],[],[],[],[],[],[]
participant_4_GOLD,500,500,565,720,897,1052,1372,1506,1838,2024,2552,2742,2968,3237,3377,3518,3768,3943,4126,4567,5085,5245,5660,5851,6021,6212,6353,7168,7380,7550,7741,7931,8115,8249
participant_4_CURRENTGOLD,500,0,65,220,397,552,872,81,413,599,1127,37,263,532,372,13,263,438,171,612,1130,1290,655,231,401,592,233,1049,460,555,746,936,1121,-326
participant_4_LEVEL,1,1,1,2,3,3,5,5,6,6,7,7,8,8,8,8,8,9,9,9,10,10,11,11,11,11,11,11,12,12,12,12,12,13
participant_4_MINIONSKILLED,0,0,2,3,5,6,14,14,18,20,22,22,27,34,34,34,36,38,40,48,53,55,55,55,56,56,56,56,57,57,58,58,60,60
participant_4_KILLS,0,0,0,0,0,0,0,0,0,1,1,1,2,2,2,2,2,2,2,2,3,3,6,6,6,6,6,6,7,7,7,8,8,9
participant_4_BUY,[],"[1054, 2003]",[],[],[],[],[],[],"[3051, 3067]",[],[],[],"[3078, 1001]",[],[3111],[],[],[],[3133],[3067],[3071],[],[],[],"[1031, 3133]",[],"[6333, 1028, 1028]",[],[],[],[3053],[],[],[1031]
participant_4_SOLD,[],[],[],[],[],[],[2003],[],[],[],[],[],"[3051, 3067]",[],[1001],[],[],[],[],[],"[3133, 3067]",[],[],[],[1054],[],"[1031, 3133, 1054]",[],[],[],"[1028, 1028]",[],[],[]
participant_4_UNDO,[],[],[],[],[],[],[],[],[],[],[],[],[],[],[],[],[],[],[],[],[],[],[],[],"[[1054, 0]]",[],[],[],[],[],[],[],[],[]
participant_5_GOLD,500,500,563,976,1169,1494,1771,2068,2413,2696,3086,3398,4291,4441,5339,5935,6292,6456,6954,7356,8111,8311,8768,9031,9474,9806,10233,10650,10772,11225,11771,12403,12792,13412
participant_5_CURRENTGOLD,500,0,63,476,669,994,1271,1568,1913,46,436,748,1641,366,1264,375,732,176,674,530,1286,1485,452,716,1158,1491,533,585,707,1160,456,1088,627,702
participant_5_LEVEL,1,1,1,3,4,5,6,7,7,7,8,9,10,10,10,11,11,11,12,12,12,13,13,13,13,14,14,14,14,15,15,16,16,17
participant_5_MINIONSKILLED,0,0,2,17,21,30,39,49,59,59,72,83,92,94,100,102,112,114,128,140,144,149,151,158,158,166,174,174,174,184,198,198,204,205
participant_5_KILLS,0,0,0,0,0,1,1,1,1,1,1,1,1,1,1,1,1,1,1,1,1,1,1,1,1,1,1,1,1,1,1,3,3,4
participant_5_BUY,[],"[3858, 2003, 2003, 3340]",[],[],[],[],"[3067, 2003, 2055]",[],"[1001, 2055]",[],[],"[1033, 1029]",[],[],"[3105, 3364]",[],[3190],[],[],[3111],[],[],"[3801, 3067]",[],[1029],[],[1027],[],[],[3024],[],[],"[3050, 3801, 1028, 3067]",[3109]
participant_5_SOLD,[],[],[],[],[2003],[],[2055],"[2010, 2010, 2003]",[2010],"[2055, 3858]",[2003],[],[],[],"[1033, 1029, 3340]",[],"[3067, 3105]",[],[3859],[1001],[],[],[],[],[],[],[],[],[],"[1027, 1029]",[],[],"[3067, 3024, 1028]","[3801, 3067]"
participant_5_UNDO,[],[],[],[],[],[],[],[],[],[],[],[],[],[],[],[],[],[],[],[],[],[],"[[0, 3801]]",[],[],[],[],[],[],[],[],[],[],[]
participant_6_GOLD,500,500,621,1033,1661,1918,2393,2891,3243,3686,4043,4266,4778,4995,5483,6257,6581,6997,7317,7809,7931,8138,8341,8649,8992,9205,9982,10502,11463,11685,11944,13337,13656,14414
participant_6_CURRENTGOLD,500,150,271,683,111,368,843,1341,1693,286,643,866,28,245,733,1507,1831,647,967,1459,681,888,291,599,943,355,1132,1652,2613,95,355,1747,867,1064
participant_6_LEVEL,1,1,2,3,4,4,5,5,6,7,7,8,8,8,9,10,10,11,11,11,11,12,12,12,12,13,13,14,14,14,15,16,16,16
participant_6_MINIONSKILLED,0,0,0,0,0,0,0,4,4,4,4,4,4,4,4,8,9,9,10,10,10,10,11,11,11,12,23,32,32,32,35,36,37,41
participant_6_KILLS,0,0,0,0,0,0,0,0,0,0,0,0,0,1,1,1,1,1,2,2,3,3,3,3,3,3,3,3,3,3,3,3,3,4
participant_6_BUY,[],"[1055, 3340, 2003]",[],[],[],[],"[1036, 1042, 1036, 2003, 2055]",[],"[6670, 1001, 2003]",[],"[1018, 2055]",[],[],[],[6672],[],[],[],[],"[3006, 3133, 3057]",[],[],"[1018, 2055, 2055]",[],[],[3508],[3123],[],"[3086, 3133]",[2055],[],[],[1037],[]
participant_6_SOLD,[],[],[],[],[],[],[],[],"[2003, 2003, 1036, 1042, 1036]",[],[],[],[],"[2055, 2055]","[2003, 6670, 1018]",[],[],[],[],"[1001, 1055]",[],[],[],[],[2055],"[3133, 3057, 1018]",[],[],[],[2055],[],[],[2055],[]
participant_6_UNDO,[],[],[],[],[],[],[],[],[],[],[],[],[],[],[],[],[],[],[],[],[],[],[],[],[],[],[],[],"[[0, 3086]]",[],[],[],[],[]
participant_7_GOLD,500,500,577,906,1127,1361,1917,2095,2370,2730,3020,3443,3769,4024,4390,4512,4813,5193,5815,5966,6329,6466,6638,7160,7687,8005,8129,8251,8757,8879,9329,9984,10185,10939
participant_7_CURRENTGOLD,500,0,77,396,617,851,1407,160,425,785,1075,298,614,869,1225,447,748,278,900,76,439,576,98,620,1147,1465,1589,161,667,389,839,195,395,989
participant_7_LEVEL,1,1,1,3,4,5,6,7,7,8,8,9,9,10,10,10,11,11,12,12,12,12,13,13,13,13,14,14,14,14,15,15,16,16
participant_7_MINIONSKILLED,0,0,3,12,18,24,31,34,40,46,56,56,65,72,79,79,86,97,97,99,105,106,106,106,108,116,116,116,117,117,128,129,131,133
participant_7_KILLS,0,0,0,0,0,0,0,0,0,0,0,0,1,1,1,2,2,2,2,2,3,3,4,4,5,5,5,6,6,6,6,6,6,7
participant_7_BUY,[],"[1054, 2003]",[],[],[],[],[],[],[],"[4635, 1001, 1029, 2055, 1033, 2003, 2003]",[],[],[],"[3111, 1026, 2003, 2003, 2031, 2055, 2055]",[],"[4633, 1052]",[],"[3191, 1052]",[],[1026],[],[],"[1011, 2420]",[],[],[],"[3157, 1052]","[4637, 3916]",[],[],[4637],[],[1026],[]
participant_7_SOLD,[],[],[],[],[],[],[],[],[2003],[],[],[],[2003],"[2003, 1001, 1033]",[],"[4635, 1026]",[],"[1052, 1054]",[],[1052],[2055],[],[2031],[],[],[],"[2420, 3191, 2421]","[1026, 1011, 1052, 1052]",[],[],"[1026, 1011]",[],[],[]
participant_7_UNDO,[],[],[],[],[],[],[],[],[],"[[0, 2055], [0, 1029]]",[],[],[],"[[0, 2003], [0, 2003], [0, 2055]]",[],[],[],[],[],[],[],[],[],[],[],[],[],"[[0, 4637]]",[],[],[],[],[],[]
participant_8_GOLD,500,500,563,839,1218,1665,1809,2268,2411,2872,3036,3159,3344,4227,4572,4792,5104,5602,6662,6881,7336,7612,7755,8163,8579,9077,9429,9983,10215,10534,10686,11582,12033,12765
participant_8_CURRENTGOLD,500,0,63,339,718,1165,184,643,136,597,86,209,394,1277,122,342,654,1152,2212,11,466,742,135,543,959,957,509,1063,195,439,591,1488,1093,1615
participant_8_LEVEL,1,1,1,2,3,4,4,5,5,6,6,6,6,7,7,8,8,9,9,10,10,11,11,11,12,12,13,13,13,14,14,15,15,16
participant_8_MINIONSKILLED,0,0,2,11,22,30,31,43,44,61,63,63,67,84,90,96,101,115,126,128,137,141,142,155,158,172,176,192,194,201,202,212,216,219
participant_8_KILLS,0,0,0,0,1,1,1,2,2,3,3,3,3,3,3,4,4,5,5,6,6,6,6,6,6,6,7,7,9,9,9,11,11,12
participant_8_BUY,[],[1039],[],[],[6029],[],[],[],[],"[1001, 3044, 1033, 3364]",[],[],"[6630, 3111]",[],[],[],[],"[3077, 1028]",[],[],"[1011, 1028]",[],[3748],[],[],[3076],[],[],[],"[6609, 1029, 1029]",[],[],[3105],[]
participant_8_SOLD,[],[],[],[],[],[],[],[],[],[3340],[],[3364],"[3513, 6029, 3044, 1001, 1033]",[],[],[],[],[],[],[1039],[1028],[],"[3077, 1028, 1011]",[],[],[],[],[],[],[3076],[],[],[1029],[]
participant_8_UNDO,[],[],[],[],[],[],[],[],[],[],[],[],[],[],[],[],[],[],[],[],[],[],[],[],[],[],[],[],[],[],[],[],[],[]
participant_9_GOLD,500,500,523,699,936,1433,1568,1892,2026,2269,2431,2749,2940,3269,3480,3677,3848,4078,4565,4775,5003,5143,5334,5474,5694,5856,6060,6201,6416,6682,6823,8787,9005,9613
participant_9_CURRENTGOLD,500,0,23,199,436,933,143,467,226,469,631,199,390,719,180,377,148,378,865,275,503,643,34,174,95,256,110,251,466,483,623,2587,656,413
participant_9_LEVEL,1,1,1,2,3,4,4,5,5,6,6,7,7,7,8,8,8,9,10,10,11,11,11,11,12,12,12,12,13,13,13,14,14,15
participant_9_MINIONSKILLED,0,0,0,2,5,6,6,10,10,14,15,17,19,22,23,26,28,29,34,35,35,35,35,35,36,37,41,41,41,41,41,42,44,44
participant_9_KILLS,0,0,0,0,0,0,1,1,1,1,1,2,2,2,2,2,2,2,3,3,3,3,3,4,5,5,5,5,6,6,6,7,7,8
participant_9_BUY,[],"[2033, 3340]",[],[],[],[],[],"[3145, 1001, 2055]",[],[],[],"[3191, 3006, 3020, 1028]",[],[],[],"[1026, 3191]",[],[1026],[],"[3152, 2055]",[],[],[2420],[],[],[],[],"[3157, 1052, 3916]",[],[1028],[],[3165],[],[]
participant_9_SOLD,[],[],[],[],[],[],[2010],[],[2010],[2055],[],"[1001, 1001]",[2010],[],[],[],[],[],[],"[3145, 1028, 1026]",[2055],[],[],[],[],[],[],"[2420, 3191, 2421, 2033, 1052]",[],[],[],"[3916, 1028]",[],[]
participant_9_UNDO,[],[],[],[],[],[],[],[],[],[],[],"[[0, 3191], [0, 3006]]",[],[],[],"[[0, 1026]]",[],[],[],[],[],[],[],[],[],[],[],[],[],[],[],[],[],[]
team0_KILLS,0,0,0,0,1,1,1,1,1,3,5,7,8,8,9,9,9,10,10,10,11,11,16,16,16,16,16,18,20,20,20,21,21,22
team0_CURRENTGOLD,2500,0,544,1834,2623,3184,3303,3942,3511,4259,6723,6085,6199,4787,4499,2858,4997,5515,5111,2603,3292,4197,7878,5388,1850,3823,2552,3595,2958,4404,3608,2082,3484,1034
team0_TOTALGOLD,2500,2500,3044,4334,5958,7254,8603,10167,11646,13994,16458,18450,20307,21910,23807,25016,27155,29273,30494,31836,34365,35269,40001,41376,42463,44435,45485,47826,50055,51577,53079,54158,55560,56632
team0_LEVEL,5,5,6,13,17,20,25,27,31,32,37,39,42,44,45,47,49,52,53,54,56,57,62,62,63,64,65,65,68,69,71,71,72,73
team0_SBIRES,0,0,13,40,61,87,110,139,168,187,220,229,260,291,305,328,355,387,408,432,451,461,477,484,501,519,538,549,560,588,607,607,623,625
team1_KILLS,0,0,0,0,1,2,3,4,4,5,5,6,7,8,8,10,10,11,13,14,16,16,17,18,20,20,21,22,25,25,25,30,30,35
team1_CURRENTGOLD,2500,150,497,2093,2551,4311,3848,4179,4393,2183,2871,2320,3067,3476,3524,3048,4113,2631,5618,2351,3375,4334,1010,2652,4302,4524,3873,3712,4648,2566,2864,7105,3638,4783
team1_TOTALGOLD,2500,2500,2847,4453,6111,7871,9458,11214,12463,14253,15616,17015,19122,20956,23264,25173,26638,28326,31313,32787,34710,35670,36836,38477,40426,41949,43833,45587,47623,49005,50553,56093,57671,61143
team1_LEVEL,5,5,6,13,18,22,25,29,30,34,35,39,40,42,44,47,48,51,54,55,56,59,60,60,62,64,66,67,68,70,72,76,77,80
team1_SBIRES,0,0,7,42,66,90,107,140,157,184,210,223,247,276,296,311,336,364,395,412,431,441,445,465,471,503,530,555,558,575,604,617,632,642
delta_KILLS,0,0,0,0,0,-1,-2,-3,-3,-2,0,1,1,0,1,-1,-1,-1,-3,-4,-5,-5,-1,-2,-4,-4,-5,-4,-5,-5,-5,-9,-9,-13
delta_CURRENTGOLD,0,-150,47,-259,72,-1127,-545,-237,-882,2076,3852,3765,3132,1311,975,-190,884,2884,-507,252,-83,-137,6868,2736,-2452,-701,-1321,-117,-1690,1838,744,-5023,-154,-3749
delta_TOTALGOLD,0,0,197,-119,-153,-617,-855,-1047,-817,-259,842,1435,1185,954,543,-157,517,947,-819,-951,-345,-401,3165,2899,2037,2486,1652,2239,2432,2572,2526,-1935,-2111,-4511
delta_LEVEL,0,0,0,0,-1,-2,0,-2,1,-2,2,0,2,2,1,0,1,1,-1,-1,0,-2,2,2,1,0,-1,-2,0,-1,-1,-5,-5,-7
delta_SBIRES,0,0,6,-2,-5,-3,3,-1,11,3,10,6,13,15,9,17,19,23,13,20,20,20,32,19,30,16,8,-6,2,13,3,-10,-9,-17
