name,team0,team1
win,Win,Fail
firstBlood,False,True
firstTower,False,True
firstInhibitor,True,False
firstBaron,False,True
firstDragon,False,True
firstRiftHerald,False,True
towerKills,11,3
inhibitorKills,4,0
baronKills,0,2
dragonKills,3,2
riftHeraldKills,1,1
