name,team0,team1
win,Fail,Win
firstBlood,True,False
firstTower,False,True
firstInhibitor,True,False
firstBaron,True,False
firstDragon,True,False
firstRiftHerald,False,False
towerKills,5,11
inhibitorKills,1,1
baronKills,2,0
dragonKills,3,5
riftHeraldKills,0,0
