name,frame_0,frame_1,frame_2,frame_3,frame_4,frame_5,frame_6,frame_7,frame_8,frame_9,frame_10,frame_11,frame_12,frame_13,frame_14,frame_15,frame_16,frame_17,frame_18,frame_19,frame_20,frame_21,frame_22,frame_23
nameStamp,Tstart,Tearly,Tearly,Tearly,Tearly,Tearly,Tearly,Tearly,Tearly,Tearly,Tearly,Tearly,Tmid,Tmid,Tmid,Tmid,Tmid,Tmid,Tmid,Tmid,Tmid,Tmid,Tmid,Tmid
timestamp,0,60005,120019,180031,240054,300071,360096,420110,480123,540136,600157,660188,720214,780243,840270,900298,960321,1020342,1080362,1140379,1200396,1260398,1320410,1380419
participant_0_GOLD,1400,1670,2130,2729,3236,3724,4217,4670,5222,5847,6922,7389,7942,8320,9050,9482,10505,11098,11844,12429,13060,13698,14244,14649
participant_0_CURRENTGOLD,1400,270,730,1329,1836,2324,2817,3270,122,747,1822,239,792,670,1400,582,1605,948,724,9,640,28,574,394
participant_0_LEVEL,1,3,4,5,6,7,8,8,9,10,11,12,12,13,13,14,15,15,16,16,17,18,18,18
participant_0_MINIONSKILLED,0,0,1,5,5,7,10,11,13,16,23,24,29,29,33,33,39,47,50,50,52,55,55,55
participant_0_KILLS,0,1,1,1,1,1,1,1,1,2,3,3,3,3,4,4,5,5,6,7,8,8,8,8
participant_0_BUY,[],"[3112, 3070, 2003]",[],[],[],[],[],[],"[6653, 1001]",[],[],"[3020, 1026, 1028]",[],[1011],[],[4637],[],[1058],[1058],[3089],[],[4630],[],[3135]
participant_0_SOLD,[],[],[2003],[],[],[],[],[],[],[],[],[1001],[],[1028],[],"[1026, 1011]",[],[],[3070],"[1058, 1058]",[],[],[],"[3112, 4630]"
participant_0_UNDO,[],[],[],[],[],[],[],[],[],[],[],[],[],[],[],[],[],[],[],[],[],[],[],[]
participant_1_GOLD,1400,1416,2050,2759,3359,3896,4616,5131,6577,7540,8312,8738,9386,9792,10324,11359,12259,13234,13934,14704,15132,16090,17541,18160
participant_1_CURRENTGOLD,1400,16,650,1359,159,696,1416,1931,3377,340,1112,388,1036,392,924,1959,884,834,434,404,332,1290,2741,1660
participant_1_LEVEL,1,3,4,5,6,7,7,8,9,10,11,12,12,13,13,14,15,16,17,17,18,18,18,18
participant_1_MINIONSKILLED,0,0,2,5,7,13,20,26,30,32,38,38,38,39,44,50,50,50,54,54,55,56,65,65
participant_1_KILLS,0,0,1,2,3,3,4,4,7,9,10,10,11,11,11,12,14,17,17,19,19,21,23,24
participant_1_BUY,[],"[3134, 1001]",[],[],"[3133, 1036, 1036]",[],[],[],[],"[6691, 3142, 1036, 1036]",[],"[3134, 1028, 1036]",[],[3814],[],[],"[3134, 1037]",[6676],"[3035, 3134]",[3111],[2140],[],[],[3179]
participant_1_SOLD,[],[],[],[],[],[],[],[],[],"[3134, 3133, 1036, 1036]",[],"[1036, 1036]",[],"[1036, 3134, 1028]",[],[],[],"[3134, 1037]",[],[1001],[2140],[],[],[3134]
participant_1_UNDO,[],[],[],[],[],[],[],[],[],[],[],[],[],[],[],[],[],[],"[[0, 3035]]",[],[],[],[],[]
participant_2_GOLD,1400,1416,1848,2710,3499,3955,4466,4856,5318,5989,6415,6971,7813,8381,8957,9411,10088,10617,11546,12096,13308,14137,14692,15906
participant_2_CURRENTGOLD,1400,16,98,960,649,1105,1616,316,328,299,725,131,973,141,717,371,1048,177,1106,521,1733,2562,667,1881
participant_2_LEVEL,1,3,4,5,6,7,7,8,8,9,10,10,11,12,12,13,14,15,15,16,17,18,18,18
participant_2_MINIONSKILLED,0,0,1,1,2,2,3,3,4,5,5,5,5,5,9,10,10,12,12,12,18,21,21,23
participant_2_KILLS,0,0,0,2,4,4,4,4,4,5,5,6,7,8,8,8,8,8,9,10,13,14,14,17
participant_2_BUY,[],"[3177, 2031, 1001]",[1036],[],"[3134, 1036]",[],[],"[3133, 6691]",[1033],"[3111, 1036]",[],"[3134, 1028]",[],[3814],[],"[1033, 1036]",[],"[3155, 1036, 1053]",[],[3156],[],[],"[3181, 1036]",[]
participant_2_SOLD,[],[],[],[],[1036],[],[],"[1036, 2031, 3134, 3133]",[],"[1001, 1033]",[],[1036],[],"[3134, 1028]",[],[],[],"[1036, 1033, 1036]",[],"[3177, 3155]",[],[],[1053],[]
participant_2_UNDO,[],[],[],[],[],[],[],[],[],[],[],[],[],[],[],[],[],[],[],[],[],[],[],[]
participant_3_GOLD,1400,1416,1928,2498,3154,3706,4231,4603,5144,5659,6260,6779,7358,8197,8660,9291,9868,11028,11756,12592,13338,13972,14500,15301
participant_3_CURRENTGOLD,1400,16,528,1098,1754,2306,2831,953,544,259,860,29,608,97,560,1191,578,1738,2466,3302,4048,3032,660,1461
participant_3_LEVEL,1,3,4,5,6,7,8,8,9,10,11,11,12,13,13,14,15,16,17,18,18,18,18,18
participant_3_MINIONSKILLED,0,0,3,5,11,16,20,20,23,23,26,29,34,36,37,41,42,42,44,50,53,55,55,55
participant_3_KILLS,0,0,0,0,0,0,0,0,0,0,0,0,0,1,1,1,1,3,3,3,3,3,3,4
participant_3_BUY,[],"[3177, 2031, 1001]",[],[],[],[],[],"[6660, 1031, 1033]",[6662],[3111],[],"[1011, 1033]",[],"[1057, 3001]",[],[],"[3066, 1033]",[],[],[],[],[4401],[3065],[]
participant_3_SOLD,[],[],[],[],[],[],[],[],"[6660, 1033, 1031]",[1001],[],[],[],"[1033, 1011, 1057]",[],[],[2031],[],[],[],[],"[1033, 3066]",[],[]
participant_3_UNDO,[],[],[],[],[],[],[],[],[],[],[],[],[],[],[],[],[],[],[],[],[],[],[],[]
participant_4_GOLD,1400,1416,1877,2424,3010,3472,3945,4311,4933,5539,6052,6748,7349,7883,8412,8841,9631,10156,10850,11332,12065,12869,13653,14043
participant_4_CURRENTGOLD,1400,16,477,1024,1610,2072,2545,226,848,239,752,1448,2049,398,927,506,1296,1821,365,847,1580,2384,3168,558
participant_4_LEVEL,1,3,4,5,6,7,8,8,9,10,11,12,12,13,14,14,15,16,16,17,18,18,18,18
participant_4_MINIONSKILLED,0,0,1,3,4,4,4,4,8,11,12,16,22,24,26,29,33,33,39,40,45,47,51,51
participant_4_KILLS,0,0,0,0,0,0,0,0,0,0,0,1,1,1,1,1,1,1,1,1,1,1,1,1
participant_4_BUY,[],"[3802, 2003, 2003]",[],[],[],[],[],"[6653, 1052, 2003, 2003, 2003]",[],"[3916, 1026]",[],[],[],"[3165, 1011, 1052]",[],[1026],[],[],"[4637, 1011, 1052]",[],[],[],[],"[3116, 3191, 1052]"
participant_4_SOLD,[],[],[],[],[2003],[],[2003],[3802],[],"[2003, 1052]",[],"[2003, 2003]",[],"[1026, 3916]",[],[],[],[],"[1026, 1011, 1052]",[],[],[],[],"[1011, 1052]"
participant_4_UNDO,[],[],[],[],[],[],[],[],[],[],[],[],[],[],[],[],[],[],[],[],[],[],[],[]
participant_5_GOLD,1400,1400,2026,2812,3315,3753,4209,4687,5170,5628,6100,7111,7567,8179,8611,9162,9570,10107,10497,10947,11355,11772,12297,12787
participant_5_CURRENTGOLD,1400,0,626,1412,1915,2353,2809,3287,3770,328,800,1811,1617,629,1061,1612,2020,2557,547,397,805,422,947,1437
participant_5_LEVEL,1,3,4,5,6,7,8,8,9,10,11,12,13,13,14,15,15,16,16,17,17,18,18,18
participant_5_MINIONSKILLED,0,0,1,1,1,1,1,1,2,3,5,5,5,5,5,6,6,6,6,6,6,6,9,10
participant_5_KILLS,0,0,0,0,0,0,0,1,1,1,1,1,1,1,1,1,2,3,3,4,4,4,4,5
participant_5_BUY,[],"[1053, 1042, 2031, 3184, 2031, 1001]",[],[],"[1053, 1042]",[],[],[],"[6670, 1018, 6673]",[1042],[3006],[],[],"[3133, 3057]",[],[],[],[3508],"[6675, 1018]",[3508],"[1038, 1053]",[3072],[],[3086]
participant_5_SOLD,[],[],[],[],[],[],[],[],"[1042, 6670, 1018, 1053]",[],"[1001, 1042]",[],[],[],[],[],[],"[3133, 3057]","[3133, 2031]","[3184, 3057, 1018, 3057, 1018]",[],"[3184, 1038, 1053]",[],[]
participant_5_UNDO,[],"[[0, 2031], [0, 1042], [0, 1053]]",[],[],[],[],[],[],[],[],[],[],[],[],[],[],[],"[[0, 3508]]",[],"[[0, 3508], [3184, 0]]",[],[],[],[]
participant_6_GOLD,1400,1400,1829,2236,2629,3161,3636,4201,4647,5888,6275,7216,7576,8484,8945,9762,10464,10846,11311,12026,12459,13075,13465,14044
participant_6_CURRENTGOLD,1400,200,629,336,729,1261,1736,2301,197,188,575,581,126,1034,445,1262,199,581,1046,461,894,1075,650,1229
participant_6_LEVEL,1,3,4,5,5,6,7,8,8,9,10,10,11,12,13,14,14,15,15,16,16,18,18,18
participant_6_MINIONSKILLED,0,0,1,1,1,7,10,13,13,13,14,17,17,21,22,29,34,35,37,40,44,45,45,45
participant_6_KILLS,0,0,0,0,0,0,0,0,0,1,1,2,2,4,4,5,6,6,6,7,7,7,7,8
participant_6_BUY,[],"[3145, 2031]",[],"[1028, 1001]",[],[],[],[],"[4636, 3020]","[1026, 1028]",[],"[1011, 1052]",[4637],[],[3145],[],"[1058, 1058, 1058]",[],[],[3089],[],[1052],[4630],[]
participant_6_SOLD,[],[],[],[],[],[],[],[],"[3145, 1028, 1001]",[],[],[1028],"[1026, 1011, 1052]",[],[],[],[3145],[],[],"[1058, 1058]",[],[],[1052],[]
participant_6_UNDO,[],[],[],[],[],[],[],[],[],[],[],[],[],[],[],[],"[[0, 1058]]",[],[],[],[],[],[],[]
participant_7_GOLD,1400,1400,1879,2436,3514,4020,4644,5486,6247,7363,7789,8686,9169,10214,10771,11359,11805,12311,13383,13858,14242,15367,15757,16536
participant_7_CURRENTGOLD,1400,0,479,1036,214,720,944,1786,57,1173,749,946,1429,2474,3031,519,30,536,1008,833,267,957,532,1311
participant_7_LEVEL,1,3,4,5,6,7,8,8,9,11,11,12,13,14,15,15,16,16,17,18,18,18,18,18
participant_7_MINIONSKILLED,0,0,3,7,13,17,17,19,20,28,30,35,37,50,58,58,59,60,62,65,65,68,68,68
participant_7_KILLS,0,0,0,0,1,1,2,3,5,8,8,9,9,10,10,11,11,11,13,13,13,15,15,17
participant_7_BUY,[],"[3145, 1001, 2003, 3112, 1001, 2031]",[],[],"[3145, 1026]",[],[1028],[],"[3152, 3020, 1026]",[],[3113],[3057],[],[],[],"[3100, 1058, 1058]","[3089, 1029]",[],[3191],[2420],[3157],[1052],[4630],[]
participant_7_SOLD,[],[],[],[],[],[],[],[],"[3145, 1028, 1026, 1001, 2031]",[],[],[],[],[],[],"[3057, 3113, 1026]","[3112, 1058, 1058]",[],[1029],[2420],"[3191, 2421]",[],[1052],[]
participant_7_UNDO,[],"[[0, 2003], [0, 1001], [0, 3145]]",[],[],[],[],[],[],[],[],[],[],[],[],[],[],[],[],[],[],[],[],[],[]
participant_8_GOLD,1400,1400,1836,2310,2814,3288,3850,4591,5002,5392,5917,6674,7178,7703,8239,8869,9725,10527,11133,11842,12247,12658,13187,14272
participant_8_CURRENTGOLD,1400,0,436,910,214,688,1250,1991,202,292,317,1074,1578,303,839,1469,2325,3127,893,2512,717,593,1122,1007
participant_8_LEVEL,1,3,4,5,6,6,7,8,9,9,10,11,11,12,13,14,14,15,16,16,17,17,18,18
participant_8_MINIONSKILLED,0,0,0,1,7,9,15,20,21,21,27,33,36,36,40,48,48,54,63,66,68,68,73,74
participant_8_KILLS,0,0,1,2,2,2,2,2,2,2,2,3,3,4,4,4,4,4,4,4,4,4,4,4
participant_8_BUY,[],"[4642, 1001, 2003]",[],[],[],[],[],[],[],"[6617, 3158, 3114, 1026]",[],[],[6616],"[3067, 1004, 3114]",[],[],[],[],"[3107, 1057, 3114]",[3222],[],"[1026, 3114]",[],[]
participant_8_SOLD,[],[],[2003],[],[],[],[],[],[],"[4642, 1001]",[],[],"[3114, 1026]",[1004],[],[],[],[],"[3067, 3114]","[3114, 1057]",[],[],[],[]
participant_8_UNDO,[],[],[],[],[],[],[],[],[],[],[],[],[],[],[],[],[],[],[],[],[],"[[0, 1026]]",[],[]
participant_9_GOLD,1400,1400,1868,2316,2757,3213,3706,4270,4789,5185,5640,6354,6956,7367,7821,8421,8937,9615,10158,10895,11353,12378,13368,13990
participant_9_CURRENTGOLD,1400,0,468,181,157,613,1106,1670,2189,585,605,469,1071,232,686,81,132,810,553,1290,448,1473,933,1555
participant_9_LEVEL,1,3,4,5,6,6,7,8,9,9,10,11,11,12,12,13,14,14,16,16,17,18,18,18
participant_9_MINIONSKILLED,0,0,3,5,6,6,9,11,14,14,17,17,19,19,20,20,20,25,27,28,31,40,40,46
participant_9_KILLS,0,0,0,0,0,0,0,0,0,0,0,1,2,2,2,3,3,4,4,5,5,6,7,7
participant_9_BUY,[],"[3802, 2003, 2003]",[],"[1001, 1052]",[3108],[],[],[],[],"[6653, 3047]",[1052],[1026],[],"[1026, 1028, 1028]",[],"[4637, 1052, 2003]",[3108],[],[3067],[],[4629],[],"[3191, 2420]",[]
participant_9_SOLD,[],[],[2003],[],[1052],[],[],[2003],[],"[3802, 3108, 1001]",[],[],[],[],[],"[1026, 1026, 1028, 1052]",[1052],[],[],[],"[3108, 3067]",[],[2003],[2420]
participant_9_UNDO,[],[],[],[],[],[],[],[],[],[],[],[],[],"[[0, 1028]]",[],[],[],[],[],[],[],[],[],[]
team0_KILLS,0,1,2,5,8,8,9,9,12,16,18,20,22,24,25,26,29,34,36,40,44,47,49,54
team0_CURRENTGOLD,7000,334,2483,5770,6008,8503,11225,6696,5219,1884,5271,2235,5458,1698,4528,4609,5411,5518,5095,5083,8333,9296,7810,5954
team0_TOTALGOLD,7000,7334,9833,13120,16258,18753,21475,23571,27194,30574,33961,36625,39848,42573,45403,48384,52351,56133,59930,63153,66903,70766,74630,78059
team0_LEVEL,5,15,20,25,30,35,38,40,44,49,54,57,59,64,65,69,74,78,81,84,88,90,90,90
team0_SBIRES,0,0,8,19,29,42,57,64,78,87,104,112,128,133,149,163,174,184,199,206,223,234,247,249
team1_KILLS,0,0,1,2,3,3,4,6,8,12,12,16,17,21,21,24,26,28,30,33,33,36,37,41
team1_CURRENTGOLD,7000,200,2638,3875,3229,5635,7845,11035,6415,2566,3046,4881,5821,4672,6062,4943,4706,7611,4047,5493,3131,4520,4184,6539
team1_TOTALGOLD,7000,7000,9438,12110,15029,17435,20045,23235,25855,29456,31721,36041,38446,41947,44387,47573,50501,53406,56482,59568,61656,65250,68074,71629
team1_LEVEL,5,15,20,25,29,32,37,40,44,48,52,56,59,63,67,71,73,76,80,83,85,89,90,90
team1_SBIRES,0,0,8,15,28,40,52,64,70,79,93,107,114,131,145,161,167,180,195,205,214,227,235,243
delta_KILLS,0,1,1,3,5,5,5,3,4,4,6,4,5,3,4,2,3,6,6,7,11,11,12,13
delta_CURRENTGOLD,0,134,-155,1895,2779,2868,3380,-4339,-1196,-682,2225,-2646,-363,-2974,-1534,-334,705,-2093,1048,-410,5202,4776,3626,-585
delta_TOTALGOLD,0,334,395,1010,1229,1318,1430,336,1339,1118,2240,584,1402,626,1016,811,1850,2727,3448,3585,5247,5516,6556,6430
delta_LEVEL,0,0,0,0,1,3,1,0,0,1,2,1,0,1,-2,-2,1,2,1,1,3,1,0,0
delta_SBIRES,0,0,0,4,1,2,5,0,8,8,11,5,14,2,4,2,7,4,4,1,9,7,12,6
