name,frame_0,frame_1,frame_2,frame_3,frame_4,frame_5,frame_6,frame_7,frame_8,frame_9,frame_10,frame_11,frame_12,frame_13,frame_14,frame_15,frame_16,frame_17,frame_18,frame_19,frame_20,frame_21,frame_22,frame_23,frame_24,frame_25,frame_26,frame_27
nameStamp,Tstart,Tearly,Tearly,Tearly,Tearly,Tearly,Tearly,Tearly,Tearly,Tearly,Tearly,Tearly,Tearly,Tearly,Tearly,Tearly,Tmid,Tmid,Tmid,Tmid,Tmid,Tmid,Tmid,Tmid,Tmid,Tmid,Tmid,Tmid
timestamp,0,60017,120043,180066,240096,300116,360120,420136,480162,540179,600205,660217,720224,780228,840250,900256,960275,1020281,1080295,1140315,1200333,1260343,1320350,1380355,1440376,1500386,1560399,1620399
participant_0_GOLD,500,500,542,832,997,1280,1943,2065,2529,2715,3084,3324,3558,3886,4356,5110,5330,5923,6252,7209,8015,8348,8893,9567,9913,10470,11027,11388
participant_0_CURRENTGOLD,500,0,42,332,497,180,843,90,554,740,1109,249,83,411,881,1635,172,765,1094,2051,807,1140,1685,2359,130,687,744,1105
participant_0_LEVEL,1,1,1,3,4,4,6,6,7,7,8,8,9,9,10,11,11,12,12,12,13,13,13,14,14,15,15,15
participant_0_MINIONSKILLED,0,0,1,11,13,23,33,33,50,54,65,68,75,83,93,106,112,131,135,140,142,143,147,155,155,162,165,168
participant_0_KILLS,0,0,0,0,0,0,0,1,1,1,1,1,1,2,2,3,3,3,3,4,4,4,5,6,6,6,6,6
participant_0_BUY,[],"[1056, 2003, 2003, 3340]",[],[],[],[],"[1052, 1027, 2003, 2003]","[3802, 1001]",[],[],"[1026, 2003, 2003]",[],[],"[3020, 2003, 2003]","[2003, 2055]",[6655],[],[],[1052],"[1052, 2003]",[],[],"[3145, 1058]",[4628],[1052],[],[],[]
participant_0_SOLD,[],[],[],[],[],"[2003, 2003]",[],"[1052, 1027]",[2003],[2003],[],"[2003, 2003]",[],"[1001, 2003, 2003]",[],"[2003, 3802, 1026]",[2055],[],[],[],[],[],"[2003, 1052, 1052]","[1058, 3145]",[],[],[],[]
participant_0_UNDO,[],[],[],[],[],[],[],[],[],[],[],[],[],[],[],[],[],[],[],[],[],[],[],[],[],[],[],[]
participant_1_GOLD,500,500,670,1048,1376,1498,1791,2188,3007,3626,4253,4481,5293,5871,6313,6669,7007,7539,7746,8677,9529,10088,10404,11379,11871,11993,12867,13285
participant_1_CURRENTGOLD,500,0,170,548,876,-152,141,538,1357,1976,2603,-202,610,1188,1630,361,699,-144,13,944,1796,205,71,1046,1538,370,1245,1802
participant_1_LEVEL,1,1,2,3,4,4,4,5,6,7,8,8,8,9,10,10,10,11,11,12,12,13,13,14,14,14,15,15
participant_1_MINIONSKILLED,0,0,0,0,0,0,0,0,3,8,8,8,13,18,18,19,20,20,20,20,20,21,27,30,34,34,37,37
participant_1_KILLS,0,0,0,0,0,0,1,1,2,2,2,2,3,3,3,5,5,8,8,8,8,9,10,11,12,12,12,13
participant_1_BUY,[],"[1055, 2003, 3340]",[],[],[],[],"[1001, 1036, 1036, 1042, 1042]",[],[],"[6670, 3006, 1036]",[],[],[],"[1018, 1037]",[],"[6672, 1037]",[],[],[],[],"[3153, 1042]",[],[],"[3086, 1042]",[],[3085],[],[]
participant_1_SOLD,[],[],[],[2003],[],[],[],[],[],"[1036, 1042, 1036, 1001, 1042]",[],[],[],[],[],"[6670, 1018, 1037]",[],[],[],[],"[1036, 1037]",[],[],[1042],[],"[3086, 1042]",[],[]
participant_1_UNDO,[],[],[],[],[],[],[],[],[],[],[],[],[],[],[],[],[],[],[],[],[],[],[],[],[],[],[],[]
participant_2_GOLD,500,500,605,902,1239,1438,1781,2294,2590,2960,3288,3710,4217,4754,5020,5584,5811,5933,6195,6578,7489,7850,8537,9179,9351,9742,10014,10313
participant_2_CURRENTGOLD,500,0,105,402,729,928,376,74,360,720,98,510,1007,644,775,89,316,438,265,163,1074,1435,692,634,371,762,1034,1403
participant_2_LEVEL,1,1,1,3,4,5,6,6,7,7,8,9,9,10,10,10,11,11,11,11,12,12,13,13,13,14,14,14
participant_2_MINIONSKILLED,0,0,5,15,25,29,39,44,51,62,65,79,89,97,102,107,114,114,118,120,138,152,159,166,166,176,176,177
participant_2_KILLS,0,0,0,0,0,0,0,0,0,0,0,0,0,0,0,0,0,0,0,0,0,0,0,0,0,1,2,2
participant_2_BUY,[],"[3850, 2003, 2003, 3340]",[],[],[],[],"[4642, 2003]",[],[],"[3067, 2003, 2003, 2055]",[],[],[],"[4005, 1001, 2003, 2003, 2055, 3364]",[],[],[],[],"[3117, 3108, 3191]",[],[],"[3157, 2055]",[],[3067],[],[],[],[]
participant_2_SOLD,[],[],[],"[2010, 2003]",[],[2010],[2003],[],"[2003, 3850, 2010]","[2419, 2055]",[2003],[],"[3851, 2003]","[3067, 4642, 3340]",[],"[2003, 2003, 2055]",[],[2423],[1001],[],[],"[3191, 2424]",[],[],[],[2055],[],[]
participant_2_UNDO,[],[],[],[],[],[],[],[],[],[],[],[],[],[],[],[],[],[],"[[0, 3108]]",[],[],[],[],[],[],[],[],[]
participant_3_GOLD,500,500,584,895,1253,1543,2129,2517,3112,3310,3658,3996,4795,5024,5492,6323,6721,7802,8134,8623,8946,9648,10145,10791,11296,11654,12236,12876
participant_3_CURRENTGOLD,500,0,84,395,753,1043,29,417,1012,60,408,746,1545,299,767,98,496,1577,1909,2398,446,1148,1646,1091,1597,54,637,1276
participant_3_LEVEL,1,1,1,2,3,4,4,5,5,6,6,7,7,7,8,9,9,10,11,11,11,12,13,13,13,14,14,14
participant_3_MINIONSKILLED,0,0,3,14,25,32,36,52,57,57,66,75,86,86,97,102,114,119,131,132,133,137,137,141,144,149,151,154
participant_3_KILLS,0,0,0,0,0,0,0,0,1,2,3,3,4,4,4,4,4,5,5,7,8,8,8,10,10,10,12,13
participant_3_BUY,[],"[1039, 3364, 2031]",[],[],[],"[3057, 1028]",[],[],[],[],[],"[3078, 1028, 1036]",[],[],[],"[3044, 1028, 1037]",[],"[3053, 2420]",[],[],[],[3026],[1028],[],[],"[3067, 3009, 1036]",[],[]
participant_3_SOLD,[],[],[],[],[],[],[],[],[],[],[1039],"[3057, 1028]",[],[],[],"[1028, 1036]",[],"[1037, 3044, 1028]",[],[2420],[],[2421],[],[],[],"[1028, 2031, 2422]",[],[]
participant_3_UNDO,[],[],[],[],[],[],[],[],[],[],[],[],[],[],[],[],[],[],[],[],[],[],[],[],[],[],[],[]
participant_4_GOLD,500,500,523,737,980,1234,1649,1883,2453,2688,2996,3306,3710,3971,4191,4925,5095,5592,5797,6214,6872,7012,7322,7828,8103,8544,9154,9598
participant_4_CURRENTGOLD,500,0,23,237,480,734,49,283,853,113,422,731,1135,71,291,1025,1195,1692,297,714,1372,87,397,103,379,819,1429,1873
participant_4_LEVEL,1,1,1,2,3,4,4,5,5,6,6,7,7,8,8,9,9,10,10,11,11,11,12,13,13,13,14,14
participant_4_MINIONSKILLED,0,0,0,0,2,2,2,4,5,5,7,10,10,11,11,11,12,14,16,21,23,23,32,32,32,32,32,38
participant_4_KILLS,0,0,0,0,0,0,1,1,1,1,1,1,1,1,1,2,2,2,2,3,5,5,6,6,6,7,8,8
participant_4_BUY,[],"[3340, 1055, 2003]",[],[],[],"[1001, 1042]",[],"[3051, 2055]",[],[],[],"[3057, 1028]",[3067],[],[],[],"[3078, 3111, 2055, 2055]",[],[],[],"[1053, 1043, 2055, 2055]",[],[],[],"[3153, 3077, 2055]",[],[2140],[]
participant_4_SOLD,[],[],[],[],[2003],[],[],[1042],[],[2055],[],[],[1028],[],[],[],"[3057, 3051, 3067, 1001, 2055]",[],[2055],[],[],[2055],[],[],"[1053, 1043]",[],[2140],[]
participant_4_UNDO,[],[],[],[],[],[],[],[],[],[],[],[],[],[],[],[],[],[],[],[],[],[],[],[],[],[],[],[]
participant_5_GOLD,500,500,556,839,1190,1375,1589,1900,2189,2445,2823,3287,3622,4004,4965,5450,5664,6034,6156,6872,7085,7271,7576,8045,8168,8710,8909,8988
participant_5_CURRENTGOLD,500,0,56,339,690,140,39,350,194,450,828,1292,107,489,1450,1935,649,1019,141,357,570,756,1061,1530,553,195,95,-137
participant_5_LEVEL,1,1,1,3,4,4,5,6,6,7,7,8,9,9,10,11,11,12,12,12,13,13,13,14,14,14,15,15
participant_5_MINIONSKILLED,0,0,2,10,21,24,30,41,48,55,66,82,85,97,106,110,115,121,121,134,139,143,151,164,164,180,185,185
participant_5_KILLS,0,0,0,0,0,0,0,0,0,1,1,1,1,1,1,1,1,1,1,1,1,1,1,2,2,2,2,2
participant_5_BUY,[],"[1055, 2003, 3340]",[],[],[],[],"[3134, 1001]",[],[],[],[],[],[6676],[],[],"[3009, 1036]",[],[3134],[],[1036],[],[1053],[1036],[],[6692],[],"[2015, 1018]",[]
participant_5_SOLD,[],[],[],[],[],[2003],[],[],[],[],[],[],[3134],[],[],[1001],[],[1036],[],[],[],[1036],[],[],"[3134, 1036, 1053]",[],[],[]
participant_5_UNDO,[],[],[],[],[],[],[],[],[],[],[],[],[],[],[],[],[],[],[],[],[],[],[],[],[],[],[],[]
participant_6_GOLD,500,500,651,1013,1271,1569,1777,2380,2679,3306,3618,4081,4565,4687,5061,5183,5491,7108,7230,7503,7810,8010,8287,8729,9047,9197,9333,9412
participant_6_CURRENTGOLD,500,0,151,513,771,1069,177,780,1079,206,518,981,1465,287,661,283,591,2208,55,328,635,835,347,439,357,107,244,262
participant_6_LEVEL,1,1,2,3,3,4,5,6,6,7,7,8,9,9,9,9,10,11,11,11,12,12,12,12,13,13,13,13
participant_6_MINIONSKILLED,0,0,0,0,0,1,1,4,4,5,11,11,14,14,17,17,17,19,19,19,19,24,30,30,37,39,40,40
participant_6_KILLS,0,0,0,0,0,0,0,1,1,2,2,2,3,3,3,3,3,6,6,6,6,6,6,7,7,7,7,7
participant_6_BUY,[],"[1035, 2031, 3340]",[],[],[],[],[3044],[],[],"[1001, 6029]",[],[],[],"[6630, 1029]",[],[3047],[],[],"[3133, 1031, 1037, 1029]",[],[],[],[6333],[1036],[1028],[3067],[],[]
participant_6_SOLD,[],[],[],[],[],[],[],[],[],[],[1035],[],[],"[6029, 3044]",[],"[1001, 1029]",[],[],[],[],[3340],[],"[3513, 1029, 3133, 1037, 2031]",[],[],[1028],[],[]
participant_6_UNDO,[],[],[],[],[],[],[],[],[],[],[],[],[],[],[],[],[],[],"[[0, 1031]]",[],[],[],[],[],[],[],[],[]
participant_7_GOLD,500,500,591,983,1267,1550,1858,2172,2538,2871,3042,3443,3600,4057,4410,4796,4919,5041,5226,5462,5968,6091,6263,6460,6583,6801,6924,7002
participant_7_CURRENTGOLD,500,0,91,473,757,1030,158,42,398,731,467,858,325,782,1135,321,444,566,751,187,693,216,388,185,308,91,214,-4503
participant_7_LEVEL,1,1,1,3,4,5,5,6,7,7,8,8,9,9,9,10,10,10,10,10,10,11,11,11,11,11,11,11
participant_7_MINIONSKILLED,0,0,4,17,26,33,41,43,54,66,69,82,84,94,99,106,106,106,110,114,119,119,119,119,119,120,120,120
participant_7_KILLS,0,0,0,0,0,0,0,0,0,0,0,0,0,0,0,0,0,0,0,0,1,1,1,1,1,1,1,1
participant_7_BUY,[],"[1056, 2003, 2003]",[],[],[],[],"[1052, 1052, 1001]",[3802],[],[],[1052],[],"[3108, 2055, 2031]",[],[],[6653],[],[],[],[3020],[],"[1042, 1042]",[],[1043],[],[1052],[],"[3115, 3108]"
participant_7_SOLD,[],[],[],[],[],[2003],[],"[2003, 1052, 1052]",[],[],[],[],[1052],[2055],[],"[3802, 3108]",[],[],[],[1001],[],[],[],"[1042, 1042]",[],[],[],"[6653, 6653, 1043, 1052]"
participant_7_UNDO,[],[],[],[],[],[],[],[],[],[],[],[],[],[],[],[],[],[],[],[],[],[],[],[],[],[],[],"[[6653, 0]]"
participant_8_GOLD,500,500,584,969,1190,1585,2078,2277,2483,3240,3551,3945,4179,4395,4913,5124,5565,5778,6074,6247,6564,6833,7137,7973,8284,8655,9007,9086
participant_8_CURRENTGOLD,500,0,84,469,690,1085,178,377,583,1340,1651,2045,379,595,1103,364,805,268,564,387,704,423,377,1213,674,1045,98,186
participant_8_LEVEL,1,1,1,2,3,4,4,5,5,6,6,7,7,7,8,8,9,9,9,9,9,10,10,11,11,12,12,12
participant_8_MINIONSKILLED,0,0,3,16,21,34,38,42,47,54,65,77,83,89,98,99,110,115,121,121,128,132,136,140,146,152,161,161
participant_8_KILLS,0,0,0,0,0,0,2,2,2,2,2,2,2,2,2,2,2,2,2,2,2,2,2,2,2,3,3,3
participant_8_BUY,[],"[3858, 3340, 2003, 2003]",[],[],[],[],[],"[6660, 1001, 2003, 2003, 2055]",[],[],[],[],[1057],[],[],[1029],[],[],[],"[6664, 2055]",[],[1033],[],[],[3111],[],"[1057, 3066]",[]
participant_8_SOLD,[],[],[],[2003],[2003],[],[],[],[],[],"[2003, 2003]",[3858],[],[2055],[],[],[],[],[],"[6660, 1029, 1057]",[],[3859],[],[],"[1001, 1033]",[],[],[]
participant_8_UNDO,[],[],[],[],[],[],[],[],[],[],[],[],[],[],[],[],[],[],[],[],[],[],[],[],[],[],[],[]
participant_9_GOLD,500,500,523,759,915,1133,1931,2065,2269,2511,2659,2892,3053,3259,3400,3540,3817,3971,4125,4316,4655,4907,5097,5408,5563,6842,6982,7073
participant_9_CURRENTGOLD,500,0,23,259,415,633,1431,90,294,536,684,917,178,384,525,365,642,796,950,66,405,207,397,708,513,1792,233,323
participant_9_LEVEL,1,1,1,2,3,4,4,4,5,5,6,6,7,7,7,7,8,8,9,9,9,9,9,10,11,11,12,12
participant_9_MINIONSKILLED,0,0,0,3,4,6,10,10,15,18,19,21,22,26,26,26,30,31,32,32,35,37,37,38,39,43,43,43
participant_9_KILLS,0,0,0,0,0,0,0,0,0,0,0,0,0,0,1,2,2,2,2,2,2,2,2,2,2,2,2,2
participant_9_BUY,[],"[2003, 1054, 3340]",[],[],[],"[1052, 1029]","[3191, 2031]",[],"[1028, 2055]",[],[],[],"[6660, 3047]",[],[],[],[3105],[],"[3068, 1029]",[1031],[],[],[],[],"[3157, 3066, 1028]",[3742],[1029],[]
participant_9_SOLD,[],[],[],[],[2010],[2010],"[2003, 1052, 1029]",[],[2010],[],[],[],"[1028, 1054]","[2419, 2055]",[],[],[],[2423],"[6660, 3105]",[1029],[],[],[],[],"[3191, 2424, 2031, 2424]","[3066, 1028, 1031]",[],[]
participant_9_UNDO,[],[],[],[],[],[],[],[],[],[],[],[],[],[],[],[],[],[],[],[],[],[],[],[],"[[0, 3157]]",[],[],[]
team0_KILLS,0,0,0,0,0,0,2,3,5,6,7,7,9,10,10,14,14,18,18,22,25,26,29,33,34,36,40,42
team0_CURRENTGOLD,2500,0,424,1914,3335,2733,1438,1402,4136,3609,4640,2034,4380,2613,4344,3208,2878,4328,3578,6270,5495,4015,4491,5233,4015,2692,5089,7459
team0_TOTALGOLD,2500,2500,2924,4414,5845,6993,9293,10947,13691,15299,17279,18817,21573,23506,25372,28611,29964,32789,34124,37301,40851,42946,45301,48744,50534,52403,55298,57460
team0_LEVEL,5,5,6,13,18,21,24,27,30,33,36,39,40,43,46,49,50,54,55,57,59,61,64,67,67,70,72,72
team0_SBIRES,0,0,9,40,65,86,110,133,166,186,211,240,273,295,321,345,372,398,420,433,456,476,502,524,531,553,561,574
team1_KILLS,0,0,0,0,0,0,2,3,3,5,5,5,6,6,7,8,8,11,11,11,12,12,12,14,14,15,15,15
team1_CURRENTGOLD,2500,0,405,2053,3323,3957,1983,1639,2548,3263,4148,6093,2454,2537,4874,3268,3131,4857,2461,1325,3007,2437,2570,4075,2405,3230,884,-3869
team1_TOTALGOLD,2500,2500,2905,4563,5833,7212,9233,10794,12158,14373,15693,17648,19019,20402,22749,24093,25456,27932,28811,30400,32082,33112,34360,36615,37645,40205,41155,41561
team1_LEVEL,5,5,6,13,17,21,23,27,29,32,34,37,41,41,43,45,48,50,51,51,53,55,55,58,60,61,63,63
team1_SBIRES,0,0,9,46,72,98,120,140,168,198,230,273,288,320,346,358,378,392,403,420,440,455,473,491,505,534,549,549
delta_KILLS,0,0,0,0,0,0,0,0,2,1,2,2,3,4,3,6,6,7,7,11,13,14,17,19,20,21,25,27
delta_CURRENTGOLD,0,0,19,-139,12,-1224,-545,-237,1588,346,492,-4059,1926,76,-530,-60,-253,-529,1117,4945,2488,1578,1921,1158,1610,-538,4205,11328
delta_TOTALGOLD,0,0,19,-149,12,-219,60,153,1533,926,1586,1169,2554,3104,2623,4518,4508,4857,5313,6901,8769,9834,10941,12129,12889,12198,14143,15899
delta_LEVEL,0,0,0,0,1,0,1,0,1,1,2,2,-1,2,3,4,2,4,4,6,6,6,9,9,7,9,9,9
delta_SBIRES,0,0,0,-6,-7,-12,-10,-7,-2,-12,-19,-33,-15,-25,-25,-13,-6,6,17,13,16,21,29,33,26,19,12,25
