name,frame_0,frame_1,frame_2,frame_3,frame_4,frame_5,frame_6,frame_7,frame_8,frame_9,frame_10,frame_11,frame_12,frame_13,frame_14,frame_15,frame_16,frame_17,frame_18,frame_19,frame_20,frame_21,frame_22,frame_23,frame_24,frame_25,frame_26,frame_27,frame_28,frame_29,frame_30,frame_31,frame_32
nameStamp,Tstart,Tearly,Tearly,Tearly,Tearly,Tearly,Tearly,Tearly,Tearly,Tearly,Tearly,Tearly,Tearly,Tearly,Tmid,Tmid,Tmid,Tmid,Tmid,Tmid,Tmid,Tmid,Tmid,Tmid,Tend,Tend,Tend,Tend,Tend,Tend,Tend,Tend,Tend
timestamp,0,60027,120059,180089,240116,300144,360150,420157,480168,540192,600198,660215,720233,780264,840268,900290,960307,1020318,1080334,1140357,1200380,1260396,1320410,1380422,1440424,1500445,1560468,1620494,1680502,1740514,1800535,1860537,1920537
participant_0_GOLD,500,500,577,913,1057,1431,1837,2099,2848,3236,3846,4121,4622,4835,5657,6521,6693,7157,7280,7507,7734,9611,10243,10493,11285,11735,12971,14140,14620,15561,16207,16664,17043
participant_0_CURRENTGOLD,500,0,77,413,557,931,1337,249,998,136,746,213,714,127,949,1813,85,549,222,449,676,803,1435,585,107,557,493,1662,192,1133,1780,2237,2435
participant_0_LEVEL,1,1,1,3,3,5,6,6,7,7,8,9,9,10,10,11,11,12,12,12,12,13,14,14,14,15,16,16,16,17,17,18,18
participant_0_MINIONSKILLED,0,0,3,13,14,26,40,48,63,69,78,83,95,100,107,112,112,113,113,119,121,126,142,147,147,162,167,179,179,184,187,198,198
participant_0_KILLS,0,0,0,0,0,0,0,0,0,0,0,0,0,0,0,0,0,1,1,1,1,1,1,1,1,1,1,1,1,1,1,1,1
participant_0_BUY,[],"[1054, 2003, 3340]",[],[],[],[],"[1026, 1001]",[],"[1052, 2003]",[],[],"[3916, 1052]",[],[1028],[],[],[4635],[],[4633],[],[3020],[],[],[1052],[],[3191],[],[],[2420],[],[],[3157],[]
participant_0_SOLD,[],[],[],[],[2003],[],[],[],[],[],[2003],[1052],[],[],[],[],"[1028, 1052]",[],"[4635, 1026]",[],[1001],[],[],[],[],[1052],[],[],[],[],[],"[3191, 2420]",[]
participant_0_UNDO,[],[],[],[],[],[],[],[],[],[],[],[],[],[],[],[],[],[],[],[],[],[],[],[],[],[],[],[],[],[],[],[],[]
participant_1_GOLD,500,500,621,1033,1233,1432,1720,1952,2174,2532,3029,3194,3414,3622,4029,4491,4700,4930,5242,5365,5682,7319,7773,7895,8018,9869,9992,10954,11404,11951,12396,13194,13391
participant_1_CURRENTGOLD,500,0,121,533,733,82,370,602,74,432,929,44,264,472,879,191,400,280,592,365,282,1919,473,145,268,2119,292,1255,1365,1911,106,905,1041
participant_1_LEVEL,1,1,2,3,3,4,4,5,5,6,7,7,7,8,8,9,9,9,10,10,10,11,12,12,12,13,13,14,14,15,15,16,16
participant_1_MINIONSKILLED,0,0,0,0,0,0,1,1,1,1,1,3,3,7,8,8,9,11,11,11,11,13,13,13,13,14,14,15,16,17,18,18,18
participant_1_KILLS,0,0,0,0,0,0,0,0,0,2,2,2,2,3,3,3,4,4,4,4,4,4,4,4,4,4,4,4,5,5,6,8,8
participant_1_BUY,[],"[1055, 2003, 3340]",[],[],"[1036, 1036, 2003]",[],[],[],"[6670, 2031, 1001]",[],[],"[3006, 1053]","[1018, 2055]",[],[],"[6673, 1036, 2055, 3363]",[],[3133],[],"[1037, 1018]",[],[6675],[],[],[1038],[],[1018],[],[],[],"[3031, 3133]",[],[]
participant_1_SOLD,[],[],[],[],[2003],[],[],[],"[2003, 1036, 1036]",[],[],"[1001, 2031]",[1055],[],[],"[6670, 1018, 1053, 3340]",[],[1036],[],[],[],"[3133, 1037, 1018]",[],[],[],[],[],[],[],[],"[1038, 1018]",[2055],[]
participant_1_UNDO,[],[],[],[],[],[],[],[],[],[],[],[],[],[],[],[],[],[],[],[],[],[],[],[],[],[],[],[],[],[],[],[],[]
participant_2_GOLD,500,500,612,962,1225,1508,1687,1956,2245,2545,2856,3028,3438,3574,3911,4300,4522,5022,5145,5741,5863,5986,6193,6316,6452,6661,6933,7147,7391,7808,8246,8655,8795
participant_2_CURRENTGOLD,500,0,112,452,715,998,27,296,90,380,691,63,463,199,526,915,672,1172,245,841,163,286,493,181,317,61,333,547,141,558,996,455,645
participant_2_LEVEL,1,1,1,3,4,5,5,6,7,7,8,8,9,9,9,10,10,10,10,11,11,11,11,11,12,12,13,13,13,13,14,14,14
participant_2_MINIONSKILLED,0,0,5,15,24,33,36,44,51,58,69,72,85,86,95,104,107,110,110,130,130,130,130,130,131,131,131,137,139,141,142,153,153
participant_2_KILLS,0,0,0,0,0,0,0,0,0,0,0,0,0,0,0,0,0,0,0,0,0,2,2,2,2,6,6,8,9,10,10,12,12
participant_2_BUY,[],"[1039, 3340, 2031]",[],[],[],"[1036, 1036, 2055, 2055]",[],[],"[3134, 1036, 3364]",[],[],"[3133, 1001]",[],[],[],"[6691, 2055, 2055]",[],[1036],[],[1036],[3134],[],[3142],"[1029, 2055, 2055]",[],[],"[3047, 3134, 1036]",[],[1028],[],"[3814, 3123, 1028]",[],[]
participant_2_SOLD,[],[],[],[],[],[],"[2055, 2055]",[],"[1036, 1036, 3340]",[],[1039],[1036],[],[],[],"[3134, 3133, 2055]",[],[2055],[],[],"[1036, 1036]",[],[3134],"[2055, 2055]",[],[],"[1001, 1029]",[],[2031],[],"[1036, 3134, 1028]",[],[]
participant_2_UNDO,[],[],[],[],[],[],[],[],[],[],[],[],[],[],[],[],[],[],[],[],[],[],[],[],[],[],[],[],[],[],[],[],[]
participant_3_GOLD,500,500,584,860,1277,1483,1746,2088,2430,3471,3963,4212,4439,4920,5411,5773,6530,6946,7437,7929,8361,8849,9314,9766,10020,10700,10871,11529,12132,12799,13855,14898,15174
participant_3_CURRENTGOLD,500,0,84,360,27,233,496,838,130,1171,1663,272,4,485,976,313,1070,736,1227,244,676,339,804,1256,210,890,461,1120,1722,2389,845,1889,1924
participant_3_LEVEL,1,1,1,2,3,4,4,5,5,6,7,7,7,8,9,9,10,10,11,11,11,12,12,13,13,14,14,15,16,16,17,18,18
participant_3_MINIONSKILLED,0,0,3,12,18,23,30,41,45,55,67,75,81,86,95,102,112,125,138,151,165,179,190,204,207,219,222,241,248,265,278,290,293
participant_3_KILLS,0,0,0,0,0,0,0,0,0,0,1,1,1,1,2,3,3,4,4,4,4,7,7,7,8,8,9,11,12,12,12,12,13
participant_3_BUY,[],"[1055, 2003, 3340]",[],[],[],[],[],"[3057, 1036, 1042]",[],"[3051, 3067]",[],"[3078, 2055]",[],[3111],[],[],"[3077, 1036, 1036]",[],[3123],[],[],[3074],[],[3133],"[6609, 2420]",[],[1038],[],"[3026, 3133]",[],[],[],[]
participant_3_SOLD,[],[],[],[],[],[],[],[],[],"[1042, 1036]",[2003],"[2010, 3057, 3051, 3067]",[2055],"[2010, 2422]",[],[2010],[],[],[1036],[],[],"[3077, 1036]",[],[],"[3123, 3133, 1055]",[],[],[],"[1038, 2420]",[],[],[],[]
participant_3_UNDO,[],[],[],[],[],[],[],[],[],[],[],[],[],[],[],[],[],[],[],[],[],[],[],[],[],[],[],[],[],[],[],[],[]
participant_4_GOLD,500,500,563,717,1272,1448,1623,1797,2271,2787,3205,3346,3566,3726,4307,4531,5130,5408,5579,5720,5860,6347,6487,6658,6873,7100,7296,7839,8147,8531,9029,9534,9716
participant_4_CURRENTGOLD,500,25,88,242,797,213,388,562,671,787,1205,946,1166,226,807,106,705,433,604,95,235,722,612,783,148,375,572,564,222,606,1104,1609,1791
participant_4_LEVEL,1,1,1,2,3,4,4,5,5,6,6,7,7,7,8,8,9,9,9,10,10,11,11,12,12,13,13,14,14,15,16,16,16
participant_4_MINIONSKILLED,0,0,0,0,0,2,2,2,2,3,3,3,3,3,3,4,5,6,6,6,6,6,6,6,6,6,9,10,10,10,10,11,11
participant_4_KILLS,0,0,0,0,1,1,1,1,2,2,2,2,2,2,3,3,3,3,3,3,3,3,3,3,3,3,3,3,3,3,3,3,3
participant_4_BUY,[],"[3850, 3340, 2055]",[],[],[],"[1052, 1004, 2055]",[],[],[4642],"[1028, 3364]",[],[3067],[],"[6617, 1004]",[],"[1026, 2055]",[],[3114],[],[6616],[],[],[1004],[],[1026],[],[],[3114],[3504],[],[],[],[]
participant_4_SOLD,[],[],[2055],[],[],[],[2055],[],"[1004, 1052]",[3340],[3850],[1028],[],"[3067, 4642]",[],[],[],"[3851, 1004, 2055]",[],"[3114, 1026]",[],[],[],[],[],[],[],[1004],"[3114, 1026]",[],[],[],[]
participant_4_UNDO,[],[],[],[],[],[],[],[],[],[],[],[],[],[],[],[],[],[],[],[],[],[],[],[],[],[],[],[],[],[],[],[],[]
participant_5_GOLD,500,500,584,797,1155,1389,1624,2207,2806,3052,3530,4084,4466,5233,5542,5818,6044,6251,6423,6574,6939,7162,7443,7907,8272,8394,8636,8836,8958,9081,9343,9465,9505
participant_5_CURRENTGOLD,500,0,84,297,655,89,324,907,706,152,130,684,1066,1833,642,143,369,576,298,449,814,137,418,882,1247,369,611,5346,369,141,403,176,-4620
participant_5_LEVEL,1,1,1,3,4,5,5,6,7,7,8,8,9,9,10,10,11,11,11,11,11,11,11,12,13,13,13,13,13,13,14,14,14
participant_5_MINIONSKILLED,0,0,3,8,19,23,29,44,48,52,63,76,87,100,107,116,118,120,120,122,125,125,128,131,138,138,144,146,146,146,150,150,150
participant_5_KILLS,0,0,0,0,1,1,1,1,2,2,2,2,2,2,2,2,2,2,2,2,2,2,2,2,2,2,2,2,2,2,2,2,2
participant_5_BUY,[],"[3858, 3340, 2003, 2003]",[],[],[],"[3067, 2055]",[],[],[],[3047],[2055],[],"[1029, 2055]",[],[3190],[],"[1006, 1006]",[],"[3364, 1028]",[],[],"[3801, 1028]",[],[],[],[3109],"[1029, 2055]",[],[2055],[],[1033],[],[]
participant_5_SOLD,[],[],[],[2003],[2003],[],[2055],[],[],[],[2055],[],[],[],"[3067, 1029]",[2055],[],[],"[3340, 3858]",[],[],"[1028, 1006]",[],[],[],"[3801, 1006, 1028]",[],[],[],[],"[2055, 2055]",[],[]
participant_5_UNDO,[],[],[],[],[],[],[],[],[],[],[],[],[],[],[],[],[],[],[],[],[],[],[],[],[],[],[],[],[],[],[],[],[]
participant_6_GOLD,500,500,621,1018,1241,1568,1811,2487,3097,3405,3612,4100,5016,6095,6507,6815,7938,8539,9524,9831,10846,11776,11984,12639,13374,13734,15546,15818,15941,16148,16356,16656,16696
participant_6_CURRENTGOLD,500,0,121,518,41,368,611,1287,422,655,862,1350,2266,3345,3757,440,1563,2164,3149,66,1082,511,569,1224,59,420,132,404,526,734,942,1242,1221
participant_6_LEVEL,1,1,2,3,3,4,4,6,6,7,7,7,8,9,9,10,11,11,12,12,13,14,14,15,15,15,17,17,17,17,17,17,17
participant_6_MINIONSKILLED,0,0,0,0,0,1,1,2,2,2,2,3,3,10,10,10,15,20,23,23,45,49,49,54,58,63,68,68,68,68,68,74,74
participant_6_KILLS,0,0,0,0,0,0,0,1,2,2,2,3,5,5,5,5,7,7,8,8,9,10,10,10,11,11,15,15,15,15,15,15,15
participant_6_BUY,[],"[1035, 3340, 2031]",[],[],"[1036, 1036]",[],[],[],"[6670, 1018, 1037]","[3364, 2055]",[],[],[],[],[],"[6672, 3006, 1038]",[],[],[],"[3095, 1038, 1018, 2055, 2055]",[],[3031],"[2055, 2055]",[],"[3086, 2015]",[],"[3094, 1038]",[],[],[],[3363],[],[]
participant_6_SOLD,[],[],[],[],[],[],[],[],"[1036, 1036]","[3340, 1035]",[2055],[],[3364],[3513],[],"[6670, 1037]",[],[],[],"[3364, 1038, 2031]","[2055, 3513]","[2055, 1038, 1018]",[],[2055],[2055],[],"[3086, 2015]",[],[],[],[3364],[],[]
participant_6_UNDO,[],[],[],[],[],[],[],[],"[[0, 1018]]",[],[],[],[],[],[],[],[],[],[],[],[],[],[],[],[],[],[],[],[],[],[],[],[]
participant_7_GOLD,500,500,598,878,1078,1424,2067,2273,2914,3262,3553,4476,5170,6236,6505,6895,7719,8209,9131,9449,9724,9946,10596,11299,12004,12302,12556,12729,12851,12994,13418,13631,14571
participant_7_CURRENTGOLD,500,0,98,368,568,904,1537,118,349,687,978,1901,770,1836,405,795,1619,579,176,494,769,91,741,309,1014,367,621,794,966,1034,208,421,536
participant_7_LEVEL,1,1,1,3,4,5,6,7,8,9,9,10,10,11,11,12,13,13,13,14,14,14,14,15,15,15,16,16,16,16,16,16,17
participant_7_MINIONSKILLED,0,0,4,11,15,25,35,40,51,61,71,84,90,95,104,115,127,133,133,140,142,142,152,158,166,166,170,170,170,171,180,186,186
participant_7_KILLS,0,0,0,0,0,0,0,0,1,1,1,1,1,1,1,1,1,1,1,1,1,1,1,1,1,1,1,1,1,1,1,1,1
participant_7_BUY,[],"[1054, 2003, 3340]",[],[],[],"[1028, 1028]",[],[],"[6660, 1001, 1029]","[3076, 1029]",[3047],[],[],[],"[3105, 3105]","[3068, 2055]",[],[],[1033],[],[],[1011],[],[],[],[3075],[],[1029],"[3142, 3134, 1043]",[1036],[],[1036],[]
participant_7_SOLD,[],[],[],"[2010, 2003]",[],[],[],[2010],"[1028, 1028, 2010]",[1029],"[1001, 1029]",[],[],[],[],"[6660, 3105]",[],[],[2055],[],[],[],[],[],[],"[3076, 1011]",[],"[3068, 3075, 1029, 1033, 1054]",[],[],[],[],"[3142, 3134]"
participant_7_UNDO,[],[],[],[],[],[],[],[],[],[],[],[],[],[],"[[0, 3105]]",[],[],[],[],[],[],[],[],[],[],[],[],[],[],[],[],[],[]
participant_8_GOLD,500,500,542,885,1299,1694,2107,2439,3178,3389,3609,3961,4188,4703,4868,5298,5597,6013,6391,6654,6943,7166,7869,8292,8668,8834,9197,9391,9527,9906,10051,10173,10213
participant_8_CURRENTGOLD,500,0,42,385,99,444,857,1189,1928,2139,359,711,88,603,418,848,272,688,316,579,868,246,949,172,548,114,477,671,157,537,681,103,-37
participant_8_LEVEL,1,1,1,2,3,4,5,5,6,6,7,7,7,8,8,9,9,10,11,11,11,11,12,12,13,13,13,13,14,14,14,14,14
participant_8_MINIONSKILLED,0,0,1,11,17,30,44,56,62,64,70,80,86,94,96,110,117,127,130,138,140,140,149,149,154,154,164,165,166,170,171,171,171
participant_8_KILLS,0,0,0,0,0,0,0,0,0,0,0,0,0,0,0,0,0,0,0,0,0,0,1,1,1,1,1,1,1,1,1,1,1
participant_8_BUY,[],"[1055, 2003, 3340]",[],[],"[1036, 1036]",[2003],[],[],[],[],"[3134, 1036, 1053, 1036, 1001, 2003]",[],[6692],[],[1036],[],[1037],[],[3134],[],[],"[1018, 6676]",[],"[3009, 1018]",[],"[1042, 3086, 3363]",[],[1042],[2420],[],[],[2015],[]
participant_8_SOLD,[],[],[],[2003],[],[],[],[],[],[2003],"[1036, 1036, 1036]",[],"[3134, 1036, 1053]",[2003],[],[],[],[],[1036],[],[],"[1055, 3134, 1037, 1018]",[],[1001],[],"[1018, 1042, 3340]",[],[],[],[],[],[],[]
participant_8_UNDO,[],[],[],[],[],[],[],[],[],[],[],[],[],[],[],[],[],[],[],[],[],[],[],[],[],[],[],"[[0, 1042]]",[],[],[],[],[]
participant_9_GOLD,500,500,523,745,1301,1435,1626,1796,2387,2575,2737,3064,3397,4317,4553,4719,4924,5109,5296,5467,5844,6084,6225,6665,7003,7187,7328,7518,7658,7799,7961,8112,8157
participant_9_CURRENTGOLD,500,0,23,245,801,60,251,421,1012,100,187,514,471,1392,28,194,99,283,71,242,619,359,499,940,1278,362,128,318,383,524,236,387,432
participant_9_LEVEL,1,1,1,2,3,3,4,4,5,5,5,6,7,7,8,8,8,8,8,8,8,8,8,10,10,11,11,11,11,12,12,12,12
participant_9_MINIONSKILLED,0,0,0,3,4,4,7,10,10,10,12,14,14,15,17,19,20,20,20,22,24,24,24,24,26,26,26,26,26,26,27,27,27
participant_9_KILLS,0,0,0,0,0,0,1,1,2,2,2,3,4,6,6,6,7,8,10,10,10,10,10,11,12,13,13,13,13,13,13,13,14
participant_9_BUY,[],"[1056, 3340, 2003, 2003]",[],[],[],[],[],"[1082, 3145, 2055, 2031]",[1028],[],[],[],"[3152, 2055]",[],"[3020, 3108, 3191]",[],[],"[1011, 1026]","[4637, 2055]",[],[],[3108],[],"[3157, 1052]",[],[1058],[],[],[1042],[2055],[1058],[],[]
participant_9_SOLD,[],[],[],[],"[2003, 2003]",[],[],[],[],[2055],[],[],"[3145, 1028]",[2055],[2422],[],[],"[2031, 1056]","[1026, 1011]",[2055],[],[],[],"[3191, 3108]",[],[1052],[],[],"[1082, 1042]",[],[2055],[],[]
participant_9_UNDO,[],[],[],[],[],[],[],[],[],[],[],[],[],[],"[[0, 3108]]",[],[],[],[],[],[],[],[],[],[],[],[],[],[],[],[],[],[]
team0_KILLS,0,0,0,0,1,1,1,1,2,4,5,5,5,6,8,9,10,12,12,12,12,17,17,17,18,22,23,27,30,31,32,36,37
team0_CURRENTGOLD,2500,25,482,2000,2829,2457,2618,2547,1963,2906,5234,1538,2611,1509,4137,3338,2932,3170,2890,1994,2032,4069,3817,2950,1050,4002,2151,5148,3642,6597,4831,7095,7836
team0_TOTALGOLD,2500,2500,2957,4485,6064,7302,8613,9892,11968,14571,16899,17901,19479,20677,23315,25616,27575,29463,30683,32262,33500,38112,40010,41128,42648,46065,48063,51609,53694,56650,59733,62945,64119
team0_LEVEL,5,5,6,13,16,22,23,27,29,32,36,38,39,42,44,47,49,50,52,54,54,58,60,62,63,67,69,72,73,76,79,82,82
team0_SBIRES,0,0,11,40,56,84,109,136,162,186,218,236,267,282,308,330,345,365,378,417,433,454,481,500,504,532,543,582,592,617,635,670,673
team1_KILLS,0,0,0,0,1,1,2,3,7,7,7,9,12,14,14,14,17,18,21,21,22,23,24,25,27,28,32,32,32,32,32,32,33
team1_CURRENTGOLD,2500,0,368,1813,2164,1865,3580,3922,4417,3733,2516,5160,4661,9009,5250,2420,3922,4290,4010,1830,4152,1344,3176,3527,4146,1632,1969,7533,2401,2970,2470,2329,-2468
team1_TOTALGOLD,2500,2500,2868,4323,6074,7510,9235,11202,14382,15683,17041,19685,22237,26584,27975,29545,32222,34121,36765,37975,40296,42134,44117,46802,49321,50451,53263,54292,54935,55928,57129,58037,59142
team1_LEVEL,5,5,6,13,17,21,24,28,32,34,36,38,41,44,46,49,52,53,55,56,57,58,59,64,66,67,70,70,71,72,73,73,74
team1_SBIRES,0,0,8,33,55,83,116,152,173,189,218,257,280,314,334,370,397,420,426,445,476,480,502,516,542,547,572,575,576,581,596,608,608
delta_KILLS,0,0,0,0,0,0,-1,-2,-5,-3,-2,-4,-7,-8,-6,-5,-7,-6,-9,-9,-10,-6,-7,-8,-9,-6,-9,-5,-2,-1,0,4,4
delta_CURRENTGOLD,0,25,114,187,665,592,-962,-1375,-2454,-827,2718,-3622,-2050,-7500,-1113,918,-990,-1120,-1120,164,-2120,2725,641,-577,-3096,2370,182,-2385,1241,3627,2361,4766,10304
delta_TOTALGOLD,0,0,89,162,-10,-208,-622,-1310,-2414,-1112,-142,-1784,-2758,-5907,-4660,-3929,-4647,-4658,-6082,-5713,-6796,-4022,-4107,-5674,-6673,-4386,-5200,-2683,-1241,722,2604,4908,4977
delta_LEVEL,0,0,0,0,-1,1,-1,-1,-3,-2,0,0,-2,-2,-2,-2,-3,-3,-3,-2,-3,0,1,-2,-3,0,-1,2,2,4,6,9,8
delta_SBIRES,0,0,3,7,1,1,-7,-16,-11,-3,0,-21,-13,-32,-26,-40,-52,-55,-48,-28,-43,-26,-21,-16,-38,-15,-29,7,16,36,39,62,65
