name,frame_0,frame_1,frame_2,frame_3,frame_4,frame_5,frame_6,frame_7,frame_8,frame_9,frame_10,frame_11,frame_12,frame_13,frame_14,frame_15,frame_16,frame_17,frame_18,frame_19,frame_20,frame_21,frame_22
nameStamp,Tstart,Tearly,Tearly,Tearly,Tearly,Tearly,Tearly,Tearly,Tearly,Tearly,Tearly,Tearly,Tearly,Tmid,Tmid,Tmid,Tmid,Tmid,Tmid,Tmid,Tmid,Tmid,Tmid
timestamp,0,60025,120046,180069,240085,300111,360126,420150,480168,540189,600207,660237,720261,780286,840305,900326,960345,1020360,1080377,1140406,1200436,1260442,1320444
participant_0_GOLD,500,500,521,818,1071,1487,1736,2308,2688,3661,3804,4046,5491,6230,7268,7390,7984,8269,8552,8830,9294,9783,10342
participant_0_CURRENTGOLD,500,0,21,318,571,987,186,83,463,1436,229,471,1916,280,1318,250,844,204,487,765,1229,18,577
participant_0_LEVEL,1,1,1,3,4,5,6,7,7,8,8,9,10,10,11,11,12,12,12,12,13,13,13
participant_0_MINIONSKILLED,0,0,0,10,15,29,37,43,55,65,66,68,79,82,96,96,101,105,110,110,119,122,125
participant_0_KILLS,0,0,0,0,0,0,0,0,1,1,2,2,4,5,7,7,7,7,7,7,8,8,9
participant_0_BUY,[],"[1055, 3340, 2003]",[],[],[],[],[],"[6670, 2003, 2003, 2055]",[],[],[],"[1037, 1018]",[],"[6672, 1001, 1042]",[],"[3006, 1038]",[],[],"[3095, 1042]",[],"[3086, 1042]",[],[]
participant_0_SOLD,[],[],[],[],[2003],[],[],[],[2003],[2055],[2003],[],[],"[6670, 1018, 1037]",[],"[1001, 1042]",[],[],[1038],[],[1042],[],[]
participant_0_UNDO,[],[],[],[],[],[],[],[],[],[],[],[],[],[],[],[],[],[],[],[],[],[],[]
participant_1_GOLD,500,500,621,997,1283,1652,1945,2177,2492,2994,3252,3569,4366,4723,5405,5612,5960,6366,6674,6871,7270,7929,8512
participant_1_CURRENTGOLD,500,0,121,497,783,1152,1445,1677,1992,219,477,794,1591,1948,530,362,709,1116,1424,1621,2020,79,662
participant_1_LEVEL,1,1,2,3,3,4,4,5,6,6,7,7,8,9,9,10,10,10,11,11,12,12,13
participant_1_MINIONSKILLED,0,0,0,0,0,0,0,0,0,0,2,2,2,6,6,6,6,8,8,8,10,10,10
participant_1_KILLS,0,0,0,0,0,0,0,0,0,0,0,0,0,0,1,1,2,2,2,2,2,2,3
participant_1_BUY,[],"[3850, 2055]",[],[],[],[],[],[],[],[],[],"[3802, 3108, 2055, 3364]",[],[],[],"[6653, 3020]",[],[],[],"[3916, 1028, 1082]",[],[],[]
participant_1_SOLD,[],[],[2055],[],[],[],[],[],[],[3850],[],[3340],[2055],[],[],"[3802, 3108, 2422]",[3851],[],[],[],[],[],[]
participant_1_UNDO,[],[],[],[],[],[],[],[],[],[],[],[],[],[],[],[],[],[],[],"[[0, 1028]]",[],[],[]
participant_2_GOLD,500,500,591,804,948,1460,2039,2238,2840,3119,3241,3881,4222,4403,4660,5055,5597,6050,6172,6520,6901,7256,7863
participant_2_CURRENTGOLD,500,0,91,304,-37,475,369,568,1160,1429,-114,516,847,1028,1285,-170,322,775,-53,295,675,131,738
participant_2_LEVEL,1,1,1,3,3,4,5,5,6,7,7,8,8,9,9,9,10,10,10,10,11,11,12
participant_2_MINIONSKILLED,0,0,4,9,10,14,19,23,30,36,36,40,47,51,56,68,68,70,70,70,76,77,82
participant_2_KILLS,0,0,0,0,0,0,0,0,0,1,1,1,2,2,3,3,3,3,3,3,3,4,4
participant_2_BUY,[],"[1039, 1035, 2031, 3340]",[3364],[],[],[],[],[],[],"[6660, 1057, 1029, 2055]",[],[],[],[],"[6664, 3111]","[1029, 2055]",[],[],[],[],[],[3742],[]
participant_2_SOLD,[],[],[3340],[],[],[],[],[],[1035],[],[2055],[],[],[],"[6660, 1029, 1057]",[],[2055],"[3364, 3513]",[],[],[],[1029],[]
participant_2_UNDO,[],"[[0, 1039]]",[],[],[],[],[],[],[],[],[],[],[],[],[],[],[],[],[],[],[],[],[]
participant_3_GOLD,500,500,605,920,1127,1508,1687,2036,2673,2890,3610,3877,4848,5342,6304,6551,7526,8167,8325,8893,9413,9706,10297
participant_3_CURRENTGOLD,500,0,105,420,627,1008,1187,61,698,915,1635,427,1398,667,1629,76,1051,1692,150,718,39,331,922
participant_3_LEVEL,1,1,1,2,3,4,4,5,6,6,7,7,8,8,9,9,10,10,10,11,11,11,12
participant_3_MINIONSKILLED,0,0,5,14,19,32,35,46,54,60,74,79,90,95,95,101,122,133,135,142,143,147,152
participant_3_KILLS,0,0,0,0,0,0,0,1,1,1,1,1,2,4,5,5,6,6,6,6,6,6,7
participant_3_BUY,[],"[1054, 2003, 3340]",[],[],[],[],"[6660, 2003]","[1001, 1029, 2055]",[],[],"[3105, 2055, 2031]",[],[],"[3068, 3111, 3067, 2055]",[],[3211],[],"[3065, 2055, 3363]",[],[],[],"[3076, 1011, 1011]",[]
participant_3_SOLD,[],[],[],[],[],[2003],[],[],[],[2003],[1029],[2055],[],"[6660, 3105, 1001]",[],"[2031, 2055]",[],"[3211, 3067, 3340]",[],[2055],[],[1054],[]
participant_3_UNDO,[],[],[],[],[],[],[],[],[],[],"[[0, 2055]]",[],[],[],[],[],[],[],[],[],[],"[[0, 1011], [1054, 0]]",[]
participant_4_GOLD,500,500,563,737,992,1186,1361,1495,1984,2201,2559,2719,3239,3741,4611,4751,5377,5646,5815,6080,6249,6852,7560
participant_4_CURRENTGOLD,500,25,88,262,517,711,886,1020,1509,1726,2084,-81,439,941,1811,-99,527,797,965,80,249,852,1560
participant_4_LEVEL,1,1,1,2,3,4,4,4,5,5,6,6,7,8,8,8,9,9,9,9,10,10,11
participant_4_MINIONSKILLED,0,0,0,0,0,0,0,0,1,1,1,1,2,4,4,4,5,5,7,7,9,13,15
participant_4_KILLS,0,0,0,0,0,1,2,2,3,3,3,4,4,4,4,4,5,6,6,6,7,7,7
participant_4_BUY,[],"[1054, 2003, 3340]",[],[],[1052],[],"[1028, 2055, 2003, 2003, 2003]",[],[],[],"[4635, 1026, 1001]",[],[],[],[],"[4633, 3020]",[],[],[3191],[],[],[3108],[]
participant_4_SOLD,[],[],[],[2003],[],[],[],[2003],[],"[2003, 2003]","[2055, 1028, 1052]",[],[],[],[],"[4635, 1026, 1001]",[],[],[],[],[],[],[]
participant_4_UNDO,[],[],[],[],[],[],[],[],[],[],[],[],[],[],[],[],[],[],[],[],[],[],[]
participant_5_GOLD,500,500,584,881,1169,1382,1617,1935,2203,2712,3468,3713,3877,4055,4178,4594,4717,4909,5052,5321,5492,5803,5955
participant_5_CURRENTGOLD,500,0,84,381,669,882,1117,335,603,287,1043,488,652,830,220,636,759,151,294,563,734,695,297
participant_5_LEVEL,1,1,1,3,4,5,5,6,7,7,8,8,9,9,9,10,10,10,10,10,11,11,11
participant_5_MINIONSKILLED,0,0,3,13,20,26,32,43,48,50,59,61,64,67,67,81,81,86,87,91,94,100,101
participant_5_KILLS,0,0,0,0,0,0,0,0,0,0,0,0,0,0,1,1,1,1,1,1,2,2,2
participant_5_BUY,[],"[1055, 2003]",[],[],[],[],[],[3134],[],[1001],[],[3009],[],[],[],"[1036, 1053, 1036]",[],[],[],"[6692, 1036]",[],"[3134, 1018]",[]
participant_5_SOLD,[],[],[],[2003],[],[],[],[],[],[],[],[1001],[],[],[],[1036],[],[],[],"[3134, 1036, 1053]",[],[1036],[]
participant_5_UNDO,[],[],[],[],[],[],[],[],[],[],[],[],[],[],[],[],[],[],[],[],[],[],[]
participant_6_GOLD,500,500,621,1033,1291,1413,1756,2098,2425,2818,3398,3641,3857,4000,4173,4480,4603,4774,5036,5271,5585,5708,5872
participant_6_CURRENTGOLD,500,0,121,533,791,113,456,223,550,943,1523,1766,482,625,798,305,428,599,461,696,610,733,197
participant_6_LEVEL,1,1,2,3,3,3,4,5,5,6,7,7,7,8,8,8,8,9,9,10,10,10,10
participant_6_MINIONSKILLED,0,0,0,0,0,0,1,1,1,1,3,3,6,7,7,7,7,10,19,24,27,27,29
participant_6_KILLS,0,0,0,1,1,1,1,1,1,1,2,2,2,2,2,2,2,2,2,2,2,2,2
participant_6_BUY,[],"[1056, 2003, 2003]",[],[],[],[],"[1082, 1026, 2055]",[],"[1027, 1001]",[],[],[3802],[],[],[],[6655],[],[],[],[],[3041],[],[]
participant_6_SOLD,[],[],[],[2003],[2003],[],[],[2055],[],[],[],[1027],[],[],[],"[3802, 1026]",[],[],[],[],[1082],[],[]
participant_6_UNDO,[],[],[],[],[],[],[],[],[],[],[],[],[],[],[],[],[],[],[],[],[],[],[]
participant_7_GOLD,500,500,598,1260,1432,1659,1956,2361,2511,2902,3876,4041,4402,4524,4981,5313,5478,5754,5897,6112,6276,6497,6700
participant_7_CURRENTGOLD,500,0,98,760,932,1159,181,576,76,457,1431,646,997,1119,1566,648,813,1089,1232,1447,361,582,785
participant_7_LEVEL,1,1,1,3,4,5,5,6,6,7,8,9,9,9,10,10,10,10,10,11,11,11,11
participant_7_MINIONSKILLED,0,0,4,12,15,21,22,36,38,50,65,68,79,79,82,90,93,102,103,109,112,118,121
participant_7_KILLS,0,0,0,0,0,0,0,0,0,1,2,2,2,2,2,2,2,2,2,2,2,2,2
participant_7_BUY,[],"[1055, 2003, 3340]",[],[],[],[],[],[3051],[],"[3057, 2055, 2003]",[],[3067],[],[],[3078],[],[],[3047],[],[],[],[1036],[1053]
participant_7_SOLD,[],[],[],[],[],"[2003, 2010, 2010]",[],[],[2010],[],[2055],[2003],[],[],"[3057, 3051, 3067]",[],[],[2422],[],[],[],[],[1036]
participant_7_UNDO,[],[],[],[],[],[],[],[],[],[],[],[],[],[],[],[],[],[],[],[],[],[],[]
participant_8_GOLD,500,500,542,832,1134,1333,1617,1760,2056,2284,2476,2683,2805,3074,3881,4129,4273,4691,4945,5124,6500,6672,7080
participant_8_CURRENTGOLD,500,0,42,332,634,833,1117,160,456,384,576,183,305,574,1381,379,523,941,1195,174,1550,372,780
participant_8_LEVEL,1,1,1,2,3,4,4,5,5,6,6,7,7,7,8,8,8,9,9,9,10,10,10
participant_8_MINIONSKILLED,0,0,1,10,18,22,32,33,41,47,51,56,56,65,70,74,75,84,88,91,102,105,111
participant_8_KILLS,0,0,0,0,0,0,0,0,0,0,0,0,0,0,0,0,0,0,0,0,0,0,0
participant_8_BUY,[],"[1039, 2031, 3340, 3364]",[],[],[],"[1028, 1028]",[],"[6660, 1001, 2055]",[],[],[],[],[3105],[],[],[3111],[],[],[1028],[],[3067],[],[3068]
participant_8_SOLD,[],[3340],[],[],[],[],[],"[1028, 1028]",[1039],[],"[3364, 3513]",[2055],[],[],[],[1001],[],[],[],[],[1028],[],"[6660, 3105]"
participant_8_UNDO,[],[],[],[],[],[],[],[],[],[],[],[],[],[],[],[],[],[],[],[],[],[],[]
participant_9_GOLD,500,500,543,677,872,1026,1221,1355,1549,1724,1976,2151,2402,2563,3153,3294,3522,3682,3863,4003,4184,4385,4525
participant_9_CURRENTGOLD,500,0,43,177,372,526,721,120,314,489,741,251,102,263,853,594,822,132,313,453,634,235,125
participant_9_LEVEL,1,1,1,2,3,4,4,4,5,5,6,6,6,6,7,7,7,8,8,8,8,9,9
participant_9_MINIONSKILLED,0,0,0,0,0,0,0,0,0,0,3,3,5,5,5,5,7,7,7,7,7,8,8
participant_9_KILLS,0,0,0,0,0,0,0,0,0,0,0,0,0,0,1,1,1,1,1,1,1,1,1
participant_9_BUY,[],"[3850, 3340, 2003, 2003]",[],[],[],[],[],"[1004, 1052, 2003]",[],[],[],"[4642, 1001]",[1028],[],[],[3067],[],"[3364, 6617]",[],[],[],[3158],[1004]
participant_9_SOLD,[],[],[],[],[],"[2003, 2003]",[],[],[],[2003],[],"[1004, 1052]",[3850],[],[],[1028],[],"[3340, 3067, 4642]",[],[],[],"[3851, 1001]",[]
participant_9_UNDO,[],[],[],[],[],[],[],[],[],[],[],[],[],[],[],[],[],[],[],[],[],[],[]
team0_KILLS,0,0,0,0,0,1,2,3,5,6,7,8,12,15,20,20,23,24,24,24,26,27,30
team0_CURRENTGOLD,2500,25,426,1801,2461,4333,4073,3409,5822,5725,4311,2127,6191,4864,6573,419,3453,4584,2973,3479,4212,1411,4459
team0_TOTALGOLD,2500,2500,2901,4276,5421,7293,8768,10254,12677,14865,16466,18092,22166,24439,28248,29359,32444,34498,35538,37194,39127,41526,44574
team0_LEVEL,5,5,6,13,16,21,23,26,30,32,35,37,41,44,46,47,51,51,52,53,57,57,61
team0_SBIRES,0,0,9,33,44,75,91,112,140,162,179,190,220,238,257,275,302,321,330,337,357,369,384
team1_KILLS,0,0,0,1,1,1,1,1,1,2,4,4,4,4,6,6,6,6,6,6,7,7,7
team1_CURRENTGOLD,2500,0,388,2183,3398,3513,3592,1414,1999,2560,5314,3334,2538,3411,4818,2562,3345,2912,3495,3333,3889,2617,2184
team1_TOTALGOLD,2500,2500,2888,4683,5898,6813,8167,9509,10744,12440,15194,16229,17343,18216,20366,21810,22593,23810,24793,25831,28037,29065,30132
team1_LEVEL,5,5,6,13,17,21,22,26,28,31,35,37,38,39,42,43,43,46,46,48,50,51,51
team1_SBIRES,0,0,8,35,53,69,87,113,128,148,181,191,210,223,231,257,263,289,304,322,342,358,370
delta_KILLS,0,0,0,-1,-1,0,1,2,4,4,3,4,8,11,14,14,17,18,18,18,19,20,23
delta_CURRENTGOLD,0,25,38,-382,-937,820,481,1995,3823,3165,-1003,-1207,3653,1453,1755,-2143,108,1672,-522,146,323,-1206,2275
delta_TOTALGOLD,0,0,13,-407,-477,480,601,745,1933,2425,1272,1863,4823,6223,7882,7549,9851,10688,10745,11363,11090,12461,14442
delta_LEVEL,0,0,0,0,-1,0,1,0,2,1,0,0,3,5,4,4,8,5,6,5,7,6,10
delta_SBIRES,0,0,1,-2,-9,6,4,-1,12,14,-2,-1,10,15,26,18,39,32,26,15,15,11,14
