name,frame_0,frame_1,frame_2,frame_3,frame_4,frame_5,frame_6,frame_7,frame_8,frame_9,frame_10,frame_11,frame_12,frame_13,frame_14,frame_15,frame_16,frame_17,frame_18,frame_19,frame_20,frame_21
nameStamp,Tstart,Tearly,Tearly,Tearly,Tearly,Tearly,Tearly,Tearly,Tearly,Tearly,Tearly,Tearly,Tearly,Tearly,Tearly,Tmid,Tmid,Tmid,Tmid,Tmid,Tmid,Tmid
timestamp,0,60003,120030,180048,240054,300070,360101,420121,480131,540140,600165,660186,720213,780238,840260,900288,960288,1020305,1080312,1140326,1200354,1260354
participant_0_GOLD,500,500,562,846,1116,1642,1950,2722,2999,3333,3793,3999,4375,5413,5785,6103,6936,7178,7551,7791,8046,8315
participant_0_CURRENTGOLD,500,0,62,346,616,92,400,1172,1449,1783,2243,274,650,1688,2060,428,1261,1503,1876,2116,318,407
participant_0_LEVEL,1,1,1,3,4,5,6,7,8,8,9,10,10,11,11,12,12,12,13,13,13,13
participant_0_MINIONSKILLED,0,0,2,11,19,24,32,43,52,61,67,72,83,94,102,102,116,117,117,117,117,117
participant_0_KILLS,0,0,0,0,0,0,0,0,0,0,0,0,0,1,2,2,2,2,3,3,3,3
participant_0_BUY,[],"[3850, 2003, 2003, 3340]",[],[],"[1052, 2031]",[],"[3108, 2055]",[],[],[],"[3113, 3364]",[],"[3905, 1052]",[],[],"[3191, 3020, 1052]",[],[],[3157],[],[],[]
participant_0_SOLD,[],[],[2003],"[2003, 2010]",[],[2010],[1052],[2010],[],"[2055, 3850]",[3340],[],"[3108, 3113]",[],[],"[1052, 2422]",[],[3851],"[3191, 1052]",[],[],[]
participant_0_UNDO,[],[],[],[],[],[],[],[],[],[],[],[],[],[],[],[],[],[],[],[],[],[]
participant_1_GOLD,500,500,620,948,1171,1483,1683,2025,2316,2493,2951,3117,3424,4245,4617,4761,5112,5495,5823,6265,6747,6920
participant_1_CURRENTGOLD,500,0,120,448,21,333,533,875,1166,1343,1801,1967,2274,3095,3467,3611,3962,4345,23,465,947,1120
participant_1_LEVEL,1,1,2,3,3,4,4,5,5,5,6,6,7,8,9,9,9,9,10,10,11,11
participant_1_MINIONSKILLED,0,0,0,0,0,0,0,0,0,0,0,0,0,0,0,1,3,3,3,3,3,3
participant_1_KILLS,0,0,0,0,0,1,1,1,1,1,2,2,2,2,2,3,3,5,6,7,8,9
participant_1_BUY,[],"[1036, 3340, 2031]",[],[],[1006],[1036],[],[],"[3077, 1001, 2055]",[],[],[],"[3134, 1036, 1036]",[3133],[],[3147],[],"[3117, 1036, 1036]",[],"[3133, 1036]",[],[]
participant_1_SOLD,[],[],[],[],[],[],[],[],"[1036, 1006, 1036]",[2055],[],[],[],"[1036, 1036]",[],"[3134, 3133]",[],[1001],[],"[1036, 1036]",[],[]
participant_1_UNDO,[],[],[],[],[],[],[],[],[],[],[],[],[],[],[],[],[],[],[],[],[],[]
participant_2_GOLD,500,500,597,825,1039,1461,1783,1947,2139,2481,3056,3721,3906,4387,4609,5076,5427,6206,6649,7047,7327,7704
participant_2_CURRENTGOLD,500,0,97,325,389,461,783,947,289,631,1206,1871,256,337,559,326,677,56,499,147,427,804
participant_2_LEVEL,1,1,1,3,4,4,5,6,6,7,8,8,9,9,9,10,10,10,11,11,11,11
participant_2_MINIONSKILLED,0,0,4,10,15,15,24,26,30,40,48,58,62,73,76,82,86,89,89,92,93,98
participant_2_KILLS,0,0,0,2,2,3,3,3,4,6,6,8,8,8,10,10,10,11,11,12,13,13
participant_2_BUY,[],"[1055, 2003, 3340]",[],[],"[3133, 1036, 1053, 1001]",[],[1043],[2055],[],[3153],[],[],"[3006, 1036]",[],[3133],[],[],[1038],[],[3508],[],[]
participant_2_SOLD,[],[],[],[2003],[1036],[],[],[],[],"[2055, 1053, 1043]",[],[],[1001],[],[1036],[],[],[],[],"[1038, 3133]",[],[]
participant_2_UNDO,[],[],[],[],"[[0, 3133]]",[],[],[],[],[],[],[],[],[],[],[],[],[],[],[],[],[]
participant_3_GOLD,500,500,562,1579,1807,2424,2878,3133,3780,4462,4614,5348,5485,5851,6574,6717,7160,7742,8114,8534,9078,9321
participant_3_CURRENTGOLD,500,0,62,1079,107,724,178,358,1005,287,439,1173,160,526,499,642,1085,367,739,259,803,1046
participant_3_LEVEL,1,1,1,3,3,4,4,5,6,6,6,6,6,7,8,8,8,9,9,10,10,11
participant_3_MINIONSKILLED,0,0,2,11,17,25,30,38,48,48,49,52,53,62,63,64,68,69,76,79,83,87
participant_3_KILLS,0,0,0,0,0,0,0,0,0,0,0,0,0,2,2,2,2,2,2,2,3,3
participant_3_BUY,[],"[3340, 2031, 1039]",[],[],[3706],[],[],[],[],[],[],[],[],[],[],[],[],[],"[1402, 3020, 1026, 3113, 1082]",[],[],[]
participant_3_SOLD,[],[],[],[],[1039],[],[],[],[],[],[],[],[],[],[],[3340],[3513],[],[3706],[],[],[]
participant_3_UNDO,[],[],[],[],[],[],[],[],[],[],[],[],[],[],[],[],[],[],[],[],[],[]
participant_4_GOLD,500,500,567,1064,1220,1608,1867,2149,2454,2883,3044,3561,3745,4086,5689,5991,6443,6892,7173,7497,7790,8021
participant_4_CURRENTGOLD,500,0,67,564,135,523,243,524,829,1258,569,1086,185,526,2129,531,983,1432,348,672,966,1196
participant_4_LEVEL,1,1,1,2,2,4,4,5,5,6,6,6,6,7,8,8,9,9,9,10,10,10
participant_4_MINIONSKILLED,0,0,0,0,1,2,2,4,7,10,11,12,13,13,22,27,30,32,32,34,34,35
participant_4_KILLS,0,0,0,0,0,1,1,2,2,2,3,3,3,4,4,5,5,5,6,6,7,7
participant_4_BUY,[],"[1054, 2003, 3340]",[],[],[],"[1036, 1036, 1001, 2003]",[],[],[],[],[],"[3077, 3111, 1028, 1036]",[],[],[],"[3057, 3044, 1042, 1028]",[],[],[],[],"[3078, 3052]",[]
participant_4_SOLD,[],[],[],[],[],[2003],[],[],[2003],[],[],"[1036, 1036, 1001]",[],[],[],"[1028, 1036]",[],[],[],[],"[3057, 3044, 1054, 1028]",[]
participant_4_UNDO,[],[],[],[],[],[],[],[],[],[],[],[],[],[],[],"[[0, 1042]]",[],[],[],[],[],[]
participant_5_GOLD,500,500,541,797,1127,1270,1533,1725,2014,2249,2576,2762,3109,3231,3466,3588,4117,4239,4361,4540,4847,4921
participant_5_CURRENTGOLD,500,0,41,297,627,335,598,175,464,699,226,412,759,231,466,588,1117,389,111,290,597,236
participant_5_LEVEL,1,1,1,2,4,4,5,6,6,7,8,8,9,9,9,9,10,10,10,10,11,11
participant_5_MINIONSKILLED,0,0,1,9,18,19,27,31,38,45,54,58,68,68,74,74,86,86,86,90,90,90
participant_5_KILLS,0,0,0,0,0,0,0,0,0,0,0,0,0,0,0,0,0,0,0,0,0,0
participant_5_BUY,[],"[3858, 2003, 2003, 3340]",[],[],[],[],[1028],[],[1001],[3801],[],[1027],[],[],[3024],[],[],[],[3009],[],[],[]
participant_5_SOLD,[],[],[],"[2003, 2010, 2003]",[],[2010],[],[2010],[],[1028],[],[],[],[],[1027],[],[],[],[1001],[],[3858],[]
participant_5_UNDO,[],[],[],[],[],[],[],[],[],[],[],[],[],[],[],[],[],[],[],[],[],[]
participant_6_GOLD,500,500,620,828,1271,1668,1791,2018,2240,2363,2600,2833,3090,3226,3449,3601,3832,4034,4156,4279,4401,4475
participant_6_CURRENTGOLD,500,0,120,328,771,1168,291,518,740,138,375,608,390,526,224,376,607,9,131,254,376,450
participant_6_LEVEL,1,1,2,2,2,4,4,4,4,4,5,5,6,6,6,6,7,7,7,7,7,8
participant_6_MINIONSKILLED,0,0,0,0,0,1,1,1,1,1,2,2,2,3,3,4,4,4,4,4,4,4
participant_6_KILLS,0,0,0,0,1,1,1,1,1,1,1,1,1,1,1,1,1,1,1,1,1,1
participant_6_BUY,[],"[1041, 2031, 3340]",[],[],[],[],"[1001, 1036, 1036]",[],[],"[3706, 3364, 2055]",[],[],"[3133, 2055]",[],[1400],[],[],[3111],[],[],[],[]
participant_6_SOLD,[],[],[],[],[],[],[],[],[],"[1041, 3340]",[2055],[],"[1036, 1036]",[],"[3133, 3706]",[2055],[],[1001],[],[],[],[]
participant_6_UNDO,[],[],[],[],[],[],[],[],[],[],[],[],[],[],[],[],[],[],[],[],[],[]
participant_7_GOLD,500,500,600,905,1240,1662,1895,2209,2794,3083,3317,3491,3885,4007,4228,4433,5574,5730,5899,6174,6354,6428
participant_7_CURRENTGOLD,500,0,100,405,740,62,295,609,244,533,167,341,735,107,328,533,1174,1330,699,974,1154,1228
participant_7_LEVEL,1,1,1,3,4,4,5,6,7,8,8,8,9,9,9,10,10,10,10,11,11,11
participant_7_MINIONSKILLED,0,0,4,12,15,15,22,33,39,48,54,57,63,63,69,74,77,79,80,84,88,88
participant_7_KILLS,0,0,0,0,0,0,0,0,0,0,0,0,0,0,0,0,0,0,0,0,0,0
participant_7_BUY,[],"[1054, 2003, 3340]",[],[],[],[1052],[],[3145],[],[],[3067],[],[],[3152],[],[],[],[1026],[1028],[],[],[1052]
participant_7_SOLD,[],[],[],[2003],[],[],[],[1052],[],[],[],[],[],"[3145, 3067]",[],[],[],[],[],[],[],[]
participant_7_UNDO,[],[],[],[],[],[],[],[],[],[],[],[],[],[],[],[],[],[],[],[],[],[]
participant_8_GOLD,500,500,583,1104,1332,1517,1710,1944,2164,2378,2684,2807,3196,3409,4655,4903,5152,5365,5608,5766,5999,6073
participant_8_CURRENTGOLD,500,0,83,604,257,67,260,494,714,928,1234,82,471,684,355,253,502,715,258,696,929,823
participant_8_LEVEL,1,1,1,2,3,3,4,4,5,6,6,6,7,8,8,9,9,9,10,10,10,10
participant_8_MINIONSKILLED,0,0,3,9,16,19,23,29,35,40,48,48,61,67,70,77,84,90,96,98,100,100
participant_8_KILLS,0,0,0,1,1,1,1,1,1,1,1,1,1,1,2,2,2,2,2,2,2,2
participant_8_BUY,[],"[1055, 2003]",[],[],"[1027, 1004, 2003, 2003]",[3070],[],[],[],[],[],"[1037, 1001, 2003, 2003]",[],[],"[3004, 3024, 3057, 3024]",[1027],[],[],[3057],[3158],[],[]
participant_8_SOLD,[],[],[],[2003],[],"[1027, 1004]",[],[2003],[2003],[],[],[],[],[2003],"[3070, 1037]",[],[],[2003],[1027],"[1001, 1055]",[],[]
participant_8_UNDO,[],[],[],[],[],[],[],[],[],[],[],[],[],[],"[[0, 3024], [0, 3057]]",[],[],[],[],"[[0, 3057]]",[],[]
participant_9_GOLD,500,500,522,657,820,954,1152,1286,1448,1583,1761,1896,2122,2256,2622,2756,2926,3060,3258,3392,3620,3704
participant_9_CURRENTGOLD,500,0,22,157,320,454,252,386,248,133,311,96,322,456,272,406,576,710,307,442,670,754
participant_9_LEVEL,1,1,1,1,3,3,4,4,4,5,5,5,6,6,6,7,8,8,8,8,8,8
participant_9_MINIONSKILLED,0,0,0,0,2,2,3,3,5,5,7,7,9,9,10,10,12,12,16,16,17,17
participant_9_KILLS,0,0,0,0,0,1,1,1,2,2,2,2,2,2,2,2,3,3,3,3,3,3
participant_9_BUY,[],"[1036, 2031, 3340]",[],[],[],"[3134, 1036]",[],[],[3179],[],[3009],[],[],"[1036, 1028]",[],[],[3044],[],[3067],[],[],[]
participant_9_SOLD,[],[],[],[],[],[1036],[],[],"[3134, 1036]",[],[2422],[],[],[],[],[],"[1028, 1036]",[],[],[],[],[]
participant_9_UNDO,[],[],[],[],[],[],[],[],[],[],[],[],[],[],[],[],[],[],[],[],[],[]
team0_KILLS,0,0,0,2,2,5,5,6,7,9,11,13,13,17,20,22,22,25,28,30,34,35
team0_CURRENTGOLD,2500,0,408,2762,1268,2133,2137,3876,4738,5302,6258,6371,3525,6172,8714,5538,7968,7703,3485,3659,3461,4573
team0_TOTALGOLD,2500,2500,2908,5262,6353,8618,10161,11976,13688,15652,17458,19746,20935,23982,27274,28648,31078,33513,35310,37134,38988,40281
team0_LEVEL,5,5,6,14,16,21,23,28,30,32,35,36,38,42,45,47,48,49,52,54,55,56
team0_SBIRES,0,0,8,32,52,66,88,111,137,159,175,194,211,242,263,276,303,310,317,325,330,340
team1_KILLS,0,0,0,1,2,3,3,3,4,4,4,4,4,4,5,5,6,6,6,6,6,6
team1_CURRENTGOLD,2500,0,366,1791,2715,2086,1696,2182,2410,2431,2313,1539,2677,2004,1645,2156,3976,3153,1506,2656,3726,3491
team1_TOTALGOLD,2500,2500,2866,4291,5790,7071,8081,9182,10660,11656,12938,13789,15402,16129,18420,19281,21601,22428,23282,24151,25221,25601
team1_LEVEL,5,5,6,10,16,18,22,24,26,30,32,32,37,38,38,41,44,44,45,46,47,48
team1_SBIRES,0,0,8,30,51,56,76,97,118,139,165,172,203,210,226,239,263,271,282,292,299,299
delta_KILLS,0,0,0,1,0,2,2,3,3,5,7,9,9,13,15,17,16,19,22,24,28,29
delta_CURRENTGOLD,0,0,42,971,-1447,47,441,1694,2328,2871,3945,4832,848,4168,7069,3382,3992,4550,1979,1003,-265,1082
delta_TOTALGOLD,0,0,42,971,563,1547,2080,2794,3028,3996,4520,5957,5533,7853,8854,9367,9477,11085,12028,12983,13767,14680
delta_LEVEL,0,0,0,4,0,3,1,4,4,2,3,4,1,4,7,6,4,5,7,8,8,8
delta_SBIRES,0,0,0,2,1,10,12,14,19,20,10,22,8,32,37,37,40,39,35,33,31,41
