name,frame_0,frame_1,frame_2,frame_3,frame_4,frame_5,frame_6,frame_7,frame_8,frame_9,frame_10,frame_11,frame_12,frame_13,frame_14,frame_15,frame_16,frame_17,frame_18,frame_19,frame_20,frame_21,frame_22,frame_23,frame_24,frame_25,frame_26,frame_27,frame_28,frame_29,frame_30,frame_31,frame_32,frame_33,frame_34
nameStamp,Tstart,Tearly,Tearly,Tearly,Tearly,Tearly,Tearly,Tearly,Tearly,Tearly,Tearly,Tearly,Tearly,Tearly,Tmid,Tmid,Tmid,Tmid,Tmid,Tmid,Tmid,Tmid,Tmid,Tmid,Tend,Tend,Tend,Tend,Tend,Tend,Tend,Tend,Tend,Tend,Tend
timestamp,0,60023,120045,180079,240097,300098,360109,420139,480143,540153,600174,660201,720226,780227,840234,900262,960290,1020298,1080316,1140346,1200361,1260364,1320395,1380397,1440421,1500443,1560453,1620455,1680469,1740492,1800505,1860535,1920559,1980578,2040578
participant_0_GOLD,500,500,542,832,1134,1592,2193,2329,2667,3490,3887,4482,4815,6331,6675,7261,9072,9280,9537,10092,10516,10638,11560,11878,12179,12698,13313,13783,14777,14899,15667,16468,16590,17267,17795
participant_0_CURRENTGOLD,500,0,42,332,634,1092,1693,179,517,1340,187,782,382,1898,1741,828,2639,247,504,710,1133,505,328,645,947,166,780,1251,2245,267,535,1336,338,1015,1362
participant_0_LEVEL,1,1,1,3,4,5,6,6,7,8,8,9,10,10,11,11,12,12,12,13,13,13,13,14,14,14,15,15,15,15,16,17,17,17,17
participant_0_MINIONSKILLED,0,0,1,10,18,35,42,43,52,62,62,78,87,98,107,117,121,121,124,132,141,141,141,148,154,169,170,174,178,178,181,188,188,196,197
participant_0_KILLS,0,0,0,0,1,2,3,4,4,4,4,4,4,5,6,6,6,6,6,6,6,7,7,7,7,7,7,7,7,7,7,7,7,8,9
participant_0_BUY,[],"[1035, 3340, 2031]",[],[],"[1001, 1036, 1036]",[],[],"[6670, 1018]","[1053, 3364]",[],[],"[6673, 1036, 1042]",[],"[3086, 1042]",[1042],[],[3046],[1018],[],[],[3006],[],[],[],[1038],[],[],[],[],"[3031, 1036]",[],[],[1038],[],[]
participant_0_SOLD,[],[],[],[],[],[],[],"[1036, 1036]",[3340],[1035],[],"[6670, 1018, 1053]",[],[1042],[],[],"[1042, 3086, 1042]",[],[],[],[1001],[],[2031],[],[],[],[],[],[],"[1038, 1018]",[],[],[],[],[]
participant_0_UNDO,[],[],[],[],[],[],[],[],[],[],[],"[[0, 1036]]",[],[],[],[],[],[],[],[],[],[],[],[],[],[],[],[],[],[],[],[],[],[],[]
participant_1_GOLD,500,500,621,1018,1561,2265,2886,3428,3710,4068,4443,4651,4935,6072,6621,6904,7201,7543,7781,8227,8468,8901,9108,9481,9838,10164,10514,10958,11486,11609,12461,12984,13258,14151,14827
participant_1_CURRENTGOLD,500,0,121,518,61,765,1386,728,110,468,843,151,425,362,611,894,291,33,271,717,159,592,858,1231,289,614,964,1408,1937,209,1062,1585,559,1452,2077
participant_1_LEVEL,1,1,2,3,3,4,5,5,5,6,7,7,7,8,9,9,9,10,10,11,11,11,11,12,12,13,13,13,14,14,15,16,16,17,17
participant_1_MINIONSKILLED,0,0,0,0,0,3,8,8,9,9,11,11,17,17,17,19,19,19,20,22,29,30,35,46,46,48,52,55,59,59,59,62,69,72,76
participant_1_KILLS,0,0,0,0,0,0,1,1,2,2,3,3,3,3,3,4,4,4,4,4,4,4,4,7,7,7,8,8,8,10,10,10,10,10,10
participant_1_BUY,[],"[1056, 2003, 2003]",[],[],"[1001, 2003]",[],[3020],[1052],[],"[3145, 2055]",[1028],[],[1026],[],[1052],[],[],[3152],[],[1028],[],[1026],[],[4637],[3916],[],[],[1058],[],[],[1058],[],"[3089, 1052]",[],[]
participant_1_SOLD,[],[],[],[2003],[2003],[2003],[1001],[],[],"[1052, 2055]",[],[],[],[],[],[],[],"[3145, 1028, 1026]",[],[],[],[],[],"[1026, 1028, 1052]",[],[],[],[],[],[],[1056],[],"[1058, 1058]",[],[]
participant_1_UNDO,[],[],[],[],[],[],[],[],[],[],[],[],[],[],[],[],[],[],[],[],[],[],[],[],[],[],[],[],[],[],[],[],[],[],[]
participant_2_GOLD,500,500,598,839,1146,1436,2100,2278,2785,3070,3583,3900,4085,4391,4576,4998,5251,5485,5830,6143,6440,6833,6955,9178,9336,9668,10387,10649,10894,11617,12296,13107,13229,13602,14420
participant_2_CURRENTGOLD,500,0,98,339,296,586,440,183,690,275,388,695,30,336,86,508,761,95,440,353,650,193,315,1223,581,913,1632,644,890,1612,1202,2012,400,773,1460
participant_2_LEVEL,1,1,1,3,4,5,6,6,7,7,8,9,9,9,9,10,10,11,11,11,12,12,12,14,14,14,15,15,15,15,16,16,16,17,17
participant_2_MINIONSKILLED,0,0,4,11,13,23,34,37,42,48,53,61,65,73,76,76,79,86,95,103,113,127,127,131,133,141,150,151,155,155,162,174,174,185,197
participant_2_KILLS,0,0,0,0,0,0,0,0,0,0,0,0,2,2,2,2,2,2,3,3,3,3,3,5,5,5,5,5,6,6,6,6,6,6,6
participant_2_BUY,[],"[1055, 2003, 3340]",[],[],[],[],"[1053, 2055]",[],[],[],[6670],[],[],[6673],"[1042, 1042]",[],[3006],[],[],[],"[3086, 1042]","[1037, 3363]",[],[3085],[],[],[],[1038],[],[],"[1037, 1018]",[],[3031],[],[]
participant_2_SOLD,[],[],[],[],[2003],[],[],[],[],[2055],[],[],[],"[6670, 1053]",[],[],"[1042, 2422]",[],[],[],[1042],[3340],[],"[1037, 3086, 1042]",[],[],[],[],[],[],[1055],[],"[1038, 1037, 1018]",[],[]
participant_2_UNDO,[],[],[],[],[],[],[],[],[],[],[],[],[],[],[],[],[],[],[],[],[],[],[],[],[],[],[],[],[],[],[],[],[],[],[]
participant_3_GOLD,500,500,584,818,1067,1383,1677,1876,2277,2561,2900,3184,4084,4376,4623,4892,5345,5718,6455,6788,7049,7207,7538,8346,8680,8985,9284,9516,10171,10578,11126,11612,11852,12444,12749
participant_3_CURRENTGOLD,500,0,84,318,567,883,202,401,802,1086,125,409,1309,401,48,317,270,643,1380,1713,774,57,388,171,505,810,1109,41,696,1103,357,842,458,1049,1174
participant_3_LEVEL,1,1,1,2,3,4,4,5,5,6,6,7,8,8,8,9,9,10,10,11,11,11,11,12,12,13,13,13,14,14,15,15,15,16,16
participant_3_MINIONSKILLED,0,0,3,10,18,25,26,30,43,53,58,68,77,84,87,92,93,104,115,120,124,126,134,136,145,155,158,158,165,168,168,170,173,186,188
participant_3_KILLS,0,0,0,0,0,0,0,0,0,0,1,1,1,1,1,1,1,1,1,1,1,1,1,1,1,1,1,1,2,2,2,2,2,2,2
participant_3_BUY,[],"[3850, 2003, 2003, 3340]",[],[],[2055],[],"[1001, 2055]",[],[],[],[],"[3801, 3047, 2055, 2055, 3364]",[],"[1028, 1004, 2055]",[3067],[],[],[],[],[],"[3114, 2055]",[],[3107],[],[],[],[],"[3109, 2055]",[],[],"[2055, 2055, 3066]",[4642],[],[],[]
participant_3_SOLD,[],[],[],[],[],[2003],[2055],[],[],"[2055, 2003]",[],"[1001, 3340]","[3850, 2055]",[],[1028],[],[2055],[],[2055],[],"[1004, 2055]",[],"[3067, 3114]",[3851],[],[],[],[3801],[],[],[2055],[],[],[2055],[]
participant_3_UNDO,[],[],[],[],[],[],[],[],[],[],[],[],[],[],[],[],[],[],[],[],[],[],[],[],[],[],[],[],[],[],"[[0, 3066]]",[],[],[],[]
participant_4_GOLD,500,500,563,737,932,1241,1376,1767,1952,2137,2631,2766,3299,3490,3803,3943,4084,4224,4554,4825,4995,5263,5432,6011,6161,6302,6553,6834,7316,7681,8151,8408,8659,8900,9187
participant_4_CURRENTGOLD,500,0,63,237,357,666,426,817,1002,1187,1681,216,749,215,128,268,409,549,879,1150,695,963,432,1011,1162,1302,1553,109,591,956,1276,483,734,975,1262
participant_4_LEVEL,1,1,1,2,2,3,4,4,5,5,6,6,7,7,8,8,8,8,9,9,9,10,10,11,12,12,12,12,13,14,14,14,14,15,15
participant_4_MINIONSKILLED,0,0,0,0,0,0,0,2,4,5,5,5,6,6,8,8,8,8,8,8,9,9,11,11,11,11,11,12,12,12,13,14,16,16,16
participant_4_KILLS,0,0,0,0,0,0,1,1,1,2,3,3,3,4,4,5,9,9,9,9,9,9,10,10,10,10,12,12,14,14,15,16,16,17,18
participant_4_BUY,[],"[1055, 2003, 3340]",[],[],[],[],[],"[3057, 1001, 1036, 1042]",[],[],"[3051, 3067, 1029]",[],[3078],[],[3047],"[1043, 1053, 1042, 1042]",[],"[3153, 3044, 1057]",[],[1036],[],[3051],[3091],[],[],"[3066, 2138]",[],[],[],[4401],[2138],[],"[1031, 2138]",[],[]
participant_4_SOLD,[],[],[],[2003],[],[],[],[],[],[],"[1042, 1036]",[],"[3057, 3051, 3067]",[],"[1001, 1029]",[],[],"[1053, 1042, 1042]",[],[],[],[1036],"[3051, 1057]",[],[],[2138],[],[],[],[3066],[2138],[],"[1055, 2138]",[],[]
participant_4_UNDO,[],[],[],[],[],[],[],[],[],[],[],[],[],[],[],"[[0, 1043]]",[],"[[0, 3044]]",[],[],[],[],[],[],[],[],[],[],[],[],[],[],[],[],[]
participant_5_GOLD,500,500,563,720,864,1049,1235,1789,1911,2271,2571,2794,3035,3277,3656,3883,4034,4309,4865,5297,5619,5962,6391,6813,7050,7207,7351,7473,7595,8713,9183,9425,10060,10328,10397
participant_5_CURRENTGOLD,500,0,63,170,314,499,85,639,161,21,321,544,785,107,486,63,214,489,1045,477,124,467,896,168,405,562,106,228,350,68,463,706,1340,308,197
participant_5_LEVEL,1,1,1,2,3,4,4,5,5,6,7,7,7,8,8,9,9,9,10,10,10,11,11,12,12,12,12,12,12,13,13,14,14,14,14
participant_5_MINIONSKILLED,0,0,2,4,5,6,9,22,22,33,35,35,42,46,57,63,65,70,75,83,89,93,107,107,112,114,115,115,115,115,127,130,133,137,137
participant_5_KILLS,0,0,0,0,0,0,0,0,0,0,0,0,0,0,0,0,0,0,0,0,0,0,0,0,0,0,0,0,0,1,1,1,2,2,2
participant_5_BUY,[],"[1055, 2003, 3340]",[],[2003],[],[],"[1042, 1042]",[],[1018],"[6677, 1042]",[],[],[],[3124],[],"[1036, 1042]",[],[],[],"[6670, 1036]","[1018, 2055]",[],[],[6673],[],[],"[1001, 1042]",[],[],"[3006, 1053]",[2055],[],[],[1038],[]
participant_5_SOLD,[],[],[],[2003],[],[2003],[],[],[],"[1042, 1042]",[],[3340],[],"[1055, 6677, 1018, 1042]",[],[3513],[],[],[],"[3340, 1036, 1042]",[],[3513],[],"[6670, 1018, 1036]",[2055],[],[],[],[],"[1001, 1042]",[],[],[],[],[]
participant_5_UNDO,[],[],[],[],[],[],[],[],[],[],[],[],[],[],[],[],[],[],[],[],[],[],[],[],[],[],[],[],[],[],[],[],[],[],[]
participant_6_GOLD,500,500,521,833,1781,2275,2562,3089,3807,4191,4797,5089,5643,5926,6688,6961,7248,7505,7833,8417,8764,9877,10781,11203,11616,11851,11973,12248,12556,12811,13168,13507,13651,14018,14087
participant_6_CURRENTGOLD,500,0,21,333,156,650,527,1054,1772,2156,1012,304,858,266,1028,451,738,995,473,1057,154,1267,2171,743,1157,1391,263,539,906,311,669,608,751,219,177
participant_6_LEVEL,1,1,1,2,3,4,5,5,6,7,8,8,9,9,9,10,10,10,11,11,11,12,13,13,13,14,14,14,14,15,15,15,15,16,16
participant_6_MINIONSKILLED,0,0,0,0,0,0,2,2,2,2,4,4,4,4,5,5,5,5,5,8,9,10,11,11,12,19,19,24,25,25,25,27,28,33,33
participant_6_KILLS,0,0,0,1,1,1,1,1,2,2,2,2,2,3,5,5,6,8,8,8,8,10,10,11,11,11,11,11,11,11,11,11,11,11,11
participant_6_BUY,[],"[3854, 3340, 2003, 2003]",[],[],[],[],"[1036, 1001, 3117, 2055]",[1036],"[3134, 2055]",[],[],[],"[1036, 1036, 1053, 2055, 3364]",[],[],"[6692, 1036, 2055, 2055]",[],[3133],"[3179, 1029]",[2055],[1031],[],[],"[3026, 2055]",[],[],[],"[2055, 2055]",[],[2055],"[4641, 2055]",[],[2055],[],[]
participant_6_SOLD,[],[],[],[2003],[2003],[],[2055],[],[1036],[],[2055],[3854],"[1036, 3340]",[],[],"[2055, 3134, 1053]",[],[1036],"[2055, 3133]",[3855],[1029],[],[2055],[1031],[],[2055],[2055],[2055],[],[],"[4641, 2055, 2055]",[4641],[2055],[],[]
participant_6_UNDO,[],[],[],[],[],[],"[[0, 1001], [0, 1036]]",[],[],[],[],[],"[[0, 1036]]",[],[],[],[],[],[],[],[],[],[],[],[],[],[],[],[],"[[0, 2055]]",[],[],[],[],[]
participant_7_GOLD,500,500,612,916,1347,1714,1984,2218,2645,2987,3451,3935,4453,4708,5593,5862,6735,7584,7994,8883,9250,9598,9901,10323,10803,11058,11243,11379,11577,12521,12858,13254,13885,14174,14243
participant_7_CURRENTGOLD,500,0,112,416,312,669,939,273,690,237,186,660,1198,253,1128,147,595,1444,269,1158,676,1024,1326,33,514,768,154,290,487,1431,79,475,1105,595,543
participant_7_LEVEL,1,1,1,3,4,5,6,6,7,8,8,9,9,10,11,11,11,12,12,13,13,14,14,15,15,15,15,15,15,16,16,16,17,17,17
participant_7_MINIONSKILLED,0,0,5,15,22,33,41,48,58,68,70,79,89,97,112,121,121,129,133,148,156,160,166,166,178,181,185,186,186,191,195,204,215,220,220
participant_7_KILLS,0,0,0,0,0,0,0,0,0,0,1,1,1,1,2,2,4,5,5,6,6,6,6,6,6,6,6,6,6,7,7,7,7,7,7
participant_7_BUY,[],"[1056, 2003, 2003, 3340]",[],[],"[3070, 2055, 2003]",[],[],[3108],[],"[1052, 1027]",[3802],[],[],"[6653, 3363]",[],[1058],"[1027, 2055]",[],"[3003, 1052, 2055, 2055]",[],[1026],[],[],[4637],[],[],"[2420, 2055, 2055]",[],[],[],[3157],[],[],[3916],[]
participant_7_SOLD,[],[],[],"[2003, 2003]",[],[2003],[],[],[],[],"[1052, 1027]",[],[2055],"[3802, 3108, 3340]",[],[],[],[2055],"[3070, 1058, 1027]","[3003, 2055]",[],[],[2055],"[1026, 1052]",[],[],[],[2420],[],[],"[1056, 2421]",[],[],[],[]
participant_7_UNDO,[],[],[],[],[],[],[],[],[],[],[],[],[],[],[],[],[],[],[],[],[],[],[],[],[],[],[],[],[],[],[],[],[],[],[]
participant_8_GOLD,500,500,685,1233,1641,1891,2162,2357,2629,3082,3255,3586,3789,4236,4687,5109,5282,5606,6104,6739,7181,8008,8230,8653,8955,9233,9792,10188,10919,11340,11632,12240,12758,12937,13506
participant_8_CURRENTGOLD,500,0,185,733,1141,1391,87,282,554,1007,105,436,164,611,387,209,382,706,4,639,1081,1908,2130,778,55,334,892,413,575,996,1167,600,319,497,856
participant_8_LEVEL,1,1,1,3,3,4,4,5,5,6,6,6,7,7,8,8,9,9,9,10,10,11,12,12,12,13,13,13,14,14,15,15,15,15,16
participant_8_MINIONSKILLED,0,0,3,15,26,30,38,42,42,56,59,68,73,86,92,92,92,99,109,114,118,127,127,127,134,135,140,144,152,157,162,164,169,173,173
participant_8_KILLS,0,0,0,0,2,3,3,4,5,5,6,6,7,7,8,8,8,8,8,9,9,11,13,13,13,13,13,13,13,13,13,13,13,13,13
participant_8_BUY,[],"[1039, 3340, 2031]",[],[],"[3145, 2055]",[],[1028],[],[],[],[3152],"[3057, 1001]",[],"[3020, 2055, 3364]",[],[3113],[],[],[1026],[],"[3100, 2420]",[],[],[3157],[],[],[4630],[],[],[1026],[],[3135],[],[1011],[]
participant_8_SOLD,[],[],[],[],[],[2055],[],[],[1039],[],"[3145, 1028]",[],[],"[1001, 3340]",[],[],[],[],"[2055, 2031]",[],"[3057, 3113, 1026]",[],[],"[2420, 2421]",[],[],[],[],[2031],[],[],"[4630, 1026]",[],[],[]
participant_8_UNDO,[],[],[],[],[],[],[],[],[],[],[],[],[],[],[],[],[],[],"[[2031, 0]]",[],[],[],[],[],[],[],[],[],[],[],[],[],[],[],[]
participant_9_GOLD,500,500,565,1161,1432,1629,1785,1940,2869,3097,3357,3636,3790,4293,5449,5708,6334,8130,8496,8938,9242,10030,10246,11031,11181,11382,11522,11714,11869,12047,12187,12412,12711,12886,12966
participant_9_CURRENTGOLD,500,0,65,661,932,1129,210,15,119,347,607,886,65,568,1724,283,909,1955,321,688,492,1280,1496,206,356,557,697,740,894,1072,37,263,486,661,741
participant_9_LEVEL,1,1,1,2,3,4,4,4,4,5,6,6,6,7,8,8,9,10,10,11,11,12,12,13,13,13,13,13,14,14,14,14,14,15,15
participant_9_MINIONSKILLED,0,0,2,4,7,8,9,10,10,12,19,23,24,26,29,29,29,33,33,36,37,37,37,37,38,40,40,43,44,44,44,45,48,50,50
participant_9_KILLS,0,0,0,0,0,0,0,0,0,0,0,0,0,0,0,1,1,1,1,2,2,2,2,2,2,2,2,2,3,3,3,4,4,4,5
participant_9_BUY,[],"[1083, 3340, 2003]",[],[],[],[],"[3006, 1036, 2055, 2003]",[],[],[],"[6670, 2003, 2055]",[],"[1036, 2055, 2003]",[],"[1053, 2055, 2003]",[1018],[],[],"[6673, 1018]",[3363],[],[],[],"[3086, 1037, 1042]",[3085],[],[],"[6677, 2055]",[1018],[],[1042],"[3124, 2055]",[3123],[],[]
participant_9_SOLD,[],[3599],[],[2003],[],[],[],[2055],[2003],[],"[1036, 2055]",[],[2003],[2055],"[2003, 1036]",[2003],[],[],"[6670, 1018, 1053]",[3340],[2055],[],[],[1018],"[1037, 3086, 1042]",[],[],[],[2055],[],[1083],"[6677, 1018, 1042, 2055]",[],[],[]
participant_9_UNDO,[],[],[],[],[],[],[],[],[],[],[],[],[],[],[],[],[],[],[],[],[],[],[],[],[],[],[],[],[],[],[],[],[],[],[]
team0_KILLS,0,0,0,0,1,2,5,6,7,8,11,11,13,15,16,18,22,22,23,23,23,24,25,30,30,30,33,33,37,39,40,41,41,43,45
team0_CURRENTGOLD,2500,0,408,1744,1915,3992,4147,2308,3121,4356,3224,2253,2895,3212,2614,2815,4370,1567,3474,4643,3411,2310,2321,4281,3484,3805,6038,3453,6359,4147,4432,6258,2489,5264,7335
team0_TOTALGOLD,2500,2500,2908,4244,5840,7917,10232,11678,13391,15326,17444,18983,21218,24660,26298,27998,30953,32250,34157,36075,37468,38842,40593,44894,46194,47817,50051,51740,54644,56384,59701,62579,63588,66364,68978
team0_LEVEL,5,5,6,13,16,21,25,26,29,32,35,38,41,42,45,47,48,51,52,55,56,57,57,63,64,66,68,68,71,72,76,78,78,82,82
team0_SBIRES,0,0,8,31,49,86,110,120,150,177,189,223,252,278,295,312,320,338,362,385,416,433,448,472,489,524,541,550,569,572,583,608,620,655,674
team1_KILLS,0,0,0,1,3,4,4,5,7,7,9,9,10,11,15,16,19,22,22,25,25,29,31,32,32,32,32,32,33,35,35,36,37,37,38
team1_CURRENTGOLD,2500,0,446,2313,2855,4338,1848,2263,3296,3768,2231,2830,3070,1805,4753,1153,2838,5589,2112,4019,2527,5946,8019,1928,2487,3612,2112,2210,3212,3878,2415,2652,4001,2280,2514
team1_TOTALGOLD,2500,2500,2946,4863,7065,8558,9728,11393,13861,15628,17431,19040,20710,22440,26073,27523,29633,33134,35292,38274,40056,43475,45549,48023,49605,50731,51881,53002,54516,57432,59028,60838,63065,64343,65199
team1_LEVEL,5,5,5,12,16,21,23,25,27,32,35,36,38,41,44,46,48,50,52,55,55,60,62,65,65,67,67,67,69,72,73,74,75,77,78
team1_SBIRES,0,0,12,38,60,77,99,124,134,171,187,209,232,259,295,310,312,336,355,389,409,427,448,448,474,489,499,512,522,532,553,570,593,613,613
delta_KILLS,0,0,0,-1,-2,-2,1,1,0,1,2,2,3,4,1,2,3,0,1,-2,-2,-5,-6,-2,-2,-2,1,1,4,4,5,5,4,6,7
delta_CURRENTGOLD,0,0,-38,-569,-940,-346,2299,45,-175,588,993,-577,-175,1407,-2139,1662,1532,-4022,1362,624,884,-3636,-5698,2353,997,193,3926,1243,3147,269,2017,3606,-1512,2984,4821
delta_TOTALGOLD,0,0,-38,-619,-1225,-641,504,285,-470,-302,13,-57,508,2220,225,475,1320,-884,-1135,-2199,-2588,-4633,-4956,-3129,-3411,-2914,-1830,-1262,128,-1048,673,1741,523,2021,3779
delta_LEVEL,0,0,1,1,0,0,2,1,2,0,0,2,3,1,1,1,0,1,0,0,1,-3,-5,-2,-1,-1,1,1,2,0,3,4,3,5,4
delta_SBIRES,0,0,-4,-7,-11,9,11,-4,16,6,2,14,20,19,0,2,8,2,7,-4,7,6,0,24,15,35,42,38,47,40,30,38,27,42,61
