name,team0,team1
win,Win,Fail
firstBlood,True,False
firstTower,True,False
firstInhibitor,False,True
firstBaron,True,False
firstDragon,False,True
firstRiftHerald,False,True
towerKills,11,6
inhibitorKills,3,1
baronKills,1,1
dragonKills,3,3
riftHeraldKills,0,1
