name,team0,team1
win,Fail,Win
firstBlood,True,False
firstTower,True,False
firstInhibitor,False,True
firstBaron,True,False
firstDragon,True,False
firstRiftHerald,True,False
towerKills,5,8
inhibitorKills,0,1
baronKills,1,0
dragonKills,4,1
riftHeraldKills,1,0
