name,team0,team1
win,Fail,Win
firstBlood,True,False
firstTower,False,True
firstInhibitor,False,True
firstBaron,False,False
firstDragon,False,True
firstRiftHerald,False,False
towerKills,3,8
inhibitorKills,0,1
baronKills,0,0
dragonKills,1,4
riftHeraldKills,0,0
