name,frame_0,frame_1,frame_2,frame_3,frame_4,frame_5,frame_6,frame_7,frame_8,frame_9,frame_10,frame_11,frame_12,frame_13,frame_14,frame_15,frame_16,frame_17,frame_18,frame_19,frame_20
nameStamp,Tstart,Tearly,Tearly,Tearly,Tearly,Tearly,Tearly,Tearly,Tearly,Tearly,Tearly,Tearly,Tearly,Tearly,Tmid,Tmid,Tmid,Tmid,Tmid,Tmid,Tmid
timestamp,0,60022,120042,180052,240073,300090,360107,420118,480133,540147,600149,660162,720162,780185,840191,900213,960214,1020235,1080252,1140288,1200296
participant_0_GOLD,500,500,521,741,1319,1567,1746,2011,2231,2602,2822,3118,3240,3776,4070,4730,4902,5332,5908,6058,6485
participant_0_CURRENTGOLD,500,0,21,241,19,267,446,711,931,102,322,618,40,576,120,780,302,432,508,358,785
participant_0_LEVEL,1,1,1,2,4,5,5,6,7,8,8,9,9,10,10,11,11,11,12,12,13
participant_0_MINIONSKILLED,0,0,0,6,8,13,16,21,26,31,37,44,44,51,57,66,66,80,89,91,96
participant_0_KILLS,0,0,0,0,0,0,0,0,0,0,1,2,2,2,2,3,3,3,3,3,4
participant_0_BUY,[],"[1055, 2003, 3340]",[],[],[1036],[],[],[1018],[],"[1042, 1036]",[6670],[],[],"[1037, 6672]",[],[1042],[],[3006],[1042],[],[]
participant_0_SOLD,[],[],[],[],[],[],[],[],[2003],[],"[1036, 1042, 1036]",[],[],"[3400, 6670, 1018, 1037]",[],[],[],"[1042, 2422]",[],[],[]
participant_0_UNDO,[],[],[],[],[],[],[],[],[],[],[],[],[],[],[],[],[],[],[],[],[]
participant_1_GOLD,500,500,637,913,1356,1753,2088,2530,2942,3509,3852,4289,4496,4891,5686,6099,6827,7569,8066,9071,9748
participant_1_CURRENTGOLD,500,0,137,413,856,1253,1588,2030,2442,3009,3352,3789,196,591,1386,1799,2527,3269,516,1521,2198
participant_1_LEVEL,1,1,2,2,3,4,5,5,6,6,7,8,8,9,10,11,11,11,12,13,13
participant_1_MINIONSKILLED,0,0,0,0,0,0,0,0,0,0,0,3,3,11,15,15,15,15,15,18,19
participant_1_KILLS,0,0,0,0,0,0,0,0,0,0,0,1,1,3,3,4,4,5,5,5,5
participant_1_BUY,[],"[3854, 2003, 2003]",[],[],[],[],[],"[1036, 1036, 2031]",[],[],[],[],"[3134, 3133, 3364]",[],"[6691, 1001, 1036]",[],"[3134, 1036]",[3133],[],[],[]
participant_1_SOLD,[],[],[],[],[],[],[2003],[2003],[],[],[],[],"[3854, 1036, 1036, 3340]",[3400],"[3134, 3133]",[3400],[1036],[1036],[],[],[]
participant_1_UNDO,[],[],[],[],[],[],[],[],[],[],[],[],[],[],[],[],[],[],[],[],[]
participant_2_GOLD,500,500,591,832,1088,1657,1899,2394,2781,3144,3413,3664,3948,4112,4540,4921,5704,5826,6507,6630,7345
participant_2_CURRENTGOLD,500,0,91,332,588,1147,89,584,961,1314,1583,534,808,172,590,971,1754,41,357,80,795
participant_2_LEVEL,1,1,1,3,4,5,6,6,7,8,8,9,9,9,10,10,11,11,12,12,12
participant_2_MINIONSKILLED,0,0,4,11,18,24,31,35,47,58,67,74,80,83,97,108,121,121,130,130,136
participant_2_KILLS,0,0,0,0,0,1,1,1,1,1,1,1,1,1,1,1,1,1,2,2,3
participant_2_BUY,[],"[1056, 2003, 2003, 3340]",[],[],[],[],[3802],[],[],[],[],"[1026, 1001, 2055, 2055]",[],[3020],[],[],[],"[6655, 1052, 2055, 2055]",[3916],[1028],[]
participant_2_SOLD,[],[],[],[],[2003],[2003],[],[],[],[],[],[2055],[2055],[1001],[],[],[],"[3802, 1026]",[1052],[],[]
participant_2_UNDO,[],[],[],[],[],[],[],[],[],[],[],[],[],[],[],[],[],[],[],[],[]
participant_3_GOLD,500,500,584,867,1099,1326,1512,1655,1958,2116,2552,3073,3272,3928,4065,4543,4745,5141,5314,5520,6168
participant_3_CURRENTGOLD,500,0,84,367,249,476,662,205,508,16,152,673,872,28,165,343,545,441,314,520,1168
participant_3_LEVEL,1,1,1,2,3,3,4,4,5,5,5,6,6,7,7,8,8,9,9,9,10
participant_3_MINIONSKILLED,0,0,3,12,16,20,24,25,32,34,35,39,43,44,45,51,52,55,55,60,68
participant_3_KILLS,0,0,0,0,1,1,1,1,1,1,1,1,1,2,2,2,2,2,2,2,2
participant_3_BUY,[],"[1054, 2003, 3340]",[],[],"[1028, 3067]",[],[],[],[],[6029],[],[],"[1036, 1001, 2003]",[],[3044],[],"[6630, 1033]",[1029],[3047],"[1033, 1029]",[]
participant_3_SOLD,[],[],[],[2003],[1028],[],[],[],[],[],[],[],[],[],"[2003, 1036]",[3400],"[6029, 3044, 3067]",[],"[1001, 1029]",[],[]
participant_3_UNDO,[],[],[],[],[],[],[],[],[],[],[],[],[],[],[],[],[],[],[],"[[0, 1033]]",[]
participant_4_GOLD,500,500,523,699,869,1094,1285,1419,1643,1827,2197,3005,3143,4392,4542,5553,5743,6483,6674,6999,7630
participant_4_CURRENTGOLD,500,0,23,199,369,594,785,69,293,477,847,1655,293,1542,42,1053,143,133,324,649,1280
participant_4_LEVEL,1,1,1,2,3,4,4,4,5,5,6,7,7,8,8,9,9,9,10,10,11
participant_4_MINIONSKILLED,0,0,0,2,4,7,10,10,12,15,17,23,23,27,28,34,34,34,34,36,41
participant_4_KILLS,0,0,0,0,0,0,0,1,1,2,2,2,2,2,4,4,5,6,7,9,10
participant_4_BUY,[],"[1035, 2031, 3340]",[],[],[],[],[],[],[],[],[],[],"[6692, 1029, 1001]",[],[],[],[],[],"[6333, 1033]",[],[]
participant_4_SOLD,[],[],[],[],[],[],[],[],[1035],[],[],[],[],[],[],[],[],[3400],[1029],[],[]
participant_4_UNDO,[],[],[],[],[],[],[],[],[],[],[],[],[],[],[],[],[],[],[],[],[]
participant_5_GOLD,500,500,542,892,1148,1501,1851,2120,2681,2846,3194,3436,3719,3954,4140,4402,5101,5370,5583,5741,5863
participant_5_CURRENTGOLD,500,0,42,392,163,516,866,1135,1696,96,444,686,969,79,265,527,1226,320,533,256,378
participant_5_LEVEL,1,1,1,3,4,5,6,7,7,7,8,9,9,10,10,10,11,11,11,12,12
participant_5_MINIONSKILLED,0,0,1,12,19,30,40,49,62,64,75,81,91,95,99,103,115,124,130,132,132
participant_5_KILLS,0,0,0,0,0,0,1,1,1,1,1,2,2,2,2,2,2,4,4,4,4
participant_5_BUY,[],"[1055, 1036, 2031, 3340]",[],[],[],"[3134, 2055]",[],"[1036, 1036, 3133]",[],"[1001, 2055, 2003]",[],[],[],[],"[6691, 3134, 3047]",[],[1036],[],"[1037, 1053, 1028]",[],[]
participant_5_SOLD,[],[],[],[],[],[1036],[2055],"[2031, 1036, 1036]",[],[2055],[2003],[],[],[],"[3134, 3133, 1001]",[],[],[],[1036],[],[]
participant_5_UNDO,[],"[[0, 1055]]",[],[],[],[],[],[],[],[],[],[],[],[],[],[],[],[],"[[0, 1053]]",[],[]
participant_6_GOLD,500,500,621,1018,1405,1575,1888,2182,2450,2598,3095,3418,3645,4222,4450,4657,5029,5633,5890,6254,6461
participant_6_CURRENTGOLD,500,0,121,518,905,300,613,907,275,423,920,1243,1470,2047,375,582,954,1558,1815,2179,201
participant_6_LEVEL,1,1,2,3,4,4,5,5,6,6,7,7,8,8,9,9,9,10,11,11,11
participant_6_MINIONSKILLED,0,0,0,0,0,0,0,0,0,0,0,0,0,8,8,8,9,16,16,20,20
participant_6_KILLS,0,0,0,0,0,0,0,1,1,1,2,2,2,3,3,3,3,4,5,5,5
participant_6_BUY,[],"[1055, 3364, 3340, 2003]",[],[],[],[],[],"[6670, 1055, 2003]",[],[],[],"[1018, 1053, 2003]",[],"[6673, 1001, 2055]",[],[3006],[],[3134],[],[],[1037]
participant_6_SOLD,[],[3364],[],[],[],[2003],[],[],[],[],[2003],[],[],"[6670, 1018, 1053]",[],"[2055, 1001]",[],[],[2003],[],[]
participant_6_UNDO,[],[],[],[],[],[],[],[],[],[],[],[],[],[],[],[],[],[],[],[],[]
participant_7_GOLD,500,500,598,997,1295,1473,2310,2453,2812,3122,3454,4387,4659,5712,5986,6255,6550,7931,8143,8266,8646
participant_7_CURRENTGOLD,500,0,98,487,785,138,965,68,417,292,624,1547,1819,2872,236,505,450,1831,768,891,1271
participant_7_LEVEL,1,1,1,3,4,5,6,6,7,7,8,9,9,10,10,10,10,11,11,11,12
participant_7_MINIONSKILLED,0,0,4,18,28,31,42,43,54,62,74,81,90,99,104,109,112,119,120,120,131
participant_7_KILLS,0,0,0,0,0,0,0,0,0,0,0,0,0,0,0,1,1,1,1,1,1
participant_7_BUY,[],"[3850, 3340, 2003, 2003]",[],[],[],[],[1027],[],[],[],[3802],[],[],[],[],[1026],[],[],[6655],[1001],[]
participant_7_SOLD,[],[],[],[],"[2003, 2010]",[2010],[2003],[],[],[],"[1027, 3850]",[],[],[],[],[],[],[],"[3802, 1026]",[],[]
participant_7_UNDO,[],[],[],[],[],[],[],[],[],[],[],[],[],[],[],[],[],[],[],[],[]
participant_8_GOLD,500,500,584,916,1200,1511,1739,2401,2739,3037,3799,3936,4297,5070,5312,5695,6011,6753,7265,7687,7809
participant_8_CURRENTGOLD,500,0,84,416,700,1011,1239,101,439,737,1499,86,447,245,487,70,386,28,540,962,209
participant_8_LEVEL,1,1,1,2,3,4,4,5,6,6,7,7,8,8,9,9,9,10,10,11,11
participant_8_MINIONSKILLED,0,0,3,15,25,33,39,49,59,69,79,80,90,91,98,103,107,107,111,120,120
participant_8_KILLS,0,0,0,0,0,0,0,0,0,0,0,0,0,0,0,0,0,0,0,0,0
participant_8_BUY,[],"[1056, 2003, 2003, 3340]",[],[],"[1052, 2003]",[],[],[],[],"[4635, 1026, 2003]",[],[],[],"[4633, 2055]",[],[],[],"[3020, 2055]",[],[1052],[]
participant_8_SOLD,[],[],[],[],"[2003, 2003]",[],[],[],[],"[2003, 1052]",[],[],[],"[4635, 1026]",[2055],[],[],[],[],[],[]
participant_8_UNDO,[],[],[],[],[],[],[],[],[],[],[],[],[],[],[],[],[],[],[],[],[]
participant_9_GOLD,500,500,523,697,892,1066,1241,1375,1611,1826,2142,2323,2463,2695,2857,3377,3568,3783,4174,4335,4475
participant_9_CURRENTGOLD,500,0,23,197,392,566,391,525,761,976,342,523,663,895,1057,727,918,1133,274,135,275
participant_9_LEVEL,1,1,1,2,3,4,4,4,5,5,6,6,7,7,7,8,8,8,9,9,9
participant_9_MINIONSKILLED,0,0,0,0,0,0,0,0,3,3,3,3,3,6,7,7,7,7,8,8,8
participant_9_KILLS,0,0,0,0,0,0,0,0,0,0,0,0,0,0,0,0,0,0,0,0,0
participant_9_BUY,[],"[1039, 2031, 3340, 1035, 2031, 3340]",[],[],[],"[1028, 1001, 2055]",[],[],"[6660, 1029]",[],[],[],[],[],[3068],[],[],[],[],[],"[1026, 1011, 1052]"
participant_9_SOLD,[],[],[],[],[],[],[],[],[1028],[1035],[],"[2055, 3340]",[],[3513],"[6660, 1029]",[],[],[],[],[],[]
participant_9_UNDO,[],"[[3340, 0], [0, 2031], [0, 1039]]",[],[],[],[],[],[],[],[],[],[],[],[],[],[],[],[],[],[],[]
team0_KILLS,0,0,0,0,1,2,2,3,3,4,5,7,7,10,12,14,15,17,19,21,24
team0_CURRENTGOLD,2500,0,356,1552,2081,3737,3570,3599,5135,4918,6256,7269,2209,2909,2303,4946,5271,4316,2019,3128,6226
team0_TOTALGOLD,2500,2500,2856,4052,5731,7397,8530,10009,11555,13198,14836,17149,18099,21099,22903,25846,27921,30351,32469,34278,37376
team0_LEVEL,5,5,6,11,17,21,24,25,30,32,34,39,39,43,45,49,50,51,55,56,59
team0_SBIRES,0,0,7,31,46,64,81,91,117,138,156,183,193,216,242,274,288,305,323,335,360
team1_KILLS,0,0,0,0,0,0,1,2,2,2,3,4,4,5,5,6,6,9,10,10,10
team1_CURRENTGOLD,2500,0,368,2010,2945,2531,4074,2736,3588,2524,3829,4085,5368,6138,2420,2411,3934,4870,3930,4423,2334
team1_TOTALGOLD,2500,2500,2868,4520,5940,7126,9029,10531,12293,13429,15684,17500,18783,21653,22745,24386,26259,29470,31055,32283,33254
team1_LEVEL,5,5,6,13,18,22,25,27,31,31,36,38,41,43,45,46,47,50,52,54,55
team1_SBIRES,0,0,8,45,72,94,121,141,178,198,231,245,274,299,316,330,350,373,385,400,411
delta_KILLS,0,0,0,0,1,2,1,1,1,2,2,3,3,5,7,8,9,8,9,11,14
delta_CURRENTGOLD,0,0,-12,-458,-864,1206,-504,863,1547,2394,2427,3184,-3159,-3229,-117,2535,1337,-554,-1911,-1295,3892
delta_TOTALGOLD,0,0,-12,-468,-209,271,-499,-522,-738,-231,-848,-351,-684,-554,158,1460,1662,881,1414,1995,4122
delta_LEVEL,0,0,0,-2,-1,-1,-1,-2,-1,1,-2,1,-2,0,0,3,3,1,3,2,4
delta_SBIRES,0,0,-1,-14,-26,-30,-40,-50,-61,-60,-75,-62,-81,-83,-74,-56,-62,-68,-62,-65,-51
