name,team0,team1
win,Fail,Win
firstBlood,False,True
firstTower,False,True
firstInhibitor,False,True
firstBaron,True,False
firstDragon,False,True
firstRiftHerald,False,True
towerKills,3,11
inhibitorKills,0,3
baronKills,1,0
dragonKills,0,5
riftHeraldKills,0,2
