name,team0,team1
win,Fail,Win
firstBlood,True,False
firstTower,False,True
firstInhibitor,False,True
firstBaron,False,True
firstDragon,True,False
firstRiftHerald,True,False
towerKills,8,8
inhibitorKills,0,1
baronKills,0,1
dragonKills,3,1
riftHeraldKills,1,0
