name,frame_0,frame_1,frame_2,frame_3,frame_4,frame_5,frame_6,frame_7,frame_8,frame_9,frame_10,frame_11,frame_12,frame_13,frame_14,frame_15,frame_16,frame_17,frame_18,frame_19,frame_20,frame_21,frame_22,frame_23,frame_24,frame_25,frame_26,frame_27,frame_28
nameStamp,Tstart,Tearly,Tearly,Tearly,Tearly,Tearly,Tearly,Tearly,Tearly,Tearly,Tearly,Tearly,Tearly,Tmid,Tmid,Tmid,Tmid,Tmid,Tmid,Tmid,Tmid,Tmid,Tmid,Tmid,Tmid,Tmid,Tmid,Tend,Tend
timestamp,0,60006,120033,180061,240071,300106,360131,420152,480179,540192,600216,660225,720251,780276,840302,900324,960345,1020373,1080396,1140419,1200449,1260450,1320457,1380486,1440512,1500514,1560542,1620574,1680574
participant_0_GOLD,500,500,542,1047,1169,1333,1809,2029,2504,2701,2951,3123,3445,3868,4134,4987,5180,5428,5585,5708,6025,7032,7154,7486,8058,8230,9212,9541,9882
participant_0_CURRENTGOLD,500,0,42,547,119,283,759,179,654,51,301,473,795,418,684,1537,180,428,585,63,380,1387,309,641,1213,410,992,71,232
participant_0_LEVEL,1,1,1,3,3,3,5,5,6,6,7,7,8,8,9,10,10,10,10,10,11,12,12,12,13,13,14,14,15
participant_0_MINIONSKILLED,0,0,1,6,6,8,23,28,37,37,42,45,45,45,50,60,64,65,67,67,74,75,75,83,83,83,93,97,97
participant_0_KILLS,0,0,0,0,1,1,2,2,2,2,2,2,3,3,3,3,3,3,3,3,3,3,3,3,3,3,3,3,3
participant_0_BUY,[],"[3858, 2003, 2003, 3340]",[],[],"[1001, 2031, 2055]",[],[],"[3117, 2055]",[],[],"[1033, 1029, 2055]",[],[],"[3024, 1029, 2055, 2055, 3364]",[],[],"[3050, 2055, 2055]",[],[],"[2055, 1033]",[],"[2055, 1029]","[3105, 2055]",[],[],[],"[3190, 2055]",[],[]
participant_0_SOLD,[],[],[],[2003],"[2003, 2010]",[],"[2010, 2055]","[2010, 1001]",[2055],[],[],[3858],[2055],"[1029, 2031, 3340, 2055]",[],[],"[2055, 1033, 1029, 3024]",[],[2055],[],[2055],[],"[2055, 1033, 1029]",[],[],"[2055, 2055]",[3105],[],[3859]
participant_0_UNDO,[],[],[],[],[],[],[],[],[],[],[],[],[],[],[],[],[],[],[],[],[],[],[],[],[],[],[],[],[]
participant_1_GOLD,500,500,706,1665,1913,2120,2478,2728,3375,3744,4261,4657,5256,6286,6520,7268,7545,8453,9030,9234,9692,10231,10943,11485,12753,13535,14248,15391,16399
participant_1_CURRENTGOLD,500,0,206,1165,1413,245,603,853,1500,594,1111,1507,2106,3136,520,1268,1545,2453,80,284,742,242,953,146,1413,2195,84,1226,2174
participant_1_LEVEL,1,1,2,3,4,4,5,6,6,7,7,8,9,9,10,10,11,11,12,12,13,13,14,14,15,15,16,17,17
participant_1_MINIONSKILLED,0,0,0,0,2,2,2,4,4,4,5,5,9,19,19,19,19,19,19,22,22,24,31,31,31,32,32,40,46
participant_1_KILLS,0,0,0,0,1,1,1,1,1,2,2,4,4,4,4,4,5,5,5,5,5,6,8,8,8,8,8,10,11
participant_1_BUY,[],"[3340, 2031, 1054, 2003]",[],[],[],"[1028, 1033, 2031]",[],"[3211, 1001, 3211, 1001]",[],[],[3077],[],[],"[3144, 1043]",[],[],"[3153, 3009, 3067]",[],[3065],[],[],[],[],[],"[3083, 1028]",[],[],[],[]
participant_1_SOLD,[],[],[],[],[2003],[],[],"[1028, 1033, 1028, 1033]",[],[],[],[],[],[2031],[],[],"[3144, 1043, 1001]",[],"[1054, 3211, 3067]",[],[],[],[],[],[],[],[],[],[]
participant_1_UNDO,[],"[[0, 2031]]",[],[],[],[],[],"[[0, 1001], [0, 3211]]",[],[],[],[],[],[],[],[],[],[],[],[],[],[],[],[],[],[],[],[],[]
participant_2_GOLD,500,500,598,923,1506,1754,2153,2359,2635,3499,3914,5202,6082,6275,6809,7668,8234,8637,8774,9338,9950,10888,11746,12271,12393,12790,13643,14660,15556
participant_2_CURRENTGOLD,500,0,98,423,1006,254,653,209,485,1349,439,1727,2607,260,794,1653,119,522,39,604,1215,2154,3011,3536,409,805,1659,2675,3331
participant_2_LEVEL,1,1,1,3,4,5,6,7,7,8,8,10,10,10,11,11,12,12,12,13,13,14,14,15,15,15,16,16,17
participant_2_MINIONSKILLED,0,0,4,16,24,32,45,50,59,71,79,93,99,99,110,126,126,135,135,149,160,168,168,175,175,186,193,200,207
participant_2_KILLS,0,0,0,0,0,0,0,0,0,1,2,3,3,3,3,3,4,5,5,5,5,8,8,8,8,8,8,8,8
participant_2_BUY,[],"[1055, 2003, 3340]",[],[],[],"[1042, 2015, 2003, 2003]",[],"[1018, 2031]",[],[],[1038],[],[],"[3095, 1001, 1042]",[],[3006],[],"[1038, 1037]",[],[],[],[],"[3031, 1033]",[],[1018],[],[3086],[],[]
participant_2_SOLD,[],[],[],[],[2003],[1042],"[2003, 2003]",[],[],[],[],[],[],"[1038, 1018, 2015]",[],"[1001, 1042]",[],[],[],[],[],[],"[1038, 1037]",[],[2031],[],[1018],[],[]
participant_2_UNDO,[],[],[],[],[],[],[],[],[],[],[],[],[],[],[],[],[],[],[],[],[],[],[],[],[],[],[],[],[]
participant_3_GOLD,500,500,598,955,1327,1534,2153,2318,2628,3161,3646,4460,4857,5030,5429,5757,6348,7377,7764,7908,8123,9260,9397,9778,9922,10094,10582,10930,11150
participant_3_CURRENTGOLD,500,0,98,455,827,234,853,68,378,911,96,910,1307,480,879,706,1298,152,539,683,898,2035,497,878,282,454,343,690,850
participant_3_LEVEL,1,1,1,2,3,3,4,5,5,6,7,7,7,8,8,8,9,10,10,10,10,11,11,12,12,12,13,14,14
participant_3_MINIONSKILLED,0,0,4,15,22,24,42,45,53,61,64,76,83,83,95,101,108,117,128,129,134,136,137,140,141,141,141,141,141
participant_3_KILLS,0,0,0,0,0,0,0,0,0,0,0,0,0,1,1,1,1,1,1,1,1,2,2,2,2,2,3,3,3
participant_3_BUY,[],"[1054, 2003, 3340]",[],[],"[1028, 2031]",[],[],"[3751, 1001]",[],[3047],[],[],[],[1031],[],[],"[3068, 1036, 1006]",[],[],[3077],[],[],[3052],[],[],[3748],[1028],"[3211, 1033]",[]
participant_3_SOLD,[],[],[2003],[],[],[],[],[1028],[],[1001],[],[],[],[],[],[],"[1031, 3751]",[],[],"[1054, 1036, 1006]",[],[],[],[],[],"[3077, 3052]",[],[1028],[]
participant_3_UNDO,[],[],[],[],[],[],[],[],[],[],[],[],[],[],[],[],[],[],[],[],[],[],[],[],[],[],[],[],[]
participant_4_GOLD,500,500,544,759,1208,1342,1862,1996,2195,2436,2721,3174,3594,3847,4118,4379,4560,4834,4974,5115,5295,5513,5953,6142,6282,6502,6986,7670,8097
participant_4_CURRENTGOLD,500,0,44,259,183,317,837,196,395,636,96,549,969,232,503,764,195,469,609,225,405,248,263,452,592,812,121,806,1172
participant_4_LEVEL,1,1,1,2,3,3,4,5,5,6,6,7,7,8,8,8,9,9,9,9,9,10,10,10,10,11,12,13,13
participant_4_MINIONSKILLED,0,0,1,3,4,4,8,8,12,15,15,17,17,21,25,26,28,33,33,33,35,35,35,35,35,36,38,45,45
participant_4_KILLS,0,0,0,2,2,2,2,2,3,3,4,4,5,5,5,6,6,7,8,8,8,8,9,10,13,14,14,16,18
participant_4_BUY,[],"[1039, 2031, 3340]",[],[],[],"[3706, 1001, 1036, 2055, 3364]",[],[],[],[1400],[],[],[],[],"[3111, 3044, 3067]",[],[],[],"[3071, 3071, 3105, 1053]",[],[],[3133],[],"[3812, 1033, 1028]",[],[],"[3065, 1037]",[],[]
participant_4_SOLD,[],[],[],[],[],"[1039, 3340]",[2055],[],[],"[1036, 3706]",[],[],[],"[3364, 3513]",[1001],[],[],[],"[3044, 3067, 3044, 3067]",[],[],[2031],[],"[3105, 1053, 3133]",[],[],"[1028, 1033]",[],[]
participant_4_UNDO,[],[],[],[],[],[],[],[],[],[],[],[],[],[],[],[],[],[],"[[0, 3071]]",[],[],[],[],[],[],[],[],[],[]
participant_5_GOLD,500,500,563,1068,1324,2203,2326,3156,3299,4045,4717,5062,5562,6657,6870,7077,7580,8277,8841,9584,9902,10456,10898,11825,12112,12338,12664,13148,13218
participant_5_CURRENTGOLD,500,0,63,418,324,1203,76,906,149,895,67,412,37,1132,1345,302,805,152,716,1459,387,191,634,1560,1847,324,199,684,13
participant_5_LEVEL,1,1,1,2,4,5,5,7,7,8,9,9,10,10,11,11,12,12,13,13,13,14,14,14,15,15,15,16,16
participant_5_MINIONSKILLED,0,0,2,6,14,28,28,48,49,64,68,78,83,94,99,104,119,128,129,135,142,149,149,150,150,152,159,161,161
participant_5_KILLS,0,0,0,0,0,0,0,0,0,0,0,0,0,2,2,2,3,3,3,3,3,3,4,4,4,4,4,4,4
participant_5_BUY,[],"[1056, 2003, 2003, 3340]",[],[],"[1056, 2003]",[],"[1027, 1001]",[],[1052],[],[3802],[],[],"[1026, 3020, 2055]",[],[],[3285],[],[],"[1026, 1028]",[],[],[3916],[3165],[],[],[1028],[],[]
participant_5_SOLD,[],[],[],[],"[2010, 2003, 2003]",[2010],[2003],[],[],[2010],"[1052, 1027]",[],[],[1001],[],[2055],"[3802, 1026]",[],[],[],[],[],[1028],"[3916, 1026]",[],[],[],[],[]
participant_5_UNDO,[],[],[],[],[],[],[],[],[],[],[],[],[],[],[],[],[],[],[],[],[],[],[],[],[],[],[],[],[]
participant_6_GOLD,500,500,621,846,969,1168,1481,2151,2450,2658,2880,3003,3210,3508,3963,4115,4388,4581,4988,5211,5418,5723,6067,6264,6777,6948,7086,7208,7373
participant_6_CURRENTGOLD,500,0,121,346,169,368,681,1351,25,233,455,228,435,733,588,340,113,306,363,586,793,323,667,64,577,208,346,468,573
participant_6_LEVEL,1,1,2,2,2,3,3,5,5,5,5,5,6,6,7,7,8,8,9,9,9,9,10,11,11,11,11,11,12
participant_6_MINIONSKILLED,0,0,0,0,0,0,0,2,2,2,2,2,2,8,8,9,9,10,10,10,10,14,16,16,16,19,20,20,20
participant_6_KILLS,0,0,0,1,1,2,2,3,3,3,4,4,5,6,6,6,6,6,7,7,7,8,9,10,10,10,10,11,11
participant_6_BUY,[],"[1055, 2003, 3340]",[],[2031],[1036],[],[3144],[],"[1001, 1042, 1042]",[],"[3153, 1028]",[],"[3047, 2055]",[],[],"[3044, 1028]",[],[3071],[],[],"[3105, 1036]","[1053, 3133]",[],[],[],"[3812, 1036]",[3123],[],[2138]
participant_6_SOLD,[],[],[],[2003],[],[],[1036],[],[],[],"[3144, 1042, 1042]",[],[1001],[2055],[],[1028],[],"[3044, 1028]",[],[],[2031],"[1036, 1036]",[],[1055],[],"[3105, 3133]",[1036],[],[2138]
participant_6_UNDO,[],[],[],[],[],[],[],[],[],[],[],[],[],[],[],[],[],[],[],[],[],"[[0, 1053]]",[],"[[1055, 0]]",[],[],[],[],[]
participant_7_GOLD,500,500,556,853,1081,1392,1700,2021,2659,2875,3228,3531,3716,3991,4363,5058,5612,6383,7069,8064,8355,8852,9816,10633,11475,11982,12296,12746,13116
participant_7_CURRENTGOLD,500,0,56,353,106,42,350,71,709,325,678,381,566,441,813,208,762,48,734,54,345,442,666,1483,75,348,661,521,-69
participant_7_LEVEL,1,1,1,3,4,5,6,6,7,7,8,8,8,9,9,10,11,11,12,12,13,13,13,14,14,15,15,15,15
participant_7_MINIONSKILLED,0,0,2,12,19,28,36,39,49,51,59,66,70,72,82,94,111,117,122,126,136,136,142,149,156,156,162,164,164
participant_7_KILLS,0,0,0,0,0,0,0,0,0,0,0,0,0,1,1,1,1,1,2,2,2,2,2,2,3,3,3,3,3
participant_7_BUY,[],"[2003, 2003, 3858]",[],[],"[1029, 1001]",[],[1029],[],[1027],[1082],[],[],[],"[3802, 3364]",[],[],[1026],[],[],"[3285, 1028]",[],[],[3751],[],[],[],"[3020, 3076]",[],[]
participant_7_SOLD,[],[],[],[],[2003],[2003],[],[],[],[],[],[],[],"[3858, 1027, 3340]",[],[],[],[],[],"[3802, 1026]",[3859],[],[1028],[],[],[],"[1001, 1029]",[],[]
participant_7_UNDO,[],[],[],[],"[[0, 1029]]",[],[],[],[],[],[],[],[],[],[],[],[],[],[],[],[],[],[],[],[],[],[],[],[]
participant_8_GOLD,500,500,584,867,1176,1529,1652,2092,2395,2688,2810,3003,3188,4366,4710,4977,5450,5748,6624,6928,7254,7537,7959,8351,8558,8875,9165,9393,9463
participant_8_CURRENTGOLD,500,0,84,367,226,579,52,492,360,653,260,453,638,91,435,702,125,423,1299,353,679,962,184,26,233,550,441,668,738
participant_8_LEVEL,1,1,1,2,3,4,4,5,5,6,6,6,7,8,8,9,9,10,10,11,11,11,12,12,13,13,13,14,14
participant_8_MINIONSKILLED,0,0,3,12,20,31,31,47,55,61,61,65,69,73,82,86,86,94,109,115,122,124,124,131,136,143,148,154,154
participant_8_KILLS,0,0,0,0,0,0,0,0,1,1,1,1,1,1,1,2,2,3,4,6,6,7,8,9,10,11,11,12,13
participant_8_BUY,[],"[3340, 2033, 2033]",[],[],"[1027, 1004]",[3070],[],"[1001, 1029]",[],"[1033, 3024]",[],"[1029, 1029]",[],[3082],[],[3802],[],"[3003, 1052]",[],"[3020, 3110, 2055]",[3363],[1028],"[3136, 2055]",[],"[3151, 2420]",[1052],[],[1026],[2139]
participant_8_SOLD,[],[],[],[],[],"[1027, 1004]",[],[],[],[1029],[],[],[],"[1029, 1029]",[],[],[],"[3070, 3802]",[],"[1001, 3082, 3024]","[3340, 3003, 2055]",[],"[1028, 1052]",[2055],[3136],[2033],[],"[2420, 2421]",[2139]
participant_8_UNDO,[],"[[0, 2033]]",[],[],[],[],[],[],[],"[[0, 1033]]",[],[],[],[],[],[],[],[],[],[],[],[],[],[],[],[],[],[],[]
participant_9_GOLD,500,500,544,699,915,1112,1247,1519,1704,1860,2078,2213,2389,3053,3317,3616,3756,4086,5151,5385,5574,5764,6055,6367,6857,6998,7278,7419,7574
participant_9_CURRENTGOLD,500,0,44,199,115,312,147,419,254,60,278,413,589,303,567,866,156,486,1551,335,524,714,505,817,1307,1448,228,369,524
participant_9_LEVEL,1,1,1,2,3,3,4,5,5,5,6,6,6,7,7,8,8,8,9,9,9,9,10,11,11,11,11,11,12
participant_9_MINIONSKILLED,0,0,1,2,4,5,5,9,11,12,17,17,20,20,23,24,24,28,28,33,36,36,36,36,36,36,40,40,40
participant_9_KILLS,0,0,0,0,0,0,0,1,1,1,1,1,1,1,1,1,1,1,1,1,1,1,1,1,2,2,2,2,2
participant_9_BUY,[],"[1039, 2031, 3340]",[],[],[1001],[],[],[],"[3706, 1028, 2055, 3751]",[],[],[1036],[],[],[1401],[1028],[3044],[],[1027],[],[],"[3057, 2055]",[],[3047],[],"[1042, 1042]",[],[],[]
participant_9_SOLD,[],[],[],[],[],[],[],[],"[1039, 1028]",[],[],[],[],[],"[3751, 3706]",[2055],"[1028, 1036]",[],[],[3340],[],[1027],[],"[1001, 3513]",[2055],[2031],[],[],[]
participant_9_UNDO,[],[],[],[],[],[],[],[],[],[],[],[],[],[],[],[],[],[],[],[],[],[],[],[],[],[],[],[],[]
team0_KILLS,0,0,0,2,4,4,5,5,6,8,10,13,15,16,16,17,19,21,22,22,22,27,30,31,34,35,36,40,43
team0_CURRENTGOLD,2500,0,488,2849,3548,1333,3705,1505,3412,3541,2043,5166,7784,4526,3380,5928,3337,4024,1852,1859,3640,6066,5033,5653,3909,4676,3199,5468,7759
team0_TOTALGOLD,2500,2500,2988,5349,7123,8083,10455,11430,13337,15541,17493,20616,23234,25306,27010,30059,31867,34729,36127,37303,39085,42924,45193,47162,49408,51151,54671,58192,61084
team0_LEVEL,5,5,6,13,17,18,24,28,29,33,35,39,41,43,46,47,51,52,53,54,56,60,61,63,65,66,71,74,76
team0_SBIRES,0,0,10,40,58,70,120,135,165,188,205,236,253,267,299,332,345,369,382,400,425,438,446,464,465,478,497,523,536
team1_KILLS,0,0,0,1,1,2,2,4,5,5,6,6,7,11,11,12,13,14,17,19,19,21,24,26,29,30,30,32,33
team1_CURRENTGOLD,2500,0,368,1683,940,2504,1306,3239,1497,2166,1738,1887,2265,2700,3748,2418,1961,1415,4663,2787,2728,2632,2656,3950,4039,2878,1875,2710,1779
team1_TOTALGOLD,2500,2500,2868,4333,5465,7404,8406,10939,12507,14126,15713,16812,18065,21575,23223,24843,26786,29075,32673,35172,36503,38332,40795,43440,45779,47141,48489,49914,50744
team1_LEVEL,5,5,6,11,16,20,22,28,29,31,34,34,37,40,42,45,48,49,53,54,55,56,59,62,64,65,65,67,69
team1_SBIRES,0,0,8,32,57,92,100,145,166,190,207,228,244,267,294,317,349,377,398,419,446,459,467,482,494,506,529,539,539
delta_KILLS,0,0,0,1,3,2,3,1,1,3,4,7,8,5,5,5,6,7,5,3,3,6,6,5,5,5,6,8,10
delta_CURRENTGOLD,0,0,120,1166,2608,-1171,2399,-1734,1915,1375,305,3279,5519,1826,-368,3510,1376,2609,-2811,-928,912,3434,2377,1703,-130,1798,1324,2758,5980
delta_TOTALGOLD,0,0,120,1016,1658,679,2049,491,830,1415,1780,3804,5169,3731,3787,5216,5081,5654,3454,2131,2582,4592,4398,3722,3629,4010,6182,8278,10340
delta_LEVEL,0,0,0,2,1,-2,2,0,0,2,1,5,4,3,4,2,3,3,0,0,1,4,2,1,1,1,6,7,7
delta_SBIRES,0,0,2,8,1,-22,20,-10,-1,-2,-2,8,9,0,5,15,-4,-8,-16,-19,-21,-21,-21,-18,-29,-28,-32,-16,-3
