name,team0,team1
win,Fail,Win
firstBlood,False,True
firstTower,False,True
firstInhibitor,False,True
firstBaron,False,True
firstDragon,True,False
firstRiftHerald,False,True
towerKills,1,10
inhibitorKills,0,3
baronKills,0,2
dragonKills,2,3
riftHeraldKills,0,1
