name,frame_0,frame_1,frame_2,frame_3,frame_4,frame_5,frame_6,frame_7,frame_8,frame_9,frame_10,frame_11,frame_12,frame_13,frame_14,frame_15,frame_16,frame_17,frame_18,frame_19,frame_20,frame_21,frame_22,frame_23,frame_24,frame_25,frame_26
nameStamp,Tstart,Tearly,Tearly,Tearly,Tearly,Tearly,Tearly,Tearly,Tearly,Tearly,Tmid,Tmid,Tmid,Tmid,Tmid,Tmid,Tmid,Tmid,Tmid,Tmid,Tmid,Tmid,Tmid,Tmid,Tmid,Tmid,Tmid
timestamp,0,60027,120060,180086,240113,300138,360164,420173,480196,540201,600222,660252,720270,780293,840311,900311,960342,1020344,1080369,1140390,1200412,1260437,1320441,1380469,1440489,1500491,1560491
participant_0_GOLD,500,500,658,1168,1623,2162,2607,3422,4599,4988,5691,6551,7159,7863,8624,9625,10421,10781,11264,11670,12865,13724,14770,15629,15989,16349,17706
participant_0_CURRENTGOLD,500,0,158,668,423,962,607,322,1499,588,1291,2151,759,343,304,1305,801,286,344,750,345,204,1250,2109,769,1129,2306
participant_0_LEVEL,1,1,2,3,4,5,6,6,7,8,8,9,10,11,11,12,13,13,13,14,15,16,17,17,17,17,18
participant_0_MINIONSKILLED,0,0,3,6,7,10,12,14,24,25,35,35,41,52,55,62,65,65,70,71,71,71,71,72,72,72,79
participant_0_KILLS,0,0,0,0,0,0,0,1,2,2,2,3,3,3,4,5,5,5,5,5,6,7,9,10,10,10,11
participant_0_BUY,[],"[1055, 2003, 3340]",[],[],[2015],[],[1018],[3006],[],"[3087, 1038]",[],[],"[3087, 1053]",[3072],[1018],[],[1038],[1037],[3031],[],[3144],[1043],[],[],"[3153, 1011]",[],[]
participant_0_SOLD,[],[],[2003],[],[],[],[],[],[],"[1018, 2015]",[],[],"[1018, 2015]","[1055, 1038, 1053]",[],[],[],[],"[1038, 1037, 1018]",[],[],[],[],[],"[3144, 1043]",[],[]
participant_0_UNDO,[],[],[],[],[],[],[],[],[],"[[0, 3087]]",[],[],[],[],[],[],[],[],[],[],[],[],[],[],[],[],[]
participant_1_GOLD,500,500,579,1125,1801,2185,2741,3236,3792,4495,6428,6838,7415,7960,8655,9600,10389,10847,11807,12301,12757,13236,13646,14185,14545,17130,17912
participant_1_CURRENTGOLD,500,15,94,640,616,335,41,536,342,610,528,388,230,410,205,1150,239,697,407,901,1357,586,996,435,360,2530,3312
participant_1_LEVEL,1,1,1,2,3,3,4,5,6,7,8,8,10,10,11,12,13,13,14,14,15,15,16,17,17,20,20
participant_1_MINIONSKILLED,0,0,0,1,4,4,5,9,9,18,29,29,29,29,30,36,38,42,42,46,50,50,50,52,52,52,53
participant_1_KILLS,0,0,0,0,0,0,0,0,0,0,2,2,2,2,2,2,3,3,5,5,5,5,5,5,5,9,9
participant_1_BUY,[],"[1052, 2003, 3340]",[],[],"[1028, 1001]",[3136],[1026],[],[3151],[1052],"[3916, 1026]",[3165],"[1052, 1029]","[1029, 3191]","[1052, 3108]",[],"[3157, 3020]",[],[1058],[],[],[1058],[],[3089],[1052],[3113],[]
participant_1_SOLD,[],[2003],[],[],[],"[1028, 1052]",[],[],"[3136, 1026]",[],[1052],"[3916, 1026]",[],"[1029, 1052, 1029]",[1052],[],"[3191, 3108, 1001]",[],[],[],[],[],[],"[1058, 1058]",[],[1052],[]
participant_1_UNDO,[],[],[],[],[],[],[],[],[],[],[],[],[],[],[],[],[],[],[],[],[],[],[],[],[],[],[]
participant_2_GOLD,500,500,563,1693,2954,3422,4824,5184,5950,6583,7105,7668,8341,8907,9311,9999,10536,10945,11567,12133,13201,13761,14551,15114,15474,16138,16986
participant_2_CURRENTGOLD,500,65,128,823,804,222,1624,284,550,348,205,768,591,407,811,1499,436,845,67,633,451,1011,1801,2364,374,538,1386
participant_2_LEVEL,1,1,1,2,3,4,5,5,6,7,8,8,9,10,11,11,12,13,14,14,15,16,17,17,17,18,18
participant_2_MINIONSKILLED,0,0,0,0,2,5,9,9,10,12,12,17,17,18,18,21,21,21,21,23,23,23,36,38,38,43,43
participant_2_KILLS,0,0,0,1,2,2,3,3,4,4,4,4,5,5,5,5,5,5,5,5,6,6,6,6,6,6,6
participant_2_BUY,[],[1052],[],[1052],"[3802, 1026]",[3285],[],"[3020, 1042, 1042]",[3101],"[1052, 1028]",[3136],[],[1026],[3151],[],[],[3916],[],[3165],[],[1058],[],[],[],[3089],[2139],[]
participant_2_SOLD,[],[],[],[],"[1052, 1052]","[3802, 1026]",[],[],"[1042, 1042]",[],"[1028, 1052]",[],[],"[3136, 1026]",[],[],[],[],[3916],[],[],[],[],[],[1058],[2139],[]
participant_2_UNDO,[],[],[],[],[],[],[],[],[],[],[],[],[],[],[],[],[],[],[],[],[],[],[],[],[],[],[]
participant_3_GOLD,500,500,563,1067,1642,2297,2938,3502,4197,4754,5347,6269,6671,7634,8662,9868,10458,10951,11463,12231,12951,14469,14879,15857,16553,18026,19005
participant_3_CURRENTGOLD,500,65,128,632,1207,697,1337,1902,2597,654,362,1284,371,1334,2362,3568,4158,251,763,1531,2251,3769,429,1407,2103,3576,4555
participant_3_LEVEL,1,1,1,2,3,4,5,6,7,8,8,9,9,11,12,13,14,14,15,15,16,17,17,18,19,20,21
participant_3_MINIONSKILLED,0,0,0,2,10,18,28,36,46,52,61,70,72,80,88,96,98,103,103,114,117,136,136,146,156,162,173
participant_3_KILLS,0,0,0,0,0,0,0,0,0,0,0,0,0,1,2,3,3,3,3,3,3,4,4,5,5,6,6
participant_3_BUY,[],[1052],[],[],[],[3916],[],[],[],"[3165, 3020]","[1033, 1052]",[],"[3108, 1026]",[],[],[],[],"[3102, 1058, 1058, 3089]",[],[],[],[],"[3907, 1026]",[],[],[],[]
participant_3_SOLD,[],[],[],[],[],[1052],[],[],[],[3916],[],[],[1052],[],[],[],[],"[3108, 1033, 1026, 1058, 1058]",[],[],[],[],[],[],[],[],[]
participant_3_UNDO,[],[],[],[],[],[],[],[],[],[],[],[],[],[],[],[],[],[],[],[],[],[],[],[],[],[],[]
participant_4_GOLD,500,500,748,1563,1923,2573,3701,4336,5126,5906,7059,7554,8475,10200,11392,12956,14535,14920,15790,16550,17205,18820,19657,20017,20633,20993,21612
participant_4_CURRENTGOLD,500,0,248,1063,1423,623,301,936,1726,306,1459,399,220,1945,987,2551,2140,1025,1895,2655,810,2425,3262,3622,4238,1618,1162
participant_4_LEVEL,1,1,2,3,3,4,5,6,7,7,9,9,10,12,13,14,15,15,16,16,17,17,18,18,18,18,19
participant_4_MINIONSKILLED,0,0,0,0,0,0,0,0,0,0,0,0,0,0,0,0,0,0,0,1,1,1,1,1,1,1,1
participant_4_KILLS,0,0,0,1,1,1,2,2,2,3,4,4,5,8,10,13,16,16,17,18,19,20,21,21,21,21,21
participant_4_BUY,[],"[1039, 2031, 3340]",[],[],[],"[3134, 1036]",[3147],[],[],"[3047, 1036, 1036, 3133]",[],[3142],"[1036, 3134]",[],"[3814, 1036]",[],"[3133, 1038]",[3026],[],[],[3812],[],[],[],[],"[3156, 2140]",[]
participant_4_SOLD,[],[],[],[],[],[],"[3134, 1036]",[],[],"[1036, 1036]",[],"[1039, 3133]",[1036],[],[3134],[],"[1036, 2031]",[1038],[],[],[3133],[],[],[],[],"[3047, 2140]",[]
participant_4_UNDO,[],[],[],[],[],[],[],[],[],[],[],[],[],[],[],[],[],[],[],[],[],[],[],[],[],[],[]
participant_5_GOLD,500,715,1060,2154,3084,4256,4651,5432,6084,7291,8239,9043,9624,10398,11021,11481,11957,12637,13814,14263,14640,15096,15935,16303,16807,17738,18166
participant_5_CURRENTGOLD,500,215,560,419,1349,1256,66,847,384,291,839,1643,1099,258,581,106,117,797,224,673,1050,1506,545,293,797,1728,-3784
participant_5_LEVEL,1,1,1,2,3,5,5,6,7,8,9,10,11,11,12,12,13,14,15,15,15,15,16,16,17,17,18
participant_5_MINIONSKILLED,0,0,0,1,3,4,4,12,15,17,23,25,30,31,34,34,35,35,35,35,35,39,43,43,47,50,50
participant_5_KILLS,0,0,1,3,4,6,6,7,7,8,9,9,9,10,10,10,10,11,13,13,13,13,14,14,14,15,15
participant_5_BUY,[],"[1056, 2003, 2003, 3340]",[],"[3067, 1052]",[],[3152],"[3020, 1052, 1027]",[],"[3057, 3113]",[3100],[1028],[],"[1026, 1052]","[3165, 1029]",[1029],"[3191, 1052]",[3108],[],"[3157, 1026]",[],[],[],[3135],"[1058, 3089, 3067]",[],[],[3065]
participant_5_SOLD,[],[],[],[],"[2003, 2003]","[1052, 3067]","[2010, 2422]",[],"[2010, 2010, 1027, 1052]","[2010, 3057, 3113]",[],[],[1056],"[1028, 1052, 1026]",[],"[1029, 1029]",[1052],[],"[3191, 3108]",[],[],[],[1026],"[3157, 3152, 1058]",[],[],[3067]
participant_5_UNDO,[],[],[],[],[],[],[],[],[],[],[],[],[],[],[],[],[],[],[],[],[],[],[],[],[],[],[]
participant_6_GOLD,500,1240,1814,3353,4183,5417,6320,6935,8701,10257,10973,12282,12882,13650,14385,14745,15606,16509,17396,18065,18584,19625,20297,21015,21375,21950,23069
participant_6_CURRENTGOLD,500,740,1314,2853,1083,2317,1787,802,2568,4124,1340,2649,779,1547,1432,242,1103,2006,2893,3562,2261,2202,2874,3592,3952,4527,4736
participant_6_LEVEL,1,1,1,3,4,5,6,6,8,8,9,10,10,11,11,11,12,13,14,15,15,17,17,18,18,18,19
participant_6_MINIONSKILLED,0,0,5,16,18,26,30,35,44,55,57,61,61,65,65,65,70,74,74,77,79,80,86,89,89,90,92
participant_6_KILLS,0,2,3,5,6,7,9,10,13,15,16,17,18,18,19,19,20,21,22,22,22,23,23,24,24,24,25
participant_6_BUY,[],"[1055, 2003, 3340]",[],[],"[3044, 3101, 3057, 1001]",[],[3078],[3144],[],[],"[3153, 3020, 3117, 3133]",[],[3812],[],[3073],[3008],[],[],[],[],[3025],"[1001, 3047]",[],[],[],[],[]
participant_6_SOLD,[],[2003],[2010],[],[],[],"[3057, 3044]",[],[],"[2010, 2010]","[3144, 1001, 1001]",[],"[3133, 2010]",[],[],[3073],[],[],[],[],"[3117, 1055]",[1001],[],[],[],[],[]
participant_6_UNDO,[],[],[],[],"[[0, 3101]]",[],[],[],[],[],"[[0, 3020]]",[],[],[],[],[],[],[],[],[],[],[],[],[],[],[],[]
participant_7_GOLD,500,500,688,1889,2474,3044,3747,5056,6139,7294,7933,9357,9997,10880,11585,11945,12461,13744,14456,14816,15176,15555,16093,16939,17619,18976,19448
participant_7_CURRENTGOLD,500,0,188,1389,1974,444,1147,1156,739,1895,233,857,397,1280,385,745,361,1644,1236,296,356,735,173,1019,499,1856,1648
participant_7_LEVEL,1,1,1,3,3,4,5,6,7,8,8,9,10,10,11,11,12,14,14,14,15,15,16,17,17,18,19
participant_7_MINIONSKILLED,0,0,5,11,19,27,38,44,49,61,62,62,62,63,63,63,63,71,81,81,81,82,83,83,83,88,89
participant_7_KILLS,0,0,0,1,1,1,1,3,4,4,5,8,9,10,11,11,11,12,12,12,12,12,12,13,14,16,16
participant_7_BUY,[],"[1055, 2003, 3340]",[],[],[],"[1038, 1018]",[],"[3508, 3031]","[1053, 1001, 1042]",[],[3046],[3006],"[1033, 3105]",[],[3812],[],[1053],[],[1038],[3072],[1042],[],[3086],[],"[3364, 3085]",[],[2140]
participant_7_SOLD,[],[],[],[],[],[],[],"[1038, 1018, 1038, 1018]",[2003],[],[1042],[1001],[1033],[],"[3105, 1053]",[],[],[],[1055],"[1038, 1053]",[],[],[1042],[],"[3340, 3086]",[],[2140]
participant_7_UNDO,[],[],[],[],[],[],[],"[[0, 3508]]",[],[],[],[],[],[],[],[],[],[],[],[],[],[],[],[],[],[],[]
participant_8_GOLD,500,507,630,1576,2087,2547,3042,4050,4917,6017,6556,7230,7707,8269,8902,9317,10274,10675,11311,11782,12525,13571,14348,14819,15274,15818,16160
participant_8_CURRENTGOLD,500,7,130,1076,1587,2047,1442,2450,817,1917,2456,3130,1222,419,202,221,114,515,401,872,715,1760,2538,734,1189,1733,1875
participant_8_LEVEL,1,1,1,2,3,4,4,6,7,8,8,9,9,10,10,11,12,12,13,14,15,16,17,17,17,18,18
participant_8_MINIONSKILLED,0,0,0,0,2,3,3,6,6,9,9,10,10,11,12,12,14,14,14,15,18,19,22,25,27,27,27
participant_8_KILLS,0,0,0,0,0,0,0,0,1,2,2,2,2,2,2,2,3,3,3,3,3,4,4,4,4,4,4
participant_8_BUY,[],"[3850, 2003, 2003, 3340]",[],[],[],[],[3020],[],"[1058, 1058]",[],[],[],"[3089, 1026, 1052]",[3135],[1026],[1052],[3136],[],[3151],[],[3108],[],[],"[3157, 3364, 1052]",[],[],[]
participant_8_SOLD,[],[],[],[2419],[],[],"[2003, 2003, 2010, 2010]","[2010, 2010]",[],[],[],[],"[1058, 1058, 3850]","[1026, 1052]",[],[2423],[1052],[],"[3136, 1026]",[],[],[],[],"[3108, 3340, 3851]",[],[],[]
participant_8_UNDO,[],[],[],[],[],[],[],[],[],[],[],[],[],[],[],[],[],[],[],[],[],[],[],[],[],[],[]
participant_9_GOLD,500,500,652,1158,1961,2576,3238,3815,4798,5675,6298,7249,7811,8436,9690,10188,11194,11844,12481,13280,15229,16319,16999,17523,18015,18595,18968
participant_9_CURRENTGOLD,500,0,152,658,1461,691,1353,1930,2913,800,1423,2374,286,911,2165,313,1319,784,556,1355,614,1864,1694,468,460,1040,343
participant_9_LEVEL,1,1,1,3,4,5,6,7,8,9,9,10,11,11,12,13,14,14,15,15,16,17,17,18,18,18,19
participant_9_MINIONSKILLED,0,0,3,6,10,17,25,33,42,55,59,62,69,70,80,86,91,95,102,104,110,110,110,116,117,121,122
participant_9_KILLS,0,0,0,0,1,1,1,1,2,2,2,3,3,3,4,4,5,5,5,6,8,10,11,11,11,11,11
participant_9_BUY,[],"[2003, 2003, 1056, 3340]",[],[],[],"[1026, 1052, 2003, 2003]",[],[],[],"[3165, 3020, 2003, 2003, 2055]",[],[],[3135],[],[],"[3136, 1026]",[],"[3151, 1052]","[3364, 3802]",[],[3089],[],[1026],[3116],[2139],[],[]
participant_9_SOLD,[],[],[],"[2003, 2003]",[],[],[],[2003],[2003],"[1052, 1026]","[2003, 2055, 2003]",[],[],[],[],[],[],"[3136, 1026]","[3340, 1052]",[],[3802],[1056],[],[1026],[2139],[],[]
participant_9_UNDO,[],[],[],[],[],[],[],[],[],[],[],[],[],[],[],[],[],[],[],[],[],[],[],[],[],[],[]
team0_KILLS,0,0,0,2,3,3,5,6,8,9,12,13,15,19,23,28,32,32,35,36,39,42,45,47,47,52,53
team0_CURRENTGOLD,2500,145,756,3826,4473,2839,3910,3980,6714,2506,3845,4990,2171,4439,4669,10073,7774,3104,3476,6470,5214,7995,7738,9937,7844,9391,12721
team0_TOTALGOLD,2500,2500,3111,6616,9943,12639,16811,19680,23664,26726,31630,34880,38061,42564,46644,52048,56339,58444,61891,64885,68979,74010,77503,80802,83194,88636,93221
team0_LEVEL,5,5,7,12,16,20,25,28,33,37,41,43,48,54,58,62,67,68,72,73,78,81,85,87,88,93,96
team0_SBIRES,0,0,3,9,23,37,54,68,89,107,137,151,159,179,191,215,222,231,236,255,262,281,294,309,319,330,349
team1_KILLS,0,2,4,9,12,15,17,21,27,31,34,39,41,43,46,46,49,52,55,56,58,62,64,66,67,70,71
team1_CURRENTGOLD,2500,962,2344,6395,7454,6755,5795,7185,7421,9027,6291,10653,3783,4415,4765,1627,3014,5746,5310,6758,4996,8067,7824,6106,6897,10884,4818
team1_TOTALGOLD,2500,3462,4844,10130,13789,17840,20998,25288,30639,36534,39999,45161,48021,51633,55583,57676,61492,65409,69458,72206,76154,80166,83672,86599,89090,93077,95811
team1_LEVEL,5,5,5,13,17,23,26,31,37,41,43,48,51,53,56,58,63,67,71,73,76,80,83,86,87,89,93
team1_SBIRES,0,0,13,34,52,77,100,130,156,197,210,220,232,240,254,260,273,289,306,312,323,330,344,356,363,376,380
delta_KILLS,0,-2,-4,-7,-9,-12,-12,-15,-19,-22,-22,-26,-26,-24,-23,-18,-17,-20,-20,-20,-19,-20,-19,-19,-20,-18,-18
delta_CURRENTGOLD,0,-817,-1588,-2569,-2981,-3916,-1885,-3205,-707,-6521,-2446,-5663,-1612,24,-96,8446,4760,-2642,-1834,-288,218,-72,-86,3831,947,-1493,7903
delta_TOTALGOLD,0,-962,-1733,-3514,-3846,-5201,-4187,-5608,-6975,-9808,-8369,-10281,-9960,-9069,-8939,-5628,-5153,-6965,-7567,-7321,-7175,-6156,-6169,-5797,-5896,-4441,-2590
delta_LEVEL,0,0,2,-1,-1,-3,-1,-3,-4,-4,-2,-5,-3,1,2,4,4,1,1,0,2,1,2,1,1,4,3
delta_SBIRES,0,0,-10,-25,-29,-40,-46,-62,-67,-90,-73,-69,-73,-61,-63,-45,-51,-58,-70,-57,-61,-49,-50,-47,-44,-46,-31
