name,frame_0,frame_1,frame_2,frame_3,frame_4,frame_5,frame_6,frame_7,frame_8,frame_9,frame_10,frame_11,frame_12,frame_13,frame_14,frame_15,frame_16,frame_17,frame_18,frame_19,frame_20,frame_21,frame_22,frame_23,frame_24,frame_25,frame_26,frame_27,frame_28
nameStamp,Tstart,Tearly,Tearly,Tearly,Tearly,Tearly,Tearly,Tearly,Tearly,Tearly,Tearly,Tearly,Tmid,Tmid,Tmid,Tmid,Tmid,Tmid,Tmid,Tmid,Tmid,Tmid,Tmid,Tmid,Tmid,Tmid,Tmid,Tmid,Tmid
timestamp,0,60012,120023,180044,240072,300098,360123,420149,480174,540201,600228,660258,720282,780299,840330,900349,960365,1020380,1080395,1140407,1200428,1260446,1320462,1380477,1440480,1500490,1560505,1620522,1680522
participant_0_GOLD,1400,1400,2151,2640,3211,3774,4140,5816,6212,6682,7437,8477,9577,10169,11294,11846,12807,14309,15065,15478,16152,17280,17721,18186,18984,19494,20647,21850,22103
participant_0_CURRENTGOLD,1400,0,751,40,611,1174,140,91,137,607,337,1377,2477,3069,4194,446,657,1359,2115,428,1102,2230,471,436,1234,1744,2897,4100,4353
participant_0_LEVEL,1,3,4,5,6,7,7,9,9,10,10,12,12,13,14,14,15,17,18,18,18,18,18,18,18,18,18,18,18
participant_0_MINIONSKILLED,0,0,2,3,4,6,6,10,10,15,21,25,28,30,31,31,34,43,49,49,55,56,56,58,61,61,73,79,79
participant_0_KILLS,0,0,1,1,1,1,1,3,3,3,4,6,8,8,11,11,13,17,18,18,19,21,21,21,22,22,23,25,25
participant_0_BUY,[],"[3134, 1001]",[],"[3133, 2003, 2003]",[],[],"[6691, 1036, 2003]","[3134, 1037, 2003, 2003]",[1036],[],[3142],[],[],[],[],"[3156, 3077, 1036]",[3133],[3111],[],"[3074, 3133]",[],[],[3071],[2140],[],[],[],[],[]
participant_0_SOLD,[],[],[],[],"[2003, 2003]",[],"[3134, 3133]","[2003, 1036]",[2003],[],"[3134, 1037]",[2003],[],[],[],[1036],[1036],[1001],[],"[3077, 3133]",[],[],[3133],[2140],[],[],[],[],[]
participant_0_UNDO,[],[],[],[],[],[],[],[],[],[],[],[],[],[],[],[],[],[],[],[],[],[],[],[],[],[],[],[],[]
participant_1_GOLD,1400,1400,1852,2341,2982,3453,4179,4608,4997,6215,6739,7210,7739,8271,9126,9668,10474,10937,11412,11825,12185,12858,13253,13928,15518,16028,16867,17711,17882
participant_1_CURRENTGOLD,1400,0,452,941,1582,703,549,543,82,1300,109,580,1109,356,1211,503,1309,457,532,510,505,1178,273,948,38,48,887,1231,1382
participant_1_LEVEL,1,3,4,5,6,7,8,9,9,10,11,11,12,12,13,14,15,15,16,16,16,17,18,18,18,18,18,18,18
participant_1_MINIONSKILLED,0,0,1,3,4,7,7,7,8,9,12,15,15,16,17,17,26,27,29,29,29,31,32,35,35,35,40,42,43
participant_1_KILLS,0,0,0,0,1,1,3,3,3,5,5,5,5,5,7,7,8,8,8,8,8,9,9,10,13,13,14,15,15
participant_1_BUY,[],"[3145, 1001, 2003]",[],[],[],"[1026, 1028, 2003, 2003]",[4636],[1052],[1026],[],[3116],"[2003, 2003]",[],"[1026, 3020, 1052, 2003]",[],"[1026, 1028]",[],[4637],"[1052, 1028]",[1052],[3916],[],[3165],[],"[1026, 3135]",[2139],[],[2139],[]
participant_1_SOLD,[],[],[2003],[],[],[2003],"[2003, 3145, 1028, 1026]",[],[],[],"[1026, 1052]",[],[],[1001],[2003],[],[],"[1026, 1028, 1052]",[],[],[1052],[],"[3916, 1028]",[],[1026],[2139],[],[2139],[]
participant_1_UNDO,[],[],[],[],[],[],[],[],[],[],[],"[[0, 2003], [0, 2003]]",[],"[[0, 1026]]",[],[],[],[],"[[0, 1052]]",[],[],[],[],[],[],[],[],[],[]
participant_2_GOLD,1400,1400,1902,2387,2890,3716,4153,4537,4957,5708,6351,6919,7669,8203,8868,9470,10215,10611,11121,11829,12234,12781,13414,14079,14711,15322,16268,16863,17188
participant_2_CURRENTGOLD,1400,65,567,1052,1555,2381,1653,587,1007,1758,2401,2969,3719,1203,618,1220,1965,1111,1621,229,199,746,1379,2044,611,1222,2168,2763,3088
participant_2_LEVEL,1,3,4,5,6,7,8,8,9,10,11,12,13,13,14,15,15,16,17,18,18,18,18,18,18,18,18,18,18
participant_2_MINIONSKILLED,0,0,2,2,4,4,6,6,6,8,9,9,10,10,15,17,20,20,22,22,22,24,25,25,25,26,27,27,27
participant_2_KILLS,0,0,0,0,0,1,1,1,1,2,3,3,4,4,4,4,5,5,5,6,6,6,7,8,9,9,11,11,12
participant_2_BUY,[],"[3191, 1052]",[],[],[],[],[3157],"[3020, 1027]",[],[],[],[],[],[6655],[1058],[],[],[1058],[],"[3089, 3916]",[1052],[],[],[],[3135],[],[],[],[]
participant_2_SOLD,[],[],[],[],[],[],"[3191, 1052]",[],[],[],[],[],[],[1027],[],[],[],[],[],"[1058, 1058]",[],[],[],[],[1052],[],[],[],[]
participant_2_UNDO,[],[],[],[],[],[],[],[],[],[],[],[],[],[],[],[],[],[],[],[],[],[],[],[],[],[],[],[],[]
participant_3_GOLD,1400,1400,1943,2596,3010,3654,4055,4841,5370,6169,6682,7180,7875,8617,9431,10124,10680,11339,11812,12833,13552,14990,15597,16048,16722,17534,18363,19134,19269
participant_3_CURRENTGOLD,1400,0,543,1196,260,904,105,891,1420,519,132,630,1325,2067,2881,3574,4130,289,762,983,1702,3140,3747,2558,732,1544,2373,3144,3219
participant_3_LEVEL,1,3,4,5,6,7,7,9,9,10,11,12,13,13,15,15,16,17,17,18,18,18,18,18,18,18,18,18,18
participant_3_MINIONSKILLED,0,0,5,14,14,21,22,32,40,44,44,44,51,60,70,76,78,79,83,95,96,113,121,123,130,143,155,161,161
participant_3_KILLS,0,0,0,0,0,0,0,0,0,1,1,1,1,1,1,1,1,2,2,4,5,7,7,7,7,7,7,7,7
participant_3_BUY,[],"[3802, 2003, 2003]",[],[],"[3108, 2031, 1001]",[],[6653],[],[],"[3111, 3020, 3191]",[3108],[],[],[],[],[],[],"[3157, 3089]",[],[3916],[],[],[],[3165],[3135],[],[],[],[]
participant_3_SOLD,[],[],[],"[2403, 2003, 2403]",[2003],[2403],"[3802, 3108]",[],[],"[1001, 1001]",[],[],[],[],[],[],[],"[3191, 3108]",[],[],[],[],[],"[3916, 2031]",[],[],[],[],[]
participant_3_UNDO,[],[],[],[],[],[],[],[],[],"[[0, 3111]]",[],[],[],[],[],[],[],[],[],[],[],[],[],[],[],[],[],[],[]
participant_4_GOLD,1400,1400,1854,2681,3249,3748,4159,4760,5144,5937,6355,6844,7792,8368,8977,9709,10109,10566,10985,11367,11800,12298,12736,13211,13736,14246,14983,15743,15951
participant_4_CURRENTGOLD,1400,300,754,1581,649,1148,659,560,509,37,455,944,1892,2468,3077,3809,3609,266,685,182,615,363,801,411,936,596,1333,2093,2301
participant_4_LEVEL,1,3,4,5,6,7,7,8,9,10,10,11,12,13,14,14,15,16,16,16,17,18,18,18,18,18,18,18,18
participant_4_MINIONSKILLED,0,0,1,1,1,4,6,7,7,8,8,12,15,15,17,17,17,17,17,17,17,18,19,21,22,22,22,23,24
participant_4_KILLS,0,0,0,2,3,3,3,4,4,5,5,5,7,7,7,8,8,8,8,8,8,8,8,8,8,8,9,10,10
participant_4_BUY,[],"[3057, 1001, 2003, 2003]",[],[],"[3158, 3191]",[],[3108],[3157],[1052],"[1026, 3113]",[],[],[],[],[],[],[3100],"[1058, 1058, 3089]",[],"[1052, 1033]",[],"[4632, 1052]",[],[3102],[],[1026],[],[],[]
participant_4_SOLD,[],[],[],"[2003, 2003]",[1001],[],[],"[3191, 3108]",[],[1052],[],[],[],[],[],[],"[3057, 3113, 1026]","[1058, 1058]",[],[],[],"[1033, 1052]",[],"[1052, 4632]",[],[],[],[],[]
participant_4_UNDO,[],[],[],[],[],[],[],[],[],[],[],[],[],[],[],[],[],[],[],[],[],[],[],[],[],[],[],[],[]
participant_5_GOLD,1400,1400,1837,2365,2926,3444,4152,4995,5816,6325,6834,7416,7980,8418,8890,9540,10135,11327,12054,13121,13926,14388,15285,15848,17013,17373,18459,19055,19190
participant_5_CURRENTGOLD,1400,200,637,865,551,1069,752,945,1766,725,34,616,480,268,190,840,435,427,1154,321,1126,88,110,673,1838,73,1159,1755,1890
participant_5_LEVEL,1,3,4,5,6,7,8,9,10,10,11,11,12,12,13,14,14,15,16,17,18,18,18,18,18,18,18,18,18
participant_5_MINIONSKILLED,0,0,1,2,3,7,11,17,23,27,32,35,40,43,43,56,60,68,79,79,89,94,101,105,107,107,119,127,127
participant_5_KILLS,0,0,0,0,0,0,0,1,2,2,2,2,2,2,2,2,2,4,4,5,5,5,6,6,9,9,10,10,10
participant_5_BUY,[],[3086],[],[1042],[1037],[],[3085],"[1036, 1042]",[],"[1053, 1043, 1001]","[1037, 3153]",[],[3117],"[1036, 1042]",[1053],[],[6670],[6673],[],"[1038, 1018]",[],[3031],[1037],[],[],[6676],[],[],[]
participant_5_SOLD,[],[],[],[],[],[],"[1037, 3086, 1042]",[],[],"[1036, 1042]","[1053, 1043, 1037]",[],[1001],[],[1036],[],[1042],"[6670, 1053]",[],[],[],"[1038, 1018]",[],[],[],[1037],[],[],[3117]
participant_5_UNDO,[],[],[],[],[],[],[],[],[],[],[],[],[],[],[],[],[],[],[],[],[],[],[],[],[],[],[],[],[]
participant_6_GOLD,1400,1400,1893,2600,3333,3781,5331,5851,6709,7387,8160,8738,9434,9944,10436,11024,11507,12324,12865,13677,14404,14923,15407,16876,17401,18065,18572,19287,19422
participant_6_CURRENTGOLD,1400,150,643,650,1383,31,1581,151,1009,587,1360,88,784,444,186,774,557,574,825,887,1614,933,542,2011,411,575,1082,1797,1872
participant_6_LEVEL,1,3,4,5,6,7,8,9,9,10,11,12,12,13,14,14,15,16,17,18,18,18,18,18,18,18,18,18,18
participant_6_MINIONSKILLED,0,0,4,9,14,16,19,22,23,26,28,30,35,36,41,46,48,49,51,53,57,57,59,66,70,73,74,77,77
participant_6_KILLS,0,0,0,1,2,2,7,7,9,10,11,11,12,12,12,12,12,13,13,14,15,15,15,18,18,19,19,20,20
participant_6_BUY,[],"[3044, 2031]",[],"[1001, 1028]",[],"[3057, 6632]",[],"[3111, 3067, 1036]",[],"[3133, 1036]",[],"[3071, 1033, 1036]",[],"[3155, 1036]",[3133],[],[3156],[1031],[1036],[3133],[],[6333],[1037],[],[6035],[2138],[],[],[]
participant_6_SOLD,[],[],[],[],[],"[3044, 3057, 1028]",[],[1001],[],[1036],[],"[3133, 3067, 1036]",[],"[1036, 1033]",[1036],[],"[3155, 3133]",[],[2031],[1036],[],"[1031, 3133]",[],[],[1037],[2138],[],[],[]
participant_6_UNDO,[],[],[],[],[],[],[],[],[],[],[],[],[],[],[],[],[],[],[],[],[],[],[],[],[],[],[],[],[]
participant_7_GOLD,1400,1400,1876,2333,2909,3408,4056,4491,5179,5675,6570,7132,7561,8076,8580,8978,9710,10395,11088,11567,12383,12749,13219,14200,14946,15469,15894,16323,16458
participant_7_CURRENTGOLD,1400,100,576,283,859,608,1256,491,1179,425,1320,82,511,1026,480,428,760,245,938,567,1383,849,1319,2300,1711,2234,1759,388,-142
participant_7_LEVEL,1,3,4,5,6,6,8,8,9,10,11,11,12,13,13,14,14,15,16,17,18,18,18,18,18,18,18,18,18
participant_7_MINIONSKILLED,0,0,3,3,6,10,12,12,18,20,21,22,23,26,27,27,27,27,28,29,29,29,31,32,38,40,40,41,41
participant_7_KILLS,0,0,0,0,0,0,0,0,0,0,1,1,1,1,1,1,2,2,3,3,5,5,5,6,6,6,6,6,6
participant_7_BUY,[],"[2051, 1001, 2003]",[],"[1033, 1029]",[],[3105],[],[3190],[],"[3111, 1033]",[],"[3105, 1033, 1029]",[],[],[3193],[1033],[1028],"[3211, 1028, 3067]",[],[3065],[],[1057],[],[],[4401],[],[1057],[3001],[]
participant_7_SOLD,[],[],[2003],[2010],[],"[1033, 1029, 2010]",[],[3105],[2010],[1001],[],[1033],[],[],"[1029, 3105, 1033]",[],[],"[1028, 1033, 1028]",[],"[3211, 3067]",[],[],[],[],"[1057, 2051]",[],[],[1057],[]
participant_7_UNDO,[],[],[],[],[],[],[],[],[],[],[],[],[],[],[],[],[],[],[],[],[],[],[],[],[],[],[],[],[]
participant_8_GOLD,1400,1400,1850,2371,3034,3560,4313,4982,5483,6186,6693,7250,7727,8243,9737,10131,10566,11451,11940,12784,13248,13968,14421,15273,15838,16515,17015,17679,17814
participant_8_CURRENTGOLD,1400,165,615,1136,1799,2325,3078,332,833,686,788,445,107,623,2117,1261,446,31,520,1364,1828,1298,501,1353,1918,1805,155,819,864
participant_8_LEVEL,1,3,4,5,6,7,8,9,10,11,11,12,12,13,14,14,14,15,16,17,18,18,18,18,18,18,18,18,18
participant_8_MINIONSKILLED,0,0,1,5,5,10,11,13,16,19,19,20,21,26,26,26,26,27,29,35,36,36,39,42,47,56,56,66,66
participant_8_KILLS,0,0,0,0,1,1,2,3,3,4,4,4,4,4,6,6,6,7,7,8,8,10,10,11,11,11,11,11,11
participant_8_BUY,[],"[2031, 1001, 1052, 1027]",[],[],[],[],[],"[6653, 3020]",[],[1026],[1052],"[1028, 1011]",[4637],[],[],[1058],[1058],[3089],[],[],[3108],[4630],[3135],[],[],[1026],[3116],[],[]
participant_8_SOLD,[],[],[],[],[],[],[2010],"[2010, 1052, 1027, 1001]",[],[],[2010],[1028],"[1026, 1011, 1052]",[],[],[],[],"[1058, 1058]",[],[],[],[],[4630],[],[],[2031],[1026],[],[]
participant_8_UNDO,[],[],[],[],[],[],[],[],[],[],[],[],[],[],[],[],[],[],[],[],"[[0, 3108]]",[],[],[],[],[],[],[],[]
participant_9_GOLD,1400,1400,1874,2394,3200,3678,4242,4614,5148,5508,6418,7063,7547,8496,9086,9544,10434,11169,11939,12546,13142,13587,14370,14817,15399,15848,17070,17557,17692
participant_9_CURRENTGOLD,1400,0,474,994,1800,2278,2842,214,748,108,1018,1663,2147,596,286,744,634,1369,639,796,1392,487,1270,817,1399,1848,1070,1057,1192
participant_9_LEVEL,1,3,4,5,6,7,8,8,9,10,11,11,12,13,13,14,14,15,16,17,17,18,18,18,18,18,18,18,18
participant_9_MINIONSKILLED,0,0,3,6,7,8,10,10,10,10,15,20,21,23,28,29,31,35,38,43,49,49,59,62,65,67,70,72,72
participant_9_KILLS,0,0,0,0,1,1,1,1,1,1,3,3,3,4,4,4,5,5,6,6,6,6,6,6,6,6,8,8,8
participant_9_BUY,[],"[6660, 1001, 2003, 2003]",[],[],[],[],[],"[3020, 3105, 3068]",[],[3082],[],[],[],"[3110, 3076]",[1011],[],[3075],[],[3105],[1033],[],[3193],[],[1057],[],[],[4401],[2139],[]
participant_9_SOLD,[],[],"[2003, 2003]",[2010],[],[2010],[],"[1001, 6660, 3105]",[2010],[],[],[],[],[3082],[],[2052],"[3076, 1011]",[],[],[],[2052],"[3105, 1033]",[],[],[],[],[1057],[2139],[]
participant_9_UNDO,[],[],[],[],[],[],[],[],[],[],[],[],[],[],[],[],[],[],[],[],[],[],[],[],[],[],[],[],[]
team0_KILLS,0,0,1,3,5,6,8,11,11,16,18,20,25,25,30,31,35,40,41,44,46,51,52,54,59,59,64,68,69
team0_CURRENTGOLD,7000,365,3067,4810,4657,6310,3106,2672,3155,4221,3434,6500,10522,9163,11981,9552,11670,3482,5715,2332,4123,7657,6671,6397,3551,5154,9658,13331,14343
team0_TOTALGOLD,7000,7000,9702,12645,15342,18345,20686,24562,26680,30711,33564,36630,40652,43628,47696,50817,54285,57762,60395,63332,65923,70207,72721,75452,79671,82624,87128,91301,92393
team0_LEVEL,5,15,20,25,30,35,37,43,45,50,53,58,62,64,70,72,76,81,84,86,87,89,90,90,90,90,90,90,90
team0_SBIRES,0,0,11,23,27,42,47,62,71,84,94,105,119,131,150,158,175,186,200,212,219,242,253,262,273,287,317,332,334
team1_KILLS,0,0,0,1,4,4,10,12,15,17,21,21,22,23,25,25,27,31,33,36,39,41,42,47,50,51,54,55,55
team1_CURRENTGOLD,7000,615,2945,3928,6392,6311,9509,2133,5535,2531,4520,2894,4029,2957,3259,4047,2832,2646,4076,3935,7343,3655,3742,7154,7277,6535,5225,5816,5676
team1_TOTALGOLD,7000,7000,9330,12063,15402,17871,22094,24933,28335,31081,34675,37599,40249,43177,46729,49217,52352,56666,59886,63695,67103,69615,72702,77014,80597,83270,87010,89901,90576
team1_LEVEL,5,15,20,25,30,34,40,43,47,51,55,57,60,64,67,70,71,76,81,86,89,90,90,90,90,90,90,90,90
team1_SBIRES,0,0,12,25,35,51,63,74,90,102,115,127,140,154,165,184,192,206,225,239,260,265,289,307,327,343,359,383,383
delta_KILLS,0,0,1,2,1,2,-2,-1,-4,-1,-3,-1,3,2,5,6,8,9,8,8,7,10,10,7,9,8,10,13,14
delta_CURRENTGOLD,0,-250,122,882,-1735,-1,-6403,539,-2380,1690,-1086,3606,6493,6206,8722,5505,8838,836,1639,-1603,-3220,4002,2929,-757,-3726,-1381,4433,7515,8667
delta_TOTALGOLD,0,0,372,582,-60,474,-1408,-371,-1655,-370,-1111,-969,403,451,967,1600,1933,1096,509,-363,-1180,592,19,-1562,-926,-646,118,1400,1817
delta_LEVEL,0,0,0,0,0,1,-3,0,-2,-1,-2,1,2,0,3,2,5,5,3,0,-2,-1,0,0,0,0,0,0,0
delta_SBIRES,0,0,-1,-2,-8,-9,-16,-12,-19,-18,-21,-22,-21,-23,-15,-26,-17,-20,-25,-27,-41,-23,-36,-45,-54,-56,-42,-51,-49
