name,team0,team1
win,Fail,Win
firstBlood,False,True
firstTower,True,False
firstInhibitor,False,False
firstBaron,False,False
firstDragon,False,True
firstRiftHerald,True,False
towerKills,2,4
inhibitorKills,0,0
baronKills,0,0
dragonKills,0,2
riftHeraldKills,1,0
