name,frame_0,frame_1,frame_2,frame_3,frame_4,frame_5,frame_6,frame_7,frame_8,frame_9,frame_10,frame_11,frame_12,frame_13,frame_14,frame_15,frame_16,frame_17,frame_18,frame_19,frame_20,frame_21,frame_22,frame_23,frame_24,frame_25,frame_26,frame_27,frame_28,frame_29,frame_30,frame_31,frame_32,frame_33,frame_34,frame_35,frame_36,frame_37,frame_38
nameStamp,Tstart,Tearly,Tearly,Tearly,Tearly,Tearly,Tearly,Tearly,Tearly,Tearly,Tearly,Tearly,Tearly,Tearly,Tearly,Tearly,Tearly,Tmid,Tmid,Tmid,Tmid,Tmid,Tmid,Tmid,Tmid,Tmid,Tmid,Tmid,Tmid,Tmid,Tmid,Tend,Tend,Tend,Tend,Tend,Tend,Tend,Tend
timestamp,0,60015,120042,180066,240081,300110,360140,420168,480193,540222,600244,660252,720277,780280,840312,900316,960333,1020361,1080386,1140416,1200440,1260472,1320492,1380522,1440540,1500568,1560588,1620589,1680618,1740650,1800671,1860672,1920701,1980705,2040711,2100717,2160746,2220759,2280759
participant_0_GOLD,500,500,962,1210,1333,1455,1613,2149,2299,2492,3335,3586,3849,4162,4668,4881,5577,5967,6503,6890,7863,8005,8127,8890,10143,10315,11020,11143,11676,12128,12285,12407,12600,12722,14046,16075,16217,16901,17696
participant_0_CURRENTGOLD,500,0,462,710,833,255,413,349,49,242,1085,1336,849,162,168,381,1077,1467,503,890,1863,2005,277,1040,2293,116,821,943,1476,1928,215,338,530,653,1977,4005,398,1082,1696
participant_0_LEVEL,1,1,1,2,2,3,3,4,5,6,7,7,8,8,9,10,11,11,12,12,13,13,13,13,14,14,14,14,15,15,15,15,15,15,16,17,17,17,18
participant_0_MINIONSKILLED,0,0,1,8,8,8,10,13,15,19,24,31,36,37,41,47,55,63,70,74,80,80,80,86,86,86,86,86,87,88,90,90,90,90,94,102,102,105,113
participant_0_KILLS,0,0,1,1,1,1,1,2,2,2,3,3,3,3,4,4,5,5,6,7,8,8,8,9,12,12,13,13,14,14,14,14,14,14,15,18,18,19,20
participant_0_BUY,[],"[1054, 2003, 3340]",[],[],[],"[1029, 1028]",[],[6660],[1033],[],[],[],[3105],"[3068, 1029]",[3076],[],[],[],"[3047, 1028]",[],[],[],"[3075, 1027]",[],[],[3110],[],[],[],[],"[3211, 3067]",[],[],[],[],[],"[3065, 3742]",[],[]
participant_0_SOLD,[],[],[2003],[],[],[],[],[1028],[],[],[],[],"[1033, 1029]","[6660, 3105]",[1029],[],[],[],[],[],[],[],"[3076, 1028]",[],[],[1027],[],[],[],[],[1054],[],[],[],[],[],"[3211, 3067]",[],[]
participant_0_UNDO,[],[],[],[],[],[],[],[],[],[],[],[],[],[],[],[],[],[],[],[],[],[],[],[],[],[],[],[],[],[],[],[],[],[],[],[],[],[],[]
participant_1_GOLD,500,500,652,993,1376,1725,2015,2179,2381,2622,2929,3137,3259,3851,3995,4271,4787,5009,5386,5664,6753,6970,7178,8115,8600,8794,9334,9541,9934,10192,10328,10571,10854,10976,11511,11784,12058,12740,13162
participant_1_CURRENTGOLD,500,0,152,493,876,1215,1505,1669,271,512,819,1027,449,1041,185,461,377,599,976,1254,168,35,243,1180,240,434,974,1181,1575,1832,728,222,504,627,1162,384,659,1341,1712
participant_1_LEVEL,1,1,2,3,4,4,5,5,5,6,6,7,7,7,8,8,8,9,9,10,10,10,10,11,12,12,12,13,13,14,14,14,14,14,15,15,15,16,16
participant_1_MINIONSKILLED,0,0,0,0,0,1,3,6,6,10,10,10,10,10,11,16,21,21,21,24,25,25,25,25,28,29,34,34,35,37,38,39,40,40,43,43,44,45,48
participant_1_KILLS,0,0,0,0,0,1,1,1,1,2,2,2,2,2,2,2,2,2,3,3,3,4,5,5,5,5,5,5,7,7,7,7,8,9,9,9,9,9,10
participant_1_BUY,[],"[1036, 2031, 3340]",[],[],[],[],"[3134, 1036]",[],[1036],[],"[3133, 1001, 1033]",[],[],[3111],[],[],[6691],[],[],[],[3134],[1037],[],[3142],[],[],[1028],[],[],[],[3134],[],[],[3814],[1029],[],[1038],[1031],[3026]
participant_1_SOLD,[],[],[],[],[],[],[1036],[],[],[],"[1036, 1036]",[],[],"[1001, 1033]",[],[],"[3134, 3133]",[],[],[],[],[],[],"[3134, 1037]",[],[],[],[],[],[],[],[],[],"[3134, 1028, 2031]",[],[],[],[1029],"[1038, 1031]"
participant_1_UNDO,[],[],[],[],[],[],[],[],[],[],[],[],[],[],[],[],[],[],[],[],[],[],[],[],[],[],[],[],[],[],[],[],[],[],[],[],[],[],[]
participant_2_GOLD,500,500,563,846,1162,1675,1955,2098,2387,2964,3270,3601,3828,3950,4164,4405,4606,4846,5606,5837,6047,6738,7355,7552,7676,8009,8257,8379,9191,9539,9662,9869,10587,11010,11403,12306,12429,12672,13360
participant_2_CURRENTGOLD,500,0,63,346,652,1165,335,478,407,984,130,451,678,450,664,905,106,346,1106,1337,447,263,880,52,176,509,357,479,1291,1639,662,869,1588,670,763,1667,489,233,210
participant_2_LEVEL,1,1,1,3,4,5,6,6,6,8,8,9,9,9,9,10,10,10,11,11,11,12,12,12,12,13,13,13,13,14,14,14,14,15,16,16,16,17,17
participant_2_MINIONSKILLED,0,0,2,12,21,26,32,33,41,49,57,66,72,72,78,85,87,90,96,100,100,103,111,111,111,116,116,116,117,118,118,118,123,123,124,133,133,134,134
participant_2_KILLS,0,0,0,0,0,0,0,0,0,0,0,1,1,1,1,1,1,2,2,2,2,2,2,2,3,3,5,5,5,7,7,7,7,7,7,9,9,9,9
participant_2_BUY,[],"[3850, 2003, 2003, 3340]",[],[],[],"[2031, 1001, 2055, 2055]",[],[],[],"[3020, 1027]",[3364],[],[],[],[],"[3802, 3108]",[],[1026],[],[],[],[],[],"[6653, 2420]",[],[],[],[3157],[],[],[],[],[3116],[],[],[],[3135],[],[]
participant_2_SOLD,[],[],[],[2003],[2003],[],[],[2055],[3850],[1001],"[3340, 2055]",[],[],[],[],"[3851, 1027]",[],[],[],[],[],[],[],"[3802, 3108]",[],[],[],[2420],[],[],[],[],[1026],[],[],[],[3853],[],[]
participant_2_UNDO,[],[],[],[],[],[],[],[],[],[],[],[],[],[],[],[],[],[],[],[],[],[],[],[],[],[],[],[],[],[],[],[],[],[],[],[],[],[],[]
participant_3_GOLD,500,500,556,818,955,1203,1347,1682,1804,2011,2189,2614,2771,3015,3438,3560,3989,4215,4435,4678,5684,5807,6079,6391,6696,7209,7648,7896,8039,8913,9188,9655,9869,10012,10385,10732,10980,11278,11391
participant_3_CURRENTGOLD,500,0,56,318,255,503,147,482,304,511,239,664,821,1065,1488,210,639,865,1085,1328,2334,107,379,721,376,889,1328,126,269,43,318,785,999,143,515,362,611,908,841
participant_3_LEVEL,1,1,1,2,2,4,4,5,5,5,6,6,7,7,7,7,8,8,8,9,9,9,10,10,11,11,11,11,12,12,12,13,13,13,14,14,14,15,15
participant_3_MINIONSKILLED,0,0,2,10,11,18,19,29,29,34,37,43,45,47,55,55,58,60,66,70,71,71,71,72,79,84,90,90,91,94,99,109,111,112,112,112,112,112,112
participant_3_KILLS,0,0,0,0,0,0,0,0,0,0,0,0,0,1,1,1,1,1,1,1,2,2,2,4,4,4,4,4,4,4,4,4,4,4,4,4,4,5,5
participant_3_BUY,[],"[1035, 2031]",[],[],[],[],[],[],"[6029, 1028]",[],[],[],[3044],[],[6630],[],"[1001, 1029]",[],[],[],"[3047, 1031, 1036, 1036, 1037]",[1036],[],[],"[6333, 1036]",[],[],[],[],[],"[3155, 1036]",[3133],[],[],[],"[3156, 1036]",[],[],[]
participant_3_SOLD,[],[],[],[],[],[],[],[],[1035],[],[],[],[1028],[],"[6029, 3044]",[],[],[],[],[],"[1001, 1029]",[],[],[],"[1031, 1036, 1037]",[],[],[],[],[],"[1036, 2031]",[1036],[],[],[],"[3155, 3133]",[],[],[]
participant_3_UNDO,[],[],[],[],[],[],[],[],[],[],[],[],[],[],[],[],[],[],[],[],"[[0, 1036], [0, 1036]]",[],[],[],[],[],[],[],[],[],[],[],[],[],[],[],[],[],[]
participant_4_GOLD,500,520,583,837,1155,1329,1545,1850,2068,2296,2498,3346,3770,4030,4493,4668,4858,5598,5767,5907,6210,6425,6596,6857,7532,7782,8789,9006,9517,10387,10528,10668,10809,11158,11698,13130,13266,13563,13676
participant_4_CURRENTGOLD,500,20,83,337,655,229,445,750,968,46,248,1096,1520,1780,2243,568,758,648,817,957,1260,1475,1646,57,733,982,1989,356,867,1738,1878,2019,9,358,899,2330,126,423,376
participant_4_LEVEL,1,1,1,2,3,3,4,4,4,5,5,5,6,6,7,7,7,8,8,8,9,9,9,10,11,11,12,12,12,13,13,13,13,13,14,15,15,15,15
participant_4_MINIONSKILLED,0,0,0,0,5,5,6,12,12,14,15,17,25,25,29,30,30,30,32,32,32,32,33,34,38,39,44,49,61,63,63,63,63,71,71,77,77,77,77
participant_4_KILLS,0,0,0,0,0,0,0,0,0,0,0,0,0,0,0,0,0,0,0,0,1,1,1,1,1,1,1,1,1,3,3,3,3,3,3,3,3,3,3
participant_4_BUY,[],"[1055, 2003, 3340]",[],[],"[2003, 2003, 2003, 2003]",[],"[2003, 2003, 2003, 1036]",[],[1042],[],"[2003, 2003, 2003, 1001]",[],[],[],[],"[2003, 2003, 6670, 1018, 2003]",[],[],[],[],[],"[2003, 6672, 3006]",[],"[2003, 2003, 2003]",[2420],[],[],"[2003, 1038, 2003, 2003]",[],[3134],[],[],[],"[3026, 2003, 2003, 2003]",[],"[2003, 2003, 2003, 1036]",[],[],[]
participant_4_SOLD,[],[],[],[2003],"[2003, 2003, 2003, 2003]",[],[],[],[2003],"[2003, 2003]",[],[],[],[],[],"[2003, 2003, 2003, 1036, 1042]",[2003],[],[],"[2003, 2003]",[],"[6670, 1018, 1001]",[2003],[1055],[],[],"[2003, 2003, 2003]",[],[],[],[],[],"[2003, 2003, 2003]","[1038, 2420]","[2003, 2003, 2003]",[],[],[],[]
participant_4_UNDO,[],[],[],[],[],[],[],[],[],[],[],[],[],[],[],[],[],[],[],[],[],[],[],[],[],[],[],[],[],[],[],[],[],[],[],[],[],[],[]
participant_5_GOLD,500,500,535,776,1219,1425,2054,2231,2910,3166,3379,4296,5073,5231,5757,6083,6334,6582,6747,7024,7341,7915,8284,8570,8817,8981,9131,9386,9557,9742,10200,10461,11084,11648,11927,12350,13246,13396,13459
participant_5_CURRENTGOLD,500,0,35,276,69,275,904,131,810,1066,579,1496,2273,381,257,583,434,682,247,174,491,1065,1434,150,397,561,711,966,262,448,905,1166,490,428,358,231,1127,676,559
participant_5_LEVEL,1,1,1,3,3,4,5,5,7,7,8,8,9,9,10,10,11,11,11,11,12,12,12,12,13,13,13,13,13,13,14,14,14,15,15,15,16,17,17
participant_5_MINIONSKILLED,0,0,1,8,8,13,22,24,35,42,48,55,65,67,72,80,84,91,93,95,102,102,114,115,117,119,121,124,127,131,133,137,139,144,144,144,159,160,160
participant_5_KILLS,0,0,0,0,0,0,0,0,0,0,0,0,0,1,1,1,2,2,2,2,3,3,3,4,5,5,5,5,5,5,6,6,6,6,6,6,7,8,8
participant_5_BUY,[],"[2033, 3340]",[],[],[],[],[],"[3145, 1001]",[],[1028],[],[],[],[],[],[3152],[],[],[3020],[],[3113],[],[],[1026],[],[3100],[],[],[],[3191],[1052],[],[],[3157],[],[1058],[],[1058],[]
participant_5_SOLD,[],[],[],[],[],[],[],[],[],[],[],[],[],[],[],"[3145, 1028]",[],[],[1001],[],[],[],[],[],[],"[3113, 1026]",[],[],[],[],[],[],[],"[3191, 1052]",[],[2033],[],[],[]
participant_5_UNDO,[],[],[],[],[],[],[],[],[],[],[],[],[],[],[],[],[],[],[],[],[],[],[],[],[],[],[],[],[],[],[],[],[],[],[],[],[],[],[]
participant_6_GOLD,500,500,621,986,1376,1498,1726,2431,2913,3339,3703,4088,4310,5170,5483,5814,6141,6363,6704,6991,7208,7331,7606,7752,7951,8204,8337,8780,8927,9120,10501,10971,11295,11467,11589,11712,11834,11956,12019
participant_6_CURRENTGOLD,500,0,121,486,876,223,451,1156,1638,2054,2418,2803,225,1085,1398,1729,300,523,464,751,968,690,66,212,111,364,498,940,637,830,2211,57,380,552,675,797,920,1042,-6
participant_6_LEVEL,1,1,2,3,4,4,4,5,5,6,7,7,7,8,9,9,9,10,10,10,11,11,11,11,12,12,12,12,12,13,14,15,15,15,15,15,15,15,15
participant_6_MINIONSKILLED,0,0,0,0,0,0,0,0,0,4,4,4,4,4,4,12,13,13,13,15,15,15,15,16,16,17,17,17,17,17,20,22,25,25,25,25,25,25,25
participant_6_KILLS,0,0,0,0,0,0,1,2,2,3,3,4,4,4,4,6,6,7,7,7,8,8,8,9,9,9,10,10,10,12,12,12,14,14,15,15,15,16,16
participant_6_BUY,[],"[1001, 1042, 2003, 2003, 2003]",[],[],[],"[1043, 2003, 2003, 2003]",[],[1001],[],"[1026, 1052]",[],[3115],"[1042, 2003]",[],[3006],[],[1042],[],[],[],"[3802, 2003, 2003, 2003]",[1052],[],[],[3108],[],[],[6653],[],[],[1058],[],[1058],[],"[3089, 2003]",[],[1043],[],[]
participant_6_SOLD,[],[],[],[2003],"[2003, 2003]",[1042],[],[],[],[2003],[],"[3400, 1043, 1026, 1052]",[],[],"[1001, 1042]",[],[],[1042],[],"[2003, 2003, 2003]",[],[],[],[],[1052],[],[2003],"[3802, 3108]",[],[],[],[],[2003],[],"[1058, 1058]",[],[],[],[]
participant_6_UNDO,[],"[[0, 1001]]",[],[],[],[],[],[],[],[],[],[],[],[],[],[],[],[],[],[],[],[],[],[],[],[],[],[],[],[],[],[],[],[],[],[],[],[],[]
participant_7_GOLD,500,500,626,920,1204,1501,1886,2008,2374,2595,2829,3247,3426,3674,3990,4133,4612,5100,5222,5548,5971,6171,6385,6850,8036,8298,8441,8814,8937,9199,10082,10550,10818,10990,11239,11498,12623,13332,13395
participant_7_CURRENTGOLD,500,0,126,410,694,981,1356,128,484,305,539,947,1126,1374,1690,83,562,1050,372,698,271,471,685,300,1486,448,591,964,1087,449,898,1365,1633,641,889,99,1223,683,595
participant_7_LEVEL,1,1,1,3,4,5,6,6,7,7,8,8,8,9,9,9,10,11,11,11,11,11,11,12,12,12,12,13,13,13,14,14,15,15,15,15,16,16,16
participant_7_MINIONSKILLED,0,0,6,13,22,29,42,42,53,58,65,70,74,75,83,84,87,100,100,106,106,106,108,111,114,118,119,130,130,131,133,140,141,141,141,141,152,152,152
participant_7_KILLS,0,0,0,0,1,1,2,2,3,3,3,5,6,6,7,7,7,7,7,7,7,8,8,8,8,8,8,8,8,8,8,8,8,8,8,9,10,10,10
participant_7_BUY,[],"[1055, 2003, 3340]",[],[],"[1042, 1042, 2003]",[],[],"[3086, 2003]",[],[],"[1042, 2003, 2003, 1001]",[],[],"[3046, 3006, 1036]","[1042, 1036]",[],"[6670, 2003, 2003]",[],[1018],[1036],[],[],[],"[6673, 1018]",[],[],[],[],[1037],[],[],[],[1038],[3031],[1036],[1053],[],[1018],[]
participant_7_SOLD,[],[],[],[2003],[],[],[2003],[1042],[2003],[],[],"[2003, 2003]",[],"[1042, 3086, 1042, 1001]",[],[],"[1036, 1042, 1036]",[],[],"[2003, 2003]",[],[],[],"[6670, 1018, 1036, 1055]",[],[],[],[],[],[],[],[],[],"[1038, 1037, 1018]",[],[1036],[],[],[]
participant_7_UNDO,[],[],[],[],[],[],[],[],[],[],[],[],[],[],[],[],[],[],[],[],[],[],[],[],[],[],[],[],[],[],[],[],[],[],[],[],[],[],[]
participant_8_GOLD,500,500,563,933,1119,1262,1799,2421,2662,2960,3162,3790,3969,4175,4398,4965,5137,5563,5688,5923,6416,6614,6900,7465,7769,7897,8376,8630,8752,9878,10300,10436,11251,11795,12191,12516,12863,13260,13323
participant_8_CURRENTGOLD,500,50,113,483,669,-88,449,771,1011,25,227,140,-81,125,-202,365,237,873,998,1233,276,39,325,890,729,857,1336,390,513,1638,810,947,481,1025,22,346,-356,41,173
participant_8_LEVEL,1,1,1,2,3,3,5,5,5,6,6,7,7,7,7,8,8,9,9,9,9,10,10,11,11,11,12,12,12,13,13,13,14,14,14,15,15,16,16
participant_8_MINIONSKILLED,0,0,2,9,13,14,20,20,23,23,27,34,37,39,39,41,41,41,41,41,42,42,44,46,48,48,51,55,55,55,55,56,59,62,62,70,70,70,70
participant_8_KILLS,0,0,0,1,1,1,1,1,1,1,2,3,3,5,5,5,6,6,6,6,6,6,6,6,7,7,7,7,7,7,8,8,9,12,12,12,12,12,13
participant_8_BUY,[],"[3854, 3340, 2003, 2003]",[],[],[],[1036],"[2031, 1001]",[],[],[3134],[],[],[3133],[],[],[],"[6691, 3117, 3134]",[],[],[],[1037],[],[],"[3142, 1036]",[3035],[],[],[],[3133],[],[],"[6694, 1036]",[3134],[],[3814],[1031],[],[],[]
participant_8_SOLD,[],[],[],"[2003, 2003]",[],[],[],[],[],[1036],[3400],[],[],[3400],[3854],[3400],"[3134, 3133, 1001]",[],[],[],[],[],[],"[3134, 1037]",[1036],[],[],[3855],[2031],[],[],"[3133, 3035]",[1036],[],"[3134, 3857]",[],[],[],[]
participant_8_UNDO,[],[],[],[],[],[],[],[],[],[],[],[],[],[],[],[],[],[],[],[],[],[],[],[],[],[],[],[],[],[],[],[],[],[],[],[],[],[],[]
participant_9_GOLD,500,500,565,1020,1228,1383,1542,1725,2013,2238,2720,3366,3539,4901,5333,6124,6579,6725,7171,7424,7615,8199,8775,8915,9457,9725,10016,10267,10407,10598,12113,12389,13179,14850,14980,15102,15287,15717,16380
participant_9_CURRENTGOLD,500,0,65,520,728,533,242,425,713,188,670,1316,389,1751,2173,2964,619,765,1211,1464,780,1364,1940,705,147,415,706,957,58,248,1763,839,879,2550,1040,362,548,977,1430
participant_9_LEVEL,1,1,1,2,3,3,4,5,5,5,6,7,7,8,8,8,9,9,10,10,10,11,11,11,11,12,12,12,12,13,14,14,14,15,15,15,15,16,16
participant_9_MINIONSKILLED,0,0,2,3,7,8,9,12,16,16,19,23,25,25,29,31,32,32,42,42,42,50,59,59,59,63,63,65,65,65,65,65,65,68,68,68,71,79,79
participant_9_KILLS,0,0,0,0,0,0,0,1,2,2,2,2,2,2,2,2,3,3,3,3,3,3,3,3,3,3,3,4,4,4,5,6,6,6,6,6,6,6,6
participant_9_BUY,[],"[1039, 2031]",[],[],[],"[1001, 1028, 2055]",[],[],[],[],[],[],[3068],[],[],[],"[3066, 3066, 1031, 1028, 2055]",[],[3066],[],[],[1028],[3742],[],[1029],[],[],[],[1033],[],[],"[3193, 2055]",[],[],[],[],[],[],[]
participant_9_SOLD,[],[],[],[],[],[],[],[],[],[],[1039],[2055],[1028],[3400],[],[],"[3066, 3066]","[2055, 3340]",[1028],[3513],[],[],"[3066, 1028, 1031]",[],[],[],[],[],[],[],[],"[1029, 1033]",[],[],[],[],[],[],[]
participant_9_UNDO,[],[],[],[],[],[],[],[],[],[],[],[],[],[],[],[],[],[],[],[],[],[],[],[],[],[],[],[],[],[],[],[],[],[],[],[],[],[],[]
team0_KILLS,0,0,1,1,1,2,2,3,3,4,5,6,6,7,8,8,9,10,12,13,16,17,18,21,25,25,28,28,31,35,35,35,36,37,38,43,43,45,47
team0_CURRENTGOLD,2500,20,816,2204,3271,3367,2845,3728,1999,2295,2521,4574,4317,4498,4748,2525,2957,3925,4487,5766,6072,3885,3425,3050,3818,2930,5469,3085,5478,7180,3801,4233,3630,2451,5316,8748,2283,3987,4835
team0_TOTALGOLD,2500,2520,3316,4704,5981,7387,8475,9958,10939,12385,14221,16284,17477,19008,20758,21785,23817,25635,27697,28976,32557,33945,35335,37805,40647,42109,45048,45965,48357,51159,51991,53170,54719,55878,59043,64027,64950,67154,69285
team0_LEVEL,5,5,6,12,15,19,22,24,25,30,32,34,37,37,40,42,44,46,48,50,52,53,54,56,60,61,62,63,65,68,68,69,69,70,75,77,77,80,81
team0_SBIRES,0,0,5,30,45,58,70,93,103,126,143,167,188,191,214,233,251,264,285,300,308,311,320,328,342,354,370,375,391,400,408,419,427,436,444,467,468,473,484
team1_KILLS,0,0,0,1,2,2,4,6,8,9,10,14,15,18,19,21,24,25,25,25,27,28,28,30,32,32,33,34,34,36,39,40,43,46,47,48,50,52,53
team1_CURRENTGOLD,2500,50,460,2175,3036,1924,3402,2611,4656,3638,4433,6702,3932,4716,5316,5724,2152,3893,3292,4320,2786,3629,4450,2257,2870,2645,3842,4217,2557,3613,6587,4374,3863,5196,2984,1835,3462,3419,2751
team1_TOTALGOLD,2500,2500,2910,4635,6146,7069,9007,10816,12872,14298,15793,18787,20317,23151,24961,27119,28803,30333,31532,32910,34551,36230,37950,39552,42030,43105,44301,45877,46580,48537,53196,54807,57627,60750,61926,63178,65853,67661,68576
team1_LEVEL,5,5,6,13,17,19,24,26,29,31,35,37,38,41,43,44,47,50,51,51,53,55,55,57,59,60,61,62,62,65,69,70,72,74,74,75,77,80,80
team1_SBIRES,0,0,11,33,50,64,93,98,127,143,163,186,205,210,227,248,257,277,289,299,307,315,340,347,354,365,371,391,394,399,406,420,429,440,440,448,477,486,486
delta_KILLS,0,0,1,0,-1,0,-2,-3,-5,-5,-5,-8,-9,-11,-11,-13,-15,-15,-13,-12,-11,-11,-10,-9,-7,-7,-5,-6,-3,-1,-4,-5,-7,-9,-9,-5,-7,-7,-6
delta_CURRENTGOLD,0,-30,356,29,235,1443,-557,1117,-2657,-1343,-1912,-2128,385,-218,-568,-3199,805,32,1195,1446,3286,256,-1025,793,948,285,1627,-1132,2921,3567,-2786,-141,-233,-2745,2332,6913,-1179,568,2084
delta_TOTALGOLD,0,20,406,69,-165,318,-532,-858,-1933,-1913,-1572,-2503,-2840,-4143,-4203,-5334,-4986,-4698,-3835,-3934,-1994,-2285,-2615,-1747,-1383,-996,747,88,1777,2622,-1205,-1637,-2908,-4872,-2883,849,-903,-507,709
delta_LEVEL,0,0,0,-1,-2,0,-2,-2,-4,-1,-3,-3,-1,-4,-3,-2,-3,-4,-3,-1,-1,-2,-1,-1,1,1,1,1,3,3,-1,-1,-3,-4,1,2,0,0,1
delta_SBIRES,0,0,-6,-3,-5,-6,-23,-5,-24,-17,-20,-19,-17,-19,-13,-15,-6,-13,-4,1,1,-4,-20,-19,-12,-11,-1,-16,-3,1,2,-1,-2,-4,4,19,-9,-13,-2
