name,team0,team1
win,Fail,Win
firstBlood,True,False
firstTower,False,True
firstInhibitor,False,False
firstBaron,False,True
firstDragon,False,True
firstRiftHerald,False,True
towerKills,2,6
inhibitorKills,0,0
baronKills,0,1
dragonKills,0,4
riftHeraldKills,0,1
