name,team0,team1
win,Fail,Win
firstBlood,False,True
firstTower,True,False
firstInhibitor,False,True
firstBaron,False,False
firstDragon,False,False
firstRiftHerald,False,False
towerKills,1,4
inhibitorKills,0,1
baronKills,0,0
dragonKills,0,0
riftHeraldKills,0,0
