name,frame_0,frame_1,frame_2,frame_3,frame_4,frame_5,frame_6,frame_7,frame_8,frame_9,frame_10,frame_11,frame_12,frame_13,frame_14,frame_15,frame_16,frame_17,frame_18,frame_19,frame_20,frame_21,frame_22,frame_23,frame_24,frame_25
nameStamp,Tstart,Tearly,Tearly,Tearly,Tearly,Tearly,Tearly,Tearly,Tearly,Tearly,Tearly,Tearly,Tearly,Tmid,Tmid,Tmid,Tmid,Tmid,Tmid,Tmid,Tmid,Tmid,Tmid,Tmid,Tmid,Tmid
timestamp,0,60009,120019,180030,240045,300051,360064,420083,480093,540103,600119,660129,720144,780171,840195,900216,960236,1020252,1080270,1140295,1200310,1260330,1320346,1380377,1440392,1500392
participant_0_GOLD,500,500,569,1019,1397,1722,2771,2957,3819,4182,4737,5123,6095,6217,6915,7238,8415,8537,8660,8931,9053,9352,10082,10734,10857,11075
participant_0_CURRENTGOLD,500,0,69,519,147,472,1521,307,1169,1532,587,973,695,117,815,188,1365,187,310,581,403,702,1432,885,1007,1225
participant_0_LEVEL,1,1,1,3,3,4,5,5,7,7,8,9,9,9,10,10,11,11,11,11,11,12,12,13,13,13
participant_0_MINIONSKILLED,0,0,3,11,16,25,31,35,42,51,58,70,80,80,92,92,98,98,98,101,101,109,117,122,122,122
participant_0_KILLS,0,0,0,0,0,0,2,2,4,4,5,5,5,5,6,6,8,8,8,8,8,8,8,9,9,9
participant_0_BUY,[],"[1036, 2031, 3340]",[],[],[3134],[],[],"[3133, 1001]",[],[],"[3142, 3067]",[],[3044],[3117],[],[3071],[],[1038],[],[],[1029],[],[],[3026],[],[]
participant_0_SOLD,[],[],[],[],[1036],[],[],[],[],[],"[3133, 3134]",[],[],[1001],[],"[3044, 3067]",[],[],[],[],[],[],[],"[1038, 1029]",[],[]
participant_0_UNDO,[],[],[],[],[],[],[],[],[],[],[],[],[],[],[],[],[],[],[],[],[],[],[],[],[],[]
participant_1_GOLD,500,500,522,719,929,1063,1449,1604,1759,1922,2084,2403,3024,3264,3956,4161,4918,5100,5465,6095,6320,6765,7055,7636,7776,8277
participant_1_CURRENTGOLD,500,0,22,219,429,113,499,654,109,272,434,318,939,379,1071,276,1033,165,530,95,320,765,255,836,976,1477
participant_1_LEVEL,1,1,1,2,3,3,4,5,5,5,6,7,7,8,9,9,10,10,10,11,11,11,11,12,12,13
participant_1_MINIONSKILLED,0,0,0,3,5,5,8,9,10,12,14,16,19,22,25,26,31,33,38,39,39,39,39,40,40,41
participant_1_KILLS,0,0,0,0,0,0,0,0,0,0,0,0,1,1,2,2,2,2,3,4,4,4,4,4,4,4
participant_1_BUY,[],"[3858, 2003, 2003, 3340, 3858, 2003, 2003, 3340]",[],[],[],"[2031, 1029]",[],[],"[1028, 1001]",[],[],"[1027, 1052]",[],[3020],[],"[3751, 1031]",[],[3068],[],[3136],[],[],[3067],[],[],[]
participant_1_SOLD,[],[],[],[2003],[2003],[],[],[],[],[],[],[],[],[1001],[],"[1028, 1029]",[3858],"[1031, 3751]",[],[1052],[],[],[],[],[],[]
participant_1_UNDO,[],"[[3340, 0], [0, 2003], [0, 2003], [0, 3858]]",[],[],[],[],[],[],[],[],[],"[[0, 1027]]",[],[],[],[],[],[],[],[],[],[],[],[],[],[]
participant_2_GOLD,500,500,569,733,980,1123,1766,2007,2268,3105,3429,4382,5173,5408,5872,6770,7452,7574,8746,9356,10616,10805,11479,12070,12192,13669
participant_2_CURRENTGOLD,500,0,69,233,480,113,756,997,1258,2095,54,1007,148,383,847,1745,2427,399,1571,631,1891,2080,2755,745,868,2344
participant_2_LEVEL,1,1,1,1,2,3,4,4,5,7,7,8,9,9,10,11,11,11,13,13,14,14,14,15,15,15
participant_2_MINIONSKILLED,0,0,3,5,10,11,21,23,28,37,40,46,56,58,64,72,77,77,88,91,100,100,104,107,107,115
participant_2_KILLS,0,0,0,0,0,0,1,1,1,2,2,4,5,5,5,7,7,7,10,10,13,13,14,15,15,19
participant_2_BUY,[],"[2033, 3340]",[],[],[],"[1001, 1052, 2055]",[],[],[],[],"[3152, 1001]",[],"[3020, 1026]",[],[],[],[],[3165],[],"[3108, 2420]",[],[],[],"[3157, 1058]",[],[]
participant_2_SOLD,[],[],[],[],[2010],[2010],[2055],[],[2010],[],[1052],[],[1001],[],[],[],[],[1026],[],[],[],[],[],"[3108, 2420]",[],[]
participant_2_UNDO,[],[],[],[],[],"[[0, 1001]]",[],[],[],[],[],[],[],[],[],[],[],[],[],[],[],[],[],[],[],[]
participant_3_GOLD,500,500,555,712,850,986,1130,1315,1458,1581,1703,1826,1998,2120,2243,2415,2638,2760,2882,3105,3227,3400,3672,3844,3967,4065
participant_3_CURRENTGOLD,500,500,555,712,850,986,1130,1315,1458,1581,1703,1826,1998,2120,2243,2415,2638,2760,2882,3105,3227,3400,3672,3844,3967,4065
participant_3_LEVEL,1,1,1,2,3,4,4,5,5,5,5,5,5,5,5,5,5,5,5,5,5,5,5,5,5,5
participant_3_MINIONSKILLED,0,0,2,4,5,6,7,11,12,12,12,12,12,12,12,12,12,12,12,12,12,12,12,12,12,12
participant_3_KILLS,0,0,0,0,0,0,0,0,0,0,0,0,0,0,0,0,0,0,0,0,0,0,0,0,0,0
participant_3_BUY,[],[],[],[],[],[],[],[],[],[],[],[],[],[],[],[],[],[],[],[],[],[],[],[],[],[]
participant_3_SOLD,[],[],[],[],[],[],[],[],[],[],[],[],[],[],[],[],[],[],[],[],[],[],[],[],[],[]
participant_3_UNDO,[],[],[],[],[],[],[],[],[],[],[],[],[],[],[],[],[],[],[],[],[],[],[],[],[],[]
participant_4_GOLD,500,500,541,983,1427,1549,2143,2286,2650,2924,3047,3811,4272,4600,5050,6190,7056,7465,7892,8610,9724,10429,10991,11164,11411,11829
participant_4_CURRENTGOLD,500,0,41,483,927,99,693,836,1200,1474,222,986,1447,25,475,1615,2481,65,492,1210,2324,179,741,914,541,779
participant_4_LEVEL,1,1,1,2,2,3,4,4,5,5,5,6,7,7,8,9,9,10,11,11,12,13,13,13,13,14
participant_4_MINIONSKILLED,0,0,1,1,1,1,5,6,11,12,12,15,16,16,26,38,42,47,47,56,65,65,65,65,65,67
participant_4_KILLS,0,0,0,1,2,2,2,2,2,2,2,3,3,3,3,4,5,6,6,6,7,9,9,9,9,9
participant_4_BUY,[],"[1054, 2003]",[],[],[],"[2033, 1053, 2003]",[],[],[],[],"[3077, 2003]",[],[],"[3006, 1036, 1042]",[],[],[],"[3074, 3133, 1018]",[],[],[],"[3508, 3035]",[],[],[3123],[]
participant_4_SOLD,[],[],[],[2003],[],[],[2003],[],[],[],[],[],[],[2003],[],[],[],"[3077, 1053, 1036]",[],[],[],"[3133, 1018]",[],[],[1054],[]
participant_4_UNDO,[],[],[],[],[],"[[0, 2033]]",[],[],[],[],[],[],[],[],[],[],[],[],[],[],[],[],[],[],[],[]
participant_5_GOLD,500,500,576,1188,1431,1776,1941,2275,2523,2723,3252,3451,3873,4066,4265,4416,4727,4870,5084,5220,5774,6066,6508,8494,9012,9159
participant_5_CURRENTGOLD,500,0,76,688,931,1276,41,325,573,773,1302,351,773,366,565,716,1027,295,509,645,399,691,708,2394,212,359
participant_5_LEVEL,1,1,1,2,3,4,4,5,5,6,7,7,7,8,8,8,9,9,9,10,10,11,11,12,13,13
participant_5_MINIONSKILLED,0,0,3,7,14,17,19,21,28,32,38,43,51,55,59,61,72,73,78,79,81,85,96,114,124,127
participant_5_KILLS,0,0,0,1,1,1,1,1,1,1,2,2,2,2,2,2,2,2,2,2,3,3,3,5,5,5
participant_5_BUY,[],"[1055, 2003, 3340]",[],[],[],[],"[1038, 2003, 2003]",[2003],[],[],[],"[1018, 1042, 2003]",[],"[3086, 1001]",[],[],[],[1037],[],[],[1018],[],[3031],[1042],"[3006, 3046, 1042, 2015, 1042]",[]
participant_5_SOLD,[],[],[],[],[2003],[],[],[],[],[],"[2003, 2003, 2003]",[],[2003],"[1018, 1042]",[],[],[],[],[],[],[],[],"[1038, 1037, 1018]",[],"[1001, 1042, 3086, 1042]",[]
participant_5_UNDO,[],[],[],[],[],[],[],[],[],[],[],[],[],[],[],[],[],[],[],[],[],[],[],[],[],[]
participant_6_GOLD,500,500,562,733,885,1007,1130,1357,1479,1602,1724,1847,1969,2091,2214,2336,2459,2581,2703,2826,2948,3071,3193,3379,3579,3740
participant_6_CURRENTGOLD,500,0,62,233,35,157,130,357,29,152,274,397,19,141,264,86,209,331,53,176,298,21,143,329,529,690
participant_6_LEVEL,1,1,1,2,3,3,4,4,4,4,4,4,5,5,5,5,5,5,5,6,6,6,6,8,9,9
participant_6_MINIONSKILLED,0,0,2,5,7,7,7,13,13,13,13,13,13,13,13,13,13,13,13,13,13,13,13,14,19,22
participant_6_KILLS,0,0,0,0,0,0,0,0,0,0,0,0,0,0,0,0,0,0,0,0,0,0,0,0,0,0
participant_6_BUY,[],"[1054, 2003, 3340]",[],[],[1036],[],"[2003, 2003, 2003]",[],"[1028, 2003]",[],[],[],[3044],[],[],[1001],[],[],[1028],[],[],[3067],[],[],[],[]
participant_6_SOLD,[],[],[],[2003],[],[],[2003],[2003],[2003],[],[],[],"[1028, 1036]",[],[],[],[],[],[],[],[],[1028],[],[2003],[],[]
participant_6_UNDO,[],[],[],[],[],[],[],[],[],[],[],[],[],[],[],[],[],[],[],[],[],[],[],[],[],[]
participant_7_GOLD,500,500,590,824,1339,1580,2152,2274,2971,3171,3342,3663,3967,4089,4212,4376,4533,5227,5349,5472,5732,7673,7796,8542,8839,8950
participant_7_CURRENTGOLD,500,0,90,324,839,1080,1652,74,771,971,342,663,967,1089,1212,141,298,992,249,372,632,2573,146,892,504,615
participant_7_LEVEL,1,1,1,3,4,5,6,6,8,8,8,9,9,9,9,9,9,10,11,11,11,12,12,12,13,13
participant_7_MINIONSKILLED,0,0,4,11,16,20,30,30,39,43,46,53,56,56,56,59,61,62,62,62,66,72,72,77,82,83
participant_7_KILLS,0,0,0,0,1,1,2,2,3,3,3,3,3,3,3,3,3,4,4,4,4,6,6,7,7,7
participant_7_BUY,[],"[1056, 2003, 2003, 3340]",[],[],[],[],[],"[1001, 3108, 1029, 2003, 2003, 2003, 2003]",[],[],[3191],[],[],[],[],"[3020, 1052]",[],[],[3802],[],[],[],"[3285, 2420]",[],"[3157, 1052]",[]
participant_7_SOLD,[],[],[],[],[2003],[2003],[],[],[],[2003],[1029],[2003],[],[],[2003],[1001],[2003],[],[1052],[],[],[],[3802],[],"[3191, 3108, 2420]",[]
participant_7_UNDO,[],[],[],[],[],[],[],[],[],[],[],[],[],[],[],[],[],[],[],[],[],[],[],[],[],[]
participant_8_GOLD,500,500,534,851,995,1312,1456,2039,2211,2368,2628,2926,3812,3991,4134,5348,5491,5613,5736,5997,6195,6445,6609,6909,7066,7358
participant_8_CURRENTGOLD,500,0,34,351,495,812,71,654,826,983,178,476,962,341,484,1698,291,413,86,347,545,795,109,409,566,858
participant_8_LEVEL,1,1,1,2,3,4,4,5,6,6,7,7,7,8,8,9,9,9,9,10,10,11,11,12,12,12
participant_8_MINIONSKILLED,0,0,1,4,5,7,8,18,21,23,23,25,26,30,31,37,38,38,38,42,42,44,46,51,53,56
participant_8_KILLS,0,0,0,0,0,0,0,1,1,1,1,1,2,2,2,3,3,3,3,3,3,3,3,3,3,3
participant_8_BUY,[],"[1056, 2003, 2003, 3340]",[],[],[],[],"[1001, 1052, 2003, 2003, 2003]",[],[],[],"[3145, 1028, 2003]",[],[3067],[3111],[],[],"[3152, 3108]",[],[1033],[],[],[],[1026],[],[],[]
participant_8_SOLD,[],[],[],[],"[2003, 2003]",[],[],"[2003, 2003]",[],[],[1052],[2003],"[1028, 2003]",[1001],[],[],"[3145, 3067]",[],[],[],[],[],[],[],[],[]
participant_8_UNDO,[],[],[],[],[],[],[],[],[],[],[],[],[],[],[],[],[],[],[],[],[],[],[],[],[],[]
participant_9_GOLD,500,500,541,719,927,1098,1221,1455,1577,1742,2405,2563,2802,3086,3209,3481,3604,3974,4180,4303,4453,4676,4819,5250,5590,5716
participant_9_CURRENTGOLD,500,0,41,219,227,398,221,455,177,342,1005,313,552,436,159,431,554,474,680,453,603,826,969,450,490,116
participant_9_LEVEL,1,1,1,2,2,3,4,4,4,5,6,7,8,8,8,9,9,10,10,10,10,11,11,12,13,13
participant_9_MINIONSKILLED,0,0,1,4,9,12,12,19,19,22,27,29,31,37,37,37,37,43,48,48,50,50,51,59,71,73
participant_9_KILLS,0,0,0,0,0,0,0,0,0,0,1,1,1,1,1,1,1,1,1,1,1,1,1,1,1,1
participant_9_BUY,[],"[1054, 2003, 3340]",[],[],"[2003, 2003, 2003, 2003]",[],[1001],[],[1028],[],[],[3044],[],[1028],[3067],[],[],[1033],[],[3111],[],[],[],[3071],[1029],[1031]
participant_9_SOLD,[],[],[],[2003],[],[],[2003],"[2003, 2003]",[2003],[],[],[1028],[],[],[1028],[],[],[],[],"[1001, 1033]",[],[],[],"[3044, 3067]",[],[1029]
participant_9_UNDO,[],[],[],[],[],[],[],[],[],[],[],[],[],[],[],[],[],[],[],[],[],[],[],[],[],[]
team0_KILLS,0,0,0,1,2,2,5,5,7,8,9,12,14,14,16,19,22,23,27,28,32,34,35,37,37,41
team0_CURRENTGOLD,2500,500,756,2166,2833,1783,4599,4109,5194,6954,3000,5110,5227,3024,5451,6239,9944,3576,5785,5622,8165,7126,8855,7224,7359,9890
team0_TOTALGOLD,2500,2500,2756,4166,5583,6443,9259,10169,11954,13714,15000,17545,20562,21609,24036,26774,30479,31436,33645,36097,38940,40751,43279,45448,46203,48915
team0_LEVEL,5,5,5,10,13,17,21,23,27,29,31,35,37,38,42,44,46,47,50,51,53,55,55,58,58,60
team0_SBIRES,0,0,9,24,37,48,72,84,103,124,136,159,183,188,219,240,260,267,283,299,317,325,337,346,346,357
team1_KILLS,0,0,0,1,2,2,3,4,5,5,7,7,8,8,8,9,9,10,10,10,11,13,13,16,16,16
team1_CURRENTGOLD,2500,0,303,1815,2527,3723,2115,1865,2376,3221,3101,2200,3273,2373,2684,3072,2379,2505,1577,1993,2477,4906,2075,4474,2301,2638
team1_TOTALGOLD,2500,2500,2803,4315,5577,6773,7900,9400,10761,11606,13351,14450,16423,17323,18034,19957,20814,22265,23052,23818,25102,27931,28925,32574,34086,34923
team1_LEVEL,5,5,5,11,15,19,22,24,27,29,32,34,36,38,38,40,41,43,44,47,47,51,51,56,60,60
team1_SBIRES,0,0,11,31,51,63,76,101,120,133,147,163,177,191,196,207,221,229,239,244,252,264,278,315,349,361
delta_KILLS,0,0,0,0,0,0,2,1,2,3,2,5,6,6,8,10,13,13,17,18,21,21,22,21,21,25
delta_CURRENTGOLD,0,500,453,351,306,-1940,2484,2244,2818,3733,-101,2910,1954,651,2767,3167,7565,1071,4208,3629,5688,2220,6780,2750,5058,7252
delta_TOTALGOLD,0,0,-47,-149,6,-330,1359,769,1193,2108,1649,3095,4139,4286,6002,6817,9665,9171,10593,12279,13838,12820,14354,12874,12117,13992
delta_LEVEL,0,0,0,-1,-2,-2,-1,-1,0,0,-1,1,1,0,4,4,5,4,6,4,6,4,4,2,-2,0
delta_SBIRES,0,0,-2,-7,-14,-15,-4,-17,-17,-9,-11,-4,6,-3,23,33,39,38,44,55,65,61,59,31,-3,-4
