name,frame_0,frame_1,frame_2,frame_3,frame_4,frame_5,frame_6,frame_7,frame_8,frame_9,frame_10,frame_11,frame_12,frame_13,frame_14,frame_15,frame_16,frame_17,frame_18,frame_19,frame_20,frame_21,frame_22,frame_23,frame_24,frame_25,frame_26,frame_27,frame_28,frame_29,frame_30
nameStamp,Tstart,Tearly,Tearly,Tearly,Tearly,Tearly,Tearly,Tearly,Tearly,Tearly,Tearly,Tearly,Tearly,Tearly,Tearly,Tearly,Tearly,Tmid,Tmid,Tmid,Tmid,Tmid,Tmid,Tmid,Tmid,Tmid,Tmid,Tmid,Tend,Tend,Tend
timestamp,0,60011,120031,180049,240055,300066,360088,420118,480137,540165,600194,660194,720212,780219,840241,900264,960291,1020313,1080327,1140355,1200373,1260398,1320424,1380454,1440473,1500481,1560512,1620517,1680542,1740553,1800553
participant_0_GOLD,500,500,611,755,1224,1346,1616,2340,2484,2620,2764,2989,3475,3598,3853,4067,4489,4674,5407,5592,6351,6878,7001,8123,8832,9074,9196,9472,9644,10216,10448
participant_0_CURRENTGOLD,500,0,111,255,724,96,366,1090,1234,170,14,239,25,148,403,617,1039,124,857,342,1101,428,550,273,982,1224,96,372,544,1116,548
participant_0_LEVEL,1,1,1,2,4,4,5,7,7,7,8,8,8,9,9,10,10,11,12,12,13,13,13,14,14,14,14,15,15,15,16
participant_0_MINIONSKILLED,0,0,5,6,15,15,23,33,34,35,36,39,40,40,48,53,58,62,74,78,91,97,97,97,97,100,100,105,108,108,108
participant_0_KILLS,0,0,0,0,0,0,0,0,0,1,1,1,1,1,1,1,1,1,1,1,1,1,1,2,2,2,2,2,2,2,2
participant_0_BUY,[],"[1055, 2003]",[],[],[1054],[2031],[],[],[],"[1033, 1029]",[],[],"[6660, 3155, 1028]",[],[],[],[3044],[],[3057],[],[],"[3067, 6632]",[],[1001],[],[],"[3133, 1033]",[],[],[3111],[]
participant_0_SOLD,[],[],[],[],[],[2003],[],[],[],[],[],[],"[1033, 1029]",[],[],[],[1028],[],[],[],[],"[2031, 1054, 3044, 3057, 3067]",[],[],[],[],[],[],[],"[1001, 1033]",[]
participant_0_UNDO,[],[],[],[],[],[],[],[],[],[],[],[],"[[0, 6660]]",[],[],[],[],[],[],[],[],[],[],[],[],[],[],[],[],[],[]
participant_1_GOLD,500,500,620,913,1597,1796,2054,2176,2438,2756,2878,3291,3640,3849,4174,4381,5009,5357,5671,5794,7594,7893,8015,8277,9244,9366,9514,10006,10129,10430,11515
participant_1_CURRENTGOLD,500,0,120,413,1097,96,354,41,303,621,743,1156,1505,849,1164,171,799,1147,1461,349,2149,198,320,582,1549,457,604,1156,430,295,1330
participant_1_LEVEL,1,1,2,2,4,4,5,5,5,6,6,6,7,7,8,8,9,9,10,10,11,12,12,12,13,13,13,13,13,14,15
participant_1_MINIONSKILLED,0,0,0,0,4,4,4,4,4,4,4,4,9,9,15,15,15,15,18,18,20,20,20,21,21,21,21,21,21,23,25
participant_1_KILLS,0,0,0,0,0,0,0,0,0,1,1,1,1,1,1,1,1,1,1,1,1,1,1,1,1,1,1,1,1,1,1
participant_1_BUY,[],"[3858, 3340, 2003]",[],[],[],[1001],[],[1029],[],[3047],[1029],[],[1028],[],[6660],[],[],[],[1033],[],[],[3105],[],[],[],[],"[3068, 1029, 1029]",[],"[1029, 3082]",[],[]
participant_1_SOLD,[],[],[],[],[],[],[2003],[],[],"[1001, 1029]",[],[],[],[],[1028],[],[],[],[],[],[],"[1033, 1029]",[],[],[],[],"[6660, 3105]",[],"[1029, 1029]",[],[3858]
participant_1_UNDO,[],[],[],[],[],[],[],[],[],[],[],[],[],[],[],[],[],[],[],[],[],[],[],[],[],[],[],[],"[[0, 1029]]",[],[]
participant_2_GOLD,500,500,590,878,1015,1200,1435,1629,1911,2406,2656,2828,3027,3233,3356,3730,3916,4282,4488,4855,5568,5845,6002,6630,7026,7350,7473,7787,7910,8033,8114
participant_2_CURRENTGOLD,500,0,90,368,55,90,325,519,791,536,786,958,117,323,446,820,306,672,178,545,1258,275,432,760,1156,1480,53,367,490,263,-86
participant_2_LEVEL,1,1,1,3,3,4,5,6,6,7,7,8,8,8,8,9,9,10,10,11,11,11,11,12,12,13,13,13,13,13,13
participant_2_MINIONSKILLED,0,0,4,11,12,15,21,24,31,32,39,42,46,51,51,62,66,76,81,91,99,101,103,106,115,122,122,124,124,124,124
participant_2_KILLS,0,0,0,0,0,0,0,0,0,0,0,0,0,0,2,2,2,2,3,3,4,4,4,6,6,6,7,7,7,9,9
participant_2_BUY,[],"[1055, 2003, 3340]",[],[],[],[],[],"[1038, 2055]",[],[1036],[],[],[],[3006],[],"[3086, 2055]",[],[],[1037],[],[],[],[3085],[],[3095],[2055],[],[6670],[],[1018],[6673]
participant_2_SOLD,[],[],[],[],[],[],[2003],[],[],[],[2055],[],[],[],[],[],[2055],[],[],[],[],[],"[1037, 3086]",[],[1038],[2055],[],[1036],[],[],"[6670, 1018]"
participant_2_UNDO,[],[],[],[],[],[],[],[],[],[],[],[],[],[],[],[],[],[],[],[],[],[],[],[],[],[],[],[],[],[],[]
participant_3_GOLD,500,500,583,927,1155,1480,1680,1921,2064,2325,2573,2939,3209,3394,4621,4778,5060,5349,5799,6129,6722,7003,7174,8227,8390,8828,9260,9621,10210,11499,11616
participant_3_CURRENTGOLD,500,0,83,427,655,980,1180,46,189,100,348,714,984,69,1296,178,460,749,324,654,1247,1528,374,1427,190,553,986,396,985,1675,291
participant_3_LEVEL,1,1,1,2,3,4,4,4,5,5,6,6,7,7,8,9,9,9,10,10,11,11,11,12,12,13,13,13,13,14,14
participant_3_MINIONSKILLED,0,0,3,13,19,29,34,41,42,46,53,64,69,73,82,84,88,94,96,100,101,105,108,115,115,124,125,130,144,146,148
participant_3_KILLS,0,0,0,0,0,0,0,1,1,1,1,1,2,2,2,2,2,2,3,3,4,4,4,5,6,6,6,6,6,7,7
participant_3_BUY,[],"[1036, 2003, 2003, 2003, 3340]",[],[],[],[3044],[],[],[],[6029],[1001],[],"[1028, 1029]",[],[],[],[],"[3047, 6630]",[],"[1036, 1036]",[],"[3133, 3067]",[],[3071],[],[],"[1033, 3211]",[],[],[],[3067]
participant_3_SOLD,[],[],[],"[2003, 2003]",[2003],[1036],[],[],[],[],[],[],[],[],[],[],[],"[1001, 1029, 6029, 3044, 1028]",[],[],[],"[1036, 1036]",[],"[3133, 3067]",[],[],[1033],[],[],[],[]
participant_3_UNDO,[],[],[],[],[],[],[],[],[],[],[],[],[],[],[],[],[],[],[],[],[],[],[],[],[],[],[],[],[],[],[]
participant_4_GOLD,500,500,522,657,792,954,1089,1244,1378,1908,2042,2219,2431,2625,2930,3094,3316,3541,3717,3866,4295,4505,4639,4913,5143,5277,5582,5716,5852,6061,6152
participant_4_CURRENTGOLD,500,50,72,207,342,204,339,194,328,358,192,369,181,375,80,244,466,691,417,566,995,455,589,863,1093,1227,232,366,101,311,402
participant_4_LEVEL,1,1,1,2,2,3,4,4,5,5,6,6,6,7,7,7,7,8,8,9,9,9,9,10,11,11,11,11,12,12,12
participant_4_MINIONSKILLED,0,0,0,0,0,2,2,3,3,3,3,5,6,8,8,9,10,15,17,18,18,18,18,19,19,19,19,19,19,19,19
participant_4_KILLS,0,0,0,0,1,1,1,1,1,1,1,1,1,1,1,1,2,2,2,2,5,5,5,5,7,7,7,8,8,8,9
participant_4_BUY,[],"[1039, 2031]",[],[],[],"[1001, 3108]",[],[1052],[],[],[],[],[],[3802],[],[6653],[],[],[],"[3020, 1052]",[],"[3157, 1052]",[],[],[],"[3916, 1026]",[],[],[3165],[1052],[]
participant_4_SOLD,[],[],[],[],[],[],[],[],[],[2419],[1039],[],[],[1052],[],"[3802, 3108]",[],[],[3330],[1001],[3513],"[1052, 2423]",[],[],[],[1052],[],[2031],"[1026, 3916]",[],[]
participant_4_UNDO,[],[],[],[],[],[],[],[],[],[],[],[],[],[],[],[],[],[],[],[],[],[],[],[],[],[],[],[],[],[],[]
participant_5_GOLD,500,500,541,839,1039,1434,1718,1927,2230,2767,3356,3638,4081,4519,5072,5474,6202,6450,6614,7315,7801,8657,9204,9377,9599,9721,9844,10811,10934,12703,13085
participant_5_CURRENTGOLD,500,0,41,339,239,634,918,177,480,1017,1606,588,156,594,1147,1549,177,425,589,1290,56,912,1459,1632,229,352,124,1091,664,2434,435
participant_5_LEVEL,1,1,1,3,3,5,6,6,7,7,8,8,9,10,10,11,11,12,12,13,13,13,14,14,14,14,14,15,15,16,16
participant_5_MINIONSKILLED,0,0,1,11,15,28,37,39,47,58,66,72,73,88,100,112,118,125,128,138,139,145,147,147,147,147,147,147,147,151,152
participant_5_KILLS,0,0,0,0,0,0,0,0,0,0,0,0,0,0,0,0,0,0,1,1,1,1,3,3,4,5,5,5,5,5,5
participant_5_BUY,[],[1039],[],[],[],[],"[6660, 1029, 2055, 2031, 2055]",[],[1033],[],"[3105, 2055, 3364]",[],[],[],[],[],[],[],"[3068, 3082, 3067, 1029]",[],[1001],[],[],"[3047, 3143, 1028, 1029]",[],[],"[3076, 1011]",[],[],"[3075, 3066]",[]
participant_5_SOLD,[],[],[],[],[],[],[],[2055],[],[],"[1033, 1029, 3340]",[],[],[],"[2055, 1039]",[],[],[],"[6660, 3105]",[],[],[],[],"[1001, 1029, 3082, 3067]",[],[],"[1029, 1028]",[],[],"[3076, 1011]",[]
participant_5_UNDO,[],[],[],[],[],[],"[[0, 2055], [0, 2031]]",[],[],[],[],[],[],[],[],[],[],[],[],[],[],[],[],[],[],[],[],[],[],[],[]
participant_6_GOLD,500,500,620,963,1368,1668,1875,2302,2425,2732,3103,3225,3585,3820,4297,4635,5100,5458,5916,6130,6344,6911,7942,8250,8722,9292,9864,10513,10829,11101,11333
participant_6_CURRENTGOLD,500,150,270,613,1018,1318,150,577,250,557,103,225,585,820,1297,1635,2100,2458,116,330,244,811,1842,50,522,1092,664,1314,1629,101,333
participant_6_LEVEL,1,1,2,3,3,4,4,5,5,6,6,6,7,8,8,9,9,10,10,10,10,12,12,13,13,13,14,14,15,15,15
participant_6_MINIONSKILLED,0,0,0,0,1,1,1,5,5,5,5,5,6,6,7,8,9,9,12,14,16,16,18,18,18,18,18,18,20,20,20
participant_6_KILLS,0,0,0,0,0,0,0,0,0,0,1,1,2,2,2,2,2,2,2,3,3,5,5,5,5,5,5,6,6,11,11
participant_6_BUY,[],"[1055, 2003, 3340]",[],[],[1001],[],[],"[3006, 2003, 2003, 2003]",[],[],[],[6670],[1037],[],[],[],"[6672, 1037]",[],[],[],"[1038, 1018]",[],[],[],"[3031, 1043]",[],[1036],[],[1053],[],"[3153, 1042, 1018]"
participant_6_SOLD,[],[],[],[2003],[],[],[],[1001],"[2003, 2003]",[2003],[],[],[],[],[],[],"[6670, 1037]",[],[],[],[1055],[],[],[],"[1038, 1037, 1018]",[],[],[],[1036],[],"[1053, 1043]"
participant_6_UNDO,[],[],[],[],[],[],[],[],[],[],[],[],[],[],[],[],[],[],[],[],[],[],[],[],[],[],[],[],[],[],[]
participant_7_GOLD,500,500,562,850,1442,1816,2023,2566,2688,3563,3783,4032,4892,5098,6172,6437,7024,7383,7972,8353,8525,8957,9916,10239,11133,11255,12247,12719,13436,13779,14011
participant_7_CURRENTGOLD,500,0,62,340,122,486,693,1226,258,1133,1353,1602,2462,118,1182,342,929,288,877,543,280,713,1672,29,923,146,1137,360,1077,35,126
participant_7_LEVEL,1,1,1,3,4,5,6,6,7,7,8,8,9,9,10,10,11,11,12,12,12,13,13,13,14,14,14,15,15,16,16
participant_7_MINIONSKILLED,0,0,2,9,12,24,29,32,32,39,45,52,58,63,68,72,76,85,90,94,94,108,109,109,119,119,124,124,126,127,127
participant_7_KILLS,0,0,0,0,0,1,1,1,1,2,2,2,3,3,4,4,4,4,5,5,5,5,5,5,5,5,6,6,7,7,8
participant_7_BUY,[],"[1056, 2003, 2003, 3340]",[],[],[],[],"[1052, 1052, 2031]",[],"[3802, 2055]",[1026],[],[],[6656],[2055],[],[3108],[],[],"[3157, 2055]",[],[],[1058],[],[3020],[],[],[],[],[],[3089],[]
participant_7_SOLD,[],[],[],[],[],[2010],"[2003, 2003, 2010]",[2010],"[1052, 1052]",[],[],[],"[3802, 1026]","[2055, 2055]",[],[],[],[],[3108],[2055],[],[1056],[],[2422],[],[],[],[],[],[1058],[]
participant_7_UNDO,[],[],[],[],[],[],[],[],[],[],[],[],[],[],[],[],[],[],[],[],[],[],[],[],[],[],[],[],[],[],[]
participant_8_GOLD,500,500,583,818,1120,1605,1826,2252,2562,2999,3219,3585,4249,4486,5102,5224,6029,6256,6991,7494,7861,8025,8450,8815,9037,9291,9868,10585,11279,11861,12585
participant_8_CURRENTGOLD,500,0,83,318,620,1105,346,772,577,164,384,750,164,326,942,164,969,1196,256,759,1126,200,625,190,412,667,1243,1960,2655,687,1210
participant_8_LEVEL,1,1,1,2,3,4,4,5,6,6,6,7,8,8,9,9,9,10,10,11,11,11,11,12,12,12,13,13,14,15,15
participant_8_MINIONSKILLED,0,0,3,10,18,22,27,42,50,51,57,68,79,87,94,94,106,113,123,141,148,151,159,161,161,165,174,181,188,200,209
participant_8_KILLS,0,0,0,0,1,1,1,2,2,4,4,4,5,5,7,7,8,8,9,10,10,10,12,12,13,13,15,15,16,16,16
participant_8_BUY,[],"[1055, 2003, 3340]",[],[],"[1052, 1001, 2055]",[],[],[],"[3145, 1028, 2055]",[],[],[],[],"[4636, 3020]",[],"[1026, 1052]",[],[1043],[],[3115],[1052],[],[],"[3057, 3113, 1026]",[],"[3100, 1029]",[],"[3191, 2420]",[],"[3157, 1052]",[]
participant_8_SOLD,[],[],[],[2003],[],[2055],[],[],[1052],[],[],[],[],"[3145, 1028, 1001]",[],"[1055, 2055]",[],[],[],"[1043, 1026, 1052]",[],[],[],[1052],[],"[3057, 3113, 1026]",[],[1029],[],"[3191, 2420]",[]
participant_8_UNDO,[],[],[],[],[],[],[],[],[],[],[],[],[],[],[],[],[],[],[],[],[],[],[],[],[],[],[],[],[],[],[]
participant_9_GOLD,500,500,520,643,766,1045,1189,1372,1597,1881,2016,2150,2458,2593,2979,3156,3404,3539,3907,4200,4481,4642,4998,5609,5856,6146,6661,7152,7425,7677,7921
participant_9_CURRENTGOLD,500,0,20,143,266,175,319,102,327,11,146,280,588,123,-141,36,284,418,-163,130,411,497,853,164,-39,251,216,-143,130,382,696
participant_9_LEVEL,1,1,1,2,3,3,4,4,5,5,5,6,7,7,7,8,8,8,9,9,9,9,10,10,11,11,12,13,13,13,13
participant_9_MINIONSKILLED,0,0,0,0,0,0,1,4,6,6,6,6,7,7,9,12,13,13,15,20,21,22,23,24,27,27,27,27,30,30,30
participant_9_KILLS,0,0,0,0,0,0,0,0,0,0,0,0,0,0,0,0,0,0,0,0,0,0,0,1,1,1,2,2,2,2,2
participant_9_BUY,[],"[1054, 2003, 3340]",[],[],[],"[3854, 2055, 2055]",[],[1028],[],[6660],[],[],[],"[1029, 1033, 1001]",[3009],[],[],[],[1057],[],[],"[2055, 3364]",[],"[6664, 1029]",[1028],[],[1031],"[3066, 1028]",[],[],[]
participant_9_SOLD,[],[],[],[2003],[],[1054],[2055],[],[],[1028],[],[2055],[],[],[1001],[],[],[],[3854],[],[],[3340],[],"[6660, 1029, 1057]",[],[2055],[1029],[1028],[3855],[],[]
participant_9_UNDO,[],[],[],[],[],[],[],[],[],[],[],[],[],"[[0, 1033]]",[],[],[],[],[],[],[],[],[],[],[],[],[],[],[],[],[]
team0_KILLS,0,0,0,0,1,1,1,2,2,4,4,4,5,5,7,7,8,8,10,10,15,15,15,19,22,22,23,24,24,27,28
team0_CURRENTGOLD,2500,50,476,1670,2873,1466,2564,1890,2845,1785,2083,3436,2812,1764,3389,2030,3070,3383,3237,2456,6750,2884,2265,3905,4970,4941,1971,2657,2550,3660,2485
team0_TOTALGOLD,2500,2500,2926,4130,5783,6776,7874,9310,10275,12015,12913,14266,15782,16699,18934,20050,21790,23203,25082,26236,30530,32124,32831,36170,38635,39895,41025,42602,43745,46239,47845
team0_LEVEL,5,5,6,11,16,19,23,26,28,30,33,34,36,38,40,43,44,47,50,52,55,56,56,60,62,64,64,65,66,68,70
team0_SBIRES,0,0,12,30,50,65,84,105,114,120,135,154,170,181,204,223,237,262,286,305,329,341,346,358,367,386,387,399,416,420,424
team1_KILLS,0,0,0,0,1,2,2,3,3,6,7,7,10,10,13,13,14,14,17,19,19,21,25,26,28,29,33,34,36,41,42
team1_CURRENTGOLD,2500,150,476,1753,2265,3718,2426,2854,1892,2882,3592,3445,3955,1981,4427,3726,4459,4785,1675,3052,2117,3133,6451,2065,2047,2508,3384,4582,6155,3639,2800
team1_TOTALGOLD,2500,2500,2826,4113,5735,7568,8631,10419,11502,13942,15477,16630,19265,20516,23622,24926,27759,29086,31400,33492,35012,37192,40510,42290,44347,45705,48484,51780,53903,57121,58935
team1_LEVEL,5,5,6,13,16,21,24,26,30,31,33,35,40,42,44,47,48,51,53,55,55,58,60,62,64,64,67,70,72,75,75
team1_SBIRES,0,0,6,30,46,75,95,122,140,159,179,203,223,251,278,298,322,345,368,407,418,442,456,459,472,476,490,497,511,528,538
delta_KILLS,0,0,0,0,0,-1,-1,-1,-1,-2,-3,-3,-5,-5,-6,-6,-6,-6,-7,-9,-4,-6,-10,-7,-6,-7,-10,-10,-12,-14,-14
delta_CURRENTGOLD,0,-100,0,-83,608,-2252,138,-964,953,-1097,-1509,-9,-1143,-217,-1038,-1696,-1389,-1402,1562,-596,4633,-249,-4186,1840,2923,2433,-1413,-1925,-3605,21,-315
delta_TOTALGOLD,0,0,100,17,48,-792,-757,-1109,-1227,-1927,-2564,-2364,-3483,-3817,-4688,-4876,-5969,-5883,-6318,-7256,-4482,-5068,-7679,-6120,-5712,-5810,-7459,-9178,-10158,-10882,-11090
delta_LEVEL,0,0,0,-2,0,-2,-1,0,-2,-1,0,-1,-4,-4,-4,-4,-4,-4,-3,-3,0,-2,-4,-2,-2,0,-3,-5,-6,-7,-5
delta_SBIRES,0,0,6,0,4,-10,-11,-17,-26,-39,-44,-49,-53,-70,-74,-75,-85,-83,-82,-102,-89,-101,-110,-101,-105,-90,-103,-98,-95,-108,-114
