name,team0,team1
win,Win,Fail
firstBlood,False,True
firstTower,False,True
firstInhibitor,True,False
firstBaron,True,False
firstDragon,True,False
firstRiftHerald,False,True
towerKills,9,7
inhibitorKills,1,0
baronKills,1,0
dragonKills,2,3
riftHeraldKills,0,2
