name,frame_0,frame_1,frame_2,frame_3,frame_4,frame_5,frame_6,frame_7,frame_8,frame_9,frame_10,frame_11,frame_12,frame_13,frame_14,frame_15,frame_16,frame_17,frame_18,frame_19,frame_20,frame_21,frame_22,frame_23,frame_24,frame_25,frame_26,frame_27,frame_28,frame_29,frame_30,frame_31,frame_32,frame_33,frame_34,frame_35
nameStamp,Tstart,Tearly,Tearly,Tearly,Tearly,Tearly,Tearly,Tearly,Tearly,Tearly,Tearly,Tearly,Tearly,Tearly,Tearly,Tmid,Tmid,Tmid,Tmid,Tmid,Tmid,Tmid,Tmid,Tmid,Tmid,Tmid,Tmid,Tend,Tend,Tend,Tend,Tend,Tend,Tend,Tend,Tend
timestamp,0,60007,120011,180034,240034,300064,360068,420093,480098,540125,600153,660158,720186,780218,840238,900239,960249,1020286,1080312,1140342,1200364,1260396,1320411,1380444,1440460,1500487,1560500,1620525,1680536,1740556,1800576,1860579,1920592,1980624,2040644,2100644
participant_0_GOLD,500,500,562,713,1036,1200,1550,1798,2226,2433,2709,3137,3399,3633,3856,4430,4750,4976,5147,5528,5700,6060,6264,6442,6621,7356,7821,8342,9014,9152,9480,9602,9725,11247,11543,13119
participant_0_CURRENTGOLD,500,0,62,213,536,50,400,248,676,83,359,787,1049,1283,406,980,1300,326,197,578,210,270,174,352,531,116,581,1102,24,162,490,613,735,307,304,-291
participant_0_LEVEL,1,1,1,2,4,4,5,6,7,7,7,8,9,9,9,10,10,10,11,11,11,12,12,12,12,13,14,14,15,15,15,15,15,16,16,16
participant_0_MINIONSKILLED,0,0,2,4,13,15,26,33,39,45,54,59,67,74,74,85,93,98,101,112,112,121,121,124,128,133,136,146,153,154,157,157,157,157,163,169
participant_0_KILLS,0,0,0,0,0,0,0,0,0,0,0,0,0,0,0,0,0,0,0,0,0,0,0,0,0,1,1,1,1,1,1,1,1,1,1,1
participant_0_BUY,[],"[3850, 2003, 2003, 3340]",[],[],[],[],"[1082, 1004, 1004, 2055]",[],[],[],"[3028, 1004]",[],[3114],[],"[3364, 3041, 2055]",[],[1052],[],[],[],"[3174, 1028, 1006]",[],[],[3107],[],"[3114, 1052]",[],[],"[3113, 3504]",[],[],"[1058, 2055]",[],[],[],[]
participant_0_SOLD,[],[],[],[],[2003],[2003],[],[],[2055],[],"[1004, 1004]",[],[1004],[],"[3850, 3340, 1082]",[],[],[],[],[2055],"[1052, 3028]",[],[],"[3114, 1028, 1006]",[3851],[],[],[],"[1052, 3114, 3113, 3041, 3041]",[],[],[3041],[2055],[],[],[]
participant_0_UNDO,[],[],[],[],[],[],[],[],[],[],[],[],[],[],[],[],[],[],[],[],[],[],[],[],[],[],[],[],"[[3041, 0], [3041, 0]]",[],[],[],[],[],[],[]
participant_1_GOLD,500,500,675,1178,1571,2001,2573,2835,3082,3289,3715,4057,4480,4739,5634,6155,6328,6861,7325,7590,8366,8614,9003,9414,9670,10107,10545,11153,11377,12118,12488,12611,12818,13353,13560,13996
participant_1_CURRENTGOLD,500,0,175,28,421,851,1423,1685,232,439,865,1207,80,339,1234,1755,178,711,1175,340,1116,1364,654,674,930,1368,55,664,137,879,1249,46,254,789,996,1371
participant_1_LEVEL,1,1,2,2,3,5,5,6,6,6,7,7,8,8,8,9,9,10,10,11,11,12,12,12,13,13,14,14,15,15,16,16,16,16,16,17
participant_1_MINIONSKILLED,0,0,0,0,0,5,5,5,5,5,5,5,5,5,14,15,15,15,18,21,32,32,35,40,48,49,50,55,55,61,67,67,67,67,67,76
participant_1_KILLS,0,0,0,1,1,1,2,2,2,2,2,2,3,4,4,4,4,5,6,6,6,6,6,6,6,6,6,7,7,8,8,8,8,9,9,9
participant_1_BUY,[],"[1039, 2031, 3340]",[],[3706],[],[],[],[],"[1400, 2055, 3364]",[],[],[],"[1001, 3044]",[],[],[],[3071],[],[],"[3111, 1029]",[],[],[3133],[1033],[],[],"[3105, 1053, 3812]",[],"[1036, 1028]",[],[],"[3052, 1037]",[],[],[],[]
participant_1_SOLD,[],[],[],[1039],[],[],[],[],"[3706, 3340]",[],[],[],[],[2055],"[3364, 3513]",[],[3044],[],[],[1001],[],[],[],[2031],[],[],"[1033, 1029, 3105, 1053, 3133]",[],[],[],[],"[1036, 1028]",[],[],[],[]
participant_1_UNDO,[],[],[],[],[],[],[],[],[],[],[],[],[],[],[],[],[],[],[],[],[],[],[],[],[],[],[],[],[],[],[],[],[],[],[],[]
participant_2_GOLD,500,500,590,734,1352,1516,2520,3004,3763,4244,4659,5331,6041,6226,7848,8020,8262,9120,9242,9649,10525,10661,11138,11477,12396,13931,14374,14947,16405,16527,17278,17401,17523,17868,17990,19357
participant_2_CURRENTGOLD,500,0,90,234,852,116,1120,504,1263,1744,2159,2831,3541,376,1998,220,462,570,292,700,375,111,319,657,1577,3111,104,678,285,408,1159,1282,1404,1749,1641,2057
participant_2_LEVEL,1,1,1,2,4,4,6,6,8,8,9,10,10,11,12,12,12,13,13,13,14,14,14,14,15,15,16,16,17,17,18,18,18,18,18,18
participant_2_MINIONSKILLED,0,0,4,5,15,18,29,31,42,49,57,65,77,81,92,92,97,108,108,114,118,119,120,128,136,146,147,152,158,158,166,166,166,166,166,167
participant_2_KILLS,0,0,0,0,0,0,0,0,0,0,0,0,0,0,0,0,0,0,0,0,0,0,0,0,0,1,1,1,1,1,1,1,1,3,3,6
participant_2_BUY,[],"[2033, 3340]",[],[],[],"[1001, 1036]",[],[1028],[],"[3044, 1029]",[],[],[],[],"[3047, 1029, 1029]",[],[],"[3076, 3067]",[1029],[],"[3082, 3071]",[1029],[1029],[],[],"[3082, 1028, 1036]",[],[],"[3075, 3052, 1028]",[],[],[],[],"[3053, 1036]",[1029],"[3105, 3133]"
participant_2_SOLD,[],[],[],[],[],[],[],[],[],"[1028, 1036]",[],[],[],[],"[1001, 1029]",[],[],"[1029, 1029]",[],[],"[1029, 2033, 1029, 1029, 3044, 3067]",[],[],[],[],"[1029, 1029]",[],[],"[3076, 1028, 3082, 1036]",[],[],[],[],"[3052, 1028]",[],"[1029, 1036]"
participant_2_UNDO,[],[],[],[],[],[],[],[],[],[],[],[],[],[],[],[],[],[],[],[],"[[1029, 0], [0, 3082]]",[],[],[],[],[],[],[],[],[],[],[],[],[],[],[]
participant_3_GOLD,500,500,562,929,1184,1475,1751,2266,2563,2866,3142,3670,4172,4412,4698,5362,5722,6189,6354,6824,7108,7515,8402,8678,9300,9422,9870,10464,10795,11085,11448,11570,11693,11853,12160,12346
participant_3_CURRENTGOLD,500,0,62,429,684,975,26,541,838,1141,367,895,497,737,223,887,172,639,104,574,858,1265,52,253,75,198,45,639,671,240,253,76,198,358,116,121
participant_3_LEVEL,1,1,1,2,3,3,4,5,5,6,6,7,7,8,8,9,9,9,9,10,10,10,11,11,12,12,13,13,13,14,14,14,14,14,14,15
participant_3_MINIONSKILLED,0,0,2,12,19,26,35,40,50,56,65,72,80,84,88,98,101,117,120,122,124,131,131,136,137,137,137,142,142,143,144,144,144,144,144,144
participant_3_KILLS,0,0,0,0,1,1,2,3,4,5,5,6,7,7,9,9,9,10,10,10,12,12,12,12,13,16,16,16,19,19,20,20,20,20,20,21
participant_3_BUY,[],"[1054, 2003, 3340]",[],[],[],"[1028, 3751]",[],"[3076, 2003, 2003]",[],[],[],[],[],"[3068, 3047, 1028]",[],"[3075, 1033]",[],[3211],[1028],[],[3065],[1028],[1033],[],[],[],"[3194, 1011, 2138]",[],[3083],[],[],[],[],[],"[1011, 3082]",[]
participant_3_SOLD,[],[],[2003],[],[],[1028],[],"[2003, 2003]",[],[],[],[],[],[3751],[],"[3076, 1028]",[],[1033],[],[],"[3211, 1028]",[],[1054],[],[],[],"[1033, 1028, 2138]",[],[1011],[],[],[],[],[],[3047],[]
participant_3_UNDO,[],[],[],[],[],[],[],[],[],[],[],[],[],[],[],[],[],[],[],[],[],[],[],[],[],[],[],[],[],[],[],[],[],[],"[[0, 1011]]",[]
participant_4_GOLD,500,500,537,808,972,1152,1286,1509,1659,1913,2047,2401,2830,3073,3719,4054,4415,4555,4970,5221,5576,5731,6182,6386,6727,7822,8262,8531,8773,9125,9436,9577,9717,9945,10085,10529
participant_4_CURRENTGOLD,500,0,37,308,472,652,111,334,484,738,197,551,305,548,69,404,330,470,885,1136,76,231,682,136,477,337,777,1046,223,575,886,682,822,1050,1190,-1306
participant_4_LEVEL,1,1,1,2,3,3,4,4,5,6,6,6,7,7,8,8,8,9,9,10,10,10,11,11,11,13,13,14,14,14,14,14,14,15,15,16
participant_4_MINIONSKILLED,0,0,0,0,0,0,0,0,0,0,0,0,0,1,1,1,1,1,1,1,1,1,1,4,4,4,4,4,4,7,8,8,8,8,8,8
participant_4_KILLS,0,0,0,0,0,0,0,1,1,1,1,2,3,3,3,4,4,4,4,5,5,5,7,7,8,8,8,9,9,9,9,9,9,9,9,9
participant_4_BUY,[],"[1054, 3340, 2003]",[],[],[],[],"[3006, 2003, 2055]",[],[],[],"[1043, 2003]",[],[1053],[],"[3144, 2003, 2003]",[],"[3153, 1042, 3363, 2055]",[],[1043],[],[],[],[3124],[2055],[1018],[],[3086],[],[1042],[3046],[1036],[1029],[],[],[1053],[]
participant_4_SOLD,[],[],[],[],[],[2003],[],[],[],[],[],"[2003, 2003]",[],[2055],[1053],[2003],"[3144, 1043, 3340]",[],"[2003, 1042]",[2055],[],[],[1043],[],[],[],[1018],[2055],[],"[1054, 1042, 3086]",[],[],[],[],[1036],[]
participant_4_UNDO,[],[],[],[],[],[],[],[],[],[],[],[],[],[],[],[],[],[],[],[],[],[],[],[],[],[],[],[],[],[],[],[],[],[],[],[]
participant_5_GOLD,500,500,583,1021,1185,1864,2096,2682,2850,3374,3778,4017,4366,4606,4792,5047,5448,6073,6505,6648,7303,7792,8244,8451,8573,8798,9052,9174,9612,9811,10369,10878,11083,11526,11649,11922
participant_5_CURRENTGOLD,500,0,83,521,185,864,46,632,200,724,1128,567,916,1156,252,507,908,1533,932,275,930,824,526,183,305,230,484,307,744,144,701,1211,596,1039,261,189
participant_5_LEVEL,1,1,1,3,4,5,6,7,7,8,9,9,10,10,10,11,11,12,12,12,13,13,14,14,14,14,14,14,15,16,16,17,17,17,17,17
participant_5_MINIONSKILLED,0,0,3,14,16,29,35,48,50,61,75,82,91,97,101,109,118,133,144,145,155,157,165,165,165,168,171,171,174,178,179,179,183,187,187,187
participant_5_KILLS,0,0,0,1,2,2,2,2,2,2,2,4,5,5,6,7,7,7,8,8,8,8,9,9,9,10,10,12,12,12,15,17,17,19,19,20
participant_5_BUY,[],"[1041, 2003, 2003, 3340, 2003]",[],[3715],[],[],[1043],[],[],"[1001, 2031]",[],[],"[1419, 1018, 1042]",[],[],"[1038, 3086, 1042, 2031]",[],"[3085, 1042, 3363]",[],[3006],[],[],[3031],[3035],[1036],[],[3123],[3033],[],[3144],[],[3153],[2140],[],[2140],[]
participant_5_SOLD,[],[],[],[1041],[],[],"[2003, 2003]",[2003],[],[],[],[],"[1043, 3715, 2031]",[],[],"[1018, 1042]",[],"[1042, 3086, 3340]",[],"[1001, 1042]",[],[],"[2031, 1038]",[],[],[],[1036],"[3035, 3123]",[],[],[],[3144],[2140],[],[2140],[]
participant_5_UNDO,[],[],[],[],[],[],[],[],[],[],[],[],[],[],[],[],[],[],[],[],[],[],[],[],[],[],[],[],[],[],[],[],[],[],[],[]
participant_6_GOLD,500,500,620,1218,1838,2002,2230,2437,2559,2682,2989,4163,5429,5752,6409,7081,7661,7835,8593,8806,9277,9679,11198,11626,11903,12303,12837,14077,14316,14946,16450,17642,18447,19513,19824,20319
participant_6_CURRENTGOLD,500,0,120,68,688,852,80,287,409,82,389,1563,1164,1487,2144,766,1346,320,1078,791,1262,1664,1144,121,48,448,533,1222,1462,492,1995,1488,1793,2859,2670,3044
participant_6_LEVEL,1,1,2,2,3,4,4,5,5,5,5,7,8,9,10,10,11,11,12,12,13,13,14,14,15,15,15,16,16,16,17,18,18,18,18,18
participant_6_MINIONSKILLED,0,0,0,1,1,3,3,3,3,3,3,6,9,14,20,20,21,22,28,28,30,39,44,51,51,53,56,61,62,78,87,87,94,98,100,102
participant_6_KILLS,0,0,0,1,1,1,1,1,1,1,1,1,1,1,1,1,1,2,2,2,2,2,2,2,2,2,2,2,3,3,3,3,3,4,4,4
participant_6_BUY,[],"[1055, 2003, 3340]",[],[],[],"[3006, 2003]",[1042],[],[1042],[],[],"[1018, 2031]",[],[3086],[],[],[],[3046],[],[1038],[],[],[1037],[],[1018],[],"[3031, 1036]",[],"[1036, 3123]",[],[],[1036],[3033],[1053],[],[]
participant_6_SOLD,[],[],[],[2003],[],[],[],[],[],[2003],[],[],[],"[1018, 1042]",[],[],[],"[1042, 3086]",[],[],[],[],[],[],[2031],[],"[1038, 1037, 1018]",[],[1036],[],[],[1055],"[1036, 1036, 3123]",[],[],[]
participant_6_UNDO,[],[],[],[],[],[],[],[],[],[],[],[],[],[],[],[],[],[],[],[],[],[],[],[],[],[],[],[],[],[],[],[],[],[],[],[]
participant_7_GOLD,500,500,562,1348,1641,1819,2099,2535,2721,2878,3091,3263,3462,3627,3899,4315,4896,5388,5923,6070,6413,6766,7002,7436,7558,7785,8166,8351,8931,9103,9316,10286,10701,11355,11477,11593
participant_7_CURRENTGOLD,500,0,62,848,1141,169,149,585,471,628,841,63,262,127,399,815,1396,988,1523,370,713,1066,427,861,243,470,76,261,42,213,426,1227,341,95,217,93
participant_7_LEVEL,1,1,1,3,4,5,5,6,6,7,7,7,8,8,9,9,10,10,11,11,11,12,12,13,13,13,13,13,14,14,14,15,16,16,16,16
participant_7_MINIONSKILLED,0,0,2,13,14,17,23,32,36,38,43,46,53,55,55,58,67,67,79,79,83,92,93,93,93,99,110,114,117,120,123,141,150,156,156,156
participant_7_KILLS,0,0,0,0,0,0,0,0,0,0,0,0,1,1,1,2,2,3,3,3,4,4,6,6,6,7,7,7,8,8,9,9,9,9,9,10
participant_7_BUY,[],"[3340, 3858, 2003, 2003]",[],[],[],[],"[1001, 2055]",[],[],[],"[3020, 1052]",[],"[1026, 2055]",[],[3136],[],[3151],[],[],[],[1058],"[2055, 3364]",[],[1058],[],[],[3089],[],[1026],[],[2139],[],[3135],[],[],[2055]
participant_7_SOLD,[],[],[],[],[],[],[],[2055],[],[],[1001],[],[],[],"[3858, 1052]",[],"[2003, 2003, 3136, 1026]",[],[],[],[],[3340],[],[],[],[],"[1058, 1058, 3859]",[2055],[],[],[2139],[],[1026],[],[],[]
participant_7_UNDO,[],[],[],[],[],[],[],[],[],[],[],[],[],[],[],[],[],[],[],[],[],[],[],[],[],[],[],[],[],[],[],[],[],[],[],[]
participant_8_GOLD,500,500,583,755,1120,1452,1624,1889,2185,2420,2542,2679,3022,3144,3742,3920,4208,4496,4938,5235,5378,5737,5924,6318,7014,7231,7506,7719,8919,9288,10305,11185,11878,13125,13730,14051
participant_8_CURRENTGOLD,500,0,83,205,570,902,174,64,360,195,317,454,797,319,917,1095,263,551,468,164,308,667,854,1248,1944,861,261,474,1674,2043,1135,390,258,1505,2110,151
participant_8_LEVEL,1,1,1,1,3,3,4,4,5,5,5,5,6,6,7,7,7,8,8,9,9,10,10,10,11,11,12,12,13,14,14,15,16,17,17,18
participant_8_MINIONSKILLED,0,0,3,6,18,30,33,38,45,51,51,52,59,59,69,72,75,77,77,84,85,95,96,108,111,111,116,117,124,134,139,156,172,173,186,188
participant_8_KILLS,0,0,0,0,0,0,0,0,0,0,0,0,0,0,0,0,0,0,1,1,1,1,1,1,2,2,2,2,3,3,4,4,4,6,6,6
participant_8_BUY,[],"[1055, 2003, 3340]",[],[2003],[],[],"[1018, 2003, 2003]","[1042, 2055]",[],[2015],[],[],[],"[1001, 1042]",[],[],[1038],[],"[3095, 2055, 2003]","[3006, 2003, 2003]",[],[],[],[],[],[1038],[1037],[],[],[],"[3031, 1036, 1036]","[3035, 1037]","[3036, 1036]",[],[],"[1038, 1031]"
participant_8_SOLD,[],[],[],[2003],[],[2003],[],[],[],[1042],[],[],"[2055, 2003]",[],[],[],[1055],[2003],"[1038, 1018, 2015]","[1001, 1042]",[],[2055],[],[],"[2003, 2003, 2003]",[],[],[],[],[],"[1038, 1037]","[1036, 1036]","[3035, 1037]",[],[],[1036]
participant_8_UNDO,[],[],[],[],[],[],[],[],[],[],[],[],[],[],[],[],[],[],[],[],[],[],[],[],[],[],[],[],[],[],[],[],[],[],[],[]
participant_9_GOLD,500,500,564,720,890,1045,1180,1471,1689,1901,2128,2448,3153,3707,4112,4578,4862,5216,5431,5614,6236,6376,7488,7698,7979,8459,8689,9055,9800,9941,10782,11496,11826,12050,12369,13163
participant_9_CURRENTGOLD,500,0,64,220,390,545,305,596,814,1026,18,338,118,672,12,478,52,406,621,804,176,241,1353,313,594,1074,205,570,466,606,947,1661,191,415,735,1413
participant_9_LEVEL,1,1,1,2,3,4,4,5,5,6,6,7,7,8,8,9,9,10,10,10,11,11,12,12,12,13,13,13,14,14,15,16,16,17,18,18
participant_9_MINIONSKILLED,0,0,2,3,5,6,6,12,17,21,23,25,26,39,42,43,44,44,44,46,51,51,52,56,62,62,63,63,68,68,79,88,99,102,123,125
participant_9_KILLS,0,0,0,0,0,1,1,2,2,3,3,3,3,3,3,3,3,3,3,3,4,5,5,5,5,5,5,5,5,5,5,5,5,5,5,5
participant_9_BUY,[],"[2003, 1054, 3340]",[],[],"[1036, 1006]",[],"[3044, 2003, 2031]",[],"[1001, 1029]",[],[],"[3047, 1028, 1042]",[],[],"[3101, 1027]",[],[],[],[3078],[3123],[],"[1036, 1036]",[3035],[3033],[],[1029],[],[1029],[],"[3076, 1028]",[],[],[3082],[],"[3075, 1028]",[]
participant_9_SOLD,[],[],[],[],[],[2003],[1036],[],[],[],[],"[1001, 1029]",[],[],"[1042, 2031]",[],[],[],"[3101, 1027, 3044]",[],[],[1006],"[1036, 1036]","[3035, 3123]",[],[],[],[],[],"[1029, 1029]",[],[],[1054],[],"[3076, 1028, 3082]",[]
participant_9_UNDO,[],[],[],[],[],[],"[[0, 2003]]",[],[],[],[],"[[0, 1028]]",[],[],[],[],[],[],[],[],[],[],[],[],[],[],[],[],[],[],[],[],[],[],[],[]
team0_KILLS,0,0,0,1,2,2,4,6,7,8,8,10,13,14,16,17,17,19,20,21,23,23,25,25,27,32,32,34,37,38,39,39,39,42,42,46
team0_CURRENTGOLD,2500,0,426,1212,2965,2644,3080,3312,3493,4145,3947,6271,5472,3283,3930,4246,2442,2716,2653,3328,2635,3241,1881,2072,3590,5130,1562,4129,1340,2264,4037,2699,3413,4253,4247,1952
team0_TOTALGOLD,2500,2500,2926,4362,6115,7344,9680,11412,13293,14745,16272,18596,20922,22083,25755,28021,29477,31701,33038,34812,37275,38581,40989,42397,44714,48638,50872,53437,56364,58007,60130,60761,61476,64266,65338,69347
team0_LEVEL,5,5,6,10,17,19,24,27,31,33,35,38,41,43,45,48,48,51,52,55,56,58,60,60,63,66,70,71,74,75,77,77,77,79,79,82
team0_SBIRES,0,0,8,21,47,64,95,109,136,155,181,201,229,245,269,291,307,339,348,370,387,404,408,432,453,469,474,499,512,523,542,542,542,542,548,564
team1_KILLS,0,0,0,2,3,4,4,5,5,6,6,8,10,10,11,13,13,15,17,17,19,20,23,23,24,26,26,28,31,31,36,38,38,43,43,45
team1_CURRENTGOLD,2500,0,412,1862,2974,3332,754,2164,2254,2655,2693,2985,3257,3761,3724,3661,3965,3798,4622,2404,3389,4462,4304,2726,3134,3083,1559,2834,4388,3498,5204,5977,3179,5913,5993,4890
team1_TOTALGOLD,2500,2500,2912,5062,6674,8182,9229,11014,12004,13255,14528,16570,19432,20836,22954,24941,27075,29008,31390,32373,34607,36350,39856,41529,43027,44576,46250,48376,51578,53089,57222,61487,63935,67569,69049,71048
team1_LEVEL,5,5,6,11,17,21,23,27,28,31,32,35,39,41,44,46,48,51,53,54,57,59,62,63,65,66,67,68,72,74,76,81,83,85,86,87
team1_SBIRES,0,0,10,37,54,85,100,133,151,174,195,211,238,264,287,302,325,343,372,382,404,434,450,473,482,493,516,526,545,578,607,651,698,716,752,758
delta_KILLS,0,0,0,-1,-1,-2,0,1,2,2,2,2,3,4,5,4,4,4,3,4,4,3,2,2,3,6,6,6,6,7,3,1,1,-1,-1,1
delta_CURRENTGOLD,0,0,14,-650,-9,-688,2326,1148,1239,1490,1254,3286,2215,-478,206,585,-1523,-1082,-1969,924,-754,-1221,-2423,-654,456,2047,3,1295,-3048,-1234,-1167,-3278,234,-1660,-1746,-2938
delta_TOTALGOLD,0,0,14,-700,-559,-838,451,398,1289,1490,1744,2026,1490,1247,2801,3080,2402,2693,1648,2439,2668,2231,1133,868,1687,4062,4622,5061,4786,4918,2908,-726,-2459,-3303,-3711,-1701
delta_LEVEL,0,0,0,-1,0,-2,1,0,3,2,3,3,2,2,1,2,0,0,-1,1,-1,-1,-2,-3,-2,0,3,3,2,1,1,-4,-6,-6,-7,-5
delta_SBIRES,0,0,-2,-16,-7,-21,-5,-24,-15,-19,-14,-10,-9,-19,-18,-11,-18,-4,-24,-12,-17,-30,-42,-41,-29,-24,-42,-27,-33,-55,-65,-109,-156,-174,-204,-194
