name,frame_0,frame_1,frame_2,frame_3,frame_4,frame_5,frame_6,frame_7,frame_8,frame_9,frame_10,frame_11,frame_12,frame_13,frame_14,frame_15,frame_16,frame_17,frame_18,frame_19,frame_20,frame_21,frame_22,frame_23,frame_24,frame_25,frame_26,frame_27,frame_28,frame_29,frame_30,frame_31,frame_32,frame_33
nameStamp,Tstart,Tearly,Tearly,Tearly,Tearly,Tearly,Tearly,Tearly,Tearly,Tearly,Tearly,Tearly,Tearly,Tearly,Tearly,Tmid,Tmid,Tmid,Tmid,Tmid,Tmid,Tmid,Tmid,Tmid,Tmid,Tmid,Tmid,Tmid,Tmid,Tmid,Tmid,Tmid,Tend,Tend
timestamp,0,60030,120034,180058,240068,300098,360102,420130,480152,540176,600200,660202,720217,780221,840223,900253,960266,1020268,1080289,1140303,1200325,1260328,1320346,1380372,1440393,1500420,1560440,1620469,1680486,1740510,1800524,1860525,1920538,1980538
participant_0_GOLD,500,500,584,881,1109,1336,1634,1798,2150,2420,2563,2686,3004,3204,3480,3791,4136,4516,4875,5040,5211,5553,5765,5953,6076,6679,6858,7293,7596,8774,9168,9346,9525,9675
participant_0_CURRENTGOLD,500,350,434,731,209,436,334,98,450,520,213,396,214,114,390,301,646,1026,635,100,271,113,325,513,636,239,418,553,406,164,158,336,515,425
participant_0_LEVEL,1,1,1,3,4,5,6,6,7,8,8,8,9,9,9,10,10,11,11,11,12,12,12,12,12,13,13,13,14,14,15,15,15,15
participant_0_MINIONSKILLED,0,0,3,13,19,25,35,38,48,57,58,58,70,71,76,83,92,103,113,116,119,126,127,132,132,153,157,167,174,177,185,189,193,194
participant_0_KILLS,0,0,0,0,0,0,0,0,0,0,0,0,0,0,0,0,0,0,0,0,0,0,0,0,0,0,0,0,0,1,1,1,1,1
participant_0_BUY,[],[2031],[],[],"[1054, 1029]",[],[1028],[1028],[],[6660],[1033],[],[3076],[1029],[],[1028],[],[],[3105],[3068],[],[1011],[],[],[],"[7004, 3075]",[],[1001],[1033],"[1028, 3067, 3211]",[1028],[],[],[]
participant_0_SOLD,[],[],[],[],[],[],[],[],[],"[1028, 1028]",[],[2031],[1029],[],[],[],[],[],"[1033, 1029]","[6660, 3105]",[],[1028],[],[],[],"[3068, 3076, 1011]",[],[],[],"[1028, 1054, 1033]",[],[],[],[]
participant_0_UNDO,[],[],[],[],[],[],[],[],[],[],[],[],[],[],[],[],[],[],[],[],[],[],[],[],[],[],[],[],[],[],[],[],[],[]
participant_1_GOLD,500,500,621,913,1136,1335,1482,1632,1815,2038,2379,2537,2689,2969,3154,3461,4726,4961,5177,5349,5592,5908,6130,6337,6460,6813,7061,7607,7729,8029,8520,8944,9109,9170
participant_1_CURRENTGOLD,500,0,121,413,636,485,332,132,15,238,579,737,289,569,454,761,2026,2261,2477,2649,2892,3208,3430,637,160,513,761,1307,29,329,820,1244,209,270
participant_1_LEVEL,1,1,2,2,3,3,3,4,4,4,5,6,6,6,6,7,8,8,8,8,9,9,9,9,9,10,10,10,10,11,12,12,12,12
participant_1_MINIONSKILLED,0,0,0,0,0,0,0,2,2,2,3,5,6,6,6,6,6,6,6,6,8,8,8,8,8,8,11,13,13,13,21,26,29,29
participant_1_KILLS,0,0,0,0,1,1,1,2,2,2,2,2,2,2,2,2,2,2,2,2,2,2,2,2,2,3,3,3,3,3,3,3,3,3
participant_1_BUY,[],"[1055, 2003, 3340]",[],[],"[1042, 2055, 2031, 1042, 1036, 1036]",[],[],"[6670, 1037]",[],[1018],[],[],"[6672, 2055, 3363]",[],[1042],[],[],"[3006, 3057, 2055]",[],[],[],"[1036, 3133]",[],[],[],[3508],[],[],"[1037, 1018, 1036]",[1036],"[3133, 7007]",[],[1037],[]
participant_1_SOLD,[],[],[],[],"[2003, 2010]",[2010],[],"[2010, 1036, 1042, 1036]",[],[],[],[],"[6670, 1018, 1037, 3340]",[2055],[],[],[],"[1042, 2422]",[],[],[],"[1055, 1036]",[2055],[],[],"[3133, 3057]",[],[],[],[],"[1036, 1036, 6672]",[],[],[]
participant_1_UNDO,[],[],[],[],"[[0, 2031], [0, 2055], [0, 1042]]",[],[],[],[],[],[],[],[],[],[],[],[],[],[],[],[],[],[],[],[],[],[],[],"[[0, 1037]]",[],[],[],[],[]
participant_2_GOLD,500,500,612,948,1555,1964,2307,2785,3158,3365,3557,3916,4284,4567,4732,5071,5564,5686,6120,6452,6595,6844,6966,7262,7520,7992,8324,8578,8964,9541,9963,10510,10633,10693
participant_2_CURRENTGOLD,500,0,112,438,45,444,777,80,443,50,242,591,249,532,397,736,1229,76,510,842,985,314,436,732,990,362,694,948,384,611,634,1180,428,368
participant_2_LEVEL,1,1,1,3,4,5,6,6,7,7,8,8,9,9,10,10,11,11,11,12,12,13,13,13,13,13,14,14,14,14,15,15,15,15
participant_2_MINIONSKILLED,0,0,5,15,20,34,44,47,58,63,67,77,88,97,100,105,114,114,125,133,134,142,142,148,148,148,156,159,166,179,192,203,203,203
participant_2_KILLS,0,0,0,0,0,0,0,0,0,0,0,0,0,0,0,0,0,0,0,0,0,0,0,0,0,0,0,0,0,0,0,0,0,0
participant_2_BUY,[],"[3850, 2003, 2003, 3340]",[],[],[],[],[1004],[],[],[3114],[],[],[1026],[],[],[],[],[],[],[],"[6616, 1004, 1028]",[],[],[3067],[],[],[],[3114],[],[3107],[],[],[],[]
participant_2_SOLD,[],[],[],[],[],[],[],[],[],[1004],[],[],[],[],[],[],[],[],[],[],"[3114, 1026]",[3850],[],[1028],[],[],[],[1004],[],"[3067, 3114]",[],[],[],[]
participant_2_UNDO,[],[],[],[],[],[],[],[],[],[],[],[],[],[],[],[],[],[],[],[],[],[],[],[],[],[],[],[],[],[],[],[],[],[]
participant_3_GOLD,500,500,521,776,1071,1535,1686,1934,2544,2768,3051,3195,3758,3943,4224,4346,4679,4826,5054,5490,6204,6555,6958,7136,7294,7514,7637,7834,8158,10277,10602,10780,11072,11153
participant_3_CURRENTGOLD,500,0,21,276,571,385,186,434,1044,218,501,645,1208,43,324,96,429,576,804,1240,1954,2305,2708,203,361,231,354,251,575,144,469,648,939,320
participant_3_LEVEL,1,1,1,2,3,3,3,4,5,5,6,6,7,7,7,7,8,8,9,9,10,10,10,10,11,11,11,11,12,13,13,13,13,14
participant_3_MINIONSKILLED,0,0,0,8,15,17,19,26,34,35,45,46,51,55,60,60,73,77,82,92,101,112,119,122,124,130,130,130,138,149,161,164,174,175
participant_3_KILLS,0,0,0,0,0,1,1,1,2,2,2,2,3,3,3,3,3,3,3,3,4,4,4,4,4,4,4,4,4,6,6,6,6,6
participant_3_BUY,[],"[3070, 2003, 2003, 3340]",[],[],[],"[1036, 1042]",[1036],[],[],"[1027, 3133, 1001]",[],[],[],"[3004, 3158]",[],[1036],[],[],[],[],[],[],[],[3078],[],[1036],[],[1042],[7018],[3153],[],[],[],"[1036, 1036]"
participant_3_SOLD,[],[],[],[],"[2003, 2003]",[],[],[],[],"[1036, 1036]",[],[],[],"[3070, 3133, 1027, 1001]",[],[],[],[3004],[],[],[],[],[],"[1042, 1036]",[],[],[],[],[3078],"[1036, 1042]",[],[],[],[]
participant_3_UNDO,[],[],[],[],[],[],[],[],[],[],[],[],[],[],[],[],[],[],[],[],[],[],[],[],[],[],[],[],[],[],[],[],[],[]
participant_4_GOLD,500,500,523,657,812,1159,1294,1448,1582,1857,2011,2146,2280,2434,2629,2763,2928,3112,3247,3441,3725,3865,4054,4195,4375,4515,4656,4939,5079,5458,5599,5739,5901,6030
participant_4_CURRENTGOLD,500,0,23,157,312,659,544,698,832,557,711,846,130,284,479,613,778,962,1096,1291,275,415,604,345,525,665,806,539,679,358,499,639,801,930
participant_4_LEVEL,1,1,1,2,3,4,4,5,6,6,6,6,7,7,7,7,8,8,8,9,9,10,10,10,10,11,11,11,12,12,13,13,13,13
participant_4_MINIONSKILLED,0,0,0,0,0,4,4,4,4,4,4,4,4,4,4,4,5,6,6,6,6,6,6,6,6,6,6,8,8,9,9,9,9,9
participant_4_KILLS,0,0,0,0,0,0,0,0,0,0,0,0,0,0,0,0,1,1,1,1,1,1,1,1,1,1,1,2,2,2,2,2,2,2
participant_4_BUY,[],"[1035, 3340, 2031]",[],[],[],[1036],[1042],[1036],[6670],[],[],[],[1018],[],[1001],[],[],[],[],[],[],[],[],"[3006, 6672, 2015]",[1018],[],[],[],[3095],[],[],[],[3086],[]
participant_4_SOLD,[],[],[],[],[],[],[],[],"[1036, 1042, 1036]",[],[1035],[],[],[],[],[],[],[],[],[],[],[],[],"[1001, 6670, 1018]",[],[],[],[],"[1018, 2015]",[],[],[],[],[]
participant_4_UNDO,[],[],[],[],[],[],[],[],[],[],[],[],[],[],[],[],[],[],[],[],[],[],[],[],[],[],[],[],[],[],[],[],[],[]
participant_5_GOLD,500,500,563,790,1032,1238,1473,1836,2139,2475,3102,3762,4104,4727,5518,5640,6074,6540,6914,7637,8268,8546,8859,8996,9344,9860,10046,10877,11153,11625,11747,12184,12657,12926
participant_5_CURRENTGOLD,500,0,63,290,532,738,198,561,864,1200,1827,2487,2829,3452,1068,290,724,1190,1564,2287,2918,296,609,747,1094,1611,346,1178,1454,75,198,634,1108,1176
participant_5_LEVEL,1,1,1,2,4,5,5,6,7,8,9,9,10,10,11,11,11,12,12,13,13,13,13,13,14,14,14,15,15,15,15,16,16,17
participant_5_MINIONSKILLED,0,0,2,8,15,20,27,38,46,59,68,74,81,90,94,94,105,115,125,133,135,139,140,141,152,154,158,166,168,171,171,172,172,176
participant_5_KILLS,0,0,0,0,0,0,0,0,0,0,0,1,1,1,2,2,2,2,2,2,2,2,2,2,4,4,4,6,6,6,6,6,7,7
participant_5_BUY,[],"[1055, 3340, 2003]",[],[],[],[3009],[],[],"[1036, 1042, 2003, 2003]",[],[],[],"[6670, 1037]",[1018],[],[],[],[],[],[],[],"[6671, 1038, 1037]",[],[],[],[],"[3031, 2015]",[],[],[1038],[],[],[],[]
participant_5_SOLD,[],[],[],[],[2003],[],[],[],[],[],[],"[2003, 2003]","[1036, 1042]",[],[],[],[],[],[],[],[],"[6670, 1018, 1037]",[],[],[],[],"[1038, 1037]",[],[],[],[],[],[],[]
participant_5_UNDO,[],[],[],[],[],[],[],[],[],[],[],[],[],[],[],[],[],[],[],[],[],[],[],[],[],[],[],[],[],[],[],[],[],[]
participant_6_GOLD,500,500,621,1018,1561,1760,2113,2740,3369,3651,4014,4385,4698,5157,5825,6138,6412,6763,7212,7763,8136,8448,8805,9132,9437,9889,10249,10571,11064,11391,11513,11936,12671,13496
participant_6_CURRENTGOLD,500,0,121,518,1061,35,388,1015,1644,1926,39,410,723,207,875,1188,387,323,772,1323,246,558,915,1242,112,564,924,397,889,502,624,146,882,1646
participant_6_LEVEL,1,1,2,3,4,4,5,6,7,7,8,8,8,9,9,10,10,10,11,11,11,12,12,12,13,13,14,14,14,14,14,15,16,16
participant_6_MINIONSKILLED,0,0,0,0,0,0,0,8,9,9,9,10,10,12,14,14,18,19,20,25,25,25,25,31,33,35,45,45,45,45,45,45,58,58
participant_6_KILLS,0,0,0,0,0,1,1,1,1,1,1,1,2,2,2,2,2,2,2,2,2,2,3,3,3,4,4,5,6,6,6,6,6,6
participant_6_BUY,[],"[3850, 2003, 2003]",[],[],[],[],[],"[3802, 2055, 3364]",[2055],[],[],[],[1026],[],[],[],"[6655, 1001, 2055]",[],[],[],[3020],[],[],[],"[3916, 1028, 2055, 2055]",[],[],[],[3165],[1058],[],[],[],[]
participant_6_SOLD,[],[],[],[],[2003],[],[],[3340],[],[2055],[],[3850],[],"[2003, 2055]",[],[],"[3802, 1026]",[2055],[],[3851],[1001],[],[],[],[],[],[],[],"[3916, 1028, 2055, 2055]",[],[],[],[],[]
participant_6_UNDO,[],[],[],[],[],[],[],[],[],[],[],[],[],[],[],[],[],[],[],[],[],[],[],[],[],[],[],[],[],[],[],[],[],[]
participant_7_GOLD,500,500,542,822,1245,1465,1602,1895,2212,2683,2938,3297,3686,4159,4642,5070,5304,6359,6614,6960,7208,7812,8062,8240,8841,9158,9650,10234,10704,11082,11483,12016,12762,13104
participant_7_CURRENTGOLD,500,0,42,312,85,295,432,75,382,853,308,657,136,609,182,610,244,1299,1554,1900,248,852,1102,1280,81,398,890,1474,1944,333,733,67,813,1004
participant_7_LEVEL,1,1,1,3,3,4,5,5,6,7,7,8,9,9,10,10,11,12,12,12,12,13,13,13,13,14,14,15,15,15,15,16,17,17
participant_7_MINIONSKILLED,0,0,1,7,7,10,11,12,20,22,30,40,46,49,54,66,72,89,93,99,99,106,109,112,112,119,132,140,148,151,159,161,162,163
participant_7_KILLS,0,0,0,0,1,1,1,1,1,2,2,2,2,3,3,3,3,4,4,4,4,5,5,5,6,6,6,6,6,6,6,6,7,7
participant_7_BUY,[],"[1055, 3340, 2003]",[],[],"[1042, 1036]",[],[],"[1036, 1042]",[],[],[3006],[],"[1018, 6670]",[],[1053],[],[6673],[],[],[],"[1038, 1018]",[],[],[],"[3031, 1042]",[],[],[],[],"[1038, 1018, 1053]",[],[3072],[],[]
participant_7_SOLD,[],[],[2003],[],[],[],[],[],[],[],[1042],[],"[1036, 1042, 1036]",[],[],[],"[6670, 1018, 1053]",[],[],[],[],[],[],[],"[1038, 1018]",[],[],[],[],[1042],[],"[1038, 1053]",[],[]
participant_7_UNDO,[],[],[],[],[],[],[],[],[],[],[],[],[],[],[],[],[],[],[],[],[],[],[],[],[],[],[],[],[],"[[0, 1018]]",[],[],[],[]
participant_8_GOLD,500,500,521,839,1078,1455,1746,2067,2189,2636,2971,3715,4244,4471,5472,5594,5867,6344,6466,6809,7191,7414,7669,7791,8632,8925,9072,10026,10440,10562,10826,11248,11994,12154
participant_8_CURRENTGOLD,500,0,21,339,578,55,346,667,39,486,821,1565,569,196,1197,1319,1592,2069,2191,2534,2916,339,594,716,1557,1850,72,1026,1440,263,526,948,1695,1854
participant_8_LEVEL,1,1,1,2,3,3,4,5,5,6,6,7,7,8,8,8,9,9,9,9,10,10,10,10,11,11,11,12,12,12,12,13,13,14
participant_8_MINIONSKILLED,0,0,0,11,15,22,32,39,39,55,63,68,72,78,90,90,95,101,101,105,110,110,114,114,116,116,116,122,128,128,129,129,129,129
participant_8_KILLS,0,0,0,0,0,0,0,0,0,0,1,1,1,1,2,2,2,2,2,3,3,3,3,3,3,4,4,5,5,6,6,6,6,6
participant_8_BUY,[],"[2033, 3340]",[],[],[],[],"[1029, 1028, 2055]",[],[],[],[],[],[],[],"[6662, 1001, 1029, 2055]","[3047, 1028]",[],[],[],[],[],"[3143, 1029, 1029]",[],[],[],[],"[3105, 1033]",[],[],"[3193, 3067]",[],[],[],[]
participant_8_SOLD,[],[],[],[2010],[],[2010],[],"[2055, 2010]",[],[],[],[],[],[],"[1028, 1029]","[2055, 1001, 1029]",[],[],[],"[3340, 3513]",[],[1028],[],[],[],[],"[1029, 2033]",[],[],"[1029, 3105, 1033]",[],[],[],[]
participant_8_UNDO,[],[],[],[],[],[],[],[],[],[],[],[],[],[],[],[],[],[],[],[],[],[],[],[],[],[],[],[],[],[],[],[],[],[]
participant_9_GOLD,500,500,523,725,960,1514,1649,1903,2037,2192,2520,2910,3434,3665,4206,4407,4547,4833,4973,5286,5562,5884,6355,6544,6803,7244,7384,8428,9043,9268,9408,9874,10415,10754
participant_9_CURRENTGOLD,500,0,23,225,460,1014,1149,28,87,242,570,960,634,865,1407,1607,122,408,548,862,337,660,1130,1319,228,669,809,1853,1229,203,343,809,1350,1629
participant_9_LEVEL,1,1,1,2,3,3,4,4,4,5,5,6,6,7,8,8,8,8,8,8,8,9,9,10,10,10,11,12,12,12,12,13,14,14
participant_9_MINIONSKILLED,0,0,0,2,2,2,2,2,2,2,3,3,5,11,12,12,12,14,14,18,20,23,24,27,27,27,27,29,29,34,34,34,34,37
participant_9_KILLS,0,0,0,0,1,1,1,2,3,3,3,4,4,5,6,6,6,6,6,6,6,6,6,6,6,7,7,7,7,7,7,7,7,9
participant_9_BUY,[],"[1039, 2031, 3340]",[],[],[],"[1026, 1001, 2055, 3364]",[],[],[],[],"[3145, 1028, 3111, 3020]",[],[],"[3152, 2055]",[],[],"[3057, 1052]",[3113],[],[],[3100],[],[],[],"[1043, 1052]",[],[],[1026],[],[3115],[],[3108],[],[]
participant_9_SOLD,[],[],[],[],[],[3340],[],[2055],[],[1039],"[1001, 1001]",[],[3364],"[3145, 1028, 1026]",[2055],[],"[2031, 3513]",[1052],[],[],"[3057, 3113]",[],[],[],[],[],[],[],[],"[1043, 1026, 1052]",[],[],[],[]
participant_9_UNDO,[],[],[],[],[],[],[],[],[],[],"[[0, 3111]]",[],[],[],[],[],[],[],[],[],[],[],[],[],[],[],[],[],[],[],[],[],[],[]
team0_KILLS,0,0,0,0,1,2,2,3,4,4,4,4,5,5,5,5,6,6,6,6,7,7,7,7,7,8,8,9,9,12,12,12,12,12
team0_CURRENTGOLD,2500,350,711,2015,1773,2409,2173,1442,2784,1583,2246,3215,2090,1542,2044,2507,5108,4901,5522,6122,6377,6355,7503,2430,2672,2010,3033,3598,2073,1606,2580,4047,2892,2313
team0_TOTALGOLD,2500,2500,2861,4175,5683,7329,8403,9597,11249,12448,13561,14480,16015,17117,18219,19432,22033,23101,24473,25772,27327,28725,29873,30883,31725,33513,34536,36251,37526,42079,43852,45319,46240,46721
team0_LEVEL,5,5,6,12,17,20,22,25,29,30,33,34,38,38,39,41,45,46,47,49,52,54,54,54,55,58,59,59,62,64,68,68,68,69
team0_SBIRES,0,0,8,36,54,80,102,117,146,161,177,190,219,233,246,258,290,306,332,353,368,394,402,416,418,445,460,477,499,527,568,591,608,610
team1_KILLS,0,0,0,0,2,3,3,4,5,6,7,9,10,12,15,15,15,16,16,17,17,18,19,19,22,25,25,29,30,31,31,31,33,35
team1_CURRENTGOLD,2500,0,270,1684,2716,2137,2513,2346,3016,4707,3565,6079,4891,5329,4729,5014,3069,5289,6629,8906,6665,2705,4350,5304,3072,5092,3041,5928,6956,1376,2424,2604,5848,7309
team1_TOTALGOLD,2500,2500,2770,4194,5876,7432,8583,10441,11946,13637,15545,18069,20166,22179,25663,26849,28204,30839,32179,34455,36365,38104,39750,40703,43057,45076,46401,50136,52404,53928,54977,57258,60499,62434
team1_LEVEL,5,5,6,12,17,19,23,26,29,33,35,38,40,43,46,47,49,51,52,53,54,57,57,58,61,62,64,68,68,68,68,73,76,78
team1_SBIRES,0,0,3,28,39,54,72,99,116,147,173,195,214,240,264,276,302,338,353,380,389,403,412,425,440,451,478,502,518,529,538,541,555,563
delta_KILLS,0,0,0,0,-1,-1,-1,-1,-1,-2,-3,-5,-5,-7,-10,-10,-9,-10,-10,-11,-10,-11,-12,-12,-15,-17,-17,-20,-21,-19,-19,-19,-21,-23
delta_CURRENTGOLD,0,350,441,331,-943,272,-340,-904,-232,-3124,-1319,-2864,-2801,-3787,-2685,-2507,2039,-388,-1107,-2784,-288,3650,3153,-2874,-400,-3082,-8,-2330,-4883,230,156,1443,-2956,-4996
delta_TOTALGOLD,0,0,91,-19,-193,-103,-180,-844,-697,-1189,-1984,-3589,-4151,-5062,-7444,-7417,-6171,-7738,-7706,-8683,-9038,-9379,-9877,-9820,-11332,-11563,-11865,-13885,-14878,-11849,-11125,-11939,-14259,-15713
delta_LEVEL,0,0,0,0,0,1,-1,-1,0,-3,-2,-4,-2,-5,-7,-6,-4,-5,-5,-4,-2,-3,-3,-4,-6,-4,-5,-9,-6,-4,0,-5,-8,-9
delta_SBIRES,0,0,5,8,15,26,30,18,30,14,4,-5,5,-7,-18,-18,-12,-32,-21,-27,-21,-9,-10,-9,-22,-6,-18,-25,-19,-2,30,50,53,47
