name,team0,team1
win,Win,Fail
firstBlood,False,True
firstTower,False,True
firstInhibitor,False,True
firstBaron,True,False
firstDragon,False,True
firstRiftHerald,False,True
towerKills,11,6
inhibitorKills,3,2
baronKills,1,0
dragonKills,2,4
riftHeraldKills,0,1
