name,frame_0,frame_1,frame_2,frame_3,frame_4,frame_5,frame_6,frame_7,frame_8,frame_9,frame_10,frame_11,frame_12,frame_13,frame_14,frame_15,frame_16,frame_17,frame_18,frame_19,frame_20,frame_21,frame_22,frame_23,frame_24,frame_25,frame_26,frame_27,frame_28
nameStamp,Tstart,Tearly,Tearly,Tearly,Tearly,Tearly,Tearly,Tearly,Tearly,Tearly,Tearly,Tearly,Tearly,Tearly,Tearly,Tearly,Tearly,Tmid,Tmid,Tmid,Tmid,Tmid,Tmid,Tmid,Tmid,Tend,Tend,Tend,Tend
timestamp,0,60006,120010,180015,240047,300052,360081,420101,480123,540152,600168,660197,720199,780218,840229,900252,960278,1020282,1080309,1140309,1200337,1260359,1320389,1380398,1440419,1500421,1560451,1620457,1680457
participant_0_GOLD,500,500,583,768,980,1326,1596,1847,2227,2413,2863,3147,3605,3839,4450,4615,5069,5400,5720,5842,5965,6087,6209,6332,6504,6627,6749,6871,6975
participant_0_CURRENTGOLD,500,0,83,268,105,451,721,97,477,663,113,397,855,289,900,165,619,950,1270,342,465,587,709,32,204,327,449,571,675
participant_0_LEVEL,1,1,1,3,3,5,5,6,7,7,8,9,9,9,10,10,11,11,12,12,12,12,12,12,12,12,12,12,12
participant_0_MINIONSKILLED,0,0,3,7,10,19,28,33,45,48,50,59,66,73,82,85,97,105,114,114,114,114,114,114,114,114,114,114,114
participant_0_KILLS,0,0,0,0,0,0,0,0,0,0,0,0,0,0,1,1,1,1,1,1,1,1,1,1,1,1,1,1,1
participant_0_BUY,[],"[2033, 3340]",[],[],"[1029, 2055]",[],[],"[3047, 2055]",[],[],[3076],[],[],[1031],[],[3751],[],[],[],[3068],[],[],[],"[1028, 1028]",[],[],[],[],[]
participant_0_SOLD,[],[],[],[],[],[],[],"[2055, 1029]",[],[],[],[],[2055],[],[],[],[],[],[],"[1031, 3751]",[],[],[],[],[],[],[],[],[]
participant_0_UNDO,[],[],[],[],[],[],[],[],[],[],[],[],[],[],[],[],[],[],[],[],[],[],[],[],[],[],[],[],[]
participant_1_GOLD,500,500,605,1282,1506,1800,2198,2437,2659,2980,4082,4396,4652,5208,5524,6446,6759,7574,8412,8742,9176,9399,9900,10422,10812,11069,11312,11750,11954
participant_1_CURRENTGOLD,500,0,105,782,56,350,748,212,434,355,1457,521,27,583,899,1821,334,1149,1987,227,511,734,1235,333,647,905,422,61,204
participant_1_LEVEL,1,1,2,3,3,4,5,5,5,6,7,7,8,9,9,10,10,11,11,12,13,13,13,14,14,14,14,15,15
participant_1_MINIONSKILLED,0,0,0,0,0,0,0,0,0,0,0,1,2,3,8,8,8,9,10,15,15,15,18,18,21,21,23,23,23
participant_1_KILLS,0,0,0,0,0,0,0,0,0,0,0,2,2,5,5,5,5,5,7,8,8,8,8,8,8,8,9,9,11
participant_1_BUY,[],"[2033, 3340]",[],[1036],[],[],[3134],[],"[1036, 2055]",[1036],[],[],"[3179, 1001, 3158, 2055]",[],"[3134, 1036, 1036]",[],[],[],[],"[3814, 3134, 3142, 3134, 1028]",[3363],[],[],[],"[3179, 3814]",[1036],[],[3123],[]
participant_1_SOLD,[],[],[],[],[],[],[1036],[],[],[],[2055],[],"[3134, 1036, 1036, 1001, 2055]",[],[],[],[],[],[],"[3134, 1036, 1036, 1036, 1036, 3134]",[3340],[],[],[],"[3134, 3134, 1028]",[],[],[1036],[]
participant_1_UNDO,[],[],[],[],[],[],[],[],[],[],[],[],[],[],[],[],[],[],[],"[[0, 3134], [0, 3814]]",[],[],[],[],"[[0, 3179]]",[],[],[],[]
participant_2_GOLD,500,500,569,884,1155,1501,1795,2134,2458,2623,3173,4115,4607,4771,5055,5487,5817,6294,6576,7285,7470,7879,8155,8291,8589,8858,9022,9144,9446
participant_2_CURRENTGOLD,500,0,69,384,655,141,435,39,363,528,1078,2020,2512,346,630,187,517,994,151,859,195,604,880,581,879,1148,1312,70,371
participant_2_LEVEL,1,1,1,3,4,5,6,7,7,8,8,9,9,9,10,10,11,11,11,12,12,13,13,13,13,13,14,14,14
participant_2_MINIONSKILLED,0,0,3,11,20,30,37,50,59,62,72,79,83,86,95,104,110,119,119,128,132,139,144,145,148,153,156,156,163
participant_2_KILLS,0,0,0,1,1,2,2,2,2,2,2,2,2,2,2,2,2,2,2,2,2,2,2,2,2,2,2,2,2
participant_2_BUY,[],"[3850, 2003, 2003, 3340, 3858, 2003, 2003, 3340]",[],[],"[1052, 2003]",[],"[3108, 1004, 2055]",[],[],"[3028, 2055]",[],"[3174, 2055, 3364]",[],[],[3117],"[1052, 2055]",[],[],[],"[3113, 1004, 2055, 2055]",[],"[3114, 2055]",[],"[3504, 2055]",[],[],[],[],[]
participant_2_SOLD,[],[],[],"[2003, 2003]",[],[],[1052],[],[2055],"[2010, 1004, 2010, 2010]",[2055],"[2003, 3108, 3028, 3340]",[3858],[],[2422],[],[2055],[2055],[],[1052],[2055],"[2055, 1004]",[],"[3114, 3113]",[],[],[3859],[],[2055]
participant_2_UNDO,[],"[[3340, 0], [0, 2003], [0, 2003], [0, 3850]]",[],[],[],[],[],[],[],[],[],[],[],[],[],[],[],[],[],[],[],[],[],[],[],[],[],[],[]
participant_3_GOLD,500,500,562,941,1167,1602,1738,2102,2343,2552,2947,4114,4279,5452,5903,6279,6635,6933,8088,8486,8825,9110,9632,9928,10303,10439,11506,12109,13569
participant_3_CURRENTGOLD,500,0,62,91,317,752,138,502,318,177,572,1739,329,1502,153,529,885,1183,2338,136,475,760,1282,1579,553,340,1406,1560,3019
participant_3_LEVEL,1,1,1,2,3,3,3,5,5,5,6,7,7,8,8,9,9,10,11,11,11,12,12,12,13,13,13,14,14
participant_3_MINIONSKILLED,0,0,2,3,6,17,18,29,36,38,54,67,69,79,85,90,100,113,124,127,136,140,158,164,171,172,182,196,206
participant_3_KILLS,0,0,0,1,1,1,1,1,1,1,3,3,3,3,3,5,5,6,7,7,7,7,7,8,8,8,8,8,8
participant_3_BUY,[],"[2031, 3340, 1041, 3364]",[],[],"[3715, 1001]",[],[],"[1036, 1036, 2055]",[],[3133],[],"[1412, 1036, 1029, 2055]",[3134],[],[],[],[3814],[],[],"[3047, 3044, 1028]","[2055, 2055]",[],[],"[3071, 2055]",[2055],[],"[2420, 2055]",[1031],[]
participant_3_SOLD,[],[3340],[],[],[1041],[],[],[],[2055],"[1036, 1036]",[],"[3133, 3715]",[1036],[2055],[],[],[3134],[],[],"[1001, 1029, 2031]",[2055],[],[],"[2055, 3044, 1028]","[2055, 2055]",[],"[2420, 2055]",[],[]
participant_3_UNDO,[],[],[],[],[],[],[],[],[],[],[],[],[],[],[],[],[],[],[],[],[],[],[],[],[],[],[],[],[]
participant_4_GOLD,500,500,543,977,1173,1712,1847,2068,2334,2469,2685,2991,3156,3522,3841,4102,4365,4568,5089,5260,5520,5766,5957,6247,6521,6675,6947,7087,7307
participant_4_CURRENTGOLD,500,0,43,477,188,727,197,418,684,129,345,176,341,707,326,77,340,543,1064,545,805,301,492,57,331,485,757,897,1057
participant_4_LEVEL,1,1,1,2,2,3,3,4,4,4,5,5,6,7,7,8,8,8,9,9,9,10,10,10,10,10,11,11,12
participant_4_MINIONSKILLED,0,0,1,1,2,5,5,7,11,11,15,16,18,18,20,21,24,28,30,31,33,39,40,40,40,41,44,44,44
participant_4_KILLS,0,0,0,0,0,0,0,0,0,0,0,1,2,2,2,2,2,2,2,3,3,3,3,3,3,3,3,3,3
participant_4_BUY,[],[2033],[],[],[],"[1082, 1052, 2055]",[],[1052],[1001],[],[],[],[],[3285],[],"[3020, 2055, 3364]",[],[],"[3041, 2055]",[],[1026],[],[],[1052],[],[],[],[3135],[]
participant_4_SOLD,[],[],[],[],[],[],[],[2055],[],[],[],[],[],"[1052, 1052]",[],"[1001, 3340]",[2055],[],[1082],[2055],[],[],[],[],[],[],[],"[1026, 1052]",[]
participant_4_UNDO,[],[],[],[],[],[],[],[],[],[],[],[],[],[],[],[],[],[],[],[],[],[],[],[],[],[],[],[],[]
participant_5_GOLD,500,500,583,912,1765,2111,2360,2855,3332,3811,4083,4561,4683,5105,5372,5641,6298,6857,7026,7319,7734,8115,8342,9056,9518,10432,10604,11121,11604
participant_5_CURRENTGOLD,500,0,83,412,1265,361,610,1105,107,586,83,561,383,455,272,541,98,657,326,219,634,615,842,1556,768,1682,505,1021,1504
participant_5_LEVEL,1,1,1,3,5,5,6,7,7,8,8,9,9,10,10,10,10,11,11,11,12,12,12,13,13,14,14,14,15
participant_5_MINIONSKILLED,0,0,3,13,18,29,36,46,54,66,66,84,84,93,97,102,107,122,125,125,130,141,147,156,156,163,163,172,184
participant_5_KILLS,0,0,0,0,0,0,0,0,0,0,1,1,2,2,2,2,2,2,3,4,4,4,4,5,5,5,5,5,7
participant_5_BUY,[],"[2033, 3340]",[],[],[],[1082],[],[],"[1033, 1001]",[],"[3111, 1052, 1052]",[],[],"[3145, 3067]",[],"[3152, 1052]",[],[3113],[],[],[],[3100],[],[],[3916],[],[1026],[],[]
participant_5_SOLD,[],[],[],[],[],[],[],[],[],[],"[1001, 1033]",[],[],"[1052, 1052]",[],"[3145, 3067]",[],[1052],[],[],[],"[2033, 3113]",[],[],[],[],[],[],[]
participant_5_UNDO,[],[],[],[],[],[],[],[],[],[],[],[],[],[],[],[],[],[],[],[],[],[],[],[],[],[],[],[],[]
participant_6_GOLD,500,500,662,1047,1658,1835,2128,2708,3051,3888,4340,4665,5237,5435,5612,6330,6893,7185,7479,8601,8913,9288,9826,10167,10614,11057,11230,11572,12381
participant_6_CURRENTGOLD,500,0,162,547,1158,175,468,158,501,1338,455,180,752,950,212,930,1493,1785,439,211,523,898,536,877,74,518,690,1032,1781
participant_6_LEVEL,1,1,2,3,4,4,4,5,6,6,7,7,8,8,8,10,10,11,11,11,12,12,13,13,13,14,14,14,15
participant_6_MINIONSKILLED,0,0,0,0,1,1,1,1,1,1,3,6,6,6,6,6,6,8,9,9,9,14,14,15,15,15,15,15,15
participant_6_KILLS,0,0,0,0,1,1,1,2,2,4,4,4,5,5,5,6,6,6,6,7,7,7,7,7,7,7,7,7,8
participant_6_BUY,[],"[1039, 2031, 3340, 3364]",[],[],[],"[3715, 1052, 2055]",[],"[3108, 1082, 2055]",[],[],"[1414, 1001, 1082, 1052]",[3158],[],[],"[3108, 1052, 2055]",[],[],[],"[3157, 2055]","[3108, 1033]",[],[],"[3174, 2055, 2055]",[],[1058],[],[],[],[]
participant_6_SOLD,[],[3340],[],[],[],[1039],[2055],[1052],[2055],[],"[3108, 3715]",[1001],[],[],"[1052, 2031]",[2055],[3364],[3513],"[1052, 3108, 2055]",[],[],[],"[3108, 1033]","[2055, 2055]",[],[],[],[],[]
participant_6_UNDO,[],[],[],[],[],[],[],[],[],[],"[[0, 1082]]",[],[],[],[],[],[],[],[],[],[],[],[],[],[],[],[],[],[]
participant_7_GOLD,500,500,520,828,1008,1235,1505,1627,2000,2560,2982,3391,4061,4293,4665,5046,5471,5643,6328,6930,7267,7599,7895,8700,9165,9720,10220,10622,11418
participant_7_CURRENTGOLD,500,0,20,328,508,385,655,777,400,960,162,571,1241,493,865,161,586,343,1028,1630,1967,149,445,1250,115,670,321,722,1318
participant_7_LEVEL,1,1,1,3,4,4,5,5,6,7,7,8,9,9,9,10,10,10,11,12,12,13,13,14,14,15,15,15,16
participant_7_MINIONSKILLED,0,0,0,8,11,18,26,26,38,51,51,57,62,68,79,90,99,99,110,116,128,136,142,157,160,175,177,189,191
participant_7_KILLS,0,0,0,0,2,2,2,2,2,2,2,2,2,2,2,2,2,2,2,2,2,2,2,3,3,4,4,4,4
participant_7_BUY,[],"[3340, 2003, 1055]",[],[],[],"[1053, 1036]",[],[],"[3144, 1043, 2055, 2003]",[],"[3153, 2055]",[],[1001],[1036],[1033],[],"[3111, 1028, 1036]",[],[3044],[1028],[],[3067],[],[],"[3071, 1029]",[],"[3105, 1053]",[],[]
participant_7_SOLD,[],[],[],[],[2003],[],[],[],"[1053, 1036]","[2003, 2055]","[3144, 1043]",[],[2055],[],[],[],"[1001, 1033]",[],"[1028, 1036]",[],[],[1028],[],[],"[3044, 3067]",[],"[1029, 1036]",[],[]
participant_7_UNDO,[],[],[],[],[],[],[],[],[],[],[],[],[],[],[],[],[],[],[],[],[],[],[],[],[],[],[],[],[]
participant_8_GOLD,500,500,597,1008,1427,1704,2043,2456,2780,3455,3689,4182,4710,5474,5667,6089,6715,7236,7578,7869,8319,8617,8760,9273,9880,10971,11505,12346,13193
participant_8_CURRENTGOLD,500,0,97,58,477,404,743,356,330,30,264,157,685,1449,242,124,750,1271,513,804,1254,1552,145,658,1265,507,690,1531,2318
participant_8_LEVEL,1,1,1,2,3,4,5,5,6,6,7,7,8,8,8,8,9,9,10,10,11,11,11,11,12,13,13,14,15
participant_8_MINIONSKILLED,0,0,4,12,22,28,41,50,59,66,72,77,88,98,102,102,120,132,136,146,155,162,163,173,174,186,191,205,211
participant_8_KILLS,0,0,0,1,1,1,1,1,1,1,1,1,1,1,1,1,1,1,2,2,2,2,2,2,2,3,3,3,3
participant_8_BUY,[],"[3854, 2003, 2003, 3340]",[],"[1001, 2055, 2031, 3364]",[],[1029],[],[3009],[],[],"[3024, 2055]",[1033],[],[],[1029],"[3105, 2055]",[],[],"[3050, 1028, 2055]","[3067, 2055]",[2055],[],[],[1031],[],"[3109, 1033]","[2055, 2055]",[1057],[]
participant_8_SOLD,[],[],[],"[2003, 2003, 3340]",[],[],[],[1001],[],[2055],[1029],[],[],[2055],[],"[1033, 1029]","[2055, 3854]",[],"[3105, 3024]","[1028, 2055]",[],[],[2055],[2031],[],"[2055, 3067, 1031]",[],"[1033, 2055]","[3855, 2055]"
participant_8_UNDO,[],[],[],[],[],[],[],[],[],[],[],[],[],[],[],[],[],[],[],[],[],[],[],[],[],[],[],[],[]
participant_9_GOLD,500,500,543,1098,1351,1485,1669,1962,2166,2632,2809,3093,3227,3437,3571,3856,4209,4546,4986,5126,5297,5532,5673,5934,6390,7122,7318,7625,8179
participant_9_CURRENTGOLD,500,0,43,93,346,180,364,57,261,727,229,63,197,407,241,101,454,791,506,171,267,502,643,164,620,302,348,385,859
participant_9_LEVEL,1,1,1,2,3,3,4,4,5,6,6,6,6,7,7,7,8,8,8,9,9,9,9,10,10,11,11,12,13
participant_9_MINIONSKILLED,0,0,1,2,4,4,7,8,9,11,13,13,13,13,13,13,18,19,19,19,20,24,24,25,25,25,25,28,29
participant_9_KILLS,0,0,0,0,0,0,0,0,0,1,1,2,2,3,3,4,4,4,4,4,4,4,4,4,4,5,5,6,7
participant_9_BUY,[],"[1055, 2003]",[],"[1001, 2031]",[],[1036],[],[3006],[1036],"[3144, 2055]",[],"[1029, 1042, 1042, 1042]",[],[],"[3153, 1042]","[1042, 1042]",[],[],"[3086, 3363]",[],[],[],"[3085, 2420, 1029]",[],[],[3026],[1036],[],[]
participant_9_SOLD,[],[3599],[],[2003],[],[],[],[1001],[],"[1036, 1036]",[2055],[],[],[],"[3144, 1042, 1042]",[2031],[],[],"[1042, 3340]",[],[],[],"[1042, 3086, 1042]",[],[],"[2420, 1029, 2421]",[],[],"[1055, 3153, 1036, 3006]"
participant_9_UNDO,[],[],[],[],[],[],[],[],[],[],[],"[[0, 1042], [0, 1029]]",[],[],[],[],[],[],[],[],[],[],[],[],[],[],[],[],[]
team0_KILLS,0,0,0,2,2,3,3,3,3,3,5,8,9,12,13,15,15,16,19,21,21,21,21,22,22,22,23,23,25
team0_CURRENTGOLD,2500,0,362,2002,1321,2421,2239,1268,2276,1852,3565,4853,4064,3427,2908,2779,2695,4819,6810,2109,2451,2986,4598,2582,2614,3205,4346,3159,5326
team0_TOTALGOLD,2500,2500,2862,4852,5981,7941,9174,10588,12021,13037,15750,18763,20299,22792,24773,26929,28645,30769,33885,35615,36956,38241,39853,41220,42729,43668,45536,46961,49251
team0_LEVEL,5,5,6,13,15,20,22,27,28,30,34,37,39,42,44,47,49,51,54,56,57,60,60,61,62,62,64,66,67
team0_SBIRES,0,0,9,22,38,71,88,119,151,159,191,222,238,259,290,308,339,374,397,415,430,447,474,481,494,501,519,533,550
team1_KILLS,0,0,0,1,4,4,4,5,5,8,9,10,12,13,13,15,15,15,17,19,19,19,19,21,21,24,24,25,29
team1_CURRENTGOLD,2500,0,405,1438,3754,1505,2840,2453,1599,3641,1193,1532,3258,3754,1832,1857,3381,4847,2812,3035,4645,3716,2611,4505,2842,3679,2554,4691,7780
team1_TOTALGOLD,2500,2500,2905,4893,7209,8370,9705,11608,13329,16346,17903,19892,21918,23744,24887,26962,29586,31467,33397,35845,37530,39151,40496,43130,45567,49302,50877,53286,56775
team1_LEVEL,5,5,6,13,19,20,24,26,30,33,35,37,40,42,42,45,47,49,51,53,56,57,58,61,62,67,67,69,74
team1_SBIRES,0,0,8,35,56,80,111,131,161,195,205,237,253,278,297,313,350,380,399,415,442,477,490,526,530,564,571,609,630
delta_KILLS,0,0,0,1,-2,-1,-1,-2,-2,-5,-4,-2,-3,-1,0,0,0,1,2,2,2,2,2,1,1,-2,-1,-2,-4
delta_CURRENTGOLD,0,0,-43,564,-2433,916,-601,-1185,677,-1789,2372,3321,806,-327,1076,922,-686,-28,3998,-926,-2194,-730,1987,-1923,-228,-474,1792,-1532,-2454
delta_TOTALGOLD,0,0,-43,-41,-1228,-429,-531,-1020,-1308,-3309,-2153,-1129,-1619,-952,-114,-33,-941,-698,488,-230,-574,-910,-643,-1910,-2838,-5634,-5341,-6325,-7524
delta_LEVEL,0,0,0,0,-4,0,-2,1,-2,-3,-1,0,-1,0,2,2,2,2,3,3,1,3,2,0,0,-5,-3,-3,-7
delta_SBIRES,0,0,1,-13,-18,-9,-23,-12,-10,-36,-14,-15,-15,-19,-7,-5,-11,-6,-2,0,-12,-30,-16,-45,-36,-63,-52,-76,-80
