name,frame_0,frame_1,frame_2,frame_3,frame_4,frame_5,frame_6,frame_7,frame_8,frame_9,frame_10,frame_11,frame_12,frame_13,frame_14,frame_15,frame_16,frame_17,frame_18,frame_19,frame_20,frame_21,frame_22,frame_23,frame_24,frame_25,frame_26,frame_27,frame_28,frame_29,frame_30,frame_31,frame_32,frame_33,frame_34
nameStamp,Tstart,Tearly,Tearly,Tearly,Tearly,Tearly,Tearly,Tearly,Tearly,Tearly,Tearly,Tearly,Tmid,Tmid,Tmid,Tmid,Tmid,Tmid,Tmid,Tmid,Tmid,Tmid,Tmid,Tmid,Tmid,Tmid,Tmid,Tmid,Tmid,Tmid,Tmid,Tmid,Tmid,Tmid,Tend
timestamp,0,60024,120041,180055,240079,300100,360115,420134,480152,540175,600196,660214,720232,780256,840272,900295,960310,1020330,1080350,1140372,1200389,1260410,1320426,1380438,1440450,1500473,1560487,1620507,1680523,1740525,1800550,1860570,1920587,1980608,2040608
participant_0_GOLD,500,500,584,748,1007,1614,1799,2556,2832,3344,3684,3820,4006,4598,5094,5642,5855,6194,7060,7325,7447,8088,8571,9248,9420,9717,9840,10186,10491,10733,10857,11427,11649,12072,12461
participant_0_CURRENTGOLD,500,0,84,248,507,114,299,1056,1332,44,384,120,306,898,1394,1942,1405,444,1310,1575,97,738,1221,1898,600,463,585,931,1236,1479,287,857,1080,702,911
participant_0_LEVEL,1,1,1,2,3,4,5,6,7,8,9,9,9,9,10,10,11,11,12,12,12,13,13,13,13,14,14,14,14,14,14,15,15,15,16
participant_0_MINIONSKILLED,0,0,0,2,8,9,13,22,31,35,48,49,53,53,62,68,74,83,86,88,88,100,105,108,108,111,111,112,116,120,120,122,122,122,126
participant_0_KILLS,0,0,0,0,0,0,1,1,1,1,2,2,2,2,2,2,2,2,2,3,3,3,3,3,3,3,3,3,3,3,3,3,3,3,3
participant_0_BUY,[],"[3850, 2003, 2003]",[2003],[],[],[],[],"[3117, 1004]",[],[],[],[],[],[],"[3174, 1004, 1006, 1004]",[],[],[],[],[],[],"[3114, 3113]",[],[],"[3504, 3801, 1004]",[],[],[],[],[],"[3364, 3107, 1006]",[],[],[],[]
participant_0_SOLD,[],[],"[2003, 2003]",[],[],[],[2003],[],[],[],[3850],[],[],[],[1004],[],[],[],[],[],[3851],"[1004, 1004]",[],[],"[3114, 3113, 1006]",[],[],[],[],[],"[3340, 1004, 3801]",[],[],[],[]
participant_0_UNDO,[],[],[],[],[],[],[],[],[],[],[],[],[],[],[],[],[],[],[],[],[],[],[],[],[],[],[],[],[],[],[],[],[],[],[]
participant_1_GOLD,500,500,521,843,1066,1258,1496,1703,1930,2253,2375,2498,2705,4057,4204,4581,4833,5094,5867,6360,7271,7612,8119,9189,9361,9688,10135,11105,11654,12066,12385,12546,13249,13696,14242
participant_1_CURRENTGOLD,500,0,21,343,566,158,396,303,530,853,975,1098,1305,2657,429,806,1058,344,1117,60,971,1312,1819,2889,161,488,936,1905,2454,2866,685,847,250,697,1242
participant_1_LEVEL,1,1,1,2,3,3,4,4,4,5,5,5,5,6,6,7,7,7,8,9,9,10,10,11,11,11,12,12,13,13,13,13,14,14,15
participant_1_MINIONSKILLED,0,0,0,0,0,0,1,1,1,1,1,1,1,1,1,2,3,7,13,13,13,16,23,23,23,29,29,33,43,44,44,45,45,45,49
participant_1_KILLS,0,0,0,0,0,0,0,0,0,0,0,0,0,3,3,3,3,3,4,5,7,7,7,10,10,10,11,12,12,12,13,13,15,15,16
participant_1_BUY,[],"[1006, 1041, 1039, 3340]",[],[],[],"[1001, 1042]",[],[1042],[],[],[],[],[],[],"[3077, 3052]",[],[],[3748],[],"[3751, 3706]",[],[],[],[],"[1401, 3046, 1029]",[],[],[],[],[],"[3111, 3082, 3076]",[],"[3075, 1028]",[],[]
participant_1_SOLD,[],[],[],[],[],[],[],[],[],[],[],[],[],[],[1006],[],[],"[3077, 3052]",[],[1039],[],[],[],[],"[3751, 3706, 1042, 1042]",[],[],[],[],[],"[1001, 1029]",[],"[3076, 3082]",[],[]
participant_1_UNDO,[],"[[0, 1041]]",[],[],[],[],[],[],[],[],[],[],[],[],[],[],[],[],[],[],[],[],[],[],[],[],[],[],[],[],[],[],[],[],[]
participant_2_GOLD,500,500,564,742,913,1099,1448,1760,2077,2355,2828,3091,3213,3539,3781,3987,4152,4274,4516,4784,5038,5397,5975,6369,6541,6768,6998,7866,8138,8311,8434,8887,9623,10143,10371
participant_2_CURRENTGOLD,500,0,64,242,413,149,498,810,1127,580,1053,516,638,964,1206,1412,1577,137,379,647,900,470,1047,1441,1613,341,570,1439,811,83,207,659,396,916,121
participant_2_LEVEL,1,1,1,2,3,4,5,5,6,7,7,8,8,8,9,9,10,10,10,10,11,11,12,12,12,12,13,13,13,13,13,14,14,15,15
participant_2_MINIONSKILLED,0,0,0,3,6,10,20,31,39,45,54,63,63,73,80,85,88,88,93,98,101,111,117,122,122,129,133,143,143,143,143,145,147,153,155
participant_2_KILLS,0,0,0,0,0,0,0,0,0,0,0,0,0,0,0,0,0,0,0,0,0,0,1,1,1,1,1,2,2,2,2,2,3,3,3
participant_2_BUY,[],"[2003, 2003, 1056]",[],[],[],"[1029, 2031]",[],[],[],"[1056, 1004, 1001]",[],[3020],[],[],[],[],[],"[3191, 3113]",[],[],[],[1026],[],[],[],[3100],[],[],[3108],[3157],[],[],[1043],[],[1037]
participant_2_SOLD,[],[],[],[],"[2003, 2003]",[],[],[],[],[],[],[1001],[],[],[],[],[],"[1029, 1004]",[],[],[],[2031],[],[],[],"[3113, 1026]",[],[],[],"[3191, 3108]",[],[],[],[],[1056]
participant_2_UNDO,[],[],[],[],[],[],[],[],[],[],[],[],[],[],[],[],[],[],[],[],[],[],[],[],[],[],[],[],[],[],[],[],[],[],[]
participant_3_GOLD,500,500,841,1019,1212,1397,1732,1903,2230,2394,3246,3512,3746,4122,4255,4697,4889,5124,5442,5633,6191,6633,7063,7340,7624,7879,8106,8615,9620,10075,10646,11109,11719,12368,14289
participant_3_CURRENTGOLD,500,0,341,519,712,897,1232,153,480,94,946,1212,1446,222,355,797,289,524,842,233,441,883,63,340,624,879,286,795,1800,1555,2126,414,1025,148,1889
participant_3_LEVEL,1,1,1,2,3,4,4,5,5,5,6,6,7,7,7,7,8,8,8,9,9,9,10,10,10,11,11,11,12,12,12,13,13,14,15
participant_3_MINIONSKILLED,0,0,0,3,7,11,14,17,22,25,32,35,41,41,42,42,46,53,57,57,57,57,68,70,77,80,86,90,92,96,97,110,118,118,127
participant_3_KILLS,0,0,0,0,0,1,1,2,2,3,3,3,3,4,4,5,5,5,6,6,6,7,7,8,8,8,8,8,8,8,8,9,9,9,9
participant_3_BUY,[],"[1054, 2003, 3340, 1054, 2003, 3340]",[],[],[],"[1026, 2003, 2003, 2003]",[],[],[],"[3136, 1001]",[],[1028],[],[],[],[],[3151],"[3076, 1029]",[],[],"[3075, 1028]",[],[],[],"[1026, 3047]",[1052],[],[],[],[],"[3116, 1028]",[],[],"[3067, 1028]",[]
participant_3_SOLD,[],[],[2003],[],[],[],[],[2003],[],[],[],[],[],"[2003, 2003]",[],[],"[3136, 1026]",[],[],[3340],"[3076, 1028, 1029]",[3513],[],[],"[1001, 1054]",[],[],[],[],[],"[1026, 1052, 1028]",[],[],[1028],[]
participant_3_UNDO,[],"[[3340, 0], [0, 2003], [0, 1054]]",[],[],[],[],[],[],[],[],[],[],[],[],[],[],[],[],[],[],[],[],[],[],[],[],[],[],[],[],[],[],[],[],[]
participant_4_GOLD,500,515,598,732,926,1135,1615,1749,2059,2259,2963,3274,3465,3919,4060,4225,4395,4576,4781,5406,5684,5924,6164,6572,6762,6931,7115,7616,7918,8137,8278,8419,8933,9374,9742
participant_4_CURRENTGOLD,500,15,48,182,376,585,1065,74,384,584,1288,1599,1790,2244,10,175,345,526,731,1356,1634,474,714,1122,38,206,390,891,1194,1412,79,219,734,1174,1542
participant_4_LEVEL,1,1,1,1,2,3,4,4,4,5,6,6,7,7,7,8,8,8,8,9,10,10,10,11,11,11,11,12,12,12,12,13,14,14,15
participant_4_MINIONSKILLED,0,0,0,0,1,1,1,1,2,4,5,5,6,6,6,7,7,8,8,8,8,8,8,8,8,10,10,10,10,12,12,12,13,13,13
participant_4_KILLS,0,0,1,1,1,1,1,1,1,1,2,2,2,2,2,3,3,3,3,3,4,5,5,5,5,5,5,5,6,6,6,6,6,6,10
participant_4_BUY,[],"[2003, 1055]",[],[],[],[],[],"[3134, 2003, 2003, 2003]",[],"[1001, 2003, 2055, 2003, 2055]",[],[],[],"[3133, 2033]",[],[],[3142],[],[],[3006],[1036],[],[3144],[],[],[],[1043],[],[],[3153],[],"[1038, 1037]",[],"[3031, 1042]",[]
participant_4_SOLD,[],[],[],[2003],[],[],[],[],[],[],[2003],"[2003, 2003, 2003]",[],[2003],[],[],"[3133, 3134]",[],[],"[1001, 2055]",[],[],[1036],[],[],[],[1055],[],[],"[3144, 1043]",[2055],[],[],"[1038, 1037]",[]
participant_4_UNDO,[],[],[],[],[],[],[],[],[],[],[],[],[],[],[],[],[],[],[],[],[],[],[],[],[],[],[],[],[],[],[],[],[],[],[]
participant_5_GOLD,500,500,932,1104,1321,1885,2161,2298,2517,3171,3349,3855,4112,4298,4421,4643,4765,4993,5165,5497,5764,5886,6009,6223,6469,6591,6713,6836,6958,7135,7739,7904,9036,9158,9275
participant_5_CURRENTGOLD,500,0,82,254,471,185,461,298,517,1170,1349,1855,312,498,221,443,565,793,265,597,864,111,234,148,394,516,638,61,183,360,964,694,136,258,375
participant_5_LEVEL,1,1,1,2,3,4,5,5,6,7,8,8,9,9,9,9,9,9,9,10,10,10,10,10,11,11,11,11,11,11,12,12,13,13,13
participant_5_MINIONSKILLED,0,0,0,3,6,15,24,25,28,37,40,41,45,46,46,46,46,52,52,60,60,60,60,62,64,64,64,64,64,64,84,87,87,87,87
participant_5_KILLS,0,0,1,1,1,1,1,1,1,1,1,1,1,1,1,1,1,1,1,1,1,1,1,1,1,1,1,1,1,1,1,1,1,1,1
participant_5_BUY,[],"[1041, 3340, 2031]","[1001, 2055]",[],[],[],[],"[3706, 1036, 1036]",[],"[3133, 2055]",[],[],[],[1400],"[3047, 1029]",[],[],[],"[3024, 1029, 1029]",[],[3082],[],[],[3110],[],[],[1028],[],[1029],[],[],[],[],"[1011, 1031]",[]
participant_5_SOLD,[],[],[],[],[],[2055],[],[1041],[],"[1036, 1036]",[],[],"[3340, 3513]","[3133, 3706]",[1001],[],[],[],"[1029, 2031]",[2055],"[1029, 1029]",[],[],"[3082, 3024]",[],[],[],[],[],[],[],[],[],"[1028, 1029]",[]
participant_5_UNDO,[],[],[],[],[],[],[],[],[],[],[],[],[],[],[],[],[],[],[],[],[],[],[],[],[],[],[],[],[],[],[],[],[],[],[]
participant_6_GOLD,500,500,931,1258,1551,1918,2081,2288,2545,2818,3230,3573,3992,4478,4686,4913,5121,5448,5620,5947,6129,6399,6549,6721,6921,7078,7201,7351,7473,7789,8059,8181,8353,8490,8606
participant_6_CURRENTGOLD,500,0,56,383,676,1043,1206,63,320,118,530,873,1292,1253,361,588,796,1123,155,482,264,534,684,56,256,413,136,286,108,424,693,816,988,25,81
participant_6_LEVEL,1,1,1,2,3,4,4,4,5,5,6,7,7,8,8,8,8,9,9,9,10,10,10,10,11,11,11,11,11,12,12,12,13,13,13
participant_6_MINIONSKILLED,0,0,0,0,0,0,0,0,0,0,0,0,8,9,9,9,9,9,9,9,9,11,13,13,17,19,19,21,21,25,29,29,29,30,30
participant_6_KILLS,0,0,1,1,1,1,1,1,1,2,2,2,2,2,3,3,3,3,3,3,4,4,4,4,5,5,5,5,5,6,6,6,6,6,7
participant_6_BUY,[],"[1055, 2003, 3340]",[],[2003],[],[],[],[],"[1038, 1001]",[],[1037],"[2003, 2003]",[],"[1042, 1042]",[],[],[],[],"[3031, 1018]",[],[3085],[],"[1042, 1042]",[3006],[],[],[],[1053],[],"[3144, 1042]",[],[],[1043],[],[]
participant_6_SOLD,[],[],[],[],[],"[2003, 2003]",[],[3599],[],[],[],[],"[2003, 2003]",[],[],[],[],[],"[1038, 1037]",[],"[1042, 1018, 1042]",[],[],"[1042, 1001, 1042]",[],[],[],[],[],[1053],[],[],[1042],[],[]
participant_6_UNDO,[],[],[],[],[],[],[],[],[],[],[],[],[],[],[],[],[],[],[],[],[],[],[],[],[],[],[],[],[],[],[],[],[],[],[]
participant_7_GOLD,500,500,566,926,1133,1708,2217,2437,2776,3191,3732,4771,5311,5484,5897,6204,6375,7026,7479,7686,8325,8594,8985,10292,10879,11364,11960,12636,13228,14085,14677,15085,15257,16027,16234
participant_7_CURRENTGOLD,500,0,66,426,633,108,617,837,1176,1591,532,1571,2111,184,597,904,175,826,1279,86,725,294,685,1992,1129,815,60,736,209,1066,1658,465,638,1408,334
participant_7_LEVEL,1,1,1,3,4,5,6,6,7,8,8,9,9,9,10,10,11,11,11,12,12,12,13,13,14,14,15,15,16,16,17,17,17,18,18
participant_7_MINIONSKILLED,0,0,0,14,19,24,33,39,48,56,62,71,71,71,82,87,90,98,105,105,113,116,121,136,143,160,165,178,178,199,210,218,218,244,245
participant_7_KILLS,0,0,0,0,0,0,0,0,0,0,0,0,0,0,0,0,0,0,0,1,1,1,1,1,1,1,1,1,1,2,2,2,3,3,3
participant_7_BUY,[],"[3858, 2003, 2003, 3340]",[],[],[1001],[],[1027],[],[1029],[],[],"[3024, 1027]",[],[],[],[],[],[],[3025],[],[3117],[1028],[],[1033],[],[3211],[],[1028],[],[3067],[],[],"[3065, 3105]",[1029],[]
participant_7_SOLD,[],[],"[2003, 2003]",[],[],[],[],[],[],[],[],"[1027, 1029]",[],[],[],[],[3858],[],"[1027, 3024]",[],[1001],[],[],[],[],"[3859, 1028, 1033]",[],[],[],[1028],[],[],"[3211, 3067]",[],[]
participant_7_UNDO,[],[],[],[],[],[],[],[],[],[],[],[],[],[],[],[],[],[],[],[],[],[],[],[],[],[],[],[],[],[],[],[],[],[],[]
participant_8_GOLD,500,500,1032,1155,1347,1540,1725,2091,2228,2973,3152,3352,3713,3886,4901,5129,5415,5684,6024,6469,7272,7526,7722,7937,8578,8811,8934,9188,9443,9975,10345,10685,10927,11690,12126
participant_8_CURRENTGOLD,500,0,532,605,797,990,1175,1541,78,823,127,227,588,161,1176,1404,1690,1959,274,719,322,576,172,97,738,972,1094,448,703,236,605,945,488,1250,1476
participant_8_LEVEL,1,1,1,1,2,3,4,5,5,6,6,6,7,7,7,8,8,8,8,9,9,9,9,10,10,10,10,10,11,11,12,12,12,13,14
participant_8_MINIONSKILLED,0,0,0,0,4,8,11,17,18,33,36,38,48,48,58,64,69,77,79,84,85,89,96,99,102,104,104,108,112,113,122,130,130,151,151
participant_8_KILLS,0,0,0,0,0,1,2,2,2,2,2,2,3,3,3,3,3,4,4,4,4,4,4,5,5,5,6,6,7,7,7,7,7,7,7
participant_8_BUY,[],"[1055, 2003, 3340]",[],[],[],[3006],[],[],[],[],"[1038, 1042]",[],[],[3031],[],[],[1053],[],[],"[3144, 1043]",[],[3153],[],[],[3035],[1018],[3036],[],"[3086, 1038]",[],[],"[3031, 1042]",[2015],[],[3086]
participant_8_SOLD,[],[],[],[],[],[],[],[],[],[],[],[],[2003],[1038],[],[],[],[],[],"[1053, 1042]",[],"[3144, 1043]",[],[],[],[],[3035],[],"[1018, 1055]",[],[],"[1038, 1018]",[1042],[],[1042]
participant_8_UNDO,[],[],[],[],[],[],[],[],[],[],[],[],[],[],[],[],[],[],[],[],[],[],[],[],[],[],[],[],"[[0, 3086]]",[],[],[],"[[0, 2015]]",[],[]
participant_9_GOLD,500,500,599,804,952,1136,1291,1519,1654,1987,2122,2306,2496,2681,2932,3102,3345,3506,3822,4373,4639,4890,5044,5256,5471,5653,5944,6084,6246,6811,6953,7093,8319,8647,8930
participant_9_CURRENTGOLD,500,0,99,304,152,336,141,369,204,537,672,256,446,631,882,1052,1295,1456,322,873,438,290,444,206,421,253,544,284,446,611,753,893,219,247,530
participant_9_LEVEL,1,1,1,2,3,3,4,4,5,6,6,6,7,7,7,7,8,8,8,9,9,9,9,9,10,10,10,11,11,12,12,12,13,14,14
participant_9_MINIONSKILLED,0,0,0,4,5,8,9,10,10,13,13,13,16,16,18,20,22,23,23,25,25,27,28,29,29,31,31,31,32,38,38,38,40,47,47
participant_9_KILLS,0,0,1,1,1,2,2,2,2,3,3,4,4,4,4,4,4,4,4,4,4,4,4,4,4,4,4,4,4,4,4,4,6,6,6
participant_9_BUY,[],"[1055, 2003, 3340]",[1036],[],[],"[1053, 1001]",[],[1042],[],[],[],[],"[3006, 3144, 1042, 1042]",[],[1043],[],[],[],[3153],[],[],[1037],[],[1042],[],[],[],[1043],[],[],[],[1052],"[3124, 1053]",[],[]
participant_9_SOLD,[],[],[],[],[2003],[1036],[],[],[],[],[],[],"[1001, 1042, 1053]",[],"[1042, 1042]",[],[],[],"[3144, 1043]",[],[],[],[],[],[],[],[],[1042],[],[],[],[],"[1052, 1043, 1037]",[],[]
participant_9_UNDO,[],[],[],[],[],[],[],[],[],[],[],[],[],[],[],[],[],[],[],[],[],[],[],[],[],[],[],[],[],[],[],[],[],[],[]
team0_KILLS,0,0,1,1,1,2,3,4,4,5,7,7,7,11,11,13,13,13,15,17,20,22,23,27,27,27,28,30,31,31,32,33,36,36,41
team0_CURRENTGOLD,2500,15,558,1534,2574,1903,3490,2396,3853,2155,4646,4545,5485,6985,3394,5132,4674,1975,4379,3871,4043,3877,4864,7690,3036,2377,2767,5961,7495,7395,3384,2996,3485,3637,5705
team0_TOTALGOLD,2500,2515,3108,4084,5124,6503,8090,9671,11128,12605,15096,16195,17135,20235,21394,23132,24124,25262,27666,29508,31631,33654,35892,38718,39708,40983,42194,45388,47821,49322,50600,52388,55173,57653,61105
team0_LEVEL,5,5,5,9,14,18,22,24,26,30,33,34,36,37,39,41,44,44,46,49,51,53,55,57,57,59,61,62,64,64,64,68,70,72,76
team0_SBIRES,0,0,0,8,22,31,49,72,95,110,140,153,164,174,191,204,218,239,257,264,267,292,321,331,338,359,369,388,404,415,416,434,445,451,470
team1_KILLS,0,0,3,3,3,5,6,6,6,8,8,9,10,10,11,11,11,12,12,13,14,14,14,15,16,16,17,17,18,20,20,20,23,23,24
team1_CURRENTGOLD,2500,0,835,1972,2729,2662,3600,3108,2295,4239,3210,4782,4749,2727,3237,4391,4521,6157,2295,2757,2613,1805,2219,2499,2938,2969,2472,1815,1649,2697,4673,3813,2469,3188,2796
team1_TOTALGOLD,2500,2500,4060,5247,6304,8187,9475,10633,11720,14140,15585,17857,19624,20827,22837,23991,25021,26657,28110,29972,32129,33295,34309,36429,38318,39497,40752,42095,43348,45795,47773,48948,51892,54012,55171
team1_LEVEL,5,5,5,10,15,19,23,24,28,32,34,36,39,40,41,42,44,45,45,49,50,50,51,52,56,56,57,58,60,62,65,65,68,71,72
team1_SBIRES,0,0,0,21,34,55,77,91,104,139,151,163,188,190,213,226,236,259,268,283,292,303,318,339,355,378,383,402,407,439,483,502,504,559,560
delta_KILLS,0,0,-2,-2,-2,-3,-3,-2,-2,-3,-1,-2,-3,1,0,2,2,1,3,4,6,8,9,12,11,11,11,13,13,11,12,13,13,13,17
delta_CURRENTGOLD,0,15,-277,-438,-155,-759,-110,-712,1558,-2084,1436,-237,736,4258,157,741,153,-4182,2084,1114,1430,2072,2645,5191,98,-592,295,4146,5846,4698,-1289,-817,1016,449,2909
delta_TOTALGOLD,0,15,-952,-1163,-1180,-1684,-1385,-962,-592,-1535,-489,-1662,-2489,-592,-1443,-859,-897,-1395,-444,-464,-498,359,1583,2289,1390,1486,1442,3293,4473,3527,2827,3440,3281,3641,5934
delta_LEVEL,0,0,0,-1,-1,-1,-1,0,-2,-2,-1,-2,-3,-3,-2,-1,0,-1,1,0,1,3,4,5,1,3,4,4,4,2,-1,3,2,1,4
delta_SBIRES,0,0,0,-13,-12,-24,-28,-19,-9,-29,-11,-10,-24,-16,-22,-22,-18,-20,-11,-19,-25,-11,3,-8,-17,-19,-14,-14,-3,-24,-67,-68,-59,-108,-90
