name,frame_0,frame_1,frame_2,frame_3,frame_4,frame_5,frame_6,frame_7,frame_8,frame_9,frame_10,frame_11,frame_12,frame_13,frame_14,frame_15,frame_16,frame_17,frame_18,frame_19,frame_20,frame_21,frame_22,frame_23,frame_24
nameStamp,Tstart,Tearly,Tearly,Tearly,Tearly,Tearly,Tearly,Tearly,Tearly,Tearly,Tearly,Tearly,Tearly,Tearly,Tearly,Tearly,Tmid,Tmid,Tmid,Tmid,Tmid,Tmid,Tmid,Tmid,Tmid
timestamp,0,60017,120044,180064,240088,300119,360146,420171,480191,540192,600210,660223,720256,780256,840284,900286,960310,1020316,1080321,1140326,1200334,1260352,1320360,1380372,1440372
participant_0_GOLD,500,500,563,892,1134,1403,1526,1760,1896,2166,2521,2800,3035,3443,3745,4001,4302,4424,4546,4669,5028,5235,5385,5598,5612
participant_0_CURRENTGOLD,500,0,63,392,634,903,226,460,146,416,771,1050,210,618,920,226,527,349,171,294,653,860,160,373,387
participant_0_LEVEL,1,1,1,3,4,5,5,6,6,7,8,8,9,9,10,10,10,10,10,10,11,11,11,12,12
participant_0_MINIONSKILLED,0,0,2,11,17,25,25,32,33,42,53,62,65,72,78,83,89,89,89,89,99,105,107,113,113
participant_0_KILLS,0,0,0,0,0,0,0,0,0,0,0,0,0,0,1,1,1,1,1,1,1,1,1,1,1
participant_0_BUY,[],"[3858, 2003, 2003, 3340]",[],[],"[1028, 2055]",[],[],[],"[3067, 1029, 2003, 2003]","[2055, 2055, 3364]",[],[3117],[1033],[],[],[],"[3190, 2055, 2055]",[],[],[],[3067],"[1004, 1004]",[],[3114],[]
participant_0_SOLD,[],[],[],[],"[2003, 2003]",[],"[2010, 2055, 2010]",[2010],"[1028, 2003, 2003]",[3340],[],[2422],[2055],[],[2055],[],"[3067, 1033, 1029]",[3858],"[2055, 2055]",[],[],[],[],[1004],[]
participant_0_UNDO,[],[],[],[],[],[],[],[],[],[],[],[],[],[],[],[],[],[],[],[],[],"[[0, 1004]]",[],[],[]
participant_1_GOLD,500,500,544,706,1012,1146,1465,1814,2112,2257,2513,2897,3182,3316,3801,4241,4540,4738,4918,5326,5492,5756,6047,6187,6223
participant_1_CURRENTGOLD,500,0,44,206,37,171,490,839,337,332,588,272,107,241,726,1166,164,362,543,951,317,331,621,212,248
participant_1_LEVEL,1,1,1,2,3,3,4,4,5,5,5,6,6,6,7,7,8,8,8,9,9,10,10,10,10
participant_1_MINIONSKILLED,0,0,1,3,4,4,8,11,12,12,14,14,14,14,14,17,18,19,21,24,28,31,31,31,32
participant_1_KILLS,0,0,0,0,1,1,1,2,2,2,2,4,5,5,5,5,6,6,6,7,7,7,7,7,7
participant_1_BUY,[],"[1055, 2003, 3340]",[],[],[1053],[],[],[],"[3123, 1001, 1018]",[],[],"[1036, 3006]","[6670, 6673]",[],[],[],[3086],[],"[1042, 1042]",[],[],[],[],[1037],[]
participant_1_SOLD,[],[3599],[],[],[2003],[],[],[],[],[],[],[1001],"[1036, 6670, 1018, 1053]",[],[],[],[],[],[],[],[],[],[],[1055],[]
participant_1_UNDO,[],[],[],[],[],[],[],[],[],[],[],[],[],[],[],[],[],[],"[[0, 1042]]",[],[],[],[],[],[]
participant_2_GOLD,500,500,563,857,1113,1720,1878,2084,2743,2936,3163,3636,3955,4182,4690,5081,5459,6665,6919,7042,7199,8136,9108,9314,9328
participant_2_CURRENTGOLD,500,0,63,347,603,1210,1368,174,823,216,443,66,375,602,700,1016,1394,150,404,527,684,171,243,449,503
participant_2_LEVEL,1,1,1,3,4,5,5,6,7,7,8,8,8,9,10,10,11,11,11,11,11,12,12,12,12
participant_2_MINIONSKILLED,0,0,2,10,18,20,22,27,38,42,49,49,57,63,73,81,92,97,101,101,103,104,104,110,110
participant_2_KILLS,0,0,0,0,0,1,1,1,1,1,1,1,1,1,1,1,1,1,1,1,1,1,1,1,1
participant_2_BUY,[],"[1035, 2003, 2003, 2031, 3340]",[],[],[],"[3134, 1036, 3364]",[],[],[],"[1053, 1036]",[],[1001],[],[6692],[],[],[],[3006],"[3047, 1036]",[],[1036],[],[],[3134],[]
participant_2_SOLD,[],[],[],[],[],[3340],[],[],[1035],[1036],[],[],[],"[3134, 1036, 1053]",[],[],[],[1001],[1001],[],[],[],[],"[1036, 1036]",[]
participant_2_UNDO,[],"[[0, 2003], [0, 2003]]",[],[],[],[],[],[],[],[],[],[],[],[],[],[],[],"[[0, 3006]]",[],[],[],[],[],[],[]
participant_3_GOLD,500,500,621,928,1318,2060,2345,2627,2934,3162,3382,3669,3987,4109,4437,4827,5035,5207,5359,5482,5789,6131,6368,6504,6560
participant_3_CURRENTGOLD,500,0,121,428,818,110,395,677,984,312,532,519,837,109,437,827,1035,1207,209,332,289,631,868,604,660
participant_3_LEVEL,1,1,2,2,4,4,4,5,6,6,6,6,7,7,7,8,8,8,8,8,9,9,10,10,10
participant_3_MINIONSKILLED,0,0,0,0,0,0,0,0,0,0,0,0,0,0,0,4,4,4,4,4,4,13,13,14,16
participant_3_KILLS,0,0,0,0,0,1,1,1,2,2,2,3,3,3,3,3,3,4,4,4,4,5,6,6,6
participant_3_BUY,[],"[1056, 2003, 2003, 3340]",[],[],[],[],[],"[3145, 1001, 2003]",[],"[3020, 3020]",[],[1026],[],[],[1028],"[2055, 3364]",[],"[4636, 3057, 3113]",[],[],[],[3100],[3191],[],[]
participant_3_SOLD,[],[],[2003],[2003],[],[],[],[],[2003],"[1001, 1001]",[],[],[],[],[],"[3340, 2055]",[],"[3145, 1028, 1026]",[],[],[],"[3057, 3113]",[],[],[]
participant_3_UNDO,[],[],[],[],[],[],[],[],[],"[[0, 3020]]",[],[],[],[],[],[],[],[],[],[],[],[],[],[],[]
participant_4_GOLD,500,500,584,976,1482,1828,2275,2815,3139,3554,3882,5095,5830,5952,6075,6720,7177,7418,7565,8213,8335,8643,8850,9042,9055
participant_4_CURRENTGOLD,500,0,84,476,82,428,875,1415,39,454,782,845,30,152,275,920,177,418,265,913,1035,1344,1550,1047,880
participant_4_LEVEL,1,1,1,2,3,4,5,5,6,7,7,7,8,8,8,8,9,9,9,10,10,10,11,11,11
participant_4_MINIONSKILLED,0,0,3,17,20,31,43,49,57,72,79,79,87,87,87,99,100,100,101,109,109,111,116,120,120
participant_4_KILLS,0,0,0,0,0,0,0,0,0,0,0,0,0,0,0,0,0,0,0,0,0,0,0,0,0
participant_4_BUY,[],"[2033, 3340]",[],[],[],[],[1031],[],[1033],[],[],[],"[6660, 2055]",[],[],[6662],[],[1029],[1001],[],[],[],"[3047, 1036]",[],[]
participant_4_SOLD,[],[],[],[2010],[],[2010],[],[],[2010],[],[],[],[],[2055],[],"[6660, 1033, 1031]",[],[],[],[],[],[],"[1001, 1029]",[],[]
participant_4_UNDO,[],[],[],[],[],[],[],[],[],[],[],[],[],[],[],[],[],[],[],[],[],[],[],[],[]
participant_5_GOLD,500,545,587,800,1077,1300,1811,2001,2337,2599,2818,3069,3291,3604,3932,4398,4774,5141,5559,6093,6551,7244,7946,8489,8502
participant_5_CURRENTGOLD,500,45,87,300,577,800,36,226,137,399,618,869,191,504,832,1298,524,891,1309,743,901,1594,2296,2839,2852
participant_5_LEVEL,1,1,1,3,4,5,5,6,6,7,8,8,9,9,10,11,11,11,12,12,13,13,14,14,14
participant_5_MINIONSKILLED,0,0,1,6,12,17,21,25,29,37,42,49,54,61,68,79,85,91,101,107,114,126,133,144,144
participant_5_KILLS,0,0,0,0,0,0,1,1,1,1,1,1,1,1,1,1,1,1,1,1,1,1,2,2,2
participant_5_BUY,[],"[1055, 3340, 2003]",[],[],[],[],"[3077, 2055]",[],"[1036, 2055]",[],[],[],"[1053, 1036]",[],[],[],"[3074, 1001]",[],[],[3044],[1029],[],[],[],[]
participant_5_SOLD,[],[],[],[2003],[],[],[],[],[2055],[],[],[],[1036],[],[],[],"[3077, 1053, 1036]",[],[],[],[],[],[],[],[]
participant_5_UNDO,[],[],[],[],[],[],[],[],[],[],[],[],[],[],[],[],[],[],[],[],[],[],[],[],[]
participant_6_GOLD,500,920,1094,1433,2322,2594,2977,3308,3648,4205,4328,4870,5818,6919,7836,8465,9531,9849,9996,10474,11070,11417,12469,13310,13323
participant_6_CURRENTGOLD,500,420,594,933,1822,119,502,833,1173,1730,1853,30,978,2079,2996,75,1141,109,256,734,1330,577,1230,2070,2023
participant_6_LEVEL,1,1,2,3,4,4,5,5,6,6,6,6,8,8,9,10,10,10,10,11,11,11,12,13,13
participant_6_MINIONSKILLED,0,0,0,0,1,1,2,2,3,3,3,3,3,3,7,7,10,10,10,11,16,21,22,22,22
participant_6_KILLS,0,0,0,0,0,0,0,1,1,1,1,4,4,4,4,4,4,5,6,7,8,9,9,10,10
participant_6_BUY,[],"[1055, 2003, 3340]",[],[],[1018],[],[],[],"[1037, 1001]",[],[],[],[6672],[],[],"[3009, 1018]",[1036],[],"[3134, 3134]",[],[],"[6676, 3086, 1042]",[2015],[],[]
participant_6_SOLD,[],[],[],[],[],[],[],[],[],[2003],[],[],"[1018, 1037]",[],[],[1001],[],[],"[1036, 1055, 1036]",[],[],"[3134, 1018]",[1042],[],[]
participant_6_UNDO,[],[],[],[],[],[],[],[],[],[],[],[],[],[],[],[],[],[],"[[1055, 0], [0, 3134]]",[],[],[],[],[],[]
participant_7_GOLD,500,525,581,938,1187,1672,1997,2329,2817,3039,3316,3588,4040,4477,4743,5083,5502,6028,6726,7348,8558,8881,9694,10649,10663
participant_7_CURRENTGOLD,500,25,81,428,677,77,392,724,1212,389,666,463,905,1342,508,848,1267,1793,2491,163,1373,446,1259,2215,2288
participant_7_LEVEL,1,1,1,3,4,4,5,6,7,7,8,8,9,9,10,10,11,11,12,12,12,13,13,14,14
participant_7_MINIONSKILLED,0,0,2,13,20,21,31,43,49,52,61,61,77,86,91,100,113,116,126,127,134,134,153,161,161
participant_7_KILLS,0,1,1,1,3,3,3,3,3,4,4,5,6,9,11,12,15,16,16,17,17,17,19,21,21
participant_7_BUY,[],"[1035, 2031, 3340]",[],[],[],"[3051, 1037]",[],[],[],[],[],"[6631, 1001, 1029, 3047]",[],[],[],"[3742, 1036, 1042]",[],"[3051, 1057]",[],[],[],[3091],[1028],[],[]
participant_7_SOLD,[],[],[],[],[],[],[],[],[],[],"[3340, 1035]","[1037, 3051, 2031, 1001, 1029]",[],[],[3513],[],[],"[1042, 1036]",[],[3340],[3513],"[3051, 1057]",[],[],[]
participant_7_UNDO,[],[],[],[],[],[],[],[],[],[],[],[],[],[],[],[],[],[],[],[],[],[],[],[],[]
participant_8_GOLD,500,525,623,801,1172,1294,1655,2236,2436,2663,2991,4482,4752,5035,5496,5723,6251,6918,7216,7750,9024,9496,9918,10347,10365
participant_8_CURRENTGOLD,500,25,123,301,72,194,555,1136,161,388,716,2207,552,835,1296,323,501,1168,716,1250,2524,196,218,647,485
participant_8_LEVEL,1,1,1,2,3,3,4,4,5,5,6,7,7,8,8,8,9,10,10,10,11,11,12,12,12
participant_8_MINIONSKILLED,0,0,4,7,13,13,26,34,38,44,53,60,65,66,73,79,90,97,97,101,108,108,108,108,108
participant_8_KILLS,0,0,0,0,0,1,1,1,2,2,2,2,2,2,2,2,2,3,4,5,7,7,7,8,8
participant_8_BUY,[],"[1082, 1056, 2003, 2003]",[],[],[],"[1026, 2031, 2055]",[],[],[],"[1052, 1042, 1042]",[],"[1043, 2055]",[],[],"[3115, 1001, 2055]",[],[],[],[],"[1026, 3802, 3020]",[],[6655],[],[],[]
participant_8_SOLD,[],[],[],[],"[2003, 2003]",[],[2055],[],[],[],[],"[1042, 1042]",[],[],"[2055, 1043, 1026, 1052]",[2055],[],[],[],[1001],[],"[3802, 1026]",[],[],[]
participant_8_UNDO,[],"[[0, 1082]]",[],[],[],[],[],[],[],[],[],[],[],[],[],[],[],[],[],[],[],[],[],[],[]
participant_9_GOLD,500,525,548,702,1101,1235,1410,1761,1917,2221,2375,2960,3140,3627,4087,4316,4702,5110,5340,5649,6009,6200,6704,7186,7202
participant_9_CURRENTGOLD,500,25,48,202,601,735,910,1261,367,671,825,1410,790,1277,1737,316,702,1110,490,799,1159,450,954,1437,1452
participant_9_LEVEL,1,1,1,2,3,3,4,5,6,6,6,7,7,7,8,8,9,9,10,10,11,11,11,12,12
participant_9_MINIONSKILLED,0,0,0,0,1,1,1,1,2,2,2,3,3,3,3,3,3,3,3,3,3,3,4,4,4
participant_9_KILLS,0,0,0,0,0,0,0,0,0,0,0,0,0,0,0,0,0,0,0,0,0,0,0,0,0
participant_9_BUY,[],"[3850, 2003, 2003, 3340]",[],[],[],[],[],[],[4642],[],[],[],[3067],[],[],"[6617, 3114]",[],[],[1026],[],[],"[6616, 1004]",[],[],[]
participant_9_SOLD,[],[],[],[],[],[],[],[],[2003],[],[],[],[3850],[2003],[],"[3067, 4642]",[],[],[],[],[3851],"[3114, 1026]",[],[],[]
participant_9_UNDO,[],[],[],[],[],[],[],[],[],[],[],[],[],[],[],[],[],[],[],[],[],[],[],[],[]
team0_KILLS,0,0,0,0,1,3,3,4,5,5,5,8,9,9,10,10,11,12,12,13,13,14,15,15,15
team0_CURRENTGOLD,2500,0,375,1849,2174,2822,3354,3565,2329,1730,3116,2752,1559,1722,3058,4155,3297,2486,1592,3017,2978,3337,3442,2685,2678
team0_TOTALGOLD,2500,2500,2875,4359,6059,8157,9489,11100,12824,14075,15461,18097,19989,21002,22748,24870,26513,28452,29307,30732,31843,33901,35758,36645,36778
team0_LEVEL,5,5,6,12,18,21,23,26,30,32,34,35,38,39,42,43,46,46,46,48,50,52,54,55,55
team0_SBIRES,0,0,8,41,59,80,98,119,140,168,195,204,223,236,252,284,303,309,316,327,343,364,371,388,391
team1_KILLS,0,1,1,1,3,4,5,6,7,8,8,12,13,16,18,19,22,25,27,30,33,34,37,41,41
team1_CURRENTGOLD,2500,540,933,2164,3749,1925,2395,4180,3050,3577,4678,4979,3416,6037,7369,2860,4135,5071,5262,3689,7287,3263,5957,9208,9100
team1_TOTALGOLD,2500,3040,3433,4674,6859,8095,9850,11635,13155,14727,15828,18969,21041,23662,26094,27985,30760,33046,34837,37314,41212,43238,46731,49981,50055
team1_LEVEL,5,5,6,13,18,19,23,26,30,31,34,36,40,41,45,47,50,51,54,55,58,59,62,65,65
team1_SBIRES,0,0,7,26,47,53,81,105,121,138,161,176,202,219,242,268,301,317,337,349,375,392,420,439,439
delta_KILLS,0,-1,-1,-1,-2,-1,-2,-2,-2,-3,-3,-4,-4,-7,-8,-9,-11,-13,-15,-17,-20,-20,-22,-26,-26
delta_CURRENTGOLD,0,-540,-558,-315,-1575,897,959,-615,-721,-1847,-1562,-2227,-1857,-4315,-4311,1295,-838,-2585,-3670,-672,-4309,74,-2515,-6523,-6422
delta_TOTALGOLD,0,-540,-558,-315,-800,62,-361,-535,-331,-652,-367,-872,-1052,-2660,-3346,-3115,-4247,-4594,-5530,-6582,-9369,-9337,-10973,-13336,-13277
delta_LEVEL,0,0,0,-1,0,2,0,0,0,1,0,-1,-2,-2,-3,-4,-4,-5,-8,-7,-8,-7,-8,-10,-10
delta_SBIRES,0,0,1,15,12,27,17,14,19,30,34,28,21,17,10,16,2,-8,-21,-22,-32,-28,-49,-51,-48
