name,frame_0,frame_1,frame_2,frame_3,frame_4,frame_5,frame_6,frame_7,frame_8,frame_9,frame_10,frame_11,frame_12,frame_13,frame_14,frame_15,frame_16,frame_17,frame_18,frame_19,frame_20,frame_21,frame_22
nameStamp,Tstart,Tearly,Tearly,Tearly,Tearly,Tearly,Tearly,Tearly,Tearly,Tearly,Tearly,Tmid,Tmid,Tmid,Tmid,Tmid,Tmid,Tmid,Tmid,Tmid,Tmid,Tmid,Tmid
timestamp,0,60020,120052,180078,240109,300121,360135,420166,480175,540205,600220,660234,720265,780276,840298,900323,960332,1020362,1080373,1140391,1200393,1260403,1320403
participant_0_GOLD,950,950,956,2654,2906,3636,3852,4755,5140,5366,5637,5914,6293,6664,7026,7324,7700,7997,8325,8541,8832,9103,9154
participant_0_CURRENTGOLD,950,0,6,604,56,436,652,1555,540,766,137,415,793,1164,426,224,600,897,1225,541,833,253,304
participant_0_LEVEL,3,3,3,4,5,6,7,8,9,9,10,10,11,12,12,13,13,14,14,14,15,15,15
participant_0_MINIONSKILLED,0,0,0,2,4,7,7,10,17,17,19,21,24,27,34,37,38,40,41,41,43,46,47
participant_0_KILLS,0,0,0,3,3,4,4,5,5,5,5,5,5,5,5,5,5,5,5,5,5,5,5
participant_0_BUY,[],"[3067, 2003, 2003, 2003, 3340]",[],"[3145, 2003]","[3152, 2003, 2003, 2003]","[1001, 2003]",[],[],"[3047, 1029, 1029]",[],"[3082, 1028, 2003, 2003]",[],[],[],"[3076, 2003, 2003]",[3075],[],[],[],[3108],[],[1026],[]
participant_0_SOLD,[],[],"[2003, 2003]",[2003],"[2003, 3145, 3067]",[],[],[2003],"[2003, 1001]",[],"[2003, 2003, 1029, 1029]",[],[2003],[],"[2003, 2003]","[2003, 3076, 1028, 3082]",[],[],[],[],[],[],[]
participant_0_UNDO,[],[],[],[],[],[],[],[],[],[],[],[],[],[],[],[],[],[],[],[],[],[],[]
participant_1_GOLD,950,950,956,1493,1737,2097,2423,2853,3097,3541,3785,4235,4574,5376,5592,5898,6722,7075,7296,8176,8397,9035,9067
participant_1_CURRENTGOLD,950,15,21,558,187,147,473,903,647,1091,249,700,1039,1842,143,449,222,575,796,977,1198,135,167
participant_1_LEVEL,3,3,3,4,5,6,7,8,8,9,10,10,11,12,12,12,13,13,14,15,15,15,16
participant_1_MINIONSKILLED,0,0,0,4,5,8,13,19,20,30,31,40,45,47,47,47,48,54,54,63,63,70,70
participant_1_KILLS,0,0,0,0,0,0,0,0,0,0,0,0,0,1,1,1,2,2,2,3,3,3,3
participant_1_BUY,[],"[1056, 1052, 2003, 2003, 3340]",[],[],"[1052, 3145]",[1028],[],[],"[3067, 2003, 2003]",[],"[3152, 1052]",[],[],[],"[3136, 1026]",[],"[3151, 1029]",[],[],[3082],[],"[3024, 3110]",[]
participant_1_SOLD,[],[],[],[2003],"[1052, 1052]",[],[],[2003],[1028],[],"[2003, 3145, 3067]",[],[2403],[2003],[1052],[],"[3136, 1026]",[],[],[1029],[],"[2403, 2403, 3082, 3024]",[]
participant_1_UNDO,[],[],[],[],[],[],[],[],[],[],[],[],[],[],[],[],[],[],[],[],[],[],[]
participant_2_GOLD,950,950,1042,1392,1823,2176,2549,2775,3789,4253,5009,5315,5576,6068,6502,7232,8320,9175,9446,9852,10098,10314,10346
participant_2_CURRENTGOLD,950,150,242,592,1023,1376,1749,475,1489,1953,674,980,141,168,602,432,235,1090,561,967,1213,64,96
participant_2_LEVEL,3,3,3,5,6,7,8,9,10,11,12,12,12,13,14,14,15,15,15,16,16,16,16
participant_2_MINIONSKILLED,0,0,4,10,17,23,29,29,35,42,42,44,44,51,62,65,65,70,73,78,78,78,78
participant_2_KILLS,0,0,0,0,0,0,0,0,1,1,2,2,2,2,2,3,4,5,5,5,5,5,5
participant_2_BUY,[],"[1056, 1001, 2003, 3340, 2003]",[],[],[],[],[],[3136],[],[],"[3151, 1052]",[],"[3191, 1052]",[3108],[],[3157],"[1026, 1052]",[],[3047],[],[],[3135],[]
participant_2_SOLD,[],[],[2003],[2003],[],[],[],[],[],[],[3136],[],[1052],[1052],[],"[3191, 3108]",[],[],[1001],[],[],"[1026, 1052]",[]
participant_2_UNDO,[],[],[],[],[],[],[],[],[],[],[],[],[],[],[],[],[],[],[],[],[],[],[]
participant_3_GOLD,950,950,984,1344,1740,1974,2259,2554,3051,3285,3729,4091,4352,5018,5266,5937,6176,6526,6793,7122,8039,8255,8315
participant_3_CURRENTGOLD,950,100,134,59,455,154,439,734,1231,285,729,1091,652,68,316,137,376,726,143,472,1389,205,265
participant_3_LEVEL,3,3,3,4,5,6,7,7,9,9,10,10,11,11,12,12,13,14,14,15,15,15,15
participant_3_MINIONSKILLED,0,0,1,3,8,9,12,15,20,21,26,30,30,30,31,31,31,33,35,36,40,40,41
participant_3_KILLS,0,0,0,0,0,0,0,0,0,0,0,0,0,1,1,2,2,2,2,2,3,3,3
participant_3_BUY,[],"[1056, 1001, 2003, 2003, 2003, 3340]",[],[1052],[],"[1052, 2003, 2003]",[],[],[],"[3145, 1053, 2003, 2003]",[],[],[3144],"[3146, 1033, 2003]",[],"[3111, 1052, 1028, 2003, 2003]",[],[],[1026],[],[],"[3136, 1029]",[]
participant_3_SOLD,[],[],"[2003, 2003]",[],[],[],[],"[2003, 2003, 2003]",[],"[1052, 1052]","[2003, 2003]",[],[1053],"[3144, 3145]",[],"[2003, 1001, 1033]","[2003, 2003]",[],[],[],[],[1028],[]
participant_3_UNDO,[],[],[],[],[],[],[],[],[],[],[],[],[],[],[],"[[0, 1052]]",[],[],[],[],[],[],[]
participant_4_GOLD,950,950,951,1622,1921,2142,2454,2712,3955,4230,5069,5763,6579,6931,7465,7960,8280,8559,8857,9550,9860,10076,10108
participant_4_CURRENTGOLD,950,165,166,137,436,242,554,811,320,595,369,1063,279,196,730,60,380,659,107,800,260,476,508
participant_4_LEVEL,3,3,3,3,4,5,6,6,7,8,9,10,11,11,12,13,14,14,14,15,16,16,16
participant_4_MINIONSKILLED,0,0,0,0,3,3,7,9,10,12,17,18,18,22,32,37,39,40,43,44,47,47,47
participant_4_KILLS,0,0,0,1,1,1,1,1,2,2,3,4,5,5,5,5,5,5,5,6,6,6,6
participant_4_BUY,[],"[1027, 1052]",[],[3057],[],[3113],[],[],"[3100, 1052]",[],[3136],[],[3151],[1052],[],[3916],[],[],[1026],[],"[3165, 1029]",[],[]
participant_4_SOLD,[],[],[],[1027],[],[1052],[],[],"[3057, 3113]",[],[1052],[],[3136],[],[],[1052],[],[],[],[],"[3916, 1026]",[],[]
participant_4_UNDO,[],[],[],[],[],[],[],[],[],[],[],[],[],[],[],[],[],[],[],[],[],[],[]
participant_5_GOLD,950,950,951,1186,1493,2994,3491,3707,4068,4384,4714,5035,5342,5753,6069,6701,7507,8773,10453,11039,11637,12927,12960
participant_5_CURRENTGOLD,950,200,201,435,742,2244,2741,157,518,834,314,635,942,1353,1669,2301,107,1374,3054,440,1038,2328,2360
participant_5_LEVEL,3,3,3,3,4,6,7,7,9,9,10,10,11,11,12,13,14,15,16,16,17,18,18
participant_5_MINIONSKILLED,0,0,0,2,6,13,16,16,22,27,31,33,37,44,49,52,54,55,60,64,71,80,80
participant_5_KILLS,0,0,0,0,0,2,2,2,2,2,2,2,2,2,2,2,3,5,8,8,8,9,9
participant_5_BUY,[],"[3340, 1042, 1042, 2031]",[],[],[],[],[],[3065],[],[],"[3101, 1027]",[],[],[],[],[],[3071],[],[],[3053],[],[],[]
participant_5_SOLD,[],[],[],[],[],[],[],[],[],[],"[1042, 1042]",[],[],[],[],[],[],[],[],[],[],[],[]
participant_5_UNDO,[],[],[],[],[],[],[],[],[],[],[],[],[],[],[],[],[],[],[],[],[],[],[]
participant_6_GOLD,950,950,1070,1514,1949,2469,2876,3582,3889,4803,5574,6805,7111,8812,9287,10308,10634,11490,12345,12755,13441,14539,14571
participant_6_CURRENTGOLD,950,50,170,614,1049,1569,1976,2682,439,1353,424,1655,511,2212,2687,3708,284,1140,1996,2405,258,1356,1388
participant_6_LEVEL,3,3,3,5,6,7,8,9,10,11,12,13,13,14,15,15,16,16,17,18,18,18,18
participant_6_MINIONSKILLED,0,0,6,14,24,35,43,56,61,71,74,85,85,95,99,104,105,105,115,116,118,126,126
participant_6_KILLS,0,0,0,0,0,0,0,0,0,1,2,3,3,5,5,6,6,7,7,7,8,9,9
participant_6_BUY,[],"[1036, 1028, 2003, 2003, 3340, 2003]",[],[],[],[],[],[],"[3071, 1001]",[],"[3111, 1053]",[],"[3105, 1036]",[],[],[],"[3812, 3057, 3101, 1036]",[],[],[],"[3078, 3211, 1028]",[],[]
participant_6_SOLD,[],[],[],[2003],"[2003, 2003]",[],[],[],"[1028, 1036]",[],[1001],[],[],[],[],[],"[3105, 1053, 1036]",[],[],[],"[3101, 3057, 1036]",[],[]
participant_6_UNDO,[],[],[],[],[],[],[],[],[],[],[],[],[],[],[],[],[],[],[],[],[],[],[]
participant_7_GOLD,950,950,951,1663,2098,2585,2983,3318,3579,3960,4439,4940,5399,5693,5927,7219,7706,8047,8481,9466,9682,10219,10251
participant_7_CURRENTGOLD,950,450,451,263,698,435,833,1168,229,610,1089,1590,2049,2343,527,1819,706,347,781,333,549,1086,1118
participant_7_LEVEL,3,3,3,4,6,7,8,8,9,9,10,11,11,12,12,13,14,14,14,15,15,16,16
participant_7_MINIONSKILLED,0,0,0,2,10,14,22,28,30,34,40,47,54,55,56,61,70,71,72,75,75,78,78
participant_7_KILLS,0,0,0,1,1,1,1,1,1,1,1,1,1,1,1,3,3,3,3,4,4,4,4
participant_7_BUY,[],"[1055, 2003, 3340]",[],"[3067, 2003, 2003]",[],"[1036, 1028]",[],[],"[3044, 2003, 2003, 2003, 2003, 2003, 1055]",[],[],[],[],[],"[3071, 3101]",[],"[3044, 1027]",[3057],[],"[3078, 3111]",[],[],[]
participant_7_SOLD,[],[],[2003],[2003],[2003],[],[],[],"[1028, 1036]",[],"[2003, 2003]",[2003],[2003],[],"[3044, 3067, 2003]",[],[],[1027],[],"[3101, 3057, 3044]",[],[],[]
participant_7_UNDO,[],[],[],[],[],[],[],[],[],[],[],[],[],[],[],[],[],[],[],[],[],[],[]
participant_8_GOLD,950,950,988,2369,2667,3985,4229,5145,5361,6242,6957,7223,7796,9011,9596,10182,10920,11311,12106,13042,13744,14155,14188
participant_8_CURRENTGOLD,950,25,63,1444,417,1735,1979,2895,161,1042,1757,348,921,2137,396,982,620,661,1457,2392,3095,61,63
participant_8_LEVEL,3,3,3,5,6,7,8,9,9,10,11,11,12,13,14,15,15,15,16,17,18,18,18
participant_8_MINIONSKILLED,0,0,2,11,15,19,21,32,32,42,50,50,58,62,71,80,81,81,92,94,96,97,97
participant_8_KILLS,0,0,0,2,2,4,4,5,5,6,6,6,6,7,7,7,8,8,8,9,10,10,10
participant_8_BUY,[],"[3067, 2003, 2003, 2003, 2003, 2003, 2055]",[],[],"[3044, 2055]",[],[],[],"[3071, 3211, 3067]",[],[],"[3065, 1028, 1037]",[],[],[3053],[],[3105],[1036],[],[],[],"[3812, 3077]",[]
participant_8_SOLD,[],[],[2055],[],[],[],[],[2003],"[3044, 3067]",[],[],"[3211, 3067]",[],[],[1037],[],[],[],[],[],[],"[3105, 1036, 2055]",[]
participant_8_UNDO,[],"[[0, 2003], [0, 2003], [0, 2003], [0, 2003]]",[],[],[],[],[],[],[],[],[],"[[0, 1028]]",[],[],[],[],[],[],[],[],[],[],[]
participant_9_GOLD,950,950,997,1240,1565,2221,2492,2780,3619,3854,4447,4713,5494,5760,6110,6513,6729,7365,7837,8809,9025,10182,10214
participant_9_CURRENTGOLD,950,0,47,290,615,1271,142,430,1269,304,897,213,994,1260,510,63,279,915,1387,2360,176,1332,1364
participant_9_LEVEL,3,3,3,3,4,6,7,7,9,9,10,10,11,11,12,12,12,13,13,14,15,15,15
participant_9_MINIONSKILLED,0,0,3,4,9,12,14,17,24,25,30,30,30,30,32,39,39,48,53,59,59,64,64
participant_9_KILLS,0,0,0,0,0,0,0,0,1,1,1,1,2,2,2,2,2,2,2,3,3,3,3
participant_9_BUY,[],"[1033, 1036, 2031]",[],[],[],[],"[3133, 3105]",[],[],"[1053, 1001]",[],"[3812, 1033]",[],[],"[3111, 1028, 1036]","[1028, 3052]",[],[],[],[],"[3053, 1028, 3067]",[],[]
participant_9_SOLD,[],[],[],[],[],[],"[1036, 1033]",[],[],[],[],"[3105, 1053, 3133]",[],[],"[1001, 1033]","[1036, 1028]",[],[],[],[],"[3052, 1028, 1028]",[],[]
participant_9_UNDO,[],[],[],[],[],[],[],[],[],[],[],[],[],[],[],[],[],[],[],[],[],[],[]
team0_KILLS,0,0,0,4,4,5,5,6,8,8,10,11,12,14,14,16,18,19,19,21,22,22,22
team0_CURRENTGOLD,4750,430,569,1950,2157,2355,3867,4478,4227,4690,2158,4249,2904,3438,2217,1302,1813,3947,2832,3757,4893,1133,1340
team0_TOTALGOLD,4750,4750,4889,8505,10127,12025,13537,15649,19032,20675,23229,25318,27374,30057,31851,34351,37198,39332,40717,43241,45226,46783,46990
team0_LEVEL,15,15,15,20,25,30,35,38,43,46,51,52,56,59,62,64,68,70,71,75,77,77,78
team0_SBIRES,0,0,5,19,37,50,68,82,102,122,135,153,161,177,206,217,221,237,246,262,271,281,283
team1_KILLS,0,0,0,3,3,7,7,8,9,11,12,13,14,17,17,20,22,25,28,31,33,35,35
team1_CURRENTGOLD,4750,725,932,3046,3521,7254,7671,7332,2616,4143,4481,4441,5417,9305,5789,8873,1996,4437,8675,7930,5116,6163,6293
team1_TOTALGOLD,4750,4750,4957,7972,9772,14254,16071,18532,20516,23243,26131,28716,31142,35029,36989,40923,43496,46986,51222,55111,57529,62022,62184
team1_LEVEL,15,15,15,20,26,33,38,40,46,48,53,55,58,61,65,68,71,73,76,80,83,85,85
team1_SBIRES,0,0,11,33,64,93,116,149,169,199,225,245,264,286,307,336,349,360,392,408,419,445,445
delta_KILLS,0,0,0,1,1,-2,-2,-2,-1,-3,-2,-2,-2,-3,-3,-4,-4,-6,-9,-10,-11,-13,-13
delta_CURRENTGOLD,0,-295,-363,-1096,-1364,-4899,-3804,-2854,1611,547,-2323,-192,-2513,-5867,-3572,-7571,-183,-490,-5843,-4173,-223,-5030,-4953
delta_TOTALGOLD,0,0,-68,533,355,-2229,-2534,-2883,-1484,-2568,-2902,-3398,-3768,-4972,-5138,-6572,-6298,-7654,-10505,-11870,-12303,-15239,-15194
delta_LEVEL,0,0,0,0,-1,-3,-3,-2,-3,-2,-2,-3,-2,-2,-3,-4,-3,-3,-5,-5,-6,-8,-7
delta_SBIRES,0,0,-6,-14,-27,-43,-48,-67,-67,-77,-90,-92,-103,-109,-101,-119,-128,-123,-146,-146,-148,-164,-162
