name,frame_0,frame_1,frame_2,frame_3,frame_4,frame_5,frame_6,frame_7,frame_8,frame_9,frame_10,frame_11,frame_12,frame_13,frame_14,frame_15,frame_16,frame_17,frame_18,frame_19,frame_20,frame_21,frame_22,frame_23,frame_24,frame_25,frame_26,frame_27,frame_28,frame_29,frame_30,frame_31,frame_32,frame_33
nameStamp,Tstart,Tearly,Tearly,Tearly,Tearly,Tearly,Tearly,Tearly,Tearly,Tearly,Tearly,Tearly,Tearly,Tearly,Tmid,Tmid,Tmid,Tmid,Tmid,Tmid,Tmid,Tmid,Tmid,Tmid,Tmid,Tend,Tend,Tend,Tend,Tend,Tend,Tend,Tend,Tend
timestamp,0,60012,120034,180047,240072,300084,360096,420105,480134,540156,600161,660184,720203,780215,840237,900250,960264,1020280,1080298,1140315,1200344,1260368,1320369,1380376,1440396,1500405,1560409,1620431,1680449,1740460,1800491,1860511,1920535,1980535
participant_0_GOLD,500,500,621,778,1197,1382,1568,1854,2095,2281,2898,3319,3441,3613,3736,3858,3981,4103,4225,4348,4470,4643,4765,4887,5310,5432,5605,5727,5849,6022,6194,6317,6440,6663
participant_0_CURRENTGOLD,500,0,121,278,697,182,368,54,295,131,748,319,441,613,736,858,981,1103,1225,1348,1470,1643,1765,1887,2310,2432,2605,2727,2849,3022,3194,3317,3440,3663
participant_0_LEVEL,1,1,1,2,4,4,5,6,6,7,7,8,8,8,8,8,8,8,8,8,8,8,8,8,9,9,9,9,9,9,9,9,9,9
participant_0_MINIONSKILLED,0,0,0,2,10,11,15,22,29,33,43,47,47,47,47,47,47,47,47,47,47,47,47,47,47,47,47,47,47,47,47,47,47,47
participant_0_KILLS,0,0,0,0,0,0,0,0,0,0,1,1,1,1,1,1,1,1,1,1,1,1,1,1,1,1,1,1,1,1,1,1,1,1
participant_0_BUY,[],[2033],[],[],[],[3057],[],"[1042, 1001]",[],[1036],[],"[3051, 1028]",[],[],[],[],[],[],[],[],[],[],[],[],[],[],[],[],[],[],[],[],[],[]
participant_0_SOLD,[],[],[],[],[],[],[],[],[],[],[],"[1042, 1036]",[],[],[],[],[],[],[],[],[],[],[],[],[],[],[],[],[],[],[],[],[],[]
participant_0_UNDO,[],[],[],[],[],[],[],[],[],[],[],[],[],[],[],[],[],[],[],[],[],[],[],[],[],[],[],[],[],[],[],[],[],[]
participant_1_GOLD,500,510,1031,1443,1943,2200,2450,2693,2825,3153,3446,3754,4064,4369,4627,4934,5556,5706,6398,6656,6932,7332,7800,8407,8935,9577,9969,10366,10489,10872,11546,11863,12032,12581
participant_1_CURRENTGOLD,500,10,531,943,1443,250,500,743,875,453,296,604,914,69,327,634,1256,156,848,206,482,482,950,1557,35,677,419,817,439,482,1157,1474,143,631
participant_1_LEVEL,1,1,2,3,4,4,5,5,6,6,7,7,8,8,9,9,10,10,11,11,12,12,13,14,14,15,15,15,15,16,16,17,17,17
participant_1_MINIONSKILLED,0,1,1,1,1,1,4,5,5,5,6,6,9,11,11,11,12,14,14,14,16,21,22,32,32,32,32,32,32,34,36,36,36,39
participant_1_KILLS,0,0,0,0,0,0,0,0,0,0,0,0,0,1,1,2,2,4,4,4,4,5,5,5,5,5,6,6,6,7,9,9,10,11
participant_1_BUY,[],"[1056, 2003, 2003, 3340]",[],[],"[2031, 1001]",[],[],"[1052, 1029]",[],[1028],[],[],[],[3145],[3020],"[1026, 3191]",[],[],[3152],[2055],[],[],[3108],[2055],"[3157, 3157]","[1052, 2055]",[],"[3916, 1028]",[],[],[],"[3165, 1058]",[],[]
participant_1_SOLD,[],[],[2003],[2003],[],[],[],[],[],[],[],[],[],[1052],"[1001, 1056]","[1056, 1029]",[],[],"[3145, 1028, 1026]",[],[],[2055],[],[],"[2055, 3191, 3108, 3191, 3108]",[],[],"[1052, 2055]",[],[],[],"[3916, 1028]",[],[]
participant_1_UNDO,[],[],[],[],[],[],[],[],[],[],[],[],[],[],"[[1056, 0]]",[],[],[],[],[],[],[],[],[],"[[0, 3157]]",[],[],[],[],[],[],[],[],[]
participant_2_GOLD,500,500,521,843,1036,1368,1732,1957,2221,2365,2620,3069,3435,3907,4271,4843,5136,5734,6010,6132,6404,7085,7326,7477,8083,8396,8813,9109,9364,10152,11090,11371,12054,12708
participant_2_CURRENTGOLD,500,0,21,333,76,398,752,242,496,240,495,944,1310,1167,721,3,296,894,270,317,589,1270,611,687,593,396,813,374,630,1417,2355,86,770,1123
participant_2_LEVEL,1,1,1,3,3,4,5,6,6,7,7,7,8,9,9,9,10,11,11,11,11,12,12,12,13,13,14,14,15,15,16,16,16,17
participant_2_MINIONSKILLED,0,0,0,10,14,24,35,37,43,44,52,59,66,71,82,82,83,83,88,88,89,91,91,93,102,106,110,116,124,125,126,127,140,140
participant_2_KILLS,0,0,1,1,2,2,2,2,2,2,2,2,2,2,2,2,3,3,4,4,4,4,4,4,4,5,5,5,5,5,6,6,6,7
participant_2_BUY,[],"[1039, 2031, 3340]",[],[],[],"[6660, 1001, 2055, 2055]",[],[],[],"[1029, 1033]",[1057],[],[],"[6664, 2055, 2055]",[],[],[],[3211],[],[1057],[],[1028],[],[],"[4401, 1033]",[],"[3111, 1029]",[],[3076],[1028],[],[],[3075],[]
participant_2_SOLD,[],[],[],[],[],[],[2055],[],[2055],[1039],[1033],[],[],"[6660, 1029, 1057]",[],[],[2055],[],[],[],[2055],[],[],[],"[1057, 1028]",[],"[1001, 1033]",[],[1029],[2031],[],[],"[3076, 1028]",[]
participant_2_UNDO,[],[],[],[],[],[],[],[],[],[],[],[],[],[],[],[],[],[],[],[],[],[],[],[],[],[],[],[],[],[],[],[],[],[]
participant_3_GOLD,500,500,627,1221,1702,2116,2501,3122,3547,3924,4109,4876,5587,7162,7548,8328,8562,8685,9200,9798,10912,11556,12196,13255,13702,14895,15342,16249,16490,17349,18333,18455,19115,19997
participant_3_CURRENTGOLD,500,0,127,721,1202,1616,301,922,1347,1724,434,1201,787,2362,373,1153,362,135,650,678,1792,2437,402,1461,608,226,673,1580,1270,2130,614,236,896,1597
participant_3_LEVEL,1,1,1,2,3,4,4,5,6,6,7,8,8,9,9,10,10,10,11,12,12,13,13,14,14,15,15,15,15,16,16,16,17,17
participant_3_MINIONSKILLED,0,0,3,10,15,23,29,38,48,59,63,70,73,78,82,95,95,95,101,101,112,120,123,135,135,145,145,158,161,171,178,178,187,188
participant_3_KILLS,0,0,0,0,0,1,2,2,2,2,2,2,3,3,3,4,4,4,4,4,4,4,4,4,4,5,5,5,6,6,7,8,8,8
participant_3_BUY,[],"[3854, 2003, 2003, 3340]",[],[],[],[],[],"[3134, 1001, 2055]",[],[],[],"[3117, 1036, 3364]",[],[],"[1053, 1036]",[],"[6692, 3067]",[],[],[],[],[3133],[],[1036],[],[],[],[],"[3071, 3123, 1028]",[],[],[],[6609],[]
participant_3_SOLD,[],[],[],[],[],[],[],[2055],[],[3854],[],"[1001, 3340]",[],[],[1036],[3855],"[3134, 1036, 1053]",[],[],[2003],[],[2003],[],[],[],[],[],[],"[3133, 3067, 1036]",[],[],[],"[3123, 1028]",[]
participant_3_UNDO,[],[],[],[],[],[],[],[],[],[],[],[],[],[],[],[],[],[],[],[],[],[],[],[],[],[],[],[],[],[],[],[],[],[]
participant_4_GOLD,500,500,594,919,1190,1649,2105,2239,2565,2793,2933,3183,3868,4657,4898,5533,5729,5870,6010,6388,6629,6819,7079,7364,7805,8500,9052,9193,9635,10071,10451,10971,11159,11554
participant_4_CURRENTGOLD,500,0,94,419,691,1149,1605,264,590,818,958,148,823,1612,953,1588,134,275,415,793,1034,144,404,339,780,1475,2028,2168,360,796,1176,1696,384,779
participant_4_LEVEL,1,1,1,2,3,4,4,4,5,5,6,6,7,8,8,9,9,9,9,10,10,10,11,11,12,13,13,14,14,15,15,16,16,16
participant_4_MINIONSKILLED,0,0,1,3,3,6,7,7,10,12,12,15,17,18,19,22,22,22,22,22,23,23,23,23,23,29,36,36,44,46,54,60,60,61
participant_4_KILLS,0,0,0,1,2,2,2,3,3,3,3,4,6,9,10,11,12,12,13,15,18,18,20,23,23,25,26,27,27,28,29,29,29,31
participant_4_BUY,[],"[1055, 2003, 3340]",[],[],[],[],"[6670, 1042, 2003, 2003]",[],[],[],"[1018, 1037]",[],"[6672, 3006]",[],"[3086, 1037, 1042]",[],[3085],[1036],[],[3133],[],[],"[3508, 1037]",[],[1038],"[3031, 1036]",[],[],[1053],[],[3072],[2139],[],[]
participant_4_SOLD,[],[],[],[],[],[],[2003],[],[2003],[2003],[],[],"[6670, 1018, 1037, 1042, 2422]",[],[],[],"[1037, 3086, 1042]",[],[],"[1036, 1055]",[],[],[3133],[],[],"[1038, 1037]",[],[],[1036],[],[1053],[2139],[],[]
participant_4_UNDO,[],[],[],[],[],[],[],[],[],[],[],[],[],[],[],[],[],[],[],[],[],[],[],[],[],[],[],[],[],[],[],[],[],[]
participant_5_GOLD,500,500,598,899,1036,1410,1638,1938,2227,2910,3269,3817,4707,5005,5366,5488,6448,7331,7983,8796,9092,9458,10508,10902,11191,11506,11941,12189,13241,13523,13673,13796,14114,14188
participant_5_CURRENTGOLD,500,0,98,399,101,400,628,928,52,735,119,667,1557,1855,2216,53,1013,176,828,1641,272,204,1253,1647,1937,1036,472,720,1771,134,1054,77,395,-1282
participant_5_LEVEL,1,1,1,3,4,5,6,6,7,8,8,9,10,11,11,11,12,12,12,12,13,13,14,14,14,15,15,15,16,16,16,16,17,17
participant_5_MINIONSKILLED,0,0,4,12,13,25,31,41,48,59,63,70,83,88,95,95,102,103,112,112,118,128,134,146,152,155,165,173,177,182,184,184,191,191
participant_5_KILLS,0,0,0,0,0,0,0,0,0,0,0,0,0,0,0,0,0,0,0,0,0,0,0,0,0,0,0,0,0,0,0,0,0,0
participant_5_BUY,[],"[2003, 3340, 1036, 2003, 2003]",[],[],[],[],[],"[1018, 2003]",[],[],[],"[1053, 2003, 2003, 2003, 2003]",[],[],[],[],"[1036, 1042, 1036]",[],[6673],[],[],[3057],[],[],[1018],[],[1031],[],[],[],[2420],[],[],[]
participant_5_SOLD,[],[],[],[],[],[2003],[],[],"[2003, 2003, 2003]",[],[],[1036],[],[],[],[],[],[],"[1036, 1042, 1036, 1018, 1053]",[],[],[],[],[],[],[],[],[],[],[],[],[],[],[]
participant_5_UNDO,[],[],[],[],[],[],[],[],[],[],[],[],[],[],[],[],[],[],[],[],[],[],[],[],[],[],[],[],[],[],[],[],[],[]
participant_6_GOLD,500,500,621,1018,1276,1635,2238,2580,3050,3283,3610,3923,4045,4572,4695,4842,5669,5791,5993,6241,6791,6914,8086,8382,8505,8627,8899,9022,9489,9832,9955,10077,10385,10459
participant_6_CURRENTGOLD,500,0,121,518,776,1135,438,780,1250,1483,1810,2123,345,272,395,542,1369,191,393,641,1191,114,386,682,155,277,550,172,639,233,355,478,786,89
participant_6_LEVEL,1,1,2,3,3,4,4,5,6,6,7,7,7,8,8,8,10,10,10,10,10,10,11,11,11,12,12,12,13,13,13,13,14,14
participant_6_MINIONSKILLED,0,0,0,0,0,0,0,0,0,1,1,1,1,1,1,1,2,2,3,3,5,5,5,11,11,11,11,11,18,22,22,22,22,22
participant_6_KILLS,0,0,0,0,0,0,1,1,1,1,1,1,1,2,2,2,3,3,3,3,4,4,5,5,5,5,5,5,5,5,5,5,5,5
participant_6_BUY,[],"[2031, 3340, 1035]",[],[],[],[],"[6660, 1029]",[],[],[],[],[],[6664],"[1001, 1029]",[],[],[],"[3047, 3066]",[],[],[],"[1031, 1028]",[3742],[],"[1036, 1029]",[],[],[1031],[],[3133],[],[],[],[]
participant_6_SOLD,[],[],[],[],[],[],[],[],[],[],[],[1035],"[6660, 1029]",[],[],[],[],"[1001, 1029]",[],[],[3340],[],"[3066, 1028, 1031]",[],[3513],[],[],[1029],[],[1036],[3047],[],[],[]
participant_6_UNDO,[],[],[],[],[],[],[],[],[],[],[],[],[],[],[],[],[],[],[],[],[],[],[],[],[],[],[],[],[],[],"[[3047, 0]]",[],[],[]
participant_7_GOLD,500,500,591,934,1120,1403,1596,1795,2387,2590,2712,2933,3139,3419,3605,3727,5022,5906,6099,6404,6526,6663,7466,7588,7811,8010,8453,8749,9736,10329,10451,10831,11408,11481
participant_7_CURRENTGOLD,500,0,91,424,310,593,86,285,877,280,52,273,479,759,195,317,112,996,389,694,116,253,1056,778,1001,1200,443,339,226,419,541,922,1498,181
participant_7_LEVEL,1,1,1,3,4,5,5,5,6,6,6,7,7,8,8,8,9,10,10,10,10,10,11,12,12,12,12,13,13,13,13,14,14,14
participant_7_MINIONSKILLED,0,0,4,15,19,28,32,37,37,37,37,43,48,52,56,56,61,64,65,69,69,70,75,75,75,80,80,85,85,85,85,96,115,115
participant_7_KILLS,0,0,0,0,0,0,0,0,0,0,0,0,0,0,0,0,0,0,0,0,0,0,0,0,0,1,1,1,1,1,2,2,2,2
participant_7_BUY,[],"[3850, 2003, 2003]",[],[2031],[],[],[],[],[],[],"[3802, 1001]",[],[1052],[],[3108],[],[],[],[6653],[1052],[],[3191],[1028],[],[],[],"[3108, 3157]",[],[],[],"[1029, 3047]",[1052],[],[3916]
participant_7_SOLD,[],[],[],"[2003, 2003]",[],[],[],[],[],[],[],[3850],[],[],[1052],[],[],[3851],"[3802, 3108]",[],[],[1052],[],[],[],[],"[2031, 3191, 3108]",[],[],[],"[1001, 1029]",[],[],[1052]
participant_7_UNDO,[],[],[],[],[],[],[],[],[],[],[],[],[],[],[],[],[],[],[],[],[],[],[],[],[],[],[],[],[],[],[],[],[],[]
participant_8_GOLD,500,500,521,678,815,1014,1246,1389,1553,1690,1989,2203,2517,2639,2892,3049,3357,3681,3881,4402,4538,4661,5140,5311,5462,5828,5979,6254,6376,6722,7081,7204,7459,7532
participant_8_CURRENTGOLD,500,0,21,178,315,514,746,239,403,540,839,303,617,739,992,1149,457,781,81,602,738,161,640,811,362,728,79,354,476,822,531,654,909,982
participant_8_LEVEL,1,1,1,2,3,4,5,5,6,6,6,7,7,7,7,8,8,9,9,10,10,10,11,11,11,11,11,12,12,13,13,13,13,13
participant_8_MINIONSKILLED,0,0,0,2,3,7,8,9,12,13,20,26,32,32,36,38,45,52,54,60,61,61,75,78,80,90,92,97,97,106,115,115,118,118
participant_8_KILLS,0,0,0,0,0,0,0,0,0,1,1,2,3,3,3,3,4,5,5,7,7,7,8,8,8,8,8,8,9,9,9,9,9,9
participant_8_BUY,[],"[1054, 2003, 3340]",[],[],[1052],[2055],[],[],"[4635, 1001]",[],"[1026, 2003, 2055]",[],[],[],[],"[4633, 3111, 1052]",[],"[1011, 1026]",[],[],"[4637, 1026]",[1052],[],[],[],[3135],[3082],[],[],"[3143, 1028]",[],[3047],[],[]
participant_8_SOLD,[],[],[],[],[],[],"[2055, 2003]",[],[1052],[],[],[],[2003],[],[],"[4635, 1026, 1001]",[],[2055],[],[],"[1026, 1011, 1052]",[],[],[],[],"[1052, 1026]",[],[],[],"[3082, 1054]",[3111],[3111],[],[]
participant_8_UNDO,[],[],[],[],[],[],[],[],[],[],[],[],[],[],[],[],[],[],[],[],[],[],[],[],[],[],[],[],[],[],[],"[[3111, 0]]",[],[]
participant_9_GOLD,500,500,523,697,892,1086,1405,1689,2027,2263,2397,2537,2857,3132,3355,3576,3954,4475,4665,4930,5221,5500,5746,5887,6120,7145,7285,7425,7719,7934,8637,8778,8919,9004
participant_9_CURRENTGOLD,500,0,23,47,242,436,755,1039,1377,1613,147,287,172,447,205,426,804,1325,315,145,436,250,97,237,470,1495,95,235,529,744,648,353,495,154
participant_9_LEVEL,1,1,1,1,2,3,3,4,5,5,6,6,6,6,7,7,8,9,9,9,9,9,9,9,10,10,10,10,11,12,12,12,12,12
participant_9_MINIONSKILLED,0,0,0,0,0,0,3,9,12,13,13,13,13,13,16,17,19,19,19,19,19,23,26,26,31,35,35,35,37,37,41,41,41,41
participant_9_KILLS,0,0,0,0,0,0,0,0,1,1,1,1,1,1,1,1,2,3,3,3,3,3,4,4,4,4,5,5,6,7,7,7,7,7
participant_9_BUY,[],"[1054, 2003, 3340]",[],[],[1001],[],[3057],[],[],[3047],[1036],[],[],[],[3044],[],[6632],[],[1031],[],"[1036, 1036]",[],[],[3133],[],[],[6333],[1028],[3133],[3067],[],[],[],[3071]
participant_9_SOLD,[],[],[],[],[],[2003],[],[],[],[1001],[],[],[],[],[1036],[],"[3044, 3057]",[],[],[],[],[],[],"[1036, 1036]",[],[],"[1031, 3133]",[],[],[1028],[],[],[],"[3133, 3067]"
participant_9_UNDO,[],[],[],[],[],[],[],[],[],[],[],[],[],[],[],[],[],[],[],[],[],[],[],[],[],[],[],[],[],[],[],[],[],[]
team0_KILLS,0,0,1,2,4,5,6,7,7,7,8,9,12,16,17,20,22,24,26,28,31,32,34,37,37,41,43,44,45,47,52,53,54,58
team0_CURRENTGOLD,2500,10,894,2694,4109,3595,3526,2225,3603,3366,2931,3216,4275,5823,3110,4236,3029,2563,3408,3342,5367,5976,4132,5931,4326,5206,6538,7666,5548,7847,8496,6809,5633,7793
team0_TOTALGOLD,2500,2510,3394,5204,7068,8715,10356,11865,13253,14516,16006,18201,20395,23708,25080,27496,28964,30098,31843,33322,35347,37435,39166,41390,43835,46800,48781,50644,51827,54466,57614,58977,60800,63503
team0_LEVEL,5,5,6,12,17,20,23,26,29,31,34,36,39,42,43,45,47,48,50,52,53,55,57,59,62,65,66,67,68,71,72,74,75,76
team0_SBIRES,0,1,5,26,43,65,90,109,135,153,176,197,212,225,241,257,259,261,272,272,287,302,306,330,339,359,370,389,408,423,441,448,470,475
team1_KILLS,0,0,0,0,0,0,1,1,2,3,3,4,5,6,6,6,9,11,11,13,14,14,17,17,17,18,19,19,21,22,23,23,23,23
team1_CURRENTGOLD,2500,0,354,1566,1744,3078,2653,3271,3959,4651,2967,3653,3170,4072,4003,2487,3755,3469,2006,3723,2753,982,3432,4155,3925,4736,1639,1820,3641,2352,3129,2484,4083,124
team1_TOTALGOLD,2500,2500,2854,4226,5139,6548,8123,9391,11244,12736,13977,15413,17265,18767,19913,20682,24450,27184,28621,30773,32168,33196,36946,38070,39089,41116,42557,43639,46561,48340,49797,50686,52285,52664
team1_LEVEL,5,5,6,12,16,21,23,25,30,31,33,36,37,40,41,42,47,50,50,51,52,52,56,57,58,60,60,62,65,67,67,68,70,70
team1_SBIRES,0,0,8,29,35,60,74,96,109,123,134,153,177,186,204,207,229,240,253,263,272,287,315,336,349,371,383,401,414,432,447,458,487,487
delta_KILLS,0,0,1,2,4,5,5,6,5,4,5,5,7,10,11,14,13,13,15,15,17,18,17,20,20,23,24,25,24,25,29,30,31,35
delta_CURRENTGOLD,0,10,540,1128,2365,517,873,-1046,-356,-1285,-36,-437,1105,1751,-893,1749,-726,-906,1402,-381,2614,4994,700,1776,401,470,4899,5846,1907,5495,5367,4325,1550,7669
delta_TOTALGOLD,0,10,540,978,1929,2167,2233,2474,2009,1780,2029,2788,3130,4941,5167,6814,4514,2914,3222,2549,3179,4239,2220,3320,4746,5684,6224,7005,5266,6126,7817,8291,8515,10839
delta_LEVEL,0,0,0,0,1,-1,0,1,-1,0,1,0,2,2,2,3,0,-2,0,1,1,3,1,2,4,5,6,5,3,4,5,6,5,6
delta_SBIRES,0,1,-3,-3,8,5,16,13,26,30,42,44,35,39,37,50,30,21,19,9,15,15,-9,-6,-10,-12,-13,-12,-6,-9,-6,-10,-17,-12
