name,frame_0,frame_1,frame_2,frame_3,frame_4,frame_5,frame_6,frame_7,frame_8,frame_9,frame_10,frame_11,frame_12,frame_13,frame_14,frame_15,frame_16,frame_17,frame_18,frame_19,frame_20,frame_21,frame_22,frame_23,frame_24,frame_25,frame_26,frame_27,frame_28,frame_29
nameStamp,Tstart,Tearly,Tearly,Tearly,Tearly,Tearly,Tearly,Tearly,Tearly,Tearly,Tearly,Tearly,Tearly,Tearly,Tearly,Tearly,Tmid,Tmid,Tmid,Tmid,Tmid,Tmid,Tmid,Tmid,Tmid,Tmid,Tmid,Tmid,Tmid,Tmid
timestamp,0,60032,120040,180074,240076,300084,360093,420107,480110,540136,600142,660160,720171,780193,840222,900230,960240,1020257,1080290,1140310,1200340,1260356,1320390,1380421,1440428,1500441,1560447,1620456,1680481,1740481
participant_0_GOLD,500,500,580,857,1128,1345,1549,2688,3110,3461,3925,4550,4767,4890,5472,5858,5980,6932,7356,8205,8972,9395,10514,11018,11604,13187,13399,14032,14168,14237
participant_0_CURRENTGOLD,500,0,80,57,328,545,324,1463,1885,2236,250,875,1092,415,997,1383,105,982,1406,2255,3023,245,1064,1568,2155,2337,829,662,349,237
participant_0_LEVEL,1,1,1,2,3,4,4,6,7,8,8,9,10,10,11,11,11,12,13,13,13,14,15,15,15,16,16,16,16,16
participant_0_MINIONSKILLED,0,0,3,11,19,19,23,37,51,60,61,73,73,73,80,91,91,105,114,130,137,143,154,159,159,159,160,169,170,170
participant_0_KILLS,0,0,0,0,0,1,1,1,1,1,1,1,1,1,1,2,2,2,2,2,2,2,2,2,2,2,2,2,2,2
participant_0_BUY,[],"[2003, 2003, 3850, 3340]",[],[],[],[1026],[2003],[],[],[],"[1027, 1052]",[],[3802],[],[],[],"[6655, 2003, 2003]",[],[],[],[1001],[3158],"[2003, 2003]",[],[],[1052],[],[],[],[]
participant_0_SOLD,[],[],[],[2003],[2003],[],[2003],[],[],[],[],[],"[3850, 1052, 1027]",[],[],[],"[3802, 1026]",[2003],[],[2003],[],[1001],[3851],[],[],[],[],[],[2003],[]
participant_0_UNDO,[],[],[],[],[],[],[],[],[],[],[],[],[],[],[],[],[],[],[],[],[],[],[],[],[],[],[],[],[],[]
participant_1_GOLD,500,500,563,755,878,1172,1337,1585,1961,2349,2590,2921,3198,3745,4026,4337,4607,4882,5512,5720,6164,6566,7244,7884,8159,8432,8702,9265,9388,9457
participant_1_CURRENTGOLD,500,0,63,255,78,372,162,410,786,74,315,636,603,1150,1421,282,552,277,907,465,259,661,139,779,254,527,797,560,928,782
participant_1_LEVEL,1,1,1,2,3,4,4,5,6,6,7,7,8,8,9,9,9,10,10,10,11,11,12,13,13,14,14,14,14,14
participant_1_MINIONSKILLED,0,0,2,6,6,11,14,22,27,33,40,49,55,61,67,74,83,88,95,97,109,115,118,135,139,139,143,150,150,150
participant_1_KILLS,0,0,0,0,0,1,1,1,1,1,1,1,1,1,1,1,1,1,1,1,1,1,4,4,5,5,5,6,6,6
participant_1_BUY,[],"[1055, 2003, 3340]",[],[],[],[],"[1018, 1036, 1042]",[],"[2003, 2003, 2003, 2003]",[],[],"[6670, 2003, 2003, 2003]",[],[],[],[],"[6672, 1042]",[],"[2015, 1001]",[],[],[3006],[],[],[3095],[1018],[],[1038],[],[]
participant_1_SOLD,[],[],[],[],[],[],[],[2003],[],[2003],[],"[2003, 1036, 1042]",[],[],[],[],"[6670, 1018]",[],"[2003, 2003, 1042]",[],[],[1001],[2003],[],[2015],[1055],[2003],[1055],[],[]
participant_1_UNDO,[],[],[],[],[],[],[],[],[],[],[],[],[],[],[],[],[],[],[],[],[],[],[],[],[],"[[1055, 0]]",[],[],[],[]
participant_2_GOLD,500,500,663,908,1406,1925,2253,2509,3337,3587,3709,3832,4894,5350,5473,5695,6138,6360,6677,6864,7036,7244,7911,8062,8254,8599,8807,9249,9393,9462
participant_2_CURRENTGOLD,500,0,163,408,906,1425,303,559,1387,1637,59,182,169,625,298,520,963,485,802,239,61,269,936,62,254,150,357,799,93,162
participant_2_LEVEL,1,1,2,2,4,4,5,5,6,6,6,6,7,7,7,7,9,9,9,9,9,10,11,11,11,12,12,13,13,13
participant_2_MINIONSKILLED,0,0,0,0,0,0,0,0,0,2,2,2,2,3,3,3,3,3,3,4,4,4,8,10,10,19,19,19,20,20
participant_2_KILLS,0,0,0,0,1,2,2,2,3,3,3,3,5,6,6,6,7,7,7,7,7,7,7,7,7,7,7,8,8,8
participant_2_BUY,[],"[1039, 2031, 3340]",[],[],[],[],"[3134, 1036]",[],[],[],"[3133, 1037, 2055]",[],"[6691, 2055]",[],[1033],[],[],"[3111, 1036]",[],[3134],[1036],[],[],[3142],[],[1033],[],[],"[3155, 1036]",[]
participant_2_SOLD,[],[],[],[],[],[],[],[],[],[1039],[1036],[2055],"[3134, 3133]",[],[],[],[],"[1033, 2422]",[],"[2055, 1036]",[],[],[],"[3134, 1037]",[],[],[],[],"[1036, 1033]",[]
participant_2_UNDO,[],[],[],[],[],[],[],[],[],[],[],[],[],[],[],[],[],[],[],[],[],[],[],[],[],[],[],[],[],[]
participant_3_GOLD,500,500,563,797,1032,1688,1811,1954,2139,2339,2659,2803,3218,3875,4159,4522,4645,5119,5325,5644,6018,6218,8245,8480,9132,9254,9642,10217,10734,10825
participant_3_CURRENTGOLD,500,0,63,297,532,1188,61,204,189,389,709,53,468,1125,1409,1772,95,569,75,394,768,168,2195,2430,1082,605,992,447,965,695
participant_3_LEVEL,1,1,1,2,3,4,4,4,5,5,6,6,7,8,8,9,9,9,9,10,10,10,11,11,12,12,12,13,13,13
participant_3_MINIONSKILLED,0,0,2,8,14,19,19,20,23,28,37,38,48,56,65,71,71,83,88,92,99,103,106,112,122,122,133,138,150,151
participant_3_KILLS,0,0,0,0,0,0,0,0,0,0,0,0,0,0,0,0,0,0,1,1,1,1,2,2,2,2,2,2,2,2
participant_3_BUY,[],"[1055, 2003, 3340]",[],[],[1042],[],"[1001, 2055]",[],[],"[6677, 1018]",[],[],[1042],[],[],"[3124, 1036]",[],[1053],[],"[1042, 1036]",[6670],[],[6673],[],[3006],[],[],"[1033, 1036]",[],[]
participant_3_SOLD,[],[],[],[2003],[],[],[],[2055],[],[1042],[],[],[],[],[],"[6677, 1018, 1042]",[],[1036],[],[],"[1036, 1042]",[],"[6670, 1053]",[],[1001],[],[],[],[1036],[]
participant_3_UNDO,[],[],[],[],[],[],[],[],[],[],[],[],[],[],[],[],[],[],[],[],[],[],[],[],[],[],[],[],[],[]
participant_4_GOLD,500,500,523,711,880,1544,1721,1941,2129,2364,2532,2749,3095,3370,3551,4031,4171,4352,4512,4825,5016,5176,5367,5597,5801,5942,6131,6271,6424,6503
participant_4_CURRENTGOLD,500,0,23,211,380,194,321,541,729,964,347,564,395,670,851,1331,121,302,462,775,666,226,317,547,751,457,646,787,939,1018
participant_4_LEVEL,1,1,1,2,3,4,4,5,5,6,6,7,7,7,8,8,8,9,9,9,10,10,10,10,11,11,11,11,12,12
participant_4_MINIONSKILLED,0,0,0,1,2,2,4,5,6,6,7,10,10,10,10,10,10,10,10,14,14,14,14,15,16,16,19,19,19,19
participant_4_KILLS,0,0,0,0,0,0,0,1,1,1,2,3,3,3,4,4,4,4,4,4,4,4,5,5,6,9,9,10,10,10
participant_4_BUY,[],"[1083, 2003, 3340]",[],[1001],[],[],"[1036, 2055]",[],[],[],"[6670, 1018, 1053]",[],[],"[6673, 3006]",[],[],"[6673, 6677]",[2055],[],[],[],"[3124, 3086]",[1042],[],[],[3046],"[3086, 2015]",[3094],[1033],[]
participant_4_SOLD,[],[],[],[],[],[],[],[2003],[],[],[1036],[2055],[],"[6670, 1018, 1053, 1001]",[],[],"[6670, 1018, 1053]",[2055],[],[],[],[6677],[],[],[],"[1042, 3086]",[1083],"[3086, 2015]",[],[]
participant_4_UNDO,[],[],[],[],[],[],[],[],[],[],[],[],[],"[[0, 6673]]",[],[],[],[],[],[],[],[],[],[],[],[],[],[],[],[]
participant_5_GOLD,500,500,598,811,1384,2296,2963,3155,3479,3658,3780,3966,4431,5525,5739,6002,6936,7421,7734,8211,8333,8679,8802,9237,9384,9506,10125,10665,11628,12206
participant_5_CURRENTGOLD,500,0,98,311,84,996,1663,105,429,608,730,916,681,1775,89,352,1286,221,534,1011,1133,429,202,637,34,157,775,1315,2279,676
participant_5_LEVEL,1,1,1,3,4,5,7,7,8,8,8,9,9,10,10,11,11,11,12,12,12,12,12,13,13,13,14,14,15,16
participant_5_MINIONSKILLED,0,0,4,9,14,14,24,28,36,39,39,42,49,59,64,69,75,78,89,94,94,100,100,107,107,107,124,135,139,145
participant_5_KILLS,0,0,0,0,0,0,0,0,0,0,1,1,1,1,1,1,1,1,1,1,1,1,1,1,1,1,1,1,1,1
participant_5_BUY,[],"[1035, 2031, 3364]",[],[],[],"[1028, 1029]",[],[],[],[],"[3105, 1028]",[],[6660],[3068],[1001],[],[],[],[3047],[1082],[],[],[3041],[],[1028],[3067],[],[1028],[],[]
participant_5_SOLD,[],[],[],[],[],[],[],[],[],[],[1029],[],"[1028, 1028]","[1035, 6660, 3105]",[],[],[],[],[1001],[],[],[],[1082],[],[],[1028],[],[],[],[]
participant_5_UNDO,[],[],[],[],[],[],[],[],[],[],[],[],[],[],[],[],[],[],[],[],[],[],[],[],[],[],[],[],[],[]
participant_6_GOLD,500,500,621,933,1241,1363,1606,1910,2086,2466,2971,3519,3721,3974,4181,4353,4880,5135,5425,5796,6025,6344,6467,7075,7198,7525,7938,8275,8597,8667
participant_6_CURRENTGOLD,500,0,121,433,741,163,406,710,886,1266,171,719,721,274,181,353,880,1135,625,646,875,1194,67,675,398,325,738,675,997,1067
participant_6_LEVEL,1,1,2,3,3,3,4,4,5,6,6,7,7,8,8,8,9,9,9,10,10,10,10,11,11,11,12,12,12,13
participant_6_MINIONSKILLED,0,0,0,0,0,0,2,2,5,5,9,14,14,14,14,14,16,17,22,25,26,26,26,32,32,32,33,34,34,34
participant_6_KILLS,0,0,0,1,1,1,2,2,2,3,3,5,5,5,6,6,6,6,6,7,7,9,9,12,14,15,17,18,19,21
participant_6_BUY,[],"[2033, 3340]",[],[],"[1052, 1052, 2055]",[],[],"[3802, 1026]",[],[1001],[],[],"[6655, 1082]",[],[],[],[],"[1058, 1058]",[],[],[3089],[],[3020],"[4642, 3364]",[],"[3011, 4630]",[],[3135],[],[]
participant_6_SOLD,[],[],[],[],[],[],[],"[1052, 1052]",[],[],[],[],"[3802, 1026]",[],[2055],[],[],[],[],[],"[1058, 1058]",[],[1001],[3340],[],"[4642, 1082, 2033]",[],[4630],[],[]
participant_6_UNDO,[],[],[],[],[],[],[],[],[],[],[],[],[],[],[],[],[],[],[],[],[],[],[],[],[],"[[1082, 0]]",[],[],[],[]
participant_7_GOLD,500,500,612,1348,1534,1950,2852,3072,3327,3866,4156,5041,5243,5513,6075,6740,7224,7496,7963,9044,9370,10420,10543,11891,12679,13752,14648,15572,16780,17713
participant_7_CURRENTGOLD,500,0,112,838,79,485,1377,317,562,790,1081,1956,558,828,1390,2055,2539,311,778,1859,885,1936,1258,1557,2345,1117,2013,1688,2895,3548
participant_7_LEVEL,1,1,1,3,4,5,6,6,7,7,8,9,9,9,10,10,11,11,12,12,13,13,13,13,14,15,15,16,17,17
participant_7_MINIONSKILLED,0,0,5,15,18,33,41,47,51,56,65,75,75,84,93,97,103,103,119,128,133,142,142,146,152,152,158,163,169,176
participant_7_KILLS,0,0,0,0,1,3,4,4,4,4,4,4,4,5,5,5,7,8,8,8,8,8,8,8,8,8,8,8,9,10
participant_7_BUY,[],"[1055, 2003, 3340]",[],[],"[1036, 1028, 2003]",[],[],"[3044, 3067, 1001, 1029]",[],[],[],[],[3057],[],"[6632, 3047, 1036, 1036]",[],[],"[3133, 3067, 1036]",[],[],[],[3071],[1036],[],[3133],[],[],[],[],[6333]
participant_7_SOLD,[],[],[],[],[2003],[2003],[],"[1028, 1036]",[],[],[],[],[],[],"[3044, 3057, 3067, 1001, 1029]",[],[],"[1036, 1036]",[],[],[],"[3133, 3067, 1036]",[],[],[1036],[1055],[],[],[],[3133]
participant_7_UNDO,[],[],[],[],[],[],[],[],[],[],[],[],[],[],[],[],[],[],[],[],[],[],[],[],[],"[[1055, 0]]",[],[],[],[]
participant_8_GOLD,500,500,542,885,1064,1200,1456,1648,1910,2075,2567,2732,3772,3908,4129,4385,4963,5099,5367,6015,6298,6931,7102,7521,7770,7967,8139,8481,8817,9054
participant_8_CURRENTGOLD,500,50,92,435,614,50,306,498,760,925,1417,132,1172,1308,1529,1785,113,249,517,1165,1448,2081,219,638,887,384,556,898,484,721
participant_8_LEVEL,1,1,1,2,3,3,4,4,5,5,7,7,7,8,8,8,9,10,10,10,11,11,11,12,12,13,13,13,13,14
participant_8_MINIONSKILLED,0,0,1,11,14,15,23,27,35,37,41,43,53,54,60,65,71,72,76,79,88,93,96,100,108,108,111,115,116,122
participant_8_KILLS,0,0,0,0,0,0,0,0,0,0,0,0,0,0,0,0,0,0,0,0,0,0,0,0,0,1,1,1,1,1
participant_8_BUY,[],"[3850, 2003, 3340, 2003]",[],[],[],[1052],[],[],[],[],"[3802, 2003, 2003]",[],[],"[1001, 1052, 2003]",[],[],"[3108, 2003, 2003]",[],[],[],[],[],"[6653, 2003]",[2003],[],[1026],[],[],[3020],[]
participant_8_SOLD,[],[],[],[],[],[],[],[],[2003],[2003],[1052],[2003],"[2003, 3850]",[],[2003],[],[1052],[],"[2003, 2003]",[],[],[3851],"[3802, 3108]",[],[],[],[],[],[1001],[]
participant_8_UNDO,[],[],[],[],[],[],[],[],[],[],[],[],[],[],[],[],[],[],[],[],[],[],[],[],[],[],[],[],[],[]
participant_9_GOLD,500,500,523,657,952,1086,1242,1436,1570,1888,2022,2157,2631,2771,2992,3242,3433,3647,3827,4148,4288,4595,4735,4951,5121,5787,5927,6217,6558,6672
participant_9_CURRENTGOLD,500,0,23,157,452,151,307,501,635,953,122,257,731,86,307,557,183,397,577,898,1038,1345,236,401,571,387,527,818,358,472
participant_9_LEVEL,1,1,1,2,3,3,4,4,5,6,6,6,7,7,7,8,8,8,8,9,9,10,10,10,10,11,11,12,12,12
participant_9_MINIONSKILLED,0,0,0,0,0,0,1,1,1,5,5,5,5,5,5,5,5,6,6,6,6,7,7,7,8,8,8,8,8,10
participant_9_KILLS,0,0,0,0,0,0,0,0,0,0,1,1,3,3,3,3,4,4,4,5,5,5,5,5,5,5,5,5,5,5
participant_9_BUY,[],"[3070, 2003, 3340]",[],[],[],[3057],[],[],[],[],[],"[3133, 1027]",[],[],[],[],"[3004, 3051, 1028]",[],[],[],[],[],"[3078, 3158]",[],[],"[1036, 1036]",[],[],"[3133, 1036]",[]
participant_9_SOLD,[],[],[],[],"[2003, 2010]",[2010],[],[2010],[],[],[],[],[],[],[],[],"[3070, 3133, 1027]",[3004],[],[],[],[],"[3057, 3051, 1028]",[],[],[],[],[],"[1036, 1036]",[]
participant_9_UNDO,[],[],[],[],[],[],[],[],[],[],[],[],[],[],[],[],[],[],[],[],[],[],[],[],[],[],[],[],[],[]
team0_KILLS,0,0,0,0,1,4,4,5,6,6,7,8,10,11,12,13,14,14,15,15,15,15,20,20,22,25,25,28,28,28
team0_CURRENTGOLD,2500,0,392,1228,2224,3724,1171,3177,4976,5300,1680,2310,2727,3985,4976,5288,1836,2615,3652,4128,4777,1569,4651,5386,4496,4076,3621,3255,3274,2894
team0_TOTALGOLD,2500,2500,2892,4028,5324,7674,8671,10677,12676,14100,15415,16855,19172,21230,22681,24443,25541,27645,29382,31258,33206,34599,39281,41041,42950,45414,46681,49034,50107,50484
team0_LEVEL,5,5,6,10,16,20,21,25,29,31,33,35,39,40,43,44,46,49,50,51,53,55,59,60,62,65,65,67,68,68
team0_SBIRES,0,0,7,26,41,51,60,84,107,129,147,172,188,203,225,249,258,289,310,337,363,379,400,431,446,455,474,495,509,510
team1_KILLS,0,0,0,1,2,4,6,6,6,7,9,11,13,14,15,15,18,19,19,21,21,23,23,26,28,30,32,33,35,38
team1_CURRENTGOLD,2500,50,446,2174,1970,1845,4059,2131,3272,4542,3521,3980,3863,4271,3496,5102,5001,2313,3031,5579,5379,6985,1982,3908,4235,2370,4609,5394,7013,6484
team1_TOTALGOLD,2500,2500,2896,4634,6175,7895,10119,11221,12372,13953,15496,17415,19798,21691,23116,24722,27436,28798,30316,33214,34314,36969,37649,40675,42152,44537,46777,49210,52380,54312
team1_LEVEL,5,5,6,13,17,19,25,25,30,32,35,38,39,42,43,45,48,49,51,53,55,56,56,59,60,63,65,67,69,72
team1_SBIRES,0,0,10,35,46,62,91,105,128,142,159,179,196,216,236,250,270,276,312,332,347,368,371,392,407,407,434,455,466,487
delta_KILLS,0,0,0,-1,-1,0,-2,-1,0,-1,-2,-3,-3,-3,-3,-2,-4,-5,-4,-6,-6,-8,-3,-6,-6,-5,-7,-5,-7,-10
delta_CURRENTGOLD,0,-50,-54,-946,254,1879,-2888,1046,1704,758,-1841,-1670,-1136,-286,1480,186,-3165,302,621,-1451,-602,-5416,2669,1478,261,1706,-988,-2139,-3739,-3590
delta_TOTALGOLD,0,0,-4,-606,-851,-221,-1448,-544,304,147,-81,-560,-626,-461,-435,-279,-1895,-1153,-934,-1956,-1108,-2370,1632,366,798,877,-96,-176,-2273,-3828
delta_LEVEL,0,0,0,-3,-1,1,-4,0,-1,-1,-2,-3,0,-2,0,-1,-2,0,-1,-2,-2,-1,3,1,2,2,0,0,-1,-4
delta_SBIRES,0,0,-3,-9,-5,-11,-31,-21,-21,-13,-12,-7,-8,-13,-11,-1,-12,13,-2,5,16,11,29,39,39,48,40,40,43,23
