name,frame_0,frame_1,frame_2,frame_3,frame_4,frame_5,frame_6,frame_7,frame_8,frame_9,frame_10,frame_11,frame_12,frame_13,frame_14,frame_15,frame_16,frame_17,frame_18,frame_19,frame_20,frame_21,frame_22
nameStamp,Tstart,Tearly,Tearly,Tearly,Tearly,Tearly,Tearly,Tearly,Tearly,Tearly,Tearly,Tearly,Tearly,Tearly,Tearly,Tearly,Tmid,Tmid,Tmid,Tmid,Tmid,Tmid,Tmid
timestamp,0,60017,120019,180040,240072,300101,360121,420122,480140,540166,600168,660172,720194,780204,840224,900234,960246,1020282,1080289,1140314,1200338,1260363,1320383
participant_0_GOLD,500,500,583,888,1431,1770,2117,3009,3284,3689,4111,4393,4801,5293,5581,5822,6941,7293,7921,8324,8933,9430,10512
participant_0_CURRENTGOLD,500,0,83,388,131,470,817,1709,384,789,1211,1493,1901,2393,2681,439,1558,1910,2538,466,1075,47,1129
participant_0_LEVEL,1,1,1,3,3,5,6,7,7,8,9,9,10,10,11,11,12,12,13,13,13,14,14
participant_0_MINIONSKILLED,0,0,3,14,14,25,37,51,57,70,78,84,92,104,110,117,129,129,135,142,148,155,160
participant_0_KILLS,0,0,0,0,0,0,0,0,0,0,0,0,0,2,2,2,2,2,2,2,2,2,3
participant_0_BUY,[],"[1055, 2003, 3340]",[],[],[],[],[],[1038],[],[],[],[],"[1001, 1037, 2003, 2003]",[],[3031],[1042],[],[],[],[],"[3006, 1038]",[],[]
participant_0_SOLD,[],[],[],[],[],[],[],[],[],[],[2003],[],[],[],"[1038, 1037]",[],[],[],[],[],"[1001, 1042]",[2003],[]
participant_0_UNDO,[],[],[],[],[],[],[],[],[],[],[],[],[],[],[],[],[],[],[],[],[],[],[]
participant_1_GOLD,500,500,620,1018,1318,1440,1573,1895,2017,2460,2808,3205,3517,3952,4094,4346,4547,4719,5002,5250,5527,6220,6363
participant_1_CURRENTGOLD,500,0,120,518,818,215,348,670,17,460,808,30,342,777,919,271,472,44,327,575,852,745,413
participant_1_LEVEL,1,1,2,3,4,4,4,4,5,5,6,6,6,7,7,7,8,8,8,9,9,10,10
participant_1_MINIONSKILLED,0,0,0,0,0,0,1,2,2,2,2,2,2,3,3,3,5,5,5,5,5,5,6
participant_1_KILLS,0,0,0,0,0,0,0,0,0,1,1,1,1,1,1,1,1,1,1,1,1,2,2
participant_1_BUY,[],"[1041, 1006, 3340]",[],[],[],"[3706, 2055, 3364]",[],[],"[1036, 1036, 2055]",[],[],"[3077, 1001, 1028]",[],[],[],"[3751, 1028]",[],[1401],[],[],[],[3047],"[1028, 2055, 1028, 2055]"
participant_1_SOLD,[],[],[],[],[],"[1041, 3340]",[2055],[],[],[],[],"[2055, 1036, 1006, 1036]",[],[],[],[1028],[],"[3751, 3706]",[],[],[],[1001],[]
participant_1_UNDO,[],[],[],[],[],[],[],[],[],[],[],[],[],[],[],[],[],[],[],[],[],[],"[[0, 2055], [0, 1028]]"
participant_2_GOLD,500,500,569,790,1071,1340,1711,1966,2402,2539,2829,3008,3483,3682,3861,4249,4422,4964,5136,5280,5599,5722,6144
participant_2_CURRENTGOLD,500,0,69,290,571,840,1211,1466,1902,89,29,208,683,82,211,599,272,814,36,180,499,622,1044
participant_2_LEVEL,1,1,1,3,4,5,6,7,7,7,8,8,9,10,10,10,11,11,11,11,11,11,12
participant_2_MINIONSKILLED,0,0,3,8,15,21,32,40,41,42,52,56,70,75,79,91,91,95,95,96,104,104,104
participant_2_KILLS,0,0,0,0,1,1,1,2,2,2,2,2,2,2,2,2,3,3,4,4,5,5,7
participant_2_BUY,[],"[1054, 2003, 3340]",[],[],"[1028, 1036, 2003]",[],[],[],"[3044, 1001, 3111]",[],[],[],[],[],[],[3078],[],[],[],"[3052, 3052, 1037, 1028]",[],"[3053, 1031]",[]
participant_2_SOLD,[],[],[],[],[],"[2003, 2003]",[],[],"[1028, 1036, 1001]",[],[],[],[],[],[],[3044],[],[],[],[],[],"[3052, 1037, 1028]",[]
participant_2_UNDO,[],[],[],[],[],[],[],[],[],[],[],[],[],[],[],[],[],[],[],"[[0, 3052]]",[],[],[]
participant_3_GOLD,500,500,555,755,1113,1354,1711,1934,2324,2585,2770,3251,3451,4412,4728,4936,5314,5863,6326,6657,6878,7487,7909
participant_3_CURRENTGOLD,500,0,55,255,613,854,1211,134,524,785,970,1451,376,1337,428,336,714,1263,1726,2057,478,1087,1509
participant_3_LEVEL,1,1,1,2,3,4,4,5,5,6,6,7,7,8,8,8,9,9,10,10,11,12,12
participant_3_MINIONSKILLED,0,0,2,6,17,24,35,36,44,48,52,64,65,77,85,90,98,105,108,117,123,143,143
participant_3_KILLS,0,0,0,0,0,0,0,0,1,1,1,1,1,1,1,1,1,2,2,2,2,2,2
participant_3_BUY,[],"[1056, 2003, 2003, 3340]",[],[],[],[],[],[],[],"[3070, 3010]","[1001, 2003]",[],[],[3020],[2003],[],"[1027, 2031]",[],[3802],[],[],[],[]
participant_3_SOLD,[],[],[],[2003],[2003],[],[],[],[],[],[],[],[2003],[1001],[],[2003],[],[],"[2031, 1027]",[],[],[],[]
participant_3_UNDO,[],[],[],[],[],[],[],[],[],[],[],[],[],[],[],[],[],[],"[[2031, 0]]",[],[],[],[]
participant_4_GOLD,500,500,520,657,794,930,1053,1276,1506,1718,1840,2657,2877,3158,3280,3402,3774,4111,4416,4622,4822,4945,5226
participant_4_CURRENTGOLD,500,0,20,157,294,430,553,41,271,483,170,987,1207,1488,330,452,824,1161,416,622,822,945,1226
participant_4_LEVEL,1,1,1,2,3,4,4,5,5,5,5,6,7,8,8,8,8,9,9,9,9,10,10
participant_4_MINIONSKILLED,0,0,0,1,2,3,3,4,6,7,7,8,13,14,14,14,21,22,26,31,33,33,38
participant_4_KILLS,0,0,0,0,0,0,0,0,0,0,0,2,2,2,2,2,2,2,2,2,2,2,2
participant_4_BUY,[],"[1056, 2003, 2003, 3340]",[],[],[],[],[],"[1052, 1001]",[],[],[1052],[],[],[],"[3802, 1026]",[],[],[],[3285],[],[],[],[]
participant_4_SOLD,[],[],[],[],[],[],[],[2003],[],[2003],[],[],[],[],"[1052, 1052]",[],[],[],"[3802, 1026]",[],[],[],[]
participant_4_UNDO,[],[],[],[],[],[],[],[],[],[],[],[],[],[],[],[],[],[],[],[],[],[],[]
participant_5_GOLD,500,500,562,762,1095,1280,1543,1700,1914,2092,2349,2596,2746,3009,3278,3569,3692,4362,4569,4816,5001,5124,5246
participant_5_CURRENTGOLD,500,0,62,262,295,480,743,100,314,492,749,996,1146,359,628,919,392,1062,1269,316,501,624,746
participant_5_LEVEL,1,1,1,2,4,4,5,5,6,7,7,8,8,9,10,10,10,11,11,12,12,12,12
participant_5_MINIONSKILLED,0,0,2,7,11,15,22,24,29,33,37,41,43,51,60,67,67,73,78,81,85,85,85
participant_5_KILLS,0,0,0,0,0,1,1,1,1,1,1,1,1,1,1,1,1,1,1,1,1,1,1
participant_5_BUY,[],[],"[1056, 2003, 2003, 3340]",[],[],[],[],[],[],"[1052, 1052, 1028, 1001, 3145, 2003, 2003]",[],[],[3067],[],[],[],"[3152, 3020, 1028]",[],[1052],[],[],[3916],[]
participant_5_SOLD,[],[],[],[2003],[2003],[2403],[2403],[],[2403],"[1052, 1052]","[2003, 2003]",[],[1028],[],[],[],"[3145, 3067, 1001]",[],[],[],[],"[1028, 1052]",[]
participant_5_UNDO,[],[],[],[],[],[],[],[],[],[],[],[],[],[],[],[],[],[],[],[],[],[],[]
participant_6_GOLD,500,500,620,1033,1619,2043,2251,2563,3108,3255,3563,3913,4742,5169,5860,6503,7056,7676,7799,8531,8816,8939,9061
participant_6_CURRENTGOLD,500,0,120,533,1119,1543,1101,313,33,180,488,838,1667,2094,2785,228,781,1401,124,856,1142,164,286
participant_6_LEVEL,1,1,2,3,4,5,5,5,6,6,6,7,8,8,9,9,10,11,11,11,12,12,12
participant_6_MINIONSKILLED,0,0,0,0,2,4,4,4,6,6,6,7,11,11,15,15,15,17,17,17,19,19,19
participant_6_KILLS,0,0,0,0,1,1,1,1,2,2,2,2,2,2,3,4,4,5,5,6,6,6,6
participant_6_BUY,[],"[1041, 2031, 3340]",[],[],[],[],[3706],[3133],"[1001, 1400]",[],[],[],[],[],[],"[3147, 1042]",[],[],"[3006, 1053]",[],[],[3134],[]
participant_6_SOLD,[],[],[],[],[],[],[1041],[],"[3133, 3706]",[],[],[],"[3340, 3513]",[],[],[],[],[],"[1001, 1042]",[],[],[],[]
participant_6_UNDO,[],[],[],[],[],[],[],[],[],[],[],[],[],[],[],[],[],[],[],[],[],[],[]
participant_7_GOLD,500,500,541,850,1120,1654,1913,2112,2391,2620,2806,3047,3198,3495,3956,4676,4819,5169,5291,5523,5695,6037,6160
participant_7_CURRENTGOLD,500,500,41,350,620,1154,1413,1612,1891,270,456,697,448,745,1206,1926,219,569,256,488,660,237,360
participant_7_LEVEL,1,1,1,3,4,5,6,6,7,7,8,9,9,9,10,11,11,11,11,11,12,12,12
participant_7_MINIONSKILLED,0,0,1,10,18,22,27,31,34,37,41,48,50,60,66,75,76,81,81,83,86,90,90
participant_7_KILLS,0,0,0,0,0,0,0,0,0,0,0,0,0,0,0,0,0,1,1,1,1,1,1
participant_7_BUY,[],"[1054, 2003, 3340]",[],[],[1001],[],[],[3067],[],[],[],[],[],[3145],[],[],[3152],[],[],"[3111, 1028]",[],[],[]
participant_7_SOLD,[],[],[],[],[2003],[],[],[],[],[],[],[],[],[],[],[],"[3145, 3067]",[],[],[1001],[],[],[]
participant_7_UNDO,[],[],[],[],[],[],[],[],[],[],[],[],[],[],[],[],[],[],[],[],[],[],[]
participant_8_GOLD,500,500,541,850,1148,1431,1554,1788,1970,2155,2446,2568,2895,3108,3307,3508,3728,3956,4099,4221,4456,5010,5133
participant_8_CURRENTGOLD,500,0,41,350,648,931,154,388,570,755,1046,68,395,308,207,18,238,466,609,731,966,1520,843
participant_8_LEVEL,1,1,1,2,3,4,4,4,5,6,6,6,7,7,7,8,8,9,9,9,9,10,10
participant_8_MINIONSKILLED,0,0,1,9,19,25,25,31,32,36,46,46,54,59,64,66,72,78,79,79,85,89,89
participant_8_KILLS,0,0,0,0,0,0,0,0,0,0,0,0,0,0,0,0,0,0,0,0,0,1,1
participant_8_BUY,[],"[1055, 2003, 3340]",[],[],[],[],"[1042, 1001, 1042]",[],[],[],[],[3086],[],[1042],[1042],[3085],[],[],[],[],[],[],[3006]
participant_8_SOLD,[],[],[],[],[],[2003],[],[],[],[],[],[1042],[],[],[],"[1042, 1042, 3086, 1042]",[],[],[],[],[],[],[1001]
participant_8_UNDO,[],[],[],[],[],[],[],[],[],[],[],[],[],[],[],[],[],[],[],[],[],[],[]
participant_9_GOLD,500,500,522,759,915,1112,1247,1444,1644,1779,1969,2103,2358,2499,2639,3072,3373,3513,3786,4031,4181,4350,4490
participant_9_CURRENTGOLD,500,500,22,259,415,612,747,944,1144,179,369,103,358,499,239,672,973,113,386,631,782,950,1090
participant_9_LEVEL,1,1,1,2,3,4,4,5,5,5,6,6,7,7,7,7,8,8,9,9,9,10,10
participant_9_MINIONSKILLED,0,0,0,3,4,5,5,8,8,8,11,11,14,14,14,17,22,22,25,26,27,29,29
participant_9_KILLS,0,0,0,0,0,0,0,0,0,0,0,0,0,0,0,0,0,0,0,0,0,0,0
participant_9_BUY,[],[],"[3854, 2003, 2003, 3340]",[],[],[],[],[],[],"[1001, 1036, 1036, 2003, 2003]",[],[3134],[],[],"[1036, 2003]",[],[],"[3179, 2003]",[],[],[],[],[]
participant_9_SOLD,[],[],[],[],[],[2003],[2003],[],[],[],[2003],"[1036, 1036]",[3854],[2003],[],[],[2003],"[3134, 1036]",[],[],[2003],[],[]
participant_9_UNDO,[],[],[],[],[],[],[],[],[],[],[],[],[],[],[],[],[],[],[],[],[],[],[]
team0_KILLS,0,0,0,0,1,1,1,2,3,4,4,6,6,8,8,8,9,10,11,11,12,13,16
team0_CURRENTGOLD,2500,0,347,1608,2427,2809,4140,4020,3098,2606,3188,4169,4509,6077,4569,2097,3840,5192,5043,3900,3726,3446,5321
team0_TOTALGOLD,2500,2500,2847,4108,5727,6834,8165,10080,11533,12991,14358,16514,18129,20497,21544,22755,24998,26950,28801,30133,31759,33804,36154
team0_LEVEL,5,5,6,13,17,22,24,28,29,31,34,36,39,43,44,44,48,49,51,52,53,57,58
team0_SBIRES,0,0,8,29,48,73,108,133,150,169,191,214,242,273,291,315,344,356,369,391,413,440,451
team1_KILLS,0,0,0,0,1,2,2,2,3,3,3,3,3,3,4,5,5,7,7,8,8,9,9
team1_CURRENTGOLD,2500,1000,286,1754,3097,4720,4158,3357,3952,1876,3108,2702,4014,4005,5065,3763,2603,3611,2644,3022,4051,3495,3325
team1_TOTALGOLD,2500,2500,2786,4254,5897,7520,8508,9607,11027,11901,13133,14227,15939,17280,19040,21328,22668,24676,25544,27122,28149,29460,30090
team1_LEVEL,5,5,6,12,18,22,24,25,29,31,33,36,39,40,43,45,47,50,51,52,54,56,56
team1_SBIRES,0,0,4,29,54,71,83,98,109,120,141,153,172,195,219,240,252,271,280,286,302,312,312
delta_KILLS,0,0,0,0,0,-1,-1,0,0,1,1,3,3,5,4,3,4,3,4,3,4,4,7
delta_CURRENTGOLD,0,-1000,61,-146,-670,-1911,-18,663,-854,730,80,1467,495,2072,-496,-1666,1237,1581,2399,878,-325,-49,1996
delta_TOTALGOLD,0,0,61,-146,-170,-686,-343,473,506,1090,1225,2287,2190,3217,2504,1427,2330,2274,3257,3011,3610,4344,6064
delta_LEVEL,0,0,0,1,-1,0,0,3,0,0,1,0,0,3,1,-1,1,-1,0,0,-1,1,2
delta_SBIRES,0,0,4,0,-6,2,25,35,41,49,50,61,70,78,72,75,92,85,89,105,111,128,139
