name,frame_0,frame_1,frame_2,frame_3,frame_4,frame_5,frame_6,frame_7,frame_8,frame_9,frame_10,frame_11,frame_12,frame_13,frame_14,frame_15,frame_16,frame_17,frame_18,frame_19,frame_20,frame_21,frame_22,frame_23
nameStamp,Tstart,Tearly,Tearly,Tearly,Tearly,Tearly,Tearly,Tearly,Tearly,Tmid,Tmid,Tmid,Tmid,Tmid,Tmid,Tmid,Tmid,Tmid,Tmid,Tmid,Tmid,Tmid,Tmid,Tmid
timestamp,0,60023,120042,180063,240090,300107,360129,420158,480184,540216,600229,660247,720258,780273,840294,900313,960331,1020345,1080350,1140354,1200381,1260403,1320421,1380421
participant_0_GOLD,1400,1416,2409,2936,3392,3922,4769,5238,6264,6906,7406,7853,9319,9713,10452,11580,12168,12598,13607,14280,14662,15843,16485,17217
participant_0_CURRENTGOLD,1400,16,1009,1536,492,1022,1869,638,1664,806,1306,653,2119,263,1002,1030,818,1248,2257,980,262,1443,2085,2817
participant_0_LEVEL,1,3,4,5,6,7,8,8,9,10,11,12,13,13,14,15,15,16,17,17,18,18,18,18
participant_0_MINIONSKILLED,0,0,2,5,7,9,10,14,17,18,21,22,25,25,32,33,34,34,38,38,39,39,45,48
participant_0_KILLS,0,0,3,3,3,3,4,4,5,6,6,6,8,8,8,10,11,11,13,14,14,16,16,17
participant_0_BUY,[],"[3070, 1036, 1036, 1001]",[],[],"[3134, 3133]",[],[],"[6691, 1036, 1036]",[],"[3134, 3004]",[],[3134],[],"[3814, 6676, 1036]",[],"[3133, 1036]",[3111],[],[],[6694],[3133],[],[],[]
participant_0_SOLD,[],[],[],[],"[1036, 1036]",[],[],"[3134, 3133]",[],"[1036, 1036, 3070, 1036, 1036, 3004]",[],[],[],"[3134, 3134]",[],[1036],[1001],[],[],"[3133, 1036]",[],[],[],[]
participant_0_UNDO,[],[],[],[],[],[],[],[],[],"[[0, 3134]]",[],[],[],"[[0, 3814]]",[],[],[],[],[],[],[],[],[],[]
participant_1_GOLD,1400,1670,2143,2621,3098,3752,4317,4773,5928,6450,6833,7235,7975,8394,9504,10247,10786,11193,11950,12604,12964,13747,14107,14746
participant_1_CURRENTGOLD,1400,370,843,1321,1798,2452,367,823,1978,450,833,235,975,144,1254,47,586,693,1450,2104,1264,547,607,1246
participant_1_LEVEL,1,3,4,5,6,7,8,9,10,11,11,11,12,13,14,15,16,16,17,18,18,18,18,18
participant_1_MINIONSKILLED,0,0,0,1,3,3,6,6,10,10,10,10,11,11,13,14,15,15,20,20,20,20,20,22
participant_1_KILLS,0,1,1,1,1,2,2,2,4,4,4,4,4,4,6,6,6,6,7,8,8,9,9,10
participant_1_BUY,[],"[6660, 1029]",[],[],[],[],"[3068, 1001, 1033]",[],[],"[3111, 3076, 1011]",[],[3075],[],[3211],[],"[3065, 1029]",[],[1029],[],[],[3105],[3193],[1029],[]
participant_1_SOLD,[],[],[],[],[],[],"[6660, 1029]",[],[],"[1001, 1033]",[],"[3076, 1011]",[],[],[],[3211],[],[],[],[],[1029],"[1029, 3105]","[2052, 2052]",[]
participant_1_UNDO,[],[],[],[],[],[],[],[],[],[],[],[],[],[],[],[],[],[],[],[],[],[],[],[]
participant_2_GOLD,1400,1416,1918,2396,2883,3390,4394,4850,5604,6511,7059,7703,8462,8906,9669,10456,11045,11661,12216,12988,13348,13762,14297,14837
participant_2_CURRENTGOLD,1400,16,518,146,483,990,744,1200,454,1361,1909,2553,3312,266,1029,966,655,821,1376,998,558,972,1507,1987
participant_2_LEVEL,1,3,4,5,6,7,8,9,9,10,11,12,13,14,15,15,16,17,18,18,18,18,18,18
participant_2_MINIONSKILLED,0,0,2,3,7,8,9,9,10,14,16,22,25,27,32,34,41,42,42,54,54,54,59,60
participant_2_KILLS,0,0,0,0,0,0,1,1,2,4,4,4,4,4,4,4,4,5,5,5,5,5,5,5
participant_2_BUY,[],"[3802, 2003, 2003]",[],[1026],[2031],[],[6655],[],"[3111, 1028]",[],[],[],[],"[3107, 3916, 1026]",[],[3165],[3108],[1033],[],[3102],[3067],[],[],[]
participant_2_SOLD,[],"[2052, 2003]",[],[2003],[],[],"[3802, 1026]",[],[],[],[],[],[],"[1028, 2031]",[],"[1026, 3916]",[],[],[],"[3108, 1033]",[],[],[],[]
participant_2_UNDO,[],[],[],[],[],[],[],[],[],[],[],[],[],[],[],[],[],[],[],[],[],[],[],[]
participant_3_GOLD,1400,1426,1990,2821,3260,3785,4588,5095,6081,6564,7419,7854,8968,9362,9752,10637,11267,12564,13095,13727,14191,14922,15705,16730
participant_3_CURRENTGOLD,1400,26,590,1421,310,835,388,895,1881,364,1219,504,1618,412,302,1187,317,1614,545,1177,441,722,1505,2530
participant_3_LEVEL,1,3,4,5,6,7,7,8,9,10,11,11,12,13,13,14,14,16,16,17,18,18,18,18
participant_3_MINIONSKILLED,0,0,5,9,11,15,17,21,26,28,31,33,36,36,36,39,41,51,54,54,57,60,67,75
participant_3_KILLS,0,0,0,1,1,1,3,3,4,4,6,6,8,8,8,8,9,10,10,11,11,12,13,15
participant_3_BUY,[],"[6029, 2003, 2003, 2003, 2003]",[],[],"[3051, 1028, 2003]",[],"[6631, 1001, 1036]",[],[],"[3111, 3123, 1028, 1036]",[],[6609],[],"[3077, 1028]",[1011],[],"[3748, 1029]",[],"[1031, 3133]",[],[6333],[1033],[],[]
participant_3_SOLD,[],"[2052, 2003]","[2003, 2003]",[2003],[],[],"[6029, 3051, 1028]",[],[2003],"[1001, 1036]",[],"[3123, 1028, 1036]",[],[2052],[1028],[],"[3077, 1011]",[],[1029],[],"[1031, 3133]",[],[],[]
participant_3_UNDO,[],[],[],[],[],[],[],[],[],[],[],[],[],[],[],[],[],[],[],[],[],[],[],[]
participant_4_GOLD,1400,1416,1923,2425,2847,3391,3830,4341,5294,6023,6529,7263,8205,8807,9891,10551,11156,11635,12250,12632,13063,13483,13849,14549
participant_4_CURRENTGOLD,1400,66,573,1075,327,871,280,791,1744,2473,129,863,1805,2407,3491,151,756,1235,600,482,913,83,449,1149
participant_4_LEVEL,1,3,4,5,6,7,7,8,9,10,11,12,13,13,15,15,16,16,17,17,18,18,18,18
participant_4_MINIONSKILLED,0,0,3,6,8,11,12,16,19,21,22,28,30,32,33,33,39,39,39,40,41,42,42,44
participant_4_KILLS,0,0,0,0,0,0,0,0,1,2,2,3,4,5,8,8,8,8,9,9,9,9,9,10
participant_4_BUY,[],"[3070, 1026, 2003, 2003]",[],[],"[1052, 1052, 1001]",[],"[3802, 1027, 3158]",[],[],[],"[6655, 1058, 1027]",[],[],[],[],"[3003, 3057, 1026, 3113, 3100]",[],[],[1058],[2139],[],[1058],[],[]
participant_4_SOLD,[],[],[],[],[2003],[],"[2003, 1052, 1052, 1001]",[],[],[],"[3802, 1026]",[],[],[],[],"[3070, 1058, 1027, 3003, 3057, 3113, 1026]",[],[],[],[2139],[],[],[],[]
participant_4_UNDO,[],[],[],[],[],[],"[[0, 1027]]",[],[],[],[],[],[],[],[],[],[],[],[],[],[],[],[],[]
participant_5_GOLD,1400,1400,1845,2344,2999,3452,4123,4631,5279,5832,7160,7766,8245,8781,9195,10551,11382,12128,12655,13318,13774,14978,15587,15893
participant_5_CURRENTGOLD,1400,0,445,944,1599,2052,2723,3231,279,832,1810,2416,1045,481,895,1501,2332,578,1105,1768,274,1478,887,1193
participant_5_LEVEL,1,3,4,5,6,7,8,9,9,10,11,12,12,13,13,15,16,17,17,18,18,18,18,18
participant_5_MINIONSKILLED,0,0,1,3,5,6,10,13,14,14,15,18,23,29,29,35,37,45,48,54,54,60,64,64
participant_5_KILLS,0,0,0,0,1,1,1,1,2,2,5,5,5,5,5,8,10,11,11,11,11,12,12,12
participant_5_BUY,[],"[6670, 2003, 2003, 2003]",[],[],[],[],[],[],"[6673, 3070, 1036, 3133]",[],[1027],[],"[3004, 3006]",[3134],[],"[1036, 1028]",[],"[3814, 3086, 3035]",[],[],[6694],[],[3086],[]
participant_5_SOLD,[],[],"[2003, 2003]",[],[],[],[],[],[6670],[],[],[],"[3070, 3133, 1027]",[],[],[],[3004],"[1036, 3134, 1028]",[],[],[3035],[],[],[]
participant_5_UNDO,[],"[[0, 2003]]",[],[],[],[],[],[],"[[0, 1036]]",[],[],[],[],[],[],[],[],"[[0, 3086]]",[],[],[],[],[],[]
participant_6_GOLD,1400,1400,1819,2332,2827,3319,4100,4517,5030,5529,6295,6934,7359,8048,8640,9597,10106,10466,11029,11724,12633,13814,14354,14707
participant_6_CURRENTGOLD,1400,0,419,932,1427,1919,500,367,130,629,895,1534,674,1363,290,1247,556,66,629,1324,2233,114,654,1007
participant_6_LEVEL,1,3,4,5,6,7,8,8,9,10,11,11,12,13,14,15,15,15,16,17,18,18,18,18
participant_6_MINIONSKILLED,0,0,1,4,7,9,13,14,15,18,21,24,25,28,28,36,39,39,41,47,51,52,57,58
participant_6_KILLS,0,0,0,0,0,0,1,1,1,1,2,2,2,2,3,4,4,4,4,4,5,7,7,7
participant_6_BUY,[],"[4635, 2003, 2003]",[],[],[],[],"[4633, 1001]","[1033, 2003, 2003]","[3111, 1028]",[1052],[1011],[],"[1026, 1052]",[],"[4637, 1033, 1028]",[],"[3211, 3067]",[3065],[],[],[],"[3165, 3076]",[],[]
participant_6_SOLD,[],[],[],[2003],[2003],[],[4635],[],"[1001, 1033]",[],"[1028, 2003]",[2003],[],[],"[1026, 1011, 1052]",[],"[1028, 1033]","[3211, 3067]",[],[],[],[],[],[]
participant_6_UNDO,[],[],[],[],[],[],[],[],[],"[[0, 1052]]",[],[],[],[],[],[],[],[],[],[],[],[],[],[]
participant_7_GOLD,1400,1400,1787,2275,2895,3347,4186,4624,5209,5946,6520,7107,7543,8245,8677,9208,9856,10246,10867,11524,12203,13023,13563,13863
participant_7_CURRENTGOLD,1400,0,387,875,1495,1947,2036,474,359,1096,570,322,358,1060,92,623,871,411,582,1239,1918,1538,778,213
participant_7_LEVEL,1,3,4,5,6,6,7,8,9,10,11,11,12,12,13,14,14,15,15,16,17,18,18,18
participant_7_MINIONSKILLED,0,0,0,1,2,3,4,4,5,10,14,17,18,22,22,22,22,22,24,25,34,35,40,40
participant_7_KILLS,0,0,0,0,1,1,2,2,3,4,4,4,4,5,5,5,6,6,7,8,8,8,8,8
participant_7_BUY,[],"[3177, 1036, 2003, 2003]",[],[],[],[],"[3051, 3067, 3057, 3044, 3044]","[6029, 3067]","[6630, 2033]",[],[3047],"[3133, 1028]",[3067],[],[3071],[],[1028],"[3066, 1033]",[1057],[],[],[4401],"[3133, 1028]",[]
participant_7_SOLD,[],[],[],"[2003, 2003]",[],[],"[1036, 1036]",[],"[6029, 3044, 3067]",[],[],[3177],[1028],[],"[3133, 3067]",[],[],[1028],[1033],[],[],"[1057, 3066]",[2033],[]
participant_7_UNDO,[],[],[],[],[],[],"[[0, 3057], [0, 3067], [0, 3044], [0, 3051]]",[],[],[],[],[],[],[],[],[],[],[],[],[],[],[],[],[]
participant_8_GOLD,1400,1400,1829,2970,3398,3893,4474,4956,5440,6323,6775,7303,7723,9190,9580,10820,11333,12138,12568,13029,13591,14671,15183,15483
participant_8_CURRENTGOLD,1400,100,529,1670,298,793,124,606,240,323,425,553,973,2440,380,245,433,1238,118,579,591,71,583,183
participant_8_LEVEL,1,3,4,5,6,6,7,8,9,10,10,11,11,13,13,14,15,16,17,17,18,18,18,18
participant_8_MINIONSKILLED,0,0,2,3,4,9,9,13,16,18,21,21,21,24,24,29,31,34,34,34,34,36,40,40
participant_8_KILLS,0,0,0,2,2,2,2,2,2,3,3,3,3,5,5,6,6,7,7,7,8,9,9,9
participant_8_BUY,[],"[6029, 2003, 2003]",[],[],"[3044, 1028, 1001]",[],"[6630, 1029, 1036]",[],"[3047, 1036]","[3133, 1028]",[1036],[3067],[],[],"[3071, 3133, 1029]","[1031, 1037]",[6333],[],"[3077, 1036]",[],[1053],"[3074, 1028]",[],[3044]
participant_8_SOLD,[],[],[2003],[2003],[],[],"[6029, 3044, 1028]",[],"[1001, 1029]","[1036, 1036]",[],[1028],[],[],"[3133, 3067, 1036]",[1029],"[1031, 3133, 1037]",[],[],[],[1036],"[3077, 1053]",[],[1028]
participant_8_UNDO,[],[],[],[],[],[],[],[],[],[],[],[],[],[],[],[],[],[],[],[],[],[],[],[]
participant_9_GOLD,1400,1400,1836,2403,2963,3365,4416,4833,5235,6134,6623,7169,7616,8444,9000,9706,10251,10641,11284,12346,12800,13723,14131,14663
participant_9_CURRENTGOLD,1400,0,436,1003,1563,65,166,583,185,1084,238,784,316,209,765,621,351,306,584,1246,400,1323,481,1013
participant_9_LEVEL,1,3,4,5,6,7,8,8,9,10,11,11,12,12,13,14,15,15,16,17,17,18,18,18
participant_9_MINIONSKILLED,0,0,1,3,5,5,7,8,8,13,16,16,17,17,24,31,34,34,37,37,39,43,43,52
participant_9_KILLS,0,0,0,0,0,0,3,3,3,4,4,4,4,5,5,5,5,5,6,8,8,8,8,8
participant_9_BUY,[],"[4635, 2003, 2003]",[],[],[],[4633],"[2420, 1001]",[],[3020],[],"[3191, 1052]",[],"[3157, 1028]","[1011, 1052]",[],[1026],[4637],[1052],[3916],[1028],[3165],[],[1058],[]
participant_9_SOLD,[],[],"[2003, 2003]",[2052],[],[4635],[],[],"[2420, 1001]",[],[],[],"[3191, 1052, 2421]",[1028],[],[],"[1026, 1011, 1052]",[],[1052],[],"[3916, 1028]",[],[],[]
participant_9_UNDO,[],[],[],[],[],[],[],[],[],[],[],[],[],[],[],[],[],[],[],[],[],[],[],[]
team0_KILLS,0,1,4,5,5,6,10,10,16,20,22,23,28,29,34,36,38,40,44,47,47,51,52,57
team0_CURRENTGOLD,7000,494,3533,5499,3410,6170,3648,4347,7721,5454,5396,4808,9829,3492,7078,3381,3132,5611,6228,5741,3438,3767,6153,9729
team0_TOTALGOLD,7000,7344,10383,13199,15480,18240,21898,24297,29171,32454,35246,37908,42929,45182,49268,53471,56422,59651,63118,66231,68228,71757,74443,78079
team0_LEVEL,5,15,20,25,30,35,38,42,46,51,55,58,63,66,71,74,77,81,85,87,90,90,90,90
team0_SBIRES,0,0,12,24,36,46,54,66,82,91,100,115,127,131,146,153,170,181,193,206,211,215,233,249
team1_KILLS,0,0,0,2,4,4,9,9,11,14,18,18,18,22,23,28,31,33,35,38,40,44,44,44
team1_CURRENTGOLD,7000,100,2216,5424,6382,6776,5549,5261,1193,3964,3938,5609,3366,5553,2422,4237,4543,2599,3018,6156,5416,4524,3383,3609
team1_TOTALGOLD,7000,7000,9116,12324,15082,17376,21299,23561,26193,29764,33373,36279,38486,42708,45092,49882,52928,55619,58403,61941,65001,70209,72818,74609
team1_LEVEL,5,15,20,25,30,33,38,41,45,50,54,56,59,63,66,72,75,78,81,85,88,90,90,90
team1_SBIRES,0,0,5,14,23,32,43,52,58,73,87,96,104,120,127,153,163,174,184,197,212,226,244,254
delta_KILLS,0,1,4,3,1,2,1,1,5,6,4,5,10,7,11,8,7,7,9,9,7,7,8,13
delta_CURRENTGOLD,0,394,1317,75,-2972,-606,-1901,-914,6528,1490,1458,-801,6463,-2061,4656,-856,-1411,3012,3210,-415,-1978,-757,2770,6120
delta_TOTALGOLD,0,344,1267,875,398,864,599,736,2978,2690,1873,1629,4443,2474,4176,3589,3494,4032,4715,4290,3227,1548,1625,3470
delta_LEVEL,0,0,0,0,0,2,0,1,1,1,1,2,4,3,5,2,2,3,4,2,2,0,0,0
delta_SBIRES,0,0,7,10,13,14,11,14,24,18,13,19,23,11,19,0,7,7,9,9,-1,-11,-11,-5
