name,frame_0,frame_1,frame_2,frame_3,frame_4,frame_5,frame_6,frame_7,frame_8,frame_9,frame_10,frame_11,frame_12,frame_13,frame_14,frame_15,frame_16,frame_17,frame_18,frame_19,frame_20,frame_21,frame_22,frame_23,frame_24,frame_25,frame_26,frame_27,frame_28,frame_29,frame_30,frame_31,frame_32,frame_33
nameStamp,Tstart,Tearly,Tearly,Tearly,Tearly,Tearly,Tearly,Tearly,Tearly,Tearly,Tearly,Tearly,Tearly,Tearly,Tearly,Tearly,Tmid,Tmid,Tmid,Tmid,Tmid,Tmid,Tmid,Tmid,Tmid,Tmid,Tmid,Tmid,Tmid,Tmid,Tmid,Tmid,Tend,Tend
timestamp,0,60014,120015,180022,240033,300044,360064,420066,480070,540097,600118,660142,720148,780157,840188,900219,960223,1020228,1080248,1140279,1200304,1260333,1320363,1380377,1440400,1500431,1560446,1620477,1680493,1740518,1800545,1860573,1920604,1980627
participant_0_GOLD,500,500,562,796,1088,1350,1550,1791,1990,2190,2573,2911,3244,3645,3894,4072,4569,4879,5764,6476,6942,7503,8204,8327,8449,9087,9624,10515,10687,11295,12079,12801,13427,13702
participant_0_CURRENTGOLD,500,0,62,296,588,150,50,291,490,340,723,1061,344,745,994,372,869,446,1331,2043,509,670,1371,294,66,705,191,1082,755,1362,597,1319,1194,1470
participant_0_LEVEL,1,1,1,3,4,4,5,6,6,6,7,8,8,9,9,9,10,11,11,12,13,13,13,13,14,14,14,15,15,16,16,17,17,17
participant_0_MINIONSKILLED,0,0,2,8,17,23,27,34,38,43,54,63,72,79,86,89,107,114,128,129,140,153,165,165,165,186,187,194,194,197,208,224,228,233
participant_0_KILLS,0,0,0,0,1,1,1,1,1,1,1,1,1,1,1,1,1,1,1,1,1,1,1,1,1,1,1,1,2,2,2,2,2,2
participant_0_BUY,[],"[1083, 1055, 2003, 3340]",[],[],[],"[1083, 1036, 1036]",[],[],"[6670, 1001]",[],[],[],"[1037, 1042]",[],[],[3006],[],[],"[6671, 1036]",[],"[3123, 1042]",[],[3086],[],[1037],[],[],[],[],"[3085, 1037]",[],[],[],[1038]
participant_0_SOLD,[],[],[],[],[2003],[],[],[],"[1036, 1036]",[],[],[],[],[],[],"[1001, 1042]",[],[],"[6670, 1037]",[],[1036],[],[1042],[],[1083],[],[],[],[],"[1037, 3086]",[],[],[],[1055]
participant_0_UNDO,[],"[[0, 1083]]",[],[],[],[],[],[],[],[],[],[],[],[],[],[],[],[],[],[],[],[],[],[],[],[],[],[],[],[],[],[],[],[]
participant_1_GOLD,500,500,620,962,1248,1575,1783,1954,2262,2420,2627,3171,3828,4250,4576,4968,5191,5313,6485,6733,7040,7163,7609,7812,7989,8197,8624,8826,9116,9516,9724,10169,10531,10653
participant_1_CURRENTGOLD,500,0,120,462,748,1075,283,454,762,170,377,921,1578,250,576,968,91,213,1385,733,1040,263,109,312,289,497,24,226,516,316,525,969,1331,1454
participant_1_LEVEL,1,1,2,3,3,4,4,5,5,5,6,6,7,7,8,8,8,8,9,9,10,10,10,10,10,11,11,11,12,12,13,13,13,13
participant_1_MINIONSKILLED,0,0,0,0,0,0,0,0,0,2,2,3,3,3,3,3,3,3,3,3,3,3,3,3,3,3,3,4,6,14,14,16,16,16
participant_1_KILLS,0,0,0,0,0,0,0,0,0,0,0,0,0,0,0,0,0,0,0,0,0,0,0,0,0,0,0,0,0,0,1,1,1,1
participant_1_BUY,[],[],"[3854, 2003, 2003, 3340]",[],[],"[1028, 1029, 2003, 2003]",[],[],[],[6660],[],[],"[3364, 1033, 1001]",[],[],[3111],[],[1033],[1057],[],[],[],[6664],[],"[1028, 1028]",[],"[3066, 1029]",[],[],[1031],[],[],[],[1028]
participant_1_SOLD,[],[],[],"[2003, 2003]",[2010],[2010],[2003],[2010],[2003],"[1028, 3854]",[],[],[3340],[],[],"[1001, 1033]",[3855],[],[1033],[],[],[],"[6660, 1029, 1057]",[],[],[],[1028],[],[],[1029],[],[],[],[]
participant_1_UNDO,[],[],[],[],[],[],[],[],[],[],[],[],[],[],[],[],[],[],[],[],[],[],[],[],"[[0, 1028]]",[],[],[],[],[],[],[],[],[]
participant_2_GOLD,500,500,611,961,1225,1459,1945,2336,2954,3161,3472,4387,4692,5414,5765,6055,6269,6399,6946,8457,8579,10246,11255,11517,12141,12650,12973,14173,15587,16338,16538,16702,17175,17311
participant_2_CURRENTGOLD,500,0,111,451,715,949,35,416,1034,191,502,1417,872,794,1135,1425,389,519,216,277,399,2066,3076,337,961,1471,1793,2184,3598,1608,1809,1973,2446,2582
participant_2_LEVEL,1,1,1,3,4,5,6,7,8,8,8,9,9,9,10,10,11,11,11,12,12,13,13,13,14,14,14,14,15,16,16,16,16,16
participant_2_MINIONSKILLED,0,0,5,16,24,31,35,48,59,64,76,79,87,87,97,107,112,112,112,119,119,124,124,128,132,135,135,137,148,150,155,158,158,159
participant_2_KILLS,0,0,0,0,0,0,0,0,0,0,0,1,2,2,2,2,2,2,3,3,3,3,4,4,4,4,4,4,4,4,4,4,4,4
participant_2_BUY,[],"[1039, 2031, 3340]",[],[],[],[],[6660],[],[],"[1001, 1033]",[],[],[],[3068],[],[],"[3066, 1029]",[],[],"[1031, 1028]",[],[3742],"[1029, 1029]",[],[3076],[],[1057],[],[],[3009],[],[],[],[]
participant_2_SOLD,[],[],[],[],[],[],[],[],[1039],[],[],[],[],"[6660, 1033]",[],[],[],[],[],[1029],[],"[3066, 1028, 1031]",[],[],"[1029, 1029]",[],[],[],[],[1001],[],[],[],[]
participant_2_UNDO,[],[],[],[],[],[],[],[],[],[],[],[],[],[],[],[],[],[],[],[],[],[],[],[],[],[],[],[],[],[],[],[],[],[]
participant_3_GOLD,500,500,562,789,1406,1738,2000,2357,2561,2950,3283,3710,3933,4339,4712,4834,5382,5698,5969,6570,6791,7505,7753,8184,8341,8804,9300,9450,10285,10560,10908,11187,11956,12266
participant_3_CURRENTGOLD,500,0,62,289,906,88,350,707,11,400,733,1160,208,614,987,609,1157,1473,169,770,241,955,303,734,196,659,1155,1306,2140,215,564,842,1612,802
participant_3_LEVEL,1,1,1,2,3,4,4,5,5,6,6,7,7,8,8,8,9,9,9,10,10,11,11,12,12,13,13,13,14,14,14,15,15,15
participant_3_MINIONSKILLED,0,0,2,8,17,27,35,45,50,62,69,81,84,97,107,107,119,125,126,139,141,149,149,157,159,172,178,180,191,196,196,200,218,225
participant_3_KILLS,0,0,0,0,0,0,0,0,0,0,0,0,0,0,0,0,0,0,0,1,1,1,1,1,1,1,1,2,2,2,3,3,3,3
participant_3_BUY,[],"[2033, 3340]",[],[],[],[3057],[1042],[],[],[1036],[],[],"[3057, 3051, 1001, 1029]",[],[],[3067],[],[3078],[],[],"[3047, 1053, 1042, 1042]",[1043],[],[3153],[1036],[],"[3133, 1029]",[],[1031],[],"[6333, 1036]",[],[3044],[]
participant_3_SOLD,[],[],[],[],[2010],[2010],[],[],[2010],[],[],[],"[1042, 1036]",[],[],[],[],"[3057, 3051, 3067]",[],[],"[1001, 1029]","[1042, 1042]",[],"[1053, 1043]",[],[],[1036],[],[1029],[],"[1031, 3133]",[],[1036],[]
participant_3_UNDO,[],[],[],[],[],[],[],[],[],[],[],[],"[[0, 3057]]",[],[],[],[],[],[],[],[],[],[],[],[],[],[],[],[],[],[],[],[],[]
participant_4_GOLD,500,500,522,698,1100,1318,1495,1737,1871,2113,2375,2537,2748,3008,3251,3391,3604,3758,4044,4385,4576,4835,5101,5241,5433,5724,6064,6284,6475,6615,7271,7441,7706,7847
participant_4_CURRENTGOLD,500,500,22,198,600,18,195,437,571,213,475,637,98,358,601,391,604,308,144,485,676,935,201,341,133,424,64,285,475,115,771,941,1207,947
participant_4_LEVEL,1,1,1,1,3,3,4,5,5,5,5,6,6,7,7,8,9,9,9,10,10,10,11,11,11,11,11,12,12,12,13,13,14,14
participant_4_MINIONSKILLED,0,0,0,2,6,8,10,13,13,16,18,19,20,23,25,25,28,29,30,30,32,32,32,32,35,35,35,35,35,35,39,39,39,39
participant_4_KILLS,0,0,0,0,0,0,1,1,2,2,2,3,3,5,5,5,5,5,6,8,8,11,12,12,13,14,14,16,17,19,19,19,20,20
participant_4_BUY,[],"[1056, 2003, 2003]",[],[],[],[],"[3802, 2003, 2003]",[],[],"[3057, 1001, 2003]",[],[],[1026],[3020],[],[],[6655],[],[1026],[3100],[],[],[],"[4628, 4628]",[],[],[],[1026],[],"[3135, 1058]",[],[],[],[]
participant_4_SOLD,[],[],[],[],[],[2003],[],[],[],[2003],[],[],[],[1001],[],[],"[3802, 1026]",[],[],"[3057, 1026]",[],[],[],[],[2003],[],[],"[2003, 2003, 1056]",[],"[1026, 1056]",[],[],[],[]
participant_4_UNDO,[],[],[],[],[],[],[],[],[],[],[],[],[],[],[],[],[],[],[],[],[],[],[],"[[0, 4628]]",[],[],[],"[[1056, 0]]",[],[],[],[],[],[]
participant_5_GOLD,500,500,597,894,1427,1801,2432,2819,3263,4047,4337,5187,5977,6462,6729,7658,8759,9312,9918,10554,10869,11272,12130,12953,13361,13484,14409,15002,15162,15807,16183,17156,17812,19211
participant_5_CURRENTGOLD,500,0,97,394,927,326,957,44,488,1272,287,1137,1927,2412,79,1008,2109,442,249,884,1199,1603,910,1733,2142,1464,2390,2983,592,1238,764,1737,93,1492
participant_5_LEVEL,1,1,1,3,4,5,6,7,8,9,9,10,10,11,11,12,12,13,13,13,13,14,14,14,15,15,16,16,16,17,17,18,18,18
participant_5_MINIONSKILLED,0,0,4,14,18,33,44,50,66,79,89,105,112,124,129,146,155,164,169,173,177,180,180,183,195,195,207,212,212,234,239,258,263,274
participant_5_KILLS,0,0,0,0,0,1,1,1,1,1,1,1,1,2,2,2,2,3,3,3,3,3,5,5,5,5,5,5,5,5,5,6,6,7
participant_5_BUY,[],"[1035, 2031, 3340]",[],[],[],[1037],[],"[3077, 1028]",[1028],[],[],[1011],[],[3748],[1036],[],[3051],[],[],[3067],[],[],[],"[3078, 1001]",[3111],[],[],[],[3044],[],[1028],[],[3053],[]
participant_5_SOLD,[],[],[],[],[],[],[],[1037],[1035],[],[],[1028],[],"[3077, 1028, 1011]",[],[],[1036],[],[],[],[],[],[],"[3051, 3067]",[1001],[],[],[],[],[],[],[],"[3044, 1028]",[]
participant_5_UNDO,[],[],[],[],[],[],[],[],[],[],[],[],[],[],[],[],[],[],[],[],[],[],[],[],[],[],[],[],[],[],[],[],[],[]
participant_6_GOLD,500,500,620,932,1321,1818,2233,2510,2732,2950,3177,3330,3634,4226,4554,4987,5210,5841,6278,6400,6812,7437,8241,8664,8786,8908,9222,9516,9676,9903,10077,11544,11766,12709
participant_6_CURRENTGOLD,500,0,120,432,821,443,858,410,232,450,677,330,634,426,404,837,310,941,1378,700,1112,1737,2541,1231,553,675,989,1283,343,571,344,1811,434,1377
participant_6_LEVEL,1,1,2,3,4,4,5,5,6,6,6,6,7,7,8,8,8,9,10,10,10,11,12,12,13,13,13,13,13,14,14,15,15,16
participant_6_MINIONSKILLED,0,0,0,0,0,0,0,0,0,0,0,0,2,2,2,8,8,8,12,12,12,16,18,18,18,18,19,21,21,21,21,21,21,26
participant_6_KILLS,0,0,0,0,0,0,0,0,0,0,0,0,0,0,0,1,1,1,1,1,3,4,5,5,6,6,6,6,6,6,6,6,6,6
participant_6_BUY,[],[],[],"[1054, 2003]",[],[],"[1042, 1042, 1052, 2003]",[],[],"[1001, 1042]",[],[],[1026],"[1043, 3006, 1042]",[],[1043],[],[],[],"[3115, 1026]",[],[],[4633],[],[],[1058],[],[],[2420],[],[],[],[],[3089]
participant_6_SOLD,[],[],[],[],[],[2003],[],[2003],[],[],[],[],[],"[1042, 1042, 1001, 1042]",[],"[1042, 1042]",[],[],[],"[1043, 1026, 1052]",[],[],[1026],[],[],[],[],[],[],[],[1054],[],[],[1058]
participant_6_UNDO,[],[],[],[],[],[],"[[0, 1042]]",[],[],[],[],[],[],"[[0, 1043]]",[],[],[],[],[],[],[],[],[],[],[],[],[],[],[],[],[],[],[],[]
participant_7_GOLD,500,500,520,642,924,1123,1342,1499,1886,2009,2406,2804,3295,3783,4085,4476,5145,5394,5837,5973,6894,7606,8028,8465,9143,9286,9668,9871,10080,10574,10747,11689,12201,12424
participant_7_CURRENTGOLD,500,500,520,142,414,613,47,204,581,104,491,879,510,198,489,481,1150,1399,1842,413,1334,2046,118,555,1233,126,508,711,270,764,1118,2059,2572,244
participant_7_LEVEL,1,1,1,1,3,4,4,5,5,6,7,7,8,9,9,9,10,10,10,11,12,12,12,13,13,13,14,14,14,14,14,16,16,16
participant_7_MINIONSKILLED,0,0,0,0,7,11,12,14,27,27,40,46,55,58,65,65,66,70,74,75,87,91,91,106,112,113,121,122,125,132,132,145,145,145
participant_7_KILLS,0,0,0,0,1,1,2,2,2,3,3,4,6,6,6,6,8,9,10,11,11,11,12,13,13,13,14,14,14,14,14,14,14,16
participant_7_BUY,[],"[2033, 3340]",[],[],[],"[1053, 2055]",[],"[1043, 1001]",[],[],"[3153, 2055]",[],[],[],"[3057, 3044, 3111]",[],[],"[6632, 1033, 1042]",[3051],[],[],[],[3091],[],[],[1031],[],[],"[6333, 1033]",[],[3155],[],"[3156, 2138]",[]
participant_7_SOLD,[],[],[],[],[],[],[2055],[],[],[],"[1053, 1043]",[],[],[],[1001],[],[],"[3044, 3057, 2055]",[1042],[],[],[],"[3051, 1033]",[],[],[],[],[],"[1031, 2033]",[],[1033],[],"[3155, 2138]",[]
participant_7_UNDO,[],[],[],[],[],[],[],[],[],[],[],[],[],[],[],[],[],[],[],[],[],[],[],[],[],[],[],[],[],[],[],[],[],[]
participant_8_GOLD,500,500,583,1030,1223,1814,1957,2233,2708,3447,3716,3859,4123,4427,4872,5623,6329,6515,7083,7356,7755,7948,8271,8393,8770,8907,9255,10139,10562,10834,11357,12015,12481,13403
participant_8_CURRENTGOLD,500,0,83,530,723,1314,182,458,933,172,441,584,498,802,1247,1998,2704,640,1208,398,797,40,13,135,513,249,597,1481,804,1076,50,707,624,1546
participant_8_LEVEL,1,1,1,2,3,4,4,5,6,6,7,7,7,8,8,9,9,10,10,10,11,11,11,11,12,12,12,13,13,13,14,14,15,15
participant_8_MINIONSKILLED,0,0,3,13,17,27,28,37,45,47,56,57,62,72,82,91,100,100,105,105,114,115,115,115,121,122,127,132,132,132,132,132,142,148
participant_8_KILLS,0,0,0,1,1,1,2,2,3,3,3,3,4,4,4,4,4,4,4,4,4,4,4,4,5,5,6,6,6,7,7,7,7,8
participant_8_BUY,[],"[3850, 3854, 2003, 2003, 3340]",[],[],[],[3067],[],[],[],"[4642, 1001, 2003, 2003, 2055, 3364]",[],[],[4005],[],[],"[3006, 2055, 2055]",[],[],[1028],"[3067, 1004]",[],[3114],[],[],[],[1026],[],[],"[6616, 3067, 1029]",[],[3024],[],[3050],[]
participant_8_SOLD,[],[],[],[2003],"[2003, 2010]",[],[],"[2010, 2010]",[],[3340],[2055],"[2003, 2003]","[3067, 4642]",[],[],"[3854, 1001]",[2055],[],[],[1028],[2055],[1004],[],[],[],[],[],[3855],"[3114, 1026, 1028]",[],[1029],[],"[3067, 3024]",[]
participant_8_UNDO,[],"[[0, 3850]]",[],[],[],[],[],[],[],[],[],[],[],[],[],[],[],[],[],"[[0, 3067]]",[],[],[],[],[],[],[],[],[],[],[],[],[],[]
participant_9_GOLD,500,500,543,1165,1322,1655,2090,2287,2763,2994,3173,3308,3852,4014,4271,4685,4946,5150,5350,5532,5673,6038,6229,6369,6995,7136,7576,8108,8321,8771,9112,9563,9866,10625
participant_9_CURRENTGOLD,500,0,43,665,822,355,790,987,1463,169,348,483,177,339,595,59,321,525,325,257,398,213,403,544,1170,461,901,1433,296,746,488,938,541,1300
participant_9_LEVEL,1,1,1,2,3,3,4,5,6,6,6,7,7,8,8,8,9,9,9,9,9,9,10,10,11,11,11,12,12,12,13,13,14,14
participant_9_MINIONSKILLED,0,0,1,4,5,8,8,11,13,14,17,17,17,19,21,22,23,23,24,27,27,27,27,27,29,29,29,32,34,35,35,36,40,40
participant_9_KILLS,0,0,0,0,0,1,1,1,1,3,3,3,3,3,3,4,4,4,5,5,5,5,5,5,5,5,5,7,8,8,9,9,9,10
participant_9_BUY,[],"[3070, 2003, 2003, 3340]",[],[],[],[],"[3133, 2003, 2003, 2055]",[],[],"[3004, 1001, 2003, 2003]",[],[],"[1028, 1036]",[],[],[],[],"[3057, 3051, 3067]",[],"[3078, 1036]",[],"[3158, 1036]",[1036],[],[],[3133],[],[],[3035],[],"[6694, 1036, 1036]",[],[1053],[]
participant_9_SOLD,[],[],[],[],"[2003, 2003]",[],[],"[2003, 2003]",[2055],"[3070, 3133]",[],[],[],[2003],[],[],[],[1036],"[3004, 2003]","[3057, 3051, 3067]",[],[1001],[],[],[],"[1036, 1036]",[],[],[1036],[],"[3133, 3035]",[],[1036],[]
participant_9_UNDO,[],[],[],[],[],[],[],[],[],[],[],[],"[[0, 1028]]",[],[],[],[],[],[],[],[],[],[],[],[],[],[],[],[],[],[],[],[],[]
team0_KILLS,0,0,0,0,1,1,2,2,3,3,3,5,6,8,8,8,8,8,10,13,13,16,18,18,19,20,20,23,25,27,29,29,30,30
team0_CURRENTGOLD,2500,500,377,1696,3557,2280,913,2305,2868,1314,2810,5196,3100,2761,4293,3765,3110,2959,3245,4308,2865,4889,5060,2018,1645,3756,3227,5083,7484,3616,4266,6044,7790,7255
team0_TOTALGOLD,2500,2500,2877,4206,6067,7440,8773,10175,11638,12834,14330,16716,18445,20656,22198,23320,25015,26047,29208,32621,33928,37252,39922,41081,42353,44462,46585,49248,52150,54324,56520,58300,60795,61779
team0_LEVEL,5,5,6,12,17,20,23,28,29,30,32,36,37,40,42,43,47,48,49,53,55,57,58,59,61,63,63,65,68,70,72,74,75,75
team0_SBIRES,0,0,9,34,64,89,107,140,160,187,219,245,266,289,318,331,369,383,399,420,435,461,473,485,494,531,538,550,574,592,612,637,659,672
team1_KILLS,0,0,0,1,2,4,6,6,7,10,10,11,14,15,15,17,19,21,23,24,26,27,31,32,34,34,36,38,39,40,41,42,42,47
team1_CURRENTGOLD,2500,500,863,2163,3707,3051,2834,2103,3697,2167,2244,3413,3746,4177,2814,4383,6594,3947,5002,2652,4840,5639,3985,4198,5611,2975,5385,7891,2305,4395,2764,7252,4264,5959
team1_TOTALGOLD,2500,2500,2863,4663,6217,8211,10054,11348,13352,15447,16809,18488,20881,22912,24511,27429,30389,32212,34466,35815,38003,40301,42899,44844,47055,47721,50130,52636,53801,55889,57476,61967,64126,68372
team1_LEVEL,5,5,6,11,17,20,23,27,31,33,35,37,39,43,44,46,48,51,52,53,55,57,59,60,64,64,66,68,68,70,72,76,78,79
team1_SBIRES,0,0,8,31,47,79,92,112,151,167,202,225,248,275,299,332,352,365,384,392,417,429,431,449,475,477,503,519,524,554,559,592,611,633
delta_KILLS,0,0,0,-1,-1,-3,-4,-4,-4,-7,-7,-6,-8,-7,-7,-9,-11,-13,-13,-11,-13,-11,-13,-14,-15,-14,-16,-15,-14,-13,-12,-13,-12,-17
delta_CURRENTGOLD,0,0,-486,-467,-150,-771,-1921,202,-829,-853,566,1783,-646,-1416,1479,-618,-3484,-988,-1757,1656,-1975,-750,1075,-2180,-3966,781,-2158,-2808,5179,-779,1502,-1208,3526,1296
delta_TOTALGOLD,0,0,14,-457,-150,-771,-1281,-1173,-1714,-2613,-2479,-1772,-2436,-2256,-2313,-4109,-5374,-6165,-5258,-3194,-4075,-3049,-2977,-3763,-4702,-3259,-3545,-3388,-1651,-1565,-956,-3667,-3331,-6593
delta_LEVEL,0,0,0,1,0,0,0,1,-2,-3,-3,-1,-2,-3,-2,-3,-1,-3,-3,0,0,0,-1,-1,-3,-1,-3,-3,0,0,0,-2,-3,-4
delta_SBIRES,0,0,1,3,17,10,15,28,9,20,17,20,18,14,19,-1,17,18,15,28,18,32,42,36,19,54,35,31,50,38,53,45,48,39
