name,team0,team1
win,Fail,Win
firstBlood,False,True
firstTower,True,False
firstInhibitor,False,True
firstBaron,False,False
firstDragon,True,False
firstRiftHerald,False,True
towerKills,1,9
inhibitorKills,0,1
baronKills,0,0
dragonKills,3,1
riftHeraldKills,0,1
