name,frame_0,frame_1,frame_2,frame_3,frame_4,frame_5,frame_6,frame_7,frame_8,frame_9,frame_10,frame_11,frame_12,frame_13,frame_14,frame_15,frame_16,frame_17,frame_18,frame_19,frame_20,frame_21,frame_22,frame_23
nameStamp,Tstart,Tearly,Tearly,Tearly,Tearly,Tearly,Tearly,Tearly,Tearly,Tearly,Tearly,Tearly,Tearly,Tmid,Tmid,Tmid,Tmid,Tmid,Tmid,Tmid,Tmid,Tmid,Tmid,Tmid
timestamp,0,60025,120026,180057,240063,300086,360090,420121,480142,540164,600185,660212,720236,780262,840283,900316,960337,1020352,1080371,1140401,1200419,1260439,1320464,1380464
participant_0_GOLD,500,500,562,920,1218,2127,2292,2878,3193,3364,3570,4168,4403,4645,5270,5506,5790,6854,7557,8059,8181,8559,9278,9420
participant_0_CURRENTGOLD,500,0,62,420,718,1627,142,728,1043,1214,1420,2018,128,370,995,131,415,1478,2182,89,211,589,1308,1270
participant_0_LEVEL,1,1,1,3,4,6,6,7,7,8,8,9,9,9,10,10,11,12,12,13,13,13,14,14
participant_0_MINIONSKILLED,0,0,2,13,23,31,33,42,43,46,51,54,58,65,73,74,83,93,103,104,104,104,112,112
participant_0_KILLS,0,0,0,0,0,0,0,1,2,2,2,2,2,2,2,2,2,2,2,2,2,3,4,4
participant_0_BUY,[],"[1035, 2003, 2003, 2003, 3340, 3364]",[],[],[],[],[],[],[],[],[],[],[],[],"[6631, 2003, 2003]",[],[],[3111],"[1036, 3044, 3057, 3067]",[6632],[],"[1036, 1036]",[],[]
participant_0_SOLD,[],[3340],[2003],"[2003, 2003]",[],[],[],[],[],[1035],[],[3364],[],[],[3513],[2003],[2003],[],"[6631, 1036]","[3044, 3057, 3067]",[3364],[],[],[3513]
participant_0_UNDO,[],[],[],[],[],[],[],[],[],[],[],[],[],[],[],[],[],[],[],[],[],[],[],[]
participant_1_GOLD,500,500,620,928,1156,1460,1688,2104,2657,2804,3027,3366,3728,3881,4418,4833,5194,5449,5672,6029,6252,6758,7120,7278
participant_1_CURRENTGOLD,500,0,120,428,656,960,1188,1604,2157,2304,2527,2866,3228,3381,518,933,1294,449,382,39,262,68,430,-1722
participant_1_LEVEL,1,1,2,2,3,4,4,5,5,5,6,6,7,7,7,7,8,9,9,9,10,10,10,10
participant_1_MINIONSKILLED,0,0,0,0,0,0,0,0,1,1,1,5,5,6,6,8,8,8,8,8,8,9,9,9
participant_1_KILLS,0,0,0,0,0,2,2,2,2,2,2,3,3,3,4,4,4,5,5,6,6,6,7,7
participant_1_BUY,[],"[1054, 2003]",[],[],[],[],"[4635, 1001, 2003]",[],[],[],[],[],"[4633, 2031, 2055]",[],[],"[3111, 1042]",[],[],[],"[1043, 3115, 2055]",[],[],[],[]
participant_1_SOLD,[],[],[],[],[],[2003],[],[],[],[2003],[],[],[4635],[2055],[],[1001],[],[],[],"[1042, 1054, 1043]",[],[],[],[]
participant_1_UNDO,[],[],[],[],[],[],[],[],[],[],[],[],[],[],[],[],[],[],[],[],[],[],[],[]
participant_2_GOLD,500,500,583,867,1190,1529,1708,2113,2638,2868,3144,3858,4274,4564,5372,6039,6562,6734,7508,8058,8180,8482,8743,8957
participant_2_CURRENTGOLD,500,0,83,367,680,1009,313,708,1223,343,619,1323,189,404,1202,1869,1192,324,1098,1678,100,403,663,857
participant_2_LEVEL,1,1,1,3,4,5,5,6,7,7,8,9,9,9,10,10,11,11,11,12,12,12,13,13
participant_2_MINIONSKILLED,0,0,3,12,21,31,34,48,54,57,66,74,79,89,101,110,110,110,116,116,116,118,122,125
participant_2_KILLS,0,0,0,0,0,0,0,0,0,0,0,1,1,1,1,1,3,3,4,5,5,5,5,5
participant_2_BUY,[],"[1055, 2003, 3340]",[],[],[],[],"[1036, 1042, 2031, 2055]",[],[],"[3006, 1042]",[],[],"[6670, 1053]",[2055],[],[],[6673],"[6677, 1042]",[],[],[3124],[],[],[]
participant_2_SOLD,[],[],[],[],[],[2003],[],[2055],[],[1042],[],[],"[1036, 1042]",[],[],[],"[6670, 1053]",[2031],[],[2055],"[6677, 1042]",[],[],[]
participant_2_UNDO,[],[],[],[],[],[],[],[],[],[],[],[],[],[],[],[],[],[],[],[],[],[],[],[]
participant_3_GOLD,500,500,562,804,1849,1971,2475,2990,3708,4506,4748,5615,6252,6839,7576,7949,8391,9159,9993,10449,10721,10978,11505,12030
participant_3_CURRENTGOLD,500,0,62,304,1349,71,165,680,1398,2196,338,1205,142,729,1466,39,481,1249,2083,425,696,953,1481,1905
participant_3_LEVEL,1,1,1,2,3,3,4,5,6,6,6,7,8,8,9,9,9,10,11,11,11,11,12,12
participant_3_MINIONSKILLED,0,0,2,9,20,20,22,28,33,44,51,61,67,76,84,84,84,88,94,95,100,100,101,104
participant_3_KILLS,0,0,0,0,2,2,3,4,5,5,5,7,7,8,10,10,11,12,13,14,14,14,15,16
participant_3_BUY,[],"[1055, 2003, 3340]",[],[],[],"[6670, 2003, 2003]","[1001, 2031]",[],[],[],[6672],[],"[3006, 1018, 1042]",[],[],[3095],[],[],[],"[1038, 1018, 1037]",[],[],[],[]
participant_3_SOLD,[],[],[],[2003],[],[],"[2003, 2003]",[],[],[],[6670],[],[1001],[],[],"[1018, 1042]",[],[],[],[2031],[],[],[],[]
participant_3_UNDO,[],[],[],[],[],[],[],[],[],[],[],[],[],[],[],[],[],[],[],"[[0, 1018]]",[],[],[],[]
participant_4_GOLD,500,500,542,777,1393,1547,2005,2397,2995,3135,3276,3744,4459,4964,5577,6029,6293,7252,7737,8118,8314,8600,8850,9165
participant_4_CURRENTGOLD,500,0,42,277,893,187,645,1037,670,810,101,569,34,539,1152,1604,18,977,1462,593,789,75,326,640
participant_4_LEVEL,1,1,1,2,3,3,5,5,6,6,7,7,8,8,9,9,9,10,11,11,11,12,12,12
participant_4_MINIONSKILLED,0,0,0,0,1,1,6,6,8,8,8,9,15,16,20,22,25,28,30,35,35,36,36,36
participant_4_KILLS,0,0,0,0,0,0,0,0,1,1,1,1,1,2,2,2,2,5,5,5,5,5,5,5
participant_4_BUY,[],"[3850, 2003, 2003, 3340]",[],[],[],"[1052, 1052, 1027, 2055]",[],[],"[3802, 1001, 2055, 2055]",[],[1026],[],[6655],[3364],[],[],"[3020, 3145]",[],[],[1058],[],"[4628, 1029]",[],[]
participant_4_SOLD,[],[],[],"[2003, 2003]",[],[2055],[],[3850],"[1052, 1027]",[2055],[2055],[],"[3802, 1026]",[3340],[],[3851],[1001],[],[],[],[],"[1058, 3145]",[],[]
participant_4_UNDO,[],[],[],[],[],"[[0, 1052]]",[],[],[],[],[],[],[],[],[],[],[],[],[],[],[],[],[],[]
participant_5_GOLD,500,500,583,776,1053,1315,1585,1756,2087,2617,2844,3133,3536,3965,4193,5076,5199,5335,5547,5862,6301,6537,7147,7189
participant_5_CURRENTGOLD,500,0,83,276,553,230,500,161,492,1022,219,508,911,1340,373,206,29,165,377,192,631,267,477,-1246
participant_5_LEVEL,1,1,1,2,4,5,5,6,7,7,8,8,9,9,10,10,10,10,11,11,12,12,12,12
participant_5_MINIONSKILLED,0,0,3,7,16,21,29,32,41,52,58,65,78,86,92,98,98,99,100,102,108,112,119,119
participant_5_KILLS,0,0,0,0,0,0,0,0,0,0,0,0,0,0,0,0,0,0,0,1,1,2,2,2
participant_5_BUY,[],"[3850, 2003, 2003, 3340]",[],[],[],[1052],[1004],[],[],"[4642, 1001]",[],[1028],[3364],[3067],[],[],[],[],[6617],[3158],"[1004, 3114]",[],[],[]
participant_5_SOLD,[],[],[],[],[2003],[],[],[],[2003],"[1004, 1052]",[],[3850],[3340],"[2419, 1028]",[],[],[],[],"[3067, 4642]","[3851, 2423, 1001]",[1004],[2010],[],[]
participant_5_UNDO,[],[],[],[],[],[],[],[],[],[],[],[],[],[],[],[],[],[],[],[],[],[],[],[]
participant_6_GOLD,500,500,620,1018,1318,1468,1811,2018,2345,2845,3067,3190,3706,4026,4389,4689,4812,5537,5680,5990,7142,7279,7493,7535
participant_6_CURRENTGOLD,500,0,120,518,818,28,371,578,905,255,477,130,646,966,1329,129,252,977,320,230,1382,1019,233,-65
participant_6_LEVEL,1,1,2,3,4,4,4,5,6,6,6,6,8,8,9,9,9,9,10,10,11,11,11,11
participant_6_MINIONSKILLED,0,0,0,0,0,2,2,2,2,6,6,6,8,8,10,12,12,12,13,20,20,21,24,24
participant_6_KILLS,0,0,0,0,0,0,1,1,1,1,1,1,1,1,1,1,1,1,1,2,2,2,2,2
participant_6_BUY,[],"[1055, 2003, 3340]",[],[],"[1042, 2003]",[],[],[],[],"[6670, 2003, 2003]",[],[],[1018],[1037],[],[1042],[],[],[],"[6672, 3086]",[1042],[],[],[]
participant_6_SOLD,[],[],[],[2003],[],[],[2003],[],[],[1042],[],[2003],[],[2003],[],[],[],[],[],"[6670, 1018, 1037, 1042]",[],[],[],[]
participant_6_UNDO,[],[],[],[],[],[],[],[],[],[],[],[],[],[],[],[],[],[],[],[],[],[],[],[]
participant_7_GOLD,500,500,590,853,1179,1455,2084,2297,2475,2668,2881,3093,3356,3590,3941,4063,4459,4581,4731,4854,5018,5392,5514,5556
participant_7_CURRENTGOLD,500,0,90,353,679,945,1564,302,480,673,886,238,491,725,1066,138,534,356,506,629,358,367,89,181
participant_7_LEVEL,1,1,1,3,4,5,6,7,7,7,8,8,8,9,9,9,10,10,10,10,10,11,11,11
participant_7_MINIONSKILLED,0,0,4,11,23,29,39,44,47,51,57,59,64,71,80,80,92,92,94,94,97,100,100,100
participant_7_KILLS,0,0,0,0,0,0,0,0,0,1,1,1,2,2,2,2,2,3,3,3,4,4,4,4
participant_7_BUY,[],"[1035, 2031, 3340]",[],[],[],[6660],[],[],[],"[1029, 1033, 1028]",[],[3105],[],[],[],"[3068, 3047]",[],[],[3076],[1028],[],[1011],[3075],[]
participant_7_SOLD,[],[],[],[],[],[2031],[],[],[1035],[],[],"[1028, 1033, 1029]",[],[],[],"[6660, 3105, 2422]",[],[],[],[],[],[1028],"[3076, 1011]",[]
participant_7_UNDO,[],[],[],[],[],[],[],[],[],[],[],[],[],[],[],[],[],[],[],[],[],[],[],[]
participant_8_GOLD,500,500,562,762,994,1263,1887,2079,2334,2550,2826,3005,3169,3488,3811,3989,4262,4482,4604,5362,5637,5991,6323,6365
participant_8_CURRENTGOLD,500,0,62,262,144,413,1037,1229,1484,600,876,1055,619,63,386,264,537,757,879,112,87,441,773,815
participant_8_LEVEL,1,1,1,2,3,4,5,5,6,6,6,7,7,7,8,8,8,8,8,9,9,10,10,10
participant_8_MINIONSKILLED,0,0,2,7,11,19,21,25,32,34,43,46,48,56,64,67,72,77,77,79,83,90,95,95
participant_8_KILLS,0,0,0,0,0,0,0,0,0,0,0,0,0,0,0,1,1,1,1,1,1,1,2,2
participant_8_BUY,[],"[1055, 1056, 2003, 2003, 3340]",[],[],[],"[1052, 2031]",[],"[1052, 2055]",[],[],"[3145, 1026]",[],[],[],"[4635, 1026, 1001, 2055]",[4633],[1042],[],[],[3006],[],"[1042, 1042]",[1043],[1052]
participant_8_SOLD,[],[],[],[],"[2003, 2003]",[],[],[],[2055],[],"[1052, 1052]",[],[],[],"[3145, 1026, 2055]","[4635, 1026]",[],[],[],"[1001, 1042]",[],[],"[1042, 1042]",[]
participant_8_UNDO,[],"[[0, 1055]]",[],[],[],[],[],[],[],[],[],[],[],[],[],[],[],[],[],[],[],[],[],[]
participant_9_GOLD,500,500,542,797,1026,1200,1505,1679,1887,2042,2206,2419,2560,2750,2911,3125,3306,3717,3911,4786,4927,5416,5607,5654
participant_9_CURRENTGOLD,500,0,42,297,526,265,320,494,702,192,356,169,310,100,261,475,656,1067,411,686,27,516,707,754
participant_9_LEVEL,1,1,1,2,3,3,3,4,4,5,5,6,6,6,7,7,7,8,8,9,9,10,10,10
participant_9_MINIONSKILLED,0,0,0,0,1,1,1,1,2,2,3,4,4,5,5,6,7,7,8,8,8,11,11,11
participant_9_KILLS,0,0,0,0,0,0,1,1,1,1,1,1,1,1,1,1,1,1,1,1,1,1,1,1
participant_9_BUY,[],"[1056, 2003, 2003, 3340]",[],[],[],[],[],"[4635, 2003, 2003, 2055]",[],[],[],[1026],[],[],[],[4633],[],[1001],[],[],[1052],[3916],[1028],[]
participant_9_SOLD,[],[],[],[],[2003],[2003],[],[],[],[],[2003],[2003],[],[],[],"[4635, 1026]",[],[],[],[],[],[1052],[],[]
participant_9_UNDO,[],[],[],[],[],[],[],[],[],[],[],[],[],[],[],[],[],[],[],[],[],[],[],[]
team0_KILLS,0,0,0,0,2,4,5,7,10,10,10,14,14,16,19,19,22,27,29,32,32,33,36,37
team0_CURRENTGOLD,2500,0,369,1796,4296,3854,2453,4757,6491,6867,5005,7981,3721,5423,5333,4576,3400,4477,7207,2824,2058,2088,4208,2950
team0_TOTALGOLD,2500,2500,2869,4296,6806,8634,10168,12482,15191,16677,17765,20751,23116,24893,28213,30356,32230,35448,38467,40713,41648,43377,45496,46850
team0_LEVEL,5,5,6,12,17,21,24,28,31,32,35,38,41,41,45,45,48,52,54,56,57,58,61,61
team0_SBIRES,0,0,7,34,65,83,95,124,139,156,177,203,224,252,284,298,310,327,351,358,363,367,380,386
team1_KILLS,0,0,0,0,0,0,2,2,2,3,3,3,4,4,4,5,5,6,6,8,9,10,11,11
team1_CURRENTGOLD,2500,0,397,1706,2720,1881,3792,2764,4063,2742,2814,2100,2977,3194,3415,1212,2008,3322,2493,1849,2485,2610,2279,439
team1_TOTALGOLD,2500,2500,2897,4206,5570,6701,8872,9829,11128,12722,13824,14840,16327,17819,19245,20942,22038,23652,24473,26854,29025,30615,32084,32299
team1_LEVEL,5,5,6,12,18,21,23,27,30,31,33,35,38,39,43,43,44,45,47,49,51,54,54,54
team1_SBIRES,0,0,9,25,51,72,92,104,124,145,167,180,202,226,251,263,281,287,292,303,316,334,349,349
delta_KILLS,0,0,0,0,2,4,3,5,8,7,7,11,10,12,15,14,17,21,23,24,23,23,25,26
delta_CURRENTGOLD,0,0,-28,90,1576,1973,-1339,1993,2428,4125,2191,5881,744,2229,1918,3364,1392,1155,4714,975,-427,-522,1929,2511
delta_TOTALGOLD,0,0,-28,90,1236,1933,1296,2653,4063,3955,3941,5911,6789,7074,8968,9414,10192,11796,13994,13859,12623,12762,13412,14551
delta_LEVEL,0,0,0,0,-1,0,1,1,1,1,2,3,3,2,2,2,4,7,7,7,6,4,7,7
delta_SBIRES,0,0,-2,9,14,11,3,20,15,11,10,23,22,26,33,35,29,40,59,55,47,33,31,37
