name,frame_0,frame_1,frame_2,frame_3,frame_4,frame_5,frame_6,frame_7,frame_8,frame_9,frame_10,frame_11,frame_12,frame_13,frame_14,frame_15,frame_16,frame_17,frame_18,frame_19,frame_20
nameStamp,Tstart,Tearly,Tearly,Tearly,Tearly,Tearly,Tearly,Tearly,Tearly,Tearly,Tearly,Tearly,Tearly,Tmid,Tmid,Tmid,Tmid,Tmid,Tmid,Tmid,Tmid
timestamp,0,60029,120047,180061,240063,300078,360108,420126,480139,540156,600176,660205,720223,780241,840259,900277,960289,1020314,1080326,1140344,1200358
participant_0_GOLD,500,500,521,1076,1199,1496,1689,2024,2655,3883,4082,5081,6438,6756,7799,8027,8528,8953,9396,10254,10852
participant_0_CURRENTGOLD,500,0,21,276,399,696,889,424,1055,83,282,1281,938,1256,2299,227,728,653,96,954,453
participant_0_LEVEL,1,1,1,3,3,4,5,6,6,8,8,9,9,10,10,11,11,12,12,12,12
participant_0_MINIONSKILLED,0,0,0,8,8,16,20,30,41,47,52,62,68,79,82,88,91,96,96,97,97
participant_0_KILLS,0,0,0,1,1,1,1,1,1,2,2,3,4,4,6,6,7,7,8,9,10
participant_0_BUY,[],"[2033, 3340]",[],[1029],[],[],[],[3067],[],[3071],[],[],"[3047, 3052]",[],[],"[3053, 1029]",[],[1031],"[1031, 1011]",[],[3742]
participant_0_SOLD,[],[],[],[],[],[],[],[],[],[3067],[],[],"[1029, 2422]",[],[],[3052],[],[1029],[],[],"[1031, 1011]"
participant_0_UNDO,[],[],[],[],[],[],[],[],[],[],[],[],[],[],[],[],[],[],"[[0, 1031]]",[],[]
participant_1_GOLD,500,500,621,1118,1446,1596,1881,2042,2324,2461,2583,2994,3376,3699,3925,4166,4289,5201,5508,6201,6662
participant_1_CURRENTGOLD,500,0,121,618,946,46,331,142,424,561,333,744,1126,524,750,291,414,76,383,1076,737
participant_1_LEVEL,1,1,2,2,3,3,4,4,5,5,5,6,7,7,8,8,8,9,9,10,10
participant_1_MINIONSKILLED,0,0,0,0,0,2,2,3,9,10,10,10,17,22,23,23,23,23,23,30,35
participant_1_KILLS,0,0,0,1,1,1,1,1,1,1,1,1,1,1,1,1,1,2,2,3,4
participant_1_BUY,[],"[1039, 2003, 2003, 2003, 3340]",[],[],[],"[3706, 1001, 2003, 2003]",[],[1036],[],[],[1036],[],[],[1400],[],[3117],[],[3044],[],[],[3067]
participant_1_SOLD,[],[],[2003],"[2003, 2003]",[],[1039],[],[],"[2003, 2003]",[],[],[],[],"[1036, 1036, 3706]",[],[1001],[],[],[],[],[]
participant_1_UNDO,[],[],[],[],[],[],[],[],[],[],[],[],[],[],[],[],[],[],[],[],[]
participant_2_GOLD,500,500,544,759,894,1349,1574,1772,2006,2183,2359,2697,2977,3112,3418,3558,3698,4414,4557,5189,5330
participant_2_CURRENTGOLD,500,0,44,259,394,49,274,472,231,408,584,922,352,486,793,133,273,989,132,764,905
participant_2_LEVEL,1,1,1,2,3,3,4,4,4,4,5,6,6,6,7,7,7,8,8,9,9
participant_2_MINIONSKILLED,0,0,1,3,3,4,6,6,6,8,10,10,11,11,13,13,13,16,16,18,18
participant_2_KILLS,0,0,0,0,0,1,1,1,1,1,1,1,1,1,1,1,1,2,2,3,3
participant_2_BUY,[],"[3858, 2003, 2003, 3340]",[],[],[],"[1033, 1029, 3364, 2003]",[],[],"[3024, 3117]",[],[],[],[3113],[],[],[1018],[],[],"[3086, 1028]",[],[]
participant_2_SOLD,[],[],[],[],"[2003, 2003]","[2010, 3340]",[],"[2003, 2010, 2010]","[1029, 1033, 1029]",[],[],[],[],[],[3858],[],[],[],[1018],[],[]
participant_2_UNDO,[],[],[],[],[],[],[],[],"[[0, 3024]]",[],[],[],[],[],[],[],[],[],[],[],[]
participant_3_GOLD,500,500,598,929,1201,1361,1659,1919,2062,2311,2575,2909,3273,3581,4228,4354,4476,5118,5564,5782,5905
participant_3_CURRENTGOLD,500,0,98,429,701,61,359,619,502,316,580,499,863,371,718,19,116,758,304,522,45
participant_3_LEVEL,1,1,1,2,3,3,4,4,4,5,5,6,6,7,7,7,8,8,9,10,10
participant_3_MINIONSKILLED,0,0,4,13,21,23,31,31,32,40,42,43,45,45,45,45,45,49,50,51,51
participant_3_KILLS,0,0,0,0,0,0,0,0,0,0,0,0,0,0,1,1,1,2,2,2,2
participant_3_BUY,[],"[1055, 2003, 3340]",[],[],[],[1018],[],[],[3117],[1052],[],[3113],[],[1018],[1042],"[3086, 1028, 1004]",[1006],[],"[3801, 3114]",[],[2065]
participant_3_SOLD,[],[],[],[],[2003],[],[],[],"[1055, 1018]",[],[],[1052],[],[],[],"[1018, 1042]",[],[],"[1028, 1006]",[3340],"[3513, 3114, 3801]"
participant_3_UNDO,[],[],[],[],[],[],[],[],[],[],[],[],[],[],[],[],"[[0, 1004]]",[],[],[],[]
participant_4_GOLD,500,500,521,888,1120,1450,1693,1941,2091,2252,2419,3075,3853,4396,5241,5424,5547,6718,7169,7291,7563
participant_4_CURRENTGOLD,500,0,21,388,620,950,1193,1441,141,302,469,1125,278,820,31,214,37,193,643,116,138
participant_4_LEVEL,1,1,1,3,4,5,6,7,7,7,8,8,8,9,10,10,10,11,11,11,11
participant_4_MINIONSKILLED,0,0,0,6,11,19,25,31,32,33,35,42,42,48,50,53,53,58,59,59,59
participant_4_KILLS,0,0,0,0,0,0,0,0,0,0,0,1,2,3,4,4,4,5,6,6,6
participant_4_BUY,[],"[1056, 3340, 2003, 2003]",[],[],[],[],[],[],"[3010, 1001, 2003]",[],[],[],"[3027, 2055, 2003]",[],"[3020, 1052, 1029, 2003, 2003]",[],[1029],"[3191, 3108, 2003]",[],[2420],[3157]
participant_4_SOLD,[],[],[],[],[2003],[2003],[],[],[],[],[],[2003],[3010],[2003],"[2055, 1001]",[2003],[2003],"[1029, 1052, 1029]",[2003],[],"[3191, 3108, 2420]"
participant_4_UNDO,[],[],[],[],[],[],[],[],[],[],[],[],[],[],[],[],[],[],[],[],[]
participant_5_GOLD,500,500,921,1148,1662,1854,2654,2884,3868,4328,4726,5232,6142,6490,7112,7315,7727,7950,8819,8942,10039
participant_5_CURRENTGOLD,500,0,421,223,737,29,829,139,1123,458,506,112,1022,620,242,445,857,205,1074,247,1344
participant_5_LEVEL,1,1,1,2,4,5,6,6,7,8,9,9,10,10,11,11,11,11,12,12,13
participant_5_MINIONSKILLED,0,0,0,6,12,16,21,25,27,31,31,36,49,59,59,60,61,61,83,83,91
participant_5_KILLS,0,0,1,1,2,2,4,4,7,8,9,10,12,12,13,13,13,13,13,13,15
participant_5_BUY,[],"[3340, 2003, 1036, 2003, 2003]",[],"[1036, 2003, 2055]",[],"[3123, 1036, 2003, 2003]",[],"[1001, 1029, 1036]",[],"[3047, 3077]",[1036],"[1053, 1036]",[],"[3134, 1036]",[3181],[],[],"[3134, 1037]",[],[3074],[]
participant_5_SOLD,[],[],[],"[2003, 2003]",[2003],[1036],"[2003, 2003]",[2055],[],"[1001, 1029, 1036, 1036]",[],[1036],[],"[1036, 1036]","[3134, 1053]",[],[],[1036],[],"[3077, 1036, 1037]",[]
participant_5_UNDO,[],[],[],"[[0, 2003]]",[],[],[],[],[],[],[],[],[],[],[],[],[],"[[0, 3134]]",[],[],[]
participant_6_GOLD,500,500,535,699,871,1133,1312,1518,1759,1882,2004,2197,2390,2754,3014,3488,3758,3956,4578,4701,5212
participant_6_CURRENTGOLD,500,0,35,199,221,483,662,33,274,47,169,362,405,769,464,938,1208,206,778,901,977
participant_6_LEVEL,1,1,1,2,3,4,5,6,6,7,7,8,8,8,9,9,9,10,10,10,11
participant_6_MINIONSKILLED,0,0,1,3,6,14,17,22,29,29,29,33,34,39,39,40,40,40,40,40,41
participant_6_KILLS,0,0,0,0,0,0,0,0,0,0,0,0,0,0,0,0,0,0,1,1,2
participant_6_BUY,[],"[1056, 2003, 2003, 3340]",[],[],"[2003, 2003, 2003]",[],[],"[1001, 2003, 2003, 1052]",[],[1027],[],[],"[2003, 2003, 2003]",[],"[3802, 2003]",[],[],"[1028, 3020]",[2003],[],[1052]
participant_6_SOLD,[],[],[],"[2003, 2003]",[],[],"[2003, 2003]",[2003],[],[],[],"[2003, 2003]",[],[],"[2003, 1052, 1027]",[],[],[1001],[2003],[],[]
participant_6_UNDO,[],[],[],[],[],[],[],[],[],[],[],[],[],[],[],[],[],[],[],[],[]
participant_7_GOLD,500,500,621,978,1263,1831,2124,2309,2721,3192,3444,3737,4044,5001,5559,6284,7002,7444,7879,8002,8444
participant_7_CURRENTGOLD,500,0,121,478,763,1331,224,409,821,1292,1544,187,494,1451,559,1284,2002,219,654,777,1219
participant_7_LEVEL,1,1,2,3,3,4,5,5,6,6,7,7,7,8,8,9,9,10,10,10,11
participant_7_MINIONSKILLED,0,0,0,0,0,1,1,5,5,7,7,7,7,11,14,16,18,18,21,21,21
participant_7_KILLS,0,0,0,0,0,1,1,1,1,2,2,2,2,2,3,4,5,6,6,6,7
participant_7_BUY,[],"[3364, 2031, 1041]",[],[],[],[],"[3077, 2055]",[],[],[],[],"[3117, 3715]",[],[],"[3133, 1036]",[],[],"[1412, 3044, 3067]",[],[],[]
participant_7_SOLD,[],[],[],[],[],[],[],[2055],[],[],[],[1041],[],"[3364, 3513]",[],[],[],"[3133, 3715, 1036]",[],[],[]
participant_7_UNDO,[],[],[],[],[],[],[],[],[],[],[],[],[],[],[],[],[],[],[],[],[]
participant_8_GOLD,500,500,523,747,1013,1431,1945,2204,2369,2838,3234,3759,4439,5017,5363,6221,6999,7244,8049,8308,8799
participant_8_CURRENTGOLD,500,0,23,247,513,81,595,419,584,1053,84,609,439,1017,213,1071,1849,810,99,358,350
participant_8_LEVEL,1,1,1,2,3,3,4,4,5,6,6,7,8,8,8,9,9,9,10,10,11
participant_8_MINIONSKILLED,0,0,0,0,3,4,4,4,4,4,5,11,12,12,12,14,15,15,16,24,31
participant_8_KILLS,0,0,0,0,0,0,1,1,1,2,2,3,5,6,7,8,9,9,11,11,11
participant_8_BUY,[],"[3850, 2003, 2003, 3340]",[],[],[],"[1001, 1028, 2003, 2003, 2003]",[],[1052],[],[],"[3136, 1028, 3117]",[],[1026],[],"[3151, 1028, 3364]",[],[],"[1026, 1052]","[3116, 1029, 1029]",[],[3191]
participant_8_SOLD,[],[],[],[],"[2003, 2003]",[],[],[],[],"[2003, 2003, 2003, 3850]","[1028, 1052, 1001]",[],[],[],"[3136, 1026, 3340]",[],[],[3851],"[1026, 1052, 1028]",[],"[1029, 1029]"
participant_8_UNDO,[],[],[],[],[],[],[],[],[],[],"[[0, 1028]]",[],[],[],[],[],[],[],[],[],[]
participant_9_GOLD,500,500,542,755,1008,1580,1780,2052,2251,2806,3088,3441,4220,4693,4965,5482,6270,6392,6639,6922,7389
participant_9_CURRENTGOLD,500,0,42,255,508,1080,1280,552,751,1306,288,641,1420,293,565,1082,1870,192,439,722,489
participant_9_LEVEL,1,1,1,2,3,4,5,5,6,6,7,7,8,8,9,9,9,9,10,10,11
participant_9_MINIONSKILLED,0,0,1,6,11,13,17,21,26,32,32,36,44,44,44,44,45,45,45,50,57
participant_9_KILLS,0,0,0,0,0,1,1,1,1,1,1,1,1,1,1,2,3,3,3,3,3
participant_9_BUY,[],"[1054, 2003, 3340]",[],[],[],[],[],"[1001, 2015]",[],[],[1038],[],[],"[3006, 1018]",[],[],[],"[3095, 3086]",[],[],[2015]
participant_9_SOLD,[],[],[],[],[],[2003],[],[],[],[],[],[],[],[1001],[],[],[],"[1038, 1018, 2015]",[],[],[]
participant_9_UNDO,[],[],[],[],[],[],[],[],[],[],[],[],[],[],[],[],[],[],[],[],[]
team0_KILLS,0,0,0,2,2,3,3,3,3,4,4,6,8,9,13,13,14,18,20,23,25
team0_CURRENTGOLD,2500,0,305,1970,3060,1802,3046,3098,2353,1670,2248,4571,3557,3457,4591,884,1568,2669,1558,3432,2278
team0_TOTALGOLD,2500,2500,2805,4770,5860,7252,8496,9698,11138,13090,14018,16756,19917,21544,24611,25529,26538,30404,32194,34717,36312
team0_LEVEL,5,5,6,12,16,18,23,25,26,29,31,35,36,39,42,43,44,48,49,52,52
team0_SBIRES,0,0,5,30,43,64,84,101,120,138,149,167,183,205,213,222,225,242,244,255,260
team1_KILLS,0,0,1,1,2,4,7,7,10,13,14,16,20,21,24,27,30,31,34,34,38
team1_CURRENTGOLD,2500,0,642,1402,2742,3004,3590,1552,3553,4156,2591,1911,3780,4150,2043,4820,7786,1632,3044,3005,4379
team1_TOTALGOLD,2500,2500,3142,4327,5817,7829,9815,10967,12968,15046,16496,18366,21235,23955,26013,28790,31756,32986,35964,36875,39883
team1_LEVEL,5,5,6,11,16,20,25,26,30,33,36,38,41,42,45,47,47,49,52,52,57
team1_SBIRES,0,0,2,15,32,48,60,77,91,103,104,123,146,165,168,174,179,179,205,218,241
delta_KILLS,0,0,-1,1,0,-1,-4,-4,-7,-9,-10,-10,-12,-12,-11,-14,-16,-13,-14,-11,-13
delta_CURRENTGOLD,0,0,-337,568,318,-1202,-544,1546,-1200,-2486,-343,2660,-223,-693,2548,-3936,-6218,1037,-1486,427,-2101
delta_TOTALGOLD,0,0,-337,443,43,-577,-1319,-1269,-1830,-1956,-2478,-1610,-1318,-2411,-1402,-3261,-5218,-2582,-3770,-2158,-3571
delta_LEVEL,0,0,0,1,0,-2,-2,-1,-4,-4,-5,-3,-5,-3,-3,-4,-3,-1,-3,0,-5
delta_SBIRES,0,0,3,15,11,16,24,24,29,35,45,44,37,40,45,48,46,63,39,37,19
