name,frame_0,frame_1,frame_2,frame_3,frame_4,frame_5,frame_6,frame_7,frame_8,frame_9,frame_10,frame_11,frame_12,frame_13,frame_14,frame_15,frame_16,frame_17,frame_18,frame_19,frame_20,frame_21,frame_22,frame_23
nameStamp,Tstart,Tearly,Tearly,Tearly,Tearly,Tearly,Tearly,Tearly,Tearly,Tearly,Tearly,Tearly,Tearly,Tearly,Tearly,Tearly,Tearly,Tmid,Tmid,Tmid,Tmid,Tmid,Tmid,Tmid
timestamp,0,60014,120045,180062,240077,300093,360109,420123,480140,540158,600176,660199,720217,780238,840264,900293,960311,1020335,1080359,1140381,1200397,1260419,1320439,1380439
participant_0_GOLD,500,500,598,888,1141,1596,1782,2096,2392,2634,2786,3117,3442,4217,4829,5168,5615,6796,7268,7832,8325,8624,8899,9077
participant_0_CURRENTGOLD,500,0,98,388,641,1096,32,346,642,884,511,842,1167,442,1054,1393,407,1588,460,1024,1517,216,491,669
participant_0_LEVEL,1,1,1,3,4,5,5,6,7,7,7,8,8,9,9,10,10,11,11,12,12,12,13,13
participant_0_MINIONSKILLED,0,0,4,13,18,26,29,38,45,52,53,63,64,64,71,80,80,84,84,90,99,101,106,106
participant_0_KILLS,0,0,0,0,0,0,0,0,0,0,0,0,0,2,2,2,3,6,7,8,8,8,8,8
participant_0_BUY,[],"[1054, 2003, 3340]",[],[],[],[],[3044],[],[],[],"[2055, 2003, 2003, 1027]",[],[],"[3057, 3047]",[],[],[3078],[],"[3052, 1028]",[],[],[3053],[],[]
participant_0_SOLD,[],[],[],[],[2003],[],[],[],[],[],[],[],"[2055, 2003]","[2003, 1027, 2422]",[],[],"[3057, 3044]",[],[],[],[],"[3052, 1028]",[],[]
participant_0_UNDO,[],[],[],[],[],[],[],[],[],[],[],[],[],[],[],[],[],[],[],[],[],[],[],[]
participant_1_GOLD,500,500,621,843,1248,2078,2336,2458,2688,2911,3813,4041,4263,4545,5096,5318,6003,6899,7126,7270,7642,8386,8565,8706
participant_1_CURRENTGOLD,500,0,121,343,748,1578,1836,208,438,661,1563,1791,78,360,911,1133,1818,399,626,769,1142,1886,2065,2206
participant_1_LEVEL,1,1,2,2,3,5,5,5,5,6,7,8,8,8,9,9,10,11,11,11,12,13,13,13
participant_1_MINIONSKILLED,0,0,0,0,0,0,0,0,0,0,7,7,7,7,9,9,20,21,22,23,23,27,27,27
participant_1_KILLS,0,0,0,0,0,0,0,0,0,0,0,0,1,1,1,1,1,1,1,1,1,1,2,2
participant_1_BUY,[],[],[],[],[],[3145],[],[],"[2033, 1001]",[],[1028],[],[],[3152],[],[],[],[],[],"[3020, 3057]",[],[],"[3113, 1026]",[]
participant_1_SOLD,[],[],[],[],[],[],[],[],[],[],[],[],[],"[3145, 1028]",[],[],[],[],[],[1001],[],[],[],[]
participant_1_UNDO,[],[],[],[],[],[],[],[],[],[],[],[],[],[],[],[],[],[],[],[],[],[],"[[0, 3113]]",[]
participant_2_GOLD,500,500,556,892,1134,1403,1624,1886,2057,2236,2442,2759,3271,3498,3772,4041,4455,4857,5071,5278,5604,5933,6345,6386
participant_2_CURRENTGOLD,500,500,556,892,1134,353,574,836,207,386,192,509,1021,198,472,741,1155,1557,1771,128,454,783,345,386
participant_2_LEVEL,1,1,1,3,4,5,5,6,7,7,7,8,9,9,9,10,10,11,11,12,12,12,12,12
participant_2_MINIONSKILLED,0,0,2,12,19,25,30,38,41,44,49,56,60,67,72,77,86,95,97,98,103,103,103,103
participant_2_KILLS,0,0,0,0,0,1,1,1,1,1,1,1,2,3,3,3,4,4,5,9,10,12,13,14
participant_2_BUY,[],"[1055, 2003, 3340]",[],[],[],[],[3134],[],[],"[1036, 1036]",[],[3133],[],[3147],[],"[3134, 1001]",[],[3006],[],"[3142, 1036]",[],[3134],[],[]
participant_2_SOLD,[],[],[],[2003],[],[],[],[],[],[],[],"[1036, 1036]",[],"[3134, 3133]",[],[],[],[1001],[],[3134],[],[1036],[],[]
participant_2_UNDO,[],[],[],[],[],[],[],[],[],[],[],[],[],[],[],[],[],[],[],[],[],[],[],[]
participant_3_GOLD,500,500,542,783,1064,1556,1714,1986,2279,2402,2806,2929,3463,3948,4487,4815,5587,5808,6596,7830,8311,8898,9364,9679
participant_3_CURRENTGOLD,500,0,42,283,564,1056,114,386,679,102,506,229,763,548,1087,15,787,208,996,80,561,398,864,1179
participant_3_LEVEL,1,1,1,2,3,4,4,5,5,5,6,6,7,8,8,9,10,10,11,11,12,12,13,13
participant_3_MINIONSKILLED,0,0,1,8,15,19,21,27,28,28,41,41,48,52,63,66,74,77,85,87,89,89,103,103
participant_3_KILLS,0,0,0,0,0,0,0,0,1,2,2,2,2,2,2,3,3,3,3,3,4,4,5,5
participant_3_BUY,[],"[2003, 2003, 3340, 3850]",[],[],[],[],[],[],[],"[3802, 1001]",[],[1052],[],[],[],[],"[1026, 3285]",[],[],[1026],"[3020, 2055]",[],[],[]
participant_3_SOLD,[],[],[],[],[],[2003],[2010],[],[],[2010],[],[],[],[],[3850],[2003],"[3802, 1026]",[],[],[],"[2010, 1001]",[2055],[],[]
participant_3_UNDO,[],[],[],[],[],[],[],[],[],[],[],[],[],[],[],[],[],[],[],[],[],[],[],[]
participant_4_GOLD,500,500,523,672,837,1166,1316,1450,2077,2512,2646,2855,3169,3680,4068,4609,4799,5039,5354,6132,6576,6782,7313,7359
participant_4_CURRENTGOLD,500,0,23,172,337,666,816,950,1577,412,546,320,634,1145,1533,2074,364,604,919,847,446,652,1183,1199
participant_4_LEVEL,1,1,1,2,3,4,5,5,6,7,7,7,8,8,8,9,9,10,10,11,11,11,11,11
participant_4_MINIONSKILLED,0,0,0,0,0,0,0,0,4,4,4,5,6,10,10,13,13,16,16,17,18,18,18,18
participant_4_KILLS,0,0,0,0,0,2,2,2,2,2,3,3,3,3,4,4,4,4,4,4,4,5,5,5
participant_4_BUY,[],"[1039, 2031, 3340]",[],[],[],[],[],"[3706, 3020]",[],[],[],[],"[1402, 1052]",[],[],[],[],"[3057, 3113, 1026]",[],[],[],[],[],[]
participant_4_SOLD,[],[],[],[],[],[],[],[1039],[],[],[],[],[3706],[],[],[3340],[3513],[1052],[],[],[],[],[],[]
participant_4_UNDO,[],[],[],[],[],[],[],[],[],[],[],[],[],[],[],[],[],[],[],[],[],[],[],[]
participant_5_GOLD,500,500,521,727,927,1182,1845,2044,2271,2702,2867,3270,3393,3515,3833,3997,4169,4341,4854,5019,5232,5382,5589,5630
participant_5_CURRENTGOLD,500,0,21,227,427,257,920,1119,1346,1777,167,570,193,315,633,797,169,341,854,119,332,482,689,730
participant_5_LEVEL,1,1,1,3,4,5,6,6,7,8,8,9,9,9,9,9,9,10,10,10,11,11,11,11
participant_5_MINIONSKILLED,0,0,0,5,9,14,24,29,35,36,39,42,42,42,49,51,51,54,64,66,72,74,79,79
participant_5_KILLS,0,0,0,0,0,0,0,0,0,0,0,1,1,1,2,2,2,2,2,2,2,2,2,2
participant_5_BUY,[],"[1041, 1006, 3340]",[],[],[],[],"[1001, 1036, 2003, 2055]",[],[],[],"[3077, 1029]",[],[],"[3047, 3706]",[],[],[],[3751],[1401],[],[],[],"[1028, 1028]",[]
participant_5_SOLD,[],[],[],[],[],[],"[2003, 2055]",[],[],[],"[1036, 1006]",[],[],"[1001, 1029, 1041]",[],[],[],[],"[3751, 3706]",[],[],[],[],[]
participant_5_UNDO,[],[],[],[],[],[],[],[],[],[],[],[],[],[],[],[],[],[],[],[],[],[],[],[]
participant_6_GOLD,500,500,629,828,1141,1409,1532,1679,1899,2378,2500,3239,3387,3584,4055,4396,4866,4989,5261,5384,5591,5755,5978,6047
participant_6_CURRENTGOLD,500,0,129,328,641,909,277,424,644,1123,120,859,1007,54,525,866,1336,559,231,354,561,725,148,197
participant_6_LEVEL,1,1,2,2,3,4,4,4,4,5,5,6,7,7,8,8,8,8,9,9,9,10,10,10
participant_6_MINIONSKILLED,0,0,0,0,0,0,0,0,0,1,1,7,7,7,9,9,11,11,11,11,11,14,14,16
participant_6_KILLS,0,0,0,0,0,0,0,0,0,0,0,0,0,0,0,0,0,0,0,0,0,0,0,0
participant_6_BUY,[],"[3850, 2003, 2003, 3340]",[],[],[],[],[],[],[],"[1026, 1001, 2003, 2003]",[],[],[],"[3114, 3117]",[],[],[1052],[],[],[3504],[],[1052],[],[]
participant_6_SOLD,[],[],[],[],[],[],[2003],[],[2003],[],[],[],[],"[2003, 3850, 1001]",[2003],[],[],[],[],"[3114, 1052]",[],[],[],[]
participant_6_UNDO,[],[],[],[],[],[],[],[],[],[],[],[],[],[],[],[],[],[],[],[],[],[],[],[]
participant_7_GOLD,500,500,612,878,1141,1710,2060,2329,2486,3086,3460,3748,3919,4496,4817,5108,5420,5542,5707,5829,5966,6102,6758,6799
participant_7_CURRENTGOLD,500,0,112,378,641,160,510,779,136,736,160,448,619,1196,1517,1008,1320,1442,1607,679,816,102,758,799
participant_7_LEVEL,1,1,1,3,4,5,6,7,7,8,8,9,9,9,10,11,11,11,11,11,11,11,12,12
participant_7_MINIONSKILLED,0,0,5,11,19,25,36,44,46,58,63,69,72,81,84,90,98,98,100,100,101,102,107,107
participant_7_KILLS,0,0,0,0,0,0,0,0,1,1,1,2,2,2,2,3,4,4,5,5,5,5,5,5
participant_7_BUY,[],"[1055, 3340, 2003]",[],[],[],"[3070, 2055]",[],[],[],"[1037, 1001]",[],[],"[3004, 3158]",[1036],[],[],"[3044, 1042, 1027, 1042]",[],"[3101, 1027]",[3057],[],[3078],[1029],[]
participant_7_SOLD,[],[],[],[],[2003],[2010],[2055],[],"[2010, 2010]",[],[],[],"[3070, 1037, 1001]",[],[],[],[1036],[],"[1042, 1042]",[1027],[],"[3101, 3057, 3044]",[],[]
participant_7_UNDO,[],[],[],[],[],[],[],[],[],[],[],[],[],[],[],[],"[[0, 1027]]",[],[],[],[],[],[],[]
participant_8_GOLD,500,500,598,948,1204,1445,1659,1966,2590,2713,2968,3952,4096,4344,4529,5186,5963,6271,7293,7429,7754,7960,8243,8283
participant_8_CURRENTGOLD,500,0,98,448,704,20,234,541,1165,113,368,1352,221,119,304,961,238,546,718,154,479,352,335,375
participant_8_LEVEL,1,1,1,2,3,4,4,5,6,6,6,7,7,7,7,8,9,9,10,10,10,11,11,11
participant_8_MINIONSKILLED,0,0,4,15,22,27,32,40,49,49,56,57,58,65,69,73,79,86,86,87,95,100,105,105
participant_8_KILLS,0,0,0,0,0,1,1,1,1,2,2,2,2,3,3,3,3,3,3,3,3,3,4,4
participant_8_BUY,[],"[1056, 2003, 2003, 3340]",[],[],[],[3145],[],[],[3067],[],"[3152, 1001]",[],[],[],[],[3020],[],[],[],[3057],[],[1026],[],[]
participant_8_SOLD,[],[],[],[],[],[],[2003],[],[],[],"[3145, 3067]",[2003],[],[],[],[1001],[],[],[],[],[],[],[],[]
participant_8_UNDO,[],[],[],[],[],[],[],[],[],[],[],[],[],[],[],[],[],[],[],[],[],[],[],[]
participant_9_GOLD,500,500,523,702,896,1045,1293,1427,1806,2027,2255,2873,3052,3456,3676,4023,4242,4533,4777,5055,5196,5350,5670,5717
participant_9_CURRENTGOLD,500,0,23,202,396,545,793,927,1306,277,505,1123,1302,206,425,773,557,848,1092,306,446,165,485,532
participant_9_LEVEL,1,1,1,2,3,4,4,5,6,6,7,7,7,8,8,9,9,9,9,10,10,10,10,10
participant_9_MINIONSKILLED,0,0,0,0,1,1,7,7,9,11,14,17,18,24,27,30,31,36,38,42,42,43,43,43
participant_9_KILLS,0,0,0,0,0,0,1,1,1,2,2,3,3,3,3,3,3,3,3,3,3,3,3,3
participant_9_BUY,[],"[1055, 2003, 3340]",[],[],[],"[1001, 2003, 2055]",[],[],[],[],"[3077, 1042, 2003, 2003, 2003]",[],[3006],[],[],[],[1018],[],[],[1053],[],[],[],[]
participant_9_SOLD,[],[],[],[],[2003],[],[2003],[2055],[],[],[],"[2003, 2003, 2003]","[1001, 1042]",[],[],[],[],[],[],[],[],[],[],[]
participant_9_UNDO,[],[],[],[],[],[],[],[],[],[],[],[],[],[],[],[],[],[],[],[],[],[],[],[]
team0_KILLS,0,0,0,0,0,3,3,3,4,5,6,6,8,11,12,13,15,18,20,25,27,30,33,34
team0_CURRENTGOLD,2500,500,840,2078,3424,4749,3372,2726,3543,2445,3318,3691,3663,2693,5057,5356,4531,4356,4772,2848,4120,3935,4948,5639
team0_TOTALGOLD,2500,2500,2840,4078,5424,7799,8772,9876,11493,12695,14493,15701,17608,19888,22252,23951,26459,29399,31415,34342,36458,38623,40486,41207
team0_LEVEL,5,5,6,12,17,23,24,27,30,32,34,37,40,42,43,47,49,53,54,57,59,60,62,62
team0_SBIRES,0,0,7,33,52,70,80,103,118,128,154,172,185,200,225,245,273,293,304,315,332,338,357,357
team1_KILLS,0,0,0,0,0,1,2,2,3,5,5,8,8,9,10,11,12,12,13,13,13,13,14,14
team1_CURRENTGOLD,2500,0,383,1583,2809,1891,2734,3790,4597,4026,1320,4352,3342,1890,3404,4405,3620,3736,4502,1612,2634,1826,2415,2633
team1_TOTALGOLD,2500,2500,2883,4083,5309,6791,8389,9445,11052,12906,14050,17082,17847,19395,20910,22710,24660,25676,27892,28716,29739,30549,32238,32476
team1_LEVEL,5,5,6,12,17,22,24,27,30,33,34,38,39,40,42,45,46,47,49,50,51,53,54,54
team1_SBIRES,0,0,9,31,51,67,99,120,139,155,173,192,197,219,238,253,270,285,299,306,321,333,348,350
delta_KILLS,0,0,0,0,0,2,1,1,1,0,1,-2,0,2,2,2,3,6,7,12,14,17,19,20
delta_CURRENTGOLD,0,500,457,495,615,2858,638,-1064,-1054,-1581,1998,-661,321,803,1653,951,911,620,270,1236,1486,2109,2533,3006
delta_TOTALGOLD,0,0,-43,-5,115,1008,383,431,441,-211,443,-1381,-239,493,1342,1241,1799,3723,3523,5626,6719,8074,8248,8731
delta_LEVEL,0,0,0,0,0,1,0,0,0,-1,0,-1,1,2,1,2,3,6,5,7,8,7,8,8
delta_SBIRES,0,0,-2,2,1,3,-19,-17,-21,-27,-19,-20,-12,-19,-13,-8,3,8,5,9,11,5,9,7
