name,frame_0,frame_1,frame_2,frame_3,frame_4,frame_5,frame_6,frame_7,frame_8,frame_9,frame_10,frame_11,frame_12,frame_13,frame_14,frame_15,frame_16,frame_17,frame_18,frame_19,frame_20,frame_21,frame_22,frame_23
nameStamp,Tstart,Tearly,Tearly,Tearly,Tearly,Tearly,Tearly,Tearly,Tearly,Tearly,Tearly,Tearly,Tearly,Tmid,Tmid,Tmid,Tmid,Tmid,Tmid,Tmid,Tmid,Tmid,Tmid,Tmid
timestamp,0,60020,120021,180047,240049,300050,360056,420087,480100,540132,600138,660164,720181,780196,840209,900225,960252,1020281,1080310,1140326,1200335,1260346,1320349,1380349
participant_0_GOLD,500,500,583,962,1239,2104,2467,3168,3520,4091,4479,5422,5643,6191,6506,7036,7397,7667,7893,8448,8711,8847,9241,9319
participant_0_CURRENTGOLD,500,0,83,462,739,1604,167,868,120,691,29,972,318,866,456,636,497,767,193,748,1011,1147,166,244
participant_0_LEVEL,1,1,1,3,4,5,6,7,7,8,8,9,9,10,10,11,11,11,11,12,12,12,13,13
participant_0_MINIONSKILLED,0,0,3,16,24,37,41,58,62,76,80,92,95,95,103,115,120,125,127,144,145,146,153,153
participant_0_KILLS,0,0,0,0,2,2,2,3,3,3,3,3,3,3,3,3,3,3,3,3,3,3,3,3
participant_0_BUY,[],"[1035, 2031]",[3364],[],[],[],"[3057, 3057, 3067, 1036, 1001, 2055]",[],[],"[3044, 2055]",[],[],[],"[6632, 3111]",[],[],[1037],[],[],[],[],[1053],[],[]
participant_0_SOLD,[],[],[3340],[],[],[],[],[2055],[1035],[],[2055],[],"[3364, 3513]","[3044, 3057, 3067, 1001]",[],[],[],[],[],[],[],[],[],[]
participant_0_UNDO,[],[],[],[],[],[],"[[0, 3057], [0, 1036]]",[],[],[],[],[],[],[],[],[],[],[],[],[],[],[],[],[]
participant_1_GOLD,500,500,620,1018,2016,2338,2473,3144,3395,3775,4145,4464,5195,5429,5876,5999,6311,6503,6626,6748,6871,6993,7590,7669
participant_1_CURRENTGOLD,500,0,120,518,1516,1838,98,769,1020,225,595,914,1645,379,826,949,386,578,701,823,946,168,765,844
participant_1_LEVEL,1,1,2,3,4,5,5,6,6,7,7,8,8,9,9,9,10,10,10,10,10,10,11,11
participant_1_MINIONSKILLED,0,0,0,0,0,0,0,0,1,1,1,1,3,5,5,5,5,5,5,5,5,5,5,5
participant_1_KILLS,0,0,0,0,0,0,0,0,0,0,0,0,0,0,0,0,1,2,2,2,3,4,4,4
participant_1_BUY,[],"[1082, 2031]",[],[],[],"[3070, 1001]",[],[],"[1026, 1052, 1052]",[],[],[],[],[],"[6655, 1052]",[],[],[3157],[],[],[3020],[],[1058],[]
participant_1_SOLD,[],[],[],[],[],[],[],[],[2031],[],[],[],[],[],"[1052, 1052, 1026]",[],[],[1052],[],[],[1001],[],[],[]
participant_1_UNDO,[],[],[],[],[],[],[],[],[],[],[],[],[],[],[],[],[],[],[],[],[],[],[],[]
participant_2_GOLD,500,500,562,934,1442,1823,2165,2593,3049,3291,3546,3912,4337,4829,5180,5351,5919,7118,7415,7537,8198,8866,9193,9453
participant_2_CURRENTGOLD,500,0,62,424,932,603,935,1363,149,391,646,1002,1417,1909,135,306,874,8,305,427,288,956,33,303
participant_2_LEVEL,1,1,1,3,4,5,6,6,7,7,8,8,9,10,10,10,11,11,11,11,12,13,13,13
participant_2_MINIONSKILLED,0,0,2,14,20,33,43,53,60,67,75,86,97,109,119,122,128,132,138,138,142,143,148,155
participant_2_KILLS,0,0,0,0,1,1,1,1,1,1,1,1,1,1,1,1,1,1,1,1,2,3,3,3
participant_2_BUY,[],"[1055, 2003]",[],[],[],[3134],[],[],[1001],[3009],[],[],"[1053, 2055, 2003]",[],[],[1036],[],"[6692, 3363, 2055]",[],"[1036, 1036, 2055]",[],[3134],[6676],[]
participant_2_SOLD,[],[],[],[],[],[2003],[],[],[],[1001],[],[],[2055],[],[],[],[],"[3134, 1036, 1053, 3340]","[2003, 2055]",[],[],"[1036, 1036]",[3134],[]
participant_2_UNDO,[],[],[],[],[],[],[],[],[],[],[],[],[],[],[],[],[],[],[],[],[],[],[],[]
participant_3_GOLD,500,500,562,1069,1598,1741,1885,2142,2321,2597,2987,3421,3663,3807,4178,4342,4585,5062,5495,5722,6384,7798,8213,8292
participant_3_CURRENTGOLD,500,0,62,569,1098,141,285,542,421,97,487,921,138,282,653,467,710,262,695,147,809,1823,338,417
participant_3_LEVEL,1,1,1,2,3,3,4,4,4,5,6,7,7,7,8,8,8,9,9,10,11,12,12,12
participant_3_MINIONSKILLED,0,0,2,15,22,23,24,31,34,43,56,66,70,71,82,84,87,99,109,115,123,132,145,145
participant_3_KILLS,0,0,0,0,0,1,1,2,2,2,3,4,4,5,5,5,5,5,5,5,5,5,5,5
participant_3_BUY,[],"[1055, 2003]",[],[],[],[],"[3133, 1028, 1001]",[],"[3067, 1036, 1036]",[],[3071],[],"[3044, 1037]",[],"[6029, 1028]",[3044],"[3123, 3067]",[],[3047],[],[],[],"[6630, 2055]",[]
participant_3_SOLD,[],[],[],[],[],[2003],[],[],[1028],[],"[3133, 3067, 1036]",[],[1036],[],[1037],"[1028, 1036]","[1036, 1028]",[],[1001],[],[],[],"[6029, 3067, 2055]",[]
participant_3_UNDO,[],[],[],[],[],[],[],[],[],[],[],[],"[[0, 3044]]",[],[],[],"[[0, 3044]]",[],[],[],[],[],[],[]
participant_4_GOLD,500,500,862,1422,1691,2220,2818,3007,3313,3453,3941,4237,4890,5164,5354,5636,5929,6120,6290,6430,7464,7754,8014,8104
participant_4_CURRENTGOLD,500,0,62,622,41,570,268,457,763,118,91,312,965,1239,229,111,404,95,190,256,1289,729,989,1079
participant_4_LEVEL,1,1,1,2,3,3,4,4,5,5,5,6,6,7,7,7,8,8,8,8,10,10,11,11
participant_4_MINIONSKILLED,0,0,0,1,1,1,8,9,13,13,13,13,17,21,22,25,30,30,31,31,34,34,41,41
participant_4_KILLS,0,0,1,2,2,3,4,4,4,4,4,4,4,4,4,4,4,4,4,4,5,5,5,5
participant_4_BUY,[],"[3850, 2003, 2003, 3340]",[1001],[],"[3020, 2003]",[],[3108],[],[],"[1052, 1027]",[3802],[2055],[3364],[],[6653],[1028],[],[1011],[2055],[2055],[],[1026],[],[]
participant_4_SOLD,[],[],[],"[2003, 2003]",[1001],[2003],[],[],[3850],[],"[1052, 1027]",[],"[3340, 2055]",[],"[3802, 3108]",[3851],[],[1028],[2055],[],[],[],[],[]
participant_4_UNDO,[],[],[],[],[],[],[],[],[],[],[],[],[],[],[],[],[],[],[],[],[],[],[],[]
participant_5_GOLD,500,500,541,804,1092,1214,1435,1627,1749,1921,2235,2613,2869,3326,3655,3869,4260,4551,4769,5196,5829,6052,6460,6589
participant_5_CURRENTGOLD,500,0,41,304,592,64,285,477,399,171,335,713,969,1426,165,379,770,311,529,956,814,137,545,359
participant_5_LEVEL,1,1,1,3,4,4,5,5,5,6,7,7,8,9,9,10,10,11,11,11,12,12,12,12
participant_5_MINIONSKILLED,0,0,1,9,16,16,22,26,26,29,31,39,47,62,70,75,83,83,83,91,93,93,98,99
participant_5_KILLS,0,0,0,0,1,1,1,1,2,2,4,4,5,6,6,7,7,8,8,10,11,11,11,12
participant_5_BUY,[],"[1035, 2031]",[],[],[],"[3364, 3070, 3067, 1036]",[],[1001],[],[],[],"[6630, 1029]","[3047, 1036]",[1036],[],[],"[3004, 1036, 1036]","[3133, 2055]",[],[],"[3067, 1036]","[3071, 2055]",[],[]
participant_5_SOLD,[],[],[],[],[],[3340],[],[],[],[],[1035],"[1036, 3067]","[1001, 1029, 2031]",[],[],[],"[3070, 1036, 1036]","[1036, 1036]",[2055],[],[3004],"[3133, 3067, 1036]",[2055],[]
participant_5_UNDO,[],[],[],[],[],[],[],[],[],[],[],[],[],[],[],[],[],[],[],[],[],[],[],[]
participant_6_GOLD,500,500,695,1048,2018,2148,2580,2702,3618,4056,5159,5357,5989,6778,7373,7920,8280,8794,9283,9980,10781,11139,11536,11985
participant_6_CURRENTGOLD,500,0,195,548,1518,98,530,352,1268,1706,2809,547,389,828,1423,1970,130,169,658,1355,1007,239,636,1035
participant_6_LEVEL,1,1,2,3,4,4,5,5,7,8,9,9,9,10,11,12,12,13,13,13,14,14,15,15
participant_6_MINIONSKILLED,0,0,0,0,0,0,2,2,9,9,13,14,14,20,24,24,25,28,28,29,29,29,29,29
participant_6_KILLS,0,0,0,0,0,0,0,0,0,0,0,1,1,1,1,1,1,1,1,1,1,2,2,2
participant_6_BUY,[],"[3858, 2003, 2003]",[2055],[2055],[1001],[],"[3009, 2055, 2003]",[],[],"[1028, 2055, 2003, 3364]","[3067, 2003]",[],"[1033, 1029, 2055]",[],"[3105, 2055]",[],"[3190, 2055]",[],"[3067, 2055]",[],[],"[3024, 2055]",[],[]
participant_6_SOLD,[],[],[],[2055],[2003],[2055],"[2403, 2003, 2403, 1001]","[2055, 2003]",[2403],[3340],"[2003, 1028]","[2055, 3858, 2003]",[],[],"[1033, 1029]",[2055],"[3067, 3105]",[2055],[],[2055],[3859],[],[],[]
participant_6_UNDO,[],[],[],[],[],[],[],[],[],[],[],[],[],[],[],[],[],[],[],[],[],[],[],[]
participant_7_GOLD,500,500,625,916,1544,1797,2061,2324,2513,2916,3382,3684,4107,4754,4965,5582,5954,6829,7179,7533,8021,8244,8589,8980
participant_7_CURRENTGOLD,500,0,125,416,284,227,481,744,433,826,1292,519,932,729,940,7,379,1254,704,1058,1546,49,394,655
participant_7_LEVEL,1,1,1,3,4,4,5,5,6,7,7,8,8,9,9,10,10,11,11,12,12,12,13,13
participant_7_MINIONSKILLED,0,0,6,15,20,25,30,38,42,54,64,74,87,94,99,111,118,131,135,144,152,152,161,165
participant_7_KILLS,0,1,1,1,1,2,3,3,4,4,4,5,5,6,6,9,9,12,13,13,13,14,14,16
participant_7_BUY,[],"[1055, 2003]",[],[],"[1037, 2003]",[],[],"[6670, 2003, 2055]",[],[],"[6672, 2055]",[],[1037],"[3006, 1042]",[],[],"[3086, 1042, 3363, 3085]",[],"[1038, 1018]",[],[],"[3031, 1018]",[],[]
participant_7_SOLD,[],[],[2003],[],[],[],[],[2055],[],[],"[6670, 1037]",[2003],[],[2003],[2055],[],"[1042, 3340, 1037, 3086, 1042]",[],[],[3363],[3513],"[1038, 1018]",[],[]
participant_7_UNDO,[],[],[],[],[],[],[],[],[],[],[],[],[],[],[],[],[],[],[],[],[],[],[],[]
participant_8_GOLD,500,900,976,1260,1446,2022,2914,3141,3730,4135,4390,5176,5326,6562,6974,8362,8687,9944,10620,11238,11955,12776,13003,13620
participant_8_CURRENTGOLD,500,400,476,760,21,597,1489,291,880,1285,240,1026,301,157,569,1957,57,1314,91,708,1425,146,374,970
participant_8_LEVEL,1,1,1,2,3,4,5,5,6,7,7,8,8,9,10,11,11,11,11,12,12,13,13,13
participant_8_MINIONSKILLED,0,0,3,12,15,21,33,39,51,64,72,81,83,95,108,119,121,133,139,151,165,170,176,178
participant_8_KILLS,0,0,0,0,1,1,1,1,1,1,1,1,1,2,2,2,2,2,2,2,2,2,2,2
participant_8_BUY,[],"[1056, 2003, 2003, 3340, 1055, 2003, 3340]",[],[],"[1083, 1001]",[1042],[],[],[3006],[],[],"[1043, 2055]",[],[1026],[],"[3115, 1028]",[],[],[4635],[],[],[4633],[],[]
participant_8_SOLD,[],[],[],[],[2003],[],[],[],"[1001, 1042]",[],[],[],[],[],[],"[1043, 1026]",[],[],[1028],[2055],[],"[1083, 4635]",[],[]
participant_8_UNDO,[],"[[3340, 0], [0, 2003], [0, 2003], [0, 1056]]",[],[],[],[],[],[],[],[],[],[],[],[],[],[],[],[],[],[],[],[],[],[]
participant_9_GOLD,500,600,643,809,1094,1392,1845,1979,2313,2541,2835,3452,3764,4201,4423,4746,5162,5433,5794,5955,6444,7121,7262,7532
participant_9_CURRENTGOLD,500,100,68,159,144,442,170,304,638,341,185,802,289,726,113,436,377,648,134,295,784,486,627,907
participant_9_LEVEL,1,1,1,2,2,2,3,4,4,5,5,6,6,7,7,8,8,9,9,10,10,11,11,12
participant_9_MINIONSKILLED,0,0,1,3,3,4,7,7,9,11,11,14,15,17,18,21,23,24,24,25,28,28,28,28
participant_9_KILLS,0,0,0,0,0,0,0,0,0,0,0,0,0,0,0,0,0,0,0,0,1,1,1,1
participant_9_BUY,[],"[1054, 2003, 3340]",[],[],[],"[1029, 1029, 2003]",[],[],[3076],[1028],[2031],[],[],[],"[6660, 1033, 1029, 1001]",[],[],[3105],[],[],"[3068, 2055]",[1011],[],[2055]
participant_9_SOLD,[],[],[],[],[2003],[],[],[2003],"[1029, 1029]",[],[],[],[],[],"[1028, 2031]",[],[],"[1033, 1029]",[1054],[],"[6660, 3105]",[],[2055],[]
participant_9_UNDO,[],[],[],[],[],[],[],[],[],[],[],[],[],[],[],[],[],[],"[[1054, 0]]",[],[],[],[],[]
team0_KILLS,0,0,1,2,5,7,8,10,10,10,11,12,12,13,13,13,14,15,15,15,18,20,20,20
team0_CURRENTGOLD,2500,0,389,2595,4326,4756,1753,3999,2473,1522,1848,4121,4483,4675,2299,2469,2871,1710,2084,2401,4343,4823,2291,2887
team0_TOTALGOLD,2500,2500,3189,5405,7986,10226,11808,14054,15598,17207,19098,21456,23728,25420,27094,28364,30141,32470,33719,34885,37628,40258,42251,42837
team0_LEVEL,5,5,6,13,18,21,25,27,29,32,34,38,39,43,44,45,48,49,49,51,55,57,60,60
team0_SBIRES,0,0,7,46,67,94,116,151,170,200,225,258,282,301,331,351,370,391,410,433,449,460,492,499
team1_KILLS,0,1,1,1,3,4,5,5,7,7,9,11,12,15,15,19,19,23,24,26,28,30,30,33
team1_CURRENTGOLD,2500,500,905,2187,2559,1428,2955,2168,3618,4329,4861,3607,2880,3866,3210,4749,1713,3696,2116,4372,5576,1057,2576,3926
team1_TOTALGOLD,2500,3000,3480,4837,7194,8573,10835,11773,13923,15569,18001,20282,22055,25621,27390,30479,32343,35551,37645,39902,43030,45332,46850,48706
team1_LEVEL,5,5,6,13,17,18,23,24,28,33,35,38,39,44,46,51,51,55,55,58,60,62,64,65
team1_SBIRES,0,0,11,39,54,66,94,112,137,167,191,222,246,288,319,350,370,399,409,440,467,472,492,499
delta_KILLS,0,-1,0,1,2,3,3,5,3,3,2,1,0,-2,-2,-6,-5,-8,-9,-11,-10,-10,-10,-13
delta_CURRENTGOLD,0,-500,-516,408,1767,3328,-1202,1831,-1145,-2807,-3013,514,1603,809,-911,-2280,1158,-1986,-32,-1971,-1233,3766,-285,-1039
delta_TOTALGOLD,0,-500,-291,568,792,1653,973,2281,1675,1638,1097,1174,1673,-201,-296,-2115,-2202,-3081,-3926,-5017,-5402,-5074,-4599,-5869
delta_LEVEL,0,0,0,0,1,3,2,3,1,-1,-1,0,0,-1,-2,-6,-3,-6,-6,-7,-5,-5,-4,-5
delta_SBIRES,0,0,-4,7,13,28,22,39,33,33,34,36,36,13,12,1,0,-8,1,-7,-18,-12,0,0
