name,team0,team1
win,Fail,Win
firstBlood,True,False
firstTower,True,False
firstInhibitor,False,True
firstBaron,False,True
firstDragon,False,True
firstRiftHerald,False,True
towerKills,3,7
inhibitorKills,0,1
baronKills,0,1
dragonKills,0,4
riftHeraldKills,0,1
