name,team0,team1
win,Fail,Win
firstBlood,True,False
firstTower,True,False
firstInhibitor,False,True
firstBaron,True,False
firstDragon,True,False
firstRiftHerald,False,True
towerKills,6,8
inhibitorKills,0,2
baronKills,1,0
dragonKills,3,3
riftHeraldKills,0,1
