name,frame_0,frame_1,frame_2,frame_3,frame_4,frame_5,frame_6,frame_7,frame_8,frame_9,frame_10,frame_11,frame_12,frame_13,frame_14,frame_15,frame_16,frame_17,frame_18,frame_19,frame_20,frame_21,frame_22,frame_23,frame_24,frame_25,frame_26
nameStamp,Tstart,Tearly,Tearly,Tearly,Tearly,Tearly,Tearly,Tearly,Tearly,Tearly,Tearly,Tearly,Tmid,Tmid,Tmid,Tmid,Tmid,Tmid,Tmid,Tmid,Tmid,Tmid,Tmid,Tmid,Tmid,Tmid,Tmid
timestamp,0,60027,120030,180050,240051,300074,360107,420127,480141,540167,600186,660203,720218,780241,840253,900271,960301,1020333,1080344,1140365,1200389,1260399,1320432,1380455,1440480,1500512,1560512
participant_0_GOLD,500,500,597,797,1004,1273,1438,1745,2314,2514,2813,3265,3443,3656,4153,4806,5714,5913,6176,6462,6975,8146,8290,8412,9073,9461,9719
participant_0_CURRENTGOLD,500,50,147,347,554,423,588,895,464,229,528,130,308,521,1018,1671,2579,163,426,712,1225,2396,840,262,924,1311,69
participant_0_LEVEL,1,1,1,3,4,5,5,6,7,8,8,9,9,9,10,10,11,12,12,12,13,14,14,14,14,14,15
participant_0_MINIONSKILLED,0,0,4,8,13,19,21,29,38,42,49,56,59,64,72,82,91,95,104,105,119,130,131,131,143,145,149
participant_0_KILLS,0,0,0,0,0,0,0,0,0,0,0,1,2,2,2,2,2,2,4,4,4,5,6,6,6,9,9
participant_0_BUY,[],"[2033, 3340]",[],[],[],[1052],[],[],"[1027, 1052, 3802]",[],[],[1026],[],[],[],[],"[6655, 3070]",[],"[1058, 1027]",[],[],[],[3003],[1026],[],[],[]
participant_0_SOLD,[],[],[],[],[],[],[],[],"[1052, 1027, 1052]",[],[],[],[],[],[],[],"[3802, 1026]",[3400],[],[],[],[],"[3070, 1058, 1027]",[],[],[],[]
participant_0_UNDO,[],[],[],[],[],[],[],[],[],[],[],[],[],[],[],[],[],[],[],[],[],[],[],[],[],[],[]
participant_1_GOLD,500,500,620,963,1376,1631,2159,2358,2653,3023,3335,3637,4015,4377,4685,5131,5582,5925,6122,6480,6814,7256,8254,8621,8992,9371,9566
participant_1_CURRENTGOLD,500,0,120,463,876,1131,1659,108,403,773,1085,337,715,1077,234,681,1132,1475,72,429,764,1206,2204,821,1193,272,466
participant_1_LEVEL,1,1,2,3,4,5,5,5,6,6,7,7,8,8,9,9,10,10,10,11,11,12,13,13,13,14,14
participant_1_MINIONSKILLED,0,0,0,0,0,4,4,4,4,4,4,4,4,4,4,4,8,8,8,8,10,10,11,16,22,23,23
participant_1_KILLS,0,0,0,0,0,0,1,1,1,1,1,1,1,1,1,1,1,1,1,1,1,1,3,3,3,3,3
participant_1_BUY,[],"[1035, 2031, 3340]",[],[],[],[],[],"[6660, 1033, 1029]",[],[],[],"[3105, 1001]",[],[],"[3068, 1033]",[],[],[],"[3111, 1026, 1028]",[],[],[],[],[4637],[],"[1057, 1028]",[]
participant_1_SOLD,[],[],[],[],[],[],[],[],[1035],[],[],"[1033, 1029]",[],[],"[6660, 3105]",[],"[3340, 3513]",[],"[1001, 1033]",[],[],[],[],"[1026, 1028]",[],[],[]
participant_1_UNDO,[],[],[],[],[],[],[],[],[],[],[],[],[],[],[],[],[],[],[],[],[],[],[],[],[],[],[]
participant_2_GOLD,500,500,597,825,1039,1175,1525,1888,2114,2442,2669,3061,3546,3704,4172,4344,4830,5177,5948,6196,6468,7130,7852,8106,8342,9331,9690
participant_2_CURRENTGOLD,500,0,97,325,539,240,590,943,294,612,839,381,866,1024,1492,1664,500,847,18,266,538,1200,922,326,562,1551,1940
participant_2_LEVEL,1,1,1,3,4,4,5,6,6,7,7,8,8,9,9,9,9,10,10,11,11,11,12,12,12,13,14
participant_2_MINIONSKILLED,0,0,4,10,15,16,20,32,35,44,50,50,54,56,63,66,67,72,75,78,78,82,82,86,89,96,97
participant_2_KILLS,0,0,0,1,3,3,3,3,3,4,5,6,6,7,8,13,13,14,15,16,19,20,20,21,22,22,22
participant_2_BUY,[],"[3854, 2003, 2003, 3340]",[],[],[],[],[],[],"[3134, 3133, 2003]",[],"[6691, 1001]",[],[3117],"[1036, 1036]",[],[],"[3142, 3364, 3133, 1037]",[],[],[],[],"[6333, 2420]",[],[],[3026],[3035],[]
participant_2_SOLD,[],[],[],[],[],[],[2003],[],[],[3400],"[3134, 3133]","[2003, 3400]",[1001],[],[3854],[],"[1036, 1036, 3340, 2003]",[],[],[],[],"[3133, 1037]",[],[2420],[2421],[3855],[]
participant_2_UNDO,[],[],[],[],[],[],[],[],[],[],[],[],[],[],[],[],[],[],[],[],[],[],[],[],[],[],[]
participant_3_GOLD,500,500,541,971,1464,1936,2128,2919,3303,4131,4316,5410,5628,5883,6005,7061,7403,7713,7836,8405,8647,9480,9677,10356,10955,11743,12448
participant_3_CURRENTGOLD,500,0,41,471,964,1436,78,869,1253,2081,191,1285,1503,1758,55,1111,1453,1763,96,665,907,1740,138,816,1415,2203,2248
participant_3_LEVEL,1,1,1,2,3,4,4,5,6,7,7,7,8,8,8,9,9,10,10,10,11,11,12,12,13,13,14
participant_3_MINIONSKILLED,0,0,1,8,13,21,25,36,38,48,52,62,66,74,74,76,82,86,86,95,99,108,108,111,114,119,124
participant_3_KILLS,0,0,0,0,0,0,0,0,1,1,1,1,1,1,1,1,2,2,2,2,2,3,3,3,3,3,3
participant_3_BUY,[],"[1056, 2003, 3340]",[],[],[],"[1042, 2003, 2003]",[],[],"[1043, 1001]",[1052],[],[1026],[],[],[],[],[],"[3115, 3006, 6677, 1042]",[],[],[],[],[3124],"[1036, 1036]",[],[],"[6670, 1053]"
participant_3_SOLD,[],[],[],[2003],[],[],[],[2003],"[2003, 1042]",[],[],[],[],[],[],[3400],[],"[1043, 1026, 1052, 1001]",[],[],[],[3400],"[6677, 1042]",[],[],[],"[1036, 1036]"
participant_3_UNDO,[],[],[],[],[],[],[],[],[],[],[],[],[],[],[],[],[],[],[],[],[],[],[],[],[],[],[]
participant_4_GOLD,500,500,522,1179,1942,2098,2232,2755,3020,4002,4332,5355,5645,6414,7176,9834,10131,10572,11138,11675,12588,13462,13703,14233,15057,15313,15508
participant_4_CURRENTGOLD,500,0,22,679,1442,1598,1732,2255,270,1251,281,1305,895,964,1715,4374,415,857,1423,1960,2873,1972,2213,2743,1417,383,408
participant_4_LEVEL,1,1,1,2,3,4,4,5,5,6,6,7,7,8,9,10,10,11,11,12,12,13,13,13,13,13,14
participant_4_MINIONSKILLED,0,0,0,3,4,5,5,9,9,14,14,17,19,20,25,30,33,33,33,38,38,39,39,39,40,40,40
participant_4_KILLS,0,0,0,0,0,0,0,2,3,4,4,4,4,4,4,4,4,4,4,5,5,5,5,6,6,7,8
participant_4_BUY,[],"[1055, 2003, 3340]",[],[],[],[],"[6670, 1004]",[],[],[],"[1018, 1053, 6673, 2031]",[],[],[],"[1037, 1018, 1027]",[],[],[],"[3085, 1027]",[],[],[],"[3006, 1036, 1036]",[],[],[],[]
participant_4_SOLD,[],[],[],[2010],[2003],[2010],[],[2010],[],[3400],"[1004, 6670, 1018, 1053]",[3400],[],[],[],[],[],[],"[1027, 1037, 1018, 2031, 1055]",[],[],[],[],[],[],[],[]
participant_4_UNDO,[],[],[],[],[],[],[],[],[],[],[],[],[],[],[],[],[],[],[],[],[],[],[],[],[],[],[]
participant_5_GOLD,500,500,562,906,1106,1312,1596,1837,2043,2327,2526,2649,3288,3800,4070,4241,4413,4570,4873,5442,5606,5729,6468,6611,6965,7541,7636
participant_5_CURRENTGOLD,500,0,62,406,606,162,446,687,193,477,676,99,738,50,320,491,663,370,673,1242,673,96,835,178,532,1108,453
participant_5_LEVEL,1,1,1,3,4,4,5,6,7,7,8,8,9,9,10,10,10,10,11,12,12,12,13,13,13,14,14
participant_5_MINIONSKILLED,0,0,2,12,17,21,31,38,44,53,58,58,66,70,79,82,85,87,94,102,105,105,109,110,124,134,134
participant_5_KILLS,0,0,0,0,0,0,0,0,1,1,1,1,1,2,2,3,3,4,5,5,6,7,7,7,7,7,8
participant_5_BUY,[],"[1055, 2003, 3340]",[],[],[],[],[1037],[],[],[1018],[],[],[1038],[],"[3031, 1018]","[1036, 1042]",[],[],"[6672, 1001]",[],"[3009, 1042]",[3006],[3134],[],[1036],[1018],[]
participant_5_SOLD,[],[],[],[],[2003],[],[],[],[],[],[],[],[],[],"[1038, 1037, 1018]",[],[],[],"[1036, 1042, 1018]",[],[1001],"[1001, 1042]",[],[],[],[1036],[]
participant_5_UNDO,[],[],[],[],[],[],[],[],[],[],[],[],[],[],[],[],[],[],[],[],"[[0, 3009]]",[],[],[],[],[],[]
participant_6_GOLD,500,500,620,928,1216,1393,1516,1723,2050,2173,2480,2610,2860,3097,3375,3567,3775,4367,5304,5455,5827,6170,7082,7204,7327,7499,7594
participant_6_CURRENTGOLD,500,0,120,428,716,893,116,323,650,73,380,110,360,597,875,267,475,267,204,355,727,1070,682,204,327,499,594
participant_6_LEVEL,1,1,2,2,3,3,3,4,4,5,5,5,6,7,7,7,8,9,10,10,10,11,12,12,12,12,12
participant_6_MINIONSKILLED,0,0,0,0,0,0,0,0,0,0,0,0,0,0,0,0,0,0,0,2,2,5,5,5,5,5,5
participant_6_KILLS,0,0,0,0,0,0,0,0,0,0,0,0,0,0,0,0,0,0,1,1,1,1,1,1,1,1,1
participant_6_BUY,[],"[3850, 3340, 2003, 2003]",[],[2055],[],"[1001, 2003, 2003]",[],[1028],[],[2003],[],[1052],[],[],[3916],[],[1011],[],[],"[1026, 1028]",[],[],"[3165, 1052]",[],[],[],[]
participant_6_SOLD,[],[],[],[],"[2003, 2003]",[2055],[2010],[],[],[],[],[],[],[],[1052],[3850],[1028],[],"[2010, 2010]","[2003, 2003, 2003]",[3851],[],"[1026, 3916, 1028]",[],[],[],[]
participant_6_UNDO,[],[],[],[],[],[],[],[],[],[],[],[],[],[],[],[],[],[],[],[],[],[],[],[],[],[],[]
participant_7_GOLD,500,500,611,881,1176,1438,1718,1896,2541,2713,3038,3682,3860,4586,4730,5257,5408,6725,7660,7860,8282,9550,9825,10031,10205,10388,10797
participant_7_CURRENTGOLD,500,0,111,381,666,918,313,491,1126,698,1023,1657,535,1261,180,57,208,1525,10,210,332,1101,275,481,306,133,347
participant_7_LEVEL,1,1,1,3,4,5,6,6,7,8,8,9,9,10,10,10,10,11,11,11,12,12,12,12,13,13,13
participant_7_MINIONSKILLED,0,0,5,14,21,26,33,36,46,49,61,70,73,82,83,89,91,98,102,107,107,111,116,121,125,126,127
participant_7_KILLS,0,0,0,0,0,0,0,0,0,0,0,0,0,0,0,0,0,0,0,0,0,0,0,0,0,0,0
participant_7_BUY,[],"[1055, 2003, 3340]",[],[],[],[1001],[],[],[1018],[],[],[],[],[],[1037],[],[],[3006],[],[],[],[],[],[],[1038],[],[]
participant_7_SOLD,[],[],[],[2003],[],[],[],[],[],[],[],[],[],[],[],[],[],[1001],[],[],[],[],[],[],[],[],[]
participant_7_UNDO,[],[],[],[],[],[],[],[],[],[],[],[],[],[],[],[],[],[],[],[],[],[],[],[],[],[],[]
participant_8_GOLD,500,500,520,643,794,1007,1245,1388,1621,1744,2078,2201,2365,2529,2729,2963,3132,3303,3495,3750,3886,4051,4173,4295,4476,4648,4764
participant_8_CURRENTGOLD,500,0,20,143,294,207,445,588,221,344,678,801,965,1129,454,688,857,228,420,675,811,976,1098,1220,101,273,389
participant_8_LEVEL,1,1,1,2,3,3,4,4,5,5,5,6,6,6,7,7,7,8,9,9,9,10,10,10,10,10,10
participant_8_MINIONSKILLED,0,0,0,0,2,8,12,13,16,16,25,25,28,31,35,38,43,46,46,49,50,52,52,52,55,55,56
participant_8_KILLS,0,0,0,0,0,0,0,0,0,0,0,0,0,0,0,0,0,1,2,2,2,2,4,4,4,4,4
participant_8_BUY,[],"[1039, 2031, 3340]",[],[],[],[],[1053],[],[],"[1036, 1036]",[],[3133],[],[],[],[3123],[],[6609],[1043],[],[],[],[3153],"[1029, 1001]",[],[],[]
participant_8_SOLD,[],[],[],[],[],[],[],[],[],[],[],"[1036, 1036]",[],[],[],[],[],"[3123, 3133]",[1039],[],[],[],"[1053, 1043]",[],[],[],[]
participant_8_UNDO,[],[],[],[],[],[],[],[],[],[],[],[],[],[],[],[],[],[],[],[],[],[],[],[],[],[],[]
participant_9_GOLD,500,500,542,737,952,1086,1281,1435,1629,1764,1959,2094,2242,2398,2553,2823,3043,3454,4092,4252,4455,4727,4942,5167,5380,5570,5829
participant_9_CURRENTGOLD,500,0,42,162,377,111,306,60,254,339,534,234,382,538,328,598,318,729,1367,337,540,812,142,367,580,770,969
participant_9_LEVEL,1,1,1,1,2,3,4,4,5,5,5,5,6,6,6,7,7,8,9,9,9,10,10,11,11,11,11
participant_9_MINIONSKILLED,0,0,0,0,0,0,0,0,0,0,1,1,2,4,4,4,4,5,9,9,13,17,17,22,26,26,26
participant_9_KILLS,0,0,0,0,0,0,0,0,0,0,0,0,1,1,1,1,1,1,1,2,2,2,3,3,3,3,3
participant_9_BUY,[],"[1054, 2003, 3340]",[],[],[],"[1036, 1042]",[],[],"[1001, 1028]",[],[],"[1029, 3057]",[],"[3111, 3067]",[],[],[],[3051],[],[],[3078],"[1036, 1036]",[],"[3133, 1028]",[],[],"[3067, 1036]"
participant_9_SOLD,[],[],[],[],[2003],[],[],[],[],[],[],[],[],"[1001, 1028]",[],[],[],"[1042, 1036]",[],[],"[3057, 3051, 3067]",[],[],"[1036, 1036]",[],[],[1028]
participant_9_UNDO,[],[],[],[],[],[],[],[],[],[],[],"[[0, 1029]]",[],[],[],[],[],[],[],[],[],[],[],[],[],[],[]
team0_KILLS,0,0,0,1,3,3,4,6,8,10,11,13,14,15,16,21,22,23,26,28,31,34,37,39,40,44,45
team0_CURRENTGOLD,2500,50,427,2285,4375,4828,4647,5070,2684,4946,2924,3438,4287,5344,4514,9501,6079,5105,2035,4032,6307,8514,6317,4968,5511,5720,5131
team0_TOTALGOLD,2500,2500,2877,4735,6825,8113,9482,11665,13404,16112,17465,20728,22277,24034,26191,31176,33660,35300,37220,39218,41492,45474,47776,49728,52419,55219,56931
team0_LEVEL,5,5,6,13,18,22,23,27,30,34,35,38,40,42,45,47,49,53,53,56,58,61,64,64,65,67,71
team0_SBIRES,0,0,9,29,45,65,75,110,124,152,169,189,202,218,238,258,281,294,306,324,344,369,371,383,408,423,433
team1_KILLS,0,0,0,0,0,0,0,0,1,1,1,1,2,3,3,4,4,6,9,10,11,12,15,15,15,15,16
team1_CURRENTGOLD,2500,0,355,1520,2659,2291,1626,2149,2444,1931,3291,2901,2980,3575,2157,2101,2521,3119,2674,2819,3083,4055,3032,2450,1846,2783,2752
team1_TOTALGOLD,2500,2500,2855,4095,5244,6236,7356,8279,9884,10721,12081,13236,14615,16410,17457,18851,19771,22419,25424,26759,28056,30227,32490,33308,34353,35646,36620
team1_LEVEL,5,5,6,11,16,18,22,24,28,30,31,33,36,38,40,41,42,46,50,51,52,55,57,58,59,60,60
team1_SBIRES,0,0,7,26,40,55,76,87,106,118,145,154,169,187,201,213,223,236,251,269,277,290,299,310,335,346,348
delta_KILLS,0,0,0,1,3,3,4,6,7,9,10,12,12,12,13,17,18,17,17,18,20,22,22,24,25,29,29
delta_CURRENTGOLD,0,50,72,765,1716,2537,3021,2921,240,3015,-367,537,1307,1769,2357,7400,3558,1986,-639,1213,3224,4459,3285,2518,3665,2937,2379
delta_TOTALGOLD,0,0,22,640,1581,1877,2126,3386,3520,5391,5384,7492,7662,7624,8734,12325,13889,12881,11796,12459,13436,15247,15286,16420,18066,19573,20311
delta_LEVEL,0,0,0,2,2,4,1,3,2,4,4,5,4,4,5,6,7,7,3,5,6,6,7,6,6,7,11
delta_SBIRES,0,0,2,3,5,10,-1,23,18,34,24,35,33,31,37,45,58,58,55,55,67,79,72,73,73,77,85
