name,team0,team1
win,Fail,Win
firstBlood,False,True
firstTower,False,True
firstInhibitor,False,True
firstBaron,False,False
firstDragon,True,False
firstRiftHerald,False,True
towerKills,3,10
inhibitorKills,0,1
baronKills,0,0
dragonKills,1,4
riftHeraldKills,0,1
