name,team0,team1
win,Fail,Win
firstBlood,True,False
firstTower,True,False
firstInhibitor,False,True
firstBaron,False,True
firstDragon,False,True
firstRiftHerald,False,False
towerKills,8,10
inhibitorKills,1,3
baronKills,1,1
dragonKills,2,4
riftHeraldKills,0,0
