name,team0,team1
win,Win,Fail
firstBlood,False,True
firstTower,False,True
firstInhibitor,True,False
firstBaron,False,True
firstDragon,False,True
firstRiftHerald,False,True
towerKills,10,5
inhibitorKills,1,0
baronKills,1,1
dragonKills,3,2
riftHeraldKills,0,1
