name,team0,team1
win,Win,Fail
firstBlood,True,False
firstTower,True,False
firstInhibitor,True,False
firstBaron,True,False
firstDragon,False,True
firstRiftHerald,False,True
towerKills,8,3
inhibitorKills,1,0
baronKills,2,0
dragonKills,3,2
riftHeraldKills,0,1
