name,frame_0,frame_1,frame_2,frame_3,frame_4,frame_5,frame_6,frame_7,frame_8,frame_9,frame_10,frame_11,frame_12,frame_13,frame_14,frame_15,frame_16,frame_17,frame_18,frame_19,frame_20,frame_21,frame_22,frame_23,frame_24,frame_25,frame_26,frame_27
nameStamp,Tstart,Tearly,Tearly,Tearly,Tearly,Tearly,Tearly,Tearly,Tearly,Tearly,Tearly,Tearly,Tearly,Tearly,Tearly,Tearly,Tearly,Tmid,Tmid,Tmid,Tmid,Tmid,Tmid,Tmid,Tmid,Tmid,Tmid,Tend
timestamp,0,60000,120020,180052,240069,300105,360137,420145,480174,540207,600212,660243,720275,780277,840306,900332,960360,1020371,1080403,1140416,1200447,1260460,1320460,1380472,1440497,1500524,1560553,1620553
participant_0_GOLD,500,500,597,1246,1453,1778,2048,2397,2833,3033,3381,3824,4080,4426,4770,4938,5061,5591,5964,6334,6456,6589,7008,7130,7315,7612,7749,7861
participant_0_CURRENTGOLD,500,0,97,746,298,623,893,1242,1678,1878,2226,2669,225,571,915,83,206,736,44,414,461,594,1013,85,270,347,84,-64
participant_0_LEVEL,1,1,1,3,3,4,5,6,7,7,8,9,9,10,10,10,10,11,12,12,12,12,12,12,13,13,13,13
participant_0_MINIONSKILLED,0,0,4,11,16,24,32,42,57,61,71,86,90,103,112,117,117,133,143,154,154,155,164,164,168,174,175,175
participant_0_KILLS,0,0,0,0,0,1,1,2,3,4,4,4,5,5,5,5,5,5,6,6,7,7,7,7,7,7,8,9
participant_0_BUY,[],"[1055, 2003, 3340]",[],[],[],"[1053, 2055, 2003]",[],[],"[1043, 1001, 1042]","[3144, 2003]",[],[],[],"[3153, 3006, 2003, 2055]",[],"[1052, 1042]",[],[1042],[],[1043],"[3124, 3363]",[],[],[],"[1038, 1036]",[],[3123],[]
participant_0_SOLD,[],[],[],[],[2003],[],[2055],[2003],[],[1053],[],[],[2003],"[3144, 1043, 1001, 1042]","[2055, 2003]",[],[],[],[],"[1042, 1042]","[1055, 1052, 1043, 3340]",[],[],[],[],[],[1036],[]
participant_0_UNDO,[],[],[],[],[],[],[],[],[],[],[],[],[],[],[],[],[],[],[],[],[],[],[],[],[],[],[],[]
participant_1_GOLD,500,500,620,963,1483,1895,2238,3000,3122,3345,3757,4350,4607,5091,5449,5571,6070,6276,6889,7182,7819,8042,8192,8314,9057,9390,9694,9877
participant_1_CURRENTGOLD,500,0,120,463,983,45,388,1150,47,270,682,175,432,216,574,296,795,301,914,507,744,967,317,439,1182,415,720,202
participant_1_LEVEL,1,1,2,3,3,4,5,6,6,6,7,7,8,8,9,9,9,10,10,11,12,12,12,12,12,13,13,13
participant_1_MINIONSKILLED,0,0,0,0,0,0,0,0,0,0,0,0,0,2,2,2,3,4,5,5,5,5,7,7,7,7,8,8
participant_1_KILLS,0,0,0,0,0,0,0,0,0,0,0,0,0,0,0,0,0,0,0,0,0,0,0,0,0,0,0,0
participant_1_BUY,[],"[3850, 2003, 2003, 3340]",[],[],[],"[1052, 2055]",[],[],[1052],[3113],[],[],[],[],"[3108, 1001]","[3364, 3905]",[],[],[],[3158],[],[],[],[],[3114],"[1004, 1004]",[],[]
participant_1_SOLD,[],[],[],[],[2003],[2055],[2003],[],[],[1052],[],[],[],[],[1052],"[3850, 3340, 3108, 3113]",[],[],[],[1001],[],[],[],[],[],[],[],[]
participant_1_UNDO,[],[],[],[],[],[],[],[],[],[],[],[],[],[],[],[],[],[],[],[],[],[],[],[],[],[],[],[]
participant_2_GOLD,500,500,541,734,1358,1669,1805,2427,2702,2825,3038,3978,4199,4492,4885,5203,5496,6382,6740,7745,8716,8956,9178,9377,10779,11040,11259,11875
participant_2_CURRENTGOLD,500,0,41,234,857,299,85,102,377,499,713,1653,174,467,859,1178,296,1182,705,1710,516,756,978,1177,1329,480,700,75
participant_2_LEVEL,1,1,1,3,4,5,5,6,6,7,7,8,8,9,9,10,10,11,11,12,12,13,13,13,14,14,14,15
participant_2_MINIONSKILLED,0,0,1,5,8,16,17,26,32,32,38,47,53,54,66,74,80,84,89,95,101,104,109,114,117,121,122,127
participant_2_KILLS,0,0,0,0,1,1,1,2,2,2,2,3,3,4,4,4,4,4,5,5,5,5,5,5,6,6,6,6
participant_2_BUY,[],"[1039, 2031, 3340]",[],[],[],"[3706, 1036, 1036]",[],[],"[1400, 1001]",[],[],[3133],[],"[1036, 1036]",[],[3134],[],[3147],[],"[1036, 1036]",[3133],[],[3047],[],[],[3134],[],[3142]
participant_2_SOLD,[],[],[],[],[],[1039],[],[],"[1036, 1036, 3706]",[],[],[],[],[],[],"[1036, 1036]",[],"[3134, 3133]",[],[],"[1036, 1036]",[],[1001],[],[],[],[],"[3133, 3134]"
participant_2_UNDO,[],[],[],[],[],[],[],[],[],[],[],[],[],[],[],[],[],[],[],[],[],[],[],[],[],[],[],[]
participant_3_GOLD,500,500,597,930,1158,1630,1816,2524,3190,3933,4202,4458,5106,5355,5779,6174,6360,6608,7318,7441,8223,8485,8977,9316,9852,10129,10768,11405
participant_3_CURRENTGOLD,500,0,97,430,658,105,291,999,65,58,327,583,1231,155,579,239,425,373,1083,806,103,366,857,1196,82,360,548,1005
participant_3_LEVEL,1,1,1,2,3,3,4,5,6,7,7,8,8,8,9,9,9,9,10,10,11,11,12,12,13,13,13,14
participant_3_MINIONSKILLED,0,0,4,16,22,23,26,33,40,40,49,57,64,68,82,94,98,101,109,109,117,125,139,142,145,150,157,159
participant_3_KILLS,0,0,0,0,1,1,1,2,2,2,2,3,3,3,3,3,3,4,4,5,7,7,7,7,9,9,9,10
participant_3_BUY,[],"[1056, 2003, 3340, 2003]",[],[],"[1027, 1052]","[1052, 1052]",[1082],"[3802, 2003, 2003, 2055]",[],[],[],[],"[1026, 3020, 2003]",[3363],[],[],"[3285, 2003, 2055]",[],"[1028, 1052]",[],[3165],[],[],[],[1058],[1058],[],[3089]
participant_3_SOLD,[],[],[],"[2003, 2003]",[],[],[],"[1052, 1052]",[2003],[],[2055],[2003],[2422],[3340],[2003],[],"[3802, 1026, 2055]",[2003],[],[],"[1028, 1052]",[],[],[],[],[1082],[],"[1058, 1058]"
participant_3_UNDO,[],[],[],[],"[[0, 1052]]","[[0, 1027]]",[],[],[],[],[],[],[],[],[],[],[],[],[],[],[],[],[],[],[],[],[],[]
participant_4_GOLD,500,500,522,747,993,1277,1427,1680,1844,1979,2113,2355,2764,2956,3136,3286,3452,3672,3827,3968,4138,4289,4457,4685,4893,5054,5225,5449
participant_4_CURRENTGOLD,500,0,22,247,493,267,417,670,399,119,253,495,904,1096,511,11,177,397,552,93,263,414,582,810,218,130,300,524
participant_4_LEVEL,1,1,1,2,3,3,3,4,4,4,5,6,6,7,7,7,8,8,9,9,9,9,10,10,10,11,11,12
participant_4_MINIONSKILLED,0,0,0,1,2,2,2,3,3,3,3,7,7,9,9,9,10,10,10,10,11,12,14,16,16,17,18,18
participant_4_KILLS,0,0,0,1,1,1,1,1,1,1,1,1,1,1,1,1,1,1,1,1,1,1,1,1,1,1,1,1
participant_4_BUY,[],"[1055, 2003, 3340]",[],[],"[1055, 2031, 2055]",[],[],[],[],[],[],[],"[3144, 3047]",[],[],[1043],[3363],[],"[3153, 2055, 1036]",[],[2055],[],[],"[3044, 2055, 2055]",[],[1028],[3067],[]
participant_4_SOLD,[],[],[],[],[2003],[],[],[],[],[],[],[],[2055],[],[],[],[3340],[],"[3144, 1043, 2031]",[],[],[2055],[2055],[1036],[],[1055],[1028],[]
participant_4_UNDO,[],[],[],[],[],[],[],[],[],[],[],[],[],[],[],[],[],[],[],[],[],[],[],[],[],[],[],[]
participant_5_GOLD,500,500,520,911,1117,1485,1775,2020,2295,2720,2997,3369,3961,4188,4799,5672,5893,6239,6538,7254,7815,7938,8290,8615,9132,9254,9844,10193
participant_5_CURRENTGOLD,500,0,20,411,217,585,875,20,295,720,997,1369,1961,338,949,1822,243,589,188,904,115,238,590,916,232,355,944,1293
participant_5_LEVEL,1,1,1,2,3,4,5,6,6,7,8,9,9,10,10,10,11,11,12,12,13,13,13,13,14,14,15,15
participant_5_MINIONSKILLED,0,0,0,8,12,24,33,38,44,59,68,79,88,94,105,105,108,117,125,138,142,142,151,153,155,155,158,162
participant_5_KILLS,0,0,0,1,1,1,1,3,3,3,3,4,4,4,4,4,4,7,7,7,8,8,8,8,10,10,10,10
participant_5_BUY,[],"[3340, 2031, 1041]",[],[],"[3706, 2055]",[],[],[],"[3133, 1001]",[],"[1400, 2055, 2055]",[3047],[],[],[],[],[],[],"[3179, 3142, 2055, 2055]",[],[],"[3052, 2055]",[],[],"[3053, 2055]",[],[],[]
participant_5_SOLD,[],[],[],[],[1041],[2055],[],[],[],[],"[3133, 3706]",[1001],[],[2055],"[3340, 3513]",[],[],[2055],[],[],"[2055, 3340]",[2031],[2055],[3513],[3052],[2055],[],[]
participant_5_UNDO,[],[],[],[],[],[],[],[],[],[],[],[],[],[],[],[],[],[],"[[0, 3179]]",[],[],[],[],[],[],[],[],[]
participant_6_GOLD,500,500,725,1248,1371,1570,1883,2605,2812,3322,3726,4171,4483,4631,5123,5560,6052,7254,7576,8042,8658,9067,9345,9732,10566,10688,11282,11574
participant_6_CURRENTGOLD,500,0,225,748,146,345,658,1380,187,697,426,71,383,531,1023,1460,1952,3154,426,892,1508,702,980,1367,126,249,842,1074
participant_6_LEVEL,1,1,2,3,3,3,4,5,5,6,7,7,8,8,8,9,9,10,11,11,12,12,13,13,14,14,15,15
participant_6_MINIONSKILLED,0,0,0,0,0,0,0,0,0,0,0,1,1,2,3,4,4,4,4,9,10,18,20,21,21,21,23,24
participant_6_KILLS,0,0,0,0,1,1,1,1,4,4,4,4,4,5,5,5,5,6,6,6,6,7,7,9,9,10,11,11
participant_6_BUY,[],"[1036, 2031, 3340]",[],[],[1036],"[1001, 1006, 1001, 1006]",[],"[3077, 1036]",[],"[3134, 1036, 1036]",[],"[3133, 1028]",[],"[3147, 2055, 3364]",[],[],"[3044, 2055]",[],[],"[3067, 3111]",[],[],"[3071, 2055]",[],[3052],[],[],"[3053, 2055]"
participant_6_SOLD,[],[],[],[],[],[],[],"[1036, 1006, 1036]",[],[1036],[],"[1036, 1036]",[],"[3134, 3133, 3340]",[2055],[],[1028],[],[],"[2031, 2055, 1001]",[],[2055],"[3044, 3067]",[],[],[],[],"[2055, 3052]"
participant_6_UNDO,[],[],[],[],[],"[[0, 1006], [0, 1001]]",[],[],[],[],[],[],[],[],[],[],[],[],[],"[[2055, 0]]",[],[],[],[],[],[],[],[]
participant_7_GOLD,500,500,611,948,1427,1647,2025,2196,3585,3839,4265,4551,4750,5284,5704,6074,6474,7207,7564,7841,7964,8516,8943,9887,10106,10809,11725,11988
participant_7_CURRENTGOLD,500,0,111,448,577,347,725,71,1460,264,690,176,375,134,554,924,399,1132,1489,226,349,901,303,1247,266,969,1886,-17
participant_7_LEVEL,1,1,1,3,4,5,6,6,8,8,9,9,9,10,10,11,11,12,12,13,13,13,13,14,14,14,15,15
participant_7_MINIONSKILLED,0,0,5,14,18,24,36,39,48,55,70,71,76,81,95,105,109,121,122,128,128,130,130,133,133,134,138,138
participant_7_KILLS,0,0,0,0,0,0,0,0,0,0,0,0,0,0,0,2,2,2,2,2,3,3,3,3,3,3,3,3
participant_7_BUY,[],"[3340, 2033]",[],[],[1028],[],[],"[3751, 1001, 1029]",[],[],[],[],[],"[3068, 1029]",[],[],"[3111, 3076, 1029]",[],[3082],[],"[3075, 1033]",[],[],[],"[3211, 1033]",[],[],[]
participant_7_SOLD,[],[],[],[2010],[],[],[],[1028],[],[],[],[],[],"[1029, 3751]",[],"[2010, 2010]","[1001, 1029]",[],[1029],[],"[3076, 3082]",[],[],[],[1033],[],[],[]
participant_7_UNDO,[],[],[],[],[],[],[],[],[],[],[],[],[],[],[],[],[],[],[],[],[],[],[],[],[],[],[],[]
participant_8_GOLD,500,500,583,860,1039,1482,1843,2278,2658,3589,4008,4310,4741,5351,5660,6041,6696,6854,8112,8649,9284,9945,10318,10710,11929,12300,13127,13673
participant_8_CURRENTGOLD,500,0,83,360,539,132,493,278,658,1589,2008,60,491,1101,509,891,1546,4,1262,1799,884,1545,118,510,1729,1000,1828,2373
participant_8_LEVEL,1,1,1,2,3,3,4,5,6,6,7,7,8,9,9,10,10,10,11,12,12,13,13,14,14,14,15,16
participant_8_MINIONSKILLED,0,0,3,12,16,17,28,37,49,54,68,75,90,98,105,116,129,131,135,138,142,159,165,171,177,178,181,187
participant_8_KILLS,0,0,0,0,0,1,1,1,1,1,1,1,1,1,1,1,1,1,1,1,1,1,1,1,1,1,1,1
participant_8_BUY,[],"[3862, 2003, 2003]",[],[],[],[2015],"[2003, 2003]",[1042],[1001],[],[],[],[],[],[],"[3086, 2031]",[],[],"[3094, 3364, 3020]",[],[],"[1028, 1036]",[],[],[],"[3052, 1028]",[],[1011]
participant_8_SOLD,[],[],[],"[2003, 2003]",[2010],[2010],[],"[2003, 2003]",[],[],[],"[2419, 2010]",[],[],[],"[1042, 3862]",[],[],"[3086, 2015, 2031, 3340, 1001]",[],[2423],[],[],[],[3863],"[1036, 1028]",[],"[1028, 2424, 2424]"
participant_8_UNDO,[],[],[],[],[],[],[],[],[],[],[],[],[],[],[],[],[],[],[],[],[],[],[],[],[],[],[],"[[2424, 0], [2424, 0]]"
participant_9_GOLD,500,500,522,702,897,1361,1496,1875,2009,2230,2394,2544,2703,3007,3172,3308,3743,4254,4479,4733,5122,5292,5440,5915,6257,6618,7169,7448
participant_9_CURRENTGOLD,500,0,22,202,397,161,196,275,109,330,494,644,803,1107,1272,158,593,1104,89,343,732,152,300,775,1117,628,1179,718
participant_9_LEVEL,1,1,1,2,3,3,4,4,5,6,6,6,6,7,7,7,7,9,9,9,10,10,10,11,11,12,13,13
participant_9_MINIONSKILLED,0,0,0,0,0,0,0,0,0,4,5,5,6,6,7,7,7,12,14,15,15,16,16,19,20,24,24,24
participant_9_KILLS,0,0,0,0,0,1,1,1,1,3,3,3,3,4,4,4,4,4,7,8,9,10,10,10,13,13,13,13
participant_9_BUY,[],"[1055, 2003, 3340]",[],[],[],[3070],[],"[1001, 1027]",[],[],[],"[3004, 3057]",[],[],"[3158, 1029, 3363]",[],[],"[3025, 1036]",[],[],"[3144, 1042]",[],"[3153, 1052, 1028]",[],[],[3136],[],[]
participant_9_SOLD,[],[],[],[],[],[2003],[],[],[],[],[],"[3070, 1027]",[],[],"[1001, 3340]",[],[],"[3057, 1029]",[3004],[],[1036],[],"[3144, 1042]",[],[],[1028],[],[]
participant_9_UNDO,[],[],[],[],[],[],[],[],[],[],[],[],[],[],[],[],[],[],[],[],[],[],"[[0, 1052]]",[],[],[],[],[]
team0_KILLS,0,0,0,1,3,4,4,7,8,9,9,11,12,13,13,13,13,14,16,17,20,20,20,20,23,23,24,26
team0_CURRENTGOLD,2500,0,377,2120,3289,1339,2074,4163,2566,2824,4201,5575,2966,2505,3438,1807,1899,2989,3298,3530,2087,3097,3747,3707,3081,1732,2352,1742
team0_TOTALGOLD,2500,2500,2877,4620,6445,8249,9334,12028,13691,15115,16491,18965,20756,22320,24019,25172,26439,28529,30738,32670,35352,36361,37812,38822,41896,43225,44695,46467
team0_LEVEL,5,5,6,13,16,19,22,27,29,31,34,38,39,42,44,45,46,49,52,54,56,57,59,59,62,64,64,67
team0_SBIRES,0,0,9,33,48,65,77,104,132,136,161,197,214,236,271,296,308,332,356,373,388,401,433,443,453,469,480,487
team1_KILLS,0,0,0,1,2,4,4,6,9,11,11,12,12,14,14,16,16,20,23,24,27,29,29,31,36,37,38,38
team1_CURRENTGOLD,2500,0,461,2169,1876,1570,2947,2024,2709,3600,4615,2320,4013,3211,4307,5255,4733,5983,3454,4164,3588,3538,2291,4815,3470,3201,6679,5441
team1_TOTALGOLD,2500,2500,2961,4669,5851,7545,9022,10974,13359,15700,17390,18945,20638,22461,24458,26655,28858,31808,34269,36519,38843,40758,42336,44859,47990,49669,53147,54876
team1_LEVEL,5,5,6,12,16,18,23,26,30,33,37,38,40,44,44,47,48,52,55,57,60,61,62,65,67,68,73,74
team1_SBIRES,0,0,8,34,46,65,97,114,141,172,211,231,261,281,315,337,357,385,400,428,437,465,482,497,506,512,524,535
delta_KILLS,0,0,0,0,1,0,0,1,-1,-2,-2,-1,0,-1,-1,-3,-3,-6,-7,-7,-7,-9,-9,-11,-13,-14,-14,-12
delta_CURRENTGOLD,0,0,-84,-49,1413,-231,-873,2139,-143,-776,-414,3255,-1047,-706,-869,-3448,-2834,-2994,-156,-634,-1501,-441,1456,-1108,-389,-1469,-4327,-3699
delta_TOTALGOLD,0,0,-84,-49,594,704,312,1054,332,-585,-899,20,118,-141,-439,-1483,-2419,-3279,-3531,-3849,-3491,-4397,-4524,-6037,-6094,-6444,-8452,-8409
delta_LEVEL,0,0,0,1,0,1,-1,1,-1,-2,-3,0,-1,-2,0,-2,-2,-3,-3,-3,-4,-4,-3,-6,-5,-4,-9,-7
delta_SBIRES,0,0,1,-1,2,0,-20,-10,-9,-36,-50,-34,-47,-45,-44,-41,-49,-53,-44,-55,-49,-64,-49,-54,-53,-43,-44,-48
