name,frame_0,frame_1,frame_2,frame_3,frame_4,frame_5,frame_6,frame_7,frame_8,frame_9,frame_10,frame_11,frame_12,frame_13,frame_14,frame_15,frame_16,frame_17,frame_18,frame_19,frame_20,frame_21,frame_22,frame_23,frame_24,frame_25,frame_26,frame_27,frame_28,frame_29,frame_30,frame_31,frame_32,frame_33,frame_34,frame_35,frame_36,frame_37,frame_38,frame_39,frame_40,frame_41,frame_42,frame_43
nameStamp,Tstart,Tearly,Tearly,Tearly,Tearly,Tearly,Tearly,Tearly,Tearly,Tearly,Tearly,Tearly,Tearly,Tearly,Tearly,Tearly,Tearly,Tmid,Tmid,Tmid,Tmid,Tmid,Tmid,Tmid,Tmid,Tmid,Tmid,Tmid,Tmid,Tmid,Tmid,Tmid,Tmid,Tmid,Tmid,Tmid,Tmid,Tmid,Tmid,Tmid,Tmid,Tmid,Tmid,Tend
timestamp,0,60006,120007,180033,240048,300079,360098,420103,480127,540170,600171,660183,720213,780218,840219,900244,960253,1020285,1080302,1140309,1200314,1260334,1320343,1380358,1440391,1500411,1560415,1620429,1680439,1740471,1800477,1860487,1920491,1980515,2040524,2100525,2160536,2220568,2280573,2340604,2400606,2460622,2520624,2580635
participant_0_GOLD,500,500,555,913,1092,1441,1585,1749,2185,2385,3012,3426,3822,4237,4618,4978,5300,5624,5816,6358,6480,7301,7494,8333,8648,8911,9258,9479,9931,10269,10600,10822,10944,11192,11697,12279,12779,12998,13448,13641,14234,14560,14724,14846
participant_0_CURRENTGOLD,500,0,55,413,592,131,110,274,710,175,802,351,747,1162,1543,1903,575,899,1091,1633,70,891,469,58,373,636,284,504,306,645,975,248,370,617,33,615,1115,84,534,727,20,346,510,632
participant_0_LEVEL,1,1,1,3,4,5,5,5,6,6,8,8,9,9,10,10,11,11,11,12,12,12,12,13,13,13,14,14,14,15,15,15,15,15,16,16,17,17,17,17,18,18,18,18
participant_0_MINIONSKILLED,0,0,2,13,16,21,22,25,35,39,48,53,66,74,85,95,103,111,115,123,123,130,131,134,136,142,142,147,148,151,155,155,155,155,169,175,183,186,188,192,193,198,201,201
participant_0_KILLS,0,0,0,0,0,0,0,0,0,0,1,1,1,1,1,1,1,1,1,2,2,3,3,5,5,5,5,5,6,6,6,6,6,6,6,7,7,7,8,8,9,9,9,9
participant_0_BUY,[],"[1056, 2003, 3340, 2003]",[],[],[],"[1029, 1052, 2055]",[3191],[],[],"[1052, 1001]",[],[3802],[],[],[],[],"[1026, 3020]",[],[],[],"[6655, 1052]",[],[3145],[1058],[],[],[4628],[],[2420],[],[],[3157],[],[],[1058],[],[],[1058],[],[],[3089],[],[],[]
participant_0_SOLD,[],[],[],[],[2003],[],"[2003, 1052, 1029]",[],[],[],[],[1052],[2055],[],[],[],[1001],[],[],[],"[3802, 1026]",[],[1052],[],[],[],"[1058, 3145]",[],[],[],[],"[2420, 3191, 2421]",[],[],[1056],[],[],[],[],[],"[1058, 1058]",[],[],[]
participant_0_UNDO,[],[],[],[],[],[],[],[],[],[],[],[],[],[],[],[],[],[],[],[],[],[],[],[],[],[],[],[],[],[],[],[],[],[],[],[],[],[],[],[],[],[],[],[]
participant_1_GOLD,500,500,660,1013,1403,1971,2179,2355,2662,3320,3653,3861,4621,5138,5435,5645,5866,5988,6201,6762,7196,7610,7918,8056,8473,8751,8873,9292,9673,10210,10493,10615,11169,11292,11521,11841,12050,12314,12436,12972,13226,14565,14687,14879
participant_1_CURRENTGOLD,500,0,160,513,903,1471,1679,1855,362,1020,1353,86,846,238,535,345,566,303,516,1077,1511,1925,33,171,588,866,188,607,688,1226,368,490,1045,267,497,217,425,690,812,48,302,140,188,380
participant_1_LEVEL,1,1,2,3,4,5,5,5,6,6,7,7,8,8,9,9,9,9,9,10,11,11,12,12,12,12,12,13,13,14,14,14,15,15,15,15,15,16,16,16,16,17,17,17
participant_1_MINIONSKILLED,0,0,0,0,0,5,5,5,5,5,5,5,7,7,7,7,9,9,10,11,11,11,11,11,13,14,14,14,23,27,33,33,44,44,45,45,45,46,46,54,58,73,73,73
participant_1_KILLS,0,0,0,0,0,0,0,0,0,0,0,0,0,0,1,1,2,2,2,2,2,2,2,3,3,3,5,5,5,5,5,6,6,8,8,9,10,10,10,10,11,11,11,11
participant_1_BUY,[],"[1055, 2003, 3340]",[],[],[],[],[],[],"[6670, 1018, 2003, 2003]",[],[],[],[1037],[],[],"[6672, 2015, 1018, 1042]",[],"[3086, 1042]",[],[2015],[],[],[],[],"[3094, 3006, 1038]",[1042],[3006],[],[1018],[],[],[],[3031],[],[3123],[],[3086],[],[3033],[1036],[1053],[],[],[]
participant_1_SOLD,[],[],[],[],[],[2010],[2010],[2010],[2003],[],[],[],[],[],"[2003, 2003]","[6670, 1018, 1037]",[],"[1018, 1042]",[],[1042],[],[],[],[],"[3086, 2015, 2422]",[],"[1042, 2422]",[],[],[],[],[],"[1038, 1018]",[],[],[],[1055],[],"[3123, 3086]",[],[1036],[],[],[]
participant_1_UNDO,[],[],[],[],[],[],[],[],[],[],[],[],[],[],[],"[[0, 2015]]",[],[],[],[],[],[],[],[],"[[0, 3006]]",[],[],[],[],[],[],[],[],[],[],[],[],[],[],[],[],[],[],[]
participant_2_GOLD,500,500,625,832,1081,1420,1756,1962,2321,3161,3444,3688,4030,4290,4584,4776,5115,5342,5479,7101,7467,7893,8066,8423,9113,9518,9715,10122,10413,11692,11963,12186,12635,12989,13301,13998,14137,14692,15163,15606,16028,16450,16740,17162
participant_2_CURRENTGOLD,500,0,125,332,231,560,886,42,391,1231,364,608,950,810,1094,1286,1625,1852,114,1736,2102,2528,226,583,123,528,435,843,1133,2412,2684,406,856,1210,421,1119,407,963,1434,1876,1499,1921,2211,233
participant_2_LEVEL,1,1,1,3,4,5,5,6,6,7,8,8,9,9,9,10,10,11,11,11,12,12,12,12,13,13,13,14,14,14,15,15,15,16,16,16,16,17,17,17,18,18,18,18
participant_2_MINIONSKILLED,0,0,6,11,19,29,38,43,54,57,67,73,77,77,83,87,96,102,103,103,113,122,122,127,130,139,139,148,151,158,161,161,172,182,184,184,186,200,203,213,213,213,219,219
participant_2_KILLS,0,0,0,0,0,1,1,1,1,2,2,2,3,4,4,4,4,4,4,4,4,4,4,4,4,4,4,4,4,4,4,4,4,4,4,4,4,4,4,4,4,5,5,5
participant_2_BUY,[],"[1035, 2003, 2031, 3340]",[],[],[],[],[],[],"[3134, 1036, 1036]",[],[],"[6691, 2055]",[],"[3145, 2055]",[],[1028],[],"[3134, 1001]",[],[],[],[],"[6676, 1042]",[],[],[],"[3006, 1042]",[],[1042],[],"[3086, 1042]",[],[],[3046],[],[1018],[],[],[],[1038],[],[3031],[2055],[]
participant_2_SOLD,[],[],[],[],[],[],[],[],[1035],[],[],"[3134, 1036, 1036]",[],"[2055, 3340]",[],[],"[2055, 3513]","[3145, 1028]",[2031],[],[3340],[],[3134],[],[3513],[],"[1001, 1042]",[],[],[],"[1042, 2031]",[],[],"[1042, 3086, 1042]",[],[],[],[],[],[],[],"[1038, 1018]",[],[]
participant_2_UNDO,[],"[[0, 2003]]",[],[],[],[],[],[],[],[],[],[],[],[],[],[],[],[],"[[2031, 0]]",[],[],[],[],[],[],[],[],[],[],[],[],[],[],[],[],[],[],[],[],[],[],[],[],[]
participant_3_GOLD,500,500,562,832,1218,1487,1914,2406,2549,2988,3238,3695,3901,4240,4821,4943,5522,5763,5991,6245,6661,6933,7308,8107,8244,8493,9386,9509,9756,10003,10273,10829,10951,11982,12209,12752,13218,13572,13859,14128,14742,14914,15148,15320
participant_3_CURRENTGOLD,500,0,62,332,718,987,1414,1906,49,488,738,1195,526,865,1446,43,622,263,491,345,761,1033,1408,2207,244,193,586,709,356,604,873,1429,52,1082,510,1053,498,853,440,359,423,595,829,1001
participant_3_LEVEL,1,1,1,2,3,4,4,5,5,6,6,7,7,8,8,8,9,10,10,10,11,11,11,12,12,13,13,13,13,13,14,14,14,15,15,15,16,16,16,16,17,17,17,17
participant_3_MINIONSKILLED,0,0,2,11,24,29,45,57,58,63,67,83,88,101,106,106,113,120,120,124,138,141,145,149,150,154,155,155,158,161,163,168,168,172,178,179,181,185,186,191,194,194,196,196
participant_3_KILLS,0,0,0,0,0,0,0,0,0,2,2,2,2,2,2,2,2,2,2,4,4,4,4,4,5,5,5,5,5,6,6,6,6,6,6,7,7,7,8,8,9,10,10,11
participant_3_BUY,[],"[1036, 2031, 3340]",[],[],[1036],[],[],"[3134, 1001, 1036]",[],[],"[3047, 1036]",[],[],[3133],[],[],[],[],"[6691, 1037]",[],[],[],"[3142, 1036]",[],"[3134, 1028]",[],[1036],[],[],[],[],"[3814, 3133, 1036]",[],[],[3035],[],[6694],[],[],[],[3123],[],[],"[6609, 2140]"
participant_3_SOLD,[],[],[],[],[],[],[],"[1036, 1036]",[],[],[1001],[],[],"[1036, 1036]",[],[],[],[],"[3134, 3133]",[],[],[],[1037],[],[1036],[],[2031],[],[],[],[],"[1036, 3134, 1028]",[],[],[1036],[],"[3133, 3035]",[],[],[],[],[],[],"[3123, 2140]"
participant_3_UNDO,[],[],[],[],[],[],[],[],[],[],[],[],[],[],[],[],[],[],[],[],[],[],[],[],[],[],[],[],[],[],[],[],[],[],[],[],[],[],[],[],[],[],[],[]
participant_4_GOLD,500,500,522,717,912,1066,1261,1415,1549,2188,2322,2457,2641,2816,3106,3246,3446,3607,3827,4198,4358,4647,4982,5123,5263,5453,5594,5748,5938,6100,6240,7270,7410,7731,7872,8208,8425,8565,8720,8860,9342,9533,9673,9863
participant_4_CURRENTGOLD,500,0,22,217,412,566,761,915,289,928,1062,457,641,816,1106,196,396,557,777,1148,508,797,582,723,163,353,194,348,89,250,390,1420,810,1132,72,408,375,515,120,260,743,933,1073,1264
participant_4_LEVEL,1,1,1,2,3,4,4,5,5,6,6,6,7,7,8,8,8,8,8,9,9,9,9,10,10,10,10,10,11,11,11,12,12,13,13,13,14,14,14,14,15,15,15,15
participant_4_MINIONSKILLED,0,0,0,0,0,0,0,0,0,1,1,1,2,3,3,3,3,3,3,3,3,4,4,4,4,4,4,5,5,6,6,10,10,13,13,14,14,14,15,15,17,17,17,17
participant_4_KILLS,0,0,0,0,0,0,0,0,0,1,1,1,1,1,1,1,1,1,1,1,1,1,1,1,1,1,1,1,1,1,1,2,2,2,2,2,2,2,2,2,2,2,2,2
participant_4_BUY,[],"[3850, 3340, 2003, 2003]",[],[],[],[],[],[],"[1004, 1052, 2055]",[],[],"[4642, 1001, 2055]",[],[],[],"[3020, 1004]",[],[],[],[],[3067],[],[3114],[],[3107],[],[1029],[],[1033],[],[],[],[3105],[],[3190],[],[1004],[],[3114],[],[],[],[],[]
participant_4_SOLD,[],[],[],"[2003, 2003]",[],[2010],[2010],[2010],[],[2055],[],"[1004, 1052]",[2055],[],[],"[3850, 1001]",[],[],[],[],[],[],"[3851, 1004]",[],"[3067, 3114]",[],[],[],[],[],[],[],"[1033, 1029]",[],[3105],[],[],[],[1004],[],[],[],[],[]
participant_4_UNDO,[],[],[],[],[],[],[],[],[],[],[],[],[],[],[],[],[],[],[],[],[],[],[],[],[],[],[],[],[],[],[],[],[],[],[],[],[],[],[],[],[],[],[],[]
participant_5_GOLD,500,500,541,706,976,1433,1909,2189,2444,2786,2929,3406,3556,3823,4211,4585,5179,5301,6005,6461,6825,7011,7231,7429,7551,7673,8116,8633,9018,9140,9690,9887,10113,10292,10415,10603,10768,11247,11476,11648,11915,12066,12488,13165
participant_5_CURRENTGOLD,500,0,41,206,476,58,534,814,119,461,204,681,831,298,686,1060,604,726,1430,486,850,1036,1256,179,301,423,141,658,1043,565,1115,112,339,518,640,828,994,1473,201,374,641,391,314,991
participant_5_LEVEL,1,1,1,2,4,5,6,6,7,7,8,8,8,9,9,10,10,10,11,11,12,12,12,12,12,12,12,13,13,13,13,14,14,14,14,14,14,15,15,15,15,16,16,17
participant_5_MINIONSKILLED,0,0,1,3,12,14,30,33,40,50,51,59,61,65,76,87,88,88,92,93,96,100,102,102,102,102,102,102,105,105,110,110,112,112,112,112,115,118,121,121,121,123,123,123
participant_5_KILLS,0,0,0,0,0,0,0,1,1,1,1,2,2,2,4,4,5,5,8,8,8,8,9,10,10,10,10,10,10,10,10,11,11,11,11,11,11,11,12,12,14,14,14,14
participant_5_BUY,[],"[1035, 2003, 2031, 3340]",[],[],[],"[1036, 1001, 2055]",[],[],[],[],"[3047, 3133]",[],[3067],[],[],"[3071, 1036]",[],[],[],[],"[3142, 1028]",[],[],[],"[6029, 3067]",[],[],[],[6630],[],[],[],[],"[3134, 3133]",[],[],[],"[3179, 1036]",[],[3044],[],[3053],[],[]
participant_5_SOLD,[],[],[],[],[],[],[],[],[],[],"[1001, 1036]",[1035],[2055],[],[],"[3133, 3067]",[],[],[],[],[1036],[],[],[],[1028],[],[],[],"[6029, 3067]",[],[],[],[],[2031],[],[],[],"[3134, 3133]",[],[],[],[3044],[],[]
participant_5_UNDO,[],"[[0, 2003]]",[],[],[],[],[],[],[],[],[],[],[],[],[],[],[],[],[],[],[],[],[],[],[],[],[],[],[],[],[],[],[],[],[],[],[],"[[0, 1036]]",[],[],[],[],[],[]
participant_6_GOLD,500,500,583,955,1176,1515,1764,2015,2583,2706,2947,3264,3695,4428,5424,5644,6439,6770,7164,7481,7945,8068,8770,9408,9716,10044,10260,10693,11239,11390,11611,12039,12349,12704,13015,13325,13448,14056,14452,14790,16352,16474,17040,17763
participant_6_CURRENTGOLD,500,0,83,455,676,1015,1264,1515,983,156,297,614,1045,1778,2774,444,1239,1570,1964,2281,2745,218,920,1558,766,1094,1310,543,1090,1240,461,890,299,655,965,1276,99,706,1102,1441,3003,325,891,1614
participant_6_LEVEL,1,1,1,2,3,4,5,6,7,7,7,7,8,8,9,9,10,11,11,12,12,12,12,13,13,13,13,14,14,14,14,15,15,15,16,16,16,16,17,17,18,18,18,18
participant_6_MINIONSKILLED,0,0,3,15,21,31,38,42,47,47,54,61,76,85,88,90,100,108,120,127,132,132,133,137,137,147,147,151,160,162,165,174,175,176,183,187,187,187,190,194,201,201,204,204
participant_6_KILLS,0,0,0,0,0,1,1,1,1,1,1,1,1,1,1,1,1,1,1,2,2,2,2,2,2,2,3,4,4,4,4,4,4,4,4,4,4,4,4,4,4,4,4,4
participant_6_BUY,[],"[1055, 3340, 2003]",[],[],[],"[1028, 1028, 2055]",[],[],"[6660, 1029, 1033, 1033, 1001]",[],"[1029, 1028]",[],[],"[1029, 3111, 1033]",[],[],[3105],[],[],"[3068, 3044]",[],[],[],"[1028, 1037]",[],[],[3053],[],[],"[1029, 1029]",[],[3105],[],[],[],[],[],[],[3193],[],[],[1028],[1011],[]
participant_6_SOLD,[],[],[],[2003],[],[],[],[],"[1028, 1028]",[],[],[],[2055],"[1001, 1033]",[],[],[1033],[],[],"[6660, 3105, 1028]",[],[],[],[],[],[],"[1037, 3044, 1028]",[],[],[],[],[1029],[],[],[],[],[],[],"[1029, 3105]",[],[],[],[1028],[]
participant_6_UNDO,[],[],[],[],[],[],[],[],"[[0, 1033], [0, 1029]]",[],"[[0, 1029]]",[],[],"[[0, 1029]]",[],[],[],[],[],[],[],[],[],[],[],[],[],[],[],[],[],[],[],[],[],[],[],[],[],[],[],[],[],[]
participant_7_GOLD,500,500,562,797,1340,1623,1973,2291,2587,2773,2965,3387,3699,4008,4422,4775,5433,5820,6221,6659,7006,7233,7405,7631,7837,8037,8895,9757,11068,11190,11786,11984,12204,12564,12856,13294,13417,14099,14601,15062,15248,15791,16618,17829
participant_7_CURRENTGOLD,500,0,62,297,90,373,713,1031,142,28,220,632,934,443,847,1200,1858,2245,546,109,456,683,855,1081,1287,462,1320,2182,3493,365,962,409,629,989,992,329,453,1135,1637,2098,134,677,1504,1214
participant_7_LEVEL,1,1,1,3,3,4,5,5,6,6,7,7,8,8,9,10,10,11,11,11,12,12,12,12,12,12,13,14,14,14,14,15,15,15,15,15,15,16,16,16,16,17,17,18
participant_7_MINIONSKILLED,0,0,2,9,9,18,28,39,46,50,54,68,75,82,95,104,108,119,131,132,138,144,144,146,151,156,157,164,170,170,181,181,186,192,198,199,199,208,219,221,222,222,222,224
participant_7_KILLS,0,0,0,0,0,0,0,0,1,1,1,1,1,2,3,3,4,4,4,4,4,4,5,6,6,6,6,6,6,6,6,6,6,7,7,7,7,8,8,8,10,10,10,11
participant_7_BUY,[],"[3070, 2003, 2003]",[],[],[],[],[],[],[3044],"[3158, 2003]","[2003, 2003]",[],[],[],[],"[6632, 1036]",[],[],[],[],[],"[3004, 1031]",[],[],[3133],[],[],[6333],[],[3133],[1043],[],"[1053, 3363]",[],[],[],[3153],[],[],[],[],[3026],[],[]
participant_7_SOLD,[],[],[],[2003],[],[2003],[],[],[],[2003],[],[],[],"[2003, 2003]",[],[3044],[],[],[],[],[],"[3070, 1036, 3004]",[],[],[],[],[],"[1031, 3133]",[],[],[],[],[3340],[],[],[],"[1053, 1043]",[],[],[],[],[],[],[]
participant_7_UNDO,[],[],[],[],[],[],[],[],[],[],[],[],[],[],[],[],[],[],[],[],[],[],[],[],[],[],[],[],[],"[[0, 3133]]",[],[],[],[],[],[],[],[],[],[],[],[],[],[]
participant_8_GOLD,500,500,605,963,1291,1498,1791,2284,2649,2849,3056,3748,3975,4294,5216,5394,6192,6634,7879,8390,8648,8770,9356,9973,10330,10494,10705,11294,11467,11909,12559,13166,13516,13729,14041,14465,14589,14711,15703,15971,17172,17574,17997,18219
participant_8_CURRENTGOLD,500,0,105,463,791,273,566,1059,1424,1624,281,973,400,719,1641,69,867,1309,2554,3065,273,395,982,1598,355,520,731,1320,192,635,1285,1892,2242,314,627,1051,1175,697,1690,857,2058,461,883,1106
participant_8_LEVEL,1,1,2,3,4,4,4,5,5,6,6,7,8,8,9,9,10,10,11,12,12,12,12,13,13,13,13,14,14,15,15,16,16,16,17,17,17,17,17,17,18,18,18,18
participant_8_MINIONSKILLED,0,0,0,0,0,0,0,0,0,0,0,1,1,1,2,5,6,6,13,17,17,17,18,18,18,21,21,21,21,21,28,35,43,44,44,52,52,52,52,53,59,60,60,60
participant_8_KILLS,0,0,0,0,1,1,1,1,1,1,1,1,1,1,1,1,2,2,2,3,3,3,3,3,3,3,4,5,7,7,7,7,7,7,7,8,8,9,9,10,10,11,11,14
participant_8_BUY,[],"[2003, 2031, 1036, 3340]",[],[],[3134],[],[],[],"[3133, 2055]",[1001],[],[],[],[3047],[],[],[],[],"[6691, 3134]",[1037],[],[],[],[],[],[3142],[],[],[],"[3814, 1036]",[],[3133],[],[],[1036],[3035],[],[],[],[],"[6694, 1038]",[],[],[3026]
participant_8_SOLD,[],[],[],[],[1036],[],[],[],[],[2055],[],[],[],[1001],[],[],[],[],"[3134, 3133]",[],[],[],[],[],[],"[3134, 1037]",[],[],[],[],[],[1036],[],[],[2031],[1036],[],[],[],[],"[3133, 3035]",[],[],[1038]
participant_8_UNDO,[],"[[0, 2003]]",[],[],[],[],[],[],[],[],[],[],[],[],[],[],[],[],[],[],[],[],[],[],[],[],[],[],[],[],[],[],[],[],[],[],[],[],[],[],[],[],[],[]
participant_9_GOLD,500,500,522,752,887,1119,1554,1763,1960,2095,2355,2607,2849,2989,3240,3380,3723,3975,4178,4415,4737,4877,5201,5341,5496,5636,6240,6430,6833,7064,7297,7827,8103,8280,8547,8743,8884,9269,9656,9846,10079,10219,10826,11396
participant_9_CURRENTGOLD,500,0,22,252,387,619,1054,1263,260,20,280,532,774,914,1165,505,848,1100,1303,1540,337,477,801,91,246,386,990,380,783,114,347,877,1153,780,247,443,585,969,1356,1546,1079,419,1027,1596
participant_9_LEVEL,1,1,1,2,3,4,4,4,5,5,6,6,7,7,8,8,8,9,9,10,10,10,11,11,11,12,12,12,13,13,13,14,14,14,15,15,15,15,16,16,16,16,17,18
participant_9_MINIONSKILLED,0,0,0,3,3,6,6,6,10,10,17,20,22,22,24,24,26,28,31,32,35,35,42,42,43,43,46,46,46,51,54,55,55,55,55,56,56,59,65,65,68,68,73,75
participant_9_KILLS,0,0,0,0,0,0,1,1,1,1,1,1,1,1,1,1,1,1,1,1,1,1,1,1,1,1,2,2,2,2,2,3,3,3,3,3,3,3,3,3,3,3,3,3
participant_9_BUY,[],"[3858, 3340, 2003, 2003]",[],[],[],[],[],[],"[4642, 2055, 2055]","[1001, 2055]",[],[],[],[],[],[3067],[],[],[],[],"[3009, 1026, 2055]",[],[],"[4005, 3364]",[],[],[],[3114],[],"[6616, 1004]",[],[],[],[3114],[3067],[],[],[],[],[],[3107],[3114],[],[]
participant_9_SOLD,[],[],[],[],"[2003, 2003]",[],[],[],[2055],[2055],[2055],[],[],[3858],[],[],[],[],[],[],"[1001, 3859]",[],[],"[3067, 4642, 3340]",[],[],[],[],[],"[3114, 1026]",[],[2055],[],[1004],[],[],[],[],[],[],"[3067, 3114]",[],[],[]
participant_9_UNDO,[],[],[],[],[],[],[],[],[],[],[],[],[],[],[],[],[],[],[],[],[],[],[],[],[],[],[],[],[],[],[],[],[],[],[],[],[],[],[],[],[],[],[],[]
team0_KILLS,0,0,0,0,0,1,1,1,1,5,6,6,7,8,9,9,10,10,10,13,13,14,14,17,18,18,20,20,21,22,22,24,24,26,26,29,30,30,32,32,35,37,37,38
team0_CURRENTGOLD,2500,0,424,1807,2856,3715,4850,4992,1801,3842,4319,2697,3710,3891,5724,3773,3784,3874,2989,5939,4952,7174,2718,3742,1491,2576,1687,3011,2572,5137,5290,3993,3133,4308,1533,3412,2820,3105,3340,3270,2987,3935,4811,3510
team0_TOTALGOLD,2500,2500,2924,4307,5706,7385,8695,9887,11266,14042,15669,17127,19015,20721,22564,23588,25249,26324,27314,30664,32162,34384,35768,38042,39741,41126,42826,44150,45711,48274,49569,51722,53109,55186,56600,59078,60609,62141,63626,65207,67572,70022,70972,72070
team0_LEVEL,5,5,6,13,18,23,23,26,28,31,35,36,40,41,44,45,47,49,49,52,55,55,56,59,60,61,62,64,65,67,69,70,71,74,75,75,78,80,80,80,84,85,85,85
team0_SBIRES,0,0,10,35,59,84,110,130,152,165,188,215,240,262,284,298,324,345,351,364,388,408,413,425,433,453,454,469,485,503,518,527,549,566,589,597,609,631,638,665,675,695,706,706
team1_KILLS,0,0,0,0,1,2,3,4,5,5,5,6,6,7,10,10,13,13,16,18,18,18,20,22,22,22,25,27,29,29,29,31,31,32,32,33,33,35,36,37,41,42,42,46
team1_CURRENTGOLD,2500,0,313,1673,2420,2338,4131,5682,2928,2289,1282,3432,3984,4152,7113,3278,5416,6950,7797,7481,4661,2809,4814,4507,2955,2885,4492,5083,6601,2919,4170,4180,4662,3256,3471,3927,3306,4980,5986,6316,6915,2273,4619,6521
team1_TOTALGOLD,2500,2500,2813,4173,5670,7188,8991,10542,12223,13209,14252,16412,17774,19542,22513,23778,26966,28500,31447,33406,35161,35959,37963,39782,40930,41884,44216,46807,49625,50693,52943,54903,56285,57569,58874,60430,61106,63382,65888,67317,70766,72124,74969,78372
team1_LEVEL,5,5,6,12,17,21,24,26,30,31,34,35,39,40,44,46,48,51,53,56,58,58,59,61,61,62,63,67,68,69,69,74,74,74,77,77,77,79,81,81,83,85,86,89
team1_SBIRES,0,0,6,30,45,69,102,120,143,157,176,209,235,255,285,310,328,349,387,401,418,428,439,445,451,469,473,484,502,509,538,555,571,579,592,606,609,624,647,654,671,674,682,686
delta_KILLS,0,0,0,0,-1,-1,-2,-3,-4,0,1,0,1,1,-1,-1,-3,-3,-6,-5,-5,-4,-6,-5,-4,-4,-5,-7,-8,-7,-7,-7,-7,-6,-6,-4,-3,-5,-4,-5,-6,-5,-5,-8
delta_CURRENTGOLD,0,0,111,134,436,1377,719,-690,-1127,1553,3037,-735,-274,-261,-1389,495,-1632,-3076,-4808,-1542,291,4365,-2096,-765,-1464,-309,-2805,-2072,-4029,2218,1120,-187,-1529,1052,-1938,-515,-486,-1875,-2646,-3046,-3928,1662,192,-3011
delta_TOTALGOLD,0,0,111,134,36,197,-296,-655,-957,833,1417,715,1241,1179,51,-190,-1717,-2176,-4133,-2742,-2999,-1575,-2195,-1740,-1189,-758,-1390,-2657,-3914,-2419,-3374,-3181,-3176,-2383,-2274,-1352,-497,-1241,-2262,-2110,-3194,-2102,-3997,-6302
delta_LEVEL,0,0,0,1,1,2,-1,0,-2,0,1,1,1,1,0,-1,-1,-2,-4,-4,-3,-3,-3,-2,-1,-1,-1,-3,-3,-2,0,-4,-3,0,-2,-2,1,1,-1,-1,1,0,-1,-4
delta_SBIRES,0,0,4,5,14,15,8,10,9,8,12,6,5,7,-1,-12,-4,-4,-36,-37,-30,-20,-26,-20,-18,-16,-19,-15,-17,-6,-20,-28,-22,-13,-3,-9,0,7,-9,11,4,21,24,20
