name,frame_0,frame_1,frame_2,frame_3,frame_4,frame_5,frame_6,frame_7,frame_8,frame_9,frame_10,frame_11,frame_12,frame_13,frame_14,frame_15,frame_16,frame_17,frame_18,frame_19,frame_20,frame_21,frame_22,frame_23,frame_24,frame_25,frame_26,frame_27,frame_28,frame_29,frame_30,frame_31,frame_32,frame_33,frame_34,frame_35,frame_36,frame_37
nameStamp,Tstart,Tearly,Tearly,Tearly,Tearly,Tearly,Tearly,Tearly,Tearly,Tearly,Tearly,Tearly,Tearly,Tearly,Tearly,Tearly,Tearly,Tmid,Tmid,Tmid,Tmid,Tmid,Tmid,Tmid,Tmid,Tmid,Tmid,Tmid,Tmid,Tmid,Tmid,Tmid,Tend,Tend,Tend,Tend,Tend,Tend
timestamp,0,60010,120028,180032,240060,300061,360089,420135,480136,540151,600173,660173,720201,780232,840252,900254,960284,1020294,1080300,1140320,1200322,1260340,1320365,1380375,1440404,1500407,1560438,1620443,1680471,1740485,1800503,1860531,1920551,1980559,2040578,2100590,2160623,2220623
participant_0_GOLD,500,500,597,803,1081,1427,1728,1864,2154,2489,2966,3089,3708,4411,4636,5017,5859,6584,6756,7012,7524,7647,8590,8762,9102,9475,9737,10027,10180,10302,10424,10979,11738,12183,12334,12583,13172,13228
participant_0_CURRENTGOLD,500,0,97,303,581,927,1228,264,554,889,1366,239,858,1561,386,767,1609,2334,756,212,724,847,940,1112,1452,625,887,678,830,952,75,329,1089,1534,1684,634,1223,328
participant_0_LEVEL,1,1,1,2,4,5,6,6,7,8,8,8,9,10,10,11,11,12,12,12,13,13,14,14,14,14,15,15,15,15,15,16,16,17,17,17,18,18
participant_0_MINIONSKILLED,0,0,4,9,18,28,35,36,46,55,57,57,65,71,73,84,95,100,100,108,122,122,127,127,135,145,146,149,150,150,150,153,165,172,174,179,184,184
participant_0_KILLS,0,0,0,0,0,0,0,0,0,0,0,0,1,2,2,2,2,3,3,3,3,3,4,4,4,4,4,4,4,4,4,4,4,4,4,4,5,5
participant_0_BUY,[],"[1054, 2003, 3340]",[],[],[],[],[],[3051],[],[],[],"[3044, 3057, 1028]",[],[],"[6632, 1029]",[],[],[],"[3047, 3211]",[3067],[],[],[3065],[],[],"[3076, 1028]",[],[1011],[],[],[3075],[1029],[],[],[],"[1031, 3066]",[],[]
participant_0_SOLD,[],[],[],[2003],[2010],[2010],[],[2010],[],[],[],"[1054, 3051]",[],[],"[3044, 3057, 1028]",[],[],[],"[1029, 2422]",[],[],[],"[3211, 3067]",[],[],[],[],[1028],[],[],"[3076, 1011]",[],[],[],[],[1029],[],[]
participant_0_UNDO,[],[],[],[],[],[],[],[],[],[],[],[],[],[],[],[],[],[],[],[],[],[],[],[],[],[],[],[],[],[],[],[],[],[],[],[],[],[]
participant_1_GOLD,500,500,620,927,1151,1463,1586,2002,2125,2432,2655,2862,3069,3267,3389,3628,3942,4126,4299,4826,4949,5071,5207,5599,5791,6046,6553,6726,6848,7071,7193,7615,8004,8316,8624,8871,8993,9049
participant_1_CURRENTGOLD,500,120,240,547,771,1083,1206,1622,45,352,575,782,989,537,659,898,1212,521,69,596,719,41,177,569,761,1016,1523,1696,268,491,163,585,274,586,894,1141,1263,1299
participant_1_LEVEL,1,1,2,2,3,4,4,4,4,5,5,5,6,6,6,7,7,7,7,8,8,8,8,9,9,10,11,11,11,11,11,12,13,13,13,14,14,14
participant_1_MINIONSKILLED,0,0,0,0,0,0,0,0,0,0,0,0,0,0,0,0,0,0,0,0,0,0,1,2,2,6,7,7,7,7,7,7,7,7,7,7,7,7
participant_1_KILLS,0,0,0,0,0,0,0,0,0,0,0,0,0,0,0,0,0,0,0,0,0,0,0,0,0,0,0,0,0,0,1,1,1,2,2,2,2,2
participant_1_BUY,[],"[1055, 2003, 3340]",[],[],[],[],[],[],[3006],[],[1036],[1053],[],[],"[1042, 1036, 2055]",[],[],"[6670, 1018]",[],[],[6673],[],[],[1042],"[1042, 6677]",[],[1042],[],[1018],[],[],"[3124, 1036, 2055, 2055]",[],[],[],[],"[1053, 1043]",[]
participant_1_SOLD,[],[],[],[],[2003],[],[],[],[],[],[],[1036],[],[],[],[],[2055],"[1036, 1042]",[],[],"[6670, 1018, 1053]",[],[],[],"[1042, 1042]",[],[],[],[],[],[],"[6677, 1018, 1042, 1055]",[],[],[],[],[1036],[]
participant_1_UNDO,[],[],[],[],[],[],[],[],[],[],[],[],[],[],[],[],[],[],[],[],[],[],[],[],[],[],[],[],[],[],[],[],[],[],[],[],[],[]
participant_2_GOLD,500,500,534,747,976,1196,1483,1633,1783,2220,2384,2722,2985,3365,3544,3785,4220,4555,4790,5127,5249,5380,5577,5994,6145,6267,6390,6752,6874,6997,7838,8261,8569,9124,9466,9829,9951,10007
participant_2_CURRENTGOLD,500,0,34,247,476,686,963,1113,163,600,414,192,445,825,279,520,955,40,275,612,134,265,462,579,230,352,175,537,59,182,1023,26,334,889,1231,1594,167,82
participant_2_LEVEL,1,1,1,3,4,5,6,6,6,7,7,8,8,9,9,9,10,10,11,11,11,11,11,12,12,12,12,12,12,13,14,14,14,14,15,15,15,15
participant_2_MINIONSKILLED,0,0,1,6,11,14,21,23,25,34,37,46,51,57,60,67,78,82,86,93,93,93,93,98,100,100,100,100,100,100,107,107,107,109,116,117,117,117
participant_2_KILLS,0,0,0,0,2,2,2,2,3,3,3,3,3,3,3,3,3,3,3,3,3,3,4,4,4,4,4,4,5,5,5,5,5,5,5,5,5,5
participant_2_BUY,[],"[3854, 2003, 2003, 3340]",[],[],[],"[3067, 1001, 2003, 2055]",[],[],"[1033, 1029]",[],[3105],[3364],[],[],"[3190, 2055]",[],[3067],[],[3114],[],[],[],[3107],[],[3117],"[3067, 2055]",[],[],[],[3024],[],"[3050, 1011]",[],[],[],[],[],[]
participant_2_SOLD,[],[],[],"[2010, 2003]",[2003],[],[],[],"[2010, 2010, 2003]",[],"[3854, 1033, 1029]",[3340],[2055],[],"[3067, 3105]",[],[],[],[],[],[2055],[],"[3067, 3114]",[],[1001],[],[3855],[],[2055],[],[],"[3067, 3024]",[],[],[],[],[],[]
participant_2_UNDO,[],[],[],[],[],[],[],[],[],[],[],[],[],[],[],[],[],[],[],[],[],[],[],[],[],[],[],[],[],[],[],[],[],[],[],[],[],[]
participant_3_GOLD,500,500,520,782,1521,1643,1927,2431,3169,3539,4006,4399,4552,5296,5432,7250,7422,7614,8632,8831,9250,9415,9669,11172,12285,12602,14209,15281,15637,16086,17793,18240,19299,19933,20194,20989,21201,21278
participant_3_CURRENTGOLD,500,0,20,282,1021,168,452,956,94,464,331,724,277,221,357,2175,297,489,1507,81,501,665,44,1548,735,703,2310,3381,3737,517,2224,671,1729,1864,2125,2920,3132,3028
participant_3_LEVEL,1,1,1,2,3,3,4,5,6,6,6,7,7,8,8,9,9,9,10,10,10,10,11,11,12,13,13,14,14,15,15,16,16,17,17,17,17,17
participant_3_MINIONSKILLED,0,0,0,7,18,18,27,41,46,57,64,76,77,82,83,85,85,89,97,101,113,115,119,134,142,149,154,169,171,182,190,190,197,200,204,211,212,213
participant_3_KILLS,0,0,0,0,0,0,0,1,1,1,1,1,1,1,1,1,1,1,1,2,2,2,2,2,2,2,3,3,3,3,3,3,3,3,3,3,3,3
participant_3_BUY,[],"[1035, 2003, 3340]",[],[],[],[],[],[],"[2031, 1001, 1018, 1036, 1042]",[],[],[],[],[6670],[],[],[],[1037],[6672],[],[],[3006],[],[],[],[],[],[],"[3086, 1036]",[],[3123],[],[3033],[],[],[],[],[]
participant_3_SOLD,[],[2003],[],[],[],[],[],[],[],[],[],[],[],"[1036, 1042]",[],[],[],[],"[6670, 1018, 1037]",[],[],[1001],[],[1035],[],[],[],[],[],[],[1036],[],"[3123, 3086]",[],[],[],[],[]
participant_3_UNDO,[],[],[],[],[],[],[],[],[],[],[],[],[],[],[],[],[],[],[],[],[],[],[],[],[],[],[],[],[],[],[],[],[],[],[],[],[],[]
participant_4_GOLD,500,500,522,719,1643,1777,1968,2268,2847,3068,3335,3506,3715,3951,4092,4712,4903,5064,5442,5658,5847,5988,6478,7124,7565,7705,8079,8590,8964,9105,9757,10198,10539,10755,11215,11555,11696,11760
participant_4_CURRENTGOLD,500,0,22,219,1143,52,243,543,372,593,110,281,490,726,392,1012,403,564,142,358,547,688,478,1124,865,130,504,1016,1390,630,1283,123,465,680,1140,1481,1621,1685
participant_4_LEVEL,1,1,1,2,3,3,4,5,5,6,6,6,7,7,8,9,9,9,10,10,10,10,11,11,12,12,13,14,14,14,15,15,15,16,16,16,16,16
participant_4_MINIONSKILLED,0,0,0,3,6,6,9,12,13,15,16,17,22,23,23,24,24,25,28,28,31,31,31,37,37,37,38,39,40,40,40,40,40,40,50,50,50,50
participant_4_KILLS,0,0,0,0,0,0,0,0,1,1,2,2,2,3,3,6,6,6,7,7,7,7,7,8,10,10,13,14,14,14,17,17,19,20,20,21,21,21
participant_4_BUY,[],"[1055, 3340, 2003]",[],[],[],"[1053, 2055]",[],[],"[6670, 1001]",[],[1018],[],[6673],[3006],[],[],"[3134, 1037, 2055]",[],[],"[6676, 1018]",[],[],[1037],[],[3031],[1036],[],[],[],"[3072, 1031]",[],[3026],[],[2140],[],[],[],[]
participant_4_SOLD,[],[],[],[2003],[],[2055],[],[],[],[],[],[],"[6670, 1018, 1053]",[1001],[],[],[],[],[2055],"[3134, 1037]",[],[],[],[],"[1037, 1018]",[],[],[],[],"[1036, 1055]",[],[1031],[],[2140],[],[],[],[]
participant_4_UNDO,[],[],[],[],[],[],[],[],[],[],[],[],[],[],[],[],[],[],[],[],[],[],[],[],[],[],[],[],[],[],[],[],[],[],[],[],[],[]
participant_5_GOLD,500,500,562,754,1106,1347,1603,1872,2057,2271,2599,3585,3728,4206,4329,4528,4914,5306,6255,7078,7200,7686,8264,8589,9072,9431,9577,10000,10553,11023,11281,11403,11977,13099,13451,14583,15814,16566
participant_5_CURRENTGOLD,500,0,62,254,606,847,203,472,182,96,424,1410,118,596,69,268,354,746,1695,717,765,1251,89,414,897,1256,503,275,828,274,531,654,427,700,1052,2183,3415,3866
participant_5_LEVEL,1,1,1,2,4,5,6,6,7,7,8,8,9,9,9,10,10,11,11,12,12,12,12,13,13,14,14,14,14,14,15,15,15,15,15,16,17,17
participant_5_MINIONSKILLED,0,0,2,6,16,23,30,39,42,48,52,62,63,67,67,71,75,86,102,109,109,111,111,111,116,126,126,126,138,150,150,150,150,150,159,173,181,188
participant_5_KILLS,0,0,0,0,0,0,0,0,0,1,2,3,3,3,3,3,3,3,4,4,4,4,4,4,4,4,4,4,5,6,6,6,6,6,6,6,6,8
participant_5_BUY,[],"[1035, 3340, 2003, 2003, 2003]",[],[],[1036],[],[],[],"[3044, 1028]",[],[],[],"[6632, 1001]",[],[],[3047],[],[],[],[],"[3133, 1029]",[],[1031],[],[],"[6333, 1033]",[],[],[],"[3133, 1036]",[3155],[],[],[3156],[],[1029],[],[]
participant_5_SOLD,[],[],[],[2003],[],[],[],[],"[2003, 2003, 1036]",[1035],[],[],"[3340, 3044, 1028]",[3513],[],[1001],[],[],[],[3340],[],[3513],[1029],[],[],"[1031, 3133]",[],[],[],[],"[1036, 1033]",[],[],"[3155, 3133]",[],[],[],[]
participant_5_UNDO,[],[],[],[],[],[],[],[],[],[],[],[],[],[],[],[],[],[],[],[],[],[],[],[],[],[],[],[],[],[],[],[],[],[],[],[],[],[]
participant_6_GOLD,500,500,605,827,1086,1398,1764,1931,2153,2663,3271,3916,4139,4568,4926,5048,5334,5834,6392,6714,6837,7309,7686,8192,8535,8757,9006,9363,9749,10297,10469,10692,10890,11220,11384,11606,11729,12565
participant_6_CURRENTGOLD,500,0,105,327,236,548,914,1081,153,663,1271,1916,39,468,826,148,434,934,1492,1814,537,1009,886,1392,1735,307,556,913,1299,397,70,292,491,120,284,207,329,1165
participant_6_LEVEL,1,1,2,2,3,3,4,5,5,6,7,8,8,8,9,9,9,10,11,11,11,11,12,12,13,13,13,13,14,14,14,14,14,15,15,15,15,16
participant_6_MINIONSKILLED,0,0,0,0,0,0,3,3,3,5,5,9,9,13,13,13,14,16,22,22,22,23,23,30,32,32,32,32,32,32,32,32,32,36,39,39,39,41
participant_6_KILLS,0,0,0,0,0,0,0,0,0,0,0,1,1,2,2,2,2,2,2,2,2,2,3,3,4,4,4,5,5,5,5,5,6,7,7,7,9,10
participant_6_BUY,[],"[1056, 2003, 3340, 2003]",[],[],[],[],"[1026, 2003]",[],"[1082, 2055, 2003]",[1001],[],[],"[1043, 1052]",[],"[3115, 2055]",[],[1042],[],[],"[3006, 4635]",[2055],[],"[1026, 4633]",[],[],[],[3191],[2420],[],"[3157, 2055]",[],[],[3916],[1026],[],[],[],[]
participant_6_SOLD,[],[],[],[],[2003],[2003],[],[2003],[],[2003],[2055],[],[],[],"[1082, 1043, 1026, 1052]",[2055],[],[],[],"[1001, 1042]",[2055],[],"[1056, 4635, 1026]",[],[],[],[],[],[],"[3191, 2420]",[2055],[],[],[],[],[],[],[]
participant_6_UNDO,[],[],[],[],[],[],[],[],[],[],[],[],[],[],[],[],[],[],[],[],[],[],[],[],[],[],[],[],[],[],[],[],[],[],[],[],[],[]
participant_7_GOLD,500,500,576,870,1148,1396,1575,1809,2565,2967,3180,3697,4226,4411,5166,5330,5600,6033,6353,6847,7033,8083,8475,8730,8852,9303,9425,9743,9935,10351,10823,10945,11280,11569,11858,12302,12908,13064
participant_7_CURRENTGOLD,500,0,76,360,638,886,65,299,70,462,375,882,151,336,1081,1245,465,98,418,912,248,1298,890,1145,77,528,215,533,361,776,1248,281,615,905,1194,337,294,289
participant_7_LEVEL,1,1,1,3,4,5,5,6,7,8,8,9,10,10,10,11,11,12,12,12,12,13,13,13,13,13,13,14,14,14,15,15,15,15,16,16,17,17
participant_7_MINIONSKILLED,0,0,3,10,19,27,30,37,44,49,55,68,79,83,90,93,99,104,113,121,125,134,134,138,138,143,143,151,151,154,154,154,162,168,174,179,184,184
participant_7_KILLS,0,0,0,0,0,0,0,0,1,1,1,1,1,1,2,2,2,3,3,3,3,5,6,6,6,7,7,7,7,7,8,8,8,8,8,8,9,9
participant_7_BUY,[],"[1056, 2003, 3340, 2003]",[],[],[],[],"[1026, 2031]",[],"[1011, 2055]",[],[1001],[],[3116],[],[],[],[4642],[3067],[],[],[4005],[],[3020],[],[1058],[],[1052],[],[3916],[],[],[1058],[],[],[],[3089],[2420],[]
participant_7_SOLD,[],[],[],[2003],[],[2003],[],[],[],[],[],[],"[1026, 1011]",[],[],[2055],[],[],[],[],"[3067, 4642]",[],[1001],[],[2031],[],[],[],[1052],[],[],[1056],[],[],[],"[1058, 1058]",[],[]
participant_7_UNDO,[],[],[],[],[],[],[],[],[],[],[],[],[],[],[],[],[],[],[],[],[],[],[],[],[],[],[],[],[],[],[],[],[],[],[],[],[],[]
participant_8_GOLD,500,500,565,778,986,1269,1636,1814,1992,2187,2751,2982,3644,4489,4793,4981,6050,7324,7897,8607,9099,9845,10624,10746,11481,12080,12202,12325,12774,12989,13578,13849,14182,14380,14769,15340,16573,17183
participant_8_CURRENTGOLD,500,0,65,278,61,344,711,889,317,512,1076,207,869,1714,88,276,645,1919,192,902,1395,2140,2919,242,976,1575,598,720,1170,1385,1973,245,578,776,1165,1736,2969,2808
participant_8_LEVEL,1,1,1,2,3,3,4,5,5,5,6,6,7,8,8,8,8,9,10,11,11,12,13,13,13,14,14,14,15,15,15,15,16,16,16,17,17,17
participant_8_MINIONSKILLED,0,0,2,7,9,16,27,30,33,36,42,48,57,59,60,62,68,79,79,88,89,93,98,98,103,116,116,116,131,136,136,141,149,149,156,157,161,161
participant_8_KILLS,0,0,0,0,0,0,0,0,0,0,1,1,2,4,4,4,5,7,8,9,9,10,11,11,12,12,12,12,12,12,13,13,13,13,13,14,15,16
participant_8_BUY,[],"[3340, 3070, 2003, 2003, 3364, 3340]",[],[],"[1036, 2055]",[],[],[],[3134],[],[],[3133],[],[],"[1053, 1036, 6692, 3009]",[],"[1036, 1036]",[],"[3134, 1037, 1018, 6676]",[],[],[],[],"[3004, 1018]",[],[],[3133],[],[],[],[],"[6675, 1042]",[],[],[],[],[],[]
participant_8_SOLD,[],"[3340, 3364]",[],"[2003, 2010]",[2003],[],[],[2010],"[2010, 1036]",[],[2055],[],[],[],"[3133, 3134, 1036, 1053, 2422]",[],[],[],"[1036, 1036, 3134, 1037, 1018]",[],[],[],[],"[3070, 3004]",[],[],[],[],[],[],[],"[3133, 1018]",[],[],[],[],[],[]
participant_8_UNDO,[],[],[],[],[],[],[],[],[],[],[],[],[],[],[],[],[],[],[],[],[],[],[],[],[],[],[],[],[],[],[],[],[],[],[],[],[],[]
participant_9_GOLD,500,500,543,719,890,1122,1299,1468,1637,1800,2170,2368,2677,2967,3213,3439,3883,4429,4619,5006,5176,5566,6182,6436,6576,6717,6857,7033,7236,7451,7722,7987,8157,8471,8681,8997,9466,9945
participant_9_CURRENTGOLD,500,0,43,219,90,322,499,268,437,600,70,268,577,67,238,464,458,1004,444,131,301,91,707,361,102,242,82,258,461,177,447,712,882,1196,1407,1722,2191,2670
participant_9_LEVEL,1,1,1,2,2,3,4,4,5,5,6,6,7,7,7,8,8,9,9,9,9,9,10,10,10,10,10,11,11,11,12,12,12,13,13,13,14,15
participant_9_MINIONSKILLED,0,0,1,3,5,8,10,12,14,16,18,21,22,22,23,27,30,33,33,34,35,35,52,55,55,55,55,57,61,61,62,65,67,73,77,77,79,79
participant_9_KILLS,0,0,0,0,0,0,0,0,0,0,0,0,0,0,0,0,0,0,0,0,0,0,0,0,0,0,0,0,0,0,0,0,0,0,0,0,0,0
participant_9_BUY,[],"[3854, 2003, 2003, 3340]",[],[],[1001],[],[],[1028],[],[],"[6660, 1029]",[],[],"[3047, 1029, 3364]",[2055],[],[1033],[],[3105],[3068],[],"[1029, 1029]",[],"[3076, 1028]",[3066],[],[1029],[],[],[1031],[],[],[],[],[],[],[],[]
participant_9_SOLD,[],[],[],"[2003, 2003]",[],[],[],[],[],[],[1028],[],[3854],"[1001, 1029, 3340]",[],[2055],[],[],"[1033, 1029]","[6660, 3105]",[],[],[],"[1029, 1029, 3855]",[1028],[],[],[],[],[1029],[],[],[],[],[],[],[],[]
participant_9_UNDO,[],[],[],[],[],[],[],[],[],[],[],[],[],[],[],[],[],[],[],[],[],[],[],[],[],[],[],[],[],[],[],[],[],[],[],[],[],[]
team0_KILLS,0,0,0,0,2,2,2,3,5,5,6,6,7,9,9,12,12,13,14,15,15,15,17,18,20,20,24,25,26,26,30,30,32,34,34,35,36,36
team0_CURRENTGOLD,2500,120,413,1598,3992,2916,4092,4498,1228,2898,2796,2218,3059,3870,2073,5372,4476,3948,2749,1859,2625,2506,2101,4932,4043,2826,5399,7308,6284,2772,4768,1734,3891,5553,7074,7770,7406,6422
team0_TOTALGOLD,2500,2500,2793,3978,6372,7506,8692,10198,12078,13748,15346,16578,18029,20290,21093,24392,26346,27943,29919,31454,32819,33501,35521,38651,40888,42095,44968,47376,48503,49561,53005,55293,58149,60311,61833,63827,65013,65322
team0_LEVEL,5,5,6,11,17,20,24,26,28,32,32,34,37,40,41,45,46,47,50,51,52,52,55,57,59,61,64,66,66,68,70,73,74,77,78,79,80,80
team0_SBIRES,0,0,5,25,53,66,92,112,130,161,174,196,215,233,239,260,282,296,311,330,359,361,371,398,416,437,445,464,468,479,494,497,516,528,551,564,570,571
team1_KILLS,0,0,0,0,0,0,0,0,1,2,4,6,7,10,11,11,12,15,17,18,18,21,24,24,26,27,27,28,29,30,32,32,33,34,34,35,39,43
team1_CURRENTGOLD,2500,0,351,1438,1631,2947,2392,3009,1159,2333,3216,4683,1754,3181,2302,2401,2356,4701,4241,4476,3246,5789,5491,3554,3787,3908,1954,2699,4119,3009,4269,2184,2993,3697,5102,6185,9198,10798
team1_TOTALGOLD,2500,2500,2851,3948,5216,6532,7877,8894,10404,11888,13971,16548,18414,20641,22427,23326,25781,28926,31516,34252,35345,38489,41231,42693,44516,46288,47067,48464,50247,52111,53873,54876,56486,58739,60143,62828,66490,69323
team1_LEVEL,5,5,6,11,16,19,23,26,29,31,35,37,41,42,43,46,46,51,53,55,55,57,60,61,62,64,64,66,68,68,71,71,72,74,75,77,80,82
team1_SBIRES,0,0,8,26,49,74,100,121,136,154,172,208,230,244,253,266,286,318,349,374,380,396,418,432,444,472,472,482,513,533,534,542,560,576,605,625,644,653
delta_KILLS,0,0,0,0,2,2,2,3,4,3,2,0,0,-1,-2,1,0,-2,-3,-3,-3,-6,-7,-6,-6,-7,-3,-3,-3,-4,-2,-2,-1,0,0,0,-3,-7
delta_CURRENTGOLD,0,120,62,160,2361,-31,1700,1489,69,565,-420,-2465,1305,689,-229,2971,2120,-753,-1492,-2617,-621,-3283,-3390,1378,256,-1082,3445,4609,2165,-237,499,-450,898,1856,1972,1585,-1792,-4376
delta_TOTALGOLD,0,0,-58,30,1156,974,815,1304,1674,1860,1375,30,-385,-351,-1334,1066,565,-983,-1597,-2798,-2526,-4988,-5710,-4042,-3628,-4193,-2099,-1088,-1744,-2550,-868,417,1663,1572,1690,999,-1477,-4001
delta_LEVEL,0,0,0,0,1,1,1,0,-1,1,-3,-3,-4,-2,-2,-1,0,-4,-3,-4,-3,-5,-5,-4,-3,-3,0,0,-2,0,-1,2,2,3,3,2,0,-2
delta_SBIRES,0,0,-3,-1,4,-8,-8,-9,-6,7,2,-12,-15,-11,-14,-6,-4,-22,-38,-44,-21,-35,-47,-34,-28,-35,-27,-18,-45,-54,-40,-45,-44,-48,-54,-61,-74,-82
