name,frame_0,frame_1,frame_2,frame_3,frame_4,frame_5,frame_6,frame_7,frame_8,frame_9,frame_10,frame_11,frame_12,frame_13,frame_14,frame_15,frame_16,frame_17,frame_18,frame_19,frame_20,frame_21,frame_22,frame_23,frame_24,frame_25,frame_26,frame_27,frame_28
nameStamp,Tstart,Tearly,Tearly,Tearly,Tearly,Tearly,Tearly,Tearly,Tearly,Tearly,Tearly,Tearly,Tearly,Tearly,Tearly,Tearly,Tmid,Tmid,Tmid,Tmid,Tmid,Tmid,Tmid,Tmid,Tmid,Tmid,Tmid,Tend,Tend
timestamp,0,60021,120047,180076,240100,300123,360146,420178,480198,540202,600223,660252,720253,780261,840285,900314,960342,1020367,1080389,1140404,1200428,1260430,1320453,1380463,1440488,1500491,1560510,1620511,1680511
participant_0_GOLD,500,500,542,776,1064,1368,1554,1760,2035,2767,2889,3234,3854,4068,4564,4982,5352,5827,6863,7390,7513,7767,7939,8987,9443,9865,9988,10110,10287
participant_0_CURRENTGOLD,500,0,42,276,564,868,1054,160,435,1167,89,434,1054,418,914,232,602,1077,13,540,663,917,89,1137,1593,181,303,150,87
participant_0_LEVEL,1,1,1,2,4,5,6,6,7,8,8,9,10,10,11,11,12,12,13,13,13,13,13,14,14,15,15,15,15
participant_0_MINIONSKILLED,0,0,1,7,14,22,26,31,36,50,50,60,68,74,83,86,97,101,103,105,105,108,108,114,125,138,138,138,138
participant_0_KILLS,0,0,0,0,0,0,0,0,0,0,0,0,0,0,0,0,0,0,1,2,2,2,2,2,2,2,2,2,2
participant_0_BUY,[],"[3858, 3340, 2003, 2003]",[],[],[],[],[],[],"[3028, 2055, 2003, 2003]",[],"[1001, 2055]",[],"[1004, 1004, 3364]",[],[3114],[],[],[3117],[],[],[],"[3174, 1004, 1004]",[],[],[],[],[3222],[],[]
participant_0_SOLD,[],[],[],[],[],"[2010, 2010, 2003]",[2003],[],[2055],"[2010, 2003, 2003]",[],[],[3340],[],"[1004, 1004]",[2055],[3858],[1001],[],[],[],[3028],[],[],[],[3859],"[1004, 1004, 3114]",[],[]
participant_0_UNDO,[],[],[],[],[],[],[],[],[],[],[],[],[],[],[],[],[],[],[],[],[],[],[],[],[],[],[],[],[]
participant_1_GOLD,500,500,661,1013,1136,1420,1628,1750,2057,2201,2408,2616,2763,3737,3945,4167,4374,4722,4919,5288,5510,5752,5925,6047,6255,6377,6642,6765,6942
participant_1_CURRENTGOLD,500,0,161,513,636,920,1128,150,457,601,158,366,513,1487,370,592,799,1147,244,613,895,237,60,182,390,162,427,550,267
participant_1_LEVEL,1,1,2,3,3,4,4,4,5,5,5,6,6,7,8,8,8,8,9,9,9,10,10,10,10,10,10,11,12
participant_1_MINIONSKILLED,0,0,0,0,0,0,0,0,0,1,1,1,1,2,2,2,2,7,7,8,8,10,10,10,10,10,13,13,13
participant_1_KILLS,0,0,0,0,0,0,0,1,1,1,1,1,1,2,2,2,2,2,3,4,4,4,4,4,4,4,4,4,4
participant_1_BUY,[],[],[],"[1055, 2003, 2003, 3340]",[],[],[],[1038],[],[],[1037],[],"[1001, 2003, 2003]",[],"[3031, 1042]",[],[],"[3006, 1036]",[3133],[],[1038],[],[1018],[3508],[],[],[3067],[],[1028]
participant_1_SOLD,[],[],[],[],"[2003, 2003]",[],[],[],[],[],[],[],[],"[2003, 2003]","[1038, 1037]",[],[],"[1001, 1042]",[1036],[],[],[],[1055],"[1038, 3133, 1018]",[],[],[],[],[]
participant_1_UNDO,[],[],[],[],[],[],[],[],[],[],[],[],[],[],[],[],[],[],[],[],[],[],[],[],[],[],[],[],[]
participant_2_GOLD,500,500,521,755,983,1294,2071,2298,2518,2991,3530,3895,4180,4801,5074,5560,5837,6343,6994,7455,7608,7835,8007,8130,8387,8886,9113,9235,10877
participant_2_CURRENTGOLD,500,0,21,255,483,794,1571,348,568,1041,330,695,980,1601,324,510,787,58,709,1170,208,435,357,80,337,401,628,750,2392
participant_2_LEVEL,1,1,1,3,4,5,6,6,7,8,8,9,9,10,11,11,12,12,13,13,13,13,13,13,13,14,14,14,14
participant_2_MINIONSKILLED,0,0,0,7,13,21,32,38,44,47,55,66,72,80,85,91,100,101,109,111,112,118,118,118,125,128,128,128,128
participant_2_KILLS,0,0,0,0,0,0,0,0,0,0,0,0,0,1,1,1,1,1,1,1,1,1,1,1,1,1,1,1,1
participant_2_BUY,[],"[1039, 2031, 3340]",[],[],[],[],[],[3133],[],[],[3706],[],[],[],"[1400, 3111]",[],[],[],[3105],[],[],[1053],[1036],[],[],[1036],[],[],[3133]
participant_2_SOLD,[],[],[],[],[],[],[],[],[],[],[1039],[],[],[],"[3133, 3706, 2422]",[],[],[],[],[],[2031],[],[],[],[],[],[],[],"[1036, 1036]"
participant_2_UNDO,[],[],[],[],[],[],[],[],[],[],[],[],[],[],[],[],[],[],[],[],[],[],[],[],[],[],[],[],[]
participant_3_GOLD,500,500,521,643,1057,1312,1540,2164,2460,2709,2908,3253,3523,4311,4671,4877,5311,5845,6487,7585,7707,8123,8295,8418,8800,9222,9430,9650,9752
participant_3_CURRENTGOLD,500,500,521,93,507,762,990,314,610,859,183,528,398,1186,21,227,661,345,237,1335,157,573,125,148,530,952,360,580,102
participant_3_LEVEL,1,1,1,1,2,3,4,4,5,5,6,6,7,7,7,8,9,9,9,10,10,11,11,11,11,12,12,12,12
participant_3_MINIONSKILLED,0,0,0,0,15,23,29,40,47,54,58,68,74,85,89,94,108,115,115,128,128,141,141,141,147,160,160,166,166
participant_3_KILLS,0,0,0,0,0,0,1,1,1,2,3,3,3,4,4,5,5,6,7,7,7,7,7,7,7,8,8,8,10
participant_3_BUY,[],"[1036, 2003, 2003, 2003, 3340]",[],[],[],[],[],"[3145, 1001, 2003, 2003]",[],[],[3144],[],[],[],"[3146, 3020]",[1029],[],"[3191, 1052]",[],[],"[3108, 2420]",[],[3157],[1028],[],[1052],[],[],[]
participant_3_SOLD,[],[],[],[],[],"[2003, 2003]",[2003],[],[2003],[2003],[1036],[],[],[],"[3144, 3145, 1001]",[],[],[1029],[],[],"[3340, 1052]",[3513],"[3191, 3108, 2420]",[],[],[],[],[],[]
participant_3_UNDO,[],[],[],[],[],[],[],[],[],[],[],[],[],[],[],[],[],[],[],[],[],[],[],[],[],[],[],[],[]
participant_4_GOLD,500,500,544,678,862,1038,1194,1555,1703,1838,1993,2128,2340,2666,2822,2956,3172,3438,4178,4862,5044,5248,5438,5579,5874,6104,6245,6510,6919
participant_4_CURRENTGOLD,500,0,44,178,362,538,694,1055,228,363,143,278,240,566,172,306,522,88,828,1512,1694,348,538,679,974,1204,295,560,969
participant_4_LEVEL,1,1,1,2,3,4,4,5,5,6,6,6,6,7,7,7,8,8,9,10,10,10,10,10,11,11,11,11,12
participant_4_MINIONSKILLED,0,0,1,1,4,6,7,11,12,12,13,13,14,16,17,17,21,21,21,23,26,29,29,29,33,34,34,37,46
participant_4_KILLS,0,0,0,0,0,0,0,0,0,1,1,1,2,2,2,3,3,4,5,6,6,6,6,7,7,7,7,7,7
participant_4_BUY,[],"[1056, 2003, 2003, 3340]",[],[],[],[],[],"[3145, 2003]",[],[],"[1042, 1042, 3101, 1053]",[],[],"[3006, 1036]",[],[3146],[],[],"[3101, 3108, 2003, 2003]",[],[],[],[3115],"[2003, 2003]",[],"[1043, 1037, 1043, 1037]",[],[1052],[]
participant_4_SOLD,[],[],[],"[2003, 2010]",[],"[2003, 2010]",[],[],[2010],[2003],[1042],[],[],"[1042, 2422]",[],"[1053, 1036, 3145]",[],[],[],[],[],[],"[3101, 3108]",[],[],"[2003, 2003, 2003, 2003]",[],[1056],[]
participant_4_UNDO,[],[],[],[],[],[],[],[],[],[],"[[0, 1042], [0, 3101]]",[],[],[],[],[],[],[],[],[],[],[],[],"[[0, 2003], [0, 2003]]",[],"[[0, 1037], [2003, 0], [2003, 0], [0, 1043]]",[],[],[]
participant_5_GOLD,500,500,598,955,1253,1543,1876,2068,2406,2613,2882,3096,3232,3494,3824,4395,4581,4913,5140,5263,6659,7298,7554,8065,8439,8736,9318,10141,10716
participant_5_CURRENTGOLD,500,0,98,455,753,1043,1376,143,481,288,557,771,57,319,649,220,406,738,145,268,1664,2303,2559,3070,344,641,623,1446,441
participant_5_LEVEL,1,1,1,3,4,5,6,6,7,7,8,9,9,9,10,11,11,11,12,12,12,13,13,13,13,14,14,15,15
participant_5_MINIONSKILLED,0,0,4,15,25,32,44,48,58,63,72,77,78,86,95,98,102,114,120,120,125,129,130,132,139,145,150,155,156
participant_5_KILLS,0,0,0,0,0,0,0,1,1,2,2,2,2,2,2,2,2,2,4,4,4,4,6,6,6,7,7,7,9
participant_5_BUY,[],"[2003, 3340, 1055]",[],[],[],[],[],"[1038, 2003, 2055]",[],[],"[1001, 1036, 1036]",[3006],[],"[1036, 1036]",[],[],[3508],[1042],"[1042, 1018]",[],[3086],[],[],[3085],[1037],[],[],[],[1038]
participant_5_SOLD,[],[],[],[],[2010],"[2010, 2003]",[],[2010],[],[2003],[],[1001],[],[],[2055],[],"[1038, 1036, 1036]",[],[],[],"[1018, 1042]",[],[],[3086],[],[],[],[],[]
participant_5_UNDO,[],[],[],[],[],[],[],[],[],[],[],"[[0, 1036], [0, 1036]]",[],[],[],[],[],[],"[[0, 1042]]",[],[],[],[],[],[],[],[],[],[]
participant_6_GOLD,500,500,621,1033,1233,1492,1753,2074,2296,2658,3285,3661,4563,4798,5020,6286,6877,7182,7379,7614,8469,9266,9489,10598,10771,11843,12558,13358,14105
participant_6_CURRENTGOLD,500,0,121,533,733,992,1253,49,271,633,1260,1636,2538,1648,20,1286,1877,2182,79,314,1169,1966,2189,3299,71,1143,1859,2658,3455
participant_6_LEVEL,1,1,2,3,3,4,4,5,5,6,7,7,9,9,9,10,10,11,11,11,12,13,13,14,14,15,16,16,16
participant_6_MINIONSKILLED,0,0,0,0,0,0,0,3,3,6,6,6,9,9,9,14,14,14,14,17,21,23,23,30,30,30,34,38,43
participant_6_KILLS,0,0,0,0,0,0,0,0,0,0,0,0,0,0,0,0,0,0,0,0,0,0,0,0,0,0,0,0,0
participant_6_BUY,[],"[3340, 2033]",[],[],[],[],"[1001, 1052]",[],[],"[3145, 1028]",[],[],[],[3152],[],[1027],[],[3057],[],[],[3113],[],[],[],[1026],[],[3100],[],[]
participant_6_SOLD,[],[],[],[],[],[],[2010],[],[],[1052],[2010],[],[],"[3145, 1028]",[2010],[],[],[1027],[],[],[],[],[],[],[],[],"[3057, 3113, 1026]",[],[]
participant_6_UNDO,[],[],[],[],[],[],[],[],[],[],[],[],[],[],[],[],[],[],[],[],[],[],[],[],[],[],[],[],[]
participant_7_GOLD,500,500,542,850,1064,1396,1561,1938,2297,2534,2691,2937,3185,3356,3578,3898,4114,4438,4755,5033,5260,5433,5665,5921,6234,6570,7035,7415,7746
participant_7_CURRENTGOLD,500,0,42,350,564,896,326,703,1062,284,441,687,935,56,278,248,464,88,405,683,60,233,465,721,184,520,535,915,1246
participant_7_LEVEL,1,1,1,3,4,5,5,6,7,7,8,8,9,9,9,9,10,10,11,11,11,12,12,12,13,13,14,14,15
participant_7_MINIONSKILLED,0,0,1,9,14,24,26,39,49,53,55,61,68,71,72,77,82,86,93,97,103,103,105,107,111,115,117,117,118
participant_7_KILLS,0,0,0,0,0,0,0,0,0,0,0,1,1,1,1,1,1,3,3,3,3,3,3,3,3,3,3,3,3
participant_7_BUY,[],"[3850, 2003, 2003, 3340]",[],[],[],[],[],"[3114, 2055, 2003]",[],[],[],"[1001, 1052, 2055]",[],[3113],"[3364, 3158]",[],"[3504, 1004, 1004]",[],[3174],[],[],[],[],[],"[3801, 3114]",[3107],[],[],[]
participant_7_SOLD,[],[],[],[],[],"[2010, 2010]",[2003],[],[],"[2055, 2003]",[2003],[],[],"[3850, 1052, 2010]","[3340, 1001]",[],"[3114, 3113]",[],"[1004, 1004]",[],[],[3851],[],[2055],[],"[3114, 3801]",[],[],[]
participant_7_UNDO,[],[],[],[],[],[],[],[],[],[],[],[],[],[],[],[],[],[],[],[],[],[],[],[],[],[],[],[],[]
participant_8_GOLD,500,500,584,888,1130,1357,1564,1986,2373,2873,3238,3511,3818,3996,4434,5116,5330,5502,6253,6375,6710,7173,8068,8343,8650,9240,9739,10069,10717
participant_8_CURRENTGOLD,500,0,84,388,630,857,1064,91,478,978,343,516,823,301,739,1421,335,207,158,280,315,778,1673,748,180,770,1269,1599,917
participant_8_LEVEL,1,1,1,2,3,3,4,4,5,5,6,6,6,7,7,8,8,8,8,9,9,10,10,11,11,12,12,13,13
participant_8_MINIONSKILLED,0,0,3,14,21,24,29,29,42,46,52,52,58,61,71,75,80,80,82,82,85,89,94,99,99,105,105,105,106
participant_8_KILLS,0,0,0,0,0,0,0,0,0,0,0,0,0,0,0,1,1,1,1,1,3,4,4,5,5,5,5,6,7
participant_8_BUY,[],"[1054, 3340, 2003]",[],[],[],[],[],"[1001, 3145, 2055]",[],[1028],[],[],"[3067, 1033]",[],[],"[3152, 3111]",[],[],"[1029, 1029, 3076]",[],[],[],[],[],"[3136, 1026, 3151]",[],"[1042, 1042]",[],"[3101, 3108]"
participant_8_SOLD,[],[],[],[],[2003],[],[],[],[2055],[],[],[],[1028],[],[],"[3145, 3067, 1001, 1033]",[],[],"[1054, 1029, 1029]",[],[],[],[],[],"[3136, 1026]",[],[],[],"[1042, 1042]"
participant_8_UNDO,[],[],[],[],[],[],[],[],[],[],[],[],[],[],[],[],[],[],[],[],[],[],[],[],[],[],[],[],[]
participant_9_GOLD,500,500,523,657,836,1015,1240,1524,1658,2018,2247,2727,2986,3196,3461,4244,4405,5751,6131,6302,6667,7097,7387,7629,7819,8110,8571,9022,9416
participant_9_CURRENTGOLD,500,0,23,157,336,515,740,99,233,593,822,492,751,576,241,1024,285,1631,161,332,697,1127,1417,1659,399,40,501,952,1316
participant_9_LEVEL,1,1,1,2,3,3,4,5,5,6,6,6,7,7,7,8,8,9,9,9,10,10,11,11,11,12,12,13,13
participant_9_MINIONSKILLED,0,0,0,0,1,1,1,1,1,1,1,1,1,2,3,4,5,5,5,5,6,7,7,8,8,8,9,11,11
participant_9_KILLS,0,0,0,0,0,0,0,0,0,0,1,1,3,3,3,5,5,5,5,5,6,7,7,9,9,12,12,13,14
participant_9_BUY,[],"[1039, 2031]",[],[],[],[],[],"[3133, 1041, 2055, 3364]",[],[],[],[],[],"[1400, 1001]","[3133, 1036, 1036]",[],[],[],"[3147, 3067, 1028]",[],[],[],[],[],"[3071, 3111, 3123]",[],[],[],[]
participant_9_SOLD,[],[],[],[],[],[],[],[3340],[],[2055],[],[3364],[],"[3133, 1039, 1041]",[3513],[],[],[],"[1036, 1036, 3133]",[],[],[],[],[],"[1028, 3067, 1001]",[],[],[],[]
participant_9_UNDO,[],[],[],[],[],[],[],[],[],[],[],[],[],[],[],[],[],[],[],[],[],[],[],[],[],[],[],[],[]
team0_KILLS,0,0,0,0,0,0,1,2,2,4,5,5,6,9,9,11,11,13,17,20,20,20,20,21,21,22,22,22,24
team0_CURRENTGOLD,2500,500,789,1315,2552,3882,5437,2027,2298,4031,903,2301,3185,5258,1801,1867,3371,2715,2031,5170,3617,2510,1169,2226,3824,2900,2013,2590,3817
team0_TOTALGOLD,2500,2500,2789,3865,5102,6432,7987,9527,10773,12506,13728,15126,16660,19583,21076,22542,24046,26175,29441,32580,33382,34725,35604,37161,38759,40454,41418,42270,44777
team0_LEVEL,5,5,6,11,16,21,24,25,29,32,33,36,38,41,44,45,49,49,53,55,55,57,57,58,59,62,62,63,65
team0_SBIRES,0,0,2,15,46,72,94,120,139,164,177,208,229,257,276,290,328,345,355,375,379,406,406,412,440,470,473,482,491
team1_KILLS,0,0,0,0,0,0,0,1,1,2,3,4,6,6,6,9,9,11,13,13,16,18,20,23,23,27,27,29,33
team1_CURRENTGOLD,2500,0,368,1883,3016,4303,4759,1085,2525,2776,3423,4102,5104,2900,1927,4199,3367,4846,948,1877,3905,6407,8303,9497,1178,3114,4787,7570,7375
team1_TOTALGOLD,2500,2500,2868,4383,5516,6803,7994,9590,11030,12696,14343,15932,17784,18840,20317,23939,25307,27786,29658,30587,33765,36267,38163,40556,41913,44499,47221,50005,52700
team1_LEVEL,5,5,6,13,17,20,23,26,29,31,35,36,40,41,42,46,47,49,51,52,54,58,59,61,62,66,68,71,72
team1_SBIRES,0,0,8,38,61,81,100,120,153,169,186,197,214,229,250,268,283,299,314,321,340,351,359,376,387,403,415,426,434
delta_KILLS,0,0,0,0,0,0,1,1,1,2,2,1,0,3,3,2,2,2,4,7,4,2,0,-2,-2,-5,-5,-7,-9
delta_CURRENTGOLD,0,500,421,-568,-464,-421,678,942,-227,1255,-2520,-1801,-1919,2358,-126,-2332,4,-2131,1083,3293,-288,-3897,-7134,-7271,2646,-214,-2774,-4980,-3558
delta_TOTALGOLD,0,0,-79,-518,-414,-371,-7,-63,-257,-190,-615,-806,-1124,743,759,-1397,-1261,-1611,-217,1993,-383,-1542,-2559,-3395,-3154,-4045,-5803,-7735,-7923
delta_LEVEL,0,0,0,-2,-1,1,1,-1,0,1,-2,0,-2,0,2,-1,2,0,2,3,1,-1,-2,-3,-3,-4,-6,-8,-7
delta_SBIRES,0,0,-6,-23,-15,-9,-6,0,-14,-5,-9,11,15,28,26,22,45,46,41,54,39,55,47,36,53,67,58,56,57
