name,team0,team1
win,Win,Fail
firstBlood,True,False
firstTower,True,False
firstInhibitor,True,False
firstBaron,False,False
firstDragon,False,True
firstRiftHerald,False,True
towerKills,11,4
inhibitorKills,2,0
baronKills,0,0
dragonKills,4,1
riftHeraldKills,1,1
