name,frame_0,frame_1,frame_2,frame_3,frame_4,frame_5,frame_6,frame_7,frame_8,frame_9,frame_10,frame_11,frame_12,frame_13,frame_14,frame_15,frame_16,frame_17,frame_18,frame_19,frame_20,frame_21,frame_22,frame_23,frame_24,frame_25,frame_26,frame_27,frame_28,frame_29,frame_30,frame_31,frame_32,frame_33
nameStamp,Tstart,Tearly,Tearly,Tearly,Tearly,Tearly,Tearly,Tearly,Tearly,Tearly,Tearly,Tmid,Tmid,Tmid,Tmid,Tmid,Tmid,Tmid,Tmid,Tmid,Tmid,Tmid,Tend,Tend,Tend,Tend,Tend,Tend,Tend,Tend,Tend,Tend,Tend,Tend
timestamp,0,60008,120037,180050,240064,300093,360097,420100,480125,540150,600181,660207,720224,780256,840276,900291,960302,1020323,1080335,1140357,1200358,1260384,1320394,1380427,1440458,1500490,1560513,1620537,1680540,1740551,1800579,1860603,1920607,1980607
participant_0_GOLD,500,500,584,825,1081,1350,1578,2453,2589,2733,2905,3368,3581,3857,4222,4543,4875,5195,5772,5964,6461,6763,6885,7022,7214,7510,7913,8272,8865,9124,9507,9888,10060,10123
participant_0_CURRENTGOLD,500,0,84,325,231,500,28,153,289,133,305,768,131,407,772,243,75,45,622,814,161,463,185,322,164,460,863,172,165,424,207,88,260,323
participant_0_LEVEL,1,1,1,2,3,4,5,6,7,7,7,7,8,8,9,9,9,10,11,11,11,12,12,12,13,13,13,14,14,15,15,16,16,16
participant_0_MINIONSKILLED,0,0,3,10,18,24,30,38,39,40,40,47,53,62,65,67,76,85,87,87,89,89,89,90,90,96,105,111,111,114,115,126,126,126
participant_0_KILLS,0,0,0,0,1,1,1,1,2,4,4,4,4,5,6,7,9,9,10,10,11,12,12,12,14,15,16,16,17,17,17,17,18,18
participant_0_BUY,[],"[3850, 2003, 2003, 3340]",[],[],"[1082, 1052, 2003, 2055]",[],[],[],"[1026, 2055]",[],"[3115, 1001]",[],[],[3041],[3364],[3006],[],[1058],[],[],[],[],[1058],[],[],"[3089, 3145, 3802]",[],[],[],[],[],[6653],[],[]
participant_0_SOLD,[],[],[],"[2003, 2003]",[],[2055],[2003],[3850],[2055],[],"[1026, 1052]",[],[3851],[1082],[3340],[1001],[],[],[],[],[],[],[],[],[],"[1058, 1058]",[],[],[],[],[],[3802],[],[]
participant_0_UNDO,[],[],[],[],[],[],[],[],[],[],[],[],[],[],[],[],[],[],[],[],[],[],[],[],[],"[[0, 3145]]",[],[],[],[],[],[],[],[]
participant_1_GOLD,500,500,621,1048,1421,1725,2068,2445,2642,3052,3623,3846,4743,5071,5754,6445,7238,7821,7943,8972,9653,9825,9947,11359,11918,12400,12847,13012,13498,14620,15892,16200,16372,16435
participant_1_CURRENTGOLD,500,0,121,548,-179,125,468,495,692,1102,1673,246,1143,171,854,1545,-162,371,493,1522,2203,-165,-43,1369,678,1161,357,523,1008,2131,3403,1210,1383,-965
participant_1_LEVEL,1,1,2,3,3,4,5,5,6,6,7,7,8,8,9,10,10,11,11,12,13,13,13,13,14,14,15,15,15,16,17,17,17,17
participant_1_MINIONSKILLED,0,0,0,0,0,0,0,0,0,0,1,1,1,1,2,3,3,5,5,8,9,9,9,13,14,14,14,16,24,24,29,29,29,29
participant_1_KILLS,0,0,0,0,0,0,0,0,0,0,1,1,3,3,4,5,6,7,7,9,10,10,10,12,13,13,14,14,14,16,18,18,18,18
participant_1_BUY,[],"[1039, 2031, 3340, 3364]",[],[],[3145],[],[],[1082],[],[],[],"[1026, 1028, 3020]",[],[4636],[],[],"[3041, 1058]",[],[],[],[],"[1058, 3089]",[],[],[4630],[],[3135],[],[2420],[],[],[3157],[],[3102]
participant_1_SOLD,[],[3340],[],[],[],[],[],[],[],[],[1039],[2422],[],"[3145, 1026]",[],[],[1082],[],[],[],[],"[2031, 1058, 1058]",[],[],[],[],[4630],[],[],[],[],[],[],[3157]
participant_1_UNDO,[],[],[],[],[],[],[],[],[],[],[],"[[0, 1028]]",[],[],[],[],[],[],[],[],[],[],[],[],[],[],[],[],"[[0, 2420]]",[],[],[],[],[]
participant_2_GOLD,500,500,612,797,1387,1670,2020,2142,2404,2681,3184,3459,4325,4475,5114,5334,5498,6676,6997,7190,7562,7734,7871,7994,8836,8958,9751,10006,10323,10530,10702,10825,11039,11102
participant_2_CURRENTGOLD,500,0,112,297,887,1160,1500,172,434,711,64,329,895,1045,1684,204,368,1546,217,410,231,404,541,64,906,78,871,576,894,1100,1273,275,489,402
participant_2_LEVEL,1,1,1,3,4,5,6,6,6,7,8,8,8,9,9,10,10,10,10,11,11,11,11,12,13,13,14,14,14,14,14,14,15,15
participant_2_MINIONSKILLED,0,0,5,8,18,25,35,35,43,52,61,67,68,70,74,80,82,84,86,86,88,88,89,89,90,90,103,107,114,119,119,119,122,122
participant_2_KILLS,0,0,0,0,0,0,0,1,1,1,1,1,1,1,1,1,1,1,2,2,3,3,3,3,3,3,3,3,4,4,4,4,4,4
participant_2_BUY,[],"[1055, 2003]",[],[],[1036],[],"[1036, 1036]","[3134, 1036]",[],[1001],[],[],"[1053, 1029]",[],[],[6692],[3047],[1036],[],[],"[3133, 1028]",[3363],[3067],[],[1036],[],[],[3071],"[1029, 1029]",[],"[3076, 1028]",[1011],[],[]
participant_2_SOLD,[],[],[],[2003],[],[],[],"[1036, 1036]",[],[],[],[],[1036],[],[],"[3134, 1036, 1053]","[1001, 1029]",[],[],[],[1036],[3340],[1028],[],[],[],[],"[3133, 3067, 1036]",[],[],"[1029, 1029]",[1028],[],[]
participant_2_UNDO,[],[],[],[],[],[],[],[],[],[],[],[],[],[],[],[],[],[],[],[],[],[],[],[],[],[],[],[],[],[],[],[],[],[]
participant_3_GOLD,500,500,563,1190,1376,1722,1873,2553,2892,3825,4319,4692,5742,6091,6663,7192,7414,7849,8393,8751,9412,9885,10366,10748,11080,11481,12365,12523,13021,13451,13768,14113,14250,14334
participant_3_CURRENTGOLD,500,0,63,40,226,397,548,78,417,1350,144,517,1557,91,653,1182,229,664,1208,116,777,150,631,139,470,871,380,538,1037,1466,339,684,820,-166
participant_3_LEVEL,1,1,1,2,2,4,5,5,6,7,7,8,8,9,9,10,10,11,11,12,13,13,13,13,14,14,15,15,15,16,16,16,16,16
participant_3_MINIONSKILLED,0,0,2,8,12,22,24,30,36,49,51,62,67,71,84,100,100,110,115,115,122,122,128,130,135,141,152,154,168,175,182,191,192,193
participant_3_KILLS,0,0,0,1,1,1,1,2,2,3,3,3,4,4,4,4,4,4,4,5,5,6,6,6,6,6,6,6,6,6,6,6,6,6
participant_3_BUY,[],"[1055, 2003]",[],"[1036, 1001]",[],"[2055, 2003, 2003]",[],"[6670, 2055, 2055, 2003]",[],[],"[1053, 3006]",[],[],"[3134, 6692, 1036, 2055, 3363]",[],[],"[3134, 1036, 2055]",[],[],[3814],[],[3134],[],[1037],[],[],"[6676, 1036]",[],[],[],"[3134, 1037]",[],[],[]
participant_3_SOLD,[],[],[],[2003],[],[2055],"[2003, 2003]",[1036],[2055],[],[1001],[2055],[],"[6670, 3134, 1053, 3340]",[2055],[],"[2003, 1036]",[],[],"[1036, 3134]",[2055],[],[],[],[],[],"[3134, 1037]",[],[],[],"[1036, 1055]",[],[],[]
participant_3_UNDO,[],[],[],[],[],[],[],[],[],[],[],[],[],[],[],[],[],[],[],[],[],[],[],[],[],[],[],[],[],[],[],[],[],[]
participant_4_GOLD,500,500,583,992,1500,1755,1989,2387,2917,3987,4560,4760,5296,5764,6304,6744,7621,7775,8204,8610,9093,9816,9956,10192,11164,11754,12244,12486,13036,13383,13663,14054,14644,14717
participant_4_CURRENTGOLD,500,0,83,492,90,345,579,977,582,1652,210,410,946,164,704,344,1221,125,554,960,1443,2166,1056,1293,2264,254,745,986,1536,1883,2164,454,1044,1117
participant_4_LEVEL,1,1,1,2,3,3,4,4,5,5,5,6,6,7,7,7,8,8,9,10,10,11,11,11,12,12,13,13,14,14,14,15,15,15
participant_4_MINIONSKILLED,0,0,0,1,2,2,2,5,6,6,10,10,12,14,14,14,18,19,20,28,31,37,37,38,44,44,44,44,44,48,49,56,56,56
participant_4_KILLS,0,0,0,0,1,1,1,1,1,1,1,1,2,2,2,2,2,3,3,3,3,3,3,3,4,4,5,5,5,5,5,5,5,5
participant_4_BUY,[],"[1054, 1055, 2003, 3340]",[],[],[],[],[],"[6677, 1018, 2003]",[],[],"[3006, 2003]",[],[1042],[],[],"[3124, 1018]",[],[],"[6670, 1036]",[],[1053],[],[],[6673],[],"[1018, 1036]",[],[1053],[],[],[],[1038],[],[]
participant_4_SOLD,[],[],[],[],[],[2003],[],[],[2003],[],[],[2003],[],[],[],"[6677, 1018, 1042]",[],[],[],[],[1036],[],[],"[6670, 1018, 1053]",[],[],[],[1036],[],[],[],[1055],[],[]
participant_4_UNDO,[],"[[0, 1054]]",[],[],[],[],[],[],[],[],[],[],[],[],[],[],[],[],[],[],[],[],[],[],[],[],[],[],[],[],[],[],[],[]
participant_5_GOLD,500,500,584,1145,1674,1902,2595,3275,3795,4819,5605,6431,7074,7816,8220,8555,9247,10102,10280,10508,11455,12002,12440,12865,12987,13342,13464,14186,14888,15421,16659,16782,17290,17922
participant_5_CURRENTGOLD,500,0,84,645,1174,202,895,400,920,1944,830,1106,1749,691,1095,30,722,507,686,113,1060,203,640,1066,288,642,765,1487,739,1272,60,183,691,897
participant_5_LEVEL,1,1,1,3,5,5,6,7,8,9,10,10,11,11,12,12,13,13,13,14,14,15,15,15,15,15,15,16,17,17,18,18,18,18
participant_5_MINIONSKILLED,0,0,3,10,17,20,37,41,61,73,85,96,109,109,117,124,134,137,140,141,149,149,157,162,162,167,167,180,188,204,208,208,209,213
participant_5_KILLS,0,0,0,0,0,0,0,0,0,0,0,0,1,1,2,3,4,4,5,6,6,8,8,9,10,12,13,13,13,14,14,15,17,17
participant_5_BUY,[],"[1039, 3340, 2031]",[],[],"[1036, 1036]",[],[],"[3134, 1036]",[],[3133],[],[],"[6691, 3364, 1036]",[1036],"[3134, 3134, 1028]",[],[3814],[],"[1036, 1036]",[],[3134],[],"[3111, 1018]",[1037],[],"[6676, 2420]",[],[],[1038],[3026],[1036],[],[3155],[]
participant_5_SOLD,[],[],[],[],[],[],[],"[1036, 1036]",[1039],"[2031, 1036]",[],[],"[3134, 3133, 3340]",[],"[1036, 1036, 1036, 1036]",[],"[3134, 1028]",[],[],[],"[1036, 1036]",[],[2422],[],[],"[3134, 1037, 1018]",[],[],[],"[2420, 1038, 2421]",[],[],[1036],[]
participant_5_UNDO,[],[],[],[],[],[],[],[],[],[],[],[],[],[],"[[0, 3134]]",[],[],[],[],[],[],[],[],[],[],[],[],[],[],[],[],[],[],[]
participant_6_GOLD,500,500,726,1118,1526,1830,2123,2330,2657,2915,3370,3760,4332,4694,5236,5904,6702,6874,7296,7854,7997,9098,9423,9938,10435,11307,12065,12341,12839,13436,13608,14432,15455,15618
participant_6_CURRENTGOLD,500,0,226,618,326,630,923,380,707,275,730,1120,342,354,96,764,162,334,56,614,357,1458,384,23,520,318,1075,1352,549,296,119,943,1016,1118
participant_6_LEVEL,1,1,2,3,4,4,5,6,6,6,7,8,8,9,9,10,10,10,11,11,11,12,13,13,13,14,15,15,16,16,16,17,17,17
participant_6_MINIONSKILLED,0,0,0,0,0,0,0,0,0,0,4,4,4,5,5,5,5,5,5,5,6,8,8,10,10,10,14,19,19,19,19,23,27,27
participant_6_KILLS,0,0,0,0,1,1,1,1,1,1,1,2,2,2,3,3,4,4,4,6,6,8,8,8,9,9,10,11,12,12,12,12,13,14
participant_6_BUY,[],"[1055, 2003, 3340]",[],"[1036, 2003]",[],"[1042, 1036, 2031]",[],"[1001, 6670, 1001]",[],"[3006, 1042]",[],[],"[6670, 1037, 1037]",[1042],[],[1018],"[6672, 1042, 6677]",[3363],[],[],[3124],[],[3140],[1018],[],[1037],[],[],"[3139, 1038, 1037]",[],[],"[3095, 1033]",[],[]
participant_6_SOLD,[],[],[],[2003],[2003],[],[],"[1036, 1042, 1036]",[],"[1001, 1042]",[],[],"[1036, 1042, 1036]",[],[],[2031],"[6670, 1018, 1037, 1042, 1042]",[3340],[],[],[6677],[],[],[],[1055],[],[],[],"[3140, 1018, 1037]",[],[],"[1038, 1037, 1038, 1037]",[],[]
participant_6_UNDO,[],[],[],[],[],[],[],"[[0, 1001], [0, 6670]]",[],[],[],[],"[[0, 1037]]",[],[],[],[],[],[],[],[],[],[],[],[],[],[],[],[],[],[],"[[1037, 0], [1038, 0]]",[],[]
participant_7_GOLD,500,500,584,976,1538,1849,2122,2377,2596,2931,3144,3469,3591,3954,4322,4500,4991,5476,5598,5994,6816,7330,8054,8390,8533,8906,9092,9333,9911,10354,10526,10649,11193,11925
participant_7_CURRENTGOLD,500,0,84,466,1028,1329,1592,297,506,831,194,509,631,994,487,165,656,1141,113,509,981,895,204,540,58,432,192,433,262,354,527,99,644,1375
participant_7_LEVEL,1,1,1,3,4,5,6,6,7,7,8,8,8,9,9,9,10,10,10,11,11,12,12,13,13,13,13,14,14,14,15,15,15,16
participant_7_MINIONSKILLED,0,0,3,16,23,31,37,45,48,57,62,68,68,79,79,82,96,100,100,102,102,103,111,115,116,127,131,136,138,138,138,138,150,156
participant_7_KILLS,0,0,0,1,1,1,1,1,1,1,1,1,1,1,1,1,1,1,1,1,1,1,1,1,1,1,1,1,1,1,1,1,2,2
participant_7_BUY,[],"[3850, 3340, 2003, 2003]",[],[],"[1028, 1029, 2003]",[],[],[3067],[],[],[1052],[],"[1001, 1004]",[],[4642],[1004],[],[3114],[3158],[],[],[],[4005],[],"[1026, 3364]",[3504],[],[1004],[1026],[],[3114],[],[],[]
participant_7_SOLD,[],[],[],"[2003, 2003]",[],[],[2003],[1028],[],[],[],[],[3850],[],"[1004, 1052]",[],[],[1004],[1001],[],[1029],[],"[3067, 4642]",[3851],[3340],"[3114, 1026]",[],[],[1029],[],[1004],[],[],[]
participant_7_UNDO,[],[],[],[],[],[],[],[],[],[],[],[],[],[],[],[],[],[],[],[],"[[1029, 0]]",[],[],[],[],[],[],[],[],[],[],[],[],[]
participant_8_GOLD,500,500,563,911,1533,1865,2030,2362,2731,2854,3179,4107,4356,4499,5061,5348,6004,6357,6787,7888,8010,9323,9760,9933,10470,10827,11642,12735,13772,13902,14231,14454,15267,15980
participant_8_CURRENTGOLD,500,0,63,11,633,165,329,362,731,54,379,1306,371,214,776,523,54,407,837,1938,60,1374,511,83,800,283,1097,2191,927,1057,1387,372,1185,-467
participant_8_LEVEL,1,1,1,2,3,4,4,5,6,6,6,7,7,7,8,8,9,9,9,10,10,12,12,12,13,13,14,14,15,15,15,15,16,16
participant_8_MINIONSKILLED,0,0,2,8,16,26,28,41,49,49,61,63,67,68,75,79,83,89,92,101,101,104,105,105,105,105,109,115,119,119,123,123,130,132
participant_8_KILLS,0,0,0,0,1,1,1,1,1,1,1,1,1,1,1,1,1,1,1,1,2,2,3,3,3,3,3,3,3,4,4,4,4,5
participant_8_BUY,[],"[1055, 2003, 3340]",[],[],[],[],[],"[1053, 1042, 1001, 2003]",[],[],"[1043, 1037, 1043, 2031]",[],[],[],[1037],"[3153, 2055, 3364, 3340]",[],[],"[1036, 1036, 3020]",[],[1036],[6670],"[1018, 1037]",[],[6672],[],"[1036, 2055]",[],[3133],[1036],[],[1053],[],[]
participant_8_SOLD,[],[],[],[],[2003],[],[],[],[],[2003],"[1042, 1042]",[],[],[],[],"[1053, 1043, 1037, 3340, 3364]",[2055],[],[1001],[],[],"[1036, 1036]",[2031],[],"[6670, 1018, 1037]",[],[],[2055],[1036],[],[],[1036],[],[]
participant_8_UNDO,[],[],[],[],[],[],[],[],[],[],"[[0, 1043], [0, 1037]]",[],[],[],[],[],[],[],"[[0, 1036]]",[],[],[],[],[],[],[],[],[],[],[],[],[],[],[]
participant_9_GOLD,500,500,523,1098,1287,1421,1630,1764,1912,2108,2242,2651,2996,3171,3393,3669,3945,4267,4467,4798,4999,5699,5910,6410,6700,6841,7152,7473,7963,8302,8597,8758,9855,10167
participant_9_CURRENTGOLD,500,0,23,598,37,171,380,114,262,458,157,566,361,536,393,419,695,467,67,398,599,1299,660,1160,601,91,402,473,323,663,407,568,1665,1557
participant_9_LEVEL,1,1,1,2,2,3,3,3,4,4,5,5,6,6,6,7,7,8,8,9,9,11,11,11,12,12,12,13,13,14,14,14,15,16
participant_9_MINIONSKILLED,0,0,0,1,2,2,3,3,4,5,5,6,6,8,9,10,10,14,14,14,15,16,16,16,16,16,17,19,19,22,24,25,25,26
participant_9_KILLS,0,0,0,1,2,2,3,4,4,5,6,6,7,8,8,8,9,10,10,10,11,11,11,11,11,11,11,12,12,12,14,14,14,15
participant_9_BUY,[],"[1055, 3340, 2003]",[],[],[],[3077],[],"[3047, 2055]",[],[],"[3133, 3067]","[3074, 1036]",[],"[6660, 1031]",[],[6662],[],"[3076, 1033]",[],[3211],[],"[3067, 3065]",[],[],[1011],[],[],[],"[3075, 1033]",[],[4401],[],[],[]
participant_9_SOLD,[],[],[],[],[],[],[2003],[],[],[],[],"[3077, 2055]",[],[],[],"[6660, 1031]","[3340, 3513]",[1055],[],[1033],[],"[1036, 3211, 3067]",[],[],[],[],[],[],"[3076, 1011]",[],[1033],[],[],[]
participant_9_UNDO,[],[],[],[],[],[],[],[],[],[],[],"[[0, 3067], [0, 3133]]",[],[],[],[],[],[],[],[],[],[],[],[],[],[],[],[],[],[],[],[],[],[]
team0_KILLS,0,0,0,1,3,3,3,5,6,9,10,10,14,15,17,19,22,24,26,29,32,34,34,36,40,41,44,44,46,48,50,50,51,51
team0_CURRENTGOLD,2500,0,463,1702,1255,2527,3123,1875,2414,4948,2396,2270,4672,1878,4667,3518,1731,2751,3094,3822,4815,3018,2370,3187,4482,2824,3216,2795,4640,7004,7386,2711,3996,711
team0_TOTALGOLD,2500,2500,2963,4852,6765,8222,9528,11980,13444,16278,18591,20125,23687,25258,28057,30258,32646,35316,37309,39487,42181,44023,45025,47315,50212,52103,55120,56299,58743,61108,63532,65080,66365,66711
team0_LEVEL,5,5,6,12,15,20,25,26,30,32,34,36,38,41,43,46,47,50,52,56,58,60,60,61,66,66,70,71,72,75,76,78,79,79
team0_SBIRES,0,0,10,27,50,73,91,108,124,147,163,187,201,218,239,264,279,303,313,324,339,345,352,360,373,385,418,432,461,480,494,521,525,526
team1_KILLS,0,0,0,2,5,5,6,7,7,8,9,10,12,13,15,16,19,20,21,24,26,30,31,32,34,36,38,40,41,43,45,46,50,53
team1_CURRENTGOLD,2500,0,480,2338,3198,2497,4119,1553,3126,3562,2290,4607,3454,2789,2847,1901,2289,2856,1759,3572,3057,5229,2399,2872,2267,1766,3531,5936,2800,3642,2500,2165,5201,4480
team1_TOTALGOLD,2500,2500,2980,5248,7558,8867,10500,12108,13691,15627,17540,20418,22349,24134,26232,27976,30889,33076,34428,37042,39277,43452,45587,47536,49125,51223,53415,56068,59373,61415,63621,65075,69060,71612
team1_LEVEL,5,5,6,13,18,21,24,27,31,32,36,38,40,42,44,46,49,50,51,55,55,62,63,64,66,67,69,72,75,76,78,79,81,83
team1_SBIRES,0,0,8,35,58,79,105,130,162,184,217,237,254,269,285,300,328,345,351,363,373,380,397,408,409,425,438,469,483,502,512,517,541,554
delta_KILLS,0,0,0,-1,-2,-2,-3,-2,-1,1,1,0,2,2,2,3,3,4,5,5,6,4,3,4,6,5,6,4,5,5,5,4,1,-2
delta_CURRENTGOLD,0,0,-17,-636,-1943,30,-996,322,-712,1386,106,-2337,1218,-911,1820,1617,-558,-105,1335,250,1758,-2211,-29,315,2215,1058,-315,-3141,1840,3362,4886,546,-1205,-3769
delta_TOTALGOLD,0,0,-17,-396,-793,-645,-972,-128,-247,651,1051,-293,1338,1124,1825,2282,1757,2240,2881,2445,2904,571,-562,-221,1087,880,1705,231,-630,-307,-89,5,-2695,-4901
delta_LEVEL,0,0,0,-1,-3,-1,1,-1,-1,0,-2,-2,-2,-1,-1,0,-2,0,1,1,3,-2,-3,-3,0,-1,1,-1,-3,-1,-2,-1,-2,-4
delta_SBIRES,0,0,2,-8,-8,-6,-14,-22,-38,-37,-54,-50,-53,-51,-46,-36,-49,-42,-38,-39,-34,-35,-45,-48,-36,-40,-20,-37,-22,-22,-18,4,-16,-28
