name,frame_0,frame_1,frame_2,frame_3,frame_4,frame_5,frame_6,frame_7,frame_8,frame_9,frame_10,frame_11,frame_12,frame_13,frame_14,frame_15,frame_16,frame_17,frame_18,frame_19,frame_20,frame_21,frame_22,frame_23,frame_24,frame_25,frame_26,frame_27
nameStamp,Tstart,Tearly,Tearly,Tearly,Tearly,Tearly,Tearly,Tearly,Tearly,Tearly,Tearly,Tearly,Tmid,Tmid,Tmid,Tmid,Tmid,Tmid,Tmid,Tmid,Tmid,Tmid,Tmid,Tmid,Tmid,Tmid,Tmid,Tmid
timestamp,0,60025,120054,180069,240097,300121,360126,420145,480172,540194,600203,660216,720235,780256,840289,900310,960334,1020362,1080362,1140382,1200411,1260439,1320440,1380465,1440491,1500507,1560540,1620540
participant_0_GOLD,500,500,563,899,1127,1319,1568,1938,2102,2372,2654,3045,3167,3422,3745,3867,4513,4809,5280,5458,5701,6012,6454,7221,7777,7924,8363,8644
participant_0_CURRENTGOLD,500,0,63,399,627,469,318,688,852,1122,79,470,242,497,820,142,788,1084,1555,333,576,887,229,996,1552,129,568,669
participant_0_LEVEL,1,1,1,3,4,5,5,6,6,7,7,8,8,9,9,9,10,11,11,11,12,12,13,13,14,14,14,14
participant_0_MINIONSKILLED,0,0,2,12,17,21,29,41,43,52,52,62,62,70,78,78,95,101,106,109,113,124,128,135,143,143,143,147
participant_0_KILLS,0,0,0,0,0,0,0,0,0,0,0,0,1,1,2,2,2,3,4,4,4,6,8,8,8,8,8,8
participant_0_BUY,[],"[1039, 2031, 3340]",[],[],[1052],[],"[1052, 1052]",[],[3108],[],[],[3706],"[1402, 3145]",[],[],"[3020, 1028]",[],[3067],[3152],[1026],[],[],[],[3151],[],[1026],[],[]
participant_0_SOLD,[],[],[],[],[],[],[],[],[1052],[],[],[1039],"[3108, 3706, 1052, 1052]",[],[],[2422],[],[1028],"[3145, 3067]",[],[],[],[],[1026],[],[],[],[]
participant_0_UNDO,[],[],[],[],[],[],[],[],[],[],[],[],[],[],[],[],[],[],[],[],[],[],[],[],[],[],[],[]
participant_1_GOLD,500,500,621,1018,1241,1498,1706,2018,2325,2698,2995,3318,3789,4181,4810,5117,5572,6218,6790,6913,7223,7932,9120,9529,9903,10125,10394,10593
participant_1_CURRENTGOLD,500,0,121,518,306,563,-149,163,-45,328,625,298,-61,331,960,17,472,718,640,-137,173,882,2070,230,603,-75,194,693
participant_1_LEVEL,1,1,2,3,3,4,4,5,5,6,6,7,8,8,9,9,10,11,11,11,11,12,13,13,14,14,14,14
participant_1_MINIONSKILLED,0,0,0,0,0,0,0,0,0,0,0,0,3,3,4,4,4,5,5,5,6,6,15,15,15,15,15,15
participant_1_KILLS,0,0,0,0,0,0,0,0,0,0,0,0,0,0,0,0,0,0,1,1,1,1,1,2,2,2,2,2
participant_1_BUY,[],"[3340, 1054, 2003]",[],[],[],"[1036, 1028]",[1028],[],[],[],"[1053, 3144, 2055]",[],[1036],[],[],"[3044, 1001]",[],[],[],"[3111, 1042, 1042]",[],[],[3153],[],[],"[3067, 3071]",[],[]
participant_1_SOLD,[],[],[],[],[2003],[],[],[],[],[],"[1036, 1053]",[2055],[],[],[],"[1028, 1036]",[],[],[],[1001],[],[],"[3144, 1042, 1042]",[],[],"[1054, 3044, 3067]",[],[]
participant_1_UNDO,[],[],[],[],[],"[[0, 1028]]",[],[],[],[],[],[],[],[],[],[],[],[],[],[],[],[],[],[],[],[],[],[]
participant_2_GOLD,500,500,591,888,1091,1409,1738,2021,2213,2877,3204,3557,3953,4365,4660,5020,6089,6349,6572,6917,7494,7807,8668,9115,9538,9661,10059,10342
participant_2_CURRENTGOLD,500,0,91,388,591,434,763,611,318,982,1309,307,703,65,360,720,1789,399,187,532,44,357,1218,65,488,611,1009,1292
participant_2_LEVEL,1,1,1,3,4,5,6,6,7,7,8,8,9,9,10,10,11,11,11,12,12,12,13,13,13,13,14,14
participant_2_MINIONSKILLED,0,0,4,14,18,28,37,46,50,57,68,75,87,99,106,116,125,128,128,137,137,137,148,148,154,154,164,169
participant_2_KILLS,0,0,0,0,0,0,0,0,0,1,1,1,1,1,1,1,2,2,2,2,3,3,3,4,4,4,4,4
participant_2_BUY,[],"[1056, 2003, 2003, 3340]",[],[],[],"[1082, 2031, 2003, 2055]",[],[1052],"[1052, 2003]",[],[],"[3802, 1026, 2055]",[],[3285],[],[],[],"[3020, 1026]",[1052],[],[3136],[],[],"[3151, 1026]",[],[],[],[]
participant_2_SOLD,[],[],[],[2003],[2003],[],[],"[2055, 2003]",[],[2003],[],"[1052, 1052]",[],"[3802, 1026]",[],[],[],[2422],[2055],[],[1052],[],[],"[3136, 1026]",[],[],[],[]
participant_2_UNDO,[],[],[],[],[],"[[0, 2031]]",[],[],[],[],[],[],[],[],[],[],[],[],[],[],[],[],[],[],[],[],[],[]
participant_3_GOLD,500,500,591,955,1099,1508,2015,2685,3177,3640,3910,5213,5360,5629,5857,6119,7013,7210,7559,7799,8510,8821,9223,9874,10403,10525,11083,11337
participant_3_CURRENTGOLD,500,0,91,455,124,533,140,809,1302,1765,2035,3338,35,4,232,494,1388,485,234,474,385,697,223,874,1403,1706,538,612
participant_3_LEVEL,1,1,1,2,2,3,4,5,5,6,7,7,7,8,8,9,9,10,10,10,11,12,12,13,13,13,13,14
participant_3_MINIONSKILLED,0,0,4,16,17,31,36,41,53,65,74,86,86,95,102,110,114,114,114,117,121,126,128,135,141,141,146,152
participant_3_KILLS,0,0,0,0,0,0,2,3,3,3,3,3,3,3,3,3,3,3,4,4,5,5,5,5,6,6,6,6
participant_3_BUY,[],"[3850, 2003, 2003, 3340]",[],[],[],[],"[3020, 2003, 2003, 2055]",[],[],"[1052, 1028]",[],[],[],[3136],[1026],[],"[3151, 3364]",[],[],[1026],[1052],[],[1028],[],[],[3116],[],[]
participant_3_SOLD,[],[],[],"[2003, 2003]",[],[],[],"[2055, 2419]",[],[],[3850],[2003],[2003],"[1028, 1052]",[2423],[],"[3136, 1026, 3340]",[],[],[],[3851],[],[2424],[],[],"[1026, 1052, 1028]",[],[]
participant_3_UNDO,[],[],[],[],[],[],[],[],[],[],[],[],[],[],[],[],[],[],[],[],[],[],[],[],[],[],[],[]
participant_4_GOLD,500,500,583,792,972,1151,1901,2507,2905,3134,3270,3741,3881,4161,4497,4682,5186,5326,6019,6201,6782,6991,7307,7546,8090,8230,8462,8618
participant_4_CURRENTGOLD,500,0,83,292,472,651,126,732,1130,524,660,1131,1271,886,372,557,311,451,1144,476,623,832,787,1026,1570,796,1027,1143
participant_4_LEVEL,1,1,1,2,2,3,4,5,6,6,6,7,7,7,7,7,8,8,9,10,10,11,11,11,12,12,12,13
participant_4_MINIONSKILLED,0,0,0,0,0,0,0,0,1,1,1,1,1,1,1,1,1,1,4,7,11,11,11,12,17,17,18,18
participant_4_KILLS,0,0,0,0,0,0,0,1,1,1,1,2,2,2,2,2,3,3,3,3,3,3,3,4,4,4,5,5
participant_4_BUY,[],"[1055, 2003, 3340]",[],[],"[1036, 2055, 2003]",[],"[1053, 1036]",[],[],[],[],[],"[3153, 3006, 1042, 1042]",[1042],[],[],[],[3086],[3085],[],[1018],[],[1037],[],[],[],[3031],[]
participant_4_SOLD,[],[],[],[],[],[],"[2003, 2003, 1036]",[],[],[],[2055],[],"[1053, 1036, 2422]",[],[],[],[],[1042],"[3340, 1042, 3086, 1042]",[3513],[],[],[],[],[],[1055],"[1037, 1018]",[]
participant_4_UNDO,[],[],[],[],[],[],[],[],[],[],[],[],[],[],[],[],[],[],[],[],[],[],[],[],[],[],[],[]
participant_5_GOLD,500,500,542,769,1064,1431,1725,1959,2416,2570,3351,3714,3913,4330,4893,5151,5835,6195,6554,7134,7610,8015,8170,8556,8912,9536,9694,9743
participant_5_CURRENTGOLD,500,0,42,269,564,931,200,434,891,320,1101,1464,63,480,1043,251,935,1295,554,1134,60,465,185,571,577,501,244,293
participant_5_LEVEL,1,1,1,2,4,5,5,6,7,7,8,9,9,10,11,11,11,12,12,13,13,14,14,14,14,15,15,15
participant_5_MINIONSKILLED,0,0,1,7,15,26,33,40,56,58,72,76,81,95,104,111,122,132,141,145,148,156,158,165,170,186,188,188
participant_5_KILLS,0,0,0,0,0,0,0,0,0,0,0,0,0,0,0,0,0,0,0,0,0,0,0,0,0,0,0,0
participant_5_BUY,[],"[2003, 2003, 3340, 3858]",[],[],[],"[1004, 1004, 1029, 2003, 2003]","[2003, 2003]",[],[],[],[],[],[],[],[],[],[],[],[],[],[],[],[],[],[],[],[],[]
participant_5_SOLD,[],[],[],[2003],[],[],"[2003, 2003]",[],[],[],[],[],[],[],[],[],[],[],[],[],[],[],[],[],[],[],[],[]
participant_5_UNDO,[],[],[],[],[],[],[],[],[],[],[],[],[],[],[],[],[],[],[],[],[],[],[],[],[],[],[],[]
participant_6_GOLD,500,500,621,913,1635,2218,2412,2619,2932,3071,3394,3961,4103,4931,5888,6223,6715,6982,7105,8097,9154,9376,9498,9621,10661,10839,10963,11012
participant_6_CURRENTGOLD,500,0,121,413,1135,1718,137,344,657,156,479,1046,18,846,1803,613,355,622,395,1387,294,116,238,361,1401,480,603,562
participant_6_LEVEL,1,1,2,2,3,4,5,5,6,6,6,7,7,8,9,9,9,10,10,10,11,11,11,12,13,13,13,13
participant_6_MINIONSKILLED,0,0,0,0,0,0,0,0,0,0,0,1,1,1,6,6,6,8,8,8,9,9,9,9,17,20,20,20
participant_6_KILLS,0,0,0,0,0,0,0,1,1,1,1,2,2,2,2,2,2,2,2,3,3,4,4,4,4,4,4,4
participant_6_BUY,[],"[1054, 2003, 3340]",[],[],[],"[1001, 1028]",[],[],"[3211, 2055]",[],[],[],[],"[3194, 2055]",[],[],[3047],[],[1026],[],"[1052, 1028]",[],[3136],[],[],[],[],[]
participant_6_SOLD,[],[],[],[2003],[],[],[],[],[1028],[2055],[],[],[],[3211],[2055],[],[1001],[],[],[],[],[],"[1028, 1052]",[],[],[],[],[]
participant_6_UNDO,[],[],[],[],[],[],[],[],[],[],[],[],[],[],[],[],[],[],[],[],[],[],[],[],[],[],[],[]
participant_7_GOLD,500,500,577,811,1095,1268,1581,2052,2327,2578,2795,3559,3839,3996,4623,4835,5014,5432,5560,6167,6359,7126,7252,7374,7497,7619,7743,7792
participant_7_CURRENTGOLD,500,0,77,311,595,68,381,852,252,503,720,1484,1764,246,873,1085,464,882,160,767,124,891,352,474,597,719,843,892
participant_7_LEVEL,1,1,1,3,4,5,6,7,7,8,8,9,10,10,11,11,11,12,12,12,13,13,13,13,13,13,13,13
participant_7_MINIONSKILLED,0,0,3,9,15,18,25,26,32,36,42,50,55,57,62,67,67,76,76,80,85,92,92,92,92,92,92,92
participant_7_KILLS,0,0,0,0,1,2,2,2,2,2,2,3,3,4,6,6,7,7,7,8,10,10,10,10,12,12,12,12
participant_7_BUY,[],"[1039, 2031, 3340]",[],[],[],[],"[3706, 3077, 1001, 2055, 2055, 3364]",[],[],"[3706, 1036, 1036]",[],[],"[3006, 3133]",[],[],"[1400, 1036]",[3134],[],[1036],[],"[3147, 1036, 1036]",[3134],[],[],[],[3133],[],[]
participant_7_SOLD,[],[],[],[],[],[],"[1039, 3340]",[2055],[],"[1039, 2031]",[],[],"[1001, 2055, 1036, 1036]",[],[],"[3133, 1039]",[1036],[],[],[],"[3134, 1036]","[1036, 1036]",[],[],[],[],[],[]
participant_7_UNDO,[],[],[],[],[],[],"[[0, 3706]]",[],[],"[[0, 3706]]",[],[],[],[],[],[],[],[],[],[],[],[],[],[],[],[],[],[]
participant_8_GOLD,500,500,556,699,973,1179,1417,1588,1807,1965,2129,2287,2563,2778,3006,3366,3541,3719,4071,4327,4748,4892,5126,5485,6099,6354,6716,6779
participant_8_CURRENTGOLD,500,0,56,149,423,629,567,738,957,1115,1279,1437,413,628,856,1216,91,269,271,527,948,242,176,135,749,204,566,629
participant_8_LEVEL,1,1,1,1,2,3,4,4,5,5,6,6,7,7,7,8,8,9,9,10,10,10,10,11,11,12,12,12
participant_8_MINIONSKILLED,0,0,2,3,9,13,17,20,23,25,28,30,33,37,43,54,54,58,67,75,84,85,92,103,104,112,126,127
participant_8_KILLS,0,0,0,0,0,0,0,0,0,0,0,0,0,0,0,0,0,0,0,0,0,0,0,0,1,1,1,1
participant_8_BUY,[],"[1055, 2003, 3340]",[],[2003],[],[],[1042],[],[],[],[],[],[1038],[],[],[],"[3006, 1018]",[],[1036],[],[],[3508],[1042],[2015],[],[1018],[],[]
participant_8_SOLD,[],[],[2003],[2010],[2003],[],[2010],[],[],[2010],[],[],[],[],[],[],"[1042, 2422]",[],[],[],[],"[1038, 1036, 1018]",[],[1042],[],[],[],[]
participant_8_UNDO,[],[],[],[],[],[],[],[],[],[],[],[],[],[],[],[],[],[],[],[],[],[],[],[],[],[],[],[]
participant_9_GOLD,500,500,544,741,1136,1270,1471,1649,1783,1918,2052,2187,2321,2455,2590,2724,2909,3043,3178,3312,3446,3581,3715,3850,3984,4118,4254,4308
participant_9_CURRENTGOLD,500,0,44,241,636,120,221,399,533,668,802,937,1071,1205,1340,1474,1659,1793,1927,2062,2196,2331,2465,2599,2734,2868,3004,3058
participant_9_LEVEL,1,1,1,2,3,3,3,3,3,3,3,3,3,3,3,3,3,3,3,3,3,3,3,3,3,3,3,3
participant_9_MINIONSKILLED,0,0,1,4,5,5,6,8,8,8,8,8,8,8,8,8,8,8,8,8,8,8,8,8,8,8,8,8
participant_9_KILLS,0,0,0,0,0,0,0,0,0,0,1,1,1,1,2,2,2,2,2,2,2,2,2,2,2,2,2,2
participant_9_BUY,[],"[1054, 2003]",[],[],[],[],"[3751, 1004]",[],[],[3070],[],[],"[3802, 1029]",[],[],[3003],[],[],[3020],[],[3068],[],[1052],[],"[3108, 1027]",[3057],[3113],[]
participant_9_SOLD,[],[],[],[],[2003],[],[],[],[],[1004],[],[],[],[],[],"[3070, 3802]",[],[],[],[],"[3003, 1029, 3751]",[],[],[],[1052],[1027],[1052],[]
participant_9_UNDO,[],[],[],[],[],[],[],[],[],[],[],[],[],[],[],[],[],[],[],[],[],[],[],[],"[[0, 3108]]",[],[],[]
team0_KILLS,0,0,0,0,0,0,2,4,4,5,5,6,7,7,8,8,10,11,14,14,16,18,20,23,24,24,25,25
team0_CURRENTGOLD,2500,0,449,2052,2120,2650,1198,3003,3557,4721,4708,5544,2190,1783,2744,1930,4748,3137,3760,1678,1801,3655,4527,3191,5616,3167,3336,4409
team0_TOTALGOLD,2500,2500,2949,4552,5530,6885,8928,11169,12722,14721,16033,18874,20150,21758,23569,24805,28373,29912,32220,33288,35710,37563,40772,43285,45711,46465,48361,49534
team0_LEVEL,5,5,6,13,15,20,23,27,29,32,34,37,39,41,43,44,48,51,52,54,56,59,62,63,66,66,67,69
team0_SBIRES,0,0,10,42,52,80,102,128,147,175,195,224,239,268,291,309,339,349,357,375,388,404,430,445,470,470,486,501
team1_KILLS,0,0,0,0,1,2,2,3,3,3,4,6,6,7,10,10,11,11,11,13,15,16,16,16,19,19,19,19
team1_CURRENTGOLD,2500,0,340,1383,3353,3466,1506,2767,3290,2762,4381,6368,3329,3405,5915,4639,3504,4861,3307,5877,3622,4045,3416,4140,6058,4772,5260,5434
team1_TOTALGOLD,2500,2500,2840,3933,5903,7366,8606,9867,11265,12102,13721,15708,16739,18490,21000,22299,24014,25371,26468,29037,31317,32990,33761,34886,37153,38466,39370,39634
team1_LEVEL,5,5,6,10,16,20,23,25,28,29,31,34,36,38,41,42,42,46,46,48,50,51,51,53,54,56,56,56
team1_SBIRES,0,0,7,23,44,62,81,94,119,127,150,165,178,198,223,246,257,282,300,316,334,350,359,377,391,418,434,435
delta_KILLS,0,0,0,0,-1,-2,0,1,1,2,1,0,1,0,-2,-2,-1,0,3,1,1,2,4,7,5,5,6,6
delta_CURRENTGOLD,0,0,109,669,-1233,-816,-308,236,267,1959,327,-824,-1139,-1622,-3171,-2709,1244,-1724,453,-4199,-1821,-390,1111,-949,-442,-1605,-1924,-1025
delta_TOTALGOLD,0,0,109,619,-373,-481,322,1302,1457,2619,2312,3166,3411,3268,2569,2506,4359,4541,5752,4251,4393,4573,7011,8399,8558,7999,8991,9900
delta_LEVEL,0,0,0,3,-1,0,0,2,1,3,3,3,3,3,2,2,6,5,6,6,6,8,11,10,12,10,11,13
delta_SBIRES,0,0,3,19,8,18,21,34,28,48,45,59,61,70,68,63,82,67,57,59,54,54,71,68,79,52,52,66
