name,team0,team1
win,Fail,Win
firstBlood,False,True
firstTower,True,False
firstInhibitor,False,True
firstBaron,False,True
firstDragon,False,True
firstRiftHerald,True,False
towerKills,2,9
inhibitorKills,0,1
baronKills,0,1
dragonKills,0,4
riftHeraldKills,1,0
