name,frame_0,frame_1,frame_2,frame_3,frame_4,frame_5,frame_6,frame_7,frame_8,frame_9,frame_10,frame_11,frame_12,frame_13,frame_14,frame_15,frame_16,frame_17,frame_18,frame_19,frame_20,frame_21,frame_22,frame_23,frame_24,frame_25,frame_26,frame_27,frame_28,frame_29,frame_30,frame_31,frame_32,frame_33,frame_34,frame_35
nameStamp,Tstart,Tearly,Tearly,Tearly,Tearly,Tearly,Tearly,Tearly,Tearly,Tearly,Tearly,Tearly,Tearly,Tearly,Tearly,Tearly,Tmid,Tmid,Tmid,Tmid,Tmid,Tmid,Tmid,Tmid,Tmid,Tmid,Tmid,Tmid,Tend,Tend,Tend,Tend,Tend,Tend,Tend,Tend
timestamp,0,60011,120027,180037,240056,300074,360084,420099,480111,540125,600147,660167,720186,780198,840209,900240,960255,1020265,1080275,1140283,1200295,1260309,1320318,1380332,1440347,1500361,1560379,1620392,1680405,1740425,1800435,1860445,1920459,1980470,2040487,2100512
participant_0_GOLD,500,500,562,860,1225,1578,1820,2898,3083,3634,3983,4513,5224,5490,5612,6087,6314,6837,7235,7674,8365,9233,10357,10494,10805,10941,11576,12023,12698,13217,13339,13768,14429,14587,14709,15250
participant_0_CURRENTGOLD,500,0,62,360,725,1078,40,1118,128,679,1028,1558,2269,2535,122,597,824,97,495,434,1125,1993,1402,739,1050,47,681,529,3,522,645,1073,235,393,65,605
participant_0_LEVEL,1,1,1,3,4,5,5,7,7,8,9,10,10,11,11,11,12,12,13,13,14,15,15,15,16,16,16,17,17,17,17,18,18,18,18,18
participant_0_MINIONSKILLED,0,0,2,12,24,34,41,50,54,62,73,84,95,104,104,115,121,136,146,159,169,186,194,195,200,201,201,201,208,223,223,232,240,242,242,258
participant_0_KILLS,0,0,0,0,0,0,0,0,0,0,0,0,0,1,1,1,1,1,1,1,1,1,1,1,1,1,1,1,1,1,1,1,1,1,1,1
participant_0_BUY,[],"[3850, 2003, 2003, 3340]",[],[],[],[],"[1004, 1052, 2055, 2003, 3364]",[],[],[],[],[],"[4642, 1001, 2055, 2003, 2055, 2003]",[],"[1028, 2055]",[3067],[1004],[],[2055],[],"[4005, 2003, 2055]",[],[],"[3158, 3114]",[],[],[2003],"[6616, 2003]",[],[],[1004],[],[3114],[],[],[]
participant_0_SOLD,[],[],[],[],[],[2003],"[2003, 3340]",[2055],[2003],[],[],[3850],"[1004, 1052]",[2055],[],"[2055, 2003, 2003, 1028]",[],[2055],[],[],"[3067, 4642]",[3851],[],"[2003, 1001, 1004]",[],[],"[2055, 2003]","[2055, 3114]",[],[],[],[],[1004],[],[2003],[]
participant_0_UNDO,[],[],[],[],[],[],[],[],[],[],[],[],[],[],[],[],[],[],[],[],[],[],[],[],[],[],[],[],[],[],[],[],[],[],[],[]
participant_1_GOLD,500,500,628,913,1213,1335,1666,1920,2245,2625,2747,3165,3329,3527,3834,4141,4380,4502,4746,4936,5158,5422,5544,5829,6165,6642,7320,7827,8076,8502,8759,8882,9109,9259,9563,9887
participant_1_CURRENTGOLD,500,0,128,413,713,85,416,670,995,1375,97,515,279,477,784,1091,1330,1452,146,336,558,322,94,379,15,492,1170,1677,426,852,259,382,259,60,363,287
participant_1_LEVEL,1,1,2,2,3,3,4,5,5,6,6,7,7,7,8,8,9,9,9,9,9,10,10,10,11,12,12,13,13,14,14,14,14,15,15,15
participant_1_MINIONSKILLED,0,0,0,0,0,0,0,2,2,2,2,2,4,4,4,5,5,5,6,6,6,11,11,15,16,24,24,24,27,35,35,35,36,38,44,52
participant_1_KILLS,0,0,0,0,0,0,0,0,0,0,0,0,0,0,0,0,0,0,0,0,0,0,0,0,0,0,1,1,1,1,1,1,1,1,1,1
participant_1_BUY,[],"[1035, 2003, 2003, 2003, 3340]",[],[],[],"[1036, 1036, 2055, 2003]",[],[],[],[],"[3134, 1036, 1053, 2003, 2003]",[],"[1036, 2003, 2003]",[],[],[],[],[],"[6692, 1001, 2003, 2003, 1029]",[],[],[3047],[1036],[],"[1036, 1036]",[1036],[],[],"[3035, 3133]",[],[6694],[],[1036],[1036],[],[3133]
participant_1_SOLD,[],[],[2003],[],[2003],[2003],[2003],[],[],[1035],"[1036, 1036, 1036]",[],[],[],[],"[2003, 2003, 2003]",[3340],[],"[3513, 3134, 1036, 1053]",[],[],"[1001, 1029]",[],[],[],[],[],[],"[1036, 1036, 1036, 2003]",[2003],"[3133, 3035]",[],[],[],[],"[1036, 1036]"
participant_1_UNDO,[],[],[],[],[],"[[0, 2055]]",[],[],[],[],[],[],"[[0, 2003]]",[],[],[],[],[],[],[],[],[],[],[],[],"[[0, 1036]]",[],[],[],[],[],[],[],[],[],[]
participant_2_GOLD,500,500,611,941,1253,1850,2102,2287,2771,3169,3291,3754,4659,4844,5111,5680,5880,6260,6587,7252,7404,7806,7949,9420,10223,11053,12160,12714,12976,13098,14170,14307,15000,15164,15286,15499
participant_2_CURRENTGOLD,500,0,111,431,743,30,222,232,706,1094,166,184,1079,99,356,925,250,630,107,772,924,1326,169,315,1118,198,1305,695,956,1079,2151,2287,430,595,717,929
participant_2_LEVEL,1,1,1,3,4,5,6,6,7,8,8,8,9,9,10,10,11,11,11,11,11,12,12,13,13,14,15,15,15,15,16,16,16,16,17,17
participant_2_MINIONSKILLED,0,0,5,14,25,32,36,40,48,61,61,68,75,79,84,89,94,105,111,113,113,122,123,126,127,138,143,147,151,151,151,152,156,158,158,159
participant_2_KILLS,0,0,0,0,0,1,1,1,1,1,1,1,2,2,2,3,3,3,3,4,4,4,4,6,8,9,12,12,12,12,14,14,15,15,15,15
participant_2_BUY,[],"[1056, 2003, 2003, 3340]",[],[],[],[3802],"[3145, 3145, 1001]","[2003, 2003, 2055]",[],[],"[3191, 2055, 2055]",[1052],[],[3157],[],[],"[3020, 2055]",[],[1026],[],[],[],[4636],"[1058, 2055]",[],[4628],[],"[1058, 2055]",[],[],[],[],[3089],[],[],[]
participant_2_SOLD,[],[],[],[2003],[2003],[],[],[2055],[],"[2003, 2003]",[],[2055],[],"[3191, 1052]",[],[],[1001],[],[],[2055],[],[],"[3145, 1026]",[],[2055],[1058],[],[1056],[2055],[],[],[],[1058],[],[2055],[]
participant_2_UNDO,[],[],[],[],[],[],"[[0, 3802], [0, 3145]]",[],[],[],[],[],[],[],[],[],[],[],[],[],[],[],[],[],[],[],[],[],[],[],[],[],[],[],[],[]
participant_3_GOLD,500,500,562,825,1120,1417,1589,1851,1973,2257,2629,2960,3187,3384,3686,3822,4141,4284,4506,4767,4973,5536,6122,6319,7022,7264,7552,8086,8386,8593,8806,8928,9168,9290,9607,9820
participant_3_CURRENTGOLD,500,0,62,325,620,917,89,351,98,382,754,1085,312,74,376,512,41,184,106,367,73,201,787,119,822,214,502,1036,211,418,631,74,313,435,318,65
participant_3_LEVEL,1,1,1,2,3,4,4,5,5,5,6,6,7,7,7,8,8,8,8,9,9,10,10,10,11,11,12,12,13,13,13,13,14,14,14,14
participant_3_MINIONSKILLED,0,0,2,10,18,26,29,37,37,46,58,67,73,73,80,81,89,90,90,94,99,100,101,101,105,110,111,111,111,116,121,121,123,123,130,131
participant_3_KILLS,0,0,0,0,0,0,0,2,2,3,3,4,5,5,5,5,5,5,5,5,6,6,7,7,7,7,8,8,9,9,9,9,10,10,10,10
participant_3_BUY,[],"[1056, 2003, 2003]",[],[],[],[],[3802],[],"[3020, 2055]",[],[],[],[],[],"[6655, 1052]",[],[],"[1026, 1028]",[],[1011],[],[],"[4637, 3108]",[3067],[],[4629],[],"[1029, 1029]",[3105],[],[],[],[3193],[],[1033],[]
participant_3_SOLD,[],[],[],[2003],[],[],[2003],[],[],[],[],[2055],[],[],[3802],[],[],[],[],[1028],[],[],"[1026, 1011, 1052]",[],[],"[1056, 3108, 3067]",[],[],[1029],[],[],[],"[1029, 3105]",[],[],[]
participant_3_UNDO,[],[],[],[],[],[],[],[],[],[],[],[],[],[],[],[],[],[],[],[],[],[],[],[],[],[],[],[],[],[],[],[],[],[],[],[]
participant_4_GOLD,500,500,522,697,912,1166,1335,1469,1684,1839,2003,2200,2350,2983,3123,3343,3544,3748,4049,4409,4549,4855,5235,5601,5885,6096,6734,7174,7393,7533,7673,7899,8114,8283,8453,8607
participant_4_CURRENTGOLD,500,0,22,197,412,666,25,159,374,529,693,890,125,758,423,243,194,398,624,984,149,455,835,51,335,546,1134,24,243,383,274,499,164,333,503,658
participant_4_LEVEL,1,1,1,2,3,3,4,4,5,6,6,7,7,7,8,8,8,8,8,9,9,9,10,10,11,12,13,13,14,14,14,14,15,15,15,15
participant_4_MINIONSKILLED,0,0,0,0,0,0,1,1,2,2,3,3,4,9,9,9,11,13,13,16,16,16,17,17,18,19,20,20,22,22,22,28,28,30,31,32
participant_4_KILLS,0,0,0,0,0,0,0,0,0,0,0,0,0,0,0,0,0,0,0,0,0,1,2,2,3,3,3,3,3,3,3,3,3,3,3,3
participant_4_BUY,[],"[1056, 2003, 2003, 3340]",[],[],[],[],"[1026, 2031]",[],"[1001, 2055]",[],[],[],[1043],[1052],[],[],"[3115, 2055]",[],[1042],[],[3006],[1052],[],"[1028, 4635]",[],[1026],[3364],[],"[4633, 2055]",[],[],"[1052, 3191]",[],[],[1052],[3108]
participant_4_SOLD,[],[],[],[],[2003],[2003],[],[],[],[],[2055],[],[],[],[],[],"[1043, 1026, 1052]",[],[2055],[],"[1001, 1042]",[],[],"[1028, 1052]",[],[],[3340],[],"[4635, 1026]",[],[],"[1056, 2031, 1052]",[],[],[2055],[1052]
participant_4_UNDO,[],[],[],[],[],[],[],[],[],[],[],[],[],[],[],[],[],[],[],[],[],[],[],[],[],[],[],[],[],[],[],[],[],[],[],[]
participant_5_GOLD,500,500,597,860,1046,1413,1756,1934,2252,2375,2623,2781,3030,3334,4504,4880,5265,5666,5921,6284,6678,6851,7556,8079,8635,9052,9174,9382,9804,10623,11808,12271,12873,13468,14388,14834
participant_5_CURRENTGOLD,500,0,97,360,546,913,356,134,452,275,523,181,430,734,1904,280,665,1066,1321,384,778,101,806,1329,1885,2,125,332,754,1574,2759,671,838,1433,289,735
participant_5_LEVEL,1,1,1,3,3,5,6,6,7,7,7,7,8,8,9,10,10,11,11,12,12,12,13,13,14,14,14,14,14,15,16,16,17,17,18,18
participant_5_MINIONSKILLED,0,0,4,12,15,26,36,39,50,50,58,60,64,75,84,89,100,112,120,126,138,138,160,162,183,190,190,190,197,212,219,219,225,231,235,235
participant_5_KILLS,0,0,0,0,0,0,0,0,0,0,0,0,0,1,1,2,2,2,2,3,3,3,4,4,4,4,4,4,4,4,4,4,6,6,6,8
participant_5_BUY,[],"[1055, 2003]",[],[],[],[],[],[1038],[],[],[1037],[],[],"[6670, 1001]",[],[],[6671],[],[],"[3134, 1018]",[],[3009],[],[],[6676],[],[1018],[],[],[3031],[],[],[],[3123],[3086],[3033]
participant_5_SOLD,[],[],[],[],[],[2003],[],[],[],[],[],[],[],[],[],[],"[6670, 1037]",[],[],[],[],[1001],[],[],"[3134, 1018]",[],[],[],[],"[1038, 1018]",[],[],[],[],[1055],"[3123, 3086]"
participant_5_UNDO,[],[],[],[],[],[],[],[],[],[],[],[],[],[],[],[],[],[],[],[],[],[],[],[],[],[],[],[],[],[],[],[],[],[],[],[]
participant_6_GOLD,500,500,620,1018,1376,2238,2701,2942,3164,3472,4099,4512,4837,5094,5554,6343,6778,6985,7643,8170,8638,9173,9852,10025,10463,11169,11291,11539,11928,12135,12842,13571,14100,14322,15968,16898
participant_6_CURRENTGOLD,500,0,120,518,76,938,1401,392,614,922,1549,1962,2287,2544,3004,3793,4228,435,1093,1620,2088,473,1153,425,863,1569,391,240,628,835,1543,171,701,533,2179,3109
participant_6_LEVEL,1,1,2,3,4,4,5,5,6,6,7,7,8,8,10,10,11,11,12,12,12,13,13,13,14,15,15,15,15,16,16,17,17,17,18,18
participant_6_MINIONSKILLED,0,0,0,0,0,0,0,1,1,1,1,7,8,11,12,14,19,19,19,19,20,23,29,29,29,33,33,33,38,38,46,47,51,51,58,59
participant_6_KILLS,0,0,0,0,0,0,0,0,0,0,0,0,0,0,1,1,1,1,1,1,1,1,1,1,1,1,1,1,1,2,5,5,6,6,7,7
participant_6_BUY,[],[2033],[],[],[],[],"[1001, 1042, 1042]",[1043],[],[1042],[],[3006],[],[],[],"[1026, 1052, 3115]",[],[],[],[4635],[],[1026],[],[],[],"[4633, 1058]",[],[],[],[],[],[3089],[1052],[],[3102],[]
participant_6_SOLD,[],[],[],[],[],[],[],"[1042, 1042]",[],[],[],"[1001, 1042]",[],[],[],"[1043, 1026, 1052]",[],[],[],[],[],[],[],[],[],"[4635, 1026]",[],[],[],[],[],[1058],[],[],[1052],[]
participant_6_UNDO,[],[],[],[],[],[],[],[],[],[],[],[],[],[],[],[],[],[],[],[],[],[],[],[],[],[],[],[],[],[],[],[],[],[],[],[]
participant_7_GOLD,500,500,604,955,1162,1581,2161,2416,2740,2989,3404,3934,4603,4976,5605,6332,6562,7106,7784,8449,8769,9688,10320,10492,11204,11377,11799,12123,12922,13144,14130,14442,15387,15694,16116,16776
participant_7_CURRENTGOLD,500,0,104,445,652,11,581,61,375,624,639,709,28,401,1029,1757,887,1431,209,874,1194,2113,1355,78,790,162,235,559,607,830,1016,1328,973,1279,202,862
participant_7_LEVEL,1,1,1,3,4,5,6,6,7,7,8,9,10,10,11,11,11,12,12,13,13,14,14,14,14,14,14,15,15,15,16,16,17,17,18,18
participant_7_MINIONSKILLED,0,0,5,15,20,26,33,40,49,57,65,69,75,80,83,89,91,99,100,100,106,121,126,126,127,127,127,135,148,148,152,156,160,165,165,169
participant_7_KILLS,0,0,0,0,0,2,2,2,2,2,3,3,3,3,3,4,4,4,5,6,6,7,8,8,8,9,9,9,9,9,9,9,9,9,12,12
participant_7_BUY,[],"[1039, 1006, 2031, 3340]",[],[],"[1028, 1028]",[],[],"[6660, 1001, 1033, 1029]",[3364],[],[],[],[],[],[],[],[],"[3068, 1011, 1026, 3111]",[],[],[],"[4637, 1011]",[],[1057],[],[],"[3001, 1028]",[3066],[],[],[],[3742],[],[1033],[],[]
participant_7_SOLD,[],[],[],[],[],[],[],"[1028, 1028]",[3340],[1039],[],[],[],[],[],[],[],"[6660, 1033, 1029, 1001]",[],[],[],"[1026, 1011]",[],[],[],[],"[1011, 1057]",[1028],[],[],[],[3066],[],[2031],[],[]
participant_7_UNDO,[],"[[0, 1006]]",[],[],[],[],[],[],[],[],[],[],[],[],[],[],[],[],[],[],[],[],[],[],[],[],[],[],[],[],[],[],[],[],[],[]
participant_8_GOLD,500,500,597,948,1295,1522,1921,2120,2514,2905,3132,3430,4000,4492,4877,5625,5936,6353,6942,7412,7814,7986,8579,8786,9290,9653,9952,10361,10986,11222,11447,11954,13319,13647,14194,15174
participant_8_CURRENTGOLD,500,0,97,448,795,1022,1421,320,714,1105,457,755,1325,217,602,1350,436,853,1442,212,614,186,779,986,190,553,252,662,1286,22,248,754,2120,1648,1175,1455
participant_8_LEVEL,1,1,1,2,3,4,4,5,5,6,6,6,7,7,8,8,9,9,10,11,11,11,11,11,12,12,12,13,14,14,14,15,16,16,17,17
participant_8_MINIONSKILLED,0,0,4,14,27,33,46,50,64,76,82,92,105,105,117,124,129,139,152,155,167,167,169,171,174,174,178,186,201,202,204,215,219,220,220,220
participant_8_KILLS,0,0,0,0,0,0,0,0,0,0,0,0,0,1,1,1,1,1,1,2,2,2,2,2,2,2,2,2,3,3,3,3,3,4,4,4
participant_8_BUY,[],"[3858, 2003, 2003, 3340]",[],[],[],[],[],"[1028, 1052, 2055]",[],[],"[4635, 2055]",[],[],"[1026, 1001, 2055]",[],[],[4633],[],[],[],[3111],[1028],[1011],[],[1033],"[2055, 3364]",[],[],[],[3001],[],[],[],[],"[4632, 1052]",[]
participant_8_SOLD,[],[],[],[],[],"[2010, 2003, 2010]",[2003],[],"[2010, 2055]",[],"[1028, 1052]",[2055],[3858],[],[2055],[],"[4635, 1026]",[],[],[],[1001],[],"[3859, 1028]",[],[],[3340],[],[],[],"[2055, 1011, 1033]",[],[],[],[],[],[]
participant_8_UNDO,[],[],[],[],[],[],[],[],[],[],[],[],[],[],[],[],[],[],[],[],[],[],[],[],[],[],[],[],[],[],[],[],[],[],[],[]
participant_9_GOLD,500,500,522,759,936,1382,1531,1665,1834,2092,2247,2433,2795,3345,3515,4153,4307,4477,4660,5317,5479,5669,6105,6295,6436,6627,6768,6936,7937,8107,8248,8744,8959,9516,10060,10300
participant_9_CURRENTGOLD,500,0,22,259,436,882,1031,255,424,682,297,483,845,170,340,978,82,253,435,1092,454,244,180,370,62,177,318,487,1487,307,448,944,1160,1717,625,866
participant_9_LEVEL,1,1,1,2,3,4,5,5,5,6,6,7,7,8,8,8,9,9,9,10,10,10,11,11,11,11,11,12,12,12,12,13,14,14,15,16
participant_9_MINIONSKILLED,0,0,0,3,5,7,8,8,10,13,14,16,19,19,20,23,24,25,28,29,30,30,32,32,33,33,34,36,37,38,38,41,41,41,43,43
participant_9_KILLS,0,0,0,0,0,0,1,1,1,1,1,2,3,3,4,4,4,5,7,8,8,9,9,9,11,11,12,12,13,13,15,15,17,17,17,18
participant_9_BUY,[],"[1036, 2031, 3340]",[],[],[],"[3134, 1001]",[],"[1036, 1036, 2055]",[],[],[],"[3133, 1033]","[6691, 3111, 3363]",[],[],[],"[3134, 1036]",[],[3142],[],[],[],"[3134, 1036]","[1028, 3814]",[],[3123],[1036],[],[3133],[],[6609],[],[1038],[],[3026],[]
participant_9_SOLD,[],[],[],[],[],[1036],[],[],[],[2055],[],"[1036, 1036]","[3134, 3133, 1001, 1033, 3340]",[],[],[],[],[],[3134],[],[],[],[2031],"[1036, 3134, 1028]",[],[],[],[],[1036],[],"[3123, 3133]",[],[],[],[1038],[]
participant_9_UNDO,[],[],[],[],[],[],[],[],[],[],[],[],[],[],[],[],"[[0, 1036]]",[],[],[],[],[],[],[],[],[],[],[],[],[],[],[],[],[],[],[]
team0_KILLS,0,0,0,0,0,1,1,3,3,4,4,5,7,8,8,9,9,9,9,10,11,12,14,16,19,20,25,25,26,26,28,28,30,30,30,30
team0_CURRENTGOLD,2500,0,385,1726,3213,2776,792,2530,2301,4059,2738,4232,4064,3943,2061,3368,2639,2761,1478,2893,2829,4297,3287,1603,3340,1497,4792,3961,1839,3254,3960,4315,1401,1816,1966,2544
team0_TOTALGOLD,2500,2500,2885,4236,5723,7346,8512,10425,11756,13524,14653,16592,18749,20228,21366,23073,24259,25631,27123,29038,30449,32852,35207,37663,40100,41996,45342,47824,49529,50943,52747,53784,55820,56583,57618,59063
team0_LEVEL,5,5,6,12,17,20,23,27,29,33,35,38,40,41,44,45,48,48,49,51,52,56,57,58,62,65,68,70,72,73,74,75,77,78,79,79
team0_SBIRES,0,0,9,36,67,92,107,130,143,173,197,224,251,269,281,299,320,349,366,388,403,435,446,454,466,492,499,503,519,547,552,568,583,591,605,632
team1_KILLS,0,0,0,0,0,2,3,3,3,3,4,5,6,8,10,12,12,13,16,20,20,22,24,24,26,27,28,28,30,31,36,36,41,42,46,49
team1_CURRENTGOLD,2500,0,440,2030,2505,3766,4790,1162,2579,3608,3465,4090,4915,4066,6879,8158,6298,4038,4500,4182,5128,3117,4273,3188,3790,2463,1321,2280,4762,3568,6014,3868,5792,6610,4470,7027
team1_TOTALGOLD,2500,2500,2940,4540,5815,8136,10070,11077,12504,13833,15505,17090,19265,21241,24055,27333,28848,30587,32950,35632,37378,39367,42412,43677,46028,47878,48984,50341,53577,55231,58475,60982,64638,66647,70726,73982
team1_LEVEL,5,5,6,13,17,22,26,27,30,32,34,36,40,41,46,47,50,52,54,58,58,60,62,62,65,66,66,69,70,72,74,77,81,81,86,87
team1_SBIRES,0,0,13,44,67,92,123,138,174,197,220,244,271,290,316,339,363,394,419,429,461,479,516,520,546,557,562,580,621,638,659,678,696,708,721,726
delta_KILLS,0,0,0,0,0,-1,-2,0,0,1,0,0,1,0,-2,-3,-3,-4,-7,-10,-9,-10,-10,-8,-7,-7,-3,-3,-4,-5,-8,-8,-11,-12,-16,-19
delta_CURRENTGOLD,0,0,-55,-304,708,-990,-3998,1368,-278,451,-727,142,-851,-123,-4818,-4790,-3659,-1277,-3022,-1289,-2299,1180,-986,-1585,-450,-966,3471,1681,-2923,-314,-2054,447,-4391,-4794,-2504,-4483
delta_TOTALGOLD,0,0,-55,-304,-92,-790,-1558,-652,-748,-309,-852,-498,-516,-1013,-2689,-4260,-4589,-4956,-5827,-6594,-6929,-6515,-7205,-6014,-5928,-5882,-3642,-2517,-4048,-4288,-5728,-7198,-8818,-10064,-13108,-14919
delta_LEVEL,0,0,0,-1,0,-2,-3,0,-1,1,1,2,0,0,-2,-2,-2,-4,-5,-7,-6,-4,-5,-4,-3,-1,2,1,2,1,0,-2,-4,-3,-7,-8
delta_SBIRES,0,0,-4,-8,0,0,-16,-8,-31,-24,-23,-20,-20,-21,-35,-40,-43,-45,-53,-41,-58,-44,-70,-66,-80,-65,-63,-77,-102,-91,-107,-110,-113,-117,-116,-94
