name,team0,team1
win,Win,Fail
firstBlood,True,False
firstTower,True,False
firstInhibitor,True,False
firstBaron,True,False
firstDragon,True,False
firstRiftHerald,True,False
towerKills,11,2
inhibitorKills,4,0
baronKills,2,0
dragonKills,4,0
riftHeraldKills,2,0
