name,frame_0,frame_1,frame_2,frame_3,frame_4,frame_5,frame_6,frame_7,frame_8,frame_9,frame_10,frame_11,frame_12,frame_13,frame_14,frame_15,frame_16,frame_17,frame_18,frame_19,frame_20,frame_21,frame_22,frame_23,frame_24,frame_25,frame_26,frame_27,frame_28,frame_29,frame_30,frame_31,frame_32,frame_33,frame_34,frame_35,frame_36,frame_37,frame_38
nameStamp,Tstart,Tearly,Tearly,Tearly,Tearly,Tearly,Tearly,Tearly,Tearly,Tearly,Tearly,Tearly,Tearly,Tearly,Tearly,Tmid,Tmid,Tmid,Tmid,Tmid,Tmid,Tmid,Tmid,Tmid,Tmid,Tmid,Tmid,Tmid,Tmid,Tmid,Tmid,Tmid,Tend,Tend,Tend,Tend,Tend,Tend,Tend
timestamp,0,60020,120048,180068,240090,300117,360139,420167,480184,540198,600217,660231,720239,780265,840278,900305,960316,1020335,1080347,1140355,1200381,1260398,1320415,1380432,1440436,1500457,1560478,1620508,1680520,1740533,1800534,1860559,1920579,1980598,2040606,2100625,2160645,2220651,2280651
participant_0_GOLD,500,500,563,804,1039,1231,1730,2009,2131,2514,2678,2801,2951,3693,3928,4127,4428,4734,4945,5179,5704,5826,5949,6071,6194,6366,6488,6611,6833,6957,7079,7201,7324,7446,7569,7691,7813,7936,8014
participant_0_CURRENTGOLD,500,0,63,304,539,381,880,59,181,564,728,851,451,173,408,307,308,114,325,559,1084,1206,1329,1451,1574,1746,1868,1991,2213,2337,2459,2581,2704,2826,2949,3071,3193,3316,3214
participant_0_LEVEL,1,1,1,2,4,4,6,6,6,7,7,7,8,8,8,8,9,9,10,10,11,11,11,11,11,11,11,11,11,11,11,11,11,11,11,11,11,11,11
participant_0_MINIONSKILLED,0,0,2,8,15,19,22,28,28,38,40,40,42,42,49,53,59,60,60,66,66,66,66,66,66,66,66,66,66,66,66,66,66,66,66,66,66,66,66
participant_0_KILLS,0,0,0,0,1,1,1,1,1,1,1,1,1,1,1,1,1,1,1,2,2,3,4,4,5,5,5,5,6,6,6,6,6,6,6,7,8,8,8
participant_0_BUY,[],"[2033, 3340]",[],[],"[1052, 1027]",[],[1001],[],[],"[3802, 2055]",[],[],[],"[1026, 2055]",[3363],[],[],[6655],[],[],[3020],[],[],[],[4630],[],[1026],[],[],"[3135, 3108]",[],[],[],[3067],[],[4629],[],[],[]
participant_0_SOLD,[],[],[],[2010],[],[2010],[],[2010],[],"[1052, 1027]",[2055],[],[],[],"[3340, 2055]",[],[],"[3802, 1026]",[],[],[1001],[],[],[],[],[],[],[],[],"[4630, 1026]",[],[],[],[],[],"[3108, 3067]",[],[],[]
participant_0_UNDO,[],[],[],[],[],[],[],[],[],[],[],[],[],[],[],[],[],[],[],[],[],[],[],[],[],[],[],[],[],[],[],[],[],[],[],[],[],[],[]
participant_1_GOLD,500,500,621,913,1333,1455,1578,1920,2332,2668,3558,3713,3961,4233,4481,4703,5361,5688,6097,6345,6642,7050,7253,7508,7757,8117,8559,8834,9451,9803,9925,10237,10404,10541,10769,11017,11566,11758,11987
participant_1_CURRENTGOLD,500,0,121,413,833,955,78,420,832,1168,2058,713,961,233,481,703,161,488,897,1144,1442,1850,53,308,557,417,859,334,951,1303,525,838,4,141,370,327,877,1069,487
participant_1_LEVEL,1,1,2,2,4,4,4,4,5,6,7,7,7,8,8,9,9,10,10,10,11,11,12,12,12,13,13,14,14,15,15,15,15,15,15,16,16,16,17
participant_1_MINIONSKILLED,0,0,0,0,0,0,0,0,0,0,0,0,1,1,3,3,3,3,11,11,11,11,11,13,15,21,21,26,28,31,31,31,32,32,35,35,35,39,39
participant_1_KILLS,0,0,0,0,0,0,0,0,0,0,1,1,1,1,1,1,2,2,2,2,2,2,2,2,2,2,2,2,2,2,2,2,2,2,2,2,2,2,2
participant_1_BUY,[],"[1039, 3340, 2031, 3364]",[],[],[],[],"[1029, 1028, 1001]",[],[],[],[],"[6660, 1057]",[],[6664],[],[],"[1031, 1028]",[],[],[],[],[],"[3742, 1029]",[],[],[3076],[],[3111],[],[],[1011],[],[3075],[],[],"[1028, 1036]",[],[],[3044]
participant_1_SOLD,[],[3340],[],[],[],[],[],[],[],[],[1039],[1028],[],"[6660, 1029, 1057]",[],[],[],[],[],[],[],[],"[1028, 1031]",[],[],[1029],[],[1001],[],[],[],[],"[3076, 1011]",[],[],[2031],[],[],[1036]
participant_1_UNDO,[],[],[],[],[],[],[],[],[],[],[],[],[],[],[],[],[],[],[],[],[],[],[],[],[],[],[],[],[],[],[],[],[],[],[],"[[0, 1028]]",[],[],[]
participant_2_GOLD,500,500,612,850,1315,1542,1745,1923,2198,2321,2705,2828,3279,3429,3709,3880,4209,4401,4628,5040,5226,5662,6183,6362,6826,7408,7546,7800,8698,8835,8957,9262,9398,9791,9978,10724,11378,11660,11739
participant_2_CURRENTGOLD,500,0,112,340,20,237,130,308,573,106,490,613,1054,279,559,730,1059,1,228,640,26,462,983,1162,376,958,246,500,1398,235,358,662,798,392,578,25,678,961,1089
participant_2_LEVEL,1,1,1,3,4,5,6,6,7,7,8,8,8,9,9,10,10,11,11,12,12,12,12,13,13,13,13,14,14,14,15,15,15,15,16,16,17,17,17
participant_2_MINIONSKILLED,0,0,5,9,11,15,17,21,27,27,34,34,41,43,53,56,59,63,70,75,79,80,83,86,89,95,95,98,102,103,103,109,110,118,119,125,132,137,137
participant_2_KILLS,0,0,0,0,0,0,0,0,0,1,1,1,2,2,3,3,4,5,6,6,9,9,11,12,13,13,13,13,16,16,17,17,17,17,18,18,18,18,19
participant_2_BUY,[],"[1054, 2003]",[],[],[],"[1028, 2055]",[],[],[],[],"[6660, 1033, 1029, 1001]",[],[],"[3105, 3047, 1029, 1029]",[3105],[1031],"[6662, 1029]",[],[],"[3076, 1011]","[3075, 3082]",[],[3024],[],[],"[3110, 1029]",[],[3082],[],[3143],[1033],[],[1057],[],[2138],[],[],[3001],[2138]
participant_2_SOLD,[],[],[],[],"[2010, 2003]",[],[2055],[],[2010],[2010],[1028],[],[],"[1033, 1029, 1001, 1029]","[1033, 1029]",[1029],"[6660, 1033, 1031]",[],[],"[1029, 1029]","[3076, 1011]",[],[],[],[],"[3082, 3024]",[],[1029],[],[3082],[1054],[],[1033],[],[2138],[],[],[1057],[2138]
participant_2_UNDO,[],[],[],[],[],[],[],[],[],[],[],[],[],"[[0, 3105]]",[],"[[0, 3105]]",[],[],[],[],[],[],[],[],[],[],[],[],[],[],[],[],[],[],[],[],[],[],[]
participant_3_GOLD,500,500,521,741,962,1147,1333,1455,1807,2363,2627,3188,3872,3994,4492,4754,5519,6141,6847,7101,8648,8770,9522,9920,10564,10832,11280,11424,12991,13115,13456,13966,14271,14582,15054,15520,15795,16183,16575
participant_3_CURRENTGOLD,500,0,21,241,462,172,358,480,832,1388,2,563,1247,269,17,529,44,666,1372,526,73,195,47,445,1089,257,706,149,1717,140,212,721,577,888,860,1326,1601,189,-100
participant_3_LEVEL,1,1,1,2,3,4,4,4,5,6,6,7,8,8,8,9,10,10,11,11,12,12,12,13,13,14,14,14,15,15,15,15,16,16,16,16,17,17,17
participant_3_MINIONSKILLED,0,0,0,5,11,12,16,16,27,35,40,45,56,56,56,60,67,70,83,87,87,87,87,90,98,99,110,111,117,117,117,123,129,135,138,144,148,159,160
participant_3_KILLS,0,0,0,0,0,0,0,0,0,0,0,2,2,2,3,3,4,5,5,5,7,7,7,7,7,9,10,10,11,11,11,11,11,11,11,12,12,12,12
participant_3_BUY,[],"[3850, 2003, 2003]",[],[],[],[1052],[],[],[],[],"[3802, 1001, 2031]",[],[],[],"[1026, 3020]",[],[6655],"[1029, 3364]",[],[3191],[],[],[3157],[1052],[3916],[],[1026],[],[],"[3165, 1026]",[],[],[],[],[4630],[],"[3135, 1026]",[],[]
participant_3_SOLD,[],[],[],[],[],[],[],[2003],[2003],[],[1052],[],[3850],[],[1001],[],"[3802, 1026]",[3340],[3851],[1029],[],[],[3191],[],"[1052, 2031]",[],[],[],[],"[1026, 3916]",[],[],[],[],[3853],[],"[4630, 1026]",[],[]
participant_3_UNDO,[],[],[],[],[],[],[],[],[],[],[],[],[],[],[],[],[],[],[],[],[],[],[],[],[],[],[],[],[],[],[],[],[],[],[],[],[],[],[]
participant_4_GOLD,500,500,586,780,1015,1149,1319,1638,1872,2217,2351,3242,3733,4046,4568,4846,5426,6046,6255,6430,7459,7675,8139,8435,8651,9491,10067,10217,11196,11507,11757,11904,12128,12269,12597,13590,13712,14009,14087
participant_4_CURRENTGOLD,500,0,86,280,515,214,384,703,937,1282,101,992,1483,1796,668,946,276,596,805,380,1409,1625,489,351,261,1101,827,977,1956,567,817,964,1189,1329,567,1560,433,729,587
participant_4_LEVEL,1,1,1,2,3,3,4,5,5,6,6,7,8,8,9,9,10,10,10,11,11,11,12,12,12,13,14,14,14,14,14,15,15,15,15,16,16,16,16
participant_4_MINIONSKILLED,0,0,3,3,3,3,5,13,13,13,13,17,18,26,29,34,39,42,42,44,48,48,54,58,58,58,62,63,68,73,73,73,78,78,83,93,93,99,99
participant_4_KILLS,0,0,0,0,0,0,1,1,1,1,1,1,1,2,2,2,2,2,2,2,2,2,2,2,2,2,2,2,2,2,2,2,2,2,2,2,2,2,2
participant_4_BUY,[],"[1055, 2003]",[],[],[],[1036],[],"[3134, 1036]",[],[],[],[],[1053],[6692],[],[1029],[1001],[3047],[],[],[],[],[],[],[],[],[],[],[],[],[],[],[],[],[],[],[],[],[]
participant_4_SOLD,[],[],[],[2003],[],[],[],[1036],[],[],[],[],[1036],"[1055, 3134, 1053]",[],[],[],"[1001, 1029]",[],[],[],[],[],[],[],[],[],[],[],[],[],[],[],[],[],[],[],[],[]
participant_4_UNDO,[],[],[],[],[],[],[],[],[],[],[],[],[],[],[],[],[],[],[],[],[],[],[],[],[],[],[],[],[],[],[],[],[],[],[],[],[],[],[]
participant_5_GOLD,500,500,584,769,892,1189,1368,1710,2354,2512,3138,3275,3770,4213,4634,5265,5772,6224,6557,6721,6843,6966,7242,7659,7781,8644,9081,9495,9638,10057,11452,11924,12257,13236,13602,13989,14669,14976,15599
participant_5_CURRENTGOLD,500,0,84,269,42,339,518,460,1104,162,788,175,670,380,801,1432,339,791,1124,1288,510,33,309,726,848,911,448,862,106,524,1919,191,525,1503,1869,1257,1936,2244,2666
participant_5_LEVEL,1,1,1,2,3,4,5,6,7,7,8,8,9,9,9,10,10,11,12,12,12,12,12,12,13,13,13,13,13,14,14,15,15,16,16,16,17,17,18
participant_5_MINIONSKILLED,0,0,3,7,7,15,18,28,36,38,45,46,49,49,60,67,72,88,96,98,98,98,102,112,112,113,120,129,130,135,136,136,143,151,158,169,182,182,185
participant_5_KILLS,0,0,0,0,0,1,1,1,1,1,1,1,2,2,2,2,2,3,3,3,4,4,4,4,4,4,4,4,4,4,4,4,4,4,4,4,4,4,5
participant_5_BUY,[],"[1039, 2031, 3340]",[],[],[],[],[],[],"[6029, 3044]",[],[],[],[],"[6630, 1001, 1029]",[],[3047],[],[],[3211],[],[3067],[],[],[3065],[],"[1036, 1036]",[],[],[3133],[],[],[],[],[],[],"[3071, 3123]",[],[],[]
participant_5_SOLD,[],[],[],[],[],[],[],[],[],[1039],[],[],[],"[6029, 3044]",[],"[1001, 1029]",[],[],[],[],[],[],[],"[3211, 3067]",[],[],[],[],"[1036, 1036]",[],[],[],[],[],[],[3133],[],[],[]
participant_5_UNDO,[],[],[],[],[],[],[],[],[],[],[],[],[],[],[],[],[],[],[],[],[],[],[],[],[],[],[],[],[],[],[],[],[],[],[],[],[],[],[]
participant_6_GOLD,500,500,636,978,1391,1910,2362,2643,2955,3313,3590,3891,4609,4807,5102,5310,5690,6334,6557,6764,7386,7608,7920,8313,8622,8839,9302,9550,9672,9989,10289,10991,11486,11957,12245,12457,12680,12852,13716
participant_6_CURRENTGOLD,500,0,136,478,891,1410,1862,2143,155,513,790,1091,1809,407,702,410,790,1434,407,614,436,658,970,513,822,340,802,1050,773,1089,1389,2091,2587,3057,3346,558,780,953,1816
participant_6_LEVEL,1,1,2,3,4,4,6,6,7,7,8,8,9,9,9,9,10,10,11,11,11,12,12,12,12,13,13,13,13,14,14,15,15,16,16,16,16,16,17
participant_6_MINIONSKILLED,0,0,0,0,0,0,6,6,6,6,15,20,29,29,31,31,41,42,42,42,44,44,44,44,45,45,45,45,45,45,45,45,50,62,62,63,63,63,63
participant_6_KILLS,0,0,0,0,1,1,2,3,3,4,4,5,5,5,6,6,6,6,6,6,6,6,6,6,6,6,7,7,7,7,9,9,9,9,9,9,9,10,10
participant_6_BUY,[],"[1055, 3340, 2003]",[],[],"[1001, 1042, 1042]",[],[3006],[],"[1018, 1036]",[],"[6670, 1036]",[],[6673],[],[],[],"[1038, 1018]",[],[1037],[],[3031],[],[1042],[],"[1018, 1042, 1018, 1042]",[],[],[3036],[],[1033],[],[3091],[],[],[],[1033],[],[],[]
participant_6_SOLD,[],[],[],[2003],[],[],"[1001, 1042]",[],[],[],"[1036, 1042]",[],"[6670, 1018, 1036]",[],[],[],[],[],[1055],[],"[1038, 1037, 1018]",[],[],[],[],[],[],"[1042, 1042, 1018]",[],[],[],[1033],[],[],[],[],[],[],[]
participant_6_UNDO,[],[],[],[],[],[],[],[],[],[],[],[],[],[],[],[],[],[],[],[],[],[],[],[],"[[0, 1042], [0, 1018]]",[],[],[],[],[],[],[],[],[],[],[],[],[],[]
participant_7_GOLD,500,500,626,874,1561,1782,2225,2828,3103,3945,4068,4874,5131,5565,6798,7123,7295,7702,7824,8205,8539,8661,8784,9528,9650,10094,11446,11610,11823,11946,13941,14479,14601,15035,15302,15424,15675,16455,16893
participant_7_CURRENTGOLD,500,0,126,374,151,372,315,918,233,1065,188,994,101,535,1757,2083,355,762,189,569,279,401,224,968,190,634,1986,271,483,157,2152,39,162,596,863,535,786,1566,1443
participant_7_LEVEL,1,1,1,3,4,5,5,6,7,8,8,9,9,10,10,11,11,11,11,11,12,12,12,12,12,13,14,14,14,14,15,15,15,15,15,15,16,17,17
participant_7_MINIONSKILLED,0,0,6,13,19,25,25,34,40,52,52,56,59,72,74,83,83,88,88,93,95,95,95,106,106,121,123,125,126,126,136,136,136,140,140,140,142,152,153
participant_7_KILLS,0,0,0,0,1,1,1,1,1,1,2,2,3,3,3,3,3,3,3,3,4,4,4,4,5,5,5,5,5,5,5,5,5,5,5,5,5,5,5
participant_7_BUY,[],"[3850, 2003, 2003]",[],[],[],[],"[1052, 1027, 1001]",[],[],[3802],[],[],[3108],[],[3111],[],[],[],"[6653, 3364]",[],[],[1026],[1028],[],"[1011, 1052]",[],[4637],[],[1052],[],[],[1011],[],[],[],[3116],[],[],[]
participant_7_SOLD,[],[],[],[],[2003],[],[],[2003],[3850],"[1052, 1027]",[],[],[],[3851],[1001],[],[],[],"[3802, 3108, 3340]",[],[],[],[],[],[1028],[],"[1026, 1011, 1052]",[],[],[],[],[],[],[],[],"[3853, 1011, 1052]",[],[],[]
participant_7_UNDO,[],[],[],[],[],[],[],[],[],[],[],[],[],[],[],[],[],[],[],[],[],[],[],[],[],[],[],[],[],[],[],[],[],[],[],[],[],[],[]
participant_8_GOLD,500,500,578,840,1299,1631,1754,2091,2401,2594,2823,3079,3414,3627,3991,4260,4468,4960,5124,5317,5439,5715,5837,6156,6405,6602,7014,7379,7501,7787,8131,8688,9194,9660,10045,10317,10651,11007,11646
participant_8_CURRENTGOLD,500,0,78,340,799,1131,304,641,951,1144,123,379,714,52,416,685,268,760,924,1117,1239,815,337,656,905,352,764,1129,651,937,1281,288,794,1260,1645,643,976,1332,1971
participant_8_LEVEL,1,1,1,2,3,4,4,5,5,6,6,7,7,8,8,9,9,9,9,10,10,10,10,10,11,11,12,12,12,12,13,13,14,14,15,15,15,16,16
participant_8_MINIONSKILLED,0,0,2,10,18,27,27,37,45,49,52,60,64,69,72,80,82,89,92,97,97,102,102,110,117,117,131,137,137,138,139,139,145,158,165,167,169,175,177
participant_8_KILLS,0,0,0,0,0,0,0,0,1,1,2,2,2,3,3,4,4,4,4,4,4,4,4,4,4,5,5,5,5,5,7,7,7,9,9,9,9,9,10
participant_8_BUY,[],[2033],[],[],[1036],[],[],[1028],[],"[3057, 3067]",[],[3051],[],[3078],[],[],"[3077, 1028]",[],[],[],"[1011, 1028]",[3748],[],[],[],[3111],[1053],[],[1057],[],[],[3091],[],[],[],[1043],[],[],[]
participant_8_SOLD,[],[],[],[],[],[],[],[],[],[1028],[],[1036],[],"[3057, 3051, 3067]",[],[],[],[],[],[],[1028],"[2033, 3077, 1028, 1011]",[],[],[],[2422],[],[],[],[],[],[1057],[],[],[],[],[],[],[]
participant_8_UNDO,[],[],[],[],[],[],[],[],[],[],[],[],[],[],[],[],[],[],[],[],[],[],[],[],[],[],[],[],[],[],[],[],[],[],[],[],[],[],[]
participant_9_GOLD,500,500,538,812,1347,1575,1738,2026,2246,2506,3003,3278,3778,3919,4269,4410,4600,4929,5070,5238,6178,6319,6459,6680,7820,8044,8376,8558,8782,9002,9354,9945,10231,10511,10812,10938,11075,11247,11426
participant_9_CURRENTGOLD,500,0,38,312,847,1075,153,441,661,406,903,1178,779,919,469,610,800,1130,70,238,1179,469,209,430,635,860,376,558,348,567,920,610,896,1177,1477,98,236,408,426
participant_9_LEVEL,1,1,1,2,3,4,4,5,6,6,7,7,7,7,7,7,7,8,8,8,9,9,9,9,10,11,11,11,12,12,13,13,13,14,14,14,14,14,14
participant_9_MINIONSKILLED,0,0,0,0,0,1,3,4,4,4,7,7,7,7,7,7,7,8,8,10,10,10,10,11,11,16,25,28,34,40,40,40,45,45,50,50,50,50,50
participant_9_KILLS,0,0,0,0,0,0,0,0,0,0,0,0,0,0,0,0,0,0,0,0,0,0,0,0,0,0,0,0,0,0,0,0,0,0,0,0,0,0,1
participant_9_BUY,[],"[1055, 2003, 3340]",[],[],[],[],"[1036, 1001, 1042]",[],[],[],"[6670, 1018]",[],[],[1037],[],[],[6672],[],[],[],[],"[1036, 1036]",[3009],[],[],[3035],[],[],[1018],[],[],"[3036, 1036, 1036]",[],[],[],"[3134, 1037]",[],[],[]
participant_9_SOLD,[],[],[],[],[2003],[],[],[],[],[],"[1036, 1042]",[],[],[],[],[],"[6670, 1018, 1037]",[],[],[],[],[],[1001],[],[],"[1036, 1036]",[],[],[],[],[],"[3035, 1018]",[],[],[],"[1036, 1036]",[],[],[]
participant_9_UNDO,[],[],[],[],[],[],[],[],[],[],[],[],[],[],[],[],[],[],[],[],[],[],[],[],[],[],[],[],[],[],[],[],[],[],[],[],[],[],[]
team0_KILLS,0,0,0,0,1,1,2,2,2,3,4,6,7,8,10,10,13,15,16,17,22,23,26,27,29,31,32,32,37,37,38,38,38,38,39,41,42,42,43
team0_CURRENTGOLD,2500,0,403,1578,2369,1959,1830,1970,3355,4508,3379,3732,5196,2750,2133,3215,1848,1865,3627,3249,4034,5338,2901,3717,3857,4479,4506,3951,8235,4582,4371,5766,5272,5576,5324,6309,6782,6264,5277
team0_TOTALGOLD,2500,2500,2903,4088,5664,6524,7705,8945,10340,12083,13919,15772,17796,19395,21178,22310,24943,27010,28772,30095,33679,34983,37046,38296,39992,42214,43940,44886,49169,50217,51174,52570,53525,54629,55967,58542,60264,61546,62402
team0_LEVEL,5,5,6,11,18,20,24,25,28,32,34,36,39,41,42,45,48,50,52,54,57,57,59,61,61,64,65,67,68,69,70,71,72,72,73,75,77,77,78
team0_SBIRES,0,0,10,25,40,49,60,78,95,113,127,136,158,168,190,206,227,238,266,283,291,292,301,313,326,339,354,364,381,390,390,402,415,429,441,463,474,500,501
team1_KILLS,0,0,0,0,2,3,4,5,6,7,9,10,12,13,14,15,15,16,16,16,18,18,18,18,19,20,21,21,21,21,25,25,25,27,27,27,27,28,31
team1_CURRENTGOLD,2500,0,462,1773,2730,4327,3152,4603,3104,3290,2792,3817,4073,2293,4145,5220,2552,4877,2714,3826,3643,2376,2049,3293,3400,3097,4376,3870,2361,3274,7661,3219,4964,7593,9200,3091,4714,6503,8322
team1_TOTALGOLD,2500,2500,2962,4273,6490,8087,9447,11298,13059,14870,16622,18397,20702,22131,24794,26368,27825,30149,31132,32245,34385,35269,36242,38336,40278,42223,45219,46592,47416,48781,53167,56027,57769,60399,62006,63125,64750,66537,69280
team1_LEVEL,5,5,6,12,17,21,24,28,32,34,37,39,41,43,43,46,47,49,51,52,54,55,55,55,58,61,63,63,64,66,69,71,72,75,76,76,78,80,82
team1_SBIRES,0,0,11,30,44,68,79,109,131,149,171,189,208,226,244,268,285,315,326,340,344,349,353,383,391,412,444,464,472,484,496,496,519,556,575,589,606,622,628
delta_KILLS,0,0,0,0,-1,-2,-2,-3,-4,-4,-5,-4,-5,-5,-4,-5,-2,-1,0,1,4,5,8,9,10,11,11,11,16,16,13,13,13,11,12,14,15,14,12
delta_CURRENTGOLD,0,0,-59,-195,-361,-2368,-1322,-2633,251,1218,587,-85,1123,457,-2012,-2005,-704,-3012,913,-577,391,2962,852,424,457,1382,130,81,5874,1308,-3290,2547,308,-2017,-3876,3218,2068,-239,-3045
delta_TOTALGOLD,0,0,-59,-185,-826,-1563,-1742,-2353,-2719,-2787,-2703,-2625,-2906,-2736,-3616,-4058,-2882,-3139,-2360,-2150,-706,-286,804,-40,-286,-9,-1279,-1706,1753,1436,-1993,-3457,-4244,-5770,-6039,-4583,-4486,-4991,-6878
delta_LEVEL,0,0,0,-1,1,-1,0,-3,-4,-2,-3,-3,-2,-2,-1,-1,1,1,1,2,3,2,4,6,3,3,2,4,4,3,1,0,0,-3,-3,-1,-1,-3,-4
delta_SBIRES,0,0,-1,-5,-4,-19,-19,-31,-36,-36,-44,-53,-50,-58,-54,-62,-58,-77,-60,-57,-53,-57,-52,-70,-65,-73,-90,-100,-91,-94,-106,-94,-104,-127,-134,-126,-132,-122,-127
