name,team0,team1
win,Fail,Win
firstBlood,False,True
firstTower,False,True
firstInhibitor,False,False
firstBaron,False,False
firstDragon,True,False
firstRiftHerald,False,True
towerKills,0,5
inhibitorKills,0,0
baronKills,0,0
dragonKills,1,2
riftHeraldKills,0,1
