name,frame_0,frame_1,frame_2,frame_3,frame_4,frame_5,frame_6,frame_7,frame_8,frame_9,frame_10,frame_11,frame_12,frame_13,frame_14,frame_15,frame_16,frame_17,frame_18,frame_19,frame_20,frame_21,frame_22,frame_23,frame_24,frame_25
nameStamp,Tstart,Tearly,Tearly,Tearly,Tearly,Tearly,Tearly,Tearly,Tmid,Tmid,Tmid,Tmid,Tmid,Tmid,Tmid,Tmid,Tmid,Tmid,Tmid,Tmid,Tmid,Tmid,Tmid,Tmid,Tmid,Tmid
timestamp,0,60010,120017,180022,240039,300057,360068,420080,480088,540100,600111,660122,720141,780147,840160,900168,960178,1020188,1080198,1140215,1200235,1260244,1320254,1380268,1440294,1500294
participant_0_GOLD,1400,1400,2247,2991,4473,4943,5956,6567,7626,8221,9244,10240,10951,11585,12117,12689,13770,14238,15038,15628,16166,16595,17409,17769,18212,18659
participant_0_CURRENTGOLD,1400,0,847,341,123,593,1171,717,1776,671,1694,1240,1051,1685,967,289,1370,588,1388,278,816,1245,2059,759,1202,-591
participant_0_LEVEL,1,3,4,5,6,7,8,9,10,10,12,12,13,14,14,15,15,16,17,17,18,18,18,18,18,18
participant_0_MINIONSKILLED,0,0,2,2,2,5,13,15,19,22,25,25,26,31,31,32,32,32,34,34,40,40,43,43,43,43
participant_0_KILLS,0,0,2,3,7,7,9,9,12,12,14,16,17,17,17,18,19,19,20,21,21,21,22,22,22,23
participant_0_BUY,[],"[3145, 1001, 2003]",[],"[1026, 1028]","[4636, 3020]",[],[1052],"[3057, 3916]",[],"[3113, 1026]",[],"[3100, 1026]",[1011],[],[4637],[4630],[],[3135],[],[3165],[],[],[],"[6653, 2139]",[],[]
participant_0_SOLD,[],[2003],[],[],"[3145, 1028, 1026, 1001]",[],[],[1052],[],[],[],"[3057, 3113, 1026]",[],[],"[1026, 1011]",[],[],[4630],[],[3916],[],[],[],"[4636, 2139]",[],[]
participant_0_UNDO,[],[],[],[],[],[],[],[],[],[],[],[],[],[],[],[],[],[],[],[],[],[],[],[],[],[]
participant_1_GOLD,1400,1400,1923,2792,3206,3844,4465,5259,5899,6494,7099,7547,8072,9386,9958,10424,11491,12041,12487,13257,13756,14238,14775,15263,16010,16467
participant_1_CURRENTGOLD,1400,0,523,1392,406,1044,1665,2459,3099,1944,549,997,1522,2836,458,924,1991,2541,2987,3757,4256,4738,625,513,1260,1517
participant_1_LEVEL,1,3,4,5,6,7,8,9,10,11,12,13,13,14,15,16,17,17,18,18,18,18,18,18,18,18
participant_1_MINIONSKILLED,0,0,0,2,2,4,6,8,10,12,12,13,15,18,18,18,23,23,26,28,32,36,36,40,51,52
participant_1_KILLS,0,0,0,2,2,3,3,4,4,4,4,4,4,7,7,7,8,9,9,10,10,10,10,10,10,10
participant_1_BUY,[],"[3145, 1001, 2003]",[],[],"[1028, 2031, 1026]",[],[],[],[],"[4636, 1026]","[1011, 1052, 1058, 1058, 2033]",[],[],[],"[3089, 3020, 1026]",[],[],[],[],[],[],[],"[3135, 4637]",[3916],[],[]
participant_1_SOLD,[],[],[2003],[],[2052],[],[],[],[2052],"[3145, 1028, 1026]",[2031],[],[],[],"[1058, 1058, 1001]",[],[],[],[],[],[],[],[1026],[2033],[],[]
participant_1_UNDO,[],[],[],[],[],[],[],[],[],[],"[[0, 1052], [0, 1011], [0, 1026]]",[],[],[],[],[],[],[],[],[],[],[],[],[],[],[]
participant_2_GOLD,1400,1400,1841,2453,3189,3658,4360,4953,5751,6251,6797,7325,7900,8320,9143,9509,10478,10838,11255,11621,12059,12477,13456,13833,14382,14930
participant_2_CURRENTGOLD,1400,0,441,1053,1789,158,860,1453,851,201,197,425,600,1020,543,909,678,1038,755,771,1209,1077,2056,1133,1682,1030
participant_2_LEVEL,1,3,4,5,7,8,8,9,10,11,11,12,13,13,14,15,15,16,16,16,17,17,18,18,18,18
participant_2_MINIONSKILLED,0,0,2,6,11,12,12,13,14,17,17,21,26,26,26,26,28,28,30,30,30,32,39,40,43,43
participant_2_KILLS,0,0,0,0,0,0,1,1,2,2,2,2,2,2,3,3,5,5,5,5,5,5,6,6,6,7
participant_2_BUY,[],"[6670, 2003, 2003]",[],[],[],[6673],[],[],"[3123, 1001, 1042]","[3006, 1036, 1042]",[1053],[1042],[1043],[],[3153],[],[3086],[],[3033],[1036],[],[1053],[],[1038],[],[3072]
participant_2_SOLD,[],[],[],"[2003, 2003]",[],[6670],[],[],[],"[1001, 1042]",[1036],[],"[1042, 1042]",[],"[1053, 1043]",[],[],[],"[3123, 3086]",[],[],[1036],[],[],[],"[1038, 1053]"
participant_2_UNDO,[],[],[],[],[],[],[],[],[],[],[],[],[],[],[],[],[],[],[],[],[],[],[],[],[],[]
participant_3_GOLD,1400,1400,1880,2441,3107,3546,4567,5201,5722,6844,7611,8029,8549,9460,10781,11141,11984,12344,12808,13627,14065,14646,16100,17013,17818,18761
participant_3_CURRENTGOLD,1400,0,480,641,207,646,967,1601,672,694,611,229,149,1060,2381,141,984,444,558,627,1065,96,1550,13,818,1761
participant_3_LEVEL,1,3,4,5,6,7,8,8,9,11,11,12,12,14,15,15,16,16,17,17,18,18,18,18,18,18
participant_3_MINIONSKILLED,0,0,2,8,8,9,10,12,12,17,17,17,19,24,31,31,35,35,37,37,37,38,45,46,47,55
participant_3_KILLS,0,0,0,0,1,1,2,2,2,4,5,5,5,6,9,9,9,9,9,11,11,12,14,16,18,19
participant_3_BUY,[],"[3044, 1001]",[],[1028],"[3057, 3067]",[],[6632],[],"[3133, 1036]",[3035],[6694],"[1042, 3006]","[1042, 1042]",[],[],"[1043, 1053, 1037, 3153]",[],[1057],[1036],[3051],[3051],"[3091, 1033]",[],[3065],[],[]
participant_3_SOLD,[],[],[],[2052],[1028],[],"[3044, 3057, 3067]",[],[],[1036],"[3133, 3035]","[1001, 1042]",[2052],[],[],"[1042, 1042, 1053, 1043, 1037]",[],[],[],[1036],[1036],"[3051, 1057]",[],[1033],[],[]
participant_3_UNDO,[],[],[],[],[],[],[],[],[],[],[],[],[],[],[],[],[],[],[],[],"[[0, 3051]]",[],[],[],[],[]
participant_4_GOLD,1400,1400,2072,2605,3222,3710,4143,4782,5292,6321,6993,7813,8522,9138,10191,10551,11560,11920,12560,13036,13447,13898,14258,14697,15205,15595
participant_4_CURRENTGOLD,1400,150,822,1355,1972,2460,260,899,9,1038,260,630,1339,1955,3008,228,1237,297,937,1413,374,825,218,657,1165,-838
participant_4_LEVEL,1,3,4,5,7,8,8,9,9,10,11,12,12,14,15,15,17,17,18,18,18,18,18,18,18,18
participant_4_MINIONSKILLED,0,0,2,5,6,9,9,13,17,18,20,21,24,28,31,31,38,38,43,44,46,48,48,49,50,50
participant_4_KILLS,0,0,1,1,1,1,1,1,1,4,4,5,6,6,7,7,7,7,7,7,7,7,7,7,7,7
participant_4_BUY,[],"[3070, 3057, 2031]",[],[],[],[],"[3051, 3067, 3078]",[],"[1001, 3133]",[],"[3004, 1036]",[3123],[],[],[],"[3111, 1053, 1043, 2140]",[],[3153],[],[],[3035],[],[6632],[],[],[]
participant_4_SOLD,[],[],[],[],[],[],"[3057, 3051, 3067]",[],[],[],"[3070, 3133, 3004]",[1036],[],[],[],"[1001, 2031, 2140]",[],"[1053, 1043]",[],[],[],[],[3078],[],[],[]
participant_4_UNDO,[],[],[],[],[],[],[],[],[],[],[],[],[],[],[],[],[],[],[],[],[],[],[],[],[],[]
participant_5_GOLD,1400,1400,2028,2471,3881,4601,5021,5405,6028,6940,7693,8302,9180,9619,11089,12488,13152,13744,14518,15850,16485,17698,18058,18616,19417,19882
participant_5_CURRENTGOLD,1400,0,628,221,81,801,1221,370,993,240,593,402,880,19,1489,2888,3552,344,218,1550,2185,3398,1658,1716,2517,2982
participant_5_LEVEL,1,3,4,5,6,7,8,8,9,10,10,11,12,12,14,15,16,16,17,18,18,18,18,18,18,18
participant_5_MINIONSKILLED,0,0,0,0,2,5,5,5,6,6,6,7,11,14,14,30,31,33,33,42,52,53,53,53,61,61
participant_5_KILLS,0,0,1,1,4,5,5,5,6,7,8,9,11,11,13,15,16,17,18,20,20,22,22,23,24,25
participant_5_BUY,[],"[3802, 3802, 2003, 2003]",[],[1026],"[6655, 1001]",[],[],"[3020, 1052]",[],"[1026, 4630]",[3135],[3916],[1028],"[1026, 3165]",[],[],[],[3089],[3108],[],[],[],"[3102, 2139]",[2139],[],[]
participant_5_SOLD,[],[],[2003],[2003],"[3802, 1026]",[],[],[1001],[],[1052],"[4630, 1026]",[],[],"[1026, 3916, 1028]",[],[],[],[],[],[],[],[],"[3108, 2139]",[2139],[],[]
participant_5_UNDO,[],"[[0, 3802]]",[],[],[],[],[],[],[],[],[],[],[],[],[],[],[],[],[],[],[],[],[],[],[],[]
participant_6_GOLD,1400,1447,1965,2614,3108,3801,4252,5305,5857,6687,7543,8145,8654,9078,9887,10533,10971,11703,12430,12894,13378,14510,14966,15995,16741,17047
participant_6_CURRENTGOLD,1400,47,265,414,458,1151,202,1255,1457,1037,1093,1695,1354,178,87,733,221,953,1680,844,1328,2460,1366,895,1641,147
participant_6_LEVEL,1,3,4,5,6,7,8,9,10,11,12,13,13,14,15,15,16,17,17,18,18,18,18,18,18,18
participant_6_MINIONSKILLED,0,0,4,7,9,16,18,20,27,28,31,39,40,41,52,58,59,70,86,88,90,100,101,101,111,112
participant_6_KILLS,0,0,0,1,1,1,1,3,3,4,6,6,6,6,7,7,7,7,7,7,7,7,7,8,8,8
participant_6_BUY,[],"[6660, 1001, 2003, 2003]",[1029],[1031],[1033],[],"[6662, 1033]",[],[3111],[3211],[3067],[],[3065],"[3077, 1028]","[1011, 1028]",[],"[3748, 1006]",[],[],"[3801, 3067]",[],[],[3083],[3105],[],[3193]
participant_6_SOLD,[],[2003],[],[1029],[2003],[],"[6660, 1033, 1031]",[],"[1001, 1033]",[],[],[],"[3211, 3067]",[],[1028],[],"[3077, 1028, 1011]",[],[],[1006],[],[],"[3067, 3801]",[],[],[3105]
participant_6_UNDO,[],[],[],[],[],[],[],[],[],[],[],[],[],[],[],[],[],[],[],[],[],[],[],[],[],[]
participant_7_GOLD,1400,1695,2152,2640,3067,4175,4657,5371,5874,6551,7552,7952,8426,8904,9557,10177,10537,11348,11866,12291,12751,14056,14463,14886,15246,15535
participant_7_CURRENTGOLD,1400,295,52,540,167,1275,1057,621,249,251,1252,452,526,254,157,777,787,1598,2116,191,651,1956,2363,186,546,835
participant_7_LEVEL,1,3,4,5,6,7,8,9,10,10,11,12,12,13,13,14,15,16,16,17,17,18,18,18,18,18
participant_7_MINIONSKILLED,0,0,1,1,1,3,8,8,9,12,13,14,14,17,17,20,20,25,27,28,29,37,38,38,38,38
participant_7_KILLS,0,1,1,1,1,4,4,5,5,6,7,7,7,7,8,8,8,9,9,9,9,11,11,11,11,11
participant_7_BUY,[],"[3044, 1001]",[3057],[],"[1028, 3067]",[],[6632],"[3111, 1036]",[1037],"[3133, 1029, 1031]",[],[6333],[1028],"[3067, 1036]","[1036, 3133]",[],[1036],[],[],"[3071, 1033, 1036, 3155]",[],[],[],"[3156, 3123]",[],[]
participant_7_SOLD,[],[],[],[],[1028],[],"[3044, 3057, 3067]","[1001, 2052]",[],"[1036, 1029]",[],"[1031, 3133]",[],[1028],"[1036, 1036]",[],[],[],[],"[3133, 3067, 1036, 1036, 1033]",[],[],[],[3155],[],[]
participant_7_UNDO,[],[],[],[],[],[],[],[],[],"[[0, 1037]]",[],[],[],[],[],[],[],[],[],[],[],[],[],[],[],[]
participant_8_GOLD,1400,1602,2375,2836,3431,3996,4386,4746,5106,5583,6202,6744,7223,7642,8234,8668,9322,9770,10218,10623,11101,12052,12616,13028,13574,13863
participant_8_CURRENTGOLD,1400,202,975,236,131,696,1086,1446,556,683,1302,1844,1073,507,299,733,887,1395,1043,148,626,1577,2141,1653,2199,-237
participant_8_LEVEL,1,3,4,5,6,7,8,8,8,9,11,11,12,13,14,14,15,16,16,17,17,18,18,18,18,18
participant_8_MINIONSKILLED,0,0,0,0,1,3,3,3,3,3,3,5,5,6,8,8,8,9,10,10,11,11,11,11,12,12
participant_8_KILLS,0,1,2,2,2,2,2,2,2,2,2,2,2,2,2,2,3,3,3,3,3,3,4,4,4,4
participant_8_BUY,[],"[2051, 1001, 2031]",[],"[3024, 1029]",[3082],[],[],[],"[3110, 1033]",[3111],[],[],[3211],[3065],[3066],[],[2138],[],[1031],[3742],[],[],[],[1057],[],[4401]
participant_8_SOLD,[],[],[],[2010],[1029],[],[],[],"[3082, 3024]","[1001, 1033]",[],[],[],"[2051, 3211]",[2010],[],[2138],[2031],[],"[3066, 1031]",[],[],[],[],[],[1057]
participant_8_UNDO,[],[],[],[],[],[],[],[],[],[],[],[],[],[],[],[],[],[],[],[],[],[],[],[],[],[]
participant_9_GOLD,1400,1437,1880,2543,2996,3541,3948,4547,5044,5945,6435,6801,7711,8071,8598,9208,9817,10403,10888,11599,12010,12857,13754,14337,14889,15178
participant_9_CURRENTGOLD,1400,37,480,1143,96,641,98,697,1194,1345,485,201,11,371,298,708,417,1003,1488,1199,610,422,1319,1102,1654,1278
participant_9_LEVEL,1,3,4,5,6,7,7,9,9,10,11,11,12,12,13,14,15,16,16,17,18,18,18,18,18,18
participant_9_MINIONSKILLED,0,0,0,1,1,3,4,6,7,10,11,11,11,11,12,14,14,17,18,18,20,23,23,23,23,23
participant_9_KILLS,0,0,0,1,1,1,1,1,1,2,2,2,3,3,3,3,4,4,4,5,5,5,6,7,7,7
participant_9_BUY,[],"[2051, 1028, 2003]",[],[],"[6660, 1029, 1001, 1029]",[],"[3047, 1033]",[],[],[3105],"[3068, 1029, 1027]","[3024, 1028]","[3067, 3050]",[],"[1029, 1029]",[3076],[1011],[],[],[3075],[3082],[3143],[],[3066],[],[]
participant_9_SOLD,[],[],[],[2003],[1028],[],"[1001, 1029]",[],[],"[1033, 1029]","[6660, 3105]","[1027, 1029]","[1028, 3067, 3024]",[],[],"[1029, 1029]",[],[],[],"[3076, 1011]",[],"[2051, 3082]",[],[],[],[]
participant_9_UNDO,[],[],[],[],[],[],[],[],[],[],[],[],[],[],[],[],[],[],[],[],[],[],[],[],[],[]
team0_KILLS,0,0,3,6,11,12,16,17,21,26,29,32,34,38,43,44,48,49,50,54,54,55,59,61,63,66
team0_CURRENTGOLD,7000,150,3113,4782,4497,4901,4923,7129,6407,4548,3311,3521,4661,8556,7357,2491,6260,4908,6625,6846,7720,7981,6508,3075,6127,2879
team0_TOTALGOLD,7000,7000,9963,13282,17197,19701,23491,26762,30290,34131,37744,40954,43994,47889,52190,54314,59283,61381,64148,67169,69493,71854,75998,78575,81627,84412
team0_LEVEL,5,15,20,25,32,37,40,44,48,53,57,61,63,69,73,76,80,82,86,86,89,89,90,90,90,90
team0_SBIRES,0,0,8,23,29,39,50,61,72,86,91,97,110,127,137,138,156,156,170,173,185,194,211,218,234,243
team1_KILLS,0,2,4,6,9,13,13,16,17,21,25,26,29,29,33,35,38,40,41,44,44,48,50,53,54,55
team1_CURRENTGOLD,7000,581,2400,2554,933,4564,3664,4389,4449,3556,4725,4594,3844,1329,2330,5839,5864,5293,6545,3932,5400,9813,8847,5552,8557,5005
team1_TOTALGOLD,7000,7581,10400,13104,16483,20114,22264,25374,27909,31706,35425,37944,41194,43314,47365,51074,53799,56968,59920,63257,65725,71173,73857,76862,79867,81505
team1_LEVEL,5,15,20,25,30,35,39,43,46,50,55,58,61,64,69,72,77,81,82,87,88,90,90,90,90,90
team1_SBIRES,0,0,5,9,14,30,38,42,52,59,64,76,81,89,103,130,132,154,174,186,202,224,226,226,245,246
delta_KILLS,0,-2,-1,0,2,-1,3,1,4,5,4,6,5,9,10,9,10,9,9,10,10,7,9,8,9,11
delta_CURRENTGOLD,0,-431,713,2228,3564,337,1259,2740,1958,992,-1414,-1073,817,7227,5027,-3348,396,-385,80,2914,2320,-1832,-2339,-2477,-2430,-2126
delta_TOTALGOLD,0,-581,-437,178,714,-413,1227,1388,2381,2425,2319,3010,2800,4575,4825,3240,5484,4413,4228,3912,3768,681,2141,1713,1760,2907
delta_LEVEL,0,0,0,0,2,2,1,1,2,3,2,3,2,5,4,4,3,1,4,-1,1,-1,0,0,0,0
delta_SBIRES,0,0,3,14,15,9,12,19,20,27,27,21,29,38,34,8,24,2,-4,-13,-17,-30,-15,-8,-11,-3
