name,frame_0,frame_1,frame_2,frame_3,frame_4,frame_5,frame_6,frame_7,frame_8,frame_9,frame_10,frame_11,frame_12,frame_13,frame_14,frame_15,frame_16,frame_17,frame_18,frame_19,frame_20,frame_21,frame_22,frame_23,frame_24,frame_25,frame_26,frame_27,frame_28,frame_29,frame_30,frame_31,frame_32,frame_33,frame_34,frame_35,frame_36
nameStamp,Tstart,Tearly,Tearly,Tearly,Tearly,Tearly,Tearly,Tearly,Tearly,Tearly,Tearly,Tearly,Tearly,Tearly,Tearly,Tearly,Tearly,Tmid,Tmid,Tmid,Tmid,Tmid,Tmid,Tmid,Tmid,Tmid,Tmid,Tmid,Tmid,Tmid,Tend,Tend,Tend,Tend,Tend,Tend,Tend
timestamp,0,60011,120017,180019,240032,300077,360078,420109,480132,540139,600141,660173,720201,780207,840235,900250,960280,1020291,1080294,1140305,1200324,1260341,1320342,1380372,1440399,1500409,1560439,1620442,1680448,1740464,1800469,1860496,1920497,1980528,2040561,2100573,2160573
participant_0_GOLD,500,500,597,1237,1801,2058,2229,2669,2848,3151,3295,3536,3798,3984,4626,5101,5832,6144,6933,7503,8595,8874,9038,10046,10503,10635,10758,11096,11595,12143,12265,12411,12640,12874,13277,13527,14400
participant_0_CURRENTGOLD,500,0,97,737,551,808,104,544,723,1026,30,271,83,269,911,1386,2117,329,1118,1688,2780,459,464,1471,928,1061,83,422,521,308,431,577,806,520,922,1173,-155
participant_0_LEVEL,1,1,1,3,4,5,5,6,7,7,8,9,9,9,10,11,11,12,12,13,13,14,14,14,15,15,15,15,15,16,16,16,16,16,17,17,17
participant_0_MINIONSKILLED,0,0,4,10,19,26,29,45,48,55,56,62,65,69,77,81,91,99,108,112,118,118,121,130,130,131,131,139,150,153,153,153,154,157,161,163,163
participant_0_KILLS,0,0,0,0,0,0,0,0,0,0,0,0,0,0,0,0,0,0,0,0,0,0,0,0,1,1,1,1,2,2,2,2,2,3,3,3,4
participant_0_BUY,[],"[1055, 2003, 3340]",[],[],[],[],[],"[1037, 1001, 1042]",[],[],"[3006, 1042]",[],[],"[1036, 1036]",[],[],[],[6672],[],[1037],[],[],[1038],[],[],"[1018, 3031]",[],[],[],[3086],[2015],[],[],[3094],[],[],[]
participant_0_SOLD,[],[],[],[],[2003],[],[],[],[],[],"[1001, 1042]",[],[],[],[],[],[],"[1036, 1042, 1036, 1037]",[],[],[],[],[],[1055],[],"[1038, 1037, 1018]",[],[],[],[],[],[],[],"[3086, 2015]",[],[],[]
participant_0_UNDO,[],[],[],[],[],[],[],[],[],[],[],[],[],[],[],[],[],[],[],[],[],[],[],[],[],[],[],[],[],[],[],[],[],[],[],[],[]
participant_1_GOLD,500,500,620,907,1185,1575,2218,2530,2752,3499,3912,4555,4777,5050,5282,6166,6702,6959,7473,8015,8478,8656,9618,10159,10607,10729,11197,11404,12253,12886,13208,13650,13773,14229,14703,14930,15484
participant_1_CURRENTGOLD,500,0,120,407,685,1075,1718,2030,452,1189,1602,2235,324,97,329,1213,1749,656,620,1162,1625,303,415,956,1404,777,44,251,1101,493,816,1258,1380,337,811,163,676
participant_1_LEVEL,1,1,2,2,3,4,5,5,6,6,7,8,8,8,8,9,10,10,10,11,11,12,12,13,13,13,14,14,14,15,15,16,16,16,17,17,17
participant_1_MINIONSKILLED,0,0,0,0,0,0,0,0,0,7,7,15,15,15,15,16,21,21,22,22,22,26,26,30,31,31,31,31,34,34,34,38,38,50,57,59,65
participant_1_KILLS,0,0,0,0,0,0,1,1,1,2,2,2,2,2,2,3,3,4,4,4,5,7,7,8,8,8,8,8,10,10,12,12,12,13,13,13,15
participant_1_BUY,[],"[1055, 2003, 3340]",[],[],"[1042, 2003, 2003]",[],[],"[1053, 1018, 2003, 2003]",[],[1036],[],"[6670, 1001]",[],[],"[6673, 2003, 2003]",[],[3006],[],[],[1038],"[1018, 2003, 2003, 2003]",[],[3031],[1018],[1042],[],[1042],[],[],"[3072, 1029]","[1031, 2003]",[1037],[],[],[],[],[]
participant_1_SOLD,[],[],[],[],[],[],[2003],[],[],[],[2003],"[2003, 2003, 1036, 1042]",[],[],"[6670, 1018, 1053]",[2003],"[2003, 2003, 1001]",[],[],[],[],[],"[2003, 2003, 2003, 1055, 1038, 1018]",[],[2003],"[2003, 2003]",[],[],[],"[1042, 1018, 1042]","[1029, 2003]",[],[],[],[],[],[]
participant_1_UNDO,[],[],[],[],[],[],[],[],[],[],[],[],[],[],[],[],[],[],[],[],[],[],"[[2003, 0], [2003, 0], [2003, 0]]",[],[],[],[],[],[],[],[],[],[],[],[],[],[]
participant_2_GOLD,500,500,604,926,1119,1459,2379,2571,2916,3394,3698,3835,4069,4338,4626,5194,5409,6270,6612,6798,7673,8648,8854,9575,10005,10232,10355,10832,12739,13162,13924,14046,14302,14914,15316,15655,17152
participant_2_CURRENTGOLD,500,0,104,416,209,539,1459,51,386,514,818,5,239,508,86,654,69,930,1272,158,283,1258,144,265,395,623,445,922,2830,572,805,52,307,920,1322,1661,2517
participant_2_LEVEL,1,1,1,3,3,4,6,6,7,7,8,8,9,9,10,10,10,11,11,12,12,13,13,13,14,14,14,14,15,15,16,16,16,16,16,16,17
participant_2_MINIONSKILLED,0,0,5,14,19,29,37,41,51,53,63,64,71,80,86,90,92,98,98,101,105,113,118,120,127,133,133,145,160,160,160,160,168,168,180,188,202
participant_2_KILLS,0,0,0,0,0,0,1,1,1,2,2,3,3,3,3,5,5,5,6,7,7,7,9,9,9,9,10,10,11,11,11,11,11,11,11,11,11
participant_2_BUY,[],"[1035, 2031]",[],[],[],[],[],[],"[3057, 3051]",[],[],[],"[3078, 1001, 1029]",[3047],[],[],[],"[1043, 1036]",[1053],[],[],"[3153, 1029]","[1031, 1036]",[],[],[3133],[6333],[],[],[1038],[],[],[],[3026],[],[1037],[]
participant_2_SOLD,[],[],[],[],[],[],[],[],[],[],[1035],[],"[3057, 3051]","[1001, 1029]",[],[],[],[],[1036],[],[],"[1053, 1043]",[1029],[],[],[1036],"[1031, 3133]",[],[],[2031],[],[],[],[1038],[],[],[]
participant_2_UNDO,[],[],[],[],[],[],[],[],[],[],[],[],[],[],[],[],[],[],[],[],[],[],[],[],[],[],[],[],[],[],[],[],[],[],[],[],[]
participant_3_GOLD,500,500,590,968,1259,1564,1869,2068,2357,2692,2849,3208,3642,3813,4146,4541,4927,5162,5811,6246,6493,6968,7265,7512,8121,8243,8594,8773,9295,10038,10210,10340,10553,11025,11148,11502,12180
participant_3_CURRENTGOLD,500,0,90,468,759,1064,1369,93,382,717,74,433,867,338,671,1066,1452,162,811,371,618,1093,90,517,1126,23,375,553,1075,618,90,221,433,105,229,582,1080
participant_3_LEVEL,1,1,1,2,3,4,5,5,5,6,6,7,7,7,8,8,9,9,10,10,10,11,11,12,12,12,12,13,13,14,14,14,14,15,15,15,15
participant_3_MINIONSKILLED,0,0,4,16,25,33,43,47,54,63,65,75,85,88,97,109,117,121,137,146,146,153,158,158,165,165,171,174,174,184,184,184,185,185,185,189,189
participant_3_KILLS,0,0,0,0,0,0,0,0,0,0,0,0,0,1,1,1,1,1,1,1,1,1,1,1,1,1,1,1,1,1,1,1,1,1,1,1,2
participant_3_BUY,[],"[3858, 3340, 2003, 2003]",[],[],[],[],[],[],[],[],"[3024, 1001, 2031]",[],[],[3067],[3050],[],[],[],[3117],[],[],[],"[1033, 1029]",[],[],[],"[3105, 1029]",[],[],[3193],[],[1029],[],[],[],[],[]
participant_3_SOLD,[],[],[],[2003],[],[2003],[],[],[],[],[],[3858],[],[],"[3067, 3024]",[],[],[],[1001],[3859],[],[],[],[],[],[],"[1033, 1029]",[],[],"[1029, 3105]",[],[],[],[],[],[],[]
participant_3_UNDO,[],[],[],[],[],[],[],[],[],[],[],[],[],[],[],[],[],[],[],[],[],[],[],[],[],[],[],[],[],[],[],[],[],[],[],[],[]
participant_4_GOLD,500,500,522,719,896,1073,1222,1370,1727,2013,2147,2423,2743,3333,3473,3726,3937,4141,4457,4732,4953,5093,5458,5874,6226,6367,6507,6647,7038,7478,7669,7809,7949,8140,8281,8422,9302
participant_4_CURRENTGOLD,500,0,22,219,396,573,722,870,1227,1513,297,573,893,683,123,376,587,792,407,682,903,1043,659,1074,1426,1567,657,798,1188,128,319,159,300,490,632,772,1652
participant_4_LEVEL,1,1,1,2,3,4,4,5,5,6,6,7,7,8,8,8,8,8,9,9,9,10,10,11,12,12,12,12,13,13,14,14,14,14,15,15,16
participant_4_MINIONSKILLED,0,0,0,3,5,7,8,9,19,20,20,24,26,26,26,29,30,31,34,36,37,37,37,37,37,37,37,37,37,37,37,37,37,37,37,37,37
participant_4_KILLS,0,0,0,1,2,2,2,2,2,2,2,2,2,2,2,2,2,2,2,2,4,4,4,6,6,6,6,6,6,6,6,6,6,6,6,6,7
participant_4_BUY,[],"[1054, 2003]",[],[],"[1036, 1028]",[],"[3044, 1001, 2031, 2055]",[],[],[],[6029],[],"[1029, 2031]",[],[],[],[],"[3047, 6630, 1018]",[],[],[],"[3036, 1029]",[1028],[],"[1028, 3076, 1011]",[],"[3075, 2003, 2003]",[],[1028],"[3066, 1028]",[],[],[],[1031],[],[],[3742]
participant_4_SOLD,[],[],[],[2003],[],[],"[1028, 1036]",[],[],[2055],[2031],[],[],[],[],[3340],[3513],"[1001, 1029, 6029, 3044]",[],[],[],[1018],"[2031, 1054]",[],"[1029, 1028]",[],"[3076, 1011]",[],[],"[1028, 2003, 2003]",[],[1028],[],[1028],[],[],"[3066, 1031]"
participant_4_UNDO,[],[],[],[],[],[],[],[],[],[],[],[],[],[],[],[],[],[],[],[],[],[],[],[],"[[0, 1028]]",[],[],[],[],[],[],"[[1028, 0]]",[],[],[],[],[]
participant_5_GOLD,500,500,555,803,1066,1322,1721,1906,2328,2493,2918,3223,3838,4420,4627,4819,5180,5372,6467,7211,7549,7875,7997,8294,8599,8846,9264,9865,10217,10340,11570,11869,12012,12589,12712,13282,13456
participant_5_CURRENTGOLD,500,500,55,303,566,472,871,1056,1478,193,618,923,1538,2120,177,369,730,922,2017,2761,3099,575,347,644,599,446,864,1465,218,220,1451,49,193,769,892,1463,1456
participant_5_LEVEL,1,1,1,2,3,4,5,6,7,7,8,8,9,10,10,10,11,11,12,13,13,13,13,13,14,14,14,15,15,15,16,16,16,16,17,17,17
participant_5_MINIONSKILLED,0,0,2,9,17,22,35,38,53,55,70,76,91,98,103,107,119,123,131,145,154,154,154,160,165,168,179,187,196,196,202,202,203,205,205,217,218
participant_5_KILLS,0,0,0,0,0,0,0,0,0,0,0,0,0,1,2,2,2,2,2,3,4,6,6,6,6,7,7,7,7,7,7,7,7,7,7,7,7
participant_5_BUY,[],"[1055, 2003, 3340]",[],[],[],[],[],[],[6670],[],[],[],"[1053, 1018]",[],[],"[6673, 3006]",[],[],[1038],[],"[1037, 1018]",[],[3031],[1038],[],[],[1053],[],[],[],[],[3072],[3133],[],[],[],[]
participant_5_SOLD,[],[],[],[2010],[2003],[],[2010],[],[],[2010],[],[],[],[],[],"[6670, 1018, 1053, 2422]",[],[],[],[],[],[],"[1038, 1037, 1018]",[],[],[],[],[],[],[],[],"[1038, 1053]",[],[],[],[],[]
participant_5_UNDO,[],[],[],[],[],[],[],[],[],[],[],[],[],[],[],[],[],[],[],[],[],[],[],[],[],[],[],[],[],[],[],[],[],[],[],[],[]
participant_6_GOLD,500,500,725,1032,1393,1757,1900,2138,2470,2602,3345,3952,4545,4762,5299,5421,5554,5930,6303,6561,6683,7115,7337,8381,8504,8854,9451,10050,10172,11106,11869,12331,12537,13141,13264,13526,13629
participant_6_CURRENTGOLD,500,0,225,532,893,1257,100,338,670,127,870,27,620,37,574,96,229,305,678,936,458,390,612,556,329,679,1277,1875,372,1307,44,507,713,316,440,702,754
participant_6_LEVEL,1,1,2,3,4,4,5,5,6,6,6,8,8,8,9,9,9,9,10,10,10,11,11,12,12,12,13,14,14,14,15,15,16,16,16,16,16
participant_6_MINIONSKILLED,0,0,0,0,0,0,1,2,2,3,7,10,10,10,10,10,11,14,22,22,22,29,29,33,33,36,36,37,37,46,46,46,51,53,53,54,54
participant_6_KILLS,0,0,0,0,0,0,0,0,0,0,0,0,0,0,0,0,0,0,2,2,2,2,2,2,2,2,2,2,2,2,5,5,5,5,5,5,5
participant_6_BUY,[],[],"[1054, 2003]",[],[],[1036],[],[],[],"[3057, 3044]",[],[],[],[],"[6632, 1029, 1036]",[],[],[],[],[],[],"[6333, 1028]",[1036],[],[3044],[1028],[],[],[3053],[1029],[],"[3047, 3123, 1028]",[],[],[],[],[]
participant_6_SOLD,[],[],[],[2003],[],[],[],[],[],[1036],[],[],[],[],"[3044, 3057]",[],[],[],[],[],[],"[1029, 1036]",[],[],"[1028, 1036]",[],[],[],"[3044, 1028]",[1054],[],"[1029, 2422]",[],[],[],[],[]
participant_6_UNDO,[],[],[],[],[],[],[],[],[],[],[],[],[],[],[],[],[],[],[],[],[],[],[],[],[],[],[],[],[],[],[],[],[],[],[],[],[]
participant_7_GOLD,500,500,562,807,1307,1472,1609,1885,2237,2674,3006,3150,3335,3576,4134,4313,4763,5060,5471,5804,5927,6259,6570,6959,7081,7654,9026,9225,9438,9581,10168,10421,10767,11121,11280,11473,11576
participant_7_CURRENTGOLD,500,0,62,297,797,152,289,565,907,329,661,805,990,1231,929,208,658,955,131,464,122,19,330,254,376,949,371,571,348,286,873,277,622,977,1135,1328,451
participant_7_LEVEL,1,1,1,3,4,5,5,6,7,7,8,8,9,9,10,10,11,11,11,12,12,13,13,13,13,14,14,14,14,15,15,16,16,16,17,17,17
participant_7_MINIONSKILLED,0,0,2,7,11,14,15,24,34,35,47,48,52,59,68,72,74,80,81,90,90,92,99,102,102,102,102,107,108,109,113,116,126,137,139,140,140
participant_7_KILLS,0,0,0,0,0,0,0,0,0,0,1,2,3,3,4,4,4,4,4,4,4,4,4,6,6,6,6,7,7,8,9,9,9,10,10,10,10
participant_7_BUY,[],"[1035, 2031, 3340]",[],[],[],[],[6670],[],[],"[1018, 2055, 3364]",[],[6672],[],[6677],[],[1018],[],[1042],[],[],"[1001, 1029]",[3047],[],[3124],[1036],[],[],[],"[3044, 1037]",[],"[3053, 1053]",[],[],[1043],[],[],[]
participant_7_SOLD,[],[],[],[],[],[],[],[],[],"[1035, 3340]",[],"[2031, 6670, 1018]",[2055],[],[],[],[],[],[],[],[],"[1001, 1029]",[],"[6677, 1018, 1042]",[],[],[],[],[1036],[],"[1037, 3044]",[],[],[],[],[],[]
participant_7_UNDO,[],[],[],[],[],[],[],[],[],[],[],[],[],[],[],[],[],[],[],[],[],[],[],[],[],[],[],[],[],[],[],[],[],[],[],[],[]
participant_8_GOLD,500,500,583,803,1070,1389,1596,1872,2064,2397,2873,3298,3469,4480,5109,5350,5777,6018,6538,7456,7899,9141,9419,9617,10025,10562,10685,11099,11284,11788,12334,12806,13060,13442,13899,14218,14321
participant_8_CURRENTGOLD,500,0,83,303,570,889,1096,1372,264,597,1073,1498,169,1180,1809,650,1077,1318,538,1456,424,1666,1319,217,625,1162,385,799,985,1488,2034,1306,461,842,1300,1619,1721
participant_8_LEVEL,1,1,1,2,3,4,4,5,5,6,6,7,7,8,8,8,9,9,10,10,11,11,12,12,12,13,13,13,13,14,14,14,15,15,15,15,15
participant_8_MINIONSKILLED,0,0,3,9,14,22,27,36,40,52,57,67,70,81,88,95,105,111,119,126,127,138,141,141,153,153,153,161,164,176,183,183,186,194,205,213,213
participant_8_KILLS,0,0,0,0,0,0,0,0,0,0,1,1,1,1,1,1,1,1,1,2,2,3,3,3,3,4,4,4,4,4,5,5,5,5,5,5,5
participant_8_BUY,[],"[3850, 2003, 2003, 3340]",[],[],[],[],[],[],"[1026, 1001]",[],[],[],[],[],[],[4633],[],[],[],[],"[3020, 1052]",[],"[3191, 3108]",[],"[3364, 3157]",[],"[1052, 3916]",[],[],[],[1026],[],[],"[3165, 2055]",[],[],[]
participant_8_SOLD,[],[],[],[],"[2003, 2003]",[],[],[],[],[3850],[],[2419],[],[],[3851],[1026],[],[],[],[2423],[1001],[],[1052],[],"[3340, 3191, 3108, 2424]",[],[1052],[],[],[],[],[],[],"[1026, 3916]",[],[],[]
participant_8_UNDO,[],[],[],[],[],[],[],[],[],[],[],[],[],[],[],[],[],[],[],[],[],[],[],[],[],[],[],[],[],[],[],[],[],[],[],[],[]
participant_9_GOLD,500,500,522,776,985,1200,1395,1589,1723,1941,2704,2966,3166,3644,3968,4109,4249,4403,4747,5408,5549,6597,6738,6968,7108,7680,7895,8046,8228,8443,8934,9166,9460,9690,9831,10154,10272
participant_9_CURRENTGOLD,500,0,22,276,485,700,895,1089,73,291,1054,1316,1516,1994,2318,109,249,404,747,1408,314,1362,138,368,59,630,45,196,378,594,234,466,760,65,207,529,647
participant_9_LEVEL,1,1,1,2,3,4,4,5,5,6,6,7,7,8,8,9,9,9,9,10,10,11,11,11,11,12,12,12,12,13,13,13,14,14,14,14,14
participant_9_MINIONSKILLED,0,0,0,0,1,1,1,1,1,1,3,4,4,8,8,8,8,9,11,12,12,12,12,13,13,16,16,17,20,20,20,22,27,29,29,33,33
participant_9_KILLS,0,0,0,0,1,1,1,1,1,2,2,2,2,2,2,2,3,3,3,3,3,3,3,3,3,4,6,6,6,6,6,6,6,6,6,6,6
participant_9_BUY,[],"[1056, 2003, 2003, 3340]",[],[],[],"[1052, 1001, 2055]",[],[],[],"[3145, 1028]",[],[],[],[],[1026],[3152],[],[],"[3020, 1052]",[],[3191],[1052],[],[3108],[],[],"[3157, 1058]",[],[1052],[3916],[],[1026],[],[],[],[],[3165]
participant_9_SOLD,[],[],[],"[2003, 2003]",[],[],[],[2055],[],[1052],[],[],[],[],[],"[3145, 1028, 1026]",[],[],[1001],[],[1052],[],[],[1052],[],[],"[3191, 3108]",[],[],"[1056, 1052]",[],[],[],[],[],[],"[1026, 3916]"
participant_9_UNDO,[],[],[],[],[],[],[],[],[],[],[],[],[],[],[],[],[],[],[],[],[],[],[],[],[],[],[],[],[],[],[],[],[],[],[],[],[]
team0_KILLS,0,0,0,1,2,2,4,4,4,6,6,7,7,8,8,11,11,12,13,14,17,19,21,24,25,25,26,26,30,30,32,32,32,34,34,34,39
team0_CURRENTGOLD,2500,0,433,2247,2600,4059,5372,3588,3170,4959,2821,3517,2406,1895,2120,4695,5974,2869,4228,4061,6209,4156,1772,4283,5279,4051,1604,2946,6715,2119,2461,2267,3226,2372,3916,4351,5770
team0_TOTALGOLD,2500,2500,2933,4757,6260,7729,9917,11208,12600,14749,15901,17557,19029,20518,22153,24728,26807,28676,31286,33294,36192,38239,40233,43166,45462,46206,47411,48752,52920,55707,57276,58256,59217,61182,62725,64036,68518
team0_LEVEL,5,5,6,12,16,21,25,27,30,32,35,39,40,41,44,46,48,50,52,55,55,60,60,63,66,66,67,68,70,73,75,76,76,77,80,80,82
team0_SBIRES,0,0,13,43,68,95,117,142,172,198,211,240,262,278,301,325,351,370,399,417,428,447,460,475,490,497,503,526,555,568,568,572,582,597,620,636,656
team1_KILLS,0,0,0,0,1,1,1,1,1,2,4,5,6,7,9,9,10,10,12,14,15,18,18,20,20,23,25,26,26,27,32,32,32,33,33,33,33
team1_CURRENTGOLD,2500,500,447,1711,3311,3470,3251,4420,3392,1537,4276,4569,4833,6562,5807,1432,2943,3904,4111,7025,4417,4012,2746,2039,1988,3866,2942,4906,2301,3895,4636,2605,2749,2969,3974,5641,5029
team1_TOTALGOLD,2500,2500,2947,4221,5821,7140,8221,9390,10822,12107,14846,16589,18353,20882,23137,24012,25523,26783,29526,32440,33607,36987,38061,40219,41317,43596,46321,48285,49339,51258,54875,56593,57836,59983,60986,62653,63254
team1_LEVEL,5,5,6,12,17,21,23,27,30,32,34,38,40,43,45,46,49,49,52,55,56,59,60,61,62,65,66,68,68,71,73,74,77,77,79,79,79
team1_SBIRES,0,0,7,25,43,59,79,101,130,146,184,205,227,256,277,292,317,337,364,395,405,425,435,449,466,475,486,509,525,547,564,569,593,618,631,657,658
delta_KILLS,0,0,0,1,1,1,3,3,3,4,2,2,1,1,-1,2,1,2,1,0,2,1,3,4,5,2,1,0,4,3,0,0,0,1,1,1,6
delta_CURRENTGOLD,0,-500,-14,536,-711,589,2121,-832,-222,3422,-1455,-1052,-2427,-4667,-3687,3263,3031,-1035,117,-2964,1792,144,-974,2244,3291,185,-1338,-1960,4414,-1776,-2175,-338,477,-597,-58,-1290,741
delta_TOTALGOLD,0,0,-14,536,439,589,1696,1818,1778,2642,1055,968,676,-364,-984,716,1284,1893,1760,854,2585,1252,2172,2947,4145,2610,1090,467,3581,4449,2401,1663,1381,1199,1739,1383,5264
delta_LEVEL,0,0,0,0,-1,0,2,0,0,0,1,1,0,-2,-1,0,-1,1,0,0,-1,1,0,2,4,1,1,0,2,2,2,2,-1,0,1,1,3
delta_SBIRES,0,0,6,18,25,36,38,41,42,52,27,35,35,22,24,33,34,33,35,22,23,22,25,26,24,22,17,17,30,21,4,3,-11,-21,-11,-21,-2
