name,frame_0,frame_1,frame_2,frame_3,frame_4,frame_5,frame_6,frame_7,frame_8,frame_9,frame_10,frame_11,frame_12,frame_13,frame_14,frame_15,frame_16,frame_17,frame_18,frame_19,frame_20,frame_21,frame_22,frame_23,frame_24,frame_25,frame_26,frame_27,frame_28,frame_29,frame_30,frame_31,frame_32
nameStamp,Tstart,Tearly,Tearly,Tearly,Tearly,Tearly,Tearly,Tearly,Tearly,Tearly,Tearly,Tearly,Tearly,Tearly,Tearly,Tearly,Tmid,Tmid,Tmid,Tmid,Tmid,Tmid,Tmid,Tmid,Tmid,Tmid,Tmid,Tmid,Tmid,Tmid,Tmid,Tmid,Tend
timestamp,0,60027,120043,180051,240073,300094,360106,420120,480139,540159,600170,660190,720201,780214,840224,900238,960249,1020266,1080273,1140282,1200289,1260310,1320325,1380347,1440354,1500379,1560396,1620418,1680430,1740452,1800461,1860486,1920486
participant_0_GOLD,500,500,598,1018,1566,2249,2497,3044,3166,3571,3805,4121,5498,5781,6715,7421,8302,8884,9450,9943,10825,11189,11389,11561,11782,11905,13275,13397,14029,14545,14667,15348,16754
participant_0_CURRENTGOLD,500,0,98,518,91,774,1022,119,166,571,805,221,1598,581,1515,171,1052,1634,2200,294,1175,340,189,361,583,15,1386,408,1040,856,103,783,2129
participant_0_LEVEL,1,1,1,3,4,5,6,7,7,7,8,8,9,10,11,11,12,12,13,13,14,14,14,14,14,14,15,15,16,16,16,17,18
participant_0_MINIONSKILLED,0,0,4,19,25,38,45,53,53,67,73,82,90,100,107,112,126,136,146,150,156,158,162,162,165,165,168,168,179,183,183,186,195
participant_0_KILLS,0,0,0,0,1,1,1,1,1,1,1,1,1,1,1,2,2,2,2,2,2,2,2,4,4,5,5,6,6,7,7,7,7
participant_0_BUY,[],"[1041, 2031, 3340]",[],[],[],"[3706, 1036, 1001]",[],[],[3133],[],[],[1400],[],"[1036, 1028]",[],[],[],"[3044, 3067]",[],[],[],[],[],[],"[3071, 3077, 3052]",[],[],[],"[3748, 1033]",[],"[3111, 1036]",[],[]
participant_0_SOLD,[],[],[],[],[],[1041],[],[],[1036],[],[],"[3133, 3706]",[],[],[],[],[],"[1028, 1036]",[],[],[],[],[3400],[],"[3044, 3067]",[],[],[],"[3077, 3052]",[],"[1001, 1033]",[],[]
participant_0_UNDO,[],[],[],[],[],[],[],[],[],[],[],[],[],[],[],[],[],[],[],[],[],[],[],[],[],[],[],[],[],[],[],[],[]
participant_1_GOLD,500,500,621,953,1573,1820,2028,2340,2562,2895,3043,3165,3730,3880,4127,4940,5148,5300,5596,5808,5930,6373,7300,8121,8657,9099,9457,10009,10131,10769,11069,11701,12117
participant_1_CURRENTGOLD,500,0,121,453,1073,20,228,540,12,345,493,90,655,55,302,1115,1323,175,471,683,805,1248,2175,2996,57,499,857,1409,106,744,344,977,1392
participant_1_LEVEL,1,1,2,3,3,4,4,5,5,6,6,6,7,7,8,8,9,9,9,9,9,10,11,12,12,12,12,13,13,13,14,14,15
participant_1_MINIONSKILLED,0,0,0,0,0,0,0,0,0,0,0,0,2,4,4,4,4,5,7,8,8,8,8,10,14,14,14,14,14,14,15,15,15
participant_1_KILLS,0,0,0,0,0,0,0,0,0,2,2,2,2,2,4,4,4,4,4,4,6,7,7,7,7,7,7,7,7,7,8,8,8
participant_1_BUY,[],"[2003, 1056, 2003, 3340]",[],[],[],[],[],"[3802, 2003, 2055]",[],[],[3020],[],[],"[1026, 1052]",[],[],[],[],[],"[3285, 3191, 1052, 3108, 3363]",[],[],[],"[3157, 3157, 1026, 1052]",[],[],[3135],[1052],[],[],[],[1058],[]
participant_1_SOLD,[],[],[],[],[],[],"[2003, 2003]",[],[2003],[2055],[2419],[],[],[],[],[],[],[],[],"[3802, 1026, 1052, 1052, 3340]",[],[],[],"[2423, 3191, 3108, 2424, 3191, 3108, 2424]",[],[],"[1026, 1052]",[],[],[],[],[1056],[]
participant_1_UNDO,[],[],[],[],[],[],[],[],[],[],[],[],[],[],[],[],[],[],[],[],[],[],[],"[[0, 3157]]",[],[],[],[],[],[],[],[],[]
participant_2_GOLD,500,500,626,923,1207,1567,1774,1987,2263,3051,3293,3581,4273,4459,5428,5947,6307,6552,6934,7111,8002,8647,9072,9668,9941,10063,10685,11070,11234,11715,12507,13113,13467
participant_2_CURRENTGOLD,500,0,126,423,707,1067,1274,62,338,1126,268,556,1248,149,1118,1637,1997,2242,2624,186,1077,1722,2147,809,1081,1203,461,410,575,1056,1848,1363,1557
participant_2_LEVEL,1,1,1,3,4,5,6,6,7,7,8,8,9,9,10,10,11,11,12,12,12,13,14,14,14,14,14,15,15,15,16,16,17
participant_2_MINIONSKILLED,0,0,6,16,25,36,41,47,57,62,70,77,93,96,105,111,119,121,128,128,135,141,150,150,151,151,151,151,154,159,167,173,177
participant_2_KILLS,0,0,0,0,1,2,2,3,3,3,3,3,5,5,6,6,7,8,8,9,9,9,9,9,9,9,12,12,12,12,12,12,15
participant_2_BUY,[],"[2003, 1036, 2003, 2003]",[],[],"[3133, 2031, 2055]",[],[],"[3067, 1036, 1001]",[2055],[],[],[3044],[],"[3071, 1036]",[],[3812],[],[],[],"[3111, 1038, 1029]",[],[3026],[1036],[],[],[3134],[],[3133],[],[3142],[1037],[],[]
participant_2_SOLD,[],[],[],[],"[2003, 2003, 2003, 1036]",[],[2055],[],[],[],[],[1036],[],"[3044, 3067, 2055]",[],"[1036, 3133]",[],[],[],[1001],[],"[1038, 1029]",[],[],[],"[2031, 1036]",[],[],[],"[3133, 3134]",[],[],[]
participant_2_UNDO,[],[],[],[],[],[],[],[],[],[],[],[],[],[],[],[],[],[],[],[],[],[],[],[],[],[],[],[],[],[],[],[],[]
participant_3_GOLD,500,500,521,1305,1544,1953,2268,2565,2847,3509,3695,4090,4452,5450,5600,6669,6792,7033,7908,8096,8428,9248,9650,10529,10779,10976,11744,11917,12484,12744,12866,13419,14224
participant_3_CURRENTGOLD,500,0,21,805,1044,1453,393,690,972,1634,295,690,1052,2050,400,1469,1592,958,1833,496,828,1648,530,1410,1659,256,1025,1197,1765,1105,1227,579,1024
participant_3_LEVEL,1,1,1,2,3,4,4,5,5,6,6,7,8,8,9,9,9,10,10,10,11,12,12,12,13,13,13,13,14,14,14,15,16
participant_3_MINIONSKILLED,0,0,0,12,13,27,35,45,51,56,60,72,82,94,96,109,109,116,124,128,136,141,146,155,160,160,170,170,173,174,174,174,178
participant_3_KILLS,0,0,0,1,1,1,1,1,1,2,2,2,2,4,4,5,5,5,6,6,6,7,7,8,8,8,9,9,10,10,10,10,11
participant_3_BUY,[],"[1055, 2003, 3340]",[],[],[],[],"[1037, 1055, 2003]",[],[],[],[3004],[],[],[],"[3006, 1043]",[],[],"[1037, 3363]",[],"[3124, 1042]",[],[],"[3101, 3108]",[],[],"[3115, 2420]",[],[],[],[3191],[],[3157],[]
participant_3_SOLD,[],[],[],[],"[2003, 2010]",[],[],[],[],[],[1037],[],[],"[2010, 2003]",[2422],[],[2010],[3340],[],"[1043, 1037]",[],[],"[1042, 1055]",[],[],"[3004, 3101, 3108]",[],[],[],[1055],[],"[3191, 2420]",[]
participant_3_UNDO,[],[],[],[],[],[],[],[],[],[],[],[],[],[],[],[],[],[],[],[],[],[],[],[],[],[],[],[],[],[],[],[],[]
participant_4_GOLD,500,500,523,892,1101,1277,1499,1654,1789,2115,2291,2426,2680,3101,3957,4260,4401,4541,5741,5892,7546,8816,9160,10653,10873,11088,12100,12407,12836,13468,13668,14220,14664
participant_4_CURRENTGOLD,500,0,23,392,176,2,224,379,514,840,66,201,455,201,1057,1360,1501,266,1466,537,1841,3111,906,2398,2618,1034,2045,2352,2781,3413,374,425,789
participant_4_LEVEL,1,1,1,2,2,4,4,5,5,5,6,6,6,7,8,8,8,8,9,9,10,10,10,11,12,12,13,13,14,14,14,15,15
participant_4_MINIONSKILLED,0,0,0,3,3,5,7,8,8,9,11,11,14,15,15,19,19,19,21,21,22,23,24,28,29,29,34,39,40,40,42,44,44
participant_4_KILLS,0,0,0,0,0,0,0,0,0,0,0,0,0,0,0,0,0,0,1,1,3,5,5,7,7,7,8,8,9,10,10,10,10
participant_4_BUY,[],"[3854, 2003, 2003, 3340]",[],[],"[1001, 2055, 2003]",[1036],[],[],[],[],"[3134, 2055, 2055, 2003]",[],[],"[3117, 2055]",[],[],[],"[3364, 3179, 2055]",[],[3133],[1036],[],"[3142, 3134]",[],[],"[3147, 3147]",[],[],[],[],"[3026, 2140]",[2138],[]
participant_4_SOLD,[],[],[],[2003],[],[],[2055],[],[],[2003],"[2003, 1036]",[],"[2055, 3854]",[1001],[3400],[],[2055],"[3340, 3134]",[3400],[2003],[],[],"[3133, 1036]",[3855],[],"[3134, 3134]",[],[],[],[],"[2055, 2055, 2140]",[2138],[]
participant_4_UNDO,[],[],[],[],[],[],[],[],[],[],[],[],[],[],[],[],[],[],[],[],[],[],[],[],[],"[[0, 3147]]",[],[],[],[],[],[],[]
participant_5_GOLD,500,500,542,818,997,1238,1396,1839,2680,2951,3073,3446,3928,4331,4517,4814,5175,5478,5670,5793,6194,7442,7773,8123,8283,9286,9474,9963,10099,10653,11546,11679,11813
participant_5_CURRENTGOLD,500,0,42,318,62,3,161,89,930,101,223,596,643,1046,167,464,825,1128,470,23,424,172,503,118,278,1281,304,793,80,633,1526,259,213
participant_5_LEVEL,1,1,1,3,3,4,5,6,7,7,7,8,9,9,9,10,10,11,11,11,12,12,13,13,13,14,14,15,15,15,15,16,16
participant_5_MINIONSKILLED,0,0,1,10,13,20,22,23,27,29,29,40,42,55,58,62,73,80,84,84,97,103,112,120,120,121,121,133,134,136,145,146,147
participant_5_KILLS,0,0,0,0,0,0,0,1,3,3,3,3,4,4,4,4,4,4,4,4,4,5,5,5,5,6,6,6,6,7,8,8,8
participant_5_BUY,[],"[1054, 2003, 3340]",[],[],[1052],[1029],[],"[3191, 2031]",[],[3047],[],[],[1052],[],[3136],[],[],[],[1026],[3151],[],"[3108, 2420]",[],"[3157, 1052]",[],[],[3916],[],[1026],[],[],"[3165, 1026]",[]
participant_5_SOLD,[],[],[],[2003],[],[],[],"[1029, 1052]",[],[],[],[],[],[],[1052],[],[],[],[],"[1054, 3136, 1026]",[],[],[],"[2420, 3191, 3108, 2421]",[],[],[1052],[],[],[],[],"[3916, 1026]",[]
participant_5_UNDO,[],[],[],[],[],[],[],[],[],[],[],[],[],[],[],[],[],[],[],[],[],[],[],[],[],[],[],[],[],[],[],[],[]
participant_6_GOLD,500,500,631,863,1511,1830,1963,2190,2595,2803,3110,3828,4213,4435,4658,4880,5215,5423,5754,5938,6142,6295,6427,6677,6837,8219,8407,9239,9404,9674,9796,10043,10178
participant_6_CURRENTGOLD,500,0,131,363,1011,1330,113,340,745,103,410,1128,1513,1735,1958,355,690,898,1229,38,242,395,127,377,537,1919,132,964,1129,259,381,629,643
participant_6_LEVEL,1,1,2,2,4,4,4,5,5,6,6,7,8,8,8,8,9,9,9,10,10,10,10,10,11,11,12,12,12,13,13,13,13
participant_6_MINIONSKILLED,0,0,0,0,0,0,0,0,0,0,0,0,5,5,5,5,7,10,11,11,11,11,12,14,14,14,14,15,17,18,18,24,25
participant_6_KILLS,0,0,0,0,0,0,0,0,0,0,0,0,0,0,0,0,0,0,0,0,0,0,0,1,1,2,2,2,2,2,2,2,2
participant_6_BUY,[],"[3850, 2003, 2003, 3340]",[],[],[],[],[],[],[],[3117],[],[],[],"[3364, 3108]",[],"[1052, 2055]",[],[],[3191],[2055],[],[],[3157],"[3801, 1004, 1004]",[],[],"[3107, 3113, 1004, 2055]",[2055],[],[],[],[2055],[3504]
participant_6_SOLD,[],[],[2003],[2003],[],[],[],[],[],[],[2419],[],[],"[2423, 3850, 3340]",[],[],[],[],[1052],[],"[2055, 2055]",[],"[3191, 3108, 2424]",[3851],[],[],"[1004, 1004, 3801]",[],[2055],[],[],[],"[3113, 2055]"
participant_6_UNDO,[],[],[],[],[],[],[],[],[],[],[],[],[],[],[],[],[],[],[],[],[],[],[],[],[],[],"[[0, 1004]]",[],[],[],[],[],[]
participant_7_GOLD,500,500,626,923,1316,1655,2028,2234,2628,3206,3328,4149,4334,5081,5417,5708,6009,6131,6721,7094,7344,7481,7603,8146,8702,9177,9299,9638,9961,10246,10396,11151,11556
participant_7_CURRENTGOLD,500,0,126,423,816,1155,1528,204,598,1176,123,944,79,826,1162,553,854,126,716,274,524,661,58,251,807,1282,104,444,216,501,651,1407,1731
participant_7_LEVEL,1,1,1,3,4,5,6,6,7,8,8,8,8,9,10,10,10,10,11,11,12,12,12,12,12,13,13,13,13,14,14,15,15
participant_7_MINIONSKILLED,0,0,6,16,29,39,53,58,71,77,77,86,89,101,110,116,122,122,131,142,149,150,150,150,156,160,160,173,179,186,188,208,212
participant_7_KILLS,0,0,0,0,0,0,0,0,0,0,0,0,0,1,1,1,2,2,2,2,3,3,3,3,3,4,5,6,6,7,7,7,7
participant_7_BUY,[],"[1055, 2003]",[],[],[],"[1055, 2003, 2003]",[],[],[],[],[],[],[],"[3004, 1036, 1036]",[],"[3134, 2055]",[],[],[],"[3133, 3363]","[3147, 2055]",[],[3009],[1036],[],[],[3134],[],[3142],[],[1038],[],[1037]
participant_7_SOLD,[],[],[2003],[],[2010],[],[],[],[],"[2010, 2010]","[2003, 2003]",[],[],[],[],"[1036, 1036]",[2055],[],[],[3340],"[3134, 3133]",[],"[2055, 2422]",[],[],[],[1036],[3004],[3134],[],[1055],[],[1055]
participant_7_UNDO,[],[],[],[],[],[],[],[],[],[],[],[],[],[],[],[],[],[],[],[],[],[],[],[],[],[],[],[],[],[],[],[],[]
participant_8_GOLD,500,500,521,842,1126,1419,1779,2132,2515,2854,3088,3425,3791,4255,4588,4731,5472,5695,5974,6281,6744,7034,7270,7543,7886,8615,9011,9858,10087,11097,11613,12243,12481
participant_8_CURRENTGOLD,500,0,21,342,626,369,729,1082,1465,1804,2038,2375,2741,105,438,106,847,1070,1349,556,244,534,200,123,466,1195,842,1688,117,1127,524,1153,306
participant_8_LEVEL,1,1,1,2,3,3,4,5,5,6,6,7,7,8,8,8,9,9,10,10,11,11,11,12,12,13,13,13,14,15,15,16,16
participant_8_MINIONSKILLED,0,0,0,11,18,25,36,50,62,65,71,80,90,92,101,102,111,117,121,127,131,132,134,134,140,143,143,145,146,151,159,170,176
participant_8_KILLS,0,0,0,0,0,0,0,0,0,1,1,2,2,3,3,3,3,3,4,4,4,4,4,5,6,6,6,6,6,6,6,6,6
participant_8_BUY,[],"[1055, 2003, 3340]",[],[],[],[],[],"[3006, 1042, 2031]",[],[],"[3086, 2055]",[],"[2015, 1036]",[],[],"[3087, 1028]",[],"[3052, 1028]",[],[1037],[],[],[3053],[1036],[],[],[1038],[],[1053],[],[],[],[]
participant_8_SOLD,[],[],[],[],[],[],[],[2003],[],[],"[1042, 2055]",[],[],[],[],"[3086, 2015]",[],"[1036, 1028]",[],[2031],[],[],"[3052, 1037, 1028]",[],[],[],[],[],[1036],[],[],[],[]
participant_8_UNDO,[],[],[],[],[],[],[],[],[],[],[],[],[],[],[],[],[],[],[],[],[],[],[],[],[],[],[],[],[],[],[],[],[]
participant_9_GOLD,500,515,598,732,927,1096,1261,1440,1589,1754,1903,2088,2326,2543,2758,2929,3174,3359,3545,3742,3942,4128,4308,5497,5703,7104,7290,7542,7844,8168,8425,8763,8912
participant_9_CURRENTGOLD,500,15,98,232,427,596,761,940,1089,354,503,688,926,243,458,119,364,549,70,192,392,578,108,397,603,2004,65,242,544,868,1125,1388,87
participant_9_LEVEL,1,1,1,1,2,3,4,5,5,6,6,6,7,7,7,7,8,8,8,8,8,8,9,10,10,11,11,12,12,13,13,14,14
participant_9_MINIONSKILLED,0,0,0,0,0,0,0,0,0,0,0,1,2,6,7,7,8,9,9,12,13,13,13,15,17,17,17,19,21,26,33,39,40
participant_9_KILLS,0,0,0,0,1,1,1,1,1,1,1,2,2,2,2,2,2,2,2,2,2,2,2,2,2,3,3,4,4,4,4,4,4
participant_9_BUY,[],"[1041, 2031, 3340]",[],[],[],[],"[3715, 1036, 1036]",[],[],"[3133, 1001, 2055, 2055]",[],[],[],[],[],"[1412, 3047, 1036, 2055, 2055]",[],[],[],"[3134, 3155, 3134, 1036, 3044, 1028, 2055]",[],[],[3067],[],[],[],"[3071, 1037, 2055, 2055]",[],[],[3052],[],[],[]
participant_9_SOLD,[],[],[],[],[],[],[1041],[],[],"[1036, 1036]",[2055],[],[],"[2055, 3340]",[],"[3133, 3715, 1001, 3513]",[2055],[],[2055],"[1036, 1036, 1036, 1036]",[],[2055],[1028],[],[],[],"[3044, 3067]",[2031],[],[2031],[],[2055],[]
participant_9_UNDO,[],[],[],[],[],[],[],[],[],[],[],[],[],[],[],[],[],[],[],"[[0, 3134], [0, 3155], [0, 1036], [0, 3134]]",[],[],[],[],[],[],[],"[[2031, 0]]",[],[],[],[],[]
team0_KILLS,0,0,0,1,3,4,4,5,5,8,8,8,10,12,15,17,18,19,21,22,26,30,30,35,35,36,41,42,44,46,47,47,51
team0_CURRENTGOLD,2500,0,389,2591,3091,3316,3141,1790,2002,4516,1927,1758,5008,3036,4392,5752,7465,5275,8594,2196,5726,8069,5947,7974,5998,3007,5774,5776,6267,7174,3896,4127,6891
team0_TOTALGOLD,2500,2500,2889,5091,6991,8866,10066,11590,12627,15141,16127,17383,20633,22671,25827,29237,30950,32310,35629,36850,40731,44273,46571,50532,52032,53131,57261,58800,60714,63241,64777,67801,71226
team0_LEVEL,5,5,6,13,16,22,24,28,29,31,34,35,39,41,46,46,49,50,53,53,56,59,61,63,65,65,67,69,72,72,74,77,81
team0_SBIRES,0,0,10,50,66,106,128,153,169,194,214,242,281,309,327,355,377,397,426,435,457,471,490,505,519,519,537,542,560,570,581,592,609
team1_KILLS,0,0,0,0,1,1,1,2,4,5,5,7,8,10,10,10,11,11,12,12,13,14,14,16,17,21,22,24,24,26,27,27,27
team1_CURRENTGOLD,2500,15,418,1678,2942,3453,3292,2655,4827,3538,3297,5731,5902,3955,4183,1597,3580,3771,3834,1083,1826,2340,996,1266,2691,7681,1447,4131,2086,3388,4207,4836,2980
team1_TOTALGOLD,2500,2515,2918,4178,5877,7238,8427,9835,12007,13568,14502,16936,18592,20645,21938,23062,25045,26086,27664,28848,30366,32380,33381,35986,37411,42401,43481,46240,47395,49838,51776,53879,54940
team1_LEVEL,5,5,6,11,16,19,23,27,29,33,33,36,39,41,42,43,46,47,49,50,53,53,55,57,58,62,63,65,66,70,70,74,74
team1_SBIRES,0,0,7,37,60,84,111,131,160,171,177,207,228,259,281,292,321,338,356,376,401,409,421,433,447,455,455,485,497,517,543,587,600
delta_KILLS,0,0,0,1,2,3,3,3,1,3,3,1,2,2,5,7,7,8,9,10,13,16,16,19,18,15,19,18,20,20,20,20,24
delta_CURRENTGOLD,0,-15,-29,913,149,-137,-151,-865,-2825,978,-1370,-3973,-894,-919,209,4155,3885,1504,4760,1113,3900,5729,4951,6708,3307,-4674,4327,1645,4181,3786,-311,-709,3911
delta_TOTALGOLD,0,-15,-29,913,1114,1628,1639,1755,620,1573,1625,447,2041,2026,3889,6175,5905,6224,7965,8002,10365,11893,13190,14546,14621,10730,13780,12560,13319,13403,13001,13922,16286
delta_LEVEL,0,0,0,2,0,3,1,1,0,-2,1,-1,0,0,4,3,3,3,4,3,3,6,6,6,7,3,4,4,6,2,4,3,7
delta_SBIRES,0,0,3,13,6,22,17,22,9,23,37,35,53,50,46,63,56,59,70,59,56,62,69,72,72,64,82,57,63,53,38,5,9
