name,frame_0,frame_1,frame_2,frame_3,frame_4,frame_5,frame_6,frame_7,frame_8,frame_9,frame_10,frame_11,frame_12,frame_13,frame_14,frame_15,frame_16,frame_17,frame_18,frame_19,frame_20,frame_21,frame_22,frame_23,frame_24,frame_25,frame_26,frame_27,frame_28
nameStamp,Tstart,Tearly,Tearly,Tearly,Tearly,Tearly,Tearly,Tearly,Tearly,Tearly,Tearly,Tearly,Tearly,Tmid,Tmid,Tmid,Tmid,Tmid,Tmid,Tmid,Tmid,Tmid,Tmid,Tmid,Tmid,Tmid,Tmid,Tmid,Tmid
timestamp,0,60008,120017,180026,240047,300065,360073,420089,480103,540119,600145,660162,720176,780186,840196,900216,960228,1020244,1080275,1140299,1200319,1260339,1320359,1380381,1440398,1500415,1560440,1620458,1680458
participant_0_GOLD,500,500,597,810,1120,1263,1540,1812,1955,2134,2356,2507,3768,4414,5197,5600,6298,6879,7449,7613,7946,8423,8722,9700,9948,10218,10805,10928,11345
participant_0_CURRENTGOLD,500,0,97,235,545,38,315,587,105,284,156,307,1268,1914,2697,400,348,929,1499,438,771,1248,1547,300,548,818,1406,388,745
participant_0_LEVEL,1,1,1,3,4,4,5,6,6,7,7,7,8,9,10,11,11,12,12,12,12,13,13,14,14,15,15,15,15
participant_0_MINIONSKILLED,0,0,4,9,17,18,27,33,34,37,40,42,48,50,63,75,87,91,102,105,110,123,130,139,139,139,144,144,145
participant_0_KILLS,0,0,0,0,0,0,0,0,0,0,0,0,1,2,2,2,2,2,2,2,2,2,2,4,4,4,4,4,5
participant_0_BUY,[],"[1054, 2003, 3340]",[],[2055],[],"[1001, 1036]",[],[],"[1028, 2031, 2055]",[],[3044],[],[1029],[],[],"[3047, 6630]","[1036, 1028]",[],[],"[3044, 1037, 1037]",[],[],[],"[3053, 1031, 3133]",[3363],[],[],[3077],[]
participant_0_SOLD,[],[],[],[2055],[2003],[],[],[],[],[],"[2055, 1028, 1036]",[],[],[],[],"[1001, 1029, 3044]",[],[],[],"[1028, 1036]",[],[],[],"[1037, 3044]",[3340],[],[],[2031],[]
participant_0_UNDO,[],[],[],[],[],[],[],[],[],[],[],[],[],[],[],[],[],[],[],"[[0, 1037]]",[],[],[],"[[0, 1031]]",[],[],[],[],[]
participant_1_GOLD,500,500,620,1032,1553,1752,1875,2217,2439,2603,2943,3096,3543,3960,4359,4652,4909,5377,5803,6060,6367,6659,6832,7189,7506,7788,8093,8235,8510
participant_1_CURRENTGOLD,500,0,120,532,1053,1252,375,717,939,1103,1443,396,843,20,419,712,669,1137,263,520,127,419,591,449,766,1048,1353,195,200
participant_1_LEVEL,1,1,2,3,4,4,4,5,5,6,6,6,7,7,8,9,9,10,10,10,11,11,11,12,12,12,13,13,14
participant_1_MINIONSKILLED,0,0,0,0,0,0,0,0,0,0,0,0,0,0,3,3,3,5,5,5,5,5,5,5,12,16,16,16,17
participant_1_KILLS,0,0,0,0,1,1,1,1,1,1,1,1,1,2,2,2,2,2,2,2,2,2,2,2,2,2,2,2,2
participant_1_BUY,[],"[1039, 2031, 3340]",[],[],[],[],[6660],[],[],[],[],"[1001, 1057]",[],"[1029, 6664]",[],[],[1029],[],"[3047, 3066]",[],"[1029, 1029, 1028, 1029]",[],[],[1031],[],[],[],"[3742, 1028]",[]
participant_1_SOLD,[],[],[],[],[],[],[],[],[],[],[],[],[],"[2031, 1029, 6660, 1029, 1057]",[1039],[],[],[],"[1001, 1029]",[],[],[],[],[1029],[],[],[],"[3066, 1028, 1031]",[]
participant_1_UNDO,[],[],[],[],[],[],[],[],[],[],[],[],[],"[[1029, 0]]",[],[],[],[],[],[],"[[0, 1029], [0, 1029]]",[],[],[],[],[],[],[],[]
participant_2_GOLD,500,500,541,733,927,1537,1681,1950,2184,2328,2913,3294,3549,3868,4041,4247,4849,5940,6163,6508,6846,7546,7718,8710,8832,9049,9950,10199,10350
participant_2_CURRENTGOLD,500,500,41,233,427,1027,121,390,624,368,953,284,539,858,1031,337,939,30,653,998,36,736,908,1900,422,640,1540,689,850
participant_2_LEVEL,1,1,1,2,3,5,5,6,6,6,7,7,8,8,8,8,10,10,10,11,11,12,12,12,12,13,14,14,15
participant_2_MINIONSKILLED,0,0,1,5,9,16,17,26,33,34,45,47,55,57,57,62,75,77,77,86,86,97,97,100,100,100,103,104,104
participant_2_KILLS,0,0,0,1,2,2,3,3,3,3,3,5,7,7,11,11,13,13,13,13,15,16,18,19,19,22,25,25,27
participant_2_BUY,[],"[1083, 3340, 2003]",[],[],[],[],[],"[6670, 1018, 1036, 1042]",[],"[3006, 1036]",[],[],[6672],"[3134, 1018]",[],"[6676, 1018, 1042]","[3086, 2015]",[],"[3094, 1036]",[],[],"[1053, 1038]",[],[],"[3072, 1018, 1018]",[],[],"[3036, 2140, 3363]",[]
participant_2_SOLD,[],[],[],"[2010, 2003]",[],[2010],[],[],[2010],"[1042, 2422]",[],[],"[6670, 1018]","[1036, 1036]",[],"[3134, 1018]","[1018, 1042]",[],"[3086, 2015, 1083]",[],[],"[1036, 1083]",[],[],"[1038, 1053]",[],[],"[1018, 2140, 3340]",[]
participant_2_UNDO,[],[],[],[],[],[],[],[],[],[],[],[],[],[],[],[],[],[],"[[1083, 0]]",[],[],[],[],[],"[[0, 1018]]",[],[],[],[]
participant_3_GOLD,500,500,564,1095,1900,2292,2860,3133,3589,4052,4196,5197,6353,6565,8692,8882,9661,9941,11074,11415,12591,12904,14026,14863,15020,16490,17770,18389,19166
participant_3_CURRENTGOLD,500,0,64,595,1400,1792,2360,83,539,152,296,1297,953,165,2292,282,61,342,324,665,1842,485,1607,2444,801,2270,3551,1370,1786
participant_3_LEVEL,1,1,1,2,3,4,5,5,6,6,6,7,8,8,9,9,10,10,10,11,11,11,12,13,13,14,15,15,16
participant_3_MINIONSKILLED,0,0,2,8,19,31,39,39,55,61,62,73,86,91,104,108,110,115,126,133,138,138,156,166,168,180,189,193,193
participant_3_KILLS,0,0,0,0,0,1,1,1,1,1,2,2,2,2,2,2,2,5,5,5,5,6,6,7,7,7,8,8,8
participant_3_BUY,[],[],"[1055, 3340, 2003]",[],[],[],"[1036, 1036, 1036]",[],[],[3134],[],"[3133, 1001]",[],[],[],[1053],[],"[6692, 3047]","[6693, 1018]",[],[1038],[],[],[],"[3095, 3047]",[],[],[3134],[]
participant_3_SOLD,[],[],[],[],[2003],[],[],[],[],"[1036, 1036]",[],[1036],[],[],[],[],[],"[3134, 1053, 1001]","[3134, 3133]",[],[],[],[],[],"[1038, 1018, 1001]",[],[],[],[]
participant_3_UNDO,[],[],[],[],[],[],[],[],[],[],[],[],[],[],[],[],[],[],"[[0, 3047], [0, 6692]]",[],[],[],[],[],[],[],[],[],[]
participant_4_GOLD,500,500,522,816,1491,1710,2329,2764,3009,3544,3735,3973,4492,4933,5772,6512,6942,7693,8030,8192,8833,9043,9496,9768,9997,10213,10807,10947,11260
participant_4_CURRENTGOLD,500,0,22,316,991,1210,1829,289,534,289,180,418,937,103,942,1682,462,1213,251,412,1053,414,866,1138,1367,258,852,993,1285
participant_4_LEVEL,1,1,1,2,3,4,5,5,5,6,6,7,7,8,9,9,10,10,10,11,11,11,12,12,13,13,14,14,14
participant_4_MINIONSKILLED,0,0,0,2,5,7,8,8,11,12,15,16,18,18,20,20,24,25,26,27,27,27,28,28,33,33,36,36,36
participant_4_KILLS,0,0,0,0,1,1,2,3,3,4,4,4,4,5,5,6,6,7,7,7,8,8,8,8,8,8,9,9,9
participant_4_BUY,[],"[3858, 2003, 2003, 3340]",[],[],[],[],[],"[3105, 1028, 2055]",[],[3190],[1029],[],[],"[3009, 3024, 3364, 2055]",[],[],"[3050, 1006]",[],"[3801, 3067]",[],[],[3109],[],[],[],"[4641, 2055, 2055, 2055]",[],[],[]
participant_4_SOLD,[],[],[],"[2010, 2003]",[],[2010],[],[],[],"[2010, 1028, 3105, 2003]",[],"[2055, 3858]",[],"[2422, 1029, 3340]",[],[],[3024],[2055],[1006],[],[],"[3801, 3067, 3859]",[],[],[],"[2055, 2055, 2055, 4641, 4641]",[],[4641],[]
participant_4_UNDO,[],[],[],[],[],[],[],[],[],[],[],[],[],[],[],[],[],[],[],[],[],[],[],[],[],[],[],[],[]
participant_5_GOLD,500,500,562,1224,1478,2022,2300,2796,3427,3816,4363,5022,6019,6526,6676,7081,7566,7688,9048,9916,11023,12576,12873,13421,14764,15441,15695,15909,16375
participant_5_CURRENTGOLD,500,0,62,724,978,1522,115,611,1242,281,828,1487,919,1426,276,681,376,498,108,976,2084,3636,713,527,1869,1122,176,389,475
participant_5_LEVEL,1,1,1,3,4,5,6,7,8,8,9,10,10,11,11,11,12,12,12,13,14,14,14,15,16,16,16,16,16
participant_5_MINIONSKILLED,0,0,2,10,15,23,31,40,51,56,69,81,87,92,94,98,102,102,112,129,144,144,147,154,171,174,178,184,185
participant_5_KILLS,0,0,0,1,1,2,2,3,3,4,5,6,6,7,7,7,7,7,9,9,10,12,12,13,14,15,15,15,16
participant_5_BUY,[],"[1055, 2003, 3340]",[],[],[],[],"[3006, 1052, 2031]",[],[],"[1043, 1082]",[],[],[3115],[],[4635],[],[1026],[],"[4633, 3057]",[],[],[],"[3100, 3133]",[1037],[],[6675],[3086],[],[]
participant_5_SOLD,[],[],[],[2003],[],[],[],[],[],[],[],[],"[1043, 1052]",[],[],[3340],"[3513, 2031]",[],"[4635, 1026]",[],[],[],"[3057, 1055]",[1082],[],"[3133, 1037]",[],[],[]
participant_5_UNDO,[],[],[],[],[],[],[],[],[],[],[],[],[],[],[],[],[],[],[],[],[],[],[],[],[],[],[],[],[]
participant_6_GOLD,500,500,620,1021,1144,1471,1764,2021,2342,2549,2679,3092,3454,3577,3884,4780,5243,5732,5947,6589,6762,7313,7718,7966,8237,8422,8886,9093,9265
participant_6_CURRENTGOLD,500,0,120,521,244,571,864,1121,92,299,429,842,1204,137,444,1340,1803,2292,507,299,471,1023,1428,226,497,682,546,353,30
participant_6_LEVEL,1,1,2,2,2,3,4,4,5,5,5,6,7,7,7,9,9,10,10,11,11,11,12,12,12,12,13,13,13
participant_6_MINIONSKILLED,0,0,0,1,1,1,1,1,1,1,1,1,1,1,1,4,4,13,15,15,15,16,18,21,22,25,26,26,26
participant_6_KILLS,0,0,0,0,0,0,0,0,0,0,0,0,0,0,0,2,2,2,2,3,3,4,4,4,4,4,5,5,5
participant_6_BUY,[],"[1035, 2031, 3340]",[],[],"[1052, 1028]",[],[],[],"[6660, 1029, 1033]",[],[],[],[],"[1057, 3047]",[],[],[],[],"[6664, 3057]",[1026],[],[],[],[3100],[],[],"[1042, 1042]",[1043],[1052]
participant_6_SOLD,[],[],[],[],[],[],[],[],"[1035, 1028]",[],[],[],[],"[1033, 2031, 1029]",[],[],[],[],"[6660, 1057]",[],[],[],[],"[3057, 1026]",[],[],[],"[1042, 1042]",[]
participant_6_UNDO,[],[],[],[],"[[0, 1052]]",[],[],[],[],[],[],[],[],[],[],[],[],[],[],[],[],[],[],[],[],[],[],[],[]
participant_7_GOLD,500,500,569,1288,1545,1751,2470,2662,3070,3655,4181,4874,5095,5545,5815,6746,7139,7289,7631,8281,8453,8787,9356,9478,9805,9928,10269,10391,10563
participant_7_CURRENTGOLD,500,0,69,778,1035,141,850,192,590,1165,1691,2374,70,520,790,1721,464,614,956,81,178,513,1081,1203,341,463,370,492,653
participant_7_LEVEL,1,1,1,3,4,5,6,6,7,8,9,9,9,10,10,11,11,11,12,12,12,13,13,13,13,14,14,14,14
participant_7_MINIONSKILLED,0,0,3,16,23,28,41,45,59,64,69,80,83,93,102,103,112,114,114,128,128,130,138,138,146,146,149,149,149
participant_7_KILLS,0,0,0,1,1,1,2,2,2,3,4,4,4,4,4,5,5,5,5,5,5,5,6,6,6,6,6,6,6
participant_7_BUY,[],"[1056, 2003, 2003]",[],[],[],"[3145, 2003]",[],[1026],[],[],[],[],"[3152, 3057, 1001, 2031, 3363, 2055]",[],[],[],"[3020, 1026]",[],[],"[3100, 2055]",[2055],[],[],[],[1058],[],[1052],[],[]
participant_7_SOLD,[],[],[],[2003],[2003],[],[],[],[],[2003],[],[],"[3145, 1026, 3340]",[2055],[],[],[1001],[],[],"[3057, 1026]",[2055],[],[],[],[2031],[2055],[],[],[]
participant_7_UNDO,[],[],[],[],[],[],[],[],[],[],[],[],[],[],[],[],[],[],[],[],[],[],[],[],[],[],[],[],[]
participant_8_GOLD,500,500,543,698,862,1017,1793,1969,2124,2259,2963,3098,3452,3756,3891,4187,4371,4506,4893,5147,5530,5766,5907,6197,6500,6641,6781,7075,7162
participant_8_CURRENTGOLD,500,0,43,198,362,167,943,369,524,309,1013,98,452,756,291,587,771,906,1293,546,930,66,207,497,800,941,206,425,512
participant_8_LEVEL,1,1,1,2,2,3,3,4,4,4,5,6,6,6,6,7,7,7,8,8,8,9,9,10,10,10,10,11,11
participant_8_MINIONSKILLED,0,0,1,2,4,5,6,8,9,9,15,15,15,15,15,18,18,18,23,23,26,27,27,27,31,31,31,36,36
participant_8_KILLS,0,0,0,0,0,0,0,0,0,1,1,1,2,3,3,3,4,4,4,4,4,4,4,5,5,5,5,5,5
participant_8_BUY,[],"[1055, 2003, 3340]",[],[],[1001],[],[],[1036],[],"[3134, 1036]",[],[1053],[2031],[],"[6692, 3009, 1036]","[1036, 1036]",[],"[3134, 1037]",[],[],[],"[6676, 1036, 1028]",[],[],[],[],[3134],[],[]
participant_8_SOLD,[],[],[],[2003],[],[],[],[],[],[1036],[],[1036],[],[],"[3134, 1053, 1001]",[],[],"[1036, 1036]",[],[],[],"[3134, 1037, 2031]",[],[],[],[],[1036],[],[]
participant_8_UNDO,[],[],[],[],[],[],[],[],[],[],[],[],[],[],[],"[[0, 1036]]",[],[],[],[],[],[],[],[],[],[],[],[],[]
participant_9_GOLD,500,500,590,775,927,1112,1277,1532,1849,2272,2806,2992,3970,5178,5301,5762,6647,6769,7562,7936,8393,8667,8832,9474,9781,10140,10262,10734,11005
participant_9_CURRENTGOLD,500,0,90,275,127,312,477,382,699,22,556,192,1020,2228,201,312,1197,44,837,1211,1668,228,392,1034,1341,1700,1073,1544,1755
participant_9_LEVEL,1,1,1,2,2,3,3,4,5,5,6,6,7,8,8,9,10,10,10,11,11,12,12,12,13,13,13,13,14
participant_9_MINIONSKILLED,0,0,4,7,9,13,15,22,30,30,40,43,46,58,58,65,76,76,91,91,99,103,106,113,118,128,128,144,151
participant_9_KILLS,0,0,0,0,0,0,1,1,1,1,2,2,2,2,2,2,2,2,2,2,2,2,2,2,2,2,2,2,2
participant_9_BUY,[],"[3854, 2003, 2003]",[],[],[],[1036],[],[3134],[],[1036],[],"[3133, 1001]",[],[],[3009],[],[],[],[],[6691],[],[3133],[],[],[],[],[1037],[2055],[3364]
participant_9_SOLD,[],[2003],[],[2003],[],[],[],[1036],[],[],[],[1036],[],[],[1001],[],[],[],[],"[3134, 3133]",[3854],[],[],[],[],[],[],[3855],[3340]
participant_9_UNDO,[],[],[],[],[],[],[],[],[],[],[],[],[],[],[],[],[],[],[],[],[],[],[],[],[],[],[],[],[]
team0_KILLS,0,0,0,1,4,5,7,8,8,9,10,12,15,18,22,23,25,29,29,29,32,34,36,40,40,43,48,48,51
team0_CURRENTGOLD,2500,500,344,1911,4416,5319,5000,2066,2741,2196,3028,2702,4540,3060,7381,3413,2479,3651,2990,3033,3829,3302,5519,6231,3904,5034,8702,3635,4866
team0_TOTALGOLD,2500,2500,2844,4486,6991,8554,10285,11876,13176,14661,16143,18067,21705,23740,28061,29893,32659,35830,38519,39788,42583,44575,46794,50230,51303,53758,57425,58698,60631
team0_LEVEL,5,5,6,12,17,21,24,27,28,31,32,34,38,40,44,46,50,52,52,55,56,58,60,63,64,67,71,71,74
team0_SBIRES,0,0,7,24,50,72,91,106,133,144,162,178,207,216,247,268,299,313,336,356,366,390,416,438,452,468,488,493,495
team1_KILLS,0,0,0,2,2,3,5,6,6,9,12,13,14,16,16,19,20,20,22,23,24,27,28,30,31,32,33,33,34
team1_CURRENTGOLD,2500,0,384,2496,2746,2713,3249,2675,3147,2076,4517,4993,3665,5067,2002,4641,4611,4354,3701,3113,5331,5466,3821,3487,4848,4908,2371,3203,3425
team1_TOTALGOLD,2500,2500,2884,5006,5956,7373,9604,10980,12812,14551,16992,19078,21990,24582,25567,28556,30966,31984,35081,37869,40161,43109,44686,46536,49087,50572,51893,53202,54370
team1_LEVEL,5,5,6,12,14,19,22,25,29,30,34,37,39,42,42,47,49,50,52,55,56,59,60,62,64,65,66,67,68
team1_SBIRES,0,0,10,36,52,70,94,116,150,160,194,220,232,259,270,288,312,323,355,386,412,420,436,453,488,504,512,539,547
delta_KILLS,0,0,0,-1,2,2,2,2,2,0,-2,-1,1,2,6,4,5,9,7,6,8,7,8,10,9,11,15,15,17
delta_CURRENTGOLD,0,500,-40,-585,1670,2606,1751,-609,-406,120,-1489,-2291,875,-2007,5379,-1228,-2132,-703,-711,-80,-1502,-2164,1698,2744,-944,126,6331,432,1441
delta_TOTALGOLD,0,0,-40,-520,1035,1181,681,896,364,110,-849,-1011,-285,-842,2494,1337,1693,3846,3438,1919,2422,1466,2108,3694,2216,3186,5532,5496,6261
delta_LEVEL,0,0,0,0,3,2,2,2,-1,1,-2,-3,-1,-2,2,-1,1,2,0,0,0,-1,0,1,0,2,5,4,6
delta_SBIRES,0,0,-3,-12,-2,2,-3,-10,-17,-16,-32,-42,-25,-43,-23,-20,-13,-10,-19,-30,-46,-30,-20,-15,-36,-36,-24,-46,-52
