name,team0,team1
win,Fail,Win
firstBlood,True,False
firstTower,False,True
firstInhibitor,False,False
firstBaron,False,False
firstDragon,False,True
firstRiftHerald,False,True
towerKills,3,5
inhibitorKills,0,0
baronKills,0,0
dragonKills,0,3
riftHeraldKills,0,2
