name,frame_0,frame_1,frame_2,frame_3,frame_4,frame_5,frame_6,frame_7,frame_8,frame_9,frame_10,frame_11,frame_12,frame_13,frame_14,frame_15,frame_16,frame_17,frame_18,frame_19,frame_20,frame_21,frame_22,frame_23,frame_24,frame_25,frame_26,frame_27,frame_28,frame_29,frame_30,frame_31,frame_32,frame_33,frame_34,frame_35,frame_36,frame_37,frame_38,frame_39,frame_40,frame_41,frame_42,frame_43
nameStamp,Tstart,Tearly,Tearly,Tearly,Tearly,Tearly,Tearly,Tearly,Tearly,Tearly,Tearly,Tearly,Tearly,Tearly,Tearly,Tearly,Tearly,Tmid,Tmid,Tmid,Tmid,Tmid,Tmid,Tmid,Tmid,Tmid,Tmid,Tmid,Tmid,Tmid,Tmid,Tmid,Tmid,Tmid,Tmid,Tmid,Tmid,Tmid,Tmid,Tend,Tend,Tend,Tend,Tend
timestamp,0,60008,120013,180043,240056,300096,360128,420157,480186,540195,600225,660239,720246,780264,840290,900322,960324,1020329,1080339,1140361,1200382,1260383,1320415,1380445,1440454,1500465,1560468,1620480,1680513,1740518,1800549,1860550,1920573,1980575,2040607,2100622,2160641,2220662,2280691,2340709,2400731,2460764,2520765,2580765
participant_0_GOLD,500,500,541,804,1092,1312,1617,1872,2572,2744,3245,3487,3686,4123,4390,4617,5378,5995,6693,7283,7481,8164,8727,9414,9621,9897,10085,10541,11232,11720,11868,12356,12785,13274,13480,14007,14224,14694,15292,15525,15647,16158,16281,16930
participant_0_CURRENTGOLD,500,0,41,304,142,362,667,922,1622,219,720,212,411,848,1115,92,353,670,243,833,481,1164,1727,714,922,1197,135,592,882,1370,369,356,786,1275,761,1288,1505,1975,573,806,929,1440,1562,2000
participant_0_LEVEL,1,1,1,2,4,4,5,6,7,8,8,9,9,10,10,11,12,12,13,13,13,14,15,15,15,15,15,16,16,17,17,17,18,18,18,18,18,18,18,18,18,18,18,18
participant_0_MINIONSKILLED,0,0,1,8,15,18,28,36,48,51,55,62,66,72,77,83,96,96,103,113,113,125,133,140,140,145,145,146,162,169,169,177,187,187,192,197,197,209,215,217,217,217,217,217
participant_0_KILLS,0,0,0,0,0,0,0,0,0,0,1,1,1,1,1,1,1,1,1,2,2,3,3,3,4,4,5,5,6,6,6,6,6,9,9,9,9,9,10,11,11,15,15,15
participant_0_BUY,[],"[1055, 2003, 3340]",[],[],[],"[3070, 1036]",[],[],"[3134, 1036]",[],[],"[1053, 3158]",[1036],[],[],"[6692, 2055, 3363]",[],[3057],[],[],[3133],[],[],"[3004, 3133]",[],[],"[3508, 1082]",[],[],"[3108, 3067]",[],[],[4629],[],[],[1058],[],[],[],[3089],[],[],[2139],[2139]
participant_0_SOLD,[],[],[],[],[],[],[],[],[1036],[],[2003],[1036],[],[],[],"[3134, 1036, 1053, 3340]",[2055],[],[],[],[],[],[],"[3070, 3133, 3004]",[],[],"[3133, 3057]",[],[],"[3508, 1082, 1055]",[],[],"[3108, 3067]",[],[],[],[],[],[],[1058],[],[],[2139],[2139]
participant_0_UNDO,[],[],[],[],[],[],[],[],[],[],[],[],[],[],[],[],[],[],[],[],[],[],[],[],[],[],[],[],[],"[[3508, 0]]",[],[],[],[],[],[],[],[],[],[],[],[],[],[]
participant_1_GOLD,500,500,660,1013,1136,1785,2158,2440,2797,3100,3727,3850,4107,4550,4907,5124,5402,6584,7032,7264,7527,7999,8476,9088,9345,9542,9906,10267,10930,11762,11886,12666,12979,13838,13960,14284,15036,15385,16110,16337,16612,16785,17107,17972
participant_1_CURRENTGOLD,500,0,160,513,126,775,1148,60,417,720,1347,495,752,320,677,894,1172,2354,2802,499,762,119,596,258,515,713,1076,1437,1250,2083,506,547,459,68,191,515,1267,316,1041,1268,1543,1716,2038,2822
participant_1_LEVEL,1,1,2,3,3,4,5,5,6,6,7,7,7,8,8,8,9,9,10,10,10,11,11,12,12,12,13,13,14,15,15,15,16,16,16,16,17,17,18,18,18,18,18,18
participant_1_MINIONSKILLED,0,0,0,0,0,0,0,0,0,1,1,1,1,7,7,7,7,7,7,9,10,10,10,15,15,15,15,20,22,22,22,27,27,27,27,31,32,36,37,41,46,46,47,56
participant_1_KILLS,0,0,0,0,0,1,1,1,1,1,2,2,2,2,2,2,2,3,3,3,3,4,4,4,4,4,4,4,5,7,7,8,8,9,9,9,11,11,11,11,11,11,11,11
participant_1_BUY,[],"[1039, 2003, 2003, 2003, 3340]",[],[],"[1052, 2055]",[],[],"[3802, 1001, 2031, 3364, 2055]",[],[],[],"[3108, 2055]",[],"[3020, 2055]",[],[],[],[],[],"[6653, 3191, 1052]",[],"[3108, 2420]",[],"[3157, 1011]",[],[],[],[],[1026],[],"[4637, 1033]",[3211],[1028],[3065],[],[],[],"[3066, 2139]",[],[],[],[],[],[]
participant_1_SOLD,[],[],[],[2003],[],[2055],[2003],"[1052, 2003, 3340]",[1039],[2055],[],[],[],[1001],[],[],[],[],[],"[3802, 3108]","[2055, 2055]",[1052],[],"[3191, 2420, 3108]",[],[],[],[],[],[],"[1026, 1011]","[1033, 2031]",[],"[3211, 1028]",[],[],[],[2139],[],[],[],[],[],[]
participant_1_UNDO,[],[],[],[],[],[],[],[],[],[],[],[],[],[],[],[],[],[],[],[],[],[],[],[],[],[],[],[],[],[],[],[],[],[],[],[],[],[],[],[],[],[],[],[]
participant_2_GOLD,500,500,625,969,1316,1536,1935,2232,2542,2977,3710,4152,4365,4592,5145,5351,5903,6074,6370,6963,7121,8304,8762,9388,10109,10587,11010,11364,12154,12277,12689,13231,13354,14336,14706,14967,15258,15854,16849,17517,18136,19983,20248,21091
participant_2_CURRENTGOLD,500,0,125,459,806,276,665,962,162,587,1320,302,165,392,935,216,768,239,535,1128,186,1369,1827,253,974,1453,425,779,1570,312,725,1267,89,1071,1442,453,743,1340,2335,453,1073,2919,2684,736
participant_2_LEVEL,1,1,1,3,4,5,6,6,7,8,8,9,9,9,10,10,11,11,11,12,12,13,13,13,14,14,14,15,15,15,16,16,16,16,17,17,17,18,18,18,18,18,18,18
participant_2_MINIONSKILLED,0,0,6,16,29,35,48,58,66,80,91,97,102,108,120,125,142,145,151,158,160,175,187,192,204,211,211,219,231,231,235,245,245,245,247,251,261,274,278,288,303,313,316,316
participant_2_KILLS,0,0,0,0,0,2,2,3,3,3,3,3,3,3,3,3,4,4,5,5,5,6,6,6,6,6,7,7,7,7,7,7,7,7,7,7,7,7,7,7,7,8,8,12
participant_2_BUY,[],"[1055, 3340, 2003]",[],[],[],[],"[6670, 1042, 2031, 2055]",[],[1037],[],[],"[1018, 1042]",[],[6672],[2031],[],"[3006, 3363, 1018, 1042]",[],[],"[3086, 1042, 1042]",[],"[3046, 1037, 1042]",[],[],[3086],[],[],"[1042, 1042]",[3085],[],[],"[1036, 1036]",[],"[3035, 1018]",[],[],[3036],[],[],[],[],[],"[3031, 2140]",[2140]
participant_2_SOLD,[],[],[],[],[2010],"[2010, 2003]",[],[2055],[],[],[2010],[2031],[],"[6670, 1018, 1037]",[],[],"[1042, 2422, 3340]",[],[],"[1018, 1042, 2031]",[],"[1042, 3086, 1042]",[],[],[1042],[],[],[1055],"[1037, 3086]",[],[],[1055],[],"[1036, 1036]",[],[],"[3035, 1018]",[],[],[],[],[],[2140],[2140]
participant_2_UNDO,[],[],[],[],[],[],"[[0, 1042]]",[],[],[],[],[],[],[],[],[],[],[],[],[],[],[],[],[],[],[],[],"[[0, 1042], [0, 1042], [1055, 0]]",[],[],[],[],[],[],[],[],[],[],[],[],[],[],[],[]
participant_3_GOLD,500,500,562,818,1099,2050,2215,2906,3112,3565,3757,3929,4177,4592,4756,5077,6012,6344,7327,7734,8130,8889,9264,9673,9908,10311,10750,10872,11154,11522,11645,12026,12834,12970,13660,14183,14577,14700,15379,15675,16178,17813,17935,19597
participant_3_CURRENTGOLD,500,0,62,318,599,1550,190,881,212,665,857,189,437,227,241,562,97,429,1412,979,1375,59,434,843,179,581,1020,1142,100,467,590,452,1259,46,736,1258,803,925,1605,1901,2404,4039,261,942
participant_3_LEVEL,1,1,1,2,3,4,4,5,5,6,7,7,8,8,8,9,9,9,10,11,11,12,13,13,13,13,14,14,14,14,14,15,15,15,16,16,17,17,18,18,18,18,18,18
participant_3_MINIONSKILLED,0,0,2,9,15,22,25,38,43,56,60,63,70,75,78,86,98,98,115,115,126,132,139,149,153,154,157,157,162,169,169,175,194,195,207,213,213,213,220,225,227,230,230,235
participant_3_KILLS,0,0,0,0,0,0,0,0,1,1,1,1,1,1,1,1,2,3,4,4,4,5,5,6,6,6,6,7,7,7,7,7,7,7,7,8,8,8,8,8,8,8,8,8
participant_3_BUY,[],"[1054, 2003, 3340]",[],[],"[1028, 2003]",[],[],[],[],"[6029, 1001, 2055]",[],"[3067, 1036]",[],[],[],"[6631, 1029]",[3047],[1042],"[1043, 1036, 2055]",[],[1053],[],[],"[3153, 1028]",[],[],"[3211, 1028]",[],[3067],[],"[3065, 1029]",[1031],[],[],[1057],[],[],[],[4401],[],[],[],[],[]
participant_3_SOLD,[],[],[],[],[2003],[2003],[],[],[],[],[],[1028],[],[],[],"[6029, 1036, 3067]","[1001, 1029]",[2055],[1042],[],"[1036, 2055]",[],[],"[1053, 1043]",[2055],[],[1028],[],[1028],[],"[3211, 3067]",[1029],[],[],[1054],[],[],[],[1057],[],[],[],[],[]
participant_3_UNDO,[],[],[],[],[],[],[],[],[],[],[],[],[],[],[],[],[],[],[],[],"[[2055, 0]]",[],[],[],[],[],[],[],[],[],[],[],[],[],[],[],[],[],[],[],[],[],[],[]
participant_4_GOLD,500,500,522,757,992,1451,1586,2014,2148,2283,2458,2639,2849,3793,3934,4075,4640,4841,5027,5217,5607,6040,6252,6442,6693,7133,7347,7487,7658,7903,8045,8405,8629,8906,9046,9187,9658,9798,10239,10580,10751,11116,11256,11909
participant_4_CURRENTGOLD,500,0,22,257,492,951,401,829,963,333,508,289,499,1443,134,275,840,441,627,417,807,1240,352,292,543,983,647,188,358,603,745,1105,479,106,247,387,858,549,989,1330,451,816,957,1609
participant_4_LEVEL,1,1,1,2,3,4,4,5,5,5,6,6,6,7,7,7,8,8,9,9,9,10,10,11,11,11,12,12,12,13,13,13,13,14,14,14,15,15,15,16,16,16,17,17
participant_4_MINIONSKILLED,0,0,0,0,0,0,0,2,2,2,2,3,4,4,4,5,5,5,5,5,5,6,7,7,9,9,11,11,12,12,12,12,17,17,17,17,27,27,27,32,33,33,33,34
participant_4_KILLS,0,0,0,0,0,0,0,0,0,0,0,0,0,1,1,1,1,1,1,1,2,2,2,2,2,3,3,3,3,3,3,4,4,4,4,4,4,4,4,4,4,4,4,4
participant_4_BUY,[],"[3850, 3340, 2003, 2003]",[],[],[],[],"[1052, 1004]",[],[],"[4642, 1028]",[],[3067],[],[],"[4005, 1001, 1029]",[],[],"[3364, 3024]",[],[1028],[],[],[3050],[1004],[],[],[3114],[3009],[],[],[],[],[1026],[6616],[],[],[],[1033],[],[],[3105],[],[],[]
participant_4_SOLD,[],[],[],[],[2003],[2003],[],[],[],"[1004, 1052]",[3850],[1028],[],[],"[3067, 4642]",[],[],"[3340, 1029, 3851]",[],[],[],[],"[1028, 3024]",[],[],[],[1004],[1001],[],[],[],[],[],"[3114, 1026]",[],[],[],[],[],[],[1033],[],[],[]
participant_4_UNDO,[],[],[],[],[],[],[],[],[],[],[],[],[],[],[],[],[],[],[],[],[],[],[],[],[],[],[],[],[],[],[],[],[],[],[],[],[],[],[],[],[],[],[],[]
participant_5_GOLD,500,500,541,850,1647,1916,2179,2423,2581,2999,3121,3717,4238,4452,4749,5046,5169,5386,5509,5652,6541,6845,7392,7842,7964,8128,8389,9125,9667,9809,9953,10496,10619,11156,11564,12870,13286,13409,13546,13703,14050,14259,14709,14981
participant_5_CURRENTGOLD,500,0,41,350,1147,1416,1679,73,231,649,21,617,1138,352,649,946,269,486,259,402,1291,25,572,322,44,108,369,755,198,339,483,176,299,437,494,1800,2217,714,852,1009,1355,440,440,81
participant_5_LEVEL,1,1,1,3,4,5,6,6,6,7,7,8,9,9,10,10,10,10,10,10,11,12,12,12,12,13,13,14,14,14,14,15,15,15,15,16,17,17,17,17,17,17,18,18
participant_5_MINIONSKILLED,0,0,1,10,19,25,33,38,40,55,55,71,81,86,96,102,102,102,102,103,122,128,134,145,145,148,151,171,175,175,176,186,187,187,196,216,226,226,227,229,238,238,248,248
participant_5_KILLS,0,0,0,0,1,2,2,2,2,2,2,3,4,5,6,6,6,6,6,6,6,6,6,6,6,6,7,7,7,7,7,7,7,7,7,7,7,7,7,7,7,7,7,7
participant_5_BUY,[],"[1039, 2031, 3340, 3364]",[],[],[],[],[],"[3134, 1001, 1036]",[],[],[],[],[],"[6692, 3111]",[],[],[],[],"[3067, 3133]",[],[],[1036],[],[],[3071],[],[],[],[3134],"[3044, 1028]",[],[1037],[],[],[],[],[3053],[1033],[],"[1028, 1028]",[],[3140],[],[]
participant_5_SOLD,[],[3340],[],[],[],[],[],[],[],[],"[3364, 3513]",[],[],"[3134, 1036, 1001]",[1039],[],[],[],[],[],[],[],[],[],"[3133, 3067, 1036]",[],[],[],[],[],[],[2031],[],[],[],[],"[1037, 3044, 1028]",[],[],[],[],[1033],[],[]
participant_5_UNDO,[],[],[],[],[],[],[],[],[],[],[],[],[],[],[],[],[],[],[],[],[],[],[],[],[],[],[],[],"[[0, 3134]]",[],[],[],[],[],[],[],[],[],[],"[[0, 1028]]",[],[],[],[]
participant_6_GOLD,500,500,620,944,1547,2159,2282,2489,2901,3122,3344,4208,4763,5205,5673,6099,6529,6746,6953,7246,7618,7741,8146,8313,8527,8710,9324,9700,9872,10095,10218,10435,10778,10975,11214,11500,11672,11872,12151,12273,12611,12860,13008,13130
participant_6_CURRENTGOLD,500,0,120,444,1047,1659,1782,239,651,872,1094,1958,2513,405,873,1299,1729,1946,253,546,918,691,1096,1263,427,610,1225,1600,1773,495,619,21,363,561,799,1086,533,282,562,284,622,21,169,230
participant_6_LEVEL,1,1,2,3,4,4,4,4,5,5,6,7,8,8,9,10,10,10,11,11,11,11,12,12,12,12,13,13,13,14,14,14,14,15,15,15,15,15,16,16,16,16,16,16
participant_6_MINIONSKILLED,0,0,0,0,1,1,1,1,1,1,1,2,3,3,3,3,6,6,6,6,7,7,9,10,12,15,20,22,22,24,24,25,25,25,25,25,25,25,26,26,27,27,29,29
participant_6_KILLS,0,0,0,0,0,1,1,1,1,1,1,2,2,2,2,2,2,2,2,3,3,4,4,4,4,4,5,5,5,7,7,7,7,8,8,9,11,11,11,11,11,13,13,14
participant_6_BUY,[],"[1056, 3070, 2003, 2003, 3340]",[],[],"[1056, 2003, 2055]","[1052, 1027]",[],[],[],[],"[3802, 1026, 2031]",[],"[6655, 2055]",[],[],[],[3020],[],"[1052, 3916]",[],[],[1058],[],[],[3003],[],[],[],"[1058, 1058]",[3363],[3089],[2055],[],[],[],[3157],[],[3135],[],[],[],[],[2139],[2139]
participant_6_SOLD,[],[],[],[],[],[],[],[2055],[2003],[],"[2003, 2003, 1052, 1027]",[],"[3802, 1026]",[],[2055],[],[],[],[1052],[],[],[2031],[],[],"[3070, 1058, 3003]",[],[],[],[1056],[3340],"[1058, 1058]",[2055],[],[],[],[],[],[3916],[],[],[],[],[2139],[2139]
participant_6_UNDO,[],"[[0, 1056]]",[],[],[],[],[],[],[],[],[],[],[],[],[],[],[],[],[],[],[],[],[],[],[],[],[],[],[],[],[],[],[],[],[],[],[],[],[],[],[],[],[],[]
participant_7_GOLD,500,500,611,955,1193,1846,2210,2521,2874,3164,3419,4268,4772,5049,5504,5899,6298,6629,6947,7397,7757,8180,8518,9074,9384,9736,11028,11410,11715,12740,13133,13599,14013,14799,15325,16151,17520,17642,17981,18322,18577,19404,19527,20499
participant_7_CURRENTGOLD,500,0,111,445,158,16,370,681,1024,1314,54,903,72,349,794,1189,488,819,337,787,1147,380,718,1274,234,586,1878,2261,225,1250,344,734,1149,1934,2461,787,2156,338,677,1018,1273,2101,1723,1474
participant_7_LEVEL,1,1,1,3,4,5,6,6,7,8,8,9,9,10,10,11,11,12,12,12,12,13,13,14,14,14,15,15,15,16,16,17,17,17,18,18,18,18,18,18,18,18,18,18
participant_7_MINIONSKILLED,0,0,5,15,17,28,39,50,60,69,76,84,94,103,118,130,142,150,157,159,167,167,176,197,204,214,221,229,233,238,246,258,267,269,278,293,300,300,307,312,320,320,320,320
participant_7_KILLS,0,0,0,0,1,1,1,1,1,1,1,1,1,1,1,1,1,1,1,1,1,1,2,2,2,2,2,2,2,2,2,2,2,3,3,4,4,4,4,4,4,4,4,4
participant_7_BUY,[],"[1055, 2003, 3340]",[],[],[],[],[],"[6029, 1036, 1001]",[],[],"[1028, 3044]",[],[],[6630],[],[],[3047],[],[1036],[],[],"[1053, 1037, 3077]",[],"[1036, 1036]",[3133],[3074],[],[1036],"[3133, 3123, 3133, 1036]",[],[],"[3123, 1028]",[],[6609],"[1036, 1036]",[],[],"[1057, 3044, 1037]",[],[],[],[3053],[1033],[1057]
participant_7_SOLD,[],[],[],[],[2003],[],[],[],[],[],"[1028, 1036]",[],[],"[6029, 3044]",[],[],[1001],[],[],[],[],"[1036, 1055, 1037]",[],[],"[1036, 1036]","[3077, 1053, 3133]",[],[],"[1036, 1036, 1036]",[],[],[1036],[],"[3123, 1028, 3133]",[],[],[],[1036],[],[],[],"[1037, 3044]",[],[1033]
participant_7_UNDO,[],[],[],[],[],[],[],[],[],[],[],[],[],[],[],[],[],[],[],[],[],[],[],[],[],[],[],[],"[[0, 3133], [0, 3123]]",[],[],[],[],[],"[[0, 1036]]",[],[],"[[0, 1057]]",[],[],[],[],[],[]
participant_8_GOLD,500,500,583,902,1190,1471,1786,2028,2891,3161,3516,4439,4751,4888,5544,5960,6083,6550,6708,7192,7364,7633,7867,8420,8598,8755,9794,10125,10513,11427,11955,12784,13178,14684,14806,15178,15566,15688,16090,16247,17372,17582,18124,19370
participant_8_CURRENTGOLD,500,0,83,402,690,171,486,728,1591,1861,2216,39,351,168,824,1240,263,730,288,772,69,338,572,1125,878,135,299,330,719,1632,2160,815,458,865,387,198,587,109,511,668,1793,2003,2545,-1930
participant_8_LEVEL,1,1,1,2,3,3,4,5,6,6,7,7,7,7,8,8,8,9,9,10,10,10,11,11,11,11,12,13,13,14,14,15,15,16,16,16,17,17,17,17,17,18,18,18
participant_8_MINIONSKILLED,0,0,3,14,21,26,34,42,53,61,72,74,81,82,90,103,103,116,118,131,131,136,143,150,153,155,161,161,169,177,192,196,204,207,207,213,222,222,230,232,239,239,255,255
participant_8_KILLS,0,0,0,0,0,0,0,0,1,1,1,2,2,2,2,2,2,2,2,2,2,2,2,2,2,2,3,3,3,4,4,5,5,7,7,7,7,7,7,7,8,8,8,9
participant_8_BUY,[],"[1055, 2003]",[],[],[],"[1036, 1036, 2003, 2003]",[],[],[],[],[],"[6691, 1001, 1042]",[],[3006],[],[],[3134],[],[1018],[],[1037],[],[],[],[6676],[1053],[1037],[1042],[],[],[],"[3153, 3057, 1036]",[3133],[3508],[1018],[3031],[],"[3363, 1018]",[],[],[],[],[],"[3072, 2140]"
participant_8_SOLD,[],[],[],[],[],[2003],[],"[2003, 2003]",[],[],[],"[1036, 1036]",[],"[1055, 1001, 1042]",[],[],[],[],[],[],[],[],[],[],"[3134, 1037, 1018]",[],[],[],[],[],[],"[1053, 1042, 1037]",[1036],"[3133, 3057]",[],"[3153, 1018]",[],[3340],[],[],[],[],[],"[1018, 2140]"
participant_8_UNDO,[],[],[],[],[],[],[],[],[],[],[],[],[],[],[],[],[],[],[],[],[],[],[],[],[],[],[],[],[],[],[],[],[],[],[],[],[],[],[],[],[],[],[],[]
participant_9_GOLD,500,500,564,713,929,1138,1404,1589,1873,2060,2308,2699,2938,3079,3351,3617,3758,4198,4384,4524,4714,4897,5066,5207,5347,5518,6659,6996,7208,7660,7999,8481,8622,8942,9096,9252,9442,9582,9780,9930,10236,10414,10596,10736
participant_9_CURRENTGOLD,500,0,64,213,429,88,279,464,273,460,708,49,288,429,701,967,18,458,644,84,274,307,476,617,507,678,1119,1457,1668,545,884,1366,557,877,1032,1187,1377,48,245,396,701,879,1061,1111
participant_9_LEVEL,1,1,1,2,3,3,4,4,5,5,6,6,6,6,7,7,7,8,8,8,8,8,9,9,9,9,10,11,11,12,12,13,13,14,14,14,14,15,15,15,16,16,16,16
participant_9_MINIONSKILLED,0,0,2,3,5,5,9,11,11,14,17,17,19,19,22,25,25,25,27,27,27,29,31,31,31,32,32,36,37,37,44,49,49,50,51,52,52,52,56,56,57,57,60,60
participant_9_KILLS,0,0,0,0,0,0,0,0,0,0,0,0,0,0,0,0,0,1,1,1,1,1,1,1,1,1,2,2,2,2,2,2,2,2,2,2,2,2,2,2,2,2,2,2
participant_9_BUY,[],"[3858, 2003, 2003, 3340]",[],[],[],"[1028, 2031]",[2055],[],"[3067, 2055]",[],[],"[1033, 1029, 1001, 3364]",[],[],[],[],[3190],[],[],[3117],[],"[2055, 2055]",[],[],[1004],[],"[3114, 2055, 2055]",[],[],"[6616, 2055]",[],[],"[3067, 1004, 2055, 2055]",[],[],[],[],[3107],[],[],[],[],[],[]
participant_9_SOLD,[],[],[],[],"[2003, 2003]",[],[2055],[],[1028],[2055],[],"[3858, 3340]",[],[],[],[],"[2031, 3067, 1033, 1029]",[],[],"[1001, 3859]",[],[],[],[],[],"[2055, 2055]",[1004],[],[2055],[3114],[2055],[2055],[],[],[],[2055],[],"[2055, 3067]",[],[],[],[],[],[]
participant_9_UNDO,[],[],[],[],[],[],[],[],[],[],[],[],[],[],[],[],[],[],[],[],[],[],[],[],[],[],[],[],[],[],[],[],"[[0, 1004]]",[],[],[],[],[],[],[],[],[],[],[]
team0_KILLS,0,0,0,0,0,3,3,4,5,5,7,7,7,8,8,8,10,12,14,15,16,20,20,21,22,23,25,26,28,30,30,32,32,36,36,37,39,39,40,41,41,46,46,50
team0_CURRENTGOLD,2500,0,410,1851,2165,3914,3071,3654,3376,2524,4752,1487,2264,3230,3102,2039,3230,4133,5619,3856,3611,3951,4936,2360,3133,4927,3303,4138,4160,4835,2935,3727,3072,2566,3377,3901,5176,5105,6543,5758,6400,10930,7502,8109
team0_TOTALGOLD,2500,2500,2910,4361,5635,8134,9511,11464,13171,14669,16897,18057,19184,21650,23132,24244,27335,29838,32449,34461,35866,39396,41481,44005,45676,47470,49098,50531,53128,55184,56133,58684,60581,63324,64852,66628,68753,70431,73869,75634,77324,81855,82827,87499
team0_LEVEL,5,5,6,12,17,21,24,27,30,33,36,38,39,42,43,45,49,49,53,55,55,60,62,64,65,65,68,70,71,74,75,76,78,79,81,81,84,85,87,88,88,88,89,89
team0_SBIRES,0,0,9,33,59,75,101,134,159,190,209,226,243,266,286,306,348,351,381,400,414,448,476,503,521,534,539,553,589,603,607,636,670,671,690,709,730,759,777,803,826,839,843,858
team1_KILLS,0,0,0,0,2,4,4,4,5,5,5,8,9,10,11,11,11,12,12,13,13,14,15,15,15,15,19,19,19,22,22,23,23,27,27,29,31,31,31,31,32,34,34,36
team1_CURRENTGOLD,2500,0,419,1854,3471,3350,4596,2185,3770,5156,4093,3566,4362,1703,3841,5641,2767,4439,1781,2591,3699,1741,3434,4601,2090,2117,4890,6403,4583,4261,4490,3112,2826,4674,5173,5058,6870,1491,2847,3375,5744,5444,5938,966
team1_TOTALGOLD,2500,2500,2919,4364,6506,8530,9861,11050,13120,14506,15708,19331,21462,22673,24821,26621,27837,29509,30501,32011,33994,35296,36989,38856,39820,40847,45194,47356,48975,51731,53258,55795,57210,60556,62005,64951,67486,68193,69548,70475,72846,74519,75964,78716
team1_LEVEL,5,5,6,13,18,20,24,25,29,31,34,37,39,40,44,46,46,49,50,51,52,54,57,58,58,59,63,66,66,70,70,74,74,77,78,79,81,82,83,83,84,85,86,86
team1_SBIRES,0,0,11,42,63,85,116,142,165,200,221,248,278,293,329,363,378,399,410,426,454,467,493,533,545,564,585,619,636,651,682,714,732,738,757,799,825,825,846,855,881,881,912,912
delta_KILLS,0,0,0,0,-2,-1,-1,0,0,0,2,-1,-2,-2,-3,-3,-1,0,2,2,3,6,5,6,7,8,6,7,9,8,8,9,9,9,9,8,8,8,9,10,9,12,12,14
delta_CURRENTGOLD,0,0,-9,-3,-1306,564,-1525,1469,-394,-2632,659,-2079,-2098,1527,-739,-3602,463,-306,3838,1265,-88,2210,1502,-2241,1043,2810,-1587,-2265,-423,574,-1555,615,246,-2108,-1796,-1157,-1694,3614,3696,2383,656,5486,1564,7143
delta_TOTALGOLD,0,0,-9,-3,-871,-396,-350,414,51,163,1189,-1274,-2278,-1023,-1689,-2377,-502,329,1948,2450,1872,4100,4492,5149,5856,6623,3904,3175,4153,3453,2875,2889,3371,2768,2847,1677,1267,2238,4321,5159,4478,7336,6863,8783
delta_LEVEL,0,0,0,-1,-1,1,0,2,1,2,2,1,0,2,-1,-1,3,0,3,4,3,6,5,6,7,6,5,4,5,4,5,2,4,2,3,2,3,3,4,5,4,3,3,3
delta_SBIRES,0,0,-2,-9,-4,-10,-15,-8,-6,-10,-12,-22,-35,-27,-43,-57,-30,-48,-29,-26,-40,-19,-17,-30,-24,-30,-46,-66,-47,-48,-75,-78,-62,-67,-67,-90,-95,-66,-69,-52,-55,-42,-69,-54
