name,frame_0,frame_1,frame_2,frame_3,frame_4,frame_5,frame_6,frame_7,frame_8,frame_9,frame_10,frame_11,frame_12,frame_13,frame_14,frame_15,frame_16,frame_17,frame_18,frame_19,frame_20,frame_21,frame_22,frame_23,frame_24,frame_25,frame_26,frame_27,frame_28,frame_29,frame_30,frame_31,frame_32,frame_33,frame_34,frame_35,frame_36,frame_37,frame_38
nameStamp,Tstart,Tearly,Tearly,Tearly,Tearly,Tearly,Tearly,Tearly,Tearly,Tearly,Tearly,Tearly,Tearly,Tearly,Tearly,Tearly,Tmid,Tmid,Tmid,Tmid,Tmid,Tmid,Tmid,Tmid,Tmid,Tmid,Tmid,Tmid,Tmid,Tmid,Tmid,Tmid,Tmid,Tmid,Tmid,Tmid,Tmid,Tend,Tend
timestamp,0,60012,120026,180030,240045,300077,360089,420106,480106,540118,600151,660197,720197,780203,840215,900236,960236,1020251,1080268,1140271,1200280,1260309,1320340,1380363,1440367,1500369,1560372,1620384,1680416,1740435,1800464,1860473,1920477,1980481,2040507,2100536,2160563,2220567,2280567
participant_0_GOLD,500,500,562,859,1155,1326,1938,2179,2709,3242,3428,4220,4547,5018,5567,5731,6043,6616,7038,7273,7765,8356,8537,9750,10562,11166,11794,11966,12933,13404,13673,14196,14707,15219,15647,15938,16060,17506,18596
participant_0_CURRENTGOLD,500,0,62,359,655,51,663,69,599,32,218,1010,487,958,1506,156,468,606,613,848,490,481,227,1440,2252,91,719,241,1209,1679,99,621,1133,1645,2073,2544,166,1612,2521
participant_0_LEVEL,1,1,1,3,4,4,6,6,7,8,8,9,10,10,11,11,11,11,11,12,12,13,13,14,14,15,15,15,16,16,17,17,17,17,18,18,18,18,18
participant_0_MINIONSKILLED,0,0,2,12,20,23,34,41,49,61,64,75,83,94,106,108,116,116,116,123,137,151,152,174,184,199,199,199,212,224,224,224,234,248,249,252,252,264,274
participant_0_KILLS,0,0,0,0,1,1,1,1,1,1,1,1,1,1,1,1,1,3,3,4,5,5,5,5,5,5,5,5,5,5,5,5,5,5,5,5,5,5,5
participant_0_BUY,[],"[3850, 3340, 2003, 2003]",[],[],[],"[1052, 1052, 2055]",[],[],[],[3802],[],"[1026, 3364]",[],[],[],[],[],[],"[6655, 3020, 3916, 2055]",[],[3165],[],[],[],[],[3108],[],[1052],[4632],[],[3102],[],[],[],[],[],[],[1058],[]
participant_0_SOLD,[],[],[],[],[2003],[],[],[],[],"[1052, 1052]","[2055, 3850, 2003]",[3340],[],[],[],[],[],[3851],"[3802, 1026, 2422]",[],"[3916, 2055]",[],[],[],[],[],[],[],[1052],[],"[3108, 4632]",[],[],[],[],[],[],[],[]
participant_0_UNDO,[],[],[],[],[],[],[],[],[],[],[],[],[],[],[],[],[],[],[],[],[],[],[],[],[],[],[],[],[],[],[],[],[],[],[],[],[],[],[]
participant_1_GOLD,500,500,620,927,1363,1577,1838,2065,2337,2760,2982,3205,3357,3669,3927,4154,4577,4859,5017,5225,5347,5681,5904,6227,6429,6636,6814,7301,7454,7901,8475,8792,9014,9278,9425,9548,9817,10064,10467
participant_1_CURRENTGOLD,500,0,120,427,863,1077,1338,1565,1837,2260,207,430,582,419,677,904,77,59,217,425,47,381,604,927,1129,236,414,351,429,876,1450,317,539,803,950,1074,1342,339,742
participant_1_LEVEL,1,1,2,2,3,4,4,4,5,5,5,6,6,6,7,7,8,8,8,9,9,9,10,10,10,11,11,12,12,12,13,13,13,13,14,14,14,14,15
participant_1_MINIONSKILLED,0,0,0,0,0,0,1,1,1,1,1,1,2,2,2,2,2,4,6,8,8,8,12,12,13,19,20,21,22,22,25,25,25,26,26,26,31,31,31
participant_1_KILLS,0,0,0,0,0,0,0,0,1,1,1,1,1,1,1,1,2,2,2,2,2,2,3,4,4,4,5,6,6,6,7,7,7,7,7,7,7,7,8
participant_1_BUY,[],"[1056, 2003, 2003, 3340]",[],[],[],[],[],"[3802, 2003, 2003]",[],[],"[3108, 2003, 2003]",[],[],[1001],[],[],[6653],[],[3020],[],[],[],"[1026, 1052]",[1028],[1011],[],[4637],[1052],[3916],[],[1026],[],[],[3165],[],[],[],[],[1058]
participant_1_SOLD,[],[],[],[],[],[],[2003],[],[2003],"[2003, 2003]",[],[],"[2003, 2003]",[],[],[],"[3802, 3108]",[],[1001],[],[],[],[],[],[1028],[],"[1026, 1011, 1052]",[],[1052],[],[],[],[],"[1026, 3916]",[],[],[],[],[]
participant_1_UNDO,[],[],[],[],[],[],[],[],[],[],[],[],[],[],[],[],[],[],[],[],[],[],[],[],[],[],[],[],[],[],[],[],[],[],[],[],[],[],[]
participant_2_GOLD,500,500,625,943,1221,1504,1753,1997,2537,2949,3099,3390,3554,3746,4055,4324,4926,5185,5457,5804,6086,6239,6982,7668,7791,8087,8498,9091,9254,9376,9983,10350,10472,10768,10996,11223,11345,11768,12405
participant_2_CURRENTGOLD,500,0,125,443,721,1004,1253,87,617,1019,169,460,624,516,815,1084,486,745,217,564,846,999,457,743,366,662,258,416,214,336,93,460,582,29,256,483,606,1028,455
participant_2_LEVEL,1,1,1,3,4,5,6,6,7,7,8,8,9,9,9,10,10,11,11,11,12,12,12,12,12,13,13,13,13,13,14,14,14,14,15,15,15,15,16
participant_2_MINIONSKILLED,0,0,6,17,26,35,42,46,50,58,60,70,73,78,86,95,102,102,102,109,114,115,116,120,120,126,127,134,134,134,138,148,148,150,157,159,159,159,164
participant_2_KILLS,0,0,0,0,0,0,1,1,2,2,2,3,3,3,3,3,3,4,5,5,5,5,5,6,7,7,8,8,9,9,9,10,10,10,10,10,10,12,13
participant_2_BUY,[],"[1055, 2003, 3340]",[],[],[],"[1042, 1042, 2003, 2003, 2055]",[],"[1043, 1052]",[],[3006],[],[],[1026],[],[],"[3115, 3057, 2003, 2003]",[],[1052],[3113],[],[1026],[3100],[1052],[],[],[4633],[],[2420],[],[],[3157],[],[],[],[],[],"[3165, 3102]",[],[]
participant_2_SOLD,[],[],[],[],[2003],[],"[2003, 2003]","[1042, 1042]",[],[],"[2055, 2055]",[],[],[2055],[],"[1043, 1026, 1052]",[],[],"[2003, 2003, 1052]",[],[],"[3057, 3113, 1026]",[],[],[],[1052],[],[],[],[],"[2420, 2421]",[],[],[],[],[],[1055],[],[]
participant_2_UNDO,[],[],[],[],[],[],[],[],[],[],[],[],[],[],[],[],[],[],[],[],[],[],[],[],[],[],[],[],[],[],[],[],[],[],[],[],"[[0, 3165]]",[],[]
participant_3_GOLD,500,500,597,838,1481,1736,2006,2369,2637,2802,3164,3830,4022,4235,4565,4687,5279,5554,5832,6145,6267,6592,6835,7467,7802,7946,8114,8583,9100,9381,10299,10421,10712,11065,11307,11431,12161,12886,13372
participant_3_CURRENTGOLD,500,0,97,338,981,61,331,694,962,127,489,1155,1347,210,540,62,654,329,607,920,342,667,510,722,1057,326,69,538,1055,1336,2254,202,492,845,1088,411,1142,1866,2172
participant_3_LEVEL,1,1,1,2,3,3,4,5,5,5,6,7,7,7,8,8,8,9,9,10,10,10,10,11,11,12,12,12,13,13,14,14,14,14,14,14,15,15,16
participant_3_MINIONSKILLED,0,0,4,11,17,25,33,44,49,51,62,73,77,82,90,90,103,105,108,116,116,123,128,133,138,139,139,143,153,158,159,159,165,173,180,180,197,198,204
participant_3_KILLS,0,0,0,0,0,0,0,0,0,1,1,1,1,1,1,1,1,1,1,1,1,1,1,1,1,1,1,2,2,3,3,3,3,3,3,3,3,3,3
participant_3_BUY,[],"[1039, 3340, 2003, 2003, 2003]",[],[],[],[],[],[],[],[],"[3802, 1026, 2055, 2003]",[],[],"[1001, 2055, 2003, 2003]",[],[],[6655],[1029],[],[],[3047],[],[],[],[],"[1026, 1004]",[],[3114],[2055],[],[],[6616],[3067],[],[],[],[],[3211],[]
participant_3_SOLD,[],[],[2003],"[2003, 2003]",[],[],[],[],[],[],"[2055, 1039]",[2003],[],[2055],"[2003, 2003]",[],"[3802, 1026]",[],[],[],"[1001, 1029]",[],[],[],[],[],[],[1004],[2055],[],[],"[3114, 1026]",[],[],[],[],[],[],[]
participant_3_UNDO,[],[],[],[],[],[],[],[],[],[],[],[],[],[],[],[],[],[],[],[],[],[],[],[],[],[],[],[],[],[],[],[],[],[],[],[],[],[],[]
participant_4_GOLD,500,520,562,797,1428,1582,1777,1931,2125,2419,2594,2984,3184,3493,3633,3830,4285,5780,5921,6405,7590,7811,7989,8343,8544,8684,9137,9433,9573,9788,10122,10262,10496,10664,10805,10946,11096,11362,11661
participant_4_CURRENTGOLD,500,20,62,297,928,137,332,486,680,544,719,259,459,768,908,1105,1560,3055,271,755,240,461,639,993,1194,434,887,748,123,339,272,413,646,814,955,1096,1247,262,561
participant_4_LEVEL,1,1,1,2,3,3,4,5,5,6,6,6,6,7,7,7,8,8,9,9,9,10,10,11,11,11,11,12,12,12,12,12,13,13,13,13,13,13,14
participant_4_MINIONSKILLED,0,0,0,1,1,1,1,1,1,6,6,6,6,12,12,16,18,18,18,20,22,25,25,26,26,26,33,34,34,34,34,34,39,41,41,41,42,42,43
participant_4_KILLS,0,0,0,0,1,1,1,1,1,1,1,2,2,2,2,2,2,2,2,2,2,2,2,3,3,3,3,3,3,3,4,4,4,4,4,4,4,5,5
participant_4_BUY,[],"[1055, 2003, 3340]",[],[],[],"[1036, 1036, 1042, 2003, 2003, 2055]",[],[],[],"[6670, 1036, 1001, 2003]",[],[],[],"[1053, 3006]",[],[1018],[],[6673],[],[],"[1036, 1036]",[],[3134],[1018],[],[1037],[6676],[],[],[],[],"[1038, 1037]",[],[],[],[3123],[],[],[]
participant_4_SOLD,[],[],[2003],[],[],[],[],[],[2003],"[1036, 1042, 1036]",[2003],[],[],"[1036, 1001]",[],[2003],[],"[6670, 1018, 1053]",[],[],[],[],"[1036, 1036]",[1055],[],[],"[3134, 1037, 1018]",[],[2055],[],[],[],[],[],[],[],[],[],[]
participant_4_UNDO,[],[],[],[],[],[],[],[],[],[],[],[],[],[],[],[],[],[],[],[],[],[],[],[],[],[],[],[],[],[],[],[],[],[],[],[],[],[],[]
participant_5_GOLD,500,500,583,908,1172,1329,1543,1770,2025,2318,2743,3032,4264,4459,4740,5346,6367,7292,7759,8250,8618,8842,9032,9280,9403,9783,10661,11849,12381,12601,12808,13515,13810,14355,14592,14896,15319,16448,17167
participant_5_CURRENTGOLD,500,0,83,408,672,79,293,220,475,268,693,982,1139,434,715,71,1042,167,634,1125,468,692,882,256,328,708,1587,2774,782,1002,108,816,391,936,1173,1477,500,1629,1667
participant_5_LEVEL,1,1,1,3,4,5,5,6,7,7,8,8,9,9,10,11,11,11,12,12,13,13,13,13,13,13,14,14,15,15,15,15,16,16,16,16,17,17,18
participant_5_MINIONSKILLED,0,0,3,15,23,25,30,36,44,44,58,64,64,69,75,81,84,84,86,89,96,99,100,100,100,111,115,118,129,134,135,135,140,151,152,158,158,178,182
participant_5_KILLS,0,0,0,0,0,1,1,1,1,1,1,1,1,1,1,1,1,1,1,1,1,1,1,1,1,1,1,1,1,1,1,1,1,1,1,1,1,1,1
participant_5_BUY,[],"[3854, 3340, 2003, 2003]",[2055],[],[],[1001],[],[],[],"[3067, 1029, 2055]",[],"[3009, 2055, 3364]",[],[],[],[],"[3105, 2055, 2055]","[3190, 1028]",[],"[3067, 1004]",[],[],[],[3114],[],[],[3107],[],[1033],[],[1057],[],[],[],[],[],[1011],[],"[3001, 2055, 2055]"
participant_5_SOLD,[],[],[],"[2010, 2003]",[2003],[],[2055],[],"[2010, 2010]",[],"[3854, 2055]","[1001, 3340]",[],[2055],[],[],[1029],"[3855, 3067, 3105]",[],[1028],[],[],[],[1004],[],[],"[3067, 3114]",[],[],[],[1033],[],[],[],[2055],[],[2055],[],"[1011, 1057]"
participant_5_UNDO,[],[],[],[],[],[],[],[],[],[],[],[],[],[],[],[],[],[],[],[],[],[],[],[],[],[],[],[],[],[],[],[],[],[],[],[],[],[],[]
participant_6_GOLD,500,500,1020,1432,1718,1951,2213,2495,2808,3481,3903,4131,4778,5095,5997,6429,6921,7284,8507,8834,9125,9517,10113,10370,10527,10749,10992,11128,11560,11683,12169,12667,12817,12939,13062,13731,14278,14775,14928
participant_6_CURRENTGOLD,500,0,520,932,1218,1451,1713,1995,2308,781,1203,131,778,1095,1997,39,531,894,2117,2444,135,527,1124,1380,287,510,752,889,1321,143,630,1127,78,200,322,992,239,736,828
participant_6_LEVEL,1,1,2,3,4,4,5,5,6,6,7,7,8,8,9,9,10,10,11,11,11,12,12,13,13,13,13,13,14,14,14,15,15,15,15,15,16,16,16
participant_6_MINIONSKILLED,0,0,0,0,0,0,0,0,0,0,0,0,0,0,0,4,4,4,4,4,7,7,8,8,9,9,9,10,16,16,17,17,19,19,19,24,24,24,24
participant_6_KILLS,0,0,1,1,1,1,1,1,1,2,3,3,4,4,6,6,6,6,9,9,9,9,10,10,10,10,10,10,10,10,11,11,11,11,11,12,12,12,12
participant_6_BUY,[],"[1039, 2031, 3340]",[],[],[],[],[],[],[],"[3145, 1026, 1001]",[],[4636],[],[],[],"[3020, 3070, 1027, 1058]",[],[],[],[],"[3003, 1058]",[],[],[],[1058],[],[],[],[],[3089],[],[],[4632],[],[],[],[3102],[],[]
participant_6_SOLD,[],[],[],[],[],[],[],[],[1039],[],[],"[3145, 1026]",[],[],[],"[1001, 2031]",[],[],[],[],"[3070, 1058]",[],[],[],[],[],[],[],[],"[1058, 1058]",[],[3003],[],[],[],[],[4632],[],[]
participant_6_UNDO,[],[],[],[],[],[],[],[],[],[],[],[],[],[],[],"[[0, 1027]]",[],[],[],[],[],[],[],[],[],[],[],[],[],[],[],[],[],[],[],[],[],[],[]
participant_7_GOLD,500,500,541,775,1127,1445,1795,2078,2200,2323,2710,3083,3282,3634,4020,4423,4755,4927,5368,5779,6181,6795,6988,7411,7533,7903,8045,8487,8610,8892,9532,9655,9777,10422,10628,10772,11321,11543,11835
participant_7_CURRENTGOLD,500,0,41,275,617,925,1265,1548,1670,243,555,918,1117,1469,170,573,905,1077,1578,489,891,230,423,846,368,738,880,1322,570,852,868,990,312,957,1163,1308,356,228,160
participant_7_LEVEL,1,1,1,2,4,5,6,6,6,6,7,8,8,9,9,10,10,10,11,11,12,12,12,13,13,13,13,14,14,14,14,14,14,15,15,15,16,16,16
participant_7_MINIONSKILLED,0,0,1,8,19,28,38,47,47,47,54,65,69,74,85,95,100,100,107,110,119,129,130,143,143,152,154,154,154,160,172,172,172,180,185,186,186,186,190
participant_7_KILLS,0,0,0,0,0,0,0,0,0,0,0,0,0,0,0,0,0,0,0,0,0,0,0,0,0,0,0,1,1,1,1,1,1,2,2,2,2,2,2
participant_7_BUY,[],"[3340, 2031, 1036]",[],[],[],[],[],[],[],"[6670, 1018]",[2055],[],[],[],"[1038, 1001, 2055]",[],[],[],[6672],[6673],[],"[3086, 2055]",[],[],"[1053, 1018]",[],[],[],[1037],[],[3031],[],[3111],[],[],[],[3046],[1036],[1036]
participant_7_SOLD,[],[],[],[],[],[],[],[],[],[1036],[],[2055],[],[],[],[],[],[],"[2055, 2031, 6670, 1018]","[6670, 1018]",[],[2055],[],[],[],[],[],[],[],[],"[1038, 1037, 1018]",[],[1001],[],[],[],[3086],[],[]
participant_7_UNDO,[],[],[],[],[],[],[],[],[],[],[],[],[],[],[],[],[],[],"[[0, 6672]]",[],[],[],[],[],"[[0, 1053]]",[],[],[],[],[],[],[],[],[],[],[],[],[],[]
participant_8_GOLD,500,500,583,908,1204,1553,1931,2200,2475,2803,2939,3605,3832,4360,4980,5468,6421,6768,6891,7327,7933,8303,9014,9255,9594,9918,10265,10484,10796,11032,11837,12133,12624,12996,13118,13833,14355,14891,15044
participant_8_CURRENTGOLD,500,0,83,408,704,353,731,1000,1275,1603,239,905,232,760,1380,1868,971,568,91,527,38,408,1119,135,474,798,1146,14,326,563,1367,539,1030,1401,324,1039,411,947,469
participant_8_LEVEL,1,1,1,2,3,3,4,5,5,6,6,7,7,8,8,9,9,9,9,10,11,11,11,12,12,12,13,13,13,13,14,14,14,14,14,15,16,16,16
participant_8_MINIONSKILLED,0,0,3,15,22,26,38,46,52,61,62,73,74,85,96,106,113,113,113,127,132,140,150,151,159,167,167,168,168,171,174,180,192,198,198,206,206,220,220
participant_8_KILLS,0,0,0,0,0,0,0,0,0,0,0,0,3,3,3,4,6,8,8,9,9,9,9,9,9,9,10,12,12,12,12,13,13,13,13,13,13,13,14
participant_8_BUY,[],"[1055, 2003]",[],[],[],"[1042, 1036, 2003, 2003]",[],[1001],[],[3006],[],[],"[6670, 2003, 2055]",[1053],[],[6673],"[2003, 2003]","[3086, 1042, 1042]",[],[],"[3046, 2003, 2055]",[],[],[1037],[2003],[],[],[],[3031],[],"[3051, 3051]",[],[1057],[],[],[],"[3091, 1029]",[],[1031]
participant_8_SOLD,[],[],[],[2003],[],[],"[2003, 2003]",[],[],"[1001, 1042]",[],[],[1036],[2055],[2003],"[6670, 1053]","[2003, 2003]",[],[],[],"[1042, 3086, 1042]","[2003, 2055]",[],[],[],[2003],[],[],[1037],[],[],[],[1055],[],[],[],"[3051, 1057]",[],[1029]
participant_8_UNDO,[],[],[],[],[],[],[],[],[],[],[],[],[],[],[],[],[],[],[],[],[],[],[],[],[],[],[],[],[],[],"[[0, 3051]]",[],[],[],[],[],[],[],[]
participant_9_GOLD,500,500,622,812,1008,1484,1706,1861,2064,2285,2575,2968,3259,3464,3805,4234,4691,5206,5396,5537,5727,5918,6170,6341,6501,6642,6802,7317,7458,7612,7826,8147,8287,8438,8578,8938,9379,9619,9787
participant_9_CURRENTGOLD,500,0,47,237,433,609,831,986,1189,235,525,243,534,739,1080,1509,616,331,522,12,202,393,646,266,426,567,27,542,233,387,152,472,612,763,903,1263,804,1044,162
participant_9_LEVEL,1,1,1,2,2,3,4,4,5,5,6,6,7,7,8,8,9,9,10,10,10,10,10,10,11,11,11,11,11,12,12,13,13,13,13,13,14,14,14
participant_9_MINIONSKILLED,0,0,0,3,4,6,8,9,10,12,12,15,15,18,20,22,24,24,24,24,24,24,24,25,26,26,26,26,26,27,29,30,30,31,31,31,31,31,31
participant_9_KILLS,0,0,0,0,0,0,0,0,0,0,0,1,1,1,1,1,2,2,2,2,2,2,3,3,3,3,3,3,3,3,4,4,4,4,4,5,5,5,5
participant_9_BUY,[],"[1055, 2003, 3340]",[],[],[],"[1036, 1042, 2003]",[],[],[],[],"[3006, 1036, 1042, 2003]",[],"[6670, 1018]",[],[],[],"[6672, 1036, 3363]",[3133],[1018],[],"[3508, 2055]",[],[],"[3134, 1037, 1036]",[],[],[],"[3134, 1018]",[],[],[],"[6676, 2015]",[],[],[3086],[],"[3094, 1036]",[],[3123]
participant_9_SOLD,[],[],[],[],[2003],[],[],[2003],[],[],[1042],[2003],"[1036, 1042, 1036]",[],[],[],"[6670, 1018, 3340]",[1036],[],[],"[1055, 3133, 1018]",[],[],[2055],[],[],[],[1036],[],[],[],"[3134, 1037, 1018]",[],[],[],[],"[3086, 2015]",[],[1036]
participant_9_UNDO,[],[],[],[],[],[],[],[],[],[],[],[],[],[],[],[],[],[],[],[],[],[],[],"[[0, 3134]]",[],[],[],[],[],[],[],[],[],[],[],[],[],[],[]
team0_KILLS,0,0,0,0,2,2,3,3,5,6,6,8,8,8,8,8,9,12,13,14,15,15,16,19,20,20,22,24,25,26,28,29,29,29,29,29,29,32,34
team0_CURRENTGOLD,2500,20,466,1864,4148,2330,3917,2901,4695,3982,1802,3314,3499,2871,4446,3311,3245,4794,1925,3512,1965,2989,2437,4825,5998,1749,2347,2294,3030,4566,4168,2013,3392,4136,5322,5608,4503,5107,6451
team0_TOTALGOLD,2500,2520,2966,4364,6648,7725,9312,10541,12345,14172,15267,17629,18664,20161,21747,22726,25110,27994,29265,30852,33055,34679,36247,39455,41128,42519,44357,46374,48314,49850,52552,54021,55401,56994,58180,59086,60479,63586,66501
team0_LEVEL,5,5,6,12,17,19,24,26,29,31,33,36,38,39,42,43,45,47,48,51,52,54,55,58,58,62,62,64,66,66,70,70,71,71,74,74,75,75,79
team0_SBIRES,0,0,12,41,64,84,111,133,150,177,193,225,241,268,296,311,341,345,350,376,397,422,433,465,481,509,518,531,555,572,580,590,611,638,653,658,681,694,716
team1_KILLS,0,0,1,1,1,2,2,2,2,3,4,5,9,9,11,12,15,17,20,21,21,21,23,23,23,23,24,27,27,27,29,30,30,31,31,33,33,33,34
team1_CURRENTGOLD,2500,0,774,2260,3644,3417,4833,5749,6917,3130,3215,3179,3800,4497,5342,4060,4065,3037,4942,4597,1734,2250,4194,2883,1883,3321,4392,5541,3232,2947,3125,3944,2423,4257,3885,6079,2310,4584,3286
team1_TOTALGOLD,2500,2500,3349,4835,6229,7762,9188,10404,11572,13210,14870,16819,19415,21012,23542,25900,29155,31477,33921,35727,37584,39375,41317,42657,43558,44995,46765,49265,50805,51820,54172,56117,57315,59150,59978,62170,64652,67276,68761
team1_LEVEL,5,5,6,12,17,20,24,26,29,30,34,36,39,41,44,47,49,49,53,54,57,58,58,61,62,62,64,65,67,68,69,71,72,73,73,74,79,79,80
team1_SBIRES,0,0,7,41,68,85,114,138,153,164,186,217,222,246,276,308,325,325,334,354,378,399,412,427,437,465,471,476,493,508,527,534,553,579,585,605,605,639,647
delta_KILLS,0,0,-1,-1,1,0,1,1,3,3,2,3,-1,-1,-3,-4,-6,-5,-7,-7,-6,-6,-7,-4,-3,-3,-2,-3,-2,-1,-1,-1,-1,-2,-2,-4,-4,-1,0
delta_CURRENTGOLD,0,20,-308,-396,504,-1087,-916,-2848,-2222,852,-1413,135,-301,-1626,-896,-749,-820,1757,-3017,-1085,231,739,-1757,1942,4115,-1572,-2045,-3247,-202,1619,1043,-1931,969,-121,1437,-471,2193,523,3165
delta_TOTALGOLD,0,20,-383,-471,419,-37,124,137,773,962,397,810,-751,-851,-1795,-3174,-4045,-3483,-4656,-4875,-4529,-4696,-5070,-3202,-2430,-2476,-2408,-2891,-2491,-1970,-1620,-2096,-1914,-2156,-1798,-3084,-4173,-3690,-2260
delta_LEVEL,0,0,0,0,0,-1,0,0,0,1,-1,0,-1,-2,-2,-4,-4,-2,-5,-3,-5,-4,-3,-3,-4,0,-2,-1,-1,-2,1,-1,-1,-2,1,0,-4,-4,-1
delta_SBIRES,0,0,5,0,-4,-1,-3,-5,-3,13,7,8,19,22,20,3,16,20,16,22,19,23,21,38,44,44,47,55,62,64,53,56,58,59,68,53,76,55,69
