name,team0,team1
win,Win,Fail
firstBlood,True,False
firstTower,True,False
firstInhibitor,True,False
firstBaron,False,False
firstDragon,True,False
firstRiftHerald,False,True
towerKills,11,1
inhibitorKills,2,0
baronKills,0,0
dragonKills,4,0
riftHeraldKills,1,1
