name,team0,team1
win,Win,Fail
firstBlood,True,False
firstTower,True,False
firstInhibitor,True,False
firstBaron,False,False
firstDragon,False,True
firstRiftHerald,True,False
towerKills,8,1
inhibitorKills,1,0
baronKills,0,0
dragonKills,1,2
riftHeraldKills,1,0
