name,frame_0,frame_1,frame_2,frame_3,frame_4,frame_5,frame_6,frame_7,frame_8,frame_9,frame_10,frame_11,frame_12,frame_13,frame_14,frame_15,frame_16,frame_17,frame_18,frame_19,frame_20,frame_21,frame_22,frame_23,frame_24,frame_25,frame_26,frame_27,frame_28,frame_29,frame_30,frame_31,frame_32,frame_33,frame_34,frame_35,frame_36,frame_37,frame_38,frame_39
nameStamp,Tstart,Tearly,Tearly,Tearly,Tearly,Tearly,Tearly,Tearly,Tearly,Tearly,Tearly,Tmid,Tmid,Tmid,Tmid,Tmid,Tmid,Tmid,Tmid,Tmid,Tmid,Tmid,Tmid,Tmid,Tmid,Tmid,Tmid,Tmid,Tmid,Tmid,Tmid,Tmid,Tmid,Tmid,Tmid,Tend,Tend,Tend,Tend,Tend
timestamp,0,60028,120039,180055,240074,300088,360103,420116,480129,540142,600168,660187,720210,780231,840251,900265,960280,1020281,1080284,1140304,1200316,1260331,1320341,1380355,1440362,1500373,1560381,1620395,1680414,1740420,1800439,1860455,1920471,1980492,2040524,2100526,2160557,2220584,2280606,2340606
participant_0_GOLD,500,500,521,727,871,993,1116,1238,1416,1634,1756,1879,2107,2271,2478,3220,3343,3515,3637,3915,4169,4292,4477,4599,4722,4921,5086,5390,5790,5963,6085,6208,6664,7072,7446,7568,7692,7814,8420,8446
participant_0_CURRENTGOLD,500,500,21,227,371,493,266,388,216,434,556,279,497,311,168,510,633,805,927,1205,1459,1582,1767,1889,2012,411,226,180,580,753,875,998,179,587,961,58,182,304,200,-5054
participant_0_LEVEL,1,1,1,2,3,3,4,4,4,5,5,6,6,6,7,8,8,8,8,9,9,9,10,10,10,10,10,11,11,11,11,11,12,12,13,13,13,13,14,14
participant_0_MINIONSKILLED,0,0,0,5,6,6,6,6,9,9,9,9,12,14,19,19,19,19,19,25,29,29,33,33,33,38,41,52,60,60,60,60,71,84,94,94,94,94,95,95
participant_0_KILLS,0,0,0,0,0,0,0,0,0,0,0,0,0,0,1,1,2,2,2,3,5,6,6,6,6,6,6,6,7,8,8,8,9,9,9,9,9,10,10,10
participant_0_BUY,[],[],"[3340, 2031, 1039]",[],[],"[1052, 3364]",[],[],"[3145, 1028]",[],[],[],"[3020, 1052]",[],[1026],[],[],[4636],[],"[3191, 2420, 1029]",[],[],"[3157, 3057, 2055]",[],[],"[3113, 2055]",[],[],[],[1026],"[3100, 2055, 2055]",[],[1058],[],[],[1058],[],[],[],[]
participant_0_SOLD,[],[],[],[],[],[3340],[],[1039],[1052],[],[],[],[2422],[],[],[],[],"[3145, 1028, 1026]",[],[1052],[],[],"[1052, 1029, 2420, 2031]",[2055],[],[],[2055],[],[],[],"[3057, 3113, 1026]",[2055],[],[],[],[2055],[],[],[],[]
participant_0_UNDO,[],[],[],[],[],[],[],[],[],[],[],[],[],[],[],[],[],[],[],"[[0, 3191]]",[],[],[],[],[],[],[],[],[],[],[],[],[],[],[],[],[],[],[],[]
participant_1_GOLD,500,500,621,963,1198,1397,1736,1967,2279,2577,2833,3284,3540,3676,4099,4356,4779,5051,5463,5946,6793,7431,7773,8022,8396,8723,8891,9044,9613,10372,10602,11265,11762,12180,12302,12738,13084,13798,13920,13946
participant_1_CURRENTGOLD,500,500,121,463,698,462,801,1032,329,627,883,1334,355,491,64,321,744,116,528,61,908,1546,58,306,681,83,251,405,973,882,363,1025,273,690,813,29,374,1089,1211,1146
participant_1_LEVEL,1,1,2,3,3,3,4,4,5,6,6,7,7,8,8,8,9,9,10,10,11,12,12,12,13,13,13,13,14,15,15,15,16,16,16,17,17,18,18,18
participant_1_MINIONSKILLED,0,0,0,0,0,0,0,0,0,0,3,8,11,12,12,12,12,12,12,12,12,14,14,14,16,17,17,17,20,26,30,41,41,50,50,51,60,69,69,69
participant_1_KILLS,0,0,0,0,0,0,0,1,1,2,2,2,2,2,3,3,3,3,3,3,3,3,3,3,3,3,5,5,6,6,6,6,6,6,6,6,7,7,7,7
participant_1_BUY,[],"[1082, 2003, 2003, 2003]",[],[],[],[],"[1053, 2003]",[],[],[],"[1037, 1043, 2003, 2003]",[],"[3153, 2031, 2055]",[],"[1001, 1028, 2055]",[],[],"[3020, 1052]",[],[],"[4635, 1026]",[],[2055],[],"[4633, 3364]",[],[],"[3105, 2055]",[],[1028],[],[4630],[3135],[],[1011],[1052],[],[],[],[]
participant_1_SOLD,[],[],[],"[2003, 2003]",[2003],[],[],[],[],[2003],[],"[2003, 2003]","[1053, 1043, 1037]",[2055],[],[2055],[],[1001],[],[],"[1028, 1052, 2031]",[],[],[],"[4635, 1026, 3340]",[2055],[],[],[],[2055],[],[3105],[4630],[],[1028],[1082],[],[],[],[]
participant_1_UNDO,[],[],[],[],[],[],[],[],[],[],[],[],[],[],[],[],[],[],[],[],[],[],[],[],[],[],[],[],[],[],[],[],[],[],[],[],[],[],[],[]
participant_2_GOLD,500,500,542,927,1162,1417,1568,2101,2425,3402,3570,3915,4051,4250,4943,5261,5614,6264,6581,7262,7493,7995,8117,8387,8631,9123,9957,10100,10821,11108,11346,11690,11962,12336,12597,12719,13662,13875,14157,14183
participant_2_CURRENTGOLD,500,0,42,417,652,907,108,641,955,1932,125,460,46,245,163,481,834,249,566,1247,223,725,772,1042,236,728,1562,130,851,769,1006,1150,173,546,308,135,1077,1291,1573,348
participant_2_LEVEL,1,1,1,3,4,5,5,5,6,7,7,8,8,8,8,9,9,10,10,11,11,12,12,12,12,13,13,13,14,14,14,14,15,15,15,15,16,16,16,16
participant_2_MINIONSKILLED,0,0,1,14,20,28,30,35,44,49,54,64,65,70,70,78,85,88,95,106,107,115,115,120,123,137,139,140,148,148,153,158,158,168,172,172,173,179,184,184
participant_2_KILLS,0,0,0,0,0,0,0,0,0,1,1,1,1,1,1,2,2,3,3,3,4,5,5,5,5,5,5,5,5,5,5,5,5,5,5,5,5,5,5,5
participant_2_BUY,[],"[3850, 3340, 2003, 2003]",[],[],[],[1001],[],[],[],[],"[1011, 3111, 3111, 3158, 3009]",[],[],[],"[1026, 3364]","[1052, 3116]",[],"[3191, 3108]",[],[1029],[],[],"[3157, 1026, 1027, 1052]",[],[],[3802],[],[1026],[],[],[],[],[6655],[],[],[1052],[],[],[3108],[]
participant_2_SOLD,[],[],[],[],[2003],[],[],[],[2003],[],"[1001, 1001, 1001, 1001]","[2419, 3850]",[],[],[3340],"[1026, 1011, 1052]",[2423],[3851],[],[],[],[],"[1029, 3108, 2424]",[],[],"[1052, 1027]",[],[],[],[],[],[],"[3802, 1026]",[],[],[],[],[],[1052],[]
participant_2_UNDO,[],[],[],[],[],[],[],[],[],[],"[[0, 3111], [0, 3111], [0, 3158]]",[],[],[],[],[],[],"[[0, 3191]]",[],[],[],[],"[[0, 1026]]",[],[],[],[],[],[],[],[],[],[],[],[],[],[],[],[],[]
participant_3_GOLD,500,500,584,853,1134,1340,1711,2008,2339,2703,3035,3554,4201,4506,4778,5062,5389,6455,6613,6795,7107,7607,7935,8386,9298,9624,10453,10575,11158,11912,12371,12913,13871,13993,14115,15680,15853,16386,16658,16684
participant_3_CURRENTGOLD,500,0,84,353,634,190,561,858,1189,303,635,1154,326,631,278,562,889,1955,413,595,307,807,1135,596,1508,134,963,1085,1668,723,1181,724,1681,1084,6,1571,1743,977,1249,884
participant_3_LEVEL,1,1,1,2,3,3,4,5,5,6,6,7,8,8,9,9,9,10,10,10,11,11,12,12,13,13,13,13,14,15,15,15,16,16,16,17,17,17,18,18
participant_3_MINIONSKILLED,0,0,3,11,18,23,33,43,51,57,69,79,84,95,95,100,111,118,120,121,132,137,143,147,157,157,166,166,174,178,183,187,188,188,188,204,207,222,222,222
participant_3_KILLS,0,0,0,0,0,0,0,0,0,0,0,0,0,0,0,1,1,1,1,1,1,1,1,1,1,1,1,1,1,1,1,1,1,1,1,1,1,1,2,2
participant_3_BUY,[],[],"[1055, 2003]",[],[],[],[1036],[],[1036],[],[],[3134],[],[1036],[1036],[3133],[],[],[],[],[],[],[],[],[],"[6691, 3111]",[1036],[1036],[],[],[],[],"[3134, 1037]",[],[],[3142],[],[],"[1036, 1036, 3115, 4628]",[]
participant_3_SOLD,[],[],[],[],[],[],[],"[2003, 2010, 2010]",[],[],[],"[1036, 1036]",[],[2010],[],"[1036, 1036]",[],[],[],[],[],[],[],[],[],"[3134, 3133, 2422]",[],[],[],[],[],[],"[1036, 1036]",[],[],"[3134, 1037]",[],[],"[3142, 1055, 6691, 3111]",[]
participant_3_UNDO,[],[],[],[],[],[],[],[],[],[],[],[],[],[],[],[],[],[],[],[],[],[],[],[],[],[],[],[],[],[],[],[],[],[],[],[],[],[],"[[0, 1036], [0, 1036]]",[]
participant_4_GOLD,500,500,523,677,872,1006,1301,1685,1913,2451,2585,2783,3043,3291,3642,4246,4596,5231,5545,5886,6730,7456,7596,7843,8134,8366,8552,8692,8976,9627,9852,10021,10311,10551,10706,10902,11209,11677,11942,11978
participant_4_CURRENTGOLD,500,0,23,177,372,206,501,885,1113,1651,285,483,743,991,492,-204,146,-169,145,186,1030,1756,61,308,600,316,502,-257,27,677,902,1071,111,352,506,267,574,1043,842,1028
participant_4_LEVEL,1,1,1,2,3,3,4,4,5,6,6,6,7,7,7,8,9,10,10,10,11,12,12,12,12,13,13,13,14,14,14,14,15,15,15,15,16,16,17,17
participant_4_MINIONSKILLED,0,0,0,0,0,0,0,0,1,5,5,5,5,7,7,8,9,9,15,15,18,20,20,24,25,30,30,30,30,35,35,37,37,43,44,47,48,59,66,67
participant_4_KILLS,0,0,0,0,0,0,0,0,0,0,0,0,1,1,1,1,1,3,3,3,3,4,4,5,7,7,8,8,8,9,9,10,12,12,12,15,15,15,15,15
participant_4_BUY,[],"[1055, 2003, 3340]",[],[],[],"[1036, 1001]",[],[],[],"[6670, 1042]",[],[],"[1037, 3006, 1018]",[],[6672],[],[],[],"[3009, 3133]",[],[1018],[],[],[3508],[],"[3133, 1018]",[],[],[],[6675],[],[1043],[],[1053],[3153],[],[],[1038],[],[]
participant_4_SOLD,[],[],[],[2003],[],[],[],[],[],[1036],[],[],"[1001, 1042]",[],"[6670, 1018, 1037]",[],[],[],[1001],[],[],[],[],"[1042, 3133, 1018]",[],[],[],[],[],"[3133, 1018]",[],[],[],[1055],"[1053, 1043]",[],[],[],[],[]
participant_4_UNDO,[],[],[],[],[],[],[],[],[],[],[],[],"[[0, 3006]]",[],[],[],[],[],[],[],[],[],[],[],[],[],[],[],[],[],[],[],[],[],[],[],[],[],[],[]
participant_5_GOLD,500,500,563,1210,1544,1911,2469,2690,3341,3906,4876,5227,5371,5788,6286,6787,6958,7301,7646,7818,8141,8263,8567,8752,8924,9347,9663,9785,10117,10289,10766,10917,11179,11616,12478,12758,12971,13317,14175,14300
participant_5_CURRENTGOLD,500,0,63,710,1044,1411,1969,390,1041,1606,2576,294,438,855,1353,1854,525,468,813,635,958,1080,334,519,241,664,980,253,584,356,834,984,47,484,1346,826,1039,1385,2243,2367
participant_5_LEVEL,1,1,1,3,4,5,6,7,7,8,9,9,9,10,11,11,11,11,12,12,12,12,12,12,12,13,13,13,13,13,14,14,14,15,16,16,16,16,17,17
participant_5_MINIONSKILLED,0,0,2,8,12,24,37,43,52,65,78,84,85,99,110,112,115,115,124,124,124,124,130,134,134,147,150,150,158,158,170,172,172,176,178,178,179,188,195,195
participant_5_KILLS,0,0,0,0,0,0,1,1,1,1,1,1,1,2,3,3,3,3,3,5,5,5,5,5,5,5,5,5,5,5,5,5,5,5,5,5,6,6,6,6
participant_5_BUY,[],"[1055, 2003, 3340]",[],[],[],[6670],[2055],"[1042, 2003]",[],[],[],[],"[1037, 3006]",[2055],[],[6672],[],[1053],[],[],"[1043, 1037]",[],"[3153, 3363, 2055]",[],[1033],[],[],[1057],[],[1042],[],[],[3051],[1042],[],[3091],[],"[1037, 1042]",[],[]
participant_5_SOLD,[],[],[],[],[2003],[],[],[],[2055],[2003],[],[],"[1042, 2422]",[],[2055],"[6670, 1037]",[],[],[],[],[],[],"[1055, 1053, 1043, 1037, 3340]",[2055],[],[],[],[1033],[],[],[],[],[1042],[],[],"[3051, 1057, 1042]",[],[],[],[]
participant_5_UNDO,[],[],[],[],[],[],[],[],[],[],[],[],[],[],[],[],[],[],[],[],[],[],[],[],[],[],[],[],[],[],[],[],[],[],[],[],[],[],[],[]
participant_6_GOLD,500,500,621,1018,1916,2178,2475,2598,2943,3165,3783,4225,4538,4788,5135,5493,5849,6428,6735,7204,7377,7499,7942,8164,8357,8549,8796,9018,9637,10272,10550,10703,10925,11401,12725,13192,13521,13880,14451,14526
participant_6_CURRENTGOLD,500,0,121,518,1416,1678,1975,198,543,765,1383,1825,538,788,35,393,749,28,335,804,577,699,242,464,257,449,696,219,837,257,536,688,186,662,1986,753,81,441,1012,126
participant_6_LEVEL,1,1,2,3,4,5,5,5,6,6,7,7,8,8,9,9,10,10,10,11,11,11,12,12,12,12,12,13,13,14,14,14,14,15,16,16,16,17,17,17
participant_6_MINIONSKILLED,0,0,0,0,0,0,0,0,0,0,6,6,6,8,8,8,8,8,8,13,13,13,13,13,14,14,14,14,20,23,24,25,25,25,28,28,28,31,33,33
participant_6_KILLS,0,0,0,0,1,1,1,1,2,2,3,4,4,5,6,6,6,6,6,6,6,6,6,6,7,7,9,9,9,9,9,9,11,11,12,12,13,14,17,17
participant_6_BUY,[],"[3854, 2003, 2003, 3340]",[],[],[],[],"[3009, 2055, 2055, 2003, 2003]",[],[],[],[],[],[],"[6670, 1018, 3364]",[],[],[6671],[],[3134],[],[],[],[],"[1037, 1018]",[],"[6676, 2055, 1036]",[],[],[1053],[],"[3074, 2055]",[],[],[],[],[],[3094],[],[],[]
participant_6_SOLD,[],[],[],[],[],[],[2055],[],[],[2003],[],"[2003, 2003, 2003, 3854]",[],[3340],[],[],"[6670, 1018]",[],[],[],[],[],[2055],[3855],[],"[3134, 1037, 1018]",[],[],[1036],[],[1053],[2055],[],[],[2055],[],[],[],[],[]
participant_6_UNDO,[],[],[],[],[],[],[],[],[],[],[],[],[],[],[],[],[],[],[],[],[],[],[],[],[],[],[],[],[],[],[],[],[],[],[],[],[],[],[],[]
participant_7_GOLD,500,500,626,955,1274,1979,2382,2843,3204,3445,3674,3901,4179,4343,5072,5413,5696,6273,6430,7178,7451,7629,7815,8048,8233,8384,8894,9295,9978,10876,10998,11234,12357,12529,13451,14035,14248,14370,14834,14909
participant_7_CURRENTGOLD,500,0,126,445,764,1469,97,548,899,1140,519,746,1024,1188,57,398,681,858,80,828,251,429,615,848,218,369,879,1280,1963,2861,333,570,462,634,487,1070,1284,106,570,484
participant_7_LEVEL,1,1,1,3,4,6,6,7,8,8,8,9,9,9,10,10,10,11,11,11,11,11,12,12,12,12,12,13,14,14,14,14,15,15,16,17,17,17,18,18
participant_7_MINIONSKILLED,0,0,6,15,26,30,36,47,55,62,62,68,73,75,81,87,96,98,100,100,100,103,107,109,112,114,114,126,134,134,134,137,137,137,137,160,161,161,166,166
participant_7_KILLS,0,0,0,0,2,2,2,2,2,2,2,2,2,2,2,2,2,3,3,3,3,3,3,3,3,3,3,3,4,4,4,4,4,4,6,7,7,8,9,9
participant_7_BUY,[],"[1035, 2031, 3340]",[],[],[],[],[],"[6660, 1057]",[],[],[],[],"[6664, 1001]",[],"[3111, 1029]",[],[],"[3066, 1031]",[],[],[1028],[],[3742],[],[1028],[],[],[3044],[],"[1037, 1028]",[],[],[3053],[],[],"[3076, 1011]",[3075],[],[],[1011]
participant_7_SOLD,[],[],[],[],[],[],[],[],[],[3340],[3513],[1035],"[6660, 1057]",[],[1001],[],[],[1029],[],[],[],[],"[3066, 1028, 1031]",[],[],[],[],[1028],[],[2031],[],[],"[1037, 3044, 1028]",[],[],[],"[3076, 1011]",[],[],[]
participant_7_UNDO,[],[],[],[],[],[],[],[],[],[],[],[],[],[],[],[],[],[],[],[],[],[],[],[],[],[],[],[],[],[],[],[],[],[],[],[],[],[],[],[]
participant_8_GOLD,500,500,584,976,1438,1874,2179,2329,2724,2888,3357,3619,3903,4396,4998,5199,5779,6101,6287,7446,7769,7891,8048,8192,8364,8575,8814,8936,9157,9454,9665,9934,10056,10459,11054,11177,12116,12238,12646,12721
participant_8_CURRENTGOLD,500,0,84,476,938,74,304,104,499,663,1132,1394,303,721,1323,299,879,301,487,1646,94,216,153,297,19,230,469,141,362,359,571,839,161,265,860,182,1122,69,477,371
participant_8_LEVEL,1,1,1,2,3,4,4,4,5,5,6,7,7,8,9,9,10,10,10,11,11,11,11,11,12,12,12,12,12,12,13,13,13,13,14,15,16,16,16,16
participant_8_MINIONSKILLED,0,0,3,16,27,33,35,37,50,52,66,74,80,84,90,92,109,109,113,121,121,121,123,124,124,127,129,129,135,138,138,140,140,140,143,143,145,145,145,145
participant_8_KILLS,0,0,0,1,1,1,1,1,1,1,1,1,1,1,2,2,2,2,2,2,2,2,2,2,2,2,2,2,2,2,2,2,2,2,3,3,3,3,3,3
participant_8_BUY,[],"[1055, 2003, 3340]",[],[],[],[],[],"[3051, 3057]",[],[],[],"[3078, 3047]",[],[],[],[],"[3133, 1028]",[3067],[],[1036],[],[],[3071],[],[1033],[],[],"[1057, 1028]",[],[3066],[],[],[4401],[],[],[3066],[],[],[],[]
participant_8_SOLD,[],[],[],[2003],[],[],[],[],[],[],[],"[3057, 3051]",[],[],[],[],[],[1028],[],[],[],[],"[3133, 3067, 1036]",[],[],[],[],[1033],[],[1028],[],[],"[1057, 3066]",[],[],[],[],[],[],[]
participant_8_UNDO,[],[],[],[],[],[],[],[],[],[],[],[],[],[],[],[],[],[],[],[],[],[],[],[],[],[],[],[],[],[],[],[],[],[],[],[],[],[],[],[]
participant_9_GOLD,500,500,565,759,1236,1635,1791,1974,2277,2433,3175,3447,3700,4010,4566,5061,5359,5972,6229,6664,7078,7274,7735,7913,8446,8691,10247,10603,10743,11408,11653,11794,13500,14096,15420,15967,16528,17273,18589,18718
participant_9_CURRENTGOLD,500,0,65,259,736,1135,141,324,627,783,1515,1787,2030,440,996,1491,289,902,59,494,908,1104,1565,268,801,197,1753,2108,1698,2363,133,274,1980,2576,3901,4447,2308,3053,4369,4518
participant_9_LEVEL,1,1,1,2,3,4,4,5,6,6,7,7,7,8,8,9,9,10,10,10,11,11,12,12,12,13,13,14,14,14,14,14,16,16,17,17,18,18,18,18
participant_9_MINIONSKILLED,0,0,2,3,5,8,9,12,13,14,23,25,28,32,34,41,46,55,56,57,68,76,90,92,93,93,101,101,101,115,117,117,127,131,140,147,151,164,173,173
participant_9_KILLS,0,0,0,0,0,2,3,4,4,4,4,4,4,4,5,5,5,6,6,7,7,7,7,7,7,7,8,8,8,10,10,10,12,12,13,13,13,13,13,13
participant_9_BUY,[],"[1054, 3340, 2003]",[],[],[],[],"[4635, 1001, 2055, 2003, 2003]",[],[],[],[1026],[],[],[],"[4633, 3020]",[],[],[1028],"[1011, 1052]",[],[1026],[],[],[],"[4637, 3364]",[],[],[],[],[],"[3157, 2003, 2003, 2003]",[],[1058],[],[1058],[],[],[3089],[],[]
participant_9_SOLD,[],[],[],[2003],[],[],[],"[2003, 2003]",[],[],[],[],[],[2055],"[4635, 1026, 1001]",[],[],[],[1028],[],[3340],[],[],[3513],"[1026, 1011, 1052, 3340]",[],[],[],[],[],[],[],"[2003, 2003, 2003]",[],[1054],[],[],"[1058, 1058]",[],[]
participant_9_UNDO,[],[],[],[],[],[],[],[],[],[],[],[],[],[],[],[],[],[],[],[],[],[],[],[],[],[],[],[],[],[],[],[],[],[],[],[],[],[],[],[]
team0_KILLS,0,0,0,0,0,0,0,1,1,3,3,3,4,4,6,8,9,12,12,13,16,19,19,20,22,22,25,25,27,29,29,30,33,33,33,36,37,38,39,39
team0_CURRENTGOLD,2500,1000,291,1637,2727,2258,2237,3804,3802,4947,2484,3710,1967,2669,1165,1670,3246,2956,2579,3294,3927,6416,3793,4141,5037,1672,3504,1543,4099,3804,4327,4968,2417,3259,2594,2060,3950,4704,5075,-1648
team0_TOTALGOLD,2500,2500,2791,4147,5237,6153,7432,8999,10372,12767,13779,15415,16942,17994,19940,22145,23721,26516,27839,29804,32292,34781,35898,37237,39181,40757,42939,43801,46358,48982,50256,52097,54570,56132,57166,59607,61500,63550,65097,65237
team0_LEVEL,5,5,6,12,16,17,21,22,25,30,30,34,36,37,39,42,44,47,48,50,53,56,58,58,60,62,62,63,67,69,69,69,74,74,75,77,79,80,83,83
team0_SBIRES,0,0,4,30,44,57,69,84,105,120,140,165,177,198,203,217,236,246,261,279,298,315,325,338,354,379,393,405,432,447,461,483,495,533,548,568,582,623,636,637
team1_KILLS,0,0,0,1,4,6,8,9,10,10,11,12,12,14,18,18,18,20,20,23,23,23,23,23,24,24,27,27,28,30,30,30,34,34,39,40,42,44,48,48
team1_CURRENTGOLD,2500,0,459,2408,4898,5767,4486,1564,3609,4957,7125,6046,4333,3992,3764,4435,3123,2557,1774,4407,2788,3528,2909,2396,1536,1909,4777,4001,5444,6196,2407,3355,2836,4621,8580,7278,5834,5054,8671,7866
team1_TOTALGOLD,2500,2500,2959,4918,7408,9577,11296,12434,14489,15837,18865,20419,21691,23325,26057,27953,29641,32075,33327,36310,37816,38556,40107,41069,42324,43546,46414,47637,49632,52299,53632,54582,58017,60101,65128,67129,69384,71078,74695,75174
team1_LEVEL,5,5,6,13,18,24,25,28,32,33,37,39,40,43,47,48,50,52,53,55,56,56,59,59,60,62,62,65,66,67,69,69,72,74,79,81,83,84,86,86
team1_SBIRES,0,0,13,42,70,95,117,139,170,193,235,257,272,298,323,340,374,385,401,415,426,437,463,472,477,495,508,520,548,568,583,591,601,609,626,656,664,689,712,712
delta_KILLS,0,0,0,-1,-4,-6,-8,-8,-9,-7,-8,-9,-8,-10,-12,-10,-9,-8,-8,-10,-7,-4,-4,-3,-2,-2,-2,-2,-1,-1,-1,0,-1,-1,-6,-4,-5,-6,-9,-9
delta_CURRENTGOLD,0,1000,-168,-771,-2171,-3509,-2249,2240,193,-10,-4641,-2336,-2366,-1323,-2599,-2765,123,399,805,-1113,1139,2888,884,1745,3501,-237,-1273,-2458,-1345,-2392,1920,1613,-419,-1362,-5986,-5218,-1884,-350,-3596,-9514
delta_TOTALGOLD,0,0,-168,-771,-2171,-3424,-3864,-3435,-4117,-3070,-5086,-5004,-4749,-5331,-6117,-5808,-5920,-5559,-5488,-6506,-5524,-3775,-4209,-3832,-3143,-2789,-3475,-3836,-3274,-3317,-3376,-2485,-3447,-3969,-7962,-7522,-7884,-7528,-9598,-9937
delta_LEVEL,0,0,0,-1,-2,-7,-4,-6,-7,-3,-7,-5,-4,-6,-8,-6,-6,-5,-5,-5,-3,0,-1,-1,0,0,0,-2,1,2,0,0,2,0,-4,-4,-4,-4,-3,-3
delta_SBIRES,0,0,-9,-12,-26,-38,-48,-55,-65,-73,-95,-92,-95,-100,-120,-123,-138,-139,-140,-136,-128,-122,-138,-134,-123,-116,-115,-115,-116,-121,-122,-108,-106,-76,-78,-88,-82,-66,-76,-75
