name,team0,team1
win,Win,Fail
firstBlood,True,False
firstTower,True,False
firstInhibitor,False,False
firstBaron,False,False
firstDragon,True,False
firstRiftHerald,False,False
towerKills,4,1
inhibitorKills,0,0
baronKills,0,0
dragonKills,2,1
riftHeraldKills,0,0
