name,frame_0,frame_1,frame_2,frame_3,frame_4,frame_5,frame_6,frame_7,frame_8,frame_9,frame_10,frame_11,frame_12,frame_13,frame_14,frame_15,frame_16,frame_17,frame_18,frame_19,frame_20,frame_21,frame_22,frame_23,frame_24,frame_25,frame_26,frame_27,frame_28,frame_29,frame_30,frame_31,frame_32,frame_33,frame_34,frame_35,frame_36
nameStamp,Tstart,Tearly,Tearly,Tearly,Tearly,Tearly,Tearly,Tearly,Tearly,Tearly,Tearly,Tearly,Tearly,Tearly,Tearly,Tearly,Tmid,Tmid,Tmid,Tmid,Tmid,Tmid,Tmid,Tmid,Tmid,Tmid,Tend,Tend,Tend,Tend,Tend,Tend,Tend,Tend,Tend,Tend,Tend
timestamp,0,60005,120011,180042,240052,300053,360070,420109,480141,540148,600178,660188,720220,780242,840244,900256,960259,1020276,1080309,1140315,1200332,1260351,1320365,1380388,1440416,1500434,1560454,1620467,1680494,1740499,1800502,1860530,1920541,1980547,2040552,2100568,2160568
participant_0_GOLD,500,500,583,832,1505,1648,2009,2243,2365,2760,2924,3332,3657,3779,4098,4326,4557,5189,5430,5823,6145,6529,6756,7198,7471,7774,7925,8248,8370,8925,10423,10880,11355,11652,11927,12049,12154
participant_0_CURRENTGOLD,500,0,83,332,80,223,584,818,165,560,374,782,1107,679,998,351,582,814,255,648,370,754,981,1423,1196,449,200,523,645,17,1515,1972,247,544,819,222,146
participant_0_LEVEL,1,1,1,3,4,4,5,6,6,7,7,7,8,8,9,9,9,10,10,10,11,11,12,12,12,12,12,13,13,13,14,14,14,15,15,15,15
participant_0_MINIONSKILLED,0,0,3,10,15,16,30,36,36,42,44,57,69,69,74,77,79,91,98,105,111,123,129,129,129,135,137,140,140,146,148,163,163,169,174,174,174
participant_0_KILLS,0,0,0,0,0,0,0,0,0,0,0,0,0,0,0,1,1,1,1,1,1,1,1,1,1,1,1,1,1,1,1,1,1,1,1,1,1
participant_0_BUY,[],"[3850, 2003, 2003, 3340]",[],[],[],[],[],[],[],"[3028, 1004, 1004, 2055]",[],[],[],[],[],[3114],"[3113, 3364]",[],[],"[3504, 3117]",[],[],[1052],[],[],[],[3174],[],[],[],[],[],"[3028, 1004]",[],[3114],[],[]
participant_0_SOLD,[],[],[],[],[],[],[],"[2003, 2003]",[],[],[2055],[],[],[],[],"[3850, 1004, 1004]",[3340],[],[],"[3114, 3113, 2422]",[],[],[],[],[],[3851],"[1052, 3028]",[],[],[],[],[],[],[],[1004],[],[]
participant_0_UNDO,[],[],[],[],[],[],[],[],[],[],[],[],[],[],[],[],[],[],[],[],[],[],[],[],[],[],[],[],[],[],[],[],[],[],[],[],[]
participant_1_GOLD,500,500,620,1013,1424,1737,1994,2117,2493,2750,3143,3456,3609,4251,5212,5658,5992,6435,6727,7178,7615,7852,8463,8780,9122,9258,9668,10154,10319,10890,11140,11263,12306,12812,12934,13377,13482
participant_1_CURRENTGOLD,500,0,120,513,924,1237,1494,117,493,350,743,1056,1209,101,1062,1508,242,685,977,1428,1865,2102,2713,3030,3372,108,518,1005,394,201,451,573,216,723,845,287,332
participant_1_LEVEL,1,1,2,3,3,4,4,4,5,6,6,7,7,8,8,9,9,9,10,10,11,11,12,12,12,12,13,13,14,14,14,14,15,16,16,16,16
participant_1_MINIONSKILLED,0,0,0,0,0,0,0,0,3,3,3,3,4,12,13,19,19,19,19,19,20,21,23,23,23,23,23,24,27,27,27,27,36,46,46,46,46
participant_1_KILLS,0,0,0,0,0,0,0,0,0,0,0,0,0,0,0,0,1,2,2,2,2,2,2,2,2,2,2,2,2,3,3,3,3,3,3,3,3
participant_1_BUY,[],"[1055, 2003, 3340]",[],[],[],[],[],[],[],"[1038, 2015, 2003, 2055]",[],[],[],[],[],"[3095, 1001, 1042]",[],[3006],[],[],[],[],"[1038, 1018, 2003]",[],[],[],[],[3031],[],[],"[1018, 3086]",[],[],[],[3094],[1036],[]
participant_1_SOLD,[],[],[],[],[],[],[],[],[],[],[],[],[],[],[],"[1038, 2015]",[2003],"[1001, 1042]",[],[2055],[2003],[],[],[],[],[],[],"[1038, 1018]",[],[],[1018],[],[],[],[3086],[2003],[]
participant_1_UNDO,[],[],[],[],[],[],[],[],[],[],[],[],[],[],[],[],[],[],[],[],[],[],[],[],[],[],[],[],[],[],[],[],[],[],[],[],[]
participant_2_GOLD,500,500,625,948,1225,1550,1764,1984,2858,3158,3385,3688,4065,5116,5320,6165,6288,6837,6959,7768,8274,8549,8672,9011,9183,9306,9456,9579,10028,10150,10360,10656,11467,12034,12156,12383,12488
participant_2_CURRENTGOLD,500,0,125,448,725,1050,1264,334,1208,1508,1735,138,515,1566,320,1165,188,37,159,968,24,300,422,761,934,181,332,454,903,1026,411,707,1118,1684,1807,234,338
participant_2_LEVEL,1,1,1,3,4,5,6,6,7,8,8,9,9,10,10,10,10,11,11,11,12,12,12,13,13,13,13,13,13,13,14,14,14,15,15,15,15
participant_2_MINIONSKILLED,0,0,6,15,24,33,38,43,56,64,70,78,89,92,93,105,105,109,109,117,118,122,122,131,131,131,133,133,144,144,144,151,151,153,153,159,159
participant_2_KILLS,0,0,0,0,0,0,0,0,0,0,0,0,0,0,2,2,2,2,2,2,2,2,3,3,3,3,3,4,4,5,5,5,6,6,6,7,7
participant_2_BUY,[],"[1039, 2031, 3340]",[],[],[],[],[],[3136],[],"[1033, 1028]",[],[],[],[1401],[],[],[3151],[],[],[],[],[],[],[],[],"[3020, 3116]",[],[],"[1052, 1028]",[3916],[],[],[3165],[],[],[1011],[]
participant_2_SOLD,[],[],[],[],[],[],[],[],[],[],[],[],[],"[1028, 1039]",[],[],[3136],[],[],[],[],[],[],[],[],[2422],[],[],[2031],"[1028, 1052]",[],[],[3916],[],[],[],[]
participant_2_UNDO,[],[],[],[],[],[],[],[],[],"[[0, 1033]]",[],[],[],[],[],[],[],[],[],[],[],[],[],[],[],[],[],[],[],[],[],[],[],[],[],[],[]
participant_3_GOLD,500,500,562,853,1211,1508,1785,2110,2434,2662,2938,3236,3449,3845,4235,4523,5151,5643,5855,6358,6927,7078,7400,7522,7820,7942,8358,8508,8908,9724,10042,10479,10899,11260,11382,11602,11707
participant_3_CURRENTGOLD,500,0,62,353,711,1008,1285,1610,1934,37,313,611,824,1220,1610,98,726,718,930,1433,2002,2153,325,447,745,867,1283,133,533,1349,268,704,1125,1485,408,298,382
participant_3_LEVEL,1,1,1,2,3,4,4,5,6,6,6,7,7,8,8,8,9,9,10,10,11,11,11,11,11,11,12,12,12,13,13,14,14,15,15,15,15
participant_3_MINIONSKILLED,0,0,2,12,23,30,39,51,60,66,75,85,90,103,109,110,117,117,118,122,144,146,152,152,155,155,168,170,178,188,192,206,212,222,222,228,228
participant_3_KILLS,0,0,0,0,0,0,0,0,1,1,1,1,1,2,2,2,2,3,3,4,5,5,5,5,5,5,5,5,5,5,5,5,6,7,7,7,7
participant_3_BUY,[],"[1036, 3340, 2003, 2003, 2003]",[],[],[],[],[],"[3134, 1001, 2003, 2003]",[],[],[],"[3147, 2003, 2003]",[],[],"[3134, 1036]",[],"[3133, 1036]",[3142],[],[],"[3035, 1036]",[],[],[],[],[1037],[],[],[],[],"[3036, 1036]",[],[3134],[],[],[3814],[]
participant_3_SOLD,[],[],[],[],[],"[2003, 2003]",[2003],[1036],[],[2003],[2003],[3134],[],[2003],[],[],[1036],"[3133, 3134]",[],[2003],"[3340, 1036]",[],[],[3513],[],[],[],[],[],[],"[3035, 1037]",[],"[1036, 1036]",[],[],[3134],[]
participant_3_UNDO,[],[],[],[],[],[],[],[],[],[],[],[],[],[],[],[],[],[],[],[],[],[],[],[],[],[],[],[],[],[],[],[],[],[],[],[],[]
participant_4_GOLD,500,500,522,702,867,1016,1225,1389,1538,1673,1837,2002,2176,2310,2779,3311,3491,3921,4092,4422,4563,4758,5046,5277,5482,5667,5836,5976,6117,6376,6604,6778,7078,7400,7540,7681,7801
participant_4_CURRENTGOLD,500,0,22,202,367,516,725,889,1038,48,212,377,551,685,1154,1136,466,896,1067,47,188,383,236,467,672,858,161,301,442,701,929,1103,478,800,266,406,526
participant_4_LEVEL,1,1,1,2,3,4,4,5,6,6,6,7,7,7,8,8,8,8,9,9,9,9,10,10,10,10,10,10,11,12,12,13,13,14,14,14,14
participant_4_MINIONSKILLED,0,0,0,0,0,0,1,1,1,1,1,1,2,2,5,5,7,7,7,7,7,8,10,11,11,11,13,13,13,13,13,16,16,19,19,19,19
participant_4_KILLS,0,0,0,0,1,1,1,1,1,1,1,1,1,1,1,1,1,1,1,1,1,1,1,2,2,2,2,2,2,2,4,4,5,5,5,5,5
participant_4_BUY,[],"[1055, 2003, 3340]",[],[],"[1036, 1006, 1036, 2055]",[],[],[],"[3077, 1029, 1001]",[],[1036],[],[],"[1053, 1037, 1053, 1053]",[],[1037],[],[3074],[3047],[],"[1042, 1042]",[],[],[],[3101],[3057],[1028],[],[],[3078],[],[],"[3105, 3133]",[],[],[1053],[]
participant_4_SOLD,[],[],[],[2003],[],[],[],[],"[1036, 1006, 1036]",[],[],[2055],[],"[1036, 1036, 1036]",[],[],[],"[3077, 1053, 1037]",[1001],[],[],[],[],[],"[1042, 1042]",[],[],[],[],"[3101, 3057, 1028]",[],[],[],[],[],[1055],[]
participant_4_UNDO,[],[],[],[],[],[],[],[],"[[0, 1029]]",[],[],[],[],"[[0, 1053], [0, 1037], [0, 1053]]",[],[],[],[],[],[],[],[],[],[],[],[],[],[],[],[],[],[],[],[],[],[],[]
participant_5_GOLD,500,500,541,899,1036,1758,1895,2258,3180,3352,3855,4206,4393,4847,5093,5635,5834,6542,6924,7235,7358,7717,7839,8074,8724,9235,9594,10366,10807,10929,11425,11806,12609,12926,13049,13689,14867
participant_5_CURRENTGOLD,500,0,41,399,86,808,270,633,1555,427,130,481,668,322,568,1110,259,967,599,910,233,592,414,9,659,450,809,1581,2022,664,1161,1541,824,242,364,1005,1942
participant_5_LEVEL,1,1,1,3,3,5,5,6,7,8,8,9,9,10,10,11,11,11,12,12,12,13,13,13,13,14,14,15,15,15,15,16,16,16,16,17,18
participant_5_MINIONSKILLED,0,0,1,12,13,27,28,39,45,48,50,61,64,66,70,83,88,89,94,106,106,116,116,116,119,119,129,132,140,140,146,150,157,164,164,174,188
participant_5_KILLS,0,0,0,0,0,0,0,0,0,0,0,0,0,0,0,0,0,0,0,0,0,0,0,0,0,0,0,0,0,0,1,1,2,2,3,3,3
participant_5_BUY,[],"[1039, 2031, 3340]",[],[],[],[],"[3706, 1036]",[],[],[3044],[],[],[],"[1001, 1033, 1042]",[],[],[],"[3111, 1028]",[],[],[1401],[],[],[3101],[],[3057],[],"[3078, 1036]",[],[1036],[],[],[],[],[],[3812],[]
participant_5_SOLD,[],[],[],[],[],[],[1039],[],[],[1036],[],[],[],[],[],[],[],"[1001, 1033]",[],[],"[1028, 3706]",[],[],[1042],[],[],[],"[3101, 3057, 3044]",[],[],[],[],[],[],[],"[1036, 1036]",[]
participant_5_UNDO,[],[],[],[],[],[],[],[],[],[],[],[],[],[],[],[],[],[],[],[],[],[],[],[],[],[],[],[],[],[],[],[],[],[],[],[],[]
participant_6_GOLD,500,500,620,933,1133,1440,1563,1848,2240,2468,2775,3008,3330,3557,3780,4002,4470,4592,4924,5258,5380,5778,6154,6389,6754,7290,7703,8015,8372,8495,9192,9584,10435,10727,11532,11749,12242
participant_6_CURRENTGOLD,500,0,120,433,633,940,63,348,740,68,375,608,930,107,330,552,1020,392,724,1058,80,478,854,289,654,140,553,182,539,312,1009,1402,2252,2544,3349,666,1159
participant_6_LEVEL,1,1,2,3,3,4,4,4,5,5,6,6,7,7,7,8,8,8,9,9,9,10,10,10,11,12,12,12,13,13,14,14,15,15,15,16,16
participant_6_MINIONSKILLED,0,0,0,0,0,0,0,2,2,2,2,2,3,3,3,3,3,3,3,4,4,5,12,12,18,18,24,25,25,25,25,25,33,33,38,38,42
participant_6_KILLS,0,0,0,0,0,1,1,1,3,3,4,4,4,5,5,6,6,7,7,7,7,7,7,7,8,8,8,9,9,9,9,9,9,9,9,9,10
participant_6_BUY,[],"[1054, 2003, 3340]",[],[],"[1029, 2031]",[],"[3024, 2055]",[],[],"[3082, 1001]",[3110],[],[],[3067],[],[],"[3009, 1033]",[],[3211],[],[3065],[],[1042],"[1042, 1043]",[],[1057],[],[],[],"[3091, 1029]",[],[],"[3076, 3082]",[3075],[],[],[]
participant_6_SOLD,[],[],[],[],"[2010, 2003]",[],[1029],[2055],[],[],"[3082, 3024]",[],[],"[2010, 2010]",[],[],[1001],[],[1033],[],"[3211, 3067]",[],[],"[2031, 1042, 1042]",[],[],[],[],[],"[1043, 1057]",[],[],"[1029, 1054]","[3076, 3082]",[],[],[]
participant_6_UNDO,[],[],[],[],[],[],[],[],[],[],[],[],[],[],[],[],[],[],[],[],[],[],[],[],[],[],[],[],[],[],[],[],[],[],[],[],[]
participant_7_GOLD,500,500,583,899,1183,1431,1634,2273,2437,2693,2885,3169,3397,3554,3768,4093,4781,5037,5341,5596,5851,6162,7034,7311,7639,8082,8665,9242,9628,9919,10499,10956,11610,11732,11959,12081,12848
participant_7_CURRENTGOLD,500,0,83,399,683,931,684,1323,212,468,210,494,722,879,1093,418,256,512,816,271,526,837,409,686,1014,1457,2040,777,1163,1454,785,1241,1895,1088,214,337,403
participant_7_LEVEL,1,1,1,3,4,5,5,7,7,8,8,8,9,9,9,10,10,11,11,11,12,12,12,13,13,14,14,14,15,15,15,16,16,16,16,16,17
participant_7_MINIONSKILLED,0,0,3,11,20,24,26,39,42,50,54,63,70,72,78,86,90,95,99,103,111,118,118,124,129,130,135,140,144,149,154,165,178,178,180,180,187
participant_7_KILLS,0,0,0,0,0,0,0,0,0,0,0,0,0,0,0,0,1,2,2,2,2,2,4,4,6,7,8,9,9,9,10,10,12,12,15,17,20
participant_7_BUY,[],"[1055, 2003, 3340]",[],[],[],[],[],[],[],"[1038, 1036, 1001, 2003, 2003]",[],[],[],"[3133, 1036, 2003]",[],[],"[3508, 1053]",[],[3006],[],[],[],[],"[3133, 3105]",[3812],[3086],[],[],"[3046, 1038]",[],[],[],[],[3031],[],[],[]
participant_7_SOLD,[],[],[],[],[],[2003],[],[],[],[],[],"[2003, 2003]",[],[1036],[],[],"[1038, 3133, 1036]",[],[1001],[],[],[],[],[2003],"[3105, 1053, 3133]",[],[],[],[3086],[],[],[],[],[1038],[],[],[]
participant_7_UNDO,[],[],[],[],[],[],[],[],[],[],[],[],[],[],[],[],[],[],[],[],[],[],[],[],[],[],[],[],[],[],[],[],[],[],[],[],[]
participant_8_GOLD,500,500,583,867,1158,1560,1809,2144,2531,2696,3100,3459,3721,3948,4278,4568,5246,5934,6231,6626,6987,7271,8361,8596,9545,10242,11014,12144,12615,12776,13223,13603,14377,14717,15955,16877,18026
participant_8_CURRENTGOLD,500,0,83,367,658,1060,1309,1644,2031,146,550,909,1171,248,578,868,96,784,281,676,1037,1321,2411,466,915,212,984,2114,85,246,693,1074,1847,88,1326,2248,3376
participant_8_LEVEL,1,1,1,2,3,4,4,5,6,6,6,7,7,7,8,8,8,9,9,10,10,10,11,11,12,12,13,14,14,14,14,15,15,15,16,17,18
participant_8_MINIONSKILLED,0,0,3,12,21,34,42,51,63,66,79,89,97,103,111,117,123,132,132,143,147,156,169,169,173,173,174,184,187,188,188,188,188,190,194,194,194
participant_8_KILLS,0,0,0,0,0,0,0,0,0,0,0,0,1,1,1,1,1,1,1,1,1,1,1,1,1,1,1,1,1,1,1,1,1,1,1,1,1
participant_8_BUY,[],"[3854, 2003, 2003, 3340]",[],[],[],[],[],[],[],"[3067, 1029, 2055]",[],[],[],[3109],[],[1001],[],[3024],[],"[3364, 1033]",[],[],[],[3050],[],[3047],[],[],[3105],[],[1033],[],[],[3190],[],[],[]
participant_8_SOLD,[],[],[],[],[],[],[],[],"[2010, 2003]",[],[2055],"[3854, 2010]","[2010, 2003]","[3067, 1029]",[],[],[],[],[],[3340],[3855],[],[],"[1033, 3024]",[],[1001],[],[],[],[],[],[],[],"[3105, 1033]",[],[],[]
participant_8_UNDO,[],[],[],[],[],[],[],[],[],[],[],[],[],[],[],[],[],[],[],[],[],[],[],[],[],[],[],[],[],[],[],[],[],[],[],[],[]
participant_9_GOLD,500,500,522,706,862,1080,1236,1457,1681,1816,2002,2215,2768,2909,3172,3313,3659,4067,4307,4600,4831,4971,5350,5603,5969,6409,6624,7029,7386,7557,7885,8025,8292,8442,8883,9235,9713
participant_9_CURRENTGOLD,500,0,22,206,362,580,736,957,1181,141,327,540,1093,134,397,238,584,92,332,175,406,546,925,278,644,284,500,904,161,332,210,350,617,117,558,910,1388
participant_9_LEVEL,1,1,1,2,3,4,4,5,5,5,6,6,7,7,7,8,8,9,9,9,9,10,11,11,11,12,12,13,13,13,13,13,14,14,14,15,16
participant_9_MINIONSKILLED,0,0,0,3,4,6,7,9,11,11,14,15,18,18,21,21,24,28,31,35,36,36,37,37,39,39,39,40,40,42,42,42,42,43,43,43,44
participant_9_KILLS,0,0,0,0,0,0,0,1,1,1,1,1,1,1,1,1,2,2,2,2,2,2,3,3,3,3,4,5,5,5,5,5,5,5,5,5,6
participant_9_BUY,[],"[1056, 2003, 2003, 3340]",[],[],[],[],"[1056, 2003]",[],"[3196, 2055, 2003]",[],"[1001, 2031]",[],[],[],[],[3197],[3198],[],[],[3020],[],[],[3802],[],[],[],[],[3285],[],[],[1058],[],[],[1058],[3089],[],[]
participant_9_SOLD,[],[],[],[2003],[2003],[],[],[2003],[3200],[2003],[],[2055],[],[],[],[3196],[3197],[],[],[1001],[],[],[],[],[],[],[],"[3802, 2031]",[],[],[],[],[],"[1056, 1056, 1056, 1056]","[1058, 1058]",[],[]
participant_9_UNDO,[],[],[],[],[],[],[],[],[],[],[],[],[],[],[],[],[],[],[],[],[],[],[],[],[],[],[],[],[],[],[],[],[],"[[1056, 0], [1056, 0]]",[],[],[]
team0_KILLS,0,0,0,0,1,1,1,1,2,2,2,2,2,3,5,6,7,9,9,10,11,11,12,13,13,13,13,14,14,16,18,18,21,22,22,23,23
team0_CURRENTGOLD,2500,0,412,1848,2807,4034,5352,3768,4838,2503,3377,2964,4206,4251,5144,4258,2204,3150,3388,4524,4449,5692,4677,6128,6919,2463,2494,2416,2917,3294,3574,5059,3184,5236,4145,1447,1724
team0_TOTALGOLD,2500,2500,2912,4348,6232,7459,8777,9843,11688,13003,14227,15714,16956,19301,21644,23983,25479,28025,29063,31549,33524,34766,36337,37788,39078,39947,41243,42465,43742,46065,48569,50056,53105,55158,55939,57092,57632
team0_LEVEL,5,5,6,13,17,21,23,26,30,33,33,37,38,41,43,44,45,47,50,50,54,54,57,58,58,58,60,61,63,65,67,69,70,75,75,75,75
team0_SBIRES,0,0,11,37,62,79,108,131,156,176,193,224,254,278,294,316,327,343,351,370,400,420,436,446,449,455,474,480,502,518,524,563,578,609,614,626,626
team1_KILLS,0,0,0,0,0,1,1,2,4,4,5,5,6,7,7,8,10,12,12,12,12,12,15,15,18,19,21,24,24,24,26,26,29,29,33,35,40
team1_CURRENTGOLD,2500,0,349,1804,2422,4319,3062,4905,5719,1250,1592,3032,4584,1690,2966,3186,2215,2747,2752,3090,2282,3774,5013,1728,3886,2543,4886,5558,3970,3008,3858,5608,7435,4079,5811,5166,8268
team1_TOTALGOLD,2500,2500,2849,4304,5372,7269,8137,9980,12069,13025,14617,16057,17609,18815,20091,21611,23990,26172,27727,29315,30407,31899,34738,35973,38631,41258,43600,46796,48808,49676,52224,53974,57323,58544,61378,63631,67696
team1_LEVEL,5,5,6,13,16,22,22,27,30,32,34,36,39,40,41,45,45,48,50,51,52,55,57,58,60,64,65,68,70,70,71,74,76,76,77,81,85
team1_SBIRES,0,0,7,38,58,91,103,140,163,177,199,230,252,262,283,310,328,347,359,391,404,431,452,458,478,479,501,521,536,544,555,570,598,608,619,629,655
delta_KILLS,0,0,0,0,1,0,0,-1,-2,-2,-3,-3,-4,-4,-2,-2,-3,-3,-3,-2,-1,-1,-3,-2,-5,-6,-8,-10,-10,-8,-8,-8,-8,-7,-11,-12,-17
delta_CURRENTGOLD,0,0,63,44,385,-285,2290,-1137,-881,1253,1785,-68,-378,2561,2178,1072,-11,403,636,1434,2167,1918,-336,4400,3033,-80,-2392,-3142,-1053,286,-284,-549,-4251,1157,-1666,-3719,-6544
delta_TOTALGOLD,0,0,63,44,860,190,640,-137,-381,-22,-390,-343,-653,486,1553,2372,1489,1853,1336,2234,3117,2867,1599,1815,447,-1311,-2357,-4331,-5066,-3611,-3655,-3918,-4218,-3386,-5439,-6539,-10064
delta_LEVEL,0,0,0,0,1,-1,1,-1,0,1,-1,1,-1,1,2,-1,0,-1,0,-1,2,-1,0,0,-2,-6,-5,-7,-7,-5,-4,-5,-6,-1,-2,-6,-10
delta_SBIRES,0,0,4,-1,4,-12,5,-9,-7,-1,-6,-6,2,16,11,6,-1,-4,-8,-21,-4,-11,-16,-12,-29,-24,-27,-41,-34,-26,-31,-7,-20,1,-5,-3,-29
