name,team0,team1
win,Fail,Win
firstBlood,True,False
firstTower,True,False
firstInhibitor,False,True
firstBaron,False,True
firstDragon,True,False
firstRiftHerald,True,False
towerKills,3,10
inhibitorKills,0,2
baronKills,0,1
dragonKills,2,2
riftHeraldKills,2,0
