name,team0,team1
win,Fail,Win
firstBlood,False,True
firstTower,False,True
firstInhibitor,False,True
firstBaron,False,True
firstDragon,False,True
firstRiftHerald,False,False
towerKills,0,8
inhibitorKills,0,1
baronKills,0,1
dragonKills,1,2
riftHeraldKills,0,0
