name,frame_0,frame_1,frame_2,frame_3,frame_4,frame_5,frame_6,frame_7,frame_8,frame_9,frame_10,frame_11,frame_12,frame_13,frame_14,frame_15,frame_16,frame_17,frame_18,frame_19,frame_20,frame_21,frame_22,frame_23,frame_24,frame_25,frame_26,frame_27,frame_28,frame_29,frame_30,frame_31
nameStamp,Tstart,Tearly,Tearly,Tearly,Tearly,Tearly,Tearly,Tearly,Tearly,Tearly,Tearly,Tearly,Tearly,Tearly,Tearly,Tearly,Tmid,Tmid,Tmid,Tmid,Tmid,Tmid,Tmid,Tmid,Tmid,Tmid,Tmid,Tend,Tend,Tend,Tend,Tend
timestamp,0,60019,120041,180056,240067,300087,360103,420120,480128,540145,600164,660182,720196,780208,840225,900249,960262,1020280,1080294,1140311,1200326,1260348,1320365,1380394,1440412,1500435,1560454,1620478,1680501,1740528,1800558,1860558
participant_0_GOLD,500,500,591,1266,1431,1798,2155,2501,2902,3116,3527,3872,4259,4500,5053,5751,6014,6376,6498,6621,6785,7326,7631,8642,8842,8964,9122,9245,9367,11122,11566,11600
participant_0_CURRENTGOLD,500,0,91,766,106,473,830,1176,1577,191,602,947,459,550,1103,851,364,276,398,521,685,1226,1531,242,442,164,323,445,567,2323,566,600
participant_0_LEVEL,1,1,1,3,3,5,6,7,7,8,8,9,9,9,10,10,11,11,11,11,11,12,12,13,13,13,13,13,13,14,14,14
participant_0_MINIONSKILLED,0,0,4,12,14,26,36,49,62,67,81,90,96,103,115,122,131,136,136,136,139,148,152,155,159,159,161,161,161,166,166,166
participant_0_KILLS,0,0,0,1,1,1,1,1,1,1,1,1,1,1,1,1,1,1,1,1,1,1,1,3,3,3,3,3,3,4,5,5
participant_0_BUY,[],"[1055, 2003, 3340]",[],[],"[1036, 1028, 2055]",[],[],[],[],"[3044, 3047]",[],[],"[3067, 2055]","[2003, 2003, 2003]",[],[3071],"[1028, 1036]",[3052],[],[],[],[],[],"[3053, 1029]",[],[1028],[],[],[],[],[3742],[]
participant_0_SOLD,[],[],[],[2003],[],[],[2055],[],[],"[1028, 1036]",[],[],[],[2003],[2003],"[2003, 3044, 3067]",[],"[2055, 1036, 1028]",[],[],[],[],[],[3052],[],[],[],[],[],[],"[1029, 1028]",[]
participant_0_UNDO,[],[],[],[],[],[],[],[],[],[],[],[],[],[],[],[],[],[],[],[],[],[],[],[],[],[],[],[],[],[],[],[]
participant_1_GOLD,500,500,621,828,1077,1286,1494,1766,2058,2181,2407,2720,2842,3334,3606,3888,4285,4524,4879,5541,5986,6129,6614,6976,7108,7256,7598,8056,8502,9157,9331,9365
participant_1_CURRENTGOLD,500,0,121,328,577,786,994,106,398,56,282,595,117,609,881,1163,1560,264,619,266,711,854,289,351,483,196,538,996,1442,1792,166,140
participant_1_LEVEL,1,1,2,2,3,3,4,4,5,5,5,6,6,6,7,7,7,8,8,9,9,10,10,10,10,11,11,12,12,13,13,13
participant_1_MINIONSKILLED,0,0,0,0,0,1,1,1,1,1,1,1,1,5,6,7,7,7,8,8,12,13,13,13,14,14,15,17,23,29,29,29
participant_1_KILLS,0,0,0,0,0,0,0,0,0,0,0,0,0,1,1,1,2,2,2,3,3,3,3,3,3,3,3,4,4,5,5,5
participant_1_BUY,[],"[1039, 2031, 3340]",[],[],[],[],[],"[3706, 1052, 3364, 2055]",[],[3108],[],[],[1402],[],[],[],[],"[3145, 1028, 3020, 1052]",[],"[3145, 1028]",[],[],[3152],[1029],[],[1052],[],[],[],[3191],[3157],[]
participant_1_SOLD,[],[],[],[],[],[],[],"[1039, 3340]",[],[1052],[],[],"[3108, 3706]",[],[2055],[],[],[],[],[1052],[],[],"[3145, 1028]",[],[],[],[],[],[],"[2031, 1029, 1052]",[3191],[]
participant_1_UNDO,[],[],[],[],[],[],[],[],[],[],[],[],[],[],[],[],[],"[[0, 1028], [0, 3145]]",[],[],[],[],[],[],[],[],[],[],[],[],[],[]
participant_2_GOLD,500,500,538,767,972,1148,1628,1792,1956,2121,2364,2514,2743,3027,3229,3494,3635,3834,4005,4570,4755,5046,5636,5968,6108,6434,6744,6902,7043,7500,7802,7841
participant_2_CURRENTGOLD,500,0,38,267,472,148,628,792,956,71,314,464,693,277,479,744,485,684,154,720,905,396,286,618,758,284,594,752,78,535,312,291
participant_2_LEVEL,1,1,1,2,3,4,4,4,5,5,5,6,6,7,7,7,8,8,8,8,8,9,9,10,10,10,11,11,11,12,12,12
participant_2_MINIONSKILLED,0,0,0,3,7,10,10,10,10,10,13,13,13,13,14,14,14,15,16,16,16,16,18,23,23,28,28,28,28,31,36,36
participant_2_KILLS,0,0,0,0,0,0,0,0,0,0,0,0,0,0,0,0,0,0,0,0,0,0,1,1,1,1,1,1,2,2,2,2
participant_2_BUY,[],"[1055, 3340, 2003]",[],[],"[1001, 2003, 2055]",[],[],[],[],"[1038, 2003, 2003]",[],[],[],"[2015, 1037, 1042]",[],[],[],"[3031, 2003]",[],"[3006, 2003, 2055]",[],[1042],"[3086, 1042]",[],[],"[3094, 2003, 2055]",[],[],[1038],[2055],[],[]
participant_2_SOLD,[],[],[],[],[2003],[],[2055],[],[],[2003],[],[],[],[2003],[],[2003],[],"[1038, 1037]",[2003],"[1001, 1042]",[],[],"[2055, 1042]",[2003],[],"[3086, 1042]",[2055],[2003],[],[2055],[],[]
participant_2_UNDO,[],[],[],[],[],[],[],[],[],[],[],[],[],"[[0, 2015]]",[],[],[],[],[],[],[],[],[],[],[],[],[],[],[],[],[],[]
participant_3_GOLD,500,500,521,832,1015,1175,1702,1950,2288,2411,2582,2934,3403,3691,4000,4368,4638,4844,5335,5508,5853,6129,7420,7924,8151,8273,8465,8779,9580,9703,9896,9931
participant_3_CURRENTGOLD,500,0,21,332,90,250,777,1025,1363,86,257,609,1078,191,500,868,1138,69,560,108,453,429,320,824,1051,148,341,654,155,203,396,431
participant_3_LEVEL,1,1,1,2,2,3,4,5,5,5,6,6,7,7,7,8,8,8,9,9,10,10,10,11,11,11,11,12,13,13,13,13
participant_3_MINIONSKILLED,0,0,0,11,12,14,25,32,42,42,45,55,67,72,80,91,99,104,118,118,127,132,138,147,149,149,153,154,162,162,162,162
participant_3_KILLS,0,0,0,0,0,0,0,0,0,0,0,0,2,2,2,2,2,2,2,2,2,3,3,4,4,4,4,5,5,6,6,6
participant_3_BUY,[],[],[],"[1052, 2003, 3340, 2003, 2003, 2003]",[],[1052],[],[],[],[3802],[],[],[3285],[],[1001],[],[],"[1082, 3020]",[],[],[],[],[1058],[],[],[1058],[],[],"[3089, 1028]",[1052],[],[]
participant_3_SOLD,[],[],[],[],[],[2003],[],[],[],"[1052, 1052]",[],[],"[2003, 2003, 3802]",[],[],[],[],[1001],[],[2003],[],[],[],[],[],[],[],[],"[1058, 1058]",[],[],[]
participant_3_UNDO,[],[],[],[],[],[],[],[],[],[],[],[],[],[],[],[],[],[],[],[],[],[],[],[],[],[],[],[],[],[],[],[]
participant_4_GOLD,500,500,521,643,780,937,1130,1266,1576,1699,2094,2397,3454,3653,4066,4308,4683,4875,5187,5476,5668,6241,6434,7580,7737,7859,7996,8668,8790,9450,9623,9658
participant_4_CURRENTGOLD,500,500,521,8,145,-133,10,146,456,149,544,847,4,203,316,558,933,-75,237,526,718,1291,234,1380,1537,409,546,1218,-209,-35,138,373
participant_4_LEVEL,1,1,1,1,2,2,3,4,5,5,6,7,8,8,8,9,9,9,10,10,11,11,11,11,12,12,12,13,13,13,13,13
participant_4_MINIONSKILLED,0,0,0,0,1,3,7,8,16,16,32,40,42,47,51,55,58,63,74,77,82,82,83,93,95,95,96,103,103,110,110,110
participant_4_KILLS,0,0,0,0,0,0,1,1,1,1,1,1,1,1,1,1,1,1,1,2,2,2,3,3,3,3,3,3,3,3,3,3
participant_4_BUY,[],"[3854, 3862, 2003, 2003]",[],[],[],"[1036, 2031]",[],[],[],"[3134, 1001]",[],[],[],"[1036, 1036]",[],[],[3133],[],"[3142, 3364]",[],[],[3047],"[1036, 1036]",[],[],"[3134, 1028]",[],[],[1037],[],[3814],[]
participant_4_SOLD,[],[],[],[],"[2003, 2003]",[],[],[],[],[1036],[],[],[],[],[3862],[],"[1036, 1036]",[],"[3133, 3134, 3340]",[],[],[1001],[3863],[],[],"[1036, 1036]",[],[],[2031],[],"[1037, 3134, 1028]",[]
participant_4_UNDO,[],"[[0, 3854]]",[],[],[],[],[],[],[],[],[],[],[],[],[],[],[],[],[],[],[],[],[],[],[],[],[],[],[],[],[],[]
participant_5_GOLD,500,500,542,748,1454,1639,1909,2045,2285,2597,2945,3220,3518,4037,4290,4796,5517,6112,6324,6984,7326,7751,8523,8759,8882,9374,10061,10429,10710,10832,11083,11218
participant_5_CURRENTGOLD,500,0,42,248,954,389,659,295,535,247,595,870,368,87,340,496,317,912,374,1034,193,618,1390,1626,99,591,579,946,427,150,400,335
participant_5_LEVEL,1,1,1,2,4,5,6,6,7,7,8,8,9,9,10,10,11,11,11,12,12,12,13,13,13,13,14,14,14,14,15,15
participant_5_MINIONSKILLED,0,0,1,6,19,20,28,29,33,44,54,59,66,70,74,75,85,86,87,95,95,108,121,122,122,122,126,133,135,135,135,135
participant_5_KILLS,0,0,0,0,1,1,1,1,1,1,1,1,1,1,1,2,2,3,3,4,4,4,4,4,4,5,5,5,5,5,5,5
participant_5_BUY,[],"[2033, 3340]",[],[],[],"[1036, 1028]",[],[3044],[],"[1001, 1029]",[],[],"[3047, 1042]",[3101],[],[1036],"[1053, 1036]",[],"[3144, 1028]",[],[3078],[],[],[],"[2420, 1043]",[],[3153],[],[3052],[1028],[],[]
participant_5_SOLD,[],[],[],[],[],[],[],"[1028, 1036]",[],[],[],[],"[1001, 1029]",[1042],[],[],[1036],[],"[1053, 1036]",[],"[2033, 3101, 3044]",[],[],[],[],[],"[3144, 1043]",[],[1028],[2420],[],[]
participant_5_UNDO,[],[],[],[],[],[],[],[],[],[],[],[],[],[],[],[],[],[],[],[],[],[],[],[],[],[],[],[],[],[],[],[]
participant_6_GOLD,500,500,521,743,1141,1498,1783,2010,2230,3039,3161,3604,3775,4187,4335,4457,4955,5698,5821,6173,6310,6601,6773,6896,7329,8083,8640,9260,9483,9925,10643,10924
participant_6_CURRENTGOLD,500,0,21,243,641,998,1283,1510,1730,2539,86,529,350,412,560,682,1180,1923,96,448,235,526,698,121,554,1308,415,1035,708,1150,1869,2149
participant_6_LEVEL,1,1,1,2,3,4,4,5,5,6,6,7,7,8,8,8,9,10,10,11,11,11,11,11,12,12,13,14,14,14,15,15
participant_6_MINIONSKILLED,0,0,0,0,0,0,0,0,0,1,1,1,4,4,4,4,4,6,6,6,7,12,12,12,13,17,17,25,25,25,26,30
participant_6_KILLS,0,0,0,0,0,0,0,0,0,1,1,1,1,1,1,1,1,2,2,2,2,2,2,2,2,3,3,3,3,3,4,4
participant_6_BUY,[],"[1041, 2031, 3340]",[],[],[],[],[],[],[],[],"[1412, 1001]",[],[1036],[1036],[],[],[],[],"[3133, 3134, 1033]",[],[3111],[],[],[3147],[],[],"[3134, 1036]",[],[1053],[],[],[]
participant_6_SOLD,[],[],[],[],[],[],[],[],[],[],[1041],[],[],[],[],[],[],[],"[1036, 1036]",[],"[1001, 1033]",[],[],"[3134, 3133]",[],[],[],[],[1036],[],[],[]
participant_6_UNDO,[],[],[],[],[],[],[],[],[],[],[],[],[],[],[],[],[],[],[],[],[],[],[],[],[],[],[],[],[],[],[],[]
participant_7_GOLD,500,500,605,895,1190,1522,1757,2155,2377,3513,4022,4331,4566,5095,6062,6389,7300,7909,8122,8564,9688,9964,10498,10887,11366,11870,12707,13105,15040,15163,15952,16087
participant_7_CURRENTGOLD,500,0,105,395,690,1022,207,605,127,1263,1772,106,341,170,1136,1464,2375,2984,247,189,1314,789,373,463,941,1446,543,940,2876,1198,1988,2062
participant_7_LEVEL,1,1,1,3,4,5,5,6,6,7,7,8,8,9,10,10,11,11,11,12,12,13,13,13,14,14,15,15,16,16,16,16
participant_7_MINIONSKILLED,0,0,5,14,22,31,38,51,51,57,61,69,72,79,88,90,99,104,105,105,108,113,115,120,124,127,131,134,143,143,146,146
participant_7_KILLS,0,0,0,0,0,0,0,0,0,2,3,3,3,4,5,5,5,5,5,6,9,9,10,10,11,12,13,13,17,17,18,18
participant_7_BUY,[],"[3340, 2031, 1036]",[],[],[],[],"[3133, 1001]",[],"[1036, 1036]",[],[],"[3142, 3111, 2055]",[],"[1036, 1036]",[],[],[],[],"[3147, 1036, 1028]",[3044],[],[3067],[3071],[1029],[],[],"[1038, 1031]",[],[],"[3026, 3133]",[],[]
participant_7_SOLD,[],[],[],[],[],[],[1036],[],[],[],[],"[3133, 1036, 1036, 1001]",[],[],[],[],[2055],[],"[1036, 1036]","[1028, 1036]",[],[],"[3044, 3067]",[],[],[],"[2031, 1029]",[],[],"[1038, 1031]",[],[]
participant_7_UNDO,[],[],[],[],[],[],[],[],[],[],[],[],[],[],[],[],[],[],[],[],[],[],[],[],[],[],[],[],[],[],[],[]
participant_8_GOLD,500,500,521,822,1405,1548,1825,2082,2322,3089,3246,3493,3819,4109,4334,4582,4917,5465,5671,6289,6411,6659,6999,7121,7410,7745,8401,8752,9696,9819,10860,11079
participant_8_CURRENTGOLD,500,0,21,322,905,1048,250,507,747,1514,1671,218,544,834,1059,1307,742,690,896,1514,336,584,924,171,460,795,331,682,1626,49,1090,1129
participant_8_LEVEL,1,1,1,2,3,3,4,5,5,6,6,6,7,7,8,8,8,9,9,10,10,10,10,10,11,11,12,12,13,13,14,14
participant_8_MINIONSKILLED,0,0,0,8,16,17,26,33,37,43,45,49,58,68,70,78,81,91,96,96,96,96,102,102,107,109,113,115,119,119,119,121
participant_8_KILLS,0,0,0,0,0,0,0,0,0,0,0,0,0,0,0,0,0,0,0,0,0,0,0,0,0,0,0,0,0,0,0,0
participant_8_BUY,[],"[3340, 3854, 3364, 2003, 2003]",[],[],[],[],[],[],"[1031, 1001, 2003]",[2003],[],[],"[3047, 2003]",[],[],[],"[1028, 1028, 2003]",[],"[3751, 2003, 2003]",[1029],[],[],[],[],[],[],"[3068, 1011]",[],[1031],[1029],[],[]
participant_8_SOLD,[],[3340],[],[],"[2003, 2003]",[],[],[],[],[],[2003],[],[1001],[],[3854],"[2003, 2003]",[],[],"[2003, 1028]","[2003, 2003]",[],[],[],[],[],[],"[1031, 1028, 3751]",[],[1029],[3855],[],[]
participant_8_UNDO,[],[],[],[],[],[],[],[],[],[],[],[],[],[],[],[],[],[],[],[],[],[],[],[],[],[],[],[],[],[],[],[]
participant_9_GOLD,500,500,523,685,979,1169,1339,1564,1699,2006,2175,2331,2584,2768,3068,3223,3514,3970,4110,4380,4521,4703,4893,5034,5270,5611,6182,6552,6861,7002,7191,7331
participant_9_CURRENTGOLD,500,0,23,185,479,669,839,1064,49,306,475,631,34,218,518,673,114,570,110,80,221,403,593,734,970,1311,232,603,412,252,441,581
participant_9_LEVEL,1,1,1,1,2,2,3,4,4,5,5,5,6,6,6,7,7,7,7,8,8,8,8,8,9,9,10,11,11,11,12,12
participant_9_MINIONSKILLED,0,0,0,2,3,6,8,13,13,15,17,18,19,22,28,29,31,39,39,39,39,42,42,42,43,43,46,47,47,47,48,48
participant_9_KILLS,0,0,0,0,1,1,1,1,1,2,2,2,2,2,2,2,2,2,2,3,3,3,3,3,3,3,3,3,3,3,5,5
participant_9_BUY,[],"[1055, 2003, 3340]",[],[],[],[],"[1001, 1036, 1036, 2055]",[],[],[],[],"[3133, 1038]",[],[],[],[],[3508],[3009],[],[],"[3086, 1038]",[],[],"[1018, 3363, 2055]",[],[],"[1037, 3031]",[],[],"[3086, 1042]",[],[]
participant_9_SOLD,[],[],[],[2003],[],[],[],[],[2055],[],[],"[1036, 1036]",[],[],[],[],"[1038, 3133]",[1001],[],[],[],[],[],[3340],[2055],[],"[1055, 1038, 1037, 1018]",[],[],[],[],[]
participant_9_UNDO,[],[],[],[],[],[],[],[],[],[],[],[],[],[],[],[],[],[],[],[],"[[0, 3086]]",[],[],[],[],[],[],[],[],[],[],[]
team0_KILLS,0,0,0,1,1,1,2,2,2,2,2,2,4,5,5,5,6,6,6,8,8,9,11,14,14,14,14,16,17,20,21,21
team0_CURRENTGOLD,2500,500,792,1701,1390,1524,3239,3245,4750,553,1999,3462,2351,1830,3279,4184,4480,1218,1968,2141,3472,4196,2660,3415,4271,1201,2342,4065,2033,4818,1578,1835
team0_TOTALGOLD,2500,2500,2792,4336,5275,6344,8109,9275,10780,11528,12974,14437,16701,18205,19954,21809,23255,24453,25904,27716,29047,30871,33735,37090,37946,38786,39925,41650,43282,46932,48218,48395
team0_LEVEL,5,5,6,10,13,17,21,24,27,28,30,34,36,37,39,41,43,44,46,47,49,52,52,55,56,57,58,61,62,65,65,65
team0_SBIRES,0,0,4,26,34,54,79,100,131,136,172,199,219,240,266,289,309,325,352,355,376,391,404,431,440,445,453,463,477,498,503,503
team1_KILLS,0,0,0,0,2,2,2,2,2,6,7,7,7,8,9,10,10,12,12,15,18,18,19,19,20,23,24,24,28,28,32,32
team1_CURRENTGOLD,2500,0,212,1393,3669,4126,3238,3981,3188,5869,4599,2354,1637,1721,3613,4622,4728,7079,1723,3265,2299,2920,3978,3115,3024,5451,2100,4206,6049,2799,5788,6256
team1_TOTALGOLD,2500,2500,2712,3893,6169,7376,8613,9856,10913,14244,15549,16979,18262,20196,22089,23447,26203,29154,30048,32390,34256,35678,37686,38697,40257,42683,45991,48098,51790,52741,55729,56639
team1_LEVEL,5,5,5,10,16,19,22,26,27,31,32,34,37,39,42,43,46,48,48,53,53,54,55,55,59,59,64,66,68,68,72,72
team1_SBIRES,0,0,6,30,60,74,100,126,134,160,178,196,219,243,264,276,300,326,333,341,345,371,392,398,409,418,433,454,469,469,474,480
delta_KILLS,0,0,0,1,-1,-1,0,0,0,-4,-5,-5,-3,-3,-4,-5,-4,-6,-6,-7,-10,-9,-8,-5,-6,-9,-10,-8,-11,-8,-11,-11
delta_CURRENTGOLD,0,500,580,308,-2279,-2602,1,-736,1562,-5316,-2600,1108,714,109,-334,-438,-248,-5861,245,-1124,1173,1276,-1318,300,1247,-4250,242,-141,-4016,2019,-4210,-4421
delta_TOTALGOLD,0,0,80,443,-894,-1032,-504,-581,-133,-2716,-2575,-2542,-1561,-1991,-2135,-1638,-2948,-4701,-4144,-4674,-5209,-4807,-3951,-1607,-2311,-3897,-6066,-6448,-8508,-5809,-7511,-8244
delta_LEVEL,0,0,1,0,-3,-2,-1,-2,0,-3,-2,0,-1,-2,-3,-2,-3,-4,-2,-6,-4,-2,-3,0,-3,-2,-6,-5,-6,-3,-7,-7
delta_SBIRES,0,0,-2,-4,-26,-20,-21,-26,-3,-24,-6,3,0,-3,2,13,9,-1,19,14,31,20,12,33,31,27,20,9,8,29,29,23
