name,frame_0,frame_1,frame_2,frame_3,frame_4,frame_5,frame_6,frame_7,frame_8,frame_9,frame_10,frame_11,frame_12,frame_13,frame_14,frame_15,frame_16,frame_17,frame_18,frame_19,frame_20,frame_21,frame_22,frame_23,frame_24,frame_25,frame_26,frame_27,frame_28,frame_29,frame_30,frame_31,frame_32,frame_33,frame_34,frame_35,frame_36,frame_37,frame_38,frame_39,frame_40,frame_41,frame_42,frame_43
nameStamp,Tstart,Tearly,Tearly,Tearly,Tearly,Tearly,Tearly,Tearly,Tearly,Tearly,Tearly,Tearly,Tearly,Tearly,Tearly,Tearly,Tmid,Tmid,Tmid,Tmid,Tmid,Tmid,Tmid,Tmid,Tmid,Tmid,Tmid,Tmid,Tmid,Tmid,Tmid,Tmid,Tmid,Tmid,Tmid,Tmid,Tmid,Tmid,Tmid,Tmid,Tend,Tend,Tend,Tend
timestamp,0,60006,120034,180056,240071,300076,360104,420104,480127,540140,600141,660172,720199,780206,840210,900211,960242,1020246,1080274,1140297,1200318,1260318,1320336,1380364,1440394,1500399,1560431,1620460,1680468,1740481,1800514,1860543,1920543,1980566,2040581,2100595,2160609,2220642,2280667,2340678,2400684,2460693,2520724,2580724
participant_0_GOLD,500,500,584,969,1431,1777,1977,2631,3130,3694,3964,4128,4570,4882,5427,5921,6277,6573,6893,7099,7445,7720,8081,8559,9030,9560,9899,10627,10826,11883,12228,12351,12829,14061,14184,14420,14542,14860,15186,15992,16268,16565,16687,16714
participant_0_CURRENTGOLD,500,0,84,469,931,1277,177,831,1330,1894,2164,128,570,432,977,1471,1827,273,593,49,395,670,1031,1509,30,561,449,1177,1377,783,779,352,829,2062,2184,221,343,660,987,1793,2249,1446,1568,1414
participant_0_LEVEL,1,1,1,3,4,5,5,7,7,8,9,9,10,10,11,11,12,12,12,12,13,13,13,14,14,14,14,15,15,15,16,16,16,16,16,17,17,17,17,18,18,18,18,18
participant_0_MINIONSKILLED,0,0,3,16,23,33,37,52,61,75,83,85,101,112,123,134,144,150,159,160,169,174,183,196,199,203,212,217,222,223,232,232,245,246,246,253,253,260,267,271,276,283,283,283
participant_0_KILLS,0,0,0,0,0,0,0,0,1,1,2,3,3,3,3,3,3,3,3,4,4,4,4,4,5,5,5,5,5,5,5,5,5,5,5,5,5,6,7,8,9,9,9,9
participant_0_BUY,[],"[2033, 3340]",[],[],"[1001, 2055]",[],[1052],[],[],"[3145, 1028, 3364, 2055, 2055]",[],[1026],[],[3020],[],[],[],[],"[4636, 1052]",[3191],[],[1052],[],[],[3157],[],[1033],[],"[4635, 1026]",[],[],[4633],[],[],[3916],[],[],[3165],[],[],"[1058, 1058]",[],[],[]
participant_0_SOLD,[],[],[],[],[2055],[],[],[],[],"[1052, 3340]",[],[2055],[],[1001],[],[],[],[2055],"[3145, 1028, 1026]",[1052],[],[],[],[],"[3191, 1052]",[],[],[],[4636],[],[],"[4635, 1026]",[],[],[],[],[],"[3916, 2033]",[],[],[1033],[],[],[]
participant_0_UNDO,[],[],[],[],[],[],[],[],[],[],[],[],[],[],[],[],[],[],[],[],[],[],[],[],[],[],[],[],[],[],[],[],[],[],[],[],[],[],[],[],[],[],[],[]
participant_1_GOLD,500,500,674,1013,1633,1983,2106,2228,2566,2979,3386,3644,3851,3998,4356,4663,4990,5967,6244,7034,7156,7514,7721,7928,8741,8933,10345,10468,10690,11132,11255,11378,12571,12893,13015,13138,13355,13586,13897,14640,15048,15355,15552,15579
participant_1_CURRENTGOLD,500,0,174,513,1133,1483,231,353,691,1104,611,69,276,423,781,1088,115,1092,169,159,281,639,846,213,1026,418,1831,703,925,118,240,364,1556,1878,701,823,1041,272,583,1325,834,1141,1338,1304
participant_1_LEVEL,1,1,2,3,4,4,4,5,5,6,6,7,7,8,8,9,9,10,10,11,11,11,11,12,12,13,13,13,13,14,14,14,14,15,15,15,15,15,16,16,17,17,17,17
participant_1_MINIONSKILLED,0,0,0,0,0,0,0,0,0,0,0,1,1,1,1,1,8,8,8,11,11,11,11,11,13,13,13,13,13,13,13,13,13,13,13,13,13,17,17,19,20,20,20,20
participant_1_KILLS,0,0,0,0,0,0,0,0,0,0,0,1,2,2,2,2,2,2,2,2,2,2,2,2,2,2,3,3,3,3,3,3,4,4,4,4,6,6,7,8,8,8,8,8
participant_1_BUY,[],"[3854, 2003, 2003]",[],[],[],[],[],"[1031, 1028, 1028]",[],[],[],"[6660, 1031]",[],[],"[1033, 1001, 2055]",[],[3111],[],[],[6662],[],[],[],[3076],[1028],[1033],"[1057, 1028]",[3364],[],[1011],[],[],[],"[3001, 1029, 1033]",[],[3105],[],[1033],[],"[3193, 1011]",[],[],[],[]
participant_1_SOLD,[],[],[],[2003],"[2010, 2003]",[2010],[],[2010],[],[],[],"[1028, 1028]",[],[3854],[],[],"[1001, 1033]",[2055],[],"[6660, 1031]",[],[],[],[3855],[],[],[1033],[3340],[],[1028],[],[],[],"[1011, 1057, 3076]",[],"[1033, 1029]",[],[],[],"[3105, 1033]",[],[],[],[]
participant_1_UNDO,[],[],[],[],[],[],[],"[[0, 1031]]",[],[],[],[],[],[],[],[],[],[],[],[],[],[],[],[],[],"[[0, 1028]]",[],[],[],[],[],[],[],[],[],[],[],[],[],[],[],[],[],[]
participant_2_GOLD,500,500,584,878,1064,1368,1603,1823,2384,2619,3344,3976,4147,4269,4629,4902,5046,5543,5715,6288,6410,6547,6739,7063,7775,7897,8095,8307,8471,8744,9124,9247,9469,9780,9902,10095,10523,11655,12127,13156,13653,13966,14102,14129
participant_2_CURRENTGOLD,500,0,84,368,179,483,283,503,1054,124,839,621,792,114,464,737,881,1378,215,323,445,147,339,663,210,332,80,292,546,819,1199,273,494,805,128,320,749,381,853,1882,194,506,643,-2046
participant_2_LEVEL,1,1,1,3,4,5,5,6,7,8,8,9,9,9,9,10,10,11,11,11,11,11,11,12,12,12,13,13,13,13,13,13,14,15,15,15,15,16,16,17,17,18,18,18
participant_2_MINIONSKILLED,0,0,3,11,15,26,32,38,44,50,65,68,71,71,81,92,93,101,101,101,101,102,107,115,116,116,116,117,119,119,130,130,131,132,132,136,139,145,145,150,150,150,151,151
participant_2_KILLS,0,0,0,0,1,1,1,1,1,1,1,1,1,1,1,1,1,2,2,3,3,3,3,3,4,4,6,6,6,7,7,7,8,8,8,8,8,8,8,8,8,8,8,8
participant_2_BUY,[],"[1035, 2031, 3340, 2031, 3340, 1039]",[],[],[],[],"[6660, 1001, 2055]",[],[],[],[1057],[3111],[],[],[],[],[6664],[],"[3066, 1028]",[1031],[],[],[],[3742],[],[3067],[],[3211],[],"[3065, 1028]",[],[],[],[],"[3076, 1011]",[],[],[3075],[],[],[1057],[],[],[]
participant_2_SOLD,[],[],[],[],[],[],[],[2055],[],[],[],[1001],[],[1039],[],[],"[6660, 1057]",[],[],[],[],[],[],"[2031, 3066, 1028, 1031]",[],[],[],[],[],"[3211, 3067]",[],[],[],[],[1028],[],[],"[3076, 1011]",[],[],[],[],[],[]
participant_2_UNDO,[],"[[3340, 0], [0, 2031], [0, 1035]]",[],[],[],[],[],[],[],[],[],[],[],[],[],[],[],[],[],[],[],[],[],[],[],[],[],[],[],[],[],[],[],[],[],[],[],[],[],[],[],[],[],[]
participant_3_GOLD,500,500,584,927,1106,1228,1512,1763,2185,2534,2677,3034,3568,3844,4051,4383,4548,4956,5532,5676,6036,6424,6588,6933,7106,7330,7528,7859,8241,8454,8792,8999,9509,9932,10172,10568,10863,11135,11542,12077,12956,13103,13533,13559
participant_3_CURRENTGOLD,500,0,84,427,606,78,362,213,635,984,1127,334,868,1144,751,1083,48,456,1032,26,386,374,538,883,181,405,603,334,716,154,492,350,859,1282,173,568,864,286,692,628,1506,1654,2263,564
participant_3_LEVEL,1,1,1,2,3,3,4,4,5,5,6,6,7,7,7,8,8,9,9,9,10,10,10,11,11,11,12,12,12,12,13,13,14,14,14,14,15,15,16,16,17,17,17,17
participant_3_MINIONSKILLED,0,0,3,13,16,16,25,30,44,54,55,61,71,79,84,96,98,110,122,123,131,143,146,155,155,158,158,166,175,176,184,189,198,205,208,214,220,220,228,232,238,238,238,238
participant_3_KILLS,0,0,0,0,0,0,0,0,0,0,0,0,0,0,0,0,0,0,0,0,0,0,0,0,0,0,0,0,0,0,0,0,0,0,0,0,0,0,0,0,1,1,2,2
participant_3_BUY,[],"[1055, 2003, 3340]",[],[],[],"[1036, 1001]",[],"[1036, 2003]",[],[],[],"[3134, 1036, 1036, 2003]",[],[],"[1053, 1053, 2003]",[],"[6692, 1036]",[],[],"[3006, 1036]",[],[3134],[],[],[1037],[],[],[1018],[],"[6676, 1036]",[],[1036],[],[],"[1038, 3035, 1018]",[],[],[3036],[],[1018],[],[],[1038],[1038]
participant_3_SOLD,[],[],[],[2003],[],[],[],[],[2003],[],[],"[1036, 1036]",[2003],[],"[1036, 1036]",[],"[3134, 1036, 1053]",[],[],"[2003, 1001]",[],"[1036, 1036]",[],[],[],[],[],[],[],"[3134, 1037, 1018]",[],[],[],[],"[1036, 1036, 1036]",[],[],"[3035, 1018]",[],[],[],[],[1055],[]
participant_3_UNDO,[],[],[],[],[],[],[],[],[],[],[],[],[],[],"[[0, 1053]]",[],[],[],[],[],[],[],[],[],[],[],[],[],[],[],[],[],[],[],"[[0, 1038], [1036, 0]]",[],[],[],[],[],[],[],"[[0, 1038]]",[]
participant_4_GOLD,500,500,565,759,915,1049,1261,1409,1599,1820,1954,2562,3125,3300,3483,3753,4023,4318,4794,4985,5260,5566,5737,6058,6455,6645,7235,7602,7757,7905,8188,8329,8841,9082,9271,9593,10363,10535,11444,12235,12681,12954,13170,13200
participant_4_CURRENTGOLD,500,0,65,259,415,549,761,109,299,520,654,262,825,1000,358,628,548,843,1319,110,385,692,862,383,380,520,260,628,782,430,713,854,1367,517,706,278,1048,771,1680,220,667,939,1155,625
participant_4_LEVEL,1,1,1,2,3,4,4,4,5,6,6,6,7,7,7,8,8,8,9,9,9,10,10,10,11,11,12,12,12,13,13,13,14,14,14,14,15,15,15,16,16,16,16,16
participant_4_MINIONSKILLED,0,0,2,3,4,4,8,9,12,14,14,19,22,24,26,27,31,35,37,37,39,39,40,46,49,49,49,53,54,54,59,59,64,64,67,73,74,74,74,74,84,88,89,89
participant_4_KILLS,0,0,0,0,0,0,0,1,1,1,1,1,1,1,1,1,1,1,1,1,1,1,1,1,1,2,2,3,3,4,4,4,4,5,5,5,5,5,5,5,5,5,5,5
participant_4_BUY,[],"[1055, 2003, 3340]",[],[],[],[],"[6660, 1001]",[],[],[],[],"[3105, 3068]",[],[1033],[],[],[],"[3111, 3066, 1036, 1036]",[],[3035],[],[],[],[],"[3133, 6694]",[],[1033],[],[],[4401],[1036],[1053],[],[],[],[3153],[],[],[],[],[],[3133],[],[]
participant_4_SOLD,[],[],[],[],[],[],[],[2003],[],[],[],"[6660, 3105]",[],[],[],[],[],"[1001, 1033]",[],"[1036, 1036]",[],[],[],[],"[3133, 3035]",[],[],[],[],"[1033, 3066]",[],[1036],[],[],[],[1053],[],[],[],[],[1055],[],[],[]
participant_4_UNDO,[],[],[],[],[],[],[],[],[],[],[],[],[],[],[],[],[],[],[],[],[],[],[],[],[],[],[],[],[],[],[],[],[],[],[],[],[],[],[],[],[],[],[],[]
participant_5_GOLD,500,500,584,867,1113,1424,1746,1945,2227,2462,2789,3134,3340,3610,3912,4252,4655,5025,5293,6030,6552,6842,7496,7619,8021,8172,8294,8586,8772,9479,9967,10301,10637,11039,11538,11856,12323,12545,12786,13006,13392,13606,14096,14172
participant_5_CURRENTGOLD,500,0,84,367,613,574,896,345,627,862,1189,1534,1740,210,512,852,1255,1625,693,1430,52,342,996,244,646,122,244,536,722,529,1017,1351,1688,2089,539,856,1324,446,687,907,1293,887,1377,1272
participant_5_LEVEL,1,1,1,2,4,5,6,6,7,7,8,9,9,9,10,10,11,11,11,12,12,12,13,13,14,14,14,14,15,15,15,16,16,16,17,17,17,17,17,17,18,18,18,18
participant_5_MINIONSKILLED,0,0,3,12,17,25,33,37,43,49,58,67,72,77,83,93,105,115,119,133,133,138,152,152,164,166,166,166,169,172,173,178,183,188,188,196,196,196,199,205,212,217,218,218
participant_5_KILLS,0,0,0,0,0,0,0,0,0,0,0,0,0,0,0,0,0,1,1,2,2,2,2,2,3,3,5,6,6,6,6,6,6,6,6,6,6,6,6,6,6,6,6,6
participant_5_BUY,[],"[1039, 2003, 3340, 2003, 2003]",[],[],[],[],[],[3108],[],[],[],"[1052, 1052, 1027]",[],[],[],[],[],"[6653, 2003, 2003]",[],[],[],[],"[3047, 2420, 3108]",[],[],"[3157, 3364, 2055]",[],[],[],[3116],"[2003, 2003, 2055]",[],[],[1026],[],[],[],[],[],[],"[4637, 1052]",[],[],[]
participant_5_SOLD,[],[],"[2003, 2003]",[],[2003],[],[],[],[],[],[1039],[],[3340],[],[3513],[],[],"[1052, 1027, 1052, 3108]",[2003],[2003],[],[],[2422],[],[],"[2420, 3108, 3340]",[2055],[],[],[],[],[],"[2003, 2003]",[],[],[],[],[],[],[2055],[1026],[],[],[]
participant_5_UNDO,[],[],[],[],[],[],[],[],[],[],[],[],[],[],[],[],[],[],[],[],[],[],[],[],[],[],[],[],[],[],[],[],[],[],[],[],[],[],[],[],[],[],[],[]
participant_6_GOLD,500,500,621,928,1128,1335,1507,1657,1952,2412,2634,2842,3064,3249,3402,3763,4018,4515,4861,5697,6222,6504,6668,7026,7592,7714,8681,9874,10233,10560,10887,11425,11652,11774,12414,12911,13033,13165,13499,14051,14223,14437,14909,15135
participant_6_CURRENTGOLD,500,0,121,428,628,835,1007,257,552,1012,1234,222,444,629,782,1143,1398,515,861,1697,2222,2504,318,676,1242,339,1306,2499,2858,185,338,875,1142,415,1055,1551,1674,1806,2139,2692,279,493,964,1150
participant_6_LEVEL,1,1,2,3,3,4,4,4,5,6,6,6,7,7,7,8,9,9,10,10,11,11,11,12,12,12,13,14,14,15,15,15,16,16,16,17,17,17,17,18,18,18,18,18
participant_6_MINIONSKILLED,0,0,0,0,0,0,3,5,5,5,5,5,5,9,10,12,14,14,18,22,27,32,34,40,44,44,50,58,68,70,70,74,74,74,81,91,91,92,92,93,93,98,103,103
participant_6_KILLS,0,0,0,0,0,0,0,0,0,0,0,1,1,1,1,1,1,1,1,1,1,1,1,1,1,1,1,1,1,1,1,1,1,1,1,1,1,1,1,1,1,1,1,1
participant_6_BUY,[],"[3850, 2003, 3340, 2003]",[],[],[],[],[],"[1004, 1052, 1001]",[],[],[],"[4642, 1028, 3067, 2055, 3364]",[2055],[],[],"[1033, 3111]",[],[],"[2055, 2055]",[6617],[],[1004],[],[3114],"[2055, 2055]",[],[],[],[],"[1026, 2055, 2055]",[],[],[6616],[],"[3114, 3067, 2055]",[],[1004],[],[],[],[3114],[],[],[]
participant_6_SOLD,[],[],[],[2003],[2003],[],[],[],[3850],[],[],"[1004, 1052, 1028, 3340]",[],[3851],[2055],"[1001, 1033]",[2055],[],[],"[3067, 4642]",[2055],[],[2055],[1004],[],[],[],[2055],[2055],[],[],[2055],"[3114, 1026]",[2055],[],[2055],[],[],[],[],[1004],[],[],[]
participant_6_UNDO,[],[],[],[],[],[],[],[],[],[],[],[],[],[],[],[],[],[],[],[],[],[],[],[],[],[],[],[],[],[],[],[],[],[],"[[0, 3114]]",[],[],[],[],[],[],[],[],[]
participant_7_GOLD,500,500,612,948,1225,1536,2081,2301,2750,3029,3256,4340,4652,5521,5873,6495,6802,7169,7333,8455,8795,9280,9445,9741,10030,10153,10875,11067,11190,12432,13010,14078,14285,14833,14992,15190,15404,15611,15839,16461,16647,17022,17981,18407
participant_7_CURRENTGOLD,500,0,112,438,715,1016,226,446,885,344,571,1645,217,1086,238,860,292,659,823,645,510,175,340,136,426,548,105,298,420,1662,991,2058,1016,1563,503,701,915,1122,1350,1972,2159,2533,3492,3677
participant_7_LEVEL,1,1,1,3,4,5,6,7,7,8,8,9,10,10,11,11,12,12,12,13,13,13,13,14,14,14,14,15,15,15,16,16,16,16,17,17,17,17,17,17,17,18,18,18
participant_7_MINIONSKILLED,0,0,5,15,24,32,36,42,48,54,60,69,77,86,96,102,109,115,118,118,121,125,128,134,137,137,137,141,141,148,152,159,159,162,162,162,165,165,165,165,166,172,175,175
participant_7_KILLS,0,0,0,0,0,0,0,0,0,0,0,0,0,0,0,0,0,0,0,0,0,0,1,1,1,1,1,1,1,2,3,3,3,3,4,4,5,5,5,5,5,5,5,5
participant_7_BUY,[],"[1055, 2003, 3340]",[],[],[],[1036],[],[3044],[],[],[],[],[],"[3057, 3067, 1029]",[],[],[],[],"[6632, 3047]",[],"[3133, 1029, 1031]",[],[],[1037],[],"[6333, 1036]",[],[],[],"[1053, 1036]",[],[],[],[],[3074],[],[],[3133],[],[],[],[3067],[],[]
participant_7_SOLD,[],[],[],[2003],[2010],[],[],[1036],[],[2010],[],[],[],[2010],[],[],[],[],"[3044, 3057, 3067, 1029, 2422]",[],[1029],[],[],[],[],"[1031, 3133, 1037]",[],[],[],[1036],[],[],[],[],"[1053, 1036]",[],[],[],[],[],[],[1055],[],[]
participant_7_UNDO,[],[],[],[],[],[],[],[],[],[],[],[],[],[],[],[],[],[],[],[],[],[],[],[],[],[],[],[],[],[],[],[],[],[],[],[],[],[],[],[],[],[],[],[]
participant_8_GOLD,500,500,584,783,1004,1294,1557,1850,2216,2465,2701,2995,3318,3719,4816,5135,5492,5865,6071,7109,7721,8139,8428,8950,9836,10063,10186,10885,11302,12478,12875,13785,14102,14325,16061,16618,16896,17318,17614,17989,19194,19469,20704,20781
participant_8_CURRENTGOLD,500,0,84,283,504,794,1057,50,416,665,901,20,343,744,1841,335,692,1065,96,1134,301,719,1008,1530,2416,219,341,1040,1458,2634,781,1690,38,185,1922,1229,1506,1929,2225,2600,3805,1030,2265,2131
participant_8_LEVEL,1,1,1,2,3,4,4,5,5,6,6,6,7,8,8,8,9,9,9,10,11,11,12,12,13,13,13,14,14,15,15,16,16,16,17,17,18,18,18,18,18,18,18,18
participant_8_MINIONSKILLED,0,0,3,8,13,22,30,37,48,55,59,60,68,76,89,94,103,113,118,126,138,139,145,156,160,160,160,166,173,189,190,197,204,204,216,216,216,216,222,228,239,244,244,244
participant_8_KILLS,0,0,0,0,0,0,1,1,1,1,1,2,2,4,4,5,5,5,5,8,8,9,9,9,9,9,10,10,10,12,13,15,15,16,16,16,16,16,16,17,17,17,18,19
participant_8_BUY,[],"[1056, 2003, 2003, 3340]",[],[],[],[],"[3916, 2031, 1027, 1001, 2055]",[],[],"[1052, 1052]",[],[],"[3802, 3108, 1028]",[],[6653],[],"[3020, 2055]",[],[],[3165],"[3363, 1028, 2055]",[1026],[],[1011],[],[],"[1052, 4637, 2055]",[],[],[],[4630],[],[3135],[],[1058],[],[],[],[],[],[],[],[],[]
participant_8_SOLD,[],[],[],[],"[2003, 2003]",[],[],[],[],"[2031, 2055]",[],[],"[1052, 1052]",[],"[3802, 3108]",[],[1001],[2055],[],"[3916, 1028]",[3340],[2055],[],[1028],[],[],"[1056, 1026, 1011, 1052]",[],[],[],[],[],"[4630, 2055]",[],[2055],[],[],[],[],[],[],[],[],[]
participant_8_UNDO,[],[],[],[],[],[],"[[0, 1027]]",[],[],[],[],[],[],[],[],[],[],[],[],[],[],[],[],[],[],[],[],[],[],[],[],[],"[[2055, 0]]",[],[],[],[],[],[],[],[],[],[],[]
participant_9_GOLD,500,500,523,817,992,1166,1421,1595,1811,1991,2271,2792,3012,3267,3593,3852,4022,4163,4303,4658,4899,5114,5285,5435,5700,5851,5991,6132,6272,6820,7096,7562,7703,7932,8160,8301,8491,8631,8772,8912,9102,9243,9558,9638
participant_9_CURRENTGOLD,500,0,23,317,492,666,921,110,326,506,786,67,212,468,793,252,422,563,553,59,299,264,435,35,151,301,441,582,722,270,546,1013,503,732,85,226,166,306,447,587,227,368,683,763
participant_9_LEVEL,1,1,1,2,3,4,4,4,5,5,6,6,6,7,7,7,8,8,8,9,9,9,9,9,10,10,10,10,10,11,12,12,13,13,13,14,14,14,14,14,14,15,15,15
participant_9_MINIONSKILLED,0,0,0,0,0,0,0,0,0,0,0,0,0,0,1,1,2,2,2,3,3,3,4,5,5,6,6,6,6,7,8,8,8,9,9,9,9,9,9,9,9,9,9,9
participant_9_KILLS,0,0,0,0,0,0,0,0,0,0,0,0,0,0,1,1,1,1,1,2,2,2,2,2,4,4,4,4,4,6,6,7,7,7,10,11,11,12,12,12,13,13,16,16
participant_9_BUY,[],"[1055, 2003, 3340]",[],[],[],[],[],[6670],[],[],[],"[1037, 1001]",[],[],[],"[6672, 1042, 1042]",[],[],"[3006, 1018, 2055]",[],"[3086, 1037, 1042]",[],[],[],[],"[3085, 6677, 1018]",[],[],[],[],"[3124, 1026]",[],[3115],"[2055, 3363]",[],[1058],[],[],[],[],[],"[3089, 2140]",[],[]
participant_9_SOLD,[],[],[],[],[2003],[],[],[],[],[],[],[],[],[],[],"[6670, 1037]",[],[],"[1001, 1042]",[],"[1018, 1042, 2055]",[],[],[],[],"[1037, 3086, 1042]",[],[],[],[],"[6677, 1018]",[],"[1055, 1026]",[3340],[],[2055],[],[],[],[],[],"[1058, 2140]",[],[]
participant_9_UNDO,[],[],[],[],[],[],[],[],[],[],[],[],[],[],[],[],[],[],[],[],[],[],[],[],[],[],[],[],[],[],[],[],[],[],[],[],[],[],[],[],[],[],[],[]
team0_KILLS,0,0,0,0,1,1,1,2,3,3,4,6,7,7,7,7,7,8,8,10,10,10,10,10,12,13,16,17,17,19,19,19,21,22,22,22,24,25,27,29,31,31,32,32
team0_CURRENTGOLD,2500,0,491,2036,3264,3870,1814,2009,4009,4626,5395,1414,3331,3113,3331,5007,3419,4042,3328,667,1892,2522,3616,3651,1827,2236,3223,3134,4346,2304,3423,2193,5105,6544,3892,2210,4045,2370,4795,5848,5450,5686,6967,1861
team0_TOTALGOLD,2500,2500,2991,4546,6149,7405,8459,9854,11864,13646,15325,17344,19261,20293,21946,23622,24884,27357,29178,31082,32307,33771,34866,36541,39107,40365,43102,44863,45985,48118,49587,50304,53219,55748,56544,57814,59646,61771,64196,68100,70606,71943,73044,73181
team0_LEVEL,5,5,6,13,18,21,22,26,29,33,35,37,40,41,42,46,47,50,51,52,54,55,55,59,60,61,64,65,65,67,69,69,72,74,74,75,77,78,80,83,85,86,86,86
team0_SBIRES,0,0,11,43,58,79,102,129,161,193,217,234,266,287,315,350,374,404,427,432,451,469,487,523,532,539,548,566,583,585,618,623,651,660,666,689,699,716,731,746,768,779,781,781
team1_KILLS,0,0,0,0,0,0,1,1,1,1,1,3,3,5,6,7,7,8,8,13,13,14,15,15,18,18,21,22,22,27,29,32,32,33,37,38,39,40,40,41,42,42,46,47
team1_CURRENTGOLD,2500,0,424,1833,2952,3885,4107,1208,2806,3389,4681,3488,2956,3137,4166,3442,4059,4427,3026,4965,3384,4004,3097,2621,4881,1529,2437,4955,6180,5280,3673,6987,4387,4984,4104,4563,5585,5609,6848,8758,7763,5311,8781,8993
team1_TOTALGOLD,2500,2500,2924,4343,5462,6755,8312,9348,10956,12359,13651,16103,17386,19366,21596,23497,24989,26737,27861,31949,34189,35879,37322,38771,41179,41953,44027,46544,47769,51769,53835,57151,58379,59903,63165,64876,66147,67270,68510,70419,72558,73777,77248,78133
team1_LEVEL,5,5,6,12,17,22,24,26,29,32,34,36,39,41,43,44,49,49,50,54,56,56,58,60,63,63,64,67,68,71,73,75,77,77,80,82,83,83,83,84,85,87,87,87
team1_SBIRES,0,0,11,35,54,79,102,121,144,163,182,201,222,248,279,302,333,359,375,402,422,437,463,487,510,513,519,537,557,586,593,616,628,637,656,674,677,678,687,700,719,740,749,749
delta_KILLS,0,0,0,0,1,1,0,1,2,2,3,3,4,2,1,0,0,0,0,-3,-3,-4,-5,-5,-6,-5,-5,-5,-5,-8,-10,-13,-11,-11,-15,-16,-15,-15,-13,-12,-11,-11,-14,-15
delta_CURRENTGOLD,0,0,67,203,312,-15,-2293,801,1203,1237,714,-2074,375,-24,-835,1565,-640,-385,302,-4298,-1492,-1482,519,1030,-3054,707,786,-1821,-1834,-2976,-250,-4794,718,1560,-212,-2353,-1540,-3239,-2053,-2910,-2313,375,-1814,-7132
delta_TOTALGOLD,0,0,67,203,687,650,147,506,908,1287,1674,1241,1875,927,350,125,-105,620,1317,-867,-1882,-2108,-2456,-2230,-2072,-1588,-925,-1681,-1784,-3651,-4248,-6847,-5160,-4155,-6621,-7062,-6501,-5499,-4314,-2319,-1952,-1834,-4204,-4952
delta_LEVEL,0,0,0,1,1,-1,-2,0,0,1,1,1,1,0,-1,2,-2,1,1,-2,-2,-1,-3,-1,-3,-2,0,-2,-3,-4,-4,-6,-5,-3,-6,-7,-6,-5,-3,-1,0,-1,-1,-1
delta_SBIRES,0,0,0,8,4,0,0,8,17,30,35,33,44,39,36,48,41,45,52,30,29,32,24,36,22,26,29,29,26,-1,25,7,23,23,10,15,22,38,44,46,49,39,32,32
