name,frame_0,frame_1,frame_2,frame_3,frame_4,frame_5,frame_6,frame_7,frame_8,frame_9,frame_10,frame_11,frame_12,frame_13,frame_14,frame_15,frame_16,frame_17,frame_18,frame_19,frame_20,frame_21
nameStamp,Tstart,Tearly,Tearly,Tearly,Tearly,Tearly,Tearly,Tearly,Tearly,Tearly,Tearly,Tearly,Tearly,Tearly,Tearly,Tmid,Tmid,Tmid,Tmid,Tmid,Tmid,Tmid
timestamp,0,60006,120028,180052,240055,300076,360101,420137,480162,540192,600219,660224,720256,780280,840307,900340,960353,1020356,1080385,1140407,1200440,1260440
participant_0_GOLD,500,500,562,804,1329,1570,1819,2088,2625,2904,3194,3645,4012,4382,4691,5030,5258,5380,5836,6999,7485,7527
participant_0_CURRENTGOLD,500,0,62,304,829,245,494,763,300,579,869,470,837,1207,501,340,133,255,711,159,645,477
participant_0_LEVEL,1,1,1,3,4,4,5,6,7,7,8,9,9,10,10,11,11,11,11,12,13,13
participant_0_MINIONSKILLED,0,0,2,9,13,17,24,33,36,45,55,57,71,81,88,97,103,103,115,123,135,135
participant_0_KILLS,0,0,0,0,1,1,1,1,2,2,2,3,3,3,3,3,3,3,3,5,5,5
participant_0_BUY,[],"[2033, 3340]",[],[],[],"[1042, 1042, 1052]",[],[],"[1043, 1001]",[],[],[1026],[],[],"[3115, 1042]",[3006],[1052],[],[],"[4635, 1026]",[],[]
participant_0_SOLD,[],[],[],[],[],[1042],[],[],[1042],[],[],[],[],[],"[1043, 1026, 1052]","[1001, 1042]",[],[],[],[1052],[],[]
participant_0_UNDO,[],[],[],[],[],[],[],[],[],[],[],[],[],[],[],[],[],[],[],[],[],[]
participant_1_GOLD,500,500,628,1033,1653,1910,2118,2530,3149,3774,3995,4123,4682,5459,5942,6219,6342,6713,7210,7731,7957,7999
participant_1_CURRENTGOLD,500,0,128,533,78,335,543,955,1574,2199,2420,348,907,1684,2167,2444,167,538,1035,506,732,774
participant_1_LEVEL,1,1,2,3,3,4,4,5,6,6,7,7,8,9,9,10,10,10,11,11,12,12
participant_1_MINIONSKILLED,0,0,0,0,0,0,0,0,2,4,5,5,5,5,5,9,9,17,17,22,24,24
participant_1_KILLS,0,0,0,0,1,1,1,1,2,3,3,3,4,5,5,5,5,5,5,5,5,5
participant_1_BUY,[],"[1039, 3340, 2031]",[],[],"[6660, 2055]",[],[],[],[],[],[],[3068],[],[],[],[],"[3111, 1011, 1028]",[],[],"[3801, 3067]",[],[]
participant_1_SOLD,[],[],[],[],[],[2055],[],[],[1039],[],[],[6660],[],[],[],[],[],[],[],[1028],[],[]
participant_1_UNDO,[],[],[],[],[],[],[],[],[],[],[],[],[],[],[],[],[],[],[],[],[],[]
participant_2_GOLD,500,500,597,941,1390,1610,1925,2236,2598,3076,3407,3794,4011,4402,4567,4689,5030,5312,6479,6602,6821,6863
participant_2_CURRENTGOLD,500,0,97,431,880,240,545,856,1218,1686,117,494,711,1102,177,224,130,412,1579,437,656,588
participant_2_LEVEL,1,1,1,3,4,5,6,6,7,8,8,9,9,9,10,10,10,11,11,11,11,11
participant_2_MINIONSKILLED,0,0,4,14,21,24,33,44,45,54,57,70,74,81,84,84,95,101,105,105,111,111
participant_2_KILLS,0,0,0,0,0,0,0,0,1,1,1,2,2,2,3,3,3,3,4,4,4,4
participant_2_BUY,[],"[1055, 2003, 3340]",[],[],[],[1055],[],"[1036, 2055, 2003, 2003]",[],[],[],"[6670, 1018, 1037]",[],[],[],[6672],[],[],[],"[3006, 1042]",[6677],[]
participant_2_SOLD,[],[],[],[2003],[],[],[],[],[2055],[2003],[2003],[1036],[],[],[],"[6670, 1037]",[],[],[],[],[1042],[]
participant_2_UNDO,[],[],[],[],[],[],[],[],[],[],[],"[[0, 1018]]",[],[],[],[],[],[],[],[],[],[]
participant_3_GOLD,500,500,562,803,1068,1218,1512,1648,2406,2654,2912,3338,3540,3683,4476,4713,4895,5038,5974,6345,6516,6600
participant_3_CURRENTGOLD,500,0,62,303,568,268,562,173,931,1179,1437,38,240,383,1176,188,370,513,1449,420,91,175
participant_3_LEVEL,1,1,1,2,3,3,4,4,5,6,6,6,7,7,8,8,8,8,9,10,10,10
participant_3_MINIONSKILLED,0,0,2,8,14,16,25,26,36,43,47,47,52,53,61,67,70,71,77,84,84,86
participant_3_KILLS,0,0,0,0,0,0,0,0,0,0,0,0,0,0,0,0,0,0,0,0,0,0
participant_3_BUY,[],"[3850, 3340, 2003, 2003]",[],[],[],[],[],[],[],[3145],[],[1001],[],[],[],[1026],[],[],[],[],[1028],[]
participant_3_SOLD,[],[],[],[],[],[2003],[2003],[],[],[],[],[],[],[],[],[],[],[3850],[],[],[],[]
participant_3_UNDO,[],[],[],[],[],[],[],[],[],[],[],[],[],[],[],[],[],[],[],[],[],[]
participant_4_GOLD,500,500,542,717,892,1080,1235,1409,1557,1715,1909,2235,2420,2554,2689,2857,3012,3191,3351,3604,3789,3837
participant_4_CURRENTGOLD,500,0,42,217,392,580,735,909,1057,165,359,385,570,704,839,157,312,491,651,904,689,737
participant_4_LEVEL,1,1,1,2,3,4,4,5,5,5,6,6,7,7,7,7,7,8,8,9,9,9
participant_4_MINIONSKILLED,0,0,0,0,0,1,1,1,2,2,4,5,7,7,7,8,8,8,8,10,10,10
participant_4_KILLS,0,0,0,0,0,0,0,0,0,0,0,0,0,0,0,0,0,0,1,1,1,1
participant_4_BUY,[],"[1056, 2003, 2003, 3340]",[],[],[],[1026],[],[],[],[],"[3802, 1001, 1029]",[],[],[],[6655],[2055],[1052],[],[],"[1026, 3113]",[],[]
participant_4_SOLD,[],[],[],[2003],[2003],[],[],[],[],[],[],[],[],[],"[1056, 3802, 1026]",[],[],[],[],[1052],[],[]
participant_4_UNDO,[],[],[],[],[],[],[],[],[],[],[],[],[],[],[],[],[],[],[],[],[],[]
participant_5_GOLD,500,500,562,846,1384,1744,2049,2391,2829,3092,3408,3681,3958,4143,4776,5085,5757,6271,6645,7243,7605,7742
participant_5_CURRENTGOLD,500,0,62,346,34,394,699,1041,29,292,608,331,608,793,626,127,799,113,487,1085,352,309
participant_5_LEVEL,1,1,1,3,3,5,5,6,7,7,8,8,8,9,10,10,12,12,12,13,13,13
participant_5_MINIONSKILLED,0,0,2,11,14,24,34,44,49,56,64,64,69,73,81,84,91,94,105,112,112,112
participant_5_KILLS,0,0,0,0,1,1,1,1,1,1,1,1,1,1,2,2,3,3,3,3,4,4
participant_5_BUY,[],"[1055, 2003, 3340]",[],[],"[3057, 2055, 2055]",[],[],[],"[3051, 1036]",[],[],[1053],[],[],[3067],"[3078, 2055]",[],[3077],[],[],"[3074, 2055]",[]
participant_5_SOLD,[],[],[],[],"[2010, 2055]",[],[],[],"[2010, 2003]",[],[2055],"[2010, 1036]",[],[],[],"[3057, 3051, 3067]",[],[2055],[],[],"[1055, 3077, 1053]",[]
participant_5_UNDO,[],[],[],[],[],[],[],[],[],[],[],[],[],[],[],[],[],[],[],[],[],[]
participant_6_GOLD,500,500,620,1018,1556,1838,2153,2505,2927,3530,4487,4715,5157,5871,6333,7430,7667,8060,8682,8959,9687,10029
participant_6_CURRENTGOLD,500,25,145,543,1081,263,578,930,252,855,1812,2040,32,746,1208,2305,542,935,657,534,1263,1604
participant_6_LEVEL,1,1,2,3,4,5,5,6,6,7,8,9,9,10,10,11,11,12,12,12,13,13
participant_6_MINIONSKILLED,0,0,0,0,0,0,1,2,2,2,2,2,2,4,4,11,12,12,12,12,12,12
participant_6_KILLS,0,0,0,0,0,0,0,1,1,1,1,2,2,3,3,4,4,5,6,6,7,7
participant_6_BUY,[],"[1055, 3340, 2003]",[],[],"[1036, 2055, 2003]",[],[],"[3134, 1036, 2055, 2003, 2003]",[],[3133],[1001],[],"[6691, 2003]",[],[1033],[],"[3111, 1036, 1037]","[1036, 1036]",[],[3134],[],[]
participant_6_SOLD,[],[],[],[2003],[],[],[2003],[1036],[],[1036],[],"[2003, 2055]","[3134, 3133]",[2003],[],[],"[1001, 1033]",[],[],"[1036, 1036]",[],[]
participant_6_UNDO,[],[],[],[],[],[],[],"[[0, 2003], [0, 2055]]",[],[],[],[],[],[],[],[],"[[0, 1036]]",[],[],[],[],[]
participant_7_GOLD,500,500,625,1004,1169,1543,1893,2337,2982,3316,3481,4035,4347,4874,5109,5765,6023,6724,7383,7555,8296,8380
participant_7_CURRENTGOLD,500,0,125,494,184,548,888,182,817,391,256,810,72,599,384,1040,73,74,732,505,1246,1380
participant_7_LEVEL,1,1,1,3,4,5,6,6,7,8,8,8,9,9,9,10,10,11,11,11,12,12
participant_7_MINIONSKILLED,0,0,6,18,20,32,42,44,53,62,65,72,78,83,87,93,93,98,107,107,118,121
participant_7_KILLS,0,0,0,0,0,0,0,0,0,0,0,1,1,1,1,2,2,3,3,3,3,3
participant_7_BUY,[],"[1056, 3340, 2003, 2003]",[],[],[],[],"[4642, 2003, 2055]",[],[1028],[],[],[],[6617],[],[],"[3020, 1026]",[],[1011],[],[4637],[],[]
participant_7_SOLD,[],[],[],[],[],[],[2003],[],[],[2003],[2003],[],"[1028, 4642]",[],[],[],[],[],[2055],"[1026, 1011]",[],[]
participant_7_UNDO,[],[],[],[],[],[],[],[],[],[],[],[],[],[],[],[],[],[],[],[],[],[]
participant_8_GOLD,500,500,542,777,972,1566,1761,1965,2164,2399,2649,3333,3528,4327,4517,4868,5699,6149,6440,6790,7023,7071
participant_8_CURRENTGOLD,500,0,42,277,472,1066,136,340,164,399,649,533,728,1527,67,418,1249,414,705,655,888,936
participant_8_LEVEL,1,1,1,2,3,4,4,5,5,6,6,7,7,8,8,8,9,9,10,10,10,10
participant_8_MINIONSKILLED,0,0,0,0,0,0,0,1,1,2,3,4,5,9,9,9,15,15,15,20,25,25
participant_8_KILLS,0,0,0,0,0,1,1,1,1,1,1,2,2,3,3,3,5,5,5,5,5,5
participant_8_BUY,[],"[3850, 2003, 2003]",[],[],[],[],"[4642, 2055]",[],"[1001, 3364, 2055]",[],[],[3067],[],[],"[6617, 3020]",[],[],"[1026, 1052]",[],[1028],[],[]
participant_8_SOLD,[],[],[],[],[],[2003],[],[2055],"[2003, 3850, 3340]",[],[],[],[],"[2055, 3851]","[3067, 4642, 1001]",[],[],[],[],[],[],[]
participant_8_UNDO,[],[],[],[],[],[],[],[],[],[],[],[],[],[],[],[],[],[],[],[],[],[]
participant_9_GOLD,500,500,562,867,1176,1473,1722,2127,2388,2779,3034,3574,3795,4408,5315,5963,6525,7192,7578,7750,7872,8010
participant_9_CURRENTGOLD,500,0,62,367,676,973,47,452,313,704,959,1499,470,1083,1990,688,1250,1017,1403,325,447,585
participant_9_LEVEL,1,1,1,2,3,4,4,5,5,6,6,7,7,8,9,9,10,10,11,11,11,12
participant_9_MINIONSKILLED,0,0,2,13,21,31,39,53,58,71,79,83,85,94,104,111,118,121,128,128,128,129
participant_9_KILLS,0,0,0,0,0,0,0,0,1,1,2,2,2,3,3,4,4,4,5,5,5,6
participant_9_BUY,[],"[1039, 2003, 3340, 2055]",[],[],[],[3111],[],[],[3134],[],[],[],"[6692, 1036]",[],[],[],"[3066, 1031, 1028]",[],[3742],[1028],[],[]
participant_9_SOLD,[],[],[],[],[2003],[],[],[2055],[],[],[1039],[],"[3340, 3134]",[],[],[3513],[],[],"[3066, 1028, 1031]",[],[],[]
participant_9_UNDO,[],[],[],[],[],[],[],[],[],[],[],[],[],[],[],[],[],[],[],[],[],[]
team0_KILLS,0,0,0,0,2,2,2,2,5,6,6,8,9,10,11,11,11,11,13,15,15,15
team0_CURRENTGOLD,2500,0,391,1788,2747,1668,2879,3656,5080,5808,5202,1735,3265,5080,4860,3353,1112,2209,5425,2426,2813,2751
team0_TOTALGOLD,2500,2500,2891,4298,6332,7388,8609,9911,12335,14123,15417,17135,18665,20480,22365,23508,24537,25634,28850,31281,32568,32826
team0_LEVEL,5,5,6,13,17,20,23,26,30,32,35,37,40,42,44,46,46,48,50,53,55,55
team0_SBIRES,0,0,8,31,48,58,83,104,121,148,168,184,209,227,245,265,285,300,322,344,364,366
team1_KILLS,0,0,0,0,1,2,2,3,4,4,5,8,8,11,12,15,18,20,22,22,24,25
team1_CURRENTGOLD,2500,25,436,2027,2447,3244,2348,2945,1575,2641,4284,5213,1910,4748,4275,4578,3913,2553,3984,3104,4196,4814
team1_TOTALGOLD,2500,2500,2911,4512,6257,8164,9578,11325,13290,15116,17059,19338,20785,23623,26050,29111,31671,34396,36728,38297,40483,41232
team1_LEVEL,5,5,6,13,17,23,24,28,30,34,36,39,40,44,46,48,52,54,56,57,59,60
team1_SBIRES,0,0,10,42,55,87,116,144,163,193,213,225,239,263,285,308,329,340,367,379,395,399
delta_KILLS,0,0,0,0,1,0,0,-1,1,2,1,0,1,-1,-1,-4,-7,-9,-9,-7,-9,-10
delta_CURRENTGOLD,0,-25,-45,-239,300,-1576,531,711,3505,3167,918,-3478,1355,332,585,-1225,-2801,-344,1441,-678,-1383,-2063
delta_TOTALGOLD,0,0,-20,-214,75,-776,-969,-1414,-955,-993,-1642,-2203,-2120,-3143,-3685,-5603,-7134,-8762,-7878,-7016,-7915,-8406
delta_LEVEL,0,0,0,0,0,-3,-1,-2,0,-2,-1,-2,0,-2,-2,-2,-6,-6,-6,-4,-4,-5
delta_SBIRES,0,0,-2,-11,-7,-29,-33,-40,-42,-45,-45,-41,-30,-36,-40,-43,-44,-40,-45,-35,-31,-33
