name,team0,team1
win,Win,Fail
firstBlood,False,True
firstTower,False,True
firstInhibitor,True,False
firstBaron,False,True
firstDragon,False,True
firstRiftHerald,False,False
towerKills,8,6
inhibitorKills,2,1
baronKills,1,1
dragonKills,4,2
riftHeraldKills,0,0
