name,team0,team1
win,Win,Fail
firstBlood,True,False
firstTower,True,False
firstInhibitor,False,True
firstBaron,True,False
firstDragon,True,False
firstRiftHerald,False,True
towerKills,9,6
inhibitorKills,1,1
baronKills,1,0
dragonKills,5,1
riftHeraldKills,0,2
