name,team0,team1
win,Win,Fail
firstBlood,True,False
firstTower,True,False
firstInhibitor,False,True
firstBaron,False,False
firstDragon,False,False
firstRiftHerald,False,False
towerKills,4,3
inhibitorKills,1,2
baronKills,0,0
dragonKills,0,0
riftHeraldKills,0,0
