name,frame_0,frame_1,frame_2,frame_3,frame_4,frame_5,frame_6,frame_7,frame_8,frame_9,frame_10,frame_11,frame_12,frame_13,frame_14,frame_15,frame_16,frame_17,frame_18,frame_19,frame_20,frame_21,frame_22,frame_23,frame_24,frame_25
nameStamp,Tstart,Tearly,Tearly,Tearly,Tearly,Tearly,Tearly,Tearly,Tearly,Tearly,Tearly,Tearly,Tearly,Tearly,Tearly,Tmid,Tmid,Tmid,Tmid,Tmid,Tmid,Tmid,Tmid,Tmid,Tmid,Tmid
timestamp,0,60028,120053,180079,240106,300126,360155,420177,480209,540231,600263,660290,720319,780343,840371,900398,960423,1020451,1080469,1140487,1200514,1260541,1320557,1380581,1440609,1500609
participant_0_GOLD,1400,1400,1827,2233,2736,3534,3912,4482,4987,5484,5925,6505,7054,7520,8137,8620,9085,9770,10703,11093,11586,12550,13487,13877,14489,14606
participant_0_CURRENTGOLD,1400,0,427,33,536,1334,262,32,537,1034,625,1205,1754,320,937,1420,635,1320,2253,1393,636,1600,1237,577,1189,1306
participant_0_LEVEL,1,3,4,5,6,7,7,8,9,10,11,12,13,13,14,14,15,16,17,17,18,18,18,18,18,18
participant_0_MINIONSKILLED,0,0,0,0,0,1,1,1,5,5,5,9,10,11,12,12,12,15,15,15,17,18,19,19,19,19
participant_0_KILLS,0,0,0,0,0,1,1,2,2,2,2,2,2,2,2,2,2,3,4,4,4,5,6,6,6,6
participant_0_BUY,[],"[4642, 1001, 2003]",[],"[1028, 3067]",[],[],"[4005, 3158]","[1004, 3114]",[],[],[1026],[],[],"[3504, 4630]",[],[],[3135],[],[],[1058],[1058],[],[3089],[3145],[],[]
participant_0_SOLD,[],[],[2003],[1028],[],[],"[3067, 4642, 1001]",[],[],[2052],[],[],[],"[3114, 1026]",[],[],[4630],[],[],[],[],[],"[1058, 1058]",[],[],[]
participant_0_UNDO,[],[],[],[],[],[],[],"[[0, 1004]]",[],[],[],[],[],[],[],[],[],[],[],[],[],[],[],[],[],[]
participant_1_GOLD,1400,1400,1925,2314,2879,4174,4719,5675,6154,6757,7648,8062,8593,9390,10589,11221,11812,12513,13053,13785,14230,15173,16192,16640,17481,17598
participant_1_CURRENTGOLD,1400,0,525,14,579,1874,244,1200,354,957,1848,662,193,990,2189,2821,1212,713,453,1185,1630,2573,3592,1840,2681,-602
participant_1_LEVEL,1,3,4,5,6,7,8,9,9,10,11,12,12,13,14,15,16,16,17,17,18,18,18,18,18,18
participant_1_MINIONSKILLED,0,0,4,4,9,14,18,26,28,35,41,42,48,56,64,71,76,87,87,95,99,112,125,127,130,130
participant_1_KILLS,0,0,0,0,0,3,3,4,4,4,5,5,5,6,7,7,7,7,7,8,8,9,9,9,9,9
participant_1_BUY,[],"[3070, 3177, 2003]",[],"[1018, 1001]",[],[],"[6670, 1037]",[],"[6672, 1036, 1036]",[],[],"[1053, 3133, 3133, 3077]",[3074],[],[],[],[3004],[3086],[3047],[],[],[],[],[3085],[],[3031]
participant_1_SOLD,[],[],[2003],[],[],[],[],[],"[6670, 1018, 1037]",[],[],"[1036, 1036, 1036, 1036]","[3077, 3133]",[],[],[],[3070],[3004],[1001],[],[],[],[],[3086],[],[3177]
participant_1_UNDO,[],[],[],[],[],[],[],[],[],[],[],"[[0, 3133], [0, 1053]]",[],[],[],[],[],[],[],[],[],[],[],[],[],[]
participant_2_GOLD,1400,1400,1879,2275,2975,3400,4210,5278,5883,6388,6872,8262,8802,9192,10267,10726,11482,12456,13422,13812,14448,14880,15851,16277,18086,18463
participant_2_CURRENTGOLD,1400,0,29,425,1125,200,1010,2078,383,888,622,2012,402,442,1517,1976,432,456,322,612,1248,1680,551,477,2286,2663
participant_2_LEVEL,1,3,4,5,6,7,7,9,9,10,11,12,12,13,14,14,15,16,17,17,18,18,18,18,18,18
participant_2_MINIONSKILLED,0,0,2,3,5,5,8,9,10,10,12,18,18,18,21,21,21,22,22,22,22,22,23,23,27,27
participant_2_KILLS,0,0,0,0,1,1,2,3,4,4,4,8,9,9,10,10,12,13,15,15,16,16,18,18,22,23
participant_2_BUY,[],"[3134, 1001]","[1036, 2003, 2003]",[],[],"[1053, 3047]",[],[],"[6692, 3134]",[],"[1037, 1036, 1028]",[],"[3814, 3133]",[1036],[],[],"[6694, 6694, 1036]",[3155],[3133],[3077],[],[],[3074],[2140],[],[]
participant_2_SOLD,[],[],[],[2003],[2003],"[1036, 1001]",[],[],"[3134, 1053]",[],[],[],"[1036, 3134, 1028]",[],[],[],"[3133, 1036, 3133, 1036]",[1036],[],[],[],[],[3077],[2140],[],[]
participant_2_UNDO,[],[],[],[],[],[],[],[],[],[],"[[0, 1037]]",[],[],[],[],[],"[[0, 6694]]",[],[],"[[0, 3133]]",[],[],[],[],[],[]
participant_3_GOLD,1400,1400,1913,2410,3017,3441,4026,4528,4991,5787,6368,7091,7582,8146,8738,9596,10048,10560,11569,12097,12785,13316,13871,14485,15735,15977
participant_3_CURRENTGOLD,1400,0,513,1010,1617,91,676,1178,391,1187,1018,491,982,546,1138,1996,2448,460,1469,1997,185,716,1271,1885,3135,3377
participant_3_LEVEL,1,3,4,5,6,7,8,8,9,10,11,12,13,13,14,14,15,16,17,17,18,18,18,18,18,18
participant_3_MINIONSKILLED,0,0,5,8,15,15,20,22,25,30,31,31,33,38,39,44,46,48,58,62,68,71,71,81,90,91
participant_3_KILLS,0,0,0,0,0,0,0,0,0,1,2,3,3,3,3,5,5,5,6,6,7,7,7,7,9,9
participant_3_BUY,[],"[3802, 2003, 2003]",[],[],[],"[1026, 3020]",[],[],[6655],[],"[3070, 1027]",[1058],[],[3003],[],[],[],[3165],[],[],[3157],[],[],[],[],[]
participant_3_SOLD,[],[],"[2003, 2003]",[],[],[],[],[],"[3802, 1026]",[],[],[],[],"[3070, 1058, 1027]",[],[],[],[],[],[3003],[],[],[],[],[],[]
participant_3_UNDO,[],[],[],[],[],[],[],[],[],[],[],[],[],[],[],[],[],[],[],[],[],[],[],[],[],[]
participant_4_GOLD,1400,1400,2021,2827,3378,3854,4279,4687,5237,6284,6946,7430,8033,8765,9369,9868,10442,11643,12292,12694,13210,13852,14362,14880,15583,15700
participant_4_CURRENTGOLD,1400,0,621,1427,1978,2454,479,87,637,1684,2346,30,633,115,719,1218,442,1643,992,1394,210,852,1362,1880,483,100
participant_4_LEVEL,1,3,4,5,6,7,8,8,9,10,11,11,12,13,13,14,15,16,17,17,18,18,18,18,18,18
participant_4_MINIONSKILLED,0,0,0,4,8,8,10,10,15,19,21,21,22,27,31,32,33,38,41,41,44,45,45,49,52,52
participant_4_KILLS,0,0,1,2,2,2,2,2,2,4,5,5,6,7,7,7,8,10,10,10,10,11,11,11,11,11
participant_4_BUY,[],"[3802, 2003, 2003]",[],[],[],[],"[6655, 1001]","[1033, 3111]",[],[],[],"[3102, 1029]",[],"[3191, 2420]",[],[],"[3157, 1028]",[],"[3067, 3108]",[],"[4629, 1028]",[],[],[],[3165],[2139]
participant_4_SOLD,[],[],[2003],[2003],[],[],[3802],"[1001, 1033]",[],[],[],[],[],[1029],[],[],"[3191, 2420]",[],[1028],[],"[3108, 3067]",[],[],[],[1028],[2139]
participant_4_UNDO,[],[],[],[],[],[],[],[],[],[],[],[],[],[],[],[],[],[],[],[],[],[],[],[],[],[]
participant_5_GOLD,1400,1400,1835,2557,2995,3690,4662,5426,6084,6504,7084,8179,8599,9174,9603,10062,11694,12084,12759,13382,13897,14322,15349,16012,16384,16591
participant_5_CURRENTGOLD,1400,0,435,1157,1595,190,1012,676,1334,79,59,29,49,274,703,1162,2794,534,1209,992,307,382,1409,2072,1694,1841
participant_5_LEVEL,1,3,4,5,6,7,8,9,9,10,11,11,12,13,13,14,15,15,16,16,17,18,18,18,18,18
participant_5_MINIONSKILLED,0,0,0,1,1,1,4,4,6,6,6,9,9,9,10,12,16,16,16,16,18,18,21,26,26,26
participant_5_KILLS,0,0,0,1,1,2,3,5,6,6,7,9,9,10,10,10,13,13,14,15,15,15,17,17,17,17
participant_5_BUY,[],"[3134, 1001]",[],[],[],[6691],[2031],[3134],[],"[1037, 3111]",[1018],"[6676, 1036, 1036]",[3134],[1036],[],[],[],"[3814, 3077]",[],[1053],[3074],[1036],[],[],[3134],[]
participant_5_SOLD,[],[],[],[],[],[3134],[],[],[],[1001],[],"[3134, 1037, 1018]","[1036, 1036]",[],[],[],[],"[1036, 3134]",[],[2031],"[3077, 1053]",[2052],[],[],[1036],[]
participant_5_UNDO,[],[],[],[],[],[],[],[],[],[],[],[],[],[],[],[],[],[],[],[],[],[],[],[],[],[]
participant_6_GOLD,1400,1400,1940,2751,3228,3838,4425,5133,5529,6016,6388,6815,7575,8047,8544,9048,10007,10582,11005,11783,13013,13808,14351,14960,15677,16155
participant_6_CURRENTGOLD,1400,0,540,251,728,1338,425,1133,429,916,413,240,1000,347,844,1348,2307,782,305,1083,2313,3108,551,1160,1877,2355
participant_6_LEVEL,1,3,4,5,6,7,8,9,9,10,10,11,12,12,13,13,15,15,16,17,18,18,18,18,18,18
participant_6_MINIONSKILLED,0,0,4,4,7,9,10,10,10,11,11,12,17,17,21,24,27,27,29,41,46,52,53,62,62,62
participant_6_KILLS,0,0,0,2,2,2,3,4,4,4,4,4,4,4,4,4,5,6,6,6,8,9,9,9,10,11
participant_6_BUY,[],"[3044, 1001]",[],"[3070, 3057]",[],[],[6632],[],[3134],[],[1037],[1018],[],"[6676, 1036, 1036]",[],[],[],"[3004, 3158]",[1053],[],[],[],"[3072, 1018]",[],[],[]
participant_6_SOLD,[],[],[],[],[],[],"[3044, 3057]",[],[],[],[],[],[],"[3134, 1037, 1018]",[],[],[],"[3070, 1036, 1036, 3004, 1001]",[],[],[],[],[1053],[],[],[]
participant_6_UNDO,[],[],[],[],[],[],[],[],[],[],[],[],[],[],[],[],[],[],[],[],[],[],[],[],[],[]
participant_7_GOLD,1400,1400,2122,2673,3105,3618,4098,4648,5557,6144,6642,7002,8171,8597,9016,9464,10130,10520,11456,11840,12646,13098,13554,13961,14458,14621
participant_7_CURRENTGOLD,1400,0,372,923,455,968,448,998,232,119,617,577,1746,47,466,514,1180,170,1106,390,1196,1648,714,271,768,871
participant_7_LEVEL,1,3,4,5,6,7,7,8,9,10,11,11,12,13,13,14,14,15,16,16,17,17,18,18,18,18
participant_7_MINIONSKILLED,0,0,3,5,5,8,12,15,15,16,20,20,23,23,24,25,30,30,32,32,35,35,35,36,38,40
participant_7_KILLS,0,0,1,1,1,1,1,1,2,3,3,3,4,4,4,4,4,4,5,5,6,6,6,6,6,6
participant_7_BUY,[],"[3134, 2003, 2003, 1001]",[1036],[],"[3133, 2031]",[],[6691],[],"[3111, 1037]","[1036, 1036]",[],[3134],[],"[3142, 3134]",[],[1028],[],[3814],[],[3133],[],[],[3035],[6694],[],[]
participant_7_SOLD,[],[],[],[],[1036],[],"[3134, 3133]",[],[1001],[],[],"[1036, 1036]",[],"[3134, 1037]",[],[],[],"[3134, 1028]",[],[],[],[],[2031],"[3133, 3035]",[],[]
participant_7_UNDO,[],"[[0, 2003], [0, 2003]]",[],[],[],[],[],[],[],[],[],[],[],[],[],[],[],[],[],[],[],[],[],[],[],[]
participant_8_GOLD,1400,1400,1890,2542,3041,4135,4598,5258,5889,6382,7116,7674,8243,9326,9704,10296,11067,11571,12061,12663,13378,14033,14788,15312,15992,16121
participant_8_CURRENTGOLD,1400,75,565,1217,1716,2810,498,1158,1789,482,1216,299,868,1951,304,896,367,871,211,813,1528,2183,1838,2362,1092,1221
participant_8_LEVEL,1,3,4,5,6,7,8,9,10,10,11,12,13,14,15,15,16,17,17,18,18,18,18,18,18,18
participant_8_MINIONSKILLED,0,0,4,13,18,23,25,30,37,42,53,53,61,71,71,78,78,81,82,90,92,101,102,105,107,107
participant_8_KILLS,0,0,0,0,0,2,2,2,2,2,2,3,3,5,5,5,5,5,5,5,6,6,7,7,8,8
participant_8_BUY,[],"[1037, 1036, 2003, 2003]",[],[],[],[],"[6672, 1001, 1042]",[],[],"[3006, 1038]",[],"[1018, 1037]",[],[],"[3031, 1031, 1018]",[],"[3086, 2015]",[],"[3094, 1036]",[],[],[],[3035],[],[6694],[]
participant_8_SOLD,[],[],[],"[2010, 2003]",[2003],[2010],"[1036, 1037]",[2010],[],"[1001, 1042]",[],[],[],[],"[1038, 1037, 1018]",[],[1018],[],"[3086, 2015]",[],[],[],[1036],[],[3035],[]
participant_8_UNDO,[],[],[],[],[],[],[],[],[],[],[],[],[],[],[],[],[],[],[],[],[],[],[],[],[],[]
participant_9_GOLD,1400,1400,1902,2409,2847,3332,3815,4280,5103,5561,6257,6848,7554,8362,8874,9390,10517,11283,12098,12681,13155,13865,14337,14840,15536,15671
participant_9_CURRENTGOLD,1400,50,552,1059,1497,1982,565,230,1053,1511,472,1183,1154,1962,524,1040,517,433,813,1396,1055,515,987,1490,1601,-329
participant_9_LEVEL,1,3,4,5,6,7,8,8,10,10,11,11,12,13,14,14,15,16,17,18,18,18,18,18,18,18
participant_9_MINIONSKILLED,0,0,2,2,2,3,3,7,12,14,14,14,16,17,23,27,28,34,37,41,41,45,47,48,51,51
participant_9_KILLS,0,0,0,0,0,0,0,0,1,1,2,2,3,4,4,4,5,6,7,7,7,8,8,8,9,9
participant_9_BUY,[],"[3112, 2003, 2003, 1001]",[],[],[],[],"[3145, 1026]",[3020],[],[],"[4636, 1052]",[3145],[],[],[4628],[],"[1026, 3916]",[3165],[1052],[],[4630],[3135],[],[],[1058],[]
participant_9_SOLD,[],[],[2003],[2003],[],[],[],[1001],[],[],"[3145, 1026]","[1052, 3145]",[],[],[3145],[],[],"[1026, 3916]",[],[],[1052],"[3112, 4630]",[],[],[3112],[]
participant_9_UNDO,[],[],[],[],[],[],[],[],[],[],[],[],"[[3145, 0]]",[],[],[],[],[],[],[],[],"[[3112, 0]]",[],[],[],[]
team0_KILLS,0,0,1,2,3,7,8,11,12,15,18,23,25,27,29,31,34,38,42,43,45,48,51,51,57,58
team0_CURRENTGOLD,7000,0,2115,2909,5835,5953,2671,4575,2302,5750,6459,4400,3964,2413,6500,9431,5169,4592,5489,6581,3909,7421,8013,6659,9774,6844
team0_TOTALGOLD,7000,7000,9565,12059,14985,18403,21146,24650,27252,30700,33759,37350,40064,43013,47100,50031,52869,56942,61039,63481,66259,69771,73763,76159,81374,82344
team0_LEVEL,5,15,20,25,30,35,38,42,45,50,55,59,62,65,69,71,76,80,85,85,90,90,90,90,90,90
team0_SBIRES,0,0,11,19,37,43,57,68,83,99,110,121,131,150,167,180,188,210,223,235,250,268,283,299,318,319
team1_KILLS,0,0,1,4,4,7,9,12,15,16,18,21,23,27,27,27,32,34,37,38,42,44,47,47,50,51
team1_CURRENTGOLD,7000,125,2464,4607,5991,7288,2948,4195,4837,3107,2777,2328,4817,4581,2841,4960,7165,2790,3644,4674,6399,7836,5499,7355,7032,5959
team1_TOTALGOLD,7000,7000,9689,12932,15216,18613,21598,24745,28162,30607,33487,36518,40142,43506,45741,48260,53415,56040,59379,62349,66089,69126,72379,75085,78047,79159
team1_LEVEL,5,15,20,25,30,35,39,43,47,50,54,56,61,65,68,70,75,78,82,85,88,89,90,90,90,90
team1_SBIRES,0,0,13,25,33,44,54,66,80,89,104,108,126,137,149,166,179,188,196,220,232,251,258,277,284,286
delta_KILLS,0,0,0,-2,-1,0,-1,-1,-3,-1,0,2,2,0,2,4,2,4,5,5,3,4,4,4,7,7
delta_CURRENTGOLD,0,-125,-349,-1698,-156,-1335,-277,380,-2535,2643,3682,2072,-853,-2168,3659,4471,-1996,1802,1845,1907,-2490,-415,2514,-696,2742,885
delta_TOTALGOLD,0,0,-124,-873,-231,-210,-452,-95,-910,93,272,832,-78,-493,1359,1771,-546,902,1660,1132,170,645,1384,1074,3327,3185
delta_LEVEL,0,0,0,0,0,0,-1,-1,-2,0,1,3,1,0,1,1,1,2,3,0,2,1,0,0,0,0
delta_SBIRES,0,0,-2,-6,4,-1,3,2,3,10,6,13,5,13,18,14,9,22,27,15,18,17,25,22,34,33
