name,team0,team1
win,Win,Fail
firstBlood,True,False
firstTower,False,True
firstInhibitor,True,False
firstBaron,True,False
firstDragon,False,True
firstRiftHerald,True,False
towerKills,11,2
inhibitorKills,3,0
baronKills,1,0
dragonKills,2,2
riftHeraldKills,2,0
