name,frame_0,frame_1,frame_2,frame_3,frame_4,frame_5,frame_6,frame_7,frame_8,frame_9,frame_10,frame_11,frame_12,frame_13,frame_14,frame_15,frame_16,frame_17,frame_18,frame_19,frame_20,frame_21,frame_22,frame_23,frame_24,frame_25,frame_26,frame_27,frame_28,frame_29,frame_30,frame_31,frame_32,frame_33
nameStamp,Tstart,Tearly,Tearly,Tearly,Tearly,Tearly,Tearly,Tearly,Tearly,Tearly,Tearly,Tearly,Tmid,Tmid,Tmid,Tmid,Tmid,Tmid,Tmid,Tmid,Tmid,Tmid,Tmid,Tmid,Tmid,Tmid,Tmid,Tmid,Tend,Tend,Tend,Tend,Tend,Tend
timestamp,0,60031,120064,180068,240097,300128,360134,420135,480136,540142,600168,660198,720225,780227,840257,900286,960314,1020315,1080342,1140344,1200351,1260361,1320387,1380416,1440421,1500450,1560475,1620506,1680533,1740539,1800560,1860562,1920578,1980578
participant_0_GOLD,500,500,563,857,1612,2075,3212,3759,4341,4813,5377,5995,6347,6730,7056,7375,7801,8348,9111,9233,9813,10255,10475,10949,11180,11527,12578,13136,14589,15041,15665,16261,16383,16523
participant_0_CURRENTGOLD,500,0,63,357,262,100,1237,84,666,1138,1702,330,682,165,491,810,96,643,831,153,733,1175,95,570,800,372,1424,881,2335,391,1016,1611,34,-307
participant_0_LEVEL,1,1,1,3,4,4,6,7,7,8,9,9,9,10,10,10,11,11,11,11,12,12,13,13,13,14,14,15,15,16,16,17,17,17
participant_0_MINIONSKILLED,0,0,2,10,12,13,32,38,53,64,72,78,79,80,92,97,111,113,113,113,117,121,127,140,140,148,160,160,166,168,171,180,180,180
participant_0_KILLS,0,0,0,0,1,1,1,1,1,1,2,2,3,3,3,3,3,4,4,4,4,5,5,6,6,6,7,7,8,8,8,8,8,9
participant_0_BUY,[],"[2033, 3340]",[],[],[],[1053],[],[],[],"[3144, 1042, 1029, 1001]",[],[1043],[],"[3153, 3057, 2055]",[],[],"[3047, 1028, 2055]",[1036],[],"[3044, 1042]",[],[3078],"[2055, 2055]",[],[3105],[],[],[3133],[],[],[],"[1053, 3812]",[],[]
participant_0_SOLD,[],[],[],[],[2010],[],[],[2010],[2010],[1053],[],[1042],[],"[3144, 1043]",[2055],[],"[1001, 1029]",[2055],[],"[1028, 1036]",[],"[1042, 3057, 3044]",[2055],[2055],[],[],[],[],[],[],[],"[2033, 3105, 1053, 3133]",[],[]
participant_0_UNDO,[],[],[],[],[],[],[],[],[],[],[],[],[],[],[],[],[],[],[],[],[],[],[],[],[],[],[],[],[],[],[],[],[],[]
participant_1_GOLD,500,500,676,1048,1376,1721,1921,2295,2737,3130,3743,4281,5345,5701,5845,6844,7311,7890,8376,8898,10244,10764,11031,11374,11646,12129,12377,13114,13745,14236,15681,16203,16347,17972
participant_1_CURRENTGOLD,500,0,176,548,876,271,121,495,937,430,1043,181,1245,1601,170,1169,36,615,1101,583,1929,574,842,1184,406,890,1137,875,1506,1996,1542,1064,1208,2742
participant_1_LEVEL,1,1,2,3,4,4,4,5,6,7,8,8,9,9,9,10,10,11,12,12,13,13,13,13,14,14,14,15,16,16,17,17,17,18
participant_1_MINIONSKILLED,0,0,0,0,0,0,0,0,0,0,0,0,0,0,1,2,2,5,5,5,7,9,11,18,18,20,20,20,28,32,33,33,34,40
participant_1_KILLS,0,0,0,0,0,0,0,0,0,0,0,0,1,1,1,3,3,4,4,5,8,8,8,8,8,8,8,8,8,8,12,13,13,17
participant_1_BUY,[],"[1039, 2031, 3340]",[],[],[],"[3715, 1001, 3364]",[1082],[],[],[3108],[],"[1414, 3047]",[],[],"[3136, 2055]",[],[3151],[],[],[3191],[],"[3157, 2055]",[],[],[3041],[],[],[1011],[],[],[3742],"[2139, 2139]",[],[]
participant_1_SOLD,[],[],[],[],[],"[1039, 3340]",[],[],[],[],[],"[3108, 3715, 1001]",[],[],[],[],[3136],[],[],[2031],[],[3191],[2055],[],"[2055, 1082]",[],[2055],[],[],[],[1011],"[2139, 2139]",[],[]
participant_1_UNDO,[],[],[],[],[],[],[],[],[],[],[],[],[],[],[],[],[],[],[],[],[],[],[],[],"[[2055, 0]]",[],[],[],[],[],[],[],[],[]
participant_2_GOLD,500,500,626,983,1427,1808,2221,2541,2984,3284,4052,4288,5165,5612,6125,6487,6693,7230,7687,7959,8398,9045,9419,9904,10061,10184,10780,11218,11827,12012,12234,12542,12782,13824
participant_2_CURRENTGOLD,500,0,126,483,927,408,821,1141,1584,284,1052,588,1465,87,600,962,193,380,837,309,748,262,486,971,28,151,747,86,694,879,1102,209,450,1291
participant_2_LEVEL,1,1,1,3,3,4,5,6,7,7,8,8,9,9,10,10,10,11,11,11,12,12,12,13,13,13,13,14,15,15,15,15,15,16
participant_2_MINIONSKILLED,0,0,6,17,18,31,45,55,71,78,89,93,99,104,123,130,135,137,142,142,145,148,159,163,165,165,168,168,170,173,173,173,176,183
participant_2_KILLS,0,0,0,0,0,0,0,0,0,0,0,0,1,1,1,1,1,1,1,1,1,1,1,1,2,2,3,3,4,4,4,4,4,4
participant_2_BUY,[],"[1055, 2003]",[],[],[],[],[1038],[2003],[],"[1001, 2055, 1036]",[],"[1053, 2003]",[],"[3006, 1036]",[1036],[],[],[],"[3133, 1018]","[3508, 3363, 2055]",[1036],[],[],[],[],"[3133, 3105]",[],"[3812, 1037]",[1018],[],[],[],[],[]
participant_2_SOLD,[],[],[],[2003],[],[],[],[],[2003],[],[2055],[1036],[2003],[1001],[],[],[],[],"[1036, 1036]","[1038, 3133, 1018, 3340]",[2055],[],[],[],[],[1036],[],"[3105, 1053, 3133]",[],[],[],[],[],[]
participant_2_UNDO,[],[],[],[],[],[],[],[],[],[],[],[],[],[],[],[],[],[],[],[],[],[],[],[],[],[],[],[],[],[],[],[],[],[]
participant_3_GOLD,500,500,563,885,1190,1459,1851,2099,2542,2665,3041,3359,4052,4491,4785,5069,5487,5872,6183,6305,6644,7062,7443,7779,8388,8592,9276,9767,10432,10643,11142,11549,11757,12436
participant_3_CURRENTGOLD,500,0,63,385,690,959,51,249,692,90,466,184,877,166,110,394,812,1197,307,255,244,662,1043,1379,1988,342,1026,142,7,218,717,1125,1332,2011
participant_3_LEVEL,1,1,1,2,3,4,5,5,6,6,7,7,8,8,8,8,9,9,10,10,10,11,11,11,12,12,13,13,14,14,14,15,15,16
participant_3_MINIONSKILLED,0,0,2,11,22,28,41,48,64,64,78,83,86,91,97,100,112,117,124,124,134,136,147,150,151,154,156,156,157,157,161,161,161,172
participant_3_KILLS,0,0,0,0,0,0,0,0,0,0,1,1,3,3,3,3,3,3,3,3,4,4,4,4,4,4,4,4,4,4,4,4,4,4
participant_3_BUY,[],"[3854, 2003, 2003, 3340]",[],[],[],"[1001, 2031]",[],[],[],"[3009, 2055]",[],[1029],"[1031, 1033, 2055, 3364]",[],[1057],[],[2420],[],"[3193, 2055]",[1028],[],[3067],"[1031, 2055]",[],[],[3109],[],"[1028, 2055]",[],[1011],[],[1031],[],[]
participant_3_SOLD,[],[],[],"[2003, 2003]",[],[],[],[],[],[1001],[2055],[],"[1029, 3340]",[],"[1033, 3854]",[2055],[],[],"[1031, 1057, 2420]",[],[2055],[1028],"[2031, 2055]",[],[],"[3067, 1031]",[],[],[],[1028],[],[2055],[],[3855]
participant_3_UNDO,[],[],[],[],[],[],[],[],[],[],[],[],[],[],[],[],[],[],[],[],[],[],[],[],[],[],[],[],[],[],[],[],[],[]
participant_4_GOLD,500,500,523,752,908,1063,1233,1367,1570,1705,2139,2324,3059,3330,3547,4101,4241,4541,4757,4987,5446,5874,6024,6275,6473,6613,6954,7394,7536,7745,8136,8376,8538,8670
participant_4_CURRENTGOLD,500,0,23,252,408,113,283,417,620,80,514,399,109,380,327,881,371,671,482,312,771,799,134,385,583,123,464,429,571,180,571,41,203,245
participant_4_LEVEL,1,1,1,2,3,3,4,4,5,5,5,6,6,7,7,8,8,8,8,9,9,9,9,9,10,10,10,11,11,11,12,12,12,12
participant_4_MINIONSKILLED,0,0,0,3,4,5,7,7,8,8,8,8,8,12,13,14,14,16,16,17,19,19,20,22,23,23,23,23,23,23,24,24,25,25
participant_4_KILLS,0,0,0,0,1,2,3,4,4,4,5,5,5,5,5,5,5,6,8,8,8,8,8,8,8,8,9,9,12,13,13,13,13,13
participant_4_BUY,[],"[1055, 2003, 3340]",[],[],"[1036, 1036, 1006]","[3077, 2031]",[],"[1001, 3044, 2055, 2055]",[],[],[],"[3071, 1029]",[],"[3047, 1028]",[],[],"[3052, 1028]",[],[3748],[1031],[],[],[1038],[],[],"[3026, 2055]",[],[3133],[],"[3812, 2055]",[],[],"[3052, 2138]",[]
participant_4_SOLD,[],[],[],[2003],[],"[1036, 1006, 1036]",[],[],[],[],[],"[3044, 2055, 2055]",[],"[1001, 1029]",[],[],"[1028, 2031]",[],"[3077, 1028, 3052]",[],[],[],[],[],[],"[1038, 1031, 2055]",[],[1055],[],"[1055, 3133]",[2055],[],[2138],[]
participant_4_UNDO,[],[],[],[],[],[],[],[],[],[],[],[],[],[],[],[],[],[],[],[],[],[],[],[],[],[],[],"[[1055, 0]]",[],[],[],[],[],[]
participant_5_GOLD,500,500,584,706,994,1620,1764,2019,2273,2573,2793,3089,3588,3773,4352,4601,5034,5157,5349,5632,5850,6253,6426,6548,7293,7591,7818,8041,8329,8715,8933,9264,9786,9901
participant_5_CURRENTGOLD,500,0,84,206,94,70,214,169,423,723,943,439,938,1123,1702,1951,2384,1267,1459,242,460,863,1036,63,343,641,868,191,44,430,648,979,1501,251
participant_5_LEVEL,1,1,1,2,3,4,4,5,5,6,7,7,8,8,8,9,9,9,10,10,10,11,11,11,11,12,12,12,12,13,13,13,14,14
participant_5_MINIONSKILLED,0,0,3,3,4,5,6,14,19,27,33,40,44,48,51,58,69,69,69,79,79,86,86,86,91,94,100,100,101,108,108,116,118,118
participant_5_KILLS,0,0,0,0,0,0,0,0,0,0,0,1,1,1,1,1,1,2,2,3,3,3,3,3,3,3,3,3,4,4,4,4,4,4
participant_5_BUY,[],"[1055, 2003, 3340]",[],[],[],[],"[1037, 1001, 2031]",[],[],[3070],[],[],"[3004, 1027, 1029]",[],[],[],[],"[3057, 3025]",[],"[3047, 3363, 2055]",[],[2055],[],[],[3133],[],[],[1053],[],[],[3812],[2055],[],[]
participant_5_SOLD,[],[],[],"[2003, 2010]",[],[2010],[],[],[],[2010],[],[],"[3070, 1037]",[],[],[],[],"[1027, 3057, 1029]",[],"[1001, 3340]",[2055],[],[3004],[],[2055],[],[],[2031],[],[],"[1053, 3133]",[],[],[]
participant_5_UNDO,[],[],[],[],[],[],[],[],[],[],[],[],[],[],[],[],[],[],[],[],[],[],[],[],[],[],[],[],[],[],[],[],[],[]
participant_6_GOLD,500,500,621,1018,1575,1859,2428,2827,2986,3418,3555,4387,4510,4922,5872,6280,6671,7092,7404,8036,8198,8769,9152,9490,9960,10320,10497,10815,11103,11421,11614,12056,12282,12397
participant_6_CURRENTGOLD,500,0,121,518,75,359,928,1327,136,568,55,887,210,622,1572,55,446,867,1179,361,193,544,927,1266,135,145,323,350,189,507,699,42,267,-448
participant_6_LEVEL,1,1,2,3,4,4,5,6,6,6,7,8,8,8,9,9,10,10,11,11,11,12,12,13,13,13,14,14,14,14,14,15,16,16
participant_6_MINIONSKILLED,0,0,0,0,1,1,2,3,5,11,12,23,23,23,27,32,48,56,70,76,76,78,79,88,99,104,104,111,111,119,123,123,126,126
participant_6_KILLS,0,0,0,0,0,0,0,0,0,0,0,0,0,0,0,0,0,0,0,0,0,0,0,0,0,0,0,0,1,1,1,1,2,2
participant_6_BUY,[],"[3858, 3340, 2003, 2003]",[],[],[],[],"[1001, 1029, 2055, 2003]",[],[],[],"[3158, 2055, 2055]",[],"[3024, 2055, 3364]",[],[],"[1033, 1029]",[],"[3105, 2055, 2055]",[],[3050],[1028],[],[],[],[3028],[],[],"[2055, 2055]",[],[3222],[],[],[],[]
participant_6_SOLD,[],[],[],[2003],[],[2003],[],[2055],[],[],"[1001, 2055]","[2003, 3858]","[1029, 3340]",[2055],[],[],[2055],"[1033, 1029]",[],"[3105, 3024]",[],[],"[2055, 2055]",[],[],[3859],[],[],[],"[1028, 3028]",[],[],[],[]
participant_6_UNDO,[],[],[],[],[],[],[],[],[],[],[],[],[],[],[],[],[],[],[],[],[],[],[],[],[],[],[],[],[],[],[],[],[],[]
participant_7_GOLD,500,500,584,871,1357,1943,2206,2534,2789,3089,3957,4110,4382,4679,5788,5910,6215,6412,6834,6972,7600,7841,8452,8769,9892,10114,10683,10980,11103,11501,12464,12739,12975,13327
participant_7_CURRENTGOLD,500,0,84,371,857,143,406,734,989,1289,982,135,7,304,1413,85,390,587,409,47,250,516,327,644,317,539,1109,305,78,477,889,1165,1400,-248
participant_7_LEVEL,1,1,1,3,4,4,5,6,7,7,8,8,8,9,10,10,10,10,11,11,11,11,11,12,12,12,13,13,13,13,14,14,14,15
participant_7_MINIONSKILLED,0,0,3,10,14,15,23,32,39,46,57,58,58,69,76,76,79,79,79,79,87,90,101,108,108,109,118,124,124,135,136,141,143,153
participant_7_KILLS,0,0,0,0,1,1,2,2,2,2,2,3,3,3,4,4,4,4,4,5,5,6,6,6,6,6,6,6,6,6,6,7,7,7
participant_7_BUY,[],"[1041, 2031, 3340, 3364]",[],[],"[3715, 1036]",[],[],[],"[1412, 2055]",[],"[1001, 1036]",[],"[3044, 1028, 1028]",[],[],"[3071, 2055]",[],[],[],"[3105, 1036]","[3134, 1036]",[1053],[],[],[3812],[1036],[],[1036],[3123],[],[],[3035],[],[]
participant_7_SOLD,[],[3340],[],[],[1041],[],[],[],"[1036, 3715, 2055]",[],[],[],[1036],[3364],[3513],"[1028, 1036, 1028]",[2055],[],[],[],"[3105, 1036]",[1036],[],[],"[3105, 1053]",[],[],[2031],[1036],[],[],[1036],[],[]
participant_7_UNDO,[],[],[],[],[],[],[],[],[],[],[],[],"[[0, 3044]]",[],[],[],[],[],[],[],[],"[[0, 1036], [0, 3134], [3105, 0]]",[],[],[],[],[],[],[],[],[],[],[],[]
participant_8_GOLD,500,500,584,895,1267,1620,1853,2171,2572,2971,3220,4005,4128,4474,5135,5278,5677,6148,6523,7095,7259,7497,7711,7911,8248,8607,8884,9569,10370,10535,10732,11014,11347,11483
participant_8_CURRENTGOLD,500,0,84,395,767,1120,28,346,747,296,545,1330,128,474,1135,1278,1677,98,473,170,334,497,711,911,148,507,784,629,1431,1595,192,400,732,808
participant_8_LEVEL,1,1,1,2,3,4,4,5,5,6,6,7,7,8,8,9,9,9,10,10,11,11,11,11,12,12,13,13,14,14,14,14,15,15
participant_8_MINIONSKILLED,0,0,3,14,26,37,39,50,63,70,77,92,92,105,110,111,123,126,134,134,136,139,142,146,147,156,166,182,187,189,189,194,201,202
participant_8_KILLS,0,0,0,0,0,1,1,1,1,1,1,1,2,2,2,2,2,2,2,2,2,2,2,2,3,3,3,3,3,3,3,3,4,4
participant_8_BUY,[],[2033],[],[],[1056],"[1029, 1082]",[],[1001],[],[],[],[3191],[],[],[],[],[],[3802],[],[3030],[],[],[],"[3020, 1052]",[3108],[],[],[3157],[1052],[],[],[],[],[3916]
participant_8_SOLD,[],[],[],[],[],[],[],[],[],[],[],[1029],[],[],[],[],[2010],"[2010, 2010]",[],[3802],[],[],[],"[1001, 1082]",[1052],[],[],"[3191, 3108]",[],[],[],[],[],[1052]
participant_8_UNDO,[],[],[],[],[],[],[],[],[],[],[],[],[],[],[],[],[],[],[],[],[],[],[],[],[],[],[],[],[],[],[],[],[],[]
participant_9_GOLD,500,500,523,699,915,1091,1322,1498,1701,2035,2184,2695,2835,2985,3428,3666,3807,4022,4213,4353,4568,4759,4979,5120,5361,5626,5767,5907,6441,6581,6871,7012,8187,8319
participant_9_CURRENTGOLD,500,0,23,199,415,591,97,273,476,810,209,719,185,335,778,266,407,122,313,203,18,209,429,570,11,276,417,407,941,61,352,492,1667,1519
participant_9_LEVEL,1,1,1,2,3,4,4,4,5,5,6,6,7,7,7,7,7,8,8,8,8,8,9,9,9,10,10,10,11,11,11,12,12,12
participant_9_MINIONSKILLED,0,0,0,2,4,6,7,9,10,12,13,14,14,15,15,17,17,17,17,17,17,17,18,18,20,23,23,23,25,25,25,25,25,25
participant_9_KILLS,0,0,0,0,1,2,2,2,2,2,3,3,3,3,5,5,5,5,6,6,7,7,7,7,8,8,9,9,9,9,11,11,11,11
participant_9_BUY,[],"[2033, 3340]",[],[],[],"[1037, 2055, 1027]",[],[],[],[],[],"[3004, 1001, 1036, 1036, 3364]",[3134],[],[],"[3133, 3133, 1036]",[],[],[3158],[3147],"[1036, 2055]",[1028],"[3067, 1028]",[],[3071],[],[],[3133],[1036],[],[1053],[],[],[3812]
participant_9_SOLD,[],[],[],[],[],[],[2055],[],[],[],[],"[1027, 1037, 3340]","[1036, 1036]",[],[],[],[],[],[1001],"[2033, 2033, 3134, 3133]",[],[],[1028],[],"[1028, 1036, 3067]",[],[3004],[],[],[],[1036],[],[],"[1053, 3133]"
participant_9_UNDO,[],[],[],[],[],[],[],[],[],[],[],[],[],[],[],"[[0, 3133]]",[],[],[],"[[2033, 0]]",[],"[[0, 2055], [0, 1036]]",[],[],[],[],[],[],[],[],[],[],[],[]
team0_KILLS,0,0,0,0,2,3,4,5,5,5,8,8,13,13,13,15,15,18,20,21,25,26,26,27,28,28,31,31,36,37,41,42,42,47
team0_CURRENTGOLD,2500,0,451,2025,3163,1851,2513,2386,4499,2022,4777,1682,4378,2399,1698,4216,1508,3506,3558,1612,4425,3472,2600,4489,3805,1878,4798,2413,5113,3664,4948,4050,3227,5982
team0_TOTALGOLD,2500,2500,2951,4525,6513,8126,10438,12061,14174,15597,18352,20247,23968,25864,27358,29876,31533,33881,36114,37382,40545,43000,44392,46281,47748,49045,51965,54629,58129,59677,62858,64931,65807,69425
team0_LEVEL,5,5,6,13,17,19,24,27,31,33,37,38,41,43,44,46,48,50,52,53,56,57,58,59,62,63,64,68,71,72,74,76,76,79
team0_SBIRES,0,0,10,41,56,77,125,148,196,214,247,262,272,287,326,343,374,388,400,401,422,433,464,493,497,510,527,527,544,553,562,571,576,600
team1_KILLS,0,0,0,0,2,4,5,5,5,5,6,8,9,9,12,12,12,13,14,16,17,18,18,18,20,20,21,21,23,23,25,26,28,28
team1_CURRENTGOLD,2500,0,396,1689,2208,2283,1673,2849,2771,3686,2734,3510,1468,2858,6600,3635,5304,2941,3833,1023,1255,2629,3430,3454,954,2108,3501,1882,2683,3070,2780,3078,5567,1882
team1_TOTALGOLD,2500,2500,2896,4189,6108,8133,9573,11049,12321,14086,15709,18286,19443,20833,24575,25735,27404,28831,30323,32088,33475,35119,36720,37838,40754,42258,43649,45312,47346,48753,50614,52085,54577,55427
team1_LEVEL,5,5,6,12,17,20,22,26,28,30,34,36,38,40,42,44,45,46,50,50,51,53,54,56,57,59,62,62,64,65,66,68,71,72
team1_SBIRES,0,0,9,29,49,64,77,108,136,166,192,227,231,260,279,294,336,347,369,385,395,410,426,446,465,486,511,540,548,576,581,599,613,624
delta_KILLS,0,0,0,0,0,-1,-1,0,0,0,2,0,4,4,1,3,3,5,6,5,8,8,8,9,8,8,10,10,13,14,16,16,14,19
delta_CURRENTGOLD,0,0,55,336,955,-432,840,-463,1728,-1664,2043,-1828,2910,-459,-4902,581,-3796,565,-275,589,3170,843,-830,1035,2851,-230,1297,531,2430,594,2168,972,-2340,4100
delta_TOTALGOLD,0,0,55,336,405,-7,865,1012,1853,1511,2643,1961,4525,5031,2783,4141,4129,5050,5791,5294,7070,7881,7672,8443,6994,6787,8316,9317,10783,10924,12244,12846,11230,13998
delta_LEVEL,0,0,0,1,0,-1,2,1,3,3,3,2,3,3,2,2,3,4,2,3,5,4,4,3,5,4,2,6,7,7,8,8,5,7
delta_SBIRES,0,0,1,12,7,13,48,40,60,48,55,35,41,27,47,49,38,41,31,16,27,23,38,47,32,24,16,-13,-4,-23,-19,-28,-37,-24
