name,team0,team1
win,Fail,Win
firstBlood,True,False
firstTower,False,True
firstInhibitor,False,True
firstBaron,False,True
firstDragon,True,False
firstRiftHerald,True,False
towerKills,4,7
inhibitorKills,0,1
baronKills,0,2
dragonKills,2,2
riftHeraldKills,2,0
