name,frame_0,frame_1,frame_2,frame_3,frame_4,frame_5,frame_6,frame_7,frame_8,frame_9,frame_10,frame_11,frame_12,frame_13,frame_14,frame_15,frame_16,frame_17,frame_18,frame_19,frame_20,frame_21,frame_22,frame_23,frame_24,frame_25
nameStamp,Tstart,Tearly,Tearly,Tearly,Tearly,Tearly,Tearly,Tearly,Tearly,Tearly,Tearly,Tearly,Tearly,Tearly,Tearly,Tmid,Tmid,Tmid,Tmid,Tmid,Tmid,Tmid,Tmid,Tend,Tend,Tend
timestamp,0,60030,120034,180062,240069,300090,360096,420111,480122,540141,600143,660165,720170,780188,840214,900234,960266,1020302,1080333,1140338,1200355,1260382,1320385,1380392,1440423,1500423
participant_0_GOLD,500,500,577,867,1060,1277,1533,2550,2846,3314,3478,3809,4281,4758,6259,6671,6794,7571,7828,8271,8863,9222,9450,11195,11575,12046
participant_0_CURRENTGOLD,500,0,77,367,60,277,533,1550,196,664,28,359,831,608,2109,2521,129,906,63,506,98,458,285,2030,545,536
participant_0_LEVEL,1,1,1,3,3,4,4,7,7,8,8,9,9,10,11,11,11,12,12,12,13,13,13,14,14,14
participant_0_MINIONSKILLED,0,0,3,12,16,16,24,36,43,60,62,71,79,81,97,103,103,118,118,118,118,128,128,131,142,143
participant_0_KILLS,0,0,0,0,0,0,0,2,2,2,2,2,2,3,3,3,3,4,4,5,6,6,6,8,8,9
participant_0_BUY,[],"[3340, 2003, 1055]",[],[],"[1055, 2003]",[],[],[],"[1053, 1042, 1001, 2031]",[],[3111],[],[],[1043],[],[],"[3153, 6029, 2055]",[],[3051],[],[6631],[],[1028],[],"[3044, 1037, 2420]",[]
participant_0_SOLD,[],[],[],[2003],[],[],[2003],[],[],[],[1001],[],[],"[1042, 2031]",[],[],"[1053, 1043, 2031]",[2055],[],[],"[6029, 3051]",[],[],[],"[1028, 1055, 1055]",[]
participant_0_UNDO,[],[],[],[],[],[],[],[],[],[],[],[],[],"[[2031, 0]]",[],[],[],[],[],[],[],[],[],[],[],[]
participant_1_GOLD,500,500,670,978,1376,1692,1865,2292,2617,2825,3320,3628,4070,5042,5384,5676,5799,5921,6459,6799,7161,7433,7555,7866,8199,8335
participant_1_CURRENTGOLD,500,0,170,478,876,1192,290,717,1042,500,245,553,995,1967,809,301,424,71,609,949,361,633,305,616,49,185
participant_1_LEVEL,1,1,2,3,4,4,5,5,6,6,7,7,8,8,9,9,9,9,10,10,11,11,11,12,12,12
participant_1_MINIONSKILLED,0,0,0,0,0,2,2,2,2,2,2,2,2,2,2,2,2,2,2,12,13,14,14,15,20,21
participant_1_KILLS,0,0,0,0,0,0,0,0,0,0,1,1,1,3,3,3,3,3,3,3,3,3,3,3,3,3
participant_1_BUY,[],"[1035, 3340, 2031]",[3364],[],[],[],"[6660, 2055]",[],[],"[1033, 1029]",[3105],[],[],[],"[3068, 3111]",[3076],[],"[1028, 2055]",[],[],"[1011, 1033]",[],[1057],[],[3001],[]
participant_1_SOLD,[],[],[3340],[],[],[],[],[],[],"[2055, 1035]","[1033, 1029]",[],[],[],"[6660, 3105, 2422]",[],[],[],[],[2055],[1028],[],[1033],[],"[1011, 1057]",[]
participant_1_UNDO,[],[],[],[],[],[],[],[],[],[],[],[],[],[],[],[],[],[],[],[],[],[],[],[],[],[]
participant_2_GOLD,500,500,612,867,1120,1591,2374,2692,3072,3400,3711,4056,4368,4654,5127,5347,5533,5892,6168,6354,6490,6718,6840,7112,7326,7489
participant_2_CURRENTGOLD,500,0,112,17,260,731,139,357,727,1045,1356,791,293,579,1052,157,343,702,78,264,100,328,450,287,336,-61
participant_2_LEVEL,1,1,1,3,4,4,5,6,7,7,8,8,9,9,9,10,10,10,10,11,11,11,11,12,12,12
participant_2_MINIONSKILLED,0,0,5,12,17,20,21,33,45,54,65,74,82,88,88,95,99,109,118,122,123,130,130,130,135,138
participant_2_KILLS,0,0,0,0,0,0,0,0,0,0,0,0,0,0,0,0,0,0,0,0,0,0,0,1,1,1
participant_2_BUY,[],"[1055, 2003, 3340]",[],[],[],[],"[1042, 1042, 1001, 2003, 2003]",[1036],[],[6670],[2003],[],[1037],[],[1018],[3006],[],[6672],[],[],"[1037, 2055, 3363]","[1036, 2055]",[],[],"[3123, 1018]",[]
participant_2_SOLD,[],[],[],[2003],[],[],[],[],[],"[1036, 1042]","[2003, 2003]",[],[2003],[],[],"[1001, 1042]",[],"[6670, 1018, 1037]",[],[],[3340],[2055],[2055],[],[1036],[]
participant_2_UNDO,[],[],[],[],[],[],[],[],[],[],[],[],[],[],[],[],[],[],[],[],[],[],[],[],[],[]
participant_3_GOLD,500,500,598,846,1253,1480,1674,1908,2358,2600,2974,3405,3648,4228,4481,4792,5097,5414,5747,6142,6285,6522,6895,7673,8048,8170
participant_3_CURRENTGOLD,500,0,98,346,753,980,174,58,508,100,424,855,243,823,476,287,592,284,617,1012,205,17,390,1168,493,595
participant_3_LEVEL,1,1,1,2,3,3,4,4,5,5,6,7,7,8,8,8,8,9,9,10,10,10,10,11,11,11
participant_3_MINIONSKILLED,0,0,4,11,25,29,30,37,52,59,66,80,87,98,99,106,116,123,125,134,135,141,151,160,163,163
participant_3_KILLS,0,0,0,0,0,1,2,2,2,2,2,2,2,2,3,3,3,3,3,3,3,3,3,3,3,3
participant_3_BUY,[],"[1056, 2003, 2003, 3340]",[],"[1001, 2003]",[],[],"[3802, 2055]","[2003, 2003]",[],[],[],[3108],[3020],[],[],"[6653, 2055]",[],[],[3191],[3108],[1029],[],[],[1052],[3191],[3157]
participant_3_SOLD,[],[],[],[2003],[],[2003],[2003],[],[2055],[2419],[2003],[],[1001],[],"[2423, 2003]","[1056, 3802, 3108]",[2055],[],[],[],[],[],[],[],"[1052, 1029]","[3191, 3108, 2424]"
participant_3_UNDO,[],[],[],[],[],[],[],[],[],[],[],[],[],[],[],[],[],[],[],"[[0, 3191]]",[],[],[],[],[],[]
participant_4_GOLD,500,500,543,777,992,1246,1931,2065,2242,2403,2738,2899,3109,3588,3939,4079,4249,4390,4560,4750,4981,5121,5262,5552,5692,5832
participant_4_CURRENTGOLD,500,25,68,302,517,771,1456,140,317,78,413,574,634,1113,1464,429,599,190,360,476,706,846,137,427,568,57
participant_4_LEVEL,1,1,1,2,3,3,4,4,5,5,6,7,7,8,8,8,8,8,9,9,9,9,10,11,11,11
participant_4_MINIONSKILLED,0,0,0,0,0,0,0,0,0,0,0,0,1,2,2,2,3,3,4,4,5,5,5,5,5,5
participant_4_KILLS,0,0,0,0,0,0,1,1,1,1,1,1,1,1,1,1,1,1,1,1,1,1,1,1,1,1
participant_4_BUY,[],"[3850, 2003, 3340, 2003, 3850, 2055, 3340]",[],[],[],[],[],"[4642, 1028]",[],"[3067, 3364]",[],[],"[2055, 2055]",[],[],"[6617, 1004, 2055]",[],[3114],[],[2055],[],[],[1026],[],[],[6616]
participant_4_SOLD,[],[],[2055],[],[],[],[],[],[3850],"[1028, 3340]",[],[],[2055],[],[],"[3851, 3067, 4642]",[],[1004],[2055],[],[],[],[],[],[],"[3114, 1026]"
participant_4_UNDO,[],"[[0, 2003], [3340, 0], [0, 2003], [0, 3850]]",[],[],[],[],[],[],[],[],[],[],[],[],[],[],[],[],[],[],[],[],[],[],[],[]
participant_5_GOLD,500,500,563,797,1249,1839,2168,2381,2761,3108,3469,3931,4236,4958,5118,5485,5929,6471,6788,7253,7963,8211,8859,9011,9356,9798
participant_5_CURRENTGOLD,500,0,63,297,749,289,618,31,411,758,1119,181,486,108,268,635,1079,421,738,1203,13,261,909,211,556,998
participant_5_LEVEL,1,1,1,3,4,5,6,6,7,8,8,9,9,10,10,10,11,11,11,12,12,12,13,13,14,14
participant_5_MINIONSKILLED,0,0,2,8,16,24,33,38,50,56,70,77,87,87,87,98,104,108,115,117,117,117,122,122,131,136
participant_5_KILLS,0,0,0,0,0,1,1,1,1,1,1,1,1,2,2,2,2,2,2,3,4,4,4,4,4,4
participant_5_BUY,[],"[1054, 2003]",[],[],[],"[6660, 2003]",[],"[1029, 1031]",[],[],[],[6662],[],[3047],[],[],[],"[3076, 1028]",[],[],"[3075, 1028]",[],[],"[3211, 3067, 1033]",[],[]
participant_5_SOLD,[],[],[],[],[2003],[],[],"[2003, 1029]",[],[],[],"[6660, 1031]",[],[],[],[],[],[],[],[],"[3076, 1028]",[],[],"[1028, 1028]",[],[]
participant_5_UNDO,[],[],[],[],[],[],[],[],[],[],[],[],[],[],[],[],[],[],[],[],[],[],[],"[[0, 3211]]",[],[]
participant_6_GOLD,500,500,621,1018,1696,2045,2380,2797,3124,3651,4009,4348,4745,5031,5626,5898,6125,7007,7517,7782,8264,8602,9049,9452,9764,10276
participant_6_CURRENTGOLD,500,0,121,518,1196,245,580,997,1324,1851,2209,48,445,731,1326,98,325,1207,1717,1982,2464,202,649,152,464,976
participant_6_LEVEL,1,1,2,3,4,4,5,6,6,7,7,8,8,9,10,10,10,11,11,12,12,13,13,13,14,14
participant_6_MINIONSKILLED,0,0,0,0,0,0,1,5,5,5,5,5,5,9,9,9,9,13,13,15,15,16,16,16,16,16
participant_6_KILLS,0,0,0,1,1,1,3,3,3,3,3,3,3,4,6,7,10,10,11,11,14,16,18,18,18,21
participant_6_BUY,[],"[1036, 2003, 2003, 2003, 3340]",[],[],"[1037, 2003]",[],"[1053, 1001, 2031]",[2055],[],[],[],"[3153, 2055]",[],[],[],"[4635, 3020, 1082]",[],[4633],[],[],[],"[3041, 1058]",[],[3089],[],[]
participant_6_SOLD,[],[],[],"[2003, 2003, 2003]",[],[2003],[1036],[],[2055],[],[],"[1053, 1037]",[],[],[2055],[1001],[],[4635],[],[],[],[1082],[],[1058],[],[]
participant_6_UNDO,[],[],[],[],[],[],[],[],[],[],[],[],[],[],[],[],[],[],[],[],[],[],[],[],[],[]
participant_7_GOLD,500,500,584,1294,1473,1847,2610,2732,3063,3493,3749,4100,4392,5146,6352,7107,8374,8990,9512,9702,11116,12298,13447,13619,13873,15192
participant_7_CURRENTGOLD,500,0,84,794,48,412,175,222,543,963,1219,60,342,1096,2292,597,1864,580,1102,1292,2706,1389,2538,159,414,1792
participant_7_LEVEL,1,1,1,3,4,5,5,5,6,7,7,8,8,9,10,10,11,11,12,12,12,13,14,14,14,14
participant_7_MINIONSKILLED,0,0,3,12,15,27,28,28,37,46,54,64,71,77,85,94,101,108,114,114,126,141,148,148,152,165
participant_7_KILLS,0,0,0,0,0,0,0,0,0,0,2,2,2,2,2,3,3,4,4,4,4,4,4,4,4,4
participant_7_BUY,[],"[1055, 2003]",[],[],[],[],[],"[3123, 1036]",[],[],[],"[3134, 6670, 1018, 1001]",[],[],[],"[6671, 2055]",[],[],"[3134, 3363]",[],[3009],[],[],[6676],[],[1018]
participant_7_SOLD,[],[],[],[],[2003],[],[],[],[],[],[],"[1036, 1036]",[],[],[],"[6670, 1018]",[],[],[3340],[],"[2055, 1001]",[],[],[3134],[2055],[]
participant_7_UNDO,[],[],[],[],[],[],[],[],[],[],[],"[[0, 3134]]",[],[],[],[],[],[],[],[],"[[2055, 0]]",[],[],[],[],[]
participant_8_GOLD,500,500,598,902,1137,1462,1691,1946,2305,2724,3561,3781,4027,4164,4384,5084,5611,6497,6850,7226,7583,7851,8519,8726,9129,9292
participant_8_CURRENTGOLD,500,0,98,402,637,962,1191,296,655,1074,1911,281,527,664,884,9,536,1422,675,1051,808,1076,1744,51,454,-13
participant_8_LEVEL,1,1,1,2,3,4,4,5,5,6,7,7,8,8,8,9,9,10,10,11,11,11,12,13,13,13
participant_8_MINIONSKILLED,0,0,4,14,20,32,37,45,55,69,77,83,90,91,93,101,112,122,131,139,141,142,144,149,160,163
participant_8_KILLS,0,0,0,0,0,0,0,0,0,0,0,0,0,0,0,0,0,0,0,0,0,0,0,0,0,0
participant_8_BUY,[],"[3850, 2003, 2003]",[],[],[],[],[],"[1001, 1052, 2031, 2055]",[],[],"[3364, 4642, 1028, 2055]",[],[],"[3067, 2055]",[],"[3009, 2055]",[],[],"[4005, 2055]",[2055],[],[],[],"[3114, 1026, 2055]",[],[]
participant_8_SOLD,[],[],[],[2003],[2003],[],[],[],[2055],[],"[3850, 3340, 1052]",[],[2055],[1028],[2055],[1001],[3851],[],"[2055, 3067, 4642]",[],[2055],[],[],[2031],[2055],[]
participant_8_UNDO,[],[],[],[],[],[],[],[],[],[],[],[],[],[],[],[],[],[],[],[],[],[],[],[],[],[]
participant_9_GOLD,500,500,543,797,952,1146,1496,1672,1846,2055,2600,2821,3061,3221,3549,3750,4150,4563,4703,4881,5375,5957,6516,6686,6826,7306
participant_9_CURRENTGOLD,500,0,43,297,452,646,996,212,386,595,50,271,511,196,524,50,450,863,78,181,675,1257,1816,321,461,881
participant_9_LEVEL,1,1,1,2,2,3,4,4,5,5,6,6,7,7,7,8,9,9,9,9,10,11,12,12,12,13
participant_9_MINIONSKILLED,0,0,0,0,0,0,1,3,3,4,4,4,5,5,6,6,7,8,8,8,9,10,10,10,10,11
participant_9_KILLS,0,0,0,0,1,1,1,1,1,2,2,2,2,2,2,2,2,3,3,3,3,3,3,4,4,5
participant_9_BUY,[],"[1039, 2031, 3340]",[],[],[],"[6660, 1029]",[],[],[],[],[],"[3068, 1001, 1029]",[],[],[],"[3158, 3076, 1028]",[],[],[],[],[],[4637],[],[1011],[],[]
participant_9_SOLD,[],[],[],[],[],[],[],[],[],[1039],[],"[6660, 1029]",[],"[3340, 3513]",[],"[1001, 1029]",[],[],[],[],[],[1028],[],[],[],[]
participant_9_UNDO,[],[],[],[],[],[],[],[],[],[],[],[],[],[],[],[],[],[],[],[],[],[],[],[],[],[]
team0_KILLS,0,0,0,0,0,1,3,5,5,5,6,6,6,9,10,10,10,11,11,12,13,13,13,16,16,17
team0_CURRENTGOLD,2500,25,525,1510,2466,3951,2592,2822,2790,2387,2466,3132,2996,5090,5910,3695,2087,2153,1727,3207,1470,2282,1567,4528,1991,1312
team0_TOTALGOLD,2500,2500,3000,4335,5801,7286,9377,11507,13135,14542,16221,17797,19476,22270,25190,26565,27472,29188,30762,32316,33780,35016,36002,39398,40840,41872
team0_LEVEL,5,5,6,13,17,18,22,26,30,31,35,38,40,43,45,46,46,48,50,52,54,54,55,60,60,60
team0_SBIRES,0,0,12,35,58,67,77,108,142,175,195,227,251,271,288,308,323,355,367,390,394,418,428,441,465,470
team1_KILLS,0,0,0,1,2,3,5,5,5,6,8,8,8,10,12,14,17,19,20,21,25,27,29,30,30,34
team1_CURRENTGOLD,2500,0,409,2308,3082,2554,3560,1758,3319,5241,6508,841,2311,2795,5294,1389,4254,4493,4310,5709,6666,4185,7656,894,2349,4634
team1_TOTALGOLD,2500,2500,2909,4808,6507,8339,10345,11528,13099,15031,17388,18981,20461,22520,25029,27324,30189,33528,35370,36844,40301,42919,46390,47494,48948,51864
team1_LEVEL,5,5,6,13,17,21,24,26,29,33,35,38,40,43,45,47,50,52,53,56,57,60,64,65,67,68
team1_SBIRES,0,0,9,34,51,83,100,119,150,180,210,233,258,269,280,308,333,359,381,393,408,426,440,445,469,491
delta_KILLS,0,0,0,-1,-2,-2,-2,0,0,-1,-2,-2,-2,-1,-2,-4,-7,-8,-9,-9,-12,-14,-16,-14,-14,-17
delta_CURRENTGOLD,0,25,116,-798,-616,1397,-968,1064,-529,-2854,-4042,2291,685,2295,616,2306,-2167,-2340,-2583,-2502,-5196,-1903,-6089,3634,-358,-3322
delta_TOTALGOLD,0,0,91,-473,-706,-1053,-968,-21,36,-489,-1167,-1184,-985,-250,161,-759,-2717,-4340,-4608,-4528,-6521,-7903,-10388,-8096,-8108,-9992
delta_LEVEL,0,0,0,0,0,-3,-2,0,1,-2,0,0,0,0,0,-1,-4,-4,-3,-4,-3,-6,-9,-5,-7,-8
delta_SBIRES,0,0,3,1,7,-16,-23,-11,-8,-5,-15,-6,-7,2,8,0,-10,-4,-14,-3,-14,-8,-12,-4,-4,-21
