name,frame_0,frame_1,frame_2,frame_3,frame_4,frame_5,frame_6,frame_7,frame_8,frame_9,frame_10,frame_11,frame_12,frame_13,frame_14,frame_15,frame_16,frame_17,frame_18,frame_19,frame_20,frame_21,frame_22,frame_23,frame_24,frame_25,frame_26,frame_27,frame_28
nameStamp,Tstart,Tearly,Tearly,Tearly,Tearly,Tearly,Tearly,Tearly,Tearly,Tearly,Tearly,Tearly,Tearly,Tearly,Tearly,Tearly,Tearly,Tearly,Tmid,Tmid,Tmid,Tmid,Tmid,Tmid,Tmid,Tend,Tend,Tend,Tend
timestamp,0,60025,120050,180074,240091,300121,360136,420157,480178,540204,600218,660244,720265,780290,840304,900307,960328,1020359,1080385,1140388,1200408,1260440,1320448,1380473,1440493,1500516,1560538,1620569,1680569
participant_0_GOLD,500,500,612,839,1239,1515,1893,2127,2528,2742,3564,3916,4312,4609,5120,5242,6228,7050,7172,8137,8639,8761,9676,9995,10117,10448,10767,10924,10967
participant_0_CURRENTGOLD,500,0,112,189,589,65,443,677,1078,1292,2114,466,862,1159,770,92,1078,1900,722,1687,89,211,1126,605,457,139,457,614,417
participant_0_LEVEL,1,1,1,2,4,4,6,6,7,7,8,9,9,10,10,10,11,11,11,12,12,12,13,13,13,13,14,14,14
participant_0_MINIONSKILLED,0,0,5,11,25,31,43,49,62,67,76,86,98,108,118,118,122,132,132,132,144,144,154,158,158,166,173,175,175
participant_0_KILLS,0,0,0,0,0,0,0,0,0,0,1,1,1,2,2,2,2,2,2,5,5,5,6,6,6,6,6,7,8
participant_0_BUY,[],"[1054, 2003, 3340]",[],[],[],[],"[3145, 2003]",[],[],[],[3144],[],[],"[3146, 1001, 2003]",[],[1052],[],[],[2420],[],[],[3157],[],"[3020, 1052]",[],[1028],[],[3916],[1026]
participant_0_SOLD,[],[],[],[],[],[],[],[2003],[],[],[],[],[],"[3144, 3145]",[2003],[],[],[],[],[],[],"[1052, 2420]",[],[1001],[],[],[],"[1054, 1028, 1052]",[]
participant_0_UNDO,[],[],[],[],[],[],"[[0, 2003]]",[],[],[],[],[],[],[],[],[],[],[],[],[],[],[],[],[],[],[],[],[],[]
participant_1_GOLD,500,500,706,1013,1213,1538,1840,2062,2325,2646,3313,3521,3643,3956,4349,4832,5039,5364,5500,5820,6223,6370,6857,7045,7240,7416,7539,7874,8067
participant_1_CURRENTGOLD,500,0,206,513,713,1038,1340,312,575,896,1563,571,243,206,599,632,489,364,500,820,473,620,307,495,240,416,189,524,717
participant_1_LEVEL,1,1,2,3,3,4,5,5,5,6,7,7,7,8,8,9,9,10,10,10,11,11,12,12,12,12,12,13,13
participant_1_MINIONSKILLED,0,0,0,0,0,0,0,0,1,1,3,3,3,4,4,11,16,21,22,23,23,27,33,33,33,33,33,37,37
participant_1_KILLS,0,0,0,0,0,0,0,0,0,0,0,0,0,0,0,0,0,0,0,0,0,0,0,0,0,0,0,0,0
participant_1_BUY,[],"[1041, 2031, 3340]",[],[],[],[],[],"[1039, 3751]",[],[],[],"[1413, 1001]",[1033],[3111],[],[1033],[3067],[1033],[],[],[3211],[],[3065],[],[1033],[],[1036],[],[]
participant_1_SOLD,[],[],[],[],[],[],[],[],[],[],"[3340, 3513]","[3751, 1039, 1041]",[],"[1001, 1033]",[],[],[],[],[],[],[1033],[],"[3211, 3067]",[],[],[],[],[],[]
participant_1_UNDO,[],[],[],[],[],[],[],[],[],[],[],[],[],[],[],[],"[[0, 1033]]",[],[],[],[],[],[],[],[],[],[],[],[]
participant_2_GOLD,500,500,577,899,1239,1592,1771,2162,2424,2794,3265,3500,3875,4318,4641,4763,4961,5307,5429,6801,7244,7367,8113,8689,9007,9234,9427,10171,10514
participant_2_CURRENTGOLD,500,0,77,399,739,1092,221,612,874,1244,115,350,725,68,391,78,276,622,94,1466,1909,217,963,304,622,449,643,801,114
participant_2_LEVEL,1,1,1,3,4,5,5,6,7,8,9,9,9,10,10,10,10,11,11,11,12,12,13,13,13,13,14,14,14
participant_2_MINIONSKILLED,0,0,3,12,25,36,39,52,60,71,74,82,93,94,102,102,102,108,108,111,126,126,132,141,148,154,159,160,160
participant_2_KILLS,0,0,0,0,0,0,0,0,0,0,1,1,1,1,1,1,2,2,2,3,3,3,4,4,4,4,4,4,4
participant_2_BUY,[],"[1055, 2003, 3340]",[],[2031],[],[3123],[],[],[],[],[],"[3086, 1042, 1001]",[],[],[3046],[3111],[],[],[1038],[],[3031],[],[],[1053],[1033],[3105],[],[],[]
participant_2_SOLD,[],[],[],[2003],[],[],[],[],[],[],[],[],[],[],"[1042, 3086]",[1001],[],[],[],[],[1038],[],[],[2031],[1055],[1033],[],[],[]
participant_2_UNDO,[],[],[],[],[],[],[],[],[],[],[],[],[],[],[],[],[],[],[],[],[],[],[],[],[],[],[],[],[]
participant_3_GOLD,500,500,563,871,1155,1438,1893,2064,2736,3930,4143,4495,4844,4980,5387,5768,6091,6263,6653,7971,8094,8251,8486,8833,9213,9335,9501,9623,9666
participant_3_CURRENTGOLD,500,0,63,371,655,938,1393,139,811,2005,68,420,769,105,512,893,1216,88,478,96,219,376,611,958,258,81,246,368,391
participant_3_LEVEL,1,1,1,2,3,4,5,5,6,7,7,8,8,8,9,9,10,10,10,11,11,11,12,12,12,12,12,12,13
participant_3_MINIONSKILLED,0,0,2,10,20,26,43,46,56,68,73,83,91,92,105,116,122,122,134,138,138,140,146,152,163,163,165,165,165
participant_3_KILLS,0,0,0,0,0,0,0,0,1,3,3,3,3,3,3,3,3,3,3,4,4,4,4,4,4,4,4,4,4
participant_3_BUY,[],"[1055, 2003, 3340]",[],[],[],[],[],"[1038, 2003, 2055]",[],[],"[3031, 2003]",[],[],[1018],[],[],[],[1038],[],"[3095, 1042, 1042]",[],[],[],[],[3086],[1001],[],[],[]
participant_3_SOLD,[],[],[],[2003],[],[],[],[],[2055],[2003],[1038],[],[],[],[],[],[],[],[],"[1038, 1018]",[],[],[],[],"[2003, 1042]",[],[],[],[]
participant_3_UNDO,[],[],[],[],[],[],[],[],[],[],[],[],[],[],[],[],[],[],[],[],[],[],[],[],[],[],[],[],[]
participant_4_GOLD,500,500,565,759,908,1042,1253,1387,1679,2435,2579,2810,3040,3210,3474,3675,3837,4117,4311,4649,5089,5230,5852,6073,6243,6383,6540,6694,6743
participant_4_CURRENTGOLD,500,0,65,259,408,142,278,412,704,60,204,435,665,160,424,625,787,267,461,799,640,210,832,1053,723,213,370,194,243
participant_4_LEVEL,1,1,1,2,3,3,4,4,4,5,5,6,6,6,6,7,7,8,8,9,9,9,10,10,11,11,11,11,11
participant_4_MINIONSKILLED,0,0,2,3,4,4,6,6,8,9,10,12,13,14,17,20,21,22,24,24,24,24,27,28,29,29,30,31,31
participant_4_KILLS,0,0,0,0,0,0,0,0,0,1,1,1,1,1,1,1,1,1,1,1,2,2,3,3,3,3,3,3,3
participant_4_BUY,[],"[3858, 2003, 2003, 3340]",[],[],[],[1028],[2055],[],[],"[1031, 3067, 2055, 2003, 2055, 3364]",[],[],[],"[3109, 2055]",[],[],[],[3047],[],[],"[1033, 2055, 2055]","[1057, 1029]",[],[],[1031],[2420],[],[3193],[]
participant_4_SOLD,[],[],[],"[2003, 2003]",[],[],[2055],[],[],"[2010, 2010, 2010, 1028, 3340]","[2055, 2055]",[],[3858],"[3067, 1031]",[],[2055],[],[2422],[],[2003],[2055],[1033],[2055],[3859],[1029],[],[],"[1031, 1057, 2420]",[]
participant_4_UNDO,[],[],[],[],[],[],[],[],[],[],[],[],[],[],[],[],[],[],[],[],[],[],[],[],[],[],[],[],[]
participant_5_GOLD,500,500,542,1197,1485,1873,2080,2541,2886,3256,3399,3751,4097,4408,5088,5315,5777,6073,6316,6761,7036,7914,8098,8333,8865,9564,9921,10821,11183
participant_5_CURRENTGOLD,500,0,42,697,985,348,555,1016,1361,1731,54,406,752,1063,1743,170,632,328,571,1016,491,1368,253,488,125,824,1181,2081,2233
participant_5_LEVEL,1,1,1,3,4,5,5,6,7,8,8,8,9,10,11,11,11,12,12,12,12,13,13,13,14,14,14,15,15
participant_5_MINIONSKILLED,0,0,1,8,15,28,33,50,60,71,72,82,95,106,114,120,133,139,140,140,145,145,145,145,145,153,157,168,168
participant_5_KILLS,0,0,0,0,0,0,0,0,0,0,0,0,0,1,1,1,2,2,2,2,2,2,2,3,3,3,3,5,5
participant_5_BUY,[],"[1055, 2003, 3340]",[],[],[],[1037],[],[],[],"[3070, 1001, 1042]",[],[3004],[],"[3006, 1042, 1042]",[],[],[],[],"[1037, 1043, 1052]",[],[3124],[],[3108],[],[3101],[],[],[],"[3115, 3191]"
participant_5_SOLD,[],[],[],[],[],[],[],[],[],[],[],"[3070, 1037]",[],"[1001, 1042]",[2003],[],[],[],"[1042, 1042]",[],"[1055, 1052, 1043, 1037]",[],[],[],[],[],[3004],[],"[3101, 3108]"
participant_5_UNDO,[],[],[],[],[],[],[],[],[],[],[],[],[],[],[],[],[],[],[],[],[],[],[],[],[],[],[],[],[]
participant_6_GOLD,500,500,636,1097,1440,1752,1979,2287,2599,2832,3497,4004,4703,5319,5682,6204,6512,7327,7884,8307,8719,9790,10477,11390,11947,12603,13372,14348,15068
participant_6_CURRENTGOLD,500,0,136,597,940,602,829,1137,1449,107,772,1279,1978,2594,157,678,987,1802,2359,182,594,1666,2352,965,482,1138,1907,2884,3543
participant_6_LEVEL,1,1,2,3,3,4,4,5,6,6,8,8,9,10,10,11,11,12,12,13,13,14,14,15,15,16,16,16,17
participant_6_MINIONSKILLED,0,0,0,0,0,0,0,0,0,2,10,10,10,10,10,10,12,21,22,22,22,28,28,33,33,33,36,41,46
participant_6_KILLS,0,0,0,0,0,0,0,0,0,1,1,1,1,1,1,1,1,1,1,2,2,2,2,2,2,3,3,3,3
participant_6_BUY,[],"[3858, 2003, 2003, 3340]",[],[],[],"[1029, 2055]",[],[],"[3024, 2055]",[1001],[],[],"[3047, 2003, 3364]",[],"[1029, 1033, 2003, 2003]",[],[],[],"[3050, 3067, 2055]",[],[1029],[],[1031],[],"[3109, 1029, 1028]",[],[3082],[],[]
participant_6_SOLD,[],[],[],[],[],[],[2055],[],[1029],[],[3858],[2003],"[1001, 3340]","[2003, 2003, 2055]",[],[],[],[3859],"[2003, 3364, 1033, 1029, 3024]",[],[2003],[3513],[1029],[2055],"[3067, 1031]",[],[1029],[],[]
participant_6_UNDO,[],[],[],[],[],[],[],[],[],[],[],[],[],[],[],[],[],[],[],[],[],[],[],[],[],[],[],[],[]
participant_7_GOLD,500,500,542,741,962,1245,1766,1944,2282,2510,3028,3269,3595,4352,4633,5307,5760,6156,6963,7107,7635,7807,8092,8460,8993,9261,9486,10281,10493
participant_7_CURRENTGOLD,500,0,42,241,462,745,46,224,562,790,28,269,595,1352,657,207,610,571,278,422,950,657,942,1310,868,1136,61,856,1068
participant_7_LEVEL,1,1,1,3,4,5,6,6,7,8,9,9,10,10,10,11,12,12,12,12,13,13,13,14,14,15,15,15,16
participant_7_MINIONSKILLED,0,0,1,5,11,17,23,26,36,42,46,53,62,64,70,81,84,84,89,89,95,95,104,112,112,116,117,126,131
participant_7_KILLS,0,0,0,0,0,0,0,0,0,0,1,2,3,4,4,5,5,6,6,7,7,9,9,11,11,12,14,15,16
participant_7_BUY,[],"[1039, 2031, 3340]",[],[],[],[3706],[],[],[],"[1402, 2055]",[],[],[],[],"[3020, 3101, 3108]",[],[],[],[],"[3115, 3916]",[],[],[],"[3165, 3108]",[3191],[],[],[],[]
participant_7_SOLD,[],[],[],[],[],[1039],[],[],[],[3706],[],[2055],[],[],[2422],[],[],[],[],"[3101, 3108]",[],[],[],[3916],[2031],[],[],[],[]
participant_7_UNDO,[],[],[],[],[],[],[],[],[],[],[],[],[],[],[],[],[],[],[],[],[],[],[],[],[],[],[],[],[]
participant_8_GOLD,500,500,577,867,1190,1515,1806,2239,2598,2866,3270,3625,3831,4756,4963,5288,6008,6388,6755,7025,7265,7898,8020,8736,9269,9667,9899,10970,11113
participant_8_CURRENTGOLD,500,0,77,367,690,140,431,864,1223,41,445,125,331,156,363,688,1408,1788,445,715,345,977,200,916,349,747,979,2051,-87
participant_8_LEVEL,1,1,1,2,3,4,4,5,6,6,7,7,7,8,8,8,9,9,10,10,10,11,11,12,12,13,13,14,14
participant_8_MINIONSKILLED,0,0,3,12,21,31,40,56,66,70,83,88,93,94,98,110,120,130,137,137,140,153,153,160,160,160,161,168,168
participant_8_KILLS,0,0,0,1,1,1,1,1,1,1,1,1,1,1,2,2,2,2,2,3,3,4,4,4,4,5,5,5,6
participant_8_BUY,[],"[1054, 2003, 3340]",[],[],[],"[3751, 2055, 2003]",[],[],[],[],[3068],[],[],[],[],"[3076, 3047]",[],"[1029, 1029]",[],[],"[3082, 1028]",[],"[3075, 3067]",[],"[1011, 2055]",[],[],[],[]
participant_8_SOLD,[],[],[],[2003],[],[],[2003],[],[],[],"[2055, 3751]",[],[],[],[],[2422],[],[],[],[],"[1029, 1029]",[],"[3076, 1028, 3082]",[],[1054],[],[],[],[]
participant_8_UNDO,[],[],[],[],[],[],[],[],[],[],[],[],[],[],[],[],[],[],[],[],[],[],[],[],[],[],[],[],[]
participant_9_GOLD,500,500,544,699,894,1112,1268,1489,1644,2120,2380,2719,2880,3508,3670,3852,4247,4825,5086,5658,5798,6084,6224,6577,7157,7912,8161,8606,8719
participant_9_CURRENTGOLD,500,0,44,199,394,237,393,614,94,270,530,869,180,808,120,302,697,1275,61,633,493,779,419,772,52,807,356,801,894
participant_9_LEVEL,1,1,1,2,3,3,4,4,5,5,6,6,6,7,7,8,8,9,10,10,10,11,11,11,12,12,12,13,14
participant_9_MINIONSKILLED,0,0,1,2,3,5,6,8,9,10,13,16,17,21,22,24,25,27,27,27,27,27,27,29,30,33,33,33,34
participant_9_KILLS,0,0,0,0,0,0,1,1,1,1,2,2,2,4,4,5,6,7,8,8,9,9,9,9,9,9,9,10,10
participant_9_BUY,[],"[1056, 2003, 2003, 3340]",[],[],[],[],"[1001, 1052, 1052, 2003]",[],[],[],"[3802, 3020, 2003]",[],[],[],"[1026, 2003, 2055, 3363]","[3285, 2055]","[3340, 3363, 2003]",[1052],"[3191, 1052]",[],[],[3108],[],[],"[3157, 2055]",[],"[1058, 2003]",[],[]
participant_9_SOLD,[],[],[2003],[],[2003],[],[],[],[2003],[],"[1052, 1052, 1001]",[],[],[],"[3340, 2003, 2055]","[3802, 1026]","[3363, 3340]",[],"[2055, 1052]",[],[],[1052],[],[],"[3191, 3108]","[2055, 2003, 2003]",[],[],[]
participant_9_UNDO,[],[],[],[],[],[],[],[],[],[],[],[],[],[],[],[],[],[],[],[],[],[],[],[],[],[],[],[],[]
team0_KILLS,0,0,0,0,0,0,0,0,1,4,6,6,6,7,7,7,8,8,8,13,14,14,17,17,17,17,17,18,19
team0_CURRENTGOLD,2500,0,523,1731,3104,3275,3675,2152,4042,5497,4064,2242,3264,1698,2696,2320,3846,3241,2255,4868,3330,1634,3839,3415,2300,1298,1905,2501,1882
team0_TOTALGOLD,2500,2500,3023,4381,5754,7125,8650,9802,11692,14547,16864,18242,19714,21073,22971,24280,26156,28101,29065,33378,35289,35979,38984,40635,41820,42816,43774,45286,45957
team0_LEVEL,5,5,6,12,17,20,25,26,29,33,36,39,39,42,43,45,47,50,50,53,55,55,60,60,61,61,63,64,65
team0_SBIRES,0,0,12,36,74,97,131,153,187,216,236,266,298,312,346,367,383,405,420,428,455,461,492,512,531,545,560,568,568
team1_KILLS,0,0,0,1,1,1,2,2,2,3,5,6,7,11,12,14,16,18,19,22,23,26,26,29,29,32,34,38,40
team1_CURRENTGOLD,2500,0,341,2101,3471,2072,2254,3855,4689,2939,1829,2948,3836,5973,3040,2045,4334,5764,3714,2968,2873,5447,4166,4451,1876,4652,4484,8673,7651
team1_TOTALGOLD,2500,2500,2841,4601,5971,7497,8899,10500,12009,13584,15574,17368,19106,22343,24036,25966,28304,30769,33004,34858,36453,39493,40911,43496,46231,49007,50839,55026,56576
team1_LEVEL,5,5,6,13,17,21,23,26,31,33,38,38,41,45,46,49,51,54,56,57,58,62,62,65,67,70,70,73,76
team1_SBIRES,0,0,6,27,50,81,102,140,171,195,224,249,277,295,314,345,374,401,415,415,429,448,457,479,480,495,504,536,547
delta_KILLS,0,0,0,-1,-1,-1,-2,-2,-1,1,1,0,-1,-4,-5,-7,-8,-10,-11,-9,-9,-12,-9,-12,-12,-15,-17,-20,-21
delta_CURRENTGOLD,0,0,182,-370,-367,1203,1421,-1703,-647,2558,2235,-706,-572,-4275,-344,275,-488,-2523,-1459,1900,457,-3813,-327,-1036,424,-3354,-2579,-6172,-5769
delta_TOTALGOLD,0,0,182,-220,-217,-372,-249,-698,-317,963,1290,874,608,-1270,-1065,-1686,-2148,-2668,-3939,-1480,-1164,-3514,-1927,-2861,-4411,-6191,-7065,-9740,-10619
delta_LEVEL,0,0,0,-1,0,-1,2,0,-2,0,-2,1,-2,-3,-3,-4,-4,-4,-6,-4,-3,-7,-2,-5,-6,-9,-7,-9,-11
delta_SBIRES,0,0,6,9,24,16,29,13,16,21,12,17,21,17,32,22,9,4,5,13,26,13,35,33,51,50,56,32,21
