name,frame_0,frame_1,frame_2,frame_3,frame_4,frame_5,frame_6,frame_7,frame_8,frame_9,frame_10,frame_11,frame_12,frame_13,frame_14,frame_15,frame_16,frame_17,frame_18,frame_19,frame_20,frame_21
nameStamp,Tstart,Tearly,Tearly,Tearly,Tearly,Tearly,Tearly,Tearly,Tearly,Tearly,Tearly,Tearly,Tearly,Tearly,Tearly,Tearly,Tearly,Tmid,Tmid,Tmid,Tmid,Tmid
timestamp,0,60017,120045,180078,240082,300097,360111,420129,480161,540180,600195,660201,720229,780249,840275,900293,960313,1020338,1080360,1140388,1200418,1260418
participant_0_GOLD,500,500,563,776,990,1245,1410,1546,1668,1945,2202,2506,2928,3261,3398,3562,3685,3807,4082,4219,4441,4483
participant_0_CURRENTGOLD,500,0,63,276,490,745,910,311,83,360,617,56,478,11,148,312,435,557,832,169,41,83
participant_0_LEVEL,1,1,1,3,4,5,5,6,6,7,8,8,8,9,9,9,9,9,10,10,10,10
participant_0_MINIONSKILLED,0,0,2,7,12,17,19,20,20,28,33,34,34,43,44,46,46,46,51,52,53,53
participant_0_KILLS,0,0,0,0,0,0,0,0,0,0,0,0,0,0,1,1,1,1,1,1,1,1
participant_0_BUY,[],"[3854, 2003, 3340, 2003]",[],[2003],[],[],[1001],[],[1033],[],[],"[1029, 1029]",[3105],[2003],[],[3050],[2003],[],[],[],[],[]
participant_0_SOLD,[],[],[],"[2010, 2003]",[],"[2010, 2003]",[2003],[],[],[2010],[],[],"[1033, 1029]",[],[],"[3105, 1029]",[2003],[],[],[],[],[3854]
participant_0_UNDO,[],[],[],[],[],[],[],[],[],[],[],[],[],[],[],[],[],[],[],[],[],[]
participant_1_GOLD,500,500,621,963,1184,1596,1805,2110,2317,2630,2852,3492,3778,4085,5273,5505,5728,5850,6104,6227,6978,7243
participant_1_CURRENTGOLD,500,0,121,463,684,1096,280,585,392,705,927,1567,153,460,1648,1880,2103,75,329,102,853,1118
participant_1_LEVEL,1,1,2,3,3,4,5,5,5,6,6,7,8,8,9,9,9,10,10,10,10,10
participant_1_MINIONSKILLED,0,0,0,0,1,1,1,1,1,1,1,3,4,4,10,10,10,10,14,14,21,30
participant_1_KILLS,0,0,0,0,0,0,0,1,1,1,2,2,4,4,4,4,4,4,4,4,4,4
participant_1_BUY,[],"[1055, 2003, 3340]",[],[],[],[],"[1036, 1036]",[],"[3144, 1042]",[],[],"[1052, 1042, 1042]",[1018],[],[],[],[],[],[3085],[],[],[]
participant_1_SOLD,[],[],[],[2003],[],[],[],[],"[1036, 1036]",[],[],[],[1042],[],[],[],[],[],"[1042, 1018, 1042]",[],[],[]
participant_1_UNDO,[],[],[],[],[],[],[],[],[],[],[],[],[],[],[],[],[],[],[],[],[],[]
participant_2_GOLD,500,500,584,818,1025,1147,1347,1975,2285,2408,2777,3108,3589,3824,4400,4564,4801,4924,5046,5232,5630,5672
participant_2_CURRENTGOLD,500,0,84,318,525,347,547,1175,1485,323,692,1023,204,439,1014,129,366,89,211,396,30,72
participant_2_LEVEL,1,1,1,3,4,4,5,6,7,7,8,9,9,10,11,11,11,11,11,12,12,12
participant_2_MINIONSKILLED,0,0,3,10,15,15,19,28,35,35,46,55,57,64,70,72,75,75,75,79,87,87
participant_2_KILLS,0,0,0,0,0,0,0,0,0,0,0,1,1,1,3,3,3,3,3,3,4,4
participant_2_BUY,[],"[1041, 2031, 3340]",[],[],[],[],"[3706, 1001, 2055]",[],[1028],[],[],[],"[1401, 3009, 3009, 3009]",[],[],[],[],"[3101, 3057]",[],[1036],[],[]
participant_2_SOLD,[],[],[],[],[],[],[1041],[2055],[],[],[],[],"[1028, 3706, 1001, 1001, 1001]",[],[],[],[],[],[],[],[],[]
participant_2_UNDO,[],[],[],[],[],[],[],[],[],[],[],[],"[[0, 3009], [0, 3009]]",[],[],[],[],[],[],[],[],[]
participant_3_GOLD,500,500,542,713,906,1147,1312,2338,2460,2625,3403,3554,4290,4447,4645,4858,5009,5173,5295,5467,5662,5704
participant_3_CURRENTGOLD,500,0,42,213,406,647,112,1138,60,225,1003,119,265,422,620,833,984,1148,70,242,437,269
participant_3_LEVEL,1,1,1,1,3,4,4,5,5,6,6,7,7,7,8,8,8,9,9,9,9,9
participant_3_MINIONSKILLED,0,0,1,4,8,12,14,23,23,25,28,30,31,33,33,38,40,43,43,46,51,51
participant_3_KILLS,0,0,0,0,0,0,0,1,1,1,1,1,2,2,3,3,3,3,3,3,3,3
participant_3_BUY,[],"[1056, 2003, 2003, 3340]",[],[],[],[1001],[],[],[],"[1026, 1052]",[],[],"[3802, 1052]",[],[],[3285],[],[1028],[],[],[3916],[]
participant_3_SOLD,[],[],[],[],"[2003, 2003]",[],[],[],[],[],[],[],[1052],[],[],"[3802, 1026]",[],[],[],[],"[1028, 1052]",[]
participant_3_UNDO,[],[],[],[],[],[],[],[],[],[],[],[],[],[],[],[],[],[],[],[],[],[]
participant_4_GOLD,500,500,523,657,792,1003,1138,1307,1441,1576,1860,1995,2471,2647,3307,3462,3597,3818,3980,4136,4423,4560
participant_4_CURRENTGOLD,500,0,23,107,242,453,288,457,141,276,560,95,221,347,1007,312,397,618,780,936,1223,1360
participant_4_LEVEL,1,1,1,1,2,2,3,4,4,4,5,6,7,7,8,8,8,8,8,9,9,10
participant_4_MINIONSKILLED,0,0,0,0,0,2,2,4,4,4,4,4,7,10,10,11,11,12,14,15,19,20
participant_4_KILLS,0,0,0,0,0,0,0,0,0,0,0,0,1,1,1,1,1,1,1,1,1,1
participant_4_BUY,[],"[2033, 3340]",[],[],[],[],[],"[1001, 1052]",[1027],[],[],"[1052, 3802, 1027]",[],[3020],[],[],[],[],[],[3067],[1027],[]
participant_4_SOLD,[],[],[],[2010],[],[2010],[],[2010],[],[],[],"[1052, 1027, 1052]",[],[1001],[],[],[],[],[],[],[],[]
participant_4_UNDO,[],[],[],[],[],[],[],[],[],[],[],[],[],[],[],[],[],[],[],[],[],[]
participant_5_GOLD,500,500,584,748,980,1200,1470,1829,2174,2360,2482,3035,3241,3760,4424,5132,5567,7106,7688,8155,8327,8618
participant_5_CURRENTGOLD,500,0,84,248,480,700,370,729,1074,1260,182,735,41,560,1224,1932,467,2006,2588,3055,627,918
participant_5_LEVEL,1,1,1,2,4,5,6,6,7,8,8,9,9,10,11,11,12,13,13,13,14,14
participant_5_MINIONSKILLED,0,0,3,5,9,14,22,26,35,38,38,41,46,51,60,72,83,94,103,103,106,106
participant_5_KILLS,0,0,0,0,0,0,0,0,0,0,0,0,0,0,0,0,0,0,0,0,1,1
participant_5_BUY,[],"[1056, 2003, 2003, 3340]",[],[],"[2003, 2003, 1001]",[],[],[],"[1026, 2003, 2003]",[],[],[],"[1052, 1027, 2003, 2003, 2003]",[],[],"[3802, 2003, 2003, 2003]",[],[],[3285],[],[],[]
participant_5_SOLD,[],[],[],[],[2003],[2003],[],[2003],[],[2003],[],"[2003, 2003]",[],[],"[2003, 2003, 2003]","[1052, 1027]",[],[],"[3802, 1026]",[],[],[]
participant_5_UNDO,[],[],[],[],[],[],[],[],[],[],[],[],[],[],[],[],[],[],[],[],[],[]
participant_6_GOLD,500,500,621,1033,1527,1735,1992,2199,2518,2765,3073,3280,3722,4035,4477,4700,5192,6250,6811,7226,7588,8044
participant_6_CURRENTGOLD,500,0,121,533,1027,1235,1492,449,768,1015,1323,205,647,510,302,525,1017,2075,2636,3051,3413,3869
participant_6_LEVEL,1,1,2,3,3,4,4,4,5,6,6,6,7,8,8,8,9,10,11,11,12,12
participant_6_MINIONSKILLED,0,0,0,0,0,0,0,0,0,0,0,0,0,0,0,0,0,1,1,1,7,8
participant_6_KILLS,0,0,0,0,1,1,1,1,1,1,1,1,2,2,3,3,3,4,5,5,5,5
participant_6_BUY,[],"[1041, 2031, 3340]",[],[],[],[],[],"[3715, 1042, 1001]",[],[],[],[1419],[],[1033],"[3111, 1042]",[],[],[],[],[],[],[]
participant_6_SOLD,[],[],[],[],[],[],[],[1041],[],[],[],"[1042, 3715]",[],[],"[1001, 1033]",[],[],[],[3340],[],[],[3513]
participant_6_UNDO,[],[],[],[],[],[],[],[],[],[],[],[],[],[],[],[],[],[],[],[],[],[]
participant_7_GOLD,500,500,591,909,1095,1392,1651,1864,2077,2468,2695,2977,3176,3494,3831,4065,4479,4721,5395,5721,6336,6499
participant_7_CURRENTGOLD,500,0,91,409,195,492,751,964,227,618,845,1127,391,709,1046,615,1029,1271,895,1221,1836,1999
participant_7_LEVEL,1,1,1,3,3,5,6,6,7,8,8,8,9,9,10,10,10,11,11,11,12,12
participant_7_MINIONSKILLED,0,0,4,15,19,29,34,39,45,57,63,68,73,84,92,95,105,109,117,122,124,125
participant_7_KILLS,0,0,0,0,0,0,0,0,0,0,0,0,2,2,2,2,3,3,3,3,3,3
participant_7_BUY,[],"[3850, 2003, 2003, 3340]",[],[],[],[],"[1082, 3028]",[],[],[],[],[],[3174],"[3113, 1004, 1004]",[3114],[],[],[],[],"[3504, 3041, 3801]",[1004],[]
participant_7_SOLD,[],[],[],[2003],[],[],[],[],[],[2003],[],[],"[3850, 3028]",[],"[1004, 1004]",[],[],[],[],"[3114, 3113, 1082]",[3851],[]
participant_7_UNDO,[],[],[],[],[],[],[],[],[],[],[],[],[],[],[],[],[],[],[],[],[],[]
participant_8_GOLD,500,500,598,1655,1964,2254,3091,3234,4393,4683,4970,5218,5764,5999,6196,6522,7510,8453,9426,10012,10781,11087
participant_8_CURRENTGOLD,500,0,98,1155,1464,1754,2591,134,1293,1583,170,418,164,399,161,487,1475,2418,3391,3977,1146,1452
participant_8_LEVEL,1,1,1,2,3,4,5,5,6,7,7,7,8,8,8,9,10,10,11,12,12,12
participant_8_MINIONSKILLED,0,0,4,15,18,26,35,36,44,54,59,66,71,78,78,90,98,109,122,129,135,136
participant_8_KILLS,0,0,0,2,2,2,4,4,7,7,7,7,7,7,7,7,8,10,11,12,14,14
participant_8_BUY,[],"[1056, 2003, 2003, 3340]",[],[],[],[],[],[3027],[],[],"[3020, 3041, 1001]",[],[3020],[],[1052],[],[],[],[],[],[3089],[]
participant_8_SOLD,[],[],[],[],[],[],"[2003, 2003]",[],[],[],[],[],[1001],[],[],[],[],[],[],[],[],[]
participant_8_UNDO,[],[],[],[],[],[],[],[],[],[],"[[0, 3020]]",[],[],[],[],[],[],[],[],[],[],[]
participant_9_GOLD,500,500,523,1025,1160,1354,1750,1941,2622,2786,3097,3370,4216,4372,4647,4787,5690,6308,6929,7120,7275,7423
participant_9_CURRENTGOLD,500,0,23,525,660,854,100,291,972,1136,1447,1720,1266,321,47,187,1090,1708,2329,170,200,348
participant_9_LEVEL,1,1,1,2,3,4,4,5,6,6,7,7,8,8,9,9,9,10,11,11,11,11
participant_9_MINIONSKILLED,0,0,0,0,0,0,0,3,6,6,7,11,12,12,12,12,12,15,16,16,16,16
participant_9_KILLS,0,0,0,0,0,0,0,0,0,0,0,1,1,2,2,3,3,5,5,6,6,6
participant_9_BUY,[],"[1055, 2003, 3340]",[],[],[],[],"[1001, 1029]",[],[],[],"[3047, 1036, 1036]",[],"[1053, 1036]",[],[],[],[3074],[],[],[],"[3144, 1043]",[]
participant_9_SOLD,[],[],[],[2003],[],[],[],[],[],[],"[1001, 1029]",[],[1036],[],[],[],"[1036, 1036, 1053]",[],[],[],[],[]
participant_9_UNDO,[],[],[],[],[],[],[],[],[],[],[],[],[],[],[],[],[],[],[],[],[],[]
team0_KILLS,0,0,0,0,0,0,0,2,2,2,3,4,8,8,12,12,12,12,12,12,13,13
team0_CURRENTGOLD,2500,0,333,1377,2347,3288,2137,3666,2161,1889,3799,2860,1321,1679,4437,3466,4285,2487,2222,1845,2584,2902
team0_TOTALGOLD,2500,2500,2833,3927,4897,6138,7012,9276,10171,11184,13094,14655,17056,18264,21023,21951,22820,23572,24507,25281,27134,27662
team0_LEVEL,5,5,6,11,16,19,22,26,27,30,33,37,39,41,45,45,45,47,48,50,50,51
team0_SBIRES,0,0,6,21,36,47,55,76,83,93,112,126,133,154,167,177,182,186,197,206,231,241
team1_KILLS,0,0,0,2,3,3,5,5,8,8,8,9,12,13,14,15,17,22,24,26,29,29
team1_CURRENTGOLD,2500,0,417,2870,3826,5035,5304,2567,4334,5612,3967,4205,2509,2499,2780,3746,5078,9478,11839,11474,7222,8586
team1_TOTALGOLD,2500,2500,2917,5370,6726,7935,9954,11067,13784,15062,16317,17880,20119,21660,23575,25206,28438,32838,36249,38234,40307,41671
team1_LEVEL,5,5,6,12,16,22,25,26,31,35,36,37,41,43,46,47,50,54,57,58,61,61
team1_SBIRES,0,0,11,35,46,69,91,104,130,155,167,186,202,225,242,269,298,328,359,371,388,391
delta_KILLS,0,0,0,-2,-3,-3,-5,-3,-6,-6,-5,-5,-4,-5,-2,-3,-5,-10,-12,-14,-16,-16
delta_CURRENTGOLD,0,0,-84,-1493,-1479,-1747,-3167,1099,-2173,-3723,-168,-1345,-1188,-820,1657,-280,-793,-6991,-9617,-9629,-4638,-5684
delta_TOTALGOLD,0,0,-84,-1443,-1829,-1797,-2942,-1791,-3613,-3878,-3223,-3225,-3063,-3396,-2552,-3255,-5618,-9266,-11742,-12953,-13173,-14009
delta_LEVEL,0,0,0,-1,0,-3,-3,0,-4,-5,-3,0,-2,-2,-1,-2,-5,-7,-9,-8,-11,-10
delta_SBIRES,0,0,-5,-14,-10,-22,-36,-28,-47,-62,-55,-60,-69,-71,-75,-92,-116,-142,-162,-165,-157,-150
