name,team0,team1
win,Fail,Win
firstBlood,False,True
firstTower,True,False
firstInhibitor,False,True
firstBaron,True,False
firstDragon,False,True
firstRiftHerald,False,True
towerKills,5,8
inhibitorKills,0,1
baronKills,1,0
dragonKills,0,4
riftHeraldKills,1,1
