name,frame_0,frame_1,frame_2,frame_3,frame_4,frame_5,frame_6,frame_7,frame_8,frame_9,frame_10,frame_11,frame_12,frame_13,frame_14,frame_15,frame_16,frame_17,frame_18,frame_19,frame_20,frame_21,frame_22,frame_23,frame_24,frame_25,frame_26,frame_27,frame_28,frame_29
nameStamp,Tstart,Tearly,Tearly,Tearly,Tearly,Tearly,Tearly,Tearly,Tearly,Tearly,Tearly,Tearly,Tearly,Tmid,Tmid,Tmid,Tmid,Tmid,Tmid,Tmid,Tmid,Tmid,Tmid,Tmid,Tmid,Tmid,Tmid,Tend,Tend,Tend
timestamp,0,60028,120054,180075,240091,300115,360141,420160,480175,540191,600218,660244,720265,780280,840300,900303,960327,1020333,1080335,1140354,1200358,1260376,1320389,1380408,1440409,1500439,1560458,1620477,1680482,1740482
participant_0_GOLD,500,500,563,818,1133,1437,1609,1874,2108,2345,2593,2868,3542,3685,4064,4256,4568,4801,4972,5390,5512,5698,5820,6033,7312,7700,7873,7995,8230,8279
participant_0_CURRENTGOLD,500,0,63,318,183,87,259,124,158,395,343,618,542,685,64,256,568,351,222,640,262,98,220,433,1712,200,373,95,330,379
participant_0_LEVEL,1,1,1,3,4,4,5,6,6,7,7,8,8,9,9,10,10,10,10,11,11,11,11,11,12,12,13,13,13,13
participant_0_MINIONSKILLED,0,0,2,10,12,20,23,29,35,39,47,53,63,64,75,79,87,89,92,105,105,109,109,115,125,134,134,134,138,138
participant_0_KILLS,0,0,0,0,1,1,1,1,1,1,1,1,1,1,1,2,2,2,2,2,2,2,2,2,3,3,3,3,3,3
participant_0_BUY,[],"[1039, 3340, 2031]",[],[],[],[],[],"[3133, 1028]",[],"[3067, 1036]",[],[],[],[],[],"[3071, 2055, 2055]",[],[],[3111],[],"[1028, 1028]",[],[],[3044],[],[],[1037],[],[],[3053]
participant_0_SOLD,[],[],[],[],[],[],[],[],[1039],"[1028, 2031]",[],[],[],[],[],"[3133, 3067, 1036]",[2055],[],[2422],[2055],[],[],[],[1028],[],[],[],[],[],"[1037, 3044, 1028]"
participant_0_UNDO,[],[],[],[],[],[],[],[],[],[],[],[],[],[],[],[],[],[],[],[],[],[],[],[],[],[],[],[],[],[]
participant_1_GOLD,500,500,584,934,1123,1652,1775,1962,2406,2885,3074,3750,4199,4790,5299,5504,5641,6608,6842,7420,7868,8074,8328,8645,9009,9500,9735,10248,10553,10602
participant_1_CURRENTGOLD,500,0,84,434,173,702,125,312,756,1235,199,175,624,1215,1724,329,116,1083,167,745,273,479,733,1050,1414,372,607,521,825,694
participant_1_LEVEL,1,1,1,2,3,4,4,4,5,6,6,6,7,8,8,9,9,9,9,10,10,10,11,11,12,12,12,13,13,13
participant_1_MINIONSKILLED,0,0,3,14,17,29,29,32,43,58,61,72,89,94,105,110,111,121,128,144,144,149,153,160,165,170,174,183,186,186
participant_1_KILLS,0,0,0,0,0,0,0,0,0,0,0,1,1,2,2,2,2,3,3,3,4,4,4,4,4,4,4,4,4,4
participant_1_BUY,[],"[1055, 3340, 2003]",[],[],[1083],[],"[1036, 1036, 1001, 3364, 2003]",[],[],[],"[1037, 1036]","[3134, 1042]",[],[],[],"[6676, 3006, 2055]","[1036, 3363]",[],"[3123, 3057]",[],[3051],[],[],[],[],[3078],[],[1018],[],[]
participant_1_SOLD,[],[],[],[2003],[],[],[3340],[],[],[2003],[],"[1036, 1036]",[],[],[],"[3134, 1037, 1001, 1042]",[3340],[2055],[1036],[],[1083],[],[],[],[],"[3057, 3051]",[],[],[],[]
participant_1_UNDO,[],[],[],[],[],[],"[[0, 1036], [3364, 0]]",[],[],[],[],[],[],[],[],[],[],[],[],[],[],[],[],[],[],[],[],[],[],[]
participant_2_GOLD,500,500,584,948,1204,1543,2123,2357,2767,3383,3688,4039,4428,4761,5153,5655,5969,6175,6416,6783,7059,7439,8398,8647,8797,9345,9889,10623,11745,11944
participant_2_CURRENTGOLD,500,0,84,438,194,448,148,382,782,1388,113,454,833,1166,223,725,299,505,311,678,54,434,1393,1642,52,601,1144,1878,661,719
participant_2_LEVEL,1,1,1,3,4,5,6,7,7,8,8,9,10,10,11,11,12,12,12,12,13,13,13,14,14,14,14,15,15,15
participant_2_MINIONSKILLED,0,0,4,15,23,33,40,47,60,70,80,90,102,114,126,135,142,147,150,157,162,173,183,191,193,207,208,227,227,227
participant_2_KILLS,0,0,0,0,0,0,1,1,1,2,2,2,2,2,2,2,2,2,2,2,2,2,3,3,3,3,4,4,5,5
participant_2_BUY,[],"[1056, 2003, 2003, 3340]",[],[],"[1082, 2031]",[2055],"[1052, 1052]",[],[],[],"[3802, 1026, 1001]",[],[],[],"[6655, 2055]",[],[3020],[],[1052],[],"[3108, 1052]",[],[],[],"[4629, 2055]",[],[],[],"[1058, 3363, 1058]",[]
participant_2_SOLD,[],[],[2003],[2003],[],[2055],[],[],[],[],"[1052, 1052]",[],[],[],"[3802, 1026, 2055]",[],"[2031, 1001]",[],[],[],[1052],[],[],[],"[3108, 1052, 2055]",[],[],[],"[3340, 1056]",[]
participant_2_UNDO,[],[],[],[],[],[],[],[],[],[],[],[],[],[],[],[],[],[],[],[],[],[],[],[],[],[],[],[],[],[]
participant_3_GOLD,500,500,583,817,952,1486,1741,1935,2255,2484,2639,2969,3119,3604,3784,4380,4540,4783,4945,5125,5265,5436,5576,5757,6122,6312,6468,6608,6799,7555
participant_3_CURRENTGOLD,500,0,83,317,77,611,866,160,480,709,164,19,169,654,834,580,65,308,145,325,316,486,76,257,472,213,368,508,249,1005
participant_3_LEVEL,1,1,1,2,2,4,4,4,5,6,6,6,7,7,8,8,8,8,8,9,9,9,9,9,10,10,11,11,11,12
participant_3_MINIONSKILLED,0,0,0,0,0,0,0,0,0,0,1,1,2,3,4,4,4,6,7,9,9,10,10,10,10,10,11,11,11,11
participant_3_KILLS,0,0,0,0,0,1,1,1,1,1,1,1,1,1,1,2,2,2,2,2,2,2,2,2,2,2,2,2,2,3
participant_3_BUY,[],"[3858, 3850, 3340, 2003, 2003]",[],[],"[1004, 2055, 2003]",[],[],"[4642, 2055, 2003, 2003]",[],[],"[1001, 1028]","[3067, 2055]",[3364],[],[],[4005],"[3158, 2055]",[],"[1004, 2055]",[],"[2055, 2055]",[],[3114],[],"[2055, 2055]",[1033],[],[],[1057],[]
participant_3_SOLD,[],[],[],"[2003, 2003]",[],[2055],[2003],[1004],"[3850, 2003, 2003]",[],[],[1028],[3340],[2055],[],"[3067, 4642]","[3851, 1001]",[2055],[],[2055],[],[2055],[1004],[2055],[2055],[],[],[],"[2055, 1033]",[]
participant_3_UNDO,[],"[[0, 3858]]",[],[],[],[],[],"[[0, 2055]]",[],[],[],[],[],[],[],[],[],[],[],[],[],[],[],[],[],[],[],[],[],[]
participant_4_GOLD,500,500,652,878,1406,1690,1970,2227,2534,2757,3031,3248,3505,3812,4057,4556,4679,4981,5127,5440,5712,5962,6179,6341,6962,7394,7608,7961,8218,8267
participant_4_CURRENTGOLD,500,0,152,378,906,1190,1470,227,534,67,341,558,815,1122,1367,666,789,1091,437,750,222,472,689,151,772,1204,543,896,1153,417
participant_4_LEVEL,1,1,2,2,3,4,4,5,5,5,6,6,7,7,8,8,8,8,9,9,9,10,10,10,11,11,11,12,12,12
participant_4_MINIONSKILLED,0,0,0,0,0,0,6,6,6,6,10,10,10,10,11,12,12,12,12,12,12,14,14,16,18,18,19,28,28,28
participant_4_KILLS,0,0,0,0,0,0,0,0,0,0,0,0,0,0,0,0,0,0,0,0,0,0,0,0,1,1,1,1,1,1
participant_4_BUY,[],"[1054, 3340, 2003]",[],[],"[1028, 1033]",[1028],[],[1028],[6660],[],[1029],[],[3105],[],"[3068, 1001]",[],[],[1033],[1029],[],[3076],[3111],[],[],[],"[1011, 3075]",[7004],[1028],[],[]
participant_4_SOLD,[],[],[],"[2003, 2010]",[],[],[2010],[2010],"[1028, 1028]",[],[],[],"[1033, 1029]",[],"[6660, 3105]",[],[],[],[],[],[1029],"[1001, 1033]",[],[],[],"[3076, 1011]",[3068],[],[],[]
participant_4_UNDO,[],[],[],[],"[[0, 1028]]",[],[],[],[],[],[],[],[],[],[],[],[],[],[],[],[],[],[],[],[],[],[],[],[],[]
participant_5_GOLD,500,500,521,713,1011,1238,1382,1829,2000,2300,2712,3304,3844,4184,4535,5142,5274,5488,5985,6256,6997,7203,7381,7503,8059,8251,9039,9495,10209,10436
participant_5_CURRENTGOLD,500,0,21,213,511,38,182,629,150,300,712,1304,1844,2184,335,942,199,413,35,306,1047,513,291,413,969,186,974,180,895,1061
participant_5_LEVEL,1,1,1,2,3,3,4,5,5,6,6,7,7,7,8,8,8,9,10,10,10,11,11,11,11,11,12,13,13,13
participant_5_MINIONSKILLED,0,0,0,4,10,13,14,31,34,41,47,53,54,63,70,75,76,81,81,89,94,99,99,99,103,107,109,114,119,121
participant_5_KILLS,0,0,0,0,1,1,1,1,1,1,1,1,1,1,1,1,2,2,2,2,2,2,2,2,2,2,2,2,2,2
participant_5_BUY,[],"[1056, 2003, 2003]",[],[],"[3108, 2003]",[2055],[],[],[],"[3802, 1001]",[],[3020],[],[],"[6653, 1052]",[],[1058],[],[3145],[],[],"[4628, 1082]",[],[],[],[3041],[],"[1058, 3364]",[],[]
participant_5_SOLD,[],[],[],[],[2003],[],[2003],[2055],[],[],[2003],"[2419, 1001]",[],[],"[3802, 3108]",[],[],[],[1052],[],[],"[1058, 3145]",[],[],[2423],[1082],[],"[1056, 3340]",[],[]
participant_5_UNDO,[],[],[],[],[],[],[],[],[],[],[],[],[],[],[],[],[],[],[],[],[],[],[],[],[],[],[],[],[],[]
participant_6_GOLD,500,500,606,963,1505,1712,2040,2263,2971,3507,3919,4677,5281,5700,6284,7049,8085,8612,9609,10036,10721,11134,11317,11825,12394,12794,13809,14161,14433,14582
participant_6_CURRENTGOLD,500,0,106,463,230,437,765,213,921,1457,1869,2627,198,617,1201,1966,3002,389,186,614,1298,511,694,1202,571,572,1586,739,1011,399
participant_6_LEVEL,1,1,2,3,4,4,5,5,6,6,7,8,8,8,9,10,11,12,12,13,13,13,14,14,14,15,15,16,16,16
participant_6_MINIONSKILLED,0,0,0,0,0,0,0,1,1,2,2,4,4,4,5,7,11,11,18,19,20,20,23,29,34,39,43,43,43,43
participant_6_KILLS,0,0,0,0,0,0,0,0,0,0,0,0,0,0,0,0,0,0,0,0,0,1,1,1,1,1,2,2,2,2
participant_6_BUY,[],"[3862, 2003, 2003]",[],[],[],[],"[3057, 2055, 2003]",[],[],[],"[1036, 1028, 2055]",[],[3044],[],[],[],"[3067, 3364]",[],[6632],[],"[3009, 3009, 2055]",[],[],[],[],"[3134, 2055, 2055]",[],[1037],[],[]
participant_6_SOLD,[],[],[],"[2003, 2010]",[],[],[],[],[2055],"[2010, 2010]",[3862],[],"[1028, 1036]",[],[2055],[],[3340],[],"[3044, 3057, 3067]",[],"[2003, 2422, 2422, 2003, 3863]",[2055],[2003],[],[],[],[],[],[],[]
participant_6_UNDO,[],[],[],[],[],[],[],[],[],[],[],[],[],[],[],[],[],[],[],[],"[[0, 3009], [2003, 0]]",[],[],[],[],[],[],[],[],[]
participant_7_GOLD,500,500,563,864,1078,1354,1599,1861,2250,2670,2995,3326,3624,3914,4357,4848,5179,5490,6157,6448,7112,7374,8193,8832,9299,9700,10590,11046,12143,12292
participant_7_CURRENTGOLD,500,0,63,354,218,484,209,471,850,1270,30,351,199,489,572,1063,544,855,1522,488,1152,564,1383,572,139,541,1430,286,1384,1592
participant_7_LEVEL,1,1,1,3,4,5,5,6,7,7,8,8,9,9,10,11,11,12,12,12,13,13,14,14,14,14,15,16,16,16
participant_7_MINIONSKILLED,0,0,2,10,15,21,26,35,47,55,67,76,84,94,106,119,127,138,143,153,159,167,170,178,185,197,199,207,207,207
participant_7_KILLS,0,0,0,0,0,0,0,0,1,2,2,3,3,3,3,4,5,6,8,8,9,9,9,10,10,10,11,11,11,11
participant_7_BUY,[],"[1035, 2031, 3340]",[],[],"[3057, 2055, 3364]",[],[],"[1028, 1001, 2055]",[],[],[],[],"[3078, 3111]",[],[],[],[],"[3077, 3133, 1053]","[3074, 3133]",[],[],"[1031, 1028]",[],[],[6333],[1028],[],"[3044, 2138]",[],[3044]
participant_7_SOLD,[],[],[],[],[3340],[2055],[],[2055],[],[1035],[3364],[],"[3513, 3057, 1028, 1001]",[],[],[],[],[2031],"[3077, 1053, 3133]",[],[],[],[],[],"[1031, 3133]",[],[],"[1028, 2138]",[],[1028]
participant_7_UNDO,[],[],[],[],[],[],[],[],[],[],[],[],[],[],[],[],[],[],[],[],[],[],[],[],[],[],[],[],[],[]
participant_8_GOLD,500,500,584,867,1516,1855,2097,2467,2966,3260,3676,4071,4836,5338,5880,6192,6920,7223,7802,8134,8648,9089,9384,9735,10046,10169,10866,11314,11515,11726
participant_8_CURRENTGOLD,500,0,84,367,66,330,572,942,1441,135,551,146,911,1413,320,632,110,413,377,709,1223,614,909,1260,1571,444,1141,500,700,751
participant_8_LEVEL,1,1,1,3,4,5,6,6,7,8,8,9,9,10,10,10,11,11,12,12,12,13,13,13,13,13,14,14,15,15
participant_8_MINIONSKILLED,0,0,3,13,20,30,37,49,58,63,80,90,101,109,115,122,128,134,136,144,149,159,165,165,166,166,166,166,168,171
participant_8_KILLS,0,0,0,0,0,0,0,0,0,0,0,1,1,1,1,2,2,2,3,3,4,4,4,4,4,4,5,5,6,6
participant_8_BUY,[],"[1054, 2003, 3340]",[],[],[],"[1028, 1001]",[],[],"[6660, 2003]",[2031],[],[],[],[],[3068],[],"[3111, 2055]",[],"[3066, 2055]",[],[],[1031],[1028],[],[],"[3742, 2055]",[],"[3066, 1033]",[],[]
participant_8_SOLD,[],[],[2003],[],[],[],[],[],[1028],[2003],[],[],[],[],[6660],[],[1001],[2055],[],[],[],"[2031, 2055]",[],[],[],"[3066, 1028, 1031, 2055]",[],[],[],[]
participant_8_UNDO,[],[],[],[],[],[],[],[],[],[],[],[],[],[],[],[],[],[],[],[],[],[],[],[],[],[],[],[],[],[]
participant_9_GOLD,500,500,563,723,873,1134,1352,1555,1776,1985,2295,2635,2825,3015,3275,3586,3727,3968,4158,4302,4671,5144,5492,5822,6271,6425,7313,7769,8112,8282
participant_9_CURRENTGOLD,500,0,63,223,373,634,27,230,451,660,145,485,325,515,775,1086,427,668,159,302,16,489,838,1168,1616,520,1408,989,1332,1462
participant_9_LEVEL,1,1,1,2,3,3,3,4,5,5,5,6,6,6,7,8,8,8,8,9,9,9,10,10,10,10,11,12,12,12
participant_9_MINIONSKILLED,0,0,0,0,0,1,1,1,2,4,5,6,6,6,7,8,8,8,8,8,9,10,12,12,18,19,21,24,24,25
participant_9_KILLS,0,0,0,0,0,0,0,0,0,0,0,0,0,0,0,0,0,0,0,0,1,1,3,4,4,4,5,5,8,8
participant_9_BUY,[],"[2033, 3340]",[],[],[1082],[],"[1052, 2055]",[],[],[],"[3802, 3057]",[],[1033],[],[3111],[],[1026],[],[],"[6655, 2055, 3364, 3363]",[],[1026],[],[3100],[3108],[],[],[3157],[],[]
participant_9_SOLD,[],[],[],[2010],[],[],[2010],[2055],[2010],[],[1052],[],[],[],"[1033, 2422]",[],[],[],[],"[3802, 1026, 3340, 3364]",[2055],[],[],"[3057, 1026]",[],[],[],[3108],[],[]
participant_9_UNDO,[],[],[],[],[],[],[],[],[],[],[],[],[],[],[],[],[],[],[],[],[],[],[],[],[],[],[],[],[],[]
team0_KILLS,0,0,0,0,1,2,3,3,3,4,4,5,5,6,6,8,8,9,9,9,10,10,11,11,13,13,14,14,15,16
team0_CURRENTGOLD,2500,0,466,1885,1533,3038,2868,1205,2710,3794,1160,1824,2983,4842,4212,2556,1837,3338,1282,3138,1127,1969,3111,3533,4422,2590,3035,3898,3218,3214
team0_TOTALGOLD,2500,2500,2966,4395,5818,7808,9218,10355,12070,13854,15025,16874,18793,20652,22357,24351,25397,27348,28302,30158,31416,32609,34301,35423,38202,40251,41573,43435,45545,46647
team0_LEVEL,5,5,6,12,16,21,23,26,28,32,33,35,39,41,44,46,47,47,48,51,52,53,54,55,59,59,61,64,64,65
team0_SBIRES,0,0,9,39,52,82,98,114,144,173,199,226,266,285,321,340,356,375,389,427,432,455,469,492,511,539,546,583,590,590
team1_KILLS,0,0,0,0,1,1,1,1,2,3,3,5,5,5,5,7,9,10,13,13,16,17,19,21,21,21,25,25,29,29
team1_CURRENTGOLD,2500,0,337,1620,1398,1923,1755,2485,3813,3822,3307,4913,3477,5218,3203,5689,4282,2738,2279,2419,4736,2691,4115,4615,4866,2263,6539,2694,5322,5265
team1_TOTALGOLD,2500,2500,2837,4130,5983,7293,8470,9975,11963,13722,15597,18013,20410,22151,24331,26817,29185,30781,33711,35176,38149,39944,41767,43717,46069,47339,51617,53785,56412,57318
team1_LEVEL,5,5,6,13,18,20,23,26,30,32,34,38,39,40,44,47,49,52,54,56,57,59,62,62,62,63,67,71,72,72
team1_SBIRES,0,0,5,27,45,65,78,117,142,165,201,229,249,276,303,331,350,372,386,413,431,455,469,483,506,528,538,554,561,567
delta_KILLS,0,0,0,0,0,1,2,2,1,1,1,0,0,1,1,1,-1,-1,-4,-4,-6,-7,-8,-10,-8,-8,-11,-11,-14,-13
delta_CURRENTGOLD,0,0,129,265,135,1115,1113,-1280,-1103,-28,-2147,-3089,-494,-376,1009,-3133,-2445,600,-997,719,-3609,-722,-1004,-1082,-444,327,-3504,1204,-2104,-2051
delta_TOTALGOLD,0,0,129,265,-165,515,748,380,107,132,-572,-1139,-1617,-1499,-1974,-2466,-3788,-3433,-5409,-5018,-6733,-7335,-7466,-8294,-7867,-7088,-10044,-10350,-10867,-10671
delta_LEVEL,0,0,0,-1,-2,1,0,0,-2,0,-1,-3,0,1,0,-1,-2,-5,-6,-5,-5,-6,-8,-7,-3,-4,-6,-7,-8,-7
delta_SBIRES,0,0,4,12,7,17,20,-3,2,8,-2,-3,17,9,18,9,6,3,3,14,1,0,0,9,5,11,8,29,29,23
