name,frame_0,frame_1,frame_2,frame_3,frame_4,frame_5,frame_6,frame_7,frame_8,frame_9,frame_10,frame_11,frame_12,frame_13,frame_14,frame_15,frame_16,frame_17,frame_18,frame_19,frame_20,frame_21
nameStamp,Tstart,Tearly,Tearly,Tearly,Tearly,Tearly,Tearly,Tearly,Tearly,Tearly,Tmid,Tmid,Tmid,Tmid,Tmid,Tmid,Tmid,Tmid,Tmid,Tmid,Tmid,Tmid
timestamp,0,60014,120042,180045,240046,300072,360087,420110,480115,540136,600138,660161,720168,780187,840218,900250,960278,1020297,1080310,1140341,1200366,1260366
participant_0_GOLD,500,500,521,755,1415,2085,2371,2612,3240,3591,3763,4520,4684,5045,5645,5983,6766,6980,7521,7714,7836,7921
participant_0_CURRENTGOLD,500,0,21,255,915,1585,321,562,1190,441,613,1370,1534,295,895,1233,2016,170,711,904,426,-1729
participant_0_LEVEL,1,1,1,3,4,6,6,7,8,8,8,9,10,10,10,10,11,11,12,12,12,12
participant_0_MINIONSKILLED,0,0,0,7,12,28,35,42,49,55,58,66,68,70,70,71,85,88,88,92,92,92
participant_0_KILLS,0,0,0,0,1,2,2,2,2,2,2,2,3,3,4,5,6,6,6,7,8,8
participant_0_BUY,[],"[1055, 2003, 3340]",[],[],[],[],[],[],[],[6691],[],[],[],[],[],[3094],[],[3009],[],[],"[3134, 1018]",[]
participant_0_SOLD,[],[],[],[],[2003],[],[],[],[],[1055],[],[],[],[],[],[],[],[],[],[],[],[]
participant_0_UNDO,[],[],[],[],[],[],[],[],[],[],[],[],[],[],[],[],[],[],[],[],[],[]
participant_1_GOLD,500,500,629,913,1318,1652,2174,2479,2701,3090,3367,3687,3894,4549,5203,5857,6165,6532,6860,6982,7520,7605
participant_1_CURRENTGOLD,500,0,129,413,818,1152,1674,1979,2201,90,367,687,294,949,1603,2257,290,657,985,367,905,930
participant_1_LEVEL,1,1,2,2,4,4,5,5,6,6,7,7,7,8,8,9,9,10,10,10,11,11
participant_1_MINIONSKILLED,0,0,0,0,0,0,0,0,1,2,2,5,5,9,11,11,11,11,11,11,11,11
participant_1_KILLS,0,0,0,0,0,0,0,0,0,0,1,1,2,2,2,2,2,3,3,3,5,5
participant_1_BUY,[],"[1056, 2003, 3340, 2003]",[],[],[],[],[],[],[],"[1026, 1027, 1001]",[],[],[],[],[6655],[],[],[],"[3020, 3108, 1029]",[],[],[]
participant_1_SOLD,[],[],[],[],[],"[2010, 2010]","[2003, 2003]",[2010],[],[],[],[],[],[],"[1027, 1026]",[],[],[],[1001],[],[],[]
participant_1_UNDO,[],[],[],[],[],[],[],[],[],[],[],[],[],[],[],[],[],[],[],[],[],[]
participant_2_GOLD,500,500,598,927,1148,1410,1662,1868,2074,2331,2904,3232,3639,4244,4516,4709,5267,6206,6329,6493,7209,7319
participant_2_CURRENTGOLD,500,0,98,417,638,890,1132,1338,1544,301,864,1192,1599,2204,276,469,1027,1966,89,253,969,1119
participant_2_LEVEL,1,1,1,3,4,5,6,6,7,7,8,8,9,9,9,9,10,11,11,11,12,12
participant_2_MINIONSKILLED,0,0,4,14,19,24,29,34,39,44,52,60,64,73,73,73,80,85,85,86,93,93
participant_2_KILLS,0,0,0,0,0,0,1,1,1,2,2,2,2,3,4,5,5,5,5,5,5,5
participant_2_BUY,[],"[1039, 2031, 3340, 3364]",[],[],[],[],[],[],[],"[6660, 1057, 1029, 1001]",[],[],[3009],[],[],[],"[6664, 3066, 1028, 2055]",[],[],[1031],[],[]
participant_2_SOLD,[],[3340],[],[],[],[],[],[],[1039],[],[],[],[1001],[],[],[3364],"[6660, 1029, 1057]",[],[],"[2031, 3513]",[2055],[]
participant_2_UNDO,[],[],[],[],[],[],[],[],[],[],[],[],[],[],[],[],[],[],[],[],[],[]
participant_3_GOLD,500,500,542,727,1248,1887,2413,2815,3191,3727,4015,4281,4850,5468,6384,6647,7224,7397,7907,8379,9026,9111
participant_3_CURRENTGOLD,500,0,42,227,748,1387,1913,2315,2691,207,495,761,1330,1948,2854,417,994,267,777,1249,196,111
participant_3_LEVEL,1,1,1,2,3,5,5,6,6,7,7,7,8,8,9,9,9,9,10,10,11,11
participant_3_MINIONSKILLED,0,0,1,4,10,20,30,37,44,49,53,54,57,66,71,71,72,72,77,87,90,90
participant_3_KILLS,0,0,0,0,1,2,2,2,3,3,3,5,5,5,6,6,6,6,7,7,7,7
participant_3_BUY,[],"[1055, 3340, 2003]",[],[],[],[],"[2003, 2003, 4635, 2003, 2003, 2003]",[],[],"[1026, 2003, 2003, 2003, 2003, 2003]",[],[],[],"[4633, 1001, 2003, 2003, 2003, 2003, 2003]",[],[],[],"[3152, 3020, 1029]",[],[],[3191],[]
participant_3_SOLD,[],[],[],[2003],[],[],[],[],"[2003, 2003]","[2003, 2003, 2003]","[2003, 2003]","[2003, 2003]",[2003],"[4635, 1026]",[2003],[2003],"[2003, 2003]","[2003, 4633, 1001]",[],[],[1029],[]
participant_3_UNDO,[],[],[],[],[],[],[],[],[],[],[],[],[],[],[],[],[],[],[],[],[],[]
participant_4_GOLD,500,560,643,837,1202,1336,1599,2034,2373,2844,3219,3439,3967,4307,4542,4682,4976,5420,5582,5771,6101,6215
participant_4_CURRENTGOLD,500,110,193,387,752,886,349,784,1123,169,544,764,1292,1632,167,307,601,195,357,546,876,990
participant_4_LEVEL,1,1,1,2,3,3,3,4,5,5,5,6,6,6,7,7,7,8,8,9,9,9
participant_4_MINIONSKILLED,0,0,0,0,0,0,0,0,0,0,0,0,0,0,0,0,2,4,5,6,7,7
participant_4_KILLS,0,0,0,0,0,0,0,0,0,0,0,0,0,0,0,0,0,0,0,0,0,0
participant_4_BUY,[],"[3850, 2003, 3340]",[],[],[],[],[3067],[],[],"[4642, 1001, 2055]",[],[],[],[],"[4005, 3009, 1004, 3364]",[],[],"[3114, 1026]",[],[],[],[]
participant_4_SOLD,[],[],[],[2010],[2003],[],[],[],[3850],[],"[2010, 2010]",[],[3851],[],"[3067, 4642, 1001, 3340]",[],[],[1004],[],[2055],[],[]
participant_4_UNDO,[],[],[],[],[],[],[],[],[],[],[],[],[],[],[],[],[],"[[0, 3114]]",[],[],[],[]
participant_5_GOLD,500,500,542,734,1001,1123,1405,1677,1827,1964,2233,2405,2583,2705,3198,3432,3632,4474,4749,5622,5744,5779
participant_5_CURRENTGOLD,500,0,42,234,201,323,605,877,192,329,598,305,483,605,248,482,682,1524,449,822,94,129
participant_5_LEVEL,1,1,1,2,3,3,4,5,6,6,7,7,7,7,7,8,8,9,9,10,10,10
participant_5_MINIONSKILLED,0,0,1,5,11,11,20,24,26,27,36,39,43,43,43,50,55,55,60,60,60,60
participant_5_KILLS,0,0,0,0,0,0,0,0,0,0,0,0,0,0,1,1,1,2,2,3,3,3
participant_5_BUY,[],"[2033, 3340]",[],[],[1001],[],[],[],"[1028, 1052]",[],[],[4635],[],[],[1026],[],[],[],"[4633, 1029]",[3047],[1026],[]
participant_5_SOLD,[],[],[],[],[],[],[],[],[],[],[],"[1028, 1052]",[],[],[],[],[],[],"[4635, 1026]","[1001, 1029]",[],[]
participant_5_UNDO,[],[],[],[],[],[],[],[],[],[],[],[],[],[],[],[],[],[],[],[],[],[]
participant_6_GOLD,500,500,621,743,866,988,1130,1314,1436,1559,1781,2504,2633,2821,2944,3121,3244,3366,3488,3611,3733,3768
participant_6_CURRENTGOLD,500,0,121,243,366,138,280,464,616,739,961,884,1013,1201,1324,1501,1624,1746,1868,1991,2113,1968
participant_6_LEVEL,1,1,1,1,1,1,1,1,1,1,2,4,4,4,4,5,5,5,5,5,5,5
participant_6_MINIONSKILLED,0,0,0,0,0,0,0,0,0,0,0,0,0,0,0,0,0,0,0,0,0,0
participant_6_KILLS,0,0,0,0,0,0,0,0,0,0,0,0,0,0,0,0,0,0,0,0,0,0
participant_6_BUY,[],[],"[3854, 2003, 3340]",[],[],[1028],[],[1029],[],[],[3067],[],[],[1033],[],[],[],[2055],[],[3105],[],[3190]
participant_6_SOLD,[],[],[],"[2010, 2003]",[],[],[],[],"[2010, 2010]",[],[1028],[],[],[],[],[],[],[2055],[],"[1033, 1029]",[],"[3067, 3105]"
participant_6_UNDO,[],[],[],[],[],[],[],[],[],[],[],[],[],[],[],[],[],[],[],[],[],[]
participant_7_GOLD,500,500,577,755,1043,1270,1449,1676,1798,2112,2234,2371,2514,2636,2759,2881,3004,3126,3248,3371,4507,4542
participant_7_CURRENTGOLD,500,0,77,255,533,760,939,1166,388,702,824,176,319,441,49,171,294,416,538,661,1797,1842
participant_7_LEVEL,1,1,1,3,4,5,6,7,7,7,8,8,8,8,8,8,8,8,8,8,9,9
participant_7_MINIONSKILLED,0,0,3,6,13,19,22,28,28,36,36,37,38,38,38,38,38,38,38,38,39,39
participant_7_KILLS,0,0,0,0,0,0,0,0,0,0,0,0,0,0,0,0,0,0,0,0,1,1
participant_7_BUY,[],"[1056, 2003, 2003, 3340]",[],[],[],[],[],[],[3108],[],[],"[1052, 1027]",[],[],[3802],[],[],[],[],[],[],[]
participant_7_SOLD,[],[],[],[],[2003],[],[2003],[],[],[],[],[],[],[],"[1052, 1027]",[],[],[],[],[],[],[]
participant_7_UNDO,[],[],[],[],[],[],[],[],[],[],[],[],[],[],[],[],[],[],[],[],[],[]
participant_8_GOLD,500,500,542,734,1001,1123,1246,1368,1490,1613,1735,1858,2148,2333,2561,2921,3044,3780,3944,4419,4735,4770
participant_8_CURRENTGOLD,500,0,42,234,26,148,271,393,515,638,760,183,473,658,886,1246,169,905,569,1044,1360,1395
participant_8_LEVEL,1,1,1,2,2,2,2,2,2,2,2,2,5,6,7,7,7,9,9,10,10,10
participant_8_MINIONSKILLED,0,0,1,5,10,10,10,10,10,10,10,10,20,24,30,44,44,50,53,56,58,58
participant_8_KILLS,0,0,0,0,0,0,0,0,0,0,0,1,1,1,1,1,1,1,1,1,1,1
participant_8_BUY,[],"[1054, 2003]",[],[],[],[1039],[],[],[1006],[],[],[3067],[],[],[],[],[],[],[],[],[],[]
participant_8_SOLD,[],[],[],[],[],[],[],[2003],[1054],[],[],[],[],[],[],[],[],[],[],[],[],[]
participant_8_UNDO,[],[],[],[],[],[],[],[],[],[],[],[],[],[],[],[],[],[],[],[],[],[]
participant_9_GOLD,500,500,523,678,855,989,1124,1258,1406,1613,1747,1971,2105,2239,2524,2688,2823,2957,3091,3226,3360,3398
participant_9_CURRENTGOLD,500,500,73,228,405,139,274,108,256,453,187,401,535,219,504,668,803,862,996,381,515,173
participant_9_LEVEL,1,1,1,1,3,3,3,3,4,5,5,6,6,6,6,6,6,6,6,7,7,7
participant_9_MINIONSKILLED,0,0,0,1,3,3,3,3,4,5,5,7,7,7,7,7,7,7,7,7,7,7
participant_9_KILLS,0,0,0,0,0,0,0,0,0,0,0,0,0,0,0,0,0,1,1,2,2,2
participant_9_BUY,[],"[1055, 2003, 3340]",[],[],"[1042, 2055, 2003, 2003]",[],[],[],[],[],[],"[1036, 1036]",[],[],[],[],"[6670, 1018, 1042]",[],[3006],[],[],[]
participant_9_SOLD,[],[],[],[2003],[],[],[],[],[],[],[],[],[],[],[],[2055],"[1036, 1042, 1036]",[],"[1042, 2422]",[],[],[]
participant_9_UNDO,[],[],[],[],[],[],[],[],[],[],[],[],[],[],[],[],[],[],[],[],[],[]
team0_KILLS,0,0,0,0,2,4,5,5,6,7,8,10,12,13,16,18,19,20,21,22,25,25
team0_CURRENTGOLD,2500,110,483,1699,3871,5900,5389,6978,8749,1208,2883,4774,6049,7028,5795,4683,4928,3255,2919,3319,3372,1421
team0_TOTALGOLD,2500,2560,2933,4159,6331,8370,10219,11808,13579,15583,17268,19159,21034,23613,26290,27878,30398,32535,34199,35339,37692,38171
team0_LEVEL,5,5,6,12,18,23,25,28,32,33,35,37,40,41,43,44,46,49,51,52,55,55
team0_SBIRES,0,0,5,25,41,72,94,113,133,150,165,185,194,218,225,226,250,260,266,282,293,293
team1_KILLS,0,0,0,0,0,0,0,0,0,0,0,1,1,1,2,2,2,4,4,6,7,7
team1_CURRENTGOLD,2500,500,355,1194,1531,1508,2369,3008,1967,2861,3330,1949,2823,3124,3011,4068,3572,5453,4420,4899,5879,5507
team1_TOTALGOLD,2500,2500,2805,3644,4766,5493,6354,7293,7957,8861,9730,11109,11983,12734,13986,15043,15747,17703,18520,20249,22079,22257
team1_LEVEL,5,5,5,9,13,14,16,18,20,21,24,27,30,31,32,34,34,37,37,40,41,41
team1_SBIRES,0,0,5,17,37,43,55,65,68,78,87,93,108,112,118,139,144,150,158,161,164,164
delta_KILLS,0,0,0,0,2,4,5,5,6,7,8,9,11,12,14,16,17,16,17,16,18,18
delta_CURRENTGOLD,0,-390,128,505,2340,4392,3020,3970,6782,-1653,-447,2825,3226,3904,2784,615,1356,-2198,-1501,-1580,-2507,-4086
delta_TOTALGOLD,0,60,128,515,1565,2877,3865,4515,5622,6722,7538,8050,9051,10879,12304,12835,14651,14832,15679,15090,15613,15914
delta_LEVEL,0,0,1,3,5,9,9,10,12,12,11,10,10,10,11,10,12,12,14,12,14,14
delta_SBIRES,0,0,0,8,4,29,39,48,65,72,78,92,86,106,107,87,106,110,108,121,129,129
