name,frame_0,frame_1,frame_2,frame_3,frame_4,frame_5,frame_6,frame_7,frame_8,frame_9,frame_10,frame_11,frame_12,frame_13,frame_14,frame_15,frame_16,frame_17,frame_18,frame_19,frame_20,frame_21
nameStamp,Tstart,Tearly,Tearly,Tearly,Tearly,Tearly,Tearly,Tearly,Tearly,Tmid,Tmid,Tmid,Tmid,Tmid,Tmid,Tmid,Tmid,Tmid,Tmid,Tmid,Tmid,Tmid
timestamp,0,60016,120033,180050,240062,300077,360095,420107,480122,540137,600157,660177,720192,780214,840230,900246,960273,1020285,1080314,1140327,1200357,1260374
participant_0_GOLD,1400,1400,1792,2266,2696,3311,3814,4302,4936,5390,6120,6765,7272,7826,8323,8690,9231,9714,10331,10970,11425,12297
participant_0_CURRENTGOLD,1400,0,392,66,496,96,599,1087,1721,460,1190,1835,2342,946,1443,390,931,1414,2031,2670,3125,3997
participant_0_LEVEL,1,3,4,5,6,7,8,8,9,10,11,12,13,13,14,14,15,16,17,18,18,18
participant_0_MINIONSKILLED,0,0,0,2,4,4,9,12,12,13,15,17,20,20,26,27,29,30,31,37,41,45
participant_0_KILLS,0,0,0,0,0,1,1,1,1,1,2,3,3,3,3,3,3,3,4,4,4,4
participant_0_BUY,[],"[3073, 1006, 1001, 2003, 2003]",[],[3028],[],"[3158, 1052]",[],[],[],"[3174, 3113]",[],[],[],"[3504, 3801]",[],[3107],[],[],[],[],[],[]
participant_0_SOLD,[],[],[],[],[],"[2010, 2003, 1001, 2003]",[],[],[],"[1052, 3028]",[],[],[2010],"[3113, 1006]",[],"[2010, 3801]",[],[],[],[],[],[]
participant_0_UNDO,[],[],[],[],[],[],[],[],[],[],[],[],[],[],[],[],[],[],[],[],[],[]
participant_1_GOLD,1400,1400,1804,2360,2775,3581,4198,4679,5387,5963,6681,7119,7543,8043,8580,9111,10150,10551,11048,11943,12278,13438
participant_1_CURRENTGOLD,1400,0,404,360,775,1581,2198,79,787,363,181,269,343,843,1380,611,1650,951,1448,2343,378,1538
participant_1_LEVEL,1,3,4,5,6,7,8,8,9,10,11,12,12,13,13,14,15,15,16,17,17,18
participant_1_MINIONSKILLED,0,0,1,1,2,7,11,14,20,20,24,26,28,28,32,39,45,45,47,50,50,55
participant_1_KILLS,0,0,0,1,1,3,4,4,4,5,6,6,6,6,6,6,7,7,7,9,9,11
participant_1_BUY,[],"[1038, 2003, 2003]",[],"[1001, 1042]",[],[],[],"[3006, 3031]",[],[1043],[1053],[1036],[3144],[],[],"[3153, 1042, 1042]",[],[3086],[],[],"[3046, 3086]",[]
participant_1_SOLD,[],[],[],[],[],[],[2003],"[2003, 1001, 1042, 1038]",[],[],[],[],"[1053, 1036]",[],[],"[3144, 1043]",[],[1042],[],[],"[1042, 3086, 2052, 2052]",[]
participant_1_UNDO,[],[],[],[],[],[],[],[],[],[],[],[],[],[],[],[],[],[],[],[],[],[]
participant_2_GOLD,1400,1400,1807,2767,3238,3703,4349,4945,5829,6210,7692,8052,8697,9801,10233,10593,11352,11692,12193,13124,13520,14701
participant_2_CURRENTGOLD,1400,0,407,967,1438,703,1349,1945,2829,510,1992,802,1447,2551,2983,163,922,362,863,1794,2190,3371
participant_2_LEVEL,1,3,4,5,6,7,8,8,10,10,11,12,13,14,14,15,16,16,17,18,18,18
participant_2_MINIONSKILLED,0,0,1,6,9,9,11,12,14,15,16,16,19,21,21,21,24,24,25,26,26,29
participant_2_KILLS,0,0,0,1,1,1,2,3,5,5,10,10,11,14,14,14,15,15,15,18,18,20
participant_2_BUY,[],"[2051, 1001, 2003, 2003, 2003]",[],"[1036, 2003]",[],"[3111, 1028]",[],[],[],"[3071, 1033]",[],"[3211, 3067]",[],[],[],"[3065, 3133, 1038]",[],[3508],[],[],[],[]
participant_2_SOLD,[],[],"[2003, 2003]",[],[],[1001],[2052],[],[],"[1028, 1036]",[],[1033],[2003],[],[],"[3211, 3067, 2003]",[],"[1038, 3133]",[],[],[],[]
participant_2_UNDO,[],[],[],[],[],[],[],[],[],[],[],[],[],[],[],[],[],[],[],[],[],[]
participant_3_GOLD,1400,1400,1843,2564,3024,3718,4135,4765,5434,5828,6521,7147,7860,8604,9109,9519,10049,10822,11450,11898,12233,13207
participant_3_CURRENTGOLD,1400,100,543,1264,1724,2418,535,1165,1834,193,886,1512,940,1684,439,419,949,1722,2350,148,483,1457
participant_3_LEVEL,1,3,4,5,6,7,8,9,10,10,12,12,13,14,14,15,15,16,16,17,17,18
participant_3_MINIONSKILLED,0,0,4,10,15,18,20,24,27,27,35,36,38,43,43,43,43,47,49,49,49,51
participant_3_KILLS,0,0,0,1,1,2,2,3,3,3,3,4,5,5,6,6,7,8,9,9,9,10
participant_3_BUY,[],"[3073, 1001, 2003, 2003, 2003]",[],[],[],[],"[3020, 3136]",[],[],"[3151, 1052]",[],[],"[1026, 1052]",[],"[3116, 1052]",[3802],[],[],[],"[3007, 3916]",[],[]
participant_3_SOLD,[],[],"[2003, 2052]",[2003],[2003],[],[1001],[],[],[3136],[],[],[],[],"[1026, 1052]","[1052, 1052]",[],[],[],"[3073, 3802]",[3007],[]
participant_3_UNDO,[],[],[],[],[],[],[],[],[],[],[],[],[],[],[],[],[],[],[],[],[],[]
participant_4_GOLD,1400,1400,1804,2336,2721,3728,4148,4590,5726,6705,7220,7620,8094,8912,9526,10175,10954,11706,12543,13159,13685,14539
participant_4_CURRENTGOLD,1400,0,404,936,1321,128,398,840,1976,2955,170,570,1044,1862,2476,3125,3904,4656,5493,6109,6635,7489
participant_4_LEVEL,1,3,4,5,6,7,8,9,10,11,12,12,13,14,14,15,16,17,18,18,18,18
participant_4_MINIONSKILLED,0,0,1,3,3,4,4,6,11,15,15,18,20,30,32,37,44,46,56,63,65,69
participant_4_KILLS,0,0,0,0,0,1,1,1,3,5,5,5,5,5,6,7,8,10,11,11,12,12
participant_4_BUY,[],"[3802, 2003, 2003]",[],[],[],"[3285, 1001]",[2031],[],[],[],"[3020, 1058, 1058]",[],[],[],[],[],[],[],[],[],[],[]
participant_4_SOLD,[],[],"[2003, 2003]",[],[],[3802],[],[],[],[],[1001],[],[],[],[],[],[],[],[],[],[],[]
participant_4_UNDO,[],[],[],[],[],[],[],[],[],[],[],[],[],[],[],[],[],[],[],[],[],[]
participant_5_GOLD,1400,1400,1833,2364,2805,3343,3733,4108,4527,5245,5645,6000,6791,7161,8125,8898,9398,9973,10390,10878,11476,11870
participant_5_CURRENTGOLD,1400,50,483,1014,1455,193,583,558,542,1260,395,450,1241,376,1340,2113,48,623,1040,478,1076,1470
participant_5_LEVEL,1,3,4,5,6,7,8,8,9,10,11,11,12,12,13,14,15,16,16,16,17,18
participant_5_MINIONSKILLED,0,0,1,3,5,10,10,10,13,17,17,17,21,21,26,35,35,45,48,52,61,63
participant_5_KILLS,0,0,0,0,0,0,0,0,0,1,1,1,2,2,4,4,5,5,5,5,5,5
participant_5_BUY,[],"[3010, 1026, 1027, 2031]",[],[],[],"[3029, 1028]",[],[3067],[1052],[],[3152],[1001],[],"[3020, 1052]",[],[],[3165],[],[],"[1026, 3057]",[],[]
participant_5_SOLD,[],[],[],[],[],"[1027, 1026]",[],[1028],[],[],"[1052, 3067]",[],[],[1001],[],[],[1052],[],[],[],[],[]
participant_5_UNDO,[],"[[0, 3010]]",[],[],[],[],[],[],[],[],[],[],[],[],[],[],[],[],[],"[[0, 1026]]",[],[]
participant_6_GOLD,1400,1400,1845,2346,2766,3266,3767,4143,4564,4953,5960,6457,6959,7368,7853,8461,8816,9304,9669,10384,10854,11295
participant_6_CURRENTGOLD,1400,0,445,96,516,366,867,443,864,418,1425,1922,2424,268,753,1361,316,804,119,834,504,95
participant_6_LEVEL,1,3,4,5,6,7,8,9,9,10,11,12,13,13,14,15,15,16,16,17,17,18
participant_6_MINIONSKILLED,0,0,2,7,9,9,14,15,16,16,18,24,26,28,31,35,35,40,40,42,44,46
participant_6_KILLS,0,0,0,0,0,0,0,0,0,0,1,1,1,1,1,1,1,1,1,2,2,2
participant_6_BUY,[],"[3010, 1001]",[],[1026],[],[3029],[],[3047],[],"[1052, 1028]",[],[],[],"[3151, 1029]",[],[],"[3751, 1031]",[],[3068],[],[3114],[3113]
participant_6_SOLD,[],[],[],[],[],"[3010, 1026]",[2052],[1001],[],[],[],[],[],"[1028, 1052]",[],[],[1029],[],"[1031, 3751]",[],[],[]
participant_6_UNDO,[],[],[],[],[],[],[],[],[],[],[],[],[],[],[],[],[],[],[],[],[],[]
participant_7_GOLD,1400,1400,1840,2510,2900,3430,4261,4786,5201,5943,7024,7776,8226,8576,9319,9799,10242,10719,11130,11460,11933,12303
participant_7_CURRENTGOLD,1400,0,440,1110,1500,880,1711,2236,366,709,174,926,1376,441,1184,214,657,419,830,1160,1633,753
participant_7_LEVEL,1,3,4,5,6,7,8,9,9,10,11,13,13,14,15,15,15,16,16,16,17,18
participant_7_MINIONSKILLED,0,0,2,5,6,6,11,14,17,20,23,27,30,30,32,32,35,36,37,37,38,38
participant_7_KILLS,0,0,0,1,1,2,3,3,3,5,7,9,9,9,10,10,10,10,10,10,10,10
participant_7_BUY,[],"[3802, 2003, 2003]",[],[],[],"[3020, 1026, 1001]",[],[],"[3285, 3020, 1052]",[1028],"[3916, 1026]",[],[],"[3165, 1052, 1029]",[],"[3191, 2420, 1052]",[],[3157],[],[],[],[1058]
participant_7_SOLD,[],[],"[2003, 2003]",[2052],[],[],[],[],"[3802, 1026, 1001]",[],"[1028, 1052]",[],[],"[3916, 1026]",[],"[1029, 1052]",[2420],"[3191, 1052, 2421]",[],[],[],[]
participant_7_UNDO,[],[],[],[],[],"[[0, 3020]]",[],[],[],[],[],[],[],[],[],[],[],[],[],[],[],[]
participant_8_GOLD,1400,1400,2042,2796,3217,4145,4475,5400,5776,6138,6533,6984,7613,8017,8632,9236,9598,10110,10440,11255,11717,12099
participant_8_CURRENTGOLD,1400,0,642,46,467,295,292,1217,293,305,225,276,555,509,1124,1728,115,177,237,752,334,716
participant_8_LEVEL,1,3,4,5,6,7,7,8,8,9,10,11,11,12,13,14,14,15,15,16,17,17
participant_8_MINIONSKILLED,0,0,0,1,4,6,6,9,10,10,10,11,13,15,22,25,26,32,32,32,37,38
participant_8_KILLS,0,0,1,3,3,6,6,7,7,7,7,7,8,8,8,8,8,8,8,9,9,9
participant_8_BUY,[],"[3044, 2003, 2003, 2003]",[],"[3057, 1001]",[],[3101],[3078],[],"[3111, 1036, 1006]","[1006, 1036]",[3077],[1028],[1036],[3052],[],[],"[3748, 1043]",[1033],[1057],[1042],[3091],[]
participant_8_SOLD,[],[],"[2003, 2003, 2003]",[],[],[],"[3101, 3057, 3044]",[],[1001],[],"[1036, 1006, 1036]",[],[],"[1036, 1028]",[],[],"[3077, 3052]",[],[1033],[],"[1043, 1057, 1042]",[]
participant_8_UNDO,[],[],[],[],[],[],[],[],[],"[[0, 1006]]",[],[],[],[],[],[],[],[],[],[],[],[]
participant_9_GOLD,1400,1400,1732,2132,2517,3125,3598,3980,4402,5423,5900,6257,6994,7482,8362,9037,9484,10209,10676,11023,11406,11871
participant_9_CURRENTGOLD,1400,1400,182,582,967,75,548,330,317,1338,750,257,994,332,777,602,134,259,726,273,656,1121
participant_9_LEVEL,1,3,4,5,5,6,7,8,8,10,11,11,12,12,13,13,14,14,15,15,16,16
participant_9_MINIONSKILLED,0,0,0,1,1,6,9,11,13,16,18,19,25,31,31,31,32,34,40,41,42,46
participant_9_KILLS,0,0,0,0,0,0,0,0,0,1,1,1,2,2,3,4,4,6,6,6,6,6
participant_9_BUY,[],[],"[3010, 1001, 2003, 2003, 2003]",[],[],"[1026, 3029]",[],[3009],[1052],[],[3136],[1026],[],"[3151, 1028]",[1052],[1026],[3116],"[1029, 1029]",[],"[3076, 1028]",[],[]
participant_9_SOLD,[],[],[],"[2003, 2003]",[2003],"[2052, 3010, 1026]",[],[1001],[],[],[1052],[],[],"[3136, 1026]",[],[],"[1026, 1052, 1028]",[],[],"[1029, 1029]",[],[]
participant_9_UNDO,[],[],[],[],[],[],[],[],[],[],[],[],[],[],[],[],[],[],[],[],[],[]
team0_KILLS,0,0,0,3,3,8,10,12,16,19,26,28,30,33,35,36,40,43,46,51,52,57
team0_CURRENTGOLD,7000,100,2150,3593,5754,4926,5079,5116,9147,4481,4419,4988,6116,7886,8721,4708,8356,9105,12185,13064,12811,17852
team0_TOTALGOLD,7000,7000,9050,12293,14454,18041,20644,23281,27312,30096,34234,36703,39466,43186,45771,48088,51736,54485,57565,61094,63141,68182
team0_LEVEL,5,15,20,25,30,35,40,42,48,51,57,60,64,68,69,73,77,80,84,88,88,90
team0_SBIRES,0,0,7,22,33,42,55,68,84,90,105,113,125,142,154,167,185,192,208,225,231,249
team1_KILLS,0,0,1,4,4,8,9,10,10,14,17,19,22,22,26,27,28,30,30,32,32,32
team1_CURRENTGOLD,7000,1450,2192,2848,4905,1809,4001,4784,2382,4030,2969,3831,6590,1926,5178,6018,1270,2282,2952,3497,4203,4155
team1_TOTALGOLD,7000,7000,9292,12148,14205,17309,19834,22417,24470,27702,31062,33474,36583,38604,42291,45431,47538,50315,52305,55000,57386,59438
team1_LEVEL,5,15,20,25,29,34,38,42,43,49,54,58,61,63,68,71,73,77,78,80,84,87
team1_SBIRES,0,0,5,17,25,37,50,59,69,79,86,98,115,125,142,158,163,187,197,204,222,231
delta_KILLS,0,0,-1,-1,-1,0,1,2,6,5,9,9,8,11,9,9,12,13,16,19,20,25
delta_CURRENTGOLD,0,-1350,-42,745,849,3117,1078,332,6765,451,1450,1157,-474,5960,3543,-1310,7086,6823,9233,9567,8608,13697
delta_TOTALGOLD,0,0,-242,145,249,732,810,864,2842,2394,3172,3229,2883,4582,3480,2657,4198,4170,5260,6094,5755,8744
delta_LEVEL,0,0,0,0,1,1,2,0,5,2,3,2,3,5,1,2,4,3,6,8,4,3
delta_SBIRES,0,0,2,5,8,5,5,9,15,11,19,15,10,17,12,9,22,5,11,21,9,18
