name,team0,team1
win,Fail,Win
firstBlood,True,False
firstTower,False,True
firstInhibitor,False,True
firstBaron,False,False
firstDragon,True,False
firstRiftHerald,False,False
towerKills,2,10
inhibitorKills,0,3
baronKills,0,0
dragonKills,1,4
riftHeraldKills,0,0
