name,team0,team1
win,Fail,Win
firstBlood,False,True
firstTower,False,True
firstInhibitor,False,True
firstBaron,False,True
firstDragon,True,False
firstRiftHerald,True,False
towerKills,4,8
inhibitorKills,0,1
baronKills,0,1
dragonKills,2,3
riftHeraldKills,1,0
