name,frame_0,frame_1,frame_2,frame_3,frame_4,frame_5,frame_6,frame_7,frame_8,frame_9,frame_10,frame_11,frame_12,frame_13,frame_14,frame_15,frame_16,frame_17,frame_18,frame_19,frame_20,frame_21,frame_22,frame_23,frame_24,frame_25,frame_26,frame_27,frame_28,frame_29,frame_30
nameStamp,Tstart,Tearly,Tearly,Tearly,Tearly,Tearly,Tearly,Tearly,Tearly,Tearly,Tearly,Tearly,Tearly,Tearly,Tmid,Tmid,Tmid,Tmid,Tmid,Tmid,Tmid,Tmid,Tmid,Tmid,Tmid,Tmid,Tmid,Tmid,Tmid,Tmid,Tend
timestamp,0,60007,120032,180062,240079,300109,360139,420148,480175,540202,600224,660233,720235,780258,840279,900300,960306,1020338,1080361,1140361,1200393,1260397,1320410,1380418,1440449,1500466,1560487,1620515,1680543,1740544,1800544
participant_0_GOLD,500,500,598,812,1054,1218,1481,1844,2064,2669,3351,3696,4223,4736,5080,5307,5566,6316,6570,6993,8049,8414,9001,9281,9844,10235,10448,11220,11844,12029,12939
participant_0_CURRENTGOLD,500,0,98,312,554,68,331,694,214,819,1501,1846,248,761,1105,1332,1011,1761,1015,1438,2494,359,946,1226,639,1031,443,1216,419,605,1314
participant_0_LEVEL,1,1,1,3,4,4,5,6,7,8,9,9,10,11,11,11,12,12,12,13,13,14,14,15,15,15,15,16,16,16,17
participant_0_MINIONSKILLED,0,0,3,8,15,17,25,36,41,52,62,71,77,90,99,105,109,111,114,127,132,138,141,145,145,145,146,160,160,164,169
participant_0_KILLS,0,0,0,0,0,0,1,1,2,3,3,4,4,4,4,4,4,4,4,6,6,7,8,9,9,9,9,9,9,9,9
participant_0_BUY,[],"[1056, 3340, 2003, 2003]",[],[],[],[1052],[1052],[],[],"[3802, 1001]",[],[3020],[],[1026],[],[],[],[],[3285],[1058],[],[],[],[1058],[3089],[],[],[],[],"[1052, 1028]",[]
participant_0_SOLD,[],[],[],"[2003, 2003]",[],[],[],[],[],"[1052, 1052]",[],[1001],[],[],[],[],[],[],"[3802, 1026]",[],[],[],[],[],"[1058, 1058]",[],[],[],[],[],[]
participant_0_UNDO,[],[],[],[],[],[],[],[],[],[],[],[],[],[],[],[],[],[],[],[],[],[],[],[],[],[],[],[],[],[],[]
participant_1_GOLD,500,500,675,963,1156,1449,1784,2187,2494,2837,3262,3605,3927,4288,4453,4958,5102,5538,5886,6127,6487,6610,7022,7333,7456,7864,7987,8313,8436,8579,8803
participant_1_CURRENTGOLD,500,0,175,463,-44,249,584,987,1294,1637,137,480,802,1163,228,733,377,813,161,402,762,885,-153,158,-59,349,-178,148,271,414,778
participant_1_LEVEL,1,1,2,3,3,4,5,6,6,7,7,8,8,9,9,10,10,10,11,11,12,12,12,13,13,13,13,13,13,13,14
participant_1_MINIONSKILLED,0,0,0,0,0,2,2,8,8,8,8,8,8,8,8,8,9,13,14,14,17,17,17,23,23,28,28,30,30,31,33
participant_1_KILLS,0,0,0,0,0,0,0,0,0,0,0,1,2,3,3,5,5,5,5,5,5,6,8,8,8,8,9,9,9,9,9
participant_1_BUY,[],"[1055, 2003, 3340]",[],[],[1027],[],[],"[3070, 1036]",[],[],[1037],[],"[3004, 3134]",[],[3006],[],[3133],[],[],[3142],[],"[1018, 1042]",[],[],[3094],[],[],[1038],[],[],[1037]
participant_1_SOLD,[],[],[],"[2010, 2003]",[],[2010],[],"[1027, 2010]",[],[],[],[],"[3070, 1037, 1036]",[],[2422],[],[],[],[],"[3133, 3134]",[],[],[],[],"[3004, 1018, 1042]",[],[],[],[],[],[1055]
participant_1_UNDO,[],[],[],[],[],[],[],[],[],[],[],[],[],[],[],[],[],[],[],[],[],[],[],[],[],[],[],[],[],[],[]
participant_2_GOLD,500,500,562,755,1001,1123,1588,1731,2278,2701,2858,3543,3785,3991,4300,4555,4783,4976,5098,6440,6655,7124,7632,8210,8437,8764,9098,9220,9343,9828,9947
participant_2_CURRENTGOLD,500,0,62,255,501,188,218,361,908,601,758,643,885,241,550,805,1033,1226,298,390,605,1074,1582,910,37,364,698,820,944,593,712
participant_2_LEVEL,1,1,1,3,4,4,5,5,6,7,7,8,9,9,9,10,10,10,10,11,11,11,12,12,13,13,13,13,13,14,14
participant_2_MINIONSKILLED,0,0,2,6,11,11,13,14,18,18,20,27,30,35,42,46,52,53,53,53,55,62,62,69,75,83,89,89,89,102,102
participant_2_KILLS,0,0,0,0,0,0,0,0,0,0,0,0,0,1,1,1,1,1,1,1,2,2,2,2,2,2,2,2,2,2,2
participant_2_BUY,[],"[3858, 2003, 2003, 3340]",[],[],[],[],[],"[1031, 2003]",[],"[1028, 2055]",[],[],"[3067, 1001, 3364]",[],"[3109, 1033]",[],"[3111, 1033]",[],[1029],[],"[3105, 1033]",[],[],"[3190, 1004, 1006]",[],[],[],[3801],[],[3114],[]
participant_2_SOLD,[],[],[2003],[2003],[],[],[],[2003],[],[],"[3858, 2055]",[],"[1028, 3340]",[],"[3067, 1031]",[],"[1001, 1033]",[],[],[],"[1033, 1029]",[],[],"[3859, 3105, 1033]",[],[],[],[1006],[],[1004],[]
participant_2_UNDO,[],[],[],[],[],[],[],[],[],[],[],[],[],[],[],[],[],[],[],[],[],[],[],[],[],[],[],[],[],[],[]
participant_3_GOLD,500,500,541,754,954,1313,1704,1861,2224,2473,2817,3295,4020,4757,5082,5920,6164,6469,6679,6924,7504,8050,9403,9828,10021,10253,10711,10954,11585,11984,12103
participant_3_CURRENTGOLD,500,0,41,254,104,463,854,161,524,773,242,720,20,757,282,1120,264,569,779,324,904,350,1703,2128,821,1053,1511,454,1086,1484,728
participant_3_LEVEL,1,1,1,2,2,3,4,4,5,6,6,7,7,8,8,9,9,9,9,10,11,11,12,13,13,13,14,14,15,16,16
participant_3_MINIONSKILLED,0,0,1,6,8,18,30,32,39,46,56,59,59,67,69,76,79,86,91,93,104,110,112,122,122,125,130,133,149,159,159
participant_3_KILLS,0,0,0,0,0,0,0,0,0,0,0,0,0,0,0,0,0,0,0,0,0,0,0,0,0,0,0,0,0,0,0
participant_3_BUY,[],"[1039, 2031, 3340]",[],[],[3706],[],[],[],[],[],"[1400, 1001]",[],[],[],"[3111, 1029]",[],[1031],[],[1011],[],[],[],"[3742, 1029]",[],[1027],[],"[3024, 1027]",[],[],[],[]
participant_3_SOLD,[],[],[],[],[1039],[],[],[],[],[],[3706],[],[],[],[1001],[],[1029],[],[],[],[],[],"[1031, 1011]",[],[2031],[],"[1027, 1029]",[],[],[],[]
participant_3_UNDO,[],[],[],[],[],[],[],[],[],[],[],[],[],[],[],[],[],[],[],[],[],[],[],[],[],[],[],[],[],[],[]
participant_4_GOLD,500,500,522,699,894,1112,1334,1468,1760,1909,2120,2431,2647,3750,3890,4339,4563,4796,4936,5200,5715,5931,6171,6470,6610,6820,7004,7248,7540,7798,7935
participant_4_CURRENTGOLD,500,0,22,199,394,612,834,118,410,84,295,606,122,1225,315,764,188,421,261,525,240,456,696,70,210,420,604,348,640,223,360
participant_4_LEVEL,1,1,1,2,3,4,5,5,5,5,6,7,7,8,8,9,9,9,9,10,11,11,12,12,12,12,13,13,13,13,13
participant_4_MINIONSKILLED,0,0,0,2,3,5,7,7,9,10,11,12,12,15,15,16,17,19,19,22,22,22,22,23,23,24,24,26,26,29,29
participant_4_KILLS,0,0,0,0,0,0,0,0,0,1,1,1,2,2,2,2,2,3,3,3,4,4,5,5,7,8,8,9,10,10,11
participant_4_BUY,[],"[1054, 2003, 3340]",[],[],[],"[1027, 1001]",[],[],[3057],[],[],[],"[3111, 3211, 2055, 2003]",[],[],[],"[1033, 1006]",[],[3194],[],[],"[3025, 1033, 1028]",[],[],"[3211, 3067]",[3364],[3065],[],"[3052, 1028]",[],[]
participant_4_SOLD,[],[],[],"[2010, 2003]",[],[2010],[],[2010],[1027],[],[],[],[1001],[2055],[],[],[2003],[],"[1033, 3211, 1006]",[],[],[3057],[],[],"[1028, 1033]",[3340],"[3211, 3067]",[],[1054],[],[]
participant_4_UNDO,[],[],[],[],[],[],[],[],[],[],[],[],[],[],[],[],[],[],[],[],[],[],[],[],[],[],[],[],[],[],[]
participant_5_GOLD,500,500,541,829,1175,1939,2212,2404,2701,3075,3197,3362,3533,3887,4203,4847,5054,5319,5664,6094,6230,7443,7836,8009,8281,8723,9636,10034,10458,11076,11522
participant_5_CURRENTGOLD,500,0,41,329,140,904,1177,204,501,875,147,312,483,837,103,747,154,419,764,1194,45,1258,336,508,781,788,1701,2099,308,526,972
participant_5_LEVEL,1,1,1,3,3,5,6,6,7,8,8,8,9,9,10,11,11,11,11,12,12,13,13,13,14,14,15,15,15,16,17
participant_5_MINIONSKILLED,0,0,1,8,12,28,34,38,49,54,54,57,60,71,78,89,94,99,108,114,115,125,126,126,126,126,127,127,127,127,132
participant_5_KILLS,0,0,0,0,1,1,1,1,1,1,2,2,4,4,4,4,4,4,4,4,4,4,4,4,4,4,4,4,4,4,4
participant_5_BUY,[],"[1055, 2003, 3340]",[],[],[],[],[1038],[],[],[],[],"[1018, 1037]",[],"[3031, 3086]",[],"[1001, 1042]",[],[],"[3006, 1042, 1042]",[],[],[3085],[],[3035],[],[3123],[],[3033],[],"[1036, 1053, 1036]",[]
participant_5_SOLD,[],[],[],[],[2003],[],[],[],[],[],[],[],[],"[1038, 1037, 1018]",[],[],[],[],"[1001, 1042]",[],[3340],"[1042, 3086, 1042]",[3513],[],[],[],[],"[3035, 3123]",[],"[3006, 1036]",[]
participant_5_UNDO,[],[],[],[],[],[],[],[],[],[],[],[],[],[],[],[],[],[],[],[],[],[],[],[],[],[],[],[],[],[],[]
participant_6_GOLD,500,500,620,963,1598,2239,2439,2696,3193,3636,3921,4159,4281,4773,5721,6461,6861,7430,7982,8322,8529,8702,9290,9462,10560,11055,11345,11669,11937,12385,12897
participant_6_CURRENTGOLD,500,0,120,463,1098,1739,989,496,993,136,421,659,31,523,1471,2211,2611,3180,149,489,697,119,707,580,1677,2173,262,586,55,502,1014
participant_6_LEVEL,1,1,2,3,3,5,5,5,6,6,7,7,7,8,9,10,10,12,12,12,13,13,13,13,14,14,14,15,15,16,16
participant_6_MINIONSKILLED,0,0,0,0,0,1,1,1,1,1,3,3,3,3,3,4,4,7,7,7,7,7,7,7,7,7,12,20,20,20,21
participant_6_KILLS,0,0,0,0,0,0,0,0,0,0,0,0,0,0,0,0,0,0,0,0,0,0,0,0,0,0,0,0,2,2,4
participant_6_BUY,[],"[3850, 2003, 2003, 3340]",[],[],[],[],[3010],[],[],"[1001, 2055, 2003, 2003]",[],[],[],"[1026, 2055, 3364]",[],"[3027, 1028]",[],[],[],[1052],[],[3916],[],[3020],[],[],[3165],[],[],[],[]
participant_6_SOLD,[],[],[],[2003],[2003],[],[],[],[],[],"[2003, 2003, 3850]",[],[2055],[3340],[],"[2055, 3010, 1026]",[],[],[],[3851],[],"[1028, 1052]",[],[1001],[],[],[3916],[],[],[],[]
participant_6_UNDO,[],[],[],[],[],[],[],[],[],[],[],[],[],[],[],[],[],[],[],[],[],[],[],[],[],[],[],[],[],[],[]
participant_7_GOLD,500,500,597,969,1260,1692,2679,2914,3280,4325,4802,5689,5854,7225,8038,8903,9893,10795,10917,11376,11833,12903,13352,13524,14239,15293,16164,16506,17134,17557,18805
participant_7_CURRENTGOLD,500,0,97,469,760,142,579,389,755,1800,442,129,294,1665,313,1178,2168,3070,92,116,573,1644,1302,110,824,1879,2750,1842,120,542,1730
participant_7_LEVEL,1,1,1,3,4,5,6,7,7,8,9,10,10,11,11,12,13,13,13,14,14,15,15,15,15,16,17,17,17,18,18
participant_7_MINIONSKILLED,0,0,4,16,26,31,39,46,57,70,72,85,88,103,104,120,124,128,128,131,147,157,161,161,168,171,179,179,179,179,186
participant_7_KILLS,0,0,0,0,0,1,1,1,1,1,1,1,1,1,1,1,1,1,1,1,1,3,3,3,3,4,6,6,6,7,7
participant_7_BUY,[],"[1056, 2003, 2003, 3340]",[],[],"[1052, 2003, 2003]",[],[],"[3136, 2003, 2003]",[],[],[1026],[],[],[],"[3151, 1001]",[],[3111],[],[],[],"[1026, 1052]",[],[3116],[],[],[1052],[],[],[3135],[1028],[]
participant_7_SOLD,[],[],[],"[2003, 2003]",[],[2003],[2003],[1052],[2003],[2003],[],[],[],[],"[3136, 1026]",[],[1001],[],[],[],[],[],"[1026, 1052]",[],[],[],[],[],[1052],[],[1056]
participant_7_UNDO,[],[],[],[],[],[],[],[],[],[],[],[],[],[],[],[],[],[],[],[],[],[],[],[],[],[],[],[],[],[],[]
participant_8_GOLD,500,500,590,948,1659,1921,2069,2296,2613,3129,3704,3827,5201,5495,5782,6285,6577,6829,7265,7473,7725,7898,9183,9405,9890,10255,10427,10705,10828,11380,11827
participant_8_CURRENTGOLD,500,0,90,448,1159,1421,269,496,813,1329,1904,352,1726,195,482,385,677,929,265,473,725,298,1583,355,840,405,578,305,428,501,177
participant_8_LEVEL,1,1,1,2,3,4,4,4,5,6,7,7,8,8,9,9,9,10,10,11,11,11,12,12,12,13,13,13,13,14,14
participant_8_MINIONSKILLED,0,0,4,15,25,33,33,40,48,58,66,66,87,89,94,102,108,114,128,128,129,129,146,146,156,158,158,158,158,164,167
participant_8_KILLS,0,0,0,0,1,2,2,2,2,3,3,3,3,3,5,6,6,7,8,8,8,8,8,8,10,10,10,10,10,10,10
participant_8_BUY,[],"[1039, 2031, 3340]",[],[],[],[],"[3706, 1001]","[1028, 1036]",[],"[3044, 3047]",[],[],"[1027, 1028]",[],[],[],[],[],"[3078, 1401, 1036]",[],[],[3133],[],[1029],[],[],[3812],[],[3067],[],[]
participant_8_SOLD,[],[],[],[],[],[],[1039],[],[],"[1028, 1036, 1001]",[],[],[],[],[],[],[],[],"[1027, 3044, 1028, 3706]",[],[],[1036],[],[],[],[],"[1029, 3133]",[],[],[],[]
participant_8_UNDO,[],[],[],[],[],[],[],[],[],[],[],[],[],[],[],[],[],[],[],[],[],[],[],[],[],[],[],[],[],[],[]
participant_9_GOLD,500,500,567,792,1205,1483,1617,1825,2035,2183,2625,2836,3252,3581,3861,4364,4504,4645,5026,5181,5350,5540,6072,6262,6552,6888,7455,7650,8450,9008,9762
participant_9_CURRENTGOLD,500,0,67,292,705,983,17,225,435,108,550,761,1177,581,861,314,454,595,976,697,865,290,822,212,502,838,5,201,1000,1558,2312
participant_9_LEVEL,1,1,1,2,3,4,4,4,5,5,6,6,7,7,7,8,8,8,9,9,9,9,10,10,10,11,12,13,13,14,15
participant_9_MINIONSKILLED,0,0,0,0,1,4,4,5,5,6,8,11,11,12,13,17,17,17,26,26,28,28,31,31,31,39,44,44,47,47,51
participant_9_KILLS,0,0,0,0,0,0,2,2,2,3,4,5,5,6,7,7,9,11,11,12,12,13,13,13,14,16,18,19,20,20,22
participant_9_BUY,[],"[1036, 2031, 3340]",[],[],[],[3145],[1053],"[1036, 2055]",[],[],"[3146, 1001, 1028, 1052]","[3020, 1028]",[],[],[3165],[],[],[],[3151],[1052],[],[],[1026],[3135],[],[],[],[1058],[3089],[],[]
participant_9_SOLD,[],[],[],[],[],[],[1036],[],[2055],[],"[1053, 1036, 3145]",[1001],[],[],"[1028, 1052]",[],[],[],[],[],[],[],[2031],"[1026, 1052]",[],[],[],[],[1058],[],[]
participant_9_UNDO,[],[],[],[],[],[],[],[],[],[],"[[0, 1028]]",[],[],[],[],[],[],[],[],[],[],[],[],[],[],[],[],[],[],[],[]
team0_KILLS,0,0,0,0,0,0,1,1,2,4,4,6,8,10,10,12,12,13,13,15,17,19,23,24,26,27,28,29,30,30,31
team0_CURRENTGOLD,2500,0,398,1483,1509,1580,2821,2321,3350,3914,2933,4295,2077,4147,2480,4754,2873,4790,2514,3079,5005,3124,4774,4492,1648,3217,3078,2986,3360,3319,3892
team0_TOTALGOLD,2500,2500,2898,3983,5059,6215,7891,9091,10820,12589,14408,16570,18602,21522,22805,25079,26178,28095,29169,31684,34410,36129,39229,41122,42368,43936,45248,46955,48748,50218,51727
team0_LEVEL,5,5,6,13,16,19,24,26,29,33,35,39,41,45,45,49,50,50,51,55,58,59,62,65,66,66,68,69,70,72,74
team0_SBIRES,0,0,6,22,37,53,77,97,115,134,157,177,186,215,233,251,266,282,291,309,330,349,354,382,388,405,417,438,454,485,492
team1_KILLS,0,0,0,0,2,4,6,6,6,8,10,11,13,14,17,18,20,23,24,25,25,28,28,28,31,34,38,39,42,43,47
team1_CURRENTGOLD,2500,0,415,2001,3862,5189,3031,1810,3497,4248,3464,2213,3711,3801,3230,4835,6064,8193,2246,2969,2905,3609,4750,1765,4624,6083,5296,5033,1911,3629,6205
team1_TOTALGOLD,2500,2500,2915,4501,6897,9274,11016,12135,13822,16348,18249,19873,22121,24961,27605,30860,32889,35018,36854,38446,39667,42486,45733,46662,49522,52214,55027,56564,58807,61406,64813
team1_LEVEL,5,5,6,13,16,23,25,26,30,33,37,38,41,43,46,50,51,54,55,58,59,61,63,63,65,68,71,73,73,78,80
team1_SBIRES,0,0,9,39,64,97,111,130,160,189,203,222,249,278,292,332,347,365,397,406,426,446,471,471,488,501,520,528,531,537,557
delta_KILLS,0,0,0,0,-2,-4,-5,-5,-4,-4,-6,-5,-5,-4,-7,-6,-8,-10,-11,-10,-8,-9,-5,-4,-5,-7,-10,-10,-12,-13,-16
delta_CURRENTGOLD,0,0,-17,-518,-2353,-3609,-210,511,-147,-334,-531,2082,-1634,346,-750,-81,-3191,-3403,268,110,2100,-485,24,2727,-2976,-2866,-2218,-2047,1449,-310,-2313
delta_TOTALGOLD,0,0,-17,-518,-1838,-3059,-3125,-3044,-3002,-3759,-3841,-3303,-3519,-3439,-4800,-5781,-6711,-6923,-7685,-6762,-5257,-6357,-6504,-5540,-7154,-8278,-9779,-9609,-10059,-11188,-13086
delta_LEVEL,0,0,0,0,0,-4,-1,0,-1,0,-2,1,0,2,-1,-1,-1,-4,-4,-3,-1,-2,-1,2,1,-2,-3,-4,-3,-6,-6
delta_SBIRES,0,0,-3,-17,-27,-44,-34,-33,-45,-55,-46,-45,-63,-63,-59,-81,-81,-83,-106,-97,-96,-97,-117,-89,-100,-96,-103,-90,-77,-52,-65
