name,frame_0,frame_1,frame_2,frame_3,frame_4,frame_5,frame_6,frame_7,frame_8,frame_9,frame_10,frame_11,frame_12,frame_13,frame_14,frame_15,frame_16,frame_17,frame_18,frame_19,frame_20,frame_21,frame_22,frame_23,frame_24,frame_25,frame_26,frame_27,frame_28,frame_29,frame_30,frame_31,frame_32,frame_33,frame_34,frame_35,frame_36,frame_37
nameStamp,Tstart,Tearly,Tearly,Tearly,Tearly,Tearly,Tearly,Tearly,Tearly,Tearly,Tearly,Tearly,Tearly,Tearly,Tmid,Tmid,Tmid,Tmid,Tmid,Tmid,Tmid,Tmid,Tmid,Tmid,Tmid,Tmid,Tmid,Tmid,Tmid,Tmid,Tmid,Tend,Tend,Tend,Tend,Tend,Tend,Tend
timestamp,0,60029,120061,180075,240108,300135,360138,420141,480151,540170,600182,660205,720210,780236,840249,900266,960278,1020286,1080296,1140314,1200316,1260336,1320353,1380369,1440372,1500387,1560403,1620420,1680431,1740467,1800486,1860497,1920511,1980529,2040532,2100549,2160557,2220557
participant_0_GOLD,500,500,563,881,1617,2141,2505,2669,3036,3697,4175,4402,5162,5793,6663,6953,8219,8960,9202,9744,9957,10400,10522,10756,12441,13470,13788,13910,14123,14246,14744,14866,15752,16655,16827,17743,18827,19995
participant_0_CURRENTGOLD,500,0,63,381,1117,1641,2005,169,536,1197,375,252,112,643,1180,595,1861,2602,519,1061,1274,1717,79,314,449,1478,1795,1168,1381,84,582,704,1290,2193,1665,2081,3165,4112
participant_0_LEVEL,1,1,1,3,4,5,6,6,7,8,8,9,10,10,10,11,12,13,13,14,14,14,14,14,14,15,15,15,15,15,16,16,16,17,17,17,18,18
participant_0_MINIONSKILLED,0,0,2,13,21,33,44,47,58,66,68,74,81,82,91,97,105,106,114,132,137,137,137,139,144,153,153,153,154,154,167,167,170,177,180,185,191,193
participant_0_KILLS,0,0,0,0,1,1,1,1,1,2,2,2,3,3,3,3,6,7,7,7,7,8,8,8,10,12,12,12,12,12,12,12,13,14,14,16,18,21
participant_0_BUY,[],"[1054, 2003, 3340]",[],[],[],[],[],"[3057, 1042, 1042, 1001, 2003]",[],[],"[3101, 3111]",[1036],[3044],"[2003, 2003, 2003, 2003]",[3078],[1037],[],[],[3053],[],[],[],"[1011, 1031]",[],"[3742, 1033]",[],[],[3211],[],"[3067, 3065]",[],[],[1029],[],[3076],[2140],[],[]
participant_0_SOLD,[],[],[],[],[],[],[],[],[],"[2003, 2003]","[1042, 1042, 1001]",[],[1036],[],"[3101, 3057, 3044]",[],[],[],[1037],[],[],[],"[2003, 2003]",[],"[1031, 1011]",[],[],[1033],[],"[1054, 3211, 3067]",[],[],[],[],[1029],[2140],[],[]
participant_0_UNDO,[],[],[],[],[],[],[],[],[],[],[],[],[],"[[0, 2003], [0, 2003]]",[],[],[],[],[],[],[],[],[],[],[],[],[],[],[],[],[],[],[],[],[],[],[],[]
participant_1_GOLD,500,530,683,958,1263,1765,1982,2204,2462,2792,2915,3242,3634,4480,5113,5235,5693,6360,6567,7210,7332,7800,7922,8199,8602,9057,9275,9752,10230,10352,10559,11751,11873,12066,12189,12927,13119,13416
participant_1_CURRENTGOLD,500,30,183,458,763,1265,1482,254,512,842,965,542,934,1780,2413,310,767,1435,342,170,292,759,182,459,12,467,85,562,1040,512,720,1911,350,544,16,755,947,1183
participant_1_LEVEL,1,1,2,3,3,4,4,5,5,6,6,7,7,8,9,9,9,10,10,10,10,11,11,11,12,12,12,13,13,13,13,14,14,14,14,15,15,16
participant_1_MINIONSKILLED,0,1,1,1,1,1,2,2,2,2,2,2,2,2,3,3,8,15,15,15,15,15,15,15,17,21,22,22,35,35,35,38,38,39,39,46,50,50
participant_1_KILLS,0,0,0,0,1,2,2,2,2,3,3,4,4,5,5,6,6,6,7,7,7,7,7,8,8,8,8,8,9,9,9,9,9,10,10,10,10,10
participant_1_BUY,[],"[1054, 2003, 3340]",[],[],[],[3145],[],[],[],[],[3144],[3146],[],[],[],[],"[3020, 1026, 1052]",[],[],[3135],[],[],[],[],[1058],[],[],[],[1058],[],[],[],[3089],[],[],[],[],[]
participant_1_SOLD,[],[],[],[2003],[],[],[],[],[],[],[],"[3144, 3145]",[],[],[],[],[],[],[],"[1026, 1052]",[],[],[],[],[],[],[],[],[1054],[],[],[],"[1058, 1058]",[],[],[],[],[]
participant_1_UNDO,[],[],[],[],[],[],[],[],[],[],[],[],[],[],[],[],[],[],[],[],[],[],[],[],[],[],[],[],[],[],[],[],[],[],[],[],[],[]
participant_2_GOLD,500,500,584,748,1331,1769,2083,2275,2628,3195,3429,3927,4190,5047,5621,6324,6446,6787,7309,7837,8057,8428,8614,9248,9525,9748,9920,10042,10485,10607,10890,11012,11352,11795,12272,12784,13244,13640
participant_2_CURRENTGOLD,500,0,84,248,831,219,533,725,1078,1645,279,27,290,1147,1721,2424,161,502,1024,187,407,778,964,1598,626,848,1020,1143,515,638,920,1042,283,725,1203,1715,2174,2390
participant_2_LEVEL,1,1,1,3,4,5,6,7,7,8,9,10,10,10,11,12,12,12,13,13,13,13,13,14,14,14,14,14,14,14,15,15,15,16,16,17,17,17
participant_2_MINIONSKILLED,0,0,3,5,13,14,24,28,38,46,53,60,65,72,82,91,91,98,105,107,113,119,123,126,132,132,132,132,132,132,138,138,141,141,154,157,162,169
participant_2_KILLS,0,0,0,0,0,0,0,0,0,0,0,0,1,1,1,1,1,1,1,1,1,1,1,2,2,3,3,3,3,3,3,4,4,5,5,6,6,6
participant_2_BUY,[],"[3850, 2003, 3340]",[],[],[],[],[1052],[],[],[],"[3802, 1001]",[],[],[],[1026],[],[],[],"[3285, 1028]",[1052],[],[],[3916],[],[],[],"[3165, 1026]",[],[],[],[1052],[],[3135],[],[],[],[1058],[]
participant_2_SOLD,[],[],[],"[2003, 2010]",[],[2010],[],[2010],[],[],[1052],[],[3850],"[2419, 2423]",[],[],[],[],"[3802, 1026]",[],[],[3851],"[2424, 1028, 1052]",[],[],[],[3916],[],[],[],[],[],"[1026, 1052]",[],[],[],[],[]
participant_2_UNDO,[],[],[],[],[],[],[],[],[],[],[],[],[],[],[],[],[],[],[],[],[],[],[],[],[],[],[],[],[],[],[],[],[],[],[],[],[],[]
participant_3_GOLD,500,500,535,727,892,1161,1483,1682,1804,2039,2245,2438,2773,3496,3827,3949,4198,4712,4904,5279,5471,5734,5870,6042,6298,6917,7389,7861,8159,8281,8564,9031,9305,9573,9820,10112,10234,10731
participant_3_CURRENTGOLD,500,0,35,227,392,661,983,1182,129,364,220,413,248,971,1302,149,398,912,204,579,321,584,70,242,498,1117,489,461,759,231,264,731,1005,223,470,762,134,631
participant_3_LEVEL,1,1,1,2,3,4,5,5,5,6,6,7,7,7,8,8,8,9,9,9,9,10,10,10,11,12,12,12,12,12,12,13,14,14,14,15,15,16
participant_3_MINIONSKILLED,0,0,1,5,8,14,23,27,27,33,38,42,46,48,53,53,60,65,69,77,81,90,91,91,92,93,93,93,96,96,101,108,112,116,119,119,119,119
participant_3_KILLS,0,0,0,0,0,1,1,1,1,1,1,1,1,2,3,3,3,3,3,4,4,5,5,5,5,5,5,5,5,5,5,6,6,6,6,7,7,7
participant_3_BUY,[],"[1041, 3340, 2031]",[],[],[],[],[],"[3706, 1036, 1001, 2055, 2055, 3364]",[],[],[],[3133],[],[],[],"[1400, 3047, 1053]",[],[],"[3144, 1042, 1042]","[1043, 1028, 2055]",[],[],[3153],[],[3044],[],"[1042, 1042]",[],[],"[3101, 1027, 2055, 2055]",[],[],"[3078, 1033, 1029]",[],"[1031, 2055, 2055]",[],[],[]
participant_3_SOLD,[],[],[],[],[],[],[],"[1041, 3340]",[],[],[],[1036],[2055],"[3364, 3513, 2055]",[],"[3133, 3706, 1001]",[],[],[1053],"[1042, 1042, 2031]",[2055],[],"[3144, 1043]",[],[1028],[],[],[],[],"[1042, 1042]",[],[],"[3101, 3044]","[2055, 2055]",[1029],[],[],[]
participant_3_UNDO,[],[],[],[],[],[],[],[],[],[],[],[],[],[],[],[],[],[],[],[],[],[],[],[],[],[],[],[],[],"[[0, 1027]]",[],[],"[[0, 1033]]",[],[],[],[],[]
participant_4_GOLD,500,500,544,753,948,1147,1326,1490,1680,1902,2125,2311,2810,3300,3548,3716,4043,4503,4703,4893,5033,5429,5569,6204,6599,7576,7841,8031,8249,8389,8649,9489,9732,10352,10492,10908,11048,11224
participant_4_CURRENTGOLD,500,50,94,303,498,697,441,605,795,1017,75,261,760,1250,648,816,1143,1603,353,108,248,644,59,695,1090,2066,81,271,489,630,454,1294,173,792,933,1348,239,374
participant_4_LEVEL,1,1,1,2,3,4,4,4,5,6,6,6,7,8,8,8,9,9,9,9,10,10,10,11,11,12,12,13,13,13,13,14,14,15,15,15,15,15
participant_4_MINIONSKILLED,0,0,1,1,1,3,4,4,7,10,11,12,12,13,15,17,25,27,28,28,28,28,28,35,37,39,39,42,44,44,51,51,53,55,55,55,55,56
participant_4_KILLS,0,0,0,0,0,0,0,0,0,0,0,0,0,1,1,1,1,1,1,1,1,1,1,1,1,2,3,4,4,4,4,4,4,4,4,4,4,4
participant_4_BUY,[],"[1055, 2003, 3340]",[],[],[],[],[],[],"[1001, 1037]",[],[1027],[],[3070],[],[],"[3004, 3158]",[],[],[1053],[],[1033],[],[3105],[],[],[],[3133],[3812],[],"[1027, 1029]",[3024],[],[],[3057],[],[],[3025],[]
participant_4_SOLD,[],[],[],[],[2010],"[2010, 2003]",[],[2010],[],[],[],[],[1027],[],[],"[3070, 1037, 1001]",[],[],[],[],[],[],[1033],[],[],[],[],"[3105, 1053, 3133]",[],[],"[3004, 1027, 1029]",[],[],[],[],[],"[3057, 3024]",[]
participant_4_UNDO,[],[],[],[],[],[],[],[],[],[],[],[],[],[],[],[],[],[],[],[],[],[],[],[],[],[],[],[],[],[],[],[],[],[],[],[],[],[]
participant_5_GOLD,500,500,584,818,1109,1280,1536,1892,2223,2409,2786,3138,3424,3665,3912,4247,4370,4548,4879,5148,5340,5645,6450,6573,6765,6939,7061,7337,7620,7999,8421,8818,9252,9912,10295,10754,10876,11844
participant_5_CURRENTGOLD,500,0,84,318,609,780,1036,1392,1723,9,386,738,224,465,712,1047,370,548,879,1148,340,645,1450,573,365,539,161,437,720,1099,321,718,352,212,596,1054,1176,1269
participant_5_LEVEL,1,1,1,2,4,4,5,6,7,7,8,8,9,9,9,10,10,10,11,11,11,12,12,12,12,13,13,13,14,14,15,15,16,16,16,17,17,17
participant_5_MINIONSKILLED,0,0,3,10,20,23,31,42,51,54,61,70,71,78,81,84,84,87,95,96,100,103,103,103,107,108,108,113,115,121,121,121,123,130,132,134,134,135
participant_5_KILLS,0,0,0,0,0,0,0,0,0,0,0,0,0,0,0,0,0,0,0,0,0,0,1,1,1,1,1,1,1,1,1,1,1,2,2,3,3,4
participant_5_BUY,[],"[1054, 2003]",[],[],[],[],[],[],[],"[3082, 3024]",[],[],"[1029, 3047]",[],[],[],[3110],[],[],[],[3076],[],[],[3082],[1028],[],[3075],[],[],[],[3211],[],[3067],[3065],[],[],[],[1037]
participant_5_SOLD,[],[],[],[],[],[],[],[],[],[2003],[],[],"[1029, 2422]",[],[],[],"[3082, 3024]",[],[],[],[],[],[],[],[],[],"[3076, 1028, 3082]",[],[],[],[],[],[],"[3211, 3067]",[],[],[],[]
participant_5_UNDO,[],[],[],[],[],[],[],[],[],[],[],[],[],[],[],[],[],[],[],[],[],[],[],[],[],[],[],[],[],[],[],[],[],[],[],[],[],[]
participant_6_GOLD,500,500,621,933,1156,1405,1710,2052,2259,2587,3180,4145,4659,4781,5074,5196,5634,5756,6043,6579,6701,6824,7096,7408,7531,7691,8591,8713,8886,9008,9515,10236,10683,11030,11195,11353,11475,11572
participant_6_CURRENTGOLD,500,0,121,433,306,555,860,1202,209,537,1130,2095,774,131,424,546,984,256,543,1079,1201,174,446,758,881,1101,2001,873,1046,1168,426,1146,493,406,570,729,851,37
participant_6_LEVEL,1,1,2,3,3,4,4,5,5,6,6,8,8,8,9,9,10,10,10,10,10,11,11,11,11,12,12,13,13,13,14,14,15,15,15,16,16,16
participant_6_MINIONSKILLED,0,0,0,0,0,2,2,2,2,2,3,6,8,8,10,10,10,10,11,15,15,15,15,15,15,15,17,17,17,17,17,20,20,20,22,24,24,24
participant_6_KILLS,0,0,0,0,0,0,0,0,0,0,1,2,3,3,3,3,3,3,3,4,4,4,4,4,4,4,6,6,6,6,6,6,7,7,7,7,7,7
participant_6_BUY,[],"[1039, 2031, 3340]",[],[],[1041],[],[],[],"[3706, 3108]",[],[],[],"[1402, 3020, 1052]","[3113, 1027]",[],[],[],[1026],[],[],[],[3100],[],[],[],[],[],[1058],[],[],[1058],[],[3089],[1052],[],[],[],[1026]
participant_6_SOLD,[],[],[],[],[],[],[],[],"[1039, 1041]",[],[],[],"[3108, 3706, 2422]",[1052],[],[],[],[],[],[],[],"[1027, 3113, 1026]",[],[],[],[2031],[],[],[],[],[],[],"[1058, 1058]",[],[],[],[],[]
participant_6_UNDO,[],[],[],[],[],[],[],[],[],[],[],[],[],[],[],[],[],[],[],[],[],[],[],[],[],[],[],[],[],[],[],[],[],[],[],[],[],[]
participant_7_GOLD,500,500,542,727,906,1084,1312,1675,1950,2129,2384,2666,3027,3672,4429,5193,5351,5473,5682,6155,6326,7099,7406,7628,7751,8173,8795,9185,9557,9680,10945,11493,11692,11864,12419,12570,12767,12864
participant_7_CURRENTGOLD,500,500,542,727,206,384,612,975,1250,329,584,466,827,1472,2229,43,126,248,57,530,701,1474,481,703,301,723,995,1385,1757,1880,1346,1893,792,95,649,801,998,1064
participant_7_LEVEL,1,1,1,3,3,4,5,6,6,7,7,8,8,9,9,10,10,10,10,11,11,11,12,12,12,12,13,13,14,14,15,15,16,16,16,16,16,16
participant_7_MINIONSKILLED,0,0,1,5,8,11,17,28,34,37,45,51,62,73,80,83,85,85,90,104,107,107,107,107,107,107,110,117,117,117,124,124,129,129,133,135,135,135
participant_7_KILLS,0,0,0,0,0,1,1,1,1,2,2,2,2,2,3,4,4,4,5,5,6,6,7,7,7,7,7,7,10,10,11,11,11,11,11,11,11,11
participant_7_BUY,[],"[3858, 2055, 3340]",[],[],[],[],"[1001, 1033, 2031, 2055]",[],[3111],[],[],"[3076, 3364]",[],[1028],[],"[3082, 1029]",[],[],[3075],"[1028, 1011]",[1031],[],[3742],[],[1029],[1027],[3024],[1027],[],[],[3025],[3751],[],[],[],[],[3068],[]
participant_7_SOLD,[],[2055],[],[],[],[],[],[2055],"[1001, 1033]",[],[],"[3858, 3340]",[],[],[],[2031],[],[],"[3076, 1028, 3082]",[1028],"[1029, 3859]",[],"[1031, 1011]",[],[],[],"[1027, 1029]",[],[],[],"[1027, 3024]",[],[],[],[],[],[3751],[]
participant_7_UNDO,[],[],[],[],[],[],[],[],[],[],[],[],[],[],[],[],[],[],[],[],[],[],[],[],[],[],[],[],[],[],[],[],[],[],[],[],[],[]
participant_8_GOLD,500,500,584,955,1232,1417,1575,1910,2216,2708,2931,3187,3604,3776,4199,4413,4804,5010,5869,6528,7452,8497,9242,9705,9945,10300,10896,11555,12761,13485,14559,15481,15604,15914,16036,16460,16973,17235
participant_8_CURRENTGOLD,500,0,84,455,732,917,75,410,16,508,231,487,904,276,699,913,1304,110,969,328,377,1421,2167,305,246,300,896,1555,1862,2585,1059,862,984,1295,1417,1840,2354,235
participant_8_LEVEL,1,1,1,2,3,4,4,5,5,6,6,7,7,7,8,8,9,9,10,11,11,12,13,13,13,13,14,14,15,15,16,17,17,17,17,17,17,18
participant_8_MINIONSKILLED,0,0,3,15,24,27,29,38,41,51,52,60,61,64,73,78,90,95,108,118,133,142,146,159,162,169,188,197,202,213,224,224,224,228,228,228,234,235
participant_8_KILLS,0,0,0,0,0,0,0,0,0,0,0,0,1,1,1,1,1,1,2,2,3,4,5,5,5,5,5,6,7,8,9,11,11,11,11,12,13,13
participant_8_BUY,[],"[1055, 2003, 3340]",[],[],[],[],"[1001, 1036, 1036]",[],"[3133, 1042]",[],[3006],[],[],[1018],[],[],[],[3508],[],[1038],[1037],[],[],"[3031, 1042, 1018]",[3086],[1042],[],[],[3046],[],[3085],[1038],[],[],[],[],[],[3072]
participant_8_SOLD,[],[],[],[],[2003],[],[],[],"[1036, 1036]",[],"[1001, 1042]",[],[],[],[],[],[],"[3133, 1018]",[],[],[],[],[],"[1038, 1037]","[1018, 1042]",[],[],[],"[1042, 3086]",[],[],[1055],[],[],[],[],[],[1038]
participant_8_UNDO,[],[],[],[],[],[],[],[],[],[],[],[],[],[],[],[],[],[],[],[],[],[],[],[],[],[],[],[],[],[],[],[],[],[],[],[],[],[]
participant_9_GOLD,500,500,544,752,901,1376,1532,1753,2036,2584,2798,2972,3284,3502,4194,4668,4808,5151,5871,6165,6798,7104,7782,7971,8111,8309,8558,8794,9964,10200,11523,12224,12406,12596,12737,13083,13361,13547
participant_9_CURRENTGOLD,500,25,69,277,426,901,82,303,236,784,998,172,484,302,994,228,368,711,931,225,359,664,242,431,271,119,119,4,1174,1410,1283,1084,1266,1457,1597,1943,371,497
participant_9_LEVEL,1,1,1,2,3,3,4,5,5,6,6,6,7,7,8,8,8,9,10,10,11,11,12,12,12,12,13,13,13,13,15,15,15,15,15,16,16,16
participant_9_MINIONSKILLED,0,0,1,3,4,5,6,8,9,11,11,13,14,15,20,21,21,29,30,32,35,35,36,39,39,39,40,40,40,40,46,48,51,51,51,53,55,55
participant_9_KILLS,0,0,0,0,0,0,0,0,0,0,0,0,0,0,1,2,2,2,2,2,2,3,3,3,3,4,5,5,5,5,7,7,7,7,8,8,8,8
participant_9_BUY,[],[],[],[],"[1055, 1036, 1036]",[],[],[],[],"[3133, 1036, 1036]",[],[3134],[],[],[],"[3142, 3158, 3044, 1028]",[2055],[],[3067],[],[],[],"[3071, 1036, 1036]",[],"[3123, 2055]",[],[1036],[],[],[],"[3033, 2055, 2055, 3364]",[1053],[1038],[1053],[],[],[],[]
participant_9_SOLD,[],[],[],[2010],[],[],[2010],[2010],[],"[1036, 1036]",[],"[1036, 1036]",[],[],[],"[3133, 3134, 2422]",[],[],"[2055, 1028]",[],[],[],"[3044, 3067]",[],[1036],[],[2055],[],[],[],"[1036, 3123, 3340]",[],[2055],[2055],[],[],[],[]
participant_9_UNDO,[],[],[],[],"[[0, 1055]]",[],[],[],[],[],[],[],[],[],[],[],[],[],[],[],[],[],"[[0, 1036]]",[],[],[],[],[],[],[],[],"[[0, 1053]]",[],[],[],[],[],[]
team0_KILLS,0,0,0,0,2,4,4,4,4,6,6,7,9,12,13,14,17,18,19,20,20,22,22,24,26,30,31,32,33,33,33,35,36,39,39,43,45,48
team0_CURRENTGOLD,2500,80,459,1617,3601,4483,5444,2935,3050,5065,1914,1495,2344,5791,7264,4294,4330,7054,2442,2105,2542,4482,1354,3308,2675,5976,3470,3605,4184,2095,2940,5682,3101,4477,4287,6661,6659,8690
team0_TOTALGOLD,2500,2530,2909,4067,6051,7983,9379,10320,11610,13625,14889,16320,18569,22116,24772,26177,28599,31322,32685,34963,35850,37791,38497,40449,43465,46768,48213,49596,51246,51875,53406,56149,58014,60441,61600,64474,66472,69006
team0_LEVEL,5,5,6,13,17,22,25,27,29,34,35,39,41,43,46,48,50,53,54,55,56,58,58,60,62,65,65,67,67,67,69,72,73,76,76,79,80,82
team0_SBIRES,0,1,8,25,44,65,97,108,132,157,172,190,206,217,244,261,289,311,331,359,374,389,394,406,422,438,439,442,461,461,492,502,514,528,547,562,577,587
team1_KILLS,0,0,0,0,0,1,1,1,1,2,3,4,6,6,8,10,10,10,12,13,15,17,20,20,20,21,24,25,29,30,34,36,37,38,39,41,42,43
team1_CURRENTGOLD,2500,525,900,2210,2279,3537,2665,4282,3434,2167,3329,3958,3213,2646,5058,2777,3152,1873,3379,3310,2978,4378,4786,2770,2064,2782,4172,4254,6559,8142,4435,5703,3887,3465,4829,6367,5750,3102
team1_TOTALGOLD,2500,2500,2875,4185,5304,6562,7665,9282,10684,12417,14079,16108,17998,19396,21808,23717,24967,25938,28344,30575,32617,35169,37976,39285,40103,41412,43901,45584,48788,50372,54963,58252,59637,61316,62682,64220,65452,67062
team1_LEVEL,5,5,6,12,16,19,22,27,28,32,33,37,39,40,43,45,47,48,51,53,54,57,60,60,60,62,65,66,69,69,75,76,79,79,79,82,82,83
team1_SBIRES,0,0,8,33,56,68,85,118,137,155,172,200,216,238,264,276,290,306,334,365,390,402,407,423,430,438,463,484,491,508,532,537,547,558,566,574,582,584
delta_KILLS,0,0,0,0,2,3,3,3,3,4,3,3,3,6,5,4,7,8,7,7,5,5,2,4,6,9,7,7,4,3,-1,-1,-1,1,0,2,3,5
delta_CURRENTGOLD,0,-445,-441,-593,1322,946,2779,-1347,-384,2898,-1415,-2463,-869,3145,2206,1517,1178,5181,-937,-1205,-436,104,-3432,538,611,3194,-702,-649,-2375,-6047,-1495,-21,-786,1012,-542,294,909,5588
delta_TOTALGOLD,0,30,34,-118,747,1421,1714,1038,926,1208,810,212,571,2720,2964,2460,3632,5384,4341,4388,3233,2622,521,1164,3362,5356,4312,4012,2458,1503,-1557,-2103,-1623,-875,-1082,254,1020,1944
delta_LEVEL,0,0,0,1,1,3,3,0,1,2,2,2,2,3,3,3,3,5,3,2,2,1,-2,0,2,3,0,1,-2,-2,-6,-4,-6,-3,-3,-3,-2,-1
delta_SBIRES,0,1,0,-8,-12,-3,12,-10,-5,2,0,-10,-10,-21,-20,-15,-1,5,-3,-6,-16,-13,-13,-17,-8,0,-24,-42,-30,-47,-40,-35,-33,-30,-19,-12,-5,3
