name,frame_0,frame_1,frame_2,frame_3,frame_4,frame_5,frame_6,frame_7,frame_8,frame_9,frame_10,frame_11,frame_12,frame_13,frame_14,frame_15,frame_16,frame_17,frame_18,frame_19,frame_20,frame_21,frame_22,frame_23
nameStamp,Tstart,Tearly,Tearly,Tearly,Tearly,Tearly,Tearly,Tearly,Tearly,Tearly,Tearly,Tearly,Tearly,Tearly,Tmid,Tmid,Tmid,Tmid,Tmid,Tmid,Tmid,Tmid,Tmid,Tmid
timestamp,0,60019,120050,180090,240122,300135,360157,420162,480191,540195,600195,660199,720203,780212,840241,900246,960279,1020284,1080308,1140314,1200344,1260349,1320381,1380381
participant_0_GOLD,500,500,563,720,885,1056,1364,1486,1831,2094,2379,2502,2624,2746,2869,2991,3114,3236,3408,3531,3653,3776,3898,3948
participant_0_CURRENTGOLD,500,0,63,70,235,56,364,36,381,644,929,1052,1174,1296,1419,1541,1664,1786,1958,2081,2203,2326,2448,2498
participant_0_LEVEL,1,1,1,2,4,5,6,6,7,7,8,8,8,8,8,8,8,8,8,8,8,8,8,8
participant_0_MINIONSKILLED,0,0,2,4,6,9,17,17,27,35,41,41,41,41,41,41,41,41,41,41,41,41,41,41
participant_0_KILLS,0,0,0,0,0,0,0,0,0,0,1,1,1,1,2,3,3,5,5,5,5,5,7,7
participant_0_BUY,[],"[1039, 2031, 3340]",[],[],[],[3706],[],[],[],[],[],"[1400, 1001, 1036]",[1036],[1028],[],[],[],[],"[3071, 1036]",[1053],[],[1033],[],[3105]
participant_0_SOLD,[],[],[],[],[],[1039],[],[],[],[],[],[3706],[],[],[],[],[],[],"[1028, 1036]",[1036],[],[],[],[1033]
participant_0_UNDO,[],[],[],[],[],[],[],[],[],[],[],[],"[[0, 1036]]",[],[],[],[],[],[],[],[],[],[],[]
participant_1_GOLD,500,500,606,1013,1241,1448,1801,2085,2340,2598,3310,3588,3815,3990,4447,4987,5550,6606,7037,7160,7466,7645,8421,8471
participant_1_CURRENTGOLD,500,0,106,513,741,298,651,935,1190,1448,2160,163,390,165,622,1162,1725,2781,612,185,491,220,996,396
participant_1_LEVEL,1,1,2,3,3,4,4,5,5,6,6,7,7,7,8,8,9,10,10,10,11,11,11,12
participant_1_MINIONSKILLED,0,0,0,0,0,0,0,0,2,2,3,8,8,14,15,17,17,23,30,30,31,34,35,35
participant_1_KILLS,0,0,0,0,0,0,0,1,1,1,2,2,2,2,3,3,4,5,5,5,6,6,6,6
participant_1_BUY,[],"[1056, 2003, 3340, 2003]",[],[],[],"[1027, 1001]",[],[],[],"[1026, 1052]",[],[],[],[3285],[],[],[3020],[1058],[],[],[1058],[],[],[]
participant_1_SOLD,[],[],[],[],[],[2003],[2003],[],[],[],[],[],[],"[1052, 1027, 1026]",[],[],[1001],[],[],[],[],[],[],[]
participant_1_UNDO,[],[],[],[],[],[],[],[],[],[],[],[],[],[],[],[],[],[],[],[],[],[],[],[]
participant_2_GOLD,500,500,612,913,1078,1298,1627,2154,2360,2553,3226,3809,3966,4158,5025,5231,6153,6603,6803,7058,7508,7777,8164,8214
participant_2_CURRENTGOLD,500,0,112,413,578,148,477,1004,1210,118,791,1374,1531,158,1025,1231,1353,553,753,1008,208,477,864,914
participant_2_LEVEL,1,1,1,3,4,4,5,6,7,7,8,9,9,9,10,11,11,12,12,12,12,13,13,13
participant_2_MINIONSKILLED,0,0,5,13,15,18,27,33,37,41,50,58,60,64,78,83,91,93,95,99,101,106,118,118
participant_2_KILLS,0,0,0,0,0,0,0,0,0,0,0,0,0,0,0,0,0,0,0,0,0,0,0,0
participant_2_BUY,[],"[1054, 2003, 3340]",[],[1006],[],"[1029, 2003]",[],"[1028, 1028, 2003]",[],[],[],[],[],[],[],[],[],[],[],[],[],[],[],[]
participant_2_SOLD,[],[],[2003],[],[],[],[],[],[],[],[],[2003],[],[],[],[],[],[],[],[],[],[],[],[]
participant_2_UNDO,[],[],[],[],[],[],[],"[[0, 1028]]",[],[],[],[],[],[],[],[],[],[],[],[],[],[],[],[]
participant_3_GOLD,500,500,584,873,1110,1424,1775,1995,2346,2642,2917,3356,3499,3887,4236,4484,4782,5256,5605,5728,5850,5973,6095,6145
participant_3_CURRENTGOLD,500,0,84,373,610,924,300,520,871,1167,1442,1881,399,787,186,434,732,456,805,228,350,473,595,645
participant_3_LEVEL,1,1,1,2,3,4,4,4,5,6,6,7,7,7,8,8,8,9,9,9,9,9,9,9
participant_3_MINIONSKILLED,0,0,3,12,17,25,25,31,41,48,57,67,68,80,85,93,99,102,105,105,105,105,105,105
participant_3_KILLS,0,0,0,0,0,0,0,0,0,0,0,0,0,0,0,0,0,1,1,1,1,1,1,1
participant_3_BUY,[],"[1055, 2003, 3340]",[],[],[],[],"[1037, 2003, 2003]",[],[],[],[],[],"[3004, 2003, 2003]",[],"[3009, 1036]",[],[],[3134],[],"[1036, 1036]",[],[],[],[]
participant_3_SOLD,[],[],[],[],[],[],"[2010, 2010]","[2003, 2010]",[2003],[],[],[],[1037],[],"[2003, 2003, 2422]",[],[2003],[1036],[],[],[],[],[],[]
participant_3_UNDO,[],[],[],[],[],[],[],[],[],[],[],[],[],[],[],[],[],[],[],[],[],[],[],[]
participant_4_GOLD,500,500,538,747,972,1181,1976,2125,2319,2499,2729,3009,3193,3378,3669,3988,4128,4725,5070,5211,5361,5501,5956,6013
participant_4_CURRENTGOLD,500,0,38,247,472,681,376,400,594,774,1004,1284,468,653,944,613,303,900,1245,461,611,316,771,363
participant_4_LEVEL,1,1,1,2,3,4,4,4,5,6,6,7,7,7,8,8,8,9,9,10,10,10,10,11
participant_4_MINIONSKILLED,0,0,0,0,0,0,0,0,0,0,0,0,2,2,2,3,3,4,5,5,6,6,7,7
participant_4_KILLS,0,0,0,0,0,0,2,2,2,2,2,2,2,2,2,2,2,2,2,2,2,2,2,2
participant_4_BUY,[],"[3850, 2003, 2003, 3340]",[],[],[],[],"[3114, 1001]",[1004],[],[],[],[],"[3113, 2055, 2055]",[],[],[3504],"[1033, 3364]",[],[],"[3117, 3028]",[],[1052],[],[3108]
participant_4_SOLD,[],[],[],[],[2010],[2010],[],[2003],[2003],[2010],[3850],[],[],[],[],"[2055, 3114, 3113]",[3340],[3851],[2055],"[1001, 1004, 1033]",[],[],[],[1052]
participant_4_UNDO,[],[],[],[],[],[],[],[],[],[],[],[],[],[],[],[],[],[],[],[],[],[],[],[]
participant_5_GOLD,500,500,591,790,1134,1751,1916,2443,2608,2870,3055,4015,4138,5337,5582,5873,6009,6266,6946,7419,7773,8377,8805,9559
participant_5_CURRENTGOLD,500,0,91,290,634,1251,316,843,308,570,755,1715,138,1337,682,973,259,516,1196,169,523,1127,355,1109
participant_5_LEVEL,1,1,1,3,4,5,5,7,7,7,8,9,9,10,10,11,11,11,12,12,12,13,13,14
participant_5_MINIONSKILLED,0,0,4,8,18,26,28,41,43,52,56,69,69,81,85,89,90,95,99,103,110,114,114,115
participant_5_KILLS,0,0,0,0,0,0,1,1,1,1,1,1,1,1,1,1,1,1,1,1,1,1,1,1
participant_5_BUY,[],"[3850, 2003, 3340, 2003]",[],[],[],[],"[3028, 1004, 1004]",[],[],[],[],[],[],[3174],[],[3114],[],[1052],[],[],[],[],[3504],"[1082, 2055]"
participant_5_SOLD,[],[],[],[],[2003],[],[2003],[],[],[],[],[3850],[],[3028],[],"[1004, 1004]",[],[],[],[],[3851],[],"[3114, 1052]",[]
participant_5_UNDO,[],[],[],[],[],[],[],[],[],[],[],[],[],[],[],[],[],[],[],[],[],[],[],[]
participant_6_GOLD,500,500,636,913,1336,1608,1893,2303,2526,2733,2856,3163,3535,4310,4720,4943,5314,5500,5698,6030,6453,7132,7592,7713
participant_6_CURRENTGOLD,500,0,136,413,836,58,343,753,976,1183,131,438,810,1585,1995,2218,2589,325,183,515,938,1617,2077,2138
participant_6_LEVEL,1,1,2,2,3,3,4,4,5,5,5,5,6,7,7,8,9,9,9,9,10,11,11,12
participant_6_MINIONSKILLED,0,0,0,0,0,0,0,1,1,1,1,1,1,5,6,6,7,8,8,8,8,8,12,13
participant_6_KILLS,0,0,0,0,0,0,0,0,0,0,0,0,0,0,1,1,2,2,2,3,3,3,3,3
participant_6_BUY,[],"[1055, 2003, 3340]",[],[],[],[],"[3070, 1001, 2055, 2055, 2003]",[],[],[],[],[],[],"[3004, 1042]",[],[3024],[],[3057],[],[],"[3025, 3101, 1036]",[],[],[]
participant_6_SOLD,[],[],[],[2003],[2010],[2010],[],[2010],[2003],[2055],[],[],[],[3070],[],[],[],[],[],[],"[3057, 3024, 1042]",[],[],[]
participant_6_UNDO,[],[],[],[],[],[],"[[0, 2055]]",[],[],[],[],[],[],[],[],[],[],[],[],[],[],[],[],[]
participant_7_GOLD,500,500,577,818,1485,1656,1821,1971,2288,2727,2863,3042,3527,3832,4018,4343,5086,5529,5951,6759,7657,7905,8689,9111
participant_7_CURRENTGOLD,500,0,77,318,985,1156,451,171,488,927,173,352,387,692,78,403,1146,1589,676,1484,2382,315,1099,1361
participant_7_LEVEL,1,1,1,3,3,4,5,5,6,7,7,7,8,8,9,9,10,10,11,11,12,12,12,13
participant_7_MINIONSKILLED,0,0,3,10,16,19,21,23,31,37,38,41,44,52,55,62,66,67,67,72,72,72,82,93
participant_7_KILLS,0,0,0,0,0,1,1,1,1,1,1,2,2,3,3,3,3,3,4,4,4,4,4,6
participant_7_BUY,[],"[1056, 2003, 2003, 3340]",[],[],[],[],"[3057, 2003]",[],"[1029, 1027, 2003]",[],[],[],"[3025, 1028, 1029]",[],"[3067, 3047]",[],"[1033, 1028]",[],[],"[3065, 1036]",[],[],"[3044, 1042]",[]
participant_7_SOLD,[],[],[],"[2003, 2003]",[],[],[2003],[],[],[],[],[2003],"[3057, 1027, 1029]",[],"[1028, 1029, 2422]",[],[],[],[],"[1028, 1033, 3067]",[],[],[1036],[]
participant_7_UNDO,[],[],[],[],[],[],[],[],[],[],[],[],[],[],[],[],[],[],[],[],[],[],[],[]
participant_8_GOLD,500,500,584,804,1197,1529,1823,2008,2235,2491,2790,3114,3604,3860,4497,4703,5416,5609,5922,6998,7483,7927,8212,8312
participant_8_CURRENTGOLD,500,0,84,304,697,1029,48,233,460,716,1015,1339,1829,235,872,178,891,34,347,1423,8,452,737,837
participant_8_LEVEL,1,1,1,2,3,4,4,4,5,5,6,6,7,7,8,8,9,9,9,10,10,10,11,11
participant_8_MINIONSKILLED,0,0,3,8,21,30,31,35,41,49,56,64,77,82,90,91,104,105,110,116,120,131,135,135
participant_8_KILLS,0,0,0,0,0,0,0,1,1,1,1,1,1,1,1,1,1,1,1,1,1,2,2,2
participant_8_BUY,[],"[1039, 2031, 3340]",[],[],[],"[3706, 1028]",[],[],[],[],"[1401, 2055, 3364]",[],[],[],[],[],[],"[3067, 1011, 3801]",[3083],[],[],[],[],[]
participant_8_SOLD,[],[],[],[],[],[1039],[],[],[],[],"[1028, 3706, 3340]",[2055],[3364],[3513],[],[],[],[],"[2031, 1011, 3067, 3801]",[],[3364],[],[3513],[]
participant_8_UNDO,[],[],[],[],[],[],[],[],[],[],[],[],[],[],[],[],[],[],[],[],[],[],[],[]
participant_9_GOLD,500,500,538,717,926,1105,1570,1749,1943,2138,2287,2510,2806,2996,3272,3462,3781,4017,4302,4642,5028,5293,5534,5641
participant_9_CURRENTGOLD,500,0,38,217,426,605,20,199,393,588,737,960,1256,146,422,62,381,182,467,808,1193,1458,634,316
participant_9_LEVEL,1,1,1,2,3,4,4,4,5,5,6,6,7,7,8,8,8,8,9,9,10,10,10,10
participant_9_MINIONSKILLED,0,0,0,0,1,1,1,1,1,1,1,3,3,3,3,5,6,6,6,6,6,6,6,6
participant_9_KILLS,0,0,0,0,1,1,1,1,1,1,1,1,2,2,2,2,3,3,4,5,7,7,8,8
participant_9_BUY,[],"[1056, 3340, 2003, 2003]",[],[],[],[],"[1052, 1052]",[3802],[],[],[3145],[],[3030],[],[3020],[],[],[],"[3108, 1052]",[],[],"[3905, 1058]",[],[]
participant_9_SOLD,[],[],[],"[2010, 2003]",[2003],[2010],[],"[2010, 1052, 1052]",[],[],[1056],[],"[3802, 3145]",[],[2422],[],[],[],[],[],[],"[3108, 1052]",[],[]
participant_9_UNDO,[],[],[],[],[],[],[],[],[],[],[],[],[],[],[],[],[],[],[],[],[],[],[],[]
team0_KILLS,0,0,0,0,0,0,2,3,3,3,5,5,5,5,7,8,9,13,13,13,14,14,16,16
team0_CURRENTGOLD,2500,0,403,1616,2636,2107,2168,2895,4246,4151,6326,5754,3962,3059,4196,4981,5777,6476,5373,3963,3863,3812,5674,4816
team0_TOTALGOLD,2500,2500,2903,4266,5286,6407,8543,9845,11196,12386,14561,16264,17097,18159,20246,21681,23727,26426,27923,28688,29838,30672,32534,32791
team0_LEVEL,5,5,6,12,17,21,23,25,29,32,34,38,38,38,42,43,44,48,48,49,50,51,51,53
team0_SBIRES,0,0,10,29,38,52,69,81,107,126,151,174,179,201,221,237,251,263,276,280,284,292,306,306
team1_KILLS,0,0,0,0,1,2,3,4,4,4,4,5,6,7,8,8,10,10,12,14,16,17,18,20
team1_CURRENTGOLD,2500,0,426,1542,3578,4099,1178,2199,2625,3984,2811,4804,4420,3995,4049,3834,5266,2646,2869,4399,5044,4969,4902,5761
team1_TOTALGOLD,2500,2500,2926,4042,6078,7649,9023,10474,11600,12959,13851,15844,17610,20335,22089,23324,25606,26921,28819,31848,34394,36634,38832,40336
team1_LEVEL,5,5,6,12,16,20,22,24,28,29,32,33,37,39,42,44,47,47,50,51,54,56,57,60
team1_SBIRES,0,0,10,26,56,76,81,101,117,140,152,178,194,223,239,253,273,281,290,305,316,331,349,362
delta_KILLS,0,0,0,0,-1,-2,-1,-1,-1,-1,1,0,-1,-2,-1,0,-1,3,1,-1,-2,-3,-2,-4
delta_CURRENTGOLD,0,0,-23,74,-942,-1992,990,696,1621,167,3515,950,-458,-936,147,1147,511,3830,2504,-436,-1181,-1157,772,-945
delta_TOTALGOLD,0,0,-23,224,-792,-1242,-480,-629,-404,-573,710,420,-513,-2176,-1843,-1643,-1879,-495,-896,-3160,-4556,-5962,-6298,-7545
delta_LEVEL,0,0,0,0,1,1,1,1,1,3,2,5,1,-1,0,-1,-3,1,-2,-2,-4,-5,-6,-7
delta_SBIRES,0,0,0,3,-18,-24,-12,-20,-10,-14,-1,-4,-15,-22,-18,-16,-22,-18,-14,-25,-32,-39,-43,-56
