name,frame_0,frame_1,frame_2,frame_3,frame_4,frame_5,frame_6,frame_7,frame_8,frame_9,frame_10,frame_11,frame_12,frame_13,frame_14,frame_15,frame_16,frame_17,frame_18,frame_19,frame_20,frame_21,frame_22,frame_23,frame_24,frame_25,frame_26,frame_27,frame_28
nameStamp,Tstart,Tearly,Tearly,Tearly,Tearly,Tearly,Tearly,Tearly,Tearly,Tearly,Tearly,Tearly,Tearly,Tearly,Tearly,Tmid,Tmid,Tmid,Tmid,Tmid,Tmid,Tmid,Tmid,Tmid,Tmid,Tmid,Tmid,Tmid,Tend
timestamp,0,60017,120040,180066,240091,300112,360129,420139,480155,540178,600201,660221,720248,780268,840290,900311,960328,1020353,1080375,1140407,1200425,1260445,1320462,1380485,1440501,1500519,1560536,1620560,1680560
participant_0_GOLD,500,500,521,720,1022,1200,1431,1553,1807,1930,2222,2595,2822,3854,4135,4348,4789,4981,5291,5456,5808,5931,6095,7432,7680,7802,8010,8132,8392
participant_0_CURRENTGOLD,500,500,21,220,522,400,631,403,257,380,672,595,822,1854,460,673,1114,181,491,656,1008,331,495,1832,2080,2,210,332,592
participant_0_LEVEL,1,1,1,1,3,4,5,5,6,6,7,7,8,9,9,10,10,11,11,11,12,12,12,12,12,12,13,13,13
participant_0_MINIONSKILLED,0,0,0,4,12,15,19,19,24,24,31,42,48,52,58,63,74,78,85,87,97,97,100,107,110,110,115,115,118
participant_0_KILLS,0,0,0,0,0,0,0,0,0,0,0,0,0,1,1,1,1,1,1,1,1,1,1,2,2,2,2,2,2
participant_0_BUY,[],[],"[1054, 2003, 3340]",[],[],[1001],[],[1036],[1028],[],[],[3052],[],[],"[3111, 1037]",[],[],[3053],[],[],[],[3067],[],[],[],"[3044, 3071]",[],[],[]
participant_0_SOLD,[],[],[],[2003],[],[],[],[],[],[],[],"[1036, 1028]",[],[],[1001],[],[],"[3052, 1037]",[],[],[],[],[],[],[],"[3044, 3067]",[],[],[]
participant_0_UNDO,[],[],[],[],[],[],[],[],[],[],[],[],[],[],[],[],[],[],[],[],[],[],[],[],[],[],[],[],[]
participant_1_GOLD,500,500,621,878,1314,1571,1851,2200,2348,2775,2983,3348,3943,4129,4251,4523,4753,5046,5253,5480,6037,6159,6480,6846,7074,7238,7620,7827,7945
participant_1_CURRENTGOLD,500,0,121,378,814,1071,51,400,198,625,833,1198,1793,1979,26,298,528,420,628,855,1412,284,605,971,799,963,394,602,720
participant_1_LEVEL,1,1,2,3,3,4,4,5,5,6,6,7,7,7,7,8,8,8,9,9,10,10,10,11,11,12,12,12,13
participant_1_MINIONSKILLED,0,0,0,2,3,3,3,3,3,3,3,10,10,13,13,16,16,16,16,16,24,24,28,34,41,44,48,48,48
participant_1_KILLS,0,0,0,0,0,0,0,0,0,0,0,0,1,2,2,2,2,3,3,3,3,3,3,3,3,4,4,4,4
participant_1_BUY,[],"[1055, 3340, 2003]",[],[],[],[],[1018],[],[],[],[],[1038],[],"[3031, 2055]",[],[1001],[],[],[],[],[3009],[],[],[1038],[],[],[],"[1018, 2015]",[]
participant_1_SOLD,[],[],[2003],[],[],[],[],[],[],[],[],[],[],"[1038, 1018]",[2055],[],[],[],[],[],[1001],[],[],[],[],[],[],[],[]
participant_1_UNDO,[],[],[],[],[],[],[],[],[],[],[],[],[],[],[],[],[],[],[],[],[],[],[],[],[],[],[],[],[]
participant_2_GOLD,500,500,556,804,1513,1684,2343,2793,2986,3108,3712,3993,4115,4835,4957,5332,5482,5604,5853,6165,6288,6452,6627,6961,7231,7457,7622,7982,8872
participant_2_CURRENTGOLD,500,0,56,304,1013,139,798,1248,1441,233,837,468,240,960,282,657,807,129,378,690,378,542,197,531,801,1027,192,117,322
participant_2_LEVEL,1,1,1,3,4,5,6,6,7,7,7,8,8,9,9,9,10,10,10,10,10,11,11,11,12,12,12,13,13
participant_2_MINIONSKILLED,0,0,2,9,17,20,32,34,38,38,47,53,53,62,62,73,75,75,83,87,87,90,90,100,104,106,109,114,115
participant_2_KILLS,0,0,0,0,0,0,0,0,0,0,0,0,0,0,0,0,0,0,0,0,0,0,0,0,0,0,0,0,0
participant_2_BUY,[],"[3850, 3340, 2003, 2003]",[],[],[],[],"[1001, 1027, 3364, 2055]",[],[],[],"[1052, 2055, 2055, 2003, 2003, 2003]",[],[],"[3802, 2055]",[],[],[],[1026],[],[],[],[],[],[],[],[],[],[],[]
participant_2_SOLD,[],[],[],[],[],"[2003, 2003]",[3340],[2055],[],[],[],[2055],[3850],"[1052, 1027]",[],"[2003, 2003, 2003]",[2055],[],[],[],[],[],[],[],[],[3851],[],[],[]
participant_2_UNDO,[],[],[],[],[],[],[],[],[],[],[],[],[],[],[],[],[],[],[],[],[],[],[],[],[],[],[],[],[]
participant_3_GOLD,500,500,521,720,980,1242,1407,1756,2011,2381,2566,2724,3389,4035,4203,4416,4539,5009,5249,5381,5559,5842,6201,6414,6537,7379,7552,7809,8041
participant_3_CURRENTGOLD,500,0,21,220,480,742,107,456,711,1081,1266,124,789,60,228,141,264,734,974,1106,684,967,1326,239,362,1204,1377,134,366
participant_3_LEVEL,1,1,1,1,2,3,4,5,6,6,6,6,7,8,8,8,8,8,9,9,9,9,10,10,10,10,11,11,11
participant_3_MINIONSKILLED,0,0,0,4,9,17,19,30,38,49,52,54,61,70,73,79,79,81,84,84,87,92,102,103,103,103,106,108,109
participant_3_KILLS,0,0,0,0,0,0,0,0,0,0,0,0,1,1,1,1,1,1,1,1,2,2,2,2,2,2,2,2,2
participant_3_BUY,[],"[1041, 2031, 3340]",[],[],[],[],"[3706, 1001, 2033]",[],[1036],[],[],[],[],[],"[1400, 3111]",[],[],[1028],[],[],[],"[3044, 1028]",[],[],[3067],[],[3071],[],[]
participant_3_SOLD,[],[],[],[],[],[],"[1041, 2031]",[],[],[],[],[],[],[],"[1036, 3706, 1001]",[],[],[],[],[],[],[1028],[],[],[1028],[],"[3044, 3067]",[],[]
participant_3_UNDO,[],[],[],[],[],[],[],[],[],[],[],[],[],[],[],[],[],[],[],[],[],[],[],[],[],[],[],[],[]
participant_4_GOLD,500,500,574,798,992,1171,1306,1470,1647,1812,1991,2141,2502,2837,3027,3203,3359,3514,3654,3825,3993,4183,4368,4558,4699,4974,5116,5256,5492
participant_4_CURRENTGOLD,500,0,74,298,492,671,81,245,422,587,31,181,542,287,477,653,809,114,254,425,593,783,968,1158,1299,1574,1716,1856,2092
participant_4_LEVEL,1,1,1,2,3,4,4,4,5,5,6,6,7,7,8,8,8,8,8,8,8,9,9,9,9,10,10,10,11
participant_4_MINIONSKILLED,0,0,1,1,2,2,2,2,4,4,4,4,4,4,7,8,8,8,8,8,10,13,13,15,15,15,15,15,15
participant_4_KILLS,0,0,0,0,1,1,2,3,3,3,3,3,3,4,4,4,4,4,4,4,4,4,4,4,4,4,4,4,6
participant_4_BUY,[],"[1056, 2003, 3340, 2003]",[],[],[],"[1052, 1052, 2003, 2055, 2003]",[],[],[],"[3145, 1001, 3067, 2003]",[],[3152],"[1042, 2003]",[],"[3101, 3020]",[],[],[3101],[],[],[1052],[],"[3108, 2055]",[],[],[],[3115],[1052],[3191]
participant_4_SOLD,[],[],[],"[2003, 2003]",[],[2003],[2003],[2055],[],"[1052, 1052]",[],"[2003, 3145, 3067]",[],[],"[1042, 1001]",[],[],[1042],[],[],[],[],"[1052, 2003]",[2055],[],[],"[3101, 3108]",[],[1052]
participant_4_UNDO,[],[],[],[],[],[],[],[],[],[],[],[],[],[],"[[0, 3101]]",[],[],[],[],[],[],[],[],[],[],[],[],[],[]
participant_5_GOLD,500,500,552,758,923,1512,1635,1848,1970,3191,3447,3590,3859,3982,4403,4743,5097,5367,5755,6024,6274,7018,7278,7650,8054,8267,8466,8979,9689
participant_5_CURRENTGOLD,500,0,52,258,423,1012,35,248,170,1391,1647,215,484,107,528,868,822,1092,1480,1749,1999,2743,3003,3375,3779,3992,166,679,1389
participant_5_LEVEL,1,1,1,3,4,5,5,6,7,8,8,9,9,9,10,11,11,11,12,12,12,13,13,13,14,14,14,15,16
participant_5_MINIONSKILLED,0,0,2,7,9,15,15,21,21,29,36,37,45,45,56,65,67,73,84,93,97,109,113,116,121,126,126,131,134
participant_5_KILLS,0,0,0,0,0,1,1,1,1,3,3,3,3,3,3,3,3,3,3,3,3,3,3,3,3,3,3,3,3
participant_5_BUY,[],"[1054, 2003, 3340]",[],[],[],[],"[1036, 1036, 1028]",[],"[1006, 2003]",[],[],"[3077, 3751, 1001, 1029]",[],[1031],[],[],[1028],[],[],[],[],[],[],[],[],[],"[3068, 3748, 3211]",[],[]
participant_5_SOLD,[],[],[],[2003],[],[],[],[],[],[],[2003],"[1036, 1006, 1036, 1028]",[],[1029],[],[],[],[],[],[],[],[],[],[],[],[],"[1031, 1028, 3751, 3077]",[],[]
participant_5_UNDO,[],[],[],[],[],[],[],[],[],[],[],[],[],[],[],[],[],[],[],[],[],[],[],[],[],[],[],[],[]
participant_6_GOLD,500,500,666,928,1241,1418,1626,1748,2055,2278,2505,2888,3160,3382,4100,4422,4735,4956,5183,5513,5859,6332,6560,6984,7207,7368,7644,8298,9090
participant_6_CURRENTGOLD,500,0,166,428,741,268,476,598,905,428,655,1038,1310,307,1025,1347,1660,1881,358,688,1034,707,935,1359,1582,1743,219,873,1665
participant_6_LEVEL,1,1,2,3,3,3,4,4,4,5,5,6,6,7,7,8,8,9,9,10,10,10,11,11,11,12,12,13,14
participant_6_MINIONSKILLED,0,0,0,0,0,0,0,0,0,0,0,0,0,0,2,2,2,5,5,8,14,14,15,22,22,23,23,25,27
participant_6_KILLS,0,0,0,0,0,0,0,0,0,0,0,0,0,0,0,0,0,1,1,1,1,1,1,1,1,2,2,2,2
participant_6_BUY,[],"[1055, 2003, 3340]",[],[],[],[],[],"[1038, 2003]",[],[],[],"[3133, 2003]",[],[],[],[],[],[],"[3508, 1038, 1001]",[],[],[1037],[],[],"[1018, 3031]",[],[3006],[],[]
participant_6_SOLD,[],[],[],[2003],[],[],[],[],[],[2003],[],[],[],[2003],[],[],[],[],"[1038, 3133]",[],[],[],[],[],"[1055, 1038, 1037, 1018]",[],[1001],[],[]
participant_6_UNDO,[],[],[],[],[],[],[],[],[],[],[],[],[],[],[],[],[],[],[],[],[],[],[],[],[],[],[],[],[]
participant_7_GOLD,500,500,626,892,1050,1354,1575,2129,2509,3380,3565,4077,4322,4508,5675,6109,7020,8011,8609,9185,9694,10844,11333,11673,11796,12173,12347,13252,14770
participant_7_CURRENTGOLD,500,0,126,392,150,454,75,129,509,1380,115,627,872,258,1425,1859,2770,3761,409,985,1494,2644,3133,3474,96,474,647,1552,170
participant_7_LEVEL,1,1,1,3,4,5,5,6,7,8,8,9,9,9,10,10,11,11,12,12,12,13,13,13,13,14,14,14,15
participant_7_MINIONSKILLED,0,0,6,12,14,24,30,37,50,58,61,71,77,81,89,95,101,106,113,119,129,135,138,147,147,149,149,153,158
participant_7_KILLS,0,0,0,0,0,0,0,0,0,0,0,0,0,0,1,2,2,2,2,2,2,2,2,2,2,2,2,2,2
participant_7_BUY,[],"[3858, 2003, 2003]",[],[],[],[],[],[],[],"[3082, 2003, 2003]",[],[],[1028],"[2003, 2003]",[],[3143],[1001],[],[3111],[],[],[],[],"[1031, 1028]",[],[],[1011],[],[3742]
participant_7_SOLD,[],[],[],"[2010, 2003]",[],[2003],[2010],[],[2010],[],"[2003, 2003, 3858]",[],[],[],[],"[3082, 1028]",[],[],[1001],[],"[2003, 2003]",[3859],[],[],[],[],[1028],[],"[1031, 1011]"
participant_7_UNDO,[],[],[],[],[],[],[],[],[],[],[],[],[],[],[],[],[],[],[],[],[],[],[],[],[],[],[],[],[]
participant_8_GOLD,500,500,563,913,1120,1361,1704,1889,2241,2504,2852,3045,3321,3520,3943,4488,4847,5472,5594,5946,6354,6676,6980,7372,7494,7987,8286,8916,9406
participant_8_CURRENTGOLD,500,0,63,413,620,861,1204,39,391,654,1002,45,321,520,943,1488,1847,2472,94,446,854,301,605,997,74,567,66,696,1006
participant_8_LEVEL,1,1,1,2,3,3,4,5,5,6,6,7,7,7,8,9,9,9,9,10,10,10,11,11,11,11,11,12,12
participant_8_MINIONSKILLED,0,0,2,13,17,21,31,35,45,53,63,67,76,81,89,101,105,107,107,116,118,118,124,129,129,133,133,136,140
participant_8_KILLS,0,0,0,0,0,0,0,0,0,0,0,0,0,0,0,0,0,0,0,0,0,0,0,0,0,0,0,0,1
participant_8_BUY,[],"[1039, 2031, 3340]",[],[],[],[3706],[],[],[],"[1036, 1036]",[],[],[],"[1400, 1029]",[],[],[],[],"[3047, 3044]",[],[],[3067],[],[],[],[],"[3071, 1028, 1033]",[],[]
participant_8_SOLD,[],[],[],[],[],[1039],[],[],[],[],[],[],[],"[3340, 1036, 1036, 3706]",[3513],[],[],[],"[1029, 2422]",[],[],[],[],[],[],[],"[3044, 3067]",[],[]
participant_8_UNDO,[],[],[],[],[],[],[],[],[],[],[],[],[],[],[],[],[],[],[],[],[],[],[],[],[],[],[],[],[]
participant_9_GOLD,500,500,544,699,876,1073,1288,1422,1639,1795,2023,2163,2318,2500,3242,3888,4129,4683,4824,5033,5344,5925,6120,6400,6652,6867,7059,7499,8051
participant_9_CURRENTGOLD,500,0,44,199,376,573,788,922,1139,195,423,563,318,400,1142,288,229,784,124,333,644,1225,1420,500,752,967,559,999,451
participant_9_LEVEL,1,1,1,2,3,3,4,5,5,5,6,6,6,7,7,8,8,9,9,10,10,11,11,11,11,12,12,12,13
participant_9_MINIONSKILLED,0,0,1,2,4,5,7,7,9,10,12,12,13,15,17,19,21,22,22,22,23,24,24,25,27,27,27,27,27
participant_9_KILLS,0,0,0,0,0,0,0,1,1,1,1,1,1,1,2,2,4,6,7,8,8,10,11,11,11,11,11,12,15
participant_9_BUY,[],"[1055, 2003, 3340]",[],[],"[1001, 2003, 2003]",[],"[1042, 1042]",[3006],[],[],"[1038, 2055, 2055]",[],[],[1018],[],[],[],[],"[3087, 3031, 1036]",[],[],[],[],[],"[3072, 1036]",[],[],[],[3156]
participant_9_SOLD,[],[],[],[],[],"[2003, 2003]",[],"[1001, 1042]",[],[],[2003],[2055],[2055],[],[],[],[],[],"[1018, 1042, 1038]",[],[],[],[],[],[1036],[],[],[],[1036]
participant_9_UNDO,[],[],[],[],[],[],[],[],[],[],[],[],[],[],[],[],[],[],[],[],[],[],[],[],[],[],[],[],[]
team0_KILLS,0,0,0,0,1,1,2,3,3,3,3,3,5,8,8,8,8,9,9,9,10,10,10,11,11,12,12,12,14
team0_CURRENTGOLD,2500,500,293,1420,3321,3023,1668,2752,3029,2906,3639,2566,4186,5140,1473,2422,3522,1578,2725,3732,4075,2907,3591,4731,5341,4770,3889,3041,4092
team0_TOTALGOLD,2500,2500,2793,3920,5821,6868,8338,9772,10799,12006,13474,14801,16771,19690,20573,21822,22922,24154,25300,26307,27685,28567,29771,32211,33221,34850,35920,37006,38742
team0_LEVEL,5,5,6,10,15,20,23,25,29,30,32,34,37,40,41,43,44,45,47,47,49,51,52,53,54,56,58,59,61
team0_SBIRES,0,0,3,20,43,57,75,88,107,118,137,163,176,201,213,239,252,258,276,282,305,316,333,359,373,378,393,400,405
team1_KILLS,0,0,0,0,0,1,1,2,2,4,4,4,4,4,6,7,9,12,13,14,14,16,17,17,17,18,18,19,23
team1_CURRENTGOLD,2500,0,451,1690,2310,3168,2578,1936,3114,4048,3842,2488,3305,1592,5063,5850,7328,9990,2465,4201,6025,7620,9096,9705,6283,7743,1657,4799,4681
team1_TOTALGOLD,2500,2500,2951,4190,5210,6718,7828,9036,10414,13148,14392,15763,16980,17892,21363,23650,25828,28489,29965,31701,33525,36795,38271,40079,41203,42662,43802,46944,51006
team1_LEVEL,5,5,6,13,17,19,22,26,28,32,33,37,37,39,42,46,47,49,51,54,54,57,59,59,60,63,63,66,70
team1_SBIRES,0,0,11,34,44,65,83,100,125,150,172,187,211,222,253,282,296,313,331,358,381,400,414,439,446,458,458,472,486
delta_KILLS,0,0,0,0,1,0,1,1,1,-1,-1,-1,1,4,2,1,-1,-3,-4,-5,-4,-6,-7,-6,-6,-6,-6,-7,-9
delta_CURRENTGOLD,0,500,-158,-270,1011,-145,-910,816,-85,-1142,-203,78,881,3548,-3590,-3428,-3806,-8412,260,-469,-1950,-4713,-5505,-4974,-942,-2973,2232,-1758,-589
delta_TOTALGOLD,0,0,-158,-270,611,150,510,736,385,-1142,-918,-962,-209,1798,-790,-1828,-2906,-4335,-4665,-5394,-5840,-8228,-8500,-7868,-7982,-7812,-7882,-9938,-12264
delta_LEVEL,0,0,0,-3,-2,1,1,-1,1,-2,-1,-3,0,1,-1,-3,-3,-4,-4,-7,-5,-6,-7,-6,-6,-7,-5,-7,-9
delta_SBIRES,0,0,-8,-14,-1,-8,-8,-12,-18,-32,-35,-24,-35,-21,-40,-43,-44,-55,-55,-76,-76,-84,-81,-80,-73,-80,-65,-72,-81
