name,team0,team1
win,Fail,Win
firstBlood,True,False
firstTower,False,True
firstInhibitor,False,True
firstBaron,False,True
firstDragon,True,False
firstRiftHerald,False,True
towerKills,1,11
inhibitorKills,0,3
baronKills,0,3
dragonKills,2,4
riftHeraldKills,0,1
