name,frame_0,frame_1,frame_2,frame_3,frame_4,frame_5,frame_6,frame_7,frame_8,frame_9,frame_10,frame_11,frame_12,frame_13,frame_14,frame_15,frame_16,frame_17,frame_18,frame_19,frame_20,frame_21,frame_22,frame_23,frame_24,frame_25
nameStamp,Tstart,Tearly,Tearly,Tearly,Tearly,Tearly,Tearly,Tearly,Tearly,Tearly,Tearly,Tmid,Tmid,Tmid,Tmid,Tmid,Tmid,Tmid,Tmid,Tmid,Tmid,Tmid,Tmid,Tmid,Tmid,Tmid
timestamp,0,60009,120017,180024,240032,300041,360058,420070,480085,540097,600112,660122,720134,780141,840147,900160,960175,1020183,1080195,1140206,1200227,1260240,1320259,1380278,1440296,1500306
participant_0_GOLD,1400,1640,2067,2544,3138,3716,4329,4971,5491,6033,6915,7325,8338,8878,9624,10114,10898,11577,12618,13212,13764,14212,15377,15859,16937,17715
participant_0_CURRENTGOLD,1400,290,717,1194,1788,2366,2979,3621,1241,633,1515,175,88,628,1374,114,398,1077,2118,2712,264,412,1577,2059,3137,3915
participant_0_LEVEL,1,3,4,5,6,7,8,9,9,10,11,12,12,13,14,15,15,16,17,18,18,18,18,18,18,18
participant_0_MINIONSKILLED,0,0,2,8,15,24,29,32,36,43,51,53,55,61,68,68,73,78,84,91,92,96,105,109,117,125
participant_0_KILLS,0,1,1,1,1,1,2,3,3,3,4,4,6,6,7,8,9,9,11,11,11,11,11,11,12,13
participant_0_BUY,[],"[3134, 2003, 2003, 2003, 2003, 2003]",[],[],[],[],[],[],"[3814, 3134]","[1001, 1036, 1036, 2003, 2003, 2003]",[],"[3179, 3111, 1036]","[1053, 1033, 2003, 2003]",[],[],"[3105, 3133]",[3812],[],[],[],[3071],[2047],[],[],[],[]
participant_0_SOLD,[],[],[2003],[2003],"[2003, 2003, 2003]",[],[],[],[3134],[],"[2003, 2003, 2003]","[3134, 1036, 1036, 1001]",[1036],[],"[2003, 2003]",[1033],"[3105, 1053, 3133]",[3400],[],[],[],[],[2047],[],[],[]
participant_0_UNDO,[],[],[],[],[],[],[],[],[],[],[],[],[],[],[],[],[],[],[],[],[],[],[],[],[],[]
participant_1_GOLD,1400,1400,1818,2193,2875,3351,3736,4326,5743,6169,7045,7670,8582,9072,10096,10453,11460,12809,13361,13851,14263,14877,16241,16836,17566,18391
participant_1_CURRENTGOLD,1400,1400,418,358,1040,1516,1901,241,1658,669,95,720,782,437,796,403,975,2324,411,901,463,1077,341,436,1166,1991
participant_1_LEVEL,1,3,4,5,6,7,7,8,9,10,11,12,13,13,14,15,15,17,18,18,18,18,18,18,18,18
participant_1_MINIONSKILLED,0,0,3,3,5,9,9,10,18,19,23,26,27,27,32,33,35,50,53,58,60,70,77,82,82,88
participant_1_KILLS,0,0,0,0,1,1,1,2,5,5,5,6,8,8,9,9,10,13,14,14,14,14,16,17,17,19
participant_1_BUY,[],[],"[3802, 2003, 2003, 3600]",[1052],[],[],[],"[3285, 1001, 2003]",[],"[3145, 3067]","[3152, 3020]",[],"[1052, 1028, 1026]","[1052, 1028]",[3136],[3151],[1052],[],[3157],[],[1026],[],"[3135, 2047]",[2139],[],[]
participant_1_SOLD,[],[],[3600],[],[2003],[2003],[],[3802],[2003],[1052],"[3400, 3145, 3067, 1001]",[],[],[3400],"[1028, 1052]","[3136, 1026]",[],[],[1052],[],[],[],"[1026, 2047]",[2139],[],[]
participant_1_UNDO,[],[],[],[],[],[],[],[],[],[],[],[],"[[0, 1028], [0, 1052]]",[],[],[],[],[],[],[],[],[],[],[],[],[]
participant_2_GOLD,1400,1420,1838,2238,2999,3397,3845,4385,5081,5744,6254,6858,7278,7712,8377,8734,9342,9784,10182,10577,11808,12316,13230,13560,14002,14448
participant_2_CURRENTGOLD,1400,20,438,838,249,647,1095,485,1181,1844,1054,308,728,1162,1827,184,742,834,282,677,1908,2416,1480,160,602,1048
participant_2_LEVEL,1,3,4,5,6,7,7,8,9,10,11,11,12,13,14,14,15,15,16,16,18,18,18,18,18,18
participant_2_MINIONSKILLED,0,0,1,1,1,1,3,3,3,8,8,12,12,17,20,20,24,25,25,25,33,37,37,37,43,44
participant_2_KILLS,0,0,0,0,1,1,1,1,2,3,3,4,4,4,5,5,6,6,6,6,8,8,8,8,8,8
participant_2_BUY,[],"[1001, 3073, 2003, 2003, 2003, 2003, 2003]",[],[],"[3802, 2003]",[],[],"[3007, 2003, 2003]",[],[],"[1058, 2003]","[1058, 2003, 2003]",[],[],[],"[3089, 1026, 2003]",[2003],[1027],[3802],[],[],[],"[3285, 3020]","[3916, 2003]",[],[]
participant_2_SOLD,[],[2003],"[2003, 2003]","[2003, 2003]",[3400],[],[2003],"[3073, 3802, 3400]",[2003],"[2052, 2003, 3007]",[],[2003],[2003],[],[2003],"[1058, 1058]","[2003, 2003]",[],[1027],[],[3400],[],"[3802, 1026, 1001]",[],[],[]
participant_2_UNDO,[],[],[],[],[],[],[],[],[],[],[],[],[],[],[],[],[],[],[],[],[],[],[],[],[],[]
participant_3_GOLD,1400,1430,2019,2485,3183,4082,4438,5454,6230,6735,7861,8227,8976,9801,11333,11700,12045,13232,13603,14265,15191,15680,17202,17577,18649,19564
participant_3_CURRENTGOLD,1400,230,819,385,733,1632,188,1204,1980,135,1261,227,676,1501,3033,1600,495,1382,303,965,791,1280,302,377,1449,2364
participant_3_LEVEL,1,3,4,5,6,7,7,8,9,10,11,11,12,13,14,14,15,16,16,17,18,18,18,18,18,18
participant_3_MINIONSKILLED,0,0,2,5,8,9,9,16,20,20,23,23,25,31,36,36,36,40,40,43,46,51,52,52,56,63
participant_3_KILLS,0,0,1,1,2,2,2,4,5,6,8,8,8,9,11,11,11,12,12,13,15,15,18,18,20,21
participant_3_BUY,[],"[3134, 2003, 2003]",[],[3158],[1036],[],"[3147, 1036]",[],[],"[1053, 3134, 1036, 1036]",[],"[3181, 3134]",[2047],[],[],[3814],"[3134, 1036]",[2047],"[3133, 3142]",[],[3133],[],[3812],[2047],[],[]
participant_3_SOLD,[],[2003],[2003],[],[],[3400],"[3134, 1036]",[3400],[],[1036],[],"[3134, 1053, 1036, 1036]","[2047, 3400]",[3400],"[3400, 3400]",[3134],[],[2047],"[1036, 3133, 3134]",[],[],[],[3133],[2047],[],[]
participant_3_UNDO,[],[],[],[],[],[],[],[],[],[],[],[],[],[],[],[],[],[],[],[],[],[],[],[],[],[]
participant_4_GOLD,1400,1420,1838,2250,2893,3336,3769,4244,4779,5189,6105,6685,7196,7561,8078,8434,9069,9444,10137,10537,11269,11717,12563,12973,13343,13863
participant_4_CURRENTGOLD,1400,20,438,850,1493,1936,2369,2844,2579,589,1505,2085,696,641,1158,1514,349,324,1017,1417,899,1347,493,903,373,893
participant_4_LEVEL,1,3,4,5,6,7,8,9,10,10,11,12,13,14,15,15,16,16,18,18,18,18,18,18,18,18
participant_4_MINIONSKILLED,0,0,1,2,3,4,5,5,7,7,12,14,16,16,17,17,17,17,19,19,23,24,24,24,24,25
participant_4_KILLS,0,0,0,0,1,1,1,1,1,1,2,3,3,3,3,3,3,3,4,4,5,5,5,5,5,5
participant_4_BUY,[],"[2051, 1001, 2003, 2003, 2003]",[],[],[],[],[],[],[3047],"[3107, 2047]",[],[],"[3082, 3024]",[3110],[],"[3076, 1029]","[1011, 1028, 3067]",[1028],[],[],"[3083, 1029, 1029]",[],"[3076, 3082, 2047]",[],[3075],[]
participant_4_SOLD,[],[],[2003],"[2003, 2010]",[2003],"[2010, 2052]",[],[2010],[1001],[2047],[],[],[],"[2051, 3082, 3024]",[],[],[1028],[],[],[],"[1011, 3067, 1028]",[],"[1029, 1029, 2047]",[],"[3076, 3082]",[]
participant_4_UNDO,[],[],[],[],[],[],[],[],[],[],[],[],[],[],[],"[[0, 1029], [0, 3076]]",[],[],[],[],[],[],[],[],[],[]
participant_5_GOLD,1400,1400,1874,2405,2946,3365,3989,4456,4858,5411,5830,6878,7301,7701,8273,9663,10719,11149,11809,12302,13161,13692,14211,15078,15725,16179
participant_5_CURRENTGOLD,1400,0,474,1005,196,615,539,706,258,811,480,1528,651,251,723,2113,3169,199,259,752,511,1042,311,1178,1375,1829
participant_5_LEVEL,1,3,4,5,6,6,7,8,9,10,10,11,12,12,13,14,16,16,16,17,18,18,18,18,18,18
participant_5_MINIONSKILLED,0,0,3,9,16,20,24,27,28,33,35,39,41,41,45,51,56,59,59,61,69,78,82,88,92,93
participant_5_KILLS,0,0,0,0,0,0,1,1,1,1,1,3,3,3,4,5,8,8,10,10,11,11,11,13,14,14
participant_5_BUY,[],"[1053, 1036, 2003, 2003, 2003]",[],[],"[3144, 1043]",[],[3153],[1042],"[3006, 1036]",[],"[3133, 3133]",[],[1038],[1018],[3508],[],[],"[1038, 1037, 1018, 3031]","[1042, 1042]",[],[3086],[],"[3046, 1036]",[],[3123],[]
participant_5_SOLD,[],[],"[2003, 2003, 2003]",[2010],"[1053, 1036]",[],"[3144, 1043]","[2010, 2010]","[1042, 2422]",[],"[1036, 1036]",[],[],[],"[1038, 3133, 1018]",[],[],"[1038, 1037, 1018]",[],[],[1042],[],"[1042, 3086]",[],[1036],[]
participant_5_UNDO,[],[],[],[],[],[],[],[],[],[],"[[0, 3133]]",[],[],[],[],[],[],[],[],[],[],[],[],[],[],[]
participant_6_GOLD,1400,1400,1807,2217,2762,3145,3580,4312,5304,5744,6194,6811,7522,8217,8624,9367,9977,10332,10939,11407,11940,12383,13098,13505,14067,14432
participant_6_CURRENTGOLD,1400,100,507,917,312,695,1130,377,1369,609,1059,1676,187,882,224,967,1577,332,939,1407,690,1133,598,1005,1567,397
participant_6_LEVEL,1,3,4,5,6,6,7,8,9,10,10,11,12,13,14,14,16,16,17,18,18,18,18,18,18,18
participant_6_MINIONSKILLED,0,0,0,0,0,0,1,2,3,3,4,4,5,5,6,8,12,12,18,18,19,20,20,22,23,23
participant_6_KILLS,0,0,0,0,1,1,1,2,4,4,4,5,6,7,7,7,7,7,7,7,7,7,8,8,9,9
participant_6_BUY,[],[3802],[],[],"[1026, 1001]",[],[],"[3285, 1052]",[],"[3020, 1028]",[],[],"[3116, 1052]",[],[3136],[],[],[3151],[],[],[1058],[],[1058],[],[],"[3089, 1052]"
participant_6_SOLD,[],[],[],[],[],[],[],"[3802, 1026]",[],[1001],[],[],"[1052, 1028]",[],[1052],[],[],[3136],[],[],[],[],[],[],[],"[1058, 1058]"
participant_6_UNDO,[],[],[],[],[],[],[],[],[],[],[],[],[],[],[],[],[],[],[],[],[],[],[],[],[],[]
participant_7_GOLD,1400,1400,1960,2440,2837,3327,3859,4279,4810,5410,5801,6188,7282,7757,8102,9042,9866,10245,11150,11762,12223,12863,14058,14642,15200,15576
participant_7_CURRENTGOLD,1400,0,560,1040,337,827,1359,259,790,1390,301,388,247,722,402,492,1316,945,1000,1612,323,963,938,122,680,1056
participant_7_LEVEL,1,3,4,5,6,7,8,8,9,10,11,11,13,13,13,14,15,16,16,17,18,18,18,18,18,18
participant_7_MINIONSKILLED,0,0,0,2,3,7,7,7,8,8,8,9,12,16,16,17,19,21,21,26,31,31,33,37,40,41
participant_7_KILLS,0,0,1,1,1,1,1,1,1,2,2,2,4,4,4,5,7,7,8,9,9,10,12,12,12,12
participant_7_BUY,[],"[2051, 2003, 1001, 2003, 2003]",[],[],[3010],[],[],"[1057, 3047]",[],[],"[3001, 1029]",[1029],"[3076, 1028, 1052]",[],[3136],[1026],[],[3151],[1026],[],[3116],[],[3916],[3165],[],[]
participant_7_SOLD,[],[],[2003],"[2003, 2003]",[],[],[],[1001],[],[],"[3010, 1057]",[],"[1029, 1029]",[],"[1028, 1052]",[],[],"[3136, 1026]",[],[],[1026],[],[2051],[3916],[],[]
participant_7_UNDO,[],[],[],[],[],[],[],[],[],[],[],[],[],[],[],[],[],[],[],[],[],[],[],[],[],[]
participant_8_GOLD,1400,1400,1815,2484,2919,3287,3963,4303,5133,5478,6073,6668,7310,7802,8226,9475,9967,10297,10816,11353,11910,12419,13101,13623,13953,14377
participant_8_CURRENTGOLD,1400,0,115,784,419,787,1463,128,958,278,573,68,110,602,126,1375,217,547,1066,653,310,819,1501,2023,383,807
participant_8_LEVEL,1,3,4,5,6,6,7,8,8,9,10,11,12,12,13,14,14,14,15,16,16,17,18,18,18,18
participant_8_MINIONSKILLED,0,0,4,8,9,9,14,14,14,14,17,22,26,33,35,37,38,38,45,46,47,49,55,57,57,58
participant_8_KILLS,0,0,0,1,1,1,2,2,3,3,4,4,5,5,5,7,7,7,7,8,9,9,9,9,9,9
participant_8_BUY,[],"[1038, 2003, 2003]",[1001],[],[3006],[],[],"[1037, 1018]",[],"[3031, 1042, 1042, 1042]",[1042],"[1018, 3086]",[3085],[],[1053],[],"[1038, 1036]",[],[],[3072],[1053],[],[],[],[3046],[]
participant_8_SOLD,[],[],[],[2003],"[2003, 1001]",[],[],[],[],"[1038, 1037, 1018]",[],"[1018, 1042]","[1042, 3086, 1042]",[],[],[],[],[],[],"[1038, 1036, 1053]",[],[],[],[],[1053],[]
participant_8_UNDO,[],[],[],[],[],[],[],[],[],"[[0, 1042]]",[],[],[],[],[],[],[],[],[],[],[],[],[],[],[],[]
participant_9_GOLD,1400,1400,1800,2231,2670,3109,3560,4010,4395,5470,5853,6708,7172,7630,7992,8841,9288,9618,10048,10624,11094,11449,11911,12535,13095,13830
participant_9_CURRENTGOLD,1400,0,400,831,1270,1709,2160,2610,395,1470,753,1608,522,980,257,1106,88,418,498,1074,594,949,361,985,695,1430
participant_9_LEVEL,1,3,4,5,6,7,8,9,9,10,11,12,13,13,14,15,16,16,17,17,18,18,18,18,18,18
participant_9_MINIONSKILLED,0,0,0,1,3,6,6,9,9,17,19,23,27,29,30,36,36,36,36,38,41,41,44,52,56,60
participant_9_KILLS,0,0,0,0,0,0,0,0,0,1,1,2,2,2,2,2,2,2,2,3,3,3,3,3,3,4
participant_9_BUY,[],"[3073, 1001, 2003, 2003, 2003, 2003, 2003]",[],[],[],[],[],[],[3029],[],[3191],[],"[3108, 2420]",[],"[3157, 1052, 1028]",[],"[3136, 3020]",[],[1027],[],[3802],[],[3007],[],[1026],[]
participant_9_SOLD,[],[],"[2003, 2003]",[2003],"[2003, 2003]",[],[],[],[],[],[],[],[],[],"[3191, 3108, 2420]",[],"[1028, 1052, 1001]",[],[],[],[1027],[],"[3073, 3802, 3007]",[],[],[]
participant_9_UNDO,[],[],[],[],[],[],[],[],[],[],[],[],[],[],[],[],[],[],[],[],[],[],[],[],[],[]
team0_KILLS,0,1,2,2,6,6,7,11,16,18,22,25,29,30,35,36,39,43,47,48,53,53,58,59,62,66
team0_CURRENTGOLD,7000,1960,2830,3625,5303,8097,8532,8395,8639,3870,5430,3515,2970,4369,8188,3815,2959,5941,4131,6672,4325,6532,4193,3935,6727,10211
team0_TOTALGOLD,7000,7310,9580,11710,15088,17882,20117,23380,27324,29870,34180,36765,40370,43024,47508,49435,52814,56846,59901,62442,66295,68802,74613,76805,80497,83981
team0_LEVEL,5,15,20,25,30,35,37,42,46,50,55,58,62,66,71,73,76,80,85,87,90,90,90,90,90,90
team0_SBIRES,0,0,9,19,32,47,55,66,84,97,117,128,135,152,173,174,185,210,221,236,254,278,295,304,322,345
team1_KILLS,0,0,1,2,3,3,5,6,9,11,12,16,20,21,22,26,31,31,34,37,39,40,43,45,47,48
team1_CURRENTGOLD,7000,100,2056,4577,2534,4633,6651,4080,3770,4558,3166,5268,1717,3437,1732,6053,6367,2441,3762,5498,2428,4906,3709,5313,4700,5519
team1_TOTALGOLD,7000,7000,9256,11777,14134,16233,18951,21360,24500,27513,29751,33253,36587,39107,41217,46388,49817,51641,54762,57448,60328,62806,66379,69383,72040,74394
team1_LEVEL,5,15,20,25,30,32,37,41,44,49,52,56,62,63,67,71,77,78,81,85,88,89,90,90,90,90
team1_SBIRES,0,0,7,20,31,42,52,59,62,75,83,97,111,124,132,149,161,166,179,189,207,219,234,256,268,275
delta_KILLS,0,1,1,0,3,3,2,5,7,7,10,9,9,9,13,10,8,12,13,11,14,13,15,14,15,18
delta_CURRENTGOLD,0,1860,774,-952,2769,3464,1881,4315,4869,-688,2264,-1753,1253,932,6456,-2238,-3408,3500,369,1174,1897,1626,484,-1378,2027,4692
delta_TOTALGOLD,0,310,324,-67,954,1649,1166,2020,2824,2357,4429,3512,3783,3917,6291,3047,2997,5205,5139,4994,5967,5996,8234,7422,8457,9587
delta_LEVEL,0,0,0,0,0,3,0,1,2,1,3,2,0,3,4,2,-1,2,4,2,2,1,0,0,0,0
delta_SBIRES,0,0,2,-1,1,5,3,7,22,22,34,31,24,28,41,25,24,44,42,47,47,59,61,48,54,70
