name,frame_0,frame_1,frame_2,frame_3,frame_4,frame_5,frame_6,frame_7,frame_8,frame_9,frame_10,frame_11,frame_12,frame_13,frame_14,frame_15,frame_16,frame_17,frame_18,frame_19,frame_20,frame_21,frame_22,frame_23,frame_24,frame_25,frame_26,frame_27,frame_28,frame_29,frame_30
nameStamp,Tstart,Tearly,Tearly,Tearly,Tearly,Tearly,Tearly,Tearly,Tearly,Tearly,Tearly,Tearly,Tearly,Tearly,Tearly,Tearly,Tearly,Tearly,Tmid,Tmid,Tmid,Tmid,Tmid,Tmid,Tmid,Tmid,Tmid,Tmid,Tmid,Tmid,Tmid
timestamp,0,60025,120052,180091,240121,300122,360146,420172,480199,540226,600258,660290,720311,780313,840332,900359,960376,1020384,1080406,1140438,1200462,1260488,1320518,1380519,1440535,1500566,1560580,1620582,1680596,1740603,1800603
participant_0_GOLD,500,500,542,825,1127,1403,2042,2292,2435,2978,3532,3877,4275,4801,5131,5288,5745,6041,6163,6523,6736,7503,7748,8288,8580,9183,9975,10590,11279,12048,12156
participant_0_CURRENTGOLD,500,0,42,325,52,328,617,867,260,728,1282,527,925,701,1031,188,295,591,363,323,536,1303,673,1213,380,983,755,1371,19,788,-384
participant_0_LEVEL,1,1,1,3,4,4,6,6,7,7,8,8,9,9,10,10,10,11,11,11,12,12,13,13,13,14,14,14,15,15,15
participant_0_MINIONSKILLED,0,0,1,10,18,24,36,42,43,46,52,62,74,79,88,90,91,98,98,108,114,119,121,123,125,125,125,127,136,147,147
participant_0_KILLS,0,0,0,0,0,0,0,0,0,0,0,0,0,0,0,0,0,0,0,0,0,0,1,1,1,1,1,1,1,1,1
participant_0_BUY,[],"[3858, 2003, 2003, 3340]",[],[],[1029],[],[],"[1028, 1001, 2055]",[],[],[],"[3067, 1033, 1029, 3364]",[],"[3105, 2055]",[],[],"[3190, 3047]",[],[],[1029],[],[],"[3024, 3067]",[],[],[],[3050],[],"[1029, 1033]",[],[]
participant_0_SOLD,[],[],[],[],"[2003, 2003]",[],[],[],[],[2055],[3858],"[1028, 3340]",[],"[1033, 1029]",[2055],[],"[3067, 3105, 1001, 1029]",[],[],[],[3859],[],[1029],[],[],[],"[3067, 3024]",[],[],[],[]
participant_0_UNDO,[],[],[],[],[],[],[],[],[],[],[],[],[],[],[],[],[],[],[],[],[],[],[],[],[],[],[],[],[],[],[]
participant_1_GOLD,500,500,636,1048,1312,1520,1743,1880,2150,2451,3352,3665,3887,4254,4461,4599,4871,5354,5577,5774,6192,6616,7029,7356,7480,8031,8754,9116,9603,9956,10106
participant_1_CURRENTGOLD,500,0,136,548,812,1020,1243,380,650,951,1852,2165,2387,2754,311,449,71,554,777,174,592,1016,1429,1756,80,631,1354,1716,2204,156,306
participant_1_LEVEL,1,1,2,3,4,4,4,4,5,6,7,7,8,8,8,8,9,10,10,10,11,11,12,12,12,12,13,13,14,14,14
participant_1_MINIONSKILLED,0,0,0,0,0,0,0,0,3,5,6,6,6,6,6,6,6,7,7,7,7,7,7,7,7,9,9,9,9,9,12
participant_1_KILLS,0,0,0,0,0,1,2,2,2,2,4,4,6,6,6,6,7,7,8,9,9,10,10,10,12,12,12,12,12,13,13
participant_1_BUY,[],"[1055, 2003, 3340]",[],[],"[1036, 2055]",[],"[6670, 1001, 2003]",[],[],[],[],[6672],[],"[3006, 1036]",[],[],[3133],[3057],[],[3508],[],[],[3086],[],[1042],[3046],[],[],[3123],[],[3033]
participant_1_SOLD,[],[],[],[],[],[],"[2003, 1036]",[],[2055],[],[2003],[6670],[],[1001],[],[],[1036],[],[],"[3133, 3057]",[],[],[],[],[],"[1042, 3086]",[],[],[],[],[3123]
participant_1_UNDO,[],[],[],[],[],[],[],[],[],[],[],[],[],[],[],[],[],[],[],[],[],[],[],[],[],[],[],[],[],[],[]
participant_2_GOLD,500,500,584,790,962,1308,1529,1906,2049,2214,2654,2882,3187,3309,3530,3841,4912,5146,5394,5621,6615,7103,7269,7391,7650,7920,8452,8625,9578,9836,9944
participant_2_CURRENTGOLD,500,0,84,290,162,498,294,661,54,219,659,527,822,394,615,926,1997,231,479,356,1350,1838,504,626,885,1154,287,460,613,321,269
participant_2_LEVEL,1,1,1,3,3,4,5,6,6,6,7,7,8,8,9,9,10,10,11,11,11,12,12,12,13,13,13,13,14,14,14
participant_2_MINIONSKILLED,0,0,3,8,11,21,26,38,39,41,51,53,60,60,66,74,85,87,98,99,103,113,115,115,118,127,129,129,136,136,136
participant_2_KILLS,0,0,0,0,0,0,0,0,0,0,1,1,1,2,2,2,2,2,2,2,2,3,3,4,4,5,6,6,6,6,6
participant_2_BUY,[],"[1039, 2031, 3340]",[],[],[],[],[],[6660],[],[],[],[],[],[],"[6664, 1033]",[],"[3111, 1029]",[],[],[3066],[],[],[],[],[3742],[],[],[],[],"[3155, 1036, 3133]",[]
participant_2_SOLD,[],[],[],[],[],[],[],[],[],[],[],[],[1039],[],[6660],[],"[1033, 2422]",[],[],[],[],[],[],[],"[3066, 1029]",[],[],[],[],[1036],[]
participant_2_UNDO,[],[],[],[],[],[],[],[],[],[],[],[],[],[],[],[],[],[],[],[],[],[],[],[],[],[],[],[],[],[],[]
participant_3_GOLD,500,500,563,871,1008,1761,2239,2574,2978,3257,4268,4405,5488,5740,6003,6209,6899,7063,7733,8175,8584,9144,9453,9928,10727,11049,11612,12344,12632,13422,13572
participant_3_CURRENTGOLD,500,0,63,371,83,836,14,349,753,1032,2043,80,1163,265,528,734,674,138,808,150,559,1119,228,703,1202,324,887,1620,1107,1897,147
participant_3_LEVEL,1,1,1,2,2,3,4,5,6,6,7,7,8,8,8,9,9,9,10,10,11,11,11,12,13,13,14,14,14,15,15
participant_3_MINIONSKILLED,0,0,2,10,11,20,22,32,46,52,64,65,77,77,85,90,94,96,111,111,124,127,132,135,144,150,154,163,166,178,180
participant_3_KILLS,0,0,0,0,0,0,0,0,0,0,0,0,0,0,0,0,2,2,2,2,3,3,3,3,3,3,3,3,4,4,4
participant_3_BUY,[],"[1036, 2031, 3340]",[],[],[1001],[],"[2033, 2055]",[],"[1036, 3134]",[],[],[1036],[],[1053],[],[],[],"[6692, 3111]",[],[1036],[],[],"[3134, 1028, 1036]",[],[],[],"[3814, 1036]",[],"[3123, 1036]",[3133],[]
participant_3_SOLD,[],[],[],[],[],[],[2031],[2055],"[1036, 1036]",[],[],[],[],[1036],[],[],[],"[3134, 1053, 1001]",[],[],[],[],[1036],[],[],[],"[1036, 3134, 1028]",[],[1036],"[2033, 1036]",[]
participant_3_UNDO,[],[],[],[],[],[],[],[],[],[],[],[],[],[],[],[],[],[],[],[],[],[],[],[],[],[],[],[],[],[],[]
participant_4_GOLD,500,500,544,759,894,1255,1540,1674,1949,2207,2701,2855,3462,3602,3910,4071,4480,4651,4993,5209,5484,5720,6561,6701,6861,7002,7213,7504,7744,7959,8083
participant_4_CURRENTGOLD,500,0,44,259,94,455,740,99,374,632,1126,130,737,52,360,521,30,201,543,459,734,970,411,551,711,852,363,654,144,359,483
participant_4_LEVEL,1,1,1,2,2,4,4,4,5,5,6,6,7,7,8,8,9,9,9,9,10,10,11,11,11,12,12,12,12,12,12
participant_4_MINIONSKILLED,0,0,1,3,3,7,7,7,11,14,17,18,20,20,25,26,26,27,30,30,32,33,33,33,33,33,34,35,35,35,35
participant_4_KILLS,0,0,0,0,0,0,1,1,1,2,2,2,2,3,3,3,4,4,4,4,4,5,5,6,6,7,9,10,10,11,11
participant_4_BUY,[],"[1055, 3340, 2003]",[],[],"[1036, 2031, 2055]",[],[1036],[],"[3134, 1036]",[2055],[],[3047],[],[3133],[],[6693],[1036],[],[1036],[3133],[],[],[1037],[],[6333],[],[3077],[],"[1053, 3074]",[],[3123]
participant_4_SOLD,[],[],[],[2003],[],[],[],[2055],"[1036, 1036]",[],[],[],[],"[1055, 1036]",[2055],"[3134, 3133]",[],[],[],"[1036, 1036]",[],[],[],[],"[3133, 1037]",[],"[2031, 1055]",[],"[2031, 3077, 1053]",[],[]
participant_4_UNDO,[],[],[],[],[],[],[],[],[],[],[],[],[],"[[1055, 0]]",[],[],[],[],[],[],[],[],[],[],[],[],"[[2031, 0]]",[],[],[],[]
participant_5_GOLD,500,500,584,1211,1474,1834,2107,2419,2900,3684,3897,4389,4765,5906,6070,6326,7118,8157,8678,9309,9627,9749,9970,10518,10950,11072,11551,11673,11983,12430,12942
participant_5_CURRENTGOLD,500,0,84,711,974,1324,287,599,55,829,262,744,1110,2251,365,621,363,1402,1923,604,922,1044,1266,1813,995,28,506,629,939,1385,1767
participant_5_LEVEL,1,1,1,3,4,5,6,6,7,8,8,9,9,10,10,11,11,12,13,13,13,13,14,14,14,14,15,15,15,15,16
participant_5_MINIONSKILLED,0,0,4,10,18,29,35,45,50,63,68,77,88,99,101,105,109,121,129,133,140,140,145,145,153,153,157,157,164,170,171
participant_5_KILLS,0,0,0,0,2,2,3,3,3,3,3,3,3,4,4,4,4,5,5,8,8,8,8,8,9,9,9,9,9,9,10
participant_5_BUY,[],"[1055, 2003, 3340]",[],[],[],"[6670, 1001]",[],[],[1053],[],[],[6673],[],[],"[3009, 1037, 1018]",[],"[1036, 3363]",[],[],[],"[6676, 3086, 1042]",[],[],[],[3046],[1018],[],[],[3140],[],[]
participant_5_SOLD,[],[],[],[],[2003],[],[],[],[],[],[],"[6670, 1053]",[],[],[1001],[],[3340],[],[],[],"[1036, 1037, 1018]",[],[],[],"[1042, 3086]",[],[],[],[1055],[],[]
participant_5_UNDO,[],[],[],[],[],[],[],[],[],[],[],[],[],[],[],[],[],[],[],[],[],[],[],[],[],[],[],[],[],[],[]
participant_6_GOLD,500,500,621,1018,1256,1485,1863,2010,2337,2705,3012,3579,3701,4237,4620,4858,5101,5686,6163,6360,6839,7046,7413,8161,8644,8767,8897,9096,9473,9784,9892
participant_6_CURRENTGOLD,500,0,121,518,756,985,113,260,587,955,1262,1829,1951,2487,2870,3108,751,603,1080,127,606,63,430,1178,1661,1784,389,188,565,876,109
participant_6_LEVEL,1,1,2,3,3,4,4,4,5,6,6,7,7,9,9,9,10,10,10,10,11,11,12,12,13,13,13,13,13,14,14
participant_6_MINIONSKILLED,0,0,0,0,0,0,0,0,0,0,0,0,0,2,5,5,6,10,12,12,12,12,17,17,17,17,17,17,19,25,25
participant_6_KILLS,0,0,0,0,0,0,0,0,0,0,0,0,0,0,0,0,0,0,0,0,0,0,0,0,0,0,1,1,1,1,1
participant_6_BUY,[],"[3854, 2003, 2003, 3340]",[],[],[],"[1036, 1028]",[2031],[],"[1001, 2055]",[],[3044],[],[1028],[],[],[],[3067],[],[3057],[],[6632],[],[1029],[],[3047],[],[],"[1036, 1036]",[3133],[],[]
participant_6_SOLD,[],[],[],[],[2003],[],[2003],[],[],[2055],"[1028, 1036]",[3854],[],[],[],[],[1028],[],[],[],"[3044, 3057, 3067]",[],[],[3855],"[1001, 1029]",[],[],[],"[1036, 1036]",[],[]
participant_6_UNDO,[],[],[],[],[],[],[],[],[],[],[],[],[],[],[],[],[],[],[],[],[],[],[],[],[],[],[],[],[],[],[]
participant_7_GOLD,500,500,584,790,1099,1688,1832,2045,3065,3411,3874,4340,4512,4634,4915,5399,5672,6276,7229,7861,8115,8322,8486,9091,9272,9787,10088,10253,11002,11963,12531
participant_7_CURRENTGOLD,500,0,84,65,374,963,307,220,1240,36,424,890,1062,484,765,1249,94,698,1651,2283,762,969,1133,313,144,659,211,375,1124,2086,2413
participant_7_LEVEL,1,1,1,2,3,5,5,6,7,8,8,9,9,9,10,11,11,11,12,13,13,13,13,14,14,14,14,15,15,16,16
participant_7_MINIONSKILLED,0,0,3,8,16,22,23,29,42,46,47,63,65,65,71,74,74,87,96,102,106,111,113,121,121,132,133,136,145,148,155
participant_7_KILLS,0,0,0,0,0,0,0,0,0,0,0,1,1,2,2,2,2,2,2,2,2,2,2,3,3,3,3,3,3,3,3
participant_7_BUY,[],"[1039, 3340, 2031]",[],[],[],[],"[1001, 1037, 2055]",[],[],[],[],[],[],[],[],[],"[3051, 3057, 3067]",[3078],[],"[3111, 1036]",[],[3044],[],[],[],[],"[3053, 1036, 1028]",[3066],[],[],"[1031, 2055]"
participant_7_SOLD,[],[],[],[],[],[],[],[2055],[],[],[1039],[],[],[],[3340],[],[],"[3057, 3051, 3067, 3513]",[],[1001],[],[1036],[],[],[],[],"[1037, 3044]",[1028],[],[],[2031]
participant_7_UNDO,[],[],[],[],[],[],[],[],[],[],[],[],[],[],[],[],[],[],[],[],[],[],[],[],[],[],"[[0, 1036]]",[],[],[],[]
participant_8_GOLD,500,500,584,934,1858,2123,2643,2996,3341,3915,4186,4489,4787,5869,6338,6768,6891,7872,8317,9389,9595,9857,10070,10432,11203,11325,11962,12098,12234,12911,14430
participant_8_CURRENTGOLD,500,0,84,434,1358,23,543,896,341,915,1186,289,587,1669,63,493,266,1247,1692,2764,296,557,770,1133,703,226,862,998,15,691,2030
participant_8_LEVEL,1,1,1,2,3,4,4,5,6,6,7,7,7,8,9,9,9,10,11,11,11,12,12,12,12,12,13,13,13,14,15
participant_8_MINIONSKILLED,0,0,3,14,23,26,31,45,55,68,76,83,90,98,105,119,119,133,142,142,147,151,156,156,164,164,174,175,176,189,197
participant_8_KILLS,0,0,0,1,1,1,1,1,2,3,3,3,3,5,5,5,7,8,8,8,8,8,8,9,9,9,10,10,10,10,11
participant_8_BUY,[],"[1056, 2003, 2003]",[],[],[],[],[3802],[],"[1026, 2055, 2003, 2003]",[],"[1001, 2033]",[],[],[],"[6655, 3020]",[],[3145],[],[],[4628],[],[],[],[],[1058],[1058],[],[],[],[],[]
participant_8_SOLD,[],[],[],[],"[2003, 2003]",[],[],[],[],"[2055, 2003]",[2003],[],[],[],"[3802, 1026, 1001]",[],[],[],[],[3145],[],[],[],[],[],[1056],[],[],[],[],[]
participant_8_UNDO,[],[],[],[],[],[],[],[],[],[],[],[],[],[],[],[],[],[],[],[],[],[],[],[],[],[],[],[],[],[],[]
participant_9_GOLD,500,500,538,774,1247,1461,1595,1772,1920,2169,2324,2556,2717,2857,2998,3294,3434,3890,4151,4292,4432,4572,4713,4903,5170,5310,5765,5906,6210,6351,6475
participant_9_CURRENTGOLD,500,0,38,274,747,211,215,392,165,414,219,451,212,352,493,789,529,985,546,687,127,267,108,298,65,205,661,101,5,146,250
participant_9_LEVEL,1,1,1,2,3,3,4,4,4,5,5,6,6,6,7,7,7,7,8,8,8,8,8,8,9,9,10,10,11,11,11
participant_9_MINIONSKILLED,0,0,0,3,5,5,5,7,8,11,12,14,15,15,15,19,19,20,21,21,21,21,21,21,21,21,21,21,22,22,22
participant_9_KILLS,0,0,0,0,0,1,1,1,2,2,3,3,3,3,3,4,4,4,5,6,6,6,6,6,6,6,6,6,7,9,9
participant_9_BUY,[],"[1055, 2003, 3340]",[],"[2031, 2055]",[],[],"[1036, 1055]",[1042],[],"[3051, 3047]",[2055],[],[],[3057],[],[],"[3078, 2055]",[],[],[],"[1053, 1037]",[],[],[3153],[1036],[],[3133],[],[],[],[]
participant_9_SOLD,[],[],[],[2003],[],[],[2055],[],[],"[1042, 1036]",[],[2055],[],[],[],[],"[2031, 1055, 3057, 3051]",[2055],[],[],[],[],[],"[1053, 1037]",[],[],[1036],[],[],[],[]
participant_9_UNDO,[],[],[],[],[],[],[],[],[],[],[],[],[],[],[],[],"[[2031, 0]]",[],[],[],[],[],[],[],[],[],[],[],[],[],[]
team0_KILLS,0,0,0,0,0,1,3,3,3,4,7,7,9,11,11,11,15,15,16,17,18,21,22,24,26,28,31,32,33,35,35
team0_CURRENTGOLD,2500,0,369,1793,1203,3137,2908,2356,2091,3562,6962,3429,6034,4166,2845,2818,3067,1715,2970,1462,3771,6246,3245,4849,3258,3944,3646,5821,4087,3521,821
team0_TOTALGOLD,2500,2500,2869,4293,5303,7247,9093,10326,11561,13107,16507,17684,20299,21706,23035,24008,26907,28255,29860,31302,33611,36086,38060,39664,41298,43185,46006,48179,50836,53221,53861
team0_LEVEL,5,5,6,13,15,19,23,25,29,30,35,35,40,40,43,44,47,49,51,51,55,56,59,60,62,64,66,66,69,70,70
team0_SBIRES,0,0,7,31,43,72,91,119,142,158,190,204,237,242,270,286,302,315,344,355,380,399,408,413,427,444,451,463,482,505,510
team1_KILLS,0,0,0,1,3,4,5,5,7,8,9,10,10,14,14,15,17,19,20,24,24,24,24,26,27,27,29,29,30,32,34
team1_CURRENTGOLD,2500,0,411,2002,4209,3506,1465,2367,2388,3149,3353,4203,4922,7243,4556,6260,2003,4935,6892,6465,2713,2900,3707,4735,3568,2902,2629,2291,2648,5184,6569
team1_TOTALGOLD,2500,2500,2911,4727,6934,8591,10040,11242,13563,15884,17293,19353,20482,23503,24941,26645,28216,31881,34538,37211,38608,39546,40652,43105,45239,46261,48263,49026,50902,53439,56270
team1_LEVEL,5,5,6,12,16,21,23,25,29,33,34,38,38,42,45,47,48,50,54,55,56,57,59,60,62,62,65,66,67,70,72
team1_SBIRES,0,0,10,35,62,82,94,126,155,188,203,237,258,279,297,322,327,371,400,410,426,435,452,460,476,487,502,506,526,554,570
delta_KILLS,0,0,0,-1,-3,-3,-2,-2,-4,-4,-2,-3,-1,-3,-3,-4,-2,-4,-4,-7,-6,-3,-2,-2,-1,1,2,3,3,3,1
delta_CURRENTGOLD,0,0,-42,-209,-3006,-369,1443,-11,-297,413,3609,-774,1112,-3077,-1711,-3442,1064,-3220,-3922,-5003,1058,3346,-462,114,-310,1042,1017,3530,1439,-1663,-5748
delta_TOTALGOLD,0,0,-42,-434,-1631,-1344,-947,-916,-2002,-2777,-786,-1669,-183,-1797,-1906,-2637,-1309,-3626,-4678,-5909,-4997,-3460,-2592,-3441,-3941,-3076,-2257,-847,-66,-218,-2409
delta_LEVEL,0,0,0,1,-1,-2,0,0,0,-3,1,-3,2,-2,-2,-3,-1,-1,-3,-4,-1,-1,0,0,0,2,1,0,2,0,-2
delta_SBIRES,0,0,-3,-4,-19,-10,-3,-7,-13,-30,-13,-33,-21,-37,-27,-36,-25,-56,-56,-55,-46,-36,-44,-47,-49,-43,-51,-43,-44,-49,-60
