name,team0,team1
win,Fail,Win
firstBlood,True,False
firstTower,True,False
firstInhibitor,False,True
firstBaron,False,False
firstDragon,False,True
firstRiftHerald,True,False
towerKills,4,11
inhibitorKills,0,2
baronKills,0,0
dragonKills,2,2
riftHeraldKills,2,0
