name,frame_0,frame_1,frame_2,frame_3,frame_4,frame_5,frame_6,frame_7,frame_8,frame_9,frame_10,frame_11,frame_12,frame_13,frame_14,frame_15,frame_16,frame_17,frame_18,frame_19,frame_20,frame_21,frame_22,frame_23,frame_24,frame_25,frame_26,frame_27,frame_28,frame_29,frame_30,frame_31,frame_32,frame_33,frame_34,frame_35,frame_36,frame_37,frame_38
nameStamp,Tstart,Tearly,Tearly,Tearly,Tearly,Tearly,Tearly,Tearly,Tearly,Tearly,Tearly,Tearly,Tearly,Tearly,Tmid,Tmid,Tmid,Tmid,Tmid,Tmid,Tmid,Tmid,Tmid,Tmid,Tmid,Tmid,Tmid,Tmid,Tmid,Tmid,Tmid,Tmid,Tmid,Tmid,Tmid,Tmid,Tmid,Tmid,Tmid
timestamp,0,60029,120054,180069,240086,300098,360116,420131,480154,540172,600194,660215,720230,780260,840289,900320,960321,1020322,1080329,1140331,1200333,1260366,1320394,1380405,1440431,1500461,1560488,1620498,1680511,1740524,1800534,1860542,1920552,1980567,2040576,2100589,2160621,2220634,2280634
participant_0_GOLD,500,500,584,927,1183,1508,1778,2469,2751,2874,3324,3829,4129,4475,4924,5580,5980,6102,6546,7144,7267,7863,8043,9360,9587,10156,11515,11891,12382,13739,13975,14272,14694,15075,15527,15670,16390,17654,17942
participant_0_CURRENTGOLD,500,0,84,427,683,1008,378,1069,151,274,724,1229,329,675,1124,680,380,152,596,294,97,693,423,1740,134,703,2063,1018,309,1667,803,1099,1522,1903,354,498,1218,2482,2559
participant_0_LEVEL,1,1,1,3,4,5,5,7,7,7,8,8,9,9,10,11,11,11,12,12,12,13,13,13,13,14,15,15,16,16,17,17,17,18,18,18,18,18,18
participant_0_MINIONSKILLED,0,0,3,14,21,30,38,51,57,57,67,76,78,85,100,105,114,114,125,125,125,131,134,141,147,147,170,175,188,193,193,199,199,204,209,210,213,221,225
participant_0_KILLS,0,0,0,0,0,1,1,4,4,4,5,6,7,7,7,9,9,11,11,12,12,12,13,13,15,15,16,16,17,17,19,19,20,22,22,22,22,24,24
participant_0_BUY,[],"[1035, 2031, 3340]",[],[],[],[],"[6670, 1001]",[],[],"[1037, 1018]","[6672, 3364, 2055]",[],[],"[6677, 1042, 1018]",[],[],"[3124, 3111]",[],[],[],"[3123, 1018, 1042]",[3086],[3033],[],"[3067, 1036]",[],[3133],[2138],[],[],[],"[3071, 1038]",[2138],[],[],[],[3153],[],[]
participant_0_SOLD,[],[],[],[],[],[],[],[],[1035],[],"[6670, 1018, 1037, 3340]",[2055],[],[],[],[],"[6677, 1018, 1042, 1001]",[],[],[],[2031],"[1018, 1042]","[3123, 3086]",[],[],[],[1036],[2138],[],[],[],"[3133, 3067]",[2138],[],[],"[1038, 1038]",[],[],[]
participant_0_UNDO,[],[],[],[],[],[],[],[],[],[],[],[],[],[],[],[],[],[],[],[],[],[],[],[],[],[],[],[],[],[],[],[],[],[],[],"[[1038, 0]]",[],[],[]
participant_1_GOLD,500,500,694,1048,1348,1877,2133,3390,3782,3905,4355,5055,5949,6071,6537,7441,7904,8670,8912,9414,9611,9919,10621,10743,12096,12403,12909,13372,14074,14381,15591,15899,16411,17465,17929,18264,18713,19884,19983
participant_1_CURRENTGOLD,500,0,194,548,848,1377,33,1290,1682,330,80,780,1674,96,562,1466,29,795,1037,1539,96,104,106,229,431,738,495,457,1160,1467,2677,284,297,1351,1815,3060,409,1580,-202
participant_1_LEVEL,1,1,2,3,4,5,5,6,6,6,7,8,9,9,10,10,11,11,12,12,12,12,13,13,14,14,15,15,16,16,16,17,17,17,18,18,18,18,18
participant_1_MINIONSKILLED,0,0,0,0,0,0,0,0,0,0,0,0,0,0,1,5,5,7,11,11,11,11,12,12,12,12,13,13,13,13,19,19,20,27,36,36,36,36,36
participant_1_KILLS,0,0,0,0,0,0,0,1,1,1,1,1,1,1,1,2,2,2,2,4,4,4,4,5,5,6,7,7,7,9,9,9,10,10,10,10,11,13,13
participant_1_BUY,[],"[1055, 2003, 3340]",[],[],[],[],[1053],[],[3077],[],[],[],[3074],[],[],[3111],[3057],[1036],[],"[3051, 2055, 2055]",[1036],[],[3123],[],"[3078, 1042]",[],[],"[1043, 1053]",[3153],[],[3044],[],[],[],[3053],[],[],[],[]
participant_1_SOLD,[],[],[],[],[],[],[],[2003],[],[],[],[],"[3077, 1053]",[],[],[],[],[],[],[1036],"[2055, 2055]",[],[1036],[],"[3057, 3051]",[],[],"[1042, 1055]","[1053, 1043]",[],[],[],[],[],[3044],[],[],[],[]
participant_1_UNDO,[],[],[],[],[],[],[],[],[],[],[],[],[],[],[],[],[],[],[],[],[],[],[],[],[],[],[],[],[],[],[],[],[],[],[],[],[],[],[]
participant_2_GOLD,500,500,612,881,1246,1515,1739,1959,2165,2358,2613,3162,3551,3973,4224,4940,5312,5587,6144,6386,6583,6755,6962,7312,7585,7835,8091,8451,9109,9359,9857,10043,10211,11359,11991,12388,12611,13047,13146
participant_2_CURRENTGOLD,500,0,112,381,736,995,359,579,225,18,273,812,676,723,974,1690,737,1012,1569,561,758,130,337,687,85,335,191,551,1209,159,658,843,161,1309,1942,1239,771,1207,1196
participant_2_LEVEL,1,1,1,3,4,5,6,6,7,7,7,8,9,9,10,10,11,11,12,12,12,12,13,13,13,14,14,14,15,15,16,16,16,16,17,17,17,17,18
participant_2_MINIONSKILLED,0,0,5,13,24,30,33,38,43,47,56,64,76,76,83,97,105,110,121,121,121,121,126,131,131,133,138,145,150,152,152,156,156,156,157,157,157,158,158
participant_2_KILLS,0,0,0,0,0,0,0,0,0,1,1,2,2,3,3,3,4,4,5,5,6,7,7,8,8,8,8,8,8,8,8,8,9,9,9,9,9,9,9
participant_2_BUY,[],"[1055, 2003]",[],[],[],[1053],[],[1036],[],[],"[6670, 3006]",[],[],[],"[6673, 1036, 1036, 2055]",[],"[3035, 3035, 1036, 1036]",[],[],[6694],"[1036, 1042]",[],[1053],[1043],[3086],[],[],[1037],[],[],[3085],[],[],[],[1038],[],[3140],[],[]
participant_2_SOLD,[],[],[],[],[2003],[],[],[],[],[],"[1036, 2422]",[],[],[],"[6670, 1053]",[2055],"[1036, 1036, 1036, 1036]",[],[],"[1036, 1036, 3035]",[],[],[1036],[1042],"[1055, 1042]",[],[],[],[],[],"[1037, 3086]",[],[],[],[],[],[1053],[],[]
participant_2_UNDO,[],[],[],[],[],[],[],[],[],[],[],[],[],[],[],[],"[[0, 3035]]",[],[],[],[],[],[],[],"[[0, 1043]]",[],[],[],[],[],[],[],[],[],[],[],[],[],[]
participant_3_GOLD,500,500,542,755,1064,1578,1869,1991,2552,3467,3652,4439,4758,5668,5920,6217,7168,7501,8252,8480,8917,9365,9516,10196,10521,11004,11204,11511,11809,12323,12559,12876,13494,13617,13859,14326,14930,15352,15751
participant_3_CURRENTGOLD,500,0,42,255,564,178,469,241,802,1717,152,939,1258,2168,445,742,243,576,1327,305,92,540,141,122,426,909,1109,542,839,1354,265,582,1200,1322,265,732,666,1088,676
participant_3_LEVEL,1,1,1,2,3,3,5,5,5,6,7,7,8,9,9,9,10,11,11,12,12,12,12,13,13,14,14,14,14,15,15,15,16,16,16,16,17,17,17
participant_3_MINIONSKILLED,0,0,1,6,14,17,27,27,40,52,55,69,80,94,98,108,121,126,138,144,145,148,149,160,168,178,180,180,180,188,188,195,195,195,199,209,213,213,226
participant_3_KILLS,0,0,0,0,0,0,0,0,0,0,0,0,0,1,1,2,2,2,2,2,2,2,2,2,2,2,2,2,3,3,4,4,4,5,5,6,6,6,6
participant_3_BUY,[],"[1056, 2003, 2003, 3340]",[],[],[],[],[1026],[],"[1052, 2055, 2003]","[1027, 2003]",[],[],[3802],"[1001, 2055]",[],[],"[6655, 2055, 2055]",[],[],"[3057, 3113, 4630]",[],[3111],[],[],"[3916, 2055]",[],[1028],[],[],[3165],[],[],[1026],[],[],"[3135, 3057]",[3113],[],[]
participant_3_SOLD,[],[],[],[2003],"[2010, 2003]",[2010],[],[2010],[],[2055],[],[2003],"[1052, 1027]",[],[2055],[2003],"[3802, 1026]",[],[],[],[],[1001],[2055],[],[],[2055],[],[],[],"[3916, 1028]",[],[],[],[],[],"[4630, 1026]",[1056],[],[]
participant_3_UNDO,[],[],[],[],[],[],[],[],[],[],[],[],[],[],[],[],"[[0, 2055]]",[],[],"[[0, 3113], [0, 3057]]",[],[],[],[],[],[],[],[],[],[],[],[],[],[],[],[],[],[],[]
participant_4_GOLD,500,500,583,797,1053,1907,2082,2726,2860,3676,3817,4447,4587,5185,5326,5767,5957,6275,6650,6910,7099,7682,7823,8038,8494,8984,9174,9365,10119,10535,10789,10929,11301,12148,12353,12796,13456,13896,14002
participant_4_CURRENTGOLD,500,0,83,297,553,57,232,876,60,876,1017,1647,97,695,286,727,918,1235,1611,670,159,742,83,298,754,1244,1435,50,804,1220,1474,1539,1911,2759,193,636,1296,1737,1752
participant_4_LEVEL,1,1,1,2,3,3,3,4,5,6,6,7,7,8,8,9,9,9,10,10,10,11,11,12,12,13,13,13,14,14,14,14,15,16,16,16,17,17,17
participant_4_MINIONSKILLED,0,0,0,0,1,1,1,1,1,2,2,2,2,3,3,5,5,5,6,6,9,14,14,14,15,16,16,16,20,20,20,20,22,28,29,35,37,37,37
participant_4_KILLS,0,0,0,0,0,2,2,2,2,3,3,4,4,5,5,5,5,5,5,5,5,6,6,6,7,8,8,8,9,9,9,9,9,10,10,10,11,11,11
participant_4_BUY,[],"[3850, 2003, 2003, 3340]",[],[],[],"[4642, 2031, 2055, 2055, 3364]",[],[],"[2055, 3067, 2055]",[],[],[],"[4005, 3158]",[],"[2055, 2055, 1028]",[],[],[],[],"[3114, 3067, 2055]",[3107],[],[3114],[],[],[],[],"[6616, 2055]",[],[],[],[2055],[],[],"[3011, 2139]",[],[],[],[]
participant_4_SOLD,[],[],[],[],[],"[2003, 2003, 3340]",[2055],[2055],[],"[2055, 3850]",[],[],"[3067, 4642, 2031]",[2055],[],[],[],[2055],[3851],[1028],"[3067, 3114]",[],[],[],[],[],[2055],[3114],[],[],[],[],[],[],"[2055, 2055, 2139]",[],[],[],[]
participant_4_UNDO,[],[],[],[],[],[],[],[],[],[],[],[],[],[],[],[],[],[],[],"[[0, 2055]]",[],[],[],[],[],[],[],[],[],[],[],[],[],[],[],[],[],[],[]
participant_5_GOLD,500,500,521,720,1085,1611,1972,2230,2957,4423,4775,5120,5465,6170,6416,6657,7021,7756,8010,9158,9580,9907,10403,10652,10774,10897,11103,11225,11492,11893,12445,12811,13725,14147,14290,14531,15294,15692,15741
participant_5_CURRENTGOLD,500,0,21,220,585,1111,172,80,807,2273,75,420,765,670,916,557,921,1656,410,1558,180,508,1003,1252,205,327,84,206,473,473,526,892,1805,1328,671,912,1675,2073,1941
participant_5_LEVEL,1,1,1,2,4,5,6,6,7,8,8,9,9,10,10,10,11,12,12,13,13,13,14,14,14,14,14,14,14,15,15,16,17,17,17,17,18,18,18
participant_5_MINIONSKILLED,0,0,0,4,15,19,30,35,40,50,54,64,68,71,75,78,88,101,105,111,111,120,125,127,127,127,128,128,128,136,137,148,155,155,156,159,170,173,173
participant_5_KILLS,0,0,0,0,0,1,2,2,2,2,3,3,3,4,4,4,4,4,4,4,4,5,6,6,6,6,8,8,8,8,8,9,9,9,9,10,10,11,11
participant_5_BUY,[],"[3850, 2003, 2003, 3340]",[],[],[],"[1026, 3364]",[],"[1001, 1052]",[],[1082],[],[3020],[],[1043],[],[3115],[],[],[],[1058],[],[],[],[1058],[],[],[],"[3089, 3041]",[],"[2055, 2055]",[],[],[4635],[],[],[],[],[],[]
participant_5_SOLD,[],[],[],"[2003, 2003]",[],[3340],[],[],[],[],[3850],[1001],[],[],[],"[1043, 1026, 1052]",[],[],[3851],[],[],[],[],[],[],[],[],"[1058, 1058, 1082]",[],[],[2055],[],[],[],[],[],[],[],[]
participant_5_UNDO,[],[],[],[],[],[],[],[],[],[],[],[],[],[],[],[],[],[],[],[],[],[],[],[],[],[],[],[],[],"[[0, 2055]]",[],[],[],[],[],[],[],[],[]
participant_6_GOLD,500,500,652,993,1453,1820,2218,2660,3185,4166,4523,4881,5003,6040,6483,6981,8052,8537,8895,10458,12096,13248,13931,14074,14357,14656,15808,16280,16552,16674,18534,18890,21094,21351,21474,21899,22041,22290,22339
participant_6_CURRENTGOLD,500,0,152,493,953,320,718,560,1085,2066,223,581,303,340,783,91,1162,1647,255,1818,1956,1308,1991,285,567,867,2019,1740,12,135,1495,1350,3555,3812,3435,3860,4002,1381,739
participant_6_LEVEL,1,1,2,3,4,4,5,6,6,7,8,8,8,9,9,10,10,11,12,13,14,14,15,15,15,15,16,16,17,17,17,17,18,18,18,18,18,18,18
participant_6_MINIONSKILLED,0,0,0,0,0,0,0,0,7,7,7,8,8,8,8,12,17,17,23,29,30,30,38,39,39,39,39,46,49,49,53,57,65,65,65,70,70,70,70
participant_6_KILLS,0,0,0,0,0,0,0,0,0,0,0,0,0,0,0,0,0,0,0,0,0,0,0,0,1,1,1,1,3,3,3,3,3,3,3,3,3,3,3
participant_6_BUY,[],"[1055, 2003]",[],[],[],"[1036, 1036]",[],"[3134, 1036]",[],[1036],[],[1053],[],[6692],[],[],"[1036, 1001]",[],[],[],[3134],[],[],[],[],[1037],[],[3142],[],[3009],[],[],"[2015, 2015, 1042]",[],[7001],[],[3086],[],[3094]
participant_6_SOLD,[],[],[],[2003],[],[2010],[2010],"[2010, 1036, 1036]",[],[],[],[1036],[],"[3134, 1036, 1053]",[],[],[],[],[],[],[],[],[],[],[],[],[],"[3134, 1037]",[],[1001],[],[],[],[],[6692],[],[1042],[],"[3086, 2015]"
participant_6_UNDO,[],[],[],[],[],[],[],[],[],[],[],[],[],[],[],[],"[[0, 1036]]",[],[],[],[],[],[],[],[],[],[],[],[],[],[],[],"[[0, 2015]]",[],[],[],[],[],[]
participant_7_GOLD,500,500,591,843,1036,1389,1781,2001,2269,2497,2773,2966,3264,3616,3946,4103,4355,4561,4683,5031,5153,5525,5851,6036,6159,6282,6857,7008,7307,7430,7732,7855,8352,8549,8686,8990,9292,9452,9501
participant_7_CURRENTGOLD,500,0,91,333,26,369,761,181,39,267,543,136,424,776,346,428,680,186,308,356,478,50,301,186,109,232,807,58,357,480,782,905,102,299,136,440,743,903,1001
participant_7_LEVEL,1,1,1,3,4,5,5,6,6,7,8,8,9,9,10,10,10,10,11,11,11,12,12,12,13,13,13,14,14,14,15,15,15,16,16,16,16,17,17
participant_7_MINIONSKILLED,0,0,4,9,13,24,31,36,42,48,57,61,68,74,83,85,89,94,94,94,94,95,100,104,105,105,110,112,113,113,115,115,115,115,116,120,126,126,126
participant_7_KILLS,0,0,0,0,0,0,0,1,1,2,2,2,2,3,3,4,5,5,5,8,11,14,14,14,14,14,16,16,16,16,19,19,22,22,22,22,22,22,22
participant_7_BUY,[],"[1035, 3340, 2031]",[],[],[],[6660],[],"[1001, 1029]",[],[],"[3068, 1029]",[],"[3076, 1028]","[3067, 3009, 3009]",[],"[1028, 3211]",[],[],"[3065, 3076, 1028]",[],[3075],"[3044, 3105, 1029]",[],"[3193, 1036]",[3364],[],[],[3044],"[7004, 3053]",[],[2138],[2138],[],[],[2138],[],[],"[3083, 2138]",[]
participant_7_SOLD,[],[],[],[2010],[],[],[],[2010],[],"[2010, 3340, 1035]","[6660, 1029]",[],[1029],"[3513, 1028, 1001, 1001]",[],"[2031, 1028]",[],[],"[3211, 3067, 1029]",[],"[3076, 1028]",[],[],"[1029, 3105]",[3340],[],[],[1036],"[3068, 3044]",[],[2138],[2138],[],[],[2138],[],[],"[3009, 2138]",[]
participant_7_UNDO,[],[],[],[],[],[],[],[],[],[],[],[],"[[0, 3076]]","[[0, 3009]]",[],[],[],[],[],[],[],"[[0, 3044]]",[],[],[],[],[],[],[],[],[],[],[],[],[],[],[],[],[]
participant_8_GOLD,500,500,591,941,1197,1394,1629,2079,2382,2526,2881,3074,3388,3773,3924,4076,4304,4426,4618,5098,5374,5498,5823,5945,6410,6699,6900,7155,7917,8075,8310,8610,8832,9328,9639,9964,10128,10457,10506
participant_8_CURRENTGOLD,500,0,91,441,697,194,429,129,432,226,581,224,538,73,224,376,304,426,618,1098,274,398,723,845,1310,724,925,155,917,475,710,1010,232,728,1039,1364,629,957,206
participant_8_LEVEL,1,1,1,2,3,3,4,5,6,6,7,7,8,8,8,8,8,8,9,10,10,10,11,11,11,11,12,12,13,13,13,14,14,14,15,15,15,16,16
participant_8_MINIONSKILLED,0,0,4,14,22,22,29,37,44,45,56,60,67,71,73,74,76,76,80,84,93,94,99,99,102,108,110,118,118,120,126,129,129,140,147,152,154,159,159
participant_8_KILLS,0,0,0,0,0,1,1,1,2,4,4,4,4,5,5,5,5,6,6,7,7,7,7,7,7,7,7,7,7,7,7,7,8,9,9,9,10,10,10
participant_8_BUY,[],"[1054, 2003]",[],[],[],[],"[6660, 1029]","[1029, 2003]",[],[],"[3068, 1001, 1029, 2003]",[],[],"[3047, 1029]",[],"[3076, 1028]",[],[],[3075],[],"[3082, 3067]",[],[],[],"[3143, 1033]",[],[1057],[],[],[1028],[1011],[7004],[],[3001],[3067],[],[],[],[]
participant_8_SOLD,[],[],[],[],[2003],[],[],[],[],[2003],"[6660, 1029]",[2003],[],"[1001, 1029]",[],"[1029, 1029]",[],[],"[3076, 1028]",[],[],[],[],[],"[3082, 3067, 1054]",[],[1033],[],[],[],[1028],[3068],[],"[1011, 1057]",[],[],[],[],[]
participant_8_UNDO,[],[],[],[],[],[],[],[],[],[],[],[],[],[],[],[],[],[],[],[],[],[],[],[],[],[],[],[],[],[],[],[],[],[],[],[],[],[],[]
participant_9_GOLD,500,500,523,737,912,1427,1942,2186,2420,2615,3243,3405,3625,4595,4757,5209,5643,5784,6144,6360,6500,7264,7958,8127,8426,8741,9883,10172,10399,10561,10897,11642,12007,12222,12399,12869,13120,13838,13894
participant_9_CURRENTGOLD,500,0,23,237,412,77,592,101,335,180,808,170,390,360,522,259,693,834,1194,160,300,1064,1758,677,976,1291,2433,172,400,486,822,1567,632,848,1024,1494,1745,2463,2519
participant_9_LEVEL,1,1,1,2,3,3,3,3,4,4,5,5,6,6,6,7,8,8,9,9,9,10,11,11,12,12,12,13,13,13,14,14,14,15,15,15,15,15,15
participant_9_MINIONSKILLED,0,0,0,0,0,1,1,2,8,8,9,10,16,16,17,19,23,23,31,31,31,32,36,38,43,49,52,59,59,60,68,78,78,78,81,82,84,86,86
participant_9_KILLS,0,0,0,0,0,0,0,0,0,0,0,0,0,0,0,0,0,0,0,0,0,0,0,0,0,0,0,0,0,0,0,0,0,0,0,0,0,0,0
participant_9_BUY,[],"[1054, 2003, 3340]",[],[],"[1028, 2055, 1033, 2003]",[],[],"[1028, 1028]","[6660, 2055, 2055, 2003]",[],[],"[1029, 1001]",[],[],[3105],"[2055, 3363]",[],[3068],[],[1029],[],"[3047, 1029]",[2055],[1029],"[3076, 7004]",[],[],"[1028, 1028, 1011]",[],[],[],[],"[3075, 1029]",[],[1029],[],[],[],[]
participant_9_SOLD,[],[],[],[2010],[2003],[],"[2010, 2003]",[2010],"[1028, 1028]",[2003],[],[],[2055],[],"[1033, 1029]",[3340],[2055],"[6660, 3105]",[],[],[],"[2055, 1001, 1029]",[],[],"[1029, 1029, 3068, 2055]",[],[],[1028],[],[],[],[],"[3076, 1011]",[],[],[],[],[],[]
participant_9_UNDO,[],[],[],[],"[[0, 2055], [0, 1028]]",[],[],[],[],[],[],[],[],[],[],[],[],[],[],[],[],[],[],[],[],[],[],"[[0, 1028]]",[],[],[],[],[],[],[],[],[],[],[]
team0_KILLS,0,0,0,0,0,3,3,7,7,9,10,13,14,17,17,21,22,24,25,28,29,31,32,34,37,39,41,41,44,46,49,49,52,56,56,57,59,63,63
team0_CURRENTGOLD,2500,0,515,1908,3384,3615,1471,4055,2920,3215,2246,5407,4034,4357,3391,5305,2307,3770,6140,3369,1202,2209,1090,3076,1830,3929,5293,2618,4321,5867,5877,4347,5091,8644,4569,6165,4360,8094,5981
team0_TOTALGOLD,2500,2500,3015,4408,5894,8385,9601,12535,14110,16280,17761,20932,22974,25372,26931,29945,32321,34135,36504,38334,39477,41584,42965,45649,48283,50382,52893,54590,57493,60337,62771,64019,66111,69664,71659,73444,76100,79833,80824
team0_LEVEL,5,5,6,13,18,21,24,28,30,32,35,38,42,44,47,49,52,53,57,58,58,60,62,64,65,69,71,71,75,76,78,79,81,83,85,85,87,87,88
team0_SBIRES,0,0,9,33,60,78,99,117,141,158,180,211,236,258,285,320,350,362,401,407,411,425,435,458,473,486,517,529,551,566,572,589,592,610,630,647,656,665,682
team1_KILLS,0,0,0,0,0,2,3,4,5,8,9,9,9,12,12,13,14,15,15,19,22,26,27,27,28,28,32,32,34,34,37,38,42,43,43,44,45,46,46
team1_CURRENTGOLD,2500,0,378,1724,2673,2071,2672,1051,2698,5012,2230,1531,2420,2219,2791,1711,3760,4749,2785,4990,3188,3328,5776,3245,3167,3441,6268,2331,2159,2049,4335,5724,6326,7015,6305,8070,8794,7777,6406
team1_TOTALGOLD,2500,2500,2878,4234,5683,7641,9542,11156,13213,16227,18195,19446,20745,24194,25526,27026,29375,31064,32350,36105,38703,41442,43966,44834,46126,47275,50551,51840,53667,54633,57918,59808,64010,65597,66488,68253,69875,71729,71981
team1_LEVEL,5,5,6,12,18,20,23,26,29,32,36,37,40,42,43,45,47,49,53,56,57,59,63,63,65,65,67,69,71,72,74,76,78,80,81,81,82,84,84
team1_SBIRES,0,0,8,27,50,66,91,110,141,158,183,203,227,240,256,268,293,311,333,349,359,371,398,407,416,428,439,463,467,478,499,527,542,553,565,583,604,614,614
delta_KILLS,0,0,0,0,0,1,0,3,2,1,1,4,5,5,5,8,8,9,10,9,7,5,5,7,9,11,9,9,10,12,12,11,10,13,13,13,14,17,17
delta_CURRENTGOLD,0,0,137,184,711,1544,-1201,3004,222,-1797,16,3876,1614,2138,600,3594,-1453,-979,3355,-1621,-1986,-1119,-4686,-169,-1337,488,-975,287,2162,3818,1542,-1377,-1235,1629,-1736,-1905,-4434,317,-425
delta_TOTALGOLD,0,0,137,174,211,744,59,1379,897,53,-434,1486,2229,1178,1405,2919,2946,3071,4154,2229,774,142,-1001,815,2157,3107,2342,2750,3826,5704,4853,4211,2101,4067,5171,5191,6225,8104,8843
delta_LEVEL,0,0,0,1,0,1,1,2,1,0,-1,1,2,2,4,4,5,4,4,2,1,1,-1,1,0,4,4,2,4,4,4,3,3,3,4,4,5,3,4
delta_SBIRES,0,0,1,6,10,12,8,7,0,0,-3,8,9,18,29,52,57,51,68,58,52,54,37,51,57,58,78,66,84,88,73,62,50,57,65,64,52,51,68
