name,frame_0,frame_1,frame_2,frame_3,frame_4,frame_5,frame_6,frame_7,frame_8,frame_9,frame_10,frame_11,frame_12,frame_13,frame_14,frame_15,frame_16,frame_17,frame_18,frame_19,frame_20,frame_21,frame_22,frame_23,frame_24,frame_25,frame_26,frame_27,frame_28,frame_29,frame_30,frame_31,frame_32,frame_33,frame_34,frame_35,frame_36,frame_37,frame_38,frame_39,frame_40,frame_41
nameStamp,Tstart,Tearly,Tearly,Tearly,Tearly,Tearly,Tearly,Tearly,Tearly,Tearly,Tearly,Tearly,Tearly,Tearly,Tearly,Tearly,Tearly,Tmid,Tmid,Tmid,Tmid,Tmid,Tmid,Tmid,Tmid,Tmid,Tmid,Tmid,Tmid,Tmid,Tend,Tend,Tend,Tend,Tend,Tend,Tend,Tend,Tend,Tend,Tend,Tend
timestamp,0,60012,120032,180045,240077,300102,360119,420143,480171,540191,600224,660253,720277,780286,840308,900339,960357,1020390,1080411,1140418,1200441,1260447,1320475,1380508,1440532,1500536,1560551,1620562,1680591,1740601,1800624,1860630,1920651,1980655,2040672,2100685,2160703,2220734,2280749,2340781,2400808,2460808
participant_0_GOLD,500,500,562,804,1011,1252,1459,1822,2153,2397,2729,3048,3212,3533,4291,4735,5306,5623,5745,6119,6366,6621,6902,7187,7548,7963,8600,8842,9513,10217,10806,11046,11244,11492,11793,12458,13645,13798,14127,14475,15010,15328
participant_0_CURRENTGOLD,500,0,62,304,111,352,559,922,1253,197,529,848,162,483,1241,435,906,1223,245,619,866,521,367,652,1013,542,1180,1422,2094,297,886,276,474,722,1024,948,2135,139,468,816,851,728
participant_0_LEVEL,1,1,1,3,4,5,5,6,7,7,8,9,9,9,10,10,11,11,11,12,12,12,13,13,13,14,14,15,15,16,16,16,16,17,17,17,18,18,18,18,18,18
participant_0_MINIONSKILLED,0,0,2,9,14,21,25,37,46,50,56,68,70,73,79,94,105,112,112,122,122,126,131,135,136,145,154,156,157,164,164,167,167,175,183,186,197,199,202,210,210,210
participant_0_KILLS,0,0,0,0,0,0,0,0,0,0,0,0,0,0,0,0,0,1,1,1,2,2,2,2,3,3,4,4,5,5,5,6,6,6,7,7,7,7,8,8,9,10
participant_0_BUY,[],"[3850, 2003, 2003]",[],[],[],"[1052, 1001, 2003]",[],"[3108, 2003]",[],[],"[1052, 2055, 3364]",[],[],"[3802, 2055]",[],[],[],[],"[6653, 2055]",[],[],"[3020, 1052, 2055]",[],[3191],[],[1052],[],"[3157, 2055]",[],"[1026, 2055]",[],"[3364, 1011]",[],[],[],[3116],[],[],"[2055, 2055]",[],"[4630, 2139]",[]
participant_0_SOLD,[],[],[],[2003],"[2003, 2010]",[],[2003],"[2010, 1052]","[2003, 2010, 3850]",[],[3340],"[2419, 2055]",[],"[1052, 2055, 2423]",[3851],[],[],[],"[3802, 3108, 2055]",[],[],[1001],[],[1052],[2055],[],[],"[3191, 1052, 2424]",[2055],[],[],"[3364, 2055]",[],[],[],"[1026, 1011]",[],[],[2055],[],"[2055, 2139]",[]
participant_0_UNDO,[],[],[],[],[],[],[],[],[],[],[],[],[],[],[],[],[],[],[],[],[],[],[],[],[],[],[],[],[],[],[],[],[],[],[],[],[],[],[],[],[],[]
participant_1_GOLD,500,500,627,963,1563,1770,2028,2235,2697,2962,3354,3605,3902,4864,5336,5531,6196,6588,6710,7011,7378,7636,7866,8150,8513,9386,9712,9928,10283,10836,11758,11940,12583,12720,13164,13709,14056,14179,14553,14769,15184,15433
participant_1_CURRENTGOLD,500,0,127,463,1063,1270,378,585,1047,1312,1704,80,377,1339,1811,356,1021,1413,185,486,403,661,891,1175,1538,961,1288,1503,1859,111,793,526,1168,256,700,1245,1592,139,514,730,1145,433
participant_1_LEVEL,1,1,2,3,3,4,4,4,5,6,6,7,7,8,9,9,10,10,10,10,11,11,12,12,12,13,13,13,14,15,15,15,16,16,16,16,17,17,17,18,18,18
participant_1_MINIONSKILLED,0,0,0,0,0,0,0,0,0,2,2,4,4,5,8,8,9,9,9,10,12,12,12,12,13,13,13,13,16,16,16,18,20,20,22,22,22,22,22,24,24,24
participant_1_KILLS,0,0,0,0,0,0,0,0,0,0,0,0,1,1,1,1,1,2,2,3,4,4,5,5,5,5,5,5,6,6,7,7,7,7,7,7,7,7,8,9,11,11
participant_1_BUY,[],"[1055, 2003]",[],[],[],"[1036, 2003, 2003]",[],[],[],[],"[3134, 3009, 2003, 2003]",[],[],"[1036, 1053, 1036]",[],[],"[6692, 1036, 1036, 2003, 2003]",[],"[3134, 1018, 3364, 3363]",[],[],"[6676, 1042]","[2015, 1042]",[],[],[3086],[],[],[],"[3094, 1038]",[],[],[],[],[3031],[],[],[3123],[],[],"[3033, 2140]",[]
participant_1_SOLD,[],[],[],[2003],[],[],[],[],[2003],[2003],[1036],[],[],[1036],[],"[2003, 2003]","[3134, 1036, 1053]","[2003, 2003]","[1036, 1036, 3340, 3364]",[],[],"[3134, 1018]",[1042],[],[],[1042],[],[],[],"[3086, 2015]",[],[],[],[],[1038],[],[],[1055],[],[],"[3123, 2140]",[]
participant_1_UNDO,[],[],[],[],[],[],[],[],[],[],[],[],[],[],[],[],[],[],[],[],[],[],[],[],[],[],[],[],[],[],[],[],[],[],[],[],[],[],[],[],[],[]
participant_2_GOLD,500,500,625,920,1232,1487,1802,2057,2584,3091,3542,3728,4026,4281,4576,4698,4920,5297,5628,5800,6250,6457,6802,7098,7515,7638,7985,8326,9241,10199,10951,11360,11665,12505,12977,13749,14191,14439,15261,15629,15864,16113
participant_2_CURRENTGOLD,500,0,125,410,722,977,1282,87,539,196,647,233,531,786,1071,343,215,592,573,745,95,302,647,943,1360,1483,480,821,1736,45,797,1205,1510,2350,1083,254,696,595,1416,1785,1270,1488
participant_2_LEVEL,1,1,1,3,4,5,6,7,7,8,8,8,9,9,10,10,10,10,11,11,11,11,12,12,12,12,13,13,14,15,15,16,16,16,17,17,17,17,18,18,18,18
participant_2_MINIONSKILLED,0,0,6,13,24,32,40,47,54,59,70,73,80,88,94,94,97,108,116,119,121,126,135,141,151,151,157,162,163,182,185,191,197,204,204,204,204,204,214,216,216,216
participant_2_KILLS,0,0,0,0,0,0,0,0,0,0,0,0,0,0,0,0,0,0,0,0,0,0,0,0,0,0,0,0,1,1,1,1,1,1,1,2,4,4,4,4,5,5
participant_2_BUY,[],"[1056, 3340, 2003, 2003]",[],[],[1028],[],[],[],[],[3802],[],[],[1026],[],[],[6656],"[2003, 2003, 3363]",[],"[3020, 3047, 1029]",[],[],[3191],[1052],[],[],[3157],[],[],[],[3165],[],[1026],[],[],[],[1011],[],"[4637, 1011]",[],[],[2139],[]
participant_2_SOLD,[],[],[],"[2003, 2010, 2003]",[],[],[],"[2010, 2010]",[],[],[],[],[],[],[],"[3802, 1026]","[3340, 2003, 2003]",[],"[2422, 2422]",[],[],[1029],[],[],[],"[1028, 3191, 1052]",[],[],[],[],[],[],[],[],[],[1056],[],"[1026, 1011]",[],[],[2139],[]
participant_2_UNDO,[],[],[],[],[],[],[],[],[],[],[],[],[],[],[],[],[],[],"[[0, 3020]]",[],[],[],[],[],[],[],[],[],[],[],[],[],[],[],[],[],[],[],[],[],[],[]
participant_3_GOLD,500,500,597,867,1162,1389,1795,2092,2437,2670,2885,3578,4576,4698,5230,5569,5927,6639,6929,7458,8106,8292,8927,9293,9826,10040,10539,11059,11807,12374,13497,13669,13867,14198,14559,14732,15062,15311,15884,16995,17805,18232
participant_3_CURRENTGOLD,500,0,97,367,662,439,845,1142,1487,1720,185,878,1876,748,1280,1619,327,1039,329,858,1506,92,27,393,926,241,739,1259,2007,474,1598,1770,1967,2299,560,733,1063,692,1265,2376,786,1032
participant_3_LEVEL,1,1,1,2,3,3,4,5,5,6,6,7,7,7,8,8,9,10,10,10,11,11,12,12,12,13,13,13,14,15,15,15,16,16,16,16,16,17,17,18,18,18
participant_3_MINIONSKILLED,0,0,4,13,20,23,37,47,57,59,61,72,84,84,95,104,111,119,123,130,135,139,146,156,163,169,180,195,197,199,206,206,206,214,216,216,221,223,227,238,238,240
participant_3_KILLS,0,0,0,0,1,1,1,1,1,1,1,1,1,2,3,3,4,4,4,4,4,4,4,4,4,5,5,5,5,5,7,7,8,8,8,8,8,8,8,8,8,8
participant_3_BUY,[],"[1035, 2031, 3340]",[],[],[],[],"[6660, 2055, 2055, 3364]",[],[],[],[],"[3105, 1001, 2055]",[],[],[],"[3068, 3111, 2055, 2055]",[],[],"[1011, 1033]",[],[1057],[],[],[],[],"[3001, 1028, 2055, 2055]",[],[],[],[3075],[1029],[1033],[],"[3105, 1029]",[],[],[],"[3193, 2055]",[],[],[],[1011]
participant_3_SOLD,[],[],[],[],[],[],[3340],[2055],[],[2055],[1035],[],[],[2055],[],"[6660, 3105, 1001]",[2055],[],[],[],[1033],[2055],[],[],[],"[1011, 1057]",[2055],[2055],[],[1028],[],[2031],[],"[1033, 1029]",[],[],[],"[1029, 3105]",[],[2055],[],[]
participant_3_UNDO,[],[],[],[],[],[],[],[],[],[],[],[],[],[],[],[],[],[],[],[],[],[],[],[],[],[],[],[],[],[],[],[],[],[],[],[],[],[],[],[],[],[]
participant_4_GOLD,500,500,542,797,1270,1404,1639,1853,2088,2363,2664,2855,3245,3465,3796,3950,4176,4839,4979,5255,5869,6010,6267,6407,6981,7228,7772,7913,8438,8908,9148,9667,9807,10175,10700,10891,11176,11316,12023,12654,13259,13931
participant_4_CURRENTGOLD,500,0,42,297,770,119,354,53,288,563,354,545,935,216,546,700,926,1589,455,730,1344,175,432,108,681,493,1038,188,713,258,499,147,287,655,1180,121,406,547,1104,1734,619,1231
participant_4_LEVEL,1,1,1,2,3,3,4,4,4,5,5,6,6,6,7,7,7,8,9,9,10,10,10,10,11,11,11,11,12,13,13,13,13,14,14,14,15,15,15,16,16,17
participant_4_MINIONSKILLED,0,0,0,0,3,3,3,3,3,3,10,11,11,11,12,13,15,19,19,21,23,23,25,25,25,26,27,27,29,29,29,31,31,34,34,34,35,35,35,43,44,53
participant_4_KILLS,0,0,0,0,0,0,0,0,1,2,2,2,2,2,2,2,2,2,2,2,3,3,3,3,3,3,3,3,4,4,5,5,5,6,7,8,9,9,10,10,10,10
participant_4_BUY,[],"[1036, 2031, 3340]",[],[],[],[],[],"[3134, 1036, 1036]",[2055],"[1053, 1001]",[],[3158],[],[],[],[6692],[1036],[],[1036],[],"[3134, 1036, 1036]",[],[],[],[],[],"[3179, 1036]",[],[],[3142],[],[],[],[],"[3035, 1036]",[6694],[],[1036],[],[],[3133],[]
participant_4_SOLD,[],[],[],[],[],[],[],[1036],[2055],[1036],[],[1001],[],[],[],"[3134, 1036, 1053]",[],[],[],[],"[1036, 1036]",[],[],[],[],[],"[3134, 1036, 1036]",[],[],[1036],[],[],[],[],[2031],"[1036, 3035]",[],[],[],[],[1036],[]
participant_4_UNDO,[],[],[],[],[],[],[],[],[],[],[],[],[],[],[],[],[],[],[],[],[],[],[],[],[],[],[],[],[],[],[],[],[],[],[],[],[],[],[],[],[],[]
participant_5_GOLD,500,500,583,860,1476,1724,2179,2469,3027,3821,4007,4372,5078,5354,5477,5729,6510,7182,8056,8436,9015,9525,9818,10234,10442,10867,11039,11706,11960,12347,13723,13964,15400,15554,15942,16893,17584,17916,18338,18481,19366,19465
participant_5_CURRENTGOLD,500,0,83,360,76,324,779,1069,1627,121,232,597,1303,779,151,404,1185,1857,72,453,1032,1542,1835,2251,459,1084,157,823,203,515,1890,2132,1343,197,584,1036,1727,359,781,424,1309,-2093
participant_5_LEVEL,1,1,1,3,4,4,6,6,7,8,8,9,10,10,10,10,11,12,12,13,13,14,14,14,15,15,15,16,16,16,16,16,17,17,17,18,18,18,18,18,18,18
participant_5_MINIONSKILLED,0,0,3,12,21,28,44,54,63,81,85,96,111,120,120,120,134,137,148,159,174,189,199,207,212,218,218,236,240,240,240,247,248,250,255,280,288,296,296,297,302,302
participant_5_KILLS,0,0,0,0,0,0,0,0,0,0,0,1,1,1,1,3,3,3,4,4,4,4,4,4,4,4,4,4,4,4,4,4,4,4,4,4,4,4,4,4,4,4
participant_5_BUY,[],"[1039, 3340, 2031]",[],[],[],[],[],[],"[3145, 1026, 1001]",[],[],[],"[4636, 2055, 2055, 3364]",[],[],[],"[3020, 1052, 1029]",[],[],"[3191, 3108]",[],[],[],[],[],"[3157, 1058]",[],[],"[1052, 2055, 2055]",[],[],[],[],[],[4628],[],[],[],[],"[3057, 1026]",[],[]
participant_5_SOLD,[],[],[],[],[],[],[],[1039],[2031],[],[],[2419],"[3145, 1026, 3340]",[2055],[],[],"[2055, 1001]",[3364],[3513],"[1052, 1029]",[],[],[],[],[],"[3191, 3108, 2423]",[],[],[],[2055],[],[],[],[],"[1058, 1052]",[],[2055],[],[],[],[],[]
participant_5_UNDO,[],[],[],[],[],[],[],[],[],[],[],[],[],[],[],[],[],[],[],[],[],[],[],[],[],[],[],[],[],[],[],[],[],[],[],[],[],[],[],[],[],[]
participant_6_GOLD,500,500,620,1018,1341,1645,2058,2473,2695,2828,3135,3800,4164,4491,4798,5605,5827,6195,6973,7120,7496,7894,8107,8229,8351,8475,8919,9041,9206,9353,9475,10135,10521,10664,10838,10961,11163,11594,12042,12234,12431,12530
participant_6_CURRENTGOLD,500,0,120,518,841,1145,1558,1973,55,188,495,1160,74,401,708,1515,202,570,1348,430,806,1204,1417,1539,1661,85,529,652,231,378,501,1160,1547,1690,549,671,874,1305,1752,395,592,630
participant_6_LEVEL,1,1,2,3,4,4,5,6,6,6,7,7,8,8,9,9,10,10,11,11,12,12,12,12,12,12,13,13,13,13,13,14,14,15,15,15,15,16,16,16,17,17
participant_6_MINIONSKILLED,0,0,0,0,0,0,0,0,0,1,1,2,2,3,3,4,5,9,10,10,14,15,16,16,16,16,17,17,20,20,20,34,35,36,37,37,37,43,43,48,50,50
participant_6_KILLS,0,0,0,0,1,1,1,1,2,2,2,2,3,3,3,3,3,4,5,5,5,5,5,5,5,5,5,5,5,5,7,7,9,9,9,9,10,10,10,10,11,11
participant_6_BUY,[],"[2033, 3340]",[],[],[1053],[],[],[],[],[3153],[2055],[],[],[3111],"[1036, 1028]",[],[],[],"[3078, 2055]",[],[],[],[],[],"[3051, 1057]",[],[3091],[],[1037],[2055],[],[],[3053],[3140],[],[2138],[],"[6035, 3363]",[],[2138],[],"[3026, 2138]"
participant_6_SOLD,[],[],[],[2010],[],[],[],[],[],[1053],[],[2055],[],"[2010, 2422]",[],[],[],[2010],"[1036, 1028]",[],[2055],[],[],[],[],[2033],"[3051, 1057]",[],[],[2055],[],[],[1037],[],[],[2138],[],"[3140, 3340]",[],[2138],[],"[6035, 2138]"
participant_6_UNDO,[],[],[],[],[],[],[],[],[],[],[],[],[],[],[],[],[],[],[],[],[],[],[],[],[],[],[],[],[],[],[],[],[],[],[],[],[],[],[],[],[],[]
participant_7_GOLD,500,500,611,962,1253,1641,1998,2204,2514,2828,3211,3757,4020,4311,4682,5102,5446,5742,6563,6698,6954,7664,7821,8231,8626,9113,9376,9498,9773,10081,10844,11298,11631,12151,12922,13045,14343,14466,14888,15233,16316,16414
participant_7_CURRENTGOLD,500,0,111,452,743,1121,1468,74,24,328,711,1257,360,651,1012,32,76,372,293,428,84,794,51,461,856,1343,156,278,554,861,1624,629,961,182,953,381,454,226,649,994,2077,1314
participant_7_LEVEL,1,1,1,3,4,5,6,6,7,7,8,9,9,9,10,10,11,11,11,12,12,12,12,13,13,13,13,13,14,14,15,15,15,16,16,16,17,17,17,18,18,18
participant_7_MINIONSKILLED,0,0,5,15,24,37,48,53,61,69,75,81,86,95,106,114,120,126,137,138,143,152,154,162,168,180,185,185,189,189,214,214,217,232,241,241,248,248,248,256,263,263
participant_7_KILLS,0,0,0,0,0,0,0,0,0,0,0,0,0,0,0,1,1,1,1,1,2,2,2,2,2,3,3,3,3,3,3,3,3,3,4,4,5,5,5,5,5,5
participant_7_BUY,[],"[1055, 2003, 3340]",[],[],"[1036, 2003, 2003]",[],[],[],[3006],[],[],"[1018, 2055]",[],[],"[6670, 2055]",[],[],[1037],[],"[6671, 1036, 1042]",[1042],[1018],"[3086, 1042]",[],[],[],[1037],[],[3085],[3363],[1037],[],[],[],[1053],[1043],[],"[3153, 1036, 1036]",[],"[3035, 1018]",[],[]
participant_7_SOLD,[],[],[],[2003],[2010],[],"[2003, 2003]",[],[2010],[2010],[],[],[2055],[],[1036],[],[],[],[2055],"[6670, 1018, 1037]",[],[],"[1018, 1042]",[],[],[],[],[],"[1037, 3086, 1042]",[3340],[],[],[],[],[],[1055],[],"[1053, 1043, 1037]",[],"[1036, 1036]",[],[]
participant_7_UNDO,[],[],[],[],[],[],[],[],[],[],[],[],[],[],[],[],[],[],[],"[[0, 1036]]",[],"[[0, 1042]]",[],[],[],[],[],[],[],[],[],[],[],[],[],[],[],[],[],[],[],[]
participant_8_GOLD,500,500,597,867,1038,1349,1691,2062,2184,2505,2834,3095,3541,3780,3986,4506,4942,5156,5575,5701,6135,6407,6912,7164,7286,8003,8718,9060,9225,9473,9823,9946,10402,10861,11460,11740,12772,12894,13533,13829,14126,14225
participant_8_CURRENTGOLD,500,0,97,367,88,399,741,1112,134,455,784,370,816,1055,236,756,1192,531,950,151,285,257,162,414,536,1253,1093,1435,575,823,299,421,877,1337,1036,495,1528,525,1163,110,407,325
participant_8_LEVEL,1,1,1,2,3,4,5,5,5,6,7,7,8,8,9,9,10,10,11,11,11,11,12,12,12,13,13,14,14,14,14,14,15,15,15,15,16,16,16,17,17,17
participant_8_MINIONSKILLED,0,0,4,10,12,23,32,42,42,50,52,57,72,78,82,88,99,103,114,114,116,116,130,130,130,143,156,165,167,167,167,167,178,189,193,197,201,201,209,215,215,215
participant_8_KILLS,0,0,0,0,0,0,0,1,1,1,2,3,3,3,3,3,3,3,3,3,4,4,4,4,4,4,4,4,4,4,4,4,4,4,4,4,4,4,4,4,4,4
participant_8_BUY,[],"[3850, 3340, 2003, 2003]",[],[],[],"[1001, 2055, 2055, 2031]",[],[],[],[],"[4642, 1028, 2055]",[],"[3009, 2055]",[],[],"[3067, 2055, 3364, 2055]",[],[],[],"[4005, 2055, 2055]",[1033],[2055],[],[],"[1057, 1004, 2055, 2055]",[],"[2055, 2055]",[],[3114],[],[2055],[],"[3222, 2055]","[2055, 2055]",[],[1028],[],[],[],[3067],[],"[2055, 2055]"
participant_8_SOLD,[],[],[],[],"[2003, 2010]",[2003],[2055],[],"[2010, 2010]",[],[],[2055],"[1001, 3850]",[2055],[],"[1028, 3340]",[2055],[],[2055],"[3067, 4642]",[2055],[],"[2055, 3851]",[],"[2055, 1033, 2031]","[2055, 2055]",[],[2055],"[2055, 1004]",[],[],[2055],"[3114, 1057]",[2055],[],[],[],[],[2055],[1028],[2055],[]
participant_8_UNDO,[],[],[],[],[],"[[0, 2055]]",[],[],[],[],[],[],[],[],[],[],[],[],[],[],[],[],[],[],[],[],[],[],[],[],[],[],[],[],[],[],[],[],[],[],[],[]
participant_9_GOLD,500,500,522,737,955,1089,1247,1765,1979,2124,2578,3139,3274,3465,3688,3973,4184,4434,4654,4815,5418,5624,5861,6031,6172,6316,6507,6692,6847,7032,7247,7522,7662,7802,8001,8163,8303,8473,8914,9054,9388,9501
participant_9_CURRENTGOLD,500,0,22,237,455,64,222,740,954,1099,28,589,49,240,463,198,409,659,880,40,193,324,561,731,82,226,267,452,58,242,382,657,122,113,311,73,213,384,824,564,898,801
participant_9_LEVEL,1,1,1,2,3,3,4,4,4,5,5,6,6,6,6,7,7,7,7,7,8,8,9,9,9,10,10,10,11,11,11,12,12,12,13,13,13,13,14,14,14,14
participant_9_MINIONSKILLED,0,0,0,0,0,0,0,2,2,2,2,3,3,4,4,4,4,4,5,5,6,7,12,13,13,13,13,15,16,18,18,22,22,22,23,24,24,25,25,25,26,26
participant_9_KILLS,0,0,0,0,0,0,0,0,0,0,0,0,0,0,0,0,0,0,0,0,0,0,0,0,0,0,0,0,0,0,0,1,1,1,2,2,3,3,3,3,5,5
participant_9_BUY,[],"[1055, 2003, 3340]",[],[],[],[],[],"[6670, 1001, 2003]",[1036],[],[],[],"[1018, 1053]",[],[],"[6673, 3006, 3364]",[1042],[],[3086],[],"[1042, 1042]",[],[3046],[],[],[],[3035],[],[],[],[],[3036],[],[1038],[],[1037],[3031],[1036],[],[],[],"[3133, 3133]"
participant_9_SOLD,[],[],[],[2010],[],"[2010, 2003]",[],[2010],[],[],[],[],[1036],[],[],"[6670, 1018, 1053, 1001, 3340]",[],[],[1042],[],[],[],"[1042, 3086, 1042]",[],[],[],[],[],[],[],[],[3035],[],[],[],[1055],"[1038, 1037]",[],[],[],[],"[1036, 1036]"
participant_9_UNDO,[],[],[],[],[],[],[],"[[0, 2003]]",[],[],[],[],[],[],[],[],[],[],[],[],[],[],[],[],[],[],[],[],[],[],[],[],[],[],[],[],[],[],[],[],[],"[[0, 3133]]"
team0_KILLS,0,0,0,0,1,1,1,1,2,3,3,3,4,5,6,6,7,9,9,10,13,13,14,14,15,16,17,17,21,21,25,26,27,28,30,32,35,35,38,39,43,44
team0_CURRENTGOLD,2500,0,453,1841,3328,3157,3418,2789,4614,3988,3419,2584,3881,3572,5949,3453,3395,5856,1787,3438,4214,1751,2364,3271,5518,3720,4725,5193,8409,1185,4573,3924,5406,6282,4547,3301,5892,2112,4767,7441,4671,4912
team0_TOTALGOLD,2500,2500,2953,4351,6238,7302,8723,10059,11959,13483,15174,16814,18961,20841,23229,24483,26525,28986,29991,31643,33969,35016,36764,38135,40383,42255,44608,46068,49282,52534,56160,57682,59166,61090,63193,65539,68130,69043,71848,74522,77122,79037
team0_LEVEL,5,5,6,13,17,20,23,26,28,32,33,37,38,39,44,44,47,49,51,52,55,55,59,59,60,63,64,65,69,74,74,75,77,79,80,80,83,84,85,88,88,89
team0_SBIRES,0,0,12,35,61,79,105,134,160,173,199,228,249,261,288,313,337,367,379,402,413,426,449,469,488,504,531,553,562,590,600,613,621,647,659,662,679,683,700,731,732,743
team1_KILLS,0,0,0,0,1,1,1,2,3,3,4,6,7,7,7,10,10,11,13,13,15,15,15,15,15,16,16,16,16,16,18,19,21,21,23,23,26,26,26,26,29,29
team1_CURRENTGOLD,2500,0,433,1934,2203,3053,4768,4968,2794,2191,2250,3973,2602,3126,2570,2905,3064,3989,3543,1502,2400,4121,4026,5396,3594,3991,2202,3640,1621,2819,4696,4999,4850,3519,3433,2656,4796,2799,5169,2487,5283,977
team1_TOTALGOLD,2500,2500,2933,4444,6063,7448,9173,10973,12399,14106,15765,18163,20077,21401,22631,24915,26909,28709,31821,32770,35018,37114,38519,39889,40877,42774,44559,45997,47011,48286,51112,52865,55616,57032,59163,60802,64165,65343,67715,68831,71627,72135
team1_LEVEL,5,5,6,13,18,20,26,27,29,32,35,38,41,41,44,45,49,50,52,54,56,57,59,60,61,63,64,66,68,68,69,71,73,75,76,77,79,80,81,83,84,84
team1_SBIRES,0,0,12,37,57,88,124,151,168,203,215,239,274,300,315,330,362,379,414,426,453,479,511,528,539,570,589,618,632,634,659,684,700,729,749,779,798,813,821,841,856,856
delta_KILLS,0,0,0,0,0,0,0,-1,-1,0,-1,-3,-3,-2,-1,-4,-3,-2,-4,-3,-2,-2,-1,-1,0,0,1,1,5,5,7,7,6,7,7,9,9,9,12,13,14,15
delta_CURRENTGOLD,0,0,20,-93,1125,104,-1350,-2179,1820,1797,1169,-1389,1279,446,3379,548,331,1867,-1756,1936,1814,-2370,-1662,-2125,1924,-271,2523,1553,6788,-1634,-123,-1075,556,2763,1114,645,1096,-687,-402,4954,-612,3935
delta_TOTALGOLD,0,0,20,-93,175,-146,-450,-914,-440,-623,-591,-1349,-1116,-560,598,-432,-384,277,-1830,-1127,-1049,-2098,-1755,-1754,-494,-519,49,71,2271,4248,5048,4817,3550,4058,4030,4737,3965,3700,4133,5691,5495,6902
delta_LEVEL,0,0,0,0,-1,0,-3,-1,-1,0,-2,-1,-3,-2,0,-1,-2,-1,-1,-2,-1,-2,0,-1,-1,0,0,-1,1,6,5,4,4,4,4,3,4,4,4,5,4,5
delta_SBIRES,0,0,0,-2,4,-9,-19,-17,-8,-30,-16,-11,-25,-39,-27,-17,-25,-12,-35,-24,-40,-53,-62,-59,-51,-66,-58,-65,-70,-44,-59,-71,-79,-82,-90,-117,-119,-130,-121,-110,-124,-113
