name,frame_0,frame_1,frame_2,frame_3,frame_4,frame_5,frame_6,frame_7,frame_8,frame_9,frame_10,frame_11,frame_12,frame_13,frame_14,frame_15,frame_16,frame_17,frame_18,frame_19,frame_20,frame_21,frame_22,frame_23,frame_24,frame_25,frame_26,frame_27,frame_28,frame_29,frame_30,frame_31,frame_32,frame_33,frame_34,frame_35,frame_36,frame_37,frame_38
nameStamp,Tstart,Tearly,Tearly,Tearly,Tearly,Tearly,Tearly,Tearly,Tearly,Tearly,Tearly,Tearly,Tearly,Tearly,Tearly,Tearly,Tmid,Tmid,Tmid,Tmid,Tmid,Tmid,Tmid,Tmid,Tmid,Tmid,Tmid,Tmid,Tmid,Tend,Tend,Tend,Tend,Tend,Tend,Tend,Tend,Tend,Tend
timestamp,0,60017,120018,180042,240072,300105,360113,420150,480180,540196,600224,660225,720244,780255,840286,900287,960292,1020320,1080343,1140354,1200375,1260384,1320385,1380393,1440411,1500442,1560470,1620479,1680500,1740511,1800537,1860566,1920567,1980591,2040609,2100616,2160641,2220650,2280662
participant_0_GOLD,500,500,583,804,1095,1392,1515,1913,2223,2493,2699,3064,3277,3561,3795,4022,4340,4898,5449,5655,6192,6539,7031,7511,8993,9472,10225,10667,11189,12298,13748,14706,15171,15559,15732,16014,16136,16651,17371
participant_0_CURRENTGOLD,500,0,83,304,595,892,115,513,823,1093,324,689,102,386,620,47,365,923,1474,1680,417,764,56,536,2018,2497,3250,627,25,1134,2583,3541,1307,1695,1247,1530,1652,267,987
participant_0_LEVEL,1,1,1,2,4,5,5,6,6,7,8,8,8,9,9,9,10,10,11,11,11,12,12,13,13,14,15,15,16,16,17,17,18,18,18,18,18,18,18
participant_0_MINIONSKILLED,0,0,3,9,18,25,25,38,46,54,59,59,64,74,81,87,96,98,113,118,118,132,132,144,144,158,165,165,166,177,189,190,195,203,203,203,203,206,211
participant_0_KILLS,0,0,0,0,0,0,0,0,0,0,0,0,0,0,0,0,0,1,1,1,2,2,3,3,5,5,5,6,6,8,10,12,12,12,12,12,12,12,13
participant_0_BUY,[],"[1054, 2003, 3340]",[],[],[],[],"[3067, 2003, 2003]",[],[],[],"[1042, 1042, 1001, 2055]",[],[3047],[],[],[3051],[],[],[],[],"[6631, 1028]",[],"[1031, 3066]",[],[],[],[],"[3742, 3044, 1037]",[3053],[],[],[],[6609],[],[3076],[],[],[3075],[]
participant_0_SOLD,[],[],[],[2003],[],[],[],[],[2003],[2003],[],[],[1001],[],[],[1042],[],[],[],[2055],"[3051, 3067]",[],[1028],[],[],[],[],"[3066, 1031, 1042]","[1037, 3044]",[],[],[],[],[],[1054],[],[],[3076],[]
participant_0_UNDO,[],[],[],[],[],[],[],[],[],[],[],[],[],[],[],[],[],[],[],[],[],[],[],[],[],[],[],[],[],[],[],[],[],[],[],[],[],[],[]
participant_1_GOLD,500,500,620,1075,1380,1502,1709,2022,2294,2427,2974,3096,3229,3561,3974,4201,4578,4907,5254,5522,6123,6458,6631,6864,7392,8229,8920,9418,9890,10306,10664,11334,11683,11951,12123,12591,12713,13445,14031
participant_1_CURRENTGOLD,500,0,120,575,880,52,259,422,694,477,724,846,179,511,924,251,628,957,279,547,248,583,456,689,117,954,145,643,515,931,1290,560,558,826,309,776,899,1631,617
participant_1_LEVEL,1,1,2,3,4,4,4,5,5,5,6,6,6,7,8,8,9,9,9,10,10,10,11,11,12,13,13,14,14,15,15,15,16,16,16,16,16,17,18
participant_1_MINIONSKILLED,0,0,0,0,0,0,0,0,0,1,1,1,1,1,1,7,7,12,12,14,15,21,21,23,23,25,26,33,33,33,33,35,35,39,39,44,44,44,49
participant_1_KILLS,0,0,0,0,0,0,0,0,1,1,1,1,1,1,1,1,2,2,2,2,2,2,2,2,2,3,3,3,4,4,4,5,5,5,5,5,5,5,5
participant_1_BUY,[],"[3850, 2003, 2003]",[],[],[],[1028],[],[],[],"[1052, 1004, 1001]",[],[],[],[],"[4642, 3067]",[],[3364],[],[4005],[],[3158],[],[],"[1026, 1004]",[],[],[6616],[],[],"[1026, 1004]",[],[3504],[],[],[],[3114],[],[],[3222]
participant_1_SOLD,[],[],[],[],[],[],[],[2010],"[2010, 2003]",[2003],[],[],[],[],"[1004, 1052, 1028]",[2010],"[3850, 3340]",[],"[3067, 4642]",[],[1001],[],[],[],[],[],"[3851, 1004, 1026]",[],[],[],[],"[1004, 1026]",[],[],[],[],[],[],[3114]
participant_1_UNDO,[],[],[],[],[],[],[],[],[],[],[],[],[],[],[],[],[],[],[],[],[],[],[],[],[],[],[],[],[],[],[],[],[],[],[],[],[],[],[]
participant_2_GOLD,500,500,597,1132,1346,1706,1976,2482,2863,3149,3589,4368,4669,5002,5933,6203,7279,7650,8012,8509,8816,9043,10520,10706,10941,12138,12332,12923,14312,14809,15378,15899,16119,16803,17570,17846,18494,19126,19555
participant_2_CURRENTGOLD,500,0,97,632,846,1196,246,222,593,869,1309,2078,269,602,288,558,1634,755,502,999,606,183,760,156,391,789,132,723,13,510,1079,1599,1820,2503,221,497,645,1277,1706
participant_2_LEVEL,1,1,1,3,4,5,6,7,7,8,8,9,9,10,11,11,12,12,12,13,13,13,14,14,14,15,15,15,16,16,17,17,17,18,18,18,18,18,18
participant_2_MINIONSKILLED,0,0,4,11,16,28,37,42,51,57,67,76,84,96,107,112,126,132,133,142,144,150,157,161,165,165,166,180,183,183,194,198,204,214,221,223,223,228,230
participant_2_KILLS,0,0,0,0,0,0,0,0,0,0,0,0,0,0,0,0,0,0,0,0,0,1,1,1,1,1,1,1,1,2,2,2,3,5,7,7,10,10,13
participant_2_BUY,[],"[1055, 2003]",[],[],[],[],[6670],[],[],[1001],[],[],[1037],[],[6672],[],[1029],[],"[3047, 1036]",[],[],[],"[1038, 1053, 1018]",[],[3072],"[1042, 1042]",[],[1037],[],[],[3086],[],"[3085, 3086]",[],[],"[3046, 1038]",[],[3031],[]
participant_2_SOLD,[],[],[],[],[],[2003],[],[],[],[],[],[],[],[],"[6670, 1037]",[],[],[],"[1001, 1029]",[],[],[],[1036],[],"[1038, 1018, 1053]",[],[],[],[],[],[1042],[],"[1037, 3086]",[],[],"[3086, 1055]",[],[1038],[]
participant_2_UNDO,[],[],[],[],[],[],[],[],[],[],[],[],[],[],[],[],[],[],[],[],[],[],[],[],[],"[[0, 1042]]",[],[],[],[],[],[],[],[],[],[],[],[],[]
participant_3_GOLD,500,500,562,818,1204,1522,1806,2005,2429,2643,3019,3301,3564,3833,4256,4472,4745,4937,5514,5800,6354,7876,8180,8330,8774,9084,9586,9709,10437,11258,11593,13095,13517,14325,15492,15725,16997,17795,19015
participant_3_CURRENTGOLD,500,0,62,318,704,1022,6,205,629,543,919,1201,589,858,56,272,245,437,164,450,1004,2526,380,530,374,384,887,134,862,1684,1118,2621,518,1325,2492,106,1378,75,1296
participant_3_LEVEL,1,1,1,2,3,4,4,5,5,6,6,7,7,7,8,8,8,9,9,9,10,11,11,11,12,12,13,13,14,15,15,16,16,17,17,17,18,18,18
participant_3_MINIONSKILLED,0,0,2,9,22,30,40,45,60,65,77,83,88,97,103,109,109,113,119,121,138,152,163,165,166,173,180,180,189,197,203,223,223,223,233,233,233,233,237
participant_3_KILLS,0,0,0,0,0,0,0,0,0,0,1,1,1,1,1,1,1,1,1,1,2,2,2,2,3,4,5,5,5,5,5,5,5,5,5,5,5,5,6
participant_3_BUY,[],"[2031, 1035]",[],[],[],"[1036, 1037, 2055]",[],"[2055, 2055]",[],[1036],[1042],[],"[6670, 2055, 2055]",[],[],"[1018, 1042]",[],[],"[6672, 2015]",[],"[1018, 1042]",[],[3086],[],"[3094, 1042]",[],"[3006, 2015]",[],[1018],[],[],[3095],[1036],[],"[3123, 1042]",[],[],[],[3033]
participant_3_SOLD,[],[],[],[],[],[],[2055],[],[],[2055],"[1035, 2055]",[],"[1036, 1042]",[],[],[2031],[],[2055],"[6670, 1018, 1037, 1042]",[2055],[2031],[],"[1018, 1042]",[],"[3086, 2015]",[],[1042],[],[],[2031],[],"[1018, 2015]",[2031],[],"[1036, 2031]",[],[],[],"[3123, 1042]"
participant_3_UNDO,[],[],[],[],[],"[[0, 1036]]",[],[],[],[],[],[],[],[],[],"[[2031, 0]]",[],[],[],[],"[[2031, 0]]",[],[],[],[],[],[],[],[],"[[2031, 0]]",[],[],"[[2031, 0]]",[],[],[],[],[],[]
participant_4_GOLD,500,500,543,698,873,1007,1142,1296,1830,1965,2099,2254,2402,2576,2772,2946,3445,3660,3901,4081,4222,4572,5167,5376,5566,6191,6597,6812,7653,7793,8053,8829,8969,9310,9830,10020,10535,11026,11386
participant_4_CURRENTGOLD,500,0,43,198,373,107,242,396,930,100,234,389,537,711,142,316,815,1030,421,601,142,492,1087,196,386,1011,217,432,1273,313,573,149,289,630,1150,540,1056,1546,406
participant_4_LEVEL,1,1,1,1,3,3,4,4,5,5,6,6,7,7,7,8,8,8,8,8,9,10,11,11,11,12,12,13,14,14,14,15,15,15,16,16,17,17,18
participant_4_MINIONSKILLED,0,0,1,1,1,1,1,1,1,1,1,1,2,2,3,3,3,3,3,3,3,3,5,5,5,5,5,5,5,5,5,5,5,5,6,6,6,6,8
participant_4_KILLS,0,0,0,1,1,1,1,2,2,2,2,3,3,3,4,4,5,5,5,6,6,6,9,9,9,11,11,11,13,14,14,14,14,15,16,16,17,17,17
participant_4_BUY,[],"[1056, 2003, 2003, 3340]",[],[],[],[],"[1052, 1052, 1027]","[3802, 1001, 2055, 2055]",[],[],[],[],[6655],[],"[3020, 1052]",[],[],[1058],[3145],[],[4628],[2420],[3191],"[3108, 3157]",[],[3916],[1026],[],"[3165, 1058]",[],[],[],[],[],"[3089, 2139]",[],[2139],[],[]
participant_4_SOLD,[],[],[],[2003],[2003],[],[],"[1052, 1027, 1052]",[],[],[2055],[],[3802],[],[1001],[2055],[],[],[1052],[],"[1058, 3145]",[],[2420],"[1056, 3191, 3108, 2421]",[],[],[],[],"[1026, 3916]",[],[],[],[],[],"[1058, 2139]",[],[2139],[],[]
participant_4_UNDO,[],[],[],[],[],[],[],[],[],[],[],[],[],[],[],[],[],[],[],[],[],[],[],[],[],[],[],[],[],[],[],[],[],[],[],[],[],[],[]
participant_5_GOLD,500,500,576,867,1113,1584,2004,2287,2584,3469,3773,4175,4633,4923,5447,6095,6393,6747,7117,7526,7769,8288,8499,9258,9645,9817,10013,10507,10630,11082,11205,11328,12227,12483,12606,13615,13772,14070,14192
participant_5_CURRENTGOLD,500,0,76,367,613,1084,254,537,834,1719,448,850,1308,1598,1422,580,78,432,802,1211,384,903,165,923,460,233,428,923,170,197,321,143,1043,449,571,1581,988,1286,208
participant_5_LEVEL,1,1,1,3,4,5,6,7,7,8,8,9,10,10,11,11,12,12,13,13,13,14,14,14,15,15,15,15,15,16,16,16,17,17,17,18,18,18,18
participant_5_MINIONSKILLED,0,0,3,13,17,20,32,42,52,60,61,77,87,97,107,113,120,127,139,146,150,165,166,168,179,179,179,184,184,191,191,191,201,205,205,215,217,218,218
participant_5_KILLS,0,0,0,0,1,1,2,2,3,3,3,6,6,6,6,6,7,7,8,8,9,9,9,10,12,12,12,13,13,13,13,14,14,15,15,15,15,15,15
participant_5_BUY,[],"[1055, 2003, 3340]",[],[],[],"[3134, 1036, 2003, 2055]",[],[],[],[6691],[],[],"[3006, 3134]",[],[],[],"[3181, 1036]",[],[],[3134],[],[6676],[],[1033],[3140],[1018],[3139],[],[1018],[],[3086],[],[3094],[],[],[3033],[],[],[6692]
participant_5_SOLD,[],[],[],[],[],[2003],[2055],[],[],"[3134, 1036]",[2003],[],[],[],[],[],[3134],[],[],[1036],[],[3134],[],[],"[1033, 1055]",[],"[3140, 1018]",[],[],[],[1018],[],[3086],[],[3006],[3006],[],[6691],[6691]
participant_5_UNDO,[],[],[],[],[],[],[],[],[],[],[],[],[],[],[],[],[],[],[],[],[],[],[],[],[],[],[],[],[],[],[],[],[],[],"[[3006, 0]]",[],[],"[[6691, 0]]",[]
participant_6_GOLD,500,500,605,963,1291,1660,2088,2358,2635,3456,3721,4062,4382,4829,4981,5368,5721,6164,6601,6954,7202,7725,8588,8755,9544,9767,10221,10721,10997,11119,11622,12104,12530,13077,13200,13544,14386,14614,14863
participant_6_CURRENTGOLD,500,0,105,463,441,810,1238,1508,210,1031,1296,1637,1957,2404,6,393,746,1189,1626,1979,37,560,23,190,979,327,781,1282,407,530,1033,789,1216,513,236,580,172,400,349
participant_6_LEVEL,1,1,2,3,3,4,5,5,6,7,7,8,8,9,9,10,10,10,11,12,12,12,13,13,14,14,14,15,15,15,16,16,17,17,17,17,18,18,18
participant_6_MINIONSKILLED,0,0,0,0,0,0,0,2,2,5,8,9,9,9,10,10,12,12,12,12,12,12,12,12,14,14,21,25,30,30,37,39,40,40,40,44,44,45,53
participant_6_KILLS,0,0,0,0,0,0,0,0,0,1,1,1,1,1,1,1,1,1,1,1,1,1,3,3,4,4,4,4,4,4,4,4,4,5,5,5,6,6,6
participant_6_BUY,[],"[1035, 2031]",[],[],[1036],[],[],[],"[6029, 1001, 2055]",[],[],[],[],[],"[6630, 3047]",[3364],[],[],[],[],"[3133, 3067, 1036]",[],"[3071, 1036]",[],[],[1037],[],[],"[3044, 1028]",[],[],[3053],[],[3211],[1028],[],[3065],[],[1029]
participant_6_SOLD,[],[],[],[],[],[],[],[],[],"[1035, 2055]",[],[],[],[],"[6029, 1036, 1001]",[3340],[],[],[],[],[2031],[],"[3133, 3067, 1036]",[],[],[],[],[],[1036],[],[],"[1037, 3044, 1028]",[],[],[],[],"[3211, 1028]",[],[]
participant_6_UNDO,[],[],[],[],[],[],[],[],[],[],[],[],[],[],[],[],[],[],[],[],[],[],[],[],[],[],[],[],[],[],[],[],[],[],[],[],[],[],[]
participant_7_GOLD,500,500,576,741,983,1238,1751,1929,2302,2669,2903,3026,3268,3467,3618,3993,4334,4659,4812,4990,5363,5604,5810,5982,6449,6782,6904,7152,7555,7997,8211,9137,9572,10022,10269,10724,11006,11435,11884
participant_7_CURRENTGOLD,500,0,76,241,483,293,506,334,697,64,298,121,353,552,403,778,244,569,122,300,673,289,495,667,284,616,24,272,675,242,455,357,392,842,89,544,826,455,904
participant_7_LEVEL,1,1,1,2,4,5,6,6,7,7,8,8,8,9,9,9,10,10,10,10,11,11,11,11,12,13,13,13,13,13,14,15,15,15,16,16,16,17,17
participant_7_MINIONSKILLED,0,0,3,5,12,17,21,24,35,40,47,47,51,56,58,66,76,80,81,84,94,97,102,105,105,110,110,117,124,124,125,126,136,147,150,156,161,171,175
participant_7_KILLS,0,0,0,0,0,0,1,1,1,1,1,1,1,1,1,1,1,1,1,1,1,1,1,1,2,2,2,2,2,3,3,5,5,5,5,5,5,5,5
participant_7_BUY,[],"[1036, 2003, 2003, 2003, 3340]",[],[],[],[1052],[1001],[1036],[],[1043],[],[1042],[],[],[6670],[],[1037],[],[1018],[],[],[6672],[],[],[1026],[],[3115],[],[],[1037],[],"[3077, 1036, 1036]",[3133],[],[3074],[],[],[3020],[]
participant_7_SOLD,[],[],[],[2003],"[2003, 2003]",[],[],[],[],[],[],[],[],[],"[1036, 1042, 1036]",[],[],[],[],[],[],"[6670, 1018, 1037]",[],[],[],[],"[1043, 1026, 1052]",[],[],[],[],[1037],"[1036, 1036]",[],"[3077, 3133]",[],[],[1001],[]
participant_7_UNDO,[],[],[],[],[],[],[],[],[],[],[],[],[],[],[],[],[],[],[],[],[],[],[],[],[],[],[],[],[],[],[],[],[],[],[],[],[],[],[]
participant_8_GOLD,500,500,597,1115,1624,2101,2815,3148,3825,4096,4379,5857,6084,6516,7155,7737,8485,8762,9579,9938,10918,11082,11392,12186,13458,13730,13853,14511,14634,14756,14942,15981,16489,17841,18054,18427,18549,19048,19302
participant_8_CURRENTGOLD,500,0,97,615,1124,26,740,1073,1749,271,554,2032,59,490,1130,1712,210,487,1304,914,1893,157,468,811,1414,1086,208,867,389,512,98,1136,145,1497,1710,153,275,774,68
participant_8_LEVEL,1,1,1,2,3,4,4,5,5,6,6,7,8,8,9,9,9,10,10,11,12,12,12,13,14,14,14,14,14,14,14,15,15,16,16,16,16,17,17
participant_8_MINIONSKILLED,0,0,4,17,23,34,44,56,62,67,76,88,94,109,121,128,132,133,141,145,154,157,164,166,175,175,175,175,175,175,179,184,190,194,195,206,206,219,222
participant_8_KILLS,0,0,0,1,1,1,1,1,1,1,1,1,1,1,1,2,2,2,4,4,6,6,6,6,6,7,8,8,8,8,8,8,8,8,8,9,9,9,9
participant_8_BUY,[],"[3854, 3340, 2003, 2003]",[],[],[],"[3134, 2003]",[],[],[],"[1001, 1036, 2055, 2055, 2003, 2003, 3364]",[],[],"[3117, 1036, 2055]",[],[],[],[6692],[1036],"[2055, 2055]","[3134, 1036, 2055]",[],"[3133, 2055]",[3179],[],"[1036, 2055]",[],[3133],[],[3067],[],[],[],[3071],[1036],[],[],[3123],[],[]
participant_8_SOLD,[],[],[],[],[],[2003],[],[2003],[2003],"[3340, 2055]",[3854],"[2003, 2003]","[2055, 1001]",[],[],[2055],"[3134, 1036, 1036]",[],[2055],"[3855, 1036, 2055]",[],[1036],"[3134, 3133]",[2055],[],[],[1036],"[2055, 2055]",[],[],[],[],"[3133, 3067]",[],[],[],[1036],[],[]
participant_8_UNDO,[],[],[],[],[],[],[],[],[],[],[],[],[],[],[],[],[],[],[],[],[],[],[],[],[],[],[],[],[],[],[],[],[],[],[],[],[],[],[]
participant_9_GOLD,500,500,543,1172,1465,1703,2088,2257,2618,2752,2909,3669,3810,3999,4241,4982,5364,5652,6845,7069,7919,8081,8486,8627,9117,9587,10016,10304,10445,10845,11429,11569,11833,12021,12172,12698,12859,13249,13411
participant_9_CURRENTGOLD,500,0,43,672,965,53,438,607,968,202,359,1119,135,324,566,1307,289,227,1270,319,1170,506,311,452,517,988,666,955,295,695,1279,1419,283,122,272,798,509,900,1061
participant_9_LEVEL,1,1,1,2,3,4,4,5,5,6,6,7,7,7,7,8,8,8,9,9,11,11,11,11,12,12,13,13,13,13,14,14,15,15,15,15,16,16,16
participant_9_MINIONSKILLED,0,0,1,3,4,6,8,10,11,11,12,15,15,18,19,21,23,24,27,32,35,36,36,36,37,38,39,45,45,46,64,64,69,75,76,77,78,90,91
participant_9_KILLS,0,0,0,0,0,1,1,1,1,2,2,2,2,2,2,3,3,3,3,3,3,3,3,4,4,4,4,4,4,4,4,4,5,5,5,6,6,6,6
participant_9_BUY,[],"[1055, 2003, 3340]",[],[],[],[],"[3044, 2031]",[],[],[],"[3057, 3067, 2055]",[],[],[],[6632],"[3363, 3077, 1036]",[3111],[],[],[],"[1053, 1036, 1036]",[],"[3074, 1033]",[],[3140],[1028],[],[],[1037],[6035],[],[1029],[],"[1031, 1036]",[],[],[3133],[],[6333]
participant_9_SOLD,[],[],[],[2010],[2003],[2010],[],[],[2010],[],[],[],[],[],"[3044, 3057, 3067]","[3340, 2031]",[2422],[],[2055],[],"[1036, 1055]",[],"[3077, 1053, 1036, 1036]",[],[1033],[],[],[],[],"[3140, 1037, 1028]",[],[],[],[1029],[],[],[1036],[],"[1031, 3133]"
participant_9_UNDO,[],[],[],[],[],[],[],[],[],[],[],[],[],[],[],[],[],[],[],[],[],[],[],[],[],[],[],[],[],[],[],[],[],[],[],[],[],[],[]
team0_KILLS,0,0,0,1,1,1,1,2,3,3,4,5,5,5,6,6,8,9,9,10,12,13,17,17,20,24,25,26,29,33,35,38,39,42,45,45,49,49,54
team0_CURRENTGOLD,2500,0,405,2027,3398,3269,868,1758,3669,3082,3510,5203,1676,3068,2030,1444,3687,4102,2840,4277,2417,4548,2739,2107,3286,5635,4631,2559,2688,4572,6643,8470,4492,6979,5419,3449,5630,4796,5012
team0_TOTALGOLD,2500,2500,2905,4527,5898,7129,8148,9718,11639,12677,14380,16083,17141,18533,20730,21844,24387,26052,28130,29567,31707,34488,37529,38787,41666,45114,47660,49529,53481,56464,59436,63863,65459,67948,70747,72196,74875,78043,81358
team0_LEVEL,5,5,6,11,18,21,23,27,28,31,34,36,37,40,43,44,47,48,49,51,53,56,59,60,62,66,68,70,74,76,78,80,82,84,85,85,87,88,90
team0_SBIRES,0,0,10,30,57,84,103,126,158,178,205,220,239,270,295,318,341,358,380,398,418,458,478,498,503,526,542,563,576,595,624,651,662,684,702,709,709,717,735
team1_KILLS,0,0,0,1,2,3,5,5,6,8,8,11,11,11,11,13,14,14,17,17,20,20,22,24,28,29,30,31,31,32,32,35,36,38,38,40,41,41,41
team1_CURRENTGOLD,2500,0,397,2358,3626,2266,3176,4059,4458,3287,2955,5759,3812,5368,3527,4770,1567,2904,5124,4723,4157,2415,1462,3043,3654,3250,2107,4299,1936,2176,3186,3844,3079,3423,2878,3656,2770,3815,2590
team1_TOTALGOLD,2500,2500,2897,4858,6476,8286,10746,11979,13964,16442,17685,20789,22177,23734,25442,28175,30297,31984,34954,36477,39171,40780,42775,44808,48213,49683,51007,53195,54261,55799,57409,60119,62651,65444,66301,69008,70572,72416,73652
team1_LEVEL,5,5,6,12,17,22,25,28,30,34,35,39,41,43,45,47,49,50,53,55,59,60,61,62,67,68,69,70,70,71,74,76,79,80,81,82,84,86,86
team1_SBIRES,0,0,11,38,56,77,105,134,162,183,204,236,256,289,315,338,363,376,400,419,445,467,480,487,510,516,524,546,558,566,596,604,636,661,666,698,706,743,759
delta_KILLS,0,0,0,0,-1,-2,-4,-3,-3,-5,-4,-6,-6,-6,-5,-7,-6,-5,-8,-7,-8,-7,-5,-7,-8,-5,-5,-5,-2,1,3,3,3,4,7,5,8,8,13
delta_CURRENTGOLD,0,0,8,-331,-228,1003,-2308,-2301,-789,-205,555,-556,-2136,-2300,-1497,-3326,2120,1198,-2284,-446,-1740,2133,1277,-936,-368,2385,2524,-1740,752,2396,3457,4626,1413,3556,2541,-207,2860,981,2422
delta_TOTALGOLD,0,0,8,-331,-578,-1157,-2598,-2261,-2325,-3765,-3305,-4706,-5036,-5201,-4712,-6331,-5910,-5932,-6824,-6910,-7464,-6292,-5246,-6021,-6547,-4569,-3347,-3666,-780,665,2027,3744,2808,2504,4446,3188,4303,5627,7706
delta_LEVEL,0,0,0,-1,1,-1,-2,-1,-2,-3,-1,-3,-4,-3,-2,-3,-2,-2,-4,-4,-6,-4,-2,-2,-5,-2,-1,0,4,5,4,4,3,4,4,3,3,2,4
delta_SBIRES,0,0,-1,-8,1,7,-2,-8,-4,-5,1,-16,-17,-19,-20,-20,-22,-18,-20,-21,-27,-9,-2,11,-7,10,18,17,18,29,28,47,26,23,36,11,3,-26,-24
