name,team0,team1
win,Win,Fail
firstBlood,True,False
firstTower,True,False
firstInhibitor,True,False
firstBaron,False,True
firstDragon,True,False
firstRiftHerald,True,False
towerKills,11,0
inhibitorKills,2,0
baronKills,1,1
dragonKills,4,0
riftHeraldKills,2,0
