name,frame_0,frame_1,frame_2,frame_3,frame_4,frame_5,frame_6,frame_7,frame_8,frame_9,frame_10,frame_11,frame_12,frame_13,frame_14,frame_15,frame_16,frame_17,frame_18,frame_19,frame_20,frame_21,frame_22,frame_23,frame_24,frame_25,frame_26,frame_27,frame_28,frame_29,frame_30,frame_31,frame_32,frame_33
nameStamp,Tstart,Tearly,Tearly,Tearly,Tearly,Tearly,Tearly,Tearly,Tearly,Tearly,Tearly,Tearly,Tearly,Tearly,Tearly,Tearly,Tmid,Tmid,Tmid,Tmid,Tmid,Tmid,Tmid,Tmid,Tmid,Tend,Tend,Tend,Tend,Tend,Tend,Tend,Tend,Tend
timestamp,0,60021,120051,180079,240093,300118,360139,420164,480180,540204,600230,660263,720281,780306,840326,900351,960369,1020399,1080422,1140450,1200479,1260510,1320533,1380553,1440576,1500600,1560623,1620626,1680652,1740672,1800699,1860729,1920744,1980744
participant_0_GOLD,500,500,563,797,1349,1733,1975,2317,2648,3011,3293,3458,4508,4714,5625,6488,6611,6733,7054,7486,7608,7886,8205,8409,8651,9142,9278,9684,9987,11207,11580,12079,12368,12570
participant_0_CURRENTGOLD,500,0,63,297,849,173,415,757,1088,1451,883,133,1183,214,1125,1988,611,363,684,1116,448,726,1045,499,441,932,1069,1474,977,2198,2570,170,459,510
participant_0_LEVEL,1,1,1,3,4,5,5,6,7,8,8,8,9,9,10,11,11,11,11,11,11,12,12,12,13,13,13,14,14,15,15,16,16,16
participant_0_MINIONSKILLED,0,0,2,8,9,16,23,33,42,53,53,56,69,74,80,88,88,88,88,97,97,101,106,106,113,126,127,130,137,148,156,161,161,161
participant_0_KILLS,0,0,0,0,0,0,0,0,0,0,0,0,0,0,1,1,2,2,2,2,2,4,6,6,6,6,6,6,6,6,6,6,6,7
participant_0_BUY,[],"[2003, 3340, 1055]",[],[],[],[],[],"[1038, 2003, 2055]",[],[],[],[],[3133],"[3508, 2031]",[],[3006],[],[],"[1038, 3363]",[],[],[],"[3031, 1042]",[],[1042],[],[],"[3086, 3085]",[],[],[1042],[1018],[],[3046]
participant_0_SOLD,[],[],[],[],[],[],[2003],[],[],[2003],[],[2055],[],"[1038, 3133]",[],[2422],[],[],"[2031, 3340]",[],[],[],[1038],[],[],[],[],"[1042, 1055, 1042, 3086]",[],[],[],[],[],"[1042, 1018]"
participant_0_UNDO,[],[],[],[],[],[],[],[],[],[],[],[],[],[],[],[],[],[],[],[],[],[],[],[],[],[],[],[],[],[],[],[],[],[]
participant_1_GOLD,500,500,521,948,1758,2200,2450,2707,3112,3555,3971,4302,4525,5287,5589,5961,6293,6416,7067,7275,7617,8394,8951,9558,10292,10520,10837,11584,12099,12671,13197,13762,14364,14654
participant_1_CURRENTGOLD,500,0,21,448,1258,50,300,557,962,1405,1821,52,275,1037,239,611,943,66,717,925,167,944,1501,108,842,1070,1388,1095,509,1081,1607,623,1225,1454
participant_1_LEVEL,1,1,1,3,3,4,5,5,6,6,6,7,7,8,8,9,9,9,10,10,11,11,12,12,13,13,13,14,14,15,15,16,16,16
participant_1_MINIONSKILLED,0,0,0,0,0,0,0,1,1,1,4,8,8,8,9,10,10,10,10,10,11,14,21,21,24,25,32,33,41,41,44,47,57,57
participant_1_KILLS,0,0,0,0,1,2,2,2,2,3,3,3,3,4,4,4,4,4,5,5,5,5,5,5,6,6,6,8,8,9,10,10,10,10
participant_1_BUY,[],"[1041, 2031, 3340]",[],[],[],"[3715, 1036, 1036, 1001]",[],[],[],[],[],"[1412, 3134, 2055]",[],[],[3133],[],[],"[3142, 1029]",[],[],"[3047, 1042, 1042]",[],[],[3046],[],[],[],[3133],[3105],[],[],"[3812, 2055, 2055, 3364]",[],[]
participant_1_SOLD,[],[],[],[],[],[1041],[],[],[],[],[],"[1036, 1036, 3715]",[3340],[3513],[],[2055],[],"[3133, 3134]",[],[3340],"[1001, 1029]",[3513],[],"[1042, 1042]",[],[],[],[2031],[],[],[],"[3105, 3133, 3340]",[],[]
participant_1_UNDO,[],[],[],[],[],[],[],[],[],[],[],[],[],[],[],[],[],[],[],[],[],[],[],[],[],[],[],[],[],[],[],[],[],[]
participant_2_GOLD,500,500,584,818,1509,1764,2040,2197,2619,2940,3509,3716,4006,4787,5022,5917,6155,6277,6731,7122,7469,8221,8729,8985,9136,9258,9380,9847,10300,10726,10949,11610,12517,13052
participant_2_CURRENTGOLD,500,0,84,318,1009,94,370,97,519,840,1409,256,546,1327,437,117,355,477,81,472,819,71,579,185,336,458,581,147,600,1027,1249,561,1467,2002
participant_2_LEVEL,1,1,1,2,4,4,5,6,7,7,8,9,9,10,10,11,11,11,11,11,12,12,12,13,13,13,13,13,14,14,14,15,15,15
participant_2_MINIONSKILLED,0,0,3,9,18,23,30,32,46,55,64,69,79,90,97,109,111,111,116,128,135,135,142,147,149,149,149,149,151,153,153,161,170,175
participant_2_KILLS,0,0,0,0,1,1,1,1,1,1,1,1,2,2,4,5,5,5,5,5,5,5,5,5,5,5,5,5,5,7,7,7,7,7
participant_2_BUY,[],"[1054, 2003, 3340]",[],[],[],"[1052, 1028, 2031, 2055]",[],[],[],[],[1026],"[3116, 3116]",[],"[3047, 2055]",[],[],[3136],[1028],[],[],[1026],[],[],[3151],[1029],[],[],[],"[3105, 3105]",[],[],"[3812, 3067]",[],[]
participant_2_SOLD,[],[],[],[2003],[],[],[2055],[],[],[],[],"[2031, 1026, 1052, 1028, 1026, 1052, 1028]",[],[],[],[],[],[2055],[],[],[2031],[],[],"[3136, 1026]",[],[],[],[],"[1029, 1029]",[],[],"[3105, 1028]",[],[]
participant_2_UNDO,[],[],[],[],[],[],[],[],[],[],[],"[[0, 3116], [2031, 0]]",[],[],[],[],[],[],[],[],[],[],[],[],[],[],[],[],"[[0, 3105]]",[],[],[],[],[]
participant_3_GOLD,500,500,577,874,1190,1466,1750,1977,2287,2753,3017,3246,3622,4087,4635,5008,5722,6075,6324,6620,6827,7809,8858,9220,9694,10082,10535,10657,10984,11256,11463,12310,12933,13389
participant_3_CURRENTGOLD,500,0,77,374,690,966,1250,52,362,828,1092,1321,597,12,560,133,847,1200,209,505,712,1694,343,705,880,1267,1720,23,349,622,529,575,1199,-86
participant_3_LEVEL,1,1,1,2,3,4,4,5,5,6,6,7,7,7,8,8,9,9,9,10,10,11,11,11,12,12,12,12,13,13,13,14,14,14
participant_3_MINIONSKILLED,0,0,3,13,22,28,37,43,51,63,65,69,72,75,83,83,96,105,109,116,121,132,132,133,140,151,157,157,158,158,158,162,170,170
participant_3_KILLS,0,0,0,0,0,0,0,0,0,0,0,0,1,2,2,2,2,2,2,2,2,2,2,2,2,2,2,2,2,2,2,2,2,2
participant_3_BUY,[],"[3850, 2003, 2003, 3340]",[],[],[],[],[],[],[],[],"[1001, 1028, 1052, 3158]",[],[],"[3136, 1028, 2055, 3364, 2003, 2003]",[],[],[],[],[],[],"[3151, 2003, 2003]",[],[],[1026],[],[],[],[],[1052],[3116],[],[1026],[],[]
participant_3_SOLD,[],[],[],[],[],[],"[2003, 2003]",[],[],[],"[3850, 1001]",[],[],"[1028, 1052, 3340]",[],[2003],[2055],"[2003, 3851]",[],[],[3136],"[2003, 2003]",[],[],[],[],[],[],[],"[1026, 1052, 1028]",[],[],[],[]
participant_3_UNDO,[],[],[],[],[],[],[],[],[],[],[],[],[],[],[],[],[],[],[],[],[],[],[],[],[],[],[],[],[],[],[],[],[],[]
participant_4_GOLD,500,500,553,762,948,1142,1322,1501,1678,1993,2267,2497,3010,3576,3932,4407,4719,4895,5257,5427,5567,5908,6170,6382,6536,6676,6845,7189,7329,7620,7886,8385,8840,9138
participant_4_CURRENTGOLD,500,0,53,262,448,642,822,1001,1178,1493,32,262,775,101,457,932,1244,1420,1782,1952,393,733,996,357,511,652,820,1164,870,245,512,160,615,913
participant_4_LEVEL,1,1,1,2,3,4,4,5,6,6,6,7,7,8,8,9,9,9,10,10,10,11,11,11,11,11,12,12,12,12,13,13,14,14
participant_4_MINIONSKILLED,0,0,0,0,1,1,1,1,3,3,3,5,7,7,8,10,11,12,14,15,15,15,16,17,18,18,20,22,22,22,22,25,26,29
participant_4_KILLS,0,0,0,0,1,1,1,1,1,1,2,2,2,2,2,2,2,2,2,2,2,4,4,4,4,4,4,5,5,5,5,5,6,7
participant_4_BUY,[],"[3340, 1056, 2003, 2003]",[],[],[],"[1052, 1052, 2055, 1001]",[],[3802],[],[],[],"[1026, 1052, 2055]",[],[],"[3285, 2055, 3364]","[3020, 3113]",[],[],[1026],[],[],[3100],[],[2420],[],[],[],[3108],[],[],[],[3157],[],[]
participant_4_SOLD,[],[],[],[2003],[],[],[2003],"[1052, 1052]",[],[],[],[2055],[],[],"[3802, 1026, 3340]","[1001, 1052]",[2055],[],[],[],[],"[3113, 1026]",[],[],[],[],[],[2420],[],[],[],"[3108, 2421]",[],[]
participant_4_UNDO,[],[],[],[],[],"[[0, 2055]]",[],[],[],[],[],[],[],[],[],[],[],[],[],[],[],[],[],[],[],[],[],[],[],[],[],[],[],[]
participant_5_GOLD,500,500,542,818,1043,1485,1909,2216,2603,2859,3149,3573,3794,4533,5376,5498,5817,6568,6920,7115,7641,7764,7887,8547,9270,9392,9681,9874,10274,11047,11170,11466,11588,11782
participant_5_CURRENTGOLD,500,0,42,318,143,60,484,791,1178,34,324,748,169,908,801,123,442,1193,445,290,816,389,12,672,95,217,507,49,449,1223,95,392,514,247
participant_5_LEVEL,1,1,1,3,3,4,5,6,7,7,8,8,9,9,9,9,10,11,11,11,12,12,12,12,13,13,14,14,14,15,15,15,15,15
participant_5_MINIONSKILLED,0,0,1,10,14,14,28,36,48,53,62,76,78,87,87,87,95,99,109,112,127,127,127,128,141,141,146,146,154,159,159,165,165,165
participant_5_KILLS,0,0,0,0,0,0,0,0,0,0,0,0,0,0,0,0,0,0,0,0,0,0,0,0,0,0,0,0,0,0,0,0,0,0
participant_5_BUY,[],"[3858, 2003, 2003, 3340]",[],[],[],[],[],[],[],"[1001, 1029, 1028, 2031, 2055]",[],[],[3067],[],[],"[3105, 2055]",[],[],[1033],[],[],[3111],[],[1033],[1057],[],[],[2420],[],[],[],[],[],[]
participant_5_SOLD,[],[],[],[],[],[],"[2003, 2003, 2010, 2010]",[2010],[],[],[],[3858],[1028],[],[2055],[1029],[],[],"[2055, 2031]",[],[],"[1001, 1033]",[],[],[1033],[],[],[],[3859],[],[],[],[],[]
participant_5_UNDO,[],[],[],[],[],[],[],[],[],[],[],[],[],[],[],[],[],[],[],[],[],[],[],[],[],[],[],[],[],[],[],[],[],[]
participant_6_GOLD,500,500,621,1054,1177,1566,1774,1896,2393,2609,2936,3269,3489,3901,4024,4351,4744,4901,5289,5673,5795,5918,6059,6634,7167,7289,7412,7534,8100,8293,8415,8660,8825,8869
participant_6_CURRENTGOLD,500,0,121,554,27,416,624,96,593,809,311,644,339,751,124,451,844,1001,414,798,920,243,384,959,142,264,87,209,775,968,290,186,350,394
participant_6_LEVEL,1,1,2,3,3,4,4,4,5,6,6,7,7,8,8,9,9,10,10,11,11,11,11,12,12,13,13,13,14,14,14,14,14,14
participant_6_MINIONSKILLED,0,0,0,0,0,0,0,0,0,0,0,0,0,4,4,4,4,6,12,12,12,12,13,20,20,20,20,20,27,31,31,34,36,36
participant_6_KILLS,0,0,0,0,0,0,0,0,0,0,0,0,0,0,0,1,1,2,2,2,2,2,2,3,3,3,3,3,3,5,5,5,5,6
participant_6_BUY,[],"[1056, 3340, 2003, 2003]",[],[],[1052],[],[],"[3802, 2031, 2055]",[],[],[1026],[],[],[3285],[],[],[],"[3020, 1052, 1028]",[],[],[],"[3916, 3916, 1026]",[3165],[],[1058],[],[],[],[1058],[3089],[],[1026],[],[]
participant_6_SOLD,[],[],[],[],[],[],"[2010, 2003, 2003, 2010]","[2010, 1052]",[],[],[2055],[],[],"[3802, 1026]",[],[],[],[2422],[2031],[],[],"[1028, 1052, 1028, 1052, 1056]","[3916, 1026]",[],[],[],[],[],[],"[1058, 1058]",[],[],[],[]
participant_6_UNDO,[],[],[],[],[],[],[],[],[],[],[],[],[],[],[],[],[],[],[],[],[],"[[0, 3916]]",[],[],[],[],[],[],[],[],[],[],[],[]
participant_7_GOLD,500,500,605,909,1155,1564,1792,2190,2486,2856,3069,3477,3674,3983,4225,4675,5081,6098,6234,6576,6978,7275,7506,8673,9180,9365,9655,9980,10297,11289,11671,12117,12517,12946
participant_7_CURRENTGOLD,500,0,105,409,220,629,857,165,461,831,194,602,799,58,300,750,1156,538,734,1076,1478,320,1,1168,425,610,901,1225,292,185,566,163,563,771
participant_7_LEVEL,1,1,1,3,3,5,5,6,7,7,8,8,8,9,9,10,10,11,11,11,12,12,12,12,13,13,14,14,14,15,15,15,16,16
participant_7_MINIONSKILLED,0,0,5,15,19,33,39,53,60,71,76,89,89,96,103,105,118,121,122,135,142,148,154,164,170,174,185,190,197,201,207,214,222,224
participant_7_KILLS,0,0,0,0,0,0,0,0,0,0,0,0,1,1,1,1,1,1,1,1,1,1,1,2,2,2,2,3,3,3,3,3,3,3
participant_7_BUY,[],"[1055, 2003, 3340]",[],[],[],[],[],[],"[3070, 1037, 2003]",[],"[1001, 2003, 2003]",[],"[3004, 1042]",[],[],[3006],[],[1042],[1042],[],[],[1043],[],[],"[1037, 1052]",[],[3124],"[1042, 1042]",[3363],[3101],[],[1052],[3108],[]
participant_7_SOLD,[],[],[],[],[],[],[2003],[],[],[2003],[],[],"[3070, 1037]",[2003],[],"[1001, 1042]",[2003],[],[],[],[],"[1042, 1042]",[],[],[],[],"[1052, 1043, 1037]",[],[3340],"[1042, 1042]",[3004],[],[1052],[]
participant_7_UNDO,[],[],[],[],[],[],[],[],[],[],[],[],[],[],[],[],[],[],[],[],[],[],[],[],[],[],[],[],[],[],[],[],[],[]
participant_8_GOLD,500,500,584,990,1270,1581,1951,2265,2450,2685,2849,3301,3758,3901,4087,4209,4549,4674,4817,5030,5236,5491,5816,6429,7026,7329,7626,8048,8260,8548,8997,9240,9481,9525
participant_8_CURRENTGOLD,500,0,84,490,770,1081,1451,1765,175,410,174,626,108,251,437,59,399,224,67,280,486,341,666,1279,566,869,376,198,410,198,647,456,231,275
participant_8_LEVEL,1,1,1,2,3,4,4,5,5,6,6,7,7,7,7,7,8,8,8,8,8,9,9,10,11,11,12,12,12,12,13,13,13,13
participant_8_MINIONSKILLED,0,0,3,17,25,33,45,56,59,66,68,83,85,86,89,89,98,98,99,100,104,108,116,118,124,130,136,136,137,138,149,152,155,155
participant_8_KILLS,0,0,0,0,0,0,0,0,0,0,0,0,0,0,0,0,0,0,0,0,0,0,0,0,0,0,0,0,0,0,0,0,0,0
participant_8_BUY,[],"[1039, 2031, 3340]",[],[],[3715],[],[],"[1036, 1001]",[],[],"[3364, 2055, 3133]",[],[1412],[],"[1028, 1036]",[],[],[],"[3044, 1028, 2055]",[],[],[3111],[],[],[3071],[],[1029],[],[],[],[3105],[1036],[],[]
participant_8_SOLD,[],[],[],[],[1039],[],[],[],[],[],"[3340, 1036]",[2055],"[3133, 3715]",[],[],[],[],[],"[1028, 1036]",[],[2055],[1001],[],[],"[3044, 1028]",[],[],[],[],[],[1029],[],[],[]
participant_8_UNDO,[],[],[],[],[],[],[],[],[],[],[],[],[],[],[],[],[],[],[],[],[],[],[],[],[],[],[],[],[],[],[],[],[],[]
participant_9_GOLD,500,500,523,759,903,1124,1352,1516,1674,1815,2068,2307,2468,2728,2920,3060,3285,3455,3595,3736,3876,4016,4179,4319,4760,4906,5090,5281,5436,5577,5717,5899,6046,6096
participant_9_CURRENTGOLD,500,0,23,259,403,624,852,1016,1174,90,343,582,343,603,795,60,285,455,235,376,516,307,469,159,330,476,661,201,356,497,637,820,966,926
participant_9_LEVEL,1,1,1,2,3,4,4,5,6,6,6,7,7,8,8,8,8,9,9,9,9,9,9,9,10,10,11,11,11,11,11,12,12,12
participant_9_MINIONSKILLED,0,0,0,3,3,5,7,8,9,9,16,18,19,23,25,25,26,27,27,27,27,27,28,28,28,28,30,30,31,31,31,33,33,33
participant_9_KILLS,0,0,0,0,0,1,1,1,1,1,1,1,1,2,3,3,3,4,4,4,4,4,4,5,5,5,5,5,5,6,6,6,6,6
participant_9_BUY,[],"[1036, 2003, 2003, 2003]",[],[],"[1036, 2003]","[3133, 2003, 2055]",[],[],[],"[3044, 2031]",[],[],[3067],[],[3071],[3111],[],[],[3105],[1036],[],[1053],[3812],[],[1038],[],[],[2420],[],[],"[3026, 1028]",[],[],[3067]
participant_9_SOLD,[],[],[],[2003],[],"[2003, 2003, 1036, 1036, 2055]",[],[2003],[2003],[],[],[],[],[],"[3044, 3067]",[2422],[],[],[],[],[],"[2031, 1036]","[3105, 1053, 3133]",[],[],[],[],[],[],[2420],"[1038, 2421]",[],[],[1028]
participant_9_UNDO,[],[],[],[],[],[],[],[],[],[],[],[],[],[],[],[],[],[],[],[],[],"[[2031, 0]]",[],[],[],[],[],[],[],[],[],[],[],[]
team0_KILLS,0,0,0,0,3,4,4,4,4,5,6,6,8,10,13,14,15,15,16,16,16,20,22,22,23,23,23,26,26,29,30,30,31,33
team0_CURRENTGOLD,2500,0,298,1699,4254,1925,3157,2464,4109,6017,5237,2024,3376,2691,2818,3781,4000,3526,3473,4970,2539,4168,4464,1854,3010,4379,5578,3903,3305,5173,6467,2089,4965,4793
team0_TOTALGOLD,2500,2500,2798,4199,6754,8305,9537,10699,12344,14252,16057,17219,19671,22451,24803,27781,29500,30396,32433,33930,35088,38218,40913,42554,44309,45678,46875,48961,50699,53480,55075,58146,61022,62803
team0_LEVEL,5,5,5,12,17,21,23,27,31,33,34,38,39,42,44,48,49,49,51,52,54,57,58,59,62,62,63,65,67,69,70,74,75,75
team0_SBIRES,0,0,8,30,50,68,91,110,143,175,189,207,235,254,277,300,316,326,337,366,379,397,417,424,444,469,485,491,509,522,533,556,584,592
team1_KILLS,0,0,0,0,0,1,1,1,1,1,1,1,2,3,4,5,5,7,7,7,7,7,7,10,10,10,10,11,11,14,14,14,14,15
team1_CURRENTGOLD,2500,0,375,2030,1563,2810,4268,3833,3581,2174,1346,3202,1758,2571,2457,1443,3126,3411,1895,2820,4216,1600,1532,4237,1558,2436,2532,1882,2282,3071,2235,2017,2624,2613
team1_TOTALGOLD,2500,2500,2875,4530,5548,7320,8778,10083,11606,12824,14071,15927,17183,19046,20632,21793,23476,25696,26855,28130,29526,30464,31447,34602,37403,38281,39464,40717,42367,44754,45970,47382,48457,49218
team1_LEVEL,5,5,6,13,15,21,22,26,30,32,34,37,38,41,41,43,45,49,49,50,52,53,53,55,59,60,64,64,65,67,68,69,70,70
team1_SBIRES,0,0,9,45,61,85,119,153,176,199,222,266,271,296,308,310,341,351,369,386,412,422,438,458,483,493,517,522,546,560,577,598,611,613
delta_KILLS,0,0,0,0,3,3,3,3,3,4,5,5,6,7,9,9,10,8,9,9,9,13,15,12,13,13,13,15,15,15,16,16,17,18
delta_CURRENTGOLD,0,0,-77,-331,2691,-885,-1111,-1369,528,3843,3891,-1178,1618,120,361,2338,874,115,1578,2150,-1677,2568,2932,-2383,1452,1943,3046,2021,1023,2102,4232,72,2341,2180
delta_TOTALGOLD,0,0,-77,-331,1206,985,759,616,738,1428,1986,1292,2488,3405,4171,5988,6024,4700,5578,5800,5562,7754,9466,7952,6906,7397,7411,8244,8332,8726,9105,10764,12565,13585
delta_LEVEL,0,0,-1,-1,2,0,1,1,1,1,0,1,1,1,3,5,4,0,2,2,2,4,5,4,3,2,-1,1,2,2,2,5,5,5
delta_SBIRES,0,0,-1,-15,-11,-17,-28,-43,-33,-24,-33,-59,-36,-42,-31,-10,-25,-25,-32,-20,-33,-25,-21,-34,-39,-24,-32,-31,-37,-38,-44,-42,-27,-21
