name,frame_0,frame_1,frame_2,frame_3,frame_4,frame_5,frame_6,frame_7,frame_8,frame_9,frame_10,frame_11,frame_12,frame_13,frame_14,frame_15,frame_16,frame_17,frame_18,frame_19,frame_20,frame_21,frame_22
nameStamp,Tstart,Tearly,Tearly,Tearly,Tearly,Tearly,Tearly,Tearly,Tearly,Tearly,Tmid,Tmid,Tmid,Tmid,Tmid,Tmid,Tmid,Tmid,Tmid,Tmid,Tmid,Tmid,Tmid
timestamp,0,60012,120026,180035,240048,300066,360083,420100,480103,540121,600134,660150,720159,780170,840178,900206,960232,1020263,1080290,1140295,1200325,1260357,1320381
participant_0_GOLD,1400,1400,1868,2312,2786,3513,4016,5144,5534,6080,6962,7426,7873,8341,9137,9533,10189,10885,11581,12173,12623,13067,14021
participant_0_CURRENTGOLD,1400,0,468,227,701,1428,1931,494,784,1330,2212,2676,273,741,1537,1933,2589,3285,3981,4573,223,667,1621
participant_0_LEVEL,1,3,4,5,6,7,8,9,9,10,11,12,12,13,14,14,16,16,17,18,18,18,18
participant_0_MINIONSKILLED,0,0,0,0,0,2,2,2,2,2,2,3,3,3,3,3,3,3,3,3,3,3,4
participant_0_KILLS,0,0,0,0,0,1,1,2,2,2,3,3,3,3,3,3,3,4,4,4,4,4,4
participant_0_BUY,[],"[3067, 1004, 2031, 2003, 2003, 1004]",[],"[1052, 1004]",[],[],[],"[6617, 3114, 3067]","[2003, 2003]",[],[],[],"[3107, 6616, 2003, 2003]",[],[],[],[],[],[],[],"[3165, 3504]",[],[]
participant_0_SOLD,[],[],[],[],[2003],[],[],"[3067, 1004, 1052, 1004]",[],[],[],"[2003, 2003]","[2003, 3067, 3114, 1004]",[],[],[],[2003],[],[2003],[],[],[],[]
participant_0_UNDO,[],"[[0, 2031]]",[],[],[],[],[],[],[],[],[],[],[],[],[],[],[],[],[],[],[],[],[]
participant_1_GOLD,1400,1400,1868,2925,3327,3847,4313,4884,5292,5786,7068,7686,8390,8860,10122,10595,11262,11706,12604,13179,13891,14489,15390
participant_1_CURRENTGOLD,1400,0,468,790,327,847,463,1034,192,686,1968,2586,690,1160,2422,2895,427,871,1769,2344,556,1154,2055
participant_1_LEVEL,1,3,4,5,6,7,8,9,9,10,11,12,12,13,14,14,15,15,17,17,18,18,18
participant_1_MINIONSKILLED,0,0,2,4,4,6,7,12,14,18,24,34,41,44,47,51,53,57,70,72,74,81,86
participant_1_KILLS,0,0,0,1,1,1,1,1,1,1,3,3,4,4,6,6,7,7,7,7,8,8,8
participant_1_BUY,[],"[3070, 3112, 2003]",[],"[1001, 1052]",[3802],[],[1026],[],[6655],[],[],[],[3003],[],[],[],"[4629, 3020]",[],[],[],"[1058, 1058]",[],[]
participant_1_SOLD,[],[],[2003],[],[1052],[],[],[],"[3802, 1026]",[],[],[],"[3070, 3003]",[],[],[],"[3112, 1001]",[],[],[],[],[],[]
participant_1_UNDO,[],[],[],[],[],[],[],[],[],[],[],[],[],[],[],[],[],[],[],[],[],[],[]
participant_2_GOLD,1400,1400,1928,2787,3320,4102,4561,5348,5714,6617,7260,7667,8027,8632,9614,10026,11391,11785,12894,13452,14177,14668,16431
participant_2_CURRENTGOLD,1400,0,528,162,695,277,436,1223,89,992,1635,402,337,942,1924,336,1701,595,1704,962,1687,708,2471
participant_2_LEVEL,1,3,4,5,6,7,8,9,9,10,11,11,11,12,13,14,15,16,17,17,18,18,18
participant_2_MINIONSKILLED,0,0,4,6,11,16,20,24,24,31,34,35,35,42,47,48,61,62,67,69,69,70,74
participant_2_KILLS,0,0,0,1,1,2,2,3,3,4,4,4,4,4,5,5,7,7,9,9,10,10,14
participant_2_BUY,[],"[6670, 1053, 1036, 2003, 2031]",[],"[1037, 1036]",[],"[6670, 1018]",[1001],[],"[6671, 1037]",[],[],"[3134, 1018]",[6676],[],[],"[3111, 3086]",[],[3094],[],[1038],[3072],[3031],[]
participant_2_SOLD,[],[],[],[],[],"[1036, 1036]",[],[],"[6670, 1018, 1037]",[],[],[2031],"[3134, 1037, 1018]",[],[],[1001],[],[3086],[],[],"[1038, 1053]","[1053, 1038]",[]
participant_2_UNDO,[],"[[0, 6670], [0, 2003]]",[],[],[],[],[],[],[],[],[],[],[],[],[],[],[],[],[],[],"[[0, 3072]]",[],[]
participant_3_GOLD,1400,1400,1900,2752,3291,3907,4528,5094,5454,5957,6679,7075,7524,8061,9060,9456,10124,10502,11658,12543,13258,13875,14942
participant_3_CURRENTGOLD,1400,150,650,402,941,417,388,954,164,667,1389,210,659,1196,220,216,484,862,1168,2053,568,1185,2252
participant_3_LEVEL,1,3,4,5,6,7,8,9,9,10,11,11,12,12,13,13,14,15,16,17,18,18,18
participant_3_MINIONSKILLED,0,0,2,5,8,8,11,13,13,18,18,18,22,25,30,30,31,31,38,42,47,51,55
participant_3_KILLS,0,0,0,2,2,3,4,4,4,4,4,4,4,4,5,5,6,6,8,10,11,11,12
participant_3_BUY,[],"[3044, 2031]",[],"[3067, 1001]",[],[6029],"[6630, 1033]",[],"[3111, 1028, 1028, 1028, 1028]",[],[],"[3044, 1037]",[],[],"[3053, 3211]",[1028],[3067],[],[3065],[],"[1057, 3066, 2138]",[],[]
participant_3_SOLD,[],[],[],[],[],[2031],"[6029, 3044, 3067]",[],"[1001, 1033]",[],[],[1028],[],[],"[1037, 3044, 1028]",[],[1028],[],"[3211, 3067]",[],[2138],[],[]
participant_3_UNDO,[],[],[],[],[],[],[],[],"[[0, 1028], [0, 1028]]",[],[],[],[],[],[],[],[],[],[],[],[],[],[]
participant_4_GOLD,1400,1400,2138,2677,3302,3840,4390,5504,5946,6359,7265,7893,8340,8878,9660,10032,11196,11625,12095,13148,14089,14846,15867
participant_4_CURRENTGOLD,1400,0,738,177,802,240,790,1904,2346,326,1232,260,307,845,1627,99,1263,1692,562,1615,1356,2113,3134
participant_4_LEVEL,1,3,4,5,6,7,8,9,9,10,11,11,12,12,13,14,14,15,15,16,17,18,18
participant_4_MINIONSKILLED,0,0,1,2,12,15,21,28,32,33,39,40,40,46,52,52,52,53,56,63,64,77,80
participant_4_KILLS,0,0,1,1,1,1,1,3,3,3,4,5,5,5,5,5,6,6,6,8,9,9,9
participant_4_BUY,[],"[2051, 1028, 2003]",[],"[3057, 3067]",[],[3051],[],[],[],"[3078, 3134, 1018]",[],"[6676, 1029]",[1028],[],[],"[3044, 1028, 3047]",[],[],[3053],[],[3077],[],[]
participant_4_SOLD,[],[],"[2003, 2052]",[1028],[],[],[],[],[],"[3057, 3051, 3067]",[],"[3134, 1018]",[],[2052],[],"[1028, 1029]",[],[],"[3044, 1028]",[],[],[],[]
participant_4_UNDO,[],[],[],[],[],[],[],[],[],[],[],[],[],[],[],[],[],[],[],[],[],[],[]
participant_5_GOLD,1400,1400,1868,2721,3450,4352,5187,5600,6582,7312,7899,8600,9687,10192,10692,11387,12011,13145,13724,14357,15747,16247,16808
participant_5_CURRENTGOLD,1400,0,468,171,900,1802,2637,-100,882,1612,249,550,1637,2142,142,837,111,1245,1024,1657,3327,997,1558
participant_5_LEVEL,1,3,4,5,6,7,8,8,9,10,11,12,13,13,14,15,15,17,17,18,18,18,18
participant_5_MINIONSKILLED,0,0,2,6,15,19,21,22,28,35,44,47,49,55,57,67,73,82,85,92,101,104,113
participant_5_KILLS,0,0,0,0,0,0,0,0,0,0,0,1,2,2,2,2,3,3,3,3,3,3,3
participant_5_BUY,[],"[6670, 2003, 2003]",[],"[1001, 1042]",[],[],[],[6672],[],[],"[3006, 3133]",[],[],[],"[3508, 1037]",[],[1038],[],[3031],[],[1018],[],[3123]
participant_5_SOLD,[],[],"[2003, 2003]",[],[],[],[],[6670],[],[],"[1001, 1042]",[],[],[],[3133],[],[],[],"[1038, 1037]",[],[],[],[]
participant_5_UNDO,[],[],[],[],[],[],[],[],[],[],[],[],[],[],[],[],[],[],[],[],[],[],[]
participant_6_GOLD,1400,1400,1904,3195,3666,4253,4973,5518,6357,6936,7314,7957,9003,9460,10232,10882,11486,12802,13312,14050,14855,15375,15842
participant_6_CURRENTGOLD,1400,0,504,1795,441,428,1148,1693,2532,586,364,237,1283,1740,2512,3162,141,1457,367,805,210,730,1197
participant_6_LEVEL,1,3,4,6,6,7,8,9,10,10,11,11,13,13,14,14,15,16,16,16,18,18,18
participant_6_MINIONSKILLED,0,0,5,11,14,16,24,29,34,35,35,38,46,49,50,58,59,62,62,63,65,72,73
participant_6_KILLS,0,0,0,4,4,4,5,5,6,6,6,7,9,9,11,11,12,14,14,15,16,16,16
participant_6_BUY,[],"[3123, 1036, 2031, 1006, 2003, 2003]",[],[],"[6670, 1037]",[1018],[],[],[],"[6671, 3006, 3134]",[1018],[1037],[],[],[],[],"[6676, 3508, 1042]",[],"[3086, 3033]",[1042],"[3086, 2140]",[],[]
participant_6_SOLD,[],[],[2003],"[2010, 2003]",[1036],[2010],[],[],[],"[6670, 1018, 1037, 2422]",[2010],[1006],[],[],[],[],"[3134, 1037, 1018]",[],"[1042, 3123, 3086]",[],"[1042, 2140]",[],[]
participant_6_UNDO,[],"[[0, 2031]]",[],[],[],[],[],[],[],[],[],[],[],[],[],[],[],[],[],[],[],[],[]
participant_7_GOLD,1400,1400,1842,2465,2873,3719,4175,4709,5276,6198,6618,7290,8050,8486,8916,9604,10632,11591,12170,12906,13719,14209,14587
participant_7_CURRENTGOLD,1400,50,192,65,473,1319,425,159,726,1648,2068,2740,3500,3936,1066,654,67,1026,180,916,854,219,597
participant_7_LEVEL,1,3,4,5,6,7,8,8,9,10,10,12,13,13,14,14,15,16,16,17,18,18,18
participant_7_MINIONSKILLED,0,0,1,2,2,6,6,10,13,13,13,17,23,24,24,24,28,31,33,33,42,44,44
participant_7_KILLS,0,0,0,0,0,1,1,1,1,2,2,2,2,2,2,3,4,4,4,5,6,6,6
participant_7_BUY,[],"[6029, 2031]","[1036, 1001]","[1028, 1036]",[],[],[6630],[3111],[],[],[],[],[],[],[3074],[3133],"[1031, 1037, 1031]",[],"[6333, 3044]",[],"[3024, 1037]",[3053],[]
participant_7_SOLD,[],[],[],[],[],[],"[6029, 1028, 1036]",[1001],[],[],[],[],[],[],[],[],[2031],[],"[1031, 3133, 1037]",[],[],"[1037, 3044]",[]
participant_7_UNDO,[],[],"[[0, 1036]]",[],[],[],[],[],[],[],[],[],[],[],[],[],"[[0, 1031]]",[],[],[],"[[0, 3024]]",[],[]
participant_8_GOLD,1400,1400,1871,2422,2891,3427,3946,4377,4944,5569,5965,6816,7657,8071,8534,9114,9722,10456,11002,11483,11843,12298,12740
participant_8_CURRENTGOLD,1400,0,471,422,891,1427,1946,277,844,1469,265,1116,1957,2371,159,739,47,781,102,583,343,798,440
participant_8_LEVEL,1,3,4,5,6,7,8,8,9,10,10,11,12,13,13,14,15,15,16,16,17,17,17
participant_8_MINIONSKILLED,0,0,2,6,6,8,9,11,15,16,16,19,23,23,26,30,30,32,32,32,32,33,35
participant_8_KILLS,0,0,0,2,3,5,6,6,8,8,8,9,10,10,10,10,10,11,11,11,13,13,13
participant_8_BUY,[],"[3802, 2003, 2003]",[],"[1026, 1001]",[],[],[],"[6655, 3020, 3145]",[],[],[4628],[1028],[],[],"[3165, 1058, 1058]",[],[3089],[],"[4630, 3916, 3916]",[],[3165],"[3165, 4630]",[]
participant_8_SOLD,[],"[2052, 2003]",[],[],[2003],[],[],"[3802, 1026, 1001]",[],[2052],[3145],[],[],[],[1028],[],"[1058, 1058]",[],[],[],"[3916, 1028, 1028]","[3916, 1028]",[]
participant_8_UNDO,[],[],[],[],[],[],[],[],[],[],[],[],[],[],"[[0, 3165]]",[],[],[],"[[0, 4630], [0, 3916]]",[],"[[0, 3165]]","[[1028, 0]]",[]
participant_9_GOLD,1400,1400,1858,2506,2941,3355,3840,4584,5037,5642,6020,6491,7098,7518,7950,8404,9269,10379,10925,11327,12002,12434,12824
participant_9_CURRENTGOLD,1400,0,458,1106,1541,305,490,734,487,1092,170,641,348,768,100,554,819,1929,475,877,1552,584,524
participant_9_LEVEL,1,3,4,6,6,7,8,8,9,10,10,11,11,12,12,13,14,15,16,16,18,18,18
participant_9_MINIONSKILLED,0,0,1,2,2,2,3,3,3,3,3,3,3,3,3,3,4,4,4,4,4,4,4
participant_9_KILLS,0,0,0,0,0,0,0,1,1,1,1,1,2,2,2,2,3,4,4,4,4,4,4
participant_9_BUY,[],"[3067, 1004, 1001, 2003]",[],[],[],[2065],[1029],[3047],"[1029, 1028]",[],"[3066, 1031, 1028]",[],[3742],[],"[3067, 1029]",[],[3024],[],"[3050, 3082, 1029]",[],[],[3143],[1033]
participant_9_SOLD,[],[],[2003],[],[],"[3067, 1004]",[],"[1001, 1029]",[],[],"[1028, 1029]",[],"[3066, 1028, 1031]",[],[],[],[1029],[],"[3067, 3024]",[],[],"[3082, 1029]",[]
participant_9_UNDO,[],[],[],[],[],[],[],[],[],[],[],[],[],[],[],[],[],[],[],[],[],[],[]
team0_KILLS,0,0,1,5,5,8,9,13,13,14,18,19,20,20,24,24,29,30,34,38,42,42,47
team0_CURRENTGOLD,7000,150,2852,1758,3466,3209,4008,5609,3575,4001,8436,6134,2266,4884,7730,5479,6464,7305,9184,11547,4390,5827,11533
team0_TOTALGOLD,7000,7000,9702,13453,16026,19209,21808,25974,27940,30799,35234,37747,40154,42772,47593,49642,54162,56503,60832,64495,68038,70945,76651
team0_LEVEL,5,15,20,25,30,35,40,45,45,50,55,57,59,62,67,69,74,77,82,85,89,90,90
team0_SBIRES,0,0,9,17,35,47,61,79,85,102,117,130,141,160,179,184,200,206,234,249,257,282,299
team1_KILLS,0,0,0,6,7,10,12,13,16,17,17,20,25,25,27,28,32,36,36,38,42,42,42
team1_CURRENTGOLD,7000,50,2093,3559,4246,5281,6646,2763,5471,6407,3116,5284,8725,10957,3979,5946,1185,6438,2148,4838,6286,3328,4316
team1_TOTALGOLD,7000,7000,9343,13309,15821,19106,22121,24788,28196,31657,33816,37154,41495,43727,46324,49391,53120,58373,61133,64123,68166,70563,72801
team1_LEVEL,5,15,20,27,30,35,40,41,46,50,52,57,62,64,67,70,74,79,81,83,89,89,89
team1_SBIRES,0,0,11,27,39,51,63,75,93,102,111,124,144,154,160,182,194,211,216,224,244,257,269
delta_KILLS,0,0,1,-1,-2,-2,-3,0,-3,-3,1,-1,-5,-5,-3,-4,-3,-6,-2,0,0,0,5
delta_CURRENTGOLD,0,100,759,-1801,-780,-2072,-2638,2846,-1896,-2406,5320,850,-6459,-6073,3751,-467,5279,867,7036,6709,-1896,2499,7217
delta_TOTALGOLD,0,0,359,144,205,103,-313,1186,-256,-858,1418,593,-1341,-955,1269,251,1042,-1870,-301,372,-128,382,3850
delta_LEVEL,0,0,0,-2,0,0,0,4,-1,0,3,0,-3,-2,0,-1,0,-2,1,2,0,1,1
delta_SBIRES,0,0,-2,-10,-4,-4,-2,4,-8,0,6,6,-3,6,19,2,6,-5,18,25,13,25,30
