name,frame_0,frame_1,frame_2,frame_3,frame_4,frame_5,frame_6,frame_7,frame_8,frame_9,frame_10,frame_11,frame_12,frame_13,frame_14,frame_15,frame_16,frame_17,frame_18,frame_19,frame_20,frame_21,frame_22,frame_23,frame_24
nameStamp,Tstart,Tearly,Tearly,Tearly,Tearly,Tearly,Tearly,Tearly,Tearly,Tearly,Tearly,Tearly,Tearly,Tearly,Tearly,Tearly,Tearly,Tearly,Tearly,Tmid,Tmid,Tmid,Tmid,Tmid,Tmid
timestamp,0,60019,120050,180079,240089,300130,360140,420166,480188,540206,600221,660247,720259,780273,840290,900318,960342,1020374,1080404,1140409,1200435,1260460,1320482,1380509,1440509
participant_0_GOLD,500,500,563,794,1022,1284,1550,1791,2038,2231,2667,2853,3024,3378,3757,3942,4362,4484,4781,4918,5040,7205,7402,8002,8013
participant_0_CURRENTGOLD,500,0,63,294,522,784,215,456,188,381,817,1003,324,678,1057,1242,1662,134,431,133,255,2420,502,252,263
participant_0_LEVEL,1,1,1,3,4,5,6,7,7,7,8,9,9,9,10,10,11,11,12,12,12,12,13,13,13
participant_0_MINIONSKILLED,0,0,2,6,12,18,24,31,35,40,48,52,55,65,76,79,89,89,99,100,100,103,103,105,105
participant_0_KILLS,0,0,0,0,0,0,0,0,0,0,0,0,0,0,0,0,0,0,0,0,0,2,2,3,3
participant_0_BUY,[],"[1056, 2003, 2003]",[],[],[],[],"[1052, 1028]",[],"[3916, 2031]",[],[],[],[1026],[],[],[],[],"[3165, 4632]",[],[1052],[],[],"[3102, 4630]",[1026],[]
participant_0_SOLD,[],[],[],[],"[2003, 2003]",[],[],[],[1052],[],[],[],[],[],[],[],[],"[1026, 3916, 1028]",[],[],[],[],"[1052, 4632]",[],[]
participant_0_UNDO,[],[],[],[],[],[],[],[],[],[],[],[],[],[],[],[],[],[],[],[],[],[],[],[],[]
participant_1_GOLD,500,500,621,963,1271,1575,1706,2040,2292,2470,2712,2835,3042,3164,3287,3409,3852,4074,4196,4319,4441,4564,4686,4808,4819
participant_1_CURRENTGOLD,500,0,121,463,771,1075,1206,1540,1792,370,612,735,242,364,87,209,652,274,96,219,341,464,586,708,719
participant_1_LEVEL,1,1,2,3,3,4,4,5,5,5,6,6,6,6,7,7,7,7,7,7,7,7,7,7,7
participant_1_MINIONSKILLED,0,0,0,0,0,0,0,0,0,0,0,0,0,0,0,0,0,0,0,0,0,0,0,0,0
participant_1_KILLS,0,0,0,0,0,0,0,0,0,0,1,1,1,1,1,1,1,1,1,1,1,1,1,1,1
participant_1_BUY,[],"[1055, 2003, 3340]",[],[],[],[],[],[],"[1036, 1042, 1036, 2031, 2055]",[],[],[],[],"[6670, 1053]",[],[],[1018],[],[6673],[],[],[],"[1042, 3363]",[],[]
participant_1_SOLD,[],[],[],[],[2003],[],[],[],[],[2055],[],[],[],"[1036, 1042, 1036]",[],[],[],[],"[6670, 1018, 1053]",[],[],[],[3340],[],[]
participant_1_UNDO,[],[],[],[],[],[],[],[],[],[],[],[],[],[],[],[],[],[],[],[],[],[],[],[],[]
participant_2_GOLD,500,500,577,906,1085,1298,1641,1840,2227,2364,2514,3206,3510,3646,4069,4221,4402,4782,4946,5111,5233,5447,6061,6539,6550
participant_2_CURRENTGOLD,500,0,77,396,575,38,371,570,947,1084,134,826,130,191,164,316,122,502,241,406,178,392,181,659,700
participant_2_LEVEL,1,1,1,3,4,4,5,6,7,7,7,8,9,9,9,9,10,10,10,10,10,11,11,12,12
participant_2_MINIONSKILLED,0,0,3,13,16,21,31,35,48,49,51,58,68,69,69,70,73,84,87,89,89,95,98,101,101
participant_2_KILLS,0,0,0,0,0,0,0,0,0,0,0,1,1,1,2,2,2,2,2,2,2,2,3,4,4
participant_2_BUY,[],"[2031, 3340, 1036]",[],[],[],[3134],[],[],[],[],[3133],[],[6691],[2055],[1033],[],"[1001, 2055]",[],"[3111, 2055]",[],[1036],[],"[3134, 2055]",[],[]
participant_2_SOLD,[],[],[],[],[],[1036],[],[],[],[],[],[],"[3134, 3133]",[2055],[],[],[],[2055],"[1001, 1033]",[2055],[],[],[1036],[],[]
participant_2_UNDO,[],[],[],[],[],[],[],[],[],[],[],[],[],[],[],[],[],[],[],[],[],[],[],[],[]
participant_3_GOLD,500,500,542,811,1025,1231,1417,1693,1815,2101,2651,2900,3022,3193,3428,3648,3771,3963,4162,4334,4456,4621,4868,5039,5050
participant_3_CURRENTGOLD,500,0,42,311,525,731,917,1193,90,376,926,1175,1297,268,503,723,246,438,37,209,331,496,443,614,625
participant_3_LEVEL,1,1,1,2,3,4,4,5,5,6,6,7,7,8,8,8,8,9,9,9,9,10,10,11,11
participant_3_MINIONSKILLED,0,0,1,9,14,19,22,31,31,37,39,46,46,49,55,61,61,65,70,73,73,76,79,82,82
participant_3_KILLS,0,0,0,0,0,0,0,0,0,0,0,0,0,0,0,0,0,0,0,0,0,0,0,0,0
participant_3_BUY,[],"[3850, 2003, 2003, 3340]",[],[],[],[],"[1028, 2003, 2003, 2003]",[],[],[],[],[],"[4642, 2003]",[],[],[],[3067],[],[],[],[],[],"[6617, 1001]",[3158],[]
participant_3_SOLD,[],[],[],[2003],[2003],[],[],[],[],[2003],[2003],[2003],[],[],[],[],"[2003, 1028]",[],[],[],[],[3850],"[3067, 4642]",[1001],[]
participant_3_UNDO,[],[],[],[],[],[],[],[],[],[],[],[],[],[],[],[],[],[],[],[],[],[],[],[],[]
participant_4_GOLD,500,500,523,657,852,986,1141,1289,1458,1641,1910,2045,2179,2368,2503,2651,2846,2980,3114,3269,3423,3883,4098,4408,4420
participant_4_CURRENTGOLD,500,0,23,157,352,486,91,239,408,591,860,995,29,218,353,501,296,430,564,719,873,1333,398,108,120
participant_4_LEVEL,1,1,1,2,2,3,4,4,5,5,6,6,6,7,7,7,7,8,8,8,8,9,9,10,10
participant_4_MINIONSKILLED,0,0,0,0,0,0,0,1,3,5,5,5,5,7,7,8,8,8,8,8,8,8,8,8,8
participant_4_KILLS,0,0,0,0,0,0,0,0,0,0,0,0,0,0,0,0,1,1,1,1,1,1,1,1,1
participant_4_BUY,[],"[2031, 1035]",[],[],[],[],[],[],[],"[6029, 1028]",[],[],[3044],[],[1028],[],[],[6630],[1001],[],[],[],[],[],[]
participant_4_SOLD,[],[],[],[],[],[],[],[],[],[1035],[],[],[1028],[],[],[],[],"[6029, 3044, 1028]",[],[],[],[],[],[],[]
participant_4_UNDO,[],[],[],[],[],[],[],[],[],[],[],[],[],[],[],[],[],[],[],[],[],[],[],[],[]
participant_5_GOLD,500,500,542,706,934,1147,1347,1581,2233,2607,2813,3116,3414,3578,3999,4282,4482,4775,5290,5796,6260,6646,7068,7365,7425
participant_5_CURRENTGOLD,500,0,42,206,434,647,12,246,898,1272,1013,1316,1614,753,1174,1457,1657,750,1265,1771,2235,521,508,805,685
participant_5_LEVEL,1,1,1,2,4,5,5,6,7,8,8,9,9,10,10,11,11,11,12,12,13,13,13,13,13
participant_5_MINIONSKILLED,0,0,1,4,10,15,19,26,36,41,46,53,60,62,76,85,89,95,108,115,121,121,121,127,127
participant_5_KILLS,0,0,0,0,0,1,1,1,1,1,2,2,3,3,3,3,3,3,3,3,4,4,4,5,5
participant_5_BUY,[],"[1056, 2003, 3340, 2003]",[],[],[],"[1027, 1052]",[],[],[],[],[],"[3802, 1026]",[],[],[],[],[],[6655],[],[3020],[],[1052],[],[3145],[]
participant_5_SOLD,[],[],[],"[2003, 2003]",[],[],[],[],[],[],[],"[1052, 1027]",[],[],[],[],[],"[3802, 1026]",[],[],[],[],[],[1052],[]
participant_5_UNDO,[],[],[],[],[],[],[],[],[],[],[],[],[],[],[],[],[],[],[],[],[],[],[],[],[]
participant_6_GOLD,500,500,629,1018,1332,1674,1882,2109,2430,2823,3534,3757,4266,4595,5457,5659,6550,6936,7694,8677,9030,9152,9485,10292,10377
participant_6_CURRENTGOLD,500,0,129,518,832,1174,82,309,630,1013,584,807,1316,1645,707,459,1350,1736,2494,3477,3830,302,635,1442,1477
participant_6_LEVEL,1,1,2,3,4,4,5,5,6,6,7,7,8,9,9,9,10,10,11,11,12,12,12,13,13
participant_6_MINIONSKILLED,0,0,0,0,1,1,1,1,2,3,9,9,9,10,10,10,14,16,21,21,24,24,24,30,30
participant_6_KILLS,0,0,0,0,0,0,0,0,0,0,0,0,0,0,2,2,4,4,5,6,6,6,6,7,7
participant_6_BUY,[],"[1035, 2031, 3340]",[],[],[],[],"[6660, 1029]",[],[],[],[3105],[],[],[],"[3068, 3047]",[1033],[],[],[],[],[],"[3065, 3076, 1028]",[],[],[]
participant_6_SOLD,[],[],[],[],[],[],[],[],[],"[1035, 3340]","[3513, 1029, 2031]",[],[],[],"[6660, 3105]",[],[],[3340],[3513],[],[],[1033],[],[],[]
participant_6_UNDO,[],[],[],[],[],[],[],[],[],[],[],[],[],[],[],[],[],[],[],[],[],[],[],[],[]
participant_7_GOLD,500,500,556,741,941,1463,1628,1848,2005,2142,2595,2731,3244,3430,3702,3855,4094,4216,4820,5193,5640,5762,5926,6269,6330
participant_7_CURRENTGOLD,500,0,56,241,441,178,343,563,720,857,1310,81,594,780,1052,1205,1444,316,920,193,640,327,491,219,280
participant_7_LEVEL,1,1,1,3,4,5,6,6,7,8,8,8,9,10,10,10,10,11,11,11,12,12,12,12,12
participant_7_MINIONSKILLED,0,0,2,5,10,10,12,18,20,21,25,26,31,35,35,35,36,36,42,42,42,42,45,47,47
participant_7_KILLS,0,0,0,0,0,0,0,0,1,1,1,1,1,1,1,1,1,1,1,1,1,2,3,3,3
participant_7_BUY,[],"[1054, 2003, 3340]",[],[],[],[],"[1028, 1052]",[],[],[],[4635],[],[],"[1026, 2055, 2003, 2003]",[],[],[],"[4633, 2055, 2055]",[],[],[],"[3047, 1043]",[1052],[],[]
participant_7_SOLD,[],[],[],[2003],[],[],[],[],[],[],"[1028, 1052]",[],[],[1054],[2055],[],[],"[4635, 1026]",[2055],[2003],[],[2003],[],[],[]
participant_7_UNDO,[],[],[],[],[],[],[],[],[],[],[],[],[],"[[1054, 0]]",[],[],[],[],[],[],[],[],[],[],[]
participant_8_GOLD,500,500,584,762,976,1224,1417,1623,1934,2057,2300,2472,2898,3613,3928,4381,4817,5271,6036,6758,7621,8021,8293,8584,8669
participant_8_CURRENTGOLD,500,0,84,262,476,724,917,1123,1434,257,500,672,1098,963,478,931,117,496,1261,1983,546,946,518,809,894
participant_8_LEVEL,1,1,1,2,3,4,4,5,5,5,6,7,7,8,8,9,9,9,10,10,11,11,12,12,12
participant_8_MINIONSKILLED,0,0,3,6,11,19,23,27,38,38,45,48,57,65,68,71,76,83,91,97,100,101,101,103,103
participant_8_KILLS,0,0,0,0,0,0,0,0,0,0,0,0,0,1,1,2,2,3,4,5,8,9,9,10,10
participant_8_BUY,[],"[3340, 1056, 2003, 2003]",[],[],[],[],[],[],[],[3802],[],[],[],[1026],[3020],[],[6655],[2055],[],[],"[3145, 1058]",[],[4628],[],[]
participant_8_SOLD,[],[],[],[],[],"[2010, 2010]",[2003],[2010],[2003],[],[],[],[],[],[2422],[],"[3802, 1026]",[],[],[],[],[],"[1058, 3145]",[],[]
participant_8_UNDO,[],[],[],[],[],[],[],[],[],[],[],[],[],[],[],[],[],[],[],[],[],[],[],[],[]
participant_9_GOLD,500,500,526,869,1107,1393,1634,1768,1980,2217,2407,2596,3162,3590,3838,4125,4671,4950,5660,6154,6787,7057,7286,7426,7488
participant_9_CURRENTGOLD,500,0,26,369,607,893,1134,93,305,92,282,471,1038,415,663,950,696,275,985,1479,2112,532,761,901,963
participant_9_LEVEL,1,1,1,2,3,4,4,4,5,5,5,6,6,7,7,8,8,9,10,10,11,11,11,11,11
participant_9_MINIONSKILLED,0,0,0,1,1,2,2,2,3,3,3,3,3,4,6,6,6,7,8,8,10,10,15,15,15
participant_9_KILLS,0,0,0,0,0,0,0,0,0,0,0,0,1,1,1,1,2,2,3,3,3,3,3,3,3
participant_9_BUY,[],"[3862, 3340, 2003, 2003]",[],[],[],[],[],"[3044, 2055]",[],[1033],[],[],[],"[3111, 3057]",[],[],[3067],[6632],[],[],[],"[3134, 1028, 1036]",[],[],[]
participant_9_SOLD,[],[],[],[2003],"[2010, 2003]",[2010],[],[2055],[],"[2010, 3862]",[],[],[],"[1033, 2422]",[],[3863],[],"[3044, 3057, 3067]",[],[],[],[],[],[],[]
participant_9_UNDO,[],[],[],[],[],[],[],[],[],[],[],[],[],[],[],[],[],[],[],[],[],[],[],[],[]
team0_KILLS,0,0,0,0,0,0,0,0,0,0,1,2,2,2,3,3,4,4,4,4,4,6,7,9,9
team0_CURRENTGOLD,2500,0,326,1621,2745,3114,2800,3998,3425,2802,3349,4734,2022,1719,2164,2991,2978,1778,1369,1686,1978,5105,2110,2341,2427
team0_TOTALGOLD,2500,2500,2826,4131,5255,6374,7455,8653,9830,10807,12454,13839,14777,15749,17044,17871,19233,20283,21199,21951,22593,25720,27115,28796,28852
team0_LEVEL,5,5,6,13,16,20,23,27,29,30,33,36,37,39,41,41,43,45,46,46,46,49,50,53,53
team0_SBIRES,0,0,6,28,42,58,77,98,117,131,143,161,174,190,207,218,231,246,264,270,270,282,288,296,296
team1_KILLS,0,0,0,0,0,1,1,1,2,2,3,3,5,6,8,9,12,13,16,18,22,24,25,28,28
team1_CURRENTGOLD,2500,0,337,1596,2790,3616,2488,2334,3987,3491,3689,3347,5660,4556,4074,5002,5264,3573,6925,8903,9363,2628,2913,4176,4299
team1_TOTALGOLD,2500,2500,2837,4096,5290,6901,7908,8929,10582,11846,13649,14672,16984,18806,20924,22302,24614,26148,29500,32578,35338,36638,38058,39936,40289
team1_LEVEL,5,5,6,12,18,22,24,26,30,32,34,37,39,44,44,47,48,50,54,54,59,59,60,61,61
team1_SBIRES,0,0,6,16,33,47,57,74,99,106,128,139,160,176,195,207,221,237,270,283,297,298,306,322,322
delta_KILLS,0,0,0,0,0,-1,-1,-1,-2,-2,-2,-1,-3,-4,-5,-6,-8,-9,-12,-14,-18,-18,-18,-19,-19
delta_CURRENTGOLD,0,0,-11,25,-45,-502,312,1664,-562,-689,-340,1387,-3638,-2837,-1910,-2011,-2286,-1795,-5556,-7217,-7385,2477,-803,-1835,-1872
delta_TOTALGOLD,0,0,-11,35,-35,-527,-453,-276,-752,-1039,-1195,-833,-2207,-3057,-3880,-4431,-5381,-5865,-8301,-10627,-12745,-10918,-10943,-11140,-11437
delta_LEVEL,0,0,0,1,-2,-2,-1,1,-1,-2,-1,-1,-2,-5,-3,-6,-5,-5,-8,-8,-13,-10,-10,-8,-8
delta_SBIRES,0,0,0,12,9,11,20,24,18,25,15,22,14,14,12,11,10,9,-6,-13,-27,-16,-18,-26,-26
