name,frame_0,frame_1,frame_2,frame_3,frame_4,frame_5,frame_6,frame_7,frame_8,frame_9,frame_10,frame_11,frame_12,frame_13,frame_14,frame_15,frame_16,frame_17,frame_18,frame_19,frame_20,frame_21,frame_22
nameStamp,Tstart,Tearly,Tearly,Tearly,Tearly,Tearly,Tearly,Tearly,Tearly,Tearly,Tearly,Tearly,Tearly,Tearly,Tearly,Tearly,Tmid,Tmid,Tmid,Tmid,Tmid,Tmid,Tmid
timestamp,0,60020,120021,180051,240074,300108,360141,420172,480174,540205,600236,660240,720273,780277,840302,900310,960342,1020342,1080370,1140378,1200381,1260390,1320391
participant_0_GOLD,500,500,597,776,1060,1416,1623,1923,2073,2629,2751,2888,3094,3531,3724,3846,4098,4262,4495,4724,4950,5400,5522
participant_0_CURRENTGOLD,500,0,97,276,560,616,323,623,73,629,251,388,194,631,174,296,548,712,225,454,330,780,152
participant_0_LEVEL,1,1,1,3,4,5,6,6,7,8,8,8,9,9,9,9,10,10,10,10,10,11,11
participant_0_MINIONSKILLED,0,0,4,7,16,18,22,29,31,39,39,40,45,50,54,54,58,60,62,65,67,78,78
participant_0_KILLS,0,0,0,0,0,0,0,0,0,0,0,1,1,1,1,1,2,2,2,2,2,2,2
participant_0_BUY,[],"[1055, 2003, 3340]",[],[],[],[],"[1001, 1042, 2003, 2003]",[],[2031],[],[1018],[3086],[],[],[3046],[],[1038],[],[],[],[],[],[1037]
participant_0_SOLD,[],[],[],[],[2003],[],[],"[2003, 2003]",[],[],[],"[1018, 1042]",[],[],[3086],[],[],[],[],[],[],[],[]
participant_0_UNDO,[],[],[],[],[],[],[],[],[],[],[],[],[],[],[],[],[],[],[],[],[],[],[]
participant_1_GOLD,500,500,620,963,1271,1875,2103,2310,2532,2825,3152,3310,3517,3730,3853,3975,4783,4979,5164,5413,5819,6117,6281
participant_1_CURRENTGOLD,500,0,120,463,771,1375,1603,1810,482,775,1102,1260,132,345,168,290,1098,29,214,463,869,167,331
participant_1_LEVEL,1,1,2,3,3,4,5,5,5,6,6,7,7,7,7,7,8,9,9,9,10,10,10
participant_1_MINIONSKILLED,0,0,0,0,0,0,0,0,0,0,0,2,2,8,8,8,9,16,20,24,33,34,37
participant_1_KILLS,0,0,0,0,0,0,0,0,0,0,0,0,0,0,0,0,0,0,0,0,0,0,0
participant_1_BUY,[],"[2003, 3340, 1055]",[],[],[],"[1036, 1036, 2055, 2003]",[],[1001],[],[],[1053],[],[3006],[1042],[],[],[],[],[],[1038],[],[],[]
participant_1_SOLD,[],[],[],[2003],[],[],[2055],[],[],[2003],[1036],[],[1001],[],[],[],[],[],[],[],[],[],[]
participant_1_UNDO,[],[],[],[],[],[],[],[],[],[],[],[],[],[],[],[],[],[],[],[],[],[],[]
participant_2_GOLD,500,500,611,860,1158,1315,1525,1787,1937,2251,2415,3021,3319,3616,3760,4155,5101,5355,5477,5670,5911,6048,6170
participant_2_CURRENTGOLD,500,0,111,360,658,815,325,587,587,901,265,571,869,1166,110,505,151,405,527,720,961,1098,345
participant_2_LEVEL,1,1,1,3,4,5,5,6,7,7,7,9,9,10,10,10,11,11,11,12,12,12,12
participant_2_MINIONSKILLED,0,0,5,12,22,24,26,34,36,44,46,54,61,71,72,84,92,96,96,96,104,105,105
participant_2_KILLS,0,0,0,0,0,1,1,1,1,1,1,1,1,1,1,1,1,1,1,2,2,2,2
participant_2_BUY,[],"[2003, 3340, 2003, 3858]",[],[],[],[],"[1027, 1028]",[],[3010],[],[2031],[],[],[],[],"[1026, 1001]",[],[],[],[],[3027],[],[3020]
participant_2_SOLD,[],[],[],[],[],"[2003, 2003]",[],[],"[1028, 1027]",[],[],[],[],[],[],[],[3858],[],[],[],"[3010, 1026]",[],[1001]
participant_2_UNDO,[],[],[],[],[],[],[],[],[],[],[],[],[],[],[],[],[],[],[],[],[],[],[]
participant_3_GOLD,500,500,562,825,1095,1388,1696,1860,2226,2454,2725,3007,3129,3406,3659,3844,4023,4159,4302,4634,4916,5130,5252
participant_3_CURRENTGOLD,500,0,62,325,595,63,371,235,601,829,550,832,154,131,384,569,748,884,1027,59,341,555,677
participant_3_LEVEL,1,1,1,2,3,4,4,5,6,6,6,7,7,7,7,8,8,8,9,9,9,10,10
participant_3_MINIONSKILLED,0,0,2,10,18,19,27,29,41,47,53,59,59,65,69,73,77,78,79,87,93,98,98
participant_3_KILLS,0,0,0,0,0,0,0,0,0,1,1,1,1,1,1,1,1,1,1,1,1,1,1
participant_3_BUY,[],"[1054, 2003, 3340]",[],[],[],[1029],[1031],[],"[1028, 1001]",[],[3751],[],[1028],[],[3068],[],[],[],[1057],[],[1027],[],"[3010, 3363]"
participant_3_SOLD,[],[],[],"[2010, 2003]",[],[2010],[1029],[2010],[],[],[1028],[],[],[],"[1031, 1028, 3751]",[],[],[],[],[],[],[],"[1027, 3340]"
participant_3_UNDO,[],[],[],[],[],[],[],[],[],[],[],[],[],[],[],[],[],[],[],[],[],[],[]
participant_4_GOLD,500,500,522,657,848,1303,1504,1638,1793,1928,2062,2272,2420,2617,2787,2949,3112,3252,3420,3861,4029,4351,4491
participant_4_CURRENTGOLD,500,0,22,157,348,803,254,388,193,328,312,522,670,867,1037,49,212,352,520,961,479,801,141
participant_4_LEVEL,1,1,1,1,2,3,4,4,4,4,5,5,5,6,7,7,8,8,8,8,9,9,9
participant_4_MINIONSKILLED,0,0,0,0,3,4,5,5,6,6,6,7,8,12,14,16,18,18,20,20,22,29,29
participant_4_KILLS,0,0,0,0,0,1,1,1,1,1,1,1,1,1,1,1,2,2,2,2,2,2,2
participant_4_BUY,[],"[1039, 2003, 2003, 2003, 3340]",[],[],[],[],[],[],"[3706, 3108]",[],[],[],"[1402, 1001, 1052]",[],[1042],[],[],"[3101, 3108]",[],[],[],[3115],[]
participant_4_SOLD,[],[],[],[],[2003],[],[2003],[2003],[1039],[],[],[],"[3108, 3706]",[],[],[],[],"[1042, 1052]",[],[],[],"[3101, 3108]",[]
participant_4_UNDO,[],[],[],[],[],[],[],[],[],[],[],[],[],[],[],[],[],[],[],[],[],[],[]
participant_5_GOLD,500,500,541,832,955,1210,1494,1770,2602,2969,3296,3879,4449,4837,5057,5735,5907,6136,6998,7225,7498,8115,8458
participant_5_CURRENTGOLD,500,0,41,332,105,360,294,570,1402,269,596,1179,1749,687,107,785,57,286,1148,125,398,1015,1358
participant_5_LEVEL,1,1,1,3,3,4,5,6,7,7,8,9,10,10,10,10,10,11,11,12,12,12,12
participant_5_MINIONSKILLED,0,0,1,11,11,19,29,38,49,54,63,72,85,89,89,95,95,98,100,100,100,107,108
participant_5_KILLS,0,0,0,0,0,0,0,0,1,1,1,1,1,1,1,1,2,2,2,3,3,3,3
participant_5_BUY,[],"[1039, 2031, 3340]",[],[],[],[],"[3706, 1001, 2055, 2055]",[],[3751],[],[],[],"[1401, 3057]",[],[],[],[],[],"[3047, 3044, 1042]",[],[],"[3078, 1027]",[]
participant_5_SOLD,[],[],[],[],[],[],[1039],[],[],[],[],"[2055, 2055]","[3751, 3706]",[3340],[],[],[],[3513],[1001],[],[],"[1042, 3057, 3044]",[]
participant_5_UNDO,[],[],[],[],[],[],[],[],[],[],[],[],[],[],[],[],[],[],[],[],[],[],[]
participant_6_GOLD,500,500,697,1013,1318,1598,1783,2110,2817,3260,3748,4106,4368,4601,5027,5369,6259,6508,6794,7370,7652,8059,8382
participant_6_CURRENTGOLD,500,0,197,513,818,1098,183,510,317,760,1248,1606,218,451,877,1219,2109,2358,294,870,1152,76,399
participant_6_LEVEL,1,1,2,3,4,4,4,5,5,6,7,7,8,8,9,9,10,11,11,12,12,12,13
participant_6_MINIONSKILLED,0,0,0,0,0,0,0,0,0,0,3,3,3,4,7,7,20,24,26,31,31,31,33
participant_6_KILLS,0,0,0,0,0,1,1,2,3,3,4,5,6,6,6,6,6,6,6,6,6,6,8
participant_6_BUY,[],"[1055, 2003, 3340]",[],[],[],[],[1038],[],[3133],[],"[3508, 1001, 1042]",[],[],[],[],"[3006, 1038]",[],[1037],[],[],"[3031, 1028]",[],[]
participant_6_SOLD,[],[],[],[],[],[2003],[],[],[],[],"[3400, 1038, 3133]",[],[],[],[],"[1001, 1042]",[],[],[],[],"[1038, 1037]",[],[]
participant_6_UNDO,[],[],[],[],[],[],[],[],[],[],[],[],[],[],[],[],[],[],[],[],[],[],[]
participant_7_GOLD,500,500,562,913,1162,1459,1708,1959,2560,2888,3599,3982,4225,4557,5266,5613,6077,6982,7822,8136,8900,9291,9652
participant_7_CURRENTGOLD,500,0,62,413,662,959,298,549,1150,1478,2189,32,275,607,1316,1663,77,982,1822,2136,2900,3291,3652
participant_7_LEVEL,1,1,1,3,4,5,6,6,7,8,8,9,10,10,11,11,11,12,13,13,13,13,14
participant_7_MINIONSKILLED,0,0,2,13,20,28,35,42,53,62,71,74,78,90,97,108,110,114,117,120,124,128,130
participant_7_KILLS,0,0,0,0,0,0,0,0,1,1,2,2,2,2,3,3,3,4,4,5,5,6,6
participant_7_BUY,[],"[3854, 2003, 2003, 3340]",[],[],[],"[1001, 1036]",[],[],[3117],[],"[3134, 1036]",[],[],[],[],[3814],[],[],"[3134, 1036, 1036]",[],"[3179, 1036]",[],[]
participant_7_SOLD,[],[],[],"[2003, 2003]",[],[],[],[],[1001],[],"[3400, 1036]",[],[3854],[],[3400],[3134],[],[3400],[1036],[],"[3134, 1036, 1036]",[],[]
participant_7_UNDO,[],[],[],[],[],[],[],[],[],[],[],[],[],[],[],[],[],[],[],[],[],[],[]
participant_8_GOLD,500,500,562,892,1085,1782,1933,2533,3105,3510,4472,5083,5758,5972,6287,6662,7097,7541,8063,8276,8790,9121,9997
participant_8_CURRENTGOLD,500,0,62,392,585,1282,133,733,205,610,72,683,1358,1572,1887,462,897,466,988,1201,90,421,1297
participant_8_LEVEL,1,1,1,2,3,4,4,5,5,6,6,7,8,8,8,9,9,10,10,11,11,12,12
participant_8_MINIONSKILLED,0,0,2,11,15,22,24,32,32,45,51,61,72,77,84,92,103,111,127,132,134,138,144
participant_8_KILLS,0,0,0,0,0,0,0,0,0,0,1,2,2,2,3,3,3,5,5,5,6,6,6
participant_8_BUY,[],"[1056, 2003, 2003, 3340]",[],[],[],[],"[1027, 1052, 2055, 2003]",[],[],[],[],"[3285, 2055, 2003]",[],[],[],[],"[3020, 1058]",[],[],[],[],[],[]
participant_8_SOLD,[],[],[],[],[],[],[2055],[2003],[2003],[2003],[],"[1052, 1027]",[],[2003],[],[],[2422],[],"[3400, 2055]",[],[],[],[]
participant_8_UNDO,[],[],[],[],[],[],[],[],[],[],[],[],[],[],[],[],[],[],[],[],[],[],[]
participant_9_GOLD,500,500,543,752,901,1277,1503,1799,2233,2447,3181,3453,4036,4177,4938,5233,5445,6220,6612,7052,7242,7845,8209
participant_9_CURRENTGOLD,500,0,43,252,401,127,353,649,383,597,231,503,1086,1227,1988,483,695,1470,412,852,92,695,1059
participant_9_LEVEL,1,1,1,2,3,3,4,5,5,6,6,7,7,7,8,8,9,9,9,9,10,10,11
participant_9_MINIONSKILLED,0,0,1,3,4,6,11,13,13,17,17,17,19,19,20,22,23,24,24,24,24,24,24
participant_9_KILLS,0,0,0,0,0,0,0,0,1,1,1,2,2,3,3,3,3,3,4,4,4,5,5
participant_9_BUY,[],"[1054, 2003, 3340]",[],[],[1036],[],[1036],[],[],"[3144, 1042, 1042]",[],[],[],"[3153, 1036]",[3067],[],[3044],[],[],"[3071, 1029]",[],[],[]
participant_9_SOLD,[],[],[],[2003],[],[],[],[],[],"[1036, 1036]",[],[],[],"[3144, 1042, 1042]",[],[],[1036],[],[],"[3044, 3067]",[3340],[3513],[]
participant_9_UNDO,[],[],[],[],[],[],[],[],[],[],[],[],[],[],[],[],[],[],[],[],[],[],[]
team0_KILLS,0,0,0,0,0,2,2,2,2,3,3,4,4,4,4,4,6,6,6,7,7,7,7
team0_CURRENTGOLD,2500,0,412,1581,2932,3672,2876,3643,1936,3462,2480,3573,2019,3140,1873,1709,2757,2382,2513,2657,2980,3401,1646
team0_TOTALGOLD,2500,2500,2912,4081,5432,7297,8451,9518,10561,12087,13105,14498,15479,16900,17783,18769,21117,22007,22858,24302,25625,27046,27716
team0_LEVEL,5,5,6,12,16,21,24,26,29,31,32,36,37,39,40,41,45,46,47,48,50,52,52
team0_SBIRES,0,0,11,29,59,65,80,97,114,136,144,162,175,206,217,235,254,268,277,292,319,344,347
team1_KILLS,0,0,0,0,0,1,1,2,6,6,9,12,13,14,16,16,17,20,21,23,24,26,28
team1_CURRENTGOLD,2500,0,405,1902,2571,3826,1261,3011,3457,3714,4336,4003,4686,4544,6175,4612,3835,5562,4664,5184,4632,5498,7765
team1_TOTALGOLD,2500,2500,2905,4402,5421,7326,8421,10171,13317,15074,18296,20503,22836,24144,26575,28612,30785,33387,36289,38059,40082,42431,44698
team1_LEVEL,5,5,6,13,17,20,23,27,29,33,35,39,43,43,46,47,49,53,54,57,58,59,62
team1_SBIRES,0,0,6,38,50,75,99,125,147,178,205,227,257,279,297,324,351,371,394,407,413,428,439
delta_KILLS,0,0,0,0,0,1,1,0,-4,-3,-6,-8,-9,-10,-12,-12,-11,-14,-15,-16,-17,-19,-21
delta_CURRENTGOLD,0,0,7,-321,361,-154,1615,632,-1521,-252,-1856,-430,-2667,-1404,-4302,-2903,-1078,-3180,-2151,-2527,-1652,-2097,-6119
delta_TOTALGOLD,0,0,7,-321,11,-29,30,-653,-2756,-2987,-5191,-6005,-7357,-7244,-8792,-9843,-9668,-11380,-13431,-13757,-14457,-15385,-16982
delta_LEVEL,0,0,0,-1,-1,1,1,-1,0,-2,-3,-3,-6,-4,-6,-6,-4,-7,-7,-9,-8,-7,-10
delta_SBIRES,0,0,5,-9,9,-10,-19,-28,-33,-42,-61,-65,-82,-73,-80,-89,-97,-103,-117,-115,-94,-84,-92
