name,frame_0,frame_1,frame_2,frame_3,frame_4,frame_5,frame_6,frame_7,frame_8,frame_9,frame_10,frame_11,frame_12,frame_13,frame_14,frame_15,frame_16,frame_17,frame_18,frame_19,frame_20,frame_21,frame_22,frame_23,frame_24,frame_25,frame_26,frame_27,frame_28,frame_29,frame_30,frame_31,frame_32,frame_33,frame_34
nameStamp,Tstart,Tearly,Tearly,Tearly,Tearly,Tearly,Tearly,Tearly,Tearly,Tearly,Tearly,Tearly,Tearly,Tearly,Tearly,Tearly,Tearly,Tearly,Tearly,Tmid,Tmid,Tmid,Tmid,Tmid,Tmid,Tmid,Tmid,Tmid,Tmid,Tmid,Tmid,Tmid,Tmid,Tmid,Tmid
timestamp,0,60019,120026,180048,240061,300096,360121,420132,480158,540185,600212,660219,720246,780274,840288,900293,960307,1020323,1080340,1140350,1200376,1260388,1320406,1380415,1440444,1500447,1560465,1620498,1680530,1740543,1800548,1860557,1920582,1980588,2040588
participant_0_GOLD,500,500,562,868,1142,1436,1608,1807,2068,2386,2822,2945,3200,3629,3864,4077,4357,4504,4704,4883,5311,5895,6560,7086,7587,7891,8213,8749,9067,9477,9951,10074,10836,11213,12028
participant_0_CURRENTGOLD,500,0,62,368,642,936,1108,307,568,886,1322,45,300,729,964,1177,1457,404,604,783,511,1095,1760,186,687,991,113,49,367,777,1251,674,1436,1813,2428
participant_0_LEVEL,1,1,1,3,4,5,6,6,7,8,8,8,9,10,10,11,11,11,12,12,12,13,13,14,14,15,15,15,15,16,16,16,17,17,18
participant_0_MINIONSKILLED,0,0,2,10,18,25,28,32,37,44,53,53,61,70,77,82,87,88,90,93,103,112,121,126,131,132,134,135,143,153,160,160,161,168,178
participant_0_KILLS,0,0,0,0,0,0,1,2,2,2,2,3,3,4,5,5,6,7,7,7,7,9,9,11,11,12,13,14,14,14,14,14,18,19,19
participant_0_BUY,[],"[1055, 2003, 3340]",[],[],[],[],[],[],"[3134, 1001]","[1036, 2003, 2003]",[],[3009],[],"[3133, 1036]",[],[6691],[],[1018],[],[1037],[1036],[],[3133],[],"[6675, 1036]","[1036, 2003, 2003, 2003]",[],[],[],"[3134, 1037]",[],[3142],[],"[3134, 1037, 2140]",[]
participant_0_SOLD,[],[],[],[],[],[],[2003],[],[],[],[2003],"[2003, 2003, 1001]",[],[1036],[],"[1036, 3134, 3133]",[],[],[],[1055],[],[],[1036],[],"[3133, 1037, 1018]",[],[],[],[2003],"[1036, 1036, 2003, 2003]",[],"[3134, 1037]",[],[],[2140]
participant_0_UNDO,[],[],[],[],[],[],[],[],[],[],[],"[[2003, 0]]",[],[],[],[],[],[],[],[],[],[],[],[],[],[],[],[],[],[],[],[],[],"[[0, 1037]]",[]
participant_1_GOLD,500,500,651,878,1421,1620,1893,2135,2340,2753,2960,3336,3563,3840,4183,4475,4923,5136,5671,5818,5954,6407,6989,8082,8204,8516,8688,9049,9255,9926,10148,10681,10854,11267,11424
participant_1_CURRENTGOLD,500,0,151,378,921,1120,293,235,430,493,700,1076,1303,1580,1923,165,613,826,111,258,44,497,1079,2172,94,406,578,939,1146,1816,538,1072,4,418,524
participant_1_LEVEL,1,1,2,2,3,4,4,4,4,5,5,6,6,7,8,8,8,9,10,10,10,10,11,12,12,12,13,13,13,14,14,15,15,15,16
participant_1_MINIONSKILLED,0,0,0,0,0,0,0,0,2,2,2,5,5,10,10,10,13,18,20,20,21,21,34,34,34,38,41,45,50,54,54,64,64,65,65
participant_1_KILLS,0,0,0,0,0,0,0,0,0,0,0,0,1,2,4,4,5,6,7,7,7,8,8,8,8,11,11,11,11,13,13,13,13,15,19
participant_1_BUY,[],"[3070, 2003, 2003, 3340]",[],[2055],[],[],[],[],[],"[3802, 2055]",[],[],[1026],[1056],"[6655, 1026, 1011, 2003]",[],[],[],[3116],[],[],[],[3191],[],[2420],[],"[3157, 1058]",[],[],[],[],"[3089, 1026]",[],[],[]
participant_1_SOLD,[],[],[],[2003],[],[],[2003],[],[],[],[],[],[],[],"[3802, 1026]",[],"[2003, 2055]",[],[1011],[],[],[],[],[],[2055],[],"[3191, 2420]",[],[],[],[],"[1058, 1056]",[],[],[]
participant_1_UNDO,[],[],[],[],[],[],[],[],[],[],[],[],[],[],"[[0, 1026]]",[],[],[],[],[],[],[],[],[],[],[],[],[],[],[],[],[],[],[],[]
participant_2_GOLD,500,500,576,899,1078,1389,1812,2234,2370,2640,2897,3390,3617,4117,4589,4861,5356,5778,6222,6344,6467,7337,7565,8364,8486,8883,9447,10109,10385,10558,10990,11245,13077,13650,13718
participant_2_CURRENTGOLD,500,0,76,389,568,879,1302,1724,460,280,537,450,677,67,539,56,551,373,817,244,17,887,365,1164,112,8,572,1234,1510,448,881,110,1943,915,498
participant_2_LEVEL,1,1,1,3,3,5,5,5,5,6,6,7,8,8,9,9,10,10,11,11,11,12,12,13,13,13,13,14,14,14,14,14,16,16,16
participant_2_MINIONSKILLED,0,0,3,12,15,27,27,27,28,37,44,49,55,56,59,59,61,61,62,62,62,65,71,75,75,75,81,82,86,86,86,90,99,99,99
participant_2_KILLS,0,0,0,0,0,0,0,0,0,0,0,0,0,0,0,2,2,2,3,3,3,3,3,3,3,3,3,3,3,3,4,4,5,5,5
participant_2_BUY,[],"[3850, 2003, 2003, 3340]",[],[],[],[],"[1056, 1056, 2003, 2003, 2055, 2003, 2055]",[],[],"[1001, 3364, 2003, 2003]",[],[],"[3020, 2055, 2055]",[],[2055],[],[3802],[],[],[],[],"[6653, 2055]",[],[],[],[3191],[],[],[],[],"[3157, 1011]",[],[],[],[3116]
participant_2_SOLD,[],[],[],[2003],[2003],[],[],[],[2055],"[3850, 2055, 3340]","[2003, 2003, 2003]","[2003, 2003]",[1001],"[2419, 2055]",[],[3851],"[2423, 1056]",[],[],[2055],[],[3802],[],[],[],[1056],[],[],[],[],"[3191, 2424]",[],[],[],[1011]
participant_2_UNDO,[],[],[],[],[],[],[],[],[],[],[],[],[],[],[],[],[],[],[],[],[],[],[],[],[],[],[],[],[],[],[],[],[],[],[]
participant_3_GOLD,500,500,541,727,962,1210,1361,1725,1931,2124,2381,2532,3527,4189,5424,5623,6377,6994,8005,8336,8737,9360,9482,9721,9970,11376,11533,12330,12748,13936,14754,15043,15679,16904,18022
participant_3_CURRENTGOLD,500,0,41,152,387,635,786,1150,1356,174,431,582,727,989,24,223,977,1594,505,836,1237,1860,1082,1322,950,2356,313,1111,1528,2716,3535,584,1220,2445,3372
participant_3_LEVEL,1,1,1,2,2,3,4,5,5,6,6,6,7,8,8,8,9,10,10,11,11,12,12,12,12,13,13,14,14,15,15,15,16,16,17
participant_3_MINIONSKILLED,0,0,1,5,12,19,21,29,34,38,43,45,56,60,66,71,80,90,99,107,119,119,119,122,122,127,129,141,148,155,160,165,179,187,187
participant_3_KILLS,0,0,0,0,0,0,0,0,0,0,0,0,0,0,0,0,0,0,0,0,0,0,1,2,3,3,3,3,3,3,3,3,4,4,4
participant_3_BUY,[],[2033],[],[],[],[],[],[6660],[],[],[],"[1033, 1029, 1001, 3111]",[],[],[],[],[],[3105],[],[],[3068],[],[],"[1053, 3077]",[],[],[3074],"[1028, 1028]",[],[],[],[3044],[],[],[]
participant_3_SOLD,[],[],[],[],[],[],[],[],[],[],[],"[1001, 1033]",[],[],[],[],[],[1029],[],[],"[6660, 3105]",[],[],[],[],[],"[3077, 1053]",[2033],[],[],[],[1028],[],[],[]
participant_3_UNDO,[],[],[],[],[],[],[],[],[],[],[],[],[],[],[],[],[],[],[],[],[],[],[],[],[],[],[],[],[],[],[],[],[],[],[]
participant_4_GOLD,500,500,522,797,1136,1310,1537,1751,1925,2126,2346,2662,3057,3437,3898,4718,5036,5357,6035,6246,6424,6615,6755,6970,7380,7716,7899,8381,8521,9168,10000,10182,10813,11363,11441
participant_4_CURRENTGOLD,500,0,22,297,636,810,-163,51,225,-24,196,512,-43,287,673,1493,671,992,1671,1881,2059,25,165,381,790,386,569,1051,1192,1838,420,603,1233,1783,-309
participant_4_LEVEL,1,1,1,2,3,4,4,4,5,5,5,6,7,7,8,8,9,9,10,10,10,10,10,11,11,12,12,13,13,14,14,14,15,15,15
participant_4_MINIONSKILLED,0,0,0,0,5,5,5,5,5,5,7,11,13,14,14,14,16,17,18,21,24,24,24,24,28,28,31,33,33,39,44,47,50,50,50
participant_4_KILLS,0,0,0,0,1,1,1,1,1,1,1,1,1,1,1,1,1,1,2,2,2,2,2,3,3,3,3,3,3,4,4,4,4,4,4
participant_4_BUY,[],"[1039, 2031, 3340]",[],[],[],[],[3134],[1001],[],[1036],[],[],[],[],[],"[6692, 1029]",[],[],"[3047, 1028, 1036]",[],[1036],[],[],[],"[3133, 3067, 1036, 3071]",[],[],[],[],[],"[1053, 1018]",[],[1038],[],[]
participant_4_SOLD,[],[],[],[],[],[],[],[],[],[1039],[],[],[],[],[],"[3134, 1036]",[],[],"[1001, 1029]",[],[],[],[],[],"[1036, 1036, 1028, 3133, 3067, 1036]",[],[],[],[],[],[],[],[2031],[],[]
participant_4_UNDO,[],[],[],[],[],[],[],[],[],[],[],[],[],[],[],[],[],[],[],[],[],[],[],[],[],[],[],[],[],[],[],[],[],[],[]
participant_5_GOLD,500,500,597,769,963,1195,1532,1924,2220,2453,2617,3235,3512,3777,4038,4249,4572,4699,4821,5004,5490,6655,6819,6991,7163,7335,7463,7785,7996,8120,8367,8622,8758,9137,9339
participant_5_CURRENTGOLD,500,50,147,319,513,445,782,1174,1470,1703,267,885,1162,427,688,899,1222,1349,71,254,90,355,519,291,463,235,363,685,896,370,617,872,208,587,789
participant_5_LEVEL,1,1,1,3,4,5,5,6,7,7,7,8,9,9,10,10,10,11,11,11,11,12,12,12,12,12,13,13,13,13,14,14,14,15,15
participant_5_MINIONSKILLED,0,0,4,7,10,17,26,32,39,45,47,54,59,67,75,80,86,86,86,86,87,90,92,92,95,95,95,98,99,99,103,106,107,114,121
participant_5_KILLS,0,0,0,0,0,0,0,0,0,0,0,1,1,1,1,1,1,1,1,1,2,3,3,3,3,3,3,3,3,3,3,3,3,3,3
participant_5_BUY,[],"[1054, 3340, 2003]",[],[],[],[1001],[],[],[],[],"[3047, 1028, 1028]",[],[],"[6660, 1031]",[],[],[],[],"[1033, 6662]",[],"[1028, 3801]",[1011],[],[1028],[],[3067],[],[],[],[3083],[],[],"[1028, 3066]",[],[]
participant_5_SOLD,[],[],[],[2010],[],[],[2010],[2010],[],[],[1001],[],[],"[1028, 1028]",[],[],[],[],"[6660, 1033, 1031]",[],[1028],[],[],[],[],[1028],[],[],[],"[1011, 3067, 3801]",[],[],[1028],[],[]
participant_5_UNDO,[],"[[0, 2003]]",[],[],[],[],[],[],[],[],[],[],[],[],[],[],[],[],[],[],[],[],[],[],[],[],[],[],[],[],[],[],[],[],[]
participant_6_GOLD,500,500,620,1033,1156,1383,1910,2182,2409,2899,3576,3869,4091,4671,4793,5810,6403,6790,7135,7407,8040,8225,8387,8560,8703,8896,9019,9225,9389,9513,9852,9994,10261,10533,10643
participant_6_CURRENTGOLD,500,0,120,533,256,483,1010,682,909,1399,2076,2369,2591,3171,493,1510,803,1190,1535,1807,2440,425,587,60,203,157,279,485,650,373,713,455,721,394,443
participant_6_LEVEL,1,1,2,3,3,3,4,4,5,5,6,6,7,7,7,8,9,9,10,10,10,11,11,11,11,12,12,12,12,12,13,13,13,14,14
participant_6_MINIONSKILLED,0,0,0,0,0,0,0,1,1,2,2,2,2,2,2,2,2,4,5,5,6,10,12,12,13,14,14,19,21,21,26,26,29,29,32
participant_6_KILLS,0,0,0,1,1,1,2,2,2,2,2,2,2,2,2,2,2,2,2,2,2,2,2,3,3,3,3,3,4,4,5,5,5,6,6
participant_6_BUY,[],"[1055, 2003]",[],[],[1018],[],[],"[1037, 2055, 2055, 2003, 2003]",[],[1036],[],[],"[6670, 2055]",[],[1001],"[6672, 6672]",[],[3009],[],[1036],[],[],[3134],[],[1037],[],[],[],[],"[6676, 3086]",[],[2015],[],[],[]
participant_6_SOLD,[],[],[],[],[],[],[2003],[],[],[],"[2055, 2003]",[],[1036],[2055],[],"[1055, 6670, 1018, 1037, 6670, 1018, 1037]",[2003],[1001],[],[],[],[],[1036],[],[],[],[],[],[],"[3134, 1037]",[],[],[],[],[]
participant_6_UNDO,[],[],[],[],[],[],[],"[[0, 2055]]",[],[],[],[],[],[],[],"[[0, 6672]]",[],[],[],[],[],[],[],[],[],[],[],[],[],[],[],[],[],[],[]
participant_7_GOLD,500,500,576,860,1111,1233,1587,2158,2380,2616,2965,3253,3467,3664,4009,4132,4254,4800,5542,6167,6815,7112,8054,8976,9343,9813,9940,10875,11101,11535,12051,12353,13078,13670,13752
participant_7_CURRENTGOLD,500,0,76,360,601,213,557,1128,185,421,770,198,412,609,944,267,389,935,777,1402,2050,47,989,1911,328,798,626,260,486,920,586,889,1613,55,177
participant_7_LEVEL,1,1,1,3,4,4,4,5,5,6,6,7,8,8,8,8,8,9,9,10,10,10,12,12,13,13,13,14,14,14,15,15,15,16,16
participant_7_MINIONSKILLED,0,0,3,12,17,17,23,27,27,31,35,41,47,47,56,56,56,63,63,71,74,80,95,97,107,109,109,111,113,127,133,139,142,142,143
participant_7_KILLS,0,0,0,0,0,0,0,1,2,2,2,3,3,3,3,3,3,3,3,3,3,3,4,4,4,5,5,5,5,5,5,5,5,5,5
participant_7_BUY,[],"[3850, 2003, 2003, 3340]",[],[],"[1001, 2031]",[],[1004],[],[],"[3009, 1026]",[],[3114],[3504],[],[1028],[3067],[],[],[1052],[],[],[4642],[],[],"[4005, 3113]",[3057],[],[],[],[],[],[3363],[3100],[],[]
participant_7_SOLD,[],[],[],"[2003, 2003]",[],[],[],[],[3850],[1001],[],[1004],"[3114, 1026]",[],[],"[3851, 1028]",[],[],[],[],[],[1052],[2031],[],"[3067, 4642]",[],[],[],[],[],[],[3340],"[3057, 3113]",[],[]
participant_7_UNDO,[],[],[],[],[],[],[],[],[],[],[],[],[],[],[],[],[],[],[],[],[],[],[],[],[],[],[],[],[],[],[],[],[],[],[]
participant_8_GOLD,500,500,583,1210,1333,1616,2122,2422,2690,2917,3147,3516,3794,3986,4171,4389,4936,5164,5328,5577,5890,6284,6546,7102,7225,7417,7623,8011,8941,9154,10027,10211,10428,11387,11455
participant_8_CURRENTGOLD,500,0,83,710,233,516,1022,272,540,417,647,1016,269,461,346,119,666,294,458,357,670,1064,576,1132,379,572,778,1166,2096,84,957,441,659,1617,1505
participant_8_LEVEL,1,1,1,2,3,4,5,5,5,6,6,6,7,7,8,8,9,9,9,9,10,11,11,11,11,12,12,13,13,13,14,14,14,15,15
participant_8_MINIONSKILLED,0,0,3,8,8,15,19,21,27,33,38,42,47,51,55,55,66,72,75,80,88,92,96,97,97,97,102,107,114,115,127,130,130,132,132
participant_8_KILLS,0,0,0,0,0,0,0,1,1,1,1,1,1,1,1,1,1,2,3,3,4,4,5,7,7,8,8,9,9,9,10,10,11,12,12
participant_8_BUY,[],"[1056, 2003, 2003, 3340]",[],[],[],"[1052, 2055]",[],[],"[3802, 1001]",[],[],[1026],[],[],[],[3020],[],[],[3108],[],[],"[6655, 1052, 3145]",[],[],[4628],[],[1029],[3157],[],[],[1026],[],[],"[3135, 2139]",[]
participant_8_SOLD,[],[],[],[],[],[2055],"[2003, 2003]",[],[1052],[],[],[],[],[],[],[1001],[],[],[],[],[],"[3802, 1026, 1052]",[],[],[3145],[],[],"[1029, 3108]",[],[],[],[],[],"[1026, 2139]",[]
participant_8_UNDO,[],[],[],[],[],[],[],[],[],[],[],[],[],[],[],[],[],[],[],[],[],[],[],[],[],[],[],[],[],[],[],[],[],[],[]
participant_9_GOLD,500,500,522,983,1137,1311,1601,2160,2670,3051,3272,3752,3913,4169,4349,4794,5099,5297,5466,5666,6090,6306,6896,7411,7552,8142,8283,8479,8694,8989,9314,9455,9595,9735,9849
participant_9_CURRENTGOLD,500,0,22,483,187,361,401,960,1470,401,622,552,63,319,99,145,449,647,381,581,1006,606,1256,1772,212,102,243,439,655,949,1275,1415,105,246,299
participant_9_LEVEL,1,1,1,2,2,3,3,4,4,5,5,6,6,6,7,7,8,8,8,9,9,9,10,11,11,11,11,12,12,13,13,13,13,13,13
participant_9_MINIONSKILLED,0,0,0,0,0,0,0,0,0,6,6,6,7,7,7,7,13,16,18,18,23,23,23,23,23,23,23,27,27,32,34,34,34,34,36
participant_9_KILLS,0,0,0,0,0,0,1,1,1,2,3,3,3,4,4,6,7,7,7,7,7,7,7,7,7,7,7,7,7,7,7,7,7,7,7
participant_9_BUY,[],"[1035, 2031, 3340]",[],[],[1028],[],[],[6660],[],[],[],[],[],[],"[3068, 1001, 1029]",[],"[3047, 3076]",[],[],[],[],"[3075, 1029]",[],"[1029, 3082]",[],[1029],[],[],[],[1028],[],[3067],[],[3143],[]
participant_9_SOLD,[],[],[],[],[],[],[],[1028],[],[],[],[],[3340],[1035],[6660],[],"[3513, 1001, 1029]",[],[],"[3340, 3513]",[],[3076],[],"[1029, 1029]",[],[2031],[],[],[],[],[],[1028],[],"[3082, 1029, 3067]",[]
participant_9_UNDO,[],[],[],[],[],[],[],[],[],[],[],[],[],[],[],[],[],[],[],[],[],[],[],[],[],[],[],[],[],[],[],[],[],[],[]
team0_KILLS,0,0,0,0,1,1,2,3,3,3,3,4,5,7,10,12,14,16,19,19,19,22,23,27,28,32,33,34,34,37,38,38,44,47,51
team0_CURRENTGOLD,2500,0,352,1584,3154,4380,3326,3467,3039,1809,3186,2665,2964,3652,4123,3114,4269,4189,3708,4002,3868,4364,4451,5225,2633,4147,2145,4384,5743,7595,6625,3043,5836,7374,6513
team0_TOTALGOLD,2500,2500,2852,4169,5739,6965,8211,9652,10634,12029,13406,14865,16964,19212,21958,23754,26049,27769,30637,31627,32893,35614,37351,40223,41627,44382,45780,48618,49976,53065,55843,57225,61259,64397,66633
team0_LEVEL,5,5,6,12,15,21,23,24,26,30,30,33,37,40,43,44,47,49,53,54,54,57,58,62,62,65,66,69,69,73,73,74,79,79,82
team0_SBIRES,0,0,6,27,50,76,81,93,106,126,149,163,190,210,226,236,257,274,289,303,329,341,369,381,390,400,416,436,460,487,504,526,553,569,579
team1_KILLS,0,0,0,1,1,1,3,5,6,7,8,10,10,11,11,13,14,15,16,16,18,19,21,24,24,26,26,27,28,28,30,30,31,33,33
team1_CURRENTGOLD,2500,50,448,2405,1790,2018,3772,4216,4574,4341,4382,5020,4497,4987,2570,2940,3529,4415,3222,4401,6256,2497,3927,5166,1585,1864,2289,3035,4783,2696,4148,4072,3306,2899,3213
team1_TOTALGOLD,2500,2500,2898,4855,5700,6738,8752,10846,12369,13936,15577,17625,18777,20267,21360,23374,25264,26750,28292,29821,32325,34582,36702,39040,39986,41603,42328,44375,46121,47311,49611,50635,52120,54462,55038
team1_LEVEL,5,5,6,13,16,19,21,24,26,29,30,33,37,37,40,41,44,46,47,49,50,53,56,57,58,60,61,64,64,65,69,69,69,73,73
team1_SBIRES,0,0,10,27,35,49,68,81,94,117,128,145,162,174,195,200,223,241,247,260,278,295,318,321,335,338,343,362,374,394,423,435,442,451,464
delta_KILLS,0,0,0,-1,0,0,-1,-2,-3,-4,-5,-6,-5,-4,-1,-1,0,1,3,3,1,3,2,3,4,6,7,7,6,9,8,8,13,14,18
delta_CURRENTGOLD,0,-50,-96,-821,1364,2362,-446,-749,-1535,-2532,-1196,-2355,-1533,-1335,1553,174,740,-226,486,-399,-2388,1867,524,59,1048,2283,-144,1349,960,4899,2477,-1029,2530,4475,3300
delta_TOTALGOLD,0,0,-46,-686,39,227,-541,-1194,-1735,-1907,-2171,-2760,-1813,-1055,598,380,785,1019,2345,1806,568,1032,649,1183,1641,2779,3452,4243,3855,5754,6232,6590,9139,9935,11595
delta_LEVEL,0,0,0,-1,-1,2,2,0,0,1,0,0,0,3,3,3,3,3,6,5,4,4,2,5,4,5,5,5,5,8,4,5,10,6,9
delta_SBIRES,0,0,-4,0,15,27,13,12,12,9,21,18,28,36,31,36,34,33,42,43,51,46,51,60,55,62,73,74,86,93,81,91,111,118,115
