name,team0,team1
win,Win,Fail
firstBlood,False,True
firstTower,False,True
firstInhibitor,False,False
firstBaron,False,False
firstDragon,True,False
firstRiftHerald,True,False
towerKills,7,2
inhibitorKills,0,0
baronKills,0,0
dragonKills,2,2
riftHeraldKills,1,1
