name,team0,team1
win,Win,Fail
firstBlood,False,True
firstTower,True,False
firstInhibitor,True,False
firstBaron,False,False
firstDragon,True,False
firstRiftHerald,False,True
towerKills,9,0
inhibitorKills,2,0
baronKills,0,0
dragonKills,3,0
riftHeraldKills,1,1
