name,frame_0,frame_1,frame_2,frame_3,frame_4,frame_5,frame_6,frame_7,frame_8,frame_9,frame_10,frame_11,frame_12,frame_13,frame_14,frame_15,frame_16,frame_17,frame_18,frame_19,frame_20,frame_21,frame_22
nameStamp,Tstart,Tearly,Tearly,Tearly,Tearly,Tearly,Tearly,Tearly,Tearly,Tearly,Tearly,Tearly,Tearly,Tearly,Tearly,Tearly,Tmid,Tmid,Tmid,Tmid,Tmid,Tmid,Tmid
timestamp,0,60013,120027,180056,240080,300082,360099,420115,480121,540138,600159,660176,720209,780212,840237,900259,960270,1020282,1080300,1140305,1200316,1260316,1320316
participant_0_GOLD,500,500,583,860,1197,1877,2210,3088,3342,3845,4329,4709,5041,5359,5557,5834,6410,7341,7518,8289,8677,9276,9394
participant_0_CURRENTGOLD,500,0,83,210,547,52,385,63,317,820,304,384,776,294,67,344,470,1401,378,1149,437,1037,1094
participant_0_LEVEL,1,1,1,3,4,4,5,7,7,8,8,9,9,10,10,10,11,12,12,12,13,13,13
participant_0_MINIONSKILLED,0,0,3,12,22,33,45,58,62,82,84,96,108,119,119,125,135,147,147,159,168,185,185
participant_0_KILLS,0,0,0,0,0,0,1,1,1,1,1,1,1,1,2,2,2,4,4,7,7,8,8
participant_0_BUY,[],"[1035, 2031, 3340, 3364]",[],[],[],"[1042, 1036, 1036]",[],[],[],[],[],[6672],[],[],[],[],[],"[1043, 1053, 1037, 3153]",[],[],[],[],[]
participant_0_SOLD,[],[3340],[],[],[],[],[],[],[],[],[1035],"[2031, 1036, 1042, 1036]",[],[],[],[],[],"[1053, 1043, 1037]",[],[],[],[],[]
participant_0_UNDO,[],[],[],[],[],[],[],[],[],[],[],[],[],[],[],[],[],[],[],[],[],[],[]
participant_1_GOLD,500,500,620,1033,1247,1560,2194,2542,2995,3277,3698,3925,4277,4789,5366,5649,6061,7113,7421,8695,9332,10121,10176
participant_1_CURRENTGOLD,500,0,120,533,747,60,694,1042,1495,1777,2198,85,437,949,1526,1809,2221,73,381,1655,2292,3082,3076
participant_1_LEVEL,1,1,2,3,3,4,5,5,6,7,7,8,8,9,9,10,10,11,11,12,13,13,13
participant_1_MINIONSKILLED,0,0,0,0,1,2,7,12,13,13,13,13,13,13,14,14,14,15,15,15,18,23,23
participant_1_KILLS,0,0,0,0,0,0,1,1,2,2,2,3,3,3,3,3,3,3,3,3,4,5,5
participant_1_BUY,[],"[3850, 2003, 2003, 3340]",[],[],[],[],[],"[4642, 1028]",[],"[3020, 3364]",[],[],"[4005, 2055, 2055]",[],[],[1026],[],[],[1011],[],[],"[4637, 3108]",[]
participant_1_SOLD,[],[],[],[],"[2003, 2003]",[],[],[],[2419],"[3850, 3340]",[],[2423],"[1028, 4642]",[2055],[],[3851],[],[],[2055],[],[],"[1026, 1011]",[]
participant_1_UNDO,[],[],[],[],[],[],[],[],[],[],[],[],[],[],[],[],[],[],[],[],[],[],[]
participant_2_GOLD,500,500,597,906,1225,1410,1781,1924,2130,2372,2734,3128,3642,3890,4228,4568,4838,5823,6278,6643,6919,7297,7310
participant_2_CURRENTGOLD,500,0,97,396,715,900,1261,54,260,502,854,1238,1742,1990,2328,443,713,1698,503,868,1144,1522,1585
participant_2_LEVEL,1,1,1,3,4,5,6,6,7,7,8,9,9,10,10,11,11,12,12,12,13,13,13
participant_2_MINIONSKILLED,0,0,4,12,24,27,39,40,44,50,61,73,83,90,98,104,113,120,129,136,141,141,141
participant_2_KILLS,0,0,0,0,0,1,1,2,2,2,3,3,3,3,3,3,3,3,3,4,4,4,4
participant_2_BUY,[],"[1054, 3340, 2003]",[],[2031],[],"[3133, 2055]",[],[3077],[],[],[3074],[1001],[],"[3047, 3363]","[1028, 1036, 2055]",[],[3123],[],[6029],[],[3044],[],[]
participant_2_SOLD,[],[],[],[2003],[],[],[],[],[2055],[],"[3077, 3133]",[],[2031],"[1001, 3340]",[],[2055],"[3363, 1036]",[3513],[],[],[],[],[]
participant_2_UNDO,[],[],[],[],[],[],[],[],[],[],[],[],[],[],"[[0, 1028]]",[],[],[],[],[],[],[],[]
participant_3_GOLD,500,500,576,839,1455,1773,2060,2225,3460,3674,4165,5089,5602,5885,6678,7247,7488,8031,8392,8664,9511,9913,9925
participant_3_CURRENTGOLD,500,0,76,339,955,1273,60,225,1460,474,965,1889,452,735,1528,197,438,486,847,244,1091,1493,1325
participant_3_LEVEL,1,1,1,2,3,4,4,4,6,6,7,8,8,8,9,9,10,10,11,11,12,12,12
participant_3_MINIONSKILLED,0,0,3,11,20,31,32,34,47,52,66,74,79,88,101,109,116,123,132,132,139,141,141
participant_3_KILLS,0,0,0,0,0,0,0,0,0,0,0,0,0,0,0,0,0,2,2,2,2,2,2
participant_3_BUY,[],"[1082, 2031, 3340]",[],[],[],[],[],"[1011, 3145, 1001]",[],[],[],[],[],[],[],"[3152, 2055]",[],[],"[3020, 1026]",[],[],[],[]
participant_3_SOLD,[],[],[],[],[],[],[],[],[],[],[],[],[],[],[],[3145],[2055],[],[1001],[],[],[],[]
participant_3_UNDO,[],[],[],[],[],[],[],"[[0, 1011]]",[],[],[],[],[],[],[],[],[],[],[],[],[],[],[]
participant_4_GOLD,500,500,522,717,1157,1352,1930,2064,3020,3179,3490,4255,4531,4671,5021,5482,5637,6577,6762,7328,7898,8500,8514
participant_4_CURRENTGOLD,500,0,22,217,657,852,1430,114,1070,129,440,1205,81,221,571,182,337,1277,592,1158,1728,180,164
participant_4_LEVEL,1,1,1,2,3,4,5,5,6,6,6,7,8,8,9,9,9,10,10,11,12,12,12
participant_4_MINIONSKILLED,0,0,0,0,1,1,3,3,6,6,7,7,7,7,7,8,9,15,17,24,25,25,25
participant_4_KILLS,0,0,0,0,1,1,1,1,3,3,3,5,6,6,7,7,7,7,7,7,8,8,8
participant_4_BUY,[],"[1055, 2003, 3340]",[],[],[],[],"[3134, 1036, 2003]",[],[],"[1036, 1053, 1001]",[],[],"[6692, 3134]",[],[],[6676],[],"[3009, 2055, 3363]",[],"[3123, 2055]",[],[],[]
participant_4_SOLD,[],[],[],[],[],[2003],[],[],[2003],[1036],[],[],"[3134, 1036, 1053]",[],[],[3134],[],"[1055, 1001, 3340]",[2055],[],[],[],[]
participant_4_UNDO,[],[],[],[],[],[],[],[],[],[],[],[],[],[],[],[],[],[],[],[],[],[],[]
participant_5_GOLD,500,500,562,1249,1435,1683,1946,2131,2574,2853,3826,3949,4403,4672,5448,5675,7099,7499,7916,8346,8664,8919,9021
participant_5_CURRENTGOLD,500,0,62,99,285,233,496,181,624,903,1876,1999,403,672,1448,200,1624,364,781,11,329,584,646
participant_5_LEVEL,1,1,1,3,4,5,6,6,7,7,8,8,9,9,10,10,11,12,12,13,13,13,13
participant_5_MINIONSKILLED,0,0,2,8,11,18,27,30,46,54,70,70,76,84,100,106,120,133,144,155,162,171,172
participant_5_KILLS,0,0,0,0,0,0,1,1,1,1,1,1,1,1,1,1,1,1,1,2,2,2,2
participant_5_BUY,[],"[1055, 2003, 3340]",[],[],[],"[3070, 1036]","[2031, 2055, 1001]",[],[],[],[],[],[3057],[],[],"[3044, 3158]",[],[],[],[6632],[],[1036],[]
participant_5_SOLD,[],[],[],[],[2003],[],[],[],[],[],[2055],[],[],[],[],"[1036, 1001]",[],[],[],"[3044, 3057]",[],[],[]
participant_5_UNDO,[],[],[],[],[],[],[],[],[],[],[],[],[],[],[],[],[],[],[],[],[],[],[]
participant_6_GOLD,500,500,620,963,1368,1567,1775,2130,2352,2745,3152,3535,4247,4469,4749,5141,5569,5757,6094,6385,6612,6849,6861
participant_6_CURRENTGOLD,500,0,120,463,868,1067,1275,1630,87,480,262,645,1357,379,234,626,1054,92,429,320,197,434,386
participant_6_LEVEL,1,1,2,3,4,4,4,5,5,6,7,7,8,8,9,9,10,10,11,11,11,11,11
participant_6_MINIONSKILLED,0,0,0,0,0,0,0,0,0,0,0,4,4,4,4,4,4,6,7,7,9,16,16
participant_6_KILLS,0,0,0,0,0,0,0,0,0,0,0,0,0,0,0,0,0,0,0,0,0,0,0
participant_6_BUY,[],"[3858, 2003, 2003]",[],[],[1001],[],"[2055, 2003]",[],[],[],"[3117, 2055, 3364]",[],[1028],[],[],"[3067, 2055]",[],"[1033, 1029]",[],[3076],[],[1029],[]
participant_6_SOLD,[],[],[],[],[2003],[],"[2003, 2055]",[],[],[],"[1001, 3340]",[2003],[3858],[2055],[],"[1028, 2055]",[],[],[],[1029],[3859],[],[]
participant_6_UNDO,[],[],[],[],[],[],[],[],[],[],[],[],[],[],[],[],[],[],[],[],[],[],[]
participant_7_GOLD,500,500,562,878,1211,1627,1799,2476,2730,3198,3488,3791,3913,4199,4722,5139,5460,6067,6608,7030,7466,7588,7600
participant_7_CURRENTGOLD,500,0,62,368,701,1107,69,301,545,1003,428,721,378,664,1187,404,725,82,623,1045,131,253,325
participant_7_LEVEL,1,1,1,3,4,5,5,7,7,8,8,9,9,9,10,10,11,11,11,11,12,12,12
participant_7_MINIONSKILLED,0,0,2,10,22,36,39,51,55,72,82,89,89,99,106,119,127,129,145,145,156,156,156
participant_7_KILLS,0,0,0,1,1,1,1,1,1,1,2,2,2,2,2,2,3,3,3,3,3,3,3
participant_7_BUY,[],"[1055, 2003, 3340]",[],"[1036, 1001]",[],[1029],[],[3047],[],[],[],[],"[3044, 6029, 2003, 2003]",[],[],"[6630, 1028, 2055, 3363]",[],"[3077, 1011]",[],[3748],[],[],[]
participant_7_SOLD,[],[],[],[],[2003],[],[],"[1001, 1029]",[],[],[],[],[1036],[],[],"[6029, 3044, 3340]",[],"[2003, 2003, 1028]",[],"[3077, 1011]",[2055],[],[]
participant_7_UNDO,[],[],[],[],[],[],[],[],[],[],[],[],[],[],[],[],[],[],[],[],[],[],[]
participant_8_GOLD,500,500,576,941,1176,1312,1826,2172,2294,2594,2877,3077,3361,3651,3837,4029,4320,4709,5097,5569,5797,6038,6050
participant_8_CURRENTGOLD,500,0,76,441,676,62,51,397,519,819,1102,1302,886,1176,1362,204,495,884,1272,244,472,363,375
participant_8_LEVEL,1,1,1,2,3,3,4,5,5,5,6,6,7,7,7,8,8,9,9,10,10,10,10
participant_8_MINIONSKILLED,0,0,3,14,21,22,27,40,40,47,56,60,66,75,79,83,89,98,109,109,115,121,121
participant_8_KILLS,0,0,0,0,0,0,0,0,0,0,0,0,1,1,1,1,1,1,1,1,1,1,1
participant_8_BUY,[],"[1035, 3340, 2031]",[],[],[],[],[],[],"[3134, 1001, 2055, 3364, 1036]",[],"[1053, 2055]",[],[],[6692],"[1036, 2055]",[],[],"[3133, 1028]",[],[3067],[1036],[],[]
participant_8_SOLD,[],[],[],[],[],[],[],[],"[3340, 2031, 2055]",[1035],[1036],[],[],"[3134, 1053]",[],[],[],"[1036, 2055]",[2055],[1028],[],[],[]
participant_8_UNDO,[],[],[],[],[],[],[],[],[],[],[],[],[],[],[],[],[],[],[],[],[],[],[]
participant_9_GOLD,500,500,522,759,894,1028,1205,1409,1543,1869,2017,2152,2457,2608,2748,2919,3230,3423,3725,3991,4218,4372,4386
participant_9_CURRENTGOLD,500,0,22,259,94,228,280,484,618,944,317,452,357,508,648,344,655,98,400,166,393,247,261
participant_9_LEVEL,1,1,1,2,2,3,3,4,4,5,5,6,6,7,7,7,7,8,8,8,9,9,9
participant_9_MINIONSKILLED,0,0,0,3,3,3,5,9,9,17,18,18,23,24,24,25,27,28,32,32,36,37,37
participant_9_KILLS,0,0,0,0,0,0,0,1,1,1,1,1,1,1,2,2,2,3,3,3,3,3,3
participant_9_BUY,[],"[1082, 2031, 3340]",[],[],[],[],"[3070, 1052, 1001, 2055]",[1052],[],[],"[3802, 1052, 3364]",[],[3108],[],[],[6653],[],[1058],[],[],[3003],[],[]
participant_9_SOLD,[],[],[],[],[],[],[],[2055],[],[],"[1052, 1052, 3340]",[],[1052],[],[],"[3802, 3108]",[],[],[],[],"[3070, 1058, 3003]",[],[]
participant_9_UNDO,[],[],[],[],[],[],[],[],[],[],[],[],[],[],[],[],[],[],[],[],[],[],[]
team0_KILLS,0,0,0,0,1,2,4,5,8,8,9,12,13,13,15,15,15,19,19,23,25,27,27
team0_CURRENTGOLD,2500,0,398,1695,3621,3137,3830,1498,4602,3702,4761,4801,3488,4189,6020,2975,4179,4935,2701,5074,6692,7314,7244
team0_TOTALGOLD,2500,2500,2898,4355,6281,7972,10175,11843,14947,16347,18416,21106,23093,24594,26850,28780,30434,34885,36371,39619,42337,45107,45319
team0_LEVEL,5,5,6,13,17,21,25,27,32,34,36,41,42,45,47,49,51,55,56,58,63,63,63
team0_SBIRES,0,0,10,35,68,94,126,147,172,203,231,263,290,317,339,360,387,420,440,466,491,515,515
team1_KILLS,0,0,0,1,1,1,2,3,3,3,4,4,5,5,6,6,7,8,8,9,9,9,9
team1_CURRENTGOLD,2500,0,342,1630,2624,2697,2171,2993,2393,4149,3985,5119,3381,3399,4879,1778,4553,1520,3505,1786,1522,1881,1993
team1_TOTALGOLD,2500,2500,2842,4790,6084,7217,8551,10318,11493,13259,15360,16504,18381,19599,21504,22903,25678,27455,29440,31321,32757,33766,33918
team1_LEVEL,5,5,6,13,17,20,22,27,28,31,34,36,39,40,43,44,47,50,51,53,55,55,55
team1_SBIRES,0,0,7,35,57,79,98,130,150,190,226,241,258,286,313,337,367,394,437,448,478,501,502
delta_KILLS,0,0,0,-1,0,1,2,2,5,5,5,8,8,8,9,9,8,11,11,14,16,18,18
delta_CURRENTGOLD,0,0,56,65,997,440,1659,-1495,2209,-447,776,-318,107,790,1141,1197,-374,3415,-804,3288,5170,5433,5251
delta_TOTALGOLD,0,0,56,-435,197,755,1624,1525,3454,3088,3056,4602,4712,4995,5346,5877,4756,7430,6931,8298,9580,11341,11401
delta_LEVEL,0,0,0,0,0,1,3,0,4,3,2,5,3,5,4,5,4,5,5,5,8,8,8
delta_SBIRES,0,0,3,0,11,15,28,17,22,13,5,22,32,31,26,23,20,26,3,18,13,14,13
