name,frame_0,frame_1,frame_2,frame_3,frame_4,frame_5,frame_6,frame_7,frame_8,frame_9,frame_10,frame_11,frame_12,frame_13,frame_14,frame_15,frame_16,frame_17,frame_18,frame_19,frame_20,frame_21,frame_22,frame_23,frame_24,frame_25,frame_26,frame_27,frame_28,frame_29
nameStamp,Tstart,Tearly,Tearly,Tearly,Tearly,Tearly,Tearly,Tearly,Tearly,Tearly,Tearly,Tearly,Tearly,Tearly,Tmid,Tmid,Tmid,Tmid,Tmid,Tmid,Tmid,Tmid,Tmid,Tmid,Tmid,Tmid,Tmid,Tmid,Tend,Tend
timestamp,0,60028,120054,180092,240119,300121,360151,420184,480208,540232,600256,660278,720294,780321,840344,900373,960390,1020402,1080427,1140451,1200469,1260476,1320501,1380502,1440526,1500558,1560575,1620607,1680617,1740617
participant_0_GOLD,500,500,584,881,1223,1609,1845,1967,2291,2414,2571,3031,3168,3290,3518,3825,4974,5101,6297,6668,7429,7686,7823,8048,8708,8881,9362,9808,10881,10992
participant_0_CURRENTGOLD,500,0,84,381,273,659,895,117,441,114,271,731,68,190,418,725,1874,501,1697,718,1479,1736,873,223,558,731,1212,1658,631,742
participant_0_LEVEL,1,1,1,3,4,5,6,6,6,7,7,8,8,8,8,8,9,9,10,11,11,11,12,12,12,12,13,13,14,14
participant_0_MINIONSKILLED,0,0,3,13,23,35,41,41,50,50,52,64,64,64,64,64,68,68,74,76,81,83,84,86,86,86,91,93,99,99
participant_0_KILLS,0,0,0,0,0,0,0,0,0,0,0,0,0,0,0,0,2,2,4,4,5,5,5,5,5,5,6,6,7,7
participant_0_BUY,[],"[1054, 2003]",[],[],"[1028, 2003]",[],[],"[6660, 1029]",[],[1033],[],[],"[3105, 2003]",[],[],[],[],"[3068, 3076]",[],"[1011, 1001, 2031]",[],[],[3075],[1037],[3077],[],[],[],[3074],[]
participant_0_SOLD,[],[],[],[2003],[],[],[],[1028],[],[],[],[2003],"[1033, 1029]",[],[],[],[2003],"[6660, 3105]",[],[],[],[],"[3076, 1011]",[],[1037],[],[],[],[3077],[]
participant_0_UNDO,[],[],[],[],[],[],[],[],[],[],[],[],[],[],[],[],[],[],[],[],[],[],[],[],[],[],[],[],[],[]
participant_1_GOLD,500,500,563,839,1176,1361,1589,2151,2336,2585,2931,3234,3370,3918,4167,4506,5339,5466,6312,6895,7735,7932,8274,8926,10066,10929,11100,11654,12277,12501
participant_1_CURRENTGOLD,500,0,63,339,666,116,344,906,226,475,821,1114,400,948,397,736,1569,211,1057,1640,865,1062,54,706,1846,1109,1280,1835,2457,2701
participant_1_LEVEL,1,1,1,3,4,4,5,6,6,7,8,8,8,9,9,10,11,11,11,12,12,12,12,13,13,14,14,14,15,15
participant_1_MINIONSKILLED,0,0,2,11,21,25,31,39,42,49,62,69,70,77,85,94,104,104,107,110,112,116,116,126,132,137,140,144,147,151
participant_1_KILLS,0,0,0,0,0,0,0,1,1,1,1,1,1,2,2,2,3,3,4,5,7,7,8,9,11,13,13,13,14,14
participant_1_BUY,[],"[1082, 2003, 2003, 2003]",[],[],[],"[1052, 1001]",[],[],[4635],[],[],[],[1026],[],[3047],[],[],"[4633, 1052]",[],[],"[1026, 3916, 1028]",[],"[3165, 3191]",[],[],[3157],[],[],[],[]
participant_1_SOLD,[],[],[],[],[2003],[],[2003],[2003],[1052],[],[],[],[],[],[1001],[],[],"[4635, 1026]",[],[],[1052],[],"[1026, 3916, 1028]",[],[],[3191],[],[],[],[]
participant_1_UNDO,[],[],[],[],[],[],[],[],[],[],[],[],[],[],[],[],[],[],[],[],[],[],[],[],[],[],[],[],[],[]
participant_2_GOLD,500,500,521,748,1085,1389,1774,2022,2597,2897,3305,3552,3695,3923,4326,4553,4945,5072,5468,5900,6637,6816,7213,7646,9152,9648,9933,10381,11110,11605
participant_2_CURRENTGOLD,500,500,21,248,585,889,1274,1522,1397,597,1005,1252,295,523,926,553,945,222,618,1050,137,316,713,1146,2652,498,783,481,1210,1705
participant_2_LEVEL,1,1,1,2,3,3,4,5,5,6,6,7,7,7,8,8,8,8,9,9,10,10,11,11,12,12,12,13,13,14
participant_2_MINIONSKILLED,0,0,0,6,16,23,35,42,48,54,61,65,66,69,77,83,89,89,95,102,113,116,123,131,136,139,141,141,144,145
participant_2_KILLS,0,0,0,0,0,0,0,0,1,1,1,1,1,1,1,1,1,1,1,1,1,1,1,1,4,4,4,4,4,5
participant_2_BUY,[],[],"[3070, 2003, 2003, 3340]",[],[],[],[],[],[3057],[3111],[],[],[3133],[],[],[1018],[],"[3508, 1036]",[],[],"[3134, 1053]",[],[],[],[],"[6692, 3133, 1027]",[],[3004],[],[]
participant_2_SOLD,[],[],[],[],[],[2003],[],[],[2003],[],[],[],[],[],[],[],[],"[3133, 3057, 1018]",[],[],[1036],[],[],[],[],"[3134, 1053]",[],"[3070, 3133, 1027, 3004]",[],[]
participant_2_UNDO,[],[],[],[],[],[],[],[],[],[],[],[],[],[],[],[],[],[],[],[],[],[],[],[],[],[],[],[],[],[]
participant_3_GOLD,500,500,621,933,1233,1450,1708,2085,2217,2461,2683,3006,3213,3474,3597,3804,3927,4174,5156,5279,6107,6349,6481,6809,7398,7726,7937,8359,8922,9124
participant_3_CURRENTGOLD,500,0,121,433,733,950,1208,1585,1717,1961,308,631,438,699,822,1029,552,799,1781,404,1232,274,156,484,1073,501,62,484,1047,1249
participant_3_LEVEL,1,1,2,3,3,4,5,6,6,6,6,7,7,8,8,8,8,8,9,9,10,10,11,11,12,12,12,13,13,14
participant_3_MINIONSKILLED,0,0,0,0,0,1,1,1,2,3,3,3,3,5,5,5,5,5,6,6,13,13,14,14,15,15,15,15,15,16
participant_3_KILLS,0,0,0,0,0,0,0,0,0,0,0,0,0,0,0,0,0,0,2,2,2,2,2,2,2,2,2,2,2,2
participant_3_BUY,[],"[1039, 3340, 2031]",[],[],[],[],[],[],[],[],"[3105, 1001, 2055]",[],[1028],[],[],[],[6660],[],[],"[3068, 3067]",[],"[3047, 1028]",[3801],[],[],[1011],[3083],[],[],[]
participant_3_SOLD,[],[],[],[],[],[],[],[],[],[1039],[],[2055],[],[],[],[],[1028],[],[],"[6660, 3105]",[],[1001],[1028],[],[],[],"[1011, 3067, 3801]",[],[],[]
participant_3_UNDO,[],[],[],[],[],[],[],[],[],[],[],[],[],[],[],[],[],[],[],[],[],[],[],[],[],[],[],[],[],[]
participant_4_GOLD,500,500,544,727,943,1161,1376,1552,1905,2083,2238,2849,3096,3326,3641,3782,4044,4305,4477,4659,5575,5750,5946,6126,6549,6811,7181,7646,8249,8419
participant_4_CURRENTGOLD,500,0,44,227,443,661,876,1052,1405,1583,288,324,571,801,1116,57,319,580,752,159,1075,1250,171,351,774,237,607,1071,1674,1844
participant_4_LEVEL,1,1,1,2,3,4,4,5,5,6,6,7,7,7,8,8,8,9,9,9,10,10,10,10,11,11,12,13,13,13
participant_4_MINIONSKILLED,0,0,1,4,6,8,10,12,13,15,16,17,22,23,25,25,28,31,32,34,36,38,38,40,40,41,43,45,45,45
participant_4_KILLS,0,0,0,0,0,0,0,0,0,0,0,1,1,1,1,1,1,1,1,1,2,2,2,2,2,2,2,2,3,3
participant_4_BUY,[],"[3854, 2003, 3340, 2003]",[],[],[],[],[],[],[],[],"[6660, 1033]","[1036, 1029, 2055, 1001, 3364]",[],[],[],[3105],[],[],[],"[3068, 2055]",[],[],"[3077, 2055, 3363, 3364]",[],[],"[3111, 3047]",[],[],[],[]
participant_4_SOLD,[],[],[],[2003],[2003],[],[],[],[],[3854],[],[3340],[2055],[],[],[1029],[],[],[],"[6660, 3105]",[3855],[],"[3364, 3363]",[],[],"[2055, 1001, 1001]",[],[2055],[],[]
participant_4_UNDO,[],[],[],[],[],[],[],[],[],[],[],"[[0, 1033]]",[],[],[],[],[],[],[],[],[],[],[],[],[],"[[0, 3111]]",[],[],[],[]
participant_5_GOLD,500,500,621,1033,1435,1996,2204,2509,2646,2768,2990,3159,3330,3946,4509,4928,5151,5273,5571,5693,5815,6029,6289,6511,6704,6977,7304,7545,7667,7728
participant_5_CURRENTGOLD,500,0,121,533,935,1496,1704,2009,2146,68,290,459,630,1246,1809,2228,2451,373,671,93,215,429,289,511,704,177,504,745,867,928
participant_5_LEVEL,1,1,2,3,4,4,5,5,6,6,6,7,7,8,8,9,9,9,9,9,9,9,10,10,10,11,11,12,12,12
participant_5_MINIONSKILLED,0,0,0,0,0,1,1,1,2,2,2,3,6,10,15,15,15,15,15,15,15,20,20,20,20,20,20,23,23,23
participant_5_KILLS,0,0,0,0,0,1,1,1,1,1,1,1,1,1,1,1,1,1,1,1,1,1,1,1,1,1,1,1,1,1
participant_5_BUY,[],"[1039, 3340, 2031]",[],[],[],[],[],[],[],"[3044, 3067, 1001]",[],[],[],[],[],[],[],"[6632, 3111]",[],"[1036, 1036]",[],[],[3133],[],[],"[1036, 1033]",[],[],[],[]
participant_5_SOLD,[],[],[],[],[],[],[],[],[],[],[],[1039],[],[3340],[3513],[],[],"[3044, 3067, 1001]",[],[],[3340],[],"[1036, 1036]",[],[3513],[],[],[],[],[]
participant_5_UNDO,[],[],[],[],[],[],[],[],[],[],[],[],[],[],[],[],[],[],[],[],[],[],[],[],[],[],[],[],[],[]
participant_6_GOLD,500,500,598,927,1190,1473,1624,1987,2488,2611,2845,3597,3803,4453,4763,5150,5273,5516,5905,6180,6528,6728,7069,7394,7621,7940,8309,8537,8903,8989
participant_6_CURRENTGOLD,500,0,98,427,690,973,74,437,938,161,395,1147,153,803,438,825,148,391,780,455,203,103,444,769,996,440,809,192,558,114
participant_6_LEVEL,1,1,1,2,3,4,4,5,6,6,6,7,7,8,8,9,9,9,9,9,10,10,11,11,11,11,12,12,12,12
participant_6_MINIONSKILLED,0,0,4,13,20,27,29,40,49,49,56,66,71,75,75,85,85,92,97,102,102,107,108,113,115,122,131,137,148,149
participant_6_KILLS,0,0,0,0,0,0,0,0,0,0,0,1,1,2,2,2,2,2,2,2,2,2,2,2,2,2,2,2,2,2
participant_6_BUY,[],"[1055, 2003, 3340]",[],[],[],[],"[1036, 1042, 1036, 2003]",[],[],"[6670, 1018]",[],[],"[1053, 1001]",[],"[6673, 2055]",[],[3006],[],[],[1018],[3086],[1042],[],[],[],[1037],[],[3085],[],[1036]
participant_6_SOLD,[],[],[],[],[],[2003],[],[],[],"[1036, 1042, 1036]",[],[2003],[],[],"[6670, 1018, 1053]",[],[1001],[2055],[],[],[1018],[],[],[],[],[],[],"[1055, 1037, 3086, 1042]",[],[]
participant_6_UNDO,[],[],[],[],[],[],[],[],[],[],[],[],[],[],[],[],[],[],[],[],[],[],[],[],[],[],[],[],[],[]
participant_7_GOLD,500,500,523,717,908,1105,1240,1440,1894,2029,2236,2486,2620,3079,3538,3752,3923,4084,4274,4415,4555,4696,4918,5115,5645,6607,6866,7006,7161,7231
participant_7_CURRENTGOLD,500,0,23,217,408,605,740,940,44,179,386,636,245,254,638,852,223,184,374,215,355,495,718,915,1445,157,416,156,311,381
participant_7_LEVEL,1,1,1,2,3,4,4,5,5,6,7,7,7,8,8,9,9,9,9,9,9,9,10,10,11,11,11,12,12,12
participant_7_MINIONSKILLED,0,0,0,1,4,5,5,6,6,6,11,13,13,14,14,17,18,19,19,19,19,19,19,23,24,24,26,26,27,27
participant_7_KILLS,0,0,0,0,0,0,0,0,1,1,1,1,1,1,2,2,2,2,2,2,2,2,2,2,3,4,4,4,4,4
participant_7_BUY,[],"[3858, 3340, 2003, 2003]",[],[],[],[],[],[],"[3111, 2055, 2003, 2003, 2055]",[],[],[],"[1033, 2055]",[1057],[2055],[],"[1028, 1028]",[6660],[],[1029],[],[],[],[],[],"[6664, 1033, 1031]",[],[1028],[],[]
participant_7_SOLD,[],[],[],[],[],[2003],[2003],[],[],[],"[2003, 2055]",[],[],"[2055, 1033]",[2003],"[3858, 2055]",[],"[1028, 1028]",[],[],[],[],[2055],[],[],"[6660, 1029, 1057]",[],[],[],[]
participant_7_UNDO,[],[],[],[],[],[],[],[],[],[],[],[],[],[],[],[],[],[],[],[],[],[],[],[],[],[],[],[],[],[]
participant_8_GOLD,500,500,556,776,976,1409,1714,1857,2181,2432,2652,2885,3007,3549,3910,4151,4358,4598,4855,4978,5185,5322,6955,7077,7354,7477,7882,8004,8140,8202
participant_8_CURRENTGOLD,500,0,56,276,476,99,404,247,561,402,622,145,267,809,770,1011,218,383,640,413,620,407,2040,87,364,487,892,1014,125,227
participant_8_LEVEL,1,1,1,3,4,5,6,6,7,7,8,8,9,9,9,10,10,10,10,10,10,10,11,11,11,11,12,12,12,12
participant_8_MINIONSKILLED,0,0,2,8,12,19,29,30,39,43,48,51,51,55,57,64,68,71,71,71,71,72,74,74,76,76,78,78,79,79
participant_8_KILLS,0,0,0,0,0,0,0,0,0,0,0,0,0,1,1,1,1,1,1,1,1,1,3,3,3,3,3,3,3,3
participant_8_BUY,[],"[1055, 3340, 2003]",[],[],[],"[1036, 1036, 2003, 2003]",[],[1001],[],[3134],[],"[1036, 1036]",[],[],[3133],[],[6691],[2055],[],[1036],[],[1036],[],"[3134, 3111, 1037]",[],[],[],[],[3142],[]
participant_8_SOLD,[],[],[],[],[2003],[],"[2003, 2003]",[],[],"[1036, 1036]",[],[],[],[],"[1036, 1036]",[],"[3134, 3133]",[],[2055],[],[],[],[],"[1036, 1036, 1001]",[],[],[],[],"[3134, 1037]",[]
participant_8_UNDO,[],[],[],[],[],[],[],[],[],[],[],[],[],[],[],[],[],[],[],[],[],[],[],[],[],[],[],[],[],[]
participant_9_GOLD,500,500,577,822,1463,1641,1890,2397,2778,3297,3625,3761,4288,5368,5540,6173,6413,6570,6743,6967,7208,7330,8610,8850,8993,9316,9438,9603,10445,10506
participant_9_CURRENTGOLD,500,0,77,322,963,341,590,47,428,547,575,711,1238,1268,240,873,313,470,643,517,758,130,1410,300,444,366,138,303,1145,331
participant_9_LEVEL,1,1,1,3,4,5,5,6,7,7,8,8,9,10,10,10,11,11,11,11,11,11,12,12,12,12,12,13,14,14
participant_9_MINIONSKILLED,0,0,3,8,14,17,24,30,42,46,55,56,71,79,79,88,94,96,96,101,104,104,113,116,117,124,124,127,134,134
participant_9_KILLS,0,0,0,0,1,1,1,2,2,2,2,2,2,3,3,4,4,4,4,4,4,4,5,5,5,5,5,5,6,6
participant_9_BUY,[],"[3340, 2033]",[],[],[],[3067],[],"[1036, 1036, 1036]",[],[3133],[1001],[],[],[3071],[6029],[],[3067],[],[],[1036],[],[3044],[],"[6630, 3111, 1036]",[],[1028],[3044],[],[],[1037]
participant_9_SOLD,[],[],[],[],[],[],[],[],[],"[1036, 1036]",[],[],[],"[3133, 3067, 1036]",[],[],[],[],[],[],[],[1036],[],"[6029, 3044, 3067, 1001]",[],[],"[1028, 1036]",[],[],[]
participant_9_UNDO,[],[],[],[],[],[],[],[],[],[],[],[],[],[],[],[],[],[],[],[],[],[],[],[],[],[],[],[],[],[]
team0_KILLS,0,0,0,0,0,0,0,1,2,2,2,3,3,4,4,4,7,7,12,13,17,17,18,19,24,26,27,27,30,31
team0_CURRENTGOLD,2500,500,333,1628,2700,3275,4597,5182,5186,4730,2693,4052,1772,3161,3679,3100,5259,2313,5905,3971,4788,4638,1967,2910,6903,3076,3944,5529,7019,8241
team0_TOTALGOLD,2500,2500,2833,4128,5660,6970,8292,9777,11346,12440,13728,15672,16542,17931,19249,20470,23229,24118,27710,29401,33483,34533,35737,37555,41873,43995,45513,47848,51439,52641
team0_LEVEL,5,5,6,13,17,20,24,28,28,32,33,37,37,39,41,42,44,45,48,50,53,53,56,57,60,61,63,66,68,70
team0_SBIRES,0,0,6,34,66,92,118,135,155,171,194,218,225,238,256,271,294,297,314,328,355,366,375,397,409,418,430,438,450,456
team1_KILLS,0,0,0,0,1,2,2,3,4,4,4,5,5,8,9,10,10,10,10,10,10,10,13,13,14,15,15,15,16,16
team1_CURRENTGOLD,2500,0,375,1775,3472,3514,3512,3680,4117,1357,2268,3098,2533,4380,3895,5789,3353,1801,3108,1693,2151,1564,4901,2582,3953,1627,2759,2410,3006,1981
team1_TOTALGOLD,2500,2500,2875,4275,5972,7624,8672,10190,11987,13137,14348,15888,17048,20395,22260,24154,25118,26041,27348,28233,29291,30105,33841,34947,36317,38317,39799,40695,42316,42656
team1_LEVEL,5,5,6,13,18,22,24,27,31,32,35,37,39,43,43,47,48,48,48,48,49,49,54,54,55,56,58,61,62,62
team1_SBIRES,0,0,9,30,50,69,88,107,138,146,172,189,212,233,240,269,280,293,298,308,311,322,334,346,352,366,379,391,411,412
delta_KILLS,0,0,0,0,-1,-2,-2,-2,-2,-2,-2,-2,-2,-4,-5,-6,-3,-3,2,3,7,7,5,6,10,11,12,12,14,15
delta_CURRENTGOLD,0,500,-42,-147,-772,-239,1085,1502,1069,3373,425,954,-761,-1219,-216,-2689,1906,512,2797,2278,2637,3074,-2934,328,2950,1449,1185,3119,4013,6260
delta_TOTALGOLD,0,0,-42,-147,-312,-654,-380,-413,-641,-697,-620,-216,-506,-2464,-3011,-3684,-1889,-1923,362,1168,4192,4428,1896,2608,5556,5678,5714,7153,9123,9985
delta_LEVEL,0,0,0,0,-1,-2,0,1,-3,0,-2,0,-2,-4,-2,-5,-4,-3,0,2,4,4,2,3,5,5,5,5,6,8
delta_SBIRES,0,0,-3,4,16,23,30,28,17,25,22,29,13,5,16,2,14,4,16,20,44,44,41,51,57,52,51,47,39,44
