name,frame_0,frame_1,frame_2,frame_3,frame_4,frame_5,frame_6,frame_7,frame_8,frame_9,frame_10,frame_11,frame_12,frame_13,frame_14,frame_15,frame_16,frame_17,frame_18,frame_19,frame_20,frame_21,frame_22,frame_23,frame_24,frame_25,frame_26,frame_27,frame_28,frame_29,frame_30,frame_31
nameStamp,Tstart,Tearly,Tearly,Tearly,Tearly,Tearly,Tearly,Tearly,Tearly,Tearly,Tearly,Tearly,Tearly,Tearly,Tearly,Tearly,Tearly,Tmid,Tmid,Tmid,Tmid,Tmid,Tmid,Tmid,Tmid,Tmid,Tmid,Tmid,Tmid,Tmid,Tmid,Tmid
timestamp,0,60017,120029,180043,240063,300076,360104,420119,480133,540146,600175,660187,720198,780215,840229,900249,960263,1020274,1080283,1140304,1200320,1260337,1320355,1380375,1440385,1500400,1560414,1620436,1680444,1740462,1800480,1860501
participant_0_GOLD,500,500,541,1252,1501,1840,2169,2389,2727,2885,3240,3426,3681,3965,4260,4466,4859,5232,5606,6395,6944,7262,7533,7655,8241,8558,9279,9438,9915,10037,10160,10554
participant_0_CURRENTGOLD,500,0,41,752,326,665,994,364,702,425,780,966,1221,440,735,141,534,907,461,1250,49,367,638,760,1346,1663,2385,2543,300,423,545,940
participant_0_LEVEL,1,1,1,3,4,5,6,6,7,7,8,8,9,9,9,9,10,11,11,12,12,13,13,13,14,14,15,15,15,15,15,16
participant_0_MINIONSKILLED,0,0,1,11,19,32,41,46,56,58,71,74,82,88,94,95,104,114,125,132,136,143,147,147,157,164,177,179,192,192,192,204
participant_0_KILLS,0,0,0,1,1,1,1,1,1,1,1,1,1,1,1,1,1,3,3,3,3,3,4,4,5,6,6,6,6,6,6,6
participant_0_BUY,[],"[1055, 2003]",[],[],[],[],[],"[1038, 1042, 2003]",[],[],[],[],[],"[3095, 1001, 1042, 2003]",[],[],[3006],[1038],[2003],[],[],[],[],[],[],"[3031, 3086]",[2015],[],"[3094, 1018]",[],[],[3086]
participant_0_SOLD,[],[],[],[],[2003],[],[],[],[],[],[],[2003],[],"[1038, 1042]",[],[],"[1001, 1042]",[2003],[],[],[],[],[2003],[],[],[1038],[],[],"[3086, 2015]",[],[],[1018]
participant_0_UNDO,[],[],[],[],[],[],[],[],[],[],[],[],[],[],[],[],[],[],[],[],[],[],[],[],[],[],[],[],[],[],[],[]
participant_1_GOLD,500,500,620,1018,1376,1498,1706,1913,2256,2379,2866,3074,3301,3727,3950,4172,4921,6016,6223,6431,6843,6966,7413,7835,8022,8419,8741,8896,9103,9277,9691,9813
participant_1_CURRENTGOLD,500,0,120,518,876,48,256,388,731,419,906,299,176,602,825,247,996,491,698,906,1318,118,565,987,724,821,544,698,635,809,1223,1346
participant_1_LEVEL,1,1,2,3,4,4,4,5,5,5,6,6,7,7,8,8,8,9,9,10,10,10,11,11,11,12,12,12,12,13,13,13
participant_1_MINIONSKILLED,0,0,0,0,0,0,0,0,1,1,1,1,1,1,1,1,4,6,6,6,6,6,6,6,8,8,10,10,10,12,21,21
participant_1_KILLS,0,0,0,0,0,0,0,0,0,0,1,1,1,1,1,1,1,1,2,2,2,2,2,2,2,2,2,2,2,2,2,2
participant_1_BUY,[],"[2033, 3340]",[],[],[],"[1052, 1082]",[],[],[],[],"[3191, 2420, 1052]",[],[3108],[],[],"[3157, 1001]",[],[],[],"[3020, 1026]",[],[3113],[],[],[],[],[3100],[],[1052],[],[1028],[]
participant_1_SOLD,[],[],[],[],[],[],[],[],[],[],[1052],[],[1052],[],[],"[2420, 3191, 3108, 2421]",[],[],[],[1001],[],[],[],[],[],[],"[1082, 3113, 1026]",[],[],[],[],[]
participant_1_UNDO,[],[],[],[],[],[],[],[],[],[],[],[],[],[],[],[],[],[],[],[],[],[],[],[],[],[],[],[],[],[],[],[]
participant_2_GOLD,500,500,625,962,1246,1368,1711,1938,2179,2442,3104,3386,3643,4176,4471,4593,4930,5275,5823,5946,6537,6660,6973,7158,7446,7727,7913,8258,8540,8726,8848,9172
participant_2_CURRENTGOLD,500,0,125,462,746,83,426,653,894,1157,69,351,143,676,971,543,880,1225,1773,246,837,110,423,608,896,1177,3,348,195,381,103,428
participant_2_LEVEL,1,1,1,3,4,4,5,6,6,7,8,8,9,9,9,9,10,10,11,11,11,11,12,12,12,13,13,13,13,14,14,14
participant_2_MINIONSKILLED,0,0,6,15,24,24,33,38,45,53,64,70,77,82,88,88,94,103,110,110,117,117,122,126,127,132,136,145,150,154,154,162
participant_2_KILLS,0,0,0,1,1,1,1,1,1,1,1,1,1,1,1,1,1,1,1,2,2,2,2,2,2,2,3,3,3,3,3,3
participant_2_BUY,[],"[1054, 2003, 3340]",[],[],"[1001, 1029, 2055]",[],[],"[3076, 2031]",[],[1052],[],[3111],[],[3136],[],[3111],[],[],[1026],[],"[3151, 3082]",[],[],[],[],[],[],[],"[3075, 3211, 3067]",[],[],[]
participant_2_SOLD,[],[],[],[2003],[],[],[],[1029],[],[],[],[1001],[],[1052],[],[1001],[],[],[2055],[],"[3136, 1026]",[],[],[],[],[],[],[],"[3076, 3082, 1054]",[],[],[]
participant_2_UNDO,[],[],[],[],[],[],[],[],[],[],[],"[[0, 3111]]",[],[],[],[],[],[],[],[],[],[],[],[],[],[],[],[],[],[],[],[]
participant_3_GOLD,500,500,625,1188,1616,1913,2288,2424,2860,3251,3539,3961,4209,4514,4893,5309,5557,6438,6602,6725,6975,7335,7874,8369,9649,10586,10858,11380,11818,12129,12308,12807
participant_3_CURRENTGOLD,500,0,125,688,1116,1413,1788,274,710,1101,1389,1811,2059,114,493,909,657,238,352,475,725,1085,1624,2119,3399,836,409,930,68,380,558,458
participant_3_LEVEL,1,1,1,2,3,4,5,5,6,6,7,7,8,8,8,9,9,10,10,10,10,10,11,11,12,12,13,13,13,13,14,14
participant_3_MINIONSKILLED,0,0,6,14,29,36,51,52,67,80,85,99,107,114,125,138,138,143,143,143,145,155,157,166,170,181,181,190,197,204,208,222
participant_3_KILLS,0,0,0,0,0,0,0,0,0,0,0,0,0,0,0,0,1,2,2,2,2,2,2,3,3,3,3,3,3,3,3,3
participant_3_BUY,[],"[2031, 1039, 3340]",[],[],[],"[3706, 1001]",[],"[2055, 3364]",[],[1052],[],"[3113, 1028]",[1036],[],[],"[3044, 1042]",[],"[3111, 3101]",[],[],[],[3078],[],[],[1033],[1029],[3024],[],[1057],[],[],[]
participant_3_SOLD,[],[],[],[],[],[1039],[],[3340],[2055],[],[],[1052],[],[],[3364],"[1028, 1036]",[3513],"[1001, 1042]",[],[],[],"[2031, 3101, 3044]",[],[],[],[],[1029],[],[1033],[],[],[]
participant_3_UNDO,[],[],[],[],[],[],[],[],[],[],[],[],[],[],[],[],[],[],[],[],[],[],[],[],[],[],[],[],[],[],[],[]
participant_4_GOLD,500,500,570,912,1091,1322,1474,1633,1804,1965,2478,2621,2811,3003,3172,3399,3968,4304,4647,4921,5486,5671,6165,6311,6493,6761,8101,8253,8406,8546,8707,8859
participant_4_CURRENTGOLD,500,0,70,412,591,822,149,308,479,640,1153,221,411,603,422,649,1218,254,597,521,1086,171,665,336,518,786,326,479,631,771,582,734
participant_4_LEVEL,1,1,1,2,3,4,4,4,5,5,6,6,6,7,7,7,8,8,9,9,10,10,10,10,10,11,12,12,12,12,12,12
participant_4_MINIONSKILLED,0,0,0,0,0,0,0,1,1,2,2,2,2,5,7,7,10,10,18,21,21,21,21,21,22,24,24,24,24,24,25,25
participant_4_KILLS,0,0,0,0,0,0,0,0,0,0,1,1,1,1,1,1,1,1,1,1,2,2,3,3,3,3,5,5,5,5,5,5
participant_4_BUY,[],"[3862, 2003, 2003, 3340]",[],[],[],[],"[1036, 1036, 2055, 2003]",[],[],[],[],"[3134, 3009, 2055]",[],[],"[1036, 3364]",[],[],"[3179, 1036]",[],[1036],[],"[3134, 1036, 1036]",[],"[3133, 2055]",[],[],"[3147, 3133]",[],[],[],[1036],[]
participant_4_SOLD,[],[],[],[2003],[],"[2010, 2003, 2010]",[],[2055],[],[2003],[2010],"[1036, 1036, 2422]",[3862],[],[3340],[],[],"[3134, 1036]",[],[2055],[],"[1036, 1036]",[],"[1036, 1036]",[],[3863],"[3134, 3133]",[],[],[2055],[],[]
participant_4_UNDO,[],[],[],[],[],[],[],[],[],[],[],[],[],[],[],[],[],[],[],[],[],[],[],[],[],[],[],[],[],[],[],[]
participant_5_GOLD,500,500,597,790,1127,1354,1645,1921,2078,2748,2984,3684,3932,4308,4465,4928,5221,5477,6020,6290,6815,7348,7853,8137,9089,9673,10471,11376,11583,11838,12902,13689
participant_5_CURRENTGOLD,500,0,97,140,477,704,120,396,553,248,484,1184,382,758,615,1078,1371,194,737,1007,582,1115,505,439,1391,505,1303,2208,166,420,1484,1151
participant_5_LEVEL,1,1,1,3,4,4,5,6,7,7,8,9,9,9,10,10,11,11,12,12,12,13,13,14,14,15,15,16,16,16,17,17
participant_5_MINIONSKILLED,0,0,4,8,18,21,31,40,42,46,52,63,70,81,83,94,99,107,114,122,123,135,139,149,164,171,173,185,185,188,202,202
participant_5_KILLS,0,0,0,0,0,0,1,2,2,2,2,2,3,3,3,4,4,5,5,5,6,6,6,6,6,6,6,6,6,6,7,7
participant_5_BUY,[],"[1039, 2031]",[],[],[],[],[],[],[],"[1402, 2055, 3364]",[],[],[],[],[],"[3136, 3020, 2055]",[],"[1026, 1026]",[],[],[],[],"[3151, 2420]",[],[1052],[],[3191],[1052],[],[],[],"[3157, 1052, 1028, 1026]"
participant_5_SOLD,[],[],[],[],[],[],[],[],[],"[1039, 3340]",[],[],[2055],[],[],[2422],[],[2031],[],[],[],[],"[3136, 1026, 2420]",[],"[2421, 2031]",[2055],[1052],[],[],[],[],"[3191, 1052, 2421]"
participant_5_UNDO,[],[],[],[],[],[],[],[],[],[],[],[],[],[],[],[],[],"[[0, 1026], [2031, 0]]",[],[],[],[],[],[],"[[2421, 0]]",[],[],[],[],[],[],"[[0, 1028], [0, 1052]]"
participant_6_GOLD,500,500,620,933,1310,1537,1960,2407,2734,2942,3249,3633,4188,4445,4738,5257,5451,5970,6347,6569,7228,7654,7777,7969,8142,8548,8820,9048,9246,9628,10552,10939
participant_6_CURRENTGOLD,500,0,120,433,810,1037,1460,1907,2234,217,524,908,1463,1720,2013,157,351,20,397,619,1278,1704,427,619,417,823,430,223,421,804,1727,549
participant_6_LEVEL,1,1,2,3,4,4,5,5,5,6,6,7,8,8,8,9,9,9,10,10,11,11,11,11,11,12,12,12,12,13,14,14
participant_6_MINIONSKILLED,0,0,0,0,0,0,0,0,0,0,0,1,4,6,6,8,12,13,13,13,18,18,18,18,18,21,21,21,22,23,23,24
participant_6_KILLS,0,0,0,0,0,0,0,0,0,1,1,2,2,2,2,2,2,2,2,2,3,3,4,4,4,4,6,7,7,7,7,9
participant_6_BUY,[],"[1055, 3340, 2003]",[],[2031],[],[],"[1036, 1028, 1054, 2055]",[],[],"[3044, 2055]",[],[],"[3057, 3363]",[],[1001],[],[],[3078],[],[],"[3111, 1006]",[],[3077],[1036],[],"[1053, 3105]",[],[],"[3812, 2420]",[],[],[1038]
participant_6_SOLD,[],[],[],[2003],[],[],[],[2055],[],[1036],[2055],[],[3340],[],[],[],[],"[3057, 3044]",[],[],[1001],[],"[2031, 1006]",[],[],"[1036, 1054]",[1055],[],"[3105, 1053]",[],[],"[1055, 2420]"
participant_6_UNDO,[],[],[],[],[],[],"[[0, 1028]]",[],[],[],[],[],[],[],[],[],[],[],[],[],[],[],[],[],[],[],"[[1055, 0]]",[],[],[],[],[]
participant_7_GOLD,500,500,597,976,1288,1571,1729,2061,2399,3051,3223,3551,4175,4312,4620,5307,5628,6243,6789,7036,7583,8446,8879,9112,9284,9652,9999,10476,10836,11421,12448,12739
participant_7_CURRENTGOLD,500,0,97,476,788,71,229,561,899,1551,273,601,1225,262,570,1257,528,1143,1689,661,808,46,479,712,885,1252,299,777,1136,1722,2749,239
participant_7_LEVEL,1,1,1,3,4,5,5,6,7,8,8,8,9,9,9,10,11,11,12,12,13,13,13,13,14,14,14,15,15,15,16,16
participant_7_MINIONSKILLED,0,0,4,16,27,34,36,49,59,65,68,72,76,77,84,88,96,99,102,105,105,110,111,113,113,120,120,133,142,145,148,151
participant_7_KILLS,0,0,0,0,0,0,0,0,0,0,0,0,0,0,0,1,1,2,4,5,5,5,5,5,5,5,6,6,6,7,7,7
participant_7_BUY,[],"[1055, 2003, 3340]",[],[],[],[],"[3133, 2003, 2003]",[],[],[],[],"[1038, 2055]",[],[2015],[],[],"[3508, 2003, 2003, 3363]",[3006],[],[1018],[],"[3087, 1018]",[],[],[1037],[],[1038],"[3031, 2055]",[],[],[],[]
participant_7_SOLD,[],[],[],"[2003, 2010]",[],[2010],[],[],[],[],[2010],[2003],[2003],[],[],[],"[1038, 3133, 3340]",[2422],[2055],[],[2003],"[1018, 2015]",[],[2003],[],[],[1055],"[1038, 1037, 1018]",[2055],[],[],[]
participant_7_UNDO,[],[],[],[],[],[],[],[],[],[],[],[],[],[],[],[],[],[],[],[],[],[],[],[],[],[],[],[],[],[],[],[]
participant_8_GOLD,500,500,562,811,1148,1452,1734,2024,2411,2816,3085,3264,3491,3795,4167,4808,5153,5671,6421,6869,7497,8319,8873,9289,9560,10129,10614,10822,11368,12056,12855,13602
participant_8_CURRENTGOLD,500,0,62,311,648,952,34,324,711,1116,1385,189,416,20,392,1033,378,96,846,494,1122,44,598,1015,410,979,345,52,599,1287,2085,2833
participant_8_LEVEL,1,1,1,2,3,4,4,5,6,7,7,7,8,8,9,9,9,10,10,10,11,12,12,13,13,13,14,14,14,15,15,16
participant_8_MINIONSKILLED,0,0,2,9,18,26,31,40,52,65,73,77,83,94,105,111,119,120,122,122,135,144,161,172,178,194,198,198,211,220,234,246
participant_8_KILLS,0,0,0,0,0,0,0,0,0,0,0,0,0,0,0,0,0,0,0,0,1,1,1,1,1,1,2,2,2,2,2,2
participant_8_BUY,[],"[3854, 2003, 2003, 3340]",[],[],[],[],"[1001, 2055, 2055]",[],[],[],[],[3145],[1028],[],[],[],[3067],[3152],[],"[1028, 2055, 3364]",[],[3067],[],[1029],[],[],[],"[3109, 3047]",[],[],[],"[1033, 2055, 2055]"
participant_8_SOLD,[],[],[],"[2003, 2003]",[],[],[],[2055],[],[],[],[2055],[],[],[],[3854],[1028],"[3145, 3067]",[],[3340],[],[1028],[],[2055],[],[],[],"[3067, 1029, 1001]",[],[],[],[]
participant_8_UNDO,[],[],[],[],[],[],[],[],[],[],[],[],[],[],[],[],[],[],[],[],[],[],[],[],[],[],[],[],[],[],[],[]
participant_9_GOLD,500,500,522,678,855,1003,1213,1497,1631,1880,2014,2149,2475,2634,2885,3173,3313,3603,3819,4034,4463,4703,5004,5184,5374,5658,6373,6640,6815,7090,7468,7658
participant_9_CURRENTGOLD,500,0,22,178,355,503,263,547,681,930,1064,149,75,234,485,773,513,153,369,109,538,378,679,559,750,1033,1748,115,290,566,943,534
participant_9_LEVEL,1,1,1,2,2,3,3,4,4,5,5,5,6,6,7,7,8,8,9,9,9,9,10,10,10,10,11,11,11,12,12,12
participant_9_MINIONSKILLED,0,0,0,1,3,4,4,4,4,7,7,7,9,9,12,12,12,12,12,12,13,13,14,16,16,21,21,21,23,24,24,24
participant_9_KILLS,0,0,0,0,0,0,0,0,0,1,1,1,2,2,2,3,3,4,5,5,6,7,8,8,8,8,8,8,8,9,11,11
participant_9_BUY,[],"[2033, 3340]",[],[],[],"[1001, 1036, 1036]",[],[],[],[],"[3134, 3117, 1036]",[],[],"[3133, 1036]",[],[],"[3142, 1036, 3364]",[],[],"[1037, 3134]",[1028],"[3814, 3134]",[],[],[],[],[3179],[],[],[],[],[3026]
participant_9_SOLD,[],[],[],[],[2010],[2010],[],[2010],[],[],"[1036, 1036, 1001]",[],[],[1036],[],[],"[3133, 3134, 3340]",[],[],"[1036, 1036]",[],"[1037, 3134, 1028]",[],[],[],[],[3134],[],[],[],[],[]
participant_9_UNDO,[],[],[],[],[],[],[],[],[],[],[],[],[],[],[],[],[],[],[],[],[],[],[],[],[],[],[],[],[],[],[],[]
team0_KILLS,0,0,0,2,2,2,2,2,2,2,4,4,4,4,4,4,5,8,9,10,11,11,13,14,15,16,19,19,19,19,19,19
team0_CURRENTGOLD,2500,0,481,2832,3655,3031,3613,1987,3516,3742,4297,3648,4010,2435,3446,2489,4285,3115,3881,3398,4015,1851,3915,4810,6883,5283,3667,4998,1829,2764,3011,3906
team0_TOTALGOLD,2500,2500,2981,5332,6830,7941,9348,10297,11826,12922,15227,16468,17645,19385,20746,21939,24235,27265,28901,30418,32785,33894,35958,37328,39851,42051,44892,46225,47782,48715,49714,51205
team0_LEVEL,5,5,6,13,18,21,24,26,29,30,35,35,39,40,41,42,45,48,50,52,53,54,57,57,59,62,65,65,65,67,68,69
team0_SBIRES,0,0,13,40,72,92,125,137,170,194,223,246,269,290,315,329,350,376,402,412,425,442,453,466,484,509,528,548,573,586,600,634
team1_KILLS,0,0,0,0,0,0,1,2,2,4,4,5,7,7,7,10,10,13,16,17,21,22,24,24,24,24,28,29,29,31,34,36
team1_CURRENTGOLD,2500,0,398,1538,3078,3267,2106,3735,5078,4062,3730,3031,3561,2994,4075,4298,3141,1606,4038,2890,4328,3287,2688,3344,3853,4592,4125,3375,2612,4799,8988,5306
team1_TOTALGOLD,2500,2500,2898,4188,5728,6917,8281,9910,11253,13437,14555,16281,18261,19494,20875,23473,24766,26964,29396,30798,33586,36470,38386,39691,41449,43660,46277,48362,49848,52033,56225,58627
team1_LEVEL,5,5,6,13,17,20,22,26,29,33,34,36,40,40,43,45,48,49,53,53,56,58,59,61,62,64,66,68,68,71,74,75
team1_SBIRES,0,0,10,34,66,85,102,133,157,183,200,220,242,267,290,313,338,351,363,374,394,420,443,468,489,527,533,558,583,600,631,647
delta_KILLS,0,0,0,2,2,2,1,0,0,-2,0,-1,-3,-3,-3,-6,-5,-5,-7,-7,-10,-11,-11,-10,-9,-8,-9,-10,-10,-12,-15,-17
delta_CURRENTGOLD,0,0,83,1294,577,-236,1507,-1748,-1562,-320,567,617,449,-559,-629,-1809,1144,1509,-157,508,-313,-1436,1227,1466,3030,691,-458,1623,-783,-2035,-5977,-1400
delta_TOTALGOLD,0,0,83,1144,1102,1024,1067,387,573,-515,672,187,-616,-109,-129,-1534,-531,301,-495,-380,-801,-2576,-2428,-2363,-1598,-1609,-1385,-2137,-2066,-3318,-6511,-7422
delta_LEVEL,0,0,0,0,1,1,2,0,0,-3,1,-1,-1,0,-2,-3,-3,-1,-3,-1,-3,-4,-2,-4,-3,-2,-1,-3,-3,-4,-6,-6
delta_SBIRES,0,0,3,6,6,7,23,4,13,11,23,26,27,23,25,16,12,25,39,38,31,22,10,-2,-5,-18,-5,-10,-10,-14,-31,-13
