name,frame_0,frame_1,frame_2,frame_3,frame_4,frame_5,frame_6,frame_7,frame_8,frame_9,frame_10,frame_11,frame_12,frame_13,frame_14,frame_15,frame_16,frame_17,frame_18,frame_19,frame_20,frame_21,frame_22,frame_23,frame_24,frame_25,frame_26,frame_27,frame_28,frame_29
nameStamp,Tstart,Tearly,Tearly,Tearly,Tearly,Tearly,Tearly,Tearly,Tearly,Tearly,Tearly,Tearly,Tearly,Tmid,Tmid,Tmid,Tmid,Tmid,Tmid,Tmid,Tmid,Tmid,Tmid,Tmid,Tmid,Tmid,Tmid,Tmid,Tend,Tend
timestamp,0,60015,120025,180052,240073,300080,360101,420102,480123,540146,600166,660176,720186,780211,840230,900232,960260,1020286,1080299,1140304,1200312,1260345,1320378,1380408,1440427,1500454,1560462,1620478,1680508,1740508
participant_0_GOLD,500,500,562,832,1214,1748,1927,2206,2509,2725,3015,3368,4106,4807,5365,5690,6327,6749,7321,7618,7815,8211,8479,9201,9456,9676,10216,10638,11622,12079
participant_0_CURRENTGOLD,500,0,62,332,279,813,377,656,959,305,595,948,206,907,365,690,392,814,21,318,515,476,744,301,556,776,1316,338,1323,1779
participant_0_LEVEL,1,1,1,3,4,5,5,6,7,7,8,8,9,9,10,10,11,11,11,12,12,12,13,13,13,13,14,14,15,15
participant_0_MINIONSKILLED,0,0,2,10,14,20,23,29,37,39,49,53,60,68,70,78,79,79,79,85,85,94,98,98,102,108,109,109,122,122
participant_0_KILLS,0,0,0,0,0,1,1,1,1,1,1,1,1,2,2,2,3,4,5,5,5,5,5,6,6,6,7,7,7,8
participant_0_BUY,[],"[2033, 3340]",[],[],[1052],[],[3145],[],[],"[1052, 1052]",[],[],"[3030, 1001, 1029]",[],"[3020, 1029]",[],"[3191, 1052]",[],[3157],[],[],[1052],[],[3916],[],[],[],[3165],[],[]
participant_0_SOLD,[],[],[],[],[2010],[],[1052],[],"[2010, 2010]",[],[],[],"[1052, 1052, 3145]",[],[1001],[],"[1029, 1029]",[],"[3191, 1052]",[],[],[],[],[1052],[],[],[],[3916],[],[]
participant_0_UNDO,[],[],[],[],[],[],[],[],[],[],[],[],[],[],[],[],[],[],[],[],[],[],[],[],[],[],[],[],[],[]
participant_1_GOLD,500,500,693,1048,1668,1895,2238,3123,3679,3886,4882,5264,6033,6931,7473,7875,9021,9451,9649,10006,11066,11529,11696,12976,13297,13607,13767,14611,15008,15164
participant_1_CURRENTGOLD,500,0,193,548,1168,95,438,1323,1879,111,1107,1489,408,1306,1848,325,1471,651,139,496,1557,369,536,1817,312,623,783,651,49,114
participant_1_LEVEL,1,1,2,3,4,4,5,6,7,7,8,9,9,9,10,11,12,12,12,12,13,13,13,14,14,15,15,15,16,16
participant_1_MINIONSKILLED,0,0,0,0,0,0,0,1,1,1,3,3,4,4,4,4,12,13,13,13,15,15,17,21,21,21,21,24,27,27
participant_1_KILLS,0,0,0,0,1,1,1,3,3,3,5,5,5,7,7,7,9,10,10,10,12,12,12,15,15,15,15,16,16,16
participant_1_BUY,[],"[1041, 2031, 3340]",[],[],[],"[3715, 1001, 1036]",[],[],[],"[1412, 1036, 1036]",[],[],"[3105, 3133, 1036]",[],[],"[3812, 3111, 2055]",[],[3044],"[1028, 3067]",[],[],"[3071, 1036, 1036]",[],[],"[3077, 3052]",[],[3363],[3748],"[1028, 1011]",[]
participant_1_SOLD,[],[],[],[],[],[1041],[],[],[],"[1036, 3715]",[],"[3340, 3513]","[1036, 1036]",[],[],"[3105, 1036, 3133, 1001]",[],[],"[2031, 2055, 1028]",[],[],"[3044, 3067]",[],[],"[1036, 1036]",[],[3340],"[3077, 3052]",[1028],[]
participant_1_UNDO,[],[],[],[],[],[],[],[],[],[],[],[],[],[],[],[],[],[],[],[],[],[],[],[],[],[],[],[],[],[]
participant_2_GOLD,500,500,611,976,1440,2060,2353,2840,3143,3384,3755,4099,4420,5242,5951,6255,7470,8138,8618,9012,9604,10864,10986,11204,11516,11863,12768,13190,13996,14396
participant_2_CURRENTGOLD,500,0,111,476,40,660,953,139,443,684,305,349,670,1492,1301,305,1519,88,568,962,654,1914,2037,2254,2566,214,1118,321,1127,1346
participant_2_LEVEL,1,1,1,3,4,5,5,6,7,7,8,8,9,10,10,10,11,12,12,13,13,14,14,14,14,14,15,15,16,16
participant_2_MINIONSKILLED,0,0,5,16,17,26,33,37,45,52,58,67,72,79,86,93,99,102,111,117,117,131,131,131,131,139,141,141,152,158
participant_2_KILLS,0,0,0,0,1,2,2,2,2,2,2,2,2,3,3,3,5,6,6,6,7,9,9,9,9,9,11,11,11,11
participant_2_BUY,[],"[3340, 1055, 2003]",[],[],"[1001, 1042, 1042]",[],[],"[3006, 1018]",[],[],"[3086, 1055]","[1042, 1042]",[],[],[3046],[1038],[],[3031],[],[],[1053],[],[],[],[],[3812],[],"[1053, 2140]",[],[]
participant_2_SOLD,[],[],[],[],[2003],[],[],"[1001, 1042]",[],[],"[1018, 1042]",[],[],[],"[1042, 3086]",[],[],[1038],[],[],[],[],[],[],[],[1053],[],"[1055, 2140]",[],[]
participant_2_UNDO,[],[],[],[],[],[],[],[],[],[],[],"[[0, 1042]]",[],[],[],[],[],[],[],[],[],[],[],[],[],[],[],[],[],[]
participant_3_GOLD,500,500,583,860,1562,1712,1968,2307,2589,3356,3549,4106,4562,5175,5726,5904,6574,7199,7546,7863,8358,8630,8871,9144,9482,9688,10090,10538,11234,11461
participant_3_CURRENTGOLD,500,0,83,360,62,212,468,807,304,1071,674,106,562,1175,1726,654,1324,1949,2296,293,788,260,502,774,1112,1319,1721,478,1174,1311
participant_3_LEVEL,1,1,1,2,3,3,4,5,5,6,6,7,7,8,8,8,9,10,10,10,10,11,11,11,11,12,12,13,14,14
participant_3_MINIONSKILLED,0,0,3,12,20,22,29,42,48,59,63,72,81,85,87,90,104,112,112,119,122,122,129,129,137,142,145,145,148,149
participant_3_KILLS,0,0,0,0,1,1,1,1,1,2,2,2,2,2,2,2,3,3,3,3,3,3,3,3,3,3,3,3,6,6
participant_3_BUY,[],"[3854, 2003, 2003, 3340]",[],[],[],"[1001, 1028, 2055, 2055]",[],[],[3117],[],"[1029, 2055]",[3105],[],[],"[3364, 3067]",[],[],[],[3050],[],[3109],[],[],[],[],[],[],[1031],[],[]
participant_3_SOLD,[],[],[],[2003],"[2003, 2010]",[2055],[],"[2010, 2010]",[1001],[2419],[],"[3854, 2423, 1029]",[],[],"[3340, 1028]",[],[],[],[3105],[3855],"[2055, 3364, 3067]",[3513],[],[],[2055],[],[],[2424],[],[]
participant_3_UNDO,[],[],[],[],[],[],[],[],[],[],[],[],[],[],[],[],[],[],[],[],[],[],[],[],[],[],[],"[[2424, 0]]",[],[]
participant_4_GOLD,500,500,543,720,1358,1629,1850,2026,2251,2869,3003,3346,3725,4132,4362,4503,5221,5376,5741,6013,6379,6690,6831,7046,7256,7427,7669,8130,9372,9586
participant_4_CURRENTGOLD,500,0,43,220,858,279,500,676,201,819,578,121,500,907,737,878,1596,1751,966,1239,204,515,656,871,1081,1252,1494,1155,2397,2571
participant_4_LEVEL,1,1,1,2,3,3,3,4,5,6,6,6,7,7,8,8,8,9,9,9,10,10,10,11,11,11,11,12,13,13
participant_4_MINIONSKILLED,0,0,1,3,4,4,8,10,12,13,13,15,17,18,20,20,23,24,24,27,27,28,28,28,32,33,34,35,37,37
participant_4_KILLS,0,0,0,0,1,1,1,1,1,2,2,3,3,4,4,4,4,4,4,4,5,5,5,5,5,5,5,5,5,5
participant_4_BUY,[],"[1056, 2003, 2003, 3340]",[],[],"[1026, 2031]",[],[],[],"[1052, 1027]",[],"[3802, 2055]","[3285, 2055]",[],[],[],"[3020, 1058]",[],[],[],[3089],[],[3020],[],[],[],[],[],"[3191, 2420]",[],[]
participant_4_SOLD,[],[],[],"[2003, 2010]",[2003],[],[],"[2010, 2010]",[],[],"[1052, 1027]","[3802, 1026]",[],[],[2055],[2422],[],[],[],"[2055, 1058]",[],[2422],[],[],[],[],[],[2031],[],[2420]
participant_4_UNDO,[],[],[],[],[],[],[],[],[],[],[],[],[],[],[],"[[0, 3020]]",[],[],[],[],[],[],[],[],[],[],[],[],[],[]
participant_5_GOLD,500,500,562,867,1461,1897,2209,2481,2757,3141,3284,3519,3919,4260,4597,4924,5122,5949,6287,6747,7022,7237,7489,8089,8347,8758,8950,9136,9308,9434
participant_5_CURRENTGOLD,500,0,62,367,6,142,329,601,877,1261,134,69,469,810,297,624,72,99,337,797,197,362,614,1214,172,583,776,961,1133,1209
participant_5_LEVEL,1,1,1,3,4,5,5,6,7,8,8,8,9,9,10,10,10,11,11,12,12,12,12,13,13,13,14,14,14,14
participant_5_MINIONSKILLED,0,0,2,12,18,19,30,36,44,56,57,64,79,84,93,97,97,99,107,115,120,122,126,126,126,139,143,146,146,146
participant_5_KILLS,0,0,0,0,0,0,0,0,0,0,0,1,1,1,1,3,3,3,4,4,4,4,5,6,6,6,6,6,6,6
participant_5_BUY,[],"[2031, 3340, 1039]",[],[],[3706],[],[],"[1036, 1036]",[],[],"[1400, 1001]",[],[3057],[],[1028],"[3044, 1042]",[],[3101],[3078],[],"[1029, 1029]",[],"[3047, 1028]",[],"[3082, 1011]",[3364],[],"[3143, 2055]",[1028],[]
participant_5_SOLD,[],[],[],[],[1039],[],[],[],[],[],"[1036, 1036, 3706]",[],[],[],[],[1028],[],[1042],"[3101, 3057, 3044]",[],[],[],"[1001, 1029]",[],"[1029, 1028]",[3340],[],"[3082, 1011]",[2055],[]
participant_5_UNDO,[],[],[],[],[],[],[],[],[],[],[],[],[],[],[],[],[],[],[],[],[],[],[],[],[],[],[],[],[],[]
participant_6_GOLD,500,500,620,1073,1217,1416,1719,2060,2372,2695,3092,4095,4252,4579,4887,5884,6103,6485,6927,7340,7512,8228,8970,10071,10398,10571,10792,11009,11291,11348
participant_6_CURRENTGOLD,500,0,120,573,67,266,569,210,522,845,17,1020,127,454,362,209,428,10,119,532,104,820,662,1763,790,964,1184,426,309,365
participant_6_LEVEL,1,1,2,3,3,3,4,5,5,6,6,7,7,8,8,9,9,10,10,11,11,12,12,13,13,13,13,14,14,14
participant_6_MINIONSKILLED,0,0,0,0,1,1,1,4,4,4,10,14,16,16,16,16,17,19,19,19,19,32,32,38,40,42,44,45,46,46
participant_6_KILLS,0,0,0,0,1,1,1,2,2,2,3,4,4,5,5,5,6,7,7,7,8,8,8,9,9,9,10,10,10,11
participant_6_BUY,[],"[1054, 2003]",[],[],"[1028, 1027]",[],[],"[3010, 1001, 1082]",[],[],[1026],[],"[3027, 1027, 1004]",[],"[3070, 1052]",[],[3802],[],[3003],[],[1058],[1058],[],[],[],[3089],[],"[3047, 1026]",[],[]
participant_6_SOLD,[],[],[],[],[],[],[],"[1028, 1027]",[],[],[2003],[],"[3010, 1026]",[],"[1027, 1004]",[],[1052],[],"[3070, 3802]",[],[],[1054],[],[],[],"[1058, 1058, 3003]",[],[1001],[],[]
participant_6_UNDO,[],[],[],[],[],[],[],[],[],[],[],[],[],[],[],[],[],[],[],[],[],[],[],[],[],[],[],[],[],[]
participant_7_GOLD,500,500,541,850,1378,1640,1903,2395,2754,3075,3497,4128,4593,5078,5285,5687,6372,7522,7721,8078,8855,9403,9563,10000,10559,10876,11999,12206,12601,13271
participant_7_CURRENTGOLD,500,0,41,350,128,390,653,145,504,825,397,1028,368,853,250,652,472,1622,771,1128,655,134,293,730,1289,507,1629,186,582,1071
participant_7_LEVEL,1,1,1,3,4,5,6,6,7,8,8,9,10,10,10,11,11,11,11,12,12,13,13,13,14,14,14,14,15,15
participant_7_MINIONSKILLED,0,0,1,9,15,21,29,33,44,52,52,61,69,73,78,90,93,95,100,111,125,133,133,134,143,150,150,150,159,160
participant_7_KILLS,0,0,0,0,0,0,0,0,0,0,0,1,1,1,1,1,1,1,1,1,1,1,1,1,1,1,1,1,1,1
participant_7_BUY,[],"[1055, 2003, 3340, 1056, 2003, 2003, 3340]",[],[],"[1083, 2055]",[],[],"[1001, 1042, 2031, 2055]",[],[2015],[],[],"[1038, 3009]",[],[],[],"[1018, 3363, 3095]",[2055],[],[],"[1018, 2055]","[3086, 1042]",[],[2015],[3094],[],[],[1037],[1036],[]
participant_7_SOLD,[],[],[],[2003],[],[2055],[2003],[],[],[1042],[],[],"[2031, 1001]",[],[2055],[],"[3340, 1038, 1018, 2015]",[],[2055],[],[],"[1018, 1083]",[2055],[1042],"[3086, 2015]",[],[1056],[],[],[]
participant_7_UNDO,[],"[[3340, 0], [0, 2003], [0, 1055]]",[],[],[],[],[],[],[],[],[],[],[],[],[],[],[],[],[],[],[],[],[],[],[],[],[],[],[],[]
participant_8_GOLD,500,500,583,1004,1164,1498,1828,1950,2327,2494,2920,3915,4111,4360,4505,5242,5365,5487,5819,6235,6422,7080,7515,7864,8161,8430,8602,9038,9250,9356
participant_8_CURRENTGOLD,500,0,83,504,139,473,803,100,477,244,670,1665,21,270,415,1152,75,122,454,870,182,120,555,504,301,570,903,463,325,31
participant_8_LEVEL,1,1,1,2,3,3,4,5,5,6,7,7,7,8,8,9,9,9,10,10,10,11,11,12,12,12,12,13,13,13
participant_8_MINIONSKILLED,0,0,3,18,20,29,40,40,51,53,70,77,81,84,85,100,100,100,107,115,116,124,135,136,142,151,151,161,162,162
participant_8_KILLS,0,0,0,0,0,0,0,0,0,0,0,0,0,0,0,0,0,0,0,0,0,0,0,1,1,1,1,1,2,2
participant_8_BUY,[],"[3850, 2003, 2003, 3340]",[],[],"[1001, 2055]",[],[],[],[],[],"[3020, 2055]","[1052, 2055]",[],[],"[1028, 2003, 2055, 3364]",[],[2055],[3136],[],[],[1026],[],[],"[3151, 1029]","[2055, 2055]",[],[2055],[],[3191],[]
participant_8_SOLD,[],[],[],[2003],[2003],[],[],[2055],[],[],[1001],"[2055, 2419]",[],"[2055, 2423, 3850]","[2003, 3340]",[],[],"[1028, 1052]",[],[2055],[],[],"[3851, 2055]","[3136, 1026]",[],[2055],[],[2055],[1029],[]
participant_8_UNDO,[],[],[],[],[],[],[],[],[],[],[],[],[],[],[],[],[],[],[],[],[],[],[],[],[],[],[],[],[],[]
participant_9_GOLD,500,500,522,732,897,1031,1166,1391,1554,1770,1904,2279,2438,2693,2833,3154,3344,3634,4009,4164,4421,4686,4864,5502,5642,5812,6003,6188,6893,7007
participant_9_CURRENTGOLD,500,0,22,232,22,156,291,516,679,895,154,19,178,433,68,389,504,129,504,659,66,331,509,97,87,258,373,558,463,557
participant_9_LEVEL,1,1,1,2,2,3,4,4,5,5,5,6,6,7,7,7,7,8,9,9,9,9,10,11,11,11,11,11,12,12
participant_9_MINIONSKILLED,0,0,0,0,0,0,0,2,3,4,4,4,4,4,4,5,7,8,10,10,11,11,11,13,13,13,13,15,16,16
participant_9_KILLS,0,0,0,0,1,2,2,2,2,2,2,2,2,2,2,2,2,3,3,3,3,3,3,4,4,4,4,4,4,4
participant_9_BUY,[],"[1036, 2003, 2003, 2003, 3340]",[],[],[3077],[1001],"[2055, 2003]",[],[],[],[1038],[1042],[],[],"[3006, 1036]",[],[3133],[1018],[3508],[],"[1018, 2055]","[3364, 2003]",[],[],[1038],[],[],[],[],[]
participant_9_SOLD,[],[],[],"[2003, 2003]","[2003, 1036]",[],[],[2003],[],[],[2055],[],[],[],"[1001, 1042]",[],[1036],[],"[1038, 3133, 1018]",[],[],"[3340, 2003]",[2055],[],[],[],[],[],[],[]
participant_9_UNDO,[],[],[],[],[],[],[],[],[],[],[],[],[],[],[],[],[],[],[],[],[],[],[],[],[],[],[],[],[],[]
team0_KILLS,0,0,0,0,4,6,6,8,8,10,12,13,13,18,18,18,24,27,28,28,32,34,34,38,38,38,41,42,45,46
team0_CURRENTGOLD,2500,0,492,1936,2407,2059,2736,3601,3786,2990,3259,3013,2346,5787,5977,2852,6302,5253,3990,3308,3718,3534,4475,6017,5627,4184,6432,2943,6070,7121
team0_TOTALGOLD,2500,2500,2992,4436,7242,9044,10336,12502,14171,16220,18204,20183,22846,26287,28877,30227,34613,36913,38875,40512,43222,45924,46863,49571,51007,52261,54510,57107,61232,62686
team0_LEVEL,5,5,6,13,18,20,22,27,31,33,36,38,41,43,46,47,51,54,54,56,58,60,61,63,63,65,67,69,74,74
team0_SBIRES,0,0,11,41,55,72,93,119,143,164,186,210,234,254,267,285,317,330,339,361,366,390,403,407,423,443,450,454,486,493
team1_KILLS,0,0,0,0,2,3,3,4,4,4,5,8,8,9,9,11,12,14,15,15,16,16,17,21,21,21,22,22,23,24
team1_CURRENTGOLD,2500,0,328,2026,362,1427,2645,1572,3059,4070,1372,3801,1163,2820,1392,3026,1551,1982,2185,3986,1204,1767,2633,4308,2639,2882,4865,2594,2812,3233
team1_TOTALGOLD,2500,2500,2828,4526,6117,7482,8825,10277,11764,13175,14697,17936,19313,20970,22107,24891,26306,29077,30763,32564,34232,36634,38401,41526,43107,44447,46346,47577,49343,50416
team1_LEVEL,5,5,6,13,16,19,23,26,29,33,34,37,39,42,43,46,46,49,51,54,54,57,58,62,63,63,64,66,68,68
team1_SBIRES,0,0,6,39,54,70,100,115,146,169,193,220,249,261,276,308,314,321,343,370,391,422,437,447,464,495,501,517,529,530
delta_KILLS,0,0,0,0,2,3,3,4,4,6,7,5,5,9,9,7,12,13,13,13,16,18,17,17,17,17,19,20,22,22
delta_CURRENTGOLD,0,0,164,-90,2045,632,91,2029,727,-1080,1887,-788,1183,2967,4585,-174,4751,3271,1805,-678,2514,1767,1842,1709,2988,1302,1567,349,3258,3888
delta_TOTALGOLD,0,0,164,-90,1125,1562,1511,2225,2407,3045,3507,2247,3533,5317,6770,5336,8307,7836,8112,7948,8990,9290,8462,8045,7900,7814,8164,9530,11889,12270
delta_LEVEL,0,0,0,0,2,1,-1,1,2,0,2,1,2,1,3,1,5,5,3,2,4,3,3,1,0,2,3,3,6,6
delta_SBIRES,0,0,5,2,1,2,-7,4,-3,-5,-7,-10,-15,-7,-9,-23,3,9,-4,-9,-25,-32,-34,-40,-41,-52,-51,-63,-43,-37
