name,team0,team1
win,Win,Fail
firstBlood,False,True
firstTower,True,False
firstInhibitor,True,False
firstBaron,False,False
firstDragon,False,True
firstRiftHerald,False,False
towerKills,7,2
inhibitorKills,1,0
baronKills,0,0
dragonKills,4,1
riftHeraldKills,0,0
