name,frame_0,frame_1,frame_2,frame_3,frame_4,frame_5,frame_6,frame_7,frame_8,frame_9,frame_10,frame_11,frame_12,frame_13,frame_14,frame_15,frame_16,frame_17,frame_18,frame_19,frame_20,frame_21,frame_22,frame_23,frame_24
nameStamp,Tstart,Tearly,Tearly,Tearly,Tearly,Tearly,Tearly,Tearly,Tearly,Tearly,Tearly,Tearly,Tearly,Tearly,Tearly,Tearly,Tmid,Tmid,Tmid,Tmid,Tmid,Tmid,Tend,Tend,Tend
timestamp,0,60001,120010,180049,240060,300078,360112,420131,480158,540190,600218,660246,720279,780306,840325,900344,960348,1020375,1080396,1140415,1200428,1260440,1320451,1380470,1440470
participant_0_GOLD,500,500,583,804,1204,1529,1743,2155,2507,2977,3385,3674,4077,4548,5020,5697,6097,6527,7072,7592,7972,8486,9243,9634,9906
participant_0_CURRENTGOLD,500,0,83,79,479,804,283,695,1047,452,860,299,702,1173,1645,172,572,1002,612,1132,47,561,1318,460,731
participant_0_LEVEL,1,1,1,2,4,5,5,6,7,8,8,9,9,10,10,11,11,12,12,13,13,14,14,14,15
participant_0_MINIONSKILLED,0,0,3,9,22,32,37,51,61,68,74,80,93,104,115,121,131,142,151,161,168,173,185,193,195
participant_0_KILLS,0,0,0,0,0,0,0,0,0,0,0,0,0,0,0,0,0,0,0,0,0,0,1,1,1
participant_0_BUY,[],"[2003, 1054]",[],"[2031, 2055]",[],[],"[1052, 1001]",[],[],"[1028, 3136]",[],[1026],[],[],[],"[3151, 3020, 1042, 1042]",[],[],"[3101, 1052]",[],[3115],[],[],[1058],[]
participant_0_SOLD,[],[],[],[2003],[],[],[],[],[],"[1028, 1052]",[],[],[2055],[],[],"[3136, 1026, 1001]",[],[3340],"[1042, 1042]",[3513],"[3101, 1052]",[],[],[],[]
participant_0_UNDO,[],[],[],[],[],[],[],[],[],[],[],[],[],[],[],[],[],[],[],[],[],[],[],[],[]
participant_1_GOLD,500,500,620,1033,1614,2256,2518,2843,3080,3653,4205,4360,4615,5117,6008,6650,7173,7445,8193,8749,8989,9936,10158,10787,11353
participant_1_CURRENTGOLD,500,0,120,533,1114,1756,253,578,815,1388,1940,170,425,927,1818,2460,2983,230,978,1534,1774,2721,1018,1647,2153
participant_1_LEVEL,1,1,2,3,4,5,5,6,6,7,7,7,7,8,9,9,10,10,11,11,11,13,13,14,14
participant_1_MINIONSKILLED,0,0,0,0,0,2,4,4,5,6,6,6,6,8,19,19,20,20,22,34,35,40,40,42,47
participant_1_KILLS,0,0,0,0,0,1,1,1,1,1,1,1,1,1,1,1,1,2,2,3,3,3,6,6,6
participant_1_BUY,[],"[1055, 2003, 3340]",[],[],[],"[3006, 2031]",[],"[1042, 1042]",[],[],[],[],[],"[3046, 1036, 1004, 2055]",[],[1053],[],[1038],[],[],[1018],[],[],"[3031, 3052]",[]
participant_1_SOLD,[],[],[],[],[],[2003],[],[],[],[],[],[],[],"[1042, 1042]",[2055],[1036],[],[],[],[],[2031],[],[],"[1038, 1018]",[]
participant_1_UNDO,[],[],[],[],[],[],[],[],[],[],[],[],[],"[[0, 1004]]",[],[],[],[],[],[],[],[],[],[],[]
participant_2_GOLD,500,500,597,913,1225,1815,2179,2406,2795,3243,3554,3927,4489,4855,5243,5531,6054,6730,6988,7746,7961,8551,9914,10301,10468
participant_2_CURRENTGOLD,500,0,97,413,725,65,429,56,445,893,1204,1577,2139,80,468,206,729,105,363,1121,596,1186,2549,436,543
participant_2_LEVEL,1,1,1,3,4,5,6,6,7,8,8,9,10,10,10,11,11,12,12,12,12,13,14,14,14
participant_2_MINIONSKILLED,0,0,4,13,24,31,43,49,61,72,83,88,104,108,119,126,138,146,146,155,158,168,174,175,175
participant_2_KILLS,0,0,0,0,0,0,0,0,0,0,0,1,1,1,1,1,1,1,1,1,1,1,1,1,1
participant_2_BUY,[],"[3850, 2003, 2003, 3340]",[],[],[1052],[2055],[3108],[],"[1001, 2055, 2003]",[],[],"[3020, 1029]",[1029],"[3364, 2055]",[],[],[],[],"[3157, 2055, 2003]",[],[],"[1026, 2055, 2055]",[],[1052],[]
participant_2_SOLD,[],[],[],[],[2003],[2055],[1052],[],[2003],[],"[3850, 2055]",[1001],[2003],[3340],[],[2055],[],[],"[3851, 1029, 1029, 3108]",[2055],[],[],[],[2003],[2055]
participant_2_UNDO,[],[],[],[],[],[],[],[],[],[],[],[],[],[],[],[],[],[],[],[],[],[],[],[],[]
participant_3_GOLD,500,500,583,881,1490,1862,2090,2282,2564,2872,3597,4060,4637,5080,5588,6262,6874,7561,7928,8747,9017,9551,10452,10929,11333
participant_3_CURRENTGOLD,500,0,83,381,990,417,295,487,39,347,1072,535,1112,1555,163,837,649,1336,1703,2522,542,1076,1977,2455,2858
participant_3_LEVEL,1,1,1,2,3,4,5,5,5,6,7,7,8,8,9,9,10,10,10,11,11,12,13,14,14
participant_3_MINIONSKILLED,0,0,3,13,21,29,35,39,46,57,72,79,85,95,95,100,111,122,129,138,138,140,151,159,163
participant_3_KILLS,0,0,0,0,1,1,1,1,1,1,2,2,3,3,4,5,5,5,5,5,5,5,5,5,5
participant_3_BUY,[],"[1056, 2003, 2003, 3340]",[],[],[],"[1052, 1052, 2055]",[1082],[],"[3802, 1001]",[],[],"[1026, 2031]",[],[],"[3285, 1026]",[],[3020],[],[],[],[3151],[],[],[],[]
participant_3_SOLD,[],[],[],[],[2003],"[2010, 2010]",[],[2003],"[1052, 1052]",[2055],[2010],[],[],[],"[3802, 1026]",[],[1001],[],[],[],[1026],[],[],[],[]
participant_3_UNDO,[],[],[],[],[],[],[],[],[],[],[],[],[],[],[],[],[],[],[],[],[],[],[],[],[]
participant_4_GOLD,500,500,567,732,1128,1452,1602,1826,2005,2227,2591,3036,3356,3512,4062,4417,4638,4873,5094,5495,5728,6168,6498,6689,6866
participant_4_CURRENTGOLD,500,0,67,232,193,442,127,351,105,327,691,36,56,137,687,1043,1263,1498,194,595,828,268,599,374,531
participant_4_LEVEL,1,1,1,2,3,3,3,4,4,5,6,6,6,6,7,8,8,8,8,9,9,10,10,10,10
participant_4_MINIONSKILLED,0,0,0,0,1,4,4,4,5,7,7,7,7,7,7,8,8,8,9,11,11,11,13,13,13
participant_4_KILLS,0,0,0,0,1,2,2,2,2,3,4,4,4,4,5,6,6,6,7,7,7,7,7,8,9
participant_4_BUY,[],"[1041, 2031]",[],[],[],[],"[3715, 3133, 2055, 3364]",[],[],[],[],"[1412, 1001, 3134]",[],[],[],[],[],"[3814, 3006, 1036, 2055]",[],[],[],[],"[3123, 3086, 2055]",[],[]
participant_4_SOLD,[],[],[],[],[],[],"[1041, 2031, 3340, 2055]",[],[],[],[3364],"[3133, 3715]",[3513],[],[],[],[],"[3134, 1001]",[2055],[],[],[],[1036],[2055],[]
participant_4_UNDO,[],[],[],[],[],[],[],[],[],[],[],[],[],[],[],[],[],[],[],[],[],[],[],[],[]
participant_5_GOLD,500,500,562,1273,1438,1847,2211,2559,2793,3230,3352,3531,3772,4013,4385,4549,4807,5253,5646,5769,6170,6314,6454,6792,6860
participant_5_CURRENTGOLD,500,0,62,773,238,647,311,9,243,280,402,581,822,563,935,449,707,453,846,169,237,381,71,334,52
participant_5_LEVEL,1,1,1,3,3,4,6,6,6,7,7,7,8,8,9,9,9,10,10,10,11,11,11,12,12
participant_5_MINIONSKILLED,0,0,2,12,14,28,39,42,48,57,57,61,67,75,86,89,89,100,108,108,120,121,121,130,130
participant_5_KILLS,0,0,0,0,0,0,0,1,1,1,1,1,1,1,1,1,1,2,2,2,2,2,2,2,2
participant_5_BUY,[],[2033],[],[],[],"[1082, 1052, 2055]",[],[3145],"[1001, 2055]",[],"[3067, 2055, 3364]",[],[],"[3152, 2055]",[3047],[],[3057],[],[],[3113],[],[],"[3100, 2055]",[],"[1026, 3191]"
participant_5_SOLD,[],[],[],[],[],[2403],[2055],"[2403, 2403, 1052]",[2055],[],[3340],[],[2055],"[3145, 3067]",[1001],[],[],[],[],[2055],[],[],"[3057, 3113]",[],[2055]
participant_5_UNDO,[],[],[],[],[],[],[],[],[],[],[],[],[],[],[],[],[],[],[],[],[],[],[],[],"[[0, 1026]]"
participant_6_GOLD,500,500,705,1171,1670,1956,2276,2399,2826,2983,3206,3484,3797,4404,4668,4821,5093,5537,5912,6092,6456,6827,7002,7424,7491
participant_6_CURRENTGOLD,500,0,205,671,520,806,1126,89,516,673,896,34,347,954,1218,1371,1643,52,427,607,356,727,177,224,231
participant_6_LEVEL,1,1,2,3,4,4,5,5,6,6,6,7,7,8,8,8,9,9,10,10,11,11,11,12,12
participant_6_MINIONSKILLED,0,0,0,2,2,10,10,10,10,11,11,12,12,12,14,15,15,17,20,23,25,29,30,30,30
participant_6_KILLS,0,0,0,0,1,1,1,1,1,1,1,1,1,2,2,2,2,2,2,2,2,2,2,3,3
participant_6_BUY,[],"[1039, 2031, 3340]",[],[],[3706],[],[],"[1001, 1052, 1027, 2055]",[],[],[],"[1402, 1082, 2055]",[],[],[],[],[],"[3020, 3067, 1052]",[],[],[3145],[],"[3152, 2055]",[1052],[]
participant_6_SOLD,[],[],[],[],[1039],[],[],[2055],[],[],[],"[1052, 1027, 3706]",[],[2055],[],[],[],[1001],[],[],[1052],[],"[3145, 3067]",[2031],[]
participant_6_UNDO,[],[],[],[],[],[],[],[],[],[],[],[],[],[],[],[],[],[],[],[],[],[],[],[],[]
participant_7_GOLD,500,500,611,913,1204,1494,1773,2345,2600,2987,3291,3631,4051,4630,4967,5383,5998,6589,6825,6990,7580,8045,8314,9087,9197
participant_7_CURRENTGOLD,500,0,111,413,704,134,413,370,250,637,66,406,826,680,217,633,198,789,1025,370,960,1425,319,1092,72
participant_7_LEVEL,1,1,1,3,4,5,6,7,7,8,8,9,9,10,11,11,11,12,12,12,13,13,13,14,14
participant_7_MINIONSKILLED,0,0,5,13,22,29,37,43,51,62,72,81,95,104,113,127,134,141,148,151,169,181,190,206,209
participant_7_KILLS,0,0,0,0,1,1,1,1,1,1,1,1,1,1,2,2,2,2,2,2,2,2,2,2,2
participant_7_BUY,[],"[3858, 2003, 2003, 3340]",[],[],[],[],"[3111, 2055, 2003]",[],[],[],[],"[1028, 3067, 3364]",[],"[1029, 2055]",[1031],[],[],"[3109, 2055]",[],[],"[1033, 1028]",[],"[1006, 3211, 2055]","[2055, 1006]",[]
participant_7_SOLD,[],[],[],"[2010, 2003]",[2003],[2010],[],[2010],[2055],[],[],"[1028, 3340]",[2003],[],"[3858, 1029]",[],[],"[3067, 1031]",[2055],[2055],[],[],"[1028, 1033]",[2055],[2055]
participant_7_UNDO,[],[],[],[],[],[],[],[],[],[],[],[],[],[],[],[],[],[],[],[],[],[],"[[0, 1006]]",[],[]
participant_8_GOLD,500,500,576,955,1408,1887,2150,2527,2782,3152,3379,3626,4264,4477,4813,4998,5461,5646,6008,6968,7271,7659,7844,7966,8034
participant_8_CURRENTGOLD,500,0,76,455,208,687,400,777,732,1102,29,276,914,377,263,448,911,296,658,1618,771,284,469,591,659
participant_8_LEVEL,1,1,1,2,3,3,4,5,5,6,6,6,7,7,7,8,8,9,9,10,10,11,11,11,11
participant_8_MINIONSKILLED,0,0,3,15,21,21,29,41,49,60,66,70,78,83,87,91,104,107,113,129,135,146,149,149,149
participant_8_KILLS,0,0,0,1,1,1,1,1,1,1,1,1,1,1,1,1,1,1,1,1,1,1,1,1,1
participant_8_BUY,[],"[2033, 3340, 1055, 3340, 2003]",[],[],"[1036, 1036]",[],"[3077, 2055]","[1001, 1036]",[],[1028],[],[],[],[3044],[],"[1027, 1042]",[],[3057],[],[3101],[3078],[],[1033],[2055],[3111]
participant_8_SOLD,[],[],[],[2003],[],[],"[1036, 1036, 2055]",[],[],[],[],[],[],"[1028, 1036]",[],[],[],[1027],[],[1042],"[3101, 3057, 3044]",[],[],[],"[1001, 1033]"
participant_8_UNDO,[],"[[3340, 0], [0, 2033]]",[],[],[],[],[],[],[],[],[],[],[],[],[],[],[],[],[],[],[],[],[],[],[]
participant_9_GOLD,500,500,536,752,1283,1707,1842,2011,2183,2390,2524,2659,2863,2997,3643,3814,4004,4323,4547,4893,5093,5299,5439,5622,5713
participant_9_CURRENTGOLD,500,0,36,252,783,1207,117,286,458,665,799,134,338,97,243,413,604,248,472,818,168,374,89,47,138
participant_9_LEVEL,1,1,1,2,3,4,4,5,6,6,6,6,7,7,8,8,8,8,9,9,9,10,10,10,10
participant_9_MINIONSKILLED,0,0,1,3,4,9,9,11,14,15,15,15,19,19,23,24,24,26,32,35,37,40,40,43,44
participant_9_KILLS,0,0,0,0,0,1,1,1,1,1,1,1,2,2,2,2,2,2,2,3,3,3,3,3,3
participant_9_BUY,[],"[1055, 2003, 3340]",[],[],"[1036, 1036]",[],[1053],[],[1001],[],[1038],[],[],[3133],[1033],[],[],[3047],[],[],"[3812, 3363]",[1037],[],[],[]
participant_9_SOLD,[],[],[],[],[],[],[1036],[2003],[],[],[],[],[],[1036],[],[],[],[1001],[],[],"[1033, 1053, 3133, 3340]",[],[],[],[]
participant_9_UNDO,[],[],[],[],[],[],[],[],[],[],[],[],[],[],[],[],[],[],[],[],[],[],[],[],[]
team0_KILLS,0,0,0,0,2,4,4,4,4,5,7,8,9,9,11,13,13,14,15,16,16,16,20,21,22
team0_CURRENTGOLD,2500,0,450,1638,3501,3484,1387,2167,2451,3407,5767,2617,4434,3872,4781,4718,6196,4171,3850,6904,3787,5812,7461,5372,6816
team0_TOTALGOLD,2500,2500,2950,4363,6661,8914,10132,11512,12951,14972,17332,19057,21174,23112,25921,28557,30836,33136,35275,38329,39667,42692,46265,48340,49926
team0_LEVEL,5,5,6,12,18,22,24,27,29,34,36,38,40,42,45,48,50,52,53,56,56,62,64,66,67
team0_SBIRES,0,0,10,35,68,98,123,147,178,210,242,260,295,322,355,374,408,438,457,499,510,532,563,582,593
team1_KILLS,0,0,0,1,3,4,4,5,5,5,5,5,6,7,8,8,8,9,9,10,10,10,10,11,11
team1_CURRENTGOLD,2500,0,490,2564,2453,3481,2367,1531,2199,3357,2192,1431,3247,2671,2876,3314,4063,1838,3428,3582,2492,3191,1125,2288,1152
team1_TOTALGOLD,2500,2500,2990,5064,7003,8891,10252,11841,13184,14742,15752,16931,18747,20521,22476,23565,25363,27348,28938,30712,32570,34144,35053,36891,37295
team1_LEVEL,5,5,6,13,17,20,25,28,30,33,33,35,38,40,43,44,45,48,50,51,54,56,56,59,59
team1_SBIRES,0,0,11,45,63,97,124,147,172,205,221,239,271,293,323,346,366,391,421,446,486,517,530,558,562
delta_KILLS,0,0,0,-1,-1,0,0,-1,-1,0,2,3,3,2,3,5,5,5,6,6,6,6,10,10,11
delta_CURRENTGOLD,0,0,-40,-926,1048,3,-980,636,252,50,3575,1186,1187,1201,1905,1404,2133,2333,422,3322,1295,2621,6336,3084,5664
delta_TOTALGOLD,0,0,-40,-701,-342,23,-120,-329,-233,230,1580,2126,2427,2591,3445,4992,5473,5788,6337,7617,7097,8548,11212,11449,12631
delta_LEVEL,0,0,0,-1,1,2,-1,-1,-1,1,3,3,2,2,2,4,5,4,3,5,2,6,8,7,8
delta_SBIRES,0,0,-1,-10,5,1,-1,0,6,5,21,21,24,29,32,28,42,47,36,53,24,15,33,24,31
