name,frame_0,frame_1,frame_2,frame_3,frame_4,frame_5,frame_6,frame_7,frame_8,frame_9,frame_10,frame_11,frame_12,frame_13,frame_14,frame_15,frame_16,frame_17,frame_18,frame_19,frame_20,frame_21,frame_22,frame_23,frame_24,frame_25,frame_26,frame_27,frame_28
nameStamp,Tstart,Tearly,Tearly,Tearly,Tearly,Tearly,Tearly,Tearly,Tearly,Tearly,Tearly,Tearly,Tearly,Tearly,Tearly,Tearly,Tmid,Tmid,Tmid,Tmid,Tmid,Tmid,Tmid,Tmid,Tmid,Tmid,Tend,Tend,Tend
timestamp,0,60026,120056,180093,240116,300128,360156,420182,480182,540215,600244,660269,720287,780318,840319,900328,960348,1020359,1080372,1140398,1200412,1260445,1320457,1380479,1440501,1500521,1560545,1620553,1680553
participant_0_GOLD,500,500,523,657,852,986,1141,1275,1409,1607,1741,2101,2235,2410,2545,2750,2960,3094,3228,3363,3539,3674,3808,3942,4077,4256,4396,4536,4602
participant_0_CURRENTGOLD,500,0,23,157,352,61,216,350,334,532,666,1026,1160,1335,220,425,235,369,203,338,514,148,283,417,552,731,871,286,352
participant_0_LEVEL,1,1,1,2,3,3,3,4,4,5,5,6,6,7,7,7,8,8,8,8,8,9,9,9,10,10,10,11,11
participant_0_MINIONSKILLED,0,0,0,0,1,1,3,3,3,7,7,8,8,13,13,14,14,14,14,14,17,17,17,17,17,19,19,19,19
participant_0_KILLS,0,0,0,0,0,0,0,0,0,0,0,0,0,0,0,0,0,0,0,0,0,0,0,0,0,0,0,0,0
participant_0_BUY,[],"[3858, 2003, 2003, 3340]",[],[],[],"[1001, 2055, 2003]",[],[],"[2055, 2055]",[],[],[],[],[],"[3117, 1028, 2055, 2055]",[],[3067],[],[1029],[],[],"[1031, 3364]",[],[],[],[],[],"[3109, 1004]",[]
participant_0_SOLD,[],[],[],[],"[2003, 2003]",[2010],[2055],[2003],[],[],"[2010, 2055]",[2055],[2010],[2419],[1001],[],"[2423, 1028]",[2055],[],[],[],"[1029, 3340]",[],[],[],[],[3858],"[3067, 1031]",[2055]
participant_0_UNDO,[],[],[],[],[],[],[],[],[],[],[],[],[],[],[],[],[],[],[],[],[],[],[],[],[],[],[],[],[]
participant_1_GOLD,500,500,563,818,1095,1350,1676,2140,2485,2685,3100,3459,3959,4374,4808,5464,6174,6816,7098,7534,8064,8375,8497,9142,10250,10372,10968,11091,11148
participant_1_CURRENTGOLD,500,0,63,318,595,850,1176,1640,1985,35,450,809,1309,1124,528,99,809,786,1068,1504,2034,595,717,1362,220,342,939,1061,1098
participant_1_LEVEL,1,1,1,3,4,5,6,6,7,7,8,9,9,10,10,10,11,11,12,12,13,13,13,14,14,14,14,14,14
participant_1_MINIONSKILLED,0,0,2,10,18,23,35,43,53,57,65,75,84,92,97,102,111,119,124,135,150,157,157,166,166,166,167,167,167
participant_1_KILLS,0,0,0,0,0,0,0,0,0,0,0,0,0,0,0,0,1,2,2,2,2,2,2,3,4,4,5,5,5
participant_1_BUY,[],"[1056, 2003, 2003, 3340]",[],[],[],[],[],[],[],"[3108, 3067, 1052, 1082, 2003, 2003]",[],[],[],"[3152, 3158]",[3145],"[3152, 1052]",[],[3191],[],[],[],"[3157, 1026]",[],[],"[3116, 2139]",[],[],[],[]
participant_1_SOLD,[],[],[],[],[],[2003],[2003],[],[],[],[],[],[],"[2003, 3067, 2422]",[2003],"[3145, 3067]",[],[1052],[],[],[],"[3191, 3108]",[],[],"[1026, 2139]",[],[],[],[]
participant_1_UNDO,[],[],[],[],[],[],[],[],[],"[[0, 1052]]",[],[],[],"[[0, 3152]]",[],[],[],[],[],[],[],[],[],[],[],[],[],[],[]
participant_2_GOLD,500,500,584,916,1204,1361,1645,1966,2262,2574,2696,3404,3638,3943,4245,4543,4929,5093,5299,5624,5748,6084,6312,6518,6731,6863,7043,7315,7386
participant_2_CURRENTGOLD,500,0,84,416,704,161,445,366,362,674,796,1504,1738,243,545,843,1229,193,399,724,848,84,312,218,431,263,443,715,786
participant_2_LEVEL,1,1,1,2,3,3,4,5,6,6,6,7,7,8,8,9,9,9,10,10,10,10,10,11,11,11,11,11,11
participant_2_MINIONSKILLED,0,0,3,15,22,24,33,42,49,60,60,73,79,87,94,98,109,112,117,125,125,129,131,136,137,138,138,138,139
participant_2_KILLS,0,0,0,0,0,0,0,0,0,0,0,1,1,1,1,1,1,1,1,1,1,1,1,1,1,1,1,1,1
participant_2_BUY,[],"[1055, 2003, 3340]",[],[],[],"[1036, 1036]",[],[3133],[1042],[],[],[],[],"[1038, 3006]",[],[],[],"[3508, 1042]",[],[],[],[3086],[],[1042],[],[1042],[],[],[]
participant_2_SOLD,[],[],[],[],[2003],[],[],"[1036, 1036]",[],[],[],[],[],"[1042, 2422]",[],[],[],"[1038, 3133]",[],[],[],[1042],[],[],[],[],[],[],[]
participant_2_UNDO,[],[],[],[],[],[],[],[],[],[],[],[],[],[],[],[],[],[],[],[],[],[],[],[],[],[],[],[],[]
participant_3_GOLD,500,500,706,1118,1318,1665,2177,2724,2846,3252,3698,3956,4206,4434,4692,5326,6087,6561,6782,6940,7087,7551,7723,7944,8337,8459,8698,9543,9600
participant_3_CURRENTGOLD,500,0,206,618,818,1165,327,874,496,902,1348,1606,1856,34,292,926,1687,1261,1482,240,87,461,633,454,847,669,209,1053,1050
participant_3_LEVEL,1,1,2,3,4,4,5,5,5,6,6,7,7,8,8,9,9,10,10,10,10,11,11,11,11,12,12,12,12
participant_3_MINIONSKILLED,0,0,0,0,0,1,1,1,1,1,1,1,2,3,5,6,9,17,18,20,20,21,23,24,24,24,25,25,25
participant_3_KILLS,0,0,0,0,0,0,1,2,2,2,3,3,3,3,3,4,5,5,5,5,5,6,6,6,6,6,6,7,7
participant_3_BUY,[],"[2031, 1041, 3340]",[],[],[],[],"[3706, 1028, 1001]",[],[3751],[],[],[],[],"[1401, 3047, 1027, 1029]",[],[],[],"[3024, 3801]",[],"[3800, 1029]","[1029, 3363]","[2055, 2055]",[],[3076],[],[1029],[3082],[],[]
participant_3_SOLD,[],[],[],[],[],[],[1041],[],[1028],[],[],[],[],"[3751, 3706, 1001]",[],[],[],"[1027, 1029]",[],"[3024, 3801]",[3340],[2031],[],"[1029, 1029]",[],[2055],[1029],[],[]
participant_3_UNDO,[],[],[],[],[],[],[],[],[],[],[],[],[],[],[],[],[],[],[],[],[],[],[],[],[],[],[],[],[]
participant_4_GOLD,500,500,591,941,1281,1452,1965,2266,2564,2883,3308,3630,3992,4228,4509,4853,5196,5374,5941,6064,6190,6753,6910,7032,7190,7396,7594,7716,7801
participant_4_CURRENTGOLD,500,0,91,441,781,227,740,1041,1339,1658,2083,2405,2767,303,584,53,396,574,1141,144,270,833,190,312,470,676,874,996,901
participant_4_LEVEL,1,1,1,3,4,4,5,6,7,8,8,9,9,10,10,10,10,11,12,12,12,12,12,12,13,13,13,13,13
participant_4_MINIONSKILLED,0,0,4,14,27,30,40,49,56,66,74,85,95,102,108,108,117,120,127,127,127,130,132,132,134,139,139,139,141
participant_4_KILLS,0,0,0,0,0,0,0,0,0,0,0,0,0,0,0,0,0,0,1,1,1,2,2,2,2,2,2,2,2
participant_4_BUY,[],"[1055, 2003, 3340]",[],[],[],"[1001, 1042, 2055, 2003]",[],[],[],[],[],[],[],"[3046, 1042, 2003, 2003]",[],[1037],[],[],[],"[3006, 1018]",[],[],[1031],[],[],[],[],[],[]
participant_4_SOLD,[],[],[],[],[],[],[2055],[2003],[],[2003],[],[],[],[1042],[],[],[],[2003],[2003],"[1001, 1042, 1055]",[],[],[],[],[],[],[],[],[]
participant_4_UNDO,[],[],[],[],[],[],[],[],[],[],[],[],[],[],[],[],[],[],[],[],[],[],[],[],[],[],[],[],[]
participant_5_GOLD,500,500,598,853,1046,1336,1974,2306,2686,2956,3099,3376,3716,4188,4588,5024,5210,5520,6026,6555,7054,7427,8173,8543,9276,10019,10566,11145,11202
participant_5_CURRENTGOLD,500,0,98,353,86,376,279,611,991,1261,39,316,656,1128,1528,914,300,610,1116,360,859,77,823,1193,1926,319,867,695,552
participant_5_LEVEL,1,1,1,3,4,4,5,6,7,7,7,8,9,9,10,10,10,10,11,11,12,12,12,13,13,14,14,14,14
participant_5_MINIONSKILLED,0,0,4,12,16,23,27,39,51,59,60,69,78,86,98,99,102,105,113,116,123,123,131,134,136,137,138,138,138
participant_5_KILLS,0,0,0,0,0,0,1,1,1,1,1,1,1,1,1,2,2,2,2,2,3,4,5,5,6,7,8,9,9
participant_5_BUY,[],"[1056, 2003, 2003, 3340]",[],[],"[2031, 1027]",[],"[1052, 1001]",[],[],[],"[3802, 1026]",[],[],[],[],[3285],[3020],[],[],"[1026, 1052]",[],[3116],[],[],[],"[3136, 1026]",[],[3151],[]
participant_5_SOLD,[],[],[],[],"[2003, 2003]",[],[],[],[],[],"[1052, 1027]",[],[],[],[],"[3802, 1026]",[1001],[],[],[3400],[],"[1056, 1026, 1052]",[],[],[3400],[],[],"[3136, 1026]",[]
participant_5_UNDO,[],[],[],[],[],[],[],[],[],[],[],[],[],[],[],[],[],[],[],[],[],[],[],[],[],[],[],[],[]
participant_6_GOLD,500,500,523,699,894,1091,1292,1726,1895,2123,3544,3776,3927,4277,4561,4732,5215,6507,7256,8109,8561,8932,10749,11231,12585,13088,13900,14565,15125
participant_6_CURRENTGOLD,500,0,23,199,394,591,792,576,745,223,1644,1876,377,727,311,482,615,1907,1006,1859,2311,2682,2699,1381,2735,398,1211,1875,2375
participant_6_LEVEL,1,1,1,2,2,3,4,5,5,6,6,6,6,7,7,8,8,9,9,10,10,10,11,11,12,12,13,14,14
participant_6_MINIONSKILLED,0,0,0,2,3,6,7,7,9,11,12,14,15,15,15,17,19,23,23,23,23,23,23,24,25,25,26,26,26
participant_6_KILLS,0,0,0,0,0,0,0,0,0,0,1,1,1,1,1,1,2,3,4,5,6,6,8,8,10,10,12,13,13
participant_6_BUY,[],"[3854, 2003, 2003, 3340]",[],[],[],[],[],"[1001, 1036]",[],[3134],[],[],"[3179, 1036]",[],[3117],[],[1036],[],"[3134, 3133, 2055, 2055, 3364]",[],[],[],"[3142, 3147, 3134]",[3142],[],[3814],[],[],[]
participant_6_SOLD,[],[],[],[],"[2003, 2003]",[],[],[],[],[1036],[3400],[3854],[3134],[],[1001],[],[],[3400],"[1036, 1036, 3340]",[],[],[],"[3133, 3134, 3134, 3133]",[3134],[],"[2055, 2055]",[],[3855],[]
participant_6_UNDO,[],[],[],[],[],[],[],[],[],[],[],[],[],[],[],[],[],[],[],[],[],[],"[[0, 3142]]",[],[],[],[],[],[]
participant_7_GOLD,500,500,621,1033,1291,1595,1803,1933,2080,2493,3332,3554,3776,4164,4575,4797,5007,5179,5596,6454,6775,7059,7379,7826,8309,8788,9106,9478,9653
participant_7_CURRENTGOLD,500,0,121,533,791,1095,128,258,405,818,1657,379,601,139,550,472,682,254,671,1529,1850,134,454,101,584,313,631,553,728
participant_7_LEVEL,1,1,2,3,3,4,4,4,5,6,6,6,7,7,8,8,8,8,9,10,10,11,11,11,12,13,13,13,13
participant_7_MINIONSKILLED,0,0,0,0,0,0,0,0,0,0,1,1,1,3,3,3,4,4,4,7,7,7,7,8,10,10,12,12,15
participant_7_KILLS,0,0,0,0,0,0,0,0,0,0,1,1,1,1,1,1,1,1,1,1,1,1,1,2,3,3,3,3,3
participant_7_BUY,[],"[1041, 1006, 3340]",[],[],[],[],[3077],[],[],[],[],"[3751, 1001, 1029]",[],"[3047, 1039]",[],[3706],[],"[1401, 1401]",[],[],[],"[3211, 3067]",[],[3065],[],"[1036, 1028]",[],[3052],[]
participant_7_SOLD,[],[],[],[],[],[],[1006],[],[],[],[3400],[],[3340],"[3513, 1001, 1029]",[],"[1039, 1041]",[],"[3751, 3706, 3751, 3706]",[],[3400],[],[],[],"[3211, 3067]",[],[],[],"[1036, 1028]",[]
participant_7_UNDO,[],[],[],[],[],[],[],[],[],[],[],[],[],[],[],[],[],"[[0, 1401]]",[],[],[],[],[],[],[],[],[],[],[]
participant_8_GOLD,500,500,563,804,1162,1494,1792,1977,2610,2966,3480,3874,4101,4760,5229,5582,5740,6574,7099,7767,7995,8649,9720,10019,10412,10872,11593,12261,12559
participant_8_CURRENTGOLD,500,0,63,304,662,994,1292,1477,2110,516,1030,1424,1651,2310,2779,482,290,1124,699,317,45,699,1770,369,762,122,843,1512,1809
participant_8_LEVEL,1,1,1,3,4,5,6,6,7,8,9,9,9,10,10,11,11,11,11,12,12,13,13,13,14,15,15,15,16
participant_8_MINIONSKILLED,0,0,2,9,21,30,40,44,47,58,61,74,80,85,92,102,104,111,112,119,125,136,142,145,145,145,152,156,157
participant_8_KILLS,0,0,0,0,0,0,0,0,1,1,1,1,1,2,2,2,2,2,3,4,4,5,6,6,6,6,6,7,8
participant_8_BUY,[],"[1054, 2003, 3340]",[],[],[],[],[],[],[],"[3751, 3057]",[],[],[],[],[],"[3068, 3047]",[1027],[],"[3024, 1028]","[3025, 1029]",[1031],[],[],[3742],[],[3010],[],[],[]
participant_8_SOLD,[],[],[],[],[2010],[2010],[2003],[2010],[],[],[],[],[],[],[],"[3751, 2422]",[],[3400],[1027],"[3057, 3024]",[1029],[],[],"[1031, 1028]",[],[],[],[],[]
participant_8_UNDO,[],[],[],[],[],[],[],[],[],[],[],[],[],[],[],[],[],[],[],[],[],[],[],[],[],[],[],[],[]
participant_9_GOLD,500,500,563,853,1085,1529,1893,2650,3046,3297,3748,4058,4447,4761,5457,5823,6029,6779,7158,7708,8052,8474,8684,8926,9349,9809,10688,11370,11559
participant_9_CURRENTGOLD,500,0,63,353,585,1029,1393,750,1146,222,673,983,1372,361,757,1123,329,1079,1458,2008,2352,2774,184,427,229,89,968,1651,1659
participant_9_LEVEL,1,1,1,2,3,4,5,5,6,6,7,7,8,9,9,9,9,10,11,11,11,12,12,12,12,13,13,14,14
participant_9_MINIONSKILLED,0,0,2,11,15,30,42,44,56,60,69,76,88,98,98,104,109,118,123,132,136,136,136,140,140,140,150,158,162
participant_9_KILLS,0,0,0,0,0,0,0,2,2,2,2,2,2,2,4,4,4,5,5,5,5,6,6,6,7,7,7,7,7
participant_9_BUY,[],"[1055, 2003, 3340]",[],[],[],[],[],"[1038, 2003, 2003]",[],"[1037, 1001]",[],[],[],"[3031, 2003, 2003]",[1042],[],"[3009, 2015]",[],[],[],[],[],"[3095, 1042]",[],[1018],"[3086, 1042]",[],[],[]
participant_9_SOLD,[],[],[],[],[2003],[],[],[],[2003],[],[],[],[2003],"[1038, 1037]",[],[],"[1001, 1042]",[],[],[],[],[2003],[2015],[],[1055],"[1018, 1042]",[],[],[2003]
participant_9_UNDO,[],[],[],[],[],[],[],[],[],[],[],[],[],[],[],[],[],[],[],[],[],[],[],[],[],[],[],[],[]
team0_KILLS,0,0,0,0,0,0,1,2,2,2,3,4,4,4,4,5,7,8,9,9,9,11,11,12,13,13,14,15,15
team0_CURRENTGOLD,2500,0,467,1950,3250,2464,2904,4271,4516,3801,5343,7350,8830,3039,2169,2346,4356,3183,4293,2950,3753,2121,2135,2763,2520,2681,3336,4111,4187
team0_TOTALGOLD,2500,2500,2967,4450,5750,6814,8604,10371,11566,13001,14543,16550,18030,19389,20799,22936,25346,26938,28348,29525,30628,32437,33250,34578,36585,37346,38699,40201,40537
team0_LEVEL,5,5,6,13,18,19,23,26,29,32,33,38,38,43,43,45,47,49,52,52,53,55,55,57,59,60,60,61,61
team0_SBIRES,0,0,9,39,68,79,112,138,162,191,207,242,268,297,317,328,360,382,400,421,439,454,460,475,478,486,488,488,491
team1_KILLS,0,0,0,0,0,0,1,3,4,4,6,6,6,7,9,10,11,13,15,17,19,22,26,27,32,33,36,39,40
team1_CURRENTGOLD,2500,0,368,1742,2518,4085,3884,3672,5397,3040,5043,4978,4657,4665,5925,3473,2216,4974,4950,6073,7417,6366,5930,3471,6236,1241,4520,6286,7123
team1_TOTALGOLD,2500,2500,2868,4242,5478,7045,8754,10592,12317,13835,17203,18638,19967,22150,24410,25958,27201,30559,33135,36593,38437,40541,44705,46545,49931,52576,55853,58819,60098
team1_LEVEL,5,5,6,13,16,20,24,26,30,33,35,36,39,42,44,46,46,48,51,54,55,58,59,60,63,67,68,70,71
team1_SBIRES,0,0,8,34,55,89,116,134,163,188,203,234,262,287,306,325,338,361,375,397,414,425,439,451,456,457,478,490,498
delta_KILLS,0,0,0,0,0,0,0,-1,-2,-2,-3,-2,-2,-3,-5,-5,-4,-5,-6,-8,-10,-11,-15,-15,-19,-20,-22,-24,-25
delta_CURRENTGOLD,0,0,99,208,732,-1621,-980,599,-881,761,300,2372,4173,-1626,-3756,-1127,2140,-1791,-657,-3123,-3664,-4245,-3795,-708,-3716,1440,-1184,-2175,-2936
delta_TOTALGOLD,0,0,99,208,272,-231,-150,-221,-751,-834,-2660,-2088,-1937,-2761,-3611,-3022,-1855,-3621,-4787,-7068,-7809,-8104,-11455,-11967,-13346,-15230,-17154,-18618,-19561
delta_LEVEL,0,0,0,0,2,-1,-1,0,-1,-1,-2,2,-1,1,-1,-1,1,1,1,-2,-2,-3,-4,-3,-4,-7,-8,-9,-10
delta_SBIRES,0,0,1,5,13,-10,-4,4,-1,3,4,8,6,10,11,3,22,21,25,24,25,29,21,24,22,29,10,-2,-7
