name,frame_0,frame_1,frame_2,frame_3,frame_4,frame_5,frame_6,frame_7,frame_8,frame_9,frame_10,frame_11,frame_12,frame_13,frame_14,frame_15,frame_16,frame_17,frame_18,frame_19,frame_20,frame_21,frame_22,frame_23,frame_24,frame_25,frame_26,frame_27,frame_28
nameStamp,Tstart,Tearly,Tearly,Tearly,Tearly,Tearly,Tearly,Tearly,Tearly,Tearly,Tearly,Tearly,Tearly,Tearly,Tearly,Tearly,Tmid,Tmid,Tmid,Tmid,Tmid,Tmid,Tmid,Tmid,Tmid,Tmid,Tmid,Tmid,Tend
timestamp,0,60031,120062,180083,240098,300125,360140,420166,480186,540211,600227,660252,720272,780290,840311,900333,960355,1020379,1080393,1140410,1200423,1260440,1320463,1380483,1440499,1500526,1560535,1620566,1680566
participant_0_GOLD,500,500,521,685,1405,1716,1839,2447,2690,3262,3461,4217,4389,5077,5929,6732,7046,7963,8085,9040,9512,10129,10252,10507,10629,11710,12042,13240,14003
participant_0_CURRENTGOLD,500,500,21,185,905,1216,214,172,415,987,286,1042,614,1302,2154,2957,363,1280,127,1082,79,696,119,374,497,1577,1909,3108,3870
participant_0_LEVEL,1,1,1,2,4,5,5,7,7,8,8,9,9,9,10,11,11,12,12,13,13,14,14,14,14,15,15,16,16
participant_0_MINIONSKILLED,0,0,0,2,16,24,24,33,36,48,53,54,57,68,79,89,96,102,102,122,122,133,133,141,141,147,155,168,169
participant_0_KILLS,0,0,0,1,1,1,1,1,2,2,2,2,2,2,2,3,3,3,3,3,3,3,3,4,5,5,5,9,9
participant_0_BUY,[],"[1041, 2031, 3340]",[],[],[],"[3715, 1042, 2055]",[],[],[1043],"[1419, 3364]",[],"[1001, 1042]",[],[1042],[],[1043],[1037],[1052],[],[],[3124],"[1042, 1042]",[1043],"[3111, 1057]",[],[],"[3091, 3111]",[],"[3134, 1053]"
participant_0_SOLD,[],[],[],[],[],"[1041, 2055]",[],[],[1042],"[1043, 3715, 3340]",[],[3364],[],[],[3513],"[1042, 1042]",[],[],[],[],"[3364, 1052, 1043, 1037]",[],"[1042, 1042]",[1001],[3513],[],"[1043, 1057, 1001]",[],[2031]
participant_0_UNDO,[],[],[],[],[],[],[],[],[],[],[],[],[],[],[],[],[],[],[],[],[],[],[],"[[0, 3111]]",[],[],[],[],[]
participant_1_GOLD,500,500,706,1233,1533,1790,2039,2321,2863,3091,3313,3549,3878,4100,4608,5234,5562,5697,6081,6615,6992,7250,7372,8104,9392,9993,10427,12405,12766
participant_1_CURRENTGOLD,500,0,206,733,1033,265,514,796,638,241,463,99,428,350,858,1084,537,237,621,1155,742,400,122,134,1422,2023,478,2455,816
participant_1_LEVEL,1,1,2,3,3,4,4,5,5,6,6,6,7,7,8,9,9,9,10,10,11,11,11,12,13,14,15,16,16
participant_1_MINIONSKILLED,0,0,0,0,0,0,4,4,4,4,4,4,4,4,7,10,10,10,11,11,11,11,11,11,16,27,34,34,34
participant_1_KILLS,0,0,0,0,0,0,0,0,0,0,0,0,0,0,0,0,0,0,0,0,0,0,0,0,0,1,1,1,1
participant_1_BUY,[],"[3854, 2003, 2003, 3340]",[],[],"[1001, 2055, 2003]",[],[1029],[],[],[],[],"[3117, 1031, 2055]",[],"[1028, 3364]",[],[],[],"[3067, 3109]",[1029],[],[1031],[],[],[3751],[1028],[],[3068],[],[]
participant_1_SOLD,[],[],[],[],"[2003, 2003]",[2055],[],"[2010, 2010]",[],"[2003, 2010]",[],"[1001, 1029]","[2055, 3854]",[3340],[],[],[],"[1028, 3067, 1031]",[],[],[1029],[3855],[],[],[],[],"[1031, 1028, 3751]",[],[]
participant_1_UNDO,[],[],[],[],[],[],[],[],[],[],[],[],[],[],[],[],[],[],[],[],[],[],[],[],[],[],[],[],[]
participant_2_GOLD,500,500,584,811,1387,1761,1961,2352,2924,3729,4026,4357,4563,4797,5134,5544,5744,6312,6657,7089,7577,7910,8332,9766,9889,10816,10939,11877,12854
participant_2_CURRENTGOLD,500,0,84,311,37,411,611,1002,74,879,1176,447,653,587,424,834,159,727,1072,204,692,1025,222,1656,239,1166,110,1047,1804
participant_2_LEVEL,1,1,1,2,3,3,4,5,6,6,7,7,7,8,8,9,9,9,10,10,10,11,11,12,12,13,13,14,15
participant_2_MINIONSKILLED,0,0,3,9,17,29,34,47,47,61,71,80,84,91,100,110,114,122,131,136,150,158,165,174,174,185,185,200,207
participant_2_KILLS,0,0,0,0,0,0,0,0,0,0,0,0,1,1,2,2,2,2,2,2,2,2,3,3,3,4,4,4,6
participant_2_BUY,[],[],"[1082, 2003, 2003, 2003, 3340]",[],[],[],"[1052, 1001]",[],[3145],[],"[1036, 1036, 2003]",[],[],[3144],[],"[3146, 2055, 2003]",[],[3020],[],[],"[2420, 1052]",[],"[3191, 1052]",[],[],[3157],[],[],[]
participant_2_SOLD,[],[],[],"[2003, 2003]",[],[2003],[],[],[1052],[],[2003],[],[],"[1036, 1036]",[],"[3144, 3145]",[2003],[1001],[2055],[],[],[],[1052],[],[],"[2420, 3191, 1052, 2421]",[],[],[]
participant_2_UNDO,[],[],[],[],[],[],[],[],[],[],[],[],[],[],[],[],[],[],[],[],[],[],[],[],[],[],[],[],[]
participant_3_GOLD,500,500,535,734,983,1252,1452,1843,2090,2527,2698,3034,3554,3711,4648,4841,5111,5282,5655,6288,6592,6940,7488,7610,7733,8504,8627,9385,10385
participant_3_CURRENTGOLD,500,500,35,234,483,752,217,608,240,677,98,434,954,211,1148,466,736,107,480,1113,332,680,128,250,373,429,553,1310,2310
participant_3_LEVEL,1,1,1,2,3,4,4,5,6,7,7,8,8,9,9,9,10,10,11,11,11,12,12,12,12,13,13,14,15
participant_3_MINIONSKILLED,0,0,1,5,13,19,19,32,36,45,48,52,58,60,69,70,79,82,93,98,102,103,103,103,103,106,106,106,113
participant_3_KILLS,0,0,0,0,1,1,1,2,2,3,3,4,4,4,5,5,5,6,6,7,7,8,8,8,8,9,9,9,10
participant_3_BUY,[],[],"[2003, 1054]",[],[],[],"[3057, 2055]","[1001, 1036]",[],[],[3044],[],"[1042, 1042]",[],[],[],"[3078, 3047, 3052, 2055]",[],"[1037, 1028]",[],"[3053, 1033, 1029]",[],"[3105, 1036]",[],[],[],[],[],[]
participant_3_SOLD,[],[],[],[2003],[],[],[],[],[2055],[],[1036],[],[],[],[],[],"[1042, 1042, 3057, 3044, 1001, 2055]",[],[],[],"[3052, 1037, 1028]",[],"[1033, 1029]",[],[],[],[],[],[]
participant_3_UNDO,[],[],[],[],[],[],[],[],[],[],[],[],[],[],[],[],[],[],[],[],[],[],[],[],[],[],[],[],[]
participant_4_GOLD,500,500,565,734,1001,1219,1368,1553,1837,2309,2499,2709,2905,3045,3472,3747,3995,4320,4461,4826,5121,5332,5636,5927,6067,6849,6990,7556,7997
participant_4_CURRENTGOLD,500,0,65,234,76,294,143,328,612,1084,1274,209,405,145,572,847,1095,421,261,626,421,632,937,327,67,849,340,906,1347
participant_4_LEVEL,1,1,1,2,3,3,4,4,5,5,6,6,7,7,7,8,8,9,9,9,9,10,10,10,10,12,12,13,13
participant_4_MINIONSKILLED,0,0,2,4,4,6,7,9,9,12,15,16,20,20,24,25,27,29,29,29,31,32,33,33,33,38,38,38,38
participant_4_KILLS,0,0,0,0,1,1,1,1,2,3,3,3,3,3,3,3,3,4,4,4,4,4,4,5,5,6,6,6,7
participant_4_BUY,[],"[1055, 2003]",[],[],"[1055, 1042, 2003, 2003]",[],[],[],"[3006, 2015]",[],[],"[1018, 1042]",[],[3086],[3087],[],[1037],[],[],[1038],[],[],[3031],[],"[1057, 1043]",[],[3091],[],[]
participant_4_SOLD,[],[],[],[2003],[],[],[],[],[1042],[],[],"[2003, 2003]",[],"[1018, 1042]","[3086, 2015]",[],[],[],[],[],[],[],"[1038, 1037]",[],[1055],[],"[1043, 1057]",[],[]
participant_4_UNDO,[],[],[],[],[],[],[],[],[],[],[],[],[],[],[],[],[],[],[],[],[],[],[],[],[],[],[],[],[]
participant_5_GOLD,500,500,612,909,1183,1550,1973,2109,2517,2824,3219,3821,4731,4958,5253,5522,6016,6666,7099,7264,8000,8528,8803,9069,9420,9987,10257,10380,10491
participant_5_CURRENTGOLD,500,0,112,409,208,575,998,84,492,424,819,1421,2331,275,570,839,1333,1983,2416,56,792,1320,620,86,437,1004,1275,147,258
participant_5_LEVEL,1,1,1,3,4,5,6,6,7,7,8,8,9,9,10,10,11,11,12,12,13,13,13,13,14,14,14,14,14
participant_5_MINIONSKILLED,0,0,5,15,21,32,48,49,63,64,80,86,95,101,107,116,126,129,137,139,149,155,160,166,182,182,191,191,191
participant_5_KILLS,0,0,0,0,0,0,0,0,1,1,1,3,3,3,3,3,3,4,5,6,6,6,7,7,7,7,7,7,7
participant_5_BUY,[],"[3854, 2003, 3340, 2003]",[],[],[],"[1001, 2055, 2055]",[],[],"[3117, 1036]",[1036],[],[],[],"[3134, 1037, 2055, 3364]",[],[1036],[],[],"[3814, 3134]",[],[3133],[],[],"[3142, 3024]",[],[],[],[],[]
participant_5_SOLD,[],[],[],[],[],[],[2055],[],[1001],[2003],[2003],[3400],[],"[1036, 1036, 3340]",[2055],[3854],[],[],"[1037, 3134, 1036]",[],[3400],[],[],"[3133, 3134]",[],[],[],[],[]
participant_5_UNDO,[],[],[],[],[],[],[],[],[],[],[],[],[],[],[],[],[],[],[],[],[],[],[],[],[],[],[],[],[]
participant_6_GOLD,500,500,606,828,1036,1520,1863,2390,2880,3722,4095,4727,5662,6014,6306,6529,6976,7254,7581,8311,9043,9215,9879,10137,11564,11875,12850,12972,13097
participant_6_CURRENTGOLD,500,0,106,328,461,945,188,715,30,872,1245,1877,962,1314,306,529,976,1254,281,1011,1743,865,1529,1787,1014,926,1900,1222,1287
participant_6_LEVEL,1,1,2,2,2,3,4,5,5,6,7,7,8,9,9,9,10,11,11,12,12,12,13,13,14,14,14,14,14
participant_6_MINIONSKILLED,0,0,0,0,0,0,0,0,0,0,1,1,5,5,5,5,5,5,10,13,16,16,19,19,19,23,32,32,33
participant_6_KILLS,0,0,0,0,0,0,0,0,0,0,0,1,2,2,2,2,2,3,3,3,4,4,4,4,4,5,5,5,5
participant_6_BUY,[],"[2033, 3340]",[],[],"[1028, 2055]",[],[],[3057],[],"[1001, 2055]",[],[],[],[3078],[],[],[],[],[],"[3052, 3077]",[],[],[3748],[3047],[],[],[],"[1053, 1036]",[]
participant_6_SOLD,[],[],[],[],[2010],[],"[2010, 2055]",[2010],[],[],[],[],[],"[3057, 1028]",[],[],[],[],[],[],[],[2055],"[3077, 3052]",[1001],[],[],[],[],[]
participant_6_UNDO,[],[],[],[],[],[],[],[],[],[],[],[],[],[],[],[],[],[],[],[],[],[],[],[],[],[],[],[],[]
participant_7_GOLD,500,500,616,1366,1516,2154,2521,2885,3586,3822,4468,4995,5423,5706,6081,6570,6979,8059,8453,9213,9808,10304,10870,11170,11667,11990,12232,12354,12767
participant_7_CURRENTGOLD,500,0,116,866,191,829,146,510,1211,427,1073,750,578,861,1236,292,701,731,475,1235,1830,2326,642,942,1440,1762,2005,2127,2509
participant_7_LEVEL,1,1,1,3,3,5,5,6,7,7,8,9,9,9,10,10,11,11,12,13,13,13,13,14,14,14,14,14,15
participant_7_MINIONSKILLED,0,0,4,15,16,26,34,45,57,63,73,76,86,93,105,108,118,118,124,135,140,152,152,158,158,158,161,161,161
participant_7_KILLS,0,0,0,0,0,0,0,1,1,2,2,2,4,4,4,4,4,4,4,5,5,5,5,5,9,9,11,11,11
participant_7_BUY,[],"[1039, 3340, 2031]",[],[],[2055],[],"[1001, 3133]",[],[1400],[],[],[],"[3047, 1036, 1036, 1028]",[],"[3044, 3067]",[],[],[],"[3071, 1036]",[],[],"[3133, 1029]",[],[],[3812],"[3134, 1028]",[],"[3052, 3364]",[]
participant_7_SOLD,[],[],[],[],[],[],[],[],"[3133, 1039]",[],[],[3400],[],[2055],"[1028, 1036]",[],[],[],"[3044, 3067]",[],[],"[1036, 2031]",[],[],"[1029, 3133]",[],[],"[1028, 3340]",[]
participant_7_UNDO,[],[],[],[],[],[],"[[0, 1001]]",[],[],[],[],[],"[[0, 1036]]",[],[],[],[],[],[],[],[],"[[2031, 0]]",[],[],[],"[[0, 3134]]",[],[],[]
participant_8_GOLD,500,500,598,860,1074,1399,2000,2185,2657,2814,3021,3428,4100,4307,4589,4817,5082,5354,5630,6064,6320,6626,7050,7690,8037,8285,8624,9045,9177
participant_8_CURRENTGOLD,500,0,98,360,224,549,1150,1335,82,239,446,853,1525,332,614,842,1107,79,355,789,245,551,175,815,1162,110,449,70,202
participant_8_LEVEL,1,1,1,2,2,3,4,4,5,5,5,6,7,7,8,8,9,9,9,10,10,11,11,12,12,12,13,13,14
participant_8_MINIONSKILLED,0,0,4,12,17,26,34,38,38,40,45,58,58,63,68,74,79,79,84,93,98,106,108,121,121,121,126,135,136
participant_8_KILLS,0,0,0,1,1,2,2,2,3,3,3,3,3,3,3,4,4,6,6,7,7,7,8,8,8,8,8,8,9
participant_8_BUY,[],"[1056, 2033, 3340]",[],[],"[1082, 1028, 2055]",[],[3057],[],[],[3145],[],[3044],[3158],[],[],[3078],[],[3041],[2420],[],[],[],[3157],[],[],[],[],[],[]
participant_8_SOLD,[],[],[],[2010],[],[2010],[],[],[],[2010],[2055],[1028],[2422],[],[],"[3057, 3044]",[],"[3400, 1082]",[],[],[],[],[2420],[],[],[],[],[],[]
participant_8_UNDO,[],"[[0, 1056]]",[],[],[],[],[],[],[],[],[],[],[],[],[],[],[],[],[],[],[],[],[],[],[],[],[],[],[]
participant_9_GOLD,500,500,558,692,883,1080,1473,1767,2316,2451,2585,3553,3812,3982,4241,4380,4530,5395,6007,6568,7307,7622,8452,8642,8783,9123,9403,9544,9671
participant_9_CURRENTGOLD,500,0,58,192,383,130,523,817,316,101,235,1203,1462,282,541,330,480,1345,282,843,482,797,1627,217,358,698,978,1119,1246
participant_9_LEVEL,1,1,1,2,3,4,4,5,6,6,6,6,7,7,8,8,8,9,9,10,10,11,11,11,11,11,12,12,12
participant_9_MINIONSKILLED,0,0,2,2,5,6,9,10,11,11,11,12,12,14,16,16,17,17,18,18,18,21,22,22,22,22,23,23,23
participant_9_KILLS,0,0,0,0,0,0,1,1,2,2,2,2,3,3,3,3,3,3,3,3,3,3,4,4,4,4,4,4,4
participant_9_BUY,[],"[1055, 2003, 3340]",[],[],[1036],[],[],[],"[3144, 1042, 2003, 2003, 2055]",[],[],[],[],[3153],[],[],[],[1038],[],[],[1018],[],[3006],[],[],[3031],[],[1018],[]
participant_9_SOLD,[],[],[],[],[],[],[2003],[],[1036],[],[],[],[],"[3144, 1042]",[2055],[],[],[],[],[],[],[],[2422],[],[],"[1038, 1018]",[],[],[]
participant_9_UNDO,[],[],[],[],[],[],[],[],[],[],[],[],[],[],[],[],[],[],[],[],[],[],[],[],[],[],[],[],[]
team0_KILLS,0,0,0,1,3,3,3,4,6,8,8,9,10,10,12,13,13,15,15,16,16,17,18,20,21,25,25,29,33
team0_CURRENTGOLD,2500,1000,411,1697,2534,2938,1699,2906,1979,3868,3297,2231,3054,2595,5156,6188,2890,2772,2561,4180,2266,3433,1528,2741,2598,6044,3390,8826,10147
team0_TOTALGOLD,2500,2500,2911,4197,6309,7738,8659,10516,12404,14918,15997,17866,19289,20730,23791,26098,27458,29574,30939,33858,35794,37561,39080,41914,43710,47872,49025,54463,58005
team0_LEVEL,5,5,6,11,16,19,21,26,29,32,34,36,38,40,42,46,47,49,52,53,54,58,58,60,61,67,68,73,75
team0_SBIRES,0,0,6,20,50,78,88,125,132,170,191,206,223,243,279,304,326,345,366,396,416,437,445,462,467,503,518,546,561
team1_KILLS,0,0,0,1,1,2,3,4,7,8,8,11,15,15,15,16,16,20,21,24,25,25,28,28,32,33,35,35,36
team1_CURRENTGOLD,2500,0,490,2155,1467,3028,3005,3461,2131,2063,3818,6104,6858,3064,3267,2832,4597,5392,3809,3934,5092,5859,4593,3847,4411,4500,6607,4685,5502
team1_TOTALGOLD,2500,2500,2990,4655,5692,7703,9830,11336,13956,15633,17388,20524,23728,24967,26470,27818,29583,32728,34770,37420,40478,42295,45054,46708,49471,51260,53366,54295,55203
team1_LEVEL,5,5,6,12,14,20,23,26,30,31,34,36,40,41,45,45,49,51,53,57,58,60,61,63,65,65,67,67,69
team1_SBIRES,0,0,15,44,59,90,125,142,169,178,210,233,256,276,301,319,345,348,373,398,421,450,461,486,502,506,533,542,544
delta_KILLS,0,0,0,0,2,1,0,0,-1,0,0,-2,-5,-5,-3,-3,-3,-5,-6,-8,-9,-8,-10,-8,-11,-8,-10,-6,-3
delta_CURRENTGOLD,0,1000,-79,-458,1067,-90,-1306,-555,-152,1805,-521,-3873,-3804,-469,1889,3356,-1707,-2620,-1248,246,-2826,-2426,-3065,-1106,-1813,1544,-3217,4141,4645
delta_TOTALGOLD,0,0,-79,-458,617,35,-1171,-820,-1552,-715,-1391,-2658,-4439,-4237,-2679,-1720,-2125,-3154,-3831,-3562,-4684,-4734,-5974,-4794,-5761,-3388,-4341,168,2802
delta_LEVEL,0,0,0,-1,2,-1,-2,0,-1,1,0,0,-2,-1,-3,1,-2,-2,-1,-4,-4,-2,-3,-3,-4,2,1,6,6
delta_SBIRES,0,0,-9,-24,-9,-12,-37,-17,-37,-8,-19,-27,-33,-33,-22,-15,-19,-3,-7,-2,-5,-13,-16,-24,-35,-3,-15,4,17
