name,frame_0,frame_1,frame_2,frame_3,frame_4,frame_5,frame_6,frame_7,frame_8,frame_9,frame_10,frame_11,frame_12,frame_13,frame_14,frame_15,frame_16,frame_17,frame_18,frame_19,frame_20,frame_21,frame_22,frame_23,frame_24,frame_25,frame_26,frame_27,frame_28,frame_29,frame_30,frame_31,frame_32,frame_33,frame_34,frame_35,frame_36,frame_37,frame_38,frame_39
nameStamp,Tstart,Tearly,Tearly,Tearly,Tearly,Tearly,Tearly,Tearly,Tearly,Tearly,Tearly,Tearly,Tearly,Tearly,Tearly,Tmid,Tmid,Tmid,Tmid,Tmid,Tmid,Tmid,Tmid,Tmid,Tend,Tend,Tend,Tend,Tend,Tend,Tend,Tend,Tend,Tend,Tend,Tend,Tend,Tend,Tend,Tend
timestamp,0,60013,120025,180040,240063,300075,360091,420100,480111,540127,600147,660161,720173,780188,840203,900217,960229,1020244,1080246,1140257,1200283,1260292,1320315,1380328,1440335,1500345,1560371,1620396,1680415,1740433,1800448,1860466,1920479,1980487,2040496,2100510,2160523,2220547,2280562,2340562
participant_0_GOLD,500,500,583,853,1232,1438,1701,2106,2732,3624,3920,4418,4736,5180,5447,5960,6618,6786,6922,7129,7251,7472,7699,7879,8043,8228,9310,9544,10082,10371,10802,11098,11559,11802,11966,12425,12922,13426,13773,14212
participant_0_CURRENTGOLD,500,0,83,353,732,338,601,1006,1232,1024,120,318,636,60,252,45,303,121,257,464,236,457,684,864,1028,33,1115,250,517,807,1237,403,865,307,472,930,928,1431,1779,2037
participant_0_LEVEL,1,1,1,3,4,4,5,6,7,8,8,8,9,9,10,10,10,10,10,11,11,11,11,12,12,12,13,13,14,14,15,15,15,16,16,16,16,16,17,17
participant_0_MINIONSKILLED,0,0,3,11,24,26,35,49,56,70,71,71,82,88,93,98,98,99,100,105,105,111,117,117,119,123,127,133,133,135,135,141,148,148,150,152,152,152,152,152
participant_0_KILLS,0,0,0,0,0,0,0,0,0,0,0,1,1,1,3,3,5,5,5,5,5,5,5,5,5,6,7,7,10,11,11,12,12,13,13,14,14,14,14,15
participant_0_BUY,[],"[1055, 2003, 3340]",[],[],"[1042, 1042]",[],[],"[1053, 2003]",[],[1043],[],"[3006, 2003]",[],[],[],"[3153, 1042, 1042]",[],"[3086, 1042, 3363]",[3085],[],[],"[1038, 2055]",[],[],[],[3123],[],[3031],[3086],[],[],[],"[3046, 2140]",[],[],[],"[3033, 2140]",[],[2140],[]
participant_0_SOLD,[],[],[],[2003],[],[],[],[],[],"[1042, 1042]",[],"[2003, 2422]",[],[],[2003],"[1053, 1043]",[],"[1042, 3340]","[1042, 3086, 1042]",[],[],[],[],[],[],[2055],[],"[1055, 1038]",[],[],[],[],"[3086, 2140]",[],[],[],"[3123, 2140]",[],[2140],[]
participant_0_UNDO,[],[],[],[],[],[],[],[],[],[],[],[],[],[],[],[],[],[],[],[],[],[],[],[],[],[],[],[],[],[],[],[],[],[],[],[],[],[],[],[]
participant_1_GOLD,500,500,605,1018,1320,1633,1832,2174,3285,3566,4096,5532,6209,6631,7251,7529,7961,8083,8956,9283,9596,9803,10060,10220,10457,10632,11076,11470,11730,12242,12732,12958,13080,13268,13390,13597,14644,14865,15172,15419
participant_1_CURRENTGOLD,500,75,180,593,245,558,757,1099,2210,256,786,2222,534,956,1576,1854,311,433,871,1198,661,868,1125,1285,158,333,776,1170,180,693,82,309,281,469,516,723,1770,1991,548,794
participant_1_LEVEL,1,1,2,3,3,4,4,5,6,7,8,9,9,10,10,11,11,11,11,12,12,12,12,13,13,13,13,14,14,14,15,15,15,15,15,16,16,17,17,17
participant_1_MINIONSKILLED,0,0,0,0,0,0,0,0,0,0,11,23,23,24,28,28,28,28,28,30,30,30,30,30,31,32,33,37,37,44,47,49,49,50,50,50,56,56,56,56
participant_1_KILLS,0,0,0,0,0,0,0,0,0,1,1,1,1,1,1,1,2,2,2,2,2,2,2,2,2,2,3,3,4,4,4,4,4,4,4,5,5,6,6,6
participant_1_BUY,[],"[1054, 2003, 3340]",[],[],[],"[1029, 1029]",[],[],[3076],[3047],"[3010, 3024, 1029]",[1029],[],[3110],[2055],[1057],[1028],[1027],[],[],[3010],[],[],[],[],[3001],[],"[1057, 2420, 1033]",[1057],[],[],[3193],[],"[3801, 3067]",[],[],[2138],[],[],[]
participant_1_SOLD,[],[],[],[],[],[],[2003],[],"[1029, 1029]",[],[],[],[],"[1054, 1029, 1029, 3024]",[],[],[],[2055],[],[],"[1028, 1027]",[],[],[],[],"[3010, 1057]",[],[],[1033],[],[],"[1057, 2420]",[],[],[],[],[2138],[],[],[]
participant_1_UNDO,[],[],[],[],[],[],[],[],[],[],"[[0, 3010]]",[],[],[],[],[],[],[],[],[],[],[],[],[],[],[],[],"[[0, 1057]]",[],[],[],[],[],"[[0, 3801]]",[],[],[],[],[],[]
participant_2_GOLD,500,500,576,899,1845,2198,2555,2796,3386,3671,3842,4935,5120,5700,6106,6602,7691,7813,8970,9225,9500,9912,10034,10456,10812,11021,11523,11952,12511,13019,13441,13564,13881,15103,15275,15765,16337,16643,17129,18352
participant_2_CURRENTGOLD,500,0,76,399,270,623,980,276,866,721,592,1685,385,965,306,802,291,338,1495,500,775,1187,119,542,897,6,509,937,647,1155,1577,1700,217,639,121,611,683,989,1476,2477
participant_2_LEVEL,1,1,1,3,4,5,6,6,7,7,8,9,9,10,10,10,11,11,12,12,12,13,13,13,13,13,14,14,15,15,16,16,16,16,16,17,17,18,18,18
participant_2_MINIONSKILLED,0,0,3,13,22,33,44,51,66,72,75,89,93,103,109,123,128,128,136,144,149,162,162,162,164,167,170,180,180,190,190,190,197,204,207,212,212,214,219,220
participant_2_KILLS,0,0,0,0,0,0,0,0,1,1,1,4,5,5,6,6,6,6,8,8,8,8,8,8,8,8,9,9,9,9,9,9,9,9,9,9,10,10,10,10
participant_2_BUY,[],"[1039, 2055]",[],[],[3706],[],[],[],[],"[1402, 1001, 1052]",[],[],"[3020, 3108, 1052, 3191]",[],[],[],"[3157, 1058, 2055]",[],[1052],[],[1026],[],[],[],[3135],[],[],[],[1058],[],[3089],[],"[2055, 2055]",[],[2055],[],[],[],"[1058, 2139]",[]
participant_2_SOLD,[],[2055],[],[],[1039],[],[],[],[],[3706],[],[2419],"[1001, 1052, 1052]",[],[],[],"[3191, 3108, 2423]",[2055],[],[],[],[],[],[],"[1026, 1052]",[],[],[],[],[],"[1058, 1058]",[],[],[2055],[2055],[2055],[],[],[2139],[]
participant_2_UNDO,[],[],[],[],[],[],[],[],[],[],[],[],[],[],[],[],[],[],[],[],[],[],[],[],[],[],[],[],[],[],[],[],[],[],[],[],[],[],[],[]
participant_3_GOLD,500,500,611,902,1206,1517,1829,2115,2405,2569,2859,3570,3941,4361,5319,5703,7052,7204,7621,8002,8538,8921,9074,9394,9848,10514,11309,11431,12871,13268,13987,14604,15001,15599,16205,17434,18007,18715,19083,19567
participant_3_CURRENTGOLD,500,0,111,402,106,417,729,65,355,119,409,270,641,1061,2019,403,1752,504,321,702,1238,246,399,719,1174,1069,1864,66,106,503,1222,1840,536,1135,1741,2970,1043,1751,1619,1892
participant_3_LEVEL,1,1,1,2,2,3,4,4,5,5,6,6,7,8,8,9,10,10,11,11,11,12,12,12,12,13,13,13,14,14,15,15,16,16,16,17,17,18,18,18
participant_3_MINIONSKILLED,0,0,5,14,14,22,33,40,47,49,59,63,67,80,87,95,97,97,98,104,116,121,123,128,136,142,144,144,145,145,150,157,163,164,178,190,190,206,207,207
participant_3_KILLS,0,0,0,0,2,2,2,2,2,2,2,3,3,4,4,4,6,6,8,8,8,8,8,9,9,9,10,10,11,11,11,11,11,13,13,13,13,13,13,17
participant_3_BUY,[],"[1056, 2003, 2003, 3340]",[],[],"[3070, 2031, 2055]",[],[],"[1052, 1052, 2055]",[],[3802],[1001],[],"[3003, 1033, 1052, 3364]",[],[3136],[],[3151],[2055],[],"[3020, 1058]",[],[],[1058],[],[],[3089],[],[],[1026],[],[],[],[3135],[3020],[1026],[],[2139],[],[],[]
participant_3_SOLD,[],[],[],"[2003, 2003]",[],[],[2055],[],[],"[1052, 1052]",[],[],"[3070, 3802, 3340]",[],[1052],"[2055, 3003]",[3136],[2055],[],[1001],[],[],[2031],[],[],"[1058, 1058]",[],[],[],[],[],[],[1026],[1001],[1056],[],[2139],[],[],[]
participant_3_UNDO,[],[],[],[],[],[],[],[],[],[],[],[],"[[0, 1033]]",[],[],[],[],[],[],"[[0, 3020]]",[],[],[],[],[],[],[],[],[],[],[],[],[],[],[],[],[],[],[],[]
participant_4_GOLD,500,500,543,720,1267,1485,1634,1848,1982,2374,2508,2858,3145,3512,3852,4148,4539,4680,4998,5270,5426,5588,5739,5917,6148,6326,6741,6881,7265,7500,7948,8239,8424,8844,9048,9413,9903,10157,10472,10735
participant_4_CURRENTGOLD,500,0,43,220,67,285,434,48,57,449,583,58,345,712,332,628,139,280,598,320,476,263,415,92,323,426,841,306,690,400,848,414,99,520,273,638,479,733,397,660
participant_4_LEVEL,1,1,1,2,2,3,3,4,4,5,5,6,6,7,7,7,8,8,9,10,10,10,10,10,11,11,12,12,13,13,14,14,14,14,15,15,16,16,16,17
participant_4_MINIONSKILLED,0,0,1,3,3,5,6,8,8,11,11,14,14,17,17,19,20,20,22,25,26,28,30,30,32,32,32,32,36,38,38,38,40,41,45,47,47,48,51,52
participant_4_KILLS,0,0,0,0,1,1,1,1,1,1,1,1,1,1,1,1,1,1,1,1,1,1,1,1,1,1,1,1,1,1,1,1,1,1,1,1,1,1,1,1
participant_4_BUY,[],"[3858, 2003, 2003, 3340]",[],[],"[1001, 1028]",[],[],[3009],"[2055, 2003]",[],[],"[1031, 2055, 3364]",[],[],[1057],[],"[3193, 2055, 2055]",[],[],"[3067, 2055, 2055]",[],"[1029, 2055]",[],[1031],[],[2055],[],"[3109, 2055]",[],"[1033, 2055]",[],"[3105, 2055]",[2138],[],[1033],[],[3190],[],[3801],[]
participant_4_SOLD,[],[],[],[],"[2003, 2010, 2003]",[],[],"[2010, 2010, 1001]",[],"[2419, 2055]",[2003],"[2423, 3340]","[2055, 3858]",[],[],[],"[1031, 1057, 2424]","[2055, 2055]",[],[1028],[],[2055],"[2055, 2055]","[3859, 1029]",[],[],[],"[3067, 1031, 2055]",[],[2055],[],[1033],"[2055, 2138]",[2055],[],[],"[3105, 1033]",[],[],[]
participant_4_UNDO,[],[],[],[],[],[],[],[],[],[],[],[],[],[],[],[],[],[],[],[],[],[],[],[],[],[],[],[],[],[],[],[],[],[],[],[],[],[],[],[]
participant_5_GOLD,500,500,595,894,1146,1548,1912,2393,2606,2728,3165,3383,3752,3949,4734,5092,5214,5406,5738,6199,6922,7254,7569,8278,8485,8742,8864,9071,9319,9441,9864,10036,10243,10624,10746,10946,11205,11343,11479,11561
participant_5_CURRENTGOLD,500,0,95,394,246,648,1012,1493,456,178,615,833,1202,449,134,492,164,356,688,399,1122,1004,169,878,285,192,314,522,19,141,564,736,944,1324,46,247,505,644,130,31
participant_5_LEVEL,1,1,1,3,4,5,6,6,7,7,8,8,8,9,9,9,9,10,10,11,11,12,12,13,13,13,13,14,14,14,14,14,14,15,15,15,16,16,16,16
participant_5_MINIONSKILLED,0,0,2,12,17,31,42,47,53,53,62,63,74,74,76,83,83,86,94,106,119,124,130,136,136,136,136,136,136,136,136,136,136,139,139,141,146,146,147,147
participant_5_KILLS,0,0,1,1,1,1,1,2,2,3,3,5,5,5,5,5,6,6,7,7,7,7,7,9,9,10,11,11,11,11,11,12,12,13,14,14,14,14,14,14
participant_5_BUY,[],"[1056, 2003, 2003, 3340]",[],[],"[1033, 1082]",[],[],"[3111, 1052, 2031]",[],"[3802, 2055]",[],[3145],"[3030, 2055]",[],[],"[3010, 1057]",[3001],[],[1058],[],[],[1058],[],[3089],[1052],[],[3136],[3364],[],[],[],"[3151, 2420]",[],[],[],[],"[3108, 2138]",[],[],[]
participant_5_SOLD,[],[],[],"[2003, 2003]",[2010],[],[],"[2010, 2010, 1033]",[],[1052],[2055],[],"[3802, 3145]",[],[],"[2055, 2031]","[3010, 1057]",[],[],[],[],[1056],[],"[1058, 1058]",[],[],[1052],[3340],[],[],[],"[3136, 1082]",[],[2420],[],[],"[2421, 2138]",[],[],[]
participant_5_UNDO,[],[],[],[],[],[],[],[],[],[],[],[],[],[],[],[],[],[],[],[],[],[],[],[],[],[],[],[],[],[],[],[],[],[],[],[],[],[],[],[]
participant_6_GOLD,500,500,620,1027,1866,2099,2436,3000,3358,3650,4090,4307,4644,5372,6194,6692,6914,7469,7898,8586,8858,9392,10354,10978,11100,11509,11912,12220,12417,12644,12893,13268,13495,14170,14573,14726,14933,15182,15305,15386
participant_6_CURRENTGOLD,500,0,120,527,1366,73,411,125,483,275,714,62,399,1127,1949,2447,44,599,278,816,1089,22,984,808,481,889,1293,275,533,310,558,934,11,686,89,242,449,198,321,311
participant_6_LEVEL,1,1,2,3,3,4,4,5,6,6,7,7,8,9,9,9,10,10,11,11,12,12,12,13,13,14,14,14,14,15,15,15,16,16,16,16,16,17,17,17
participant_6_MINIONSKILLED,0,0,0,0,0,2,2,3,3,3,3,3,3,3,3,3,3,5,5,9,9,10,10,13,13,16,23,23,23,23,23,26,26,28,34,35,35,35,35,35
participant_6_KILLS,0,0,0,0,0,0,0,1,1,1,1,1,1,1,2,2,2,2,2,2,2,2,2,2,2,2,2,2,2,2,3,3,3,3,3,3,3,3,3,3
participant_6_BUY,[],"[1054, 2003, 3340]",[],[],[1028],[],[],[],"[3044, 1028]",[3067],[],[],[],[3071],"[3111, 1029]",[],[1033],[],[],[3211],[],[1033],[3194],[],[3105],[1036],[],[],[3133],[],[],[],[],[],[3812],[],[],[],[2420],[]
participant_6_SOLD,[],[],[],[],[],[],[],[],[1028],[1028],[2003],[],[],"[3044, 3067]",[2422],[],[],[],[],[1033],[],[],"[1033, 3211]",[],"[1054, 1029]",[],[],[],[1036],[],[],[],[],[],"[3105, 3133]",[],[],[],[],[2420]
participant_6_UNDO,[],[],[],[],[],[],[],[],[],[],[],[],[],[],[],[],[],[],[],[],[],[],[],[],"[[1054, 0]]",[],[],[],[],[],[],[],[],[],[],[],[],[],[],[]
participant_7_GOLD,500,500,976,1246,1557,1910,2309,2985,3351,3879,4299,5022,5347,5742,7198,7394,8106,8385,9419,9688,10035,10715,10925,12106,12403,13149,13738,13991,14163,14523,14804,15311,15713,16378,16899,17052,17244,17576,17941,18022
participant_7_CURRENTGOLD,500,0,476,746,257,610,1009,450,816,404,824,497,297,691,2148,584,116,395,179,449,795,385,595,676,539,1284,809,1061,1234,1594,1874,272,674,1339,1860,2013,1065,1398,1762,1222
participant_7_LEVEL,1,1,1,3,3,4,5,6,7,8,8,9,10,10,11,11,11,12,12,13,13,13,13,14,15,15,15,15,15,16,16,16,16,17,17,17,17,18,18,18
participant_7_MINIONSKILLED,0,0,3,11,18,29,42,44,56,62,72,72,85,92,103,105,110,114,121,130,136,147,147,148,159,165,167,168,168,173,173,175,182,185,186,187,191,193,202,202
participant_7_KILLS,0,0,0,1,1,1,1,1,2,2,3,3,3,3,4,4,5,6,6,6,6,6,6,6,6,6,7,7,8,8,8,8,8,8,8,8,8,8,8,8
participant_7_BUY,[],"[3854, 2003, 3340, 2003]",[],[],"[1001, 1036, 2055, 3364]",[],[],[],[],"[3009, 3134, 2055, 2055]",[1036],[1036],[],[3179],"[1028, 1036]",[],"[3044, 1028]",[],[3071],[],[],[1037],[],[1028],[],[],[3814],"[2055, 2055]",[],[],[],[3140],[],[],[2140],[],[],[],[],[]
participant_7_SOLD,[],[],[],[],[3340],[],[2003],[2003],[2055],"[1001, 1036]",[],[],"[2055, 3854]","[3134, 1036, 1036]",[],[],"[1028, 1036]",[],"[3044, 1028]",[],[2055],[3855],[],[],[],[],"[1037, 1028]",[],[],"[2055, 2055]",[],[],[],[],[2140],[],[],[],[],[]
participant_7_UNDO,[],[],[],[],[],[],[],[],[],[],[],[],[],[],[],[],[],[],[],[],[],[],[],[],[],[],[],[],[],[],[],[],[],[],[],[],[],[],[],[]
participant_8_GOLD,500,500,658,929,1222,1623,1946,2365,2941,3461,3792,4580,4922,5112,5572,6058,6195,6680,6877,7533,8019,8511,8770,9643,9855,10319,10934,11274,12227,12460,13024,13493,13715,14072,14195,14517,14903,15208,15817,15927
participant_8_CURRENTGOLD,500,0,158,429,222,623,946,1365,1941,61,392,5,347,237,197,683,520,1005,502,1158,1644,2136,175,1048,360,824,1439,630,1582,1165,1730,2198,171,528,650,973,639,944,1553,1302
participant_8_LEVEL,1,1,1,2,2,3,4,5,5,6,6,7,7,7,8,8,8,9,9,9,10,10,11,12,12,12,12,13,13,14,14,14,14,15,15,15,15,15,15,15
participant_8_MINIONSKILLED,0,0,6,11,17,30,38,50,55,65,77,80,88,92,97,101,102,112,112,118,132,139,140,140,141,145,148,151,152,154,157,161,161,166,166,171,178,185,199,201
participant_8_KILLS,0,0,0,0,0,0,0,0,0,1,1,3,3,3,3,4,4,4,4,4,4,4,4,5,5,5,6,6,8,8,9,9,9,9,9,9,9,9,9,9
participant_8_BUY,[],"[1055, 2003, 3340]",[],[],"[1083, 2003]",[],[],[],[],[3004],[],"[1037, 1001]",[],[1042],[3006],[],[1042],[],"[3363, 1043]",[],[],[],"[3124, 3101, 2055]",[],[3108],[],[],"[3115, 1052, 2055, 2055]",[],[2420],[],[],[3157],[],[],[],[3108],[],[],[]
participant_8_SOLD,[],[],[],[2003],[],[],[],[2003],[],[],[],[],[],[],"[1001, 1042]",[],[],[],"[3340, 1042]",[],[],[],"[1043, 1037, 1083]",[2055],[3004],[],[],"[3101, 3108]","[2055, 2055]",[],[2420],[],[2421],[],[],[],[1055],[],[],[]
participant_8_UNDO,[],[],[],[],[],[],[],[],[],[],[],[],[],[],[],[],[],[],[],[],[],[],[],[],[],[],[],"[[0, 1052]]",[],[],[],[],[],[],[],[],[],[],[],[]
participant_9_GOLD,500,500,596,1073,1405,1602,1824,2142,2686,2964,3421,3726,3961,4102,4914,5151,5851,7133,7273,7413,7826,8046,8347,8875,9045,9556,10116,10287,10747,11056,11451,11641,11782,12007,12147,12348,12488,12720,12888,13027
participant_9_CURRENTGOLD,500,0,96,573,180,377,599,917,1461,239,346,301,536,77,139,376,176,1458,248,388,801,146,447,575,745,1256,191,212,672,981,1376,266,407,632,273,473,613,845,1013,1152
participant_9_LEVEL,1,1,1,2,3,4,4,5,5,6,7,7,7,7,8,8,9,10,10,10,10,10,11,12,12,12,13,13,13,13,14,14,14,14,14,14,14,15,15,15
participant_9_MINIONSKILLED,0,0,1,2,5,6,8,8,10,11,13,14,16,16,18,21,25,27,27,27,33,34,36,36,37,42,42,43,43,49,51,51,51,52,52,54,54,55,57,59
participant_9_KILLS,0,0,0,0,2,2,2,3,3,3,3,3,3,4,4,4,4,5,5,6,6,6,8,8,8,8,8,8,8,8,8,8,8,9,9,9,9,9,9,9
participant_9_BUY,[],"[1041, 1006, 3340]",[],[],[],"[3077, 3364, 1039]",[],"[3715, 1028, 2055, 2055]",[],[3751],[],"[1413, 1001]",[],[],[],[],"[3748, 1033]",[],"[3111, 1028]","[2055, 2055]",[],"[3211, 3067]",[],[3065],"[1028, 1033]",[],[],"[3211, 2055, 2138]",[],[1033],[],[],[3194],[],[3082],[],[],[2138],[],[]
participant_9_SOLD,[],[],[],[],[],"[1006, 3340]",[],"[1039, 1041]",[],[1028],[],"[3751, 3715, 2055]",[],[3364],[3513],[],[3077],[2055],"[1001, 1033]",[],[3364],[1028],[],"[3211, 3067]",[3513],[2055],[],"[1033, 2138]","[2055, 2055]",[],[],[],"[1033, 3211]",[],[],[],[],[2138],[],[]
participant_9_UNDO,[],[],[],[],[],[],[],[],[],[],[],[],[],[],[],[],[],[],[],[],[],[],[],[],"[[0, 1028]]",[],[],[],[],[],[],[],[],[],[],[],[],[],[],[]
team0_KILLS,0,0,0,0,3,3,3,3,4,5,5,10,11,12,15,15,20,20,24,24,24,24,24,25,25,26,30,30,35,36,36,37,37,40,40,42,43,44,44,49
team0_CURRENTGOLD,2500,75,493,1967,1420,2221,3501,2494,4720,2569,2490,4553,2541,3754,4485,3732,2796,1676,3542,3184,3386,3021,2742,3502,3580,1867,5105,2729,2140,3558,4966,4666,1998,3070,3123,5872,4903,6895,5819,7860
team0_TOTALGOLD,2500,2500,2918,4392,6870,8271,9551,11039,13790,15804,17225,21313,23151,25384,27975,29942,33861,34566,37467,38909,40311,41696,42606,43866,45308,46721,49959,51278,54459,56400,58910,60463,61945,64616,65884,68634,71813,73806,75629,78285
team0_LEVEL,5,5,6,13,15,19,22,25,29,32,35,38,40,44,45,47,50,50,53,56,56,58,58,60,61,62,65,66,70,70,75,75,76,77,78,81,82,85,86,87
team0_SBIRES,0,0,12,41,63,86,118,148,177,202,227,260,279,312,334,363,371,372,384,408,426,452,462,467,482,496,506,526,531,552,560,575,597,607,630,651,657,676,685,687
team1_KILLS,0,0,1,2,4,4,4,7,8,10,11,15,15,16,18,19,21,23,24,25,25,25,27,30,30,31,34,34,37,37,39,40,40,42,43,43,43,43,43,43
team1_CURRENTGOLD,2500,0,945,2669,2271,2331,3977,4350,5157,1157,2891,1698,2781,2581,4567,4582,1020,3813,1895,3210,5451,3693,2370,3985,2410,4445,4046,2700,4040,4191,6102,4406,2207,4509,2918,3948,3271,4029,4779,4018
team1_TOTALGOLD,2500,2500,3445,5169,7196,8782,10427,12885,14942,16682,18767,21018,22626,24277,28612,30387,32280,35073,37205,39419,41660,43918,45965,49880,50888,53275,55564,56843,58873,60124,62036,63749,64948,67251,68560,69589,70773,72029,73430,73923
team1_LEVEL,5,5,6,13,15,20,23,27,30,33,36,38,40,42,45,45,47,51,52,54,56,57,59,64,65,66,67,69,69,72,73,73,74,77,77,77,78,81,81,81
team1_SBIRES,0,0,12,36,57,98,132,152,177,194,227,232,266,277,297,313,323,344,359,390,429,454,463,473,486,504,516,521,522,535,540,549,556,570,577,588,604,614,640,644
delta_KILLS,0,0,-1,-2,-1,-1,-1,-4,-4,-5,-6,-5,-4,-4,-3,-4,-1,-3,0,-1,-1,-1,-3,-5,-5,-5,-4,-4,-2,-1,-3,-3,-3,-2,-3,-1,0,1,1,6
delta_CURRENTGOLD,0,75,-452,-702,-851,-110,-476,-1856,-437,1412,-401,2855,-240,1173,-82,-850,1776,-2137,1647,-26,-2065,-672,372,-483,1170,-2578,1059,29,-1900,-633,-1136,260,-209,-1439,205,1924,1632,2866,1040,3842
delta_TOTALGOLD,0,0,-527,-777,-326,-511,-876,-1846,-1152,-878,-1542,295,525,1107,-637,-445,1581,-507,262,-510,-1349,-2222,-3359,-6014,-5580,-6554,-5605,-5565,-4414,-3724,-3126,-3286,-3003,-2635,-2676,-955,1040,1777,2199,4362
delta_LEVEL,0,0,0,0,0,-1,-1,-2,-1,-1,-1,0,0,2,0,2,3,-1,1,2,0,1,-1,-4,-4,-4,-2,-3,1,-2,2,2,2,0,1,4,4,4,5,6
delta_SBIRES,0,0,0,5,6,-12,-14,-4,0,8,0,28,13,35,37,50,48,28,25,18,-3,-2,-1,-6,-4,-8,-10,5,9,17,20,26,41,37,53,63,53,62,45,43
