name,frame_0,frame_1,frame_2,frame_3,frame_4,frame_5,frame_6,frame_7,frame_8,frame_9,frame_10,frame_11,frame_12,frame_13,frame_14,frame_15,frame_16,frame_17,frame_18,frame_19,frame_20,frame_21,frame_22,frame_23,frame_24,frame_25,frame_26
nameStamp,Tstart,Tearly,Tearly,Tearly,Tearly,Tearly,Tearly,Tearly,Tearly,Tearly,Tearly,Tearly,Tearly,Tearly,Tearly,Tearly,Tmid,Tmid,Tmid,Tmid,Tmid,Tmid,Tmid,Tmid,Tmid,Tend,Tend
timestamp,0,60020,120049,180079,240100,300100,360119,420150,480172,540204,600230,660236,720263,780267,840288,900302,960320,1020327,1080328,1140359,1200360,1260377,1320408,1380423,1440448,1500453,1560453
participant_0_GOLD,500,500,577,825,1162,1501,1694,1942,2253,2511,2829,3132,3834,4110,4435,4677,5341,5744,6110,6333,6713,7157,7475,7598,8182,8671,8986
participant_0_CURRENTGOLD,500,0,77,325,662,1001,194,442,753,1011,1329,32,734,1010,1335,127,791,1194,1560,1433,613,1057,1375,198,782,1271,336
participant_0_LEVEL,1,1,1,3,4,5,5,6,7,7,8,8,9,10,10,10,11,11,12,12,12,13,13,13,14,14,15
participant_0_MINIONSKILLED,0,0,3,10,19,29,33,40,51,56,67,74,86,95,102,106,116,122,132,132,143,157,162,162,169,178,178
participant_0_KILLS,0,0,0,0,0,0,0,1,1,2,2,3,3,3,3,3,4,4,4,4,4,4,4,4,4,4,4
participant_0_BUY,[],"[3850, 2003, 2003, 3340]",[],[],[],[],"[1052, 1052, 2031, 2055]",[],[],[],"[3802, 3108, 3364, 2055]",[],[],[],[6653],[],"[1001, 3020]",[],[],[],"[1028, 1052]",[],"[3108, 1052]",[],[3157],[],[1033]
participant_0_SOLD,[],[],[],[2003],[],"[2003, 2010, 2010]",[],[2055],"[2010, 3850]","[2419, 2423]","[1052, 1052, 3340]",[],[],[],"[3802, 3108]",[],"[3851, 2031, 1001]",[],[2055],[],[],[],[1052],[],"[1052, 3108, 2424]",[],[]
participant_0_UNDO,[],[],[],[],[],[],[],[],[],[],[],[],[],[],[],[],[],[],[],[],"[[0, 1028]]",[],[],[],[],[],[]
participant_1_GOLD,500,500,606,963,1376,1710,2052,2229,2451,2992,3489,3612,4014,4248,4641,5155,5521,5794,6111,6504,6946,7264,7857,8708,9456,9770,10538
participant_1_CURRENTGOLD,500,0,106,463,876,1210,1552,154,376,917,1414,362,764,198,591,1105,396,669,986,1379,1821,489,1082,1933,2681,445,1213
participant_1_LEVEL,1,1,2,3,4,4,5,5,6,6,7,7,8,8,9,9,10,10,10,11,11,12,12,13,14,14,14
participant_1_MINIONSKILLED,0,0,0,0,0,0,1,1,1,2,2,2,2,2,2,2,2,2,2,2,3,3,7,7,8,10,14
participant_1_KILLS,0,0,0,1,1,2,2,2,2,2,3,3,4,4,4,4,5,5,5,5,5,5,7,8,8,8,9
participant_1_BUY,[],"[1055, 3340, 2003]",[],[],[],[],"[6670, 1018, 2003]",[],[],[],"[6672, 1001, 2055]",[],[],[],"[3006, 1018]",[],"[3086, 1042, 2031]",[],[],[],[],"[3085, 2055]","[3123, 1038]",[],[],[3031],[]
participant_1_SOLD,[],[],[],[],[2003],[],[],[],[],[],"[6670, 1018]",[],[2055],[2003],[1001],[],[1018],[],[],[],[],"[3086, 1042]",[2055],[],[2031],[1038],[]
participant_1_UNDO,[],[],[],[],[],[],[],[],[],[],[],[],[],[],[],[],[],[],[],[],[],[],"[[0, 3123]]",[],[],[],[]
participant_2_GOLD,500,500,626,983,1211,1424,1837,2148,2528,3062,3247,3731,4146,4296,5086,6206,6462,6851,7225,7884,8035,8472,9393,10259,10731,11183,11909
participant_2_CURRENTGOLD,500,0,126,473,701,89,492,803,1173,397,482,956,1361,611,1391,2511,692,1081,555,1214,1365,1802,523,1389,1121,1573,2209
participant_2_LEVEL,1,1,1,3,4,5,6,6,7,8,8,9,10,10,10,11,11,11,12,12,13,13,13,14,14,14,15
participant_2_MINIONSKILLED,0,0,6,17,23,28,42,53,65,80,84,92,101,103,112,124,129,137,147,158,160,160,162,167,167,175,176
participant_2_KILLS,0,0,0,0,0,0,0,0,0,0,0,0,0,0,0,0,0,0,0,0,0,0,0,0,0,0,0
participant_2_BUY,[],"[1054, 2003]",[],[],[],[],[6660],[],[],[],[],"[3105, 2003, 2003]",[],[],[],"[3068, 1001, 1033]",[],[],[],[3111],[3077],[],[],"[1011, 1028]",[],[],"[3748, 1033]"
participant_2_SOLD,[],[],[],[],[],[2003],[],[],[],[],[],[],[],[],"[2003, 2003]","[6660, 3105]",[],[],[],"[1001, 1033]",[],[],[],[],[],[],"[3077, 1028, 1011]"
participant_2_UNDO,[],[],[],[],[],[],[],[],[],[],[],[],[],[],[],[],[],[],[],[],[],[],[],[],[],[],[]
participant_3_GOLD,500,500,584,1348,1618,2236,2520,3006,3446,3853,4413,4821,5326,5641,5879,6282,6942,7588,7858,8190,8718,9099,10168,10792,12049,12538,13619
participant_3_CURRENTGOLD,500,0,84,848,1118,1736,70,556,996,1403,88,496,1001,1316,154,557,167,813,1083,1415,1943,349,148,772,2090,478,1469
participant_3_LEVEL,1,1,1,2,3,4,4,5,6,6,7,7,8,8,9,9,9,10,10,10,11,11,12,12,13,14,15
participant_3_MINIONSKILLED,0,0,3,15,23,32,41,51,61,71,76,90,93,105,108,117,124,133,137,145,159,167,168,176,183,192,210
participant_3_KILLS,0,0,0,0,0,0,0,0,0,0,0,0,0,0,1,2,2,2,2,3,3,4,5,6,6,6,7
participant_3_BUY,[],"[1056, 2003, 2003, 3340]",[],[],[],"[1082, 1001, 2003, 2003, 2055]",[],[],[],[3802],"[2003, 2003]",[],[],[3108],[],[],"[6653, 3020, 2055]",[],[3191],[],[],[],"[3157, 1026]",[],[1011],[],[]
participant_3_SOLD,[],[],[],[],[2003],[],[],"[2003, 2055]",[2003],[],[],[2003],"[2003, 2419, 2003]",[],[],[2423],"[3802, 3108, 1001, 2055]",[],[],[],[],[],"[3191, 2424]",[],[1056],[],[]
participant_3_UNDO,[],[],[],[],[],[],[],[],[],[],[],[],[],[],[],[],[],[],[],[],[],[],[],[],[],[],[]
participant_4_GOLD,500,500,583,946,1160,1525,1659,2128,2444,2906,3324,3784,3939,4139,4387,4608,5345,5581,5765,5934,6074,6393,6771,7055,7672,7997,8273
participant_4_CURRENTGOLD,500,0,83,446,660,1025,64,533,849,1311,324,784,939,1139,188,408,105,341,525,694,399,719,196,480,182,507,273
participant_4_LEVEL,1,1,1,2,3,4,4,5,5,6,6,7,7,8,8,8,9,9,9,10,10,10,11,11,12,12,12
participant_4_MINIONSKILLED,0,0,0,0,0,0,0,0,0,3,3,3,4,5,7,8,10,11,12,14,14,19,19,19,19,21,21
participant_4_KILLS,0,0,0,0,0,0,0,0,0,1,1,1,1,1,1,1,1,1,1,1,1,1,1,3,3,3,4
participant_4_BUY,[],"[1035, 3340, 2031]",[],[],[],[],[],"[6029, 1001, 2055]",[],[],[],"[3044, 2055]",[],"[3111, 3364]",[],[],"[6630, 2055]",[],[],[],[],"[3155, 1036]",[],[],[],"[3156, 3133]",[]
participant_4_SOLD,[],[],[],[],[],[],[],[],[],"[1035, 2055]",[],[],[2055],"[1001, 3340]",[],[],"[6029, 3044]",[2055],[],[3364],[],[],[3513],[],[],"[3155, 1036]",[]
participant_4_UNDO,[],[],[],[],[],[],[],[],[],[],[],[],[],[],[],[],[],[],[],[],[],[],[],[],[],[],[]
participant_5_GOLD,500,500,563,881,1158,1490,1858,2137,2503,2706,3052,3434,3704,4022,4366,4733,5315,5536,5909,6306,6498,6976,7557,7853,8968,9208,9429
participant_5_CURRENTGOLD,500,0,63,381,658,990,1358,212,578,781,1127,1509,329,647,991,1358,640,861,1234,1631,538,1016,42,338,203,443,504
participant_5_LEVEL,1,1,1,3,4,5,6,6,7,7,8,9,9,10,10,11,11,11,12,12,13,13,14,14,15,15,15
participant_5_MINIONSKILLED,0,0,2,13,22,32,46,52,64,69,82,97,102,114,123,133,138,144,154,160,164,176,185,191,199,202,204
participant_5_KILLS,0,0,0,0,0,0,0,0,0,0,0,0,0,0,0,0,1,1,1,1,1,1,2,2,3,3,3
participant_5_BUY,[],"[1056, 2003, 2003]",[],[],[],[],[],"[3145, 1001, 2055]",[],[],[],[],"[1026, 3158]",[],[],[],[3152],[],[],[],"[1026, 1052]",[],"[1011, 4637]",[],[1058],[],[]
participant_5_SOLD,[],[],[],[],[],[2003],[],[],[],[2055],[],[],[1001],[2003],[],[],"[3145, 1026]",[],[],[],[],[],"[1056, 1026, 1011, 1052]",[],[],[],[]
participant_5_UNDO,[],[],[],[],[],[],[],[],[],[],[],[],[],[],[],[],[],[],[],[],[],[],[],[],[],[],[]
participant_6_GOLD,500,500,621,963,1271,1470,1723,1950,2185,2338,2720,3364,3506,3818,4033,4297,5610,5785,6082,6660,6957,7180,7302,7449,7572,7694,7804
participant_6_CURRENTGOLD,500,0,121,463,771,970,223,450,685,163,545,1179,71,383,598,862,2175,400,697,1275,172,395,517,664,47,169,229
participant_6_LEVEL,1,1,2,3,3,4,4,5,5,5,6,7,7,7,8,8,9,9,9,10,10,11,11,11,11,11,11
participant_6_MINIONSKILLED,0,0,0,0,0,0,0,0,2,2,2,4,6,6,6,7,8,8,10,10,10,11,11,11,11,11,11
participant_6_KILLS,0,0,0,0,0,0,0,0,0,0,0,0,0,0,0,0,0,0,0,0,0,0,0,0,0,0,0
participant_6_BUY,[],"[1055, 3340, 2003]",[],[],[],"[1036, 1036]","[2003, 2003]","[3134, 2003, 2003]",[],[],"[1001, 1036]",[],[],[],[],"[3134, 3009]",[],[],[],[],[],"[6692, 3363]",[],[],[],[],[1037]
participant_6_SOLD,[],[],[],[],[],[2003],[],"[2003, 1036, 1036]",[],[],[],[],[],[],[],"[1036, 1001]",[],[],[],[],[],"[2003, 3134, 3340, 2003]",[],[],[],[],[]
participant_6_UNDO,[],[],[],[],[],[],[],[],[],[],[],[],[],[],[],[],[],[],[],[],[],[],[],[],[],[],[]
participant_7_GOLD,500,500,605,892,1155,1424,1617,1865,2155,2320,2591,2810,3215,3428,3695,3817,4373,4558,4917,5257,5560,5957,6169,6321,6479,6873,7039
participant_7_CURRENTGOLD,500,0,105,382,645,914,1107,85,375,110,381,375,780,143,400,522,1078,13,372,712,140,537,314,466,209,603,89
participant_7_LEVEL,1,1,1,3,4,5,6,6,7,7,8,8,9,9,9,10,10,10,11,11,12,12,12,12,12,13,13
participant_7_MINIONSKILLED,0,0,5,11,19,27,31,39,48,50,58,59,67,72,77,77,85,89,99,102,108,119,120,121,123,134,138
participant_7_KILLS,0,0,0,0,0,0,0,0,0,0,0,1,2,2,2,2,2,2,2,4,4,4,4,4,4,4,5
participant_7_BUY,[],"[3850, 2003, 2003]",[],"[2055, 2003]",[],[],[],"[1001, 1052]",[],[],[1052],"[3802, 2055]",[3364],[],"[1026, 2055, 2003]",[],[],[],[],[],"[6655, 3020]",[],[1052],[3108],[],[],[]
participant_7_SOLD,[],[],[],[],[],"[2003, 2003, 2010, 2010]",[],[],"[2003, 2010]",[],[],"[2055, 3850, 1052, 1052]",[3340],[],[],[],[],[2003],[],[3851],"[3802, 1026, 1001]",[],[],[1052],[],[],[]
participant_7_UNDO,[],[],[],[],[],[],[],[],[],[],[],[],[],[],[],[],[],[],[],[],[],[],[],[],[],[],[]
participant_8_GOLD,500,500,584,776,1039,1329,1599,1857,2139,2451,2636,2960,3335,3541,3832,3989,4367,4723,5043,5373,5732,5973,6158,6280,6494,6859,6969
participant_8_CURRENTGOLD,500,0,84,276,539,129,299,57,339,651,186,510,885,1091,1382,189,567,923,1243,1573,1932,93,278,400,614,979,194
participant_8_LEVEL,1,1,1,2,3,4,4,5,5,6,6,7,7,8,8,9,9,10,10,10,11,11,11,11,12,12,12
participant_8_MINIONSKILLED,0,0,3,7,15,22,31,36,42,53,56,63,74,80,89,91,98,106,117,121,131,134,138,138,144,150,150
participant_8_KILLS,0,0,0,0,0,0,0,0,0,0,0,1,1,1,1,1,2,2,2,3,3,3,3,3,3,3,3
participant_8_BUY,[],"[1039, 2031, 3340, 3364]",[],[],[],[],[6660],[],[],"[1029, 1029, 2055]",[],[],"[3111, 1033]",[],[],[],[],"[3068, 1031]",[],[],"[3211, 2055, 2055]",[],[],[],[3067],[],[]
participant_8_SOLD,[],[3340],[],[],[],[],[],[],[1039],[],[],[],"[2055, 2422]",[],[],[],[],"[6660, 1033, 1029, 1029]",[],[],[],[],[],[2055],[2031],[],[]
participant_8_UNDO,[],[],[],[],[],[],[],[],[],[],[],[],[],[],[],[],[],[],[],[],[],[],[],[],[],[],[]
participant_9_GOLD,500,500,543,751,926,1154,1330,1464,1638,1833,1997,2758,3372,3532,3733,3927,4088,4288,4478,5639,5779,5930,6220,6360,6640,6866,7292
participant_9_CURRENTGOLD,500,0,43,126,301,529,705,104,278,473,202,458,1072,1232,458,652,813,1013,1203,2364,454,605,460,135,415,641,1067
participant_9_LEVEL,1,1,1,1,2,3,4,4,5,5,5,6,7,7,7,7,7,7,8,9,9,9,10,10,10,10,11
participant_9_MINIONSKILLED,0,0,0,1,1,2,3,3,3,3,4,4,5,5,5,6,6,7,7,7,7,8,8,8,12,16,16
participant_9_KILLS,0,0,0,0,0,0,0,0,0,0,0,0,0,0,0,0,1,1,1,1,1,1,1,1,1,1,1
participant_9_BUY,[],"[1056, 2003, 2003]",[],[],[],[],[],"[1052, 1052, 1027, 2003]",[],"[3802, 1001, 2003]",[],"[2055, 2031]",[],[1026],[],[],[],[6655],[],[],"[3020, 2055]",[],[1052],[],[3113],[],[3057]
participant_9_SOLD,[],[],[],[2003],[],[],[2003],[],[2003],"[1052, 1027, 1052]",[],[2003],[],[],[],[2055],[],"[2055, 3802, 1026]",[],[],[1001],[2055],[],[],[1052],[],[2031]
participant_9_UNDO,[],[],[],[],[],[],[],[],[],[],[],[],[],[],[],[],[],[],[],[],[],[],[],[],[],[],[]
team0_KILLS,0,0,0,1,1,2,2,3,3,5,6,7,8,8,9,10,12,12,12,13,13,14,17,21,21,21,24
team0_CURRENTGOLD,2500,0,476,2555,4017,5061,2372,2488,4147,5039,3637,2630,4799,4274,3659,4708,2151,4098,4709,6135,6141,4416,3324,4772,6856,4274,5500
team0_TOTALGOLD,2500,2500,2976,5065,6527,8396,9762,11453,13122,15324,17302,19080,21259,22434,24428,26928,29611,31558,33069,34845,36486,38385,41664,44412,48090,50159,53325
team0_LEVEL,5,5,6,13,18,22,24,27,31,33,36,38,42,44,46,47,50,51,53,55,57,59,61,63,67,68,71
team0_SBIRES,0,0,12,42,65,89,117,145,178,212,232,261,286,310,331,357,381,405,430,451,479,506,518,531,546,576,599
team1_KILLS,0,0,0,0,0,0,0,0,0,0,0,2,3,3,3,3,6,6,6,9,9,9,10,10,11,11,12
team1_CURRENTGOLD,2500,0,416,1628,2914,3532,3692,908,2255,2178,2441,4031,3137,3496,3829,3583,5273,3210,4749,7555,3236,2646,1611,2003,1488,2835,2083
team1_TOTALGOLD,2500,2500,2916,4263,5549,6867,8127,9273,10620,11648,12996,15326,17132,18341,19659,20763,23753,24890,26429,29235,30526,32016,33406,34263,36153,37500,38533
team1_LEVEL,5,5,6,12,16,21,24,26,29,30,33,37,39,41,42,45,46,47,50,52,55,56,58,58,60,61,62
team1_SBIRES,0,0,10,32,57,83,111,130,159,177,202,227,254,277,300,314,335,354,387,400,420,448,462,469,489,513,519
delta_KILLS,0,0,0,1,1,2,2,3,3,5,6,5,5,5,6,7,6,6,6,4,4,5,7,11,10,10,12
delta_CURRENTGOLD,0,0,60,927,1103,1529,-1320,1580,1892,2861,1196,-1401,1662,778,-170,1125,-3122,888,-40,-1420,2905,1770,1713,2769,5368,1439,3417
delta_TOTALGOLD,0,0,60,802,978,1529,1635,2180,2502,3676,4306,3754,4127,4093,4769,6165,5858,6668,6640,5610,5960,6369,8258,10149,11937,12659,14792
delta_LEVEL,0,0,0,1,2,1,0,1,2,3,3,1,3,3,4,2,4,4,3,3,2,3,3,5,7,7,9
delta_SBIRES,0,0,2,10,8,6,6,15,19,35,30,34,32,33,31,43,46,51,43,51,59,58,56,62,57,63,80
