name,frame_0,frame_1,frame_2,frame_3,frame_4,frame_5,frame_6,frame_7,frame_8,frame_9,frame_10,frame_11,frame_12,frame_13,frame_14,frame_15,frame_16,frame_17,frame_18,frame_19,frame_20,frame_21,frame_22,frame_23,frame_24,frame_25
nameStamp,Tstart,Tearly,Tearly,Tearly,Tearly,Tearly,Tearly,Tearly,Tearly,Tearly,Tmid,Tmid,Tmid,Tmid,Tmid,Tmid,Tmid,Tmid,Tmid,Tmid,Tmid,Tmid,Tmid,Tmid,Tmid,Tmid
timestamp,0,60032,120041,180063,240078,300081,360109,420129,480145,540160,600180,660194,720224,780229,840250,900253,960258,1020261,1080272,1140289,1200316,1260324,1320342,1380355,1440384,1500384
participant_0_GOLD,1400,1400,2019,2548,3236,3676,4383,4845,5687,6354,6919,7687,8160,8679,9323,9887,10369,10744,11152,11880,12308,12716,13879,15212,15601,15699
participant_0_CURRENTGOLD,1400,0,619,278,536,176,883,295,287,954,269,1037,260,429,1073,537,169,544,952,530,73,481,1179,862,601,699
participant_0_LEVEL,1,3,4,5,6,7,8,9,10,11,12,13,13,14,15,15,16,17,17,18,18,18,18,18,18,18
participant_0_MINIONSKILLED,0,0,4,10,12,14,15,17,22,23,28,37,38,42,53,54,59,59,62,68,72,75,77,79,81,81
participant_0_KILLS,0,0,1,1,2,2,3,3,4,4,4,4,4,4,4,4,4,4,4,5,5,5,6,9,9,9
participant_0_BUY,[],"[3073, 1001, 2003, 2003, 2003, 2003, 2003]",[],"[1052, 1052]",[3802],[3020],[],[3007],[3113],[],[1058],[],[1058],[1027],[],[3089],[1026],[],[],[3100],"[1033, 1052]",[],[3108],[3102],[2420],[]
participant_0_SOLD,[],[2003],"[2003, 2003]","[2003, 2003]","[1052, 1052]",[1001],[],"[3073, 3802]",[],[],[],[3007],[],[],[],"[1058, 1058]",[],[],[],"[1027, 3113, 1026]",[],[],[1052],"[3108, 1033]",[],[2420]
participant_0_UNDO,[],[],[],[],[],[],[],[],[],[],[],[],[],[],[],[],[],[],[],[],[],[],[],[],[],[]
participant_1_GOLD,1400,1400,1817,2321,3535,3977,4964,5471,6035,6861,7689,8134,8698,9174,9569,10411,11005,11564,12215,12889,13409,13913,14415,15615,15945,16027
participant_1_CURRENTGOLD,1400,150,167,671,185,627,964,271,535,1361,2189,434,548,354,749,891,305,464,1115,1789,2309,413,915,2115,2825,-323
participant_1_LEVEL,1,3,4,5,7,7,8,9,10,11,12,13,13,14,14,15,16,17,18,18,18,18,18,18,18,18
participant_1_MINIONSKILLED,0,0,0,1,3,5,14,17,22,25,27,27,29,29,29,32,34,39,43,47,47,50,57,63,63,63
participant_1_KILLS,0,0,0,0,2,2,4,4,4,5,6,6,7,7,7,8,9,9,9,10,11,11,11,12,12,12
participant_1_BUY,[],"[2051, 1001]",[1028],[],"[3751, 1031, 1028]",[],[3068],"[3047, 1028]",[1029],[],[],[3075],[1033],"[1057, 1028]",[],[3010],[3001],[1028],[],[],[],[3065],[],[],[],[3083]
participant_1_SOLD,[],[],[],[],[1028],[],"[1031, 1028, 3751]",[1001],[],[],[],"[1029, 1028]",[],[1033],[],[1028],"[3010, 1057]",[],[],[],[],[1028],[],[],[2051],[]
participant_1_UNDO,[],[],[],[],[],[],[],[],[],[],[],[],[],[],[],[],[],[],[],[],[],[],[],[],[],[]
participant_2_GOLD,1400,1400,1782,2152,2661,3109,3444,4032,4462,5143,5923,6543,7038,7548,8069,8621,9253,9603,10804,11213,11643,12178,12684,13803,14262,14355
participant_2_CURRENTGOLD,1400,0,382,352,61,509,344,172,252,933,738,83,578,188,709,111,743,243,294,703,333,568,374,873,432,105
participant_2_LEVEL,1,3,4,5,6,7,7,8,9,10,11,11,12,13,13,14,15,15,16,17,17,18,18,18,18,18
participant_2_MINIONSKILLED,0,0,1,1,2,4,4,5,7,9,13,16,19,19,25,25,32,32,35,39,41,41,44,46,50,50
participant_2_KILLS,0,0,0,0,0,0,0,1,1,1,2,3,3,4,4,4,4,4,6,6,6,7,7,9,9,9
participant_2_BUY,[],"[2051, 1001, 2003, 2003, 2003]",[],[1028],[3052],[],"[1028, 2003, 2003]",[3111],[1036],[],[3077],"[3748, 1028, 1029]",[],"[3751, 1028]",[],[3068],[],"[1033, 1028]","[3211, 3067]",[],[3065],[1029],[3076],[3082],[3075],[]
participant_2_SOLD,[],[],[],[],[1028],[],[],"[2003, 2003, 1001]",[],"[2003, 2003, 2003]",[1036],"[3077, 1028, 3052]",[],[1028],[],"[1029, 1028, 3751]",[],[],"[1028, 1033]",[],"[3211, 3067]",[],[1029],[2051],"[3076, 3082]",[]
participant_2_UNDO,[],[],[],[],[],[],[],[],[],[],[],[],[],[],[],[],[],[],[],[],[],[],[],[],[],[]
participant_3_GOLD,1400,1400,1787,2317,3256,3706,4169,4576,5009,6392,6840,7233,7915,8532,8969,9774,10126,11334,11966,12514,12963,13293,14701,15376,15939,16059
participant_3_CURRENTGOLD,1400,0,387,517,456,906,319,726,309,1692,190,583,265,882,1319,274,326,1534,2166,814,1263,193,1601,1076,1639,1759
participant_3_LEVEL,1,3,4,5,6,6,8,8,9,10,10,11,12,13,14,15,15,16,17,18,18,18,18,18,18,18
participant_3_MINIONSKILLED,0,0,1,2,4,8,11,14,15,19,22,24,25,32,33,36,37,46,47,48,54,54,61,61,68,69
participant_3_KILLS,0,0,0,1,3,3,3,3,3,5,5,5,6,6,6,7,7,8,9,10,10,10,13,13,13,13
participant_3_BUY,[],"[3111, 1029]",[],[1028],"[3751, 1031]",[],[3068],[],"[1033, 1028]",[],[3065],[],[1011],[],[],[3083],[1029],[],[],"[3105, 3133]",[],[3812],[],[3052],[],[]
participant_3_SOLD,[],[],[],[],"[2052, 1028, 1029]",[],"[1031, 3751]",[],[],[],"[1028, 1033]",[],[],[],[],[1011],[2052],[],[],[1029],[],"[3105, 3133]",[],[],[],[]
participant_3_UNDO,[],[],[],[],[],[],[],[],[],[],[],[],[],[],[],[],[],[],[],[],[],[],[],[],[],[]
participant_4_GOLD,1400,1400,2320,2984,3491,4176,4893,5432,6005,6589,7109,7871,8591,10016,10388,11225,11555,12260,12590,13000,13360,13690,14156,15063,15408,15558
participant_4_CURRENTGOLD,1400,0,920,1584,191,876,1593,182,405,289,809,1571,991,2416,2788,3625,355,210,540,515,875,1205,306,363,208,358
participant_4_LEVEL,1,3,5,6,7,7,8,9,10,10,11,12,13,14,14,15,15,16,16,17,17,17,18,18,18,18
participant_4_MINIONSKILLED,0,0,2,7,10,10,13,14,16,18,18,20,20,24,25,26,26,26,26,26,26,26,27,33,33,34
participant_4_KILLS,0,0,1,2,2,3,4,5,6,6,7,9,10,14,14,16,16,18,18,18,18,18,18,18,18,18
participant_4_BUY,[],"[3802, 2003, 2003]",[],[],[3285],[],[],"[3020, 3113]",[1027],[3057],[],[],[3100],[],[],[],[3089],[1026],[],[1052],[],[],[3135],[1026],[2139],[]
participant_4_SOLD,[],[2003],[],[],[3802],[2003],[],[],[],[1027],[],[],"[3057, 3113]",[],[],[],[],[],[],[],[],[],"[1026, 1052]",[],[2139],[]
participant_4_UNDO,[],[],[],[],[],[],[],[],[],[],[],[],[],[],[],[],[],[],[],[],[],[],[],[],[],[]
participant_5_GOLD,1400,1400,1918,2434,3769,4366,4866,5395,6220,6745,7396,7822,8295,8675,9040,9479,9968,10368,10808,11698,12053,12808,13411,13943,14307,14389
participant_5_CURRENTGOLD,1400,100,618,1134,69,166,366,895,1720,545,86,512,985,265,630,169,658,158,248,1138,1493,1193,1796,228,592,339
participant_5_LEVEL,1,3,4,5,7,7,8,9,10,11,11,12,13,13,14,15,15,16,16,17,17,18,18,18,18,18
participant_5_MINIONSKILLED,0,0,2,4,4,6,6,12,16,16,18,19,22,22,22,24,28,28,28,28,28,28,30,33,34,34
participant_5_KILLS,0,0,0,0,4,5,6,6,7,8,9,9,9,9,9,9,9,9,9,10,10,10,11,11,11,11
participant_5_BUY,[],[1038],[],[],"[1037, 3031, 1042]",[3006],[1042],[],[],"[3086, 1042, 1042]","[3085, 1042, 1042]",[],[],[3086],[],[3046],[],[1053],[1036],[],[],[1038],[],"[3072, 1036, 3123]",[],[]
participant_5_SOLD,[],[],[],[],"[1038, 1037]","[1042, 2422]",[],[],[],[1042],"[1042, 3086, 1042, 2010, 2010, 2010]",[],[],[1042],[],"[1042, 3086]",[],[],[],[],[],[1036],[],"[1038, 1053, 1036]",[],[]
participant_5_UNDO,[],[],[],[],[],[],[],[],[],[],[],[],[],[],[],[],[],[],[],[],[],[],[],[],[],[]
participant_6_GOLD,1400,1400,2089,2529,2990,3657,4049,4594,5670,6060,6572,7262,7813,8168,8652,10303,10819,11366,11750,12165,12691,13781,14236,15156,15580,15662
participant_6_CURRENTGOLD,1400,50,739,744,590,1257,1649,309,1385,125,637,162,713,518,1002,2653,3169,3716,310,725,751,1841,446,1366,1290,1312
participant_6_LEVEL,1,3,4,5,6,7,8,9,10,10,11,12,13,13,14,16,16,17,17,18,18,18,18,18,18,18
participant_6_MINIONSKILLED,0,0,3,4,6,8,8,8,8,8,12,12,21,21,26,32,36,36,38,40,41,48,49,50,51,51
participant_6_KILLS,0,0,1,1,1,2,2,3,7,7,7,8,8,8,8,12,12,13,13,13,13,13,13,14,14,14
participant_6_BUY,[],"[3211, 2031]",[],[1052],[3145],[],[],"[3152, 1052]",[],"[1058, 3111, 1026]",[],[3916],[],[3165],[],[],[],[],"[3089, 3065, 1011, 3801, 1058]",[],[2138],[],[3083],[],[2138],[]
participant_6_SOLD,[],[],[],[],[1052],[],[],"[3145, 2052]",[],[2422],[],[1052],[],"[3916, 1026]",[],[],[],[],"[3211, 2031]",[],[2138],[],[1011],[],[2138],[]
participant_6_UNDO,[],[],[],[],[],[],[],[],[],"[[0, 1058]]",[],[],[],[],[],[],[],[],"[[0, 3089], [0, 3801]]",[],[],[],[],[],[],[]
participant_7_GOLD,1400,1400,2312,2940,4021,4526,5169,5750,6244,6640,7554,8205,9160,9860,10341,11047,11677,12243,12573,13525,14474,15931,16538,17875,18489,18572
participant_7_CURRENTGOLD,1400,0,112,740,61,566,709,1290,484,80,119,770,200,300,781,287,917,1483,363,1315,2264,3721,178,1515,2129,2172
participant_7_LEVEL,1,3,4,5,7,8,8,10,10,11,12,12,13,14,14,15,15,16,16,18,18,18,18,18,18,18
participant_7_MINIONSKILLED,0,0,1,3,5,8,11,13,18,19,22,25,25,25,29,33,36,43,43,53,72,86,88,100,111,111
participant_7_KILLS,0,0,3,4,5,5,6,7,7,7,9,10,12,14,14,15,16,16,16,18,19,22,23,25,25,25
participant_7_BUY,[],"[1038, 2003, 2003]",[1018],[],"[3508, 1001, 1042]",[],[3006],[],[1038],[1018],[1037],[],"[3031, 1042, 1018]","[3086, 1042]",[],"[3087, 1042]",[],[],[3035],[],[],[],"[3036, 3046, 3046, 2140]",[],[],[]
participant_7_SOLD,[],[],[],[],"[1038, 1018, 2003, 2003]",[],"[1001, 1042]",[],[],[],[],[],"[1038, 1037, 1018]","[1018, 1042]",[],"[3086, 1042]",[],[],[],[],[],[],"[3035, 1042, 1042, 2140]",[],[],[]
participant_7_UNDO,[],[],[],[],[],[],[],[],[],[],[],[],[],[],[],[],[],[],[],[],[],[],"[[0, 3046]]",[],[],[]
participant_8_GOLD,1400,1400,2112,2745,3145,3709,4123,4544,5155,5746,6302,7299,7669,8243,8682,9107,9622,10199,11054,11479,12265,13458,13829,14532,14969,15051
participant_8_CURRENTGOLD,1400,0,712,1345,195,759,1173,344,955,446,1002,1999,469,243,682,1107,537,49,904,479,1265,2458,979,1682,969,1051
participant_8_LEVEL,1,3,4,5,6,7,8,8,10,10,11,12,13,14,14,15,15,16,17,18,18,18,18,18,18,18
participant_8_MINIONSKILLED,0,0,3,8,9,16,18,21,26,30,35,44,44,49,54,54,60,66,76,76,77,77,78,79,81,81
participant_8_KILLS,0,0,1,2,2,2,2,2,2,3,3,4,4,4,4,4,4,4,5,5,6,8,8,9,9,9
participant_8_BUY,[],"[3802, 2003, 2003]",[],[],"[1058, 1001]",[],[],[1058],[],[3089],[],[],[3285],[3020],[],[],"[2420, 1052]",[3136],[],[1026],[],[],"[3151, 3191]",[],[3157],[]
participant_8_SOLD,[],[],[2003],[2003],[],[],[],[],[],"[1058, 1058]",[],[],[3802],[1001],[],[],[],[1052],[],[],[],[],"[3136, 1026]",[],"[3191, 2420]",[]
participant_8_UNDO,[],[],[],[],[],[],[],[],[],[],[],[],[],[],[],[],[],[],[],[],[],[],[],[],[],[]
participant_9_GOLD,1400,1400,1868,2248,2593,3063,3440,4698,5123,5638,6039,6451,6876,7412,7836,8266,8814,9654,9984,10455,11057,11717,12047,12648,12978,13061
participant_9_CURRENTGOLD,1400,15,483,863,343,813,140,1398,723,1238,389,801,1226,512,936,266,814,1654,299,770,1372,2032,197,798,693,776
participant_9_LEVEL,1,3,4,5,6,7,7,9,10,11,11,12,13,13,14,14,15,16,16,17,17,18,18,18,18,18
participant_9_MINIONSKILLED,0,0,2,2,2,2,2,7,7,9,10,11,11,12,14,14,14,14,14,17,17,17,17,17,17,17
participant_9_KILLS,0,0,0,0,0,0,0,2,2,2,2,2,2,3,3,3,4,6,6,6,7,7,7,8,8,8
participant_9_BUY,[],"[3073, 1052, 2003, 2003]",[],[],[3802],[],[3007],[],[3020],[],[1058],[],[],[1058],[],[3089],[],[],"[1026, 1052, 1028]",[],[],[],"[3165, 1026]",[],[1052],[]
participant_9_SOLD,[],[],"[2003, 2003]",[2010],[1052],[],"[2010, 3073, 3802]",[2010],[],[],[],[],[],[3007],[],"[1058, 1058]",[],[],[],[],[],[],"[1028, 1052, 1026]",[],[],[]
participant_9_UNDO,[],[],[],[],[],[],[],[],[],[],[],[],[],[],[],[],[],[],[],[],[],[],[],[],[],[]
team0_KILLS,0,0,2,4,9,10,14,16,18,21,24,27,30,35,35,39,40,43,46,49,50,51,55,61,61,61
team0_CURRENTGOLD,7000,150,2475,3402,1429,3094,4103,1646,1788,5229,4195,3708,2642,4269,6638,5438,1898,2995,5067,4351,4853,2860,4375,5289,5705,2598
team0_TOTALGOLD,7000,7000,9725,12322,16179,18644,21853,24356,27198,31339,34480,37468,40402,43949,46318,49918,52308,55505,58727,61496,63683,65790,69835,75069,77155,77698
team0_LEVEL,5,15,21,26,32,34,39,43,48,52,56,60,63,68,70,74,77,81,84,88,88,89,90,90,90,90
team0_SBIRES,0,0,8,21,31,41,57,67,82,94,108,124,131,146,165,173,188,202,213,228,240,246,266,282,295,297
team1_KILLS,0,0,5,7,12,14,16,20,25,27,30,33,35,38,38,43,45,48,49,52,55,60,62,67,67,67
team1_CURRENTGOLD,7000,165,2664,4826,1258,3561,4037,4236,5267,2434,2233,4244,3593,1838,4031,4482,6095,7060,2124,4427,7145,11245,3596,5589,5673,5650
team1_TOTALGOLD,7000,7000,10299,12896,16518,19321,21647,24981,28412,30829,33863,37039,39813,42358,44551,48202,50900,53830,56169,59322,62540,67695,70061,74154,76323,76735
team1_LEVEL,5,15,20,25,32,36,39,45,50,53,56,60,65,67,70,75,76,81,82,88,88,90,90,90,90,90
team1_SBIRES,0,0,11,21,26,40,45,61,75,82,97,111,123,129,145,157,174,187,199,214,235,256,262,279,294,294
delta_KILLS,0,0,-3,-3,-3,-4,-2,-4,-7,-6,-6,-6,-5,-3,-3,-4,-5,-5,-3,-3,-5,-9,-7,-6,-6,-6
delta_CURRENTGOLD,0,-15,-189,-1424,171,-467,66,-2590,-3479,2795,1962,-536,-951,2431,2607,956,-4197,-4065,2943,-76,-2292,-8385,779,-300,32,-3052
delta_TOTALGOLD,0,0,-574,-574,-339,-677,206,-625,-1214,510,617,429,589,1591,1767,1716,1408,1675,2558,2174,1143,-1905,-226,915,832,963
delta_LEVEL,0,0,1,1,0,-2,0,-2,-2,-1,0,0,-2,1,0,-1,1,0,2,0,0,-1,0,0,0,0
delta_SBIRES,0,0,-3,0,5,1,12,6,7,12,11,13,8,17,20,16,14,15,14,14,5,-10,4,3,1,3
