name,frame_0,frame_1,frame_2,frame_3,frame_4,frame_5,frame_6,frame_7,frame_8,frame_9,frame_10,frame_11,frame_12,frame_13,frame_14,frame_15,frame_16,frame_17,frame_18,frame_19,frame_20,frame_21,frame_22,frame_23,frame_24,frame_25,frame_26,frame_27,frame_28,frame_29,frame_30,frame_31
nameStamp,Tstart,Tearly,Tearly,Tearly,Tearly,Tearly,Tearly,Tearly,Tearly,Tearly,Tearly,Tearly,Tearly,Tearly,Tearly,Tearly,Tmid,Tmid,Tmid,Tmid,Tmid,Tmid,Tmid,Tmid,Tmid,Tmid,Tmid,Tmid,Tmid,Tmid,Tmid,Tmid
timestamp,0,60023,120054,180082,240113,300144,360160,420183,480196,540227,600250,660251,720272,780280,840304,900323,960344,1020362,1080376,1140401,1200419,1260445,1320468,1380489,1440504,1500528,1560542,1620567,1680578,1740601,1800621,1860621
participant_0_GOLD,500,500,563,871,1008,1417,1690,1847,2206,2434,2605,2978,3212,3631,3898,4474,4814,5069,5381,5647,6011,6231,6633,6929,7052,7450,7854,7976,8833,9242,9874,10214
participant_0_CURRENTGOLD,500,0,63,371,83,492,765,172,531,759,180,553,787,1206,148,724,714,969,1281,1547,361,581,983,1279,127,525,928,226,1083,1492,180,339
participant_0_LEVEL,1,1,1,3,3,4,5,6,7,7,8,8,9,9,10,10,10,11,12,12,12,13,13,13,13,14,14,14,15,15,16,16
participant_0_MINIONSKILLED,0,0,2,10,11,25,31,33,44,50,53,64,70,74,78,88,90,98,98,98,102,108,120,126,126,126,126,126,136,138,144,146
participant_0_KILLS,0,0,0,0,0,0,0,0,0,0,0,0,0,0,0,0,0,0,0,0,0,0,0,0,0,0,0,0,0,0,0,0
participant_0_BUY,[],"[1055, 2003, 3340]",[],[],"[1036, 2055]",[],[],[3134],[],[],"[1036, 1001, 1033]",[],[],[],"[1053, 3111, 2055]",[],[1036],[],[],[],"[6692, 1036, 1036]",[],[],[],"[3134, 1037]",[],[],[6695],[],[],"[3134, 1037, 2055, 2055]",[]
participant_0_SOLD,[],[],[],[],[2003],[],[],[1036],[],[],[],[],[],[2055],"[1001, 1033]",[],[],[],[],[2055],"[3134, 1036, 1053]",[],[],[],"[1036, 1036]",[],[],"[3134, 1037]",[],[],[1055],[]
participant_0_UNDO,[],[],[],[],[],[],[],[],[],[],"[[0, 1036]]",[],[],[],[],[],[],[],[],[],[],[],[],[],[],[],[],[],[],[],[],[]
participant_1_GOLD,500,500,706,1385,1693,1993,2308,2569,2799,3056,3821,4677,4884,5370,6035,6639,7064,7291,7563,8171,8841,9154,9426,9969,10726,11747,12325,12448,13425,13597,14129,14789
participant_1_CURRENTGOLD,500,0,206,885,1193,1493,1808,2069,199,456,371,1227,434,920,135,739,1164,1391,788,1396,2067,2379,176,769,1526,207,786,158,1135,1308,1840,639
participant_1_LEVEL,1,1,2,3,4,4,5,5,5,6,6,7,7,8,9,9,10,10,10,11,11,12,12,12,13,14,14,14,15,15,16,16
participant_1_MINIONSKILLED,0,0,0,0,0,0,0,0,0,0,0,2,2,4,7,13,16,16,16,17,23,23,23,23,23,24,24,24,24,24,24,24
participant_1_KILLS,0,0,0,1,1,1,1,1,1,1,3,4,4,5,6,7,7,7,7,8,9,9,9,10,11,13,14,14,16,16,16,17
participant_1_BUY,[],"[1039, 2031, 3340]",[],[],[],[],[],[],"[6029, 1001, 1036, 3134, 1036, 1001, 1036]",[],"[3133, 1033]",[],"[3111, 6691]",[],"[3111, 3134]",[],[],[],[1037],[],[],[],"[3142, 3133, 1036]",[1029],[],"[6333, 1036, 1036]",[],"[3134, 1036]",[],[],[],"[3814, 1036]"
participant_1_SOLD,[],[],[],[],[],[],[],[],[1039],[],"[1036, 1036]",[],"[1001, 1033, 3134, 3133]",[],"[3340, 1001, 1033]",[3513],[],[],[],[],[],[],"[3134, 1037]",[],[],"[1029, 3133, 2031]",[],"[1036, 1036]",[],[],[],"[1036, 3134]"
participant_1_UNDO,[],[],[],[],[],[],[],[],"[[0, 1036], [0, 1001], [0, 6029]]",[],[],[],"[[0, 3111]]",[],[],[],[],[],[],[],[],[],[],"[[0, 1036]]",[],[],[],[],[],[],[],[]
participant_2_GOLD,500,500,563,1213,1448,1752,2387,2633,3155,3362,4253,4527,4814,5027,5600,6223,6396,6884,7356,7914,8137,8678,8855,8978,9455,10248,10592,11653,11775,12248,12420,12808
participant_2_CURRENTGOLD,500,0,63,703,103,397,1022,208,720,77,968,192,44,257,830,1453,126,614,671,539,162,703,230,353,830,1624,117,1178,111,583,756,933
participant_2_LEVEL,1,1,1,3,4,5,6,6,7,7,8,9,9,9,10,10,10,11,12,12,12,13,13,13,13,14,14,15,15,16,16,16
participant_2_MINIONSKILLED,0,0,2,13,19,27,35,39,44,44,54,57,62,68,68,74,74,88,91,96,96,103,103,103,103,104,104,108,108,108,108,109
participant_2_KILLS,0,0,0,1,1,1,3,3,3,3,3,4,5,5,5,6,7,7,12,13,14,14,15,15,17,19,19,21,21,22,24,25
participant_2_BUY,[],"[1055, 2003]",[],[],[3134],[],"[1053, 1036]",[],[],[],"[6692, 1001]",[3009],[],[3134],[],[1037],[1018],[6676],[],"[3086, 1038]",[1037],[],[],[3031],[],[],"[3094, 1038, 3363]",[],[3026],[],[],[]
participant_2_SOLD,[],[],[],[2003],[],[],[],[],[],[],"[3134, 1036, 1053]",[1001],[],[],[],[],[],"[3134, 1037, 1018]",[],[],[1055],[],[],"[1038, 1037]",[],[],"[3086, 3340]",[],[1038],[],[],[]
participant_2_UNDO,[],[],[],[],[],[],[],[],[],[],[],[],[],[],[],[],[],[],[],[],[],[],[],[],[],[],[],[],[],[],[],[]
participant_3_GOLD,500,500,591,1364,1665,2088,3064,3330,3710,4080,4571,5132,5705,5953,6460,7149,7791,7997,10037,10575,11042,11469,12074,12245,13309,14867,15073,16306,16881,17913,18973,20038
participant_3_CURRENTGOLD,500,0,91,864,65,488,214,480,860,1230,571,532,1105,253,760,574,616,397,2437,475,248,674,1279,226,1290,2847,253,1487,561,1593,2653,3538
participant_3_LEVEL,1,1,1,2,3,4,5,5,6,6,7,8,8,8,9,9,10,10,11,11,12,12,13,13,13,14,14,15,16,16,17,17
participant_3_MINIONSKILLED,0,0,4,9,17,32,38,44,56,67,71,78,88,96,107,111,116,121,127,128,128,136,140,143,153,162,162,173,187,195,204,212
participant_3_KILLS,0,0,0,1,1,1,2,2,3,3,5,5,5,5,6,6,6,6,6,6,6,7,7,7,8,9,9,11,11,12,12,12
participant_3_BUY,[],"[1056, 2003, 2003, 3340]",[],[],"[1052, 1028]",[],[],"[3145, 1001, 2055, 2003, 2003]",[],[1026],[],"[4636, 2031]",[1052],[],[],[],"[3020, 3057]",[],[3113],[1026],[3100],[],[2420],[],[],[],[3157],[],[1058],[],[],[]
participant_3_SOLD,[],[],[2003],"[2003, 2010]",[],[2010],[],"[1052, 2010]","[2003, 2003]",[],[],"[3145, 1028, 1026]",[2055],[],[],[],[1001],[],[1052],[1056],"[3057, 3113, 1026]",[],[],[],[],[],[2420],[],[2031],[],[],[]
participant_3_UNDO,[],[],[],[],[],[],[],[],[],[],[],[],[],[],[],[],[],[],[],[],[],[],[],[],[],[],[],[],[],[],[],[]
participant_4_GOLD,500,500,558,823,1018,1301,1626,1814,2059,2287,2693,3247,3655,3796,4076,4871,5298,5613,5754,6119,6453,6669,7029,7254,7545,7960,8422,8562,9291,10021,10432,10728
participant_4_CURRENTGOLD,500,0,58,323,93,376,701,139,384,612,218,772,1180,246,526,288,715,1030,321,36,371,586,46,271,562,977,564,29,758,1488,749,800
participant_4_LEVEL,1,1,1,2,3,4,4,4,5,5,6,7,7,8,8,8,9,10,10,10,10,11,11,11,12,12,13,13,13,14,15,15
participant_4_MINIONSKILLED,0,0,2,5,6,11,11,11,14,16,16,24,26,26,31,32,33,36,36,41,41,41,41,41,41,41,48,48,49,56,61,63
participant_4_KILLS,0,0,0,0,0,0,0,0,0,0,0,1,1,1,1,2,2,2,2,2,2,2,3,3,3,3,3,3,5,6,6,6
participant_4_BUY,[],"[3854, 2003, 2003, 3340]",[],[],"[1036, 2055]",[],[],[3051],[],[],[3067],[],[],"[3057, 1001, 3364, 2055]",[],"[3078, 1029]",[],[],"[3047, 1036]","[1036, 1029]",[],[],"[3133, 1031]",[],[],[],[1037],"[6333, 1036]",[],[],"[3044, 1028]",[]
participant_4_SOLD,[],[],[],[],[1036],"[2003, 2055, 2003]",[],[1036],[],[3854],[],[],[],[3340],[2055],"[3057, 3051, 3067]",[],[3855],"[1001, 1029]",[],[],[],"[1036, 1036, 1029]",[],[],[],[],"[1031, 3133, 1037]",[],[],[1036],[]
participant_4_UNDO,[],[],[],[],"[[1036, 0]]",[],[],[],[],[],[],[],[],[],[],[],[],[],[],[],[],[],[],[],[],[],[],[],[],[],[],[]
participant_5_GOLD,500,500,598,878,1503,1625,1951,2398,2778,3141,3347,3680,4090,4240,4932,5138,5463,5831,6093,6438,6994,7201,7433,7680,7865,8402,8839,8976,9098,9345,9468,9547
participant_5_CURRENTGOLD,500,0,98,378,1003,290,616,1063,1443,1806,372,705,1115,15,707,13,338,306,68,413,119,326,123,370,555,277,714,851,123,371,493,572
participant_5_LEVEL,1,1,1,3,4,4,5,6,7,8,8,9,9,9,10,10,11,11,11,12,12,12,13,13,13,13,14,14,14,15,15,15
participant_5_MINIONSKILLED,0,0,4,11,21,21,30,46,58,69,74,87,100,102,113,118,119,130,134,143,151,153,155,155,159,159,173,174,174,177,177,177
participant_5_KILLS,0,0,0,0,0,0,0,0,0,0,0,0,1,1,1,1,1,1,1,1,1,1,2,2,2,2,3,3,3,3,3,3
participant_5_BUY,[],[1082],[],"[2003, 2003, 2003, 2003]",[2055],[],[1001],[],[],[],"[1052, 1027]",[],[1026],[],[],[3802],[],[],[],[],[],[],[6655],[3020],[],[1052],[],[3145],[],[],[],[]
participant_5_SOLD,[],[],[],[],[2055],[],[],"[2003, 2003]","[2003, 2003]",[],[],[],[],[],[],"[1052, 1027]",[],[],[],[],[],[],"[3802, 1026]",[1001],[],[],[],[1052],[],[],[],[]
participant_5_UNDO,[],[],[],[],[],[],[],[],[],[],[],[],[],[],[],[],[],[],[],[],[],[],[],[],[],[],[],[],[],[],[],[]
participant_6_GOLD,500,500,621,1033,1413,1612,2439,2862,3186,3566,3838,4150,4648,4795,5403,6175,6514,7377,7584,8542,9791,9963,10621,10873,11345,11768,11966,12738,12946,13218,13368,13448
participant_6_CURRENTGOLD,500,0,121,533,913,1112,189,612,936,1316,38,350,848,295,213,985,324,1187,294,1252,251,423,331,583,1056,28,226,999,331,604,754,773
participant_6_LEVEL,1,1,2,3,4,4,5,5,6,7,7,7,8,8,8,9,9,10,10,11,12,12,13,13,13,14,14,15,15,15,15,15
participant_6_MINIONSKILLED,0,0,0,0,2,2,2,2,2,3,3,3,3,3,3,3,3,3,3,3,7,7,7,8,8,8,8,8,8,8,10,10
participant_6_KILLS,0,0,0,0,0,0,0,0,0,0,3,3,3,4,4,5,5,5,5,6,6,6,7,7,7,7,7,8,9,10,10,10
participant_6_BUY,[],"[1055, 2003, 3340]",[],[],[],[],"[1018, 1001]",[],[1042],[],"[3086, 3046]",[],[],[],"[1038, 1018]",[],[1037],[],[3031],[],"[3006, 1036]",[1042],[],[],[6670],[1036],[],[1053],[6673],[1036],[1053],[]
participant_6_SOLD,[],[],[],[],[],[2003],[],[],[],[],"[1018, 1042, 3086]",[],[],[],[],[],[],[],"[1038, 1037, 1018]",[],[1001],[],[],[],"[1036, 1042]",[],[],[1036],"[1055, 6670, 1053]",[],[1036],[]
participant_6_UNDO,[],[],[],[],[],[],[],[],[],[],[],[],[],[],[],[],[],[],[],[],[],[],[],[],[],[],[],[],[],[],[],[]
participant_7_GOLD,500,500,591,755,1029,1263,1414,1729,1941,2429,3689,3861,4274,5023,5669,6324,6734,6962,7127,8083,8256,8456,8993,9268,9390,9633,10257,10963,11555,12437,12629,12709
participant_7_CURRENTGOLD,500,0,91,255,519,753,4,319,221,699,159,331,734,1483,219,874,409,637,177,1133,156,56,593,868,340,234,857,1013,586,1117,760,709
participant_7_LEVEL,1,1,1,3,4,5,5,6,6,7,8,8,9,10,10,10,11,11,11,12,12,12,12,13,13,13,14,14,14,15,15,15
participant_7_MINIONSKILLED,0,0,4,6,13,19,21,27,29,38,40,43,48,57,64,67,80,83,85,91,91,93,93,98,98,99,115,120,120,138,142,142
participant_7_KILLS,0,0,0,0,0,0,1,2,2,2,2,2,3,3,4,5,5,6,6,8,9,9,10,10,11,12,12,13,13,13,13,13
participant_7_BUY,[],"[1035, 2031, 3340]",[],[],[],[],"[3134, 1001, 1036]",[],[],[],"[3133, 1036, 1033]",[],[],"[3111, 1036]","[3134, 3134, 1036]",[],[6691],[],"[3134, 1036, 3133, 1036]",[],"[3142, 1036]",[],"[3134, 1036]",[],[3364],[3814],[],[],[1037],[],[],[]
participant_7_SOLD,[],[],[],[],[],[],[],[],[],[1035],[1036],[],[],"[1001, 1033]","[2031, 1036, 1036, 1036, 1036]",[],"[3134, 3133]",[],"[1036, 1036]",[],[3134],[],"[1036, 1036]",[],[3340],"[1036, 3134]",[],[],[],[],[],[]
participant_7_UNDO,[],[],[],[],[],[],[],[],[],[],[],[],[],[],"[[0, 3134]]",[],[],[],"[[0, 1036], [0, 3134]]",[],[],[],[],[],[],[],[],[],[],[],[],[]
participant_8_GOLD,500,500,542,783,976,1217,1532,1710,1881,2053,2231,2396,2614,2806,3055,3327,3828,4015,4152,4421,4719,5211,5478,5727,5849,6609,7149,7743,7865,7987,8235,8314
participant_8_CURRENTGOLD,500,0,42,283,476,717,382,560,731,903,431,596,814,1006,1255,52,553,295,132,101,399,391,658,907,129,289,829,148,270,392,215,114
participant_8_LEVEL,1,1,1,2,3,3,4,5,5,5,6,6,6,7,7,8,8,8,9,9,9,10,10,11,11,11,12,12,13,13,13,13
participant_8_MINIONSKILLED,0,0,1,8,12,16,18,21,24,27,30,32,33,37,44,44,46,48,49,58,61,65,69,77,77,77,89,90,90,90,93,93
participant_8_KILLS,0,0,0,0,0,0,0,0,0,0,0,0,0,0,0,0,1,1,1,1,1,1,1,1,1,2,2,3,3,3,3,3
participant_8_BUY,[],"[1055, 2003, 3340]",[],[],[],[],"[1042, 1042, 1042, 1036]",[],[],[],[6670],[],[],[],[],"[1037, 1018]",[],[6672],[1001],[1042],[],[3006],[],[],[1053],"[1042, 1042]",[],"[1043, 1037]",[],[],[3153],[]
participant_8_SOLD,[],[],[],"[2010, 2003]",[],[2010],[],[2010],[],[],"[1036, 1042]",[],[],[],[],[],[],"[1055, 6670, 1018, 1037]",[],[],[],"[1001, 1042]",[],[],[],[],[],"[1042, 1042]",[],[],"[1053, 1043, 1037]",[]
participant_8_UNDO,[],[],[],[],[],[],"[[0, 1042], [0, 1042]]",[],[],[],[],[],[],[],[],[],[],[],[],[],[],[],[],[],[],[],[],[],[],[],[],[]
participant_9_GOLD,500,500,521,643,766,888,1032,1340,1525,1690,1812,1935,2892,3042,3186,3357,3581,3761,3926,4048,4381,4623,5120,5273,5527,5742,6207,6578,6701,6872,7016,7095
participant_9_CURRENTGOLD,500,150,171,93,141,263,107,415,600,765,102,225,332,482,626,282,506,686,851,973,1306,1548,795,148,402,182,647,403,526,697,841,920
participant_9_LEVEL,1,1,1,2,2,3,3,4,5,5,5,6,6,7,7,8,8,9,9,9,9,9,10,10,10,11,11,12,12,12,13,13
participant_9_MINIONSKILLED,0,0,0,0,0,0,1,5,9,11,11,11,13,15,16,19,21,22,25,25,30,34,34,35,39,42,45,48,48,51,52,52
participant_9_KILLS,0,0,0,0,1,1,1,1,1,1,1,1,1,1,1,1,1,1,1,1,1,1,1,1,1,2,2,2,2,2,2,2
participant_9_BUY,[],"[3070, 2003, 2003]",[],[],[],"[1052, 1052, 1001, 2003, 2003]",[],[],[],[],"[3145, 1026, 2003, 2003, 2055]",[],[],"[1028, 3111, 2003]",[],[3152],[],[1028],[1011],[],[1026],[],[1052],[],[],[4637],[],[],[1026],[],[],[]
participant_9_SOLD,[],[],[],[],[2003],[],[],[2003],[],"[2003, 2003]",[1052],"[2003, 2055]",[2003],[1001],[],"[2003, 3145, 1028, 1026]",[],[],[1028],[],[],[],[],[],[],"[1026, 1011, 1052]",[],[],[],[],[],[]
participant_9_UNDO,[],[],[],[],[],"[[0, 1052]]",[],[],[],[],[],[],[],[],[],[],[],[],[],[],[],[],[],[],[],[],[],[],[],[],[],[]
team0_KILLS,0,0,0,3,3,3,6,6,7,7,11,14,15,16,18,21,22,22,27,29,31,32,34,35,39,44,45,49,53,56,58,60
team0_CURRENTGOLD,2500,0,481,3146,1537,3246,4510,3068,2694,3134,2308,3276,3550,2882,2399,3778,3335,4401,5498,3993,3209,4923,2714,2898,4335,6180,2648,3078,3648,6464,6178,6249
team0_TOTALGOLD,2500,2500,2981,5656,6832,8551,11075,12193,13929,15219,17943,20561,22270,23777,26069,29356,31363,32854,36091,38426,40484,42201,44017,45375,48087,52272,54266,56945,60205,63021,65828,68577
team0_LEVEL,5,5,6,13,17,21,25,26,30,31,35,39,40,42,46,46,49,52,55,56,57,61,62,62,64,68,69,71,74,76,80,80
team0_SBIRES,0,0,10,37,53,95,115,127,158,177,194,225,248,268,291,318,329,359,368,380,390,411,427,436,446,457,464,479,504,521,541,554
team1_KILLS,0,0,0,0,1,1,2,3,3,3,6,6,8,9,10,12,13,14,14,17,18,18,21,21,22,25,26,29,30,31,31,31
team1_CURRENTGOLD,2500,150,523,1542,3052,3135,1298,2969,3931,5489,1102,2207,3843,3281,3020,2206,2130,3111,1522,3872,2231,2744,2500,2876,2482,1010,3273,3414,1836,3181,3063,3088
team1_TOTALGOLD,2500,2500,2873,4092,5687,6605,8368,10039,11311,12879,14917,16022,18518,19906,22245,24321,26120,27946,28882,31532,34141,35454,37645,38821,39976,42154,44418,46998,48165,49859,50716,51113
team1_LEVEL,5,5,6,13,17,19,22,26,29,32,34,36,38,41,42,45,47,49,50,53,54,55,58,60,60,62,65,67,68,70,71,71
team1_SBIRES,0,0,9,25,48,58,72,101,122,148,158,176,197,214,240,251,269,286,296,320,340,352,358,373,381,385,430,440,440,464,474,474
delta_KILLS,0,0,0,3,2,2,4,3,4,4,5,8,7,7,8,9,9,8,13,12,13,14,13,14,17,19,19,20,23,25,27,29
delta_CURRENTGOLD,0,-150,-42,1604,-1515,111,3212,99,-1237,-2355,1206,1069,-293,-399,-621,1572,1205,1290,3976,121,978,2179,214,22,1853,5170,-625,-336,1812,3283,3115,3161
delta_TOTALGOLD,0,0,108,1564,1145,1946,2707,2154,2618,2340,3026,4539,3752,3871,3824,5035,5243,4908,7209,6894,6343,6747,6372,6554,8111,10118,9848,9947,12040,13162,15112,17464
delta_LEVEL,0,0,0,0,0,2,3,0,1,-1,1,3,2,1,4,1,2,3,5,3,3,6,4,2,4,6,4,4,6,6,9,9
delta_SBIRES,0,0,1,12,5,37,43,26,36,29,36,49,51,54,51,67,60,73,72,60,50,59,69,63,65,72,34,39,64,57,67,80
