name,frame_0,frame_1,frame_2,frame_3,frame_4,frame_5,frame_6,frame_7,frame_8,frame_9,frame_10,frame_11,frame_12,frame_13,frame_14,frame_15,frame_16,frame_17,frame_18,frame_19,frame_20,frame_21,frame_22,frame_23,frame_24,frame_25,frame_26,frame_27,frame_28,frame_29,frame_30,frame_31,frame_32,frame_33,frame_34
nameStamp,Tstart,Tearly,Tearly,Tearly,Tearly,Tearly,Tearly,Tearly,Tearly,Tearly,Tearly,Tearly,Tearly,Tmid,Tmid,Tmid,Tmid,Tmid,Tmid,Tmid,Tmid,Tmid,Tmid,Tmid,Tmid,Tmid,Tmid,Tmid,Tmid,Tmid,Tmid,Tmid,Tmid,Tmid,Tmid
timestamp,0,60011,120026,180036,240066,300076,360087,420098,480108,540118,600139,660151,720161,780169,840176,900188,960200,1020208,1080238,1140247,1200260,1260276,1320292,1380310,1440327,1500339,1560352,1620379,1680392,1740402,1800409,1860420,1920435,1980445,2040445
participant_0_GOLD,500,500,555,867,1120,1424,1547,2035,2183,2512,3154,3545,3821,4409,4651,5032,5978,6269,6770,7495,7750,8970,9093,9370,9567,10014,10367,11389,11862,12047,12560,13277,13652,13936,14002
participant_0_CURRENTGOLD,500,0,55,367,620,924,272,760,133,462,304,695,971,1559,300,682,895,1186,1687,36,292,1512,35,312,189,11,364,1387,459,244,758,1475,49,334,169
participant_0_LEVEL,1,1,1,3,4,5,5,6,6,7,8,9,9,10,10,11,11,12,12,13,13,13,13,14,14,14,15,15,15,15,16,16,17,17,17
participant_0_MINIONSKILLED,0,0,2,13,18,27,27,43,44,53,61,71,79,82,88,97,105,114,127,132,138,148,148,154,154,159,169,169,177,180,194,207,218,226,226
participant_0_KILLS,0,0,0,0,0,0,0,0,0,0,1,1,1,1,1,1,2,2,2,3,3,5,5,5,5,5,5,8,8,8,8,8,8,8,8
participant_0_BUY,[],"[2033, 3340]",[],[],[],[],"[3057, 2055]",[],"[1028, 1001, 2055, 3364]",[],[3111],[],[],[],"[3051, 3067]",[],[3078],[],[],"[3044, 1037, 1028]",[],[],"[3053, 3067, 2055]",[],[1036],"[3133, 2055]",[],[],[3071],[1028],[],[],"[3076, 1011, 2140]",[],[]
participant_0_SOLD,[],[],[],[],[2010],[],[],"[2010, 2010]","[3340, 2055]",[],"[2055, 1001]",[],[],[],[1028],[],"[3057, 3051, 3067]",[],[],[],[],[],"[1037, 3044, 1028]",[],[2055],"[2033, 1036]",[2055],[],"[3133, 3067]",[],[],[],"[1028, 2140]",[],[]
participant_0_UNDO,[],[],[],[],[],[],[],[],[],[],[],[],[],[],[],[],[],[],[],[],[],[],[],[],[],[],[],[],[],[],[],[],[],[],[]
participant_1_GOLD,500,500,669,963,1209,1471,1884,2411,2533,2656,2963,3086,3393,3600,3818,4104,4348,4641,4878,5051,5459,5810,5933,6226,6444,7166,7529,7844,8119,8353,8845,9215,9561,9868,9935
participant_1_CURRENTGOLD,500,0,169,463,709,961,1374,1901,2023,46,353,76,83,290,508,294,538,831,1068,241,649,1000,73,16,234,556,919,134,409,343,335,705,401,709,785
participant_1_LEVEL,1,1,2,3,3,4,5,5,5,5,6,6,6,7,7,8,8,9,9,9,10,10,10,11,11,12,12,13,13,13,14,14,15,15,15
participant_1_MINIONSKILLED,0,0,0,0,2,3,3,3,3,3,3,3,3,3,3,4,5,5,7,7,7,9,9,10,10,10,11,14,16,18,18,18,22,27,27
participant_1_KILLS,0,0,0,0,1,1,1,1,2,2,2,3,3,6,7,9,9,9,9,9,9,9,9,10,11,12,12,12,12,12,14,15,15,15,15
participant_1_BUY,[],[],"[2033, 3340]",[],[],"[3076, 2055]",[],[],[],"[1011, 1001, 1029]",[],[],[3075],[],[3105],"[3068, 3047, 3111]",[],[1028],[],[],"[3067, 1029]",[],[],[3082],[3143],[],[],[1058],[],[1058],[],[],"[3089, 1033]",[],[3105]
participant_1_SOLD,[],[],[],[],[],[],[],"[2010, 2010]","[2010, 2055]",[],[],[],"[3076, 1011]",[],[1029],"[3105, 1001, 1001]",[],[],[],[],[1028],[],[],[1029],"[3082, 3067]",[],[],[],[],[2033],[],[],"[1058, 1058]",[],[1033]
participant_1_UNDO,[],[],[],[],[],[],[],[],[],[],[],[],[],[],[],"[[0, 3047]]",[],[],[],[],[],[],[],[],[],[],[],[],[],[],[],[],[],[],[]
participant_2_GOLD,500,500,562,829,1506,1754,1975,2387,2965,3236,3551,3997,4190,5174,6440,7687,8102,8224,8362,8796,8946,9152,9422,10228,10650,11436,11850,12123,12566,12688,14323,14957,15385,15507,15573
participant_2_CURRENTGOLD,500,500,62,319,996,369,590,1002,1570,331,646,1092,285,1269,1325,72,487,209,347,781,231,438,707,813,336,1121,1536,558,1001,74,1708,2343,1021,1143,-2
participant_2_LEVEL,1,1,1,3,4,5,5,6,7,8,8,9,9,10,10,11,11,11,11,12,12,12,13,13,13,14,14,14,15,15,15,16,16,16,16
participant_2_MINIONSKILLED,0,0,2,8,17,25,30,38,46,52,58,64,68,70,75,78,83,83,84,88,90,95,104,109,109,113,121,121,130,130,138,141,146,146,146
participant_2_KILLS,0,0,0,0,0,0,0,1,1,1,1,1,1,1,1,1,1,1,1,1,1,1,1,1,1,2,2,2,2,2,3,3,3,3,3
participant_2_BUY,[],"[1039, 2031, 3340]",[],[],[],[],[],[],[],"[3133, 1036, 1036, 1001]",[],[3134],[1042],[],[],[3006],[],[],[],[6693],[],[],"[3057, 1036]",[1036],[],[3133],[],[3508],[],[1029],[1031],[],[2420],[],[]
participant_2_SOLD,[],[],[],[],[],[],[],[],[],[],[1039],"[1036, 1036]",[],[],[],"[1001, 1042]",[],[],[],"[3134, 3133]",[],[],[],[],[],"[1036, 1036]",[],"[3133, 3057]",[],[],[1029],[],[],[],[]
participant_2_UNDO,[],[],[],[],[],[],[],[],[],[],[],[],[],[],[],[],[],[],[],[],[],[],[],[],[],[],[],[],[],[],[],[],[],[],[]
participant_3_GOLD,500,500,522,713,1497,1687,1972,2106,2240,2445,2740,2950,3126,3415,3639,4324,4458,4761,4895,5529,5706,5990,6319,6489,6637,7334,7586,7876,8252,8393,8958,9436,9770,10147,10223
participant_3_CURRENTGOLD,500,0,22,213,997,187,472,231,365,570,865,1075,301,590,814,249,83,385,20,54,231,315,644,414,62,759,1010,301,677,417,133,611,145,522,598
participant_3_LEVEL,1,1,1,2,3,4,4,4,4,5,6,6,6,7,7,8,8,9,9,9,9,10,10,10,11,11,11,12,12,12,13,14,14,14,14
participant_3_MINIONSKILLED,0,0,0,3,6,9,9,9,9,13,22,23,25,32,32,33,33,38,38,38,40,40,47,49,50,52,54,54,60,60,60,60,63,68,68
participant_3_KILLS,0,0,0,0,2,2,2,2,2,2,2,2,2,2,2,3,3,3,3,4,4,4,4,4,4,5,5,5,5,5,5,6,6,6,6
participant_3_BUY,[],"[3850, 3858, 2003, 2003]",[],[],[],[6660],[],"[1029, 2055]",[],[],[],[],"[1031, 1033]",[],[],"[6662, 1001]",[1029],[],[3047],"[1029, 1029]",[],[3076],[],[1028],[1011],[],[],[3075],[],[1028],[3211],[],[3067],[],[]
participant_3_SOLD,[],[],[],[],[2003],[],[2003],[2055],[],[],[],[],[1029],[],[],"[6660, 1033, 1031]",[],[],"[1001, 1029]",[],[],"[1029, 1029]",[],[],[1028],[3858],[],"[3076, 1011]",[],[],[1028],[],[3859],[],[]
participant_3_UNDO,[],"[[0, 3850]]",[],[],[],[],[],[],[],[],[],[],[],[],[],[],[],[],[],[],[],[],[],[],[],[],[],[],[],[],[],[],[],[],[]
participant_4_GOLD,500,500,562,941,1366,1537,1981,2267,2403,2568,2833,3073,3195,3317,3489,3611,3959,4131,4423,4954,5251,5670,6239,6411,6562,6803,7030,7794,8156,8307,9146,9659,9963,10344,10759
participant_4_CURRENTGOLD,500,0,62,441,16,187,146,432,133,298,563,73,195,317,489,611,959,1131,1423,704,201,620,754,161,312,553,345,244,606,322,1161,559,863,294,709
participant_4_LEVEL,1,1,1,2,3,4,4,5,5,5,6,6,6,6,6,6,7,7,8,9,9,10,11,11,12,12,12,13,13,14,15,15,15,16,16
participant_4_MINIONSKILLED,0,0,2,15,19,22,23,30,31,33,37,41,41,41,44,44,44,47,52,56,67,72,81,81,83,91,93,96,105,107,110,111,122,133,136
participant_4_KILLS,0,0,0,0,0,0,1,1,1,1,1,1,1,1,1,1,2,2,2,3,3,3,4,4,4,4,4,5,5,5,6,7,7,7,8
participant_4_BUY,[],"[1056, 2003, 2003]",[],[],[1026],[],"[1052, 2003]",[],[1052],[],[],"[3802, 1001]",[],[],[],[],[],[],[],[6655],[3020],[],[1052],[4632],[],[],[1052],[3102],[],[1052],[],"[3108, 2420]",[],[3157],[]
participant_4_SOLD,[],[],[],[],[2003],[],"[2003, 2010, 2010]",[],[],[],[],"[1052, 1052]",[],[],[2003],[],[2010],[],[],"[3802, 1026]",[1001],[],[],[1052],[],[],[],"[1052, 4632]",[],[],[],[1052],[],"[2420, 3108]",[]
participant_4_UNDO,[],[],[],[],[],[],[],[],[],[],[],[],[],[],[],[],[],[],[],[],[],[],[],[],[],[],[],[],[],[],[],[],[],[],[]
participant_5_GOLD,500,500,590,829,1050,1361,1571,1714,1968,2386,2648,2902,3284,3406,3764,4110,4275,4875,5373,5527,5749,6239,7162,7317,8021,8389,8681,10036,10344,11213,11867,11990,12112,12729,12855
participant_5_CURRENTGOLD,500,0,90,319,190,41,241,384,28,436,698,292,674,796,1154,1500,790,1390,1888,817,239,729,212,367,1071,1439,331,1686,184,1053,508,330,152,770,295
participant_5_LEVEL,1,1,1,3,4,5,5,6,6,7,7,7,8,8,9,9,10,10,11,11,11,12,13,13,13,13,14,15,15,15,15,15,15,16,16
participant_5_MINIONSKILLED,0,0,4,8,14,22,24,25,29,34,42,46,52,52,62,71,73,86,93,94,94,111,119,119,123,127,127,136,136,141,144,144,144,144,147
participant_5_KILLS,0,0,0,0,0,0,0,0,0,0,0,0,0,0,1,1,3,3,3,3,3,3,4,4,5,5,5,5,5,7,7,7,7,8,9
participant_5_BUY,[],"[1039, 2031, 3340]",[],[],[],[],[],[3051],[],[],"[1001, 3057]",[],[],[3067],[],[3078],[],[],[],"[3111, 3133]",[],[],[],"[1031, 1037, 1029]",[6333],[1036],[],[3133],[],[],[3071],[],[],[],[]
participant_5_SOLD,[],[],[],[],[],[],[],[],[],[],[],[1039],[],[],[],"[3057, 3051, 3067]",[],[],[],[1001],[],[],[],[],"[1029, 3133, 1037]",[],[],[1036],[],[],[3133],[],[],[],[]
participant_5_UNDO,[],[],[],[],[],[],[],[],[],[],[],[],[],[],[],[],[],[],[],[],[],[],[],"[[0, 1031]]",[],[],[],[],[],[],[],[],[],[],[]
participant_6_GOLD,500,500,620,913,1136,1412,1684,1806,2148,2598,2926,3210,3483,3605,3993,4204,5080,5567,5869,6086,6503,6726,7662,7922,8577,8811,9010,9295,9797,11066,11430,11552,11674,12357,12814
participant_6_CURRENTGOLD,500,0,120,413,636,912,1184,206,548,998,326,610,883,205,593,71,947,1434,1736,53,470,693,1629,714,544,428,627,162,664,1934,97,219,342,1024,1481
participant_6_LEVEL,1,1,2,2,3,4,5,5,5,6,7,7,8,8,8,8,9,9,10,10,10,11,12,12,12,12,13,13,14,15,15,15,15,16,16
participant_6_MINIONSKILLED,0,0,0,0,0,4,5,5,6,7,7,12,12,12,12,12,13,19,22,22,22,22,28,30,30,30,30,30,31,36,37,37,37,38,39
participant_6_KILLS,0,0,0,0,1,1,1,1,1,1,1,1,2,2,2,3,3,3,3,3,3,3,4,4,4,4,5,5,5,5,6,6,6,6,6
participant_6_BUY,[],"[1082, 3340, 2031]",[],[],[],"[1052, 1028]",[],[],[],[],"[3145, 1026]",[],[],[4636],[1001],[],"[1052, 3363, 2055, 2055]",[],[3113],[],[],[3020],[],"[1026, 3057]",[],[3100],[],[2420],[],[],[],[3191],[3157],[],[]
participant_6_SOLD,[],[],[],[],[],[],[],[],[],[],[1052],[],[],"[3145, 1028, 1026]",[],[],[3340],[2055],[1052],[],[],[1001],[2031],[2055],[],"[3057, 3113, 1026]",[],[],[],[],[],[],"[1082, 3191, 2420]",[],[]
participant_6_UNDO,[],[],[],[],[],[],[],[],[],[],[],[],[],[],[],[],[],[],[],[],[],[],[],[],[],[],[],[],[],[],[],[],[],[],[]
participant_7_GOLD,500,500,562,727,1220,1398,1797,2003,2355,2625,2861,3255,3727,3963,4170,4620,4858,5078,5299,5666,6264,6584,7456,7702,8009,8131,8587,8843,9065,9665,10229,10379,10502,10799,10865
participant_7_CURRENTGOLD,500,0,62,227,720,63,462,668,1020,1290,61,455,927,263,170,620,273,493,299,666,1264,784,1716,442,749,271,727,333,555,1155,1719,970,282,579,415
participant_7_LEVEL,1,1,1,2,4,4,5,6,7,7,7,8,8,9,9,9,9,10,10,11,11,11,12,12,13,13,13,13,14,14,15,15,15,15,15
participant_7_MINIONSKILLED,0,0,2,4,8,11,22,27,37,45,49,62,62,68,73,75,78,84,87,97,104,111,111,114,118,118,121,122,122,133,136,138,138,138,138
participant_7_KILLS,0,0,0,0,0,0,0,0,0,0,0,0,0,0,0,0,0,0,0,0,0,0,1,1,2,2,2,5,5,5,6,6,6,7,7
participant_7_BUY,[],"[1055, 2003]",[],[],[1036],"[1001, 2031]",[],[],"[1042, 1042]",[],[],[6670],[],[],[],[],[1037],[],[],[6672],"[3006, 1042]",[],"[3086, 1042, 1042]",[],[],[],"[3046, 1042]",[],"[1038, 1053]",[],[3072],[1042],[1042],[],[]
participant_7_SOLD,[],[],[2003],[],[],[],[],[],[],[],[],"[1036, 1042]",[],[],[],[],[],[],[],"[6670, 1037]","[1001, 1042]",[],"[1042, 2031]",[],[],[],"[1042, 3086, 1042]",[],"[1042, 1055, 1042]",[],"[1038, 1053]",[],[],[],[]
participant_7_UNDO,[],[],[],[],[],[],[],[],[],[],[],[],[],[],[],[],[],[],[],[],[],[],[],[],[],[],[],[],"[[1042, 0]]",[],[],[],[],[],[]
participant_8_GOLD,500,500,583,783,1207,1553,2495,2659,3686,4774,4995,6044,7256,7802,8095,8426,9118,9240,10288,10505,11406,12392,12655,14019,14438,14855,15266,16316,16689,18278,18749,18926,19234,20239,20414
participant_8_CURRENTGOLD,500,0,83,283,357,403,1045,1209,2236,3324,262,1311,2523,569,862,393,210,333,1380,498,1398,1259,273,1637,406,147,559,1609,1982,3571,1817,1494,1302,2307,2281
participant_8_LEVEL,1,1,1,2,3,3,4,5,6,6,7,8,8,9,9,9,10,10,11,11,11,12,12,13,13,14,14,14,15,15,16,16,16,17,17
participant_8_MINIONSKILLED,0,0,3,7,13,23,32,34,46,55,61,70,80,80,81,85,90,90,99,99,110,114,119,125,126,126,130,130,140,146,151,152,152,165,166
participant_8_KILLS,0,0,0,0,0,0,1,1,3,5,5,7,8,9,9,9,10,10,12,12,13,15,15,18,18,19,19,21,21,24,24,24,24,25,25
participant_8_BUY,[],"[2033, 3340]",[],[],[1036],[1042],[1001],[],[],[],"[3078, 1042, 1042]",[],[],[3153],[],[3111],[1037],[],[],[3044],[],[3053],[3211],[],[3065],[1037],[],[],[],[],[6333],[2140],[2140],[],[]
participant_8_SOLD,[],[],[],[],[],[],[],[],[],[],"[1042, 1036]",[],[],"[1042, 1042]",[],[1001],[],[],[],[],[],"[1037, 3044]",[],[],[3211],[2033],[],[],[],[],[1037],[2140],[2140],[],[]
participant_8_UNDO,[],[],[],[],[],[],[],[],[],[],[],[],[],[],[],[],[],[],[],[],[],[],[],[],[],[],[],[],[],[],[],[],[],[],[]
participant_9_GOLD,500,500,543,720,1176,1429,2115,2259,2595,2946,3095,3443,4541,4901,5051,5616,5767,6025,6484,6974,7389,7858,8174,9439,9723,9909,10071,10473,10614,11450,11837,11977,12243,12609,12790
participant_9_CURRENTGOLD,500,0,43,220,251,504,1190,334,670,96,245,592,1691,526,676,16,167,425,884,24,439,908,449,1714,1998,384,546,49,189,1025,1412,227,494,859,1040
participant_9_LEVEL,1,1,1,2,3,4,5,5,5,6,6,7,8,8,8,8,8,9,9,9,10,10,10,12,12,12,13,13,13,14,14,14,15,15,15
participant_9_MINIONSKILLED,0,0,1,3,4,8,11,12,15,18,19,24,27,27,28,28,29,32,32,32,32,34,34,40,42,44,45,46,46,47,48,48,48,48,48
participant_9_KILLS,0,0,0,0,1,1,2,2,2,2,2,2,3,4,4,5,5,5,5,6,6,6,6,8,8,8,8,8,8,8,8,8,8,8,8
participant_9_BUY,[],"[3858, 3340, 2003, 2003]",[],[],"[1001, 2055, 2003]",[],[],[6660],[],"[1031, 2055, 2003]",[],[],[],"[6662, 2055, 2003]",[],"[3111, 1027, 3364, 2055]",[],[],[],"[3024, 1028, 3067]",[],[],"[3050, 2055]",[],[],"[1011, 1057]",[],[3001],[],[],[],"[4641, 2055, 2055, 2055]",[],[],[]
participant_9_SOLD,[],[],[],[],[],[],"[2003, 2010, 2010, 2003]",[2055],"[2003, 2010]",[],[],[3858],"[2003, 2055]","[6660, 1031]","[2055, 2003]","[1001, 3340]",[],[],[2055],"[1027, 1028]",[],[],"[3067, 3024, 2055]",[3859],[],[],[],"[1011, 1057]",[],[],[],"[2055, 2055, 2055]","[4641, 4641, 4641]",[],[]
participant_9_UNDO,[],[],[],[],[],[],[],[],[],[],[],[],[],[],[],[],[],[],[],[],[],[],[],[],[],[],[],[],[],[],[],[],[],[],[]
team0_KILLS,0,0,0,0,3,3,4,5,6,6,7,8,8,11,12,15,17,17,17,20,20,22,23,24,25,28,28,32,32,32,36,39,39,39,40
team0_CURRENTGOLD,2500,500,370,1803,3338,2628,2854,4326,4224,1707,2731,3011,1835,4025,3436,1908,2962,3742,4545,1816,1604,3885,2213,1716,1133,3000,4174,2624,3152,1400,4095,5693,2479,3002,2259
team0_TOTALGOLD,2500,2500,2870,4313,6698,7873,9359,11206,12324,13417,15241,16651,17725,19915,22037,24758,26845,28026,29328,31825,33112,35592,37006,38724,39860,42753,44362,47026,48955,49788,53832,56544,58331,59802,60492
team0_LEVEL,5,5,6,13,17,22,23,26,27,30,34,36,36,40,40,44,45,48,49,52,53,55,57,59,61,63,64,67,68,69,73,75,77,78,78
team0_SBIRES,0,0,6,39,62,86,92,123,133,154,181,202,216,228,242,256,270,287,308,321,342,364,389,403,406,425,448,454,488,495,520,537,571,600,603
team1_KILLS,0,0,0,0,2,2,4,4,6,8,8,10,13,15,16,18,21,21,23,24,25,27,30,35,37,38,39,44,44,49,51,51,51,54,55
team1_CURRENTGOLD,2500,0,398,1462,2154,1923,4122,2801,4502,6144,1592,3260,6698,2359,3455,2600,2387,4075,6187,2058,3810,4373,4279,4874,4768,2669,2790,3839,3574,8738,5553,3240,2572,5539,5512
team1_TOTALGOLD,2500,2500,2898,3972,5789,7153,9662,10441,12752,15329,16525,18854,22291,23677,25073,26976,29098,30785,33313,34758,37311,39799,43109,46399,48768,50095,51615,54963,56509,61672,64112,64824,65765,68733,69738
team1_LEVEL,5,5,6,11,17,20,24,27,29,32,34,37,40,42,43,43,46,48,51,52,53,56,59,62,63,64,67,68,71,73,75,75,76,79,79
team1_SBIRES,0,0,10,22,39,68,94,103,133,159,178,214,233,239,256,271,283,311,333,344,362,392,411,428,439,445,453,464,475,503,516,519,519,533,538
delta_KILLS,0,0,0,0,1,1,0,1,0,-2,-1,-2,-5,-4,-4,-3,-4,-4,-6,-4,-5,-5,-7,-11,-12,-10,-11,-12,-12,-17,-15,-12,-12,-15,-15
delta_CURRENTGOLD,0,500,-28,341,1184,705,-1268,1525,-278,-4437,1139,-249,-4863,1666,-19,-692,575,-333,-1642,-242,-2206,-488,-2066,-3158,-3635,331,1384,-1215,-422,-7338,-1458,2453,-93,-2537,-3253
delta_TOTALGOLD,0,0,-28,341,909,720,-303,765,-428,-1912,-1284,-2203,-4566,-3762,-3036,-2218,-2253,-2759,-3985,-2933,-4199,-4207,-6103,-7675,-8908,-7342,-7253,-7937,-7554,-11884,-10280,-8280,-7434,-8931,-9246
delta_LEVEL,0,0,0,2,0,2,-1,-1,-2,-2,0,-1,-4,-2,-3,1,-1,0,-2,0,0,-1,-2,-3,-2,-1,-3,-1,-3,-4,-2,0,1,-1,-1
delta_SBIRES,0,0,-4,17,23,18,-2,20,0,-5,3,-12,-17,-11,-14,-15,-13,-24,-25,-23,-20,-28,-22,-25,-33,-20,-5,-10,13,-8,4,18,52,67,65
