name,team0,team1
win,Fail,Win
firstBlood,False,True
firstTower,False,True
firstInhibitor,False,True
firstBaron,False,False
firstDragon,True,False
firstRiftHerald,False,True
towerKills,0,6
inhibitorKills,0,1
baronKills,0,0
dragonKills,2,0
riftHeraldKills,0,1
