name,team0,team1
win,Win,Fail
firstBlood,False,True
firstTower,False,True
firstInhibitor,False,True
firstBaron,True,False
firstDragon,False,True
firstRiftHerald,True,False
towerKills,8,7
inhibitorKills,1,1
baronKills,2,0
dragonKills,4,2
riftHeraldKills,1,0
