name,frame_0,frame_1,frame_2,frame_3,frame_4,frame_5,frame_6,frame_7,frame_8,frame_9,frame_10,frame_11,frame_12,frame_13,frame_14,frame_15,frame_16,frame_17,frame_18,frame_19,frame_20,frame_21,frame_22,frame_23,frame_24,frame_25,frame_26,frame_27,frame_28,frame_29,frame_30,frame_31,frame_32,frame_33,frame_34
nameStamp,Tstart,Tearly,Tearly,Tearly,Tearly,Tearly,Tearly,Tearly,Tearly,Tearly,Tearly,Tearly,Tearly,Tearly,Tearly,Tearly,Tmid,Tmid,Tmid,Tmid,Tmid,Tmid,Tmid,Tmid,Tmid,Tmid,Tend,Tend,Tend,Tend,Tend,Tend,Tend,Tend,Tend
timestamp,0,60008,120039,180050,240064,300065,360066,420067,480073,540094,600105,660107,720114,780114,840130,900138,960148,1020149,1080155,1140159,1200171,1260175,1320181,1380210,1440228,1500261,1560286,1620293,1680322,1740341,1800344,1860377,1920409,1980439,2040439
participant_0_GOLD,500,503,566,800,1557,1847,2096,2494,2881,3067,3696,4757,5393,5886,6933,7202,8030,8329,8472,8901,9226,9698,11280,12503,12960,13098,13421,14233,14358,14814,14937,15233,15425,15652,15716
participant_0_CURRENTGOLD,500,3,66,300,1057,397,646,1044,1431,267,896,1957,693,1186,2233,1652,2480,1346,289,719,443,915,1797,3021,2577,65,389,750,126,582,704,1001,1193,1420,1483
participant_0_LEVEL,1,1,1,2,4,4,5,6,7,7,8,9,10,10,11,11,12,12,12,13,13,13,14,14,14,14,15,15,15,15,15,16,16,16,16
participant_0_MINIONSKILLED,0,1,3,9,19,26,33,46,58,61,70,80,92,104,114,119,124,132,133,147,154,158,158,166,167,167,170,173,174,185,185,191,191,193,193
participant_0_KILLS,0,0,0,0,0,0,0,0,0,0,0,0,0,0,0,0,1,1,1,1,1,1,1,1,1,1,1,1,2,3,3,3,3,4,4
participant_0_BUY,[],"[1056, 2003, 2003, 3340]",[],[],[],"[1052, 1027]","[2003, 2003]",[],[],"[3802, 1052, 2055]",[3145],[],[],"[3030, 1029]",[],[],"[3047, 1029, 1029]",[3076],[1052],[3113],[],[],[],[3905],"[1029, 1028]",[],[3363],[],[],[],[3075],"[3024, 3801]",[],[3800],[]
participant_0_SOLD,[],[],[],[2003],[2010],"[2003, 2010]",[],[],[],"[1052, 1027]",[1052],[2055],[2003],"[3802, 3145]",[2003],[],"[1029, 2422]","[1029, 1029]",[2010],[1052],[],[],[],[3113],[],[],"[1056, 3340]",[1056],[],[],"[3076, 1028]",[1056],[],"[3024, 3801]",[]
participant_0_UNDO,[],[],[],[],[],[],[],[],[],[],[],[],[],[],[],[],[],[],[],[],[],[],[],[],"[[0, 1029]]",[],"[[1056, 0]]","[[1056, 0]]",[],[],[],[],[],[],[]
participant_1_GOLD,500,500,666,1013,1441,1563,1838,1960,2255,2610,3172,3445,3667,4090,4618,4974,5182,6109,6232,6439,6696,7273,7598,7770,7947,8133,8733,8856,9271,9843,10102,10426,10994,11298,11362
participant_1_CURRENTGOLD,500,0,166,513,941,1063,253,375,670,1025,1587,1860,2082,640,1168,349,557,1484,57,264,271,848,1173,145,322,508,1108,691,1106,578,387,711,1280,433,37
participant_1_LEVEL,1,1,2,3,4,4,4,4,5,5,6,7,7,8,8,8,8,9,9,9,10,10,12,12,12,12,13,13,13,14,14,15,15,15,15
participant_1_MINIONSKILLED,0,0,0,0,0,0,0,0,0,0,0,0,0,0,0,0,0,0,0,0,0,0,3,3,4,8,13,13,27,27,29,29,34,40,40
participant_1_KILLS,0,0,0,0,1,1,1,1,1,1,2,4,5,5,6,6,7,7,7,7,7,7,10,11,12,12,12,14,14,14,14,14,14,14,14
participant_1_BUY,[],"[1029, 2003, 2003, 2003, 2003, 3340]",[],[],[],"[3024, 1029, 2003]",[],[],[],"[3057, 1029]",[],[],"[3110, 1029, 1028]",[],[],[3044],[],[3078],"[3047, 1028, 1029]",[],[1011],[],[3082],[],[3143],"[3024, 3801, 3800]",[],[1033],[3211],[],[],[],[],[],[]
participant_1_SOLD,[],[],[],"[2003, 2003]",[],"[1029, 2003]",[],[2003],[],[],[],[2003],"[1029, 1029, 3024]",[],[],[1028],[],"[3057, 3044]","[1029, 2422]",[],[1028],[],[1029],[],"[3082, 1011]","[3024, 3801]",[],[],[1033],[],[],[],[],[],[]
participant_1_UNDO,[],[],[],[],[],[],[],[],[],[],[],[],[],[],[],[],[],[],[],[],[],[],[],[],[],[],[],[],[],[],[],[],[],[],[]
participant_2_GOLD,500,500,612,853,1246,1445,1781,2099,2472,2835,3062,3407,3935,4295,4806,4949,5268,6012,6134,6409,6532,6956,7326,7734,8111,8318,8614,8861,10201,10826,11185,11531,11766,12191,12255
participant_2_CURRENTGOLD,500,0,112,353,746,160,396,714,1087,425,37,382,910,520,1031,1174,393,737,424,284,407,831,1201,59,36,242,539,786,2126,2751,1611,566,801,126,-290
participant_2_LEVEL,1,1,2,3,4,5,6,7,7,8,8,9,9,10,10,10,11,12,12,12,12,12,13,13,14,14,14,15,15,15,16,16,16,17,17
participant_2_MINIONSKILLED,0,0,5,12,25,29,39,50,61,72,78,88,99,103,114,115,116,131,131,136,136,139,145,145,151,157,163,163,175,180,190,199,203,205,205
participant_2_KILLS,0,0,0,0,0,0,0,0,0,0,0,0,0,1,1,1,1,2,2,2,2,3,3,3,3,3,3,3,3,3,3,3,4,4,4
participant_2_BUY,[],"[2031, 1039, 3340]",[],[],[],[],"[3706, 1052]",[],[],[],[],[],[],"[1402, 3020]",[],"[3191, 3364, 2055]",[],[],"[3108, 2420]",[],[3157],[],[],"[1031, 1028]",[],[],[],[1011],[],[3742],[1033],[],[],"[3211, 1028]",[3067]
participant_2_SOLD,[],[],[],[],[],[],[1039],[],[],[],[],[],[3340],"[1052, 3706, 2422]",[3513],[3340],[2055],[],[],[],"[3191, 3108, 2420]",[],[],[],[],[],[],"[2031, 1028]",[],"[1031, 1011]",[],[],[],[1033],[1028]
participant_2_UNDO,[],[],[],[],[],[],[],[],[],[],[],[],[],[],[],[],[],[],[],[],[],[],[],[],[],[],[],[],[],[],[],[],[],[],[]
participant_3_GOLD,500,500,584,860,1183,1585,1818,1954,2320,2639,2936,3178,3539,3661,4158,4294,4741,5000,5317,5645,6039,7372,7723,8412,8534,8803,9194,9533,9704,10519,10794,11319,11574,11996,12060
participant_3_CURRENTGOLD,500,0,84,360,683,1085,1318,79,445,764,1061,1303,1664,686,1183,444,891,350,242,570,664,297,648,62,184,453,844,1183,135,949,24,550,154,577,460
participant_3_LEVEL,1,1,1,2,3,4,4,5,5,6,7,7,8,8,8,9,9,9,9,10,10,10,11,11,11,12,12,13,13,14,14,14,14,15,15
participant_3_MINIONSKILLED,0,0,3,12,21,34,36,37,48,59,69,76,87,87,96,97,111,112,119,128,140,145,151,158,158,166,176,181,184,191,196,205,209,209,209
participant_3_KILLS,0,0,0,0,0,0,1,1,1,1,1,1,1,1,1,2,2,2,2,2,2,2,2,2,2,2,2,2,2,3,3,3,3,3,3
participant_3_BUY,[],"[3862, 2003, 2003, 3340]",[],[],[],[],[],"[1036, 1036, 1036]",[],[],[3134],[1036],[],[],[],"[3179, 3009, 3364]",[],"[1036, 1036]",[],[3133],[],"[1036, 1036]",[],[],[],[],"[3134, 2055, 2055]",[3142],[],[],[3044],[],[1028],[],[3067]
participant_3_SOLD,[],[],[],[2003],[],[2010],"[2003, 2010]",[],[],[],"[1036, 1036]",[],[2010],[],[3862],"[3134, 1036, 1036, 2422, 3340]",[],[],[],"[1036, 1036]",[],[],[3863],[],[],[],"[1036, 1036]","[3133, 3134]",[],[2055],[],[],[2055],[],[1028]
participant_3_UNDO,[],[],[],[],[],[],[],[],[],[],[],[],[],[],[],[],[],[],[],[],[],[],[],[],[],[],[],[],[],[],[],[],[],[],[]
participant_4_GOLD,500,500,523,723,879,1052,1565,1699,1845,2034,2183,2350,2539,2763,2939,3709,3904,4307,4463,4694,4893,5328,5543,5838,6043,6284,6434,6702,7070,7826,7976,8216,8419,8926,8999
participant_4_CURRENTGOLD,500,0,23,223,379,552,1065,149,295,484,233,50,239,463,639,209,404,107,263,94,293,28,243,538,743,984,584,152,520,1276,176,416,219,726,399
participant_4_LEVEL,1,1,1,2,3,4,4,4,5,5,5,6,6,6,7,7,8,8,8,8,9,9,10,10,10,11,11,11,12,13,13,14,14,14,14
participant_4_MINIONSKILLED,0,0,0,0,0,0,0,0,0,1,1,1,1,1,2,2,3,3,3,4,6,6,6,10,14,19,19,19,21,21,22,23,24,28,28
participant_4_KILLS,0,0,0,0,0,0,0,0,0,0,0,0,0,0,0,0,0,0,0,0,0,1,1,1,1,1,1,1,1,2,2,2,2,3,3
participant_4_BUY,[],"[1055, 2003, 3340]",[],[],[],[],[],"[1038, 2055]",[],[],[],[],[],[3006],[],[1037],[],[1018],"[3031, 3363]",[],[1042],"[1038, 2015]",[],"[3095, 2055]",[],[],[],[],[3086],[],"[1042, 3046]",[],[2420],[],[]
participant_4_SOLD,[],[],[],[],[2003],[],[],[],[2055],[],[],[],[],[],[],[],[],[],"[1038, 1037, 1018, 3340]",[],[],[1042],[],"[1038, 2015]",[2055],[],[],[],[1055],[],"[1042, 3086]",[],[],[2420],[]
participant_4_UNDO,[],[],[],[],[],[],[],[],[],[],[],[],[],[],[],[],[],[],[],[],[],[],[],[],[],[],[],[],[],[],[],[],[],[],[]
participant_5_GOLD,500,500,584,941,1155,1326,1659,1973,2332,3050,3228,3407,3620,3896,4054,4389,5165,5447,5939,6295,6676,7043,7535,7657,8314,8752,8958,9368,9746,10018,10495,10661,10783,11506,11745
participant_5_CURRENTGOLD,500,0,84,441,80,251,584,73,432,1150,128,307,70,346,154,489,1265,272,764,1120,451,68,560,182,839,1277,51,461,538,810,1288,253,376,1098,1337
participant_5_LEVEL,1,1,1,3,4,4,5,6,6,7,7,8,8,9,9,9,10,10,11,12,12,12,13,13,13,14,14,14,15,15,16,16,16,16,16
participant_5_MINIONSKILLED,0,0,3,14,19,22,34,42,53,65,68,71,76,85,87,89,96,101,112,116,124,134,134,134,144,144,149,151,151,151,161,164,164,165,168
participant_5_KILLS,0,0,0,0,0,1,1,1,1,2,2,2,3,4,4,5,5,8,8,11,11,11,12,12,12,12,12,12,12,13,13,13,13,15,15
participant_5_BUY,[],"[1055, 2003, 3340]",[],[],[],[],"[3086, 1055, 1001, 1042, 3006]",[],[],[],[],[],"[3086, 1042, 2055, 2055]","[3046, 1037, 1018]",[],[],[1038],[],"[3031, 2055, 2055]",[],[3144],[],[3153],[],[3123],[],[1031],[],[],[],[],[3026],[],[],[]
participant_5_SOLD,[],[],[],[],[],[2003],"[1001, 1042]",[],[],[],[],[],[],"[1042, 3086]",[2055],[],[2055],[],"[1038, 1018, 2055]",[2055],[],[],"[1055, 3144]",[1055],[],[],[1055],[],[],[],[],[1031],[],[],[]
participant_5_UNDO,[],[],[],[],[],[],"[[0, 3086]]",[],[],[],[],[],[],"[[0, 1037]]",[],[],[],[],[],[],[],[],[],"[[1055, 0]]",[],[],[],[],[],[],[],[],[],[],[]
participant_6_GOLD,500,500,621,973,1241,1440,1877,2423,2571,2983,3561,3846,4053,4320,5471,5999,6627,6834,7705,8028,8200,8698,9131,9433,10159,10810,11057,12260,12561,12683,12805,13195,13317,14126,14541
participant_6_CURRENTGOLD,500,0,121,473,741,940,1377,1923,336,748,1326,346,553,820,1296,1824,2452,1559,2430,2753,125,623,1056,1358,894,1545,693,1896,296,418,41,430,553,1362,1656
participant_6_LEVEL,1,1,2,3,3,4,5,5,5,6,7,7,7,8,9,9,10,10,11,11,11,12,12,13,13,14,14,15,15,15,15,16,16,16,16
participant_6_MINIONSKILLED,0,0,0,0,0,0,1,1,1,1,5,9,9,10,12,12,12,12,15,15,15,15,15,16,18,18,21,28,30,30,30,34,34,39,39
participant_6_KILLS,0,0,0,0,0,0,0,1,1,1,2,2,2,2,3,3,4,4,5,5,5,6,6,6,7,7,7,9,9,9,9,9,9,10,11
participant_6_BUY,[],"[1039, 2031]",[],[],[],[],[],[],"[3706, 1082, 1001, 1052]",[],[],"[1402, 3020, 3108]",[],[],"[1402, 2055]",[],[],[3191],[],[],"[3157, 1058]",[],[],[],[1058],[],[3089],[],"[3041, 1026]",[],[2139],[],[],[],[]
participant_6_SOLD,[],[],[],[],[],[],[],[2419],[1039],[],[],"[2423, 1052, 3706, 1001, 1052]",[],[],"[3108, 3706]",[2055],[],[2031],[],[],"[3191, 2424]",[],[],[],[2031],[],"[1058, 1058]",[],[1082],[],[2139],[],[],[],[]
participant_6_UNDO,[],[],[],[],[],[],[],[],[],[],[],"[[0, 1402]]",[],[],[],[],[],"[[2031, 0]]",[],[],[],[],[],[],[],[],[],[],[],[],[],[],[],[],[]
participant_7_GOLD,500,500,612,990,1323,1989,2154,2479,2880,3458,4050,4471,5082,5841,6177,6861,7494,8666,8894,10306,10753,10875,11575,11976,12274,12886,13247,13627,14219,14818,15221,15623,15745,17085,17375
participant_7_CURRENTGOLD,500,0,112,490,823,1489,104,429,830,1408,2000,2421,1182,241,577,1261,624,1796,574,1986,833,955,135,537,34,646,388,767,1360,1959,2362,764,886,2226,1945
participant_7_LEVEL,1,1,1,3,4,6,6,7,7,8,9,9,10,10,11,11,12,12,13,13,14,14,14,15,15,15,16,16,16,17,17,17,17,18,18
participant_7_MINIONSKILLED,0,0,5,17,29,39,41,53,66,71,79,84,90,100,109,118,128,128,134,150,156,156,158,170,170,170,177,177,177,179,180,187,187,196,199
participant_7_KILLS,0,0,0,0,0,0,0,0,0,0,0,0,0,0,0,0,0,0,0,0,0,0,1,1,1,1,1,1,1,1,1,1,1,2,2
participant_7_BUY,[],"[1055, 2003, 3340]",[],[],"[1036, 1006, 2055]",[],[],[3077],[],[],"[1053, 1001]",[],[1033],[],[3111],[],[],[3074],[],[],[3057],"[1028, 1036]",[],[3044],[],[],[3078],[],"[1033, 1029]",[],[],[3052],[],[],[]
participant_7_SOLD,[],[],[],[],[2003],[],[2055],"[1036, 1006]",[],[],[],[],[],[],"[1001, 1033]",[],[],"[3077, 1053]",[],[],[],[],[],"[1028, 1036]",[],[],"[3057, 3044]",[],[],[],[],[],[],[],[]
participant_7_UNDO,[],[],[],[],[],[],[],[],[],[],[],[],[],[],[],[],[],[],[],[],[],[],[],[],[],[],[],[],"[[0, 1033]]",[],[],[],[],[],[]
participant_8_GOLD,500,500,591,860,1176,1501,1652,2239,2361,2744,3132,3722,3865,4657,4779,5921,6454,6735,6858,7154,7630,8266,8589,8878,9551,9989,10243,11100,11534,11987,12109,12504,12761,13035,13099
participant_8_CURRENTGOLD,500,0,91,360,676,1001,52,639,186,569,957,1547,90,882,104,126,659,940,563,859,535,1171,194,483,1156,294,198,1055,1490,1042,215,610,866,41,-96
participant_8_LEVEL,1,1,1,2,3,4,4,4,5,5,6,7,7,8,8,8,9,10,10,10,10,11,11,11,12,12,13,13,14,14,14,14,14,14,14
participant_8_MINIONSKILLED,0,0,4,12,21,30,32,35,35,47,57,63,64,72,72,78,89,94,94,100,104,109,109,114,116,117,120,122,126,128,128,133,133,133,133
participant_8_KILLS,0,0,0,0,0,0,2,2,2,2,2,2,2,3,3,4,4,5,6,6,6,8,8,8,8,8,8,9,9,9,9,9,9,9,9
participant_8_BUY,[],"[3850, 2003, 2003, 3340]",[],[],[],[],[],[],"[3136, 1001, 2055]",[],[],[],[],[3151],[],"[3020, 3364]",[],[],[3916],[],[1026],[],[],"[3165, 1026]",[],[1052],[],[3116],[],[],[1052],[],[],[3191],[]
participant_8_SOLD,[],[],[],[2003],[],[2003],[],[],[],[],"[2055, 3850]",[],[],[3136],[],"[1001, 3340]",[],[3851],[],[],[],[],[],"[3916, 1026]",[],[],[],"[1026, 1052]",[],[],[],[],[],[1052],[]
participant_8_UNDO,[],[],[],[],[],[],[],[],[],[],[],[],[],[],[],[],[],[],[],[],[],[],[],[],[],[],[],[],[],[],[],[],[],[],[]
participant_9_GOLD,500,500,553,747,948,1112,2018,2352,2500,2885,3217,3584,3753,4241,4503,5175,5416,6322,6886,7068,7451,8345,8791,8931,9224,9664,9909,10499,10789,11030,11170,11458,11787,11927,12001
participant_9_CURRENTGOLD,500,0,53,247,448,612,1518,1852,125,510,842,1209,1378,266,528,400,641,1547,511,693,226,1120,1566,306,599,604,849,124,415,655,360,648,977,453,526
participant_9_LEVEL,1,1,1,2,3,4,5,5,6,6,7,7,7,8,8,9,9,10,11,11,11,12,12,12,13,13,14,14,14,14,14,15,15,15,15
participant_9_MINIONSKILLED,0,0,0,0,1,1,2,6,7,11,13,13,15,15,20,20,20,21,27,30,33,40,41,41,45,45,52,52,52,52,52,62,74,74,74
participant_9_KILLS,0,0,0,0,0,0,0,1,1,1,1,2,2,3,3,4,4,4,4,4,4,4,4,4,5,5,5,7,7,8,8,8,8,8,8
participant_9_BUY,[],"[1055, 2003, 3340]",[],[],[],[],"[1001, 1036, 1036, 2003, 2003]",[],"[3133, 2003, 2003, 2055]",[],[],[],"[1038, 1042]",[],[3508],[1038],[],[],[3006],[],[1018],[],[3031],[],[],[1038],[1036],[],[],"[1053, 1036]",[3072],[],[],"[1018, 1042]",[]
participant_9_SOLD,[],[],[],[2003],[],[],[],"[2003, 2003]","[1036, 1036]",[2055],[],[],[2003],[],"[1038, 3133]","[2003, 1055]",[],[2003],"[1001, 1042]",[],[],[],"[1038, 1018]",[],[],[],[],[],[],[1036],"[1038, 1036, 1053]",[],[],[],[]
participant_9_UNDO,[],[],[],[],[],[],[],[],[],[],[],[],[],[],[],"[[2003, 0]]",[],[],[],[],[],[],[],[],[],[],[],[],[],[],[],[],[],[],[]
team0_KILLS,0,0,0,0,1,1,2,2,2,2,3,5,6,7,8,9,11,12,12,12,12,14,17,18,19,19,19,21,22,25,25,25,26,28,28
team0_CURRENTGOLD,2500,3,451,1749,3806,3257,3678,2361,3928,2965,3814,5552,5588,3495,6254,3828,4725,4024,1275,1931,2078,2919,5062,3825,3862,2252,3464,3562,4013,6136,2902,3244,3647,3282,2089
team0_TOTALGOLD,2500,2503,2951,4249,6306,7492,9098,10206,11773,13185,15049,17137,19073,20695,23454,25128,27125,29757,30618,32088,33386,36627,39470,42257,43595,44636,46396,48185,50604,53828,54994,56725,58178,60063,60392
team0_LEVEL,5,5,7,12,18,21,23,26,29,31,34,38,40,42,44,45,48,50,50,52,54,54,60,60,61,63,65,67,68,71,72,75,75,77,77
team0_SBIRES,0,1,11,33,65,89,108,133,167,193,218,245,279,295,326,333,354,378,386,415,436,448,463,482,494,517,541,549,581,604,622,647,661,675,675
team1_KILLS,0,0,0,0,0,1,3,5,5,6,7,8,9,12,13,16,17,21,23,26,26,29,31,31,33,33,33,38,38,40,40,40,40,44,45
team1_CURRENTGOLD,2500,0,461,2011,2768,4293,3635,4916,1909,4385,5253,5830,3273,2555,2659,4100,5641,6114,4842,7411,2170,3937,3511,2866,3522,4366,2179,4303,4099,4884,4266,2705,3658,5180,5368
team1_TOTALGOLD,2500,2500,2961,4511,5843,7368,9360,11466,12644,15120,17188,19030,20373,22955,24984,28345,31156,34004,36282,38851,40710,43227,45621,46875,49522,52101,53414,56854,58849,60536,61800,63441,64393,67679,68761
team1_LEVEL,5,5,6,13,17,22,25,27,29,32,36,38,39,43,45,46,50,52,56,57,58,61,62,64,66,68,71,72,74,75,76,78,78,79,79
team1_SBIRES,0,0,12,43,70,92,110,137,162,195,222,240,254,282,300,317,345,356,382,411,432,454,457,475,493,494,519,530,536,540,551,580,592,607,613
delta_KILLS,0,0,0,0,1,0,-1,-3,-3,-4,-4,-3,-3,-5,-5,-7,-6,-9,-11,-14,-14,-15,-14,-13,-14,-14,-14,-17,-16,-15,-15,-15,-14,-16,-17
delta_CURRENTGOLD,0,3,-10,-262,1038,-1036,43,-2555,2019,-1420,-1439,-278,2315,940,3595,-272,-916,-2090,-3567,-5480,-92,-1018,1551,959,340,-2114,1285,-741,-86,1252,-1364,539,-11,-1898,-3279
delta_TOTALGOLD,0,3,-10,-262,463,124,-262,-1260,-871,-1935,-2139,-1893,-1300,-2260,-1530,-3217,-4031,-4247,-5664,-6763,-7324,-6600,-6151,-4618,-5927,-7465,-7018,-8669,-8245,-6708,-6806,-6716,-6215,-7616,-8369
delta_LEVEL,0,0,1,-1,1,-1,-2,-1,0,-1,-2,0,1,-1,-1,-1,-2,-2,-6,-5,-4,-7,-2,-4,-5,-5,-6,-5,-6,-4,-4,-3,-3,-2,-2
delta_SBIRES,0,1,-1,-10,-5,-3,-2,-4,5,-2,-4,5,25,13,26,16,9,22,4,4,4,-6,6,7,1,23,22,19,45,64,71,67,69,68,62
