name,frame_0,frame_1,frame_2,frame_3,frame_4,frame_5,frame_6,frame_7,frame_8,frame_9,frame_10,frame_11,frame_12,frame_13,frame_14,frame_15,frame_16,frame_17,frame_18,frame_19,frame_20,frame_21,frame_22,frame_23,frame_24,frame_25,frame_26,frame_27,frame_28,frame_29,frame_30,frame_31,frame_32,frame_33,frame_34,frame_35,frame_36,frame_37,frame_38,frame_39
nameStamp,Tstart,Tearly,Tearly,Tearly,Tearly,Tearly,Tearly,Tearly,Tearly,Tearly,Tearly,Tearly,Tearly,Tearly,Tearly,Tearly,Tmid,Tmid,Tmid,Tmid,Tmid,Tmid,Tmid,Tmid,Tmid,Tmid,Tmid,Tmid,Tend,Tend,Tend,Tend,Tend,Tend,Tend,Tend,Tend,Tend,Tend,Tend
timestamp,0,60018,120042,180048,240053,300061,360085,420098,480099,540116,600128,660132,720134,780165,840184,900194,960226,1020251,1080279,1140297,1200319,1260345,1320367,1380374,1440404,1500421,1560428,1620453,1680460,1740461,1800494,1860516,1920533,1980549,2040579,2100604,2160610,2220614,2280630,2340630
participant_0_GOLD,500,500,584,941,1134,1347,1718,1910,2262,2660,2936,3309,3642,3939,4471,4668,4945,5230,5519,6261,6599,6931,7174,7395,8206,8678,8995,10318,10857,11390,12688,13198,15169,15291,15414,15536,16215,16619,16956,17267
participant_0_CURRENTGOLD,500,0,84,441,634,847,1218,60,412,810,1086,1459,1792,2089,2621,68,345,55,294,1036,474,806,1049,20,831,1303,295,318,257,791,2088,278,2250,2372,2494,317,995,1400,1737,1867
participant_0_LEVEL,1,1,1,2,3,3,5,5,5,6,6,7,7,8,8,8,9,9,9,10,10,11,11,11,12,12,12,13,14,14,15,15,16,16,16,16,16,17,17,18
participant_0_MINIONSKILLED,0,0,3,15,19,24,36,40,50,63,72,83,91,101,112,112,121,130,135,147,156,164,169,175,195,203,210,223,233,248,264,269,285,285,285,285,292,295,299,307
participant_0_KILLS,0,0,0,0,0,0,0,0,0,0,0,0,0,0,0,0,0,0,0,0,0,0,0,0,1,1,1,2,2,2,4,4,8,8,8,8,9,9,9,9
participant_0_BUY,[],"[1055, 2003]",[],[],[],[],[],"[6670, 2003]",[],[],[],[],[],[],[],"[6672, 1042, 1042, 1001, 2003]",[],"[3006, 2055, 3363]",[2003],[1018],"[1037, 1018, 1018, 1042]",[],[],"[3086, 1037, 2055]",[],[],[3085],[1038],[1018],[],[],"[3031, 2015, 1042]",[],[],[],"[3094, 1018]",[],[],[],[]
participant_0_SOLD,[],[],[],[],[],[],[2003],[],[],[],[2003],[],[],[],[],[6670],[],"[1001, 1042, 3340]",[],"[2055, 2003]",[],[],[2003],"[1018, 1042]",[2055],[],"[1037, 3086]",[],[],[],[],"[1038, 1018, 1055]",[],[],[],"[1042, 2015]",[],[],[],[]
participant_0_UNDO,[],[],[],[],[],[],[],[],[],[],[],[],[],[],[],"[[0, 1042]]",[],[],[],"[[0, 1018]]","[[0, 1037], [0, 1018]]",[],[],[],[],[],[],[],[],[],[],[],[],[],[],[],[],[],[],[]
participant_1_GOLD,500,500,621,1018,1339,1536,1934,2191,2511,2634,3076,3368,3752,4094,4507,4848,5742,6419,6875,7848,8231,8354,8513,8636,9193,9386,9744,10141,10378,10501,10886,11163,11618,12224,12591,12832,13436,14354,15102,15384
participant_1_CURRENTGOLD,500,0,121,518,839,1036,1434,241,561,684,1126,1418,52,394,807,1148,1192,1869,2325,8,391,514,673,296,853,1047,204,601,839,161,96,374,828,1435,302,543,1147,714,813,1034
participant_1_LEVEL,1,1,2,3,4,4,5,5,6,6,7,7,8,8,9,9,10,10,11,11,12,12,12,12,13,13,13,14,14,14,15,15,15,16,16,16,17,18,18,18
participant_1_MINIONSKILLED,0,0,0,0,1,1,1,1,1,1,1,6,6,6,6,6,12,12,13,13,15,15,15,15,17,18,18,18,23,23,23,23,25,30,36,39,43,50,69,72
participant_1_KILLS,0,0,0,0,0,0,0,0,0,0,0,0,0,0,0,0,1,2,2,4,4,4,4,4,4,4,4,4,4,4,4,4,4,4,4,4,5,7,7,7
participant_1_BUY,[],"[1039, 2031]",[],[],[],[],[],"[6660, 1033]",[],[],[],[],[3068],[],[],[],"[1033, 1028]",[],[],"[3065, 1057, 1028]",[],[],[],[1011],[],[],"[3001, 1001]",[],[],[3111],[1033],[],[],[],"[3105, 1033]",[],[],[3193],"[1028, 3801]",[]
participant_1_SOLD,[],[],[],[],[],[],[],[],[],[],[1039],[],"[6660, 1033]",[],[],[],[],[],[],"[1028, 1033, 2031]",[3340],[],[],[1028],[3513],[],"[1011, 1057]",[],[],[1001],[],[],[],[],[1033],[],[],"[3105, 1033]",[1028],[]
participant_1_UNDO,[],[],[],[],[],[],[],[],[],[],[],[],[],[],[],[],[],[],[],[],[],[],[],[],[],[],[],[],[],[],[],[],[],[],[],[],[],[],[],[]
participant_2_GOLD,500,500,521,692,885,1349,1507,2067,2218,2424,2638,2844,3072,3216,3475,3654,3860,4066,4349,4535,4772,4894,5516,5639,6111,6374,6630,7117,7261,7605,7765,7908,8231,8375,8582,8739,8968,9104,9428,9620
participant_2_CURRENTGOLD,500,0,21,192,385,849,157,717,118,324,538,244,472,366,625,104,310,516,299,485,722,44,666,289,761,1044,1300,787,131,475,185,328,651,395,602,759,988,724,1049,1220
participant_2_LEVEL,1,1,1,2,3,4,5,6,6,7,8,8,8,8,9,9,10,10,11,11,11,11,11,12,12,12,12,13,13,13,13,14,14,14,15,15,15,15,16,16
participant_2_MINIONSKILLED,0,0,0,3,7,9,11,18,20,25,31,36,39,40,44,47,52,57,62,63,64,64,64,64,64,65,68,68,69,74,74,75,76,77,77,79,82,83,90,92
participant_2_KILLS,0,0,0,0,0,1,1,2,2,2,2,2,2,2,2,2,2,2,2,2,2,2,3,3,4,4,4,5,5,5,5,5,5,5,5,5,5,5,5,5
participant_2_BUY,[],"[1033, 2003]",[],[],[],[],"[1029, 1028, 2003, 2003, 2003]",[],[3105],[],[],"[1028, 2003, 2003]",[],"[6660, 2003]",[],[3068],[],[],"[1029, 1028, 2003, 2003]",[],[],"[1011, 1029]",[],[3076],[],[],[],[3075],"[1033, 1028, 1028, 3067]",[],[1033],[],[],[1028],[],[],[],[3211],[],[]
participant_2_SOLD,[],[],[],[],"[2003, 2010]",[2010],[],[2010],"[1033, 1029]","[2003, 2003]",[],[],"[2003, 2003]","[1028, 1028]","[2003, 2003]","[6660, 3105]",[],[],[],[],[2003],[1028],[],[1029],[],[2003],[],"[3076, 1011]",[1028],[],[],[],[],[],[],[],[],"[1028, 1033]",[],[]
participant_2_UNDO,[],[],[],[],[],[],[],[],[],[],[],[],[],[],[],[],[],[],"[[0, 1029]]",[],[],[],[],[],[],[],[],[],"[[0, 1033], [0, 1028]]",[],[],[],[],[],[],[],[],[],[],[]
participant_3_GOLD,500,500,523,738,887,1021,1236,1370,1608,1764,1933,2068,2301,2455,2871,3347,3487,3657,3923,4113,4365,4505,4683,4844,5049,5322,5463,5717,5858,5998,6206,6360,6911,7093,7244,7412,7678,7839,8069,8170
participant_3_CURRENTGOLD,500,0,23,238,387,46,261,20,258,414,583,718,951,1105,1521,1997,612,782,1048,388,640,80,258,419,549,822,963,417,158,298,506,660,1211,294,444,612,878,239,470,570
participant_3_LEVEL,1,1,1,2,3,3,4,4,5,5,6,6,7,7,7,8,8,9,9,10,10,10,10,10,11,11,11,12,12,12,13,13,14,14,14,14,15,15,15,15
participant_3_MINIONSKILLED,0,0,0,2,3,3,5,5,8,9,11,11,13,14,17,19,19,19,22,22,24,24,24,25,26,26,26,27,27,27,28,29,29,32,33,35,35,36,37,37
participant_3_KILLS,0,0,0,0,0,0,0,0,0,0,0,0,0,0,0,1,1,1,1,1,1,1,1,1,1,1,1,1,1,1,1,1,2,2,2,2,2,2,2,2
participant_3_BUY,[],"[3858, 2003, 2003]",[],[],[],"[1028, 2055]",[],"[1001, 2055]",[],[],[],[],[],[],[],[],"[3067, 3066, 1004, 2055]",[],[],[2065],[],[3117],[],[],"[3364, 2055]",[],[],[3067],[1028],[],[],[],[],[3109],[],[],[],[3067],[],[]
participant_3_SOLD,[],[2003],[],[],[],"[2003, 2010]",[2055],[],[],[],"[2010, 2055]",[2010],[],[3858],[],[],[1028],[2055],[],"[3067, 1004, 3066]",[],[1001],[],[3859],[3340],[2055],[],[],[],[],[],[],[],"[1028, 3067]",[],[],[],[],[],[]
participant_3_UNDO,[],[],[],[],[],[],[],[],[],[],[],[],[],[],[],[],[],[],[],[],[],[],[],[],[],[],[],[],[],[],[],[],[],[],[],[],[],[],[],[]
participant_4_GOLD,500,500,584,836,1071,1303,1569,1775,2120,2634,2861,3047,3546,3794,3938,4186,4480,4968,5111,5987,6578,6701,6902,7025,7182,7522,7707,7865,8182,8423,9061,9240,9612,9930,10184,10459,10721,11162,11548,11726
participant_4_CURRENTGOLD,500,0,84,326,561,793,1049,105,440,954,231,117,616,864,608,856,1150,1638,81,957,1548,81,282,405,562,902,287,145,462,703,1341,185,558,710,964,140,401,408,294,341
participant_4_LEVEL,1,1,1,3,4,5,5,6,7,8,8,8,9,9,9,10,10,11,11,12,12,12,12,12,13,13,13,14,14,14,15,15,15,15,16,16,16,16,17,17
participant_4_MINIONSKILLED,0,0,3,8,14,16,21,26,37,43,50,53,58,66,67,71,77,86,87,92,99,99,102,102,104,109,113,115,122,125,127,130,131,138,142,147,151,157,165,166
participant_4_KILLS,0,0,0,0,0,0,0,0,0,1,1,1,2,2,2,2,2,2,2,4,5,5,5,5,5,5,5,5,5,5,6,6,6,6,6,6,6,6,6,6
participant_4_BUY,[],"[1056, 2003, 2003, 3340]",[],[],[],[],[],"[3145, 2003, 2003]",[],[],"[1028, 1026, 2003, 2003]",[1001],[],[],[1028],[],[],[],"[3152, 3916]",[],[],"[1026, 1028, 3165, 2003]",[],[],[],[],[3020],[1029],[],[],[],"[3108, 1052]",[],[3191],[],"[3157, 1028]",[],[1052],[1011],[]
participant_4_SOLD,[],[],[],[2003],[2010],"[2003, 2010]",[],[],[],"[2003, 2010, 2003]",[],[2003],[],[],[],[2003],[],[],"[3145, 1028, 1026]",[],[],"[1056, 1026, 3916, 1028]",[2003],[],[],[],[1001],[],[],[],[],[],[],"[1052, 1029]",[],"[3191, 3108]",[],[],[1028],[]
participant_4_UNDO,[],[],[],[],[],[],[],[],[],[],"[[0, 1028]]",[],[],[],[],[],[],[],[],[],[],[],[],[],[],[],[],[],[],[],[],[],[],[],[],[],[],[],[],[]
participant_5_GOLD,500,500,628,963,1271,1718,2003,2253,2665,2837,3121,3616,3908,4215,4712,5054,5362,5934,6127,6619,7307,7943,8470,9179,9301,9672,9935,10382,10879,11137,11514,11661,11799,11921,12164,12612,13118,13290,13497,13751
participant_5_CURRENTGOLD,500,0,128,463,771,1218,1503,378,790,962,1246,1741,933,1240,1737,2079,187,759,952,194,882,1518,2045,2754,326,697,960,907,405,662,1039,287,424,547,790,1237,1743,1976,183,376
participant_5_LEVEL,1,1,2,3,3,4,5,5,6,6,7,8,8,8,9,9,10,10,11,11,11,12,12,13,13,13,14,14,15,15,15,15,15,15,15,16,17,17,17,17
participant_5_MINIONSKILLED,0,0,0,0,0,0,4,4,4,7,8,9,9,9,10,10,10,11,11,11,11,11,11,17,17,18,19,19,19,19,20,20,21,21,22,22,30,30,30,31
participant_5_KILLS,0,0,0,0,0,0,0,0,0,0,0,0,0,0,0,0,0,1,1,2,3,3,4,4,4,4,4,4,4,4,4,4,4,4,4,4,4,4,4,4
participant_5_BUY,[],"[1039, 2031, 3340]",[],[],[],[],[],"[6660, 1001, 2055, 3364]",[],[],[],[],"[3111, 1029]",[],[],[],"[3068, 1029]",[],[],[3211],[],[],[],[],"[3065, 3076, 1028]",[],[],[1011],[3075],[],[],[1057],[],[],[],[],[],[],[4401],[]
participant_5_SOLD,[],[],[],[],[],[],[],[3340],[],[],[],[],[1001],[2055],[],[],"[6660, 1029]",[1039],[],[],[],[],[],[],"[3211, 1029]",[],[],[1028],"[3076, 1011]",[],[],[],[],[],[],[],[],[2031],[1057],[]
participant_5_UNDO,[],[],[],[],[],[],[],[],[],[],[],[],[],[],[],[],[],[],[],[],[],[],[],[],[],[],[],[],[],[],[],[],[],[],[],[],[],[],[],[]
participant_6_GOLD,500,500,563,860,1158,1357,1791,2018,2196,2424,3128,3765,4208,5092,5478,6246,6453,6575,7207,7434,7831,8800,9082,9381,9938,10110,10429,10852,11009,11327,11639,11761,11884,12084,12255,12705,13081,13504,14043,14649
participant_6_CURRENTGOLD,500,0,63,360,658,57,491,718,161,389,1093,1730,8,892,1278,2046,2253,125,757,134,531,1500,132,431,588,760,1080,252,154,473,284,407,530,729,901,1351,1727,185,724,1149
participant_6_LEVEL,1,1,1,3,4,4,6,6,6,7,8,9,9,10,11,11,12,12,12,12,13,14,14,14,14,14,14,15,15,15,15,16,16,16,16,16,17,17,17,18
participant_6_MINIONSKILLED,0,0,2,12,22,22,38,44,47,53,64,72,73,87,98,109,114,114,119,121,125,136,136,136,136,136,148,148,150,155,156,156,156,156,159,161,166,175,176,179
participant_6_KILLS,0,0,0,0,0,0,0,0,0,0,1,1,2,3,3,3,3,3,4,4,4,5,5,5,6,6,6,6,6,6,6,6,6,6,6,6,6,6,6,7
participant_6_BUY,[],"[1054, 3340, 2003]",[],[],[],[3916],[],[],"[1052, 1001]",[],[],[],"[4635, 1026, 1033]",[],[],[],[],"[3111, 4633, 1026]",[],"[1028, 3165]",[],[],"[3211, 1028]",[],[3067],[],[],"[3065, 1028]",[1052],[],[1011],[],[],[],[],[],[],"[4637, 1029]",[],[]
participant_6_SOLD,[],[],[],[],[],[2003],[],[],[],[],[],[],[1052],[],[],[],[],"[1001, 1033, 4635, 1026]",[],"[1026, 3916, 1028]",[],[],[],[],[1028],[],[],"[3211, 3067]",[1054],[],[1028],[],[],[],[],[],[],"[1011, 1052]",[],[]
participant_6_UNDO,[],[],[],[],[],[],[],[],[],[],[],[],[],[],[],[],[],[],[],[],[],[],[],[],[],[],[],[],[],[],[],[],[],[],[],[],[],[],[],[]
participant_7_GOLD,500,560,583,717,932,1086,1261,1437,1611,1806,1960,2267,2476,2656,2886,3097,3267,3648,3952,4188,4373,4733,4948,5511,5801,6022,6190,6757,7119,7482,7798,7938,8101,8241,8381,8822,9725,9915,10115,11333
participant_7_CURRENTGOLD,500,60,83,217,432,586,111,287,461,656,810,1117,1326,1506,266,477,647,1028,1332,68,253,613,828,1391,31,252,420,37,399,762,278,418,581,171,312,752,1655,95,296,1483
participant_7_LEVEL,1,1,1,2,3,4,4,5,5,6,6,7,7,8,8,8,9,9,10,10,10,11,11,12,12,12,12,13,13,14,14,14,14,14,14,15,15,15,15,16
participant_7_MINIONSKILLED,0,0,0,0,0,0,0,2,2,2,2,7,8,8,11,12,13,14,15,15,17,18,18,19,19,20,22,22,27,35,35,35,36,36,36,36,39,39,41,44
participant_7_KILLS,0,0,0,0,0,0,0,0,0,0,0,0,0,0,0,0,0,0,0,0,0,0,0,0,0,0,0,0,0,0,0,0,0,0,0,0,1,1,1,2
participant_7_BUY,[],"[3850, 2003, 2003, 3340]",[],[],[],[],"[1029, 1001, 2003]",[],[],[],[],[],[],[],"[3191, 3108]",[],[],[],[],"[3157, 4642]",[],[],[],[],[4005],[],[],"[3117, 1004]",[],[],[3067],[],[],[3114],[],[],[],"[3107, 3145]",[],[]
participant_7_SOLD,[],[],[],[],[],"[2003, 2010, 2010]",[],[],[],[],[],[],[3850],[],"[1029, 2010]",[2419],[],[],[],"[2423, 3191, 3108, 2424]",[],[3851],[],"[2003, 2003]",[4642],[],[],[1001],[],[],[],[],[],[1004],[],[],[],"[3067, 3114]",[],[]
participant_7_UNDO,[],[],[],[],[],[],[],[],[],[],[],[],[],[],[],[],[],[],[],[],[],[],[],[],[],[],[],[],[],[],[],[],[],[],[],[],[],[],[],[]
participant_8_GOLD,500,500,584,867,1260,2012,2135,2568,2934,3176,3431,3631,4006,4296,4433,4960,5324,6024,6377,6596,6899,7593,7896,9518,9690,10374,10560,10982,11167,11548,12489,12611,12839,12961,13474,13998,14441,14613,14792,16361
participant_8_CURRENTGOLD,500,0,84,367,760,1512,85,518,884,1126,1381,181,556,846,123,350,714,1414,1767,136,439,1133,1436,3058,480,1164,1350,472,658,1038,1979,102,329,452,965,1488,1931,104,283,1611
participant_8_LEVEL,1,1,1,2,3,4,4,5,5,6,6,6,7,7,7,8,8,9,9,9,10,11,11,12,12,12,12,13,13,13,14,14,14,14,14,15,15,15,16,16
participant_8_MINIONSKILLED,0,0,3,12,25,35,35,51,62,68,76,81,92,102,103,105,115,126,135,136,142,150,157,166,166,179,183,183,187,198,211,211,213,213,225,227,230,230,233,234
participant_8_KILLS,0,0,0,0,0,1,1,1,1,1,1,1,1,1,1,2,2,3,3,3,3,4,4,7,7,7,7,7,7,7,7,7,7,7,7,7,7,7,7,9
participant_8_BUY,[],"[1055, 2003, 3340]",[],[],[],[],"[3006, 1042, 2031]",[],[],[],[],"[6677, 1018, 1042]",[],[],[3124],[1042],[],[],[],"[1053, 1018, 1036]",[],[],[],[],"[6673, 1053, 1018]",[],[],[1038],[],[],[],"[3072, 3133, 1029]",[],[],[],[],[],"[6333, 1029]",[],[]
participant_8_SOLD,[],[],[],[],[2003],[],[],[],[],[],[],[1042],[],[],"[2031, 1055, 6677, 1018, 1042]",[],[],[],[],[],[],[],[],[],"[1036, 1042, 1018, 1053]",[],[],[],[],[],[],"[1038, 1018, 1053]",[],[],[],[],[],"[1029, 3133]",[],[]
participant_8_UNDO,[],[],[],[],[],[],[],[],[],[],[],[],[],[],[],[],[],[],[],[],[],[],[],[],[],[],[],[],[],[],[],[],[],[],[],[],[],[],[],[]
participant_9_GOLD,500,500,570,776,1088,1280,1560,1836,2118,2241,2538,3155,3382,3804,4510,4913,5204,5521,5790,6115,6641,6814,6936,8056,8178,8524,8647,9069,9282,9405,9977,10099,10223,10353,10565,11072,12017,12189,12311,12795
participant_9_CURRENTGOLD,500,0,70,276,588,345,265,541,198,321,618,325,552,974,120,523,814,1131,1400,475,1001,174,296,1416,1538,549,672,629,843,265,402,125,248,379,591,1097,2042,50,172,695
participant_9_LEVEL,1,1,1,3,4,4,5,6,6,7,7,8,8,9,9,10,10,11,11,11,12,12,12,13,13,13,13,14,14,14,14,14,14,14,14,15,15,15,15,16
participant_9_MINIONSKILLED,0,0,3,8,19,23,29,38,44,44,54,62,68,76,79,89,99,106,114,122,133,133,133,134,134,140,140,140,145,145,145,145,145,145,146,151,159,159,159,163
participant_9_KILLS,0,0,0,0,0,0,0,0,0,0,0,1,1,1,2,2,2,2,2,2,2,2,2,4,4,4,4,4,4,4,5,5,5,5,5,5,6,6,6,6
participant_9_BUY,[],"[3070, 3070, 2003, 2003]",[],[],[],[1052],[1027],[],"[3802, 2003, 2003]",[],[],[3108],[],[],"[6653, 1027]",[],[],[],[],[1058],[],[3003],[],[],[],"[3108, 1029, 1052]",[],[3191],[],[3157],[1052],[1028],[],[],[],[],[],"[1011, 1026, 4637]",[],[]
participant_9_SOLD,[],[],[],[],[],"[2003, 2003]",[],[],"[1052, 1027]",[],[],[],[2003],[2003],"[3802, 3108]",[],[],[],[],[],[],"[3070, 1058, 1027]",[],[],[3003],[],[],[1052],[],"[3191, 3108]",[],[],[],[],[],[],[],"[1028, 1026, 1011, 1052]",[],[]
participant_9_UNDO,[],"[[0, 3070]]",[],[],[],[],[],[],[],[],[],[],[],[],[],[],[],[],[],[],[],[],[],[],[],"[[0, 1029]]",[],[],[],[],[],[],[],[],[],[],[],[],[],[]
team0_KILLS,0,0,0,0,0,1,1,2,2,3,3,3,4,4,4,5,6,7,7,11,12,12,13,13,15,15,15,17,17,17,20,20,25,25,25,25,27,29,29,29
team0_CURRENTGOLD,2500,0,333,1715,2806,3571,4119,1143,1789,3186,3564,3956,3883,4818,6182,4173,3609,4860,4047,2874,3775,1525,2928,1429,3556,5118,3049,2268,1847,2428,4216,1825,5498,5206,4806,2371,4409,3485,4363,5032
team0_TOTALGOLD,2500,2500,2833,4225,5316,6556,7964,9313,10719,12116,13444,14636,16313,17498,19262,20703,22514,24340,25777,28744,30545,31385,32788,33539,35741,37282,38539,41158,42536,43917,46606,47869,51541,52913,54015,54978,57018,59078,61103,62167
team0_LEVEL,5,5,6,12,17,19,24,26,29,32,35,36,39,40,42,44,47,49,51,54,55,56,56,57,61,61,61,66,67,67,71,72,74,75,77,77,79,81,83,84
team0_SBIRES,0,0,6,28,44,53,74,90,116,141,165,189,207,227,246,255,281,304,319,337,358,366,374,381,406,421,435,451,474,497,516,526,546,562,573,585,603,621,660,674
team1_KILLS,0,0,0,0,0,1,1,1,1,1,2,3,4,5,6,7,7,9,10,11,12,14,15,20,21,21,21,21,21,21,22,22,22,22,22,22,24,24,24,28
team1_CURRENTGOLD,2500,60,428,1683,3209,3718,2455,2442,2494,3454,5148,5094,3375,5458,3524,5475,4615,4457,6208,1007,3106,4938,4737,9050,2963,3422,4482,2297,2459,3200,3982,1339,2112,2278,3559,5925,9098,2410,1658,5314
team1_TOTALGOLD,2500,2560,2928,4183,5709,7453,8750,10112,11524,12484,14178,16434,17980,20063,22019,24270,25610,27702,29453,30952,33051,35883,37332,41645,42908,44702,45761,48042,49456,50899,53417,54070,54846,55560,56839,59209,62382,63511,64758,68889
team1_LEVEL,5,5,6,13,17,20,24,27,28,32,34,38,39,42,44,46,49,51,53,53,56,60,60,64,64,64,65,69,70,71,72,73,73,73,73,77,79,79,80,83
team1_SBIRES,0,0,8,32,66,80,106,139,159,174,204,231,250,282,301,325,351,371,394,405,428,448,455,472,472,493,512,512,528,552,567,567,571,571,588,597,624,633,639,651
delta_KILLS,0,0,0,0,0,0,0,1,1,2,1,0,0,-1,-2,-2,-1,-2,-3,0,0,-2,-2,-7,-6,-6,-6,-4,-4,-4,-2,-2,3,3,3,3,3,5,5,1
delta_CURRENTGOLD,0,-60,-95,32,-403,-147,1664,-1299,-705,-268,-1584,-1138,508,-640,2658,-1302,-1006,403,-2161,1867,669,-3413,-1809,-7621,593,1696,-1433,-29,-612,-772,234,486,3386,2928,1247,-3554,-4689,1075,2705,-282
delta_TOTALGOLD,0,-60,-95,42,-393,-897,-786,-799,-805,-368,-734,-1798,-1667,-2565,-2757,-3567,-3096,-3362,-3676,-2208,-2506,-4498,-4544,-8106,-7167,-7420,-7222,-6884,-6920,-6982,-6811,-6201,-3305,-2647,-2824,-4231,-5364,-4433,-3655,-6722
delta_LEVEL,0,0,0,-1,0,-1,0,-1,1,0,1,-2,0,-2,-2,-2,-2,-2,-2,1,-1,-4,-4,-7,-3,-3,-4,-3,-3,-4,-1,-1,1,2,4,0,0,2,3,1
delta_SBIRES,0,0,-2,-4,-22,-27,-32,-49,-43,-33,-39,-42,-43,-55,-55,-70,-70,-67,-75,-68,-70,-82,-81,-91,-66,-72,-77,-61,-54,-55,-51,-41,-25,-9,-15,-12,-21,-12,21,23
