name,frame_0,frame_1,frame_2,frame_3,frame_4,frame_5,frame_6,frame_7,frame_8,frame_9,frame_10,frame_11,frame_12,frame_13,frame_14,frame_15,frame_16,frame_17,frame_18,frame_19,frame_20,frame_21,frame_22,frame_23,frame_24,frame_25,frame_26,frame_27,frame_28,frame_29,frame_30,frame_31,frame_32,frame_33,frame_34,frame_35,frame_36,frame_37
nameStamp,Tstart,Tearly,Tearly,Tearly,Tearly,Tearly,Tearly,Tearly,Tearly,Tearly,Tearly,Tearly,Tearly,Tearly,Tearly,Tearly,Tmid,Tmid,Tmid,Tmid,Tmid,Tmid,Tmid,Tmid,Tmid,Tmid,Tmid,Tmid,Tmid,Tmid,Tmid,Tmid,Tmid,Tmid,Tmid,Tmid,Tmid,Tmid
timestamp,0,60022,120035,180061,240086,300095,360110,420123,480153,540159,600175,660204,720217,780261,840261,900293,960314,1020317,1080324,1140334,1200354,1260366,1320382,1380398,1440405,1500419,1560446,1620478,1680486,1740505,1800524,1860539,1920544,1980559,2040575,2100595,2160612,2220612
participant_0_GOLD,500,500,589,975,1300,1572,1709,1883,2020,2476,2779,2902,3399,4354,4476,5407,5636,6168,6857,6979,7376,7818,8129,8379,8501,8624,8835,9110,9473,9915,10687,11647,11992,12576,12831,13024,13196,13367
participant_0_CURRENTGOLD,500,0,89,475,800,1072,1209,283,120,576,879,127,624,1579,376,1307,1536,868,1557,79,476,18,329,759,881,1004,15,291,653,1095,1868,2827,3173,357,611,805,287,67
participant_0_LEVEL,1,1,1,2,4,5,5,6,6,7,7,8,8,9,9,10,10,11,11,11,12,12,12,13,13,13,13,13,13,14,14,15,16,16,16,16,16,16
participant_0_MINIONSKILLED,0,0,3,7,19,24,25,28,29,45,46,46,53,58,58,69,73,79,85,85,92,92,99,101,101,101,102,107,108,108,121,124,132,135,139,140,140,140
participant_0_KILLS,0,0,0,1,1,1,1,1,1,2,2,3,3,3,3,5,5,5,5,5,5,5,5,5,6,6,6,6,6,7,7,8,8,8,8,8,8,8
participant_0_BUY,[],"[1035, 2031, 3364]",[],[],[],[],"[3044, 1028]",[],[],[],[3057],[3067],[6632],[],[],[],"[1029, 3047, 1037]",[],[],"[3077, 1053]",[1036],[],[],[3074],[],[1036],[],[],"[3133, 1029]",[],[1031],[],[],[],[6333],[],[],[]
participant_0_SOLD,[],[],[],[],[],[],[],[],[],[1035],[],[1028],"[2010, 2010, 2010, 3044, 3057, 3067]",[],[],[],"[1029, 2422]",[3364],[3513],[1037],[],[],[],"[3077, 1053, 1036]",[],[],[],[],[1036],[],[1029],[],[],[],"[1031, 3133]",[],[],[]
participant_0_UNDO,[],[],[],[],[],[],[],[],[],[],[],[],[],[],[],[],[],[],[],[],[],[],[],[],[],[],[],[],[],[],[],[],[],[],[],[],[],[]
participant_1_GOLD,500,500,621,1368,1568,1767,2095,2407,2637,3068,3291,3609,3766,4086,4499,5311,5674,6243,6727,6849,7106,7355,7682,7940,8362,8504,8896,9208,9401,9844,10116,10760,11048,11320,11520,12013,12497,12752
participant_1_CURRENTGOLD,500,0,121,868,1068,1267,95,407,637,1068,591,509,56,376,789,1601,289,858,1342,239,146,395,722,130,552,344,736,1048,192,634,406,1050,1338,1610,611,1103,1587,1752
participant_1_LEVEL,1,1,2,3,3,4,4,5,5,6,6,6,7,7,8,9,9,10,11,11,11,11,12,12,12,12,13,13,13,13,14,14,14,15,15,15,16,16
participant_1_MINIONSKILLED,0,0,0,0,0,0,0,0,1,1,1,1,1,3,3,3,3,3,3,3,3,3,3,3,3,3,4,4,5,5,5,5,6,6,8,12,17,17
participant_1_KILLS,0,0,0,0,0,0,0,0,0,0,0,0,0,1,1,1,1,2,2,2,2,3,3,3,3,3,3,3,3,4,4,6,6,7,7,7,7,7
participant_1_BUY,[],"[1054, 2003, 3340]",[],[],[],[],[],[3051],[1001],[],[],[1037],[],[],[6631],[],[],[3077],[],"[3123, 3111]",[],[1053],[],[],[],[],[3074],[],[],[],[],[],[],"[3053, 1029]",[],[],[1053],[]
participant_1_SOLD,[],[],[],[],[2003],[],[],[],[],[],[],[],[],[],"[1037, 3051]",[],[],[],[],[1001],[],[],[],[1054],[],[],"[3077, 1053]",[],[],[],[],[],[],[],[],[],[1029],[]
participant_1_UNDO,[],[],[],[],[],[],[],[],[],[],[],[],[],[],[],[],[],[],[],[],[],[],[],[],[],[],[],[],[],[],[],[],[],[],[],[],[],[]
participant_2_GOLD,500,500,584,934,1441,1703,2301,2711,3406,3870,4384,4753,5185,5308,6275,6469,7415,7837,8596,9069,9614,10081,11504,11733,12169,12333,12536,12658,12830,13420,13613,13737,14612,14785,14907,15029,15700,16371
participant_2_CURRENTGOLD,500,0,84,424,181,433,1031,41,736,200,714,1073,1505,128,1095,74,1020,417,826,349,894,262,1684,1913,399,564,766,138,31,271,464,587,713,36,158,280,951,-3679
participant_2_LEVEL,1,1,1,3,4,5,6,7,8,8,9,9,10,10,11,11,12,12,12,12,13,13,14,14,14,14,15,15,15,15,15,15,15,15,15,15,16,17
participant_2_MINIONSKILLED,0,0,4,15,20,26,36,37,45,48,53,59,60,60,65,66,80,80,90,91,101,108,116,119,120,123,123,123,123,126,127,127,134,134,134,134,139,142
participant_2_KILLS,0,0,0,0,1,1,1,1,1,1,1,1,1,1,1,1,2,3,5,5,6,6,6,6,6,6,8,9,9,9,9,10,10,10,10,11,12,15
participant_2_BUY,[],"[2003, 1055, 3340]",[],[],"[2003, 2003, 2003, 1001]",[],[],[2003],"[1042, 1036]",[],[],"[1053, 1036, 2003, 2003]",[],[],[],[],[],[],[],"[6673, 2003, 2003, 2003, 3009, 1042, 1042]",[],[],[],[],"[3094, 2003, 2003]",[],[],[],[],[],[],"[1053, 1038, 1038, 1018]",[3072],[1018],[],[],[],[]
participant_2_SOLD,[],[],[],[2003],[],[2003],[],[],[],[],[2003],"[2003, 1036]",[2003],[],[2003],[],[],[2003],[],"[1036, 1042, 1053, 1001]",[],[],[2003],[],"[2003, 1042, 1042]",[],[],[],[],[],"[2003, 2003, 1055]",[2003],"[1038, 1018, 1053]",[],[],[],[],[]
participant_2_UNDO,[],[],[],[],[],[],[],[],[],[],[],[],[],[],[],[],[],[],[],[],[],[],[],[],[],[],[],[],[],[],[],"[[0, 1038]]",[],[],[],[],[],[]
participant_3_GOLD,500,500,542,790,1227,1447,1661,1881,2052,2331,2607,2847,2969,3275,3510,3923,4522,5023,5765,5963,6734,7026,7490,8034,8286,8594,9421,10103,10389,10850,11071,11714,12174,12346,12674,13230,13778,15514
participant_3_CURRENTGOLD,500,0,42,290,277,497,711,881,402,681,957,197,319,625,860,1273,1872,2373,3115,113,884,1176,1640,2184,236,544,1371,2053,2339,2800,3202,1064,924,497,825,1380,1929,3464
participant_3_LEVEL,1,1,1,2,2,3,4,4,5,5,6,6,6,7,7,8,8,9,9,9,10,10,11,11,11,12,12,13,13,13,13,14,15,15,15,15,16,17
participant_3_MINIONSKILLED,0,0,1,8,9,15,20,26,29,35,44,47,47,53,60,66,74,80,80,80,83,83,90,98,99,99,99,99,105,109,112,116,120,120,121,129,132,144
participant_3_KILLS,0,0,0,0,0,0,0,0,0,0,0,0,0,0,0,1,1,1,1,1,2,2,2,2,2,2,2,4,4,4,4,4,4,4,4,4,4,4
participant_3_BUY,[],"[3850, 3340]",[],[],[],[],[],[1004],[],[],[],"[4642, 1028]",[],[],[],[],[],[],[],"[6617, 3114]",[],[],[],[],"[3222, 1004]",[3114],[],[],[],[],[],"[6616, 1004]",[],[3114],[],[],[],[]
participant_3_SOLD,[],[],[],[],[],[],[],[],[],[],[],[1004],[],[],[],[],[],[],[],"[1028, 4642, 3850]",[],[],[],[],[3114],[1004],[],[],[],[],[],"[3114, 3851]",[],[1004],[],[],[],[]
participant_3_UNDO,[],[],[],[],[],[],[],[],[],[],[],[],[],[],[],[],[],[],[],[],[],[],[],[],[],[],[],[],[],[],[],[],[],[],[],[],[],[]
participant_4_GOLD,500,500,523,657,970,1104,1239,1393,1527,1682,1836,1971,2125,2259,2394,2958,3333,3624,4158,4391,4921,5062,5576,5931,6186,6327,6562,7398,7588,7728,7939,8250,8511,8702,8942,9253,9562,9997
participant_4_CURRENTGOLD,500,100,123,257,570,704,839,743,877,1032,1186,121,275,409,544,1108,1483,1774,2308,491,1021,1162,1676,2031,536,127,362,1198,1388,1528,1739,300,561,202,442,754,1063,1497
participant_4_LEVEL,1,1,1,2,3,4,5,5,5,6,6,7,7,7,7,8,8,9,9,9,10,10,11,11,11,11,11,12,12,12,13,13,14,14,14,14,15,16
participant_4_MINIONSKILLED,0,0,0,0,1,1,1,1,1,1,1,1,1,1,1,1,1,1,1,1,1,1,1,1,1,1,1,1,1,1,1,1,1,1,1,2,2,3
participant_4_KILLS,0,0,0,0,1,1,2,3,4,5,6,6,7,7,8,8,9,10,10,11,11,11,15,15,16,16,16,16,16,17,17,17,19,19,19,19,20,21
participant_4_BUY,[],"[1036, 2031, 3340]",[],[],[3134],[],[],"[3133, 1001]",[],[6691],[],[],[],"[3006, 1036, 1036]",[],"[3134, 1037]",[],[3142],[1036],[3155],[],[3133],[],[],"[3156, 1053, 1036]",[],[],[3134],"[3035, 3181]",[1036],[],[],[3133],[6694],[],[],[],"[1043, 3153]"
participant_4_SOLD,[],[],[],[],[1036],[],[],[],[],"[3134, 3133]",[],[],[],[1001],[],"[1036, 1036, 2031]",[],"[3134, 1037]",[],[1036],[],[],[],[],"[3155, 3133]",[],[],[1036],"[3156, 3134, 1053]",[],[],[],[1036],"[3133, 3035]",[],[],[],"[3142, 1043]"
participant_4_UNDO,[],[],[],[],[],[],[],[],[],[],[],[],[],[],[],[],[],[],[],[],[],[],[],[],[],[],[],[],[],[],[],[],[],[],[],[],[],[]
participant_5_GOLD,500,500,542,783,934,1242,1533,1739,2297,2469,2770,3666,3880,4098,4555,4762,5084,5206,5904,6334,6597,7165,7392,8007,10107,10635,11036,11333,11768,12044,14331,14685,14968,15562,15830,16137,16615,17055
participant_5_CURRENTGOLD,500,0,42,283,434,742,1033,139,697,69,370,1266,280,298,755,362,684,306,1004,634,897,365,242,857,2957,736,1136,1433,1868,125,2411,2765,359,952,1221,1528,2005,955
participant_5_LEVEL,1,1,1,3,3,4,6,6,7,7,8,9,9,10,10,10,11,11,11,12,12,13,13,13,14,14,14,14,15,15,15,16,16,16,17,17,18,18
participant_5_MINIONSKILLED,0,0,1,8,10,18,24,29,35,38,48,54,56,61,71,75,87,87,91,94,99,106,112,117,123,125,127,134,144,146,150,153,154,168,173,176,188,194
participant_5_KILLS,0,0,0,0,0,0,0,0,0,0,0,1,2,2,2,2,2,2,2,3,3,3,3,3,3,3,3,3,3,3,4,4,6,7,7,7,7,7
participant_5_BUY,[],"[1035, 3340, 2031]",[],[],[],"[1029, 1001]",[],[],[],"[1031, 1028]",[],[6660],[],[],[],[],[6662],[],[],[],[],"[3111, 3076, 1028]",[],[],[],[],[],"[1011, 3075]",[],[],[],[],[4630],[],[],[],[],[]
participant_5_SOLD,[],[],[],[],[],[],[],[],[],[1029],[1035],[1028],[],[],[],[],"[6660, 1031]",[],[],[],[],[1001],[],[],[],[],[],"[1028, 3076, 1011]",[],[],[],[],[],[],[],[],[],[]
participant_5_UNDO,[],[],[],[],[],[],[],[],[],[],[],[],[],[],[],[],[],[],[],[],[],[],[],[],[],[],[],[],[],[],[],[],[],[],[],[],[],[]
participant_6_GOLD,500,500,621,878,1100,1222,1430,1552,1909,2048,2275,2848,3355,3682,3890,4075,4198,4341,4655,5502,5779,6052,6442,6630,6890,7231,7623,7746,8000,8186,9056,9286,10008,11158,11301,11576,11699,11819
participant_6_CURRENTGOLD,500,0,121,378,600,122,330,452,809,48,275,248,755,1082,1290,1475,198,341,655,1502,1779,52,442,630,890,1231,1623,246,500,686,1556,1786,1258,2408,2551,2827,2949,3069
participant_6_LEVEL,1,1,2,2,3,3,4,4,5,5,5,6,6,7,7,7,7,8,8,9,10,10,11,11,12,12,13,13,13,14,14,14,15,15,16,16,16,16
participant_6_MINIONSKILLED,0,0,0,0,1,1,1,1,1,1,1,1,1,1,1,5,5,6,9,15,15,15,17,21,21,21,21,21,25,26,36,36,36,47,48,53,53,53
participant_6_KILLS,0,0,0,0,0,0,0,1,1,2,2,2,2,2,2,2,2,2,3,3,3,3,3,3,3,3,3,3,3,3,3,3,3,3,3,3,3,3
participant_6_BUY,[],[3850],[],[],[1052],[],[3108],[],[],[4632],[3102],[],[],[],[],[],[],[],[1058],[],[],[],[],[1058],[],[],[],[3089],[1027],[],[],[],[3802],[],[],[],[1026],[]
participant_6_SOLD,[],[],[],[],[],[],[1052],[],[],[],"[3108, 4632]",[],[],[],[],[],[],[],[],[3850],[],[],[],[],[],[],[],"[1058, 1058]",[],[],[3851],[],[1027],[],[],[],[],[]
participant_6_UNDO,[],[],[],[],[],[],[],[],[],[],[],[],[],[],[],[],[],[],[],[],[],[],[],[],[],[],[],[],[],[],[],[],[],[],[],[],[],[]
participant_7_GOLD,500,500,565,780,929,1168,1363,2118,2273,2764,3015,3178,3462,3597,3731,3865,4014,4148,5143,5306,5447,5587,5817,5958,6362,6552,6692,7026,7166,7396,7907,8098,8310,8464,8724,8878,9018,9206
participant_7_CURRENTGOLD,500,100,165,380,94,323,53,808,963,254,105,268,552,686,821,955,1104,1238,982,1146,1286,1427,1657,548,952,1142,1282,316,106,336,847,1038,300,454,714,868,158,356
participant_7_LEVEL,1,1,1,2,3,4,4,6,6,7,8,8,8,8,9,9,9,9,9,9,9,10,10,10,11,11,11,11,11,11,12,12,13,13,14,14,14,14
participant_7_MINIONSKILLED,0,0,2,3,4,7,7,8,9,12,16,18,18,18,18,18,19,19,19,19,19,19,20,20,23,23,23,28,28,28,29,29,30,31,38,39,39,39
participant_7_KILLS,0,0,0,0,1,1,1,1,1,1,1,1,1,1,1,1,1,1,1,1,1,1,1,2,2,3,3,3,3,3,3,3,3,3,3,3,3,3
participant_7_BUY,[],"[3850, 3340, 2003, 2003]",[],[],"[1052, 1027]",[],[],[],"[3802, 2003, 2003, 2003]",[],[],[],[],"[1026, 1001]",[],[],[],[6655],[],[],[],[1033],[3111],[],[],"[3191, 2420, 2420]",[],[1052],[],[3157],[],[],"[1026, 1028]",[],[],[],[3165],[]
participant_7_SOLD,[],[],[],[],[],[],[],[],"[1052, 1027]",[],[],[3850],[2003],[2003],[2003],"[2003, 2003]",[2010],"[3802, 1026, 3851]",[],"[2010, 2010]",[],[],"[1001, 1033]",[],[],[],[],[],[],"[3191, 2420, 1052]",[],[],[],[],[],[],"[1026, 1028]",[]
participant_7_UNDO,[],[],[],[],[],[],[],[],[],[],[],[],[],[],[],[],[],[],[],[],[],[],[],[],[],"[[0, 2420]]",[],[],[],[],[],[],[],[],[],[],[],[]
participant_8_GOLD,500,500,542,776,1111,1311,1604,1747,1870,2020,2143,2492,2744,2958,3217,3340,3563,3699,3822,3944,4462,4688,4824,5200,5438,5805,6080,6203,6821,7613,7735,8055,8422,8619,9132,9442,9627,10614
participant_8_CURRENTGOLD,500,50,92,326,61,261,554,97,220,370,193,542,794,1008,1267,515,738,874,997,94,612,488,74,450,388,55,330,153,771,1563,185,505,172,369,882,1192,478,664
participant_8_LEVEL,1,1,1,2,2,3,4,5,5,5,5,6,6,7,7,7,8,8,8,8,8,9,9,10,11,11,12,12,12,13,13,13,14,14,15,15,15,15
participant_8_MINIONSKILLED,0,0,1,7,9,14,21,22,22,24,24,32,32,37,41,41,43,44,44,44,49,51,52,54,56,66,71,71,75,88,88,93,100,100,114,121,124,131
participant_8_KILLS,0,0,0,0,0,0,0,0,0,0,0,0,0,0,0,0,0,0,0,0,1,1,1,1,1,1,1,1,2,2,2,2,2,2,2,2,2,3
participant_8_BUY,[],"[3340, 1055]",[],[],"[1042, 1042]",[],[],[1018],[],[],[3086],[],[],[],[],[1037],[],[],[],[3085],[],[1036],[1053],[],[1042],"[1036, 1036]",[],[6670],[],[],"[6673, 1042]",[],"[2015, 1042]",[],[],[],[3086],[3094]
participant_8_SOLD,[],[],[],[],[],[],[],[],[],[],"[1018, 1042]",[],[],[],[],[],[],[],[],"[1037, 3086, 1042]",[],[],[1036],[],[],[],[],"[1036, 1042, 1036]",[],[],"[6670, 1053]",[],[1042],[],[],[],[1042],"[3086, 2015]"
participant_8_UNDO,[],[],[],[],[],[],[],[],[],[],[],[],[],[],[],[],[],[],[],[],[],[],[],[],[],[],[],[],[],[],[],[],[],[],[],[],[],[]
participant_9_GOLD,500,500,563,737,1288,1462,1637,1963,2159,2421,2664,3027,3424,3564,3820,4074,4263,4403,4543,4784,4995,5192,5485,5963,6301,6942,7143,7284,7607,8006,8413,8959,9331,9603,9829,9969,10385,10615
participant_9_CURRENTGOLD,500,0,63,237,3,177,352,678,209,471,714,1077,1474,464,720,974,1163,53,193,434,645,392,335,813,1151,242,444,149,472,356,763,1309,431,703,929,1069,236,465
participant_9_LEVEL,1,1,1,2,3,4,4,5,6,6,6,7,7,7,8,8,8,8,8,8,9,9,9,10,11,11,11,11,12,12,13,13,14,14,14,14,15,15
participant_9_MINIONSKILLED,0,0,0,0,3,3,3,10,13,16,19,25,26,26,28,29,31,31,31,31,32,36,41,45,47,51,57,57,62,65,69,74,78,82,82,82,94,99
participant_9_KILLS,0,0,0,0,0,0,0,0,1,1,1,2,2,2,2,2,2,2,3,3,3,4,4,5,8,9,10,10,10,10,13,13,13,13,13,13,13,13
participant_9_BUY,[],"[2033, 1054, 2003]",[],[],[],[],[],[3044],[],[3067],[],[],[6029],[6630],[],"[1001, 1029]",[],[3047],[],[3123],[],[3133],"[1028, 1036]",[],[],"[6333, 3133]",[],[],[],[3071],[],[],"[3211, 3065, 1036]",[],[],[],[],[3044]
participant_9_SOLD,[],[],[],[],[],[],[],[],[2003],[],[],[],[],"[6029, 3044, 3067]",[],[],[],"[1001, 1029]",[],[],[],[],[],[],[],"[3133, 1036]",[],[],[],"[1054, 3133]",[],[],"[3123, 3211]",[],[],[],[],[1036]
participant_9_UNDO,[],"[[0, 2033]]",[],[],[],[],[],[],[],[],[],[],[],[],[],[],[],[],[],[],[],[],"[[0, 1028]]",[],[],[],[],[],[],[],[],[],[],[],[],[],[],[]
team0_KILLS,0,0,0,1,3,3,4,5,6,8,9,10,11,12,13,16,18,21,23,24,26,27,31,31,33,33,35,38,38,41,41,45,47,48,48,49,51,55
team0_CURRENTGOLD,2500,100,459,2314,2896,3973,3885,2355,2772,3557,4327,2027,2779,3117,3664,5363,6200,6290,9148,1271,3421,3013,6051,7017,2604,2583,3250,4728,4603,6328,7679,5828,6709,2702,2647,4322,5817,3101
team0_TOTALGOLD,2500,2500,2859,4724,6506,7593,9005,10275,11642,13427,14897,16082,17444,19282,21154,24068,26580,28895,32103,33251,35751,37342,40381,42017,43504,44382,46250,48477,49681,51757,53426,56108,58337,59729,60874,62549,64733,68001
team0_LEVEL,5,5,6,12,16,21,24,27,29,32,34,36,38,40,42,46,47,51,52,52,56,56,60,61,61,62,64,66,66,67,69,71,74,75,75,75,79,82
team0_SBIRES,0,0,8,30,49,66,82,92,105,130,145,154,162,175,187,205,231,243,259,260,280,287,309,322,324,327,329,334,342,349,366,373,393,396,403,417,430,446
team1_KILLS,0,0,0,0,1,1,1,2,3,4,4,6,7,7,7,7,7,7,9,10,11,12,12,14,17,19,20,20,21,21,25,25,27,28,28,28,28,29
team1_CURRENTGOLD,2500,150,483,1604,1192,1625,2322,2174,2898,1212,1657,3401,3855,3538,4853,4281,3887,2812,3831,3810,5219,2724,2750,3298,6338,3406,4815,2297,3717,3066,5762,7403,2520,4886,6297,7484,5826,5509
team1_TOTALGOLD,2500,2500,2833,3954,5362,6405,7567,9119,10508,11722,12867,15211,16865,17899,19213,20116,21122,21797,24067,25870,27280,28684,29960,31758,35098,37165,38574,39592,41362,43245,47442,49083,51039,53406,54816,56002,57344,59309
team1_LEVEL,5,5,6,11,14,18,22,26,29,30,32,36,36,39,41,41,43,44,44,46,48,51,52,54,59,59,61,61,63,65,67,68,72,72,76,76,78,78
team1_SBIRES,0,0,4,18,27,43,56,70,80,91,108,130,133,143,159,168,185,187,194,203,214,227,242,257,270,286,299,311,334,353,372,385,398,428,455,471,498,516
delta_KILLS,0,0,0,1,2,2,3,3,3,4,5,4,4,5,6,9,11,14,14,14,15,15,19,17,16,14,15,18,17,20,16,20,20,20,20,21,23,26
delta_CURRENTGOLD,0,-50,-24,710,1704,2348,1563,181,-126,2345,2670,-1374,-1076,-421,-1189,1082,2313,3478,5317,-2539,-1798,289,3301,3719,-3734,-823,-1565,2431,886,3262,1917,-1575,4189,-2184,-3650,-3162,-9,-2408
delta_TOTALGOLD,0,0,26,770,1144,1188,1438,1156,1134,1705,2030,871,579,1383,1941,3952,5458,7098,8036,7381,8471,8658,10421,10259,8406,7217,7676,8885,8319,8512,5984,7025,7298,6323,6058,6547,7389,8692
delta_LEVEL,0,0,0,1,2,3,2,1,0,2,2,0,2,1,1,5,4,7,8,6,8,5,8,7,2,3,3,5,3,2,2,3,2,3,-1,-1,1,4
delta_SBIRES,0,0,4,12,22,23,26,22,25,39,37,24,29,32,28,37,46,56,65,57,66,60,67,65,54,41,30,23,8,-4,-6,-12,-5,-32,-52,-54,-68,-70
