name,team0,team1
win,Fail,Win
firstBlood,False,True
firstTower,False,True
firstInhibitor,False,True
firstBaron,False,True
firstDragon,False,True
firstRiftHerald,False,True
towerKills,5,9
inhibitorKills,0,1
baronKills,0,2
dragonKills,1,4
riftHeraldKills,0,1
