name,frame_0,frame_1,frame_2,frame_3,frame_4,frame_5,frame_6,frame_7,frame_8,frame_9,frame_10,frame_11,frame_12,frame_13,frame_14,frame_15,frame_16,frame_17,frame_18,frame_19,frame_20,frame_21,frame_22,frame_23,frame_24,frame_25,frame_26,frame_27,frame_28,frame_29,frame_30,frame_31,frame_32,frame_33,frame_34,frame_35,frame_36,frame_37,frame_38,frame_39
nameStamp,Tstart,Tearly,Tearly,Tearly,Tearly,Tearly,Tearly,Tearly,Tearly,Tearly,Tearly,Tearly,Tearly,Tearly,Tearly,Tearly,Tearly,Tearly,Tmid,Tmid,Tmid,Tmid,Tmid,Tmid,Tmid,Tmid,Tmid,Tmid,Tmid,Tmid,Tmid,Tmid,Tmid,Tmid,Tmid,Tmid,Tmid,Tmid,Tmid,Tend
timestamp,0,60003,120022,180035,240055,300062,360094,420101,480121,540122,600150,660173,720206,780231,840246,900266,960272,1020279,1080282,1140292,1200297,1260318,1320338,1380368,1440376,1500393,1560424,1620441,1680453,1740466,1800472,1860488,1920500,1980515,2040519,2100527,2160543,2220544,2280553,2340553
participant_0_GOLD,500,500,534,657,780,1222,1345,1467,1589,1733,1855,2119,2262,2398,2549,2671,2895,3045,3167,3353,3510,3647,3769,4061,4184,4306,4429,4551,4701,5166,5288,5517,5653,5789,5961,6083,6353,6517,7268,7554
participant_0_CURRENTGOLD,500,200,234,357,180,622,145,267,389,183,305,569,312,48,199,321,545,695,467,253,410,547,319,611,384,106,229,351,501,966,388,217,353,489,311,433,703,867,1618,454
participant_0_LEVEL,1,1,1,2,2,2,3,3,3,3,3,4,4,5,5,5,6,7,7,7,8,8,8,9,9,9,9,10,11,12,12,12,12,13,13,13,13,14,15,15
participant_0_MINIONSKILLED,0,0,1,1,1,1,1,1,1,2,2,3,4,5,7,7,9,11,11,14,16,17,17,17,17,17,17,17,19,21,21,24,25,26,29,29,33,36,48,48
participant_0_KILLS,0,0,0,0,0,1,1,1,1,1,1,1,1,1,1,1,1,1,1,1,1,1,1,1,1,1,1,1,1,1,1,1,1,1,1,1,1,1,1,1
participant_0_BUY,[],[1001],[],[],[1029],[],[3117],[],[],[1036],[],[],[1028],[3067],[],[],[],[],[1036],[3133],[],[],[1036],[],[1036],[3134],[],[],[],[],[3147],[1028],[],[],[1036],[],[],[],[],[3071]
participant_0_SOLD,[],[],[],[],[],[],[1001],[],[],[],[],[],[],[1028],[],[],[],[],[],"[1036, 1036]",[],[],[],[],[],"[1036, 1036]",[],[],[],[],"[3134, 3133]",[],[],[],[],[],[],[],[],"[1028, 1036, 3067]"
participant_0_UNDO,[],[],[],[],[],[],[],[],[],[],[],[],[],[],[],[],[],[],[],[],[],[],[],[],[],[],[],[],[],[],[],[],[],[],[],[],[],[],[],[]
participant_1_GOLD,500,500,520,771,1242,1469,1907,2044,2312,2619,2791,2913,3145,3394,3516,3824,4096,4243,4366,4613,4886,5251,5373,5871,5993,6116,6600,7087,7550,8143,8365,8621,9195,9541,9984,10314,10906,11588,12236,13101
participant_1_CURRENTGOLD,500,150,170,421,892,1119,907,1044,1312,1619,1791,288,520,769,891,1199,471,618,741,88,361,726,848,1346,1468,1591,175,662,1125,18,240,496,370,716,59,389,982,1664,2311,3176
participant_1_LEVEL,1,1,1,2,3,3,4,4,5,6,6,7,7,7,7,8,8,8,8,9,9,10,10,11,11,11,12,12,13,13,13,13,14,14,15,15,16,16,17,17
participant_1_MINIONSKILLED,0,0,0,2,4,6,7,9,14,14,17,17,17,18,18,18,18,18,18,18,18,20,20,20,20,20,23,27,28,28,28,28,31,35,35,39,52,55,58,63
participant_1_KILLS,0,0,0,0,1,1,2,2,2,2,2,2,2,2,2,2,2,2,2,2,2,2,2,2,2,2,3,4,5,6,6,6,7,7,8,8,8,9,9,10
participant_1_BUY,[],[1041],[],[],[],[],[3715],[],[],[],[],[1419],[],[],[],[],[1043],[],[],[1053],[],[],[],[],[],[],[3091],[],[],"[1043, 3144]",[],[],[3153],[],[3006],[],[],[],[],[]
participant_1_SOLD,[],[],[],[],[],[],[1041],[],[],[],[],[3715],[],[],[],[],[],[],[],[],[],[],[],[],[],[],[1043],[],[],[1053],[],[],"[3144, 1043]",[],[],[],[],[],[],[]
participant_1_UNDO,[],[],[],[],[],[],[],[],[],[],[],[],[],[],[],[],[],[],[],[],[],[],[],[],[],[],[],[],[],[],[],[],[],[],[],[],[],[],[],[]
participant_2_GOLD,500,500,583,871,1526,1816,2387,2579,2821,3518,4045,4564,4707,4851,5015,5908,6869,7054,7752,8153,8938,9192,9690,11075,11554,11866,12079,13054,13351,13523,14196,14549,15560,16055,16289,16529,16771,17337,18243,18378
participant_2_CURRENTGOLD,500,15,98,386,1041,1331,387,229,471,1168,1695,2214,307,451,215,308,1269,254,952,1353,438,242,740,2125,2605,2916,3129,1205,1501,424,1096,1450,1360,1006,1240,1480,1722,2288,1444,1578
participant_2_LEVEL,1,1,1,2,4,5,6,6,7,8,8,9,9,10,10,10,11,11,12,12,13,13,13,14,14,14,14,15,15,15,16,16,17,18,18,18,18,18,18,18
participant_2_MINIONSKILLED,0,0,3,10,16,23,32,37,44,49,55,60,61,62,65,65,73,77,84,96,99,103,107,122,126,137,143,147,153,153,163,170,175,184,191,194,202,205,213,213
participant_2_KILLS,0,0,0,0,1,1,2,2,2,3,4,5,5,5,5,6,8,8,9,9,10,10,11,12,13,13,13,15,15,15,16,16,18,18,18,18,18,19,19,19
participant_2_BUY,[],"[1052, 2003, 3340]",[],[],[],[],"[3145, 1053]","[1001, 2003]",[],[],[],[],"[3146, 2420]",[],"[1029, 2003, 2003]",[3191],[],[3157],[],[],"[3020, 3108]",[1033],[],[],[],[],[],"[3102, 1058]",[],[1058],[],[],[3089],[1026],[],[],[],[],[3116],[]
participant_2_SOLD,[],[],[2003],[],[],[],[1052],[],[2003],[],[],[],"[1053, 3145]",[],[],"[2420, 2003, 2003, 1029]",[],"[3191, 2421]",[],[],[1001],[],[],[],[],[],[],"[3108, 1033]",[],[],[],[],"[1058, 1058]",[],[],[],[],[],[1026],[]
participant_2_UNDO,[],[],[],[],[],[],[],[],[],[],[],[],[],[],[],[],[],[],[],[],[],[],[],[],[],[],[],[],[],[],[],[],[],[],[],[],[],[],[],[]
participant_3_GOLD,500,500,522,685,942,1225,1397,1794,1986,2129,2308,2444,2637,2759,2895,3144,3413,3784,3906,4098,4305,4427,4662,4784,4906,5029,5151,5459,5656,5843,6071,6354,6702,7245,7368,7635,7772,7895,8367,8503
participant_3_CURRENTGOLD,500,0,22,185,442,185,357,104,296,439,618,254,447,69,205,454,723,1094,166,358,165,287,522,11,133,256,78,386,183,370,598,281,629,1172,95,362,499,322,194,170
participant_3_LEVEL,1,1,1,2,4,4,5,5,6,6,7,7,7,7,8,8,9,10,10,10,11,11,11,11,12,12,12,12,13,13,13,13,14,15,15,15,15,15,16,16
participant_3_MINIONSKILLED,0,0,0,2,9,9,12,12,16,17,20,21,25,25,26,33,42,52,52,56,61,61,68,68,68,68,68,70,70,70,77,79,79,87,87,88,89,89,89,89
participant_3_KILLS,0,0,0,0,0,0,0,1,1,1,1,1,1,1,1,1,1,1,1,1,1,1,1,1,1,1,1,1,1,1,1,1,1,2,2,2,2,2,2,2
participant_3_BUY,[],"[3858, 2003, 2003]",[],[],[],"[1028, 1042]",[],"[1042, 1036]",[],[],[],[3044],[],[3101],[],[],[],[],[3057],[],[1028],[],[],"[3078, 1029]",[],[],[1029],[],[3082],[],[],[1011],[],[],"[3143, 1001]",[],[],[1029],[3024],[]
participant_3_SOLD,[],[],[],"[2003, 2003]",[2010],"[2010, 3858]",[],[2010],[],[],[],"[1028, 1036]",[],"[1042, 1042]",[],[],[],[],[],[],[],[],[],"[3101, 3057, 3044]",[],[],[],[],"[1029, 1029]",[],[],[1028],[],[],"[3082, 1011]",[],[],[],[1029],[]
participant_3_UNDO,[],[],[],[],[],[],[],[],[],[],[],[],[],[],[],[],[],[],[],[],[],[],[],[],[],[],[],[],[],[],[],[],[],[],[],[],[],[],[],[]
participant_4_GOLD,500,500,562,755,969,1238,1438,1595,1877,2021,2369,2609,2752,2993,3165,3350,3522,3790,4263,4386,4578,4743,5018,6383,6680,6944,7067,7279,7810,7983,8585,9142,9424,9769,10079,10546,10669,11241,11864,12027
participant_4_CURRENTGOLD,500,0,62,255,469,738,938,1095,1377,121,469,709,152,43,140,325,497,765,1238,111,303,468,743,2108,2405,2669,2792,404,935,58,660,1217,199,544,854,1321,894,1467,2089,152
participant_4_LEVEL,1,1,1,3,4,5,6,6,7,7,8,8,9,9,9,10,10,10,11,11,11,11,12,12,13,13,13,13,14,14,15,15,15,15,16,16,16,17,17,17
participant_4_MINIONSKILLED,0,0,2,6,11,17,21,23,29,30,40,43,44,51,54,58,61,65,71,71,75,77,82,90,96,100,100,101,116,116,126,139,144,149,155,161,161,168,171,173
participant_4_KILLS,0,0,0,0,0,0,0,0,0,0,0,0,0,0,0,0,0,0,0,0,0,0,0,1,1,1,1,1,1,1,1,1,1,1,1,2,2,2,2,2
participant_4_BUY,[],"[1055, 2003, 3340]",[],[],[],[],[],[],[],"[3006, 1042]",[],[],[1043],[1036],[2055],[],[],[],[],"[3144, 3364]",[],[],[],[],[],[],[],[3085],[],"[3153, 1036, 3340]",[],[],[1038],[],[],[],[1053],[],[],"[3072, 1031]"
participant_4_SOLD,[],[],[],[],[2003],[],[],[],[],[],[],[],[1042],[],[],[2055],[],[],[],"[1036, 3340]",[],[],[],[],[],[],[],[],[],"[3144, 1043, 3364]",[],[],[],[],[],[],[1036],[],[],"[1038, 1053]"
participant_4_UNDO,[],[],[],[],[],[],[],[],[],[],[],[],[],[],[],[],[],[],[],[],[],[],[],[],[],[],[],[],[],[],[],[],[],[],[],[],[],[],[],[]
participant_5_GOLD,500,500,578,713,883,1038,1236,1725,1859,2150,2305,2482,2637,3188,3967,4163,4658,4890,5301,5571,6220,6389,6775,6915,7055,7542,7852,8300,8440,8901,9141,9295,9621,9811,9966,10106,10328,10468,11414,11562
participant_5_CURRENTGOLD,500,0,78,213,383,538,736,1225,359,650,55,232,387,938,1717,1913,2408,2640,3051,1871,820,289,675,215,355,842,1152,150,290,751,241,396,721,912,1066,1206,1428,68,1014,1162
participant_5_LEVEL,1,1,1,2,3,4,4,5,5,6,6,6,7,8,8,8,9,10,10,10,11,11,12,12,12,12,13,13,13,13,14,14,15,15,15,15,15,15,16,16
participant_5_MINIONSKILLED,0,0,3,3,5,6,9,11,11,16,17,19,20,22,26,30,33,35,35,35,35,37,37,37,37,38,41,42,42,42,42,43,45,45,46,46,47,47,49,49
participant_5_KILLS,0,0,0,0,0,0,0,1,1,1,1,1,1,2,3,3,4,4,5,5,6,6,7,7,7,8,8,9,9,10,10,10,10,10,10,10,10,10,10,10
participant_5_BUY,[],"[3854, 2003, 2003, 3340]",[],[],[],[],[],[],"[1001, 1036, 1036]",[],"[3134, 1036]",[],[],[],[],[],[],[],[],"[3133, 3142]","[3117, 3134]","[1036, 1036]",[],[3179],[],[],[],"[3134, 1036]",[],[],[3133],[],[],[],[],[],[],"[3147, 3067]",[],[]
participant_5_SOLD,[],[],[],[],[],[],[],[2003],[2003],[],"[1036, 1036]",[],[],[],"[3854, 3400]",[],[],[],[3400],"[1036, 3133, 3134]","[1001, 3400]",[],[],"[3134, 1036, 1036]",[],[3400],[],[3400],[],[],"[1036, 3855]",[],[],[],[],[],[],"[3134, 3133]",[],[]
participant_5_UNDO,[],[],[],[],[],[],[],[],[],[],[],[],[],[],[],[],[],[],[],[],[],[],[],[],[],[],[],[],[],[],[],[],[],[],[],[],[],[],[],[]
participant_6_GOLD,500,500,597,871,1092,1396,1645,2014,2226,2496,2772,3409,3772,4462,4840,5243,5599,6143,6379,6957,7811,8237,8521,8644,8815,9239,9705,10475,10850,11441,11688,12359,13130,13814,14391,14729,15166,15309,16378,17182
participant_6_CURRENTGOLD,500,0,97,371,592,896,1145,1514,1726,146,422,1059,1422,2112,640,1043,1399,1943,129,707,1561,537,821,194,365,90,555,1325,601,851,1099,1769,2541,1024,1602,1940,2377,900,1969,1032
participant_6_LEVEL,1,1,1,2,3,4,4,5,5,6,6,8,8,9,9,10,10,11,11,11,12,12,12,13,13,13,13,14,14,15,15,15,16,16,16,17,17,17,17,18
participant_6_MINIONSKILLED,0,0,4,10,16,24,31,35,37,45,54,62,70,77,81,90,99,102,106,114,121,126,133,133,136,141,149,150,154,157,157,160,173,173,173,182,188,189,200,202
participant_6_KILLS,0,0,0,0,0,0,0,0,0,0,0,1,1,2,3,4,4,4,4,5,6,6,6,6,6,6,7,9,9,10,10,11,12,12,13,13,13,13,14,15
participant_6_BUY,[],"[1036, 2031, 3340]",[],[],[],[],[],[],[],"[3134, 3133]",[],[],[],[],"[3147, 3006, 1036]",[],[],[],[3179],[],[],"[3133, 1036]",[],[3134],[],[3142],[],[],[3134],[1028],[],[],[],"[3814, 1031]",[],[],[],"[3026, 1038]",[],[]
participant_6_SOLD,[],[],[],[],[],[2010],[],"[2010, 2010]",[],[1036],[],[],[],[],"[3134, 3133, 2422]",[],[],[],[1036],[],[],[3400],[],[1036],[],"[3133, 3134]",[],[],[],[2031],[],[],[],"[3134, 1028]",[],[],[],"[1031, 3179]",[],[]
participant_6_UNDO,[],[],[],[],[],[],[],[],[],[],[],[],[],[],[],[],[],[],[],[],[],[],[],[],[],[],[],[],[],[],[],[],[],[],[],[],[],[],[],[]
participant_7_GOLD,500,500,520,752,917,1158,1554,1976,2318,2934,3201,3856,4020,4759,5072,5195,5441,5613,5785,5908,6080,6357,6784,6956,7315,7550,7868,8357,8702,8824,9606,9931,10368,10540,10763,10885,11093,11216,11338,11654
participant_7_CURRENTGOLD,500,500,120,352,217,458,154,576,68,684,301,956,520,1259,1072,1195,1441,1613,1785,508,680,957,334,105,465,350,668,657,1002,525,73,398,335,508,730,852,1061,1183,506,821
participant_7_LEVEL,1,1,1,1,2,3,3,4,4,5,5,6,6,7,8,8,8,8,8,8,8,9,9,9,10,10,11,12,12,12,13,13,14,14,14,14,14,14,14,14
participant_7_MINIONSKILLED,0,0,0,4,6,14,18,18,22,32,37,44,47,58,64,64,65,65,65,65,65,74,81,84,94,98,106,106,115,115,129,133,137,137,137,137,137,137,137,143
participant_7_KILLS,0,0,0,0,0,0,0,1,1,2,2,3,3,4,4,4,4,4,4,4,4,4,4,4,4,4,4,5,5,5,6,6,7,7,7,7,7,7,7,7
participant_7_BUY,[],[],"[1028, 3340]",[],[1029],[],[3010],[],[1026],[],[3027],[],[2420],[],[1031],[],[],[],[],[3026],[],[],[3057],[1028],[],[1036],[],[3044],[],"[1042, 1042]","[3078, 1028]",[],[3751],[],[],[],[],[],[1031],[]
participant_7_SOLD,[],[],[],[],[],[],[1028],[],[],[],"[3010, 1026]",[],[2420],[],[1029],[],[],[],[],"[1031, 2421]",[],[],[],[],[],[],[],"[1028, 1036]",[],[],"[1042, 1042, 3057, 3044]",[],[1028],[],[],[],[],[],[],[]
participant_7_UNDO,[],[],[],[],[],[],[],[],[],[],[],[],[],[],[],[],[],[],[],[],[],[],[],[],[],[],[],[],[],[],[],[],[],[],[],[],[],[],[],[]
participant_8_GOLD,500,500,534,671,794,951,1469,1769,1891,2214,2396,2827,3041,3213,3518,3724,4266,4879,5165,5315,5856,5978,6437,6602,6967,7515,7714,8107,8285,8965,9237,9402,9603,9775,10201,10323,10771,10922,11086,11661
participant_8_CURRENTGOLD,500,500,534,671,794,951,1469,1769,1891,2214,2396,2827,441,613,918,1124,1666,2279,2565,2715,3256,3378,3837,402,767,1315,1514,1907,2085,2765,437,602,803,975,1401,1523,1972,2122,2286,2861
participant_8_LEVEL,1,1,1,2,3,4,5,5,5,6,6,7,7,8,8,9,9,10,10,10,11,11,12,12,13,13,13,14,14,15,15,15,15,15,15,15,16,16,16,16
participant_8_MINIONSKILLED,0,0,1,2,2,4,6,8,8,11,11,17,19,22,26,31,33,34,35,37,37,37,40,43,46,54,54,54,58,61,61,64,66,66,71,71,71,73,76,77
participant_8_KILLS,0,0,0,0,0,0,1,1,1,1,1,1,1,1,1,1,1,2,2,2,2,2,2,2,3,3,3,3,3,4,4,4,4,4,4,4,5,5,5,6
participant_8_BUY,[],[3340],[],[],[],[],[],[],[],[],[],[],[3116],[],[],[],[],[],[],[],[],[],[],[3089],[],[],[],[],[],[],[3027],[],[],[],[],[],[],[],[],[]
participant_8_SOLD,[],[],[],[],[],[],[],[],[],[],[],[],[],[],[],[],[3400],[],[3400],[],[],[],[],[],[],[],[],[],[],[],[],[],[],[],[],[],[],[],[],[]
participant_8_UNDO,[],[],[],[],[],[],[],[],[],[],[],[],[],[],[],[],[],[],[],[],[],[],[],[],[],[],[],[],[],[],[],[],[],[],[],[],[],[],[],[]
participant_9_GOLD,500,500,576,815,987,1172,1316,1557,1979,2123,2577,2755,3130,3392,3678,3948,4346,4595,5237,5550,6123,6336,6508,6686,6893,7380,7722,8122,8376,9266,9488,9625,9812,9984,10260,10493,10882,11111,11375,11511
participant_9_CURRENTGOLD,500,200,276,515,387,572,126,367,789,933,737,115,490,752,1283,253,301,550,1192,305,878,216,388,566,18,505,847,192,446,1336,133,270,57,229,505,738,1128,56,320,-614
participant_9_LEVEL,1,1,1,3,4,5,5,6,6,6,7,7,8,8,9,9,9,9,11,11,12,12,12,12,12,12,13,13,13,14,14,14,14,14,14,15,15,15,16,16
participant_9_MINIONSKILLED,0,0,3,7,10,13,14,21,21,22,29,32,37,45,47,52,55,60,67,72,72,73,73,76,81,86,94,96,100,103,103,104,105,105,110,112,121,124,126,126
participant_9_KILLS,0,0,0,0,0,0,0,0,1,1,2,2,3,3,3,3,4,4,5,6,7,7,7,7,7,8,8,8,8,9,9,9,9,9,9,9,9,9,10,10
participant_9_BUY,[],[1042],[],[],[1042],[],[1018],[],[],[],"[3086, 1036]",[1018],[],[],[],[1038],[1036],[],[],[3046],[],[1037],[],[],"[3031, 1036]",[],[],[1038],[],[],"[1053, 1037]",[],[1028],[],[],[],[],[3072],[],[1036]
participant_9_SOLD,[],[],[],[2010],[],[2010],[1042],[2010],[],[],"[1018, 1042, 2419]",[],[],[],[1036],[],[],[],[],[3086],[],[],[2423],[],"[1038, 1037, 1018, 2424]",[],[],"[3400, 1036]",[],[],[1036],[],[],[],[],[],[],"[1038, 1053]",[],[]
participant_9_UNDO,[],[],[],[],[],[],[],[],[],[],[],[],[],[],[],[],[],[],[],[],[],[],[],[],[],[],[],[],[],[],[],[],[],[],[],[],[],[],[],[]
team0_KILLS,0,0,0,0,2,3,5,6,6,7,8,9,9,9,9,10,12,12,13,13,14,14,15,17,18,18,19,22,23,24,25,25,28,29,30,31,31,33,33,34
team0_CURRENTGOLD,2500,365,586,1604,3024,3995,2734,2739,3845,3530,4878,4034,1738,1380,1650,2607,3505,3426,3564,2163,1677,2270,3172,6201,6995,7538,6403,3008,4245,1836,2982,3661,2911,3927,2559,3985,4800,6608,7656,5530
team0_TOTALGOLD,2500,2500,2721,3739,5459,6970,8474,9479,10585,12020,13368,14649,15503,16395,17140,18897,20795,21916,23454,24603,26217,27260,28512,32174,33317,34261,35326,37430,39068,40658,42505,44183,46534,48399,49681,51107,52471,54578,57978,59563
team0_LEVEL,5,5,5,11,17,19,24,24,28,30,32,35,36,38,39,41,44,46,48,49,52,53,54,57,59,59,60,62,66,67,69,69,72,75,77,77,78,80,83,83
team0_SBIRES,0,0,6,21,41,56,73,82,104,112,134,144,151,161,170,181,203,223,236,255,269,278,294,317,327,342,351,362,386,388,415,440,454,481,497,511,537,553,579,586
team1_KILLS,0,0,0,0,0,0,1,3,4,5,6,8,9,12,14,15,17,18,20,22,25,25,26,26,27,29,30,34,34,38,39,40,42,42,43,43,44,44,46,48
team1_CURRENTGOLD,2500,1200,1105,2122,2373,3415,3630,5451,4833,4627,3911,5189,3260,5674,5630,5528,7215,9025,8722,6106,7195,5377,6055,1482,1970,3102,4736,4231,4424,6228,1983,3435,4457,3648,5304,6259,7966,4329,6095,5262
team1_TOTALGOLD,2500,2500,2805,3822,4673,5715,7220,9041,10273,11917,13251,15329,16600,19014,21075,22273,24310,26120,27867,29301,32090,33297,35025,35803,37045,39226,40861,43361,44653,47397,49160,50612,52534,53924,55581,56536,58240,59026,61591,63570
team1_LEVEL,5,5,5,10,15,20,21,25,25,29,30,34,36,40,42,44,45,48,50,50,54,55,57,58,60,60,63,66,66,69,71,71,74,74,74,76,77,77,79,80
team1_SBIRES,0,0,11,26,39,61,78,93,99,126,148,174,193,224,244,267,285,296,308,323,330,347,364,373,394,417,444,448,469,478,492,504,526,526,537,548,564,570,588,597
delta_KILLS,0,0,0,0,2,3,4,3,2,2,2,1,0,-3,-5,-5,-5,-6,-7,-9,-11,-11,-11,-9,-9,-11,-11,-12,-11,-14,-14,-15,-14,-13,-13,-12,-13,-11,-13,-14
delta_CURRENTGOLD,0,-835,-519,-518,651,580,-896,-2712,-988,-1097,967,-1155,-1522,-4294,-3980,-2921,-3710,-5599,-5158,-3943,-5518,-3107,-2883,4719,5025,4436,1667,-1223,-179,-4392,999,226,-1546,279,-2745,-2274,-3166,2279,1561,268
delta_TOTALGOLD,0,0,-84,-83,786,1255,1254,438,312,103,117,-680,-1097,-2619,-3935,-3376,-3515,-4204,-4413,-4698,-5873,-6037,-6513,-3629,-3728,-4965,-5535,-5931,-5585,-6739,-6655,-6429,-6000,-5525,-5900,-5429,-5769,-4448,-3613,-4007
delta_LEVEL,0,0,0,1,2,-1,3,-1,3,1,2,1,0,-2,-3,-3,-1,-2,-2,-1,-2,-2,-3,-1,-1,-1,-3,-4,0,-2,-2,-2,-2,1,3,1,1,3,4,3
delta_SBIRES,0,0,-5,-5,2,-5,-5,-11,5,-14,-14,-30,-42,-63,-74,-86,-82,-73,-72,-68,-61,-69,-70,-56,-67,-75,-93,-86,-83,-90,-77,-64,-72,-45,-40,-37,-27,-17,-9,-11
