name,team0,team1
win,Fail,Win
firstBlood,True,False
firstTower,True,False
firstInhibitor,False,True
firstBaron,False,False
firstDragon,True,False
firstRiftHerald,False,True
towerKills,4,10
inhibitorKills,0,2
baronKills,0,0
dragonKills,2,3
riftHeraldKills,1,1
