name,frame_0,frame_1,frame_2,frame_3,frame_4,frame_5,frame_6,frame_7,frame_8,frame_9,frame_10,frame_11,frame_12,frame_13,frame_14,frame_15,frame_16,frame_17,frame_18,frame_19,frame_20,frame_21,frame_22,frame_23,frame_24,frame_25,frame_26,frame_27,frame_28,frame_29,frame_30,frame_31
nameStamp,Tstart,Tearly,Tearly,Tearly,Tearly,Tearly,Tearly,Tearly,Tearly,Tearly,Tearly,Tearly,Tearly,Tmid,Tmid,Tmid,Tmid,Tmid,Tmid,Tmid,Tmid,Tmid,Tmid,Tmid,Tmid,Tmid,Tmid,Tmid,Tmid,Tend,Tend,Tend
timestamp,0,60005,120031,180063,240068,300102,360128,420134,480150,540150,600151,660160,720160,780161,840189,900193,960194,1020227,1080230,1140233,1200264,1260286,1320316,1380325,1440337,1500344,1560346,1620362,1680383,1740412,1800432,1860432
participant_0_GOLD,500,500,562,913,1190,1800,2038,2293,3153,3710,3989,4333,5697,5819,5942,6253,6516,7038,7210,7506,7750,8509,8747,9214,9541,10103,10320,10499,11183,11775,12175,12214
participant_0_CURRENTGOLD,500,0,62,413,690,0,238,493,1353,1910,214,558,1922,194,317,628,891,1413,135,431,675,199,438,54,381,943,1161,599,1283,1876,560,439
participant_0_LEVEL,1,1,1,3,4,5,6,6,7,8,9,9,10,10,10,10,11,11,11,12,12,12,12,12,13,13,13,14,14,14,15,15
participant_0_MINIONSKILLED,0,0,2,13,22,29,33,41,53,61,67,77,87,87,87,90,93,99,99,105,106,116,117,117,123,123,123,127,130,130,131,131
participant_0_KILLS,0,0,0,0,0,0,0,0,1,1,1,1,1,1,2,2,2,2,2,2,2,2,2,2,2,2,3,3,5,5,8,8
participant_0_BUY,[],"[1055, 2003, 3340]",[],[],[],"[1036, 1036]",[],[],[],"[3134, 1053, 1001]",[],[],[6692],[],[],[],[],[],[],"[3009, 3134, 1018, 3363]",[],[],[6676],[],[1042],[],[],"[3086, 1042]",[],[],[],[]
participant_0_SOLD,[],[],[],[],[],[],[],[],[],"[1036, 1036]",[],[],"[2003, 3134, 1053]",[],[],[],[],[],[],"[1001, 3340]",[],[],"[3134, 1018]",[],[],[],[],[1042],[],[],[],[]
participant_0_UNDO,[],[],[],[],[],[],[],[],[],[],[],[],[],[],[],[],[],[],[],[],[],[],[],[],[],[],[],[],[],[],[],[]
participant_1_GOLD,500,500,620,1018,1453,1830,2444,2701,2973,3386,3638,4041,4499,4813,4936,5313,5761,6153,6695,6937,7528,8066,8258,8664,9031,9154,9339,9486,9852,10229,10965,11054
participant_1_CURRENTGOLD,500,0,120,518,953,230,844,1101,273,686,938,1341,1799,613,36,413,861,1253,1795,287,878,1416,358,364,731,854,189,336,702,1079,1815,1904
participant_1_LEVEL,1,1,2,3,4,5,5,6,6,7,7,8,8,9,9,9,10,11,11,11,12,13,13,13,14,14,14,14,14,15,15,16
participant_1_MINIONSKILLED,0,0,0,0,0,0,1,1,1,1,1,1,2,2,2,2,5,5,11,12,18,22,27,28,32,32,36,36,36,36,38,38
participant_1_KILLS,0,0,0,0,0,0,1,1,1,1,1,1,1,1,1,1,1,1,1,1,2,2,2,2,2,2,2,2,2,2,3,3
participant_1_BUY,[],"[1039, 3340, 2003, 2003, 2003]",[],[],[],"[6660, 2003, 2003]",[],[],"[1001, 3047]",[],[],[],[],[3105],[3068],[],[],[],[],"[1026, 1011]",[],[],[4637],[1028],[],[],[1026],[],[],[],[],[]
participant_1_SOLD,[],[],[2003],[2003],[2003],[],[2003],[2003],[1001],[1039],[],[],[],[],"[6660, 3105]",[],[],[],[],[],[],[],"[1026, 1011]",[],[],[],[],[],[],[],[],[]
participant_1_UNDO,[],[],[],[],[],[],[],[],[],[],[],[],[],[],[],[],[],[],[],[],[],[],[],[],[],[],[],[],[],[],[],[]
participant_2_GOLD,500,500,562,941,1232,2136,2465,2779,3110,3282,3609,3961,4594,5011,5284,5966,6494,6836,7434,7835,8107,8330,8984,9992,10249,10893,11301,11548,12491,12741,13377,13417
participant_2_CURRENTGOLD,500,0,62,431,722,1616,345,649,970,217,544,886,184,591,864,341,869,1211,134,535,807,1030,434,1442,449,1093,1501,448,1392,741,687,567
participant_2_LEVEL,1,1,1,3,4,5,5,6,7,7,8,9,9,10,10,11,11,12,12,12,13,13,13,14,14,14,14,14,15,15,16,16
participant_2_MINIONSKILLED,0,0,2,14,24,32,35,44,53,56,67,77,86,100,100,109,115,124,126,138,138,138,142,148,151,154,162,165,166,166,167,167
participant_2_KILLS,0,0,0,0,0,0,0,0,0,0,0,0,0,0,0,0,0,0,0,0,1,1,1,1,1,1,1,1,1,1,1,1
participant_2_BUY,[],"[3850, 2003, 2003, 3340]",[],[],[],"[3067, 1004, 1052, 2055]",[],[],[],[],[],"[4642, 3067, 2055, 2055, 3364]",[1001],[],[3158],[],[],[],[2055],[],[],"[6617, 3067, 1004]",[],[],[],[3114],[3107],[],[],[],[],[]
participant_2_SOLD,[],[],[],[],[2003],[],[2055],[3850],[],[2003],[],"[1004, 1052, 3340]",[],[],"[3851, 1001]",[2055],[],[],[],[],[],"[3067, 4642]",[2055],[],[],[1004],"[3067, 3114]",[],[],[2055],[],[]
participant_2_UNDO,[],[],[],[],[],"[[0, 3067]]",[],[],[],[],[],[],[],[],[],[],[],[],[],[],[],[],[],[],[],[],[],[],[],[],[],[]
participant_3_GOLD,500,500,576,888,1211,1508,1851,2165,2720,3028,3411,3798,4070,4269,4798,5387,5687,5900,6462,6658,7026,7646,7769,8074,8362,8883,9330,9452,10696,11176,12562,12693
participant_3_CURRENTGOLD,500,0,76,388,711,308,651,965,1520,228,611,998,70,269,798,1387,1687,1900,2462,358,726,1346,169,474,462,983,1430,353,1596,2076,3462,3593
participant_3_LEVEL,1,1,1,2,3,4,5,5,6,6,7,7,8,8,8,9,9,9,10,10,11,11,11,11,11,12,12,12,13,14,14,14
participant_3_MINIONSKILLED,0,0,3,14,23,30,40,47,55,61,74,86,91,95,98,108,117,122,125,128,131,140,140,148,149,161,161,161,170,172,178,183
participant_3_KILLS,0,0,0,0,0,1,1,1,1,2,2,2,3,3,3,3,3,4,4,4,4,4,4,5,5,6,6,6,7,8,8,8
participant_3_BUY,[],"[1056, 2003, 2003]",[],[],[],[4635],[],[],[],[],"[4633, 2055]",[],[],"[1026, 1043]",[],[],[],[],[3115],[1029],[],"[3047, 1028, 1052]",[],[1026],[],[],[],[1011],[],[],"[4637, 3191]",[]
participant_3_SOLD,[],[],[],[2003],[],[],[],[],[],[],[4635],[],[2003],[],[],[2055],[],[],"[1043, 1026]",[],[],[1029],[],[],[],[],[],[1056],[],[],"[1026, 1011, 1052]",[]
participant_3_UNDO,[],[],[],[],[],[],[],[],[],[],[],[],[],[],[],[],[],[],[],[],[],"[[0, 1028]]",[],[],[],[],[],[],[],[],[],[]
participant_4_GOLD,500,500,582,817,1052,1396,1645,1921,2081,2423,2623,2763,3109,3365,3588,3945,4086,4226,4446,4666,5106,5518,5747,6243,6447,6651,6821,7048,7553,7759,8220,8287
participant_4_CURRENTGOLD,500,0,82,317,552,136,385,661,821,1163,1363,189,234,490,113,470,611,751,897,1116,1556,68,297,794,997,651,122,348,853,1059,1521,1587
participant_4_LEVEL,1,1,1,2,3,4,4,5,5,6,6,6,6,7,7,7,8,8,8,8,9,9,9,10,11,11,11,11,12,13,13,14
participant_4_MINIONSKILLED,0,0,0,0,0,0,1,1,1,2,2,2,2,6,9,10,10,10,11,15,15,16,17,20,24,25,26,31,32,33,33,34
participant_4_KILLS,0,0,0,0,0,2,2,2,2,2,2,2,3,3,3,4,5,5,6,6,6,6,7,9,9,10,10,10,12,12,13,13
participant_4_BUY,[],"[1056, 2003, 2003, 3340]",[],[],[],[],"[3145, 1028, 2031]",[],[],"[1026, 2055]",[],[],"[4636, 1052]",[],[],"[3191, 1052, 3020]",[],[],"[3157, 2055]",[],[],[],[1058],[],[1058],[],[],[3089],[],[1011],[1026],[]
participant_4_SOLD,[],[],[],[],[2003],"[2003, 2010]",[2010],[2010],[],[],[2055],[],"[3145, 1028, 1026]",[],[],"[1052, 2031, 2422]",[],[],[3191],[],"[3340, 2055]",[3513],[],[],[],[],[],"[1058, 1058]",[],[],[1056],[]
participant_4_UNDO,[],[],[],[],[],[],[],[],[],[],[],[],[],[],[],"[[0, 1052]]",[],[],[],[],[],[],[],[],[],[],[],[],[],[],[],[]
participant_5_GOLD,500,500,583,790,1134,1417,1673,1949,2071,2313,2456,2766,2888,3455,3798,4032,4226,4411,4671,4929,5281,5443,5705,5980,6103,6375,6637,7003,7425,7604,8176,8216
participant_5_CURRENTGOLD,500,0,83,290,634,342,598,874,996,1238,206,516,288,855,1198,232,26,211,471,729,1081,368,130,405,528,800,262,628,50,229,351,391
participant_5_LEVEL,1,1,1,2,4,5,5,6,6,7,7,8,8,9,9,9,10,10,10,10,11,11,12,12,12,12,13,13,14,14,14,14
participant_5_MINIONSKILLED,0,0,3,7,17,24,32,41,41,48,49,56,56,70,73,76,77,80,81,83,92,97,105,107,107,107,108,118,118,121,121,121
participant_5_KILLS,0,0,0,0,0,0,0,0,0,0,0,0,1,2,2,2,2,2,2,2,2,2,2,2,2,2,5,5,5,5,5,5
participant_5_BUY,[],"[1055, 2003, 3340]",[],[],[],[],[],[],"[6670, 3006, 1018]",[],[],[1037],[],[],[],"[6670, 3363]",[],"[6672, 1042, 1042, 2055]",[6677],[],[],[1018],[],"[1042, 3123]",[],[],[],"[3124, 1053]",[],[],[],[]
participant_5_SOLD,[],[],[],[],[2003],[],[],[],[],[],[],[],[],[],[],[3340],[],"[6670, 1018, 1037]","[1042, 1042]",[],[2055],[],[],[],[],[],[],"[6677, 1018]",[],[],[],[]
participant_5_UNDO,[],[],[],[],[],[],[],[],"[[0, 6670]]",[],[],[],[],[],[],[],[],[],[],[],[],[],[],"[[0, 1042]]",[],[],[],[],[],[],[],[]
participant_6_GOLD,500,500,620,1018,1318,1854,2135,2365,2682,2990,3431,3584,3990,4402,5266,5474,5756,6343,6575,6936,7107,7390,7686,8583,8911,9167,9414,9567,10223,10345,11011,11050
participant_6_CURRENTGOLD,500,0,120,518,818,229,100,330,647,955,1396,624,1030,1442,2306,304,586,1173,215,576,747,240,536,833,311,57,304,382,1038,1161,111,100
participant_6_LEVEL,1,1,2,3,4,4,5,5,6,7,7,7,8,9,9,9,9,10,10,11,11,11,12,12,12,13,13,13,14,14,15,15
participant_6_MINIONSKILLED,0,0,0,0,0,1,3,4,5,5,13,14,18,18,21,21,22,22,24,29,29,34,36,39,39,42,42,42,50,50,56,56
participant_6_KILLS,0,0,0,0,0,0,0,0,0,0,0,0,0,0,0,0,0,0,0,0,0,0,0,0,0,0,0,0,0,0,1,1
participant_6_BUY,[],"[1054, 2003, 3340]",[],[],[],"[1033, 2055, 2003]",[],[],[],[],"[3105, 2055, 2003]",[],"[1001, 2003]",[],[],[3190],[1028],[],[3364],[],[],"[3111, 2055]",[1011],[],[],[],[3076],[],[3075],[],[1033],[]
participant_6_SOLD,[],[],[],[2003],[],[],[2003],[],[],[],[1033],[2003],[],[2003],[2055],[3105],[],[],[3340],[2055],[],"[1001, 2055]",[1028],[],[],[],[],[],"[3076, 1011]",[],[],[]
participant_6_UNDO,[],[],[],[],[],[],[],[],[],[],[],[],[],[],[],[],[],[],[],[],[],[],[],[],[],[],[],[],[],[],[],[]
participant_7_GOLD,500,500,583,948,1197,1574,1879,2001,2326,2870,3027,3358,3726,3848,4943,5066,5514,6073,6835,7152,7512,7634,8300,8979,9387,10042,10214,10944,11367,11538,12480,12520
participant_7_CURRENTGOLD,500,0,83,438,687,114,419,141,466,1000,157,478,836,258,1353,276,724,1283,845,362,722,499,1165,1844,402,1057,429,1160,982,1153,696,595
participant_7_LEVEL,1,1,1,3,4,4,5,6,6,7,7,8,9,9,9,9,10,10,11,11,12,12,12,13,14,14,14,15,15,15,16,16
participant_7_MINIONSKILLED,0,0,4,15,22,24,35,35,46,58,60,68,79,79,87,87,99,111,122,129,139,139,148,158,170,175,175,180,180,183,187,187
participant_7_KILLS,0,0,0,0,0,0,0,0,0,0,0,0,0,0,1,1,1,1,2,2,2,2,3,4,4,5,5,6,6,6,7,7
participant_7_BUY,[],"[1055, 2003]",[],[],[],"[1001, 1042, 1042, 2003]",[],"[1042, 1036, 2003]",[],[],"[6670, 3006, 1036, 3123, 2003]",[],[],"[1036, 1036]",[],"[6670, 1053]",[],[],[6673],"[1036, 1033]",[],"[1057, 2055]",[],[],[3091],[],[6677],[],[1018],[],[3124],[]
participant_7_SOLD,[],[],[],[],[2003],[],[2003],[],[2003],[],"[1036, 1042, 1001, 1042, 1036]",[2003],[],[],[],"[1036, 1042, 1036]",[],[],"[6670, 1053]",[],[],"[1033, 1055]",[],[],"[1036, 1057]",[],[],[2055],[],[],"[6677, 1018]",[]
participant_7_UNDO,[],[],[],[],[],[],[],"[[0, 1042]]",[],[],"[[0, 6670], [0, 1036]]",[],[],[],[],[],[],[],[],[],[],[],[],[],[],[],[],[],[],[],[],[]
participant_8_GOLD,500,500,583,853,1141,1543,1778,2127,2277,2654,2902,3247,3910,4495,4779,5006,5681,5824,5967,6362,6533,6935,7192,7385,7873,8365,10718,10890,11312,11491,11613,11653
participant_8_CURRENTGOLD,500,0,83,353,641,1043,1278,1627,77,454,702,172,835,1420,1704,631,1306,149,92,487,658,460,717,110,598,1090,3443,1315,1737,1916,2038,2078
participant_8_LEVEL,1,1,1,2,3,4,5,5,5,6,6,7,8,8,9,9,9,10,10,10,10,11,11,11,12,12,13,13,14,14,14,14
participant_8_MINIONSKILLED,0,0,3,11,18,32,38,48,50,61,68,78,83,87,88,94,105,106,107,118,121,134,134,135,147,159,166,169,169,172,172,172
participant_8_KILLS,0,0,0,0,0,1,1,1,1,1,1,1,1,1,3,3,3,4,4,4,4,4,4,6,6,6,6,6,6,6,6,6
participant_8_BUY,[],"[1035, 1039, 2031, 3340]",[],[],[],"[3145, 3364, 2055]",[1028],[],[],[],[],"[1026, 2055]",[],[],[],"[3152, 3111, 1052, 2055]",[],[],"[3057, 3113, 2055]",[],[],[1026],[],[3100],[1026],"[1052, 2055]",[],[2055],[],[],[3115],[]
participant_8_SOLD,[],[],[],[],[],[3340],[2055],[],[1039],[],[],[2055],[],[],[],"[3145, 1028, 1026, 2422]",[2055],[],[1052],[2055],[],[2031],[],"[3057, 3113, 1026]",[],[],[2055],[],[],[],"[1026, 1052]",[]
participant_8_UNDO,[],"[[0, 1035]]",[],[],[],[],[],[],[],[],[],[],[],[],[],[],[],[],[],[],[],[],[],[],[],[],[],[],[],[],[],[]
participant_9_GOLD,500,500,564,699,936,1070,1226,1468,1602,1793,1978,2252,2472,2732,3093,3273,3464,3660,3939,4140,4301,4441,4603,4882,5074,5214,5704,5845,6285,6456,6596,6656
participant_9_CURRENTGOLD,500,0,64,199,436,145,301,543,127,318,503,777,222,482,843,1023,1214,1410,339,290,451,592,603,32,224,289,780,320,60,231,371,431
participant_9_LEVEL,1,1,1,2,3,3,3,4,4,5,5,6,6,6,7,7,7,8,8,8,8,9,9,10,10,10,11,11,11,11,12,12
participant_9_MINIONSKILLED,0,0,2,2,5,5,6,9,9,12,14,16,16,18,21,23,23,26,30,32,33,33,34,35,37,37,37,37,37,38,38,39
participant_9_KILLS,0,0,0,0,0,0,0,0,0,0,0,0,0,0,0,0,0,0,0,0,0,0,0,0,0,0,0,0,0,0,0,0
participant_9_BUY,[],"[3858, 3340, 2003, 2003]",[],[],[],"[1001, 2055, 2003]",[],[],"[2055, 2055, 1028, 2055]",[],[],[],"[3117, 2055, 3364]",[],[],[],[],[],"[3066, 3067, 2055, 2055]",[1004],[],[],"[2055, 2055]",[2065],[],[2055],[],"[3114, 1033, 2055, 2055]","[1057, 1004]",[],[],[]
participant_9_SOLD,[],[],[],[2003],[2003],[],[2055],[],[2003],[],[2055],"[2055, 3858]","[1001, 3340]",[2055],[],[],[],[],[1028],[2055],[2055],[],[],"[3067, 1004, 3066]","[2055, 2055]",[],[],"[3859, 2055]",[1033],[],[],[]
participant_9_UNDO,[],[],[],[],[],[],[],[],"[[0, 2055]]",[],[],[],[],[],[],[],[],[],[],[],[],[],[],[],[],[],[],"[[0, 3114]]",[],[],[],[]
team0_KILLS,0,0,0,0,0,3,4,4,5,6,6,6,8,8,9,10,11,12,13,13,15,15,16,19,19,21,22,22,27,28,33,33
team0_CURRENTGOLD,2500,0,402,2067,3628,2290,2463,3869,4937,4204,3670,3972,4209,2157,2128,3239,4919,6528,5423,2727,4642,4059,1696,3128,3020,4524,4403,2084,5826,6831,8045,8090
team0_TOTALGOLD,2500,2500,2902,4577,6138,8670,10443,11859,14037,15829,17270,18896,21969,23277,24548,26864,28544,30153,32247,33602,35517,38069,39505,42187,43630,45684,47111,48033,51775,53680,57299,57665
team0_LEVEL,5,5,6,13,18,23,25,28,31,34,37,39,41,44,44,46,49,51,52,53,57,58,58,60,63,64,64,65,68,71,73,75
team0_SBIRES,0,0,7,41,69,91,110,134,163,181,211,243,268,290,296,319,340,360,372,398,408,432,443,461,479,495,508,520,534,537,547,553
team1_KILLS,0,0,0,0,0,1,1,1,1,1,1,1,2,3,6,6,6,7,8,8,8,8,9,12,12,13,16,17,17,17,19,19
team1_CURRENTGOLD,2500,0,433,1798,3216,1873,2696,3515,2313,3965,2964,2567,3211,4457,7404,2466,3856,4226,1962,2444,3659,2159,3151,3224,2063,3293,5218,3805,3867,4690,3567,3595
team1_TOTALGOLD,2500,2500,2933,4308,5726,7458,8691,9910,10958,12620,13794,15207,16986,18932,21879,22851,24641,26311,27987,29519,30734,31843,33486,35809,37348,39163,42687,44249,46612,47434,49876,50095
team1_LEVEL,5,5,6,12,18,20,23,26,27,32,32,36,39,41,43,43,45,48,49,50,52,54,56,58,60,61,64,65,68,68,71,71
team1_SBIRES,0,0,12,35,62,86,114,137,151,184,204,232,252,272,290,301,326,345,364,391,414,437,457,474,500,520,528,546,554,564,574,575
delta_KILLS,0,0,0,0,0,2,3,3,4,5,5,5,6,5,3,4,5,5,5,5,7,7,7,7,7,8,6,5,10,11,14,14
delta_CURRENTGOLD,0,0,-31,269,412,417,-233,354,2624,239,706,1405,998,-2300,-5276,773,1063,2302,3461,283,983,1900,-1455,-96,957,1231,-815,-1721,1959,2141,4478,4495
delta_TOTALGOLD,0,0,-31,269,412,1212,1752,1949,3079,3209,3476,3689,4983,4345,2669,4013,3903,3842,4260,4083,4783,6226,6019,6378,6282,6521,4424,3784,5163,6246,7423,7570
delta_LEVEL,0,0,0,1,0,3,2,2,4,2,5,3,2,3,1,3,4,3,3,3,5,4,2,2,3,3,0,0,0,3,2,4
delta_SBIRES,0,0,-5,6,7,5,-4,-3,12,-3,7,11,16,18,6,18,14,15,8,7,-6,-5,-14,-13,-21,-25,-20,-26,-20,-27,-27,-22
