name,frame_0,frame_1,frame_2,frame_3,frame_4,frame_5,frame_6,frame_7,frame_8,frame_9,frame_10,frame_11,frame_12,frame_13,frame_14,frame_15,frame_16,frame_17,frame_18,frame_19,frame_20,frame_21,frame_22,frame_23,frame_24,frame_25,frame_26,frame_27,frame_28,frame_29,frame_30,frame_31,frame_32,frame_33,frame_34
nameStamp,Tstart,Tearly,Tearly,Tearly,Tearly,Tearly,Tearly,Tearly,Tearly,Tearly,Tearly,Tearly,Tearly,Tearly,Tmid,Tmid,Tmid,Tmid,Tmid,Tmid,Tmid,Tmid,Tmid,Tmid,Tmid,Tmid,Tmid,Tmid,Tend,Tend,Tend,Tend,Tend,Tend,Tend
timestamp,0,60023,120029,180035,240041,300049,360076,420090,480102,540118,600120,660138,720162,780189,840215,900228,960252,1020271,1080292,1140308,1200328,1260341,1320351,1380367,1440392,1500409,1560424,1620440,1680441,1740461,1800489,1860522,1920524,1980540,2040540
participant_0_GOLD,500,500,562,748,1342,1948,2238,2395,2651,2871,2994,3486,3678,4475,5504,5947,6251,6373,6517,7450,7691,8356,8569,9187,10552,10916,11123,12083,12494,12950,13372,14266,15687,16078,16340
participant_0_CURRENTGOLD,500,0,62,248,342,48,338,495,51,271,94,586,778,825,354,497,1,123,267,1200,1441,31,244,862,2227,1151,664,1623,435,491,12,907,228,619,640
participant_0_LEVEL,1,1,1,2,4,5,6,6,7,7,7,8,9,10,10,11,11,11,11,12,13,13,13,14,14,14,15,15,16,16,16,17,18,18,18
participant_0_MINIONSKILLED,0,0,2,6,12,21,30,32,40,45,45,47,51,55,61,61,68,68,69,78,81,90,96,103,112,114,114,124,129,140,150,153,159,165,170
participant_0_KILLS,0,0,0,0,1,2,2,2,2,2,2,3,3,4,4,5,5,5,5,6,6,7,7,7,8,8,8,8,8,8,8,10,11,11,11
participant_0_BUY,[],"[1054, 3340, 2003]",[],[],"[2031, 1036]","[1053, 1036]",[],[],[3057],[],[1001],[],[],[3044],[6632],"[1042, 1042]",[3111],[],[],[],[],"[3153, 2055, 3363]",[],[],[],"[1037, 3044, 1028]",[1037],[],"[3053, 1037]","[3077, 1036, 2055]","[1036, 1053]",[],"[3074, 1057]",[],[]
participant_0_SOLD,[],[],[],[2003],[],[1036],[],[],[],[],[],[],[],[1036],"[3044, 3057]",[],[1001],[],[],[],[],"[1053, 1042, 3340]",[],[],[2055],[2031],[1054],[],"[1037, 3044, 1028]",[1037],"[2055, 1036]",[],"[3077, 1053]",[],[]
participant_0_UNDO,[],[],[],[],[],[],[],[],[],[],[],[],[],[],[],"[[0, 1042]]",[],[],[],[],[],[],[],[],[],"[[0, 1037]]",[],[],[],"[[0, 1036]]",[],[],[],[],[]
participant_1_GOLD,500,500,620,942,1158,1757,2377,2659,2997,3330,4416,4724,5101,5693,6330,6452,6575,6897,7155,7427,7584,7876,8133,8306,9816,10165,10807,11702,11824,12122,12307,12524,12929,13248,13357
participant_1_CURRENTGOLD,500,0,120,442,658,257,877,1159,1497,1830,416,724,1101,1693,1530,452,125,447,705,527,684,976,93,266,1776,2125,268,1162,285,582,767,985,1389,809,857
participant_1_LEVEL,1,1,2,2,3,4,4,5,5,6,7,7,7,8,9,9,9,9,9,10,10,11,11,11,12,13,13,13,13,13,13,14,14,15,15
participant_1_MINIONSKILLED,0,0,0,0,0,0,0,0,0,0,0,0,0,1,1,1,1,1,1,1,3,6,6,6,9,9,9,9,9,10,13,13,15,19,19
participant_1_KILLS,0,0,0,0,0,0,0,0,0,0,2,2,3,5,6,7,7,7,7,8,8,8,8,8,8,9,9,10,10,10,10,11,11,11,11
participant_1_BUY,[],"[1055, 2003]",[],[],[1042],[],"[1018, 1036, 1036]",[],"[6670, 1018]",[],[],"[6672, 1042]",[],[],"[3133, 3057, 3006]",[1018],[3508],[1036],[],[1036],[3133],[1018],[],[],[],[],[1037],[6675],[],[1037],[],[1018],[],[],[]
participant_1_SOLD,[],[],[],[],[2010],[2010],[],[2010],"[1036, 1042, 1036]",[],[2003],"[6670, 1018]",[],[],"[1042, 2422]",[],"[3133, 3057, 1018]",[],[],[],"[1036, 1036]",[1055],[],[],[],[],[],"[3133, 1037, 1018]",[],[],[],[],[],[],[]
participant_1_UNDO,[],[],[],[],[],[],"[[0, 1018]]",[],[],[],[],[],[],[],[],[],[],[],[],[],[],[],[],[],[],[],[],[],[],[],[],[],[],[],[]
participant_2_GOLD,500,500,590,839,1336,1619,1859,2051,2326,2723,2996,3195,3394,3900,4532,4907,5200,5489,5612,5762,6585,6920,7042,7215,7851,8927,9100,9647,9783,9969,10133,10255,11230,11452,11561
participant_2_CURRENTGOLD,500,0,90,339,41,314,554,311,576,123,126,325,524,220,852,1227,270,559,247,397,20,355,477,185,421,1497,20,167,304,489,203,326,50,273,261
participant_2_LEVEL,1,1,1,3,4,5,5,6,7,7,7,8,9,9,10,10,11,11,11,11,12,12,12,12,13,13,13,14,14,14,14,14,15,15,15
participant_2_MINIONSKILLED,0,0,4,11,13,20,23,27,33,33,33,38,42,50,58,68,74,80,80,82,82,86,86,86,87,90,90,90,91,95,98,98,106,109,109
participant_2_KILLS,0,0,0,0,0,0,1,1,1,1,1,1,1,2,2,3,3,3,3,3,3,4,4,4,4,4,4,4,4,4,4,4,4,4,4
participant_2_BUY,[],"[3858, 2003, 3340, 2003]",[],[],[],[],[],[],[3105],[],[],[3190],[],[],"[3111, 3117, 1029, 1028]",[],[3024],[],[3067],[],[3050],[3801],[],[],[1028],[],[3067],[],[3109],[],[],[1033],[],[],[]
participant_2_SOLD,[],[],[],[],"[2003, 2010]",[],"[2003, 2010]",[],[],[],[],[3105],[],"[3858, 2010]",[],[],[1029],[],[1028],[],"[3067, 3024]",[],[],[],[],[],[1028],[],"[3859, 3801, 3067]",[],[],[],[],[],[]
participant_2_UNDO,[],[],[],[],[],[],[],[],[],[],[],[],[],[],"[[0, 3111]]",[],[],[],[],[],[],[],[],[],[],[],[],[],[],[],[],[],[],[],[]
participant_3_GOLD,500,500,583,811,1085,1480,1753,2165,2461,2974,3944,4238,4793,6208,6681,7533,7691,8106,8328,8901,9098,9255,9493,9714,9907,10468,10640,11343,11840,11963,12127,12584,13123,13386,13495
participant_3_CURRENTGOLD,500,0,83,311,285,680,253,665,61,574,1544,38,593,2008,181,433,91,156,378,601,398,136,373,594,788,1348,646,524,1021,268,433,290,829,1092,1020
participant_3_LEVEL,1,1,1,2,3,4,4,5,5,6,6,7,8,8,9,9,10,10,10,10,10,10,11,11,11,12,12,12,13,13,13,13,13,14,14
participant_3_MINIONSKILLED,0,0,3,9,15,28,28,43,50,65,75,80,88,96,96,113,115,128,128,128,128,130,130,133,134,135,135,142,151,151,154,156,156,157,157
participant_3_KILLS,0,0,0,0,1,1,1,1,1,2,2,2,2,2,2,2,2,2,2,2,3,3,3,3,4,7,7,8,8,8,8,8,9,9,9
participant_3_BUY,[],"[1056, 2003, 2003, 3340]",[],[],"[1052, 1001, 2003]",[],[],[1052],[],[1026],"[1027, 3802]",[],[],[3020],[],[],[6655],[],[1052],[],"[4632, 1052]",[],[],[3108],[3102],[],"[1026, 3916]",[1028],[],[],[3165],[],[4630],[],[]
participant_3_SOLD,[],[],[],[2003],[2003],[],[2003],[],[],[],"[1056, 1052, 1027, 1052]",[],[],[1001],[],[],"[3802, 1026]",[],[],[],[1052],[],[],[1052],"[3108, 4632]",[],[],[],[],[],"[1026, 3916, 1028]",[],[],[],[]
participant_3_UNDO,[],[],[],[],[],[],[],[],[],[],[],[],[],[],[],[],[],[],[],[],[],[],[],[],[],[],[],[],[],[],[],[],[],[],[]
participant_4_GOLD,500,500,522,692,908,1105,1780,1991,2194,2479,3007,3243,3527,4696,5051,5697,5858,6110,6250,6446,6661,7279,7434,7638,7903,8191,8520,8910,9051,9191,9421,9658,9898,10111,10229
participant_4_CURRENTGOLD,500,0,22,192,408,605,1280,1491,194,479,1007,43,327,1496,151,797,358,610,350,546,61,29,184,388,253,541,470,860,151,291,522,308,548,761,879
participant_4_LEVEL,1,1,1,2,3,4,4,5,5,6,6,7,7,8,8,9,9,9,10,10,10,11,11,11,11,12,12,13,13,13,13,13,14,14,14
participant_4_MINIONSKILLED,0,0,0,2,4,8,8,12,13,17,18,19,19,20,21,24,25,27,27,27,27,29,30,31,31,31,35,38,38,38,39,40,40,41,41
participant_4_KILLS,0,0,0,0,0,1,2,2,2,2,4,4,4,5,5,5,5,5,5,5,5,5,5,5,7,7,8,9,9,9,9,9,9,9,9
participant_4_BUY,[],"[1035, 2031]",[],[],[],[6660],[],[],[],[],"[6664, 1001]",[],[],[],[3111],"[3066, 1028]",[1033],[],[],[1057],[],[],"[4401, 1028]",[],[],[],[3065],[],[1043],[],[],[],[],[1053],[]
participant_4_SOLD,[],[],[],[],[],[],[],[],[],[1035],[6660],[],[],[],"[3340, 3513, 1001]",[],[],[],[],[1033],[],[],"[1057, 1028, 3066, 2031]",[],[],[],[1028],[],[],[],[],[],[],[],[]
participant_4_UNDO,[],[],[],[],[],[],[],[],[],[],[],[],[],[],[],[],[],[],[],[],[],[],[],[],[],[],[],[],[],[],[],[],[],[],[]
participant_5_GOLD,500,500,541,741,987,1200,1400,1707,2474,2807,3725,4063,4396,4581,4977,5183,5334,6011,6328,6638,7123,7245,7692,8148,8680,9702,9853,11055,11883,12319,12778,13609,13732,14169,14431
participant_5_CURRENTGOLD,500,0,41,241,187,400,600,107,874,1207,25,363,396,581,977,1183,134,811,1128,338,823,445,892,1348,80,412,563,1765,2594,1229,1689,2520,542,980,1031
participant_5_LEVEL,1,1,1,3,4,4,5,6,7,7,8,9,9,10,10,11,11,12,12,12,13,13,13,13,14,14,14,15,16,16,16,16,16,17,17
participant_5_MINIONSKILLED,0,0,1,6,11,17,22,30,38,51,53,63,72,76,86,91,93,104,112,112,123,123,123,126,126,126,128,133,139,149,153,155,155,156,158
participant_5_KILLS,0,0,0,0,0,0,0,0,0,0,0,1,1,1,1,1,1,1,2,3,3,3,3,3,3,3,3,3,3,3,3,3,3,3,4
participant_5_BUY,[],"[3850, 2003, 2003, 3340]",[],[],[],"[1052, 2003, 1001]",[],[],[],[3020],[],"[3364, 2031]",[],[3802],[3108],[],[],[],[],[],"[6653, 3191]",[],[],[],[3108],[3157],[],[],[1052],[],[],[3145],[],[],[]
participant_5_SOLD,[],[],[],[],"[2010, 2003]",[2003],[],[],[],"[2419, 3850, 1001]",[],"[3340, 2003, 2003]",[],[1052],"[2031, 2010, 2010]",[],[],[3851],[],[],"[3802, 3108]",[],[],[],[2423],"[3191, 3108, 2424]",[],[],[],[],[],[1052],[],[],[]
participant_5_UNDO,[],[],[],[],[],"[[2003, 0]]",[],[],[],[],[],[],[],[],[],[],[],[],[],[],[],[],[],[],[],[],[],[],[],[],[],[],[],[],[]
participant_6_GOLD,500,515,635,943,1343,1828,1965,2292,2585,3227,3500,3857,4109,4232,5165,6161,6583,7021,7257,8094,8418,8747,9166,9601,9849,10121,10259,11877,12473,12706,13226,13580,13702,13826,14121
participant_6_CURRENTGOLD,500,15,135,443,843,28,15,342,635,1277,50,407,659,82,1015,2011,2433,721,957,1794,168,497,916,1351,1599,522,659,1378,1974,2206,2726,3080,1763,86,321
participant_6_LEVEL,1,1,2,2,3,4,4,5,5,6,6,6,7,7,8,9,9,10,10,11,11,12,12,12,13,13,13,14,15,15,15,15,15,15,16
participant_6_MINIONSKILLED,0,0,0,0,0,0,0,0,0,0,0,0,0,0,1,2,2,2,2,8,8,9,13,14,14,14,14,17,19,19,22,22,22,22,23
participant_6_KILLS,0,0,0,0,0,0,0,0,1,1,3,3,3,3,3,3,3,3,3,3,3,3,4,4,5,6,6,7,8,8,9,11,11,12,12
participant_6_BUY,[],"[3340, 2033]",[],[],[1029],[],[],"[3076, 1001]",[],[],"[6660, 3047, 1029]",[],[1029],[],[],[],[3105],[],[],"[3068, 1028]",[],[1011],[],[],"[3075, 3066]",[1057],[],[],[],[3001],[],[],[4401],[],[]
participant_6_SOLD,[],[],[],[2010],[],[],[],"[2010, 2010, 1029]",[],[],[1001],[],[],[],[],[],[1029],[],[],"[6660, 3105]",[],[1028],[],[],"[3076, 1011]",[1029],[],[],[],[1057],[],[],[3066],[],[]
participant_6_UNDO,[],[],[],[],[],[],[],[],[],[],[],[],[],[],[],[],[],[],[],[],[],[],[],[],[],[],[],[],[],[],[],[],[],[],[]
participant_7_GOLD,500,500,597,832,1169,1431,1746,2057,2423,2656,3510,3785,4139,4261,5721,6042,6324,6659,6781,7574,8727,9149,9805,10646,10840,10963,12100,12864,13037,13411,13918,14140,14347,14766,15758
participant_7_CURRENTGOLD,500,0,97,332,259,511,816,1127,1483,116,960,375,719,41,1501,572,504,839,961,1754,2907,320,975,1816,2011,533,420,1245,167,542,1048,1271,178,597,1458
participant_7_LEVEL,1,1,1,3,4,5,6,6,7,7,8,9,9,9,10,11,11,11,11,12,13,13,13,14,14,14,14,15,15,16,16,16,16,16,17
participant_7_MINIONSKILLED,0,0,4,10,20,25,33,44,55,57,70,76,86,86,99,102,103,107,107,118,125,125,128,132,136,136,137,139,139,150,154,154,154,161,165
participant_7_KILLS,0,0,0,1,2,2,3,3,3,3,3,4,4,4,4,4,5,7,7,7,7,7,7,8,9,9,9,9,9,9,9,9,9,9,9
participant_7_BUY,[],"[1055, 2003, 3340]",[],[],[],"[3134, 2031]",[1001],[],[],"[1053, 2055]",[],[],[],[6692],[1029],[],[],[],[],"[3047, 3134, 3077]",[],[],[],[],"[3074, 1036, 1036]",[3133],[],[3067],[],[],[],[3071],[],[],[]
participant_7_SOLD,[],[],[],[2003],[],[],[],[],[],[],[],[],[],"[3134, 1053]",[],[],[2055],[],[],"[1001, 1029]",[],[],[],[],"[3077, 1055]","[1036, 1036]",[],[],[],[],[],"[3133, 3067]",[],[],[]
participant_7_UNDO,[],[],[],[],[],[],[],[],[],[],[],[],[],[],[],[],[],[],[],"[[0, 3134]]",[],[],[],[],[],[],[],[],[],[],[],[],[],[],[]
participant_8_GOLD,500,500,520,1222,1759,1903,2345,2580,2981,3153,3431,4019,4261,4383,4731,4958,5579,6352,6648,6883,7138,7809,8086,8855,9271,9472,9594,10208,10458,10902,11461,11684,11862,12341,12625
participant_8_CURRENTGOLD,500,0,20,722,1259,153,295,530,931,128,406,994,1236,158,206,433,1054,1827,2123,658,913,1584,1861,2630,426,227,349,164,413,857,1417,239,418,897,1000
participant_8_LEVEL,1,1,1,3,3,4,4,5,5,6,7,7,8,8,8,8,9,9,10,10,10,11,12,12,12,12,12,13,13,14,14,14,14,15,15
participant_8_MINIONSKILLED,0,0,0,8,16,17,20,26,39,42,48,53,60,60,60,66,74,74,80,80,82,94,94,98,98,100,100,103,108,118,126,126,130,139,142
participant_8_KILLS,0,0,0,0,0,1,1,1,1,2,2,2,2,2,3,5,5,5,5,6,6,6,6,6,6,6,6,8,8,8,9,9,9,9,9
participant_8_BUY,[],"[1039, 2031]",[],[],[],"[6660, 1001]","[2055, 2055]",[],[],[],[3105],[],[],[3068],[],[],[],"[3111, 3076, 1028, 2055, 2055]",[],[],"[3075, 1033]",[],[],[],[],"[1057, 1011]",[],[3001],[],[],[],[],[3105],[3193],[]
participant_8_SOLD,[],[],[],[],[],[],[],[],[2055],[1039],[],[2055],[],"[6660, 3105]",[],[],[],[1001],[2055],[],"[3076, 1028]",[],[],[2055],[],[1033],[],"[1011, 1057]",[],[],[],[],[2031],[3105],[]
participant_8_UNDO,[],[],[],[],[],[],[],[],[],[],[],[],[],[],[],[],[],[],[],[],[],[],[],[],[],[],[],[],[],[],[],[],[],[],[]
participant_9_GOLD,500,515,597,857,1259,1414,1740,1894,2124,2399,2579,3334,3535,3715,3944,4350,4490,4868,5298,5930,6120,6303,6443,6912,7127,7318,7473,7913,8245,8385,8684,8966,9107,9319,9917
participant_9_CURRENTGOLD,500,15,97,357,759,129,455,609,839,314,494,1139,1340,655,104,510,650,1028,1458,2090,181,363,503,972,287,28,183,624,520,660,960,627,767,980,1397
participant_9_LEVEL,1,1,1,2,3,3,4,4,5,5,5,6,6,6,7,7,8,8,8,9,9,9,9,10,10,11,11,11,12,12,13,13,13,13,14
participant_9_MINIONSKILLED,0,0,0,0,0,0,2,2,2,3,3,3,3,3,4,6,6,8,8,9,9,12,12,17,17,17,17,17,18,18,22,22,22,23,26
participant_9_KILLS,0,0,0,0,0,0,0,0,0,0,1,1,1,1,3,3,3,3,3,4,7,8,9,10,10,10,12,13,13,13,13,13,13,13,15
participant_9_BUY,[],"[1082, 2031, 3340]",[],[],[3070],[],[],[],[],"[3802, 1001]",[],[1026],[],[3020],[],[6655],[1027],[],[],[],[],"[3003, 3191]",[],[],[],[3157],[1058],[],[1058],[],[],[],[3089],[],[]
participant_9_SOLD,[],[],[],[],[],[],[],[],[],[],[],[],[],[1001],[],"[3802, 1026]",[],[],[],[],[],"[3070, 1027, 3003, 1082]",[],[],[],[3191],[],[2031],[],[],[],[],"[1058, 1058]",[],[]
participant_9_UNDO,[],[],[],[],[],[],[],[],[],[],[],[],[],[],[],[],[],[],[],[],[],[],[],[],[],[],[],[],[],[],[],[],[],[],[]
team0_KILLS,0,0,0,0,2,4,6,6,6,7,11,12,13,18,19,22,22,22,22,24,25,27,27,27,31,35,36,39,39,39,39,42,44,44,44
team0_CURRENTGOLD,2500,0,377,1532,1734,1904,3302,4121,2379,3277,3187,1716,3323,6242,3068,3406,845,1895,1947,3271,2604,1527,1371,2295,5465,6662,2068,4336,2196,2121,1937,2816,3044,3554,3657
team0_TOTALGOLD,2500,2500,2877,4032,5829,7909,10007,11261,12629,14377,17357,18886,20493,24972,28098,30536,31575,32975,33862,35986,37619,39686,40671,42060,46029,48667,50190,53685,54992,56195,57360,59287,62867,64275,64982
team0_LEVEL,5,5,6,11,17,22,23,27,29,32,33,37,40,43,46,48,50,50,51,53,55,57,58,59,61,64,65,67,69,69,69,71,74,76,76
team0_SBIRES,0,0,9,28,44,77,89,114,136,160,171,184,200,222,237,267,283,304,305,316,321,341,348,359,373,379,383,403,418,434,454,460,476,491,496
team1_KILLS,0,0,0,1,2,3,4,4,5,6,9,11,11,11,14,16,17,19,20,23,26,27,29,31,33,34,36,40,41,41,43,45,45,46,49
team1_CURRENTGOLD,2500,30,390,2095,3307,1221,2181,2715,4762,3042,1935,3278,4350,1517,3803,4709,4775,5226,6627,6634,4992,3209,5147,8117,4403,1722,2174,5176,5668,5494,7840,7737,3668,3540,5207
team1_TOTALGOLD,2500,2530,2890,4595,6517,7776,9196,10530,12587,14242,16745,19058,20440,21172,24538,26694,28310,30911,32312,35119,37526,39253,41192,44162,45767,47576,49279,53917,56096,57723,60067,61979,62750,64421,66852
team1_LEVEL,5,5,6,13,17,20,23,26,29,31,34,37,39,40,43,46,48,50,51,54,56,58,59,61,63,64,64,68,71,73,74,74,74,76,79
team1_SBIRES,0,0,5,24,47,59,77,102,134,153,174,195,221,225,250,267,278,295,309,327,347,363,370,387,391,393,396,409,423,454,477,479,483,501,514
delta_KILLS,0,0,0,-1,0,1,2,2,1,1,2,1,2,7,5,6,5,3,2,1,-1,0,-2,-4,-2,1,0,-1,-2,-2,-4,-3,-1,-2,-5
delta_CURRENTGOLD,0,-30,-13,-563,-1573,683,1121,1406,-2383,235,1252,-1562,-1027,4725,-735,-1303,-3930,-3331,-4680,-3363,-2388,-1682,-3776,-5822,1062,4940,-106,-840,-3472,-3373,-5903,-4921,-624,14,-1550
delta_TOTALGOLD,0,-30,-13,-563,-688,133,811,731,42,135,612,-172,53,3800,3560,3842,3265,2064,1550,867,93,433,-521,-2102,262,1091,911,-232,-1104,-1528,-2707,-2692,117,-146,-1870
delta_LEVEL,0,0,0,-2,0,2,0,1,0,1,-1,0,1,3,3,2,2,0,0,-1,-1,-1,-1,-2,-2,0,1,-1,-2,-4,-5,-3,0,0,-3
delta_SBIRES,0,0,4,4,-3,18,12,12,2,7,-3,-11,-21,-3,-13,0,5,9,-4,-11,-26,-22,-22,-28,-18,-14,-13,-6,-5,-20,-23,-19,-7,-10,-18
