name,frame_0,frame_1,frame_2,frame_3,frame_4,frame_5,frame_6,frame_7,frame_8,frame_9,frame_10,frame_11,frame_12,frame_13,frame_14,frame_15,frame_16,frame_17,frame_18,frame_19,frame_20,frame_21,frame_22,frame_23,frame_24,frame_25,frame_26,frame_27,frame_28,frame_29,frame_30,frame_31,frame_32,frame_33,frame_34,frame_35,frame_36,frame_37,frame_38,frame_39,frame_40
nameStamp,Tstart,Tearly,Tearly,Tearly,Tearly,Tearly,Tearly,Tearly,Tearly,Tearly,Tearly,Tearly,Tearly,Tearly,Tearly,Tmid,Tmid,Tmid,Tmid,Tmid,Tmid,Tmid,Tmid,Tmid,Tmid,Tmid,Tmid,Tmid,Tmid,Tmid,Tmid,Tmid,Tmid,Tmid,Tmid,Tmid,Tmid,Tmid,Tmid,Tmid,Tmid
timestamp,0,60022,120028,180069,240070,300081,360088,420109,480115,540132,600160,660179,720211,780228,840254,900274,960277,1020302,1080306,1140323,1200350,1260379,1320382,1380400,1440432,1500457,1560463,1620470,1680473,1740501,1800526,1860540,1920549,1980550,2040556,2100558,2160568,2220587,2280619,2340638,2400638
participant_0_GOLD,500,500,611,769,952,1207,2033,2444,2580,2759,2979,3102,3372,3606,3779,4446,4569,4726,4848,4971,5093,5349,5662,5784,5907,6198,6570,6692,6815,6937,7060,7364,7487,7748,7870,8327,8527,8663,8786,9207,9351
participant_0_CURRENTGOLD,500,0,111,269,302,557,1383,394,410,589,9,132,402,336,509,1176,399,556,678,801,923,1179,1492,1614,122,413,785,907,1030,1152,1275,1579,1701,1963,2085,2542,2742,2878,76,497,401
participant_0_LEVEL,1,1,1,2,3,4,5,6,6,6,7,7,7,7,7,8,8,8,8,9,9,10,10,11,11,11,12,12,12,12,12,12,12,13,13,14,14,14,14,14,14
participant_0_MINIONSKILLED,0,0,5,7,8,13,17,22,23,26,28,28,33,40,40,50,50,52,52,52,52,54,55,55,55,59,59,59,59,59,59,65,65,69,69,81,83,84,84,92,94
participant_0_KILLS,0,0,0,0,0,0,0,0,0,0,0,0,0,0,0,1,1,1,2,2,2,2,2,3,3,3,3,4,4,4,4,5,5,6,6,8,8,8,10,10,10
participant_0_BUY,[],"[1056, 3340]",[],[],[],[],[],[],[3802],[],[1001],[],[],[],[3158],[],[],[3030],[],"[1052, 1027]",[],[],[1028],[3916],[],[],[3165],[],[],[1058],[],[],[],[],[3089],[],[1026],[1052],[],"[3135, 1052]",[]
participant_0_SOLD,[],[],[],[],[],[],[],[],[],[],[],[],[],[],[1001],[],[],[3802],[],[],[],[],[],"[1028, 1052]",[],[],[3916],[],[],[],[],[],[],[],"[1056, 1058]",[],[1027],[],[],"[1026, 1052]",[]
participant_0_UNDO,[],[],[],[],[],[],[],[],[],[],[],[],[],[],[],[],[],[],[],[],[],[],[],[],[],[],[],[],[],[],[],[],[],[],[],[],[],[],[],[],[]
participant_1_GOLD,500,500,665,804,927,1446,1903,2025,2271,2394,2586,2709,2936,3158,3373,3640,3777,3899,4021,4144,4266,4389,4511,4633,4756,4928,5051,5173,5295,5418,5540,5664,5786,5908,6031,6153,6326,6448,6570,6693,6802
participant_1_CURRENTGOLD,500,0,165,304,77,296,453,575,821,244,436,159,386,83,298,565,402,524,646,769,891,1014,1136,1258,1381,1553,1676,1798,1920,2043,2165,2289,2411,2533,2656,2778,2951,3073,3195,3318,3427
participant_1_LEVEL,1,1,2,2,2,3,4,4,4,4,5,5,5,6,6,6,7,7,7,7,7,7,7,7,7,7,7,7,7,7,7,7,7,7,7,7,7,7,7,7,7
participant_1_MINIONSKILLED,0,0,0,0,0,0,1,1,1,1,1,1,1,1,3,3,4,4,4,4,4,4,4,4,4,4,4,4,4,4,4,4,4,4,4,4,4,4,4,4,4
participant_1_KILLS,0,0,0,0,0,0,0,1,1,2,3,3,4,4,4,4,4,4,4,4,4,5,5,5,6,7,8,8,8,8,8,8,8,9,9,9,9,9,9,9,9
participant_1_BUY,[],"[1056, 2003, 2003, 3340]",[],[],[],[],[],"[1026, 2003]",[],[],[3113],[1027],[],[],[],"[3057, 2003, 2003, 2003, 2003]",[],[],[3100],[],[2003],[],[],[1058],[],[],[],[],[],[3089],[],[],[1052],[],[],[],[1026],[],[],[3135],[]
participant_1_SOLD,[],[],[],[],"[2003, 2003]",[],[2010],"[2010, 2010]",[],[2003],[],[],[],[],[],[1027],[],[],"[3057, 3113, 1026]",[],[],[],[],[],[],[],"[2003, 2003, 2003, 2003, 2003]",[],[],[1058],[],[],[],[],[],[],[],[],[],"[1026, 1052]",[]
participant_1_UNDO,[],[],[],[],[],[],[],[],[],[],[],[],[],[],[],[],[],[],[],[],[],[],[],[],[],[],[],[],[],[],[],[],[],[],[],[],[],[],[],[],[]
participant_2_GOLD,500,500,583,825,1099,1270,1463,1676,1881,2079,2251,2444,2622,2758,3054,3997,4235,4378,5048,5171,5363,5699,6121,6557,6830,7387,7687,8245,8691,8828,9060,9574,9861,10817,10939,12299,12790,12913,13975,14097,14352
participant_2_CURRENTGOLD,500,100,183,425,699,870,1063,1276,181,379,251,444,622,758,454,1397,1635,278,948,286,478,814,836,507,780,1337,237,795,1241,128,360,875,1161,2117,50,1409,1296,983,2046,368,217
participant_2_LEVEL,1,1,1,3,4,5,5,6,7,7,7,7,8,8,8,9,9,9,9,9,10,10,11,11,11,12,12,13,13,13,13,14,14,15,15,16,16,16,17,18,18
participant_2_MINIONSKILLED,0,0,4,10,16,19,23,29,31,31,31,35,38,39,43,44,47,48,54,54,58,62,62,63,63,65,67,76,82,83,85,91,92,96,96,99,103,103,114,114,118
participant_2_KILLS,0,0,0,0,0,0,1,1,1,1,1,1,1,1,1,1,1,1,1,1,1,1,1,1,1,1,1,1,1,1,1,1,1,1,1,1,1,1,1,1,1
participant_2_BUY,[],"[1055, 2003, 3340]",[],[],[2031],[],[],"[1001, 1042, 1018]",[1042],[],"[3006, 1042]",[],[],[3086],[],[],[3046],[],[],[],[],[],[],[],"[1037, 1018]",[],[],[],[],[],[],[],[],[],[],[],[],[],"[3031, 1053, 1029]",[],[]
participant_2_SOLD,[],[],[],[2003],[],[],[],[],[1055],[],"[1001, 1042]",[],[],"[1018, 1042]",[],[],"[1042, 3086]",[],[],[],[],[],[],[],[2031],[],[],[],[],[],[],[],[],[],[],[],[],[],"[1037, 1018]",[],[]
participant_2_UNDO,[],[],[],[],[],[],[],[],[],[],[],[],[],[],[],[],[],[],[],[],[],[],[],[],[],[],[],[],[],[],[],[],[],[],[],[],[],[],[],[],[]
participant_3_GOLD,500,500,562,846,1074,1343,1714,2300,2757,3011,3133,3312,3788,4544,4787,5118,5332,5656,5813,6754,6904,7062,8673,8935,9211,9936,11258,11581,12256,12910,13389,13608,14404,15004,15321,16859,17473,17749,18695,19144,19528
participant_3_CURRENTGOLD,500,0,62,346,574,843,1214,1800,2257,2511,83,262,738,1494,237,568,782,1106,1263,129,279,437,2048,2310,861,1586,2908,1091,1766,2421,179,399,1195,1794,512,2050,2664,2939,3886,1002,1085
participant_3_LEVEL,1,1,1,2,3,4,5,5,6,6,6,7,7,8,8,9,9,9,9,10,10,10,11,11,11,12,13,13,14,14,15,15,15,16,16,16,17,17,18,18,18
participant_3_MINIONSKILLED,0,0,2,12,18,27,38,47,49,52,52,55,64,73,77,82,87,95,97,100,102,104,108,116,121,129,129,133,141,151,154,155,161,172,179,185,188,193,202,213,213
participant_3_KILLS,0,0,0,0,0,1,2,2,2,2,2,2,2,2,2,2,2,2,2,2,2,2,2,2,2,2,2,2,2,2,2,2,2,2,2,2,2,2,2,2,2
participant_3_BUY,[],"[1041, 2031, 3340]",[],[],[1039],[3715],[1001],[],[],"[1036, 1036]",[],[3133],[],[1412],[],[],[1042],[],[],[],[],[],[],[],[],[],[],[],[],[],[],[],[],[],[],[],[],[],[],[],[]
participant_3_SOLD,[],[],[],[],[],"[1039, 1041]",[],[],[],[],[],"[1036, 1036]",[],"[3133, 3715]",[],[],[],[],[],[],[],[],[],[],[],[],[],[],[],[],[],[],[],[],[],[],[],[],[],[],[]
participant_3_UNDO,[],[],[],[],[],[],[],[],[],[],[],[],[],[],[],[],[],[],[],[],[],[],[],[],[],[],[],[],[],[],[],[],[],[],[],[],[],[],[],[],[]
participant_4_GOLD,500,500,520,643,766,888,1025,1447,1733,2156,2620,2743,3165,3287,3502,3674,3797,3919,4041,4328,4450,5187,5309,5445,6168,6703,7439,7644,7766,7889,8086,8285,8407,8857,8980,9327,9574,9760,10242,10476,10613
participant_4_CURRENTGOLD,500,0,20,143,266,388,525,47,333,756,370,143,565,687,902,174,297,419,91,378,450,1187,1309,195,918,1453,2189,2394,2516,289,486,685,372,822,945,1292,690,875,1357,227,363
participant_4_LEVEL,1,1,1,2,3,3,4,5,5,6,6,6,7,7,7,7,7,7,7,8,8,9,9,9,9,10,11,12,12,12,12,13,13,13,13,14,15,15,16,16,16
participant_4_MINIONSKILLED,0,0,0,0,0,0,1,1,2,2,4,4,4,4,7,7,7,7,7,8,8,9,9,10,10,10,11,12,12,12,12,12,12,14,14,14,14,17,30,37,39
participant_4_KILLS,0,0,0,0,0,0,0,0,1,1,1,1,1,1,1,1,1,1,1,2,2,2,5,5,5,6,10,10,11,12,13,13,14,14,14,17,18,18,19,19,20
participant_4_BUY,[],"[1055, 2003, 3340]",[],[],[],[],[],[],[],[],"[1038, 3006, 2031]",[],[],[],"[1018, 2015]",[],[],[],[],"[3095, 1037, 1018]",[],[],[],[],[3031],[],[],"[1038, 1053]",[],[],"[3072, 1038, 1029]",[],[],[],"[3026, 1028]",[],[],[],[],[3078],[]
participant_4_SOLD,[],[],[],[],[],[2003],[],[],[],[],[],[],[],[],[],[],[],[],[],"[1038, 1018, 2015, 2031]",[],[],[],[],"[1037, 1018]",[],[],[2031],[],[],"[1038, 1053, 1055]",[],[],[],"[1038, 1029]",[],[],[],[],[1028],[]
participant_4_UNDO,[],[],[],[],[],[],[],[],[],[],[],[],[],[],[],[],[],[],[],"[[2031, 0]]",[],[],[],[],[],[],[],[],[],[],[],[],[],[],[],[],[],[],[],[],[]
participant_5_GOLD,500,500,562,853,1439,2064,2515,2742,3492,3776,4348,4841,5292,5484,5692,5883,6190,6899,7682,8953,9076,9827,9950,10072,10852,11088,11425,11882,12466,12727,13150,13720,14016,14662,15353,15699,16617,16790,17012,17475,17649
participant_5_CURRENTGOLD,500,0,62,353,939,364,115,342,1092,1376,548,1041,1492,1684,1892,483,290,999,1782,253,376,1127,510,632,1413,153,66,522,107,368,790,1360,57,703,1394,840,1758,1931,323,786,-851
participant_5_LEVEL,1,1,1,3,4,5,6,6,7,8,8,8,9,10,10,10,10,11,11,12,12,12,12,12,13,13,13,14,14,14,14,15,15,15,16,16,17,17,17,17,17
participant_5_MINIONSKILLED,0,0,2,12,16,25,27,33,43,52,52,56,70,74,74,74,82,94,96,100,100,104,104,104,113,116,116,127,134,138,138,145,152,158,170,176,187,187,187,188,190
participant_5_KILLS,0,0,0,0,0,0,0,0,0,0,1,1,1,1,1,2,2,3,3,3,3,4,5,7,8,8,8,8,8,8,8,9,9,10,10,11,11,11,11,11,12
participant_5_BUY,[],"[1039, 2031]",[],[],[],[3706],[],[],[],[],[],[],"[3020, 3145]",[],[],[],[3067],[],[],"[3152, 1027]",[],[],[],[],[],[],[],[],"[1402, 3191, 3108]",[2420],[],"[3157, 1028]",[],[],[],[],[3916],[],[],[],[]
participant_5_SOLD,[],[],[],[],[],[1039],[],[],[],[],[],[],[],[],[],[],[],[],[],"[3145, 3067]",[],[],[],[],[],[],[],[],"[1027, 3706]",[2031],[],"[2420, 3191, 3108, 2421]",[],[],[],[],[1028],[],[],[],[]
participant_5_UNDO,[],[],[],[],[],[],[],[],[],[],[],[],[],[],[],[],[],[],[],[],[],[],[],[],[],[],[],[],[],[],[],[],[],[],[],[],[],[],[],[],[]
participant_6_GOLD,500,500,620,949,1141,1490,1763,1985,2207,2428,3050,3258,3380,3656,3778,4200,4323,4895,5067,5289,5493,5966,6388,7186,7809,8166,8338,8635,8835,9047,9427,9925,10149,10586,10983,11476,11598,11966,12304,12797,13821
participant_6_CURRENTGOLD,500,0,120,449,641,340,613,835,1057,1278,1900,2108,80,356,478,900,223,795,967,189,393,866,1288,2086,2709,3066,3238,3535,585,208,587,435,660,1097,1493,1987,909,1276,1615,2108,3071
participant_6_LEVEL,1,1,2,3,3,3,4,4,4,5,5,6,6,6,6,6,6,7,7,8,8,8,9,10,10,10,10,11,11,11,11,12,12,13,13,13,13,13,14,14,15
participant_6_MINIONSKILLED,0,0,0,0,0,0,0,0,0,0,0,0,0,0,0,0,0,0,0,1,3,3,3,3,3,3,3,9,11,12,19,19,23,30,36,37,37,44,49,50,61
participant_6_KILLS,0,0,0,0,1,2,3,3,4,4,5,6,6,6,6,6,6,6,8,11,11,12,12,12,12,12,13,13,13,13,14,15,15,16,16,16,17,17,17,17,17
participant_6_BUY,[],"[1055, 2003, 3340]",[],[],[],"[1053, 1042]",[1043],[],[],[],"[3144, 3153]",[],[],[],[],"[1038, 1042]",[3006],[],[],"[3508, 1018]",[],[],[1038],[],[],"[1037, 1018]",[3031],[],"[2015, 1042]",[],[],[],[3094],[],[],[1053],[],[],[3072],[],[1042]
participant_6_SOLD,[],[],[],"[2003, 2010]",[],[],"[2010, 1042]",[],[2010],[],"[1053, 3144, 1043]",[],[],[],[],[],"[1042, 2422]",[],[],[1038],[],[],[1018],[],[],[1055],"[1038, 1037, 1018]",[],[],[],[],[],"[1042, 2015]",[],[],[],[],[],"[3006, 1053]",[],[]
participant_6_UNDO,[],[],[],[],[],[],[],[],[],[],[],[],[],[],[],[],[],[],[],[],[],[],[],[],[],[],[],[],[],[],[],[],[],[],[],[],[],[],[],[],[]
participant_7_GOLD,500,500,590,892,1092,1326,1641,1847,2143,2566,2838,2961,3203,3785,3908,4099,4378,4675,4818,4990,5584,5973,6345,6705,7383,7828,8314,8542,9352,9865,10030,10892,11114,11579,11751,12098,12221,12470,13006,13379,14046
participant_7_CURRENTGOLD,500,0,90,392,592,826,1141,1347,1643,2066,38,161,403,985,1108,199,478,775,918,40,634,1023,1395,920,1598,2043,364,592,1402,1915,2080,2942,1915,2379,201,549,671,921,1457,790,1336
participant_7_LEVEL,1,1,1,3,4,5,6,6,7,7,7,7,8,8,8,8,9,9,9,10,10,10,11,11,12,12,12,13,13,13,14,14,14,15,15,15,15,15,15,16,17
participant_7_MINIONSKILLED,0,0,4,12,16,23,32,37,44,44,44,44,48,50,50,50,55,58,59,59,60,65,71,71,74,82,83,89,96,101,103,104,104,106,106,106,106,109,110,110,111
participant_7_KILLS,0,0,0,0,0,0,0,0,0,1,1,1,1,2,2,2,2,2,2,2,4,4,4,4,5,5,5,5,6,7,7,8,8,8,8,8,8,8,9,9,10
participant_7_BUY,[],"[1056, 2003, 2003, 3340]",[],[],[],[],[],[],[],[],"[3802, 1026, 2031]",[],[],[],[],"[1001, 3020]",[],[],[],[3285],[],[],[],"[1052, 1028]",[],[],[3165],[],[],[],[],[],[1058],[],[3089],[],[],[],[],[3191],[]
participant_7_SOLD,[],[],[],[],[],[],[2010],[2010],[2010],[2003],[2003],[],[],[],[],[1001],[],[],[],"[3802, 1026]",[],[],[],[],[],[],"[1028, 1052]",[],[],[],[],[],[],[],"[1058, 2031]",[],[],[],[],[2031],[]
participant_7_UNDO,[],[],[],[],[],[],[],[],[],[],[],[],[],[],[],[],[],[],[],[],[],[],[],[],[],[],[],[],[],[],[],[],[],[],"[[2031, 0]]",[],[],[],[],[],[]
participant_8_GOLD,500,500,541,727,899,1119,1256,1775,1994,2117,2358,2618,2824,3413,3577,3700,3857,4050,4431,4623,4925,5161,5304,5497,5669,5841,6104,6337,6661,6943,7101,7266,7423,7745,7917,8090,8212,8656,8878,9293,9655
participant_8_CURRENTGOLD,500,0,41,227,399,619,456,975,1194,217,458,718,924,1513,377,500,57,250,631,823,1125,1361,1504,1697,969,1141,304,237,561,843,1001,1166,1323,1645,617,790,912,1356,1578,1993,2355
participant_8_LEVEL,1,1,1,2,3,4,4,5,6,6,6,6,7,7,8,8,8,8,9,9,9,9,10,10,10,10,11,11,11,11,12,12,12,13,13,13,13,13,13,14,15
participant_8_MINIONSKILLED,0,0,1,5,8,14,15,19,22,22,25,27,31,35,37,37,39,40,47,47,49,52,53,57,57,57,57,59,62,67,69,71,73,75,75,75,75,79,79,81,85
participant_8_KILLS,0,0,0,0,0,0,0,0,0,0,1,1,1,2,2,2,2,2,2,2,2,2,2,2,2,2,3,3,3,3,3,3,3,5,5,5,5,5,5,5,6
participant_8_BUY,[],"[3850, 2003, 2003]",[],[],[],[],[],"[1001, 1052, 1027]",[],[],[],[],[],[],[],"[3174, 1052, 1004, 3158]",[],[],[],"[3802, 3113, 3114, 1052]",[],[],[],[3504],[],[],[],[3145],[],[],[],[],[],[],[3030],[3105],[3190],[],[3801],[],[]
participant_8_SOLD,[],[],[],[],[],[2010],"[2003, 2003]",[2010],[],[],[2010],[],[],[3850],[],"[1052, 1001]",[],[],[],[1027],[],[],[3851],"[3114, 1052]",[],[],[],[],[],[],[],[],[],[],"[1027, 3145]",[],"[3853, 3105]",[],[],[],[]
participant_8_UNDO,[],[],[],[],[],[],[],[],[],[],[],[],[],[],[],"[[0, 1004], [0, 1052]]",[],[],[],"[[0, 3802], [0, 3113]]",[],[],[],[],[],[],[],[],[],[],[],[],[],[],[],[],[],[],[],[],[]
participant_9_GOLD,500,500,522,717,910,1104,1274,1588,1758,1973,2593,2832,2966,3692,3933,4074,4273,4628,4942,5147,5490,6052,6352,6492,6724,7040,7701,7877,8142,8432,8723,9049,9280,10123,10384,10650,10773,10974,11346,11802,12524
participant_9_CURRENTGOLD,500,0,22,217,410,604,774,3,173,388,1008,1247,1381,2107,2348,224,423,778,1092,62,405,967,1267,342,574,890,1551,677,942,1232,1523,1849,2080,2923,1785,950,133,334,56,513,1074
participant_9_LEVEL,1,1,1,2,3,4,4,5,5,6,6,7,7,8,8,8,8,8,9,9,9,10,10,10,10,11,11,11,12,12,13,13,13,14,14,14,14,14,15,15,16
participant_9_MINIONSKILLED,0,0,0,0,2,2,4,4,5,7,12,13,13,18,21,21,22,23,24,24,24,26,31,31,33,33,34,36,36,36,36,38,39,41,42,42,42,42,42,47,50
participant_9_KILLS,0,0,0,0,0,0,0,1,1,1,1,1,1,2,2,2,2,2,2,2,2,2,2,2,2,2,2,2,2,2,2,2,2,2,2,2,2,3,3,3,3
participant_9_BUY,[],"[1055, 2003, 3340]",[],[],[],[],[1001],[],[],[3133],[],[],[],[],[1038],[],[3158],[],[],[],[],[],[],[],[3508],[],"[1018, 1042]",[3086],[],[],[],[],[],[],[3085],[],[],[],[],[],[]
participant_9_SOLD,[],[],[],[],[2003],[],[],[],[],[],[],[],[],[],[],[],[1001],[],[],[],[],[],[],[],"[1038, 3133]",[],[],"[1018, 1042]",[],[],[],[],[],[],[3086],[],[],[],[],[],[]
participant_9_UNDO,[],[],[],[],[],[],[],[],[],[],[],[],[],[],[],[],[],[],[],[],[],[],[],[],[],[],[],[],[],[],[],[],[],[],[],[],[],[],[],[],[]
team0_KILLS,0,0,0,0,0,1,3,4,5,6,7,7,8,8,8,9,9,9,10,11,11,12,15,16,17,19,24,25,26,27,28,29,30,32,32,37,38,38,41,41,42
team0_CURRENTGOLD,2500,100,541,1487,1918,2954,4638,4092,4002,4479,1149,1140,2713,3358,2400,3880,3515,2883,3626,2363,3021,4631,6821,5884,4062,6342,7795,6985,8473,6033,4465,5827,6840,9229,6248,10071,10343,10748,10560,5412,5493
team0_TOTALGOLD,2500,2500,2941,3887,4818,6154,8138,9892,11222,12399,13569,14310,15883,17353,18495,20875,21710,22578,23771,25368,26076,27686,30276,31354,32872,35152,38005,39335,40823,41982,43135,44495,45945,48334,49141,52965,54690,55533,58268,59617,60646
team0_LEVEL,5,5,6,11,15,19,23,26,28,29,31,32,34,36,36,39,40,40,40,43,44,46,48,49,49,52,55,57,58,58,59,61,61,64,64,67,69,69,72,73,73
team0_SBIRES,0,0,11,29,42,59,80,100,106,112,116,123,140,157,170,186,195,206,214,218,224,233,238,248,253,267,270,284,298,309,314,327,334,355,362,383,392,401,434,460,468
team1_KILLS,0,0,0,0,1,2,3,4,5,6,9,10,10,13,13,14,14,15,17,20,22,24,25,27,29,29,31,31,32,33,34,37,37,41,41,42,43,44,45,45,48
team1_CURRENTGOLD,2500,0,335,1638,2981,2753,3099,3502,5159,5325,3952,5275,4280,6645,6203,2306,1471,3597,5390,1367,2933,5344,5964,5677,7263,7293,5523,5563,3597,4566,5981,7752,6035,8747,5490,5116,4383,5818,5029,6190,6985
team1_TOTALGOLD,2500,2500,2835,4138,5481,7103,8449,9937,11594,12860,15187,16510,17665,20030,20888,21956,23021,25147,26940,29002,30568,32979,34339,35952,38437,39963,41882,43273,45456,47014,48431,50852,51982,54695,56388,58013,59421,60856,62546,64746,67695
team1_LEVEL,5,5,6,13,17,21,24,26,29,32,32,34,37,39,40,40,41,43,45,48,48,49,52,53,55,56,57,60,61,61,64,66,66,70,71,71,72,72,74,76,80
team1_SBIRES,0,0,7,29,42,64,78,93,114,125,133,140,162,177,182,182,198,215,226,231,236,250,262,266,280,291,293,320,339,354,365,377,391,410,429,436,447,461,467,476,497
delta_KILLS,0,0,0,0,-1,-1,0,0,0,0,-2,-3,-2,-5,-5,-5,-5,-6,-7,-9,-11,-12,-10,-11,-12,-10,-7,-6,-6,-6,-6,-8,-7,-9,-9,-5,-5,-6,-4,-4,-6
delta_CURRENTGOLD,0,100,206,-151,-1063,201,1539,590,-1157,-846,-2803,-4135,-1567,-3287,-3803,1574,2044,-714,-1764,996,88,-713,857,207,-3201,-951,2272,1422,4876,1467,-1516,-1925,805,482,758,4955,5960,4930,5531,-778,-1492
delta_TOTALGOLD,0,0,106,-251,-663,-949,-311,-45,-372,-461,-1618,-2200,-1782,-2677,-2393,-1081,-1311,-2569,-3169,-3634,-4492,-5293,-4063,-4598,-5565,-4811,-3877,-3938,-4633,-5032,-5296,-6357,-6037,-6361,-7247,-5048,-4731,-5323,-4278,-5129,-7049
delta_LEVEL,0,0,0,-2,-2,-2,-1,0,-1,-3,-1,-2,-3,-3,-4,-1,-1,-3,-5,-5,-4,-3,-4,-4,-6,-4,-2,-3,-3,-3,-5,-5,-5,-6,-7,-4,-3,-3,-2,-3,-7
delta_SBIRES,0,0,4,0,0,-5,2,7,-8,-13,-17,-17,-22,-20,-12,4,-3,-9,-12,-13,-12,-17,-24,-18,-27,-24,-23,-36,-41,-45,-51,-50,-57,-55,-67,-53,-55,-60,-33,-16,-29
