name,team0,team1
win,Win,Fail
firstBlood,True,False
firstTower,False,True
firstInhibitor,True,False
firstBaron,False,False
firstDragon,False,True
firstRiftHerald,False,False
towerKills,11,1
inhibitorKills,3,0
baronKills,0,0
dragonKills,2,2
riftHeraldKills,0,0
