name,frame_0,frame_1,frame_2,frame_3,frame_4,frame_5,frame_6,frame_7,frame_8,frame_9,frame_10,frame_11,frame_12,frame_13,frame_14,frame_15,frame_16,frame_17,frame_18,frame_19,frame_20,frame_21,frame_22,frame_23,frame_24,frame_25,frame_26,frame_27,frame_28,frame_29,frame_30,frame_31,frame_32,frame_33
nameStamp,Tstart,Tearly,Tearly,Tearly,Tearly,Tearly,Tearly,Tearly,Tearly,Tearly,Tearly,Tearly,Tearly,Tmid,Tmid,Tmid,Tmid,Tmid,Tmid,Tmid,Tmid,Tmid,Tmid,Tmid,Tmid,Tmid,Tend,Tend,Tend,Tend,Tend,Tend,Tend,Tend
timestamp,0,60006,120032,180056,240083,300090,360118,420125,480141,540158,600165,660192,720198,780211,840228,900253,960260,1020289,1080296,1140306,1200324,1260329,1320335,1380336,1440352,1500377,1560393,1620413,1680441,1740445,1800464,1860483,1920496,1980496
participant_0_GOLD,500,500,620,764,1434,1918,2473,2815,3000,4037,4174,4714,5351,6435,6803,7560,7745,8055,8331,8757,8929,9052,9174,10149,11355,11969,12091,12713,13159,13281,13940,14728,16068,16315
participant_0_CURRENTGOLD,500,0,120,189,209,93,648,340,175,1212,359,899,1536,45,413,1170,80,390,296,122,295,417,89,1064,2271,234,356,978,1424,447,1106,1894,3233,1240
participant_0_LEVEL,1,1,1,1,3,4,5,6,6,7,8,9,10,10,10,11,11,12,12,12,13,13,13,14,15,15,15,16,16,16,16,17,18,18
participant_0_MINIONSKILLED,0,0,0,1,5,8,15,25,28,42,43,58,67,77,78,95,99,106,111,116,116,116,116,135,147,152,152,157,159,159,177,177,192,192
participant_0_KILLS,0,0,0,0,1,2,3,3,3,4,4,4,5,5,5,6,6,6,6,6,6,6,6,7,8,8,8,9,10,10,10,12,13,13
participant_0_BUY,[],"[1055, 2003, 3340]",[],[2055],"[1036, 1042]","[1053, 2003]",[],"[1001, 1036]",[1036],[],[3077],[],[],"[3074, 3051, 3111, 2055, 2003, 2003]",[],[],"[6029, 2055]",[],[1028],[6631],[],[],[1033],[],[],[3091],[],[],[],[3133],[],[],[],[6333]
participant_0_SOLD,[],[],[2003],[2055],[],[1036],[2003],[],[],[],[1042],[],[],"[3077, 1053, 1036, 1036, 1001]",[],[2055],"[2003, 2003]",[],[2055],"[6029, 3051, 1028]",[],[],[],[],[],[1033],[],[],[],[],[],[],[],[3133]
participant_0_UNDO,[],[],[],[],[],[],[],[],[],[],[],[],[],[],[],[],[],[],[],[],[],[],[],[],[],[],[],[],[],[],[],[],[],[]
participant_1_GOLD,500,500,620,1018,1318,1482,1835,2068,2515,2909,3216,4159,5846,6382,6605,7575,8023,8520,9008,9835,10642,10915,11223,12145,12367,13086,13566,14436,14609,15126,15318,15441,15988,17336
participant_1_CURRENTGOLD,500,0,120,518,818,982,1335,268,715,1109,1416,249,1696,2232,255,1225,1673,2170,158,85,892,66,373,1295,218,936,317,487,259,777,969,242,789,2086
participant_1_LEVEL,1,1,2,3,4,4,5,5,6,7,7,8,9,10,10,11,11,12,12,13,13,13,13,14,14,15,16,16,16,17,17,17,17,18
participant_1_MINIONSKILLED,0,0,0,0,0,2,2,3,3,4,4,11,11,14,14,17,23,23,23,25,25,28,28,34,34,36,41,44,44,50,50,50,50,60
participant_1_KILLS,0,0,0,0,0,0,0,0,0,1,1,1,1,1,1,1,1,1,1,1,1,1,1,1,1,1,1,1,1,1,1,1,1,1
participant_1_BUY,[],"[3854, 2003, 2003, 3340]",[],[],"[1036, 2003]",[],[],[3134],[],[],"[1053, 2055, 2003]","[2003, 2003, 2003]",[1001],[],"[1036, 3364]",[],[6692],[],[3009],[],[],[],"[1036, 1033]",[],[],"[3155, 1036]",[3133],[],[],[],[],[3156],[1028],[]
participant_1_SOLD,[],[],[],[2003],[],[],[],[1036],[2003],[2003],[2055],"[2003, 2003]",[3854],[],"[3340, 2003]",[],"[3134, 1036, 1053]",[],[1001],[3855],[2003],[],[],[],[],"[1036, 1033]",[1036],[],[],[],[],"[3155, 3133]",[],[]
participant_1_UNDO,[],[],[],[],[],[],[],[],[],[],[],[],[],[],[],[],[],[],[],[],[],[],[],[],[],[],[],[],[],[],[],[],[],[]
participant_2_GOLD,500,500,625,934,1225,1473,1816,2113,2493,2793,2978,3436,3629,3864,4099,4376,4649,5029,5374,5547,5738,5860,6147,6412,6874,7347,7511,8033,8285,8450,8691,8813,9236,10086
participant_2_CURRENTGOLD,500,0,125,424,715,963,371,668,1038,1328,213,221,414,649,884,1161,274,654,199,222,413,100,387,652,1114,337,501,1023,1275,125,366,54,476,1276
participant_2_LEVEL,1,1,1,3,4,5,6,7,7,8,8,9,9,9,9,10,10,10,11,11,11,11,12,12,12,13,13,14,14,14,15,15,15,16
participant_2_MINIONSKILLED,0,0,6,14,23,30,40,50,62,69,73,75,76,80,87,93,98,109,118,118,118,118,119,127,135,135,138,146,149,151,158,158,158,165
participant_2_KILLS,0,0,0,0,0,0,0,0,0,0,0,0,2,3,3,5,5,5,6,7,9,9,9,11,11,11,11,12,12,12,12,12,12,15
participant_2_BUY,[],"[1035, 3340, 2031]",[],[],[],[],[],[6670],[],[],[],[6672],[1001],[],"[6677, 3111, 1018]",[],[],[],"[3124, 3051]",[1057],[],[3091],[],[],[3155],[],[3133],[3156],[1028],[],[],[3211],[],[]
participant_2_SOLD,[],[],[],[],[],[],[],[],[],[1035],[3340],"[3513, 6670]",[2031],[],[1001],[],[3340],[],"[6677, 1018]",[3513],[],"[3051, 1057]",[],[],[],[],[],"[3155, 3133]",[],[],[],[1028],[],[]
participant_2_UNDO,[],[],[],[],[],[],[],[],[],[],[],[],[],[],[],[],[],[],[],[],[],[],[],[],[],[],[],[],[],[],[],[],[],[]
participant_3_GOLD,500,500,597,1219,1384,1807,2077,2750,3004,3768,4019,4450,4806,5685,6212,6819,7245,7431,8038,8314,9777,9921,10618,11082,11819,12772,12919,13375,13809,13931,14541,14858,15281,15758
participant_3_CURRENTGOLD,500,0,97,719,159,582,852,1525,454,1218,969,1400,881,1760,612,1219,1645,181,213,489,1952,696,1393,58,794,1747,425,880,1314,987,1597,314,736,1033
participant_3_LEVEL,1,1,1,2,3,4,4,5,6,6,7,7,8,8,8,9,10,10,10,11,11,11,12,13,13,14,14,14,15,15,15,16,16,16
participant_3_MINIONSKILLED,0,0,4,12,14,30,38,52,56,64,71,75,82,91,96,109,117,121,133,135,142,143,148,158,168,179,179,186,193,193,202,209,209,218
participant_3_KILLS,0,0,0,0,0,0,0,0,0,0,0,1,1,1,1,1,1,1,1,1,1,1,1,1,1,1,1,1,1,1,1,1,1,2
participant_3_BUY,[],"[2033, 3340]",[],[],[],[],"[1026, 2055]",[],[],[],[3802],"[1001, 2055, 2055]",[],[],[],[],[6656],[],[3111],"[2055, 2055]",[],[1052],[],[],[],"[3145, 3145, 1058]",[],[],[],[4628],[],[1052],[],[]
participant_3_SOLD,[],[],[],[],[],[],[],[],[],[2055],[],[],[],[],[2055],[2055],"[2010, 2010, 2010, 3802, 1026]",[],[1001],[2055],[],[],[2055],[],[],"[1052, 1052]",[],[],[],"[1058, 1052]",[],[],[],[]
participant_3_UNDO,[],[],[],[],[],[],[],[],[],[],[],[],[],[],[],[],[],[],[],[],[],[],[],[],[],"[[0, 3145], [0, 3145]]",[],[],[],[],[],[],[],[]
participant_4_GOLD,500,500,564,848,1003,1236,1421,1706,1930,2684,2818,3096,3377,3776,4121,4556,4696,4954,5095,5397,5696,5954,6095,6256,6611,7210,7371,7512,7809,7949,8118,8258,8698,9074
participant_4_CURRENTGOLD,500,0,64,348,103,336,521,56,280,1034,143,271,252,651,646,1081,371,629,170,472,771,1030,370,531,886,635,47,187,484,624,793,233,273,649
participant_4_LEVEL,1,1,1,2,3,4,4,4,5,6,6,6,7,7,7,8,8,8,8,9,10,10,10,10,11,12,12,12,13,13,13,13,13,14
participant_4_MINIONSKILLED,0,0,2,3,4,7,9,9,11,16,16,17,19,20,22,25,25,28,28,34,34,37,37,38,39,40,41,41,42,42,44,44,44,44
participant_4_KILLS,0,0,0,1,1,1,1,2,2,3,3,4,4,4,5,5,5,5,5,5,7,7,8,8,8,9,9,9,9,9,10,10,10,10
participant_4_BUY,[],"[1054, 2003, 3340]",[],[],"[1001, 1036, 2055]",[],[],[],"[6670, 1042, 2055]",[],[3006],[],[1037],[],"[6672, 1033]",[],[],"[1038, 1036]","[3155, 3363, 2055]",[],[],[3095],[],[3156],[],[],"[3140, 1036]",[],[],[3123],[],[3139],[],[]
participant_4_SOLD,[],[],[],[],[],[2003],[2055],[],[1036],[],"[1001, 1042]",[],[],[],"[6670, 1037]",[2055],[],[],"[1036, 1033, 3340]",[],[],[1038],[],[3155],[],[],"[2055, 1054]",[],[],[1036],[],[3140],[],[]
participant_4_UNDO,[],[],[],[],[],[],[],[],[],[],[],[],[],[],[],[],[],[],[],[],[],[],[],[],[],[],[],[],[],[],[],[],[],[]
participant_5_GOLD,500,900,920,1571,2038,2373,2552,2779,3124,3407,3846,4116,4343,4540,4877,5176,5470,6177,6383,6806,7020,7652,8196,8340,8650,9406,9755,10373,10700,11171,12211,12578,13101,13198
participant_5_CURRENTGOLD,500,400,45,696,163,128,307,234,579,362,801,636,398,520,857,306,600,1307,28,451,665,1297,1841,120,130,886,435,1053,1381,151,1191,1558,1481,1548
participant_5_LEVEL,1,1,1,3,4,4,5,6,7,7,8,8,9,9,9,9,10,10,11,11,12,12,13,13,13,14,14,15,15,16,16,16,17,17
participant_5_MINIONSKILLED,0,0,0,11,13,17,20,26,36,36,52,61,67,67,73,78,84,91,96,96,96,97,110,111,118,123,129,146,150,162,177,188,194,194
participant_5_KILLS,0,1,1,2,3,3,3,3,3,3,3,3,3,3,3,3,3,4,4,4,4,5,5,5,5,6,6,6,6,6,7,7,8,8
participant_5_BUY,[],[2033],"[1042, 2055]",[],"[1043, 1001]",[1028],[],[1029],[],[3047],[],[1052],[4635],[2055],[],[1026],[],[],"[4633, 1052]",[],[],[],[],"[3115, 1042]",[1042],[],"[6677, 1018]",[],[],"[3124, 1029]",[],[],[3191],[]
participant_5_SOLD,[],[],[],[],[1042],[2055],[],[],[],"[1001, 1029]",[],[],"[1028, 1052]",[],[2055],[],[],[],"[4635, 1026]",[],[],[],[],"[1043, 1052]",[],[],"[1042, 1042]",[],[],"[6677, 1018]",[],[],[1029],[]
participant_5_UNDO,[],[],[],[],[],[],[],[],[],[],[],[],[],[],[],[],[],[],[],[],[],[],[],[],[],[],[],[],[],[],[],[],[],[]
participant_6_GOLD,500,500,620,1018,1276,1475,1683,2189,2435,2762,3005,3305,3746,3869,4221,4344,4551,4758,4986,5108,5231,5399,5797,6098,6221,6543,6666,7351,7565,7899,8021,8301,8508,8619
participant_6_CURRENTGOLD,500,0,120,518,776,175,383,889,1135,1462,755,1055,1496,169,521,644,551,758,486,608,131,99,497,398,521,343,466,1151,65,399,521,801,1008,119
participant_6_LEVEL,1,1,2,3,3,4,5,5,6,6,7,7,8,8,9,9,9,10,10,10,10,10,11,11,11,12,12,12,12,13,13,14,14,15
participant_6_MINIONSKILLED,0,0,0,0,0,0,0,2,2,2,4,6,7,7,8,8,8,8,8,8,8,8,8,8,8,11,11,13,15,15,15,18,18,19
participant_6_KILLS,0,0,0,0,0,0,0,1,1,1,1,1,1,1,1,1,1,1,1,1,1,1,1,1,1,1,1,2,2,2,2,2,2,2
participant_6_BUY,[],"[1035, 2003, 2003, 2003, 3340]",[],[],[],"[1028, 1028]",[],[],[],[],"[6660, 1033, 1029]",[],[],[3068],[],[],[1029],[],[3047],[],"[1029, 1029]",[3076],[],[1028],[],[1011],[3364],[],"[3075, 1029]",[],[],[],[],"[3082, 1029]"
participant_6_SOLD,[],[2003],[],[2003],[2003],[],[],[],[1035],[],"[1028, 1028]",[],[],"[6660, 1033, 1029]",[],[],[],[],"[1029, 2422]",[],[],"[1029, 1029]",[],[],[],[1028],[3340],[],"[3076, 1011]",[],[],[],[],[1029]
participant_6_UNDO,[],[],[],[],[],[],[],[],[],[],[],[],[],[],[],[],[],[],[],[],[],[],[],[],[],[],[],[],[],[],[],[],[],[]
participant_7_GOLD,500,553,650,981,1320,2052,2311,2594,2926,3288,3796,4573,5240,6003,6959,7495,8640,9295,9640,11130,11841,12423,13003,13352,13733,14368,15124,15477,15599,16205,16926,17379,17731,18661
participant_7_CURRENTGOLD,500,53,150,471,810,142,241,524,846,1198,1706,533,1190,713,1659,2195,190,845,470,1960,1102,543,1123,1473,1853,2489,619,973,305,911,1632,2085,287,746
participant_7_LEVEL,1,1,1,3,4,5,5,6,7,7,8,9,10,10,10,11,12,12,13,14,14,14,15,15,15,16,16,16,17,17,17,18,18,18
participant_7_MINIONSKILLED,0,0,4,13,26,32,37,46,55,66,78,79,88,88,97,104,112,115,125,140,140,144,154,158,169,172,182,189,189,201,213,214,224,228
participant_7_KILLS,0,0,0,0,0,0,0,0,0,0,0,0,0,0,0,0,0,0,0,0,0,0,0,0,0,0,0,0,0,0,0,0,0,0
participant_7_BUY,[],"[1055, 2003, 3340]",[],[2031],[],[],[],"[1053, 1042]",[],"[1036, 1036]",[],[],[6670],[1018],[6673],[],[],[],[1042],[],"[3006, 1042, 1042]",[],"[1043, 1036]",[1053],[],[],[],[],[],[],[3153],[],[1018],[]
participant_7_SOLD,[],[],[],[2003],[],[],[],[],[],[],[],[],"[1036, 1042, 1036]",[],"[6670, 1018, 1053]",[],[],[],[],[],"[1042, 2422]",[],"[1042, 1042]",[1036],[],[],[],[],[],[],"[1053, 1043]",[],[],[]
participant_7_UNDO,[],[],[],[],[],[],[],[],[],[],[],[],[],[],[],[],[],[],[],[],[],[],[],[],[],[],[],[],[],[],[],[],[],[]
participant_8_GOLD,500,533,630,845,1107,1334,1702,1965,2381,2608,2849,3302,3501,3713,4149,4271,4394,4785,4971,5351,5595,5954,6600,6820,6943,7309,7675,7798,7984,8310,8453,8735,8879,9146
participant_8_CURRENTGOLD,500,33,130,195,457,684,1052,115,531,58,299,752,651,263,99,221,344,735,621,1001,145,504,400,70,193,559,925,1048,1234,1560,403,685,229,496
participant_8_LEVEL,1,1,1,2,3,3,4,4,5,6,6,7,7,7,8,8,8,9,9,9,10,10,11,11,11,12,12,12,13,13,13,14,14,14
participant_8_MINIONSKILLED,0,0,4,9,17,20,34,35,49,55,62,69,73,74,88,88,88,100,103,114,115,125,134,139,139,149,159,159,160,172,173,178,179,180
participant_8_KILLS,0,0,0,0,0,1,1,1,1,1,1,3,4,6,7,8,9,10,10,12,14,15,16,16,16,17,18,18,18,18,19,20,20,21
participant_8_BUY,[],"[1055, 2003, 3340]",[],[],[],"[3145, 1082]",[2031],[],[],[],[],"[1026, 1028, 3020]",[],[4636],[],[],"[3100, 2055, 2055, 3364]",[],[3191],[],[3157],[1058],[],[],[],[],"[3089, 2055]",[],[1026],[],[],[],[3115],[]
participant_8_SOLD,[],[],[],[2003],[],[],[],[],[],[],[],[],[],"[2031, 3145, 1026]",[],[],[3340],[],[1055],[2055],"[3191, 2055]",[1082],[],"[2055, 2055]",[],[],[1058],[],"[2055, 2055]",[],[],[],[1026],[]
participant_8_UNDO,[],[],[],[],[],[],[],[],[],[],[],"[[0, 1028]]",[],[],[],[],[],[],[],[],[],"[[2055, 0]]",[],"[[2055, 0], [2055, 0]]",[],[],[],[],[],[],[],[],[],[]
participant_9_GOLD,500,613,655,934,1110,1265,1439,2139,2321,2475,2692,3506,3946,4297,4572,4797,5196,5416,5574,5823,6095,6642,6922,7363,7517,7672,7868,8193,8782,8943,9227,9702,10037,10196
participant_9_CURRENTGOLD,500,113,155,434,35,190,364,554,736,25,242,1056,546,897,1172,532,931,1151,59,308,580,1127,358,798,952,1107,1303,1629,1317,1478,627,352,687,646
participant_9_LEVEL,1,1,1,2,3,3,4,5,5,6,6,7,7,8,8,8,9,9,10,10,10,11,11,12,12,12,12,13,13,13,14,14,15,15
participant_9_MINIONSKILLED,0,0,0,3,6,6,6,8,10,10,12,13,13,13,13,18,29,35,37,42,42,44,45,45,46,47,50,54,57,58,58,69,80,82
participant_9_KILLS,0,0,0,0,0,0,0,1,1,1,1,2,3,3,3,3,3,3,3,3,3,3,3,4,4,4,4,4,5,5,5,5,5,5
participant_9_BUY,[],"[3850, 2003, 2003, 3340]",[],[],"[1082, 2031, 2055]",[],[],"[1052, 1052, 2055]",[],[3802],[],[],"[3020, 2055, 2055, 3364]",[],[],"[1026, 2055]",[],[],[6656],[],[],[],"[3108, 2055, 2055]",[],[],[],[],[],[3191],[],"[3157, 1052]","[4630, 2055]",[],[]
participant_9_SOLD,[],[],[],"[2003, 2010, 2003]",[],[2055],[],[2010],[],"[2055, 2010, 1052]",[],[3850],"[2422, 3340]",[],[2055],[2031],[2055],[2055],"[3802, 1026]",[],[],[3851],[],[],[],[],[],[2055],[2055],[],"[3191, 3108]","[1082, 1052]",[],[]
participant_9_UNDO,[],[],[],[],[],[],[],"[[0, 1052]]",[],[],[],[],[],[],[],[],[],[],[],[],[],[],[],[],[],[],[],[],[],[],[],[],[],[]
team0_KILLS,0,0,0,1,2,3,4,5,5,8,8,10,13,14,15,18,18,18,19,20,24,24,25,28,29,30,30,32,33,33,34,36,37,41
team0_CURRENTGOLD,2500,0,526,2198,2004,2956,3727,2857,2662,5901,3100,3040,4779,5337,2810,5856,4043,4024,1036,1390,4323,2309,2612,3600,5283,3889,1646,3555,4756,2960,4831,2737,5507,6284
team0_TOTALGOLD,2500,2500,3026,4783,6364,7916,9622,11452,12942,16191,17205,19855,23009,26142,27840,30886,32358,33989,35846,37850,40782,41702,43257,46044,49026,52384,53458,56069,57671,58737,60608,62098,65271,68569
team0_LEVEL,5,5,6,11,17,21,24,27,30,34,36,39,43,44,44,49,50,52,53,56,58,58,60,63,65,69,70,72,74,75,76,78,79,82
team0_SBIRES,0,0,12,30,46,77,104,139,160,195,207,236,255,282,297,339,362,387,413,428,435,442,448,492,523,542,551,574,587,595,631,638,653,679
team1_KILLS,0,1,1,2,3,4,4,6,6,6,6,9,11,13,14,15,16,18,18,20,22,24,25,26,26,28,29,30,31,31,33,34,35,36
team1_CURRENTGOLD,2500,599,600,2314,2241,1319,2347,2316,3827,3105,3803,4032,4281,2562,4308,3898,2616,4796,1664,4328,2623,3570,4219,2859,3649,5384,3748,5854,4302,4499,4374,5481,3692,3555
team1_TOTALGOLD,2500,3099,3475,5349,6851,8499,9687,11666,13187,14540,16188,18802,20776,22422,24778,26083,28251,30431,31554,34218,35782,38070,40518,41973,43064,45298,47088,49192,50630,52528,54838,56695,58256,59820
team1_LEVEL,5,5,6,13,17,19,23,26,30,32,35,38,41,42,44,45,48,50,53,54,56,57,61,62,62,66,66,68,70,72,73,76,78,79
team1_SBIRES,0,0,8,36,62,75,97,117,152,169,208,228,248,249,279,296,321,349,369,400,401,418,451,461,480,502,531,561,571,608,636,667,695,703
delta_KILLS,0,-1,-1,-1,-1,-1,0,-1,-1,2,2,1,2,1,1,3,2,0,1,0,2,0,0,2,3,2,1,2,2,2,1,2,2,5
delta_CURRENTGOLD,0,-599,-74,-116,-237,1637,1380,541,-1165,2796,-703,-992,498,2775,-1498,1958,1427,-772,-628,-2938,1700,-1261,-1607,741,1634,-1495,-2102,-2299,454,-1539,457,-2744,1815,2729
delta_TOTALGOLD,0,-599,-449,-566,-487,-583,-65,-214,-245,1651,1017,1053,2233,3720,3062,4803,4107,3558,4292,3632,5000,3632,2739,4071,5962,7086,6370,6877,7041,6209,5770,5403,7015,8749
delta_LEVEL,0,0,0,-2,0,2,1,1,0,2,1,1,2,2,0,4,2,2,0,2,2,1,-1,1,3,3,4,4,4,3,3,2,1,3
delta_SBIRES,0,0,4,-6,-16,2,7,22,8,26,-1,8,7,33,18,43,41,38,44,28,34,24,-3,31,43,40,20,13,16,-13,-5,-29,-42,-24
