name,frame_0,frame_1,frame_2,frame_3,frame_4,frame_5,frame_6,frame_7,frame_8,frame_9,frame_10,frame_11,frame_12,frame_13,frame_14,frame_15,frame_16,frame_17,frame_18,frame_19,frame_20,frame_21,frame_22,frame_23,frame_24,frame_25,frame_26,frame_27,frame_28,frame_29,frame_30,frame_31
nameStamp,Tstart,Tearly,Tearly,Tearly,Tearly,Tearly,Tearly,Tearly,Tearly,Tearly,Tearly,Tearly,Tearly,Tearly,Tearly,Tmid,Tmid,Tmid,Tmid,Tmid,Tmid,Tmid,Tmid,Tmid,Tmid,Tend,Tend,Tend,Tend,Tend,Tend,Tend
timestamp,0,60030,120031,180052,240057,300071,360072,420092,480125,540149,600169,660197,720215,780215,840233,900260,960273,1020302,1080316,1140341,1200360,1260384,1320399,1380423,1440441,1500446,1560463,1620496,1680512,1740533,1800561,1860561
participant_0_GOLD,500,500,562,874,1134,1522,1771,2342,2708,2999,3445,4328,4905,5027,5442,5648,6041,6588,7377,7849,8371,8914,9109,9742,10334,10779,11321,11620,11869,12220,12628,12702
participant_0_CURRENTGOLD,500,0,62,374,634,1022,1271,17,383,674,1120,2003,2580,227,642,848,1241,288,1077,1549,71,614,519,1152,194,639,1182,1481,254,605,1013,1027
participant_0_LEVEL,1,1,1,3,3,5,5,6,7,7,8,9,9,9,10,10,11,11,12,12,13,13,13,13,14,15,15,15,15,16,16,16
participant_0_MINIONSKILLED,0,0,2,13,18,31,38,43,55,64,80,84,98,98,109,114,123,129,137,138,150,150,150,155,155,167,173,173,173,176,176,176
participant_0_KILLS,0,0,0,0,0,0,0,0,0,0,1,1,1,1,1,1,2,2,2,2,2,3,3,3,3,3,4,4,4,4,4,4
participant_0_BUY,[],"[1035, 1039, 2031, 3340, 3364]",[],[],[],"[1036, 1037, 2055]",[],"[6029, 1036, 1028, 2055]",[],[],"[6630, 2055]",[],[],"[1001, 1033]",[],[3047],[],[3133],[],[3067],[1036],[],[3071],[],"[1037, 1036]",[],[],[6333],[],[],[],[]
participant_0_SOLD,[],[3340],[],[],[],[2055],[],[1037],[1039],[3400],"[6029, 1028, 1036]",[2055],[3364],[],"[3513, 3400]",[1001],[],[],[],[],[2031],[],"[3133, 3067, 1036]",[],[],[],[],"[1036, 1037]",[],[],[],[]
participant_0_UNDO,[],"[[0, 1035]]",[],[],[],"[[0, 1036]]",[],"[[0, 2055]]",[],[],[],[],[],[],[],[],[],[],[],[],[],[],[],[],[],[],[],[],[],[],[],[]
participant_1_GOLD,500,500,755,1048,1546,1888,2273,2633,3020,3660,4077,4469,4691,4901,5602,5732,6795,6917,7274,7761,8164,8731,9044,9752,10494,11140,11699,12107,12344,12708,13224,13298
participant_1_CURRENTGOLD,500,0,255,548,1046,438,823,108,495,1135,127,519,741,201,902,232,1295,317,674,361,474,1041,304,1012,529,1176,1734,267,505,868,1384,1398
participant_1_LEVEL,1,1,2,3,4,4,5,6,6,7,7,8,8,8,9,9,10,10,11,11,12,12,13,13,14,15,15,15,15,16,16,16
participant_1_MINIONSKILLED,0,0,0,0,0,0,3,7,10,16,16,16,16,16,16,16,30,30,30,30,37,37,37,48,48,60,61,67,68,68,70,70
participant_1_KILLS,0,0,0,0,1,1,1,1,1,1,1,2,2,2,2,2,2,2,2,2,3,3,3,3,6,6,7,7,7,7,7,7
participant_1_BUY,[],"[1056, 1082, 2003, 2003, 2003]",[],[],[],[],[],"[1026, 1028, 4642, 1028]",[],[],"[3067, 1001, 2055]",[],[],"[4005, 2055]",[1028],[],[1011],"[1052, 3363, 2055]",[],[],[],[],[1026],[3116],"[3020, 2055]","[1052, 1052]",[],[3145],[],[],[],[]
participant_1_SOLD,[],[],[],[],[2003],[2003],[2003],[],[],[],[1028],[2055],[],"[3067, 4642]",[],[],"[2055, 1028]",[3340],[],[2055],[],[],[],"[1026, 1011, 1052]",[1001],[2055],[],"[1052, 1052]",[],[],[3400],[]
participant_1_UNDO,[],"[[0, 1056]]",[],[],[],[],[],"[[0, 1028], [0, 1026]]",[],[],[],[],[],[],[],[],[],[],[],[],[],[],[],[],[],[],[],[],[],[],[],[]
participant_2_GOLD,500,500,576,888,1395,1671,1913,2035,2351,2768,2925,3348,3639,3761,4128,4439,4865,5137,5392,5529,6121,6540,6793,7021,8318,8653,9286,9471,9728,9989,10543,10617
participant_2_CURRENTGOLD,500,0,76,388,895,1161,1403,75,391,808,190,613,894,91,58,369,295,57,312,449,1041,1460,863,276,698,163,796,801,1058,1320,1873,1967
participant_2_LEVEL,1,1,1,3,4,5,6,6,6,7,7,8,8,8,9,9,9,10,10,11,11,12,12,12,13,13,14,14,14,14,15,15
participant_2_MINIONSKILLED,0,0,3,14,19,25,33,33,40,49,51,51,57,57,64,71,73,73,79,80,85,86,92,93,93,96,96,96,98,100,102,102
participant_2_KILLS,0,0,0,0,0,0,0,1,1,1,1,2,2,2,2,2,2,3,4,5,5,6,6,7,7,7,7,7,7,7,8,8
participant_2_BUY,[],"[1055, 2003]",[],[],[],[],[],"[6029, 1028, 2031, 2055]",[],[],[],[],[],"[6630, 1001, 1028, 2055]",[],[],[],"[3111, 3044]",[],[],[3053],[],[1036],[],"[3133, 3067]",[],[],[],"[3071, 2055]",[],[],[]
participant_2_SOLD,[],[],[],[],[2003],[],[],[],[],[],[],[],[2055],"[6029, 1028]",[],[],[],"[1001, 1028]",[],[],[3044],[],[2031],[2055],[1036],[],[],[],"[3133, 3067]",[],[2055],[]
participant_2_UNDO,[],[],[],[],[],[],[],[],[],[],[],[],[],[],[],[],[],[],[],[],[],[],[],[],[],[],[],[],[],[],[],[]
participant_3_GOLD,500,500,597,1579,1930,2491,2719,3228,3880,4107,4471,4857,5428,6031,6669,7112,8386,8654,9312,9860,10805,10977,11429,12346,13213,13788,14962,15405,15982,16348,17275,17349
participant_3_CURRENTGOLD,500,0,97,79,430,991,169,678,80,307,46,432,1003,1606,94,462,1736,355,1012,240,1185,1357,9,927,673,1249,2422,66,643,1009,1936,1799
participant_3_LEVEL,1,1,1,2,3,4,4,5,5,6,7,7,8,9,9,9,10,10,10,11,11,12,12,12,13,14,14,14,15,15,15,15
participant_3_MINIONSKILLED,0,0,4,11,22,36,42,58,64,71,76,89,102,111,118,118,128,133,139,139,146,146,156,158,158,161,171,175,187,190,195,195
participant_3_KILLS,0,0,0,2,2,2,2,2,3,3,3,3,3,3,3,4,6,6,7,8,9,9,9,11,12,12,14,14,14,14,16,16
participant_3_BUY,[],"[1055, 2003, 3340]",[],"[1037, 2003, 2055]",[],[],"[1036, 1036, 1042, 2003]",[],"[6670, 1018, 1018, 1036]",[],[6672],[],[],[],"[3006, 3134, 1018, 3363]",[2055],[],"[6676, 1036]",[],"[3134, 1018]",[],[],[3814],[],[1038],[],[],"[3031, 1038]",[],[],[],[]
participant_3_SOLD,[],[],[],[2003],[2055],"[2003, 2010, 2010]",[],[],"[2003, 2010, 1036, 1042, 1036]",[],"[6670, 1018, 1037]",[],[],[],"[2422, 1036, 3340]",[],[],"[3134, 1018]",[],"[1036, 2055]",[],[],[3134],[],[1055],[],[],"[1038, 1018]",[],[],[],[]
participant_3_UNDO,[],[],[],[],[],[],[],[],"[[0, 1018]]",[],[],[],[],[],[],[],[],[],[],[],[],[],[],[],[],[],[],[],[],[],[],[]
participant_4_GOLD,500,500,522,955,1191,1699,1854,2110,2793,3630,3770,3911,4051,4191,5485,5817,6346,6597,7350,7841,8131,8322,8502,9277,9867,10250,10631,11185,11385,11637,12491,12569
participant_4_CURRENTGOLD,500,0,22,80,316,824,204,460,1143,870,1010,51,191,256,1550,7,536,787,1540,581,871,212,42,817,307,691,1071,25,225,477,1331,1419
participant_4_LEVEL,1,1,1,2,3,4,4,5,5,6,6,6,6,6,7,8,8,9,9,9,10,10,10,11,11,12,13,13,13,13,14,14
participant_4_MINIONSKILLED,0,0,0,2,5,6,7,9,12,14,14,14,14,14,17,19,22,24,24,24,24,24,25,25,25,29,29,29,30,30,31,31
participant_4_KILLS,0,0,0,0,0,1,1,1,2,3,3,3,3,3,4,4,4,4,4,5,5,5,5,5,5,5,5,6,6,6,7,7
participant_4_BUY,[],"[3854, 2003, 2003, 3340]",[],"[1001, 2055, 3364]",[],[],"[3117, 2055]",[],[],[3134],[],[3133],[],[2055],[],"[6691, 1031, 2055]",[],[],[],"[1038, 2055, 2055]",[],"[3026, 2055, 2055]",[1036],[],"[3134, 1036]",[],[],"[3814, 2055, 2055]",[],[],[],[]
participant_4_SOLD,[],[],[],"[2003, 2003, 3340]",[],[2055],[1001],[],[],"[3400, 3854, 2055]",[],[],[],[2055],[3400],"[3134, 3133]",[],"[3855, 2055]",[3400],[2055],[2055],"[1038, 1031, 2055]",[2055],[3400],[1036],[],[],"[1036, 3134]",[2055],[2055],[3400],[]
participant_4_UNDO,[],[],[],[],[],[],[],[],[],[],[],[],[],[],[],[],[],[],[],[],[],[],[],[],[],[],[],[],[],[],[],[]
participant_5_GOLD,500,500,562,846,1085,1445,1886,2311,2642,3033,3365,3572,3799,4680,5066,5454,5776,5969,6091,6534,6740,7047,7255,7573,7724,7846,7969,8425,8721,9040,9350,9374
participant_5_CURRENTGOLD,500,0,62,346,285,645,1086,1511,342,733,1065,372,599,1480,166,554,876,369,91,534,240,547,755,1073,224,346,169,625,471,40,350,374
participant_5_LEVEL,1,1,1,3,3,5,6,6,7,8,8,9,9,10,10,11,11,11,11,11,12,12,12,13,13,13,13,13,14,14,14,14
participant_5_MINIONSKILLED,0,0,2,11,15,25,41,49,58,70,82,87,93,102,113,125,133,134,134,134,139,140,144,155,157,157,157,169,175,182,189,189
participant_5_KILLS,0,0,0,0,0,0,0,1,1,1,1,2,2,4,4,4,4,5,6,6,6,6,6,6,6,6,6,6,6,6,6,6
participant_5_BUY,[],"[1056, 2003, 2003, 3340]",[],[],[],[],[],"[3145, 2003, 2055]",[],"[1026, 1028, 2055, 2003, 2003]",[],"[4636, 1052]",[],[],"[3108, 3191, 2055]",[],[1052],"[3157, 2055]",[],[],[1058],[],[],[3020],[],[],[],[1058],[],[],[],[]
participant_5_SOLD,[],[],[],[],[],"[2003, 2010]","[2003, 2010]",[2055],[],"[2010, 2003]",[2055],"[2003, 3145, 1028, 1026]",[],[2003],[1052],[2055],[],"[3191, 3108]",[2055],[],"[1056, 1052]",[],[],[2422],[],[],[],[1056],[],[],[],[]
participant_5_UNDO,[],[],[],[],[],[],[],[],[],[],[],[],[],[],[],[],[],[],[],[],"[[1056, 0]]",[],[],[],[],[],[],[],[],[],[],[]
participant_6_GOLD,500,500,725,1018,1262,1651,1904,2403,2966,3336,3891,4386,4608,4955,5437,5660,5782,6263,6796,6948,7531,7653,7989,8157,8279,8533,8656,8778,8915,9158,9353,9378
participant_6_CURRENTGOLD,500,0,225,518,762,1151,54,553,1116,1486,2041,36,258,605,1087,210,332,813,1346,1498,631,103,439,107,154,409,241,363,501,268,464,428
participant_6_LEVEL,1,1,2,3,3,4,5,5,6,7,7,8,8,9,9,9,9,10,11,11,11,11,12,12,12,12,12,12,12,12,13,13
participant_6_MINIONSKILLED,0,0,0,0,1,1,4,4,7,10,12,15,15,16,16,16,16,17,17,18,18,18,19,21,21,25,25,25,25,26,26,26
participant_6_KILLS,0,0,0,0,0,0,0,0,0,0,0,0,0,1,1,2,2,2,3,3,4,5,5,5,5,5,5,5,5,5,5,5
participant_6_BUY,[],"[1055, 3340, 2003]",[],[2055],[],[],"[1036, 1036, 1001]",[],[3134],[],"[1036, 1036]",[],[],[],"[6692, 2055]",[],"[3009, 1036, 2055, 2055, 3363]",[],[],"[3134, 1018, 3123, 1037]",[],[3134],[],[],[],"[6676, 2055]",[],[],[],[3086],[],[]
participant_6_SOLD,[],[],[],[],[],[],"[2055, 2003]",[],"[1036, 1036]",[],[],[],[],[],"[3134, 1036, 1036]",[],"[2055, 1001, 3340]",[2055],[2055],"[1036, 1036]",[],[],[],[1055],[],"[3134, 1037]",[],[],[2055],[],[],[]
participant_6_UNDO,[],[],[],[],[],[],[],[],[],[],[],[],[],[],[],[],[],[],[],"[[0, 1018], [0, 3134]]",[],[],[],"[[1055, 0]]",[],[],[],[],[],[],[],[]
participant_7_GOLD,500,500,611,976,1253,1599,1928,2584,2964,3178,3543,4554,4831,5837,6125,6352,6524,7497,7949,8189,8386,8508,8883,9040,9336,9710,9832,10018,10314,10493,10790,10814
participant_7_CURRENTGOLD,500,0,111,466,743,1079,1398,879,1249,38,403,69,336,1342,180,407,144,342,794,1034,286,408,782,140,436,810,932,27,324,503,800,269
participant_7_LEVEL,1,1,1,3,4,5,5,6,7,7,8,8,9,9,10,10,10,11,11,12,12,12,12,12,13,13,13,13,14,14,14,14
participant_7_MINIONSKILLED,0,0,5,16,25,35,44,49,61,66,70,75,81,84,90,95,98,108,108,111,111,111,126,128,134,144,144,147,153,156,162,162
participant_7_KILLS,0,0,0,0,0,0,0,1,2,2,3,4,4,4,5,5,5,5,5,5,6,6,6,6,6,6,6,6,6,6,6,6
participant_7_BUY,[],"[1035, 2031, 3340]",[],[],[],[],"[1036, 1036, 1036, 1001, 3364]",[],[],[],[],"[6692, 1036]",[],[],[],"[3047, 3134, 1036]",[],[],[],[],[3814],"[1029, 1036]",[],[3047],[2055],[],[1036],[],[],"[3133, 2055]",[],[]
participant_7_SOLD,[],[],[],[],[],[],[3340],[],[],[1035],[],"[1036, 1036, 1036]",[],[],[],"[1001, 1036]",[],[],[],[],"[1036, 3134]",[],[],"[1001, 1029]",[],[],[2031],[],[],"[2055, 1036, 1036]",[],[]
participant_7_UNDO,[],[],[],[],[],[],[],[],[],[],[],[],[],[],[],"[[0, 3047]]",[],[],[],[],[],[],[],[],[],[],[],[],[],[],[],[]
participant_8_GOLD,500,500,583,776,1113,1368,1638,1984,2327,2585,2814,3271,3498,4175,4493,5062,5360,5991,6581,6734,7681,8104,8458,8601,8724,8888,9128,9563,10066,10676,10868,10892
participant_8_CURRENTGOLD,500,0,83,201,538,793,63,409,352,610,139,596,823,1500,343,912,110,741,1331,159,1106,429,783,926,1049,113,354,788,1291,702,893,737
participant_8_LEVEL,1,1,1,2,3,4,5,5,6,6,6,7,7,8,9,9,10,10,11,11,11,12,12,12,12,12,12,12,13,13,13,13
participant_8_MINIONSKILLED,0,0,3,7,17,24,33,46,51,58,61,77,83,89,95,100,106,124,129,130,143,143,144,145,145,147,150,156,168,183,183,183
participant_8_KILLS,0,0,0,1,1,1,1,1,1,1,1,1,1,1,1,1,3,3,4,4,4,5,5,5,6,6,6,6,6,6,6,6
participant_8_BUY,[],"[3850, 2003, 2003, 3340]",[],"[1004, 1052, 2055]",[],"[1001, 2055, 3364]",[],[1082],[2055],[],[],[],"[4642, 3067]",[1052],[],[],[],"[4005, 3158, 3108, 2055, 2055]",[],[],[],[],"[3504, 3011]",[],[3067],[],[],[],[],[],[],[]
participant_8_SOLD,[],[],[],"[2003, 2003]",[2055],[3340],[2055],[],[3850],[2055],[],[],[1052],[],[],[],[3851],"[3067, 4642, 1001, 1052]",[2055],[],[2055],[],[],[],[1082],[],[],[],[],[],[],[]
participant_8_UNDO,[],[],[],"[[0, 1004]]",[],[],[],[],[],[],[],[],[],[],[],[],[],[],[],[],[],[],"[[0, 3504]]",[],[],[],[],[],[],[],[],[]
participant_9_GOLD,500,520,582,1077,1253,1598,1763,1977,2283,2555,2888,3239,3379,3820,4020,4412,5548,5827,6478,6693,7098,7989,8171,8347,8787,8962,9167,9307,9447,9661,9954,9982
participant_9_CURRENTGOLD,500,20,82,67,243,213,378,242,473,735,1069,1419,144,150,350,743,1878,92,743,958,1364,2254,136,312,92,267,472,612,752,966,1259,1157
participant_9_LEVEL,1,1,1,2,2,3,3,4,4,4,5,6,6,6,7,7,9,9,10,10,10,11,11,12,12,12,13,13,13,13,13,13
participant_9_MINIONSKILLED,0,0,0,0,1,4,4,4,5,6,13,13,13,15,17,20,22,23,24,24,28,28,30,32,32,34,35,35,35,39,44,44
participant_9_KILLS,0,0,0,0,0,0,0,0,0,0,0,0,0,0,0,0,0,0,0,1,1,1,1,1,1,1,1,1,1,1,1,1
participant_9_BUY,[],"[2033, 3340]",[],[],[1029],[],[],[],"[3076, 1001, 1029, 1028]",[],[],"[3047, 1028]",[],[],"[6660, 3105]",[],[],"[3068, 1029]",[1028],[],[1011],[],[],[],[3075],[],[1029],[],[1033],[3105],[],[]
participant_9_SOLD,[],[],[],[],[],[],[],[],[1029],[],[],"[1001, 1029]",[],[],"[1028, 1028]",[],[],"[6660, 3105]",[],[],[1028],[],[],[],"[3076, 1011]",[],[],[],[],"[1033, 1029]",[],[]
participant_9_UNDO,[],[],[],[],[],[],[],[],[],[],[],[],[],[],[],[],[],"[[0, 1029]]",[],[],[],[],[],[],[],[],[],[],[],[],[],[]
team0_KILLS,0,0,0,2,3,4,4,5,7,8,9,11,11,11,12,13,16,17,19,22,24,26,26,29,33,33,37,38,38,38,42,42
team0_CURRENTGOLD,2500,0,512,1469,3321,4436,3870,1338,2492,3794,2493,3618,5409,2381,3246,1918,5103,1804,4615,3180,3642,4684,1737,4184,2401,3918,7205,2640,2685,4279,7537,7610
team0_TOTALGOLD,2500,2500,3012,5344,7196,9271,10530,12348,14752,17164,18688,20913,22714,23911,27326,28748,32433,33893,36705,38840,41592,43484,44877,48138,52226,54610,57899,59788,61308,62902,66161,66535
team0_LEVEL,5,5,6,13,17,22,24,28,29,33,35,38,39,40,44,45,48,50,52,54,57,59,60,61,65,69,71,71,72,74,76,76
team0_SBIRES,0,0,9,40,64,98,123,150,181,214,237,254,287,296,324,338,376,389,409,411,442,443,460,479,479,513,530,540,556,564,574,574
team1_KILLS,0,0,0,1,1,1,1,3,4,4,5,7,7,10,11,12,14,15,18,19,21,23,23,23,24,24,24,24,24,24,24,24
team1_CURRENTGOLD,2500,20,563,1598,2571,3881,2979,3594,3532,3602,4717,2492,2160,5077,2126,2826,3340,2357,4305,4183,3627,3741,2895,2558,1955,1945,2168,2415,3339,2479,3766,2965
team1_TOTALGOLD,2500,2520,3063,4693,5966,7661,9119,11259,13182,14687,16501,19022,20115,23467,25141,26940,28990,31547,33895,35098,37436,39301,40756,41718,42850,43939,44752,46091,47463,49028,50315,50440
team1_LEVEL,5,5,6,13,15,21,24,26,30,32,34,38,39,42,45,46,49,51,54,55,56,58,59,61,62,62,63,63,66,66,67,67
team1_SBIRES,0,0,10,34,59,89,126,152,182,210,238,267,285,306,331,356,375,406,412,417,439,440,463,481,489,507,511,532,556,586,604,604
delta_KILLS,0,0,0,1,2,3,3,2,3,4,4,4,4,1,1,1,2,2,1,3,3,3,3,6,9,9,13,14,14,14,18,18
delta_CURRENTGOLD,0,-20,-51,-129,750,555,891,-2256,-1040,192,-2224,1126,3249,-2696,1120,-908,1763,-553,310,-1003,15,943,-1158,1626,446,1973,5037,225,-654,1800,3771,4645
delta_TOTALGOLD,0,-20,-51,651,1230,1610,1411,1089,1570,2477,2187,1891,2599,444,2185,1808,3443,2346,2810,3742,4156,4183,4121,6420,9376,10671,13147,13697,13845,13874,15846,16095
delta_LEVEL,0,0,0,0,2,1,0,2,-1,1,1,0,0,-2,-1,-1,-1,-1,-2,-1,1,1,1,0,3,7,8,8,6,8,9,9
delta_SBIRES,0,0,-1,6,5,9,-3,-2,-1,4,-1,-13,2,-10,-7,-18,1,-17,-3,-6,3,3,-3,-2,-10,6,19,8,0,-22,-30,-30
