name,frame_0,frame_1,frame_2,frame_3,frame_4,frame_5,frame_6,frame_7,frame_8,frame_9,frame_10,frame_11,frame_12,frame_13,frame_14,frame_15,frame_16,frame_17,frame_18,frame_19,frame_20,frame_21,frame_22,frame_23,frame_24,frame_25,frame_26,frame_27,frame_28,frame_29,frame_30,frame_31,frame_32,frame_33
nameStamp,Tstart,Tearly,Tearly,Tearly,Tearly,Tearly,Tearly,Tearly,Tearly,Tearly,Tearly,Tearly,Tearly,Tearly,Tearly,Tearly,Tmid,Tmid,Tmid,Tmid,Tmid,Tmid,Tmid,Tmid,Tend,Tend,Tend,Tend,Tend,Tend,Tend,Tend,Tend,Tend
timestamp,0,60014,120018,180047,240051,300093,360114,420139,480170,540201,600221,660250,720270,780303,840333,900353,960372,1020373,1080400,1140405,1200422,1260427,1320457,1380488,1440521,1500550,1560575,1620604,1680630,1740657,1800685,1860689,1920719,1980719
participant_0_GOLD,500,500,541,811,997,1175,1347,1689,1971,2178,2412,2584,2922,3044,3352,3524,3668,4010,4153,4861,5095,5677,5857,6095,6499,6658,7323,8455,8726,8994,9322,9681,10179,10226
participant_0_CURRENTGOLD,500,0,41,311,497,675,197,539,821,378,212,384,722,344,652,24,168,110,253,961,595,1177,57,295,699,858,1523,355,626,394,782,266,439,426
participant_0_LEVEL,1,1,1,3,4,4,5,6,7,7,8,8,9,9,9,9,10,10,10,11,11,12,12,13,13,13,14,15,15,15,16,16,16,16
participant_0_MINIONSKILLED,0,0,1,9,12,15,18,28,35,40,47,50,53,53,55,55,56,65,66,66,68,76,76,76,78,80,89,93,95,99,101,109,119,119
participant_0_KILLS,0,0,0,0,0,0,0,0,0,0,0,0,0,0,0,0,0,0,0,1,1,1,1,1,1,1,1,3,3,3,3,3,3,3
participant_0_BUY,[],"[1054, 2003, 3340]",[],[],[],[],"[1029, 1029, 2003]",[],[],"[3076, 1001, 2031]",[1028],[],[],[1011],[],"[1029, 3047]",[],[1028],[],[],[6660],[],"[3075, 1029]",[],[],[],[],"[3105, 3068, 1028]",[],[1011],[],[1037],[3077],[]
participant_0_SOLD,[],[],[],[],[2003],[],[],[2003],[],"[1029, 1029]",[],[],[],[1028],[],"[1001, 1029]",[],[],[],[],[1028],[],"[3076, 1011]",[],[],[],[],"[1029, 6660, 3105]",[],[1028],[2031],[],[1037],[]
participant_0_UNDO,[],[],[],[],[],[],[],[],[],[],[],[],[],[],[],[],[],[],[],[],[],[],[],[],[],[],[],[],[],[],[],[],[],[]
participant_1_GOLD,500,507,635,978,1530,1943,2171,2538,2682,2994,3458,4072,4479,4616,5193,5435,5857,6270,6392,6664,7150,7595,7755,7973,8698,8906,9118,9240,10064,10286,10736,11068,11256,11303
participant_1_CURRENTGOLD,500,7,135,478,30,443,671,1038,82,394,858,722,1129,516,1093,235,157,569,392,164,650,1095,180,398,1123,191,403,225,1050,771,171,504,691,618
participant_1_LEVEL,1,1,2,3,3,4,5,5,6,6,7,8,8,8,9,9,10,10,10,11,11,12,12,12,13,13,13,13,14,14,15,15,15,15
participant_1_MINIONSKILLED,0,0,0,0,1,1,2,2,3,3,4,7,7,8,8,8,8,8,8,8,18,21,21,21,24,24,25,25,25,26,28,30,31,31
participant_1_KILLS,0,0,0,0,1,1,1,1,1,1,1,1,1,1,1,1,2,2,2,2,2,3,3,4,5,5,6,6,8,8,8,8,8,8
participant_1_BUY,[],"[3070, 2003, 2003]",[],[],"[1036, 1036, 2003, 2003]",[],[],[],[3004],[],"[1052, 2003]",[],[],[],"[3145, 1028, 1001]",[],[1026],[],[],[4636],[],[],"[3158, 1052, 3363]",[],[],"[1026, 3057]",[],[3100],[1052],"[1026, 3916]",[],[],[3165],[]
participant_1_SOLD,[],[],[],"[2003, 2003]",[],[],[2003],[2003],"[3070, 1036, 1036]",[],[],"[3400, 2003]",[],[],[1052],[],[],[3004],[],"[3145, 1028, 1026]",[],[],"[1001, 3340]",[3400],[],[],[],"[3057, 1052, 1026]",[],[1052],[],[],"[1026, 3916]",[]
participant_1_UNDO,[],[],[],[],[],[],[],[],[],[],[],[],[],[],[],[],[],[],[],[],[],[],[],[],[],[],[],[],[],[],[],[],[],[]
participant_2_GOLD,500,507,577,977,1219,1551,1957,2170,3003,3391,3998,4509,5114,5538,6556,7083,7206,7928,8686,8823,9290,10562,10984,12305,12643,12781,13077,13352,13980,14513,14960,15306,15797,15844
participant_2_CURRENTGOLD,500,7,77,467,709,1031,27,240,1063,101,708,209,804,128,1136,788,911,258,1016,353,820,2092,89,1410,709,846,117,393,1020,454,901,1246,1738,1794
participant_2_LEVEL,1,1,1,3,4,5,6,6,8,8,9,10,10,11,11,12,12,12,13,13,14,14,14,15,15,15,15,15,16,16,16,17,17,17
participant_2_MINIONSKILLED,0,0,2,16,22,31,45,50,62,68,80,90,98,105,117,123,123,123,138,139,146,157,157,163,172,173,174,179,185,202,202,207,220,220
participant_2_KILLS,0,0,0,0,0,0,0,0,1,1,2,2,3,3,4,4,4,5,6,6,6,7,8,11,11,11,11,11,11,11,12,12,12,12
participant_2_BUY,[],"[1036, 2031]",[],[],[],[],"[3134, 1001, 1036]",[],[],"[3133, 3009]",[],"[6693, 3364]",[],[3134],[],[1037],[],"[3142, 1036]",[],"[3123, 1036]",[],[],"[6609, 1037]",[],[3134],[],[6676],[],[],[3133],[],[],[],[]
participant_2_SOLD,[],[],[],[],[],[],[1036],[],[],"[1036, 1001]",[],"[3134, 3133, 3340]",[],[],[],[],[],"[3134, 1037]",[],[1036],[],[],"[3123, 1036]",[],[2031],[],"[3134, 1037]",[],[],[],[],[],[],[]
participant_2_UNDO,[],[],[],[],[],[],[],[],[],[],[],[],[],[],[],[],[],[],[],[],[],[],[],[],[],[],[],[],[],[],[],[],[],[]
participant_3_GOLD,500,507,598,875,1426,1716,2408,2677,2813,3225,3504,4456,4578,4700,4844,5072,5678,5967,6284,6407,6774,7402,7646,8464,9083,9238,10057,10593,11480,11807,12116,12400,12522,12569
participant_3_CURRENTGOLD,500,7,98,375,126,416,1108,1377,13,425,219,1171,1293,1415,244,472,228,517,834,57,424,1052,261,1079,1698,303,1122,643,1095,208,516,800,73,119
participant_3_LEVEL,1,1,1,2,2,3,4,5,5,6,6,7,7,7,7,7,8,8,9,9,10,10,11,11,12,12,13,13,14,14,14,15,15,15
participant_3_MINIONSKILLED,0,0,3,12,14,21,34,42,43,57,61,71,71,71,72,75,79,84,91,91,97,101,106,106,107,107,115,122,130,130,132,134,134,134
participant_3_KILLS,0,0,0,0,0,0,2,2,2,2,2,4,4,5,5,5,5,5,5,7,8,9,9,10,12,12,13,13,14,14,15,15,16,16
participant_3_BUY,[],"[3854, 2003, 2003, 3340]",[],[],"[1036, 2055, 2031]",[],[],"[3134, 1001, 2055]",[],[],[3117],[],[3133],[],[],"[6693, 1036, 3364]",[],[1036],[],[3134],[3814],[],"[1036, 1037]",[],[3134],"[6676, 1036]",[],"[3134, 3133]",[],[6333],[],[2140],[],[3026]
participant_3_SOLD,[],[],[],[2003],[2003],[2055],[],[1036],[],[],"[2055, 1001]",[3854],[3400],[],[],"[3134, 3133, 3340]",[],[],[],"[1036, 1036]",[3134],[],[],[],[2031],"[3134, 1037]",[3855],"[1036, 1036]",[],[3133],[],[2140],[],[6676]
participant_3_UNDO,[],[],[],[],[],[],[],[],[],[],[],[],[],[],[],[],[],[],[],[],[],[],"[[0, 1036]]",[],[],[],[],"[[0, 3134]]",[],[],[],[],[],[]
participant_4_GOLD,500,507,537,721,1114,1375,2229,2406,2540,2724,2948,3862,4602,5083,5353,5554,5694,5924,6086,7661,8121,8813,9011,10141,11279,11465,12590,12941,13917,14057,14842,15013,15948,16002
participant_4_CURRENTGOLD,500,7,37,221,39,300,1154,206,340,523,48,962,602,1083,1353,204,344,224,386,1561,221,913,236,1367,1464,275,1400,1001,1977,117,903,573,1508,-1298
participant_4_LEVEL,1,1,1,2,2,3,4,4,5,5,5,6,6,7,8,8,8,8,8,9,9,10,10,11,12,12,13,13,14,14,14,14,14,14
participant_4_MINIONSKILLED,0,0,0,3,3,7,9,11,11,14,15,19,19,20,24,25,25,26,27,27,27,30,30,30,33,34,40,41,42,42,42,43,43,43
participant_4_KILLS,0,0,0,0,1,1,1,1,1,1,1,2,2,2,2,2,3,3,3,3,3,3,3,3,3,3,3,3,3,3,3,3,3,3
participant_4_BUY,[],"[1039, 2031, 3340]",[],[],[6660],[],[],[],[3047],[],[],"[1033, 1029]",[],[3105],[],"[3068, 1028]",[1011],[],[1029],[3076],[],[],"[3075, 2055]",[],[],"[3066, 1029, 1028]",[],[1029],[],[1031],"[3742, 2055, 2055]",[],[],[]
participant_4_SOLD,[],[],[],[],[],[],[],[],[],[1039],[],[2031],[],"[3340, 1033, 1029]",[3513],"[6660, 3105]",[1028],[],[],[1029],[],[],"[3076, 1011]",[],[3400],"[2031, 2055]",[],[],[],[1029],"[3066, 1028, 1031]",[2055],[2055],[]
participant_4_UNDO,[],[],[],[],[],[],[],[],[],[],[],"[[2031, 0]]",[],[],[],[],[],[],[],[],[],[],[],[],[],"[[0, 1029]]",[],[],[],[],[],[],[],[]
participant_5_GOLD,500,500,583,909,1211,1786,2087,2321,2666,2950,3507,4234,4673,5671,6161,7495,8072,8194,8576,9555,9728,9935,10496,11094,11406,11529,12286,12458,12770,13040,13262,13739,14402,14536
participant_5_CURRENTGOLD,500,0,83,409,711,1286,262,496,841,75,632,1359,448,1446,1236,1370,1947,186,568,1547,520,327,189,786,1098,527,158,331,643,912,235,712,1375,1328
participant_5_LEVEL,1,1,1,3,4,5,6,6,7,8,9,9,10,11,11,12,13,13,13,14,14,14,14,15,15,15,16,16,16,17,17,17,18,18
participant_5_MINIONSKILLED,0,0,3,15,23,28,35,41,51,61,69,82,87,98,104,112,121,121,122,142,142,142,149,149,149,149,157,157,163,172,172,184,185,186
participant_5_KILLS,0,0,0,0,0,0,0,0,0,0,0,0,0,0,0,1,1,1,1,1,1,1,2,2,4,4,4,4,5,5,6,6,7,7
participant_5_BUY,[],"[1056, 2003, 2003, 3340]",[],[],[],[],"[3191, 3364, 3340, 2003]",[],[],"[1001, 1052, 2031]",[1027],[],[],[3802],[],"[3108, 3363]",[],[],[6653],[],[],"[3020, 1052]",[],[3157],[1058],"[2055, 2055]",[],[],[],[1058],[],"[3089, 3916]",[],[1026]
participant_5_SOLD,[],[],[2003],[],[2003],[],"[3340, 3364]",[2003],[],[],[],[],[],"[1052, 1027]",[],[3340],[],[],"[3802, 3108]",[],[],[1001],[],"[3191, 1052]",[],[2031],[],[2055],[],[1056],[],"[1058, 1058]",[2055],[]
participant_5_UNDO,[],[],[],[],[],[],[],[],[],[],[],[],[],[],[],[],[],[],[],[],[],[],[],[],[],[],[],[],[],[],[],[],[],[]
participant_6_GOLD,500,500,635,963,1172,1556,1898,2126,2348,2570,2882,3119,3654,4044,4282,4577,4800,5081,5473,6019,6217,6339,6912,7399,7671,7820,8142,8457,8798,9006,9758,10196,11097,11458
participant_6_CURRENTGOLD,500,0,135,463,272,656,998,1226,1448,1670,332,569,654,1044,1282,1577,499,781,1173,119,317,39,612,599,871,120,442,757,1098,406,1159,1596,2497,2858
participant_6_LEVEL,1,1,2,3,3,4,5,5,5,6,6,7,7,8,8,8,8,9,9,10,10,10,10,11,12,12,12,12,13,13,14,14,16,16
participant_6_MINIONSKILLED,0,0,0,0,0,0,0,0,0,1,1,2,2,6,6,9,9,9,9,9,9,9,9,10,10,10,10,10,12,16,18,18,22,23
participant_6_KILLS,0,0,0,0,0,1,1,1,1,1,2,2,3,4,5,7,7,7,8,8,8,8,9,9,9,9,10,10,10,10,10,10,10,10
participant_6_BUY,[],"[1055, 2003, 3340]",[],[],[],[],"[1053, 1042, 2055, 2003]",[],[],"[1043, 1036]",[],[],"[3153, 2003]",[],[3057],"[3111, 1028]",[],[3078],[],[],"[3077, 3077]",[1028],[3044],[],[],[1037],[3053],[],[],[],[1053],[],[],[]
participant_6_SOLD,[],[],[],[2003],[2010],[2010],[2055],"[2003, 2010]",[],[1042],[],[],"[1053, 1043, 2003]",[],[],[2422],[],"[3057, 1036, 1028]",[],[],[],[],[1028],[],[],[1055],"[1037, 3044]",[],[],[],[],[],[],[]
participant_6_UNDO,[],[],[],[],[],[],[],[],[],[],[],[],[],[],[],[],[],[],[],[],"[[0, 3077]]",[],[],[],[],[],[],[],[],[],[],[],[],[]
participant_7_GOLD,500,500,611,811,1148,1487,1781,2057,2346,2483,2852,3052,3252,3374,3802,4456,4812,5353,5546,5993,6751,6964,7955,8502,9225,9448,9600,9857,10922,11044,12271,12593,13505,13590
participant_7_CURRENTGOLD,500,0,111,311,638,967,301,577,856,108,117,317,507,114,532,286,642,1183,176,623,1381,359,1350,732,205,338,491,747,1812,845,2071,294,1206,290
participant_7_LEVEL,1,1,1,3,4,5,6,6,7,7,8,8,8,8,9,9,10,10,11,11,12,12,13,13,14,14,14,14,14,14,15,15,16,16
participant_7_MINIONSKILLED,0,0,5,9,19,29,36,45,51,52,63,68,69,69,83,90,98,112,113,119,132,133,140,140,140,140,141,146,152,152,161,161,162,162
participant_7_KILLS,0,0,0,0,1,1,1,1,1,1,3,3,3,3,4,5,8,9,11,13,13,13,14,15,15,16,16,17,17,17,19,19,21,21
participant_7_BUY,[],"[3340, 2003, 3070, 2003]",[],[],"[1036, 1036]",[],[3134],[],[],[3133],[],"[6691, 1001]",[],[],[],[],[],"[3009, 6676, 1018]",[],[3031],[],[],[],[3086],[],[],[3094],[],[3035],"[3036, 3363]",[],[],[],[]
participant_7_SOLD,[],[],[],"[2003, 2003]",[],[],"[1036, 1036]",[],[],[],[],"[3134, 3133]",[],[],[],[],[],[1001],[],[1018],[],[],[],[],[],[],[3086],[],[3070],"[3035, 3340]",[],[],[],[]
participant_7_UNDO,[],[],[],[],[],[],[],[],[],[],[],[],[],[],[],[],[],[],[],[],[],[],[],[],[],[],[],[],[],[],[],[],[],[]
participant_8_GOLD,500,500,583,811,1335,1758,1958,2335,2673,2901,4116,4295,4537,5088,6118,7155,8325,9070,10233,11214,11486,11720,12372,13139,13262,14639,15284,15992,16275,16397,17538,17999,19519,19645
participant_8_CURRENTGOLD,500,0,83,311,135,558,358,735,1073,201,1416,295,537,1088,2118,3155,4325,870,2033,214,487,720,1372,940,1062,2440,1585,2293,1405,78,1219,1680,3200,3045
participant_8_LEVEL,1,1,1,2,2,3,4,4,5,5,6,6,7,7,8,8,9,10,10,11,11,11,12,12,12,13,14,14,14,14,15,15,16,16
participant_8_MINIONSKILLED,0,0,3,9,11,26,30,43,53,59,73,77,81,92,100,107,110,120,136,136,136,138,138,138,138,147,163,169,174,174,176,181,191,192
participant_8_KILLS,0,0,0,0,0,0,0,0,0,0,0,0,1,1,1,1,1,1,1,2,2,2,3,3,3,3,3,3,3,3,4,4,5,6
participant_8_BUY,[],"[1039, 2031, 3340]",[],[],[1028],[],[],[],[],[],"[6660, 1001, 1033, 1029]",[],[1057],[],[],[],"[6664, 1029]",[],[],"[3047, 3066, 1029]",[],[1028],[],[1031],[],[3742],[],[],[],[1057],[],[],[],[]
participant_8_SOLD,[],[],[],[],[],[],[],[],[],[],"[1039, 1028]",[],[1033],[],[],[],"[6660, 1029, 1057]",[],[],"[1001, 1029]",[],[],[],[1029],[],"[3066, 1028, 1031]",[],[],[],[],[],[],[],[]
participant_8_UNDO,[],[],[],[],[],[],[],[],[],[],[],[],[],[],[],[],[],[],[],[],[],[],[],[],[],[],[],[],[],[],[],[],[],[]
participant_9_GOLD,500,500,542,791,1203,1397,1612,1806,2003,2234,2784,3004,3325,3625,4021,4611,5139,5279,5716,6199,6390,6572,6728,7218,7358,7665,7805,8162,8303,8443,9308,9449,10234,10326
participant_9_CURRENTGOLD,500,0,42,291,703,897,62,256,453,134,684,904,825,1125,1521,2111,2639,204,641,125,315,497,653,1143,333,640,705,1063,1203,1343,2209,774,1560,1651
participant_9_LEVEL,1,1,1,2,3,4,4,5,5,6,7,7,7,7,8,8,9,9,10,11,11,11,11,12,12,12,13,13,13,13,14,15,15,16
participant_9_MINIONSKILLED,0,0,0,1,8,8,8,8,8,9,10,10,11,11,11,11,11,11,11,11,11,14,14,14,14,15,15,15,15,15,15,15,15,15
participant_9_KILLS,0,0,0,0,0,0,0,0,0,0,0,0,0,0,0,0,0,0,0,0,0,0,0,0,0,0,0,0,0,0,1,1,1,1
participant_9_BUY,[],"[3850, 3340, 2003, 2003]",[],[],[],[],[4642],[],[],"[1028, 2055, 2055, 3364]",[],[],[3067],[],[],[],[],"[6617, 3114, 1026, 2055]",[],"[6616, 1082]",[],[],[],[],"[3114, 2055, 2055]",[],[2055],[],[],[],[],"[3222, 2055]",[],[]
participant_9_SOLD,[],[],[],[],[],[],[],[],[3850],[3340],[2003],[2003],"[1028, 2055]",[],[3851],[],[],"[3067, 4642]",[],"[3114, 1026]",[],[2055],[2055],[],[],[2055],[],[],[],[],[],"[2055, 3114]",[2055],[2055]
participant_9_UNDO,[],[],[],[],[],[],[],[],[],[],[],[],[],[],[],[],[],[],[],[],[],[],[],[],[],[],[],[],[],[],[],[],[],[]
team0_KILLS,0,0,0,0,2,2,4,4,5,5,6,9,10,11,12,12,14,15,16,19,20,23,24,29,32,32,34,36,39,39,41,41,42,42
team0_CURRENTGOLD,2500,28,388,1852,1401,2865,3157,3400,2319,1821,2045,3448,4550,3486,4478,1723,1808,1678,2881,3096,2710,6329,823,4549,5693,2473,4565,2617,5768,1944,3273,3389,4449,1659
team0_TOTALGOLD,2500,2528,2888,4362,6286,7760,10112,11480,13009,14512,16320,19483,21695,22981,25298,26668,28103,30099,31601,34416,36430,40049,41253,44978,48202,49048,52165,54581,58167,59657,61976,63468,65702,65944
team0_LEVEL,5,5,6,13,15,19,24,26,31,32,35,39,40,42,44,45,48,48,50,53,55,58,59,62,65,65,68,69,73,73,75,77,77,77
team0_SBIRES,0,0,6,40,52,75,108,133,154,182,207,237,248,257,276,286,291,306,330,331,356,385,390,396,414,418,443,460,477,499,505,523,547,547
team1_KILLS,0,0,0,0,1,2,2,2,2,2,5,5,7,8,10,14,17,18,21,24,24,24,28,29,31,32,33,34,35,35,40,40,44,45
team1_CURRENTGOLD,2500,0,454,1785,2459,4364,1981,3290,4671,2188,3181,3444,2971,4817,6689,8499,10052,3224,4591,2628,3020,1942,4176,4200,3569,4065,3381,5191,6161,3584,6893,5056,9838,9172
team1_TOTALGOLD,2500,2500,2954,4285,6069,7984,9336,10645,12036,13138,16141,17704,19441,21802,24384,28294,31148,32977,35544,38980,40572,41530,44463,47352,48922,51101,53117,54926,57068,57930,62137,63976,68757,69555
team1_LEVEL,5,5,6,13,16,21,25,26,29,32,36,37,39,41,44,45,49,51,53,57,58,58,60,63,65,66,69,69,70,71,75,76,81,82
team1_SBIRES,0,0,11,34,61,91,109,137,163,182,216,239,250,276,304,329,349,373,391,417,430,436,450,451,451,461,486,497,516,529,542,559,575,578
delta_KILLS,0,0,0,0,1,0,2,2,3,3,1,4,3,3,2,-2,-3,-3,-5,-5,-4,-1,-4,0,1,0,1,2,4,4,1,1,-2,-3
delta_CURRENTGOLD,0,28,-66,67,-1058,-1499,1176,110,-2352,-367,-1136,4,1579,-1331,-2211,-6776,-8244,-1546,-1710,468,-310,4387,-3353,349,2124,-1592,1184,-2574,-393,-1640,-3620,-1667,-5389,-7513
delta_TOTALGOLD,0,28,-66,77,217,-224,776,835,973,1374,179,1779,2254,1179,914,-1626,-3045,-2878,-3943,-4564,-4142,-1481,-3210,-2374,-720,-2053,-952,-345,1099,1727,-161,-508,-3055,-3611
delta_LEVEL,0,0,0,0,-1,-2,-1,0,2,0,-1,2,1,1,0,0,-1,-3,-3,-4,-3,0,-1,-1,0,-1,-1,0,3,2,0,1,-4,-5
delta_SBIRES,0,0,-5,6,-9,-16,-1,-4,-9,0,-9,-2,-2,-19,-28,-43,-58,-67,-61,-86,-74,-51,-60,-55,-37,-43,-43,-37,-39,-30,-37,-36,-28,-31
