name,team0,team1
win,Win,Fail
firstBlood,True,False
firstTower,False,True
firstInhibitor,True,False
firstBaron,True,False
firstDragon,True,False
firstRiftHerald,False,True
towerKills,10,3
inhibitorKills,2,0
baronKills,1,0
dragonKills,4,0
riftHeraldKills,0,2
