name,team0,team1
win,Win,Fail
firstBlood,True,False
firstTower,False,True
firstInhibitor,True,False
firstBaron,False,True
firstDragon,True,False
firstRiftHerald,False,True
towerKills,9,6
inhibitorKills,1,0
baronKills,0,1
dragonKills,1,2
riftHeraldKills,1,1
