name,frame_0,frame_1,frame_2,frame_3,frame_4,frame_5,frame_6,frame_7,frame_8,frame_9,frame_10,frame_11,frame_12,frame_13,frame_14,frame_15,frame_16,frame_17,frame_18,frame_19,frame_20,frame_21,frame_22,frame_23,frame_24,frame_25
nameStamp,Tstart,Tearly,Tearly,Tearly,Tearly,Tearly,Tearly,Tearly,Tearly,Tearly,Tearly,Tearly,Tearly,Tearly,Tearly,Tmid,Tmid,Tmid,Tmid,Tmid,Tmid,Tmid,Tmid,Tmid,Tmid,Tmid
timestamp,0,60032,120065,180089,240110,300138,360167,420172,480201,540206,600229,660258,720281,780308,840328,900360,960376,1020383,1080402,1140433,1200453,1260485,1320505,1380535,1440537,1500537
participant_0_GOLD,500,500,598,1054,1233,1610,1956,2204,2740,2932,3069,3536,3687,3970,4334,4826,5025,5232,5570,5742,5956,6788,7381,7518,7745,7853
participant_0_CURRENTGOLD,500,0,98,554,733,1110,106,354,890,182,319,786,937,1220,1584,1026,625,832,670,407,221,553,1146,1283,1510,1618
participant_0_LEVEL,1,1,1,2,3,5,5,6,6,7,7,8,8,9,10,10,11,11,11,12,12,12,12,12,13,13
participant_0_MINIONSKILLED,0,0,4,5,8,14,18,26,33,37,38,49,51,60,70,73,77,82,90,90,96,97,97,98,104,104
participant_0_KILLS,0,0,0,1,1,2,2,2,2,3,3,4,5,5,5,7,7,7,8,9,11,11,11,11,12,12
participant_0_BUY,[],"[1039, 2031, 3340, 1035, 2031]",[],[],[],[],"[6677, 1042, 1001]",[],"[1018, 3006]",[],[],[],[3124],[],"[1036, 1042, 1036]",[],[],[6672],[],[1053],[1038],[],[],[],[3072],[]
participant_0_SOLD,[],[],[],[],[],[],[],[],"[1001, 1042]",[],[1035],[],[6677],[],[],[],[],"[1036, 1042, 1036]",[],[],[],[],[],[],"[1038, 1053]",[]
participant_0_UNDO,[],"[[3340, 0], [0, 2031], [0, 1039]]",[],[],[],[],[],[],"[[0, 1018]]",[],[],[],[],[],[],[],[],[],[],[],[],[],[],[],[],[]
participant_1_GOLD,500,500,670,1283,1696,2190,2357,2754,2877,3445,3853,4574,5166,5289,5411,6887,7419,7641,8484,9254,10044,10167,10498,10973,11416,11524
participant_1_CURRENTGOLD,500,0,170,783,1196,1690,457,854,477,1045,1453,2174,966,1089,211,1687,2219,41,884,754,245,367,698,1174,416,524
participant_1_LEVEL,1,1,2,3,4,5,5,6,6,6,7,8,8,8,8,9,10,10,11,11,11,11,12,12,13,13
participant_1_MINIONSKILLED,0,0,0,0,0,0,0,0,0,2,2,4,4,4,4,8,10,10,10,12,14,14,22,37,37,37
participant_1_KILLS,0,0,0,0,0,0,0,0,0,0,0,0,0,0,0,0,0,0,0,0,0,0,0,0,0,0
participant_1_BUY,[],"[3070, 2003, 2003, 3340]",[],[],"[1056, 2003]","[2003, 2003]",[],"[1001, 2031]",[1027],[],[],[],[1058],[],[],[],[3003],[],[1052],[],[3802],[1052],[],[],[],[]
participant_1_SOLD,[],[],[],[2003],"[2003, 2003]",[],"[2003, 2003]",[],[],[],[],[],[],[],[],[],"[3070, 1058, 1027]",[],[],[],[1052],[],[3003],[],[],[]
participant_1_UNDO,[],[],[],[],[],[],[],[],[],[],[],[],[],[],[],[],[],[],[],[],[],[],[],[],[],[]
participant_2_GOLD,500,500,591,958,1136,1378,1605,1832,2079,2448,2689,3104,3376,3667,3789,4351,4516,4687,4960,5480,5851,5984,6256,6526,6815,6923
participant_2_CURRENTGOLD,500,0,91,458,186,328,555,332,229,588,829,1234,256,547,669,1231,396,567,405,925,431,129,401,671,960,1088
participant_2_LEVEL,1,1,1,3,3,4,5,5,6,6,7,8,8,9,9,9,9,10,10,11,11,11,11,12,12,12
participant_2_MINIONSKILLED,0,0,4,11,14,21,27,33,34,45,51,65,65,75,75,83,85,88,88,98,104,105,105,109,114,114
participant_2_KILLS,0,0,0,1,1,1,1,1,2,2,2,2,2,2,2,3,3,3,3,3,3,4,5,5,5,5
participant_2_BUY,[],"[1054, 2003, 3340]",[],[],[],[],"[4635, 2003]",[],[],"[1026, 2003]",[],[],[],[],[],[4633],"[1029, 1001]",[],[3047],[1052],[1028],[1011],[],[],[],[]
participant_2_SOLD,[],[],[],[],[2003],[],[],[],[2003],[],[],[],[],[],[],"[4635, 1026]",[],[],"[1001, 1029]",[],[],[1028],[],[],[],[2003]
participant_2_UNDO,[],[],[],[],[],[],[],[],[],[],[],[],[],[],[],[],[],[],[],[],[],[],[],[],[],[]
participant_3_GOLD,500,500,584,860,1064,1452,1652,1858,1980,2103,2374,3346,3468,3640,3784,3969,4227,4439,4693,5060,5427,5625,5747,5891,6042,6170
participant_3_CURRENTGOLD,500,0,84,360,114,502,52,258,380,203,474,146,268,440,584,169,427,639,293,660,427,275,47,191,342,70
participant_3_LEVEL,1,1,1,2,3,4,4,5,5,5,6,7,7,7,7,7,8,8,8,9,10,10,10,11,11,11
participant_3_MINIONSKILLED,0,0,3,12,14,27,31,36,36,36,42,48,48,52,53,57,64,65,69,79,79,79,79,80,82,82
participant_3_KILLS,0,0,0,0,2,2,2,2,2,2,2,3,4,4,4,5,5,5,5,5,6,6,6,6,6,7
participant_3_BUY,[],"[3850, 2003, 2003]",[],[],[],"[3108, 2031]",[],[],"[1052, 1027]",[],[3802],[3020],[],[],[6653],[],[1058],[],[],[1052],[],[4628],[],[],[],[1058]
participant_3_SOLD,[],[],[],[2003],"[2010, 2003]",[],[2010],[2010],[3850],[],"[1052, 1027]","[2031, 2422]",[],[],"[3802, 3108]",[3851],[],[],[],[],[],"[1058, 1052]",[],[],[],[]
participant_3_UNDO,[],[],[],[],[],[],[],[],[],[],[],[],[],[],[],[],[],[],[],[],[],[],[],[],[],[]
participant_4_GOLD,500,500,523,757,1572,1766,1981,2175,2393,2848,3066,3777,4557,4840,4993,5997,6266,6505,6645,6836,7676,7912,8206,8375,8819,9699
participant_4_CURRENTGOLD,500,0,23,257,1072,216,431,625,58,513,216,187,967,1250,203,1207,226,465,605,361,1201,122,416,585,1029,599
participant_4_LEVEL,1,1,1,2,4,4,4,5,5,6,6,6,7,7,7,8,8,9,9,9,10,10,11,11,12,12
participant_4_MINIONSKILLED,0,0,0,0,0,0,0,0,0,6,9,9,9,10,10,11,15,20,20,20,20,21,25,27,31,31
participant_4_KILLS,0,0,0,0,0,0,0,0,0,0,0,1,1,1,1,1,1,1,1,1,1,1,1,1,1,1
participant_4_BUY,[],"[1055, 2003, 3340]",[],[],"[1036, 2003, 2003]",[],"[1001, 1036]",[],[],[1042],[],"[6670, 1053, 2003, 2003]",[],[],[],[1018],[],[],[6673],[],[3009],[1036],[1036],[],[],[3134]
participant_4_SOLD,[],[],[],[],[2003],[],[],[2003],[2003],[],[],"[1036, 1042, 1036]",[],[],[],[],[],[],"[6670, 1018, 1053]",[],[1001],[],[],[],[],"[2003, 1036, 1036]"
participant_4_UNDO,[],[],[],[],[],[],[],[],[],[],[],[],[],[],[],[],[],[],[],[],[],[],[],[],[],[]
participant_5_GOLD,500,500,584,895,1392,1682,2128,2419,3200,3577,3916,4489,5206,5978,7097,7466,7837,8694,8817,9239,9502,10006,10440,11450,11737,12313
participant_5_CURRENTGOLD,500,0,84,395,892,382,828,1119,1900,202,541,489,1206,628,1747,641,387,1244,92,515,77,581,1015,325,613,1188
participant_5_LEVEL,1,1,1,2,3,4,4,5,6,6,7,7,8,8,9,10,10,11,11,11,11,12,12,13,13,14
participant_5_MINIONSKILLED,0,0,3,14,16,23,35,45,54,56,69,69,77,77,92,94,104,112,112,117,117,123,123,127,128,134
participant_5_KILLS,0,0,0,0,0,0,0,0,0,1,1,1,1,1,1,1,1,1,2,2,2,2,2,2,2,2
participant_5_BUY,[],"[1055, 2003]",[],[],[],"[1036, 2003]",[],[],[3133],[3070],[],[1027],[],[],[],"[3004, 3057]",[],[],[],"[3133, 1018]",[],[3508],[],[],"[3133, 1018]",[]
participant_5_SOLD,[],[],[],"[2010, 2003]",[],[2010],[],[],"[2010, 2003, 1036]",[],[],[],[],[],[],"[3070, 3133, 1027]",[],[],[],[],[],"[3133, 3057, 1018]",[],[],[],[]
participant_5_UNDO,[],[],[],[],[],[],[],[],[],[],[],[],[],[],[],[],[],[],[],[],[],[],[],[],[],[]
participant_6_GOLD,500,500,663,1048,1648,1875,2282,2599,3020,3546,3899,4456,4653,5213,5525,5717,6044,6918,7326,7725,8589,8761,9666,10199,10481,11012
participant_6_CURRENTGOLD,500,0,163,548,1148,250,657,974,1395,1921,124,681,143,703,215,407,734,1608,2016,2415,939,1111,2017,109,391,862
participant_6_LEVEL,1,1,2,3,4,4,4,5,6,7,7,8,8,9,9,9,10,10,11,11,12,12,13,13,14,14
participant_6_MINIONSKILLED,0,0,0,0,0,0,1,1,5,8,8,15,15,15,15,15,15,23,25,26,31,31,37,45,45,49
participant_6_KILLS,0,0,0,0,1,1,2,2,2,2,2,3,3,4,4,4,4,6,6,6,8,8,9,9,9,10
participant_6_BUY,[],"[1035, 2003, 2031]",[3340],[],[],"[3145, 2055, 3364]",[],[],[],[],[4636],[],"[1042, 1052]",[],[3020],[],[],[],[],[],"[3115, 2055]",[],[],"[1058, 1058]",[],[]
participant_6_SOLD,[],[],[],[],[],[3340],[2055],[],[],[1035],[3145],[],[],[],[2422],[],[],[],[3364],[],"[1042, 1052]",[3513],[],[2031],[],[]
participant_6_UNDO,[],"[[0, 2003]]",[],[],[],[],[],[],[],[],[],[],[],[],[],[],[],[],[],[],[],[],[],[],[],[]
participant_7_GOLD,500,500,563,1231,1849,2139,2818,3129,3920,4303,4636,5001,5591,5959,7455,8205,8328,9332,10484,11258,11380,12848,12971,13399,14389,15507
participant_7_CURRENTGOLD,500,0,63,731,649,59,728,459,1240,1613,1946,251,41,409,1904,2655,63,1067,119,893,1015,334,456,884,1875,3022
participant_7_LEVEL,1,1,1,3,4,5,6,7,8,8,9,9,10,10,11,12,12,12,13,13,13,14,14,14,15,15
participant_7_MINIONSKILLED,0,0,2,9,19,26,38,49,57,69,81,92,97,112,127,128,128,131,131,134,134,140,140,146,156,157
participant_7_KILLS,0,0,0,1,2,2,3,3,3,3,3,3,3,3,4,6,6,8,11,13,13,17,17,17,20,23
participant_7_BUY,[],"[1082, 2003, 2003, 2003]",[],[],[3057],"[1052, 1052]",[],"[3145, 1028]",[],[],[],"[4636, 1001]",[3020],[],[],[],"[3100, 1052]",[],"[1026, 3041]",[],[],"[3115, 1052]",[],[],[],[]
participant_7_SOLD,[],[],[],[],[2003],[],[2003],"[1052, 1052]",[],[],[],"[3145, 1028]","[3400, 1001]",[],[],[],"[3057, 2003]",[],"[3400, 1082]",[],[],"[1026, 1052]",[],[],[],[]
participant_7_UNDO,[],[],[],[],[],[],[],[],[],[],[],[],[],[],[],[],[],[],[],[],[],[],[],[],[],[]
participant_8_GOLD,500,500,542,720,941,1140,1389,1623,1759,2182,2514,2756,3096,3388,3839,3989,4280,4710,5286,5682,6093,6499,6775,7594,7947,8118
participant_8_CURRENTGOLD,500,0,42,220,441,240,489,723,109,132,464,356,696,988,1439,139,430,860,1436,132,543,449,725,1544,197,368
participant_8_LEVEL,1,1,1,2,3,4,5,5,5,6,7,7,8,8,9,9,10,10,11,11,11,12,13,13,13,13
participant_8_MINIONSKILLED,0,0,1,5,10,15,23,29,30,30,42,48,57,61,70,72,74,85,93,94,96,101,110,117,117,117
participant_8_KILLS,0,0,0,0,0,0,0,0,1,1,1,1,3,3,3,4,4,4,5,5,5,6,8,8,8,8
participant_8_BUY,[],[],"[3854, 2003, 2003]",[],[],"[2031, 1036]",[],[],[],"[1001, 3134, 1036, 3364, 2055]",[],[1036],[],"[3117, 6691, 3117]",[2055],[],"[1042, 1036]",[],[],"[3133, 3134]",[3179],[],[3134],[1037],[],[]
participant_8_SOLD,[],[],[],[2003],[2003],[],[],[],[],"[1036, 3340]",[2055],[],[],"[1001, 3134, 1036, 1036, 1001]",[],[],[],[3854],[2055],[1036],"[3134, 3133]",[3400],[2031],[3400],[],[]
participant_8_UNDO,[],[],[],[],[],[],[],[],[],[],[],[],[],"[[0, 3117]]",[],[],"[[0, 1042]]",[],[],[],[],[],[],[],[],[]
participant_9_GOLD,500,500,523,699,998,1216,1475,1652,2357,2601,2917,3231,4709,4994,5365,5859,5993,6451,7386,7577,7867,8858,9553,10107,10279,10459
participant_9_CURRENTGOLD,500,500,23,199,498,216,475,652,1357,126,441,406,1884,69,365,859,643,1101,2036,377,67,1058,713,392,564,684
participant_9_LEVEL,1,1,1,2,3,3,4,5,5,6,6,6,7,7,7,8,8,9,10,10,10,11,12,12,12,12
participant_9_MINIONSKILLED,0,0,0,2,3,5,8,10,11,11,12,12,13,13,13,14,14,18,25,25,25,28,29,29,31,31
participant_9_KILLS,0,0,0,0,1,1,1,1,2,3,3,4,4,6,6,6,6,6,6,6,7,7,7,9,9,9
participant_9_BUY,[],"[1055, 2003, 3340]",[],[],[],"[1036, 1036, 2003, 2003]",[],[],[],"[6670, 1018, 1037]",[],[6671],[],"[1038, 2003]",[],"[1037, 1018]",[3031],[],"[3086, 2055]",[],"[1042, 2015]",[],[],"[3009, 3094, 1042]",[],[]
participant_9_SOLD,[],[],[],[],"[2003, 2010]",[2003],[],[],"[2010, 2003]","[1036, 1036]",[2010],"[6670, 1018, 1037]",[3400],[],[],[2003],"[1038, 1037, 1018]",[],[],[2055],[1042],[],[],"[2422, 3086, 2015]",[],[]
participant_9_UNDO,[],[],[],[],[],[],[],[],[],[],[],[],[],[],[],[],[],[],[],[],[],[],[],[],[],[]
team0_KILLS,0,0,0,2,4,5,5,5,6,7,7,10,12,12,12,16,16,16,17,18,21,22,23,23,24,25
team0_CURRENTGOLD,2500,0,466,2412,3301,3846,1601,2423,2034,2531,3291,4527,3394,4546,3251,5320,3893,2544,2857,3107,2525,1446,2708,3904,4257,3899
team0_TOTALGOLD,2500,2500,2966,4912,6701,8396,9551,10823,12069,13776,15051,18337,20254,21406,22311,26030,27453,28504,30352,32372,34954,36476,38088,39283,40837,42169
team0_LEVEL,5,5,6,12,17,22,23,27,28,30,33,37,38,40,41,43,46,48,49,52,54,54,56,58,61,61
team0_SBIRES,0,0,11,28,36,62,76,95,103,126,142,175,177,201,212,232,251,265,277,299,313,316,328,351,368,368
team1_KILLS,0,0,0,1,4,4,6,6,8,10,10,12,14,17,18,21,21,25,30,32,35,40,43,45,48,52
team1_CURRENTGOLD,2500,500,375,2093,3628,1147,3177,3927,6001,3994,3516,2183,3970,2797,5670,4701,2257,5880,5699,4332,2641,3533,4926,3254,3640,6124
team1_TOTALGOLD,2500,2500,2875,4593,6828,8052,10092,11422,14256,16209,17882,19933,23255,25532,29281,31236,32482,36105,39299,41481,43431,46972,49405,52749,54833,57409
team1_LEVEL,5,5,6,12,17,20,23,27,30,33,36,37,41,42,45,48,50,52,56,56,57,61,64,65,67,68
team1_SBIRES,0,0,6,30,48,69,105,134,157,174,212,236,259,278,317,323,335,369,386,396,403,423,439,464,477,488
delta_KILLS,0,0,0,1,0,1,-1,-1,-2,-3,-3,-2,-2,-5,-6,-5,-5,-9,-13,-14,-14,-18,-20,-22,-24,-27
delta_CURRENTGOLD,0,-500,91,319,-327,2699,-1576,-1504,-3967,-1463,-225,2344,-576,1749,-2419,619,1636,-3336,-2842,-1225,-116,-2087,-2218,650,617,-2225
delta_TOTALGOLD,0,0,91,319,-127,344,-541,-599,-2187,-2433,-2831,-1596,-3001,-4126,-6970,-5206,-5029,-7601,-8947,-9109,-8477,-10496,-11317,-13466,-13996,-15240
delta_LEVEL,0,0,0,0,0,2,0,0,-2,-3,-3,0,-3,-2,-4,-5,-4,-4,-7,-4,-3,-7,-8,-7,-6,-7
delta_SBIRES,0,0,5,-2,-12,-7,-29,-39,-54,-48,-70,-61,-82,-77,-105,-91,-84,-104,-109,-97,-90,-107,-111,-113,-109,-120
