name,frame_0,frame_1,frame_2,frame_3,frame_4,frame_5,frame_6,frame_7,frame_8,frame_9,frame_10,frame_11,frame_12,frame_13,frame_14,frame_15,frame_16,frame_17,frame_18,frame_19,frame_20,frame_21,frame_22,frame_23,frame_24,frame_25,frame_26,frame_27,frame_28,frame_29,frame_30,frame_31,frame_32,frame_33,frame_34,frame_35,frame_36,frame_37,frame_38,frame_39,frame_40
nameStamp,Tstart,Tearly,Tearly,Tearly,Tearly,Tearly,Tearly,Tearly,Tearly,Tearly,Tearly,Tearly,Tearly,Tearly,Tearly,Tmid,Tmid,Tmid,Tmid,Tmid,Tmid,Tmid,Tmid,Tmid,Tmid,Tmid,Tmid,Tmid,Tmid,Tmid,Tmid,Tend,Tend,Tend,Tend,Tend,Tend,Tend,Tend,Tend,Tend
timestamp,0,60027,120048,180067,240088,300110,360128,420145,480160,540180,600191,660218,720232,780248,840265,900286,960308,1020337,1080351,1140369,1200394,1260420,1320443,1380470,1440482,1500507,1560524,1620552,1680565,1740598,1800617,1860642,1920661,1980678,2040700,2100731,2160743,2220748,2280754,2340776,2400789
participant_0_GOLD,500,500,584,839,1037,1369,2040,2204,2636,3283,3659,4547,5094,5539,5938,6698,6821,7229,7732,7855,8151,8518,8724,9081,9288,10060,10872,11805,12174,12630,14082,15139,15991,16113,16418,16881,17303,17615,17817,18504,18627
participant_0_CURRENTGOLD,500,0,84,339,537,869,1540,179,611,1258,1634,2522,169,614,1013,1773,796,1204,1707,955,1251,1618,799,456,663,1035,1848,2780,3149,806,2257,3315,1046,1169,1473,1937,459,771,973,1160,1283
participant_0_LEVEL,1,1,1,3,3,4,6,6,7,8,9,10,10,10,11,11,11,12,13,13,13,13,13,14,14,14,15,16,16,16,17,18,18,18,18,18,18,18,18,18,18
participant_0_MINIONSKILLED,0,0,3,12,12,21,33,35,50,63,75,81,87,102,107,117,117,130,141,141,147,157,162,168,169,169,184,191,192,204,213,222,223,223,229,241,241,243,244,247,247
participant_0_KILLS,0,0,0,0,0,0,0,0,0,0,0,0,0,0,0,0,0,0,0,0,0,0,0,0,0,0,0,0,0,0,0,0,0,0,0,0,0,0,0,0,0
participant_0_BUY,[],"[2003, 2003, 3850]",[],[],[],[],[],"[1052, 1001, 2055]",[],"[2003, 2003, 2055]",[],[1028],[],[],[],"[4005, 2003, 2003, 3364]",[],[2055],[3117],[],"[2003, 2003]",[2003],[],[1052],[],[],[],[3191],[],[],[],[],[],[3157],[],[],"[1052, 2031, 3363]",[],[],[3145],[]
participant_0_SOLD,[],[],[],[2010],"[2003, 2003]",[],[2010],[],"[2010, 2055]",[],[2055],[],[2419],"[2003, 3850, 2003]",[],"[1028, 1052, 3340]",[2423],[],[1001],"[2003, 2003]",[2055],[],"[2003, 3851]",[],[],[],[],[1052],[],[],[],[],[],"[3191, 2424]",[],"[2003, 2003]",[3364],[],[],[1052],[]
participant_0_UNDO,[],[],[],[],[],[],[],[],[],[],[],[],[],[],[],[],[],[],[],[],[],[],[],[],[],[],[],[],[],[],[],[],[],[],[],[],[],[],[],[],[]
participant_1_GOLD,500,500,621,1009,1227,1349,1707,1976,2303,2611,2868,3181,3468,3902,4374,4867,5174,5402,5622,6024,6375,6559,6682,7220,7587,7808,8402,8842,9199,9321,9768,10381,10663,10785,11077,11284,11927,12196,12368,12721,13238
participant_1_CURRENTGOLD,500,0,121,509,727,149,507,776,1103,1411,68,31,318,752,1224,1717,374,602,822,1224,475,659,182,720,1086,433,1027,1467,199,82,528,1141,1423,1546,637,844,1487,657,829,1182,1699
participant_1_LEVEL,1,1,2,3,3,3,4,4,5,6,6,6,7,7,8,9,9,9,10,10,11,11,11,11,12,12,13,13,13,13,14,14,15,15,15,15,16,16,16,16,17
participant_1_MINIONSKILLED,0,0,0,0,0,0,0,0,0,0,0,0,1,4,4,4,4,4,10,11,11,12,12,12,18,18,18,22,22,22,28,34,34,34,34,34,40,41,41,50,50
participant_1_KILLS,0,0,0,0,0,0,0,0,0,0,0,0,2,4,4,4,4,4,4,4,4,4,4,4,5,6,6,6,6,6,6,7,7,7,7,7,9,9,9,9,10
participant_1_BUY,[],"[1055, 2003]",[],[],[],[],[],"[3134, 1001, 2003]",[],[],"[1053, 1036]",[],[],[],[],"[6692, 3009, 3134, 1018]",[],[],[],[1037],[],[],[6676],[2015],[],[3086],[],[],[3094],[],[],[],"[1038, 1018]",[],[],[],"[3031, 3140]",[],[],[],[]
participant_1_SOLD,[],[],[],[],[],[2003],[],[],[],[2003],[],[],[],[],[],"[3134, 1036, 1053, 1001]",[],[],[],[],[],[],"[3134, 1037, 1018]",[],[],[],[],[],"[3086, 2015]",[],[],[],[1055],[],[],[],"[1038, 1018]",[],[],[],[]
participant_1_UNDO,[],[],[],[],[],[],[],[],[],[],[],[],[],[],[],[],[],[],[],[],[],[],[],[],[],[],[],[],[],[],[],[],[],[],[],[],[],[],[],[],[]
participant_2_GOLD,500,500,634,910,1268,1621,2069,2191,2599,2932,3406,3704,4637,5578,6398,6655,6987,7236,7428,7620,7959,8165,8390,8575,9203,9700,10287,10689,10993,11261,11938,12554,12947,13070,13335,13857,14917,15185,15489,15932,16455
participant_2_CURRENTGOLD,500,0,134,410,768,1121,1569,241,649,982,206,504,1437,2378,3198,305,637,886,1078,395,734,940,740,225,853,150,737,1140,643,911,1589,2205,878,1000,1266,1787,48,315,620,1063,1586
participant_2_LEVEL,1,1,1,2,3,4,5,5,5,6,7,7,8,9,9,9,9,10,10,10,10,11,11,11,12,12,13,13,13,13,14,14,14,14,15,15,15,15,15,16,16
participant_2_MINIONSKILLED,0,0,3,12,23,33,49,49,62,74,91,101,110,114,124,125,137,144,148,152,160,165,174,178,184,187,197,209,211,215,223,229,237,237,237,246,247,251,255,265,265
participant_2_KILLS,0,0,1,1,2,2,2,2,2,3,3,3,3,3,4,4,4,4,4,4,4,4,4,4,4,4,4,4,4,4,4,4,4,4,4,4,4,4,4,4,4
participant_2_BUY,[],"[1056, 2003, 2003]",[],[],[],"[3802, 2055]",[],[],[],"[1026, 1001, 1082]",[],[],[],[],[],[],"[6655, 3020]",[],[],[],[],[],[],[3041],[],[1052],[],[],[3145],[],[],[],[1058],[],[],[4628],[],[],[],[],[]
participant_2_SOLD,[],[],[],[],[],[],[2055],[],[2003],[2003],[],[],[],[],[],[],"[3802, 1026, 1001]",[],[],[],[],[],[],[1082],[],[],[],[],[1052],[],[],[],[],[],[],"[1058, 3145]",[],[],[],[],[]
participant_2_UNDO,[],[],[],[],[],[],[],[],[],[],[],[],[],[],[],[],[],[],[],[],[],[],[],[],[],[],[],[],[],[],[],[],[],[],[],[],[],[],[],[],[]
participant_3_GOLD,500,500,1005,1313,1785,2075,2422,2914,3148,3592,3940,4084,4382,4681,5228,5470,5593,5715,5837,5988,6243,6475,6597,6824,7102,7294,7619,7770,8198,8370,8577,8936,9350,9473,9727,9919,10169,10326,10498,10621,10868
participant_3_CURRENTGOLD,500,0,505,803,1275,180,527,1019,1253,197,535,679,967,1266,1813,2055,128,250,372,523,778,1010,1132,109,387,144,469,620,433,605,812,1171,336,458,712,205,454,612,784,906,1154
participant_3_LEVEL,1,1,1,3,4,4,5,6,7,7,8,8,9,9,10,10,10,10,10,11,11,11,11,11,12,12,12,12,13,13,13,13,14,14,14,14,14,15,15,15,15
participant_3_MINIONSKILLED,0,0,5,13,16,23,36,48,55,56,66,67,74,77,78,82,82,82,82,84,92,95,95,101,107,111,119,121,131,134,136,139,148,148,152,156,161,163,163,163,163
participant_3_KILLS,0,0,0,0,0,0,0,0,0,0,0,0,0,0,0,0,0,0,0,0,0,0,0,0,0,0,0,0,0,0,0,0,0,0,0,0,0,0,0,0,1
participant_3_BUY,[],"[1035, 2031, 3340]",[],[],[],"[1036, 1036]",[],[],[],[],"[3134, 1053, 1001]",[1036],[],[],[],[],"[6692, 3006]",[],[],[],[3134],[],[1018],[],[],[1037],[],[],"[6676, 3086]",[1042],[],[],[],[],[3046],[],[],[3133],[],[],[]
participant_3_SOLD,[],[],[],[],[],[],[],[],[],[1035],"[1036, 1036]",[],[],[],[],[],"[3134, 1036, 1053, 1001]",[],[],[],[],[],[],[],[],[],[],[],"[3134, 1037, 1018]",[2031],[],[],[],[],"[1042, 3086]",[],[],[],[],[],[]
participant_3_UNDO,[],[],[],[],[],[],[],[],[],[],[],[],[],[],[],[],[],[],[],[],[],[],[],[],[],[],[],[],[],[],[],[],[],[],[],[],[],[],[],[],[]
participant_4_GOLD,500,500,633,767,982,1150,1285,1419,1583,1738,1872,2047,2571,3170,3894,4084,4310,4470,4631,4771,4911,5052,5272,5412,5567,5797,5938,6169,6358,6513,6703,6894,7119,7259,7400,7540,7799,8085,8276,8416,8607
participant_4_CURRENTGOLD,500,0,133,267,482,650,785,109,273,253,387,162,686,1285,2009,234,460,545,6,146,186,277,497,202,357,587,728,494,684,838,1028,1219,1444,235,375,515,189,476,666,192,382
participant_4_LEVEL,1,1,1,1,3,3,4,4,5,5,5,6,7,7,7,7,8,8,8,8,9,9,9,9,9,10,10,10,10,11,11,11,11,11,12,12,12,13,13,13,14
participant_4_MINIONSKILLED,0,0,0,0,0,1,1,1,2,2,2,2,3,6,6,6,10,10,10,10,10,10,10,10,11,12,12,13,16,17,17,17,18,18,18,18,18,23,23,23,23
participant_4_KILLS,0,0,0,0,0,0,1,1,1,2,2,3,3,3,3,3,3,3,3,3,3,3,3,3,3,4,5,7,7,7,8,9,11,11,11,11,12,12,12,13,13
participant_4_BUY,[],"[1055, 2003]",[],[],[],[],[],"[3134, 1001, 3364, 2055, 2003]",[],[],[],[],"[6691, 3047]",[],[],[],[3134],[],[],[1037],[],[],[3142],"[1036, 1036]",[],[3134],[],[],[],"[3814, 1043]",[],[],"[3153, 3134]",[],[],[],[6676],[],[],[2140],[]
participant_4_SOLD,[],[],[],[],[],[2003],[],"[3340, 2055]",[],[],[],[],"[3134, 1001]",[],[2003],[],[],[],[],[],[],[],"[3134, 1037]",[],[],"[1036, 1036]",[],[],[],[3134],[],[],"[1043, 1055]",[],[],[],[3134],[],[],[2140],[]
participant_4_UNDO,[],[],[],[],[],[],[],[],[],[],[],[],[],[],[],[],[],[],[],[],[],[],[],[],[],[],[],[],[],[],[],[],[],[],[],[],[],[],[],[],[]
participant_5_GOLD,500,500,521,664,1219,1341,1485,1883,2026,2254,2476,2704,2960,3096,3233,4454,4780,4951,5414,5971,6277,6484,6842,7115,7656,7868,8061,8352,8572,8739,9292,9693,9927,10050,10568,10690,11058,11312,12242,12429,12946
participant_5_CURRENTGOLD,500,0,21,164,719,141,235,633,176,404,626,854,260,396,133,1354,1680,1251,1714,2271,2577,584,942,415,956,1168,961,202,422,589,267,668,227,530,698,71,438,692,1623,59,577
participant_5_LEVEL,1,1,1,1,3,4,4,5,5,6,6,7,7,7,7,8,8,9,9,10,10,11,11,11,12,12,12,12,12,13,13,14,14,15,15,15,15,16,17,17,17
participant_5_MINIONSKILLED,0,0,0,1,8,8,9,22,23,29,32,32,36,37,38,43,51,54,66,67,72,77,78,78,81,82,83,88,94,94,96,108,111,111,122,122,122,126,136,137,137
participant_5_KILLS,0,0,0,0,1,1,1,1,1,1,1,1,1,1,1,2,2,2,2,3,3,3,3,3,4,4,4,4,4,4,4,4,4,4,4,4,4,4,4,4,5
participant_5_BUY,[],"[1054, 2003]",[],[],[],"[1036, 1036]",[2003],[],"[1001, 1029]",[],[],[],"[3047, 1036]",[],[1028],[],[],[6660],[],[],[],[3068],[],"[3133, 1028]",[],[],[3067],[3071],[],[],[1037],[],"[3077, 1036]",[],[1036],"[3133, 1036]",[],[],[],"[3074, 3044]",[]
participant_5_SOLD,[],[],[],[],[],[2003],[2003],[],[],[],[],[],"[1001, 1029]",[],[],[],[],[1028],[],[],[],[6660],[],"[1036, 1036]",[],[],[1028],"[3133, 3067, 1036]",[],[],[],[],[1037],[1054],[],"[1036, 1036]",[],[],[],"[3077, 1036, 3133]",[]
participant_5_UNDO,[],[],[],[],[],[],[],[],[],[],[],[],[],[],[],[],[],[],[],[],[],[],[],[],[],[],[],[],[],[],[],[],[],[],[],[],[],[],[],[],[]
participant_6_GOLD,500,500,621,957,1180,1484,1777,2034,2391,3151,3403,3878,4275,4582,4983,5183,5611,5929,6402,6869,7076,7313,7887,8194,8630,8803,9060,9803,10201,10793,11251,11554,12986,13185,13563,14152,14830,14952,16731,17047,17595
participant_6_CURRENTGOLD,500,0,121,457,30,334,627,134,416,276,528,1003,200,507,33,233,661,979,652,1119,126,363,937,54,490,263,95,838,1236,1829,261,264,1697,1895,974,1563,941,163,1942,258,806
participant_6_LEVEL,1,1,2,3,3,4,4,5,5,7,7,8,8,9,9,10,10,10,11,11,12,12,12,13,13,13,13,14,14,14,15,15,16,16,16,17,17,17,18,18,18
participant_6_MINIONSKILLED,0,0,0,0,0,0,0,0,0,7,8,8,8,13,18,20,23,23,23,23,23,24,30,30,34,34,34,34,34,34,36,43,43,43,46,54,54,54,54,54,54
participant_6_KILLS,0,0,0,0,0,0,0,0,0,0,0,0,0,0,0,1,1,1,1,1,1,1,1,1,1,1,1,1,1,1,1,1,1,1,1,1,1,1,1,1,1
participant_6_BUY,[],[3858],"[2003, 2003]",[],[],[],"[1028, 1001]",[],[],[],"[3067, 1033]",[],[1029],[],[],[3105],[],"[3190, 1029, 2055]",[],[],"[1033, 3364]",[],[],"[3111, 3024]",[],[1028],[],[3067],[],[],[3050],[1006],[],[1028],[],[3801],[1028],[],[],[3067],[3109]
participant_6_SOLD,[],[],[],[],"[2003, 2010]","[2003, 2010]",[],[],[],[],[1028],[3858],[],[],[],"[1033, 1029]",[2010],"[3067, 3105]",[3859],[],[3340],[],[],"[1001, 1033, 1029]",[],[],[2055],[1028],[],[],"[3067, 3024]",[],[],[],[],"[1028, 1006]",[],[],[],[1028],"[3801, 3067]"
participant_6_UNDO,[],[],[],[],[],[],[],[],[],[],[],[],[],[],[],[],[],[],[],[],[],[],[],[],[],[],[],[],[],[],[],[],[],[],[],[],[],[],[],[],[]
participant_7_GOLD,500,500,584,804,1147,1521,1735,1906,2237,2360,2636,3501,3827,4459,5108,5615,6563,6995,7806,8357,8507,8811,10046,10381,10783,11036,11773,12450,12726,12962,13426,13549,13797,13919,14182,14474,15249,15625,16239,16912,17035
participant_7_CURRENTGOLD,500,0,84,304,647,1011,1225,96,417,240,516,1371,37,669,58,565,263,695,1506,2057,957,1261,2496,281,683,87,423,1101,326,563,1027,1149,1398,430,693,285,160,536,1150,223,346
participant_7_LEVEL,1,1,1,3,3,5,5,6,7,7,7,8,9,9,10,10,10,10,11,11,12,12,12,12,13,13,14,14,15,15,15,15,15,15,16,16,16,16,17,18,18
participant_7_MINIONSKILLED,0,0,3,9,13,25,30,33,42,42,51,57,65,76,85,86,86,87,99,104,106,112,115,118,123,126,140,149,154,155,158,158,158,158,167,171,176,181,184,188,188
participant_7_KILLS,0,0,0,0,0,0,0,0,0,1,1,1,1,1,1,1,1,1,2,2,2,2,2,2,2,2,2,3,3,4,4,4,5,5,5,5,6,6,9,9,10
participant_7_BUY,[],"[1039, 2031, 3340]",[],[],"[1036, 1001]",[],[],[3134],"[2055, 3364]",[1053],[],[],[6692],[],"[3047, 2055]",[],[],[],"[1033, 1036]",[],"[3155, 1036, 1036]",[],[],"[3156, 2055, 2055]",[],[1028],"[2055, 1036]",[],[],[],"[6609, 2055]",[1029],[],[],"[1031, 3066]",[],[3742],[1057],[],[4401],[]
participant_7_SOLD,[],[],[],[],[],[],[],[1036],"[3340, 1039]",[],[],[2055],"[3134, 1053]",[3364],[1001],[3513],[],[],[],[2055],"[3364, 1036, 1033]",[3513],[],"[3155, 1036, 1036, 2031]",[2055],[],[2055],[],[2055],[],"[1036, 1028, 2055]",[],[],[],[1029],[],"[3066, 1031]",[],[],[1057],[]
participant_7_UNDO,[],[],[],[],[],[],[],[],[],[],[],[],[],[],[],[],[],[],[],[],[],[],[],[],[],[],[],[],[],[],[],[],[],[],[],[],[],[],[],[],[]
participant_8_GOLD,500,500,563,927,1232,1550,1743,2197,2493,3212,3453,3835,4097,4289,4412,4811,5353,5817,6133,6542,6790,7316,7986,8418,8957,9433,9626,9749,9972,10293,10878,11201,11374,11634,11933,12166,12310,12595,13671,13951,15134
participant_8_CURRENTGOLD,500,0,63,427,732,1050,143,597,893,1612,278,660,192,384,507,906,1448,1912,628,1037,1285,1811,2481,263,802,1278,271,394,617,938,279,602,774,1034,1334,142,285,571,1647,1127,2310
participant_8_LEVEL,1,1,1,2,3,4,4,5,6,6,7,7,7,8,8,8,9,10,10,10,11,11,12,12,13,13,13,13,13,13,14,14,14,14,15,15,15,15,16,17,17
participant_8_MINIONSKILLED,0,0,2,14,24,33,37,54,61,75,82,93,101,105,105,109,113,121,124,134,137,152,155,160,166,171,172,172,172,178,181,184,184,184,188,190,191,197,200,200,200
participant_8_KILLS,0,0,0,0,0,0,0,0,0,1,1,1,1,1,1,1,2,2,2,2,2,2,3,3,4,4,4,4,4,4,5,5,5,6,6,6,6,6,8,8,11
participant_8_BUY,[],"[1055, 2003, 3340]",[],[],[],[],"[3070, 3057]",[],[],[],"[3051, 1028, 2055]",[],"[3044, 3067]",[],[],[],[],[],"[6632, 3158]",[],[],[],[],"[3004, 1033]",[],[],"[3140, 1036]",[],[],[],"[1053, 1037]",[],[],[],[],[3153],[3363],[],[],[1031],[]
participant_8_SOLD,[],[],[],[],[],[],[],[],[],[2003],[],[2055],"[1028, 3051]",[],[],[],[],[],"[3044, 3057, 3067]",[],[],[],[],"[3070, 3004]",[],[],[1033],[],[],[],"[1036, 1055]",[],[],[],[],"[1053, 1037]",[3340],[],[],[],[]
participant_8_UNDO,[],[],[],[],[],[],[],[],[],[],[],[],[],[],[],[],[],[],[],[],[],[],[],[],[],[],[],[],[],[],[],[],[],[],[],[],[],[],[],[],[]
participant_9_GOLD,500,500,523,759,936,1133,1268,1472,1627,2019,2153,2401,2556,2696,2836,3458,3775,3936,4139,4576,4716,4899,5194,5385,5603,5794,5984,6140,6280,6420,6875,7078,7269,7409,7570,7711,7926,8076,8727,9088,9304
participant_9_CURRENTGOLD,500,100,23,259,436,633,68,272,427,819,103,351,206,346,486,358,675,61,265,701,391,574,869,110,328,119,309,65,205,346,100,153,344,84,245,286,101,252,902,864,229
participant_9_LEVEL,1,1,1,2,3,3,4,4,5,6,6,6,6,6,7,7,8,8,8,9,9,9,10,10,10,10,10,10,10,11,12,12,12,12,13,13,13,13,15,15,15
participant_9_MINIONSKILLED,0,0,0,3,5,6,6,10,11,14,14,17,18,18,18,21,23,24,27,28,28,31,31,31,31,31,31,32,32,32,33,37,37,37,38,38,38,38,38,39,39
participant_9_KILLS,0,0,0,0,0,0,0,0,0,0,0,2,2,2,2,2,3,4,5,5,5,5,8,8,9,9,9,10,10,11,11,11,11,11,11,12,13,13,13,13,13
participant_9_BUY,[],"[1056, 2003, 2003, 3340]",[],[],[],[],[],[3802],[],[1001],[],[],"[3020, 1026]",[],[6655],[],[1058],[],[],[],[1058],[],[],"[3089, 4630]",[],[1026],[3135],[],[3145],[],[],[],[],[1058],[],[4628],[3191],[],[],[3157],[]
participant_9_SOLD,[],[],[],[2003],[],[],[],[],[],[2003],[],[],[1001],[],"[3802, 1026]",[],[],[],[],[],[],[],[],"[1058, 1058]",[],[],"[4630, 1026]",[],[],[],[],[],[],[1056],[],"[1058, 3145]",[],[],[],[3191],[]
participant_9_UNDO,[],[],[],[],[],[],[],[],[],[],[],[],[],[],[],[],[],[],[],[],[],[],[],[],[],[],[],[],[],[],[],[],[],[],[],[],[],[],[],[],[]
team0_KILLS,0,0,1,1,2,2,3,3,3,5,5,6,8,10,11,11,11,11,11,11,11,11,11,11,12,14,15,17,17,17,18,20,22,22,22,22,25,25,25,26,28
team0_CURRENTGOLD,2500,0,977,2328,3789,2969,4928,2324,3889,4101,2830,3898,3577,6295,9257,6084,2395,3487,3985,3243,3424,4504,3350,1712,3346,2349,4809,6501,5108,3242,6214,9051,5127,4408,4463,5288,2637,2831,3872,4503,6104
team0_TOTALGOLD,2500,2500,3477,4838,6299,7564,9523,10704,12269,14156,15745,17563,20152,22870,25832,27774,28885,30052,31250,32258,33639,34769,35665,37112,38747,40659,43118,45275,46922,48095,51068,53904,56070,56700,57957,59481,62115,63407,64448,66194,67795
team0_LEVEL,5,5,6,12,16,18,24,25,29,32,35,37,41,42,45,46,47,49,51,52,54,55,55,56,59,60,63,64,65,66,69,70,72,72,74,74,75,77,77,78,80
team0_SBIRES,0,0,11,37,51,78,119,133,169,195,234,251,275,303,319,334,350,370,391,398,420,439,453,469,489,497,530,556,572,592,617,641,660,660,670,695,707,721,726,748,748
team1_KILLS,0,0,0,0,1,1,1,1,1,3,3,5,5,5,5,7,9,10,12,13,13,13,17,17,20,20,20,22,22,24,25,25,26,27,27,28,30,30,35,35,40
team1_CURRENTGOLD,2500,100,312,1611,2564,3169,2298,1732,2329,3351,2051,4239,895,2302,1217,3416,4727,4898,4765,7185,5336,4593,7725,1123,3259,2915,2059,2600,2806,4265,1934,2836,4440,3973,3944,2347,1925,2214,7264,2531,4268
team1_TOTALGOLD,2500,2500,2812,4111,5714,7029,8008,9492,10774,12996,14121,16319,17715,19122,20572,23521,26082,27628,29894,32315,33366,34823,37955,39493,41629,42934,44504,46494,47751,49207,51722,53075,55353,56197,57816,59193,61373,62560,67610,69427,72014
team1_LEVEL,5,5,6,11,15,20,21,25,28,32,33,36,37,39,41,43,45,47,49,51,54,55,57,58,61,61,62,63,64,66,69,70,71,72,75,76,76,77,83,85,85
team1_SBIRES,0,0,5,27,50,72,82,119,137,167,187,207,228,249,264,279,296,309,339,356,366,396,409,417,435,444,460,475,486,493,504,530,533,533,561,575,581,596,612,618,618
delta_KILLS,0,0,1,1,1,1,2,2,2,2,2,1,3,5,6,4,2,1,-1,-2,-2,-2,-6,-6,-8,-6,-5,-5,-5,-7,-7,-5,-4,-5,-5,-6,-5,-5,-10,-9,-12
delta_CURRENTGOLD,0,-100,665,717,1225,-200,2630,592,1560,750,779,-341,2682,3993,8040,2668,-2332,-1411,-780,-3942,-1912,-89,-4375,589,87,-566,2750,3901,2302,-1023,4280,6215,687,435,519,2941,712,617,-3392,1972,1836
delta_TOTALGOLD,0,0,665,727,585,535,1515,1212,1495,1160,1624,1244,2437,3748,5260,4253,2803,2424,1356,-57,273,-54,-2290,-2381,-2882,-2275,-1386,-1219,-829,-1112,-654,829,717,503,141,288,742,847,-3162,-3233,-4219
delta_LEVEL,0,0,0,1,1,-2,3,0,1,0,2,1,4,3,4,3,2,2,2,1,0,0,-2,-2,-2,-1,1,1,1,0,0,0,1,0,-1,-2,-1,0,-6,-7,-5
delta_SBIRES,0,0,6,10,1,6,37,14,32,28,47,44,47,54,55,55,54,61,52,42,54,43,44,52,54,53,70,81,86,99,113,111,127,127,109,120,126,125,114,130,130
