name,frame_0,frame_1,frame_2,frame_3,frame_4,frame_5,frame_6,frame_7,frame_8,frame_9,frame_10,frame_11,frame_12,frame_13,frame_14,frame_15,frame_16,frame_17,frame_18,frame_19,frame_20,frame_21,frame_22,frame_23,frame_24,frame_25,frame_26,frame_27,frame_28,frame_29,frame_30,frame_31,frame_32,frame_33
nameStamp,Tstart,Tearly,Tearly,Tearly,Tearly,Tearly,Tearly,Tearly,Tearly,Tearly,Tearly,Tearly,Tearly,Tearly,Tearly,Tearly,Tmid,Tmid,Tmid,Tmid,Tmid,Tmid,Tmid,Tmid,Tmid,Tmid,Tmid,Tmid,Tmid,Tmid,Tmid,Tmid,Tend,Tend
timestamp,0,60017,120047,180070,240101,300131,360156,420158,480160,540163,600185,660214,720238,780263,840278,900308,960328,1020340,1080345,1140349,1200353,1260383,1320410,1380413,1440423,1500454,1560484,1620497,1680525,1740537,1800562,1860564,1920595,1980595
participant_0_GOLD,500,500,598,846,1151,1518,1903,2506,2830,3214,3945,4193,4491,5508,5880,6942,7475,7755,8262,8551,8904,9355,10410,10801,11424,11973,12180,12917,14233,15171,15823,16498,17504,18472
participant_0_CURRENTGOLD,500,0,98,346,651,1018,1403,2006,555,939,1670,1918,456,1473,130,1192,1725,705,1212,1501,204,655,910,1302,224,773,181,917,2234,382,1033,1709,2715,3522
participant_0_LEVEL,1,1,1,3,4,5,6,7,8,8,9,9,10,11,11,12,12,12,13,13,13,14,14,15,15,15,16,16,17,17,18,18,18,18
participant_0_MINIONSKILLED,0,0,4,11,21,33,45,54,63,75,84,91,98,108,119,132,144,144,149,154,160,175,178,185,189,194,194,209,223,223,229,239,251,256
participant_0_KILLS,0,0,0,0,0,0,0,0,0,0,0,1,1,1,1,1,1,1,1,1,1,1,1,1,1,1,1,1,1,1,1,1,1,1
participant_0_BUY,[],"[1055, 3340, 2003]",[],[],[],[],[],"[1036, 1042]",[],[],[],"[1043, 1053]",[],[],[],[1037],[3153],[],[1001],[1042],[],[1036],[1036],[],[],"[3133, 3057]",[],[],[],[3006],[],[3508],[],[]
participant_0_SOLD,[],[],[2003],[],[],[],[],[],[],[],[],"[1042, 1036]",[],[],[],[],"[1055, 1053, 1043, 1037]",[],[],[],[],[],[],[],[],"[1036, 1036]",[],[],[],"[1001, 1042]",[],"[3133, 3057]",[],[]
participant_0_UNDO,[],[],[],[],[],[],[],[],[],[],[],[],[],[],[],[],[],[],[],[],[],[],[],[],[],[],[],[],[],[],[],[],[],[]
participant_1_GOLD,500,500,621,963,1271,1555,1801,1935,2057,2390,2769,3362,3569,4026,4468,4798,4920,5342,5614,5864,6147,6354,6680,7098,7655,8307,8533,9830,10168,10376,11356,12083,13155,13426
participant_1_CURRENTGOLD,500,0,121,463,771,1055,1301,335,457,790,69,662,869,1026,118,448,220,642,914,1164,447,654,980,1398,305,956,1183,30,18,226,1207,443,1515,1726
participant_1_LEVEL,1,1,2,3,3,4,5,5,5,6,6,6,7,8,8,8,8,9,10,10,10,11,11,12,12,13,13,14,14,14,15,16,16,16
participant_1_MINIONSKILLED,0,0,0,0,0,0,0,0,0,0,0,0,0,1,1,1,1,2,5,7,7,7,12,14,23,26,29,29,36,36,39,51,56,58
participant_1_KILLS,0,0,0,0,0,0,0,1,1,1,1,2,2,2,2,3,3,4,5,5,5,5,6,6,6,6,7,7,7,7,8,8,8,8
participant_1_BUY,[],"[1054, 2003, 3340]",[],[],[],[],[],[],"[3145, 1028, 2003, 2003, 2055]",[],[],[],[],[],[4636],[],"[1001, 1029]",[3047],[],[],[3108],[1052],[],[],"[3157, 1028]",[],[1026],[],[1052],[],[],[3165],[],[]
participant_1_SOLD,[],[],[],[],[],[],[],[2003],[],[],"[2055, 2003, 2003]",[],[],[1054],"[3145, 1028]",[],[],"[1001, 1029]",[],[],[],[],[],[],"[1052, 3108]",[],[],[],[],[],[],"[1026, 1052, 1028]",[],[]
participant_1_UNDO,[],[],[],[],[],[],[],[],[],[],[],[],[],[],[],[],[],[],[],[],[],[],[],[],[],[],[],[],[],[],[],[],[],[]
participant_2_GOLD,500,500,591,797,1039,1343,1599,2105,2262,2541,2813,3434,3556,3679,3815,4360,4597,4994,5716,5839,6093,6257,7592,7749,7972,8351,8940,9093,9257,9380,9943,10365,10587,10748
participant_2_CURRENTGOLD,500,0,91,297,539,833,1089,1595,127,396,668,1289,1411,1714,100,645,282,179,901,1024,378,107,1442,1599,257,636,375,528,257,381,943,550,773,773
participant_2_LEVEL,1,1,1,3,4,5,6,7,7,8,8,9,10,10,10,11,11,11,11,11,12,12,12,12,13,13,14,14,14,14,14,15,15,15
participant_2_MINIONSKILLED,0,0,4,9,16,24,32,37,39,45,55,62,62,62,63,67,70,70,70,70,74,76,77,79,79,82,86,87,90,90,91,91,91,91
participant_2_KILLS,0,0,0,0,0,0,0,0,0,0,0,1,1,2,3,3,3,3,3,3,4,4,4,5,5,6,6,8,8,8,9,9,11,11
participant_2_BUY,[],"[1035, 3340, 2031]",[],[],[],[],[],[3134],[],[],[3133],[],[],[1001],"[6691, 1036]",[],[1036],[],[],[],"[3134, 1018]",[],[],[],"[6676, 1036]",[],[],[3179],[1036],[],[],"[3133, 3047]",[],[]
participant_2_SOLD,[],[],[],[],[],[],[],[],[],[1035],[],[],[],[],"[3134, 3133]",[],[],[],[],[3340],"[1036, 1036]",[],[],[3513],"[3134, 1018]",[],[],[1036],[],[],[],"[1036, 2031, 1001]",[],[]
participant_2_UNDO,[],[],[],[],[],[],[],[],[],[],[],[],[],[],[],[],[],[],[],[],[],[],[],[],[],[],[],[],[],[],[],[],[],[]
participant_3_GOLD,500,500,521,769,941,1063,1298,1420,1709,1832,2045,2577,2804,3045,3340,3512,3649,3781,4077,4200,4496,4619,4990,5161,5801,6023,6167,6439,6707,6831,7379,7921,8468,8720
participant_3_CURRENTGOLD,500,0,21,269,441,563,798,270,559,682,895,177,404,645,940,237,129,261,257,80,376,149,170,341,981,103,247,519,787,411,959,401,948,1020
participant_3_LEVEL,1,1,1,2,3,4,4,4,5,5,6,6,7,7,8,8,8,8,8,8,9,9,9,10,10,10,10,11,11,11,12,13,13,13
participant_3_MINIONSKILLED,0,0,0,7,10,10,17,17,23,23,28,29,35,41,47,47,48,49,55,55,61,61,64,67,72,72,73,73,77,77,91,98,98,100
participant_3_KILLS,0,0,0,0,0,0,0,1,1,1,2,2,2,4,4,5,5,5,6,6,6,6,7,7,7,8,8,8,10,12,12,12,13,15
participant_3_BUY,[],"[1056, 2003, 3340, 2003]",[],[],[],[],[],[],"[3047, 1042, 1042, 2055]",[],[],[],"[1026, 1052, 1043, 2055]",[],"[3115, 1026, 2055, 2055]",[],[],"[4635, 3364]",[],[],"[4633, 1042, 1042]",[],[3051],[],[3091],[],[3916],[],[],"[3165, 1058]",[],[],[],[]
participant_3_SOLD,[],[],[],"[2003, 2003]",[],[],[],[],[],[2055],[],[],"[1042, 1042, 2055]",[],"[1043, 1026, 1052]",[2055],[],[3340],[2055],[],"[4635, 1026]",[],[1042],[],"[3051, 1042]",[],[],[],[],"[3916, 1056]",[],[],[],[]
participant_3_UNDO,[],[],[],[],[],[],[],[],[],[],[],[],[],[],[],[],[],[],[],[],[],[],[],[],[],[],[],[],[],[],[],[],[],[]
participant_4_GOLD,500,500,523,773,922,1056,1222,1377,1602,1737,1866,2366,2488,2624,2789,3264,3386,3578,3701,3955,4176,4298,4665,4892,5881,6150,6548,6671,6814,7080,7294,7716,8188,8554
participant_4_CURRENTGOLD,500,0,23,273,422,31,197,277,502,637,76,576,323,24,189,314,436,628,236,490,711,833,1200,102,1091,70,468,81,224,25,239,226,698,694
participant_4_LEVEL,1,1,1,2,3,3,3,4,4,5,5,6,6,6,7,7,7,7,7,8,8,8,9,9,10,11,11,11,12,12,13,14,14,15
participant_4_MINIONSKILLED,0,0,0,4,5,5,7,8,13,13,13,18,18,19,21,23,23,27,27,31,36,36,43,45,50,51,52,52,53,58,61,61,63,67
participant_4_KILLS,0,0,0,0,0,0,0,0,0,0,0,0,0,0,0,1,1,1,1,1,1,1,1,1,2,2,3,3,3,3,3,3,3,3
participant_4_BUY,[],"[3858, 2003, 2003, 3340]",[],[],[],"[1029, 2003, 2003, 2003, 2055]",[],[2055],[],[],[1026],[],"[1001, 2055]",[1052],[],[1027],[],[],[3802],[],[],[],[],"[6655, 2055]",[],"[3020, 2420, 2003]",[],"[1052, 2055]",[],[3108],[],[1052],[],[]
participant_4_SOLD,[],[],[],[],[],[2003],[2055],[2055],[],[],"[2003, 3858]",[],[],[],[2055],[],[],[],"[1052, 1027]",[],"[2003, 2003]",[],[],"[3802, 1026]",[2055],"[1001, 1029]",[],[],[],"[2055, 1052]",[],[],[],[]
participant_4_UNDO,[],[],[],[],[],[],[],[],[],[],[],[],[],[],[],[],[],[],[],[],[],[],[],[],[],[],[],[],[],[],[],[],[],[]
participant_5_GOLD,500,500,521,706,959,1116,1274,1424,1647,1882,2004,2237,2415,2588,2890,3054,3177,3606,3778,3991,4162,4452,4776,4989,5212,5464,5601,5788,6412,6752,7225,7463,7839,7899
participant_5_CURRENTGOLD,500,0,21,206,459,616,774,174,397,632,404,637,815,138,440,604,127,556,378,591,212,502,826,239,462,714,81,268,892,332,55,293,669,549
participant_5_LEVEL,1,1,1,2,4,5,5,6,6,7,7,8,8,8,9,9,9,10,10,10,10,11,11,11,12,12,12,12,13,13,13,14,14,14
participant_5_MINIONSKILLED,0,0,0,3,8,10,12,14,21,22,22,29,32,34,41,43,43,47,47,53,56,62,70,75,81,85,86,87,90,99,109,113,121,121
participant_5_KILLS,0,0,0,0,0,0,0,0,0,0,0,0,0,1,1,1,1,1,1,1,1,1,1,1,1,2,4,4,4,4,4,4,4,4
participant_5_BUY,[],"[1056, 2003, 2003, 3340]",[],[],[],[],"[3145, 2003]",[],[],[],[],"[1028, 1026]",[],"[3152, 2055]",[],[],[],[1052],[],[3145],[],[1001],[],[],[3020],[2055],[],[],"[4628, 2055]",[],"[1029, 1052]",[],[3191],[1052]
participant_5_SOLD,[],[],[],[2003],[2003],[],[],[],[],[],[2003],[],[],"[3145, 1028, 1026]",[],[2055],[],[],[],[1052],[],[],[],[],[1001],[],[],[2055],[3145],[],[2055],[],"[1052, 1029]",[]
participant_5_UNDO,[],[],[],[],[],[],[],[],[],[],[],[],[],[],[],[],[],[],[],[],[],[],[],[],[],[],[],[],[],[],[],[],[],[]
participant_6_GOLD,500,500,621,928,1241,1440,1828,2065,2287,2595,2717,2840,3079,3254,3461,3702,4010,5258,5455,5663,5870,6068,6460,6882,7231,8397,8519,8641,8939,9062,9469,9697,9819,9879
participant_6_CURRENTGOLD,500,0,121,428,741,940,1328,1565,1787,2095,317,140,379,154,361,602,910,2158,2355,13,220,418,810,1232,31,1197,1319,331,629,62,469,697,819,479
participant_6_LEVEL,1,1,2,2,3,4,4,5,5,5,6,6,6,6,7,7,8,8,9,9,9,10,10,10,11,12,12,12,13,13,13,14,14,14
participant_6_MINIONSKILLED,0,0,0,0,0,0,0,1,1,1,1,1,1,1,6,6,6,6,6,6,6,6,6,6,6,21,21,21,21,21,21,21,21,21
participant_6_KILLS,0,0,0,0,0,0,0,0,0,0,0,0,0,0,0,0,0,1,1,1,1,1,1,2,2,4,4,4,4,4,5,5,5,5
participant_6_BUY,[],"[1039, 2031, 3340]",[],[],[],[],[],[],[],[],"[3145, 1026]",[1001],[],[1028],[],[],[],[],[],"[4636, 3020, 3113]",[],[],[],[],"[1026, 3057]",[],[],"[3100, 1052, 3364, 2055]",[],"[3145, 2055]",[],[],[],[1028]
participant_6_SOLD,[],[],[],[],[],[],[],[],[],[1039],[],[],[],[],[],[],[],[],[],"[3145, 1028, 1026, 1001]",[],[],[],[],[],[],[],"[3057, 3113, 1026, 3340]",[2055],[1052],[],[2055],[],[]
participant_6_UNDO,[],[],[],[],[],[],[],[],[],[],[],[],[],[],[],[],[],[],[],[],[],[],[],[],[],[],[],[],[],[],[],[],[],[]
participant_7_GOLD,500,500,521,892,1113,1466,1708,1907,2189,2468,2646,2970,3233,3898,4154,4276,4633,4830,5065,5272,5617,5900,6238,6540,6775,7197,7969,8302,8452,8618,9055,9288,9582,9642
participant_7_CURRENTGOLD,500,0,21,382,603,946,88,287,559,828,1006,70,323,13,269,391,748,510,745,337,682,665,1003,1305,740,1087,1859,2192,317,483,185,419,547,232
participant_7_LEVEL,1,1,1,3,4,5,5,6,6,7,8,8,8,9,10,10,10,10,11,11,11,12,12,13,13,13,14,14,14,14,14,15,15,15
participant_7_MINIONSKILLED,0,0,0,12,17,27,34,39,46,52,55,63,68,73,81,81,91,91,95,101,110,115,124,130,136,136,139,146,148,150,151,153,154,154
participant_7_KILLS,0,0,0,0,0,0,0,0,0,0,0,0,0,0,0,0,0,0,0,0,0,0,0,0,0,0,0,0,1,1,1,1,1,1
participant_7_BUY,[],"[1054, 2003]",[],[],[],[],[],"[1033, 1001, 3364]",[],[],[3111],[],[],"[1033, 1028]",[],[],[6660],[],[1036],[],[1053],[],[],[1031],[],[],[6662],[],[],"[1033, 1029, 2055, 3340, 2055]",[3105],[],[],[]
participant_7_SOLD,[],[],[],"[2003, 2010]",[],[],[2010],"[2010, 3340]",[],[],"[1001, 1033]",[],[],[],[],[],[1028],[],[],[],[1036],[],[],[],[],[],"[1054, 6660, 1033, 1031]",[],[],[3364],"[1033, 1029]","[2055, 2055]",[],[]
participant_7_UNDO,[],[],[],[],[],[],[],[],[],[],[],[],[],[],[],[],[],[],[],[],[],[],[],[],[],[],[],[],[],[],[],[],[],[]
participant_8_GOLD,500,500,942,1155,1390,1603,1958,2293,2596,2852,3396,3853,4174,4681,5103,5624,6623,6953,7697,8016,8138,9348,9685,10016,10138,10371,10542,10796,11777,12123,12484,12718,13318,13413
participant_8_CURRENTGOLD,500,0,442,5,240,453,808,1143,1446,1702,2246,103,424,931,153,674,1673,2003,2747,3066,238,1448,185,516,639,871,242,497,1477,524,190,423,1024,938
participant_8_LEVEL,1,1,1,2,3,3,4,5,6,6,6,7,7,8,8,9,10,10,10,11,11,12,12,13,13,13,13,13,14,15,15,15,15,15
participant_8_MINIONSKILLED,0,0,1,6,12,18,22,31,38,46,54,56,59,65,65,71,84,89,90,91,91,103,108,116,116,118,121,124,124,134,135,137,142,144
participant_8_KILLS,0,0,0,0,0,0,1,1,1,1,1,1,2,2,2,2,4,5,5,6,6,6,6,6,6,6,7,7,7,8,8,8,8,8
participant_8_BUY,[],"[3850, 2003, 2003, 3340]",[],[],[],[],[],"[1001, 2055, 3067]",[],[],[],"[2031, 4642]",[],[],"[4005, 2055]",[],[],[],"[3009, 3191]",[],[],[],[3157],[],[],[3114],[],[],[],[3222],[],[],[],[]
participant_8_SOLD,[],[],[],[],"[2010, 2003]","[2003, 2010]",[],[],[],"[2010, 3850]","[2419, 2055]",[],[],[],"[3067, 4642]",[2055],[3851],[],[1001],[],[],[],"[3191, 2423]",[],[],[],[],[],[],[3114],[],[],[],[]
participant_8_UNDO,[],[],[],[],[],[],[],[],[],[],[],[],[],[],[],[],[],[],[],[],[],[],[],[],[],[],[],[],[],[],[],[],[],[]
participant_9_GOLD,500,520,735,890,1124,1358,1933,2067,2276,2533,2850,3211,3711,3900,4210,4580,5535,5951,6183,6824,7055,7421,7617,7832,8015,8320,8575,8715,8897,9179,9448,9630,9784,9853
participant_9_CURRENTGOLD,500,20,235,390,624,858,1433,392,601,858,1175,336,836,1025,410,780,1735,2151,884,1524,1755,2121,967,1183,1365,870,1125,1265,1448,229,498,680,835,903
participant_9_LEVEL,1,1,1,2,3,4,4,4,5,5,5,6,6,7,7,7,8,9,9,10,10,11,11,11,12,12,13,13,13,13,14,14,14,14
participant_9_MINIONSKILLED,0,0,0,0,1,1,1,1,2,2,2,3,3,5,5,5,6,10,13,13,19,19,19,19,22,23,24,24,27,29,31,34,35,35
participant_9_KILLS,0,0,1,1,1,1,1,1,1,1,2,3,3,4,5,6,7,7,8,9,9,12,13,13,13,13,13,13,14,14,14,14,15,15
participant_9_BUY,[],"[1055, 2003, 3340]",[],"[1036, 1001]",[],[],[],[],[],[],[],"[3134, 1053, 1036, 3009]",[],[],"[6692, 1036]",[],[],[],[],[],"[6676, 1042]",[],"[3086, 2015]",[],[],[],[3094],[],[],[1038],[1037],[],[],[]
participant_9_SOLD,[],[],[2003],[],[],[],[],[],[],[],[],"[1036, 1001]",[],[],"[3134, 1036, 1053]",[],[],[],[],[],[1036],[],[1042],[],[],[],"[3086, 2015]",[],[],[],[1055],[],[],[]
participant_9_UNDO,[],[],[],[],[],[],[],[],[],[],[],[],[],[],[],[],[],[],[],[],[],[],[],[],[],[],[],[],[],[],[],[],[],[]
team0_KILLS,0,0,0,0,0,0,0,2,2,2,3,6,6,9,10,13,13,14,16,16,17,17,19,20,21,23,25,27,29,31,33,33,36,38
team0_CURRENTGOLD,2500,0,354,1648,2824,3500,4788,4483,2200,3444,3378,4622,3463,4882,1477,2836,2792,2415,3520,4259,2116,2398,4702,4742,2858,2538,2454,2075,3520,1425,4381,3329,6649,7735
team0_TOTALGOLD,2500,2500,2854,4148,5324,6535,7823,9343,10460,11714,13438,15932,16908,18882,20292,22876,24027,25450,27370,28409,29816,30883,34337,35701,38733,40804,42368,44950,47179,48838,51795,54583,57902,59920
team0_LEVEL,5,5,6,13,17,21,24,27,29,32,34,36,40,42,44,46,46,47,49,50,52,54,55,58,60,62,64,66,68,68,72,76,76,77
team0_SBIRES,0,0,8,31,52,72,101,116,138,156,180,200,213,231,251,270,286,292,306,317,338,355,374,390,413,425,434,450,479,484,511,540,559,572
team1_KILLS,0,0,1,1,1,1,2,2,2,2,3,4,5,7,8,9,12,14,15,17,17,20,21,22,22,25,28,28,30,31,32,32,33,33
team1_CURRENTGOLD,2500,20,840,1411,2667,3813,4431,3561,4790,6115,5148,1286,2777,2261,1633,3051,5193,7378,7109,5531,3107,5154,3791,4475,3237,4739,4626,4553,4763,1630,1397,2512,3894,3101
team1_TOTALGOLD,2500,2520,3340,4571,5827,6983,8701,9756,10995,12330,13613,15111,16612,18321,19818,21236,23978,26598,28178,29766,30842,33189,34776,36259,37371,39749,41206,42242,44477,45734,47681,48796,50342,50686
team1_LEVEL,5,5,6,11,17,21,22,26,28,30,32,35,35,38,41,42,45,47,49,51,51,56,56,58,61,62,64,64,67,68,69,72,72,72
team1_SBIRES,0,0,1,21,38,56,69,86,108,123,134,152,163,178,198,206,230,243,251,264,282,305,327,346,361,383,391,402,410,433,447,458,473,475
delta_KILLS,0,0,-1,-1,-1,-1,-2,0,0,0,0,2,1,2,2,4,1,0,1,-1,0,-3,-2,-2,-1,-2,-3,-1,-1,0,1,1,3,5
delta_CURRENTGOLD,0,-20,-486,237,157,-313,357,922,-2590,-2671,-1770,3336,686,2621,-156,-215,-2401,-4963,-3589,-1272,-991,-2756,911,267,-379,-2201,-2172,-2478,-1243,-205,2984,817,2755,4634
delta_TOTALGOLD,0,-20,-486,-423,-503,-448,-878,-413,-535,-616,-175,821,296,561,474,1640,49,-1148,-808,-1357,-1026,-2306,-439,-558,1362,1055,1162,2708,2702,3104,4114,5787,7560,9234
delta_LEVEL,0,0,0,2,0,0,2,1,1,2,2,1,5,4,3,4,1,0,0,-1,1,-2,-1,0,-1,0,0,2,1,0,3,4,4,5
delta_SBIRES,0,0,7,10,14,16,32,30,30,33,46,48,50,53,53,64,56,49,55,53,56,50,47,44,52,42,43,48,69,51,64,82,86,97
