name,team0,team1
win,Fail,Win
firstBlood,False,True
firstTower,False,True
firstInhibitor,False,False
firstBaron,False,False
firstDragon,False,True
firstRiftHerald,False,True
towerKills,1,6
inhibitorKills,0,0
baronKills,0,0
dragonKills,0,3
riftHeraldKills,1,1
