name,team0,team1
win,Win,Fail
firstBlood,True,False
firstTower,True,False
firstInhibitor,True,False
firstBaron,False,False
firstDragon,False,False
firstRiftHerald,False,False
towerKills,10,0
inhibitorKills,2,0
baronKills,0,0
dragonKills,0,0
riftHeraldKills,0,0
