name,frame_0,frame_1,frame_2,frame_3,frame_4,frame_5,frame_6,frame_7,frame_8,frame_9,frame_10,frame_11,frame_12,frame_13,frame_14,frame_15,frame_16,frame_17,frame_18,frame_19,frame_20,frame_21,frame_22,frame_23,frame_24,frame_25,frame_26,frame_27
nameStamp,Tstart,Tearly,Tearly,Tearly,Tearly,Tearly,Tearly,Tearly,Tearly,Tearly,Tearly,Tearly,Tearly,Tearly,Tearly,Tearly,Tmid,Tmid,Tmid,Tmid,Tmid,Tmid,Tmid,Tmid,Tmid,Tmid,Tmid,Tmid
timestamp,0,60019,120036,180053,240068,300072,360082,420087,480102,540117,600143,660159,720181,780187,840203,900219,960224,1020228,1080236,1140268,1200268,1260280,1320312,1380330,1440361,1500381,1560409,1620409
participant_0_GOLD,500,500,584,741,1025,1329,1822,2094,2509,2684,3179,3530,3729,3944,4429,4812,5304,5482,5703,6111,6280,6506,7676,7987,8479,8685,8926,8950
participant_0_CURRENTGOLD,500,0,84,241,525,829,97,369,784,59,554,905,1104,819,1304,487,979,57,278,686,355,581,1751,262,754,961,1201,1225
participant_0_LEVEL,1,1,1,2,4,5,6,6,7,8,8,9,9,10,10,11,11,11,12,12,13,13,13,14,14,14,14,14
participant_0_MINIONSKILLED,0,0,3,5,14,22,26,32,46,49,55,65,69,71,74,82,90,93,99,111,116,118,123,130,134,139,142,142
participant_0_KILLS,0,0,0,0,1,1,1,2,2,3,3,3,5,5,7,8,8,9,9,10,10,10,10,10,10,10,10,10
participant_0_BUY,[],"[1055, 2003, 3340]",[],[],[1036],"[1042, 2003, 2003]",[],[],[],[],"[6672, 1001, 2003]",[],[],"[3111, 3067]","[3133, 1036]",[],[],"[3071, 1028]",[],[],"[3044, 1028]",[],[],[3053],[],[],[1053],[]
participant_0_SOLD,[],[],[],[2003],[],[],"[2003, 2003]",[],[],[],"[1036, 1042, 1055]",[],[2003],[1001],[],[],[],"[3133, 3067, 1036]",[],[],[1028],[],[],"[3044, 1028]",[],[],[],[]
participant_0_UNDO,[],[],[],[],[],[],[],[],[],[],[],[],[],[],[],[],[],[],[],[],[],[],[],[],[],[],[],[]
participant_1_GOLD,500,500,652,963,1271,1575,1698,1925,2536,2821,3128,3606,3948,4684,5057,5629,6383,6519,6831,7134,7281,7916,8168,8735,8908,9030,9152,9177
participant_1_CURRENTGOLD,500,0,152,463,771,1075,1198,25,636,921,1228,1706,2048,744,1117,139,893,204,516,819,541,1176,28,595,768,890,263,77
participant_1_LEVEL,1,1,2,3,3,4,4,4,5,6,6,7,7,8,8,9,10,10,10,11,11,11,12,12,12,12,12,12
participant_1_MINIONSKILLED,0,0,0,0,0,0,0,0,0,0,0,0,0,1,1,1,1,2,2,3,3,7,7,9,9,9,9,9
participant_1_KILLS,0,0,0,0,0,0,0,0,1,1,1,2,2,3,3,4,5,5,5,5,5,6,6,7,7,7,7,7
participant_1_BUY,[],"[1035, 2031, 3340]",[],[],[],[],[],"[3134, 1001]",[],[],[],[],[],"[3133, 6691]",[],"[3111, 1036, 1028]",[],"[3134, 2055, 3364]",[],[],"[1036, 2055]",[],"[3814, 1036]",[],[],[],"[3123, 1029]","[2055, 2055]"
participant_1_SOLD,[],[],[],[],[],[],[],[],[1035],[],[],[],[],"[2031, 3134, 3133]",[],[1001],[],"[1036, 3340]",[],[],[],[2055],"[1036, 3134, 1028]",[2055],[],[],[1036],[]
participant_1_UNDO,[],[],[],[],[],[],[],[],[],[],[],[],[],[],[],[],[],[],[],[],[],[],[],[],[],[],[],[]
participant_2_GOLD,500,500,626,874,1422,1761,2048,2602,2979,3724,4263,4504,5738,5902,7440,8095,8232,8758,9252,10074,10196,10703,11395,11796,12213,12336,12590,12615
participant_2_CURRENTGOLD,500,0,126,374,572,501,778,1332,1699,2444,63,304,1528,92,180,835,972,48,542,1364,386,894,1585,386,804,926,281,165
participant_2_LEVEL,1,1,1,3,4,5,6,6,7,8,9,9,10,10,11,11,11,11,12,12,12,13,14,14,14,14,14,14
participant_2_MINIONSKILLED,0,0,6,13,19,29,36,43,49,59,66,73,83,85,85,89,90,95,102,114,114,124,136,148,153,153,157,157
participant_2_KILLS,0,0,0,0,0,0,1,1,1,1,2,2,2,2,3,3,3,3,3,3,3,3,4,4,4,4,4,4
participant_2_BUY,[],"[1054, 2003, 3340]",[],[],[],[],"[6660, 2031, 2055]",[],[],"[1001, 1029, 1029]",[],[],[],[3047],[],[3105],[],"[3068, 1028]",[],[],[1011],[],[],[3075],[],[],[],[]
participant_2_SOLD,[],[],[],[],[],[2003],[],[],[2055],[],[],[],[],"[1001, 1029]",[],[1029],[],"[6660, 3105]",[],[],[1028],[],[],[1011],[],[],[],[]
participant_2_UNDO,[],[],[],[],[],[],[],[],[],[],[],[],[],[],[],[],[],[],[],[],[],[],[],[],[],[],[],[]
participant_3_GOLD,500,500,563,1203,1872,2127,2306,2512,3115,3301,3733,4376,4540,4802,5174,5927,6204,6465,6918,7468,7611,7734,7856,7978,8151,8273,8395,8420
participant_3_CURRENTGOLD,500,0,63,228,47,302,481,687,1290,51,483,1126,690,952,1324,177,454,715,1168,1718,386,509,631,753,926,1048,1171,1195
participant_3_LEVEL,1,1,1,1,2,3,3,4,5,5,6,6,6,7,7,8,9,9,9,10,10,10,10,10,10,10,10,10
participant_3_MINIONSKILLED,0,0,2,5,13,18,21,26,31,34,49,53,55,63,74,74,79,83,94,110,111,111,111,111,111,111,111,111
participant_3_KILLS,0,0,0,0,0,0,0,0,0,0,0,0,0,0,0,0,0,0,0,1,1,1,1,1,1,1,1,1
participant_3_BUY,[],"[2003, 3858, 3340, 2003]",[],[],[],"[1001, 1029, 2055]",[],[],[],"[3047, 1028]",[],"[3067, 2055]",[1029],[],[],[1033],[],[],[],[3190],[1029],[],[],"[1028, 3364]",[],[],[3067],[]
participant_3_SOLD,[],[],[],[2003],[],[],[],[2003],"[2010, 2010, 2010]","[1001, 1029, 2055]",[],[1028],[],[],[],[],[],[],[3858],"[3067, 1033, 1029]",[],[],[],"[3340, 2055]",[],[],[1028],[]
participant_3_UNDO,[],[],[],[],[],[],[],[],[],[],[],[],[],[],[],[],[],[],[],[],[],[],[],[],[],[],[],[]
participant_4_GOLD,500,500,523,840,1189,1324,1500,1827,2221,2355,2597,2745,2929,3234,3368,3553,3687,3927,4134,4724,4864,5005,5145,5436,5656,5817,5958,5986
participant_4_CURRENTGOLD,500,0,23,340,689,149,325,652,1046,280,522,195,79,384,518,253,387,626,834,274,114,255,395,285,506,667,408,436
participant_4_LEVEL,1,1,1,2,3,3,3,4,5,5,5,6,6,6,7,7,7,8,8,9,9,9,10,10,10,10,10,10
participant_4_MINIONSKILLED,0,0,0,3,5,5,8,11,13,13,16,17,20,21,21,21,21,28,32,32,32,32,32,32,33,34,34,34
participant_4_KILLS,0,0,0,1,2,2,2,2,3,3,3,4,4,4,4,5,5,5,5,5,5,5,5,5,5,5,5,5
participant_4_BUY,[],"[1055, 2003, 3340]",[],"[1036, 2055, 2003]","[1053, 1001]",[],[],[],[],"[1038, 2055, 2003]",[],[],[1018],[],[],[6673],[],[],[],[],"[1018, 1037, 3363]",[],[],[],[],[],[],[]
participant_4_SOLD,[],[],[],[2003],[1036],[2003],[2055],[],[],[],[],[],[2003],[],[],"[1018, 1053]",[],[2055],[],[],[3340],[],[],[],[],[],[],[]
participant_4_UNDO,[],[],[],[],[],[],[],[],[],[],[],[],[],[],[],[],[],[],[],[],[],[],[],[],[],[],[],[]
participant_5_GOLD,500,500,542,934,1183,1396,1739,2015,2388,3007,3303,3599,3995,4473,4998,5725,6453,6829,6951,7074,8065,8230,8452,8637,8994,9172,9948,10122
participant_5_CURRENTGOLD,500,0,42,434,683,896,289,565,938,1557,253,549,945,1423,1948,675,1403,379,501,624,1615,680,302,487,844,1022,1798,1972
participant_5_LEVEL,1,1,1,3,4,4,5,6,7,8,8,8,9,10,10,10,11,11,11,11,12,12,12,12,13,13,13,13
participant_5_MINIONSKILLED,0,0,1,14,21,26,36,45,56,67,68,74,86,97,107,113,124,128,128,128,148,151,151,154,162,165,173,173
participant_5_KILLS,0,0,0,0,0,0,0,0,0,0,0,0,0,0,1,3,3,3,3,3,3,3,3,3,3,3,3,3
participant_5_BUY,[],"[1056, 2003, 2003, 3340]",[],[],[1082],[1027],[],[1052],[],[3802],[2031],[],[],[],[1026],[6655],[2055],[2420],[],[],[],[3191],[],[3157],[],[],[],[]
participant_5_SOLD,[],[],[],[2003],[2010],[],[],[2010],[],"[1052, 1027]",[2003],[],[],[],[2031],"[3802, 1026]",[],"[2055, 2010]",[],[],[2420],[],[],"[3191, 2421]",[],[],[],[]
participant_5_UNDO,[],[],[],[],[],[],[],[],[],[],[],[],[],[],[],[],[],[],[],[],[],[],[],[],[],[],[],[]
participant_6_GOLD,500,500,621,1009,1291,1490,1643,1990,2197,2841,3813,3966,4187,4947,5384,6126,6854,7907,8300,8583,10196,10694,11220,11550,11743,11932,12877,13072
participant_6_CURRENTGOLD,500,0,121,509,791,990,268,615,197,841,1813,66,287,1047,484,1226,1954,3007,100,383,1996,2494,1120,1451,243,432,1378,1572
participant_6_LEVEL,1,1,2,3,3,4,4,4,5,6,7,7,7,9,9,10,11,12,13,13,14,14,15,15,15,15,16,16
participant_6_MINIONSKILLED,0,0,0,0,0,0,0,0,0,3,7,7,8,12,12,12,12,22,22,31,38,38,43,43,48,51,55,55
participant_6_KILLS,0,0,0,0,0,0,2,2,3,3,3,3,4,5,5,6,7,7,7,7,8,8,8,8,8,8,8,8
participant_6_BUY,[],"[1055, 2003, 3340]",[],[2003],"[1036, 2003, 2003]",[],[],[],[],[],"[6670, 1018, 1037, 2031]",[],[6672],"[2055, 2055, 1036]","[3006, 3363]","[3133, 2055]",[],[],[],[6675],[],[],[3133],[],[],[],[],[]
participant_6_SOLD,[],[],[],[2003],"[2003, 2010]",[],"[2003, 2003, 2010]",[2010],[],[],[1036],[],"[6670, 1018, 1037]",[],"[2422, 3340]","[2055, 1036]",[2055],[],[2055],[3133],[],[],[],[],[],[],[],[]
participant_6_UNDO,[],[],[],[],[],[],[],[],[],[],[],[],[],[],[],[],[],[],[],[],[],[],[],[],[],[],[],[]
participant_7_GOLD,500,500,598,934,1155,1305,1547,1851,2175,2417,2731,2917,3081,3287,3774,4516,4949,5071,5367,5636,6416,6539,6935,7172,7294,7466,7907,8032
participant_7_CURRENTGOLD,500,0,98,424,295,95,337,206,520,247,431,617,781,987,684,176,534,66,362,631,1411,634,1030,317,439,611,1052,1057
participant_7_LEVEL,1,1,1,3,4,4,5,6,6,7,7,8,8,8,9,9,10,10,10,10,11,11,12,12,12,12,13,13
participant_7_MINIONSKILLED,0,0,4,14,20,22,29,39,48,55,57,61,64,69,71,71,80,80,86,91,92,92,98,104,104,104,105,105
participant_7_KILLS,0,0,0,1,1,1,1,2,2,2,2,4,5,5,5,6,6,7,7,8,8,10,10,10,10,10,10,11
participant_7_BUY,[],"[3850, 2003, 2003]",[],[],[],"[1052, 1052, 2055]",[],"[3802, 1052, 1001, 2003]",[],[],[],"[3108, 3020, 3364]",[],[3916],[],[],[],"[6653, 1011]",[],[],[],[],[],[],[4637],[],[],[]
participant_7_SOLD,[],[],[],"[2003, 2003]",[],[],[],"[1052, 1052]",[3850],[],[2003],"[1052, 1001, 3340]",[],[],[],[3851],[],"[3802, 3108]",[],[],[],[],[],[2055],[1011],[],[],[]
participant_7_UNDO,[],[],[],[],[],[],[],[],[],[],[],[],[],[],[],[],[],[],[],[],[],[],[],[],[],[],[],[]
participant_8_GOLD,500,500,584,865,1104,1464,2552,2752,3397,3702,4008,4200,4952,5454,5846,6793,7622,7952,8522,8758,9788,10175,10377,10715,10972,11252,11607,11832
participant_8_CURRENTGOLD,500,0,84,315,104,464,1552,1752,2397,2702,433,625,752,754,346,468,1297,1627,2197,133,1163,1550,652,990,1248,1527,1883,2107
participant_8_LEVEL,1,1,1,1,2,3,4,4,6,6,7,7,8,8,9,9,10,10,11,11,12,12,13,13,13,14,14,14
participant_8_MINIONSKILLED,0,0,3,6,10,21,26,30,40,51,59,63,75,81,86,86,92,100,116,122,127,127,131,140,142,144,148,148
participant_8_KILLS,0,0,0,0,0,0,0,0,0,0,1,1,1,2,3,3,3,5,5,5,8,8,9,9,9,9,11,11
participant_8_BUY,[],"[1039, 2031]",[],[],[],[],[1037],[],"[6029, 1001]",[],[],"[3044, 3047]",[],[],[6630],[],[],[],[3074],[],[],[],"[3133, 3067]",[],"[3071, 3364]",[],[],[]
participant_8_SOLD,[],[],[],[],[],[],[],[],[1037],[],[],[1001],[1039],[],"[6029, 3044]",[],[],[],[3340],[3513],[],[],[],[],"[3133, 3067, 3340]",[],[],[]
participant_8_UNDO,[],[],[],[],[],[],[],[],[],[],[],[],[],[],[],[],[],[],[],[],[],[],[],[],[],[],[],[]
participant_9_GOLD,500,500,523,1121,1448,1662,2311,2805,3021,3201,3421,4176,4826,5027,5284,5924,6449,6890,7030,7471,7777,8451,8721,8903,9073,9224,9730,10208
participant_9_CURRENTGOLD,500,0,23,621,948,217,866,145,361,541,761,251,901,302,559,1199,1724,65,205,646,953,1626,1896,2078,149,299,805,1283
participant_9_LEVEL,1,1,1,2,3,4,4,4,5,5,6,7,8,8,8,8,8,9,9,10,10,10,10,10,10,10,11,11
participant_9_MINIONSKILLED,0,0,0,5,11,11,12,12,12,12,12,12,12,12,12,12,13,13,13,13,13,14,15,15,16,16,21,21
participant_9_KILLS,0,0,0,0,0,0,0,0,0,1,1,1,1,1,1,1,1,1,1,1,1,1,1,1,1,1,2,2
participant_9_BUY,[],"[1055, 2003, 3340]",[],[],[],[],"[1042, 1042, 1042, 2003]",[],[],[],"[6670, 1018]",[],[],[],[],"[6672, 3006]",[],"[1018, 6677, 1042]",[],[],[],[3124],[1018],[],[],[],[],[]
participant_9_SOLD,[],[],[],[],[],"[2003, 2010, 2010]",[],[],[],"[2003, 2010]",[1042],[],[],[],[],"[6670, 1018, 1042, 2422]",[],[1042],[],[],[],"[6677, 1018, 1042]",[],[],[],[],[],[]
participant_9_UNDO,[],[],[],[],[],[],[],[],[],[],[],[],[],[],[],[],[],[],[],[],[],[],[],[],[],[],[],[]
team0_KILLS,0,0,0,1,3,3,4,5,7,8,9,11,13,14,17,20,21,22,22,24,24,25,26,27,27,27,27,27
team0_CURRENTGOLD,2500,0,448,1646,2604,2856,2879,3065,5455,3755,2850,4236,5449,2991,4443,1891,3685,1650,3338,4861,1782,3415,4390,2281,3758,4492,3324,3098
team0_TOTALGOLD,2500,2500,2948,4621,6779,8116,9374,10960,13360,14885,16900,18761,20884,22566,25468,28016,29810,31151,32838,35511,36232,37864,40240,41932,43407,44141,45021,45148
team0_LEVEL,5,5,6,11,16,20,22,24,29,32,34,37,38,41,43,46,48,49,51,54,55,56,59,60,60,60,60,60
team0_SBIRES,0,0,11,26,51,74,91,112,139,155,186,208,227,241,255,267,281,301,329,370,376,392,409,430,440,446,453,453
team1_KILLS,0,0,0,1,1,1,3,4,5,6,7,9,11,13,15,19,20,23,23,24,28,30,31,31,31,31,34,35
team1_CURRENTGOLD,2500,0,368,2303,2821,2662,3312,3283,4413,5888,3691,2108,3666,4513,4021,3744,6912,5144,3365,2417,7138,6984,5000,5323,2923,3891,6916,7991
team1_TOTALGOLD,2500,2500,2868,4863,6181,7317,9792,11413,13178,15168,17276,18858,21041,23188,25286,29084,32327,34649,36170,37522,42242,44089,45705,46977,48076,49046,52069,53266
team1_LEVEL,5,5,6,12,16,19,22,24,29,32,35,37,40,43,45,46,50,52,54,55,59,59,62,62,63,64,67,67
team1_SBIRES,0,0,8,39,62,80,103,126,156,188,203,217,245,271,288,294,321,343,365,385,418,422,438,456,472,480,502,502
delta_KILLS,0,0,0,0,2,2,1,1,2,2,2,2,2,1,2,1,1,-1,-1,0,-4,-5,-5,-4,-4,-4,-7,-8
delta_CURRENTGOLD,0,0,80,-657,-217,194,-433,-218,1042,-2133,-841,2128,1783,-1522,422,-1853,-3227,-3494,-27,2444,-5356,-3569,-610,-3042,835,601,-3592,-4893
delta_TOTALGOLD,0,0,80,-242,598,799,-418,-453,182,-283,-376,-97,-157,-622,182,-1068,-2517,-3498,-3332,-2011,-6010,-6225,-5465,-5045,-4669,-4905,-7048,-8118
delta_LEVEL,0,0,0,-1,0,1,0,0,0,0,-1,0,-2,-2,-2,0,-2,-3,-3,-1,-4,-3,-3,-2,-3,-4,-7,-7
delta_SBIRES,0,0,3,-13,-11,-6,-12,-14,-17,-33,-17,-9,-18,-30,-33,-27,-40,-42,-36,-15,-42,-30,-29,-26,-32,-34,-49,-49
