name,team0,team1
win,Fail,Win
firstBlood,False,True
firstTower,True,False
firstInhibitor,False,True
firstBaron,False,True
firstDragon,False,True
firstRiftHerald,False,True
towerKills,4,5
inhibitorKills,0,1
baronKills,0,1
dragonKills,0,3
riftHeraldKills,1,1
