name,frame_0,frame_1,frame_2,frame_3,frame_4,frame_5,frame_6,frame_7,frame_8,frame_9,frame_10,frame_11,frame_12,frame_13,frame_14,frame_15,frame_16,frame_17,frame_18,frame_19,frame_20,frame_21,frame_22,frame_23,frame_24,frame_25,frame_26,frame_27,frame_28,frame_29,frame_30
nameStamp,Tstart,Tearly,Tearly,Tearly,Tearly,Tearly,Tearly,Tearly,Tearly,Tearly,Tearly,Tearly,Tearly,Tearly,Tmid,Tmid,Tmid,Tmid,Tmid,Tmid,Tmid,Tmid,Tmid,Tmid,Tmid,Tmid,Tmid,Tmid,Tend,Tend,Tend
timestamp,0,60022,120038,180053,240085,300099,360108,420121,480132,540142,600162,660174,720200,780215,840227,900244,960257,1020268,1080296,1140318,1200328,1260349,1320360,1380369,1440378,1500390,1560423,1620447,1680458,1740483,1800483
participant_0_GOLD,500,500,626,832,1088,1308,1564,1910,2152,2443,2919,3091,3255,3554,3772,3922,4157,4426,4695,5225,5494,5840,6123,6377,6542,7182,7619,7860,8186,8330,8353
participant_0_CURRENTGOLD,500,0,126,332,588,208,464,410,652,943,1419,141,305,604,247,397,332,601,870,710,979,1325,308,562,727,672,1109,550,451,295,-72
participant_0_LEVEL,1,1,1,3,4,4,5,6,7,7,8,8,8,9,9,9,10,10,11,11,11,12,12,12,12,13,13,14,14,14,14
participant_0_MINIONSKILLED,0,0,6,10,17,22,30,43,46,55,63,66,69,79,81,83,90,99,108,114,122,131,140,144,146,155,161,168,175,176,176
participant_0_KILLS,0,0,0,0,0,0,0,0,0,0,1,1,1,1,1,1,1,1,1,2,2,2,2,3,3,3,3,3,3,4,4
participant_0_BUY,[],"[2031, 1039, 3340]",[],[],[3706],[],[],"[1028, 1036]",[1042],[],"[3044, 1042, 3364, 2055]",[],[],[3047],[],[],[],"[3101, 1028]",[],"[3078, 2055]",[],[],[],"[1401, 1028]",[],[],[],"[3052, 1028, 2055]",[],[1028],[]
participant_0_SOLD,[],[],[],[],[1039],[],[],[],[],[],"[1028, 1036, 3340]",[2055],[],[2422],[],[],[],"[1042, 1042]",[],"[3101, 3044]",[2055],[],[],"[1028, 3706]",[],[],[],"[1028, 2031]",[2055],[],[]
participant_0_UNDO,[],[],[],[],[],[],[],[],[],[],[],[],[],[],[],[],[],[],[],[],[],[],[],[],[],[],[],[],[],[],[]
participant_1_GOLD,500,500,706,1013,1241,1503,1896,2018,2241,2579,3121,3519,3798,3947,4215,4437,4830,4986,5153,6421,6543,6781,7148,7840,8263,8540,8975,9198,9476,10186,10210
participant_1_CURRENTGOLD,500,0,206,513,91,353,746,118,41,379,46,444,723,72,340,562,955,211,378,188,310,548,915,107,530,807,1243,250,528,839,802
participant_1_LEVEL,1,1,2,3,3,4,5,5,5,5,6,7,7,7,7,8,8,8,9,9,9,9,10,10,11,11,11,12,12,12,12
participant_1_MINIONSKILLED,0,0,0,0,0,0,0,0,0,1,1,1,4,4,6,6,6,7,10,11,11,12,15,15,22,25,33,34,35,38,38
participant_1_KILLS,0,0,0,0,0,0,0,0,0,0,0,0,0,0,0,0,0,0,0,1,1,1,1,1,1,2,2,2,2,2,2
participant_1_BUY,[],"[2003, 1054]",[],[],[],"[1042, 1042]",[],"[1029, 2003, 2003]",[],[],[],"[3086, 1001, 2003]",[],[],"[3047, 2055]",[],"[2015, 1042]",[],[],[3046],[],[],[1038],[],[],[1037],[],[1018],[3031],[1029],[]
participant_1_SOLD,[],[],[],[],[2003],[],[],[],[2003],[2003],[],[1042],[2003],[],"[1001, 1029]",[],[1042],[],[],"[2055, 1042, 3086, 1042]",[],[],[],[],[],[1054],[],[],"[1038, 1037, 1018]",[],[]
participant_1_UNDO,[],[],[],[],[],[],[],[],[],[],[],[],[],[],[],[],"[[0, 2015]]",[],[],[],[],[],[],[],[],[],[],[],[],[],[]
participant_2_GOLD,500,500,626,1253,1460,1820,2076,2317,2564,2862,3075,3303,3735,3899,4025,4210,4616,4766,5048,5544,5819,6040,6280,6637,7200,7397,7798,8080,8427,8592,8615
participant_2_CURRENTGOLD,500,0,126,753,110,470,276,517,64,362,575,803,1235,449,575,760,1166,191,473,969,444,665,905,412,975,877,98,380,102,267,90
participant_2_LEVEL,1,1,1,3,4,5,5,6,6,7,7,8,8,8,8,9,9,9,9,10,10,11,11,11,12,12,13,13,13,13,13
participant_2_MINIONSKILLED,0,0,6,12,17,28,35,42,46,56,61,67,68,71,71,75,88,90,95,104,109,115,118,123,145,145,149,154,161,164,164
participant_2_KILLS,0,0,0,1,1,1,1,1,1,1,1,1,2,2,2,2,2,2,2,2,2,2,2,2,2,2,2,2,2,2,2
participant_2_BUY,[],"[1056, 2003, 2003, 3340]",[],[],[3070],[],"[1001, 2031]",[],"[1027, 1082]",[],[],[],[],[3802],[],[],[],"[3003, 3363, 2055]",[],[],[3020],[],[],[1026],[],[1052],"[3916, 2055]",[],"[3165, 2055]",[],[]
participant_2_SOLD,[],[],[],"[2003, 2003]",[],[],[],[],[],[],[],[],[],[1027],[],[],[],"[3070, 3802, 3340]",[],[3003],"[1001, 2055]",[],[],[],[],[1082],"[1052, 2031]",[2055],"[3916, 1026]",[],[]
participant_2_UNDO,[],[],[],[],[],[],[],[],[],[],[],[],[],[],[],[],[],[],[],[],[],[],[],[],[],[],[],[],[],[],[]
participant_3_GOLD,500,500,563,818,1420,1633,1997,2343,2576,2995,3194,3462,3690,4047,4212,4397,4788,4924,5190,5560,5807,6139,6366,6563,6728,7099,8571,9076,9254,9767,9790
participant_3_CURRENTGOLD,500,0,63,318,920,233,597,943,1176,1595,194,462,40,397,562,147,538,674,165,535,782,1114,1341,638,158,529,2001,306,484,997,840
participant_3_LEVEL,1,1,1,2,3,3,4,5,5,6,6,7,7,8,8,8,9,9,10,10,10,10,11,11,11,12,12,13,13,14,14
participant_3_MINIONSKILLED,0,0,2,10,18,23,34,47,50,65,69,74,78,89,91,95,106,107,118,127,127,135,141,141,143,149,152,166,169,170,170
participant_3_KILLS,0,0,0,0,1,1,1,1,1,1,1,1,1,1,1,1,1,1,1,1,1,1,1,1,1,1,3,3,3,4,4
participant_3_BUY,[],"[1055, 2003, 3340]",[],[],[],"[3070, 2003]",[],[],[],[],"[3004, 2003]",[],"[1001, 1027]",[],[],[3158],[],[],"[3057, 2055, 3363]",[],[],[],[],[3024],"[3025, 2055]",[],[],"[3144, 1042, 1042]",[],[],[]
participant_3_SOLD,[],[],[],[],"[2010, 2003]",[],[2003],[],"[2010, 2010]",[],[3070],[2003],[],[],[],[1001],[],[],"[1027, 3340]","[3004, 2055]",[],[],[],[],"[1055, 3057, 3024, 2055]",[],[],[],[],[],[]
participant_3_UNDO,[],[],[],[],[],[],[],[],[],[],[],[],[],[],[],[],[],[],[],[],[],[],[],[],[],[],[],[],[],[],[]
participant_4_GOLD,500,500,523,692,1058,1374,1589,1737,1871,2134,2289,2438,2697,2879,3050,3241,3474,3615,3797,4124,4264,4530,4692,4862,5033,5173,5378,5540,5814,6105,6131
participant_4_CURRENTGOLD,500,0,23,192,558,874,164,312,46,309,164,313,572,179,350,166,399,540,172,499,39,305,467,37,208,378,583,745,419,710,-69
participant_4_LEVEL,1,1,1,2,3,4,4,5,5,6,6,6,7,7,7,7,8,8,8,9,9,9,10,10,10,11,11,11,12,12,12
participant_4_MINIONSKILLED,0,0,0,2,4,11,13,14,14,18,19,20,24,26,27,29,32,32,34,36,36,38,39,40,41,41,41,42,45,45,45
participant_4_KILLS,0,0,0,0,0,0,0,0,0,0,0,0,0,0,0,0,0,0,0,0,0,0,0,0,0,0,0,0,0,0,0
participant_4_BUY,[],"[3854, 2003, 2003, 3340, 3858, 2003, 2003, 3340]",[],[],[],[],"[1001, 1028, 1006, 2055]",[],[3067],[],[1029],[],[],"[1031, 3047, 3364, 2055]",[],"[1029, 2055]",[],[],"[1031, 2003]",[],[3109],[],[],"[1029, 1029]",[],[2055],[],[],[3024],[],[3082]
participant_4_SOLD,[],[],[],"[2010, 2003]",[2003],[2010],[],[],"[2010, 1028]",[],[2055],[],[3858],"[1029, 1001, 1029, 3340, 2055]",[],[],[],[2055],[1029],[2003],"[3067, 1031]",[3859],[],[],[],[1006],[],[],[1029],[],[1029]
participant_4_UNDO,[],"[[3340, 0], [0, 2003], [0, 2003], [0, 3854]]",[],[],[],[],[],[],[],[],[],[],[],"[[0, 1031]]",[],[],[],[],[],[],[],[],[],[],[],[],[],[],[],[],[]
participant_5_GOLD,500,500,542,860,1046,1692,1969,2304,2691,3082,3337,3565,4546,4969,5888,6582,7435,8179,8768,8953,9187,9710,10194,10566,11062,11429,12012,12463,12830,13275,13349
participant_5_CURRENTGOLD,500,0,42,360,546,292,569,204,591,982,1237,365,1346,194,1113,357,1210,504,1093,190,425,947,1432,4,499,217,800,151,518,963,-101
participant_5_LEVEL,1,1,1,3,4,5,6,6,7,8,8,9,10,10,10,11,12,12,12,13,13,13,14,14,14,14,15,15,16,16,16
participant_5_MINIONSKILLED,0,0,1,12,16,29,38,47,60,72,80,87,97,102,107,111,128,140,149,152,159,172,182,182,188,196,198,200,210,219,219
participant_5_KILLS,0,0,0,0,0,0,0,0,1,1,1,1,1,1,2,2,2,2,2,2,2,2,2,2,2,2,2,2,2,2,2
participant_5_BUY,[],"[1039, 2031, 3340]",[],[],[],[],"[3706, 1036, 1036, 2055, 3364]",[],[],[],"[1400, 1029, 2055]",[],[],[],[],[],[],"[3047, 3024, 3801, 2055, 2055]",[],[3800],[],[],[],[],"[3052, 1037]",[2055],[],[],[3053],[],[]
participant_5_SOLD,[],[],[],[],[],[],"[1039, 3340]",[2055],[],[],"[1036, 1036, 3706]",[2055],[],[],[],[],[],"[3364, 1029, 2422, 3513]",[2055],"[3024, 3801]",[2055],[],[],[],[2031],[],[2055],[],"[3052, 1037]",[],[]
participant_5_UNDO,[],[],[],[],[],[],[],[],[],[],[],[],[],[],[],[],[],[],[],[],[],[],[],[],[],[],[],[],[],[],[]
participant_6_GOLD,500,500,621,1018,1488,1822,2085,2221,2788,3186,3308,3666,3818,4260,4818,5122,5691,5960,6378,6711,6998,7406,7683,8229,8649,8796,9024,9557,9814,10354,10427
participant_6_CURRENTGOLD,500,0,121,518,988,1322,160,296,863,1261,83,441,593,1035,1593,1897,2466,535,953,186,473,881,1158,1704,109,181,409,942,74,614,627
participant_6_LEVEL,1,1,2,3,4,4,5,5,6,6,6,7,7,8,8,9,10,10,10,10,11,11,11,12,12,13,13,14,14,14,14
participant_6_MINIONSKILLED,0,0,0,0,0,0,0,1,1,1,1,1,2,2,2,6,6,7,7,7,9,10,11,18,19,19,21,21,21,21,21
participant_6_KILLS,0,0,0,0,0,1,1,1,1,1,1,1,2,2,4,6,6,7,7,7,7,7,7,7,7,7,8,8,8,8,8
participant_6_BUY,[],"[2033, 3340]",[],[],[],"[1036, 1036, 2055, 1004]",[],"[3134, 1001]",[],[],[],[3133],[],"[3147, 3047, 2055]",[],"[3134, 1036]",[],[3142],[],"[3134, 2055]",[],[],[],[3814],[],[2420],[],[1038],[],[],[3026]
participant_6_SOLD,[],[],[],[],[2010],[2010],[],"[1036, 1036]",[2055],[],[],[],[],"[3134, 3133, 2010, 1001]",[],[2055],[],"[1036, 3134]",[],[1004],[2055],[],[],[3134],[],[],[],[2033],[],[2420],"[1038, 2421]"
participant_6_UNDO,[],[],[],[],[],[],[],[],[],[],[],[],[],[],[],[],[],[],[],[],[],[],[],[],[],[],[],[],[],[],[]
participant_7_GOLD,500,500,584,818,1448,1818,2402,2824,3204,3397,3898,4105,4435,4978,5445,5701,6125,6511,6932,7258,7444,7901,8269,9375,9582,9704,10277,10729,11212,12111,12185
participant_7_CURRENTGOLD,500,0,84,243,873,1243,1827,24,404,172,673,80,410,303,770,241,665,1051,357,683,869,1326,1694,2800,457,579,1152,1604,2088,636,710
participant_7_LEVEL,1,1,1,2,4,5,6,6,7,8,8,9,9,10,10,10,11,11,12,12,12,13,13,13,13,13,14,14,15,15,15
participant_7_MINIONSKILLED,0,0,3,9,19,22,30,38,50,55,64,69,76,82,84,85,100,107,110,112,116,132,139,140,140,140,140,140,149,150,150
participant_7_KILLS,0,0,0,0,1,1,2,2,2,2,2,2,2,2,2,2,2,2,2,2,2,2,2,5,5,5,6,6,6,8,8
participant_7_BUY,[],[2033],[],[2055],[],[],[],"[3145, 3020, 2055]",[],"[1082, 3364, 2055]",[],[3067],[],[3152],[],"[1027, 1052]",[],[],"[3057, 3113]",[],[],[],[],[],"[3100, 1058]",[],[],[],[],[3089],[]
participant_7_SOLD,[],[],[],[],"[2403, 2403, 2403, 2055]",[],[],[],[2055],[3340],[],[],[],"[3145, 3067]",[2055],[],[],[],"[1027, 1052]",[],[],[],[],[],"[3057, 3113]",[],[],[],[],[1058],[]
participant_7_UNDO,[],[],[],[],[],[],[],[],[],[],[],[],[],[],[],[],[],[],[],[],[],[],[],[],[],[],[],[],[],[],[]
participant_8_GOLD,500,500,577,927,1190,1731,1959,2235,2941,3234,3639,3960,4701,5175,5418,5832,6068,6630,7303,7558,7765,8166,8514,9216,9489,9701,10322,10971,11325,12756,12879
participant_8_CURRENTGOLD,500,0,77,427,690,1231,109,385,1091,209,614,935,1676,50,293,107,343,905,1578,1833,40,441,789,1491,289,501,1122,496,850,2281,2404
participant_8_LEVEL,1,1,1,2,3,4,4,5,6,6,7,7,8,8,9,9,9,10,10,10,10,11,11,12,12,12,13,13,14,14,14
participant_8_MINIONSKILLED,0,0,3,13,21,26,32,41,50,55,68,75,85,86,86,95,98,112,123,131,136,148,153,159,167,170,173,173,182,199,199
participant_8_KILLS,0,0,0,0,0,1,1,1,2,2,2,2,3,3,3,3,3,3,3,3,3,3,3,4,4,4,5,5,5,7,7
participant_8_BUY,[],"[1055, 2003, 3340]",[],[],[],[],"[1038, 2003]",[],[],"[3006, 2055]",[],[],[],"[1037, 1018, 3031]",[],"[1042, 1042]",[],[],[],[],"[3085, 3363]",[],[],[],"[3086, 2055]",[],[],"[3046, 2055]",[],[],[]
participant_8_SOLD,[],[],[],[],[],[2003],[],[],[],[],[],[2003],[2055],"[1038, 1037, 1018]",[],[],[],[],[],[],"[1042, 1042, 3340]",[],[],[],[],[2055],[],[3086],[2055],[],[]
participant_8_UNDO,[],[],[],[],[],[],[],[],[],[],[],[],[],[],[],[],[],[],[],[],[],[],[],[],[],[],[],[],[],[],[]
participant_9_GOLD,500,500,523,702,897,1196,1511,1645,2192,2435,2632,3084,3402,3644,4209,4455,4674,5035,5405,5545,5818,6009,6320,6807,7052,7267,7408,7904,8072,8640,8717
participant_9_CURRENTGOLD,500,0,23,202,397,136,451,285,832,1075,57,509,152,394,959,94,314,675,1045,45,318,509,820,1308,752,967,1108,1604,1773,2340,2417
participant_9_LEVEL,1,1,1,2,3,3,4,4,5,6,6,6,7,7,7,8,8,8,9,9,9,9,9,10,10,10,10,11,11,12,12
participant_9_MINIONSKILLED,0,0,0,0,0,0,0,0,0,1,4,9,9,13,14,15,16,18,18,18,21,23,23,25,27,28,28,31,33,34,34
participant_9_KILLS,0,0,0,0,0,0,0,0,0,0,0,0,0,0,1,1,1,1,1,1,1,1,1,1,1,1,1,1,1,1,1
participant_9_BUY,[],"[3850, 2003, 2003]",[],[],[],"[1052, 1004]",[],[1001],[],[],"[3108, 3028, 2055]",[],"[3174, 3364, 2031, 1004]",[],[],"[3114, 1052]",[],[],[],"[3504, 2055]",[],[],[],[],[3111],[],[],[],[],[],[]
participant_9_SOLD,[],[],[],[],"[2003, 2010]",[],[],[],[2003],[],"[1052, 1004]","[2010, 2010, 2055]","[3850, 3108, 3028, 3340]",[],[],[1004],[],[],[],"[3114, 1052]",[],[],[],[3851],[1001],[],[],[],[2055],[],[]
participant_9_UNDO,[],[],[],[],[],[],[],[],[],[],[],[],[],[],[],[],[],[],[],[],[],[],[],[],[],[],[],[],[],[],[]
team0_KILLS,0,0,0,1,2,2,2,2,2,2,3,3,4,4,4,4,4,4,4,6,6,6,6,7,7,8,10,10,10,12,12
team0_CURRENTGOLD,2500,0,544,2108,2267,2138,2247,2300,1979,3588,2398,2163,2875,1701,2074,2032,3390,2217,2058,2901,2554,3957,3936,1756,2598,3263,5034,2231,1984,3108,1591
team0_TOTALGOLD,2500,2500,3044,4608,6267,7638,9122,10325,11404,13013,14598,15813,17175,18326,19274,20207,21865,22717,23883,26874,27927,29330,30609,32279,33766,35391,38341,39754,41157,42980,43099
team0_LEVEL,5,5,6,13,17,20,23,27,28,31,33,36,37,39,39,41,44,44,47,49,49,51,54,54,56,59,60,63,64,65,65
team0_SBIRES,0,0,14,34,56,84,112,146,156,195,213,228,243,269,276,288,322,335,365,392,405,431,453,463,497,515,536,564,585,593,593
team1_KILLS,0,0,0,0,1,3,4,4,6,6,6,6,8,8,12,14,14,15,15,15,15,15,15,19,19,19,22,22,22,26,26
team1_CURRENTGOLD,2500,0,347,1750,3494,4224,3116,1194,3781,3699,2664,2330,4177,1976,4728,2696,4998,3670,5026,2937,2125,4104,5893,7307,2106,2445,4591,4797,5303,6834,6057
team1_TOTALGOLD,2500,2500,2847,4325,6069,8259,9926,11229,13816,15334,16814,18380,20902,23026,25778,27692,29993,32315,34786,36025,37212,39192,40980,44193,45834,46897,49043,51624,53253,57136,57557
team1_LEVEL,5,5,6,12,18,21,25,26,31,34,35,38,41,43,44,47,50,51,53,54,55,57,58,61,61,62,65,67,70,71,71
team1_SBIRES,0,0,7,34,56,77,100,127,161,184,217,241,269,285,293,312,348,384,407,420,441,485,508,524,541,553,560,565,595,623,623
delta_KILLS,0,0,0,1,1,-1,-2,-2,-4,-4,-3,-3,-4,-4,-8,-10,-10,-11,-11,-9,-9,-9,-9,-12,-12,-11,-12,-12,-12,-14,-14
delta_CURRENTGOLD,0,0,197,358,-1227,-2086,-869,1106,-1802,-111,-266,-167,-1302,-275,-2654,-664,-1608,-1453,-2968,-36,429,-147,-1957,-5551,492,818,443,-2566,-3319,-3726,-4466
delta_TOTALGOLD,0,0,197,283,198,-621,-804,-904,-2412,-2321,-2216,-2567,-3727,-4700,-6504,-7485,-8128,-9598,-10903,-9151,-9285,-9862,-10371,-11914,-12068,-11506,-10702,-11870,-12096,-14156,-14458
delta_LEVEL,0,0,0,1,-1,-1,-2,1,-3,-3,-2,-2,-4,-4,-5,-6,-6,-7,-6,-5,-6,-6,-4,-7,-5,-3,-5,-4,-6,-6,-6
delta_SBIRES,0,0,7,0,0,7,12,19,-5,11,-4,-13,-26,-16,-17,-24,-26,-49,-42,-28,-36,-54,-55,-61,-44,-38,-24,-1,-10,-30,-30
