name,frame_0,frame_1,frame_2,frame_3,frame_4,frame_5,frame_6,frame_7,frame_8,frame_9,frame_10,frame_11,frame_12,frame_13,frame_14,frame_15,frame_16,frame_17,frame_18,frame_19,frame_20,frame_21,frame_22,frame_23,frame_24,frame_25,frame_26,frame_27,frame_28,frame_29,frame_30,frame_31,frame_32,frame_33,frame_34,frame_35
nameStamp,Tstart,Tearly,Tearly,Tearly,Tearly,Tearly,Tearly,Tearly,Tearly,Tearly,Tearly,Tearly,Tearly,Tearly,Tearly,Tearly,Tmid,Tmid,Tmid,Tmid,Tmid,Tmid,Tmid,Tmid,Tmid,Tmid,Tmid,Tend,Tend,Tend,Tend,Tend,Tend,Tend,Tend,Tend
timestamp,0,60028,120058,180083,240106,300128,360147,420169,480192,540225,600253,660272,720299,780322,840351,900381,960403,1020426,1080452,1140467,1200490,1260499,1320522,1380524,1440549,1500579,1560596,1620623,1680643,1740675,1800695,1860726,1920748,1980749,2040765,2100765
participant_0_GOLD,500,500,521,657,885,1140,1553,1887,2092,2322,2500,2845,3150,3440,4603,4908,5097,5282,5551,5813,6158,6660,6872,7113,7865,8044,8355,9196,9456,9755,10329,10451,10582,11868,12417,12859
participant_0_CURRENTGOLD,500,0,21,157,385,640,553,887,1092,372,550,895,500,790,153,458,647,282,551,813,408,910,247,63,815,244,555,171,91,391,964,161,292,1578,328,709
participant_0_LEVEL,1,1,1,1,2,3,5,5,6,6,7,8,8,9,9,9,10,10,10,11,11,12,12,13,13,13,13,14,14,14,15,15,15,16,16,16
participant_0_MINIONSKILLED,0,0,0,1,7,14,28,30,32,35,39,49,56,66,66,74,78,82,91,95,104,112,113,120,121,124,128,137,137,139,143,143,143,149,160,160
participant_0_KILLS,0,0,0,0,0,0,0,0,0,0,0,0,0,0,0,1,1,1,1,1,1,1,1,1,2,2,2,2,2,2,2,2,2,2,2,2
participant_0_BUY,[],"[1055, 2003, 3340]",[],[],[],"[1036, 2003, 1001]",[],[],"[1053, 2003, 2003]",[],[],[],"[1043, 2003, 2003]",[],[],[3153],[],[],[3006],[],[],[3123],[],[],[],[3086],[],[3033],[],[3057],[],[1028],[3067],[],[],[]
participant_0_SOLD,[],[],[],[],[],[],"[2003, 2003]",[],[1036],[],[2003],[2003],[],[],[],"[2003, 1053, 1043]",[],[],[1001],[],[],[],[],[],[],[],[],"[3123, 3086]",[2003],[],[],[],[1028],[],[],[]
participant_0_UNDO,[],[],[],[],[],[],[],[],[],[],[],[],[],[],[],[],[],[],[],[],[],[],[],[],[],[],[],[],[],[],[],[],[],[],[],[]
participant_1_GOLD,500,500,621,751,974,1301,1509,1711,1973,2196,2453,2576,2861,3068,3631,3888,4346,4538,4660,4811,5101,5224,5431,5728,5957,6216,7927,8399,8936,9906,10070,10499,10650,11005,11127,11722
participant_1_CURRENTGOLD,500,0,121,251,124,451,659,261,523,746,1003,276,561,768,1331,1588,196,388,510,61,351,474,681,378,307,266,1977,249,186,1156,420,850,1000,235,358,172
participant_1_LEVEL,1,1,1,1,1,3,3,4,4,4,5,5,5,6,7,7,8,8,9,9,9,9,9,10,10,11,12,12,13,14,14,15,15,15,15,16
participant_1_MINIONSKILLED,0,0,0,0,0,0,0,0,0,0,0,0,2,2,2,2,2,2,2,4,7,7,7,11,17,24,40,40,40,58,61,74,76,80,80,85
participant_1_KILLS,0,0,0,0,0,0,0,0,0,0,0,0,0,0,2,2,2,2,2,2,2,2,2,2,4,4,4,5,5,5,6,6,6,8,8,9
participant_1_BUY,[],"[1055, 2003]",[],[],[],[],"[1036, 2031]",[],[],[3155],[],[],"[1036, 1036]",[],"[3156, 1036, 1036]",[],[],[1053],[],[],[3133],[],[1037],[3074],[],"[1037, 1028, 1036]",[],"[3044, 1037]",[1028],[],[],[6630],[],[],"[3051, 3057]",[]
participant_1_SOLD,[],[],[],[2003],[],[],[],[],[],[1036],[],[],[],[],"[3155, 1036, 1036]",[],[],[1036],[],[],[1036],[],[],"[1037, 1053, 3133]",[],[],[],"[1028, 1036]",[2031],[],[],"[1037, 3044, 1028]",[],[],[],[]
participant_1_UNDO,[],[],[],[],[],[],[],[],[],[],[],[],[],[],[],[],[],[],[],[],[],[],[],[],[],"[[0, 1037]]",[],[],[],[],[],[],[],[],[],[]
participant_2_GOLD,500,500,605,962,1406,1696,1910,2465,2936,3180,3386,3891,4533,4781,4969,5758,6237,7091,7513,8161,8332,8827,9984,10305,10664,10814,11100,11502,12541,13354,14769,15135,15943,16140,16689,17201
participant_2_CURRENTGOLD,500,0,105,452,46,326,240,795,1266,200,231,726,43,291,479,1268,1747,1016,233,881,352,848,754,1075,184,335,620,1023,811,325,940,1306,2114,611,1160,1551
participant_2_LEVEL,1,1,1,3,4,5,5,6,7,7,7,8,9,9,9,10,10,11,11,11,12,12,13,13,13,13,14,14,15,15,16,16,17,17,17,17
participant_2_MINIONSKILLED,0,0,5,16,17,24,29,37,48,52,57,67,71,78,81,90,93,97,97,100,103,108,113,119,122,124,126,130,135,146,162,172,174,174,185,190
participant_2_KILLS,0,0,0,0,0,0,0,0,0,0,0,0,0,0,0,0,0,0,0,0,1,1,1,1,1,1,1,1,1,1,1,1,1,1,1,1
participant_2_BUY,[],"[3858, 3340, 2003, 2003]",[],[],[],"[1001, 2055]",[2031],[],[],[],[],[],[4642],[],[],"[3364, 3067]",[2055],[],[],[],[],[6617],[3009],"[1004, 2055]",[],[],[],"[3114, 1026, 3114]",[],[],[1026],[6616],[],"[1004, 1033]",[],[]
participant_2_SOLD,[],[],[],[],"[2010, 2003]",[2055],[2003],[],"[2010, 2010]",[],[],[],[],[],[],"[3858, 3340]",[],[2055],[],[],[],"[3067, 4642, 2031]",[1001],[],[],[],[],"[1004, 1004]",[],[],[],"[3859, 3114, 1026]",[],[],[2055],[]
participant_2_UNDO,[],[],[],[],[],[],[],[],[],[],[],[],[],[],[],[],[],[],[],[],[],[],[],[],[],[],[],"[[0, 3114], [0, 1026]]",[],[],[],[],[],"[[0, 1004]]",[],[]
participant_3_GOLD,500,500,612,934,1211,1424,1627,1973,2234,2597,2719,2980,3116,3514,3707,4431,4624,5009,5131,5414,5832,6032,6154,6311,7058,7216,7465,7889,8167,8604,9154,9301,9753,9903,10262,10549
participant_3_CURRENTGOLD,500,0,112,434,711,224,427,773,384,747,869,1130,166,564,757,181,374,759,81,364,782,182,304,461,1208,166,415,139,417,154,704,451,503,653,1013,1299
participant_3_LEVEL,1,1,1,2,3,4,4,5,5,6,6,7,7,7,7,8,8,9,9,9,10,10,11,11,12,12,12,12,13,13,14,14,14,15,15,15
participant_3_MINIONSKILLED,0,0,5,14,23,26,31,44,49,60,60,65,66,77,81,92,96,105,105,111,116,121,121,123,131,133,137,148,156,163,171,171,179,181,191,192
participant_3_KILLS,0,0,0,0,1,1,1,2,2,2,2,2,3,3,3,3,4,5,6,7,7,8,9,9,9,9,9,9,10,11,14,14,16,16,16,17
participant_3_BUY,[],"[1056, 2003, 2003, 3340]",[],[],[1026],[],[1001],[],[],[3802],"[2055, 2003, 2003]",[],"[6655, 2055]",[],[],[],[],"[3020, 1082, 1052]","[3191, 3108]",[],[3157],[],[3041],[],[1058],[],[],[],[1058],[3089],[3916],[],[],[3165],[],[]
participant_3_SOLD,[],[],[],"[2003, 2003]",[],[],[],[],[],[],[2055],[],"[2003, 3802, 1026]",[],[2003],[],[],[1001],"[1052, 1056]",[],"[3191, 3108]",[2055],[1082],[],[],[],[],[],[],"[1058, 1058]",[],[],[],[3916],[],[3041]
participant_3_UNDO,[],[],[],[],[],[],[],[],[],[],[],[],[],[],[],[],[],[],[],[],[],[],[],[],[],[],[],[],[],[],[],[],[],[],[],[]
participant_4_GOLD,500,500,544,727,862,996,1131,1328,1552,1780,1914,2049,2183,2478,2613,3032,3187,3428,3568,3709,4179,4319,4488,4718,5013,5153,5343,5609,5872,6062,6613,6886,7191,7406,7547,7911
participant_4_CURRENTGOLD,500,0,44,227,362,121,126,323,547,775,909,1044,128,423,558,177,257,498,638,779,1249,599,168,73,368,508,698,414,677,867,569,191,496,261,402,686
participant_4_LEVEL,1,1,1,2,3,3,4,4,5,5,5,6,6,7,7,8,8,8,8,8,9,9,9,10,11,11,11,11,12,12,13,14,14,14,14,15
participant_4_MINIONSKILLED,0,0,1,4,4,4,4,7,9,11,11,11,11,14,14,15,16,18,18,18,19,19,21,22,24,24,24,24,25,25,27,30,31,31,31,31
participant_4_KILLS,0,0,0,0,0,0,0,0,0,0,0,0,0,0,0,0,0,0,0,0,0,0,0,0,0,0,1,1,2,2,2,2,2,2,2,3
participant_4_BUY,[],"[1055, 2003, 3340]",[],[],[1035],[],[],"[1001, 1042]",[],[],[],"[3006, 1036]",[],[],[],[],"[6670, 1053]",[],[],[1018],[],[],[],[6673],[1042],[1042],[],[3124],[1018],[],[1053],[],[],[1038],[],[3072]
participant_4_SOLD,[],[],[2003],[],[],[],[],[],[],[],[],"[1001, 1042]",[1035],[],[3340],[],[1036],[],[3513],[],[],[],[],"[6670, 1018, 1053]",[],[],[],"[1042, 1042]",[],[],[],[],[],[1055],[],"[1038, 1018, 1053]"
participant_4_UNDO,[],[],[],[],[],[],[],[],[],[],[],[],[],[],[],[],[],[],[],[],[],[],[],[],[],[],[],[],[],[],[],[],[],[],[],[]
participant_5_GOLD,500,500,577,1236,1534,1845,1968,2272,2687,3110,3528,3894,4422,4761,5184,5495,6164,6561,6990,7402,7911,8467,8739,8988,9306,9554,10486,10882,11343,11612,12697,12919,13622,13819,14078,14717
participant_5_CURRENTGOLD,500,500,77,736,1034,1345,68,372,787,60,478,844,1372,1711,234,545,1214,1611,2040,167,676,82,354,603,71,320,1251,433,893,1163,2248,129,833,1030,1289,467
participant_5_LEVEL,1,1,1,3,4,5,5,6,7,7,8,9,9,10,10,10,11,11,12,12,13,13,13,13,14,14,15,15,15,16,17,17,17,17,18,18
participant_5_MINIONSKILLED,0,0,3,9,19,27,27,38,46,46,61,71,82,88,88,96,107,111,121,121,133,138,138,145,152,152,167,167,170,179,197,197,216,216,219,222
participant_5_KILLS,0,0,0,1,1,1,1,1,1,2,2,2,2,2,3,3,3,3,3,4,4,4,4,4,4,4,4,5,5,5,6,6,6,6,6,6
participant_5_BUY,[],[],"[1056, 2003, 2003, 3340]",[],[],[],"[4635, 2003, 2003]",[],[],"[3006, 2003]",[],[],[],[],[4633],[],[],[],[],"[1043, 1026, 1052]",[],"[3115, 1052]",[],[],[1026],[],[],[3135],[],[],[],"[1058, 1058]",[],[],[],[3089]
participant_5_SOLD,[],[],[],"[2003, 2003]",[],[],[],[],[],"[2003, 2003]",[],[2003],[],[],[4635],[],[],[],[],[],[],"[1043, 1026, 1052]",[],[],[],[],[],"[1052, 1026]",[],[],[],[1056],[],[],[],"[1058, 1058]"
participant_5_UNDO,[],[],[],[],[],[],[],[],[],[],[],[],[],[],[],[],[],[],[],[],[],[],[],[],[],[],[],[],[],[],[],[],[],[],[],[]
participant_6_GOLD,500,500,621,933,1544,1998,2198,2640,3117,3530,3850,4163,4980,5375,5748,6055,6744,6971,8403,8749,9844,10937,11110,11327,11525,11748,12195,12587,13055,13351,14360,14483,15334,15498,15621,16261
participant_6_CURRENTGOLD,500,0,121,433,1044,1498,1698,240,717,1130,1450,188,995,1390,263,570,1259,211,18,364,1459,2552,210,427,626,848,170,563,230,527,1536,1658,2510,74,197,786
participant_6_LEVEL,1,1,2,3,4,5,5,5,6,7,7,8,9,9,9,10,10,10,11,11,12,13,13,13,13,13,14,15,15,15,16,16,17,17,17,18
participant_6_MINIONSKILLED,0,0,0,0,5,5,5,5,5,5,5,5,12,14,14,14,15,15,16,17,27,27,27,28,28,28,28,28,28,34,52,52,65,68,68,75
participant_6_KILLS,0,0,0,0,0,1,1,1,2,2,2,2,2,2,3,3,3,3,3,3,3,3,3,3,5,5,5,6,6,6,6,6,6,6,6,7
participant_6_BUY,[],"[1056, 2003, 2003]",[],[],"[1052, 2003, 2003, 2003]",[],[],[],"[4630, 1001]",[],[],[1026],[3135],[],[],[3020],[],[],[3108],[],[],[],[3157],[],[],[1058],[],[],[1058],[],[],[],[],[],[3089],[]
participant_6_SOLD,[],[],[],[],"[2003, 2003]",[],"[2003, 2003]",[2003],[1052],"[2419, 2423]",[],[],"[4630, 1026]",[],[],[1001],[],[],[],[],[],[],"[3108, 2424]",[],[],[],[],[],[],[],[],[],[],[],"[1058, 1058]",[]
participant_6_UNDO,[],[],[],[],[],[],[],[],[],[],[],[],[],[],[],[],[],[],[],[],[],[],[],[],[],[],[],[],[],[],[],[],[],[],[],[]
participant_7_GOLD,500,500,605,818,1161,1779,2007,2171,2593,2914,3218,3418,3739,3924,4487,4665,4982,5244,5441,5666,6394,6651,6986,7137,8027,8149,8572,9050,9247,9412,9584,9706,9990,10212,10435,11556
participant_7_CURRENTGOLD,500,0,105,318,76,684,912,1076,383,694,998,348,269,454,1017,395,712,974,271,496,1224,1481,466,617,1507,379,802,1280,228,392,564,687,970,1193,115,1256
participant_7_LEVEL,1,1,1,3,4,5,5,6,6,7,8,8,9,9,10,10,10,11,11,11,12,12,12,13,13,13,14,14,15,15,15,15,15,15,15,16
participant_7_MINIONSKILLED,0,0,5,10,14,23,29,31,31,39,50,55,58,62,70,74,80,81,81,90,93,99,103,105,111,111,111,115,115,118,118,118,120,120,120,120
participant_7_KILLS,0,0,0,0,0,0,0,0,0,0,0,0,0,0,0,0,0,0,0,0,0,0,0,0,0,0,0,0,0,0,0,0,0,1,1,1
participant_7_BUY,[],"[3070, 3340, 2003, 2003]",[],[],"[3850, 2003]",[],[],[],[],"[1052, 1027, 2003, 2003, 2055]",[],[],[],"[3802, 1026]",[],[],[],[],[6656],[],[],[3191],[],[2420],[],[],[3157],[],[],[],"[3020, 1052]",[],[3916],[],[1026],[3165]
participant_7_SOLD,[],[],[],"[2003, 2003]",[3070],[2003],[],[],[],[],"[2055, 2003]","[2003, 3850]",[],"[1052, 1027]",[],[],[],[],"[3851, 3802, 1026]",[],[],[],[],[],[],[2420],"[3191, 2421]",[],[],[],[2422],[],[1052],[],[],"[1026, 3916]"
participant_7_UNDO,[],[],[],[],[],[],[],[],[],[],[],[],[],[],[],[],[],[],[],[],[],[],[],[],[],[],[],[],[],[],[],[],[],[],[],[]
participant_8_GOLD,500,500,542,797,1046,1364,1947,2160,2477,2721,2997,3895,4223,4451,4888,5046,5676,5823,5995,6468,7283,8012,8653,8928,9610,10221,10643,10766,11343,11465,11638,12009,13093,13216,13707,14588
participant_8_CURRENTGOLD,500,0,42,297,546,864,1447,1660,1977,321,597,1495,1823,576,1013,546,1176,1323,195,668,1483,2212,2853,528,1210,1821,2244,1066,1643,466,638,1010,2094,916,1408,2288
participant_8_LEVEL,1,1,1,2,3,4,5,5,6,6,7,7,8,8,8,8,9,9,10,10,10,11,11,11,12,13,13,13,14,14,14,14,16,16,16,17
participant_8_MINIONSKILLED,0,0,1,8,15,24,32,37,45,49,58,67,74,80,90,92,104,104,107,110,119,128,131,136,149,156,156,156,169,169,169,177,189,189,202,210
participant_8_KILLS,0,0,0,0,1,1,1,2,2,2,2,2,3,3,3,3,4,4,8,8,9,11,11,11,11,11,11,11,12,12,13,13,13,13,13,13
participant_8_BUY,[],"[1035, 2031]",[],[],[],[],[],"[6670, 1018]",[],[],[],"[6672, 2055, 3364]",[],[],"[1053, 1042, 1042]",[],[],"[1043, 1037, 1043]","[3153, 3077]",[],[],[],"[3074, 3133, 1037, 1018]",[],[],[],"[6675, 1042]",[],"[6677, 1042]",[],[],[],[],"[3124, 1053]",[],[]
participant_8_SOLD,[],[],[],[],[],[],[],[],[],[],[],"[1035, 6670, 1018, 3340]",[],[2055],[],[],[],"[1042, 1042, 1042, 1042]","[1053, 1043, 1037]",[],[],[],"[3077, 2031]",[],[],[],"[3133, 1037, 1018]",[],[1042],[],[],[],[],"[6677, 1042]",[],[]
participant_8_UNDO,[],[],[],[],[],[],[],[],[],[],[],[],[],[],[],[],[],"[[0, 1043]]",[],[],[],[],"[[0, 3074]]",[],[],[],[],[],[],[],[],[],[],[],[],[]
participant_9_GOLD,500,500,521,664,788,982,1321,1535,1744,1898,2092,2670,3002,3162,3536,3698,4094,4275,4940,5246,5486,5676,6006,6146,6377,6841,7434,7693,7908,8091,8281,8553,8786,9226,9397,10218
participant_9_CURRENTGOLD,500,0,21,164,118,312,651,865,1074,268,462,1040,1372,167,541,703,1099,1280,695,1001,1241,531,861,351,582,1046,690,948,1163,1346,301,574,441,881,202,-107
participant_9_LEVEL,1,1,1,1,2,2,3,4,4,5,5,6,7,7,7,8,8,8,9,9,10,10,10,10,10,11,12,12,12,12,12,13,13,13,13,14
participant_9_MINIONSKILLED,0,0,0,1,1,1,2,2,3,3,3,4,6,6,7,8,12,12,12,14,14,14,18,18,19,25,30,33,33,35,35,38,41,41,42,46
participant_9_KILLS,0,0,0,0,0,0,1,1,1,1,1,3,3,3,3,3,3,3,3,4,5,6,6,6,7,8,8,8,8,8,8,8,10,10,10,10
participant_9_BUY,[],"[1055, 2003, 3340]",[],[],[],[],[],[],[],"[6670, 1001, 1042]",[],[],[],"[1037, 1018]",[],[6672],[],[],"[3006, 6677]",[],[],[],[],"[3124, 1042, 1042]",[],[],[],"[1043, 1053]",[],[3153],[],[],[],[1038],[],[]
participant_9_SOLD,[],[],[],[],[],[2003],[],[],[],[],[],[],[],[],[],"[6670, 1018, 1037]",[],[],"[1001, 1042]",[],[],[],[],[6677],[],[],[],"[1042, 1042]",[],"[1053, 1043]",[],[],[],[],[],[]
participant_9_UNDO,[],[],[],[],[],[],[],[],[],[],[],[],[],[],[],[],[],[],[],[],[],[],[],[],[],[],[],[],[],[],[],[],[],[],[],[]
team0_KILLS,0,0,0,0,1,1,1,2,2,2,2,2,3,3,5,6,7,8,9,10,11,12,13,13,16,16,17,18,20,21,25,25,27,29,29,32
team0_CURRENTGOLD,2500,0,403,1521,1628,1762,2005,3039,3812,2840,3562,4071,1398,2836,3278,3672,3221,2943,2013,2898,3142,3013,2154,2050,2882,1519,4265,1996,2182,2893,3597,2959,4405,3338,3261,4417
team0_TOTALGOLD,2500,2500,2903,4031,5338,6557,7730,9364,10787,12075,12972,14341,15843,17281,19523,22017,23491,25348,26423,27908,29602,31062,32929,34175,36557,37443,40190,42595,44972,47681,50935,52272,54119,56322,58042,60242
team0_LEVEL,5,5,5,9,13,18,21,24,27,28,30,34,35,38,39,42,44,46,47,48,51,52,54,57,59,60,62,63,67,68,72,74,75,77,77,79
team0_SBIRES,0,0,11,35,51,68,92,118,138,158,167,192,206,237,244,273,285,304,313,328,349,367,375,395,415,429,455,479,493,531,564,590,603,615,647,658
team1_KILLS,0,0,0,1,2,3,4,5,6,7,7,9,10,10,12,12,13,13,17,19,21,24,24,24,27,28,28,30,31,31,33,33,35,36,36,37
team1_CURRENTGOLD,2500,500,366,1948,2818,4703,4776,4213,4938,2473,3985,3915,5831,4298,3068,2759,5460,5399,3219,2696,6083,6858,4744,2526,3996,4414,5157,4290,4157,3894,5287,4058,6848,4094,3211,4690
team1_TOTALGOLD,2500,2500,2866,4448,6073,7968,9441,10778,12618,14173,15685,18040,20366,21673,23843,24959,27660,28874,31769,33531,36918,39743,41494,42526,44845,46513,49330,50978,52896,53931,56560,57670,60825,61971,63238,67340
team1_LEVEL,5,5,6,12,17,21,23,26,29,32,35,38,42,43,44,46,48,49,53,53,57,59,59,60,62,64,68,69,71,72,74,75,78,78,79,83
team1_SBIRES,0,0,9,28,54,80,95,113,130,142,177,202,232,250,269,284,318,323,337,352,386,406,417,432,459,472,492,499,515,535,571,582,631,634,651,673
delta_KILLS,0,0,0,-1,-1,-2,-3,-3,-4,-5,-5,-7,-7,-7,-7,-6,-6,-5,-8,-9,-10,-12,-11,-11,-11,-12,-11,-12,-11,-10,-8,-8,-8,-7,-7,-5
delta_CURRENTGOLD,0,-500,37,-427,-1190,-2941,-2771,-1174,-1126,367,-423,156,-4433,-1462,210,913,-2239,-2456,-1206,202,-2941,-3845,-2590,-476,-1114,-2895,-892,-2294,-1975,-1001,-1690,-1099,-2443,-756,50,-273
delta_TOTALGOLD,0,0,37,-417,-735,-1411,-1711,-1414,-1831,-2098,-2713,-3699,-4523,-4392,-4320,-2942,-4169,-3526,-5346,-5623,-7316,-8681,-8565,-8351,-8288,-9070,-9140,-8383,-7924,-6250,-5625,-5398,-6706,-5649,-5196,-7098
delta_LEVEL,0,0,-1,-3,-4,-3,-2,-2,-2,-4,-5,-4,-7,-5,-5,-4,-4,-3,-6,-5,-6,-7,-5,-3,-3,-4,-6,-6,-4,-4,-2,-1,-3,-1,-2,-4
delta_SBIRES,0,0,2,7,-3,-12,-3,5,8,16,-10,-10,-26,-13,-25,-11,-33,-19,-24,-24,-37,-39,-42,-37,-44,-43,-37,-20,-22,-4,-7,8,-28,-19,-4,-15
