name,frame_0,frame_1,frame_2,frame_3,frame_4,frame_5,frame_6,frame_7,frame_8,frame_9,frame_10,frame_11,frame_12,frame_13,frame_14,frame_15,frame_16,frame_17,frame_18,frame_19,frame_20,frame_21,frame_22,frame_23,frame_24,frame_25,frame_26,frame_27,frame_28,frame_29,frame_30,frame_31,frame_32,frame_33,frame_34
nameStamp,Tstart,Tearly,Tearly,Tearly,Tearly,Tearly,Tearly,Tearly,Tearly,Tearly,Tearly,Tearly,Tearly,Tmid,Tmid,Tmid,Tmid,Tmid,Tmid,Tmid,Tmid,Tmid,Tmid,Tmid,Tmid,Tmid,Tmid,Tmid,Tmid,Tmid,Tmid,Tmid,Tmid,Tmid,Tend
timestamp,0,60029,120059,180082,240110,300115,360140,420169,480190,540220,600251,660265,720288,780296,840319,900347,960371,1020404,1080426,1140433,1200463,1260475,1320503,1380510,1440523,1500553,1560584,1620613,1680614,1740645,1800658,1860664,1920691,1980698,2040698
participant_0_GOLD,500,500,584,818,1148,1389,1533,1861,2576,2699,3038,3386,3571,3805,4242,4434,4607,4909,5170,5391,5702,5825,6205,6517,6729,8398,8786,9283,10162,10687,11342,11464,12173,12696,12874
participant_0_CURRENTGOLD,500,0,84,318,648,889,333,661,1376,124,463,811,96,330,417,789,112,414,325,546,857,230,10,322,534,2203,491,639,1517,492,1147,569,1279,451,449
participant_0_LEVEL,1,1,1,2,3,4,4,5,5,5,6,6,7,7,8,8,8,9,9,10,10,10,10,11,11,12,12,12,13,13,14,14,15,15,15
participant_0_MINIONSKILLED,0,0,3,10,19,25,26,35,49,49,62,67,71,78,79,83,83,89,93,99,102,102,113,117,118,127,135,135,143,154,158,158,165,165,165
participant_0_KILLS,0,0,0,0,0,0,0,0,0,0,0,0,0,0,0,0,0,0,0,0,0,0,0,0,0,1,1,1,1,1,1,1,1,1,1
participant_0_BUY,[],"[3850, 2003, 2003, 3340]",[],[],[],[],"[1028, 1004]",[],[],"[3067, 1001]",[],[],"[4642, 3364]",[],"[2055, 2003, 2003]",[],"[3158, 2003, 2055]",[],[],[],[],"[6617, 1004]","[2055, 2055, 2003, 2003, 2003]",[],[],[],[3114],"[1028, 2055, 2055]",[1026],[],[],[3504],[],"[3067, 2055]",[]
participant_0_SOLD,[],[],[],[],[2003],[2003],[],[],[],[1028],[3850],[],"[1004, 3340]",[],[],"[2055, 2003, 2003]","[3851, 1001]",[2003],[],[],[],"[2055, 3067, 4642]","[2003, 2003, 2003]",[],[],[],"[2055, 2055, 1004]",[],[1028],[],[],"[3114, 1026]",[],[2055],[]
participant_0_UNDO,[],[],[],[],[],[],[],[],[],[],[],[],[],[],[],[],[],[],[],[],[],[],[],[],[],[],[],[],[],[],[],[],[],[],[]
participant_1_GOLD,500,500,521,858,1241,1533,1741,1948,2255,2478,2600,2823,3120,3477,3842,4064,4346,4758,4880,5138,5440,5748,5870,6142,6485,7145,7582,8025,8432,8654,9097,9404,9973,10676,10939
participant_1_CURRENTGOLD,500,500,71,408,791,1083,191,398,705,278,400,123,420,777,1132,554,836,1248,170,428,730,1038,160,132,475,1135,1572,1115,1522,395,387,294,863,1566,239
participant_1_LEVEL,1,1,1,2,3,4,4,5,5,6,6,6,6,7,8,8,8,9,9,9,10,10,10,10,11,12,12,12,13,13,13,14,14,15,15
participant_1_MINIONSKILLED,0,0,0,0,0,0,0,0,0,0,0,0,0,0,4,4,5,5,5,5,5,5,5,5,6,6,7,7,13,13,13,13,14,14,14
participant_1_KILLS,0,0,0,0,0,0,0,0,0,0,0,0,0,0,1,1,2,3,4,5,5,5,5,5,5,5,6,6,8,8,10,10,10,12,13
participant_1_BUY,[],"[2033, 3340]",[],[],"[1001, 1001]",[],[],[],[1026],[],[],"[1028, 1052]",[],[],[4636],[],[],"[3020, 3057]",[],"[1026, 1052]",[],[3100],[],[],[1058],[],[],[1058],[],[],[],[],"[3089, 3191]",[],[]
participant_1_SOLD,[],[],[],[],[],[],[],[],[],[],[],[],[],[],"[1052, 1026]",[],[],[1001],[],[],[],"[3057, 1052, 1026]",[],[],[],[],[],[],[],[],[],[],"[1058, 1058, 2033, 2033]",[],[]
participant_1_UNDO,[],[],[],[],"[[0, 1001]]",[],[],[],[],[],[],"[[0, 1028]]",[],[],[],[],[],[],[],[],[],[],[],[],[],[],[],[],[],[],[],[],"[[2033, 0], [2033, 0]]",[],[]
participant_2_GOLD,500,500,542,762,885,1217,1389,1717,1839,2174,2401,2622,3011,3322,4415,4747,5607,6098,6827,7444,7852,7975,8404,8983,9210,9673,10299,10421,11307,11430,12614,13044,13167,14413,15039
participant_2_CURRENTGOLD,500,0,42,262,85,407,579,897,169,494,721,507,886,1197,375,707,1567,558,1287,619,1027,135,564,1143,120,583,1209,81,968,1090,2274,2705,627,1874,2139
participant_2_LEVEL,1,1,1,3,3,4,5,6,6,7,7,8,8,9,10,10,11,11,11,12,12,12,12,13,13,13,14,14,14,14,15,16,16,17,17
participant_2_MINIONSKILLED,0,0,1,6,6,15,18,27,27,36,42,48,60,71,71,80,93,96,104,110,115,115,130,139,145,148,161,161,162,162,174,182,182,187,192
participant_2_KILLS,0,0,0,0,0,0,0,0,1,1,1,1,1,1,2,2,2,2,2,2,2,2,2,2,2,4,4,5,6,6,7,7,8,8,8
participant_2_BUY,[],"[1055, 2003]",[],[],[],[],"[1036, 1036]",[],[],"[3134, 1053, 1001, 3009, 2055]",[],[],[1053],[],[1036],[],[6692],[],[1036],[],[],[3134],[1018],[],[],[],"[6676, 3123]","[1042, 1036]",[],[6609],[],"[1036, 1036]",[],"[3035, 1018]",[]
participant_2_SOLD,[],[],[],[],[2003],[],[],[],[],"[1036, 1036, 1001]",[],[],[],[],[],[1055],"[3134, 1036, 1053]",[],[],[],[],[1036],[],[],[],[],"[3134, 1018]",[],[],"[3123, 1036]",[2055],[],[],"[1036, 1036]",[]
participant_2_UNDO,[],[],[],[],[],[],[],[],[],"[[0, 1053]]",[],[],[],[],[],[],[],[],[],[],[],[],[],[],[],[],[],"[[0, 1042]]",[],[],[],[],[],[],[]
participant_3_GOLD,500,500,584,783,990,1684,1912,2506,2643,2842,3225,3604,3982,4614,4834,5420,6119,6921,7823,8051,8265,8491,8719,8891,9508,9739,10302,10598,11122,11244,11387,11793,13132,14027,14855
participant_3_CURRENTGOLD,500,0,84,283,490,1184,212,806,193,392,175,454,832,1464,184,770,1469,371,1273,46,260,487,714,261,879,1109,372,669,1192,715,858,1263,2603,3497,4305
participant_3_LEVEL,1,1,1,3,4,5,5,7,7,7,8,9,9,10,11,11,12,12,13,13,13,14,14,14,14,15,15,15,15,15,16,16,17,17,18
participant_3_MINIONSKILLED,0,0,3,7,11,23,29,37,38,42,43,55,65,74,80,91,103,106,121,127,130,132,138,138,158,158,164,166,167,167,168,179,185,187,192
participant_3_KILLS,0,0,0,0,0,1,1,2,2,2,3,3,3,4,4,5,5,7,9,9,9,9,9,9,9,9,9,9,9,9,9,9,12,13,14
participant_3_BUY,[],"[1055, 2003, 3340]",[],[],[],[],"[3006, 2003, 2003]",[],"[1036, 1036, 2003]",[],[6670],"[2003, 2003]",[],[],"[1018, 1036, 1053]",[],[],"[6673, 1038]",[],"[1018, 1037]",[],[],[],[3031],[],[],[1038],[],[],[1018],[],[],[],[],[]
participant_3_SOLD,[],[],[],[2003],[],[],[],[2003],[],"[2003, 2003]","[1036, 1036]",[],[],[],[1036],[],[2003],"[6670, 1018, 1053]",[],[2003],[],[],[],"[1038, 1037, 1018]",[],[],[],[],[],[],[],[],[],[],[]
participant_3_UNDO,[],[],[],[],[],[],[],[],[],[],[],[],[],[],[],[],[],[],[],[],[],[],[],[],[],[],[],[],[],[],[],[],[],[],[]
participant_4_GOLD,500,500,523,697,912,1146,1281,1475,1859,1994,2262,2542,2742,2973,3133,3413,3699,3928,4369,4544,4818,4958,5099,5289,5459,5864,6054,6395,6695,6836,7211,7351,7942,8457,8716
participant_4_CURRENTGOLD,500,0,23,197,412,646,131,325,709,144,412,692,92,323,308,589,149,378,819,994,1268,308,149,339,509,914,555,345,75,216,591,82,672,312,291
participant_4_LEVEL,1,1,1,2,3,4,4,5,5,5,6,6,7,7,7,7,8,8,9,9,9,9,9,9,9,10,11,11,12,12,12,12,13,14,14
participant_4_MINIONSKILLED,0,0,0,0,0,0,0,0,0,0,1,1,1,2,2,4,4,5,5,7,7,7,7,7,7,7,7,7,7,7,8,8,8,8,8
participant_4_KILLS,0,0,0,0,0,0,0,0,0,0,0,0,0,0,0,0,0,0,0,0,0,0,0,0,0,1,1,2,2,2,3,3,4,4,4
participant_4_BUY,[],[],"[1035, 2003, 2003]",[],[],[],[3051],[],[],"[1001, 1029, 2003]",[],[3047],[],[],[],[3067],[],[],[6029],[],[],[],"[6631, 3066]",[1029],[],[],[],"[1031, 1028]",[],"[3742, 1033]",[1057],[1028],[],[],[4401]
participant_4_SOLD,[],[],[],[2003],[2003],[],[],[],[],[1035],[2003],"[1001, 1029]",[],[],[],[],[],[],[],[],[],[],"[6029, 3051, 3067]",[],[],[],[],[1029],[],"[3066, 1028, 1031]",[1033],[],[],[],"[1057, 1028]"
participant_4_UNDO,[],[],[],[],[],[],[],[],[],[],[],[],[],[],[],[],[],[],[],[],[],[],[],[],[],[],[],[],[],[],[],[],[],[],[]
participant_5_GOLD,500,500,563,825,1088,1287,1529,1794,2090,2318,2547,2670,2940,3111,3371,3584,3749,4050,4290,4413,4866,5211,5396,5735,6112,6235,6372,6681,6897,7748,7995,8139,8436,8558,8637
participant_5_CURRENTGOLD,500,0,63,325,588,137,379,209,430,658,37,160,430,86,271,484,214,515,755,878,1331,426,146,485,427,85,222,531,97,98,345,89,386,73,152
participant_5_LEVEL,1,1,1,3,4,5,6,6,7,7,8,8,8,9,9,9,9,10,10,10,11,11,11,12,12,12,12,13,13,14,14,14,14,14,14
participant_5_MINIONSKILLED,0,0,2,10,18,23,29,35,42,48,51,51,57,60,64,69,71,75,76,76,86,92,96,99,102,102,103,110,111,115,115,116,119,119,119
participant_5_KILLS,0,0,0,0,1,1,1,1,2,2,3,4,4,5,7,8,8,8,9,10,11,12,12,13,13,13,14,14,14,15,16,16,17,17,17
participant_5_BUY,[],"[1056, 2003, 2003]",[],[],[],"[1052, 1052, 1001]",[],"[3802, 2055, 2031]",[],[1026],[],[],"[6655, 3020, 2420]",[],"[3191, 3108, 3157]",[],[1052],[],[],[4628],[],[1058],[],[1058],[],[],[],[3089],[],[],[3113],[],[],[],[3100]
participant_5_SOLD,[],[],[],[],"[2003, 2003]",[],[],"[1052, 1052]",[],[],[],[],"[3802, 1026, 1001]",[2055],"[2420, 2031, 1056, 3191, 3108, 2421]",[],[],[],[],[1052],[],[],[],[2031],[],[],[],"[1058, 1058]",[],[],[],[],[],[],[3113]
participant_5_UNDO,[],[],[],[],[],[],[],[],[],[],[],[],[],[],"[[2031, 0]]",[],[],[],[],[],[],[],[],[],[],[],[],[],[],[],[],[],[],[],[]
participant_6_GOLD,500,500,606,963,1163,1495,1646,1973,2679,2821,3122,3564,3941,4063,4406,4714,4899,5072,5550,5927,6279,6847,7531,8317,8480,8603,8894,9161,9453,9731,10307,10514,10646,10797,10875
participant_6_CURRENTGOLD,500,0,106,463,663,995,146,473,1179,221,522,964,441,563,906,14,199,372,850,127,479,1047,856,1642,430,553,844,1111,303,582,1157,1364,47,197,275
participant_6_LEVEL,1,1,2,3,3,4,4,5,6,6,6,7,7,8,8,8,9,9,10,10,11,11,12,12,13,13,13,13,13,14,14,14,14,14,14
participant_6_MINIONSKILLED,0,0,0,0,0,5,7,7,9,9,10,10,10,10,10,10,14,14,14,14,17,17,22,36,38,38,43,46,46,47,51,51,52,54,54
participant_6_KILLS,0,0,0,0,0,0,0,0,0,0,0,0,0,0,0,0,0,0,0,0,0,0,0,0,0,0,0,0,0,1,1,1,1,1,1
participant_6_BUY,[],[2033],[],[],[],"[1027, 1001]",[],[1052],[2055],[],[1026],[],[],[3802],[2055],[],[1052],[],[],[],[],[6656],[3191],[],[1052],[3108],[],[],[2420],"[3157, 3047]",[],[1028],[],[1052],[]
participant_6_SOLD,[],[],[],[],[],[],[],[],[],[],[],[2055],[],"[1052, 1027]",[2055],[],[],[],[],[],[],"[3802, 1026]",[1052],[],[],[1052],[],[],[],"[3191, 2420, 3108, 1001]",[],[],[],[],[]
participant_6_UNDO,[],[],[],[],[],[],[],[],[],[],[],[],[],[],[],[],[],[],[],[],[],[],[],[],[],[],[],[],[],[],[],[],[],[],[]
participant_7_GOLD,500,500,626,913,1652,1963,2236,2477,3358,3647,4371,5157,6218,6850,7634,8321,8507,8889,9474,10616,11365,12340,12532,13187,13672,13796,14469,14696,14861,15655,16247,16370,17047,17316,17395
participant_7_CURRENTGOLD,500,0,126,403,1142,273,536,122,1003,442,1166,1942,293,925,19,706,457,839,1424,2,750,475,668,132,618,741,1415,342,506,1301,1043,1166,1843,2112,-190
participant_7_LEVEL,1,1,1,3,4,5,6,6,7,8,8,9,9,10,10,11,11,12,12,12,13,13,13,14,14,14,14,14,14,15,15,15,15,16,16
participant_7_MINIONSKILLED,0,0,6,13,24,33,39,46,55,64,73,85,92,103,106,117,121,134,143,143,147,154,159,160,170,170,177,177,180,187,187,187,189,198,198
participant_7_KILLS,0,0,0,0,0,0,0,0,0,0,0,0,0,0,0,0,0,1,1,1,1,1,1,1,1,1,1,2,2,2,2,2,2,2,2
participant_7_BUY,[],[],"[3850, 2003, 2003]",[],[],[],"[1028, 1001]",[],[1028],[2055],[],[],"[6660, 1029, 2055, 3364]",[],[],[1033],[],[],"[3068, 1029]",[],[1029],[],[],[],"[3047, 1033]",[],[],[],[1011],[],[1057],[],[3001],[],[1029]
participant_7_SOLD,[],[],[],[2010],[2003],[2010],[],"[2003, 2010]",[],[2055],[],[],"[3850, 1028, 1028, 3340]",[],[],[],[],[],"[3851, 6660, 1033, 1029]",[],[],[2055],[],[],"[1001, 1029]",[],[],[],[],[],[1033],[],"[1011, 1057]",[],[]
participant_7_UNDO,[],[],[],[],[],[],[],[],[],[],[],[],[],[],[],[],[],[],[],[],[],[],[],[],[],[],[],[],[],[],[],[],[],[],[]
participant_8_GOLD,500,500,556,797,1001,1172,1515,1749,1941,2267,2389,2678,2906,3200,3892,4240,4489,5277,5419,5626,5843,6303,6446,7336,7458,7652,8015,8370,8930,9226,9606,9981,10363,10486,10564
participant_8_CURRENTGOLD,500,0,56,297,501,322,665,899,1091,1417,239,528,156,450,267,615,864,1652,369,576,793,53,196,211,333,227,590,945,480,776,1156,1531,614,736,814
participant_8_LEVEL,1,1,1,2,3,3,4,5,5,6,6,6,7,7,8,8,8,9,9,9,10,10,11,11,11,11,12,12,13,13,14,14,14,14,14
participant_8_MINIONSKILLED,0,0,2,9,11,14,23,29,33,45,45,52,55,60,64,67,74,75,75,80,80,83,84,90,90,94,99,107,110,116,123,128,134,134,134
participant_8_KILLS,0,0,0,0,0,0,0,0,0,0,0,0,0,0,0,0,0,1,1,1,1,1,1,2,2,2,2,2,3,3,3,3,3,3,3
participant_8_BUY,[],"[1055, 2003, 3340]",[],[],[],"[1001, 2003]",[],[],[],[],[6670],[],[1018],[],[1037],[],[],[],"[6672, 3006]",[],[],[3086],[],[1037],[],[1042],[],[],[3085],[],[],[],[1038],[],[]
participant_8_SOLD,[],[],[],[],[2003],[],[],[],[],[],[],[],[2003],[],[],[],[],[],"[6670, 1018, 1037, 1001]",[],[],[],[],[],[],[],[],[],"[1037, 3086, 1042]",[],[],[],[],[],[]
participant_8_UNDO,[],[],[],[],[],[],[],[],[],[],[],[],[],[],[],[],[],[],[],[],[],[],[],[],[],[],[],[],[],[],[],[],[],[],[]
participant_9_GOLD,500,500,523,697,912,1147,1282,1450,1678,1813,2035,2230,2458,2707,3090,3231,3512,4447,4587,4727,4868,5097,5237,5688,5858,6030,6245,6700,6840,7189,7455,7825,8074,8214,8304
participant_9_CURRENTGOLD,500,500,23,197,412,647,82,250,78,138,360,555,208,457,840,531,812,1747,137,277,118,347,488,938,158,330,545,1000,240,590,405,775,124,264,54
participant_9_LEVEL,1,1,1,2,3,4,4,4,5,5,6,6,7,7,7,7,8,8,9,9,9,9,9,10,10,10,11,11,11,12,13,13,13,13,13
participant_9_MINIONSKILLED,0,0,0,0,0,1,1,2,3,3,5,5,5,6,6,6,7,10,10,10,10,11,11,11,11,12,12,13,13,16,16,26,28,28,28
participant_9_KILLS,0,0,0,0,0,0,0,0,1,1,1,1,1,1,2,2,2,2,2,2,2,3,4,4,4,4,4,4,4,4,5,5,5,5,5
participant_9_BUY,[],"[1039, 2031]",[],[],[],[],"[1036, 1036, 1001]",[],[],"[3117, 3134]",[],[],[1053],[],[],"[1036, 6692]",[],[],[],"[1036, 3134]",[],[],[1037],[],"[3142, 1036, 3364]",[],[],[],"[3134, 1036]",[],[],[],[3814],[],[]
participant_9_SOLD,[],[],[],[],[],[],[],[],[],"[1001, 1036, 1036]",[],[],[],[],[1039],"[3134, 1036, 1053]",[],[],[],[1036],[],[],[],[],"[3134, 1037, 3340]",[],[],[],[1036],[],[],[],"[1036, 3134]",[],[]
participant_9_UNDO,[],[],[],[],[],[],[],[],[],[],[],[],[],[],[],[],[],[],[],[],[],[],[],[],[],[],[],[],[],[],[],[],[],[],[]
team0_KILLS,0,0,0,0,0,1,1,2,3,3,4,4,4,5,7,8,9,12,15,16,16,16,16,16,16,20,21,23,26,26,30,30,35,38,40
team0_CURRENTGOLD,2500,500,304,1468,2426,4209,1446,3087,3152,1432,2171,2587,2326,4091,2416,3409,4133,2969,3874,2633,4142,2198,1597,2197,2517,5944,4199,2849,5274,2908,5257,4913,6044,7700,7423
team0_TOTALGOLD,2500,2500,2754,3918,5176,6969,7856,9507,11172,12187,13526,14977,16426,18191,20466,22078,24378,26614,29069,30568,32077,32997,34297,35822,37391,40819,43023,44722,47718,48851,51651,53056,56387,60269,62423
team0_LEVEL,5,5,5,12,16,21,22,28,28,30,33,35,37,40,44,44,47,49,51,53,54,55,55,57,58,62,64,64,67,67,70,72,75,78,79
team0_SBIRES,0,0,7,23,36,63,73,99,114,127,148,171,197,225,236,262,288,301,328,348,359,361,393,406,434,446,474,476,492,503,521,540,554,561,571
team1_KILLS,0,0,0,0,1,1,1,1,3,3,4,5,5,6,9,10,10,12,13,14,15,17,18,20,20,20,21,22,23,25,27,27,28,28,28
team1_CURRENTGOLD,2500,500,374,1685,3306,2374,1808,1953,3781,2876,2324,4149,1528,2481,2303,2350,2546,5125,3535,1860,3471,2348,2354,3408,1966,1936,3616,3929,1626,3347,4106,4925,3014,3382,1105
team1_TOTALGOLD,2500,2500,2874,4195,5816,7064,8208,9443,11746,12866,14464,16299,18463,19931,22393,24090,25156,27735,29320,31309,33221,35798,37142,40263,41580,42316,43995,45608,46981,49549,51610,52829,54566,55371,55775
team1_LEVEL,5,5,6,13,17,21,24,26,30,32,34,36,38,41,42,43,45,48,50,50,54,54,56,59,60,60,62,63,64,68,70,70,70,71,71
team1_SBIRES,0,0,10,32,53,76,99,119,142,169,184,203,219,239,250,269,287,308,318,323,340,357,372,396,411,416,434,453,460,481,492,508,522,533,533
delta_KILLS,0,0,0,0,-1,0,0,1,0,0,0,-1,-1,-1,-2,-2,-1,0,2,2,1,-1,-2,-4,-4,0,0,1,3,1,3,3,7,10,12
delta_CURRENTGOLD,0,0,-70,-217,-880,1835,-362,1134,-629,-1444,-153,-1562,798,1610,113,1059,1587,-2156,339,773,671,-150,-757,-1211,551,4008,583,-1080,3648,-439,1151,-12,3030,4318,6318
delta_TOTALGOLD,0,0,-120,-277,-640,-95,-352,64,-574,-679,-938,-1322,-2037,-1740,-1927,-2012,-778,-1121,-251,-741,-1144,-2801,-2845,-4441,-4189,-1497,-972,-886,737,-698,41,227,1821,4898,6648
delta_LEVEL,0,0,-1,-1,-1,0,-2,2,-2,-2,-1,-1,-1,-1,2,1,2,1,1,3,0,1,-1,-2,-2,2,2,1,3,-1,0,2,5,7,8
delta_SBIRES,0,0,-3,-9,-17,-13,-26,-20,-28,-42,-36,-32,-22,-14,-14,-7,1,-7,10,25,19,4,21,10,23,30,40,23,32,22,29,32,32,28,38
