name,frame_0,frame_1,frame_2,frame_3,frame_4,frame_5,frame_6,frame_7,frame_8,frame_9,frame_10,frame_11,frame_12,frame_13,frame_14,frame_15,frame_16,frame_17,frame_18,frame_19,frame_20,frame_21,frame_22,frame_23,frame_24,frame_25,frame_26,frame_27,frame_28,frame_29,frame_30,frame_31,frame_32,frame_33
nameStamp,Tstart,Tearly,Tearly,Tearly,Tearly,Tearly,Tearly,Tearly,Tearly,Tearly,Tearly,Tearly,Tmid,Tmid,Tmid,Tmid,Tmid,Tmid,Tmid,Tmid,Tmid,Tmid,Tmid,Tmid,Tmid,Tmid,Tmid,Tmid,Tmid,Tmid,Tmid,Tmid,Tmid,Tmid
timestamp,0,60000,120021,180031,240063,300096,360097,420120,480146,540176,600189,660215,720232,780259,840276,900303,960325,1020345,1080363,1140393,1200409,1260432,1320458,1380489,1440516,1500524,1560542,1620552,1680581,1740609,1800626,1860657,1920679,1980679
participant_0_GOLD,500,500,586,864,1195,1514,1815,2115,2760,3038,3433,3721,4043,4850,5159,5407,5734,6189,6374,6631,6823,7024,7209,7796,8409,8773,9091,9466,9673,10105,10762,11207,11379,11427
participant_0_CURRENTGOLD,500,0,86,364,695,1014,1315,1615,35,313,708,546,868,1675,34,282,609,1064,1249,1506,178,379,564,1151,1764,278,597,971,438,870,1527,1973,924,702
participant_0_LEVEL,1,1,1,3,4,5,6,6,7,8,9,9,10,10,10,11,11,12,12,13,13,13,13,14,14,15,15,15,15,16,16,16,17,17
participant_0_MINIONSKILLED,0,0,3,12,23,31,41,48,56,64,76,82,93,103,110,117,122,135,139,143,147,149,153,153,153,156,164,172,172,179,179,185,188,188
participant_0_KILLS,0,0,0,0,0,0,0,0,0,0,0,0,1,2,3,3,3,3,4,4,4,5,5,6,6,7,7,7,7,7,8,8,8,8
participant_0_BUY,[],"[2031, 1035, 3340]",[],[],[],[],"[3134, 2055, 3364]",[1001],[],[],[],[3133],[],[],"[6693, 3111, 2055]",[],[],[],[],[],"[3134, 1037]",[],[],[3142],"[1036, 1036, 1036, 1036, 2055]",[],[],[],[6609],[],[],"[3134, 1036]",[],[]
participant_0_SOLD,[],[],[],[],[],[],[3340],[],[],[],[],[],[1035],[2055],"[3134, 3133, 1001]",[],[2055],[],[],[],[],[],[],"[3134, 1037]",[2031],[],[2055],[],"[1036, 1036]",[],[],[],[],[]
participant_0_UNDO,[],[],[],[],[],[],[],[],[],[],[],[],[],[],[],[],[],[],[],[],[],[],[],[],"[[0, 1036], [0, 1036]]",[],[],[],[],[],[],[],[],[]
participant_1_GOLD,500,500,620,1032,1233,1575,1848,2105,2412,2811,3173,3349,3842,4575,5028,5395,5854,6104,6630,6975,7111,7528,7912,8646,8918,9680,10069,10740,10863,11311,12065,12469,13099,13232
participant_1_CURRENTGOLD,500,0,120,532,733,1075,173,130,437,836,1198,274,767,1500,78,445,904,1154,1680,2025,186,603,987,696,253,1015,1404,2075,198,646,1400,355,984,1057
participant_1_LEVEL,1,1,2,3,3,4,4,4,5,6,6,6,7,8,8,9,10,10,10,11,11,11,11,12,12,13,13,14,14,14,15,15,16,16
participant_1_MINIONSKILLED,0,0,0,0,0,0,0,0,0,0,0,0,0,0,1,2,3,3,4,5,6,6,6,7,7,7,11,17,17,17,24,27,27,31
participant_1_KILLS,0,0,0,0,0,0,0,0,0,0,2,2,2,2,2,4,4,4,4,4,4,7,8,8,8,8,8,10,10,10,11,11,12,12
participant_1_BUY,[],"[1056, 2003, 3340, 2003]",[],[],[],[],"[1001, 1052]",[],[1026],[],[],[3115],[],[],[],[],"[3145, 1026]",[],[],[4636],[3006],[],[],"[1058, 1058]",[],[3089],[],[],[],[3134],[],[1037],[],[]
participant_1_SOLD,[],[],[],[2003],[2003],[],[],[],[],[],[],"[1026, 1052]",[],[],[],[],[],[],[],"[3145, 1026]",[1001],[],[],[],[],"[1058, 1058]",[],[],[],[],[],[1056],[],[]
participant_1_UNDO,[],[],[],[],[],[],[],[],[],[],[],[],[],[],[],[],[],[],[],[],[],[],[],[],[],[],[],[],[],[],[],[],[],[]
participant_2_GOLD,500,500,597,919,1204,1754,2027,2359,2760,3074,3406,3716,4084,4914,5473,5785,6745,7273,7449,8392,8564,9336,9608,10366,10959,11229,11625,12436,12901,13365,13961,14753,15589,15938
participant_2_CURRENTGOLD,500,0,97,409,694,19,282,614,1005,1309,1641,441,799,1629,678,590,1550,428,604,1547,169,941,313,1071,94,365,760,1571,2037,50,647,1439,2274,2513
participant_2_LEVEL,1,1,1,3,4,5,5,6,7,7,8,9,9,10,11,11,12,12,12,13,13,13,14,14,14,15,15,15,16,16,16,17,17,17
participant_2_MINIONSKILLED,0,0,4,13,22,24,30,42,55,63,75,82,93,100,112,119,134,140,140,152,155,155,155,170,171,175,186,193,199,210,216,223,229,229
participant_2_KILLS,0,0,0,0,0,0,1,1,1,1,1,1,2,2,2,2,2,2,3,3,3,3,3,3,3,3,3,3,3,3,3,3,3,3
participant_2_BUY,[],"[3858, 3854, 2003, 2003]",[],[],[],[],[3066],[],[],"[1001, 1028]",[],"[3067, 3009, 3117]",[1004],[],[],[2065],"[1028, 1029]",[],[],"[3067, 3024, 2055, 3364]",[],[3050],[],[],[],"[3067, 1004]",[],[],[3114],[],[3107],[],[],[]
participant_2_SOLD,[],[],[],"[2003, 2010]",[2003],[],[2010],[],[2010],[],[3854],"[1028, 1001, 1001]",[],[],[],"[3067, 1004, 3066]",[],[],[3855],"[1028, 1029, 3340, 2055]",[],"[3067, 3024]",[],[],[],[],[],[],[1004],[],"[3067, 3114]",[],[],[]
participant_2_UNDO,[],"[[0, 3858]]",[],[],[],[],[],[],[],[],[],"[[0, 3009]]",[],[],[],[],[],[],[],[],[],[],[],[],[],[],[],[],[],[],[],[],[],[]
participant_3_GOLD,500,500,562,789,1106,1417,1582,2008,2130,2323,3705,3908,4229,4576,5023,5819,6332,6739,7343,7785,8007,9593,10351,10703,11535,11657,11843,12959,13082,13267,13868,14290,15059,15158
participant_3_CURRENTGOLD,500,0,62,289,606,917,347,773,45,238,1620,108,429,776,1223,2019,632,1039,1643,785,207,1793,2551,404,1235,57,244,1360,1482,567,1169,876,1645,1583
participant_3_LEVEL,1,1,1,2,3,4,4,5,5,5,6,7,7,8,8,9,9,9,10,10,10,12,13,13,14,14,14,14,14,14,15,15,16,16
participant_3_MINIONSKILLED,0,0,2,8,17,25,27,43,43,47,58,58,61,71,81,89,94,104,115,115,115,127,131,141,149,149,153,158,158,162,167,167,172,172
participant_3_KILLS,0,0,0,0,0,0,0,0,1,1,1,1,1,1,1,1,1,1,1,1,1,1,1,2,3,3,3,3,3,3,4,4,4,4
participant_3_BUY,[],"[1083, 2003]",[],[],[],[],[],[],"[3067, 6029, 2031, 2055]",[],[],[1033],[],[],"[6630, 3111, 1029]",[],[],[],[],[],"[1031, 3066, 1028]",[],[],[],[],"[3742, 3123, 2055, 2055]",[],[],[3067],[],[],[],[3211],[]
participant_3_SOLD,[],[],[],[],[],[2003],[],[],[],[],[],[],[2055],[],"[6029, 3067, 1033, 2422]",[],[],[],[],[],"[1029, 1083]",[],[],[],[],"[3066, 1028, 1031]",[],[],[2031],[2055],[],[],[2055],[]
participant_3_UNDO,[],[],[],[],[],[],[],[],[],[],[],[],[],[],[],[],[],[],[],[],[],[],[],[],[],[],[],[],[],[],[],[],[],[]
participant_4_GOLD,500,500,543,719,936,1154,1589,1852,2139,2274,2921,3142,3732,4064,4477,4879,5144,5398,6038,6329,6608,6957,7097,7373,7813,8028,8201,8637,8778,8928,9323,9614,9829,10035
participant_4_CURRENTGOLD,500,0,43,219,436,654,289,552,839,274,921,42,382,714,1127,679,245,498,1138,354,633,282,422,698,1138,303,476,912,503,653,349,639,854,1060
participant_4_LEVEL,1,1,1,2,3,4,4,5,5,5,6,7,7,8,8,9,9,10,10,10,11,11,11,12,12,12,13,13,13,13,14,14,14,15
participant_4_MINIONSKILLED,0,0,1,3,5,7,7,11,16,16,20,20,20,22,24,28,28,31,33,33,37,38,38,38,38,38,40,41,41,42,42,42,42,42
participant_4_KILLS,0,0,0,0,0,1,1,1,1,1,1,1,1,3,3,3,5,5,5,6,6,7,7,8,9,9,9,10,10,10,11,12,14,15
participant_4_BUY,[],"[1054, 2003, 3340]",[],[],[],"[3057, 1036, 1028, 2055, 2003]",[],[],[],[],[],"[3044, 3067]",[],[],"[6632, 3111]",[1028],[],"[3211, 3067]",[],[],"[3065, 1028, 1029]",[],"[3066, 1031]",[],"[3742, 1028, 1033]",[],[],[],[],[4401],[],[],[],[]
participant_4_SOLD,[],[],[],[2003],[2010],[2010],[2003],[2010],[],[],[],[1028],[],[2055],"[3044, 3057, 3067, 2422]",[],[],[1028],[],[],"[3211, 3067]",[],"[1028, 1029]",[],"[3066, 1031, 1054]",[],[],[],[],[1033],[],[],[],[]
participant_4_UNDO,[],[],[],[],[],"[[0, 1036]]",[],[],[],[],[],[],[],[],[],[],[],[],[],[],[],[],[],[],"[[0, 1028]]",[],[],[],[],[],[],[],[],[]
participant_5_GOLD,500,500,562,873,1144,1448,1655,1983,2105,2517,3058,3446,3729,3992,4306,4659,5030,5362,5742,6054,6845,7057,7179,7315,7752,7874,8096,8389,8692,9218,9414,9557,9806,9855
participant_5_CURRENTGOLD,500,0,62,373,644,948,1155,1483,305,717,1258,1646,1929,292,606,959,1330,327,707,1019,1810,257,379,115,552,174,396,689,1052,1578,924,1068,66,55
participant_5_LEVEL,1,1,1,3,4,5,6,7,7,7,8,9,10,10,10,11,11,12,12,13,13,13,13,13,14,14,14,14,15,15,15,15,15,15
participant_5_MINIONSKILLED,0,0,2,13,21,29,34,43,43,57,64,73,82,87,97,106,116,121,132,143,156,157,157,158,159,159,165,166,173,183,185,186,193,193
participant_5_KILLS,0,0,0,0,0,0,0,0,0,0,0,0,0,0,0,0,0,0,0,1,1,2,2,2,2,2,2,3,3,3,3,3,3,3
participant_5_BUY,[],"[2003, 1056, 2003]",[],[],[],"[1027, 2003]",[],[],[],[],[],"[3802, 1001]",[],[1026],[],[],[6655],[],[],[],[],"[3020, 1026, 1052]",[],[],"[3916, 1028]",[],[],"[3165, 1029]",[1052],[],[],"[3191, 3108]",[],[]
participant_5_SOLD,[],[],[],[],"[2003, 2010]",[],[],[],[2010],[2010],[],[1027],[2003],[],[],[],"[3802, 1026]",[],[],[],[],[1001],[],[],"[1052, 2003]",[],[],"[1026, 3916, 1028]",[],[],[],"[1052, 1029]",[],[]
participant_5_UNDO,[],[],[],[],[],[],[],[],[],[],[],[],[],[],[],[],[],[],[],[],[],[],[],[],[],[],[],[],[],[],[],[],[],[]
participant_6_GOLD,500,500,627,992,1364,1924,2223,2795,3042,3310,3567,4001,4283,4435,4743,5282,5577,5930,6172,6394,7935,8429,8551,9309,9431,9768,10087,10321,10733,10972,11426,12568,13090,14159
participant_6_CURRENTGOLD,500,0,127,492,864,1424,23,595,842,1110,1367,1791,973,1125,333,872,1167,620,862,484,2025,2519,341,1099,121,458,377,611,384,622,1077,119,640,1659
participant_6_LEVEL,1,1,2,3,4,5,6,6,6,7,7,8,8,8,8,9,10,10,10,10,11,12,12,13,13,13,13,13,14,14,14,15,15,16
participant_6_MINIONSKILLED,0,0,0,0,0,3,8,8,8,8,8,12,12,13,13,13,14,20,21,21,36,45,45,46,46,46,53,60,60,60,60,60,68,68
participant_6_KILLS,0,0,0,0,0,1,1,2,2,2,2,2,2,2,2,2,2,2,2,2,4,4,4,5,5,5,5,5,5,5,6,7,7,8
participant_6_BUY,[],"[1035, 2031, 3340]",[],[],[],[],"[3006, 1042, 1042]",[],[],[],[],[],"[6677, 1018, 1042]",[],[3124],[],[],[1053],[],[1018],[],[],"[3072, 1028]",[],"[3044, 1028]",[],[3067],[],[3057],[],[],"[6632, 3123, 1018]",[],[]
participant_6_SOLD,[],[],[],[],[],[],[],[],[],[],[],[],"[1035, 1042, 1042]",[],"[6677, 1018, 1042]",[3340],[3513],[],[],[],[],[],"[1018, 1053]",[],[1028],[],[1028],[],[2031],[],[],"[3044, 3057, 3067]",[],[]
participant_6_UNDO,[],[],[],[],[],[],[],[],[],[],[],[],[],[],[],[],[],[],[],[],[],[],[],[],[],[],[],[],[],[],[],[],[],[]
participant_7_GOLD,500,500,604,852,1144,1287,1532,1836,2063,2340,2567,3033,3380,3579,3730,4027,4318,4787,4910,5482,5821,6544,6840,7101,7377,7514,7818,8425,8833,9145,9357,9522,9686,9885
participant_7_CURRENTGOLD,500,0,104,352,644,387,622,926,1153,1430,1657,873,1210,559,710,1007,48,517,640,1212,1551,189,485,746,277,413,718,575,548,860,1073,172,336,535
participant_7_LEVEL,1,1,1,3,4,4,5,6,6,7,8,8,9,9,10,10,10,11,11,11,12,12,13,13,13,14,14,14,15,15,15,15,15,16
participant_7_MINIONSKILLED,0,0,5,12,21,22,26,36,42,50,56,64,73,78,80,90,100,104,104,104,107,107,113,117,127,128,134,136,145,152,154,156,159,159
participant_7_KILLS,0,0,0,0,0,0,2,2,2,3,3,3,5,5,5,5,5,6,6,6,6,8,8,8,8,8,8,8,8,8,8,8,8,8
participant_7_BUY,[],"[1055, 2003, 3340]",[],[],[],[],[],"[6670, 1036, 1001, 2003]",[],[],"[1053, 3006, 2055]",[],[6673],[1018],[1042],[],[3086],[],[],[3046],[],"[3140, 1018]",[],[3139],[],[],[],[],[],"[3123, 3086]",[],[3033],[],[]
participant_7_SOLD,[],[],[],[],[],[],[2003],[],[],[2003],"[1036, 1001]",[],"[6670, 1053]",[],[],[],"[2055, 1018, 1042]",[],[],[3086],[],[],[],"[3140, 1018]",[],[],[],[],[],[1055],[],"[3123, 3086]",[],[]
participant_7_UNDO,[],[],[],[],[],[],[],[],[],[],[],[],[],[],[],[],[],[],[],[],[],[],[],[],[],[],[],[],[],[],[],[],[],[]
participant_8_GOLD,500,500,583,887,1130,1556,2497,2619,3073,3822,3986,4748,5764,5984,6107,6271,6775,8070,8456,8732,9313,10245,10467,10926,11123,11914,12142,12598,13048,13323,13940,14397,14694,14743
participant_8_CURRENTGOLD,500,0,83,387,630,1056,1997,119,573,1322,61,823,639,259,82,246,480,1775,2161,737,1318,351,572,31,229,1019,1248,1704,2153,609,1226,983,1280,1118
participant_8_LEVEL,1,1,1,2,3,4,5,5,6,7,7,7,8,9,9,9,9,10,11,11,11,12,12,13,13,14,14,14,15,15,15,16,16,16
participant_8_MINIONSKILLED,0,0,3,13,19,29,36,36,52,62,64,74,83,89,89,92,106,112,119,124,133,133,134,144,144,157,163,174,185,190,204,216,217,217
participant_8_KILLS,0,0,0,0,0,0,0,0,0,0,0,0,0,0,0,0,0,0,0,0,0,1,1,1,1,1,1,1,1,1,1,1,1,1
participant_8_BUY,[],"[3850, 2003, 2003]",[],[],[],[],"[3067, 1001, 2055, 2003]",[],[],[],[],"[4642, 3364]",[3117],[4005],[],[],[3117],[],[3114],[],[],[],[1026],[],[],[3504],[],[1028],[],[],[3067],[],[],[]
participant_8_SOLD,[],[],[],[],[],[],[2003],[2055],"[2003, 3850]",[2003],[],[3340],[1001],"[3067, 4642]",[],[3851],[1001],[],[],[],[],[],[],[],[],"[3114, 1026]",[],[],[],[],[1028],[],[],[]
participant_8_UNDO,[],[],[],[],[],[],[],[],[],[],[],[],[],"[[0, 3117]]",[],[],[],[],[],[],[],[],[],[],[],[],[],[],[],[],[],[],[],[]
participant_9_GOLD,500,500,542,756,972,1267,1742,1936,2281,2712,2932,3543,3893,4115,4283,4541,4710,5058,5199,5339,5594,6034,6174,6390,6605,6806,6977,7117,7258,7398,7589,7729,7890,7947
participant_9_CURRENTGOLD,500,0,42,256,472,767,17,211,556,987,1207,768,418,490,658,916,385,734,74,214,469,909,200,415,630,181,352,93,233,374,164,304,466,522
participant_9_LEVEL,1,1,1,2,3,4,4,4,5,6,6,6,6,7,7,7,8,9,9,9,10,10,10,10,11,11,11,12,12,12,12,12,13,13
participant_9_MINIONSKILLED,0,0,0,0,0,1,1,1,2,3,3,3,3,4,6,9,11,11,11,11,12,12,12,12,12,14,15,15,15,15,15,15,16,16
participant_9_KILLS,0,0,0,0,0,0,0,0,0,0,1,1,1,1,1,1,1,1,1,1,1,1,1,1,2,2,2,2,2,2,2,2,2,2
participant_9_BUY,[],"[1082, 2003, 2003, 2003, 3340, 2031, 3340]",[],[],[],[],[],[],[4635],[],[],[],[],[4633],[],[],[],"[3191, 1052]",[],[],[],"[3157, 3158]",[],[1028],[],[1011],[],[],[],[],[1026],[],[4637],[]
participant_9_SOLD,[],[],[],[],[],[],[],[],[],[],[],[],[],[4635],[],[],[],[],[],[],[],"[3191, 1052, 2422]",[],[],[],[1028],[],[],[2031],[],[],[],"[1026, 1011]",[]
participant_9_UNDO,[],"[[3340, 0], [0, 2003], [0, 2003], [0, 2003]]",[],[],[],[],[],[],[],[],[],[],[],[],[],[],[],[],[],[],[],[],[],[],[],[],[],[],[],[],[],[],[],[]
team0_KILLS,0,0,0,0,0,1,2,2,3,3,5,5,7,10,11,13,15,15,17,18,18,23,24,27,29,30,30,33,33,33,37,38,41,42
team0_CURRENTGOLD,2500,0,408,1813,3164,3679,2406,3684,2361,2970,6088,1411,3245,6294,3140,4015,3940,4183,6314,6217,1373,3998,4837,4020,4484,2018,3481,6889,4658,2786,5092,5282,6681,6915
team0_TOTALGOLD,2500,2500,2908,4323,5674,7414,8861,10439,12201,13520,16638,17836,19930,22979,25160,27285,29809,31703,33834,36112,37113,40438,42177,44884,47634,49367,50829,54238,55297,56976,59979,62333,64955,65790
team0_LEVEL,5,5,6,13,17,22,23,26,29,31,35,38,40,44,45,49,51,53,54,57,58,60,62,65,66,69,70,71,72,73,76,77,80,81
team0_SBIRES,0,0,10,36,67,87,105,144,170,190,229,242,267,296,328,355,381,413,431,448,460,475,483,509,518,525,554,581,587,610,628,644,658,662
team1_KILLS,0,0,0,0,0,1,3,4,4,5,6,6,8,8,8,8,8,9,9,10,12,16,16,17,18,18,18,19,19,19,20,21,21,22
team1_CURRENTGOLD,2500,0,418,1860,3254,4582,3814,3334,3429,5566,5550,5901,5169,2725,2389,4000,3410,3973,4444,3666,7173,4225,1977,2406,1809,2245,3091,3672,4370,4043,4464,2646,2788,3889
team1_TOTALGOLD,2500,2500,2918,4360,5754,7482,9649,11169,12564,14701,16110,18771,21049,22105,23169,24780,26410,29207,30479,32001,35508,38309,39211,41041,42288,43876,45120,46850,48564,50056,51726,53773,55166,56589
team1_LEVEL,5,5,6,13,18,22,26,28,30,34,36,38,41,43,44,46,48,52,53,54,57,59,60,62,64,66,66,67,71,71,71,73,74,76
team1_SBIRES,0,0,10,38,61,84,105,124,147,180,195,226,253,271,285,310,347,368,387,403,444,454,461,477,488,504,530,551,578,600,618,633,653,653
delta_KILLS,0,0,0,0,0,0,-1,-2,-1,-2,-1,-1,-1,2,3,5,7,6,8,8,6,7,8,10,11,12,12,14,14,14,17,17,20,20
delta_CURRENTGOLD,0,0,-10,-47,-90,-903,-1408,350,-1068,-2596,538,-4490,-1924,3569,751,15,530,210,1870,2551,-5800,-227,2860,1614,2675,-227,390,3217,288,-1257,628,2636,3893,3026
delta_TOTALGOLD,0,0,-10,-37,-80,-68,-788,-730,-363,-1181,528,-935,-1119,874,1991,2505,3399,2496,3355,4111,1605,2129,2966,3843,5346,5491,5709,7388,6733,6920,8253,8560,9789,9201
delta_LEVEL,0,0,0,0,-1,0,-3,-2,-1,-3,-1,0,-1,1,1,3,3,1,1,3,1,1,2,3,2,3,4,4,1,2,5,4,6,5
delta_SBIRES,0,0,0,-2,6,3,0,20,23,10,34,16,14,25,43,45,34,45,44,45,16,21,22,32,30,21,24,30,9,10,10,11,5,9
