name,frame_0,frame_1,frame_2,frame_3,frame_4,frame_5,frame_6,frame_7,frame_8,frame_9,frame_10,frame_11,frame_12,frame_13,frame_14,frame_15,frame_16,frame_17,frame_18,frame_19,frame_20,frame_21,frame_22,frame_23,frame_24,frame_25,frame_26,frame_27,frame_28,frame_29,frame_30,frame_31,frame_32,frame_33,frame_34,frame_35,frame_36,frame_37,frame_38,frame_39
nameStamp,Tstart,Tearly,Tearly,Tearly,Tearly,Tearly,Tearly,Tearly,Tearly,Tearly,Tearly,Tearly,Tearly,Tmid,Tmid,Tmid,Tmid,Tmid,Tmid,Tmid,Tmid,Tmid,Tmid,Tmid,Tmid,Tmid,Tend,Tend,Tend,Tend,Tend,Tend,Tend,Tend,Tend,Tend,Tend,Tend,Tend,Tend
timestamp,0,60032,120065,180091,240115,300145,360150,420152,480155,540178,600201,660230,720262,780289,840309,900341,960372,1020396,1080421,1140438,1200463,1260465,1320488,1380521,1440539,1500543,1560568,1620588,1680614,1740643,1800657,1860684,1920704,1980709,2040730,2100760,2160762,2220789,2280813,2340813
participant_0_GOLD,500,500,563,955,1489,1828,2133,2503,2688,3121,3285,4131,5242,5435,5735,6004,6615,6821,7144,7266,7762,8363,8527,9413,9718,10380,11020,11310,12067,12190,13109,14361,14603,14810,15077,15572,15841,16012,16134,16167
participant_0_CURRENTGOLD,500,0,63,455,989,1328,1633,2003,153,586,235,1081,2192,85,85,354,115,321,104,226,722,888,1052,789,1093,1755,2395,830,738,460,1379,2632,1124,1330,348,343,612,783,905,567
participant_0_LEVEL,1,1,1,3,4,5,6,6,7,7,8,9,9,9,10,10,11,11,11,11,12,12,13,13,14,14,15,15,16,16,16,17,17,17,18,18,18,18,18,18
participant_0_MINIONSKILLED,0,0,2,15,21,31,42,53,57,72,74,85,96,100,102,107,117,122,122,122,129,144,147,149,155,155,167,173,174,174,183,208,212,217,217,217,222,225,225,225
participant_0_KILLS,0,0,0,0,0,0,0,0,0,0,0,0,0,0,0,0,0,0,0,0,0,0,0,1,1,1,1,1,1,1,1,2,2,2,3,3,3,3,3,3
participant_0_BUY,[],"[3858, 3340, 2003, 2003]",[],[],[],[],[],[],"[6660, 2003]",[],"[1033, 2003, 2003]",[],[],[],[],[],"[1057, 1029, 1001, 3364]",[],[],[],[6664],[],[],[],"[3117, 3024]",[3067],[],[],[],[],[],[],"[3050, 3114, 1028]",[],[],[3107],[],[],[],[]
participant_0_SOLD,[],[],[],[],[],[],[2003],[2003],[],[],[],[3858],[2003],[],[],[],"[1033, 3340]",[3859],[],[],"[6660, 1029, 1057]",[],[],[],[1001],"[2003, 2003]",[],[],[],[],[],[],"[3067, 3024]",[],[],"[1028, 3114]",[],[],[],[]
participant_0_UNDO,[],[],[],[],[],[],[],[],[],[],[],[],[],[],[],[],[],[],[],[],[],[],[],[],[],[],[],[],[],[],[],[],[],[],[],[],[],[],[],[]
participant_1_GOLD,500,500,661,1013,1391,1656,1963,2140,2452,2860,2982,3276,4363,4571,5558,6056,6547,6809,7436,7558,7960,8230,8599,8797,9305,9855,10362,10660,11118,11241,11561,12517,12690,12987,13160,13787,14112,14535,14773,14806
participant_1_CURRENTGOLD,500,0,161,513,541,371,678,855,1167,1575,1697,1991,3078,321,1308,1806,2297,2559,1486,58,410,245,614,412,920,1470,1977,110,569,256,577,1533,440,738,910,238,563,985,1224,1256
participant_1_LEVEL,1,1,2,3,3,4,4,5,5,6,6,6,7,8,9,10,10,10,11,11,11,12,12,12,13,14,14,14,15,15,15,16,16,16,16,17,17,17,17,17
participant_1_MINIONSKILLED,0,0,0,0,0,0,0,0,0,0,0,1,2,2,13,13,18,19,20,20,21,21,21,21,35,36,36,37,40,40,42,47,47,48,48,48,51,51,56,56
participant_1_KILLS,0,0,0,0,0,0,0,0,0,1,1,1,1,1,1,1,2,2,2,2,3,4,4,4,4,5,6,6,7,7,8,9,9,9,10,12,12,12,12,12
participant_1_BUY,[],"[1055, 3340, 2003]",[],[],[],[],[],[],"[6670, 1001, 2003, 2003]",[],"[1037, 1042]",[],[],[],[],[],[6672],[1038],[],[3006],[],"[1037, 1018, 3031]",[],[],"[1018, 1042]","[3086, 1042]",[1042],[3046],[],[1053],[],[1043],[],[3153],[],[],[3035],[],[3036],[]
participant_1_SOLD,[],[],[],[],[],[],[],[],[],[],[],[],[2003],[],[2003],[],"[6670, 1037]",[],[],"[1001, 1042, 2003]",[],"[1055, 1038, 1037, 1018]",[],[],[],"[1018, 1042]",[],"[1042, 3086, 1042]",[],[],[],[],[],"[1053, 1043]",[],[],[],[],[3035],[]
participant_1_UNDO,[],[],[],[],[],[],[],[],[],[],[],[],[],[],[],[],[],[],[],[],[],[],[],[],[],[],[],[],[],[],[],[],[],[],[],[],[],[],[],[]
participant_2_GOLD,500,500,626,1389,1610,1914,2655,2895,3059,3489,3730,4131,4507,5319,5683,6085,6271,6686,7529,7951,8504,8947,9264,9635,10225,11069,11410,11568,11864,12184,12617,12889,13061,13556,14114,14815,15028,15220,15445,15478
participant_2_CURRENTGOLD,500,0,126,879,325,619,1350,190,354,774,215,606,972,1784,255,657,293,708,551,973,1527,344,661,1032,572,1416,1758,215,62,382,14,287,459,953,1512,413,626,368,593,495
participant_2_LEVEL,1,1,1,3,4,5,6,7,7,7,8,8,9,10,10,11,11,11,12,12,12,13,13,13,14,15,15,15,15,16,16,16,16,17,17,18,18,18,18,18
participant_2_MINIONSKILLED,0,0,6,16,22,29,45,51,54,63,70,83,91,103,106,118,122,135,139,152,153,153,160,165,174,178,181,182,188,191,198,198,198,213,214,226,227,227,232,232
participant_2_KILLS,0,0,0,0,1,1,1,1,1,1,1,2,2,2,2,2,3,3,3,3,3,3,3,4,4,4,4,4,6,6,7,8,8,8,8,8,8,8,8,8
participant_2_BUY,[],"[2033, 1056, 2003, 3340, 2003]",[],[],[],[],[],[],"[3802, 1001, 1052]",[],"[3108, 2003]",[],[],"[6653, 3020, 1042]",[1029],[],[1026],[],[1043],[],[],[1052],[],"[3115, 1052]",[],[],[],[3165],[1026],[1028],[],[],[3116],[],[4630],[2139],[],[],[],[]
participant_2_SOLD,[],[],[],[],"[2003, 2003]",[],[],[],[],[],[1052],[],[2003],"[3802, 3108, 1001]",[],[],[],[],"[1056, 1042]",[],[],[],[],"[1043, 1026, 1052]",[],[],[],"[1052, 1029]",[],[],[],[],"[1026, 1028]",[],[],[2139],[],[],[],[]
participant_2_UNDO,[],"[[0, 2033]]",[],[],[],[],[],[],[],[],[],[],[],[],[],[],[],[],[],[],[],[],[],[],[],[],[],[],[],[],[],[],[],[],[],[],[],[],[],[]
participant_3_GOLD,500,500,563,846,1239,1592,1848,2211,2501,3258,3485,3907,4275,4621,4967,5327,5914,6231,6813,6935,7938,8360,8795,9167,9290,10034,10685,11283,12092,12388,13226,14070,14342,14485,15160,16447,16590,17062,17464,17497
participant_3_CURRENTGOLD,500,0,63,346,739,1092,1348,1711,301,1058,110,532,900,1246,1592,1952,1314,331,913,535,1538,40,476,847,70,214,565,64,873,269,1107,950,1223,166,840,2128,821,1293,245,97
participant_3_LEVEL,1,1,1,2,3,4,4,5,5,6,6,7,7,8,8,8,9,9,10,10,11,11,11,11,11,12,13,13,14,14,15,15,16,16,16,17,17,18,18,18
participant_3_MINIONSKILLED,0,0,2,11,24,35,42,53,63,75,81,95,106,119,128,138,143,150,158,158,173,173,182,188,188,189,194,207,209,215,228,229,229,230,233,235,236,245,252,252
participant_3_KILLS,0,0,0,0,0,0,0,0,0,0,0,0,1,1,3,3,3,3,4,4,4,4,4,4,4,4,5,5,5,5,5,6,6,6,6,6,6,7,7,7
participant_3_BUY,[],"[1039, 2003, 2003, 2003]",[],[],"[2003, 1001]",[1052],[],[],[],[],[],[],[],[6653],[],[],[],[],"[3020, 3191]","[2420, 1052, 3108]",[3157],[1052],[],[1028],[],[],[],[4637],[],[1052],[],[],"[3067, 3108]",[],[],[4629],[],[],[],[]
participant_3_SOLD,[],[],[],[],"[2003, 2003, 2003]",[],[],[],[],[1039],[],[],"[3330, 3513, 2003]",[1052],[],[],[],[],[1001],[1052],"[2420, 3191, 3108, 2421]",[],[],[],[],[],[],"[1028, 1052]",[],[],[],[],[1052],[],[],"[3108, 3067]",[],[],[],[]
participant_3_UNDO,[],[],[],[],[],[],[],[],[],[],[],[],[],[],[],[],[],[],[],[],[],[],[],[],[],[],[],[],[],[],[],[],[],[],[],[],[],[],[],[]
participant_4_GOLD,500,500,523,706,922,1119,1296,1517,1651,1997,2131,2386,2618,2780,3097,3322,3462,3783,4373,4514,4924,5079,5240,5755,5987,6465,6605,6798,6938,7106,7363,8294,8484,8639,9154,9966,10121,10311,10612,10649
participant_4_CURRENTGOLD,500,0,23,206,422,619,796,1017,101,447,-19,236,468,630,947,1172,262,583,1173,1314,724,879,1040,1555,137,-185,-95,98,238,407,664,1594,-166,-11,504,217,371,561,862,1099
participant_4_LEVEL,1,1,1,2,3,4,4,5,5,6,6,6,7,7,8,8,8,9,9,9,10,10,10,11,11,12,12,12,12,13,13,14,14,14,15,16,16,17,17,17
participant_4_MINIONSKILLED,0,0,0,3,5,6,8,10,10,13,13,16,18,19,21,22,22,28,31,31,33,34,35,35,36,36,36,39,39,41,42,43,43,44,44,47,48,48,50,50
participant_4_KILLS,0,0,0,1,1,1,2,2,2,2,2,2,2,3,3,3,3,3,5,5,5,6,6,6,7,8,8,8,8,8,8,8,8,8,9,9,9,9,9,9
participant_4_BUY,[],"[2033, 3340]",[],[],"[3057, 2055]",[],[],"[3051, 1001]",[],[],[3111],[],[],[],"[3078, 1036]",[],[1053],[],[1043],[],[],"[3153, 2140, 3364, 2055, 1036]",[],[],"[3133, 1029]",[],[],[6333],[2420],[],[1031],[],[],[],[],"[3026, 1033]",[],[1057],[],[]
participant_4_SOLD,[],[],[],[],[],[],[],[],[],[2055],[1001],[],[],[],"[3057, 3051]",[],[1036],[],[],[],[],"[1053, 1043, 3340]",[2055],[],[1036],[],[],"[1029, 3133]",[2033],[],[],[2420],[],[],[],"[1031, 2421]",[],[1033],[],[]
participant_4_UNDO,[],[],[],[],[],[],[],[],[],[],[],[],[],[],[],[],[],[],[],[],[],"[[0, 2140]]",[],[],[],[],[],[],[],[],[],[],[],[],[],[],[],[],[],[]
participant_5_GOLD,500,500,542,713,1001,1270,1393,1651,1954,2154,2673,2885,3042,3185,3808,3930,4350,4667,5611,6255,6527,6650,6966,7339,7588,8004,8169,8458,8900,9098,9547,9670,9945,10324,10634,10756,11278,11804,12226,12559
participant_5_CURRENTGOLD,500,0,42,213,501,830,953,511,464,664,1183,170,327,70,693,82,502,369,1313,1957,229,352,668,1041,40,456,621,310,753,250,699,822,1097,1477,386,109,630,1157,1579,1851
participant_5_LEVEL,1,1,1,2,4,5,5,6,7,7,8,9,9,9,10,10,10,11,11,12,12,12,13,13,13,14,14,14,15,15,15,15,15,16,16,16,17,17,17,17
participant_5_MINIONSKILLED,0,0,1,4,10,16,16,21,28,33,44,46,48,49,57,57,61,68,73,91,91,91,97,100,100,110,113,118,125,125,135,135,140,146,146,146,149,154,154,154
participant_5_KILLS,0,0,0,0,0,0,0,0,0,0,0,0,0,0,0,0,0,0,0,0,0,0,0,0,0,0,0,1,2,2,2,3,3,3,3,3,3,3,3,3
participant_5_BUY,[],"[2003, 3340, 3858, 2003]",[],[],[],[],[],[],"[3158, 2055, 2055, 3067, 1001, 2055]",[],[],"[2055, 1029, 3364]",[],[],"[1033, 2055]",[],[],[3158],[],[],[],"[3105, 2055]",[],"[3190, 1006, 1006]",[],[],[3801],[1028],[],[3109],[],[],[],"[3114, 1028]",[],[3067],[],[],[],[]
participant_5_SOLD,[],[],[],[],[],[],[],[],[],[],"[2003, 2010, 2003, 2010, 3858, 2010]",[3340],[2055],[],[],[],[],[1001],[],[],[2055],"[1033, 1029, 3859]",[],"[2055, 2055, 3067, 3105]",[],[],[1006],[],[],"[3801, 1006, 1028]",[],[],[],[],[],[1028],[],[],[],[]
participant_5_UNDO,[],[],[],[],[],[],[],[],"[[0, 2055], [0, 2055], [0, 3158]]",[],[],[],[],[],[],[],[],[],[],[],[],[],[],[],[],[],[],[],[],[],[],[],[],[],[],[],[],[],[],[]
participant_6_GOLD,500,500,726,1033,1306,1610,1818,2123,2475,2832,3378,3501,3832,4244,4692,4919,5297,5904,6662,6816,8068,8436,8608,8881,9310,9543,9972,10387,11185,11348,11657,11793,12026,12464,12624,12831,13326,14100,14347,14455
participant_6_CURRENTGOLD,500,0,226,533,156,460,668,973,1325,1682,2228,101,432,844,1292,336,714,1321,1729,383,1635,2003,275,198,627,361,789,1204,2003,215,525,361,353,792,352,559,1053,1828,2075,2122
participant_6_LEVEL,1,1,2,3,3,4,4,5,6,6,7,7,8,8,9,9,10,11,11,11,12,13,13,13,13,13,14,14,15,15,15,15,15,16,16,16,17,17,18,18
participant_6_MINIONSKILLED,0,0,0,0,0,0,0,6,6,6,9,9,9,9,15,15,25,25,25,25,37,38,38,38,45,45,55,55,56,56,61,62,63,63,63,63,73,84,84,84
participant_6_KILLS,0,0,0,0,0,0,0,0,0,0,0,0,0,0,0,0,0,0,0,0,0,0,0,1,1,1,1,1,2,3,3,3,4,4,4,4,4,5,6,7
participant_6_BUY,[],"[1055, 2003, 3340]",[],[],[],[],[],[],"[6670, 1001, 1042]",[],[],[3006],[],[1037],[],[],[],[6672],[1042],[],[1018],"[3086, 1042]",[],[1037],[],[],[3085],[1036],[],[],[3033],"[1036, 1033]",[],[3140],[1037],[],[],[],[],[]
participant_6_SOLD,[],[],[],[],[],[],[],[],[],[],[],"[1001, 1042]",[],[],[],[2003],[],"[6670, 1037]",[],[],[],"[1018, 1042]",[],[],[],[],"[1037, 3086, 1042]",[],[],[],[1036],[],[],"[1033, 1055]",[1055],[],[],[],[],[]
participant_6_UNDO,[],[],[],[],[],[],[],[],[],[],[],[],[],[],[],[],[],[],[],[],[],[],[],[],[],[],[],[],[],[],[],"[[0, 1036]]",[],"[[1055, 0]]",[],[],[],[],[],[]
participant_7_GOLD,500,500,598,867,1374,1748,1983,2447,3050,3420,3717,4139,4575,4781,4904,5236,6347,6747,6932,7406,8145,9739,10224,11324,11448,12428,12550,12687,13075,13483,13724,14659,14781,15317,16039,16161,16690,17344,17466,17499
participant_7_CURRENTGOLD,500,0,98,17,524,888,1123,387,205,565,862,1274,1710,631,39,371,1482,282,467,941,1680,3274,1059,2319,1193,2173,2296,2432,270,679,919,1345,67,602,1325,647,1176,1830,302,-941
participant_7_LEVEL,1,1,1,3,3,4,5,6,7,8,8,9,10,10,10,10,12,12,12,13,13,14,14,15,15,15,15,15,15,16,16,17,17,17,18,18,18,18,18,18
participant_7_MINIONSKILLED,0,0,4,12,17,29,35,37,45,57,67,81,90,95,95,103,121,121,125,136,142,156,160,175,175,186,186,187,195,207,210,214,214,228,228,228,231,238,238,238
participant_7_KILLS,0,0,0,0,0,0,0,0,0,0,0,0,0,0,1,1,1,1,2,2,2,2,2,2,2,2,2,2,2,2,2,2,2,2,2,2,3,3,4,5
participant_7_BUY,[],"[1054, 2003, 3340]",[],[],[],[],[],[3057],[1036],[],[],"[3051, 1028, 2055]",[],[3067],[],[3078],[],[1033],[],[],"[3111, 3211, 1028]",[],[],[],[3065],[],[],"[1029, 1029]",[],"[3082, 1029]",[],[],[],[],[3143],"[1029, 1028]",[],[],[],[]
participant_7_SOLD,[],[],[],[],[2003],"[2010, 2010]",[],[2010],[],[],[],"[1036, 2055]",[],[1028],[],"[3057, 3051, 3067]",[],[],[],[],"[1033, 2422]",[],[],[],"[3211, 1028]",[],[],[],[],"[1029, 1029]",[],[],[],[],"[3082, 1029]",[],[],[],[],[]
participant_7_UNDO,[],[],[],[],[],[],[],[],[],[],[],[],[],[],[],[],[],[],[],[],[],[],[],[],[],[],[],[],[],[],[],[],[],[],[],"[[0, 1029]]",[],[],[],[]
participant_8_GOLD,500,500,598,895,1253,1634,1897,2288,2584,2770,3074,3274,3635,3918,4243,4722,5100,5348,5526,5907,6337,6535,7260,7752,8008,8399,8522,9114,10141,11009,11266,11701,12699,13060,13220,13701,14409,15049,16060,16658
participant_8_CURRENTGOLD,500,0,98,395,753,1134,1397,1788,184,370,674,374,735,143,468,947,1325,348,226,607,437,35,760,377,633,1024,122,364,1391,2259,166,152,1149,660,125,607,1315,1954,2966,3203
participant_8_LEVEL,1,1,1,2,3,4,4,5,5,5,6,6,7,7,7,8,9,9,9,10,10,10,11,11,11,12,12,13,14,14,14,14,15,15,16,16,17,17,17,17
participant_8_MINIONSKILLED,0,0,4,14,25,37,45,58,65,68,78,83,93,103,111,121,132,139,142,153,157,157,173,173,177,180,180,193,203,203,203,212,219,223,223,229,240,246,249,249
participant_8_KILLS,0,0,0,0,0,0,0,0,0,0,1,1,1,1,1,1,1,2,3,3,3,3,3,3,3,3,3,3,4,4,4,4,4,4,4,4,4,4,4,4
participant_8_BUY,[],"[1039, 2031, 3364]",[],[],"[1036, 1001]",[],[],[],[],[],[],"[3051, 3067, 3057]",[],[],[],"[3078, 1033]",[],[],[3111],"[1053, 1042, 1042]",[],[],"[3153, 1029]",[1036],[],[1031],[],[],[],[6333],[],[1029],[1029],[],"[3076, 1028]",[],[],[],[],[]
participant_8_SOLD,[],[],[],[],[],[],[],[],[1039],[],[],[1036],[],[],[],"[3057, 3051, 3067]",[],[],"[1001, 1033]",[],"[3364, 3513]",[],"[1053, 1042, 1042]",[],[],[1029],[],[],[],"[1031, 1036]",[],[],[2031],[],"[1029, 1029]",[],[],[],[],[]
participant_8_UNDO,[],[],[],[],[],[],[],[],[],[],[],[],[],[],[],[],[],[],[],[],[],[],[],[],[],[],[],[],[],[],[],[],[],[],[],[],[],[],[],[]
participant_9_GOLD,500,500,565,699,936,1091,1247,1468,1692,1855,2048,2188,2448,2610,2750,3017,3157,3318,3459,3599,3965,4330,4520,4786,4960,5175,5315,5769,6630,6845,6986,7726,7941,8102,8290,8430,8670,8986,9251,9439
participant_9_CURRENTGOLD,500,0,65,199,436,591,747,968,17,180,373,138,398,560,175,442,582,143,284,424,790,330,520,86,260,475,115,170,1030,145,286,1026,1242,202,390,130,371,686,952,1139
participant_9_LEVEL,1,1,1,2,3,4,4,5,5,6,7,7,7,7,7,8,8,8,8,8,9,10,10,10,10,10,10,11,12,13,13,14,15,15,15,15,15,16,16,17
participant_9_MINIONSKILLED,0,0,2,2,5,6,7,9,11,13,16,16,19,20,20,23,23,24,24,24,24,24,24,24,26,28,28,29,31,31,31,31,31,33,34,34,34,34,34,34
participant_9_KILLS,0,0,0,0,1,1,1,2,3,3,3,3,3,3,3,3,5,5,5,5,6,8,8,9,9,10,10,10,10,10,10,12,12,12,14,14,15,15,15,15
participant_9_BUY,[],"[1056, 2003, 3340, 2003]",[],[1082],[],[],[],"[3191, 1042]","[1043, 2055]",[],[],[],[],"[1026, 1052]",[3115],[],[],"[4635, 1001]",[],[],[],[],"[4633, 3006]",[],[1058],[],[],[],[3089],[],[],[2420],"[3157, 1033]",[],[],[3211],[],[],"[3065, 3065]",[]
participant_9_SOLD,[],[],[],[2003],[],[],[2003],[],[1042],[2055],[],[],[],[],"[1043, 1026, 1052]",[],[],[],[],[],[],[],"[4635, 1001]",[1056],[],[],[],[1082],[1058],[],[],"[1082, 2420]","[3191, 2421]",[],[],[1033],[],[],"[3211, 3211, 3211]",[]
participant_9_UNDO,[],[],[],[],[],[],[],[],[],[],[],[],[],[],[],[],[],[],[],[],[],[],[],[],[],[],[],"[[1082, 0]]",[],[],[],[],[],[],[],[],[],[],"[[0, 3065], [3211, 0]]",[]
team0_KILLS,0,0,0,1,2,2,3,3,3,4,4,5,6,7,9,9,11,11,14,14,15,17,17,19,20,22,24,24,27,27,29,33,33,33,36,38,38,39,39,39
team0_CURRENTGOLD,2500,0,436,2399,3016,4029,5805,5776,2076,4440,2238,4446,7610,4066,4187,5941,4281,4502,4227,3106,4921,2396,3843,4635,2792,4670,6600,1317,2480,1774,3741,6996,3080,3176,4114,3339,2993,3990,3829,3514
team0_TOTALGOLD,2500,2500,2936,4909,6651,8109,9895,11266,12351,14725,15613,17831,21005,22726,25040,26794,28809,30330,33295,34224,37088,38979,40425,42767,44525,47803,50082,51619,54079,55109,57876,62131,63180,64477,66665,70587,71692,73140,74428,74597
team0_LEVEL,5,5,6,13,17,22,24,28,29,32,34,36,39,42,45,47,49,50,53,53,56,58,59,60,63,67,69,69,72,74,75,78,79,80,82,86,86,88,88,88
team0_SBIRES,0,0,10,45,72,101,137,167,184,223,238,280,313,343,370,398,422,454,470,483,509,525,545,558,588,594,614,638,650,661,693,725,729,752,756,773,784,796,815,815
team1_KILLS,0,0,0,0,1,1,1,2,3,3,4,4,4,4,5,5,7,8,10,10,11,13,13,15,15,16,16,17,20,21,21,24,25,25,27,27,29,30,32,34
team1_CURRENTGOLD,2500,0,529,1357,2370,3903,4888,4627,2195,3461,5320,2057,3602,2248,2667,2178,4605,2463,4019,4312,4771,5994,3282,4021,2753,4489,3943,4480,5447,3548,2595,3706,3908,3733,2578,2052,4545,7455,7874,7374
team1_TOTALGOLD,2500,2500,3029,4207,5870,7353,8338,9977,11755,13031,14890,15987,17532,18738,20397,21824,24251,25984,28190,29983,33042,35690,37578,40082,41314,43549,44528,46415,49931,51783,53180,55549,57392,59267,60807,61879,64373,67283,69350,70610
team1_LEVEL,5,5,6,12,16,21,22,27,30,32,36,38,41,41,43,45,49,51,51,54,56,59,61,62,62,64,65,67,71,73,73,75,77,79,81,81,84,85,86,87
team1_SBIRES,0,0,11,32,57,88,103,131,155,177,214,235,259,276,298,319,362,377,389,429,451,466,492,510,523,549,562,582,610,622,640,654,667,693,694,700,727,756,759,759
delta_KILLS,0,0,0,1,1,1,2,1,0,1,0,1,2,3,4,4,4,3,4,4,4,4,4,4,5,6,8,7,7,6,8,9,8,8,9,11,9,9,7,5
delta_CURRENTGOLD,0,0,-93,1042,646,126,917,1149,-119,979,-3082,2389,4008,1818,1520,3763,-324,2039,208,-1206,150,-3598,561,614,39,181,2657,-3163,-2967,-1774,1146,3290,-828,-557,1536,1287,-1552,-3465,-4045,-3860
delta_TOTALGOLD,0,0,-93,702,781,756,1557,1289,596,1694,723,1844,3473,3988,4643,4970,4558,4346,5105,4241,4046,3289,2847,2685,3211,4254,5554,5204,4148,3326,4696,6582,5788,5210,5858,8708,7319,5857,5078,3987
delta_LEVEL,0,0,0,1,1,1,2,1,-1,0,-2,-2,-2,1,2,2,0,-1,2,-1,0,-1,-2,-2,1,3,4,2,1,1,2,3,2,1,1,5,2,3,2,1
delta_SBIRES,0,0,-1,13,15,13,34,36,29,46,24,45,54,67,72,79,60,77,81,54,58,59,53,48,65,45,52,56,40,39,53,71,62,59,62,73,57,40,56,56
