name,team0,team1
win,Win,Fail
firstBlood,True,False
firstTower,False,True
firstInhibitor,False,False
firstBaron,False,False
firstDragon,False,True
firstRiftHerald,False,True
towerKills,3,3
inhibitorKills,0,0
baronKills,0,0
dragonKills,2,2
riftHeraldKills,0,1
