name,team0,team1
win,Fail,Win
firstBlood,True,False
firstTower,True,False
firstInhibitor,False,True
firstBaron,False,True
firstDragon,True,False
firstRiftHerald,False,True
towerKills,4,8
inhibitorKills,0,1
baronKills,0,1
dragonKills,2,2
riftHeraldKills,1,1
