name,frame_0,frame_1,frame_2,frame_3,frame_4,frame_5,frame_6,frame_7,frame_8,frame_9,frame_10,frame_11,frame_12,frame_13,frame_14,frame_15,frame_16,frame_17,frame_18,frame_19,frame_20,frame_21,frame_22,frame_23,frame_24,frame_25,frame_26,frame_27,frame_28,frame_29,frame_30,frame_31,frame_32,frame_33,frame_34
nameStamp,Tstart,Tearly,Tearly,Tearly,Tearly,Tearly,Tearly,Tearly,Tearly,Tearly,Tearly,Tearly,Tearly,Tmid,Tmid,Tmid,Tmid,Tmid,Tmid,Tmid,Tmid,Tmid,Tmid,Tmid,Tend,Tend,Tend,Tend,Tend,Tend,Tend,Tend,Tend,Tend,Tend
timestamp,0,60023,120031,180037,240047,300077,360079,420111,480125,540133,600143,660145,720157,780169,840170,900184,960201,1020233,1080244,1140257,1200259,1260261,1320275,1380277,1440304,1500336,1560341,1620346,1680360,1740377,1800389,1860403,1920418,1980436,2040436
participant_0_GOLD,500,500,583,1014,1216,1407,1704,2350,2652,2851,3109,3421,3718,4046,4168,4895,5129,5413,5699,6072,6296,6471,6635,6982,7244,7737,7859,8056,8392,8994,9416,10044,10333,10580,10622
participant_0_CURRENTGOLD,500,0,83,514,716,207,129,775,1077,26,284,596,93,421,243,170,329,280,216,589,413,588,227,574,436,929,176,373,709,586,1009,1636,625,873,854
participant_0_LEVEL,1,1,1,3,4,4,5,6,7,7,8,8,9,9,9,10,10,10,11,11,11,11,12,12,12,13,13,13,14,14,15,15,15,15,15
participant_0_MINIONSKILLED,0,0,3,9,14,17,21,31,37,42,48,54,61,71,71,78,78,84,87,95,99,99,101,112,118,121,121,121,124,136,136,147,151,154,154
participant_0_KILLS,0,0,0,0,0,0,0,1,1,1,1,2,2,2,2,2,2,2,2,2,2,2,2,2,2,2,2,2,4,4,4,4,4,4,4
participant_0_BUY,[],[],"[3850, 1056, 3340, 2003, 2003]",[],[],[1052],[],[],"[3108, 1004, 1004]",[],[],[],"[3174, 3850, 1004]",[],[1004],[],[],[],"[3114, 1052]",[],[3113],[],[],[3504],[3801],[],[],[],[3107],[],[],[],"[3364, 3363]",[3114],[]
participant_0_SOLD,[],[],[],[2003],[2003],[],[],[],[1052],[],[],[],"[3108, 1004, 1004]",[],[],[],[],[],"[1004, 1004]",[],[1052],[],[3850],"[3114, 3113]",[],[],[],[],[3801],[],[3851],[],"[3340, 3364]",[1056],[]
participant_0_UNDO,[],[],"[[0, 3850]]",[],[],[],[],[],[],[],[],[],[],[],[],[],[],[],[],[],[],[],[],[],[],[],[],[],[],[],[],[],[],[],[]
participant_1_GOLD,500,500,620,1163,1363,1761,1933,2245,2860,3145,3457,4084,4706,4828,5290,5587,5968,6185,7220,7351,7608,8053,8737,8859,11442,11564,11786,12332,13286,13589,14202,14719,14841,15309,15350
participant_1_CURRENTGOLD,500,0,120,663,863,1261,108,420,1035,295,607,1234,256,78,540,837,418,335,1370,101,358,803,1487,309,2892,104,327,872,646,950,1562,2080,1202,1669,1650
participant_1_LEVEL,1,1,2,2,2,3,4,4,5,6,6,7,8,8,9,9,10,10,10,10,10,11,12,12,13,13,13,13,14,15,15,16,16,17,17
participant_1_MINIONSKILLED,0,0,0,0,0,0,0,0,0,0,0,6,6,6,13,13,22,22,25,26,26,36,38,38,44,44,44,44,47,53,63,64,64,64,64
participant_1_KILLS,0,0,0,0,0,0,0,1,2,2,2,2,2,3,3,3,3,3,3,3,3,3,3,3,3,4,4,5,5,5,7,7,7,7,7
participant_1_BUY,[],"[1055, 2003, 3340]",[],[],[],[],[],[],"[3070, 1037, 1001, 2003]",[],[],"[3004, 2003]",[],"[1036, 1036]",[1042],[],[],"[3006, 1053]",[],"[3144, 1042]",[],[],[1043],[1036],[],[3153],[3133],[1038],[],[3508],[],[1037],[],[],[]
participant_1_SOLD,[],[],[],[],[2003],[],[],[],[],[],[2003],"[3070, 1037]",[],[],[2003],[],[],"[1001, 1042, 1036]",[],"[1053, 1036]",[],[],[1042],[],[],"[3144, 1043]","[1036, 3004]",[],[],"[1038, 3133]",[],[],[],[],[]
participant_1_UNDO,[],[],[],[],[],[],[],[],[],[],[],[],[],[],[],[],[],[],[],[],[],[],[],[],[],[],[],[],[],[],[],[],[],[],[]
participant_2_GOLD,500,500,534,755,983,1350,1557,1756,2112,2347,2553,2676,2868,3032,3385,3731,3924,4211,4633,4833,5102,5365,5628,5778,6497,6793,7390,7601,8068,8581,8778,9182,9361,9525,9728
participant_2_CURRENTGOLD,500,0,34,255,483,850,1057,356,712,97,303,426,618,347,700,1046,374,661,33,233,502,765,193,343,397,693,540,316,783,46,243,648,71,235,278
participant_2_LEVEL,1,1,1,2,3,4,4,5,6,6,6,6,7,7,8,8,9,9,9,10,10,10,11,11,12,13,13,13,14,14,14,15,15,15,15
participant_2_MINIONSKILLED,0,0,1,7,13,24,29,33,38,45,50,50,54,56,60,63,67,70,70,75,84,93,96,98,103,109,115,116,122,136,136,140,143,145,155
participant_2_KILLS,0,0,0,0,0,0,0,0,0,0,0,0,0,0,0,0,0,0,1,1,1,1,1,1,2,2,3,3,3,3,3,3,3,3,3
participant_2_BUY,[],"[1056, 2003, 2003, 3340]",[],[],[],[],[],"[3070, 2003]",[],[1026],[],[],[],[1052],[],[],[3802],[],[3003],[],[],[],"[1052, 1028]",[],[3136],[],[3151],[1052],[],"[1026, 1028]",[],[],[3116],[],[]
participant_2_SOLD,[],[],[],[],[],[],[],[],"[2003, 2003]",[2003],[],[],[],[],[],[],[1052],[],"[3070, 3802]",[],[],[],[],[],"[3003, 1028, 1052]",[],"[3136, 1026]",[],[],[],[],[],"[1056, 1026, 1052, 1028]",[],[]
participant_2_UNDO,[],[],[],[],[],[],[],[],[],[],[],[],[],[],[],[],[],[],[],[],[],[],[],[],[],[],[],[],[],[],[],[],[],[],[]
participant_3_GOLD,500,500,597,871,1085,1221,1480,2035,2596,2938,3193,3358,3705,4205,4363,4590,4961,5641,6057,6236,6601,6863,7089,7211,7842,8925,9235,10086,10389,10765,11647,11923,12368,12504,12546
participant_3_CURRENTGOLD,500,0,97,371,585,721,980,1535,21,363,618,58,405,205,63,290,661,291,707,236,601,863,389,161,792,1175,736,286,589,65,947,349,793,929,971
participant_3_LEVEL,1,1,1,2,3,4,4,6,7,7,8,8,9,9,9,10,10,10,11,11,12,12,12,12,13,13,13,14,14,14,15,15,16,16,16
participant_3_MINIONSKILLED,0,0,4,10,15,16,21,29,34,44,52,54,64,66,68,74,84,95,105,108,114,118,120,120,137,140,147,154,160,163,168,170,180,181,181
participant_3_KILLS,0,0,0,1,1,1,1,1,2,2,2,3,4,4,4,4,4,4,5,5,5,5,6,6,9,9,9,10,11,11,11,11,11,12,12
participant_3_BUY,[],"[1041, 2031, 3340]",[],[],[],[],"[3715, 1042, 1042, 2055]",[],[],[1419],[],[],[3144],"[1042, 1001]",[],[],[3006],[1042],[],[3153],[],[],[],"[1043, 1038]",[],"[3026, 1043, 1057]",[],[],[3091],[],[],[],[1043],[],[]
participant_3_SOLD,[],[],[],[],[],[],[1041],[2055],[],"[1042, 1042, 3715]",[],[2419],[],[],[],[],[1001],[],[],"[3144, 1042]",[],[],[],[],[2423],"[1038, 2424, 2031]",[],[],"[1043, 1057]",[],[],[],[],[],[]
participant_3_UNDO,[],[],[],[],[],[],[],[],[],[],[],[],[],"[[0, 1042]]",[],[],[],[],[],[],[],[],[],"[[0, 1043]]",[],[],[],[],[],[],[],[],[],[],[]
participant_4_GOLD,500,500,520,678,801,951,1074,1660,1796,1940,2062,3085,3215,3409,3712,3935,4085,4269,4548,4728,4902,5112,5473,5658,6054,6554,6889,7045,7942,8082,8373,8688,8829,8969,9017
participant_4_CURRENTGOLD,500,500,20,178,301,16,139,725,146,290,412,1435,90,284,462,685,835,1019,313,493,252,462,823,358,103,604,939,1094,542,682,973,1288,1429,929,817
participant_4_LEVEL,1,1,1,2,3,3,4,5,5,6,6,7,7,7,8,8,8,9,9,9,10,10,10,10,11,12,12,12,13,13,14,14,14,14,14
participant_4_MINIONSKILLED,0,0,0,2,2,4,4,11,12,13,13,13,13,13,17,18,18,18,18,18,20,20,20,20,20,20,20,20,27,27,27,27,27,27,27
participant_4_KILLS,0,0,0,0,0,0,0,1,1,1,1,1,1,1,1,2,2,2,2,2,2,2,2,2,2,3,3,3,3,3,4,4,4,4,4
participant_4_BUY,[],"[1027, 2031, 3340]",[],[],[],[3057],"[1001, 2055]",[],[],[3044],[],[],"[1029, 3047]",[],[1042],[3101],[2055],[3078],[1036],[],[1028],[],"[3052, 3364, 2055]",[],[1028],[],[1037],[],[],"[3053, 3901]",[],[],[1038],[],[]
participant_4_SOLD,[],[],[],[],[],[1027],[],[2055],[],[],[],[],"[1001, 1029]",[],[],[1042],[],"[3101, 3057, 3044]",[],[],[2055],[],"[1036, 1028, 3340]",[],[],[],[2055],[],[2031],"[3052, 1037, 1028, 3901]",[],[],[],[],[]
participant_4_UNDO,[],[],[],[],[],[],[],[],[],[],[],[],[],[],[],[],[],[],[],[],[],[],"[[3364, 0]]",[],[],[],[],[],"[[2031, 0]]",[],[],[],[],[],[]
participant_5_GOLD,500,500,562,804,1221,1595,2449,2627,3007,3871,4157,4554,5500,5734,6845,7362,7535,7817,8259,8852,8974,9096,10050,11114,12102,12583,12965,13782,14489,14697,14909,15531,16042,16814,17359
participant_5_CURRENTGOLD,500,0,62,304,421,795,1649,177,557,1421,282,679,1625,384,1495,2192,90,372,39,632,754,877,955,2019,3007,514,595,1412,195,402,615,1237,1747,2520,2884
participant_5_LEVEL,1,1,1,2,4,5,6,6,7,8,9,9,10,11,11,12,12,12,12,13,13,13,13,14,15,15,15,16,16,16,16,17,17,18,18
participant_5_MINIONSKILLED,0,0,2,8,22,34,45,48,60,72,81,94,99,106,117,117,117,117,117,129,129,129,137,144,149,157,165,165,166,166,167,172,182,191,195
participant_5_KILLS,0,0,0,1,1,2,2,2,3,4,4,4,4,7,8,8,8,9,9,9,9,9,11,11,11,11,12,13,13,13,14,14,14,15,15
participant_5_BUY,[],"[1056, 2003, 2003, 3340]",[],[],"[1027, 1052]",[],[],"[3802, 1026]",[],[],[],"[3285, 1001, 1052]",[],[],"[3916, 1026, 3020]",[],[],[],[1058],[],[],[1058],[],"[3089, 1026]",[],[],[],[3165],[3191],[],[3108],[],[],[],[]
participant_5_SOLD,[],[],[],[],"[2003, 2003]",[],[],"[1052, 1027]",[],[],[],"[3802, 1026]",[],[],"[1052, 1001]",[],[],[],[],[],[],[],[],"[1058, 1058, 1056]",[],[],[],"[3916, 1026]",[],[],[],[],[],[],[]
participant_5_UNDO,[],[],[],[],[],[],[],[],[],[],[],[],[],[],"[[0, 1026]]",[],[],[],[],[],[],[],[],[],[],[],[],[],[],[],[],[],[],[],[]
participant_6_GOLD,500,500,620,843,1228,1435,1843,2063,2185,2584,2891,3219,3589,4284,4659,4957,5534,5698,6736,7457,7764,8058,8589,9271,10028,10250,10527,10790,11361,11613,11936,12068,12400,12948,12990
participant_6_CURRENTGOLD,500,0,120,343,728,935,1343,213,335,734,1041,269,639,1334,309,607,1184,1348,2386,3107,264,558,1089,1771,638,160,138,400,71,324,46,179,511,1058,1040
participant_6_LEVEL,1,1,2,2,3,4,4,5,5,5,6,6,7,8,9,9,9,10,11,12,12,12,13,14,14,14,14,15,15,15,16,16,16,17,17
participant_6_MINIONSKILLED,0,0,0,0,0,0,0,0,0,1,1,1,1,2,7,7,7,10,10,14,14,15,22,22,25,25,25,26,29,30,30,30,35,35,35
participant_6_KILLS,0,0,0,0,0,0,0,0,0,0,0,1,1,1,2,2,2,3,3,3,3,3,3,3,3,3,3,3,3,3,4,5,6,7,8
participant_6_BUY,[],"[1055, 2003, 3340]",[],[],[],[],[],[],"[3077, 2003]",[],"[1036, 1036]",[],[],"[1053, 1037, 1001]",[],"[3074, 1029]",[],"[3047, 1036]",[],[],[],[],"[3134, 3133, 1036]",[],[3147],[],[],[],"[3052, 1028]",[],[],[],[],[],[]
participant_6_SOLD,[],[],[],[],[2003],[],[],[],[],[2003],[],[],[],[1036],[],"[3077, 1053, 1037]",[],"[1001, 1029]",[],[],[],[],"[1036, 1036]",[],"[3134, 3133]",[],[],[],[1036],[],[],[],[],[],[]
participant_6_UNDO,[],[],[],[],[],[],[],[],[],[],[],[],[],[],[],[],[],[],[],[],[],[],[],[],[],[],[],[],[],[],[],[],[],[],[]
participant_7_GOLD,500,500,576,864,1127,1431,1631,1872,2196,2639,2782,3762,4130,4444,5238,5360,5740,6183,6614,6984,7333,7657,7829,8344,8722,8844,9367,9814,9986,10590,11054,11615,12088,13167,13544
participant_7_CURRENTGOLD,500,0,76,364,627,931,1131,1372,321,764,207,1187,1555,144,938,360,740,333,764,1134,1483,1807,129,644,322,445,967,1414,337,940,1405,1966,2438,3518,3894
participant_7_LEVEL,1,1,1,3,4,5,5,6,7,7,8,9,9,10,10,10,11,11,12,12,12,13,13,14,14,14,15,15,15,15,16,16,16,17,17
participant_7_MINIONSKILLED,0,0,3,10,18,26,30,37,46,56,57,65,76,79,86,86,92,96,105,109,110,118,118,121,122,122,135,135,135,149,152,156,156,163,165
participant_7_KILLS,0,0,0,0,0,0,0,0,0,0,0,1,1,1,1,2,2,2,2,2,2,3,5,5,5,6,6,6,6,6,6,6,6,6,6
participant_7_BUY,[],"[3850, 2003, 3340, 2003]",[],[],[],[],[],[3802],"[1001, 2003, 2003]",[],[],[1026],[],[],"[3285, 1052]",[],[],[],[],[],[3135],[],[],[],[],"[3135, 1058, 1058]",[],[3089],[3108],[],[],[],[],[],[]
participant_7_SOLD,[],[],[],[2003],[],[],[],[2003],[],[],[3850],[],[],[2003],"[2003, 3802, 1026]",[],[],[3851],[],[],[1052],[],[],[],[],[],[],"[1058, 1058]",[],[],[],[],[],[],[]
participant_7_UNDO,[],[],[],[],[],[],[],[],[],[],[],[],[],[],[],[],[],[],[],[],[],[],[],[],[],"[[0, 3135]]",[],[],[],[],[],[],[],[],[]
participant_8_GOLD,500,500,583,1167,1367,2124,2619,2804,3409,3943,4335,4622,5321,6332,6870,7245,7780,8216,8414,8753,9000,9290,10291,10763,10885,11134,11882,12324,12708,13215,13637,13760,14349,15291,15383
participant_8_CURRENTGOLD,500,0,83,667,82,839,1334,154,759,1293,1685,187,886,1897,470,845,1380,1816,764,1103,1351,390,1391,73,196,444,1192,1085,368,876,398,520,1110,2052,1983
participant_8_LEVEL,1,1,1,3,4,5,5,5,6,7,7,8,8,9,9,10,10,10,11,11,11,11,12,13,13,13,14,14,14,15,15,15,16,16,17
participant_8_MINIONSKILLED,0,0,3,12,17,31,40,43,55,62,73,75,85,90,91,102,106,107,107,110,116,122,124,124,124,124,130,130,130,137,137,137,143,147,147
participant_8_KILLS,0,0,0,0,0,0,1,1,1,2,2,2,4,4,4,5,5,5,6,6,6,6,7,8,10,10,10,12,13,13,13,13,13,13,14
participant_8_BUY,[],"[1055, 2003, 3340]",[],[],[1001],[],[],"[3044, 1028]",[],[],"[3071, 2055]",[],[],"[3133, 1029, 2055]",[],[],"[3812, 2055]",[],"[3117, 2055]",[],[],[],[1037],[],[],"[3053, 2420]",[1029],[],"[3026, 2055]",[],[],[],[],[],[]
participant_8_SOLD,[],[],[],[2003],[],[],[],[],[],[],"[3044, 1028]",[2055],[],[],[2055],[1055],"[1029, 3133, 2055]",[],[1001],[],[2055],[],[],[],[],[1037],[],[2420],"[1029, 2421]",[],[2055],[],[],[],[]
participant_8_UNDO,[],[],[],[],[],[],[],[],[],[],[],[],[],[],[],[],[],[],[],[],[],[],[],[],[],[],[],[],[],[],[],[],[],[],[]
participant_9_GOLD,500,500,537,723,879,1356,1783,1947,2292,2554,2874,3304,3891,4403,4786,5313,5577,6113,6691,7053,7283,7806,8889,9766,9906,10347,10537,10926,11418,11558,11758,11899,12170,13111,13359
participant_9_CURRENTGOLD,500,0,37,223,379,856,1283,147,92,354,674,254,841,1353,251,778,1042,1578,2156,2518,533,1056,2139,3016,3156,1097,1287,576,168,308,509,649,920,1861,2109
participant_9_LEVEL,1,1,1,1,2,3,4,4,4,5,6,6,6,7,8,8,8,9,10,10,11,11,12,13,13,13,13,13,14,14,14,14,14,15,15
participant_9_MINIONSKILLED,0,0,0,1,2,3,6,6,6,10,10,10,13,16,17,20,22,28,32,33,34,35,37,40,40,40,40,40,43,43,43,43,46,49,49
participant_9_KILLS,0,0,0,0,0,0,0,0,0,0,0,0,0,1,1,1,2,2,4,5,5,5,5,5,6,6,6,6,7,7,7,7,7,7,7
participant_9_BUY,[],"[3340, 1041, 2031]",[],[],[],[],[],"[3706, 1028, 1001]",[],[],[],[1401],[],[],"[3111, 1042, 1042]",[],[],[],[],[],"[3124, 1036, 1042]",[],[],[],"[3144, 1043]",[3153],"[3364, 1029]",[],"[1031, 1028]",[],[1011],[],[],[],[]
participant_9_SOLD,[],[],[],[],[],[],[],[1041],[],[],[],"[1028, 3706]",[],[],[1001],[],[],[],[],[],"[1042, 1042]",[],[],[],"[1036, 2031, 1042]","[3144, 1043]",[3340],[],[1029],[],[1028],[],[],[],[]
participant_9_UNDO,[],[],[],[],[],[],[],[],[],[],[],[],[],[],[],[],[],[],[],[],[],[],[],[],[],[],[],[],[],[],[],[],[],[],[]
team0_KILLS,0,0,0,1,1,1,1,4,6,6,6,8,9,10,10,11,11,11,13,13,13,13,14,14,18,20,21,23,26,26,29,29,29,30,30
team0_CURRENTGOLD,2500,500,354,1981,2948,3055,2413,3811,2991,1071,2224,3749,1462,1335,2008,3028,2617,2586,2639,1652,2126,3481,3119,1745,4620,3505,2718,2941,3269,2329,4734,6001,4120,4635,4570
team0_TOTALGOLD,2500,2500,2854,4481,5448,6690,7748,10046,12016,13221,14374,16624,18212,19520,20918,22738,24067,25719,28157,29220,30509,31864,33562,34488,39079,41573,43159,45120,48077,50011,52416,54556,55732,56887,57263
team0_LEVEL,5,5,6,11,15,18,21,26,30,32,34,36,40,40,43,45,47,48,50,51,53,54,57,57,61,64,64,65,69,70,73,75,76,77,77
team0_SBIRES,0,0,8,28,44,61,75,104,121,144,163,177,198,212,229,246,269,289,305,322,343,366,375,388,422,434,447,455,480,515,530,548,565,571,581
team1_KILLS,0,0,0,1,1,2,3,3,4,6,6,8,10,14,16,18,19,21,24,25,25,26,31,32,35,36,37,40,42,42,44,45,46,48,50
team1_CURRENTGOLD,2500,0,378,1901,2237,4356,6740,2063,2064,4566,3889,2576,5546,5112,3463,4782,4436,5447,6109,8494,4385,4688,5703,7523,7319,2660,4179,4887,1139,2850,2973,4551,6726,11009,11910
team1_TOTALGOLD,2500,2500,2878,4401,5822,7941,10325,11313,13089,15591,17039,19461,22431,25197,28398,30237,32166,34027,36714,39099,40354,41907,45648,49258,51643,53158,55278,57636,59962,61673,63294,64873,67049,71331,72635
team1_LEVEL,5,5,6,11,17,22,24,26,29,32,36,38,40,45,47,49,50,52,56,58,59,60,63,68,69,69,71,73,74,75,77,78,79,83,84
team1_SBIRES,0,0,8,31,59,94,121,134,167,201,222,245,274,293,318,332,344,358,371,395,403,419,438,451,460,468,495,496,503,525,529,538,562,585,591
delta_KILLS,0,0,0,0,0,-1,-2,1,2,0,0,0,-1,-4,-6,-7,-8,-10,-11,-12,-12,-13,-17,-18,-17,-16,-16,-17,-16,-16,-15,-16,-17,-18,-20
delta_CURRENTGOLD,0,500,-24,80,711,-1301,-4327,1748,927,-3495,-1665,1173,-4084,-3777,-1455,-1754,-1819,-2861,-3470,-6842,-2259,-1207,-2584,-5778,-2699,845,-1461,-1946,2130,-521,1761,1450,-2606,-6374,-7340
delta_TOTALGOLD,0,0,-24,80,-374,-1251,-2577,-1267,-1073,-2370,-2665,-2837,-4219,-5677,-7480,-7499,-8099,-8308,-8557,-9879,-9845,-10043,-12086,-14770,-12564,-11585,-12119,-12516,-11885,-11662,-10878,-10317,-11317,-14444,-15372
delta_LEVEL,0,0,0,0,-2,-4,-3,0,1,0,-2,-2,0,-5,-4,-4,-3,-4,-6,-7,-6,-6,-6,-11,-8,-5,-7,-8,-5,-5,-4,-3,-3,-6,-7
delta_SBIRES,0,0,0,-3,-15,-33,-46,-30,-46,-57,-59,-68,-76,-81,-89,-86,-75,-69,-66,-73,-60,-53,-63,-63,-38,-34,-48,-41,-23,-10,1,10,3,-14,-10
