name,frame_0,frame_1,frame_2,frame_3,frame_4,frame_5,frame_6,frame_7,frame_8,frame_9,frame_10,frame_11,frame_12,frame_13,frame_14,frame_15,frame_16,frame_17,frame_18,frame_19,frame_20,frame_21,frame_22,frame_23,frame_24,frame_25,frame_26,frame_27,frame_28,frame_29,frame_30,frame_31,frame_32,frame_33,frame_34,frame_35,frame_36,frame_37,frame_38,frame_39,frame_40
nameStamp,Tstart,Tearly,Tearly,Tearly,Tearly,Tearly,Tearly,Tearly,Tearly,Tearly,Tearly,Tearly,Tearly,Tearly,Tmid,Tmid,Tmid,Tmid,Tmid,Tmid,Tmid,Tmid,Tmid,Tmid,Tmid,Tmid,Tmid,Tmid,Tmid,Tmid,Tmid,Tmid,Tmid,Tmid,Tend,Tend,Tend,Tend,Tend,Tend,Tend
timestamp,0,60026,120048,180086,240109,300136,360156,420186,480204,540226,600242,660266,720287,780320,840340,900370,960395,1020412,1080435,1140458,1200476,1260499,1320520,1380535,1440549,1500579,1560591,1620607,1680628,1740645,1800666,1860688,1920700,1980723,2040737,2100758,2160775,2220802,2280822,2340839,2400839
participant_0_GOLD,500,500,521,720,1008,1165,1323,1501,1672,1851,2092,3174,3331,3661,3994,4340,4634,4882,5262,5456,5870,6545,6667,7105,7485,8287,8409,9346,9478,9678,10693,10865,11029,11284,11808,12203,12466,13119,13487,13660,13694
participant_0_CURRENTGOLD,500,0,21,220,508,665,823,1001,1172,176,417,49,206,536,869,1215,309,407,787,281,95,770,142,580,460,262,384,1321,1003,79,1093,1190,1355,1609,334,729,116,770,338,510,344
participant_0_LEVEL,1,1,1,2,3,5,5,6,7,7,8,9,9,9,10,10,11,11,12,12,12,13,13,14,14,15,15,15,15,16,16,16,16,16,17,17,17,17,18,18,18
participant_0_MINIONSKILLED,0,0,0,4,12,14,16,19,22,25,32,38,40,52,61,70,76,84,88,89,95,95,95,109,120,126,126,130,131,132,137,137,139,143,143,149,150,157,161,161,161
participant_0_KILLS,0,0,0,0,0,0,0,0,0,0,0,0,0,0,0,0,0,1,1,1,2,3,3,3,3,4,4,6,6,7,7,7,7,7,7,7,7,8,8,8,8
participant_0_BUY,[],"[1039, 2031, 3340]",[],[],[],[],"[1036, 3070, 1001]",[],[],[3044],[],[],[],"[6029, 1028]",[],[],[],[],[],[],[6630],[3004],[],[3111],[],[],[],[],[],[],[],"[6333, 2055, 3364, 2055]",[],[],"[1036, 1036]",[],[],[],[3065],[],[]
participant_0_SOLD,[],[],[],[],[],[],[],[],[],[1036],[1039],[],[],[],[],[],[],[],[],[],"[6029, 3044, 1028, 2031]",[3070],[],[1001],[3004],[],[],[],[],[],[],[3340],"[2055, 2055]",[],[],[],[],[],"[1036, 1036]",[],[]
participant_0_UNDO,[],[],[],[],[],[],[],[],[],[],[],[],[],[],[],[],[],[],[],[],[],[],[],[],[],[],[],[],[],[],[],[],[],[],[],[],[],[],[],[],[]
participant_1_GOLD,500,500,677,1048,1376,1680,1803,2145,2367,2575,2902,3491,3788,3938,4246,4543,4886,5563,5979,6313,6619,7006,7511,7634,8018,8497,8676,9433,9901,10369,10790,11047,11270,11467,11689,12152,12939,13570,13883,14055,14140
participant_1_CURRENTGOLD,500,0,177,548,876,1180,253,595,817,275,602,1191,1488,38,346,643,986,1663,2079,2413,2179,366,871,194,578,1057,1236,1993,2461,2929,3350,358,580,777,300,763,1549,2181,83,256,-210
participant_1_LEVEL,1,1,2,3,4,4,4,5,5,5,6,7,8,8,8,9,9,10,11,11,11,12,12,12,13,13,13,14,15,15,15,15,15,15,16,16,17,17,17,17,17
participant_1_MINIONSKILLED,0,0,0,0,0,0,0,0,0,0,0,1,1,3,3,3,3,4,5,8,9,9,9,9,9,13,16,19,19,23,24,24,24,24,24,26,34,38,39,39,39
participant_1_KILLS,0,0,0,0,0,1,1,1,2,2,3,3,4,5,5,6,6,8,10,10,11,11,11,11,11,11,11,11,11,13,13,14,14,14,14,16,16,17,17,20,20
participant_1_BUY,[],"[1055, 2003, 3340]",[],[],[],[],"[6670, 2003]",[],[1053],[],[],[6673],[],[],[],"[3134, 3006, 3009, 3363, 2055]",[],[1037],[],[6676],[],[1038],[],[],[],[1037],[],[],[],[],"[3031, 3123]",[],[3086],[3033],[],[],[],[],[3094],[],[2140]
participant_1_SOLD,[],[],[],[],[],[],[],"[2003, 2003]",[],[],[],"[6670, 1053]",[],[],[],[3340],[2055],[],[],"[3134, 1037]",[],[1055],[],[],[],[],[],[],[],[],"[1038, 1037]",[],[],"[3123, 3086]",[],[],[],[],[],[],[2140]
participant_1_UNDO,[],[],[],[],[],[],[],[],[],[],[],[],[],[],[],"[[0, 3006]]",[],[],[],[],[],[],[],[],[],[],[],[],[],[],[],[],[],[],[],[],[],[],[],[],[]
participant_2_GOLD,500,500,563,892,1162,1836,2029,2315,2823,3094,3624,3985,4566,5209,5682,6202,6461,7058,7744,8292,9000,9122,9398,9521,10061,10276,10398,10571,11094,12011,12511,13117,13777,14049,14470,15418,15751,16304,16885,18157,18192
participant_2_CURRENTGOLD,500,0,63,392,662,1336,179,465,73,344,874,35,616,1259,1732,177,436,158,844,367,1075,78,353,476,1017,356,479,651,1174,2092,566,1173,633,205,625,1574,1907,2460,341,1613,967
participant_2_LEVEL,1,1,1,2,3,4,4,5,6,6,7,7,8,8,8,9,9,10,11,11,12,12,12,12,12,13,13,13,13,14,14,15,15,15,16,16,16,17,17,18,18
participant_2_MINIONSKILLED,0,0,2,12,20,32,36,43,46,51,58,64,74,80,92,96,100,104,106,119,121,121,126,126,142,143,143,143,149,158,169,169,179,179,182,186,191,191,195,198,198
participant_2_KILLS,0,0,0,0,0,0,0,0,0,0,0,2,2,2,2,2,2,2,2,2,2,4,4,4,4,5,5,7,7,7,8,8,8,8,9,9,9,9,9,9,9
participant_2_BUY,[],"[2033, 3340]",[],[],[],[],[],[],[],"[3047, 2055]",[],"[6660, 1029, 2055, 2055]",[],[],[],[],[3105],"[2055, 2055]",[],[3068],"[1029, 1029]",[],"[3076, 1028, 2055, 2055]",[],[1011],[3075],[],[],[1033],"[3105, 2055]",[],[2055],[],[],[3193],[],"[3082, 2055]",[],[3067],[],[]
participant_2_SOLD,[],[],[],[],[2010],[2010],[],[2010],[],[],[2055],[],[],[2055],[2055],[],[1029],[],[],"[6660, 3105, 2055]",[2055],[],"[1029, 1029]",[],[1028],"[3076, 1011]",[],[2055],[2055],[1033],[],[],[],[],"[2055, 3105]",[],[2033],[],"[2055, 2055]",[],[]
participant_2_UNDO,[],[],[],[],[],[],[],[],[],[],[],[],[],[],[],[],[],[],[],[],[],[],[],[],[],[],[],[],[],[],[],[],[],[],[],[],[],[],[],[],[]
participant_3_GOLD,500,500,612,839,1022,1368,1753,1938,2339,2590,2901,3364,3612,4121,4660,5676,5799,6492,6789,7135,7682,8349,8479,10341,10463,10970,11211,11629,11766,11952,12899,13348,13470,14667,15393,16324,16559,16966,17358,18075,18109
participant_3_CURRENTGOLD,500,0,112,339,27,363,738,88,479,720,1031,104,352,786,1315,2331,104,797,494,840,1386,2054,584,2446,228,736,976,1395,1531,417,1365,1813,296,1493,2219,3150,2085,1591,1984,2701,2584
participant_3_LEVEL,1,1,1,3,3,4,5,5,6,7,8,8,8,9,10,11,11,12,12,12,13,13,13,15,15,15,15,16,16,16,16,17,17,17,18,18,18,18,18,18,18
participant_3_MINIONSKILLED,0,0,5,11,12,22,34,38,51,56,67,74,81,87,98,111,111,120,126,132,145,152,152,159,159,174,177,182,183,183,183,194,194,194,202,208,212,212,216,224,224
participant_3_KILLS,0,0,0,0,0,0,0,0,0,0,0,0,0,1,1,2,2,3,3,3,3,4,4,8,8,8,8,8,8,8,10,10,10,12,13,15,15,15,16,17,17
participant_3_BUY,[],"[1056, 2003, 2003, 3340]",[],[],"[1052, 2003]",[],[],"[1052, 1027, 2003]",[],[],[],"[3802, 1026, 1001, 2031]",[],[2055],[],[],"[6655, 3020, 1029]",[],[3191],[],[],[],[3157],[],"[1058, 1058]",[],[],[],[],[3089],[],[],"[3108, 3067]",[],[],[],[4629],"[1026, 1011]",[],[],[]
participant_3_SOLD,[],[],[],[2003],"[2010, 2003]",[],[2010],"[2010, 2003]",[],[2003],[],"[1052, 1027, 1052]",[],[],[],[],"[3802, 1026, 1001]",[],[1029],[2055],[],[],[3191],[],[1056],[],[],[],[],"[1058, 1058]",[],[],[2031],[],[],[],"[3108, 3067]",[],[],[],[]
participant_3_UNDO,[],[],[],[],[],[],[],[],[],[],[],[],[],[],[],[],[],[],[],[],[],[],[],[],[],[],[],[],[],[],[],[],[],[],[],[],[],"[[0, 1026]]",[],[],[]
participant_4_GOLD,500,500,523,752,908,1126,1261,1395,1756,2004,2331,2551,2899,3155,3456,3866,4006,4147,4312,4724,4973,5188,5399,5540,5681,5919,6060,6685,6835,7080,7460,7676,7816,8051,8192,8390,8580,8831,9088,9457,9497
participant_4_CURRENTGOLD,500,0,23,252,408,626,61,195,556,404,731,201,549,805,1106,66,206,47,212,624,423,639,849,640,381,619,760,285,436,680,1060,1276,366,202,342,540,730,982,1238,1607,1647
participant_4_LEVEL,1,1,1,2,3,4,4,4,5,5,6,6,7,7,8,8,8,8,9,9,9,10,10,10,10,10,10,12,12,12,13,13,13,14,14,15,15,15,15,16,16
participant_4_MINIONSKILLED,0,0,0,3,4,6,6,6,7,10,12,12,13,15,16,17,17,17,17,20,21,21,25,25,25,25,25,25,25,25,25,25,25,25,25,25,25,25,25,26,26
participant_4_KILLS,0,0,0,0,0,0,0,0,0,0,0,0,0,0,0,1,1,1,1,1,1,1,1,1,1,1,1,2,2,2,2,2,2,2,2,2,2,2,2,2,2
participant_4_BUY,[],"[3858, 3340, 2003, 2003]",[],[],[],[],"[1028, 1029]",[],[],[3067],[],"[1033, 1001]",[],[],[],"[3364, 3190, 1029]",[],[1029],[],[],[1033],[],[],[3111],[3082],[],[],"[3067, 1029]",[],[],[],[],"[3143, 1033]",[1028],[],[],[],[],[],[],[]
participant_4_SOLD,[],[],[],[],[],[],[],"[2003, 2003]",[],[1028],[3858],[],[],[],[],"[3340, 3067, 1033, 1029]",[],[],[],[],[3859],[],[],"[1001, 1033]","[1029, 1029]",[],[],[],[],[],[],[],"[3082, 1029, 3067]",[],[],[],[],[],[],[],[]
participant_4_UNDO,[],[],[],[],[],[],[],[],[],[],[],[],[],[],[],[],[],[],[],[],[],[],[],[],[],[],[],[],[],[],[],[],[],[],[],[],[],[],[],[],[]
participant_5_GOLD,500,500,983,1245,1417,1693,1872,2284,2761,3233,3425,3770,4644,5467,5785,6126,6473,6910,7220,7664,7814,7937,8268,8829,9008,9130,9684,10101,10375,10628,11303,11425,12690,13432,13812,14133,14728,14907,15523,15645,15680
participant_5_CURRENTGOLD,500,0,483,745,167,443,622,1034,1511,1983,325,270,1144,67,385,726,153,590,167,611,761,534,315,776,255,77,632,148,423,575,1251,173,1437,1120,600,921,416,594,811,233,47
participant_5_LEVEL,1,1,1,3,4,5,6,6,7,8,8,9,9,10,10,10,11,11,12,12,12,12,12,13,13,13,14,14,14,14,15,15,16,17,17,17,17,17,18,18,18
participant_5_MINIONSKILLED,0,0,2,10,13,22,25,39,47,58,62,72,83,88,95,95,104,112,118,132,134,134,142,144,147,147,164,164,165,167,186,186,198,198,208,212,217,221,227,227,227
participant_5_KILLS,0,0,0,0,0,0,0,0,2,2,2,2,3,3,3,3,3,3,3,3,3,3,3,3,3,4,4,4,4,4,4,4,4,4,4,4,4,4,4,4,4
participant_5_BUY,[],"[1039, 1035, 2031]",[],[],[],"[3051, 2055, 2055, 3364]",[],[],[],[],[],"[3078, 2055]",[],"[1001, 1029, 1029, 2055]",[],[],[],[3047],"[1031, 1028, 2055]",[],[],[],[],[3742],"[1028, 2055, 2055]",[],[],[3044],[1028],[],[],[1037],[],[],"[3053, 1057, 2055, 2055]",[1028],[],[],[],[],[]
participant_5_SOLD,[],[],[],[],[],[3340],[],"[2055, 2055]",[],[1035],[],[3051],[2055],[],[],[],[],"[2055, 1001, 1029]",[1029],[],[],[],[2055],"[1028, 1031]",[2055],[2055],[],[1028],[],[],[],[2031],[],[],"[1037, 3044, 1028]","[2055, 2055]",[],[],[],[],[]
participant_5_UNDO,[],"[[0, 1039]]",[],[],[],[],[],[],[],[],[],[],[],[],[],[],[],[],[],[],[],[],[],[],[],[],[],[],[],[],[],[],[],[],[],[],[],[],[],[],[]
participant_6_GOLD,500,500,621,1018,1434,1791,2093,2265,3150,3733,4040,4162,4925,5182,5410,5532,6159,6482,6794,7107,7436,8004,8546,8805,8937,9524,9782,10004,10226,10558,11095,11321,11664,12351,12599,12978,13100,13222,13345,13467,13802
participant_6_CURRENTGOLD,500,0,121,518,934,41,343,515,1400,1983,2290,104,867,149,377,499,1126,949,286,599,928,1496,2038,597,180,766,1024,546,369,700,1237,649,991,1679,152,130,253,375,498,620,894
participant_6_LEVEL,1,1,2,3,4,4,5,5,6,7,7,7,8,8,8,8,9,10,10,11,11,11,12,12,12,13,13,13,13,14,14,14,15,16,16,16,16,16,16,16,16
participant_6_MINIONSKILLED,0,0,0,0,3,3,4,7,7,7,7,7,9,9,9,9,9,9,9,9,13,13,13,13,14,16,16,16,16,18,18,20,20,20,21,24,24,24,24,24,24
participant_6_KILLS,0,0,1,1,1,1,1,1,1,1,1,1,1,1,1,1,1,1,1,1,1,1,1,1,1,1,1,2,2,2,2,2,3,4,4,4,5,5,6,6,6
participant_6_BUY,[],"[1055, 2003, 3340]",[],[],"[1036, 1028]",[],[],[],[],[],"[3077, 1001, 1036]",[3133],[],"[3111, 3051]",[],[],"[3067, 3057]",[],[3078],[],[],[1036],[1053],[3074],"[1036, 1036]",[1029],[],"[3133, 1031]",[],"[2003, 2003]",[],[6333],[],[3051],[1057],[],[3091],[],[1028],[3044],[]
participant_6_SOLD,[],[],[2003],[],[],[],[],[],[],[],[],"[1036, 1036]",[],[1001],[],[3340],"[1028, 1055]",[3513],"[3057, 3051, 3067]",[],[],[],[1036],"[3077, 1053, 3133]",[],[],[],"[1036, 1036, 1029]",[],[],[],"[1031, 3133]",[],"[2003, 2003]",[],[],"[3051, 1057]",[],[],[1028],[]
participant_6_UNDO,[],[],[],[],[],[],[],[],[],[],[],[],[],[],[],[],[],[],[],[],[],[],[],[],[],[],[],[],[],[],[],[],[],[],[],[],[],[],[],[],[]
participant_7_GOLD,500,500,612,906,1427,1696,2025,2603,2796,3437,3728,3906,4263,4736,4921,5072,5449,6323,6578,6784,7319,7469,7710,9398,9696,10453,10677,10931,11213,12278,12899,13021,13618,14382,14505,14740,15036,15264,15834,16262,16297
participant_7_CURRENTGOLD,500,0,112,396,917,126,445,1023,181,812,1103,416,763,1236,371,522,899,973,378,584,1119,29,270,1958,1006,514,737,991,1274,1088,620,742,1338,803,25,261,557,784,1355,1783,1647
participant_7_LEVEL,1,1,1,3,4,5,6,7,7,8,8,9,9,9,10,10,11,11,11,11,12,12,12,13,13,14,14,14,14,15,15,15,15,16,16,16,16,17,18,18,18
participant_7_MINIONSKILLED,0,0,5,12,18,24,33,44,49,59,69,73,81,89,93,95,106,111,114,119,126,128,136,137,143,145,151,155,160,163,166,166,173,175,175,179,185,191,197,207,207
participant_7_KILLS,0,0,0,0,1,1,1,2,2,3,3,3,3,3,3,3,3,4,4,4,5,5,5,8,8,9,9,9,9,10,11,11,12,13,13,13,13,13,14,14,14
participant_7_BUY,[],"[1056, 2003, 2003, 3340]",[],[],[],"[3108, 2031]",[],[],"[3191, 1001, 1052, 1029]",[],[],[3157],[],[],[3145],[],[],[3020],[1026],[],[],[3152],[],[],[4630],[3135],[],[],[],[1058],[1058],[],[],[3089],[3108],[],[],[],[],[],[]
participant_7_SOLD,[],[],[],[],"[2003, 2003]",[],[],[],[],[],[],"[1052, 1029, 3108]",[],[],[],[],[],[1001],[],[],[],"[2031, 3145, 1026]",[],[],[],[4630],[],[],[],[],[1056],[],[],"[1058, 1058]",[],[],[],[],[],[],[]
participant_7_UNDO,[],[],[],[],[],[],[],[],"[[0, 3191]]",[],[],[],[],[],[],[],[],[],[],[],[],[],[],[],[],[],[],[],[],[],[],[],[],[],[],[],[],[],[],[],[]
participant_8_GOLD,500,500,565,789,1133,1333,1575,1754,1987,2229,2410,2578,2796,3020,3187,3309,3592,3778,4220,4535,4822,5049,5329,5984,6129,6445,6568,6712,6956,7173,7325,7879,8096,8589,8711,8883,9150,9272,9547,9670,9779
participant_8_CURRENTGOLD,500,0,65,289,633,833,375,554,187,429,610,178,396,320,187,309,592,178,620,935,322,549,829,1484,129,445,568,112,356,573,125,679,896,289,411,583,850,97,373,495,604
participant_8_LEVEL,1,1,1,2,3,3,4,5,5,6,7,7,7,7,8,8,8,8,9,9,9,10,10,11,11,11,11,11,12,12,12,13,13,14,14,14,14,14,15,15,15
participant_8_MINIONSKILLED,0,0,2,8,18,20,24,27,29,36,39,42,47,50,52,52,61,62,76,83,84,90,95,104,105,107,107,108,111,111,113,118,118,118,118,118,121,121,126,126,126
participant_8_KILLS,0,0,0,0,0,0,0,0,0,0,0,0,0,0,0,0,0,0,0,0,0,0,0,0,0,0,0,0,0,0,0,0,0,0,0,0,0,0,0,0,0
participant_8_BUY,[],"[1083, 2003, 3340]",[],[],[],[],"[1036, 1036]",[],[6670],[],[],"[1042, 1042, 1018]",[],[1042],[3086],[],[],"[1042, 1042]",[],[],[3046],[],[],[],"[1053, 1018]",[],[],[6673],[],[],[1018],[],[],[3134],[],[],[],[1037],[],[],[]
participant_8_SOLD,[],[],[],[2003],[],[],[],[],"[1036, 1036]",[],[],[],[],[],"[1018, 1042]",[],[],[],[],[],"[1042, 3086, 1042]",[],[],[],[],[],[],"[6670, 1018, 1053]",[],[],[],[],[],[],[],[],[],[],[],[],[]
participant_8_UNDO,[],[],[],[],[],[],[],[],[],[],[],"[[0, 1042], [0, 1042]]",[],[],[],[],[],[],[],[],[],[],[],[],[],[],[],[],[],[],[],[],[],[],[],[],[],[],[],[],[]
participant_9_GOLD,500,500,523,699,922,1189,1373,1542,1792,1927,2061,2196,2330,2556,2821,2990,3181,3365,3546,3811,3972,5433,5698,6080,6220,6361,6541,6681,6822,6962,8248,8402,8700,9241,9381,9572,9807,9947,10452,10665,12025
participant_9_CURRENTGOLD,500,500,23,199,422,689,173,342,592,727,36,171,305,531,796,65,256,440,621,886,1047,1658,648,1030,70,211,391,181,322,62,298,102,400,191,331,447,232,372,877,240,1600
participant_9_LEVEL,1,1,1,2,3,3,4,4,5,5,5,5,5,6,6,7,7,7,8,8,9,9,10,10,10,10,10,11,11,11,12,12,13,13,13,13,14,14,15,15,16
participant_9_MINIONSKILLED,0,0,0,2,5,10,13,15,16,16,16,16,16,18,22,24,27,27,29,32,33,33,36,36,36,36,37,37,37,37,37,38,41,42,42,42,42,42,45,49,49
participant_9_KILLS,0,0,0,0,0,0,0,0,0,0,0,0,0,0,0,0,0,0,0,0,0,1,1,1,1,1,1,1,1,1,2,2,2,2,2,2,2,2,2,2,3
participant_9_BUY,[],"[1055, 2003, 3340]","[3854, 2003, 2003, 3340]",[],[],[],"[1036, 1036]",[],[],[],"[3134, 1036, 2055]",[],[],[],[],"[1053, 1036]",[],[],[],[],[],[6692],"[3047, 2003, 2003, 2055]",[],[3134],[],[],[1036],[],[1028],[3814],[1036],[],"[1036, 3133]",[],"[2055, 3364]",[1033],[],[],[3155],[]
participant_9_SOLD,[],[],[],[],[],[],[],"[2003, 2003]",[],[],"[1036, 1036]",[],[],[2055],[],[1036],[],[],[3854],[],[],"[3400, 3134, 1036, 1053]",[],[],[],[2003],"[2003, 2055]",[],[],[3855],"[1036, 3134, 1028]",[],[],"[1036, 1036]",[],"[3340, 2055]",[],[],[],[1033],[]
participant_9_UNDO,[],"[[3340, 0], [0, 2003], [0, 1055]]",[],[],[],[],[],[],[],[],[],[],[],[],[],[],[],[],[],[],[],[],[],[],[],[],[],[],[],[],[],[],[],[],[],[],[],[],[],[],[]
team0_KILLS,0,0,0,0,0,1,1,1,2,2,3,5,6,8,8,11,11,15,17,17,19,23,23,27,27,29,29,34,34,37,40,41,41,43,45,49,49,51,52,56,56
team0_CURRENTGOLD,2500,0,396,1751,2481,4170,2054,2344,3097,1919,3655,1580,3211,3424,5368,4432,2041,3072,4416,4525,5158,3907,2799,4336,2664,3030,3835,5645,6605,6197,7434,5810,3230,4286,3820,6756,6387,7984,3984,6687,5332
team0_TOTALGOLD,2500,2500,2896,4251,5476,7175,8169,9294,10957,12114,13850,16565,18196,20084,22038,24627,25786,28142,30086,31920,34144,36210,37454,40141,41708,43949,44754,47664,49074,51090,54353,56053,57362,59518,61552,64487,66295,68790,70701,73404,73632
team0_LEVEL,5,5,6,12,16,21,22,25,29,30,35,37,40,41,44,47,48,51,55,55,57,60,60,63,64,66,66,70,71,73,74,76,76,77,81,82,83,84,85,87,87
team0_SBIRES,0,0,7,30,48,74,92,106,126,142,169,189,209,237,270,297,307,329,342,368,391,398,407,428,455,481,487,499,507,521,538,549,561,565,576,594,612,623,636,648,648
team1_KILLS,0,0,1,1,2,2,2,3,5,6,6,6,7,7,7,7,7,8,8,8,9,10,10,13,13,15,15,16,16,17,19,19,21,23,23,23,24,24,26,26,27
team1_CURRENTGOLD,2500,500,804,2147,3073,2132,1958,3468,3871,5934,4364,1139,3475,2303,2116,2121,3026,3130,2072,3615,4177,4266,4100,5845,1640,2013,3352,1978,2744,2998,3531,2345,5062,4082,1519,2342,2308,2222,3914,3371,4792
team1_TOTALGOLD,2500,2500,3304,4657,6333,7702,8938,10448,12486,14559,15664,16612,18958,20961,22124,23029,24854,26858,28358,29901,31363,33892,35551,39096,39990,41913,43252,44429,45592,47599,50870,52048,54768,57995,59008,60306,61821,62612,64701,65709,67583
team1_LEVEL,5,5,6,13,18,20,25,27,30,34,35,37,38,40,42,43,46,47,50,51,53,54,56,59,59,61,62,63,64,66,68,69,72,76,76,76,77,78,82,82,83
team1_SBIRES,0,0,9,32,57,79,99,132,148,176,193,210,236,254,271,275,307,321,346,375,390,398,422,434,445,451,475,480,489,496,520,528,550,553,564,575,589,599,619,633,633
delta_KILLS,0,0,-1,-1,-2,-1,-1,-2,-3,-4,-3,-1,-1,1,1,4,4,7,9,9,10,13,13,14,14,14,14,18,18,20,21,22,20,20,22,26,25,27,26,30,29
delta_CURRENTGOLD,0,-500,-408,-396,-592,2038,96,-1124,-774,-4015,-709,441,-264,1121,3252,2311,-985,-58,2344,910,981,-359,-1301,-1509,1024,1017,483,3667,3861,3199,3903,3465,-1832,204,2301,4414,4079,5762,70,3316,540
delta_TOTALGOLD,0,0,-408,-406,-857,-527,-769,-1154,-1529,-2445,-1814,-47,-762,-877,-86,1598,932,1284,1728,2019,2781,2318,1903,1045,1718,2036,1502,3235,3482,3491,3483,4005,2594,1523,2544,4181,4474,6178,6000,7695,6049
delta_LEVEL,0,0,0,-1,-2,1,-3,-2,-1,-4,0,0,2,1,2,4,2,4,5,4,4,6,4,4,5,5,4,7,7,7,6,7,4,1,5,6,6,6,3,5,4
delta_SBIRES,0,0,-2,-2,-9,-5,-7,-26,-22,-34,-24,-21,-27,-17,-1,22,0,8,-4,-7,1,0,-15,-6,10,30,12,19,18,25,18,21,11,12,12,19,23,24,17,15,15
