name,frame_0,frame_1,frame_2,frame_3,frame_4,frame_5,frame_6,frame_7,frame_8,frame_9,frame_10,frame_11,frame_12,frame_13,frame_14,frame_15,frame_16,frame_17,frame_18,frame_19,frame_20,frame_21,frame_22,frame_23
nameStamp,Tstart,Tearly,Tearly,Tearly,Tearly,Tearly,Tearly,Tearly,Tearly,Tearly,Tearly,Tearly,Tearly,Tearly,Tearly,Tmid,Tmid,Tmid,Tmid,Tmid,Tmid,Tmid,Tmid,Tmid
timestamp,0,60013,120023,180036,240049,300065,360085,420093,480113,540127,600144,660151,720174,780188,840206,900225,960241,1020257,1080265,1140284,1200293,1260306,1320316,1380318
participant_0_GOLD,500,500,565,793,1111,1328,1542,2114,2429,2886,3291,3636,4109,4460,4583,4838,5377,5499,6277,6547,6781,7279,7750,8242
participant_0_CURRENTGOLD,500,0,65,293,311,528,742,189,504,961,1366,386,859,1210,233,488,1027,46,824,1094,1328,526,197,339
participant_0_LEVEL,1,1,1,2,4,5,6,7,7,8,9,9,10,10,10,11,11,11,12,12,12,12,13,13
participant_0_MINIONSKILLED,0,0,2,8,16,21,26,26,33,42,48,56,69,77,77,83,92,92,104,111,116,116,128,142
participant_0_KILLS,0,0,0,0,0,1,1,1,1,2,2,3,3,4,5,5,5,5,5,5,5,5,5,5
participant_0_BUY,[],"[2031, 3340, 1041]",[],[],[],[],"[3133, 1001, 2055]",[],[],[],"[1400, 1028]",[],[],"[3111, 3044, 3364]",[],[],"[3057, 1033]",[],[],[],[],[3078],[],"[1028, 2055, 2055]"
participant_0_SOLD,[],[],[],[],[],[],[],[],[2055],[],"[3133, 1041]",[],[],"[1001, 1028, 3340]",[],"[3364, 3513]",[],[],[],[],[],"[2031, 3057, 3044]",[],[]
participant_0_UNDO,[],[],[],[],[],[],[],[],[],[],[],[],[],[],[],[],[],[],[],[],[],[],[],[]
participant_1_GOLD,500,500,620,1018,1318,1960,2178,2510,2837,3548,3805,4354,4746,5234,6147,6469,6902,7080,7210,7723,8080,8293,8635,8757
participant_1_CURRENTGOLD,500,0,120,518,818,1460,203,535,862,1573,255,804,1196,34,947,1269,202,380,510,1023,1380,220,562,134
participant_1_LEVEL,1,1,2,3,4,4,5,5,6,7,7,8,8,9,10,10,11,11,11,12,12,12,13,13
participant_1_MINIONSKILLED,0,0,0,0,0,0,0,0,0,0,0,1,2,3,15,15,15,18,18,19,19,20,20,20
participant_1_KILLS,0,0,0,0,0,0,0,0,0,0,1,1,1,1,1,1,1,1,1,1,1,1,1,1
participant_1_BUY,[],"[3862, 3340, 2003, 2003]",[],[],[],[],"[1036, 1036, 2031]",[],[],[],"[3134, 1036, 3364]",[],[],[],[3179],[],"[1029, 1001]",[],[1031],[],[],[],[1038],[]
participant_1_SOLD,[],[],[],[],"[2003, 2003, 2010]",[2010],[],[],[],[],"[3862, 1036, 1036, 3340, 2419]",[],"[2423, 2010]",[],"[3134, 1036]",[],[],[],[1029],[],[3863],[],[2031],[]
participant_1_UNDO,[],[],[],[],[],[],[],[],[],[],[],[],[],[],[],[],[],[],[],[],[],[],[],[]
participant_2_GOLD,500,500,611,930,1288,1648,1897,2410,2755,3540,4056,4326,4798,5179,5643,5940,6326,6448,6570,6714,7523,7660,7796,7918
participant_2_CURRENTGOLD,500,0,111,430,788,23,272,435,780,1565,2081,276,313,694,1158,1455,1841,798,920,264,223,360,496,618
participant_2_LEVEL,1,1,1,3,4,5,6,6,7,8,8,9,9,10,10,10,11,11,11,11,12,12,12,12
participant_2_MINIONSKILLED,0,0,5,16,27,41,48,54,64,73,79,88,88,104,113,123,131,131,131,132,141,142,143,143
participant_2_KILLS,0,0,0,0,0,0,0,1,1,1,1,1,1,1,1,1,1,1,2,2,2,3,3,3
participant_2_BUY,[],"[2033, 3340]",[],[],[1001],[],[],"[3057, 2055]",[],[],[],"[3044, 2055]",[],[],"[3111, 1042]",[],[],"[3101, 3078]",[],[],[],[1038],"[3902, 1018]",[1036]
participant_2_SOLD,[],[],[],[],[],[],[],[],[2055],[],[],[],[],[],[1001],[],[],"[1042, 2055, 3101, 3057, 3044]",[],[],[],[],[3902],[]
participant_2_UNDO,[],[],[],[],[],[],[],[],[],[],[],[],[],[],[],[],[],[],[],[],[],[],[],[]
participant_3_GOLD,500,500,625,983,1106,1846,2025,2385,2647,2945,3252,3639,4200,4539,4662,5057,5314,5893,6223,6541,6928,8204,8465,8671
participant_3_CURRENTGOLD,500,0,125,483,606,1346,175,535,797,1095,177,564,60,399,172,567,24,603,133,451,838,314,225,431
participant_3_LEVEL,1,1,1,2,2,4,4,5,6,6,7,7,7,8,8,9,9,10,10,10,11,11,12,12
participant_3_MINIONSKILLED,0,0,6,17,17,29,32,46,54,64,66,78,85,98,98,110,115,133,141,148,160,167,171,176
participant_3_KILLS,0,0,0,0,0,0,0,1,1,2,3,3,4,4,4,4,4,4,4,4,5,5,5,5
participant_3_BUY,[],"[1001, 2003, 2003, 2003, 2003, 3340]",[],[],[],"[3145, 2055]",[],[1036],[],[],[],"[3146, 2055]",[1052],[],[],[],[],[3916],[],[3020],[1026],[],[],[]
participant_3_SOLD,[],[],[],[],"[2003, 2003]",[],"[2003, 2003]",[],[2055],[],[],"[1036, 3145, 2055]",[],[],[],[],[],[1052],[],[1001],[],[],[],[]
participant_3_UNDO,[],[],[],[],[],[],[],[],[],[],[],[],[],[],[],[],[],[],[],[],[],[],[],[]
participant_4_GOLD,500,500,543,735,960,1313,1478,1678,1827,2058,2512,2697,2984,3241,3427,3595,3848,4094,4354,4533,4872,5249,5502,5673
participant_4_CURRENTGOLD,500,0,43,235,460,813,128,328,477,708,412,597,884,1141,377,545,198,444,204,383,722,1099,113,283
participant_4_LEVEL,1,1,1,2,2,4,4,4,4,5,5,6,6,7,7,7,7,7,8,8,9,10,10,10
participant_4_MINIONSKILLED,0,0,0,0,0,0,0,0,0,0,0,1,1,1,1,2,4,6,6,7,8,8,13,14
participant_4_KILLS,0,0,0,0,0,1,1,1,1,1,1,1,2,2,2,2,2,2,2,2,2,3,3,3
participant_4_BUY,[],"[3340, 2003, 1055]",[],[],[],[],"[1038, 2003]",[],[],[],"[1037, 1001, 2003]",[],"[3031, 2003]",[],"[1001, 2003]",[],[3006],[],[1018],[],[],"[3086, 1042, 3094]","[1042, 2003]",[]
participant_4_SOLD,[],[],[],[],[2003],[],[],[],[2003],[],[],[],"[2003, 1001, 1038, 1037]",[2003],[],[2003],[1001],[],[],[],[],"[1018, 3086, 1042]",[],[]
participant_4_UNDO,[],[],[],[],[],[],[],[],[],[],[],[],[],[],[],[],[],[],[],[],[],[],[],[]
participant_5_GOLD,500,500,583,1098,1283,1622,1948,2540,2900,3569,3882,4206,4433,4865,5642,5764,6113,6340,7411,7645,8521,9458,9580,10146
participant_5_CURRENTGOLD,500,0,83,598,48,387,713,55,415,1084,47,371,198,630,442,64,413,640,1711,270,1146,2083,686,1251
participant_5_LEVEL,1,1,1,3,3,4,5,6,7,8,8,9,9,9,10,10,11,11,12,12,13,13,13,14
participant_5_MINIONSKILLED,0,0,3,13,17,27,39,45,56,61,69,78,84,99,105,105,110,116,120,127,145,145,145,149
participant_5_KILLS,0,0,0,1,1,1,1,1,1,1,1,1,1,1,1,1,1,1,1,1,1,2,2,4
participant_5_BUY,[],"[1041, 2031, 3340]",[],[],[],[],"[3715, 1036, 1036, 2055]",[],[],[],[1412],[1001],[1028],[],[],[],"[3044, 1028, 2055]",[],[3047],[],[],[],"[3071, 1028, 2055]",[]
participant_5_SOLD,[],[],[],[],[],[],[1041],[2055],[],[],"[1036, 1036, 3715]",[],[],[],[],[],[1028],[],"[2031, 1001]",[],[2055],[],"[3044, 1028]",[]
participant_5_UNDO,[],[],[],[],[],[],[],[],[],[],[],[],[],[],[],[],[],[],[],[],[],[],[],[]
participant_6_GOLD,500,500,620,1368,1592,1775,2068,2300,2627,2950,3130,3443,3615,3907,4180,4628,4941,5444,5725,6122,6583,7245,7494,8518
participant_6_CURRENTGOLD,500,0,120,868,1092,1275,143,375,702,1025,280,293,65,357,630,1078,66,569,110,507,968,1630,54,1078
participant_6_LEVEL,1,1,2,3,4,4,4,5,5,6,6,7,7,7,8,8,9,10,10,10,11,11,11,12
participant_6_MINIONSKILLED,0,0,0,0,0,0,0,0,0,0,3,3,3,3,3,3,3,4,4,4,9,9,9,11
participant_6_KILLS,0,0,0,0,0,0,0,1,1,2,2,2,2,2,3,3,3,3,6,6,6,8,8,9
participant_6_BUY,[],"[3340, 1054, 2003]",[],[],"[1001, 1052]",[],[],"[1026, 1028]",[],[],"[3116, 1052]",[],[1028],[],"[3136, 1029]",[3047],[],[],[],"[3151, 2055]",[],[],"[3191, 2420]",[]
participant_6_SOLD,[],[],[],[2003],[],[],[],[],[],[],"[1026, 1052, 1028]",[],[],[],"[1028, 1052]","[1001, 1029]",[],[],[],[3136],[],[],[1054],[]
participant_6_UNDO,[],[],[],[],[],[],[],[],[],[],[],[],[],[],[],[],[],[],[],[],[],[],[],[]
participant_7_GOLD,500,500,569,927,1155,1466,1778,2291,2946,3152,3596,3823,4295,4418,4776,5151,6076,6372,7004,7463,7636,8627,8968,9501
participant_7_CURRENTGOLD,500,0,69,427,655,166,478,206,861,102,546,423,895,1018,326,701,1626,322,954,1413,186,1177,268,801
participant_7_LEVEL,1,1,1,3,4,5,6,7,7,8,8,8,9,9,9,10,10,11,12,12,12,13,13,14
participant_7_MINIONSKILLED,0,0,3,14,20,29,40,45,57,62,71,77,77,77,84,95,111,117,130,140,140,158,166,166
participant_7_KILLS,0,0,0,0,0,0,1,1,1,2,2,2,3,3,5,5,5,9,9,9,10,10,10,11
participant_7_BUY,[],"[1055, 2003, 3340]",[],[],[],"[1001, 1042]",[],"[1037, 2003]",[],[],"[1038, 2003]",[],[],"[3031, 3006, 2003]",[],"[3086, 1042]",[],[],"[3085, 3086, 3086]",[],[],[3094],[3035],[]
participant_7_SOLD,[],[],[],[],[],[],[2003],[],[2003],[],[],[],[2003],"[1038, 1037, 1001, 1042]",[],[],[],[],"[1042, 3086]",[],[],[3086],[1055],[]
participant_7_UNDO,[],[],[],[],[],[],[],[],[],[],[],[],[],[],[],[],[],[],"[[0, 3086]]",[],[],[],[],[]
participant_8_GOLD,500,500,562,818,1099,1242,2144,2357,2826,3402,3730,4116,5094,5448,6991,7219,7764,9448,9718,10108,10916,11607,12048,13057
participant_8_CURRENTGOLD,500,0,62,318,599,142,1044,332,801,1377,355,741,1719,298,1841,369,914,2598,568,958,1766,1257,428,1438
participant_8_LEVEL,1,1,1,2,3,3,5,5,6,6,7,7,8,8,9,9,10,11,11,12,12,13,13,14
participant_8_MINIONSKILLED,0,0,2,9,16,17,34,39,51,60,62,75,77,87,100,106,123,137,138,149,157,162,172,181
participant_8_KILLS,0,0,0,0,0,0,0,1,2,2,2,2,3,3,3,3,4,4,4,4,4,4,4,5
participant_8_BUY,[],"[1027, 2031, 3340]",[],[],[],"[3070, 1001]",[],"[1052, 1027]",[],"[3802, 1033]",[],[3111],[],[],[3003],[],[],[3916],[],[],[3165],[],[1058],[]
participant_8_SOLD,[],[],[],[],[],"[2403, 1027]",[],[],[],"[2403, 1052, 1027]",[2403],"[1001, 1033]",[],[],"[3070, 3802]",[],[],[],[],[3003],[3916],[],[],[]
participant_8_UNDO,[],[],[],[],[],[],[],[],[],[],[],[],[],[],[],[],[],[],[],[],[],[],[],[]
participant_9_GOLD,500,500,543,713,929,1126,1369,1517,1810,2136,2655,2888,3153,3336,4248,4388,4637,5094,5636,5786,6094,6638,6788,7339
participant_9_CURRENTGOLD,500,0,43,213,429,626,269,417,710,1036,155,388,153,336,1248,238,487,944,386,536,844,1388,363,915
participant_9_LEVEL,1,1,1,2,3,4,4,5,5,6,6,7,7,8,8,8,9,10,10,10,11,11,12,12
participant_9_MINIONSKILLED,0,0,1,3,5,8,11,12,14,16,21,23,23,25,27,27,29,30,31,32,34,36,36,37
participant_9_KILLS,0,0,0,0,0,0,0,0,0,0,1,1,1,1,1,1,1,1,1,1,1,1,1,1
participant_9_BUY,[],"[3858, 2003, 2003, 3340]",[],[],[],[],"[1001, 1029]",[],[],[],"[3047, 1033, 1029, 2055, 2055]",[],"[3105, 2055, 2055, 3364]",[],[],[3050],[],[],[3105],[],[],[],"[3190, 2055]",[]
participant_9_SOLD,[],[],[],[],[],[2010],[],[2003],[],"[2010, 2003, 2010]","[1001, 1029]","[3858, 2055]","[2055, 1033, 1029, 3340]",[2055],[],[3105],[],[],[],[],[3859],[],[3105],[]
participant_9_UNDO,[],[],[],[],[],[],[],[],[],[],[],[],[],[],[],[],[],[],[],[],[],[],[],[]
team0_KILLS,0,0,0,0,0,2,2,4,4,6,8,9,11,12,13,13,13,13,14,14,15,17,17,17
team0_CURRENTGOLD,2500,0,464,1959,2983,4170,1520,2022,3420,5902,4291,2627,3312,3478,2887,4324,3292,2271,2591,3215,4491,2519,1593,1805
team0_TOTALGOLD,2500,2500,2964,4459,5783,8095,9120,11097,12495,14977,16916,18652,20837,22653,24462,25899,27767,29014,30634,32058,34184,36685,38148,39261
team0_LEVEL,5,5,6,12,16,22,25,27,30,34,36,39,40,44,45,47,49,50,52,53,56,57,60,60
team0_SBIRES,0,0,13,41,60,91,106,126,151,179,193,224,245,283,304,333,357,380,400,417,444,453,475,495
team1_KILLS,0,0,0,1,1,1,2,4,5,7,8,8,10,10,13,13,14,18,21,21,22,25,25,30
team1_CURRENTGOLD,2500,0,377,2424,2823,2596,2647,1385,3489,4624,1383,2216,3030,2639,4487,2450,3506,5073,3729,3684,4910,7535,1799,5483
team1_TOTALGOLD,2500,2500,2877,4924,6058,7231,9307,11005,13109,15209,16993,18476,20590,21974,25837,27150,29531,32698,35494,37124,39750,43575,44878,48561
team1_LEVEL,5,5,6,13,17,20,24,28,30,34,35,38,40,41,44,45,49,53,55,56,59,61,62,66
team1_SBIRES,0,0,9,39,58,81,124,141,178,199,226,256,264,291,319,336,376,404,423,452,485,510,528,544
delta_KILLS,0,0,0,-1,-1,1,0,0,-1,-1,0,1,1,2,0,0,-1,-5,-7,-7,-7,-8,-8,-13
delta_CURRENTGOLD,0,0,87,-465,160,1574,-1127,637,-69,1278,2908,411,282,839,-1600,1874,-214,-2802,-1138,-469,-419,-5016,-206,-3678
delta_TOTALGOLD,0,0,87,-465,-275,864,-187,92,-614,-232,-77,176,247,679,-1375,-1251,-1764,-3684,-4860,-5066,-5566,-6890,-6730,-9300
delta_LEVEL,0,0,0,-1,-1,2,1,-1,0,0,1,1,0,3,1,2,0,-3,-3,-3,-3,-4,-2,-6
delta_SBIRES,0,0,4,2,2,10,-18,-15,-27,-20,-33,-32,-19,-8,-15,-3,-19,-24,-23,-35,-41,-57,-53,-49
