name,frame_0,frame_1,frame_2,frame_3,frame_4,frame_5,frame_6,frame_7,frame_8,frame_9,frame_10,frame_11,frame_12,frame_13,frame_14,frame_15,frame_16,frame_17,frame_18,frame_19,frame_20,frame_21,frame_22,frame_23,frame_24
nameStamp,Tstart,Tearly,Tearly,Tearly,Tearly,Tearly,Tearly,Tearly,Tearly,Tearly,Tearly,Tmid,Tmid,Tmid,Tmid,Tmid,Tmid,Tmid,Tmid,Tmid,Tmid,Tmid,Tmid,Tmid,Tmid
timestamp,0,60013,120031,180057,240065,300089,360103,420120,480139,540160,600186,660198,720215,780224,840244,900257,960269,1020293,1080305,1140322,1200330,1260342,1320361,1380377,1440377
participant_0_GOLD,1400,1415,1863,2562,3262,3661,4193,5081,6044,6524,7008,7563,8194,8607,9014,9460,10200,10692,11075,11783,12143,12703,13063,13663,13948
participant_0_CURRENTGOLD,1400,15,463,1162,87,486,1018,481,244,424,608,263,544,407,814,1260,100,592,375,383,343,603,463,1063,148
participant_0_LEVEL,1,3,4,5,6,7,8,8,9,10,11,11,11,13,13,14,14,15,15,17,17,17,18,18,18
participant_0_MINIONSKILLED,0,0,4,5,9,10,12,13,16,16,20,20,23,24,25,26,26,27,28,32,32,35,35,35,35
participant_0_KILLS,0,0,0,1,2,2,2,3,5,5,5,5,6,6,6,6,8,8,8,9,9,9,9,9,9
participant_0_BUY,[],"[6670, 2003, 2003]",[],[],"[1018, 1037, 1001]",[],[],"[6672, 3111]","[1042, 3086]",[1042],[1042],[3046],[1036],[1053],[],[],"[1038, 1018]",[],[3072],"[1036, 1036]",[3133],[1029],[1031],[],[6333]
participant_0_SOLD,[],[],[],"[2003, 2003, 2052]",[],[],[],"[6670, 1018, 1037, 1001]",[1042],[],[],"[1042, 3086, 1042]",[],[1036],[],[],[],[],"[1038, 1018, 1053]",[],"[1036, 1036]",[],[1029],[],"[1031, 3133]"
participant_0_UNDO,[],[],[],[],[],[],[],[],[],[],[],[],[],[],[],[],[],[],[],[],[],[],[],[],[]
participant_1_GOLD,1400,1580,2438,3288,4124,4649,5704,6177,6739,7249,8092,9125,9607,10648,11451,12464,13937,14392,14893,15899,16782,18060,18956,20832,21127
participant_1_CURRENTGOLD,1400,180,1038,588,1124,1049,2104,2577,339,849,892,1925,307,1348,1051,364,1837,157,658,1664,2547,625,1021,2897,2527
participant_1_LEVEL,1,3,4,5,6,7,8,9,10,10,11,12,13,14,15,15,17,17,18,18,18,18,18,18,18
participant_1_MINIONSKILLED,0,0,2,6,8,12,14,15,19,24,27,37,40,44,57,63,85,88,91,110,114,128,135,161,161
participant_1_KILLS,0,1,3,5,6,6,8,8,8,8,9,10,10,12,12,13,15,15,15,15,17,18,19,22,22
participant_1_BUY,[],"[3184, 3070, 2003]",[],[6670],[1001],[1018],[],[],[3072],[],[3006],[],[6672],[],[3133],"[3004, 1018]",[],[3031],[],[],[],"[1053, 1043, 1053, 3153]",[2140],[],[]
participant_1_SOLD,[],[],[],[2003],[],[],[],[],[1018],[],[1001],[],[6670],[],[],"[3070, 3133, 3004]",[],"[3184, 1018]",[],[],[],[1053],[2140],[],[]
participant_1_UNDO,[],[],[],[],[],[],[],[],[],[],[],[],[],[],[],[],[],[],[],[],[],"[[0, 1053], [0, 1043]]",[],[],[]
participant_2_GOLD,1400,1425,2155,2660,3173,3632,4238,4720,5242,5650,6148,6977,7383,7797,8502,9140,9691,10204,10707,11151,11662,12274,12634,13413,13698
participant_2_CURRENTGOLD,1400,25,755,1260,323,482,338,820,342,750,298,1127,293,307,1012,850,251,64,567,1011,722,534,759,238,-202
participant_2_LEVEL,1,3,5,5,6,7,8,9,9,10,11,12,12,13,14,14,15,16,17,17,18,18,18,18,18
participant_2_MINIONSKILLED,0,0,2,2,5,5,6,8,11,11,11,13,13,13,13,14,16,18,19,19,21,24,24,25,25
participant_2_KILLS,0,0,1,1,1,1,1,1,1,1,1,1,1,1,2,3,3,3,3,3,3,3,3,3,3
participant_2_BUY,[],"[2051, 2031, 1001]",[],[],"[6660, 1033]",[1029],[3105],[],"[3068, 1029]",[],"[3047, 1033]",[],"[3024, 3211, 3024, 1028]",[3211],[],[3067],"[3065, 1029]",[3082],[],[],[3110],[3066],[1031],[3742],[]
participant_2_SOLD,[],[],[],[],[],[],"[1033, 1029]",[],"[6660, 3105]",[],"[1001, 1029]",[],"[1033, 2031]","[1028, 1033]",[],[],"[3211, 3067]",[1029],[],[],"[3082, 3024]",[],[2051],"[3066, 1031]",[]
participant_2_UNDO,[],[],[],[],[],[],[],[],[],[],[],[],"[[0, 3024], [0, 3211]]",[],[],[],[],[],[],[],[],[],[],[],[]
participant_3_GOLD,1400,1425,2148,2876,3493,4113,5166,5585,6017,6881,7556,8484,8895,9586,10199,10797,11416,12028,12963,14258,15121,15950,16430,17171,17456
participant_3_CURRENTGOLD,1400,75,798,726,743,363,616,635,252,1116,66,994,305,196,809,207,76,338,873,2168,231,1060,1540,1781,2006
participant_3_LEVEL,1,3,5,5,6,7,8,8,9,10,11,12,12,13,14,15,15,16,17,18,18,18,18,18,18
participant_3_MINIONSKILLED,0,0,4,6,6,8,12,14,14,20,20,23,23,24,26,26,27,28,31,34,35,37,39,41,41
participant_3_KILLS,0,0,1,2,3,4,6,6,6,7,8,9,9,10,10,11,11,12,13,15,16,17,17,17,17
participant_3_BUY,[],"[6029, 2031]",[],[3067],"[3051, 1001]",[6631],[3111],[1028],[1037],[],"[3140, 6035]",[],[3133],[1031],[],[6333],"[1036, 1028]",[3044],[1028],[],"[3053, 3077]",[],[],[2138],[]
participant_3_SOLD,[],[],[],[2052],[],"[6029, 3051]",[1001],[],[2031],[],"[3140, 1037, 1028]",[],[],[],[],"[1031, 3133]",[],"[1028, 1036]",[],[2052],"[3044, 1028]",[],[],[2138],[]
participant_3_UNDO,[],[],[],[],"[[0, 3067]]",[],[],[],[],[],[],[],[],[],[],[],[],[],[],[],[],[],[],[],[]
participant_4_GOLD,1400,1400,1837,2490,3045,3566,4204,4762,5190,5898,6542,7672,8099,9344,10159,10915,11489,12483,13033,13468,14075,14984,15454,16385,16670
participant_4_CURRENTGOLD,1400,0,437,1090,495,1016,1654,2212,590,1298,392,1522,499,1744,2559,3315,439,983,433,868,375,1284,504,1435,1720
participant_4_LEVEL,1,3,4,5,6,7,8,9,10,11,12,13,13,15,15,16,17,18,18,18,18,18,18,18,18
participant_4_MINIONSKILLED,0,0,0,2,3,8,14,19,19,22,23,24,24,27,32,37,37,40,40,40,42,45,47,51,51
participant_4_KILLS,0,0,0,0,0,0,0,0,0,1,2,4,4,5,6,6,6,7,8,8,8,9,9,10,10
participant_4_BUY,[],"[3802, 2003, 2003]",[],[],"[1026, 1001]",[],[],[],"[6655, 3020]",[],"[3057, 3113]",[],[3100],[],[],[],"[3115, 1033]",[1057],[3051],[],[3091],[],[1058],[],[]
participant_4_SOLD,[],[],[2052],[],[],[],[],[],"[3802, 1026, 1001]",[],[],[],"[3057, 3113]",[],[],"[2003, 2003]",[],[1033],[],[],"[3051, 1057]",[],[],[],[]
participant_4_UNDO,[],[],[],[],[],[],[],[],[],[],[],[],[],[],[],[],[],[],[],[],[],[],[],[],[]
participant_5_GOLD,1400,1432,1909,2473,3007,3444,3934,4493,5086,5565,6587,7052,7809,8259,8688,9514,10074,10747,12100,12641,14283,14881,15717,16175,16881
participant_5_CURRENTGOLD,1400,32,409,973,657,44,234,793,486,530,1552,352,59,74,503,1329,124,557,1910,51,1693,1291,1627,385,1031
participant_5_LEVEL,1,3,4,5,6,7,7,8,9,10,11,12,13,14,14,16,16,17,18,18,18,18,18,18,18
participant_5_MINIONSKILLED,0,0,3,7,7,7,8,12,12,15,19,22,23,23,23,30,32,35,42,44,47,49,57,57,59
participant_5_KILLS,0,0,0,0,0,0,0,0,0,0,1,1,1,1,1,2,2,3,5,5,8,8,9,9,10
participant_5_BUY,[],"[4635, 2003, 2003]","[2003, 2003]",[],[1026],[4633],[1001],[],[1011],[1052],[],"[1026, 4637]","[3191, 2031]",[1052],[],[],"[3157, 3158]",[3165],[],"[3157, 3047]",[],[3082],[2139],[3143],[]
participant_5_SOLD,[],[],"[2003, 2003, 2003]",[2003],[],"[4635, 1026]",[],[],[],[],[],"[1026, 1011, 1052]",[],[],[],[],"[3191, 1052, 1001]","[2031, 1052]",[],"[3191, 1001]",[],[],[2139],[3082],[]
participant_5_UNDO,[],[],[],[],[],[],[],[],[],[],[],[],[],[],[],[],[],"[[0, 3158], [0, 3157]]",[],[],[],[],[],[],[]
participant_6_GOLD,1400,1422,1874,2349,2862,3768,4272,4755,5649,6098,6938,7325,7969,8533,9108,9698,10473,10969,11565,11994,12384,12906,13356,13809,14815
participant_6_CURRENTGOLD,1400,22,474,949,512,1418,522,1005,849,498,488,175,819,533,508,198,973,569,465,459,849,556,1006,209,1215
participant_6_LEVEL,1,3,4,5,6,7,8,9,9,10,11,11,12,12,13,13,14,15,16,16,16,17,17,18,18
participant_6_MINIONSKILLED,0,0,1,2,5,7,9,9,9,10,10,11,14,14,15,18,19,22,23,23,23,23,23,23,26
participant_6_KILLS,0,0,0,0,0,2,2,2,4,4,5,5,5,6,7,8,9,9,9,9,9,9,9,9,10
participant_6_BUY,[],"[3112, 1001, 2003, 2003, 2003]",[],[],"[1026, 2003, 2003]",[],"[4635, 2003, 2003]",[],[4633],[3020],[3113],[3057],[],[1026],[3100],[3108],[],[3191],[3157],[1052],[],[4630],[],[3135],[]
participant_6_SOLD,[],[],[2003],"[2003, 2003]",[],"[2003, 2003]",[],[2003],"[4635, 1026]","[1001, 2003]",[],[],[],[],"[3057, 3113, 1026]",[],[],[],"[3191, 3108]",[],[],[1052],[],[4630],[]
participant_6_UNDO,[],[],[],[],[],[],[],[],[],[],[],[],[],[],[],[],[],[],[],[],[],[],[],[],[]
participant_7_GOLD,1400,1432,2024,3202,3805,4425,5075,5606,6345,6872,7766,8136,9670,10128,10618,11169,11838,12787,13411,13828,14828,15517,16477,16910,17527
participant_7_CURRENTGOLD,1400,182,424,1202,355,975,125,656,1395,1922,1216,236,1770,428,918,1469,288,1237,626,1043,843,432,1392,1825,1777
participant_7_LEVEL,1,3,4,5,6,7,8,9,10,10,11,11,13,14,14,15,15,17,18,18,18,18,18,18,18
participant_7_MINIONSKILLED,0,0,0,3,4,5,7,11,14,19,21,21,25,26,26,26,29,30,30,30,35,41,46,46,51
participant_7_KILLS,0,0,1,2,3,3,4,4,5,5,6,6,8,8,8,9,10,11,11,11,13,13,14,14,14
participant_7_BUY,[],"[2051, 1001]",[1036],[1028],"[3044, 3057, 1028]",[],"[6632, 1028]",[],[],[],"[3066, 1031, 1028]","[3742, 1033]",[],"[3111, 3133, 1036]",[],[],[3071],[],"[1031, 3133]",[],[6333],[3044],[],[],[]
participant_7_SOLD,[],[],[],[],"[1028, 1036]",[],"[3044, 3057, 1028]",[],[],[],[1028],"[3066, 1028, 1031]",[],"[1001, 1033]",[],[],"[3133, 1036]",[],[2051],[],"[1031, 3133]",[],[],[],[]
participant_7_UNDO,[],[],[],[],[],[],[],[],[],[],[],[],[],[],[],[],[],[],[],[],[],[],[],[],[]
participant_8_GOLD,1400,1670,2112,2944,3449,4424,5233,5842,6451,6862,7807,8255,9377,9827,10443,10914,11848,12708,13361,14191,14713,15223,16134,16828,17636
participant_8_CURRENTGOLD,1400,270,127,959,699,1674,2483,657,1266,427,122,570,1692,187,803,1274,908,518,1171,2001,323,833,1744,338,1086
participant_8_LEVEL,1,3,4,5,6,7,8,9,10,10,11,12,13,14,15,15,16,17,18,18,18,18,18,18,18
participant_8_MINIONSKILLED,0,0,0,2,3,4,5,5,7,8,9,11,15,15,17,17,19,29,31,34,37,37,41,45,49
participant_8_KILLS,0,1,1,2,2,4,5,6,6,6,8,8,10,10,11,11,13,14,14,16,16,16,17,18,20
participant_8_BUY,[],"[3802, 2003, 2003]","[1052, 2031]",[],"[1026, 3108, 1001]",[],[],"[6653, 3020, 1052]",[],"[4630, 1052]","[1026, 3135]",[],[],"[1058, 3916, 1028]",[],[],[3165],[1058],[],[],"[3089, 3108]",[],[],[4629],[]
participant_8_SOLD,[],[2052],"[2003, 2003]",[],[1052],[],[],"[3802, 3108, 1001]",[],[1052],"[4630, 1026]",[],[],"[2031, 1052]",[],[],"[3916, 1028]",[],[],[2052],"[1058, 1058]",[],[],[3108],[]
participant_8_UNDO,[],[],[],[],"[[0, 1026]]",[],[],[],[],[],[],[],[],[],[],[],[],[],[],[],[],[],[],[],[]
participant_9_GOLD,1400,1400,1909,2381,3424,3996,4551,5251,6197,6610,7846,8277,9280,10458,10863,11350,11897,12534,13580,14026,14599,15121,15909,16461,17278
participant_9_CURRENTGOLD,1400,200,409,281,1324,1896,251,951,1897,410,1646,144,1147,2325,730,417,964,501,347,793,566,1088,1876,528,1345
participant_9_LEVEL,1,3,4,5,6,7,8,9,10,10,12,12,13,14,15,15,16,17,18,18,18,18,18,18,18
participant_9_MINIONSKILLED,0,0,5,5,10,14,18,21,28,29,39,42,50,54,54,55,55,58,61,64,66,66,67,67,73
participant_9_KILLS,0,0,0,0,2,2,2,3,4,4,5,5,6,9,9,9,9,10,12,12,12,12,14,15,16
participant_9_BUY,[],"[3070, 1027, 1036, 2003, 2003]",[1001],[3158],[],[],"[3004, 3057]",[],[],"[3051, 3067]",[],"[3078, 1053, 1042]",[],[],[3153],[1031],[],[3133],[6333],[],[3123],[],[],[3033],[]
participant_9_SOLD,[],[],[],[1001],[],"[2003, 2003]","[3070, 1036, 1027]",[],[3004],[],[],"[3057, 3051, 3067]",[],[],"[1053, 1042]",[],[],[],"[1031, 3133]",[],[],[],[],[3123],[]
participant_9_UNDO,[],[],[],[],[],[],[],[],[],[],[],[],[],[],[],[],[],[],[],[],[],[],[],[],[]
team0_KILLS,0,1,5,9,12,13,17,18,20,22,25,29,30,34,36,39,43,45,47,50,53,56,57,61,61
team0_CURRENTGOLD,7000,295,3491,4826,2772,3396,5730,6725,1767,4437,2256,5831,1948,4002,6245,5996,2703,2134,2906,6094,4218,4106,4287,7414,6199
team0_TOTALGOLD,7000,7245,10441,13876,17097,19621,23505,26325,29232,32202,35346,39821,42178,45982,49325,52776,56733,59799,62671,66559,69783,73971,76537,81464,82899
team0_LEVEL,5,15,22,25,30,35,40,43,47,51,56,60,61,68,71,74,78,82,85,88,89,89,90,90,90
team0_SBIRES,0,0,12,21,31,43,58,69,79,93,101,117,123,132,153,166,191,201,209,235,244,269,280,313,313
team1_KILLS,0,1,2,4,7,11,13,15,19,19,25,25,30,34,36,39,43,47,51,53,58,58,63,65,70
team1_CURRENTGOLD,7000,706,1843,4364,3547,6007,3615,4062,5893,3787,5024,1477,5487,3547,3462,4687,3257,3382,4519,4347,4274,4200,7645,3285,6454
team1_TOTALGOLD,7000,7356,9828,13349,16547,20057,23065,25947,29728,32007,36944,39045,44105,47205,49720,52645,56130,59745,64017,66680,70807,73648,77593,80183,84137
team1_LEVEL,5,15,20,25,30,35,39,44,48,50,56,58,64,68,71,74,77,83,88,88,88,89,89,90,90
team1_SBIRES,0,0,9,19,29,37,47,58,70,81,98,107,127,132,135,146,154,174,187,195,208,216,234,238,258
delta_KILLS,0,0,3,5,5,2,4,3,1,3,0,4,0,0,0,0,0,-2,-4,-3,-5,-2,-6,-4,-9
delta_CURRENTGOLD,0,-411,1648,462,-775,-2611,2115,2663,-4126,650,-2768,4354,-3539,455,2783,1309,-554,-1248,-1613,1747,-56,-94,-3358,4129,-255
delta_TOTALGOLD,0,-111,613,527,550,-436,440,378,-496,195,-1598,776,-1927,-1223,-395,131,603,54,-1346,-121,-1024,323,-1056,1281,-1238
delta_LEVEL,0,0,2,0,0,0,1,-1,-1,1,0,2,-3,0,0,0,1,-1,-3,0,1,0,1,0,0
delta_SBIRES,0,0,3,2,2,6,11,11,9,12,3,10,-4,0,18,20,37,27,22,40,36,53,46,75,55
