name,frame_0,frame_1,frame_2,frame_3,frame_4,frame_5,frame_6,frame_7,frame_8,frame_9,frame_10,frame_11,frame_12,frame_13,frame_14,frame_15,frame_16,frame_17,frame_18,frame_19,frame_20,frame_21,frame_22,frame_23,frame_24,frame_25,frame_26,frame_27,frame_28
nameStamp,Tstart,Tearly,Tearly,Tearly,Tearly,Tearly,Tearly,Tearly,Tearly,Tearly,Tearly,Tearly,Tearly,Tearly,Tearly,Tmid,Tmid,Tmid,Tmid,Tmid,Tmid,Tmid,Tmid,Tmid,Tmid,Tmid,Tend,Tend,Tend
timestamp,0,60016,120025,180035,240041,300049,360057,420067,480070,540078,600101,660108,720129,780145,840148,900159,960162,1020167,1080177,1140180,1200198,1260214,1320227,1380240,1440264,1500269,1560288,1620307,1680307
participant_0_GOLD,500,500,583,776,1842,1964,2582,3029,3263,4235,4504,4676,4968,5350,5617,5788,5946,6293,6756,6984,7386,7655,7777,8303,8631,8753,8891,9014,9083
participant_0_CURRENTGOLD,500,0,83,276,1342,214,82,529,413,1085,504,176,468,850,17,188,346,293,756,234,636,905,277,803,1131,293,432,554,-1797
participant_0_LEVEL,1,1,1,2,4,4,5,6,7,8,8,9,9,10,10,10,11,11,11,12,12,13,13,13,13,13,13,13,13
participant_0_MINIONSKILLED,0,0,3,7,19,19,26,42,48,58,67,70,70,82,87,90,92,92,93,99,108,110,110,115,117,117,117,117,117
participant_0_KILLS,0,0,0,0,2,2,3,3,3,4,4,4,4,4,4,4,4,4,5,5,5,5,5,6,6,6,6,6,6
participant_0_BUY,[],"[1054, 2003, 3340]",[],[],[],"[1053, 1036]",[3134],[],[1036],[1029],[6692],"[1001, 3076]",[],[],"[1029, 1001, 3047]",[],[],[1028],[],"[1036, 3067]",[],[],[3133],[],[],[3068],[],[],[]
participant_0_SOLD,[],[],[],[2003],[],[],[1036],[],[],[],"[3134, 1036, 1053]",[1029],[],[],"[1001, 1029]",[],[],[],[],[1028],[],[],[1036],[],[],"[1054, 6692]",[],[],[]
participant_0_UNDO,[],[],[],[],[],[],[],[],[],[],[],"[[0, 1001]]",[],[],[],[],[],[],[],[],[],[],[],[],[],"[[1054, 0]]",[],[],[]
participant_1_GOLD,500,500,620,1048,1650,1955,2362,2664,2787,3314,3642,3984,4563,5560,5782,6291,7219,7893,8175,8383,8740,9950,10073,10655,10856,11021,11168,11290,11374
participant_1_CURRENTGOLD,500,0,120,548,50,355,387,689,112,639,92,434,1013,127,349,858,1786,2460,2742,200,557,1767,1890,772,974,1138,85,208,231
participant_1_LEVEL,1,1,2,3,4,4,5,5,5,6,7,8,8,9,9,10,11,11,12,12,12,13,13,13,13,13,14,14,14
participant_1_MINIONSKILLED,0,0,0,0,1,1,1,2,2,2,2,2,5,6,6,15,16,16,16,16,16,20,20,20,23,25,25,25,26
participant_1_KILLS,0,0,0,0,0,0,0,0,0,0,0,0,1,2,2,2,4,5,5,5,5,7,7,7,7,7,7,7,7
participant_1_BUY,[],"[1035, 2031]",[],[],[3051],[],"[1001, 2055, 3364]",[],[3057],[],"[3067, 2055]",[],[],"[3078, 3047, 1036]",[],[],[],[],[],"[6333, 6333]",[],[],[],"[1057, 3066]",[],[],[4401],[],[]
participant_1_SOLD,[],[],[],[],[],[],[3340],[2055],[],[],[1035],[2055],[],"[3057, 3051, 3067, 1001]",[],[],[],[],[],"[1036, 1036]",[],[],[],[],[],[2031],"[1057, 3066]",[],[]
participant_1_UNDO,[],[],[],[],[],[],[],[],[],[],[],[],[],[],[],[],[],[],[],"[[0, 6333]]",[],[],[],[],[],"[[2031, 0]]",[],[],[]
participant_2_GOLD,500,500,583,832,1120,1396,1898,2190,2431,2721,2998,3183,3955,4528,5150,5923,6223,7255,7592,7888,8437,8595,10477,10684,11225,11507,12021,12143,12206
participant_2_CURRENTGOLD,500,0,83,332,610,451,953,1245,171,461,738,73,845,518,1130,1103,268,1300,1222,708,1257,80,197,404,945,378,191,313,156
participant_2_LEVEL,1,1,1,3,4,5,5,6,7,7,8,8,8,9,10,10,10,12,12,12,13,13,14,14,14,15,15,15,15
participant_2_MINIONSKILLED,0,0,3,10,17,26,32,41,45,55,64,68,68,68,79,79,86,102,106,112,122,124,126,131,138,143,148,148,148
participant_2_KILLS,0,0,0,0,1,1,1,1,1,1,1,1,2,2,2,2,2,2,3,3,3,3,3,3,3,3,3,3,3
participant_2_BUY,[],"[1054, 2003, 3340]",[],[2031],[],"[1083, 1042, 1001]",[],[3006],[],[],"[3070, 1036]",[],[],[3004],[1042],[],"[1036, 3363]",[],"[6670, 1018]",[],[],[6671],[],[],"[6677, 1018]",[],[],[1042],[]
participant_2_SOLD,[],[],[],[2003],[],[],[],"[1001, 1042]",[],[],[],[],[],"[1054, 3070, 1036]",[],[],[3340],[],"[1036, 1042]",[],[],"[6670, 1018]",[],[],[2031],[],[],[1083],[]
participant_2_UNDO,[],[],[],[],[],[],[],[],[],[],[],[],[],[],[],[],[],[],[],[],[],[],[],[],[],[],[],[],[]
participant_3_GOLD,500,500,583,734,1496,1744,2228,2447,2762,3002,3286,3639,4611,4799,5122,5425,5727,6140,6573,7132,8096,8321,8443,9074,9405,9822,9944,10366,10429
participant_3_CURRENTGOLD,500,0,83,84,846,44,528,247,562,802,336,689,1661,179,202,505,457,870,53,612,1576,301,423,1054,45,462,585,886,529
participant_3_LEVEL,1,1,1,1,3,3,4,4,5,5,6,7,7,7,8,8,9,9,10,10,11,11,11,12,12,13,13,13,13
participant_3_MINIONSKILLED,0,0,3,5,16,20,34,39,50,56,62,72,81,84,87,91,93,105,107,122,135,143,143,161,166,173,173,182,182
participant_3_KILLS,0,0,0,0,1,1,1,1,1,1,1,1,1,1,1,2,2,2,2,2,2,2,2,2,2,2,2,2,2
participant_3_BUY,[],"[3858, 2003, 2003, 3340]",[],[],[],"[3024, 2055]",[],[],[1001],[],"[1033, 3364, 2003, 2003, 2055, 2055]",[],[],[3067],[],"[3050, 3111, 2055]",[],[],[],[6660],[],[],[],[],[],[3105],[],[3068],[]
participant_3_SOLD,[],[],[],"[2003, 2010]",[2003],[],[2055],[2010],[],[2010],"[3858, 3340]",[2055],[],[],[],"[3067, 3024, 1001, 1033]",[],[2055],[],[],[3859],[],[],[],[],[],[],"[6660, 3105]",[]
participant_3_UNDO,[],[],[],[],[],[],[],[],[],[],"[[0, 2003], [0, 2003]]",[],[],[],[],[],[],[],[],[],[],[],[],[],[],[],[],[],[]
participant_4_GOLD,500,500,543,678,1305,1523,1834,1999,2205,2386,2619,2933,3423,3716,3987,4652,4823,5053,5336,5492,5939,6393,6699,6849,7095,7235,7384,7524,7596
participant_4_CURRENTGOLD,500,0,43,178,805,48,359,524,420,601,234,548,1038,531,802,342,513,743,1027,182,629,1083,1389,1540,1785,425,574,14,96
participant_4_LEVEL,1,1,1,2,4,4,5,5,5,5,6,6,7,7,8,9,9,9,9,9,10,11,11,11,12,12,12,12,12
participant_4_MINIONSKILLED,0,0,1,1,3,5,8,9,10,12,14,20,23,23,27,27,28,29,29,30,33,36,36,37,38,38,38,38,38
participant_4_KILLS,0,0,0,0,0,0,1,1,1,1,1,1,2,3,4,6,6,7,7,7,7,7,10,10,11,11,12,12,12
participant_4_BUY,[],"[2033, 3340]",[],[],[],[1052],[],[],"[3145, 1028, 1001]",[],[],[1026],[],[4636],[],[3020],"[3057, 1052]",[],[3113],[1026],[],"[3100, 1052, 1029]",[3157],[3363],[],[1026],[1011],[],[]
participant_4_SOLD,[],[],[],[],[2010],[2010],[],[],"[2010, 1052]",[],[],[],"[2419, 2423]","[3145, 1028, 1026]",[],[1001],[],[],[1052],[2424],[],"[3057, 3113, 1026]","[1052, 1029]",[3340],[],[],[2033],[],[]
participant_4_UNDO,[],[],[],[],[],[],[],[],[],[],[],[],[],[],[],[],[],[],[],[],[],[],[],[],[],[],[],[],[]
participant_5_GOLD,500,500,562,923,1196,1507,2038,2181,3110,3477,3746,4482,4808,5077,5596,5984,6390,6732,7030,8012,8273,8598,9645,9920,10127,10549,11449,11959,12151
participant_5_CURRENTGOLD,500,0,62,423,96,407,188,331,1260,127,396,382,708,977,96,484,890,92,390,1372,1633,1959,765,240,47,469,1370,279,51
participant_5_LEVEL,1,1,1,3,3,5,5,6,7,8,8,9,10,10,10,11,12,12,12,13,13,13,14,14,15,15,16,16,16
participant_5_MINIONSKILLED,0,0,2,16,16,24,28,29,45,50,58,73,82,91,98,109,122,126,133,148,152,159,159,164,169,169,169,179,179
participant_5_KILLS,0,0,0,0,0,1,1,1,1,1,2,3,3,4,4,4,4,5,7,7,7,7,8,8,8,10,10,12,13
participant_5_BUY,[],"[1082, 2003, 2003, 2003]",[],[],[],"[3145, 2031, 2055]",[],[],[3020],[],[],"[1026, 1028]",[],"[3152, 3108]",[],[],[],[3067],[],[],"[4629, 3916]",[],[],[3041],[],[3165],[],[],[]
participant_5_SOLD,[],[],[],[2003],"[2003, 2003]",[],[],[2055],[],[],[],[],[],"[3145, 1028, 1026]",[],[],[],[],[],[],"[3108, 3067]",[],[],[1082],[],[3916],[],[],[]
participant_5_UNDO,[],[],[],[],[],[],[],[],[],[],[],[],[],[],[],[],[],[],[],[],[],[],[],[],[],[],[],[],[]
participant_6_GOLD,500,500,625,918,1461,1820,2193,2430,3615,4113,4382,4702,4924,5046,5591,5713,6311,6598,8030,8376,8535,8794,9142,9680,9817,10410,11599,12222,12520
participant_6_CURRENTGOLD,500,150,275,568,36,395,768,280,1465,1963,182,502,24,146,691,413,1011,348,1780,251,410,670,67,605,743,1335,2524,3148,2145
participant_6_LEVEL,1,1,2,2,3,4,5,5,6,7,8,8,8,8,9,9,10,10,11,11,12,12,13,13,13,14,15,16,16
participant_6_MINIONSKILLED,0,0,0,0,0,0,0,1,1,1,4,4,4,4,8,8,8,9,10,10,10,10,10,10,11,11,14,14,14
participant_6_KILLS,0,0,0,0,0,0,0,0,0,0,1,1,1,1,1,1,2,2,3,3,3,4,6,6,7,8,9,10,11
participant_6_BUY,[],"[3070, 2003, 2003]",[],[],[3057],[],[],[],"[1036, 1036]",[],[],"[3004, 2055]",[1028],[],[3067],[],"[3044, 3363]",[],[],[],"[6632, 3158, 1036]",[],"[1053, 1043, 1037, 1042]",[],"[3153, 2055]",[],[],[],[]
participant_6_SOLD,[],[],[],[],[2003],[],[],[],[],[2003],[],"[3070, 1036, 1036]",[],[],[1028],[],[3340],[],[],[],"[3044, 3057, 3067, 3004]",[2055],[1036],[],"[1053, 1042, 1037]",[2055],[],[],[]
participant_6_UNDO,[],[],[],[],[],[],[],[],[],[],[],[],[],[],[],[],[],[],[],[],[],[],"[[0, 1043]]",[],[],[],[],[],[]
participant_7_GOLD,500,500,625,969,1232,1857,2332,2636,2947,3296,3833,4491,5158,5825,6039,6162,6466,6888,8416,9032,9154,9376,10103,10420,10669,12039,12470,13492,14050
participant_7_CURRENTGOLD,500,0,125,459,722,62,527,831,42,381,918,316,973,-160,4,127,431,53,1581,2197,220,441,1168,236,484,155,586,1608,2275
participant_7_LEVEL,1,1,1,3,4,5,6,7,7,8,9,10,10,11,11,11,12,12,13,13,13,13,14,14,14,15,16,17,17
participant_7_MINIONSKILLED,0,0,6,16,24,32,41,51,62,72,80,90,100,105,108,108,119,119,125,135,135,138,144,151,159,171,177,180,184
participant_7_KILLS,0,0,0,0,0,0,0,0,1,1,1,1,1,2,2,2,2,2,3,3,3,3,3,3,3,3,3,3,3
participant_7_BUY,[],"[3850, 2003, 2003, 3340]",[],[],[1052],[],[1052],[],[],[],[],"[3802, 3108, 1001]",[],[],[6653],[],"[3020, 3364, 2055]",[],"[1052, 1052]",[],[],[3916],[3108],[],[],[],[3157],[],[]
participant_7_SOLD,[],[],[],[],[2003],[],[],[],[3850],[],[],"[1052, 1052]",[],[],"[3802, 3108, 3851]",[2003],"[1001, 3340]",[2055],[],[],[],[1052],[1052],[],[],[],[3108],[],[]
participant_7_UNDO,[],[],[],[],[],[],[],[],[],[],[],[],[],[],[],[],[],[],[],[],[],[],[],[],[],[],[],[],[]
participant_8_GOLD,500,500,583,934,1207,1469,1746,2207,2371,2762,3533,3864,4000,4311,4582,4921,5421,5731,7013,7549,7894,9002,9724,10154,10732,11564,12477,13578,14041
participant_8_CURRENTGOLD,500,0,83,434,7,269,546,1007,471,862,1633,389,125,436,307,646,46,356,1638,2174,569,1677,674,1104,582,1415,2327,3429,3891
participant_8_LEVEL,1,1,1,2,3,3,4,5,5,6,6,7,7,7,8,8,9,9,10,11,11,12,12,13,14,14,15,16,16
participant_8_MINIONSKILLED,0,0,3,14,18,23,32,49,51,64,75,84,85,96,102,111,115,122,137,145,154,162,162,162,169,170,181,184,185
participant_8_KILLS,0,0,0,0,1,1,1,1,3,3,3,3,3,3,3,3,3,3,4,4,4,4,4,4,4,4,6,6,6
participant_8_BUY,[],[1035],[],[],"[1036, 1042, 1036, 2055, 3364]",[],[],"[6670, 1036, 2055]",[],[],"[6673, 1001]",[],"[1036, 1036]",[],[],[3133],[],"[1037, 2055]",[],"[6675, 1033]",[],[],"[3111, 1018]",[],[],[],[],[],[3140]
participant_8_SOLD,[],[],[],[],[3340],[2055],[],"[1036, 1042, 1036, 2055]",[1035],[],"[6670, 1036]",[],[3364],[],[3513],"[1036, 1036]",[],[2055],[],"[3133, 1037]",[3364],[3513],"[1001, 1033]",[],[],[],[],[],"[6673, 1018, 3111, 6675]"
participant_8_UNDO,[],[],[],[],[],[],[],[],[],[],[],[],[],[],[],[],[],[],[],[],[],[],[],[],[],[],[],[],[]
participant_9_GOLD,500,500,662,951,1226,1395,1610,1834,2650,2973,3544,3684,3981,4622,4812,4952,5243,5425,6087,6477,6752,7089,7304,7445,7585,8374,8730,9015,9217
participant_9_CURRENTGOLD,500,0,162,451,291,460,240,464,1280,1603,2174,684,981,1622,612,752,168,350,142,532,808,779,529,670,810,1600,355,640,842
participant_9_LEVEL,1,1,1,3,3,4,4,4,5,6,7,7,7,8,8,8,8,9,9,10,10,10,10,10,10,12,12,13,13
participant_9_MINIONSKILLED,0,0,0,1,1,3,3,4,4,8,8,8,12,12,12,12,12,15,16,16,18,23,23,23,23,26,27,29,29
participant_9_KILLS,0,0,0,0,0,0,1,1,2,2,2,3,3,3,3,3,3,3,3,3,3,3,5,5,5,5,7,7,7
participant_9_BUY,[],"[1055, 2003, 3340]",[],[],"[1055, 2031]",[],"[1036, 1028]",[],[],"[3044, 6029, 3047, 3044, 3067]",[],[3044],[],[],[6630],[],[],"[1031, 1028]",[],[],[],[],"[3742, 1057]",[3076],[1028],[],[],[4401],[]
participant_9_SOLD,[],[],[],[],[2003],[],[],[],[],"[1028, 1036, 1028, 1036, 1028]",[],[1036],[],[],"[3044, 3067]",[],[],[2031],[],[],[],[],"[1028, 1031, 1055, 1055]",[],[],[],[],"[1057, 1028]",[]
participant_9_UNDO,[],[],[],[],[],[],[],[],[],"[[0, 6029], [0, 3044], [0, 3044]]",[],[],[],[],[],[],[],[],[],[],[],[],[],[],[],[],[],[],[]
team0_KILLS,0,0,0,0,4,4,6,6,6,7,7,7,10,12,13,16,18,20,22,22,22,24,27,28,29,29,30,30,30
team0_CURRENTGOLD,2500,0,412,1418,3653,1112,2309,3234,1678,3588,1904,1920,5025,2205,2500,2996,3370,5666,5800,1936,4655,4136,4176,4573,4880,2696,1867,1975,-785
team0_TOTALGOLD,2500,2500,2912,4068,7413,8582,10904,12329,13448,15658,17049,18415,21520,23953,25658,28079,29938,32634,34432,35879,38598,40914,43469,45565,47212,48338,49408,50337,50688
team0_LEVEL,5,5,6,11,19,20,24,26,29,31,35,38,39,42,45,47,50,52,54,55,58,61,62,63,64,66,67,67,67
team0_SBIRES,0,0,10,23,56,71,101,133,155,183,209,232,247,263,286,302,315,344,351,379,414,433,435,464,482,496,501,510,511
team1_KILLS,0,0,0,0,1,2,3,3,7,7,9,11,11,13,13,13,14,15,20,20,20,21,26,26,27,30,35,38,40
team1_CURRENTGOLD,2500,150,707,2335,1152,1593,2269,2913,4518,4936,5303,2273,2811,3021,1710,2422,2546,1199,5531,6526,3640,5526,3203,2855,2666,4974,7162,9104,9204
team1_TOTALGOLD,2500,2500,3057,4695,6322,8048,9919,11288,14693,16621,19038,21223,22871,24881,26620,27732,29831,31374,36576,39446,40608,42859,45918,47619,48930,52936,56725,60266,61979
team1_LEVEL,5,5,6,13,16,21,24,27,30,35,38,41,42,44,46,47,51,52,55,58,59,60,63,64,66,70,74,78,78
team1_SBIRES,0,0,11,47,59,82,104,134,163,195,225,259,283,308,328,348,376,391,421,454,469,492,498,510,531,547,568,586,591
delta_KILLS,0,0,0,0,3,2,3,3,-1,0,-2,-4,-1,-1,0,3,4,5,2,2,2,3,1,2,2,-1,-5,-8,-10
delta_CURRENTGOLD,0,-150,-295,-917,2501,-481,40,321,-2840,-1348,-3399,-353,2214,-816,790,574,824,4467,269,-4590,1015,-1390,973,1718,2214,-2278,-5295,-7129,-9989
delta_TOTALGOLD,0,0,-145,-627,1091,534,985,1041,-1245,-963,-1989,-2808,-1351,-928,-962,347,107,1260,-2144,-3567,-2010,-1945,-2449,-2054,-1718,-4598,-7317,-9929,-11291
delta_LEVEL,0,0,0,-2,3,-1,0,-1,-1,-4,-3,-3,-3,-2,-1,0,-1,0,-1,-3,-1,1,-1,-1,-2,-4,-7,-11,-11
delta_SBIRES,0,0,-1,-24,-3,-11,-3,-1,-8,-12,-16,-27,-36,-45,-42,-46,-61,-47,-70,-75,-55,-59,-63,-46,-49,-51,-67,-76,-80
