name,frame_0,frame_1,frame_2,frame_3,frame_4,frame_5,frame_6,frame_7,frame_8,frame_9,frame_10,frame_11,frame_12,frame_13,frame_14,frame_15,frame_16,frame_17,frame_18,frame_19,frame_20,frame_21,frame_22,frame_23,frame_24,frame_25,frame_26,frame_27,frame_28,frame_29,frame_30,frame_31,frame_32,frame_33,frame_34
nameStamp,Tstart,Tearly,Tearly,Tearly,Tearly,Tearly,Tearly,Tearly,Tearly,Tearly,Tearly,Tearly,Tearly,Tearly,Tearly,Tmid,Tmid,Tmid,Tmid,Tmid,Tmid,Tmid,Tmid,Tmid,Tmid,Tmid,Tmid,Tmid,Tmid,Tmid,Tmid,Tmid,Tmid,Tmid,Tmid
timestamp,0,60026,120050,180080,240107,300126,360149,420170,480192,540212,600231,660256,720284,780315,840333,900363,960391,1020422,1080438,1140438,1200456,1260483,1320499,1380520,1440545,1500572,1560598,1620629,1680645,1740678,1800703,1860710,1920736,1980767,2040767
participant_0_GOLD,500,500,563,892,1582,1746,1970,2239,2605,2940,3619,3777,4712,4834,5938,6380,6919,7315,8053,8191,8690,9107,9495,9797,9920,10276,11068,11262,11704,11826,12134,12569,13422,13690,14961
participant_0_CURRENTGOLD,500,0,63,392,1082,146,270,539,905,1240,119,227,1162,284,1388,230,769,1165,228,221,720,38,425,277,50,407,1199,2,445,567,174,610,262,581,-639
participant_0_LEVEL,1,1,1,3,4,5,5,6,7,7,8,8,9,9,10,10,11,12,12,12,13,13,13,14,14,14,15,15,15,15,15,16,16,16,17
participant_0_MINIONSKILLED,0,0,2,12,20,22,25,33,44,53,58,60,76,76,86,86,102,108,115,115,123,128,139,144,144,147,157,158,158,158,158,167,172,177,187
participant_0_KILLS,0,0,0,0,0,0,0,0,0,1,1,1,1,2,2,3,3,6,8,9,10,10,11,11,12,13,16,16,17,18,18,20,20,21,22
participant_0_BUY,[],"[1055, 2003, 3340]",[],[],[],[],[],[],[],[],"[3134, 3133, 1001, 2031]",[],[6691],[],"[3047, 1036, 1036]",[],[3134],[],"[3142, 1036]",[],[],"[3134, 3133]",[],"[3179, 1036]",[],[],[3035],[3133],[],[6694],[3123],[],[],[],[]
participant_0_SOLD,[],[],[],[],[],[2003],[],[],[],[],[],[],"[3134, 3133]",[],"[3340, 3513, 1001]",[],"[1036, 1036]",[],[3134],[],[],"[1036, 2031]",[],"[3134, 3133]",[],[],[1036],[1055],[],"[3133, 3035]",[],[],[],[],[]
participant_0_UNDO,[],[],[],[],[],[],[],[],[],[],[],[],[],[],[],[],[],[],[],[],[],[],[],[],[],[],[],[],[],[],[],[],[],[],[]
participant_1_GOLD,500,500,663,963,1263,1585,2008,2130,2487,2780,3198,3481,3988,4610,4968,5359,5717,6289,6665,6788,7430,7919,8397,8544,9310,9722,10318,10783,11179,11407,11529,11877,12050,12828,13327
participant_1_CURRENTGOLD,500,0,163,463,763,1085,1508,105,462,755,1173,1456,213,835,1193,1584,1942,2514,2890,738,1380,1869,447,169,185,597,1194,243,640,867,565,563,385,1164,1602
participant_1_LEVEL,1,1,2,3,3,4,4,4,5,6,6,7,7,8,9,10,10,11,11,11,12,12,13,13,13,14,14,15,15,15,15,16,16,16,17
participant_1_MINIONSKILLED,0,0,0,0,0,1,1,1,1,1,1,2,2,2,2,5,5,5,5,5,7,13,16,16,19,19,22,31,31,31,31,31,31,46,50
participant_1_KILLS,0,0,0,0,0,0,0,0,0,0,0,0,0,0,0,0,0,0,0,0,1,1,1,2,2,3,4,5,5,5,5,5,6,6,7
participant_1_BUY,[],"[2033, 3340]",[],[],[],[],[],[],[],"[3850, 1027, 1052]",[],[3802],[],[],[],[],[1026],[],[6655],[],[],"[3020, 3145]",[],[],[],[],[],"[4628, 1033]",[],[],[],[],[],[3102],[]
participant_1_SOLD,[],[],[],[],[2010],[2010],[],[2010],[],[],[],"[1052, 1027]",[],[],[],[3850],[],[],"[3802, 1026]",[],[],[3851],[],[],[],[],[],[3145],[],[],[],[],[],[1033],[]
participant_1_UNDO,[],[],[],[],[],[],[],[],[],[],[],[],[],[],[],[],[],[],[],[],[],[],[],[],[],[],[],[],[],[],[],[],[],[],[]
participant_2_GOLD,500,500,598,923,1274,1599,2078,2291,2622,3306,3512,4156,4412,5002,5813,6235,6358,7982,8796,9372,10249,10371,10948,11220,11643,12203,13432,13604,14253,14769,14891,15791,15963,16423,17208
participant_2_CURRENTGOLD,500,0,98,423,764,1089,1558,1771,2092,2766,322,956,202,792,103,525,248,1872,436,1012,1889,222,798,120,544,1103,1232,485,1133,800,122,1022,1194,1654,2258
participant_2_LEVEL,1,1,1,3,4,5,6,7,7,8,9,9,9,10,10,11,11,12,12,13,13,13,14,14,14,15,15,15,16,16,16,17,17,17,18
participant_2_MINIONSKILLED,0,0,4,16,27,38,47,52,61,73,78,86,91,101,103,103,103,111,113,118,127,127,129,129,129,129,130,130,131,133,133,138,138,141,141
participant_2_KILLS,0,0,0,0,0,0,0,1,1,1,2,2,2,2,2,2,2,2,2,3,3,5,5,6,6,6,6,6,6,6,6,6,6,6,6
participant_2_BUY,[],"[1055, 2003, 3340]",[],[],[],"[1018, 2003, 2003]",[],"[1053, 2003]",[],[],[],"[1036, 1036, 3006]",[],[],[],[],[6673],[],[1018],[],"[1042, 6677]",[],[3124],[],[1053],[],[],[1043],[1037],[],[],[],[],"[3153, 3086]",[]
participant_2_SOLD,[],[],[],[2003],[],[],[],[2003],[],[],[],"[2003, 2003, 2422]",[],[],[],[],"[1036, 1018, 1053]",[],[],"[2010, 2010]","[2010, 1042]",[],"[1055, 6677, 1018]",[],[],[],[],[],[],[],[],[],[],"[1053, 1043, 1037]",[]
participant_2_UNDO,[],[],[],[],[],[],[],[],[],[],[],"[[0, 1036]]",[],[],[],[],[],[],[],[],[],[],[],[],[],[],[],[],[],[],[],[],[],[],[]
participant_3_GOLD,500,500,563,920,1260,1396,1645,2174,2484,2712,3266,3389,3709,3978,4319,4700,4879,5338,5573,6163,6285,7111,7494,7971,8394,8837,9544,10100,10222,10621,10896,11388,11959,12181,12676
participant_3_CURRENTGOLD,500,0,63,420,760,196,445,24,334,562,1116,129,449,718,1059,1440,69,528,163,753,105,931,94,571,94,538,1244,800,48,446,722,1213,1784,382,626
participant_3_LEVEL,1,1,1,2,3,3,4,4,5,5,6,6,7,7,7,8,8,8,9,9,9,10,11,11,12,12,13,13,13,14,14,14,15,15,16
participant_3_MINIONSKILLED,0,0,2,13,25,26,33,35,43,49,56,56,66,74,83,94,97,104,108,117,117,120,125,128,128,142,152,157,157,163,168,182,191,191,195
participant_3_KILLS,0,0,0,0,0,0,1,1,1,1,1,1,2,3,3,3,3,3,3,3,4,4,5,5,7,7,7,7,8,8,8,8,8,8,8
participant_3_BUY,[],"[1039, 2031, 3340]",[],[],[],[],[],"[3134, 1036, 2055]",[],[],[],[],[6691],[],[],[],[],[],[],"[3047, 3134, 2055]",[],[],[3142],"[1036, 2055]",[3134],[],[],"[1037, 1018]",[],[],[6676],[1036],[1036],[],[]
participant_3_SOLD,[],[],[],[],[],[],[],[],[2055],[],[1039],[],"[3134, 1036]",[],[],[],[],[],[],[],[2055],[],[3134],[],[1036],[],[2055],[2031],[],[],"[3134, 1037, 1018]",[],[],[],[]
participant_3_UNDO,[],[],[],[],[],[],[],[],[],[],[],[],[],[],[],[],[],[],[],[],[],[],[],[],[],[],[],[],[],[],[],[],[],[],[]
participant_4_GOLD,500,500,521,643,766,1049,1193,1493,1650,1783,2181,2329,2746,2960,3279,3476,3716,4142,4543,5126,5928,6540,6702,7232,7373,7823,8790,9330,9560,9700,10035,10176,10851,10992,11847
participant_4_CURRENTGOLD,500,0,21,143,266,549,693,993,1150,98,496,129,546,760,1079,1276,666,1092,243,826,1628,90,252,782,923,1373,2340,480,710,850,1185,1326,2001,92,947
participant_4_LEVEL,1,1,1,2,3,4,4,5,6,6,7,7,7,8,8,8,9,9,9,10,11,12,12,12,12,13,14,14,14,14,15,15,15,15,16
participant_4_MINIONSKILLED,0,0,0,0,0,7,8,10,12,12,13,14,17,17,18,18,18,18,19,22,27,31,32,33,33,35,36,36,37,37,45,45,47,47,50
participant_4_KILLS,0,0,0,0,1,1,1,1,1,1,2,2,2,2,3,4,4,4,4,4,4,4,4,4,4,4,4,4,5,5,5,5,6,6,8
participant_4_BUY,[],"[1055, 3340, 2003]",[],[],[],[3044],"[2003, 2003]",[],[],[],"[3067, 3057, 1001]",[2003],[],"[6632, 1029]",[],"[3047, 3133]",[],[],"[1031, 1037]",[6333],[],[3133],[],[1033],[1036],[],[],"[6692, 1036, 3155]",[],[],[3156],[],"[3123, 1028]",[1036],[]
participant_4_SOLD,[],[],[],[],[2003],[],[],[],[2003],[2003],[],[],[2003],"[3044, 3057, 3067]",[],"[1001, 1029]",[],[],[],"[1055, 1031, 3133, 1037]",[],[],[],[],[],[],[],"[6632, 1036, 1036, 1033]",[],[],"[3155, 3133]",[],[],[],[]
participant_4_UNDO,[],[],[],[],[],[],[],[],[],[],[],[],[],[],[],[],[],[],[],[],[],[],[],[],[],[],[],[],[],[],[],[],[],"[[0, 1028]]",[]
participant_5_GOLD,500,500,584,867,1011,1516,1799,2033,2294,2543,2686,3080,3523,3793,4257,4435,4719,4918,5889,6222,6486,7027,7261,8013,9726,10064,10221,11591,12221,12368,12707,13089,13573,13933,14307
participant_5_CURRENTGOLD,500,0,84,367,211,716,-151,83,344,593,-114,280,-127,143,607,-140,144,-232,739,-128,86,627,861,813,526,464,222,-159,471,-51,397,780,314,673,-293
participant_5_LEVEL,1,1,1,3,3,5,5,6,6,7,7,8,9,9,10,10,10,11,12,12,13,13,13,14,14,15,15,16,16,17,17,17,17,18,18
participant_5_MINIONSKILLED,0,0,3,12,13,17,17,24,29,37,38,51,52,57,58,61,67,72,85,97,99,117,124,130,139,148,150,160,167,167,176,177,180,190,197
participant_5_KILLS,0,0,0,0,0,1,1,1,1,1,1,1,2,2,3,3,3,3,4,4,4,4,4,5,7,7,7,9,10,10,10,10,11,11,11
participant_5_BUY,[],"[1055, 2003, 3340]",[],[],[1001],[],"[3111, 1042]",[],[],[],[3067],[],"[1036, 3051]",[],[],[1037],[],[6631],[],"[1031, 1028]",[],[],[],"[3066, 1028]","[3742, 3133]",[1028],[3067],"[3071, 1029]",[],"[1031, 1036]",[3076],[],[1011],[],[3075]
participant_5_SOLD,[],[],[],[],[],[2003],[1001],[],[],[],[],[],"[1042, 1036]",[],[],[],[],"[1037, 3051, 3067]",[],[],[],[],[],[1028],"[3066, 1028, 1031]",[],[1028],"[3133, 3067]",[],"[1029, 1055]",[1031],[],[],[],"[3076, 1011]"
participant_5_UNDO,[],[],[],[],[],[],[],[],[],[],[],[],[],[],[],[],[],[],[],[],[],[],[],[],[],[],[],[],[],[],"[[0, 1036]]",[],[],[],[]
participant_6_GOLD,500,500,666,913,1318,1575,1698,2004,2332,2689,3157,3658,3865,3987,4210,4332,4940,5062,5622,6171,6293,6416,7038,7265,7764,7991,8144,9211,9868,10702,11209,11331,11454,11681,12241
participant_6_CURRENTGOLD,500,0,166,413,818,1075,98,404,732,1089,1557,658,865,47,270,342,950,272,832,1381,403,176,798,1025,74,301,104,1171,203,1037,69,192,314,541,691
participant_6_LEVEL,1,1,2,2,4,4,4,5,6,7,7,7,8,8,8,8,9,9,10,11,11,11,11,12,12,12,13,14,15,15,16,16,16,16,17
participant_6_MINIONSKILLED,0,0,0,0,0,0,0,0,0,1,2,4,4,4,4,4,4,4,8,9,9,9,9,9,9,9,10,11,11,13,13,13,13,13,13
participant_6_KILLS,0,0,0,0,0,0,0,0,0,0,1,1,1,1,1,2,2,2,3,3,3,3,3,3,4,4,4,4,4,4,4,4,5,5,5
participant_6_BUY,[],"[1056, 2003, 2003, 3340]",[],[],[],[],[],[],"[3802, 2055, 2003]",[1001],[],[],[1026],[],[],[],"[6655, 2003, 2003]",[],[],[],[3191],[],[],[],[],[],"[3020, 1052]",[],[],[],[3108],[],[],[3157],[]
participant_6_SOLD,[],[],[],[],[],[],[],[],[],[2003],"[2055, 2003]",[2003],[],[],[],[],"[1056, 3802, 1026]","[2003, 2003]",[],[],[],[],[],[],[],[],[1001],[],[],[],[1052],[],[],"[3191, 3108]",[]
participant_6_UNDO,[],[],[],[],[],[],[],[],[],[],[],[],[],[],[],[],[],[],[],[],[],[],[],[],[],[],[],[],[],[],[],[],[],[],[]
participant_7_GOLD,500,500,598,850,1099,1368,1746,1994,2200,2400,2864,3137,3259,3479,3644,4269,4392,4535,5207,5435,5557,5694,5837,5959,6507,6657,6780,6902,7024,7147,7269,7392,8039,8161,8314
participant_7_CURRENTGOLD,500,0,98,340,589,848,1216,1464,245,145,609,882,154,374,539,1164,97,240,912,1140,362,499,642,764,1312,1462,350,472,594,717,374,497,1144,566,589
participant_7_LEVEL,1,1,1,3,4,5,6,6,7,7,8,8,8,9,9,10,10,10,11,11,11,11,11,11,12,12,13,13,13,13,13,13,14,14,14
participant_7_MINIONSKILLED,0,0,4,9,16,21,33,40,45,49,52,52,52,58,61,70,70,71,71,77,77,78,79,79,82,84,84,84,84,84,84,84,84,84,86
participant_7_KILLS,0,0,0,0,0,1,1,2,2,2,2,2,2,2,2,2,2,2,3,3,3,3,3,3,3,3,4,4,4,4,4,4,4,4,4
participant_7_BUY,[],"[3850, 2003, 2003]",[],[],[],"[1052, 1027, 2003]",[],[],[],"[3802, 1001, 2003]",[],[],[1026],[],[],[],[],[6656],"[3020, 1052]",[],[],[3108],[],[],"[1033, 1052]",[],"[4632, 3102]",[],[],[],[1058],[],[],[],[]
participant_7_SOLD,[],[],[],[2003],[2003],[],[],[2003],[],"[1052, 1027]",[3850],[2003],[],[],[],[],[],"[3802, 1026]","[3851, 1001]",[],[],[1052],[],[],[],[],"[1033, 1052, 3108, 4632]",[],[],[],[],[],[],[],[]
participant_7_UNDO,[],[],[],[],[],[],[],[],[],[],[],[],[],[],[],[],[],[],[],[],[],[],[],[],[],[],[],[],[],[],[],[],[],[],[]
participant_8_GOLD,500,500,584,941,1204,1700,2022,2329,2632,3030,3355,3787,4078,4389,4761,5051,5982,6104,6806,7177,8021,8248,8398,8673,8892,9128,9429,10422,10934,11453,11916,12689,13365,13892,14002
participant_8_CURRENTGOLD,500,0,84,441,704,1200,1522,54,357,755,1080,1512,328,639,1011,1301,2232,329,731,1102,846,273,423,698,317,554,254,1247,1760,2278,542,1315,890,1418,827
participant_8_LEVEL,1,1,1,2,3,4,5,5,6,6,7,7,8,8,8,9,10,10,10,11,11,11,12,12,12,13,13,14,14,15,15,15,16,16,16
participant_8_MINIONSKILLED,0,0,3,14,22,32,40,42,49,62,68,78,84,95,106,111,123,123,132,138,139,145,147,151,152,153,155,162,176,187,193,203,213,223,223
participant_8_KILLS,0,0,0,0,0,0,0,0,0,0,0,0,0,0,0,0,1,1,2,2,3,3,3,3,3,3,3,4,4,4,4,5,5,5,5
participant_8_BUY,[],"[1055, 2003]",[],[],[],[],[],"[6670, 1001, 2055, 2003, 2003]",[],[],[],[],"[1018, 1037]",[],[],[],[],"[6672, 6677, 1018]",[1042],[],[3124],"[1042, 1018, 3006]",[],[],[1018],[],[3086],[],[],[],[3085],[],[3133],[],[3057]
participant_8_SOLD,[],[],[],[],[],[2003],[],[],[],[2055],[],[2003],[],[2003],[],[],[],"[6670, 1018, 1037]",[],[],"[6677, 1018, 1042]",[1001],[],[],[],[],[1018],[],[],[],[3086],[],[],[],[1055]
participant_8_UNDO,[],[],[],[],[],[],[],[],[],[],[],[],[],[],[],[],[],[],[],[],[],"[[0, 1018], [0, 1042]]",[],[],[],[],[],[],[],[],[],[],[],[],[]
participant_9_GOLD,500,500,523,771,1026,1460,1675,2211,2385,2520,2868,3203,3343,3483,3644,3784,4231,4411,5619,5834,6124,6328,6468,6704,7071,7406,8267,8457,8597,8815,9026,9166,9382,9592,9830
participant_9_CURRENTGOLD,500,0,23,271,526,125,340,876,1050,320,668,1003,293,433,594,734,1181,111,84,299,589,328,468,704,186,521,668,857,997,1215,176,317,532,742,980
participant_9_LEVEL,1,1,1,2,3,3,4,5,5,5,6,6,7,7,8,8,8,8,9,10,10,10,10,11,12,12,12,12,12,13,14,14,14,14,15
participant_9_MINIONSKILLED,0,0,0,1,1,1,1,4,4,4,5,6,6,6,6,6,7,7,7,7,7,11,11,12,12,20,21,24,24,29,33,33,33,37,39
participant_9_KILLS,0,0,0,0,0,0,0,0,0,0,1,2,2,2,2,2,3,3,4,5,5,5,6,6,7,7,7,8,9,10,11,11,11,11,12
participant_9_BUY,[],"[1039, 2031, 3340]",[],[],[],[],[3134],[],[],[],[],"[3133, 1001]",[],[6691],[],[2003],[],[3047],[],[],[3134],[1036],[],[],"[1028, 3814]",[],[1036],[],"[3133, 1037]",[],"[6333, 1036]",[],[],[],[1036]
participant_9_SOLD,[],[],[],[],[],[],[],[],[1039],[],[],[],[],"[2031, 3134, 3133]",[],[],[2003],[1001],[],[],[],[],[],[],"[1036, 3134, 1028]",[],[],[],[1036],[],"[3133, 1037]",[],[],[],[]
participant_9_UNDO,[],[],[],[],[],[],[],[],[],[],[],[],[],[],[],[],[],[],[],[],[],[],[],[],[],[],[],[],[],[],[],[],[],[],[]
team0_KILLS,0,0,0,0,1,1,2,3,3,4,6,6,7,9,10,12,12,15,17,19,22,24,26,28,31,33,37,38,41,42,42,44,46,47,51
team0_CURRENTGOLD,2500,0,408,1841,3635,3065,4474,3432,4943,5421,3226,2897,2572,3389,4822,5055,3694,7171,3960,3550,5722,3150,2016,1919,1796,4018,7209,2010,2976,3530,2768,4734,5626,3873,4794
team0_TOTALGOLD,2500,2500,2908,4341,6145,7375,8894,10327,11848,13521,15776,17132,19567,21384,24317,26150,27589,31066,33630,35640,38582,41048,43036,44764,46640,48861,53152,55079,56918,58323,59485,61801,64245,66114,70019
team0_LEVEL,5,5,6,13,17,21,23,26,30,32,36,37,39,42,44,47,49,52,53,55,58,60,63,64,65,68,71,72,73,74,75,78,79,79,84
team0_SBIRES,0,0,8,41,72,94,114,131,161,188,206,218,252,270,292,306,325,346,360,377,401,419,441,450,453,472,497,512,514,522,535,563,579,602,623
team1_KILLS,0,0,0,0,0,2,2,3,3,3,5,6,7,7,8,9,11,11,16,17,18,18,19,20,24,24,25,29,31,32,33,34,36,36,37
team1_CURRENTGOLD,2500,0,455,1832,2848,3964,3025,2881,2728,2902,3800,4335,1513,1636,3021,3401,4604,720,3298,3794,2286,1903,3192,4004,2415,3302,1598,3588,4025,5196,1558,3101,3194,3940,2794
team1_TOTALGOLD,2500,2500,2955,4342,5658,7619,8940,10571,11843,13182,14930,16865,18068,19131,20516,21871,24264,25030,29143,30839,32481,33713,35002,36614,39960,41246,42841,46583,48644,50485,52127,53667,55813,57259,58694
team1_LEVEL,5,5,6,12,17,21,24,27,30,32,35,36,40,41,43,45,47,48,52,55,56,56,57,60,62,64,66,69,70,73,75,75,77,78,80
team1_SBIRES,0,0,10,36,52,71,91,110,127,153,165,191,198,220,235,252,271,277,303,328,331,360,370,381,394,414,420,441,462,480,499,510,523,547,558
delta_KILLS,0,0,0,0,1,-1,0,0,0,1,1,0,0,2,2,3,1,4,1,2,4,6,7,8,7,9,12,9,10,10,9,10,10,11,14
delta_CURRENTGOLD,0,0,-47,9,787,-899,1449,551,2215,2519,-574,-1438,1059,1753,1801,1654,-910,6451,662,-244,3436,1247,-1176,-2085,-619,716,5611,-1578,-1049,-1666,1210,1633,2432,-67,2000
delta_TOTALGOLD,0,0,-47,-1,487,-244,-46,-244,5,339,846,267,1499,2253,3801,4279,3325,6036,4487,4801,6101,7335,8034,8150,6680,7615,10311,8496,8274,7838,7358,8134,8432,8855,11325
delta_LEVEL,0,0,0,1,0,0,-1,-1,0,0,1,1,-1,1,1,2,2,4,1,0,2,4,6,4,3,4,5,3,3,1,0,3,2,1,4
delta_SBIRES,0,0,-2,5,20,23,23,21,34,35,41,27,54,50,57,54,54,69,57,49,70,59,71,69,59,58,77,71,52,42,36,53,56,55,65
