name,frame_0,frame_1,frame_2,frame_3,frame_4,frame_5,frame_6,frame_7,frame_8,frame_9,frame_10,frame_11,frame_12,frame_13,frame_14,frame_15,frame_16,frame_17,frame_18,frame_19,frame_20,frame_21,frame_22,frame_23
nameStamp,Tstart,Tearly,Tearly,Tearly,Tearly,Tearly,Tearly,Tearly,Tmid,Tmid,Tmid,Tmid,Tmid,Tmid,Tmid,Tmid,Tend,Tend,Tend,Tend,Tend,Tend,Tend,Tend
timestamp,0,60024,120037,180051,240074,300083,360111,420127,480144,540159,600174,660189,720205,780220,840230,900243,960260,1020286,1080303,1140332,1200342,1260361,1320378,1380378
participant_0_GOLD,500,500,673,2270,3665,5260,6766,7821,9810,10873,12378,12985,14832,15192,16457,17526,19401,20181,21365,22049,22805,25226,26422,26985
participant_0_CURRENTGOLD,500,0,173,1770,1565,1485,1366,421,235,1298,278,190,2037,297,1562,706,2081,3491,675,1359,2115,4036,5232,4485
participant_0_LEVEL,1,1,1,3,5,6,7,7,8,9,10,11,12,12,13,14,16,17,18,18,19,21,22,22
participant_0_MINIONSKILLED,0,0,4,14,31,44,50,53,54,67,68,69,81,81,81,93,103,111,122,123,126,159,172,173
participant_0_KILLS,0,0,0,2,3,4,5,6,8,8,9,9,11,11,12,13,14,14,15,15,16,17,17,17
participant_0_BUY,[],"[1055, 2003, 3340]",[],[],"[1038, 1001]","[1037, 1018]","[3031, 3009, 1042, 1042]","[3086, 2015, 3094]","[1038, 1037]",[],"[3031, 1038]",[1037],[],"[3031, 1037]",[],[3036],[2140],[],"[3072, 2140]",[],[],[2140],[],[2140]
participant_0_SOLD,[],[],[2003],[],[],[],"[1038, 1037, 1018, 1001]","[1042, 1042, 3086, 2015]",[],[],"[1038, 1037]",[1055],[],"[1038, 1037]",[],[1037],[2140],[3009],[2140],[],[],[2140],[],[2140]
participant_0_UNDO,[],[],[],[],[],[],[],[],[],[],[],[],[],[],[],[],[],[],[],[],[],[],[],[]
participant_1_GOLD,500,500,639,1264,2178,2737,3241,3821,4952,5362,6384,6969,8590,9094,10790,11219,12638,13518,14202,15042,15445,16255,17516,18114
participant_1_CURRENTGOLD,500,0,139,764,778,537,1041,321,1451,461,1484,594,2215,374,2070,399,1818,598,1282,472,875,585,496,414
participant_1_LEVEL,1,1,1,2,3,4,5,6,8,8,9,10,12,13,15,15,16,17,17,18,18,19,20,21
participant_1_MINIONSKILLED,0,0,2,7,9,12,18,18,24,24,32,37,44,50,70,70,88,92,100,107,107,107,118,122
participant_1_KILLS,0,0,0,0,1,1,1,1,1,1,2,2,3,3,4,4,5,6,6,6,6,7,8,8
participant_1_BUY,[],"[1055, 2003, 3340]",[],[],"[1042, 1042, 1042]",[3006],[],[1038],[],"[3086, 1042]",[],"[3085, 1037]",[],"[3031, 1038]",[],[3031],[],"[1038, 1018]",[],"[3031, 1036]",[],[3035],[3036],[2140]
participant_1_SOLD,[],[],[],[],[],"[1042, 2003]",[],[],[],[1042],[],"[1042, 3086, 1042]",[],"[1038, 1037, 1055]",[],[1038],[],[],[],"[1038, 1018]",[],[1036],[3035],[2140]
participant_1_UNDO,[],[],[],[],[],[],[],[],[],[],[],[],[],[],[],[],[],[],[],[],[],[],[],[]
participant_2_GOLD,500,500,692,1221,2406,3302,4446,5368,6067,6711,7733,8287,9380,10075,10893,11537,12665,14131,14841,15755,16309,16669,17549,18094
participant_2_CURRENTGOLD,500,0,192,721,56,252,1396,918,517,171,1193,597,1690,110,578,772,1900,878,699,1613,466,826,1207,869
participant_2_LEVEL,1,1,1,2,3,4,6,7,8,9,10,11,12,13,14,15,16,18,18,19,19,19,21,21
participant_2_MINIONSKILLED,0,0,5,8,8,13,23,29,35,37,47,50,50,50,59,60,65,79,85,98,98,98,105,105
participant_2_KILLS,0,0,0,0,2,3,4,4,4,4,5,5,6,7,7,7,7,8,8,8,8,8,8,8
participant_2_BUY,[],"[1036, 2031, 3340]",[],[],"[3134, 1036, 3133]",[3147],[],"[3134, 1001]","[1036, 1036, 3133]","[3142, 1036]",[],"[3134, 1028]",[],"[3814, 1037]",[1036],[3123],[],"[3033, 3133]",[3105],[],"[3812, 1029]",[],[2140],[3364]
participant_2_SOLD,[],[],[],[],"[1036, 1036]","[3134, 3133]",[],[],"[1036, 1036]","[2031, 3133, 3134]",[],[1036],[],"[3134, 1028]",[],[1036],[],"[3123, 1037]",[1001],[],"[3105, 3133]",[],[2140],[3340]
participant_2_UNDO,[],[],[],[],[],[],[],[],[],[],[],[],[],[],[],[],[],[],[],[],[],[],[],[]
participant_3_GOLD,500,500,598,1206,1898,2516,3198,4296,4915,5450,5810,6211,6716,7118,8144,8732,9265,9834,10649,11568,12160,14991,15897,16291
participant_3_CURRENTGOLD,500,15,113,286,98,231,213,411,615,400,325,726,766,368,494,232,765,84,899,568,60,2891,1147,911
participant_3_LEVEL,1,1,1,2,4,4,5,6,7,8,8,8,10,10,12,12,14,15,16,17,17,21,21,22
participant_3_MINIONSKILLED,0,0,0,5,12,13,18,22,25,30,30,31,31,33,38,45,48,49,59,66,72,97,101,101
participant_3_KILLS,0,0,0,0,0,0,0,2,2,2,2,2,2,2,3,3,3,3,3,4,4,6,6,6
participant_3_BUY,[],"[2003, 1052]",[],[1052],"[3145, 1001, 2003, 2003, 1029]","[1052, 2003]","[1036, 1036]",[3144],"[3191, 2003]","[1052, 3146]",[1052],[],[3108],[3020],[3157],[1026],[],[1058],[],[1058],[3089],[],"[3135, 1026]",[]
participant_3_SOLD,[],[],[],[2003],"[1052, 1052, 2003]",[2003],[2003],"[1036, 1036]","[1029, 1052, 2003]","[3144, 3145]",[],[],[1052],[1001],"[3108, 3191, 3108]",[],[],[],[],[],"[1058, 1058]",[],[1026],[]
participant_3_UNDO,[],[],[],[],[],[],[],[],[],"[[0, 1052]]",[],[],[],[],"[[3108, 0]]",[],[],[],[],[],[],[],[],[]
participant_4_GOLD,500,500,654,1193,2194,2725,3229,3927,5010,6242,6827,7982,9530,9890,10748,11699,12799,13552,14718,15789,16582,17113,19020,19694
participant_4_CURRENTGOLD,500,0,154,693,944,425,179,237,920,752,637,292,1840,700,528,1479,1129,532,598,1669,562,593,2500,-956
participant_4_LEVEL,1,1,1,2,3,4,5,6,8,9,9,10,12,12,13,14,16,17,18,18,19,19,21,21
participant_4_MINIONSKILLED,0,0,3,7,15,20,26,35,51,59,59,71,72,72,76,82,82,92,98,99,113,117,140,146
participant_4_KILLS,0,0,0,0,1,1,1,1,2,4,4,5,6,6,7,8,10,10,11,13,13,13,15,15
participant_4_BUY,[],"[1036, 2031, 3340]",[],[],[3134],"[1036, 1036, 1036]","[3133, 1036]",[3142],[3134],"[3133, 1001]","[3142, 3147]","[3047, 1036, 1036]",[],"[3134, 3133]","[1037, 1028, 3814, 3363]",[],[3035],[3033],[3134],[],[3181],[2140],[],"[3026, 2140]"
participant_4_SOLD,[],[],[],[],[1036],[],"[1036, 1036]","[2031, 3133, 3134]","[1036, 1036]",[],"[3133, 3134, 3134, 3133]",[1001],[],"[1036, 1036]","[3133, 1037, 3134, 1028, 3340]",[],[],[3035],[],[],[3134],[2140],[],"[3047, 2140]"
participant_4_UNDO,[],[],[],[],[],[],[],[],[],[],"[[0, 3142]]",[],[],[],[],[],[],[],[],[],[],[],[],[]
participant_5_GOLD,500,500,606,1167,1704,2471,3471,3981,4915,5619,6139,7198,7646,8480,9248,10445,11162,11653,12023,12481,13491,14208,14568,14976
participant_5_CURRENTGOLD,500,15,121,332,169,220,786,446,130,144,314,1373,371,1205,923,870,337,678,198,656,1016,193,553,701
participant_5_LEVEL,1,1,1,3,4,5,6,6,8,8,9,10,11,11,12,14,14,14,14,15,15,17,17,18
participant_5_MINIONSKILLED,0,0,0,4,10,12,17,20,29,29,30,33,33,38,41,46,52,54,54,56,56,56,56,56
participant_5_KILLS,0,0,0,0,0,1,2,2,3,4,4,5,5,5,6,7,7,7,7,7,8,8,8,8
participant_5_BUY,[],"[3340, 2003, 1052]",[],"[1027, 2055]",[3057],"[3113, 1001]",[1052],[1026],"[3100, 3020]","[3145, 2055]",[1036],[],[3152],[],[3145],"[1053, 1036, 3144]","[3146, 2139]","[2055, 2055]",[1026],[],[2420],[3135],[3364],[]
participant_5_SOLD,[],[],[2003],[],[1027],[1052],[],[],"[3057, 3113, 1026, 1001]",[1052],[],[2055],[3145],[],[],"[1036, 1053, 1036]","[3144, 3145]",[2139],[],"[2055, 2055]",[],"[2420, 2421, 1026]",[3340],[]
participant_5_UNDO,[],[],[],"[[0, 2055]]",[],[],[],[],[],[],[],[],[],[],[],[],[],[],[],[],[],[],[],[]
participant_6_GOLD,500,553,653,1127,1930,2730,4498,6773,7929,8949,9886,11483,12087,13479,14234,15476,16430,17238,17598,18064,19176,20062,20927,22757
participant_6_CURRENTGOLD,500,153,253,727,130,930,1148,2448,804,149,1086,583,287,1679,201,1443,1397,305,665,1131,2243,3242,4107,3324
participant_6_LEVEL,1,1,1,2,3,4,6,7,8,9,10,12,13,14,14,16,17,17,17,18,19,20,21,22
participant_6_MINIONSKILLED,0,0,0,3,6,15,21,21,22,34,42,49,49,65,65,68,71,77,77,81,81,83,83,92
participant_6_KILLS,0,0,0,0,0,0,3,5,5,5,5,6,7,7,7,8,8,8,8,8,9,9,9,10
participant_6_BUY,[],"[1028, 3340]",[],[],"[1029, 1029, 3047]",[],"[3052, 1028, 1036]",[3077],"[3194, 1028]","[3748, 3082, 1028]",[],"[3143, 1042, 1042]","[3101, 1028]",[],[3078],[],[3076],"[3364, 3075]",[],[],[],[3193],[],[]
participant_6_SOLD,[],[],[],[],[1029],[],[1028],[1036],[1028],"[3077, 1028, 3052, 1029]",[],"[3082, 1028]","[1042, 1042]",[],"[3101, 1028]",[],[],"[3340, 3076]",[],[],[],[3078],[],[]
participant_6_UNDO,[],[],[],[],[],[],[],[],[],[],[],[],[],[],[],[],[],[],[],[],[],[],[],[]
participant_7_GOLD,500,553,659,1285,2479,2911,3656,4267,5677,6359,6878,7901,8507,9451,10123,11086,11696,12201,12656,13418,14078,14744,15325,16355
participant_7_CURRENTGOLD,500,53,159,785,179,611,1356,967,2377,3059,528,1551,357,1301,73,1036,1646,1151,1606,2368,3028,1794,2375,3405
participant_7_LEVEL,1,1,1,2,4,5,6,7,8,9,9,10,11,12,13,15,15,16,16,17,18,18,19,20
participant_7_MINIONSKILLED,0,0,0,0,0,1,7,14,27,30,31,34,40,42,45,50,52,53,53,68,68,68,72,80
participant_7_KILLS,0,0,0,0,2,2,2,2,2,2,2,4,4,4,4,4,4,4,4,4,4,4,4,5
participant_7_BUY,[],"[1054, 2003, 3340]",[],[],"[3111, 1028, 1029]",[],[],"[3751, 1031]",[],[],"[3068, 3211, 3067]",[],"[3065, 3082]",[],"[1011, 3143]",[],[],[3076],[],[],[],[3075],[],[]
participant_7_SOLD,[],[],[],[2003],[],[],[],"[1028, 1029]",[],[],"[1031, 3751]",[],"[3211, 3067]",[],"[3082, 1011]",[3340],[],[3513],[],[],[],[3076],[],[]
participant_7_UNDO,[],[],[],[],[],[],[],[],[],[],[],[],[],[],[],[],[],[],[],[],[],[],[],[]
participant_8_GOLD,500,925,1132,1999,3462,5050,6677,9371,11423,13653,14929,16744,17772,20368,21571,23341,24139,24633,25883,26420,28271,29413,29773,31207
participant_8_CURRENTGOLD,500,425,282,1149,962,1700,202,2896,823,3053,429,2244,52,2648,2851,4621,4919,1003,2253,2290,4141,4283,4643,2107
participant_8_LEVEL,1,1,1,2,4,5,6,8,9,10,11,13,13,14,15,17,17,17,18,18,20,21,21,22
participant_8_MINIONSKILLED,0,0,6,17,21,30,40,54,63,73,82,103,110,121,128,131,134,139,150,152,164,165,165,169
participant_8_KILLS,0,1,1,1,3,5,7,11,14,18,19,21,22,28,30,33,33,33,34,34,36,37,37,39
participant_8_BUY,[],"[1055, 2003, 3340]",[1036],[],"[1038, 1036]","[1053, 1001]","[3072, 1038, 1037]",[],"[3031, 3094, 1042]",[],"[3006, 3031]",[],"[3364, 3031]",[],"[2140, 2140]",[],[2140],"[3089, 3812, 2140]",[],[2140],[],"[2140, 2140]",[],[2140]
participant_8_SOLD,[],[],[],[2003],[],[1036],"[1038, 1036, 1053]",[],"[1038, 1037]",[],"[1001, 1042]",[],"[1055, 3340]",[],"[2140, 2140]",[],[2140],"[3006, 3089, 2140]",[],[2140],[],"[2140, 2140]",[],[2140]
participant_8_UNDO,[],[],[],[],[],[],[],[],[],[],[],[],[],[],[],[],[],[],[],[],[],[],[],[]
participant_9_GOLD,500,533,685,1130,2407,3400,4814,6062,7640,8406,9398,10645,11030,12162,12885,13845,14449,14809,15355,15994,16979,17884,18386,19010
participant_9_CURRENTGOLD,500,48,200,645,257,450,1864,312,1890,756,1748,95,480,1612,2335,995,799,1159,405,1044,2029,2934,2936,3560
participant_9_LEVEL,1,1,1,2,4,5,6,7,8,9,10,11,12,14,14,15,16,16,16,17,18,20,20,21
participant_9_MINIONSKILLED,0,0,3,4,12,14,20,30,36,39,50,60,60,61,63,63,64,64,65,66,66,67,69,70
participant_9_KILLS,0,0,0,0,2,3,3,3,4,5,6,7,7,7,7,7,7,7,7,7,8,8,8,8
participant_9_BUY,[],"[1052, 2003, 3340]",[],[],"[1058, 3113]",[3907],[],"[1058, 1058, 1001]",[],"[3089, 3047]",[],[3143],[],[1033],[],[3504],"[3114, 3028]",[],[3174],[3363],[],[],[2138],[]
participant_9_SOLD,[],[],[],[2003],[1052],"[1058, 3113]",[],[],[],"[1058, 1058, 1001]",[],[],[],[],[],[],[],[],[3028],[3340],[],[3363],[2138],[3513]
participant_9_UNDO,[],[],[],[],[],[],[],[],[],[],[],[],[],"[[0, 1033]]",[],[],"[[0, 3114]]",[],[],[],[],[],[],[]
team0_KILLS,0,0,0,2,7,9,11,14,17,19,22,23,28,29,33,35,39,41,43,46,47,51,54,54
team0_CURRENTGOLD,2500,15,771,4234,3441,2930,4195,2308,3738,3082,3917,2399,8548,1849,5232,3588,7693,5583,4153,5681,4078,8931,10582,5723
team0_TOTALGOLD,2500,2500,3256,7154,12341,16540,20880,25233,30754,34638,39132,42434,49048,51369,57032,60713,66768,71216,75775,80203,83301,90254,96404,99178
team0_LEVEL,5,5,5,11,18,22,28,32,39,43,46,50,58,60,67,70,78,84,87,90,92,99,105,107
team0_SBIRES,0,0,14,41,75,102,135,157,189,217,236,258,278,286,324,350,386,423,464,493,516,578,636,647
team1_KILLS,0,1,1,1,7,11,17,23,28,34,36,43,45,51,54,59,59,59,60,60,65,66,66,70
team1_CURRENTGOLD,2500,694,1015,3638,1697,3911,5356,7069,6024,7161,4105,5846,1547,8445,6383,8965,9098,4296,5127,7489,12457,12446,14614,13097
team1_TOTALGOLD,2500,3064,3735,6708,11982,16562,23116,30454,37584,42986,47230,53971,57042,63940,68061,74193,77876,80534,83515,86377,91995,96311,98979,104305
team1_LEVEL,5,5,5,11,19,24,30,35,41,45,49,56,60,65,68,77,79,80,81,85,90,96,98,103
team1_SBIRES,0,0,9,28,49,72,105,139,177,205,235,279,292,327,342,358,373,387,399,423,435,439,445,467
delta_KILLS,0,-1,-1,1,0,-2,-6,-9,-11,-15,-14,-20,-17,-22,-21,-24,-20,-18,-17,-14,-18,-15,-12,-16
delta_CURRENTGOLD,0,-679,-244,596,1744,-981,-1161,-4761,-2286,-4079,-188,-3447,7001,-6596,-1151,-5377,-1405,1287,-974,-1808,-8379,-3515,-4032,-7374
delta_TOTALGOLD,0,-564,-479,446,359,-22,-2236,-5221,-6830,-8348,-8098,-11537,-7994,-12571,-11029,-13480,-11108,-9318,-7740,-6174,-8694,-6057,-2575,-5127
delta_LEVEL,0,0,0,0,-1,-2,-2,-3,-2,-2,-3,-6,-2,-5,-1,-7,-1,4,6,5,2,3,7,4
delta_SBIRES,0,0,5,13,26,30,30,18,12,12,1,-21,-14,-41,-18,-8,13,36,65,70,81,139,191,180
