name,team0,team1
win,Fail,Win
firstBlood,False,True
firstTower,False,True
firstInhibitor,False,False
firstBaron,False,False
firstDragon,True,False
firstRiftHerald,True,False
towerKills,2,7
inhibitorKills,0,0
baronKills,0,0
dragonKills,3,2
riftHeraldKills,1,0
