name,frame_0,frame_1,frame_2,frame_3,frame_4,frame_5,frame_6,frame_7,frame_8,frame_9,frame_10,frame_11,frame_12,frame_13,frame_14,frame_15,frame_16,frame_17,frame_18,frame_19,frame_20,frame_21,frame_22,frame_23,frame_24,frame_25,frame_26,frame_27,frame_28,frame_29,frame_30,frame_31,frame_32,frame_33,frame_34,frame_35
nameStamp,Tstart,Tearly,Tearly,Tearly,Tearly,Tearly,Tearly,Tearly,Tearly,Tearly,Tearly,Tearly,Tearly,Tearly,Tearly,Tearly,Tearly,Tearly,Tmid,Tmid,Tmid,Tmid,Tmid,Tmid,Tmid,Tmid,Tmid,Tmid,Tmid,Tmid,Tend,Tend,Tend,Tend,Tend,Tend
timestamp,0,60018,120039,180063,240075,300093,360102,420123,480134,540157,600171,660197,720212,780233,840247,900269,960278,1020308,1080321,1140347,1200364,1260393,1320409,1380439,1440457,1500459,1560473,1620482,1680507,1740537,1800552,1860553,1920577,1980579,2040606,2100625
participant_0_GOLD,500,500,547,872,1000,1328,1721,1920,2222,2915,3142,3307,3615,3849,4212,4800,5164,5326,5488,5740,6000,6292,6609,6731,7395,7517,8583,8790,9108,9906,10134,11097,11270,11393,12203,12860
participant_0_CURRENTGOLD,500,0,47,372,15,343,736,185,487,280,507,67,375,609,972,1560,249,411,173,425,250,542,859,131,795,2,1068,75,393,271,499,362,536,258,1068,1726
participant_0_LEVEL,1,1,1,3,4,5,6,6,7,8,8,8,9,9,10,11,11,11,11,12,12,12,12,12,13,13,14,14,14,15,15,16,16,16,16,17
participant_0_MINIONSKILLED,0,0,1,12,12,21,33,37,47,49,55,58,65,72,82,89,99,101,102,109,113,118,125,126,129,129,134,134,135,145,145,147,148,148,155,155
participant_0_KILLS,0,0,0,0,0,0,0,0,0,0,0,0,0,1,1,1,1,1,1,1,1,1,1,1,1,1,2,2,2,2,2,2,2,2,2,2
participant_0_BUY,[],"[3858, 2003, 2003, 3340]",[],[],[],[],"[1052, 2031, 2055]",[],[],"[3108, 1001]",[],"[3028, 3364]",[],[],"[3174, 1028, 2055, 2055]","[3801, 2055]",[],[],"[3009, 2055]",[2055],[],[],"[3114, 2055, 2055]",[],[],[],[],"[3107, 1028, 2055, 2055]",[],"[3067, 2055, 2055]",[1031],[],[],"[3109, 1042]",[],[]
participant_0_SOLD,[],[],[],[2003],[2003],[],[2055],[],[],[1052],[3858],[3340],[],[],"[3108, 3028, 2055]","[2055, 1028]",[2055],[],[1001],[],[3859],[2055],"[2055, 2031]",[],[2055],[],[2055],"[3114, 3801, 2055]",[2055],"[1028, 2055]",[2055],[],[],"[3067, 1031]",[],[]
participant_0_UNDO,[],[],[],[],[],[],[],[],[],[],[],[],[],[],[],[],[],[],[],[],[],[],[],[],[],[],[],[],[],[],[],[],[],[],[],[]
participant_1_GOLD,500,500,663,1021,1249,1413,1653,2075,2412,2820,3047,3915,4392,4614,5152,6384,6507,6839,7146,7719,8377,8603,9008,9201,10493,10850,12048,12444,12863,13590,14118,14710,15067,16100,16421,16818
participant_1_CURRENTGOLD,500,0,163,521,749,163,403,390,727,1135,247,1115,1592,339,877,2109,192,524,831,1404,972,1198,1603,696,1988,1296,2493,439,858,1586,2113,456,813,1846,2167,104
participant_1_LEVEL,1,1,2,3,3,3,4,4,5,5,6,7,7,8,8,9,9,9,9,10,10,11,11,12,12,13,14,14,15,16,16,17,17,17,17,18
participant_1_MINIONSKILLED,0,0,0,0,0,2,2,2,3,3,3,6,6,6,6,7,7,8,8,8,8,8,12,12,13,13,13,19,19,25,25,26,26,26,27,27
participant_1_KILLS,0,0,0,0,0,0,0,0,0,1,1,1,1,1,1,2,2,2,2,2,2,2,2,2,3,3,5,5,5,5,5,7,7,7,8,9
participant_1_BUY,[],"[1054, 2003, 3340]",[],[],"[1052, 2003]",[],[],"[1033, 1001]",[],"[3111, 1028, 2031]",[],[3136],[],[],[],[],"[3151, 2055]",[],[1028],[],[1052],[],[],[1026],[],[3116],[],[3211],[],"[3067, 1029]",[],"[3065, 1029]",[],[3082],[],[]
participant_1_SOLD,[],[],[],[2003],[],[2003],[],[],[],"[1001, 1033]",[],"[2031, 1028, 1052]",[],[],[],[],[3136],[2055],[],[],[],[],[],[],[],"[1026, 1052, 1028]",[],[],[],[1054],[],"[3211, 3067]",[],"[1029, 1029]",[],[]
participant_1_UNDO,[],[],[],[],[],[],[],[],[],[],[],[],[],[],[],[],[],[],[],[],[],[],[],[],[],[],[],[],[],[],[],[],[],[],[],[]
participant_2_GOLD,500,500,612,867,1116,1392,1985,2142,2397,2534,2956,3149,3475,3744,4014,4136,4661,4797,4982,5245,5493,5798,6078,6235,6956,7788,8108,8453,8743,9244,9466,10249,10677,10869,11121,12092
participant_2_CURRENTGOLD,500,0,112,367,241,517,260,117,372,134,556,699,1025,44,314,436,961,1097,307,495,743,248,528,20,741,1573,653,123,113,264,61,845,1272,564,817,1788
participant_2_LEVEL,1,1,1,3,4,5,5,6,7,7,7,8,8,9,9,9,10,10,10,10,10,11,11,11,12,13,14,14,14,15,15,16,16,16,16,17
participant_2_MINIONSKILLED,0,0,5,12,20,27,33,35,43,44,52,56,64,73,82,82,94,95,99,100,102,112,117,119,129,143,152,160,163,168,168,171,173,173,174,178
participant_2_KILLS,0,0,0,0,0,0,0,0,1,1,1,1,1,1,1,1,1,2,2,2,2,3,3,3,4,4,4,4,8,8,9,9,9,9,9,11
participant_2_BUY,[],"[1055, 2003, 3340]",[],[],"[1055, 2003]",[],[],[],[],"[1038, 1001, 2003]",[],[1037],[],[],[],[],"[3031, 1042]",[],[3086],[],[3094],[],[3006],[],[3123],[],[1038],[],[],"[3508, 1036]",[1053],[],[3033],[],[],[]
participant_2_SOLD,[],[],[],[2003],[],[],[],[],[],[],"[2003, 2003]",[],[],[],[],[],"[1038, 1037]",[],[1042],[],[3086],[],[1001],[],[],[],[1055],[],[],"[1038, 1055]",[1036],[],[3123],[],[],[]
participant_2_UNDO,[],[],[],[],[],[],[],[],[],[],[],[],[],[],[],[],[],[],[],[],[],[],[],[],[],[],[],[],[],[],[],[],[],[],[],[]
participant_3_GOLD,500,500,598,881,1183,1438,1729,2250,2866,3183,3480,3741,3928,4134,4627,4939,5314,6000,6401,7387,7579,8237,8370,8492,9129,9456,10467,10814,12307,13145,14283,14405,15159,15482,16134,17360
participant_3_CURRENTGOLD,500,0,98,381,183,438,729,1250,1866,533,830,216,403,609,1102,1414,264,950,251,1237,229,887,220,342,179,506,397,745,2237,906,1493,1616,370,692,1345,2571
participant_3_LEVEL,1,1,1,2,3,3,4,5,6,6,6,7,7,7,8,8,9,9,10,11,11,12,12,12,12,13,13,14,14,15,15,15,16,16,16,17
participant_3_MINIONSKILLED,0,0,4,14,22,27,37,52,59,68,78,82,85,90,98,98,109,119,131,150,155,169,169,169,176,177,189,196,199,206,213,213,224,224,231,237
participant_3_KILLS,0,0,0,0,0,0,0,1,1,1,1,3,3,3,4,6,6,6,6,7,8,8,8,8,9,9,11,11,11,11,12,12,12,15,15,15
participant_3_BUY,[],"[1039, 2031, 3340]",[3364],[],[],"[1082, 1056]",[],[1052],[],[],"[3108, 3706]",[],[],"[1402, 3020, 2055]",[],[],"[1058, 3113]",[],[],[],[1058],[],[],[3089],[],[3057],[],"[3100, 2420, 2139]",[],[],[],[3157],[],[],[],[3087]
participant_3_SOLD,[],[],[3340],[],[],[],[],[],[],[],"[1052, 1039]",[],[],"[3108, 3706, 2422, 2055]",[],[],[2031],[],[],[],[1056],[],[],"[1058, 1058]",[],[],[],"[3057, 3113, 2139]",[2420],[],[],[2421],[],[],[],[1082]
participant_3_UNDO,[],[],[],[],[],[],[],[],[],[],[],[],[],[],[],[],[],[],[],[],[],[],[],[],[],[],[],[],[],[],[],[],[],[],[],[]
participant_4_GOLD,500,500,558,692,908,1105,1254,1529,1903,2131,2301,2771,2911,3643,3783,4084,4255,4700,4885,5110,5368,5658,5798,5938,6089,6244,7016,7187,7623,8065,8470,8685,8891,9256,9507,9964
participant_4_CURRENTGOLD,500,0,58,192,408,605,94,369,743,206,376,46,186,918,108,84,255,700,210,360,618,908,158,299,449,604,1376,347,783,675,310,526,731,196,447,904
participant_4_LEVEL,1,1,1,2,3,4,4,4,5,5,6,6,7,8,8,8,9,9,10,10,10,11,11,11,11,11,12,12,13,14,14,14,14,15,15,16
participant_4_MINIONSKILLED,0,0,2,2,4,5,6,7,9,11,12,14,14,19,19,19,21,25,27,29,31,33,33,33,34,35,36,38,39,39,40,40,41,42,44,47
participant_4_KILLS,0,0,0,0,0,0,1,1,1,1,1,1,1,1,1,1,1,1,1,1,1,1,1,1,1,2,2,2,2,2,2,4,4,4,4,5
participant_4_BUY,[],"[2003, 1055, 3340]",[],[],"[1042, 2055]",[],"[3006, 2003]",[1042],[],"[1042, 2055]",[],[2003],[],"[3086, 2003, 2055, 2031]",[],[],[],[],"[3046, 2055]","[2055, 3363]",[],[1018],[],[1037],[],[],[1038],"[3031, 1033]",[1029],[3105],"[1036, 2055]",[],[],"[1053, 1036]",[],[]
participant_4_SOLD,[],[],[],[2003],[],[],"[1042, 2055]",[2003],[],[],[2055],[],[2003],[1042],[],[],[],[],"[1042, 3086]",[3340],[],[],[],"[1055, 1055, 2055]",[2055],[],[2031],"[1038, 1037, 1018]",[],"[1033, 1029]",[],[],[2055],[1036],[],[]
participant_4_UNDO,[],[],[],[],[],[],[],[],[],[],[],[],[],"[[0, 2055], [0, 2003]]",[],[],[],[],[],[],[],[],[],"[[1055, 0]]",[],[],[],[],[],[],[],[],[],[],[],[]
participant_5_GOLD,500,500,570,839,1707,2074,2302,2742,3268,3496,3800,4518,4731,5148,5548,5761,6003,7446,7663,8017,8603,8972,9206,9546,10389,10707,10829,11147,11269,11393,12010,12258,12792,13084,13277,13457
participant_5_CURRENTGOLD,500,0,70,339,1207,1574,52,492,1018,96,400,1118,156,573,973,386,628,2071,698,1052,1638,857,1091,382,1224,292,415,732,855,978,1596,73,608,50,243,422
participant_5_LEVEL,1,1,1,3,4,5,6,7,7,8,8,9,9,10,10,10,11,12,12,12,13,13,13,14,14,14,14,15,15,15,15,16,16,16,16,16
participant_5_MINIONSKILLED,0,0,3,11,17,28,34,50,61,67,78,83,88,102,114,119,126,134,134,137,144,153,160,170,170,170,170,177,177,177,186,186,193,193,197,197
participant_5_KILLS,0,0,0,0,2,2,2,2,2,2,2,2,2,2,2,2,2,4,4,4,4,4,4,4,5,5,5,5,5,5,5,5,6,6,6,6
participant_5_BUY,[],"[1056, 2003, 2003, 3340]",[],[],[],[],"[3802, 1082, 2003, 2003]",[],[],"[1001, 1026]",[],[],"[3285, 2055, 2003]",[],[],[3020],[],[],"[3191, 2420]",[],[],[3157],[],[3041],[],[1058],[],[],[],[],[],"[1058, 3089, 1028]",[],[1026],[],[]
participant_5_SOLD,[],[],[],[],[2003],[2003],[],[],[2003],[2003],[],[],"[3802, 1026]",[],[2003],[1001],[],[],"[1056, 2055]",[],[2055],"[3191, 2420]",[],[1082],[],[],[],[],[],[],[],"[3041, 1058, 1058]",[],[],[],[]
participant_5_UNDO,[],[],[],[],[],[],[],[],[],[],[],[],[],[],[],[],[],[],"[[2055, 0]]",[],[],[],[],[],[],[],[],[],[],[],[],[],[],[],[],[]
participant_6_GOLD,500,500,621,1013,1421,1909,2286,2633,2858,3215,3613,4182,4453,4851,4994,5260,5658,6420,6627,7025,7562,7784,8311,8757,8979,9287,9451,9759,9981,10231,10591,11262,11510,12463,12599,12759
participant_6_CURRENTGOLD,500,0,121,513,921,1409,236,583,808,490,888,1457,1728,2126,169,435,833,1595,1802,2200,337,219,746,1192,615,922,286,594,816,1067,627,298,545,1499,135,295
participant_6_LEVEL,1,1,2,3,3,4,5,5,6,6,7,8,8,9,9,9,10,11,11,11,11,12,12,13,13,13,13,14,14,14,15,15,15,16,16,16
participant_6_MINIONSKILLED,0,0,0,0,0,1,1,1,1,1,1,4,5,5,6,6,6,7,8,8,8,8,8,10,10,10,12,12,12,14,14,17,17,26,27,27
participant_6_KILLS,0,0,0,0,0,1,1,1,1,1,1,2,2,2,2,2,2,3,3,3,4,4,4,4,4,4,4,4,4,4,4,5,5,6,6,6
participant_6_BUY,[],"[1039, 2031, 3340]",[],[],[],[],"[3706, 3751]",[],[],"[1401, 2055]",[],[],[],[],"[3111, 3076, 1029]",[],[],[],[],[],"[3075, 3067]",[1028],[],[],[3211],[],[3065],[],[],[],[1031],[1011],[],[],"[3742, 1028]",[]
participant_6_SOLD,[],[],[],[],[],[],[1039],[],[],"[3751, 3706]",[],[],[2055],[],[2422],[],[],[],[],[],"[3076, 1029]",[2031],[],[],[1028],[],"[3211, 3067]",[],[],[],[],[],[],[],"[1031, 1011]",[]
participant_6_UNDO,[],[],[],[],[],[],[],[],[],[],[],[],[],[],[],[],[],[],[],[],[],[],[],[],[],[],[],[],[],[],[],[],[],[],[],[]
participant_7_GOLD,500,500,521,1126,1414,1812,2339,2981,3299,4171,4371,5157,5384,5695,5860,6046,6328,6612,7070,7923,8918,9377,9562,10420,10642,11234,11357,11479,11971,12290,12450,13551,14158,14735,14857,15017
participant_7_CURRENTGOLD,500,0,21,626,139,537,164,806,1124,1996,321,1107,1334,110,275,26,308,127,585,1438,2433,1327,262,1120,92,685,807,929,1422,640,800,1902,909,1485,208,368
participant_7_LEVEL,1,1,1,3,4,5,6,6,7,8,8,9,10,10,10,10,11,11,12,12,13,13,13,14,14,14,14,14,14,14,15,15,15,16,16,16
participant_7_MINIONSKILLED,0,0,0,4,11,15,20,26,34,48,52,64,70,81,84,84,89,96,103,115,119,128,131,140,140,140,140,140,140,147,147,148,149,154,154,154
participant_7_KILLS,0,0,0,1,1,1,2,3,3,4,4,5,5,5,5,5,5,5,6,6,9,10,10,12,12,13,13,13,14,14,14,15,16,17,17,17
participant_7_BUY,[],"[1054, 2003, 1036, 2003, 2003, 2003, 3340]",[],[],"[1082, 1036, 2055]",[],[3144],[],[],[],"[3146, 2055]",[],[],"[3020, 1052]",[],[1052],[],[3108],[],[],[],[3157],[1058],[],[1058],[],[],[],[],[3089],[],[],[3916],[],[3165],[]
participant_7_SOLD,[],[],[],[2003],[],"[2003, 2003]","[2055, 1036, 1036]",[],[],[],[3144],[],[],[],[],[2055],[],[1052],[],[],[],"[1052, 3108]",[],[],[],[],[],[],[],"[1058, 1058]",[],[],[],[],[3916],[]
participant_7_UNDO,[],"[[0, 2003], [0, 1054]]",[],[],[],[],[],[],[],[],[],[],[],[],[],[],[],[],[],[],[],[],[],[],[],[],[],[],[],[],[],[],[],[],[],[]
participant_8_GOLD,500,500,584,846,1462,1696,1997,2238,2562,2991,3242,3536,3962,4354,4491,4711,5026,5324,5568,5875,6088,6330,6466,7112,7334,7701,7823,8060,8183,8508,9868,10275,10907,11029,11332,12055
participant_8_CURRENTGOLD,500,0,84,346,962,1196,1497,363,87,516,767,186,612,1004,341,561,876,149,393,300,513,755,91,737,359,726,348,585,708,1033,293,701,1332,354,658,580
participant_8_LEVEL,1,1,1,2,3,4,4,5,5,6,6,7,7,8,8,8,8,9,9,10,10,10,10,11,11,11,11,11,12,12,13,13,14,14,14,15
participant_8_MINIONSKILLED,0,0,3,11,19,25,32,39,48,58,65,66,75,83,84,90,97,104,111,116,121,128,129,132,132,142,142,143,143,151,151,159,167,167,170,170
participant_8_KILLS,0,0,0,0,0,0,0,1,1,1,1,2,3,3,3,4,4,4,5,5,5,5,5,5,5,6,6,6,6,6,7,7,7,7,7,7
participant_8_BUY,[],"[3858, 2003, 2003, 3340]",[],[],[],"[1036, 1001]",[],[],"[3133, 2055, 3364]",[],[],"[1036, 1036, 2055]",[],"[3134, 3142]",[],[1033],[],[1036],[],[],"[3111, 1033]",[3155],[],[],[],"[3067, 2055]",[],[],[3044],[],[],[3071],[],"[2055, 2055]",[],[]
participant_8_SOLD,[],[],[],"[2003, 2003]",[],[],[],[],"[1036, 3340]",[],"[3858, 2055]",[],[],"[1036, 1036, 3133, 3134]",[2055],[],[],[],[],"[3364, 3513]","[1001, 1033]","[1036, 1033, 3859]",[],[],[],[],[],[2055],[],[],[],"[3044, 3067]",[],[],[2055],"[3155, 3860, 3071, 3142, 3111, 2055]"
participant_8_UNDO,[],[],[],[],[],[],[],[],[],[],[],[],[],[],[],[],[],[],[],[],[],[],[],[],[],[],[],[],[],[],[],[],[],[],[],[]
participant_9_GOLD,500,500,523,678,1065,1199,1442,1906,2130,2452,2623,3063,3588,3900,4040,4356,4497,4687,5128,5575,5901,6041,6308,6690,6930,7462,7603,7907,8198,8353,8844,9035,9240,9455,9686,9862
participant_9_CURRENTGOLD,500,0,23,178,565,49,292,756,155,477,648,313,838,50,191,57,197,37,478,925,451,91,358,740,980,638,778,1082,123,278,770,10,215,281,511,6688
participant_9_LEVEL,1,1,1,2,3,4,4,5,5,6,6,6,7,7,7,8,8,8,9,9,10,10,10,11,11,11,11,12,12,12,13,13,14,14,14,14
participant_9_MINIONSKILLED,0,0,0,1,4,4,7,8,10,13,15,15,20,22,22,22,22,22,22,25,26,26,26,28,28,31,31,37,37,38,39,39,40,40,41,41
participant_9_KILLS,0,0,0,0,1,1,1,1,1,1,1,1,1,1,1,1,1,1,1,1,1,1,1,2,2,2,2,2,2,2,4,4,4,4,4,5
participant_9_BUY,[],"[1055, 2003, 3340]",[],[],[],[],[],"[1038, 2055]","[1001, 1042]",[],[],[1037],[],[],[1018],[],[],"[3031, 3009]",[3363],[2015],[],[],[1018],[],[3086],[],[3094],[],[],[],"[1038, 1018]",[],[],[3095],[],[1018]
participant_9_SOLD,[],[],[],[2003],[],[],[],[],[2055],[],[],[],[],[],[],[],[],"[1038, 1037, 1018, 1001]",[3340],[1042],[],[],[],[],[1018],[],"[3086, 2015]",[],[],[],[],[],[],"[1038, 1018]",[],[]
participant_9_UNDO,[],[],[],[],[],[],[],[],[],[],[],[],[],[],[],[],[],[],[],[],[],[],[],[],[],[],[],[],[],[],[],[],[],[],[],[]
team0_KILLS,0,0,0,0,0,0,1,2,3,4,4,6,6,7,8,11,11,12,12,13,14,15,15,15,18,19,24,24,28,28,30,34,34,37,38,42
team0_CURRENTGOLD,2500,0,478,1833,1596,2066,2222,2311,4195,2288,2516,2143,3581,2519,3373,5603,1921,3682,1772,3921,2812,3783,3368,1488,4152,3981,5987,1729,4384,3702,4476,3805,3722,3556,5844,7093
team0_TOTALGOLD,2500,2500,2978,4333,5456,6676,8342,9916,11800,13583,14926,16883,18321,19984,21788,24343,25901,27662,28902,31201,32817,34588,35863,36597,40062,41855,46222,47688,50644,53950,56471,59146,61064,63100,65386,69094
team0_LEVEL,5,5,6,13,17,20,23,25,30,31,33,36,38,41,43,45,48,48,50,53,53,57,57,58,60,63,67,68,70,75,75,78,79,80,80,85
team0_SBIRES,0,0,12,40,58,82,111,133,161,175,200,216,234,260,287,295,330,348,367,396,409,440,456,459,481,497,524,547,555,583,591,597,612,613,631,644
team1_KILLS,0,0,0,1,4,5,6,8,8,9,9,12,13,13,13,14,14,17,19,19,23,24,24,27,28,30,30,30,31,31,34,36,38,40,40,41
team1_CURRENTGOLD,2500,0,319,2002,3794,4765,2241,3000,3192,3575,3024,4181,4668,3863,1949,1465,2842,3979,3956,5915,5372,3249,2548,4171,3270,3263,2634,3922,3924,3996,4086,2984,3609,3669,1755,8353
team1_TOTALGOLD,2500,2500,2819,4502,7069,8690,10366,12500,14117,16325,17649,20456,22118,23948,24933,26134,27512,30489,32056,34415,37072,38504,39853,42525,44274,46391,47063,48352,49602,50775,53763,56381,58607,60766,61751,63150
team1_LEVEL,5,5,6,13,17,22,25,28,30,34,35,39,41,44,44,45,48,51,53,54,57,58,58,63,63,63,63,66,67,67,71,72,74,76,76,77
team1_SBIRES,0,0,6,27,51,73,94,124,154,187,211,232,258,293,310,321,340,363,378,401,418,443,454,480,480,493,495,509,509,527,537,549,566,580,589,589
delta_KILLS,0,0,0,-1,-4,-5,-5,-6,-5,-5,-5,-6,-7,-6,-5,-3,-3,-5,-7,-6,-9,-9,-9,-12,-10,-11,-6,-6,-3,-3,-4,-2,-4,-3,-2,1
delta_CURRENTGOLD,0,0,159,-169,-2198,-2699,-19,-689,1003,-1287,-508,-2038,-1087,-1344,1424,4138,-921,-297,-2184,-1994,-2560,534,820,-2683,882,718,3353,-2193,460,-294,390,821,113,-113,4089,-1260
delta_TOTALGOLD,0,0,159,-169,-1613,-2014,-2024,-2584,-2317,-2742,-2723,-3573,-3797,-3964,-3145,-1791,-1611,-2827,-3154,-3214,-4255,-3916,-3990,-5928,-4212,-4536,-841,-664,1042,3175,2708,2765,2457,2334,3635,5944
delta_LEVEL,0,0,0,0,0,-2,-2,-3,0,-3,-2,-3,-3,-3,-1,0,0,-3,-3,-1,-4,-1,-1,-5,-3,0,4,2,3,8,4,6,5,4,4,8
delta_SBIRES,0,0,6,13,7,9,17,9,7,-12,-11,-16,-24,-33,-23,-26,-10,-15,-11,-5,-9,-3,2,-21,1,4,29,38,46,56,54,48,46,33,42,55
