name,team0,team1
win,Fail,Win
firstBlood,False,True
firstTower,True,False
firstInhibitor,False,True
firstBaron,False,True
firstDragon,False,True
firstRiftHerald,True,False
towerKills,2,10
inhibitorKills,0,2
baronKills,0,1
dragonKills,0,2
riftHeraldKills,1,0
