name,team0,team1
win,Fail,Win
firstBlood,True,False
firstTower,True,False
firstInhibitor,False,True
firstBaron,False,True
firstDragon,False,True
firstRiftHerald,True,False
towerKills,2,11
inhibitorKills,0,3
baronKills,0,1
dragonKills,1,3
riftHeraldKills,2,0
