name,frame_0,frame_1,frame_2,frame_3,frame_4,frame_5,frame_6,frame_7,frame_8,frame_9,frame_10,frame_11,frame_12,frame_13,frame_14,frame_15,frame_16,frame_17,frame_18,frame_19,frame_20,frame_21
nameStamp,Tstart,Tearly,Tearly,Tearly,Tearly,Tearly,Tearly,Tearly,Tearly,Tearly,Tearly,Tearly,Tearly,Tearly,Tearly,Tearly,Tearly,Tmid,Tmid,Tmid,Tmid,Tmid
timestamp,0,60024,120051,180056,240067,300091,360100,420115,480132,540141,600162,660165,720194,780214,840228,900239,960246,1020257,1080265,1140278,1200287,1260287
participant_0_GOLD,500,500,521,790,990,1224,1487,1773,2014,2200,2336,2618,2831,3065,3332,3538,3689,3811,4815,5001,5183,5223
participant_0_CURRENTGOLD,500,0,21,290,490,724,987,1273,1514,1700,1836,2118,2331,215,482,688,839,961,1015,401,583,623
participant_0_LEVEL,1,1,1,3,4,4,5,6,7,7,7,8,8,8,9,9,10,10,10,10,10,10
participant_0_MINIONSKILLED,0,0,0,9,14,18,26,33,39,43,44,49,54,61,66,71,73,73,79,83,84,84
participant_0_KILLS,0,0,0,0,0,0,0,0,0,0,0,0,0,0,0,0,0,0,1,1,1,1
participant_0_BUY,[],"[1055, 2003, 3340]",[],[],[],[],[],[],[],[],[],[],[],"[1001, 3044, 3067]",[],[],[],[1053],[3071],[3047],[],[]
participant_0_SOLD,[],[],[],[],[],[],[],[],[],[],[],[],[],[],[],[],[],[],"[3044, 3067]",[1001],[],[]
participant_0_UNDO,[],[],[],[],[],[],[],[],[],[],[],[],[],[],[],[],[],"[[0, 1053]]",[],[],[],[]
participant_1_GOLD,500,500,621,848,1156,1640,1838,2000,2352,2475,2796,3089,3316,3898,4120,4356,4763,5397,5792,6004,6322,6438
participant_1_CURRENTGOLD,500,110,231,108,416,900,1098,260,612,300,621,914,126,708,190,426,833,267,662,474,792,688
participant_1_LEVEL,1,1,1,1,3,3,3,3,4,4,5,5,6,6,7,7,8,9,10,10,10,11
participant_1_MINIONSKILLED,0,0,0,0,0,0,0,0,0,0,0,0,0,1,1,3,10,13,22,23,23,23
participant_1_KILLS,0,0,0,0,0,0,0,0,0,0,0,0,0,0,0,1,1,1,1,1,2,2
participant_1_BUY,[],[1001],[],[],[1052],[1004],[1052],[],[],[],[3070],[],[3802],[],[],[3020],[],[],[],[1026],[],[]
participant_1_SOLD,[],[],[],[],[],[],[],[],[],[],[1004],[],"[1052, 1052]",[],[],[1001],[],[],[],[],[],[]
participant_1_UNDO,[],[],[],[],[],[],[],[],[],[],[],[],[],[],[],[],[],[],[],[],[],[]
participant_2_GOLD,500,500,556,755,1001,1165,1351,1515,1679,2035,2196,2485,2628,2764,2915,3679,3802,3924,4067,4211,4933,4973
participant_2_CURRENTGOLD,500,200,256,455,266,305,56,220,384,740,176,465,178,314,465,429,552,674,817,111,833,873
participant_2_LEVEL,1,1,1,3,4,5,5,5,6,7,7,8,8,8,8,9,9,9,10,10,10,10
participant_2_MINIONSKILLED,0,0,2,6,11,13,17,20,23,33,38,44,45,46,48,50,50,50,51,52,52,52
participant_2_KILLS,0,0,0,0,0,0,0,0,0,0,0,0,0,0,0,0,0,1,1,1,2,2
participant_2_BUY,[],"[1055, 2003, 3340]",[],[],[1036],[],[],[],[],"[3133, 2055, 2003]",[],[1001],[],[],[1018],[],[],[],"[3508, 2055]",[],[],"[3006, 1042, 2055]"
participant_2_SOLD,[],[],[2003],[],[],[],[],[],[],[1036],"[2003, 2055]",[],[],[],[],[],[],[],"[3133, 1018]",[],[2055],[1001]
participant_2_UNDO,[],[],[],[],[],[],[],[],[],[],[],[],[],[],[],[],[],[],[],[],[],[]
participant_3_GOLD,500,500,556,713,938,1137,1281,1459,1721,1844,2206,2446,2709,3018,3182,3354,3476,4285,4428,4585,5588,5628
participant_3_CURRENTGOLD,500,0,56,213,88,287,431,609,871,119,481,421,684,993,357,529,651,1460,128,285,1288,153
participant_3_LEVEL,1,1,1,2,3,3,4,5,5,5,6,6,7,7,7,8,8,8,9,9,10,10
participant_3_MINIONSKILLED,0,0,2,4,8,13,14,17,25,25,29,32,37,43,46,49,49,57,58,60,60,60
participant_3_KILLS,0,0,0,0,0,0,0,0,0,0,1,1,1,1,1,1,1,1,1,1,1,1
participant_3_BUY,[],"[2003, 2003, 3340, 3850]",[],[],[],[],[],"[3117, 2055]",[],[],"[1029, 1052, 3364]",[3191],[1052],[],[3108],[],[],[],"[3157, 1004, 1004]",[],[3114],[]
participant_3_SOLD,[],[],[],[2010],[2003],"[2003, 2010]",[],[2010],[2055],[3850],[3340],"[2419, 1029, 1052]",[],[],[1052],[],[],[3851],"[3191, 3108, 2423]",[],"[1004, 1004]",[]
participant_3_UNDO,[],[],[],[],[],[],[],[],[],[],[],[],[],[],[],[],[],[],[],[],[],[]
participant_4_GOLD,500,500,583,731,962,1321,1621,1770,2062,2328,2839,3072,3227,3511,3697,3912,4098,4449,4624,4765,5105,5151
participant_4_CURRENTGOLD,500,0,83,231,462,821,1121,195,487,753,529,397,117,401,122,337,523,874,149,290,80,126
participant_4_LEVEL,1,1,1,2,3,4,4,5,5,6,6,6,6,7,7,7,7,8,8,8,9,9
participant_4_MINIONSKILLED,0,0,0,1,2,2,4,4,6,10,11,15,15,15,15,15,15,17,19,19,19,19
participant_4_KILLS,0,0,0,0,0,1,1,1,1,1,1,1,1,2,2,2,2,3,3,3,3,3
participant_4_BUY,[],"[1056, 2031, 3340]",[],[1039],[],[],[],"[3706, 1027]",[],[1052],[],[],"[1402, 1001]",[],[3020],[],[],"[1026, 1027]",[],[1028],[],[]
participant_4_SOLD,[],[1056],[],[],[],[],[],[1039],[],[],[],[],"[1052, 1027, 3706]",[],"[2031, 1001]",[],[],[],[],[],[],[]
participant_4_UNDO,[],[],[],[],[],[],[],[],[],[],[],[],[],[],[],[],[],[],[],[],[],[]
participant_5_GOLD,500,500,521,685,1070,1361,1595,1944,2283,2701,2823,3139,3794,4216,4670,4813,5183,5720,6282,6522,6675,6740
participant_5_CURRENTGOLD,500,0,21,185,570,861,1095,1444,1783,2201,373,689,1344,316,770,613,983,1520,182,422,575,640
participant_5_LEVEL,1,1,1,2,4,5,6,7,7,8,8,9,9,10,11,11,11,11,12,12,12,12
participant_5_MINIONSKILLED,0,0,0,2,10,19,25,35,44,45,45,53,63,71,77,78,83,87,95,98,99,99
participant_5_KILLS,0,0,0,1,1,1,1,1,1,1,1,1,2,3,3,3,3,4,4,6,6,6
participant_5_BUY,[],"[1056, 2003, 2003, 3340]",[],[],[],"[1027, 1052]",[],[],[3802],[],[],[],[],[],"[1026, 1001, 3285]",[],[],[3020],[],[1058],[1058],[]
participant_5_SOLD,[],[],[],[2003],[],[],[],[2003],"[1052, 1027]",[],[],[],[],[],"[3802, 1026]",[],[],[1001],[],[],[],[]
participant_5_UNDO,[],[],[],[],[],[],[],[],[],[],[],[],[],[],[],[],[],[],[],[],[],[]
participant_6_GOLD,500,500,621,963,1406,1818,2261,2503,2710,3253,3827,4170,4716,5023,5808,6147,6554,6940,7126,7375,7817,7857
participant_6_CURRENTGOLD,500,0,121,463,256,668,1111,1353,160,703,1277,1620,841,448,1233,1572,1979,2365,2551,250,342,-18
participant_6_LEVEL,1,1,2,3,3,4,4,4,5,5,6,7,7,8,9,9,10,10,10,10,11,11
participant_6_MINIONSKILLED,0,0,0,0,0,0,0,0,0,0,2,2,2,2,5,5,8,8,9,9,9,9
participant_6_KILLS,0,0,0,0,0,0,0,0,0,1,1,1,2,2,3,3,3,4,4,4,4,4
participant_6_BUY,[],"[1054, 2003, 3340]",[],[],[],[],[],[],[],[],"[1052, 1052, 3145, 1036, 1053]",[],[],"[3144, 3146]",[],[1001],[],[],"[3020, 1029, 1052, 1029, 3191]",[],[],[]
participant_6_SOLD,[],[],[],[2003],[],[],[],[],[],[],"[1052, 1052, 1036]",[],[],"[1053, 3144, 3145]",[],[],[],"[3340, 3513]","[1001, 1029, 1052, 1029]",[],[],[]
participant_6_UNDO,[],[],[],[],[],[],[],[],[],[],[],[],[],[],[],[],[],[],[],[],[],[]
participant_7_GOLD,500,500,521,1141,1362,1498,1719,1925,2124,2359,2882,3068,3661,4296,4510,4674,5408,5875,6242,7007,7354,7394
participant_7_CURRENTGOLD,500,0,21,641,862,213,434,640,324,559,1082,1268,1861,2496,510,674,1408,1075,1442,957,54,94
participant_7_LEVEL,1,1,1,3,4,4,5,6,6,7,7,8,9,10,10,10,11,11,11,12,12,12
participant_7_MINIONSKILLED,0,0,0,6,11,12,18,23,27,34,43,47,55,63,69,72,79,79,87,90,90,90
participant_7_KILLS,0,0,0,0,1,1,1,2,2,2,2,2,2,2,3,3,3,3,3,3,5,5
participant_7_BUY,[],"[1056, 2003, 2003, 3340]",[],[],[],"[1052, 1001]",[],[],[],[],"[3136, 2031, 2055]",[],[],[],[3151],[],[],"[3020, 1042]",[],[],[],[]
participant_7_SOLD,[],[],[],[2003],[],[],[],[],[2003],[],[1052],[2055],[],[],[3136],[],[],[1001],[],[],[],[]
participant_7_UNDO,[],[],[],[],[],[],[],[],[],[],[],[],[],[],[],[],[],[],[],[],[],[]
participant_8_GOLD,500,500,521,720,1171,1293,1507,2114,2278,2534,2656,3003,3380,3530,4358,4550,5241,5363,5697,5896,6751,6791
participant_8_CURRENTGOLD,500,0,21,220,671,58,272,879,1043,1299,131,478,855,1005,233,425,1116,138,472,671,1526,1566
participant_8_LEVEL,1,1,1,2,3,3,4,5,6,6,7,7,8,8,9,9,10,10,10,11,11,11
participant_8_MINIONSKILLED,0,0,0,4,6,6,11,17,20,28,28,37,47,49,51,55,58,58,67,72,75,75
participant_8_KILLS,0,0,0,0,0,0,0,0,0,0,0,0,0,0,0,0,2,2,2,2,3,3
participant_8_BUY,[],"[3850, 2003, 2003]",[],[],[],[],[],[],[],"[3117, 1052]",[],[3108],[],[],[3113],[],[],"[3905, 1028, 3364, 1052]",[],[],[],[]
participant_8_SOLD,[],[],[],[],[],[2003],[],[2003],[],[],[],"[3850, 1052]",[],[],[],[],[],"[3108, 3113, 3340]",[],[],[3851],[]
participant_8_UNDO,[],[],[],[],[],[],[],[],[],[],[],[],[],[],[],[],[],[],[],[],[],[]
participant_9_GOLD,500,500,553,716,1097,1291,1651,1985,2149,2299,2493,2692,3050,3250,3411,3587,4632,4787,5007,5163,5678,5724
participant_9_CURRENTGOLD,500,0,53,216,597,791,1151,1485,1649,364,558,292,650,850,161,337,1382,52,272,428,943,989
participant_9_LEVEL,1,1,1,2,3,4,4,5,5,5,6,6,6,7,7,7,8,8,9,9,10,10
participant_9_MINIONSKILLED,0,0,0,1,2,2,2,2,2,2,2,3,5,5,6,8,8,8,9,9,9,9
participant_9_KILLS,0,0,0,0,1,1,2,2,2,3,3,3,4,4,5,5,5,5,5,5,6,6
participant_9_BUY,[],"[1039, 2031, 3340]",[],[],[3706],[],[],[],"[1001, 3133]",[],[],[],"[1400, 3047]","[1036, 1036]",[],[],[],[],[],"[3147, 1036]",[1036],[3133]
participant_9_SOLD,[],[],[],[],[1039],[],[],[],[],[],"[3340, 3513]",[],"[3133, 3706, 1001]",[],[],[],[],[],[],"[1036, 1036]",[],"[2031, 1036, 1036]"
participant_9_UNDO,[],[],[],[],[],[],[],[],[],[],[],[],[],[],[],[],[],[],[],[],[],[]
team0_KILLS,0,0,0,0,0,1,1,1,1,1,2,2,2,3,3,4,4,6,7,7,9,9
team0_CURRENTGOLD,2500,310,647,1297,1722,3037,3693,2557,3868,3612,3643,4315,3436,2631,1616,2409,3398,4236,2771,1561,3576,2463
team0_TOTALGOLD,2500,2500,2837,3837,5047,6487,7578,8517,9828,10882,12373,13710,14711,16256,17246,18839,19828,21866,23726,24566,27131,27413
team0_LEVEL,5,5,5,11,17,19,21,24,27,29,31,33,35,36,38,40,42,44,47,47,49,50
team0_SBIRES,0,0,4,20,35,46,61,74,93,111,122,140,151,166,176,188,197,210,229,237,238,238
team1_KILLS,0,0,0,1,3,3,4,5,5,7,7,7,10,11,14,14,16,18,18,20,24,24
team1_CURRENTGOLD,2500,0,237,1725,2956,2591,4063,5801,4959,5126,3421,4347,5551,5115,2907,3621,6868,5150,4919,2728,3440,3271
team1_TOTALGOLD,2500,2500,2737,4225,6106,7261,8733,10471,11544,13146,14681,16072,18601,20315,22757,23771,27018,28685,30354,31963,34275,34506
team1_LEVEL,5,5,6,12,17,20,23,27,29,31,34,37,39,43,46,46,50,50,52,54,56,56
team1_SBIRES,0,0,0,13,29,39,56,77,93,109,120,142,172,190,208,218,236,240,267,278,282,282
delta_KILLS,0,0,0,-1,-3,-2,-3,-4,-4,-6,-5,-5,-8,-8,-11,-10,-12,-12,-11,-13,-15,-15
delta_CURRENTGOLD,0,310,410,-428,-1234,446,-370,-3244,-1091,-1514,222,-32,-2115,-2484,-1291,-1212,-3470,-914,-2148,-1167,136,-808
delta_TOTALGOLD,0,0,100,-388,-1059,-774,-1155,-1954,-1716,-2264,-2308,-2362,-3890,-4059,-5511,-4932,-7190,-6819,-6628,-7397,-7144,-7093
delta_LEVEL,0,0,-1,-1,0,-1,-2,-3,-2,-2,-3,-4,-4,-7,-8,-6,-8,-6,-5,-7,-7,-6
delta_SBIRES,0,0,4,7,6,7,5,-3,0,2,2,-2,-21,-24,-32,-30,-39,-30,-38,-41,-44,-44
