name,frame_0,frame_1,frame_2,frame_3,frame_4,frame_5,frame_6,frame_7,frame_8,frame_9,frame_10,frame_11,frame_12,frame_13,frame_14,frame_15,frame_16,frame_17,frame_18,frame_19,frame_20,frame_21,frame_22,frame_23,frame_24
nameStamp,Tstart,Tearly,Tearly,Tearly,Tearly,Tearly,Tearly,Tearly,Tearly,Tearly,Tearly,Tmid,Tmid,Tmid,Tmid,Tmid,Tmid,Tmid,Tmid,Tmid,Tmid,Tmid,Tmid,Tmid,Tend
timestamp,0,60022,120037,180058,240084,300100,360126,420146,480166,540183,600209,660226,720242,780271,840284,900304,960326,1020349,1080362,1140393,1200412,1260440,1320443,1380471,1440471
participant_0_GOLD,950,950,1061,1505,1967,2315,2777,3127,3553,4434,5010,5869,7020,7575,8536,10618,11140,11403,14500,14823,16147,17178,18970,19486,19531
participant_0_CURRENTGOLD,950,80,191,635,497,144,607,957,203,1084,560,984,2135,385,1346,3428,650,914,410,733,2058,3088,1980,1996,1981
participant_0_LEVEL,3,3,3,5,6,7,8,9,10,10,11,12,13,14,14,16,17,17,17,18,18,18,18,18,18
participant_0_MINIONSKILLED,0,0,5,12,23,26,34,36,38,40,42,54,65,70,79,88,94,95,95,96,105,113,121,121,121
participant_0_KILLS,0,0,0,0,0,0,0,0,0,1,1,1,2,2,2,4,4,4,7,7,7,8,10,10,10
participant_0_BUY,[],"[1057, 2031]",[],[],"[1042, 1001]",[1043],[],[],[3091],[],"[3006, 1042]",[1052],[],[3124],[],[],[3153],[],[3812],[],[],[],[3157],[2140],[]
participant_0_SOLD,[],[],[],[],[],[1042],[],[],"[1043, 1057]",[],[1001],[],[],"[2031, 1052, 1042]",[],[],[],[],[],[],[],[],[],[2140],[]
participant_0_UNDO,[],[],[],[],[],[],[],[],[],[],[],[],[],[],[],[],[],[],[],[],[],[],[],[],[]
participant_1_GOLD,950,950,1119,1583,2003,2391,2825,4057,4572,5023,6128,6637,6944,7376,8272,8488,9154,9389,9816,10312,10747,10963,11420,12303,12458
participant_1_CURRENTGOLD,950,0,169,233,653,116,100,1332,262,443,173,682,199,331,507,483,749,685,231,727,62,278,385,218,283
participant_1_LEVEL,3,3,3,4,5,6,6,8,8,9,10,11,11,11,12,12,13,13,14,14,15,15,15,16,17
participant_1_MINIONSKILLED,0,0,3,4,4,8,8,19,23,23,24,32,36,42,42,42,42,42,46,55,55,55,58,66,66
participant_1_KILLS,0,0,0,0,0,0,0,1,1,1,2,2,2,2,3,3,4,4,4,4,4,4,4,4,4
participant_1_BUY,[],"[1037, 1055, 1055, 2003, 3340, 3073, 2003, 3340, 2003]",[],"[1042, 2003, 2003]",[],"[1043, 1037, 2003]","[1042, 2031]",[],"[3008, 1052, 1043, 2055]",[1042],"[1033, 3111, 1037]",[],[3124],[1042],[1057],"[1042, 3363]",[1043],[1042],[3091],[],"[1033, 1029, 3105]",[],[1036],"[1053, 2140]",[]
participant_1_SOLD,[],[],[],"[2003, 2003]","[2003, 2003]",[1042],[2003],[],"[3073, 1037, 1042, 1042]",[2055],"[1033, 2422]",[],"[1052, 1043, 1037]",[],[],"[2031, 3340, 3008]","[1042, 1042]",[],"[1043, 1057, 1042]",[],[1033],[],[],"[1036, 2140]",[]
participant_1_UNDO,[],"[[0, 1037], [3340, 0], [0, 2003], [0, 1055], [0, 1055]]",[],[],[],"[[0, 1043]]",[],[],[],[],"[[0, 1042]]",[],[],[],[],[],[],[],[],[],"[[0, 1029]]",[],[],[],[]
participant_2_GOLD,950,950,1101,2480,2924,3915,4240,5317,5533,5922,6908,7274,7509,8286,8768,9454,9670,9976,10307,10568,10884,11136,11397,11913,11958
participant_2_CURRENTGOLD,950,0,151,355,799,1790,565,1642,458,448,999,140,374,36,518,104,320,376,107,369,685,936,348,594,638
participant_2_LEVEL,3,3,3,4,5,7,8,9,9,10,10,11,11,12,12,13,13,14,14,15,15,15,15,16,16
participant_2_MINIONSKILLED,0,0,2,5,12,22,26,29,29,32,32,37,38,42,48,48,48,48,48,50,50,51,53,53,53
participant_2_KILLS,0,0,0,2,2,3,3,4,4,4,5,5,5,6,6,7,7,7,7,7,7,7,7,7,7
participant_2_BUY,[],"[3073, 2003, 2003]",[],"[1037, 1001]",[],[],"[3008, 1037]",[],"[3111, 1042, 1042]",[1043],[1052],"[3124, 1052]",[],"[3108, 2420]",[],[3191],[],[3157],"[1042, 1042]",[],[],[],"[1043, 1033]",[1057],[]
participant_2_SOLD,[],[],[],[],"[2003, 2003]",[],"[3073, 1037]",[],[1001],"[1042, 1042]",[],"[1052, 1043, 1037]",[],[1052],[],[3008],[],"[3191, 3108, 2420]",[],[],[],[],"[1042, 1042]",[1033],[]
participant_2_UNDO,[],[],[],[],[],[],[],[],[],[],[],[],[],[],[],[],[],[],[],[],[],[],[],[],[]
participant_3_GOLD,950,950,951,1231,1624,1894,2661,2877,4125,4450,4739,5005,5239,5593,5949,6165,6381,7138,7544,7760,8076,8292,8580,9438,9933
participant_3_CURRENTGOLD,950,950,1,281,674,159,925,251,1500,1825,264,95,329,683,189,405,221,978,69,285,166,382,671,1528,2023
participant_3_LEVEL,3,3,3,4,5,6,7,7,9,9,10,10,11,11,12,12,12,13,14,14,14,15,15,16,17
participant_3_MINIONSKILLED,0,0,0,3,6,8,13,13,15,20,23,23,24,26,26,26,26,30,30,30,30,30,31,39,39
participant_3_KILLS,0,0,0,0,0,0,1,1,3,3,3,3,3,3,3,3,3,4,4,4,4,4,4,4,5
participant_3_BUY,[],[],"[1026, 2003, 2003, 3340]",[],[],"[1052, 1027]",[],"[3802, 1001, 2055]",[],[],"[3285, 3020]",[1052],[],[],[1026],[],[1028],[],[3165],[],[1052],[],[],[],[]
participant_3_SOLD,[],[],[],[2003],[],[2003],[],"[1052, 1027]",[2055],[],"[3802, 1026, 1001]",[],[],[],[],[],[],[],"[1028, 1052, 1026]",[],[],[],[],"[3340, 3513]",[]
participant_3_UNDO,[],[],[],[],[],[],[],[],[],[],[],[],[],[],[],[],[],[],[],[],[],[],[],[],[]
participant_4_GOLD,950,950,979,1542,2016,2305,2648,2918,3189,3514,3903,4260,4863,5079,5418,5634,5850,6148,6430,7161,8077,8609,9672,10270,10315
participant_4_CURRENTGOLD,950,0,29,592,1066,1355,373,343,114,439,828,510,813,154,193,409,225,88,370,311,207,739,863,580,565
participant_4_LEVEL,3,3,3,4,5,6,7,7,8,8,9,10,11,11,11,12,12,12,13,14,14,15,16,17,17
participant_4_MINIONSKILLED,0,0,1,14,21,24,26,29,30,35,39,43,53,53,56,56,56,60,62,78,78,82,92,96,96
participant_4_KILLS,0,0,0,0,0,0,0,0,0,0,0,0,0,0,0,0,0,0,0,0,1,1,2,2,2
participant_4_BUY,[],"[3073, 2003, 2003]",[],[],[],[],"[1037, 1001, 2031]",[1042],[3006],[],[],[3008],[1042],[1037],[1042],[],[1043],[1052],[],[3124],"[1057, 1042]",[],"[1043, 1042]",[3091],[]
participant_4_SOLD,[],[],[2003],[2003],[],[],[],[],"[1001, 1042]",[],[],"[3073, 1037]",[],[],[],[],"[1042, 1042]",[],[],"[1052, 1043, 1037]",[],[3008],"[1042, 2031]","[1043, 1057, 1042]",[]
participant_4_UNDO,[],[],[],[],[],[],[],[],[],[],[],[],[],[],[],[],[],[],[],[],[],[],[],[],[]
participant_5_GOLD,950,950,951,1636,1888,2131,2530,3596,4326,4660,5253,6419,6769,7520,7863,8467,9432,10130,10391,10802,11110,11716,12197,14270,14315
participant_5_CURRENTGOLD,950,50,51,435,688,931,395,1061,541,875,618,1784,219,971,63,668,532,1230,441,852,760,716,347,800,665
participant_5_LEVEL,3,3,3,4,5,5,6,7,9,9,10,11,12,12,13,14,15,15,16,16,16,16,17,17,17
participant_5_MINIONSKILLED,0,0,0,1,3,4,9,9,12,17,21,28,30,35,37,37,47,55,57,57,62,62,62,63,63
participant_5_KILLS,0,0,0,1,1,1,1,2,3,3,3,4,4,5,5,6,7,7,7,7,7,8,8,10,10
participant_5_BUY,[],"[1054, 1001, 2003, 2003, 3340, 2003]",[],[1029],[],[],"[3047, 1052]",[1028],[1058],[],[1026],[],[3285],[],[1058],[],[3089],[],[3145],[],[3067],[3152],[1026],[3135],[]
participant_5_SOLD,[],[],[],[],[],"[2003, 2003, 2003]","[1001, 1029]",[],[],[],[],[],"[1052, 1026]",[],[],[],"[1058, 1058]",[],[],[],[1028],"[3145, 3067]",[],"[1054, 1026]",[]
participant_5_UNDO,[],[],[],[],[],[],[],[],[],[],[],[],[],[],[],[],[],[],[],[],[],[],[],[],[]
participant_6_GOLD,950,950,951,1295,1629,1968,2365,3131,3917,4619,5594,6049,7172,7466,7718,8068,8534,10727,11528,11794,12682,13369,13976,14301,14414
participant_6_CURRENTGOLD,950,25,26,370,704,1042,1440,606,542,1244,2219,374,1497,541,794,343,809,853,204,470,1358,704,2292,281,-2041
participant_6_LEVEL,3,3,3,4,5,6,7,8,10,10,11,11,13,13,13,13,14,15,16,16,17,17,18,18,18
participant_6_MINIONSKILLED,0,0,0,6,11,14,18,23,24,26,30,35,42,42,44,44,45,50,50,50,50,50,53,54,55
participant_6_KILLS,0,0,0,0,0,0,0,1,2,3,4,4,5,5,5,6,6,9,11,11,12,13,13,13,13
participant_6_BUY,[],"[1056, 1082, 2003, 2003, 3340, 2055]",[],[],[],[],[],"[3802, 1001]",[1026],[],[],"[3285, 1058]",[],[1058],[],[3020],[],"[3089, 3145]",[3152],[],[],"[3041, 1033]",[],[3135],[]
participant_6_SOLD,[],[],[2055],[2003],[],[2003],[],[],[],[],[],"[3802, 1026]",[],[],[],[1001],[],"[1058, 1058]",[3145],[],[],"[1082, 1056]","[3041, 3041]",[1033],[]
participant_6_UNDO,[],[],[],[],[],[],[],[],[],[],[],[],[],[],[],[],[],[],[],[],[],[],"[[3041, 0]]",[],[]
participant_7_GOLD,950,950,951,1257,1657,2323,2648,2864,3257,3473,4610,5326,5729,5945,6771,6987,7241,7696,8362,8703,9934,10334,10718,11262,11307
participant_7_CURRENTGOLD,950,30,31,337,736,123,448,364,757,133,1270,886,1289,455,1281,697,952,757,573,914,345,744,1128,1672,1507
participant_7_LEVEL,3,3,3,3,5,6,7,7,8,8,10,11,11,11,12,12,13,13,14,14,15,16,16,17,17
participant_7_MINIONSKILLED,0,0,0,0,5,5,10,10,15,15,17,17,23,23,23,23,23,25,25,25,26,27,28,30,30
participant_7_KILLS,0,0,0,0,0,1,1,1,1,1,2,3,3,3,4,4,4,4,5,5,7,7,7,8,8
participant_7_BUY,[],"[1052, 1052, 2003, 3340]",[],[],[],"[1026, 3802]",[],[1001],[],[3285],[],[3020],[],[3145],[],[3067],[],[3152],[1026],[],[3135],[],[],[],[]
participant_7_SOLD,[],[],[2003],[],[],"[1052, 1052]",[],[],[],"[1001, 3802, 1026]",[],[],[],[],[],[],[],"[3145, 3067]",[],[],[1026],[],[],[],[]
participant_7_UNDO,[],[],[],[],[],[],[],[],[],[],[],[],[],[],[],[],[],[],[],[],[],[],[],[],[]
participant_8_GOLD,950,950,1006,1258,1621,1983,2769,3049,3798,4188,4619,5073,6246,7077,7758,8075,9092,9873,10642,10963,11968,12881,13302,13794,13839
participant_8_CURRENTGOLD,950,0,56,308,51,413,249,528,98,488,918,523,1696,877,1558,1875,492,123,892,313,518,1432,367,859,904
participant_8_LEVEL,3,3,3,4,5,6,7,7,8,9,10,10,11,12,13,13,14,15,16,16,17,17,18,18,18
participant_8_MINIONSKILLED,0,0,2,4,8,15,19,22,25,28,31,34,40,40,42,42,42,45,45,48,48,53,55,60,60
participant_8_KILLS,0,0,0,0,0,0,1,1,2,2,2,2,3,4,5,5,7,8,9,9,10,11,11,11,11
participant_8_BUY,[],"[1028, 1033, 2003, 2003]",[],[],"[1057, 1027]",[],"[3010, 1001, 1029]",[],[3001],[],[],"[3047, 1029, 2003]",[],"[3024, 3057]",[],[],"[3025, 3211, 1033]",[3194],[],[3751],[1031],[],"[3068, 1052]",[],[]
participant_8_SOLD,[],[],[],"[2003, 2003]",[1033],[],"[1028, 1027]",[],"[3010, 1057]",[],[],"[1001, 1029]",[],[1029],[2003],[],"[3057, 3024]","[1033, 3211]",[],[],[],[],"[1031, 3751]",[],[]
participant_8_UNDO,[],[],[],[],[],[],[],[],[],[],[],[],[],[],[],[],[],[],[],[],[],[],[],[],[]
participant_9_GOLD,950,950,1033,1478,1785,2765,3237,3780,4472,5138,6027,6833,8281,8678,9711,10064,10469,10780,11222,11513,11827,12043,12473,12689,12734
participant_9_CURRENTGOLD,950,50,133,578,285,1265,437,130,822,1488,277,233,1681,578,1611,1214,369,680,1122,163,477,693,23,239,284
participant_9_LEVEL,3,3,3,5,6,8,9,9,10,11,12,12,13,14,15,15,16,16,17,17,17,17,18,18,18
participant_9_MINIONSKILLED,0,0,3,11,15,27,35,50,59,59,65,65,73,79,91,97,102,102,108,108,108,108,111,111,111
participant_9_KILLS,0,0,0,0,0,1,1,1,1,2,3,4,6,6,8,8,8,8,8,8,8,8,8,8,8
participant_9_BUY,[],"[1026, 2003, 3340]",[],[],"[1001, 1029]",[],[3802],"[3047, 1052]",[1082],[],"[3285, 3041]",[1026],[],[3136],[],[3151],[1058],[],[],[1058],[],[],[3089],[],[]
participant_9_SOLD,[],[],[],[2003],[],[],[],"[1001, 1029]",[],[],"[3802, 1026, 1082]",[],[],[],[],"[3136, 1026]",[],[],[],[],[],[],"[1058, 1058]",[],[]
participant_9_UNDO,[],[],[],[],[],[],[],"[[0, 1052]]",[],[],[],[],[],[],[],[],[],[],[],[],[],[],[],[],[]
team0_KILLS,0,0,0,2,2,3,4,6,8,9,11,11,12,13,14,17,18,19,22,22,23,24,27,27,28
team0_CURRENTGOLD,4750,1030,541,2096,3689,3564,2570,4525,2537,4239,2824,2411,3850,1589,2753,4829,2165,3041,1187,2425,3178,5423,4247,4916,5490
team0_TOTALGOLD,4750,4750,5211,8341,10534,12820,15151,18296,20972,23343,26688,29045,31575,33909,36943,40359,42195,44054,48597,50624,53931,56178,60039,63410,64195
team0_LEVEL,15,15,15,21,26,32,36,40,44,46,50,54,57,59,61,65,67,69,72,75,76,78,79,83,85
team0_SBIRES,0,0,11,38,66,88,107,126,135,150,160,189,216,233,251,260,266,275,281,309,318,331,355,375,375
team1_KILLS,0,0,0,1,1,3,4,6,9,11,14,17,21,23,27,29,32,36,40,40,44,47,47,50,50
team1_CURRENTGOLD,4750,155,297,2028,2464,3774,2969,2689,2760,4228,5302,3800,6382,3422,5307,4797,3154,3643,3232,2712,3458,4289,4157,3851,1319
team1_TOTALGOLD,4750,4750,4892,6924,8580,11170,13549,16420,19770,22078,26103,29700,34197,36686,39821,41661,44768,49206,52145,53775,57521,60343,62666,66316,66609
team1_LEVEL,15,15,15,20,26,31,36,38,45,47,53,55,60,62,66,67,72,74,79,79,82,83,87,88,88
team1_SBIRES,0,0,5,22,42,65,91,114,135,145,164,179,208,219,237,243,259,277,285,288,294,300,309,318,319
delta_KILLS,0,0,0,1,1,0,0,0,-1,-2,-3,-6,-9,-10,-13,-12,-14,-17,-18,-18,-21,-23,-20,-23,-22
delta_CURRENTGOLD,0,875,244,68,1225,-210,-399,1836,-223,11,-2478,-1389,-2532,-1833,-2554,32,-989,-602,-2045,-287,-280,1134,90,1065,4171
delta_TOTALGOLD,0,0,319,1417,1954,1650,1602,1876,1202,1265,585,-655,-2622,-2777,-2878,-1302,-2573,-5152,-3548,-3151,-3590,-4165,-2627,-2906,-2414
delta_LEVEL,0,0,0,1,0,1,0,2,-1,-1,-3,-1,-3,-3,-5,-2,-5,-5,-7,-4,-6,-5,-8,-5,-3
delta_SBIRES,0,0,6,16,24,23,16,12,0,5,-4,10,8,14,14,17,7,-2,-4,21,24,31,46,57,56
