name,team0,team1
win,Win,Fail
firstBlood,True,False
firstTower,True,False
firstInhibitor,True,False
firstBaron,False,False
firstDragon,False,True
firstRiftHerald,False,True
towerKills,9,2
inhibitorKills,1,0
baronKills,0,0
dragonKills,1,1
riftHeraldKills,0,1
