name,frame_0,frame_1,frame_2,frame_3,frame_4,frame_5,frame_6,frame_7,frame_8,frame_9,frame_10,frame_11,frame_12,frame_13,frame_14,frame_15,frame_16,frame_17,frame_18,frame_19,frame_20,frame_21,frame_22,frame_23,frame_24,frame_25,frame_26
nameStamp,Tstart,Tearly,Tearly,Tearly,Tearly,Tearly,Tearly,Tearly,Tearly,Tearly,Tearly,Tearly,Tearly,Tearly,Tearly,Tmid,Tmid,Tmid,Tmid,Tmid,Tmid,Tmid,Tmid,Tmid,Tmid,Tend,Tend
timestamp,0,60005,120036,180057,240066,300106,360106,420113,480143,540176,600204,660220,720252,780276,840291,900303,960336,1020367,1080374,1140388,1200395,1260405,1320426,1380443,1440446,1500457,1560457
participant_0_GOLD,500,500,584,839,1134,1445,1743,2155,2328,2717,2995,3570,4133,4365,4614,5030,5240,5566,5858,6274,6829,7187,8092,8751,9131,9254,9272
participant_0_CURRENTGOLD,500,0,84,339,634,320,618,1030,303,692,970,145,708,440,689,1165,575,281,573,989,494,852,867,376,756,879,497
participant_0_LEVEL,1,1,1,3,4,4,5,6,6,7,8,8,9,9,10,11,11,11,12,12,13,13,13,14,14,14,14
participant_0_MINIONSKILLED,0,0,3,10,17,26,36,50,52,67,73,79,85,87,94,107,108,115,120,128,145,151,154,164,175,175,175
participant_0_KILLS,0,0,0,0,0,0,0,0,0,0,0,0,0,0,0,0,1,1,1,1,1,2,2,2,2,2,2
participant_0_BUY,[],"[1039, 2031, 3340, 3364]",[],[],"[1082, 1052, 2055]",[],"[3108, 2055, 2055]",[],[],[],[1402],[],[],[],[3020],[],[],[],[3041],"[1058, 2055, 3363]",[],[],"[1058, 2055]",[],[],[],[]
participant_0_SOLD,[],[3340],[],[],[],[],"[2055, 1052]",[],[],[],"[3108, 1039]",[2055],[],[],[2422],[],[],[],[1082],[3364],[2055],[],[2031],[],[],[2055],[]
participant_0_UNDO,[],[],[],[],[],[],"[[0, 2055]]",[],[],[],[],[],[],[],[],[],[],[],[],[],[],[],[],[],[],[],[]
participant_1_GOLD,500,500,621,1018,1376,1688,2031,2153,2394,2990,3317,3634,4008,4398,4820,5049,6111,6468,6632,6755,7208,7690,7867,8230,8352,8474,8493
participant_1_CURRENTGOLD,500,0,121,518,16,328,131,253,494,1090,167,484,858,1248,870,1099,2161,2518,1632,430,883,1365,277,640,762,885,843
participant_1_LEVEL,1,1,2,3,4,4,5,5,6,7,7,8,9,9,10,10,11,11,12,12,12,13,13,13,13,13,13
participant_1_MINIONSKILLED,0,0,0,0,0,0,0,0,7,7,7,8,11,17,18,19,20,20,22,22,22,22,22,22,22,22,22
participant_1_KILLS,0,0,0,0,0,0,0,2,3,4,5,6,7,8,8,8,9,9,9,10,10,10,10,10,10,10,10
participant_1_BUY,[],"[1036, 3340, 2031]",[],[],[],[],"[3134, 1036, 2055]",[],[3142],[],[3134],"[3067, 1036, 1036]","[3363, 1001]",[],[3147],[],[],"[3047, 3067, 1028]",[1036],[3044],[],[3071],[],[],[3047],[1036],[]
participant_1_SOLD,[],[],[],[],[],[],[1036],[2055],"[1036, 3134]",[],[],[2031],[3340],[],"[2031, 3134, 1036, 1036]",[],[],[1001],[],"[1028, 1036]",[],"[3044, 3067]",[],[],[1001],[],[]
participant_1_UNDO,[],[],[],[],[],[],[],[],[],[],[],"[[0, 3067], [2031, 0]]",[],[],[],[],[],"[[0, 3047]]",[],[],[],[],[],[],[],[],[]
participant_2_GOLD,500,500,584,1004,1225,1543,1935,2975,3427,4097,4547,5206,5703,6288,6411,6815,7394,7799,7985,8456,8767,9308,9430,10112,10387,10509,10528
participant_2_CURRENTGOLD,500,0,84,504,725,1043,260,1300,302,972,322,281,478,1063,146,550,1129,334,170,141,452,43,165,847,322,95,-7
participant_2_LEVEL,1,1,1,3,4,5,6,6,6,7,8,9,9,9,9,10,11,11,11,11,12,12,12,13,13,13,13
participant_2_MINIONSKILLED,0,0,3,18,23,32,45,56,60,71,73,83,83,92,92,104,113,124,128,131,138,154,154,175,180,180,180
participant_2_KILLS,0,0,0,0,0,0,0,0,0,0,0,1,2,2,2,2,2,2,2,2,2,2,3,3,3,3,3
participant_2_BUY,[],"[1054, 2003, 3340]",[],[],[],"[1028, 2031, 1056, 2055, 2031]",[],[],[3024],[],[],"[3076, 1028]",[],[3751],[],[],[3047],[1031],[],[],[3068],[],[3057],"[3025, 1028]",[],[],[]
participant_2_SOLD,[],[],[],[2010],[2003],[],"[2010, 2055]",[2010],[],[],[],[],[],[1028],[],[2031],[2422],[1054],[],[],"[1031, 3751]",[],[1056],"[3057, 3024]",[],[],[]
participant_2_UNDO,[],[],[],[],[],"[[0, 2031], [0, 1028]]",[],[],[],[],[],[],[],[],[],[],[],[],[],[],[],[],[],[],[],[],[]
participant_3_GOLD,500,500,598,790,1190,1536,1820,2284,2427,2781,3694,4067,4374,4510,5324,5698,6156,6362,6597,7123,7410,7702,8037,8472,8729,8852,8870
participant_3_CURRENTGOLD,500,0,98,140,540,886,1170,34,177,531,44,417,224,120,934,333,791,197,132,658,945,37,297,112,369,492,270
participant_3_LEVEL,1,1,1,2,3,4,4,5,5,6,7,7,8,8,9,9,10,10,10,11,12,12,12,13,13,13,13
participant_3_MINIONSKILLED,0,0,4,8,21,31,40,49,50,63,71,82,89,90,103,114,125,130,137,149,159,168,172,176,176,176,176
participant_3_KILLS,0,0,0,0,0,0,0,0,0,0,2,2,2,2,3,3,3,3,3,3,3,3,3,3,3,3,3
participant_3_BUY,[],"[1055, 2003, 3340]",[],[2031],[],[],[],"[1038, 1001]",[],[],"[1038, 2055, 3133, 1042]",[],[3006],[1018],[],"[3508, 3047, 2055, 3363]",[],[1018],[3086],[],[],[3046],[2055],[1018],[],[],[]
participant_3_SOLD,[],[],[],[2003],[],[],[],[],[],[],[],[],"[1001, 1042]",[2031],[],"[1038, 3133, 1018, 1001, 3340]",[],[],"[1018, 1042]",[],[2055],[3086],[2055],[1055],[],[],[]
participant_3_UNDO,[],[],[],[],[],[],[],[],[],[],"[[0, 2055], [0, 1038]]",[],[],"[[0, 3006]]",[],[],[],[],[],[],[],[],[],[],[],[],[]
participant_4_GOLD,500,500,523,699,915,1112,1268,1618,1752,2086,2370,2754,3025,3241,3411,3572,3792,3932,4072,4273,4443,4583,4724,5076,5327,5498,5519
participant_4_CURRENTGOLD,500,0,23,74,290,487,643,993,77,411,45,129,400,91,186,347,567,207,77,203,298,108,249,51,302,73,94
participant_4_LEVEL,1,1,1,2,2,3,4,5,5,6,6,7,7,7,8,8,8,8,8,9,9,9,9,9,10,10,10
participant_4_MINIONSKILLED,0,0,0,2,4,5,6,7,7,10,10,12,15,15,16,18,20,20,20,22,23,23,23,27,29,30,30
participant_4_KILLS,0,0,0,0,0,0,0,0,0,0,0,0,0,0,0,0,0,0,0,0,0,0,0,0,0,0,0
participant_4_BUY,[],"[3858, 2003, 2003, 3340]",[],"[2003, 2055]",[],[],[],[],"[3117, 2003]",[],"[2420, 3364]",[1029],[],"[2055, 1033]",[2055],[],[],[1031],[1057],[2055],[2055],[3193],[],"[2055, 1028, 2055]",[],[3067],[]
participant_4_SOLD,[],[],[],"[2003, 2003, 2010]",[2055],[],[],"[2003, 2010, 2010]",[],[2003],[3340],[3858],[],[2420],[],[],[],"[1029, 2055]",[1033],[2055],[2055],"[1031, 1057, 2421]",[],[2055],[3859],[1028],[]
participant_4_UNDO,[],[],[],[],[],[],[],[],[],[],[],[],[],[],[],[],[],[],[],[],[],[],[],[],[],[],[]
participant_5_GOLD,500,500,584,902,1288,1557,1827,2113,2479,2707,3076,3262,3609,3906,4188,4401,4835,5306,6142,6787,7099,7507,8190,8413,8988,9876,9950
participant_5_CURRENTGOLD,500,0,84,402,788,132,402,288,654,157,526,162,509,806,1088,226,660,331,1167,337,649,1057,1740,263,263,1151,1225
participant_5_LEVEL,1,1,1,3,4,5,5,6,7,7,8,8,8,9,10,10,11,11,12,12,12,13,14,14,14,15,15
participant_5_MINIONSKILLED,0,0,3,14,27,33,41,48,59,65,76,80,90,100,104,109,123,126,136,148,159,171,176,177,182,193,193
participant_5_KILLS,0,0,0,0,0,0,0,0,0,0,0,0,0,0,0,0,0,0,2,2,2,2,3,3,3,3,3
participant_5_BUY,[],"[1054, 3340, 2003]",[],[],[],"[3067, 2003, 2055]",[],[1028],[],"[1036, 1001, 2055]",[],"[3044, 2003]",[],[],[],"[3071, 2055, 3363, 2003]",[],[3111],[],"[3133, 1029, 2055]",[],[],[],"[3105, 1053]","[3812, 2055]",[],[]
participant_5_SOLD,[],[],[],[2003],[],[],"[2003, 2055]",[],[],[],[],"[1028, 1036]",[2003],[2055],[],"[3044, 3067, 3340]",[],[1001],"[2003, 2055]",[],[],[2055],[],[1029],"[3105, 1053, 3133]",[2055],[]
participant_5_UNDO,[],[],[],[],[],[],[],[],[],[],[],[],[],[],[],[],[],[],[],[],[],[],[],[],[],[],[]
participant_6_GOLD,500,500,621,978,1453,1652,1986,2598,2805,3163,3595,4025,4280,4487,5581,6094,6344,6552,7089,7460,7817,8100,8781,9012,9612,10316,10371
participant_6_CURRENTGOLD,500,0,121,478,953,1152,161,773,280,638,170,600,355,262,1356,1869,329,137,674,1045,27,310,991,272,72,776,771
participant_6_LEVEL,1,1,2,3,4,4,5,6,6,7,7,8,9,9,10,10,11,11,11,12,12,12,13,13,14,15,15
participant_6_MINIONSKILLED,0,0,0,0,0,0,0,0,0,0,0,4,5,5,6,6,9,10,18,18,19,19,19,19,24,28,28
participant_6_KILLS,0,0,0,2,2,2,2,2,2,2,3,3,3,3,3,3,3,3,5,5,5,5,6,6,6,7,8
participant_6_BUY,[],"[1055, 2003, 3340]",[],[],"[1037, 2031, 2003, 2003, 2003, 2055, 2055]",[],[],[3057],[],[],[3004],[],"[1001, 1028]",[],[3158],[],[],"[3044, 1042]",[],[3078],[],[],[],"[3105, 1036]","[3133, 1053, 3133]",[],[]
participant_6_SOLD,[],[],[],[2003],[],[],[],"[2003, 2003]",[2055],[],[1037],[],[],[],"[2055, 1001]",[],[],[1028],[],"[1042, 3057, 3044]",[3004],[],[],[],"[1036, 1036, 1036]",[],[]
participant_6_UNDO,[],[],[],[],"[[0, 2031], [0, 2003]]",[],[],[],[],[],[],[],[],[],[],[],[],[],[],[],[],[],[],[],"[[0, 3133], [0, 1053]]",[],[]
participant_7_GOLD,500,500,612,899,1092,1466,1823,2419,2778,2901,3771,4353,5040,5279,7075,7486,7932,8341,8684,9131,9268,9475,9846,11024,11460,12665,12683
participant_7_CURRENTGOLD,500,0,112,399,592,616,348,944,203,201,371,253,940,129,1925,724,220,629,971,319,165,373,194,1372,208,1413,1283
participant_7_LEVEL,1,1,1,3,4,5,6,7,7,8,8,9,9,9,10,11,11,11,12,12,12,12,13,13,14,15,15
participant_7_MINIONSKILLED,0,0,5,12,16,29,40,49,60,60,62,68,68,71,86,93,98,107,108,115,116,121,121,126,127,132,132
participant_7_KILLS,0,0,0,0,0,0,0,1,1,1,2,3,4,4,6,6,7,7,7,7,7,7,7,10,10,12,12
participant_7_BUY,[],"[1036, 2031, 3340]",[],[],[],[1036],[3077],[],[3134],[1004],"[1036, 1036]","[3133, 1001]",[],"[3147, 1036, 3364]",[],"[3044, 3067]",[3071],[3364],[],[3133],[1036],[],[1053],[],[3812],[],[]
participant_7_SOLD,[],[],[],[],[],[],"[1036, 1036]",[],[],[],[],"[1036, 1036]",[],"[3134, 3133, 3340]",[],"[1036, 1004]","[3044, 3067]",[3340],[],[],[2031],[],[1036],[],"[1053, 3133]",[],[]
participant_7_UNDO,[],[],[],[],[],[],[],[],[],[],[],[],[],"[[3364, 0]]",[],[],[],[],[],[],[],[],[],[],[],[],[]
participant_8_GOLD,500,500,577,1641,1785,2173,2614,2888,3247,3749,4342,4938,5135,5374,5783,6157,6523,6787,7674,7979,8410,8931,9467,9684,10197,11028,11266
participant_8_CURRENTGOLD,500,0,77,1141,160,548,989,213,572,1074,142,738,235,474,283,657,1023,137,1024,195,627,1148,1684,451,215,1045,1283
participant_8_LEVEL,1,1,1,2,3,4,4,5,5,6,6,7,7,7,8,8,9,9,10,10,11,11,12,12,13,13,13
participant_8_MINIONSKILLED,0,0,3,15,16,31,47,51,62,71,72,87,87,90,97,108,113,118,120,123,131,149,156,157,162,166,166
participant_8_KILLS,0,0,0,0,0,0,0,1,1,1,1,1,1,1,1,1,1,1,1,1,1,1,2,2,2,2,2
participant_8_BUY,[],"[1039, 2031, 3364]",[],[],[],[],"[3751, 1041, 2055]",[],"[3706, 1028]",[],"[1401, 1029]",[],[3047],[1029],[],[],"[3082, 1011, 1028, 2055, 2055]",[3067],[],[],"[3143, 1028, 2055]",[],[],"[3211, 2055, 2055]",[3065],[],[]
participant_8_SOLD,[],[3340],[],[],[],[],[],[],"[1039, 1041]",[],"[3751, 3706]",[2055],"[1029, 2422]",[],"[3364, 3513]",[],"[1029, 1028, 2031, 2055]","[1028, 2055]",[],[],"[3082, 1011]",[2055],[],"[1028, 2055]","[3211, 3067]",[],[]
participant_8_UNDO,[],[],[],[],[],[],[],[],[],[],[],[],[],[],[],[],[],[],[],[],[],[],[],[],[],[],[]
participant_9_GOLD,500,500,523,1015,1150,1326,1557,1797,2021,2249,2762,2924,3664,4251,4922,5164,5360,5565,5915,6406,6590,7088,7322,7746,8226,8998,9105
participant_9_CURRENTGOLD,500,0,23,515,150,326,557,22,246,474,87,249,989,1576,772,1014,385,590,941,18,203,700,60,483,814,1585,1605
participant_9_LEVEL,1,1,1,2,2,3,4,5,5,6,6,7,7,8,9,9,9,9,10,10,10,11,11,12,12,13,13
participant_9_MINIONSKILLED,0,0,0,3,3,5,8,9,11,13,13,14,14,22,22,26,26,27,30,30,32,35,35,38,40,40,40
participant_9_KILLS,0,0,0,0,0,0,0,0,0,0,1,1,2,3,3,3,3,3,3,4,4,5,5,5,5,6,6
participant_9_BUY,[],"[2003, 3850, 2003, 2003, 3858]",[],[],"[1001, 1004, 2055]",[],[],"[3117, 2055]",[],[],"[3364, 3108]",[],[],[],"[3174, 1004, 1004, 2055, 2055]",[],"[3114, 1052, 2055, 2055, 1004]",[],[],"[3113, 3504]",[],[],"[3114, 2055]",[],"[2055, 2055]",[],[]
participant_9_SOLD,[],[],[],[],[],[],[2055],[1001],[2055],[],"[3858, 3340]",[],[2003],[2003],"[3108, 1004, 2055]",[2055],"[1004, 1004]",[2055],[],"[2055, 1004, 3114, 3113]",[],[],[],[2055],[],"[2055, 2055]",[]
participant_9_UNDO,[],"[[0, 2003], [0, 3850]]",[],[],[],[],[],[],[],[],[],[],[],[],[],[],"[[0, 1052]]",[],[],[],[],[],[],[],[],[],[]
team0_KILLS,0,0,0,0,0,0,0,2,3,4,7,9,11,12,13,13,15,15,15,16,16,17,18,18,18,18,18
team0_CURRENTGOLD,2500,0,410,1575,2205,3064,2822,3610,1353,3696,1548,1456,2668,2962,2825,3494,5223,3537,2584,2421,3072,2405,1855,2026,2511,2424,1697
team0_TOTALGOLD,2500,2500,2910,4350,5840,7324,8797,11185,12328,14671,16923,19231,21243,22802,24580,26164,28693,30127,31144,32881,34657,36470,38150,40641,41926,42587,42682
team0_LEVEL,5,5,6,13,17,20,24,27,28,33,36,39,42,42,46,48,51,51,53,55,58,59,59,62,63,63,63
team0_SBIRES,0,0,10,38,65,94,127,162,176,218,234,264,283,301,323,362,386,409,427,452,487,518,525,564,582,583,583
team1_KILLS,0,0,0,2,2,2,2,4,4,4,7,8,10,11,13,13,14,14,18,19,19,20,23,26,26,30,31
team1_CURRENTGOLD,2500,0,417,2935,2643,2774,2457,2240,1955,2544,1296,2002,3028,3247,5424,4490,2617,1824,4777,1914,1671,3588,4669,2841,1572,5970,6167
team1_TOTALGOLD,2500,2500,2917,5435,6768,8174,9807,11815,13330,14769,17546,19502,21728,23297,27549,29302,30994,32551,35504,37763,39184,41101,43606,45879,48483,52883,53375
team1_LEVEL,5,5,6,13,17,21,24,29,30,34,35,39,40,42,47,48,51,51,55,56,57,59,63,64,67,71,71
team1_SBIRES,0,0,11,44,62,98,136,157,192,209,223,253,264,288,315,342,369,388,412,434,457,495,507,517,535,559,559
delta_KILLS,0,0,0,-2,-2,-2,-2,-2,-1,0,0,1,1,1,0,0,1,1,-3,-3,-3,-3,-5,-8,-8,-12,-13
delta_CURRENTGOLD,0,0,-7,-1360,-438,290,365,1370,-602,1152,252,-546,-360,-285,-2599,-996,2606,1713,-2193,507,1401,-1183,-2814,-815,939,-3546,-4470
delta_TOTALGOLD,0,0,-7,-1085,-928,-850,-1010,-630,-1002,-98,-623,-271,-485,-495,-2969,-3138,-2301,-2424,-4360,-4882,-4527,-4631,-5456,-5238,-6557,-10296,-10693
delta_LEVEL,0,0,0,0,0,-1,0,-2,-2,-1,1,0,2,0,-1,0,0,0,-2,-1,1,0,-4,-2,-4,-8,-8
delta_SBIRES,0,0,-1,-6,3,-4,-9,5,-16,9,11,11,19,13,8,20,17,21,15,18,30,23,18,47,47,24,24
