name,frame_0,frame_1,frame_2,frame_3,frame_4,frame_5,frame_6,frame_7,frame_8,frame_9,frame_10,frame_11,frame_12,frame_13,frame_14,frame_15,frame_16,frame_17,frame_18,frame_19,frame_20,frame_21,frame_22,frame_23,frame_24,frame_25,frame_26,frame_27,frame_28,frame_29,frame_30,frame_31
nameStamp,Tstart,Tearly,Tearly,Tearly,Tearly,Tearly,Tearly,Tearly,Tearly,Tearly,Tearly,Tearly,Tearly,Tearly,Tearly,Tearly,Tmid,Tmid,Tmid,Tmid,Tmid,Tmid,Tmid,Tmid,Tmid,Tmid,Tmid,Tmid,Tmid,Tend,Tend,Tend
timestamp,0,60022,120035,180046,240063,300078,360099,420119,480136,540148,600171,660195,720211,780224,840238,900250,960263,1020277,1080297,1140310,1200336,1260350,1320368,1380388,1440408,1500420,1560439,1620463,1680496,1740518,1800532,1860532
participant_0_GOLD,500,500,570,832,1453,1694,2002,2306,2905,3292,3471,3754,4296,4573,5285,5871,6021,7050,7186,7384,7881,8282,8621,9068,9211,9780,10146,10613,10749,10907,11050,11150
participant_0_CURRENTGOLD,500,0,70,332,953,144,452,756,1355,1742,121,404,946,1223,1935,171,321,1350,1486,884,281,682,1021,1468,562,1130,1497,1963,200,357,500,600
participant_0_LEVEL,1,1,1,3,4,5,6,7,8,8,9,9,10,10,11,11,11,12,12,12,13,13,14,14,14,14,14,15,15,15,15,15
participant_0_MINIONSKILLED,0,0,3,11,16,20,28,38,46,52,55,65,76,85,97,98,100,103,104,104,104,116,124,134,135,136,138,140,141,143,144,144
participant_0_KILLS,0,0,0,0,0,0,0,0,0,0,0,0,0,0,0,0,0,0,0,0,2,2,2,2,2,4,4,4,4,4,4,4
participant_0_BUY,[],"[2033, 3340]",[],[],"[1036, 2055]",[],[],[],"[3077, 2055]",[],[],[],"[1001, 1006, 2055]",[],"[1036, 1029, 1036, 1033, 1042, 1027]",[],[3111],[],[1042],[],"[3101, 1028]",[],[],[],[3057],[],[],[],[],"[3078, 1033, 1029]",[],[]
participant_0_SOLD,[],[],[],[2010],[],[],[2055],"[2010, 2010]",[1036],[],[2055],[],[],[],"[1006, 1006]",[2055],"[1001, 1033]",[],[],[],[1042],[],[],[],[1027],[],[],[],[],"[3101, 3057, 1028]",[],[]
participant_0_UNDO,[],[],[],[],[],[],[],[],[],[],[],[],[],[],"[[0, 1036], [0, 1036], [1006, 0], [0, 1029], [0, 1042]]",[],[],[],[],[],[],[],[],[],[],[],[],[],[],[],[],[]
participant_1_GOLD,500,500,652,945,1358,1557,1765,2187,2544,2908,3030,3330,3538,4140,4262,4725,4932,5304,5512,5872,7081,7418,7869,8571,8693,8961,9133,9305,9428,9635,9778,9878
participant_1_CURRENTGOLD,500,0,152,445,858,207,415,-38,319,683,-145,155,363,965,-63,400,607,-121,87,447,1656,1993,2444,3146,-72,196,368,541,663,870,1014,1243
participant_1_LEVEL,1,1,2,3,4,4,4,5,5,6,6,7,7,8,8,8,9,9,9,10,11,11,11,12,12,13,13,13,13,13,13,13
participant_1_MINIONSKILLED,0,0,0,0,0,0,0,0,0,6,6,8,9,9,9,9,9,9,9,14,20,21,23,24,24,24,24,24,24,24,25,25
participant_1_KILLS,0,0,0,0,0,0,0,0,0,0,0,0,0,1,1,1,1,1,1,1,1,1,1,1,1,1,1,1,1,1,1,1
participant_1_BUY,[],"[3850, 2003, 2003, 3340]",[],[],[],"[1001, 1004]",[],[],[],[],[],[],"[3117, 1004, 1004, 2055]",[],"[3028, 1004, 3364, 2055]",[],[],[],"[3114, 1052, 2055]",[],[3108],[],"[3174, 2055]",[],[],[1052],[2055],[],[3113],[],[3504],[]
participant_1_SOLD,[],[],[],[],"[2003, 2003]",[],[],[],[],[],[],[],"[1001, 2055]",[3850],"[1004, 1004, 3340]",[2055],[],[],"[1004, 1004]",[],[1052],[2055],"[3108, 3028]","[3851, 2055]",[],[],[],[],[1052],[2055],"[3114, 3113]",[]
participant_1_UNDO,[],[],[],[],[],[],[],[],[],[],[],[],[],[],[],[],[],[],[],[],[],[],[],[],[],[],[],[],[],[],[],[]
participant_2_GOLD,500,500,591,850,1015,1319,1526,1975,2097,2241,2384,2542,2815,3123,3246,3565,3779,3901,4053,4176,5113,5370,5567,5771,5893,7036,7451,7574,7696,7819,8018,8118
participant_2_CURRENTGOLD,500,0,91,350,90,394,601,1050,122,266,409,567,315,623,51,370,234,356,208,331,68,325,522,726,148,1291,1706,1829,1951,140,340,230
participant_2_LEVEL,1,1,1,3,3,4,5,6,6,6,7,7,7,8,8,8,9,9,9,9,10,10,10,10,10,11,11,11,11,11,12,12
participant_2_MINIONSKILLED,0,0,4,9,11,19,23,29,29,30,31,33,39,44,44,49,55,55,56,56,56,56,56,58,58,59,61,61,61,61,66,66
participant_2_KILLS,0,0,0,0,0,0,0,0,0,0,0,0,0,0,0,0,0,1,1,2,2,2,2,2,2,2,2,2,2,2,2,2
participant_2_BUY,[],"[1055, 2003, 3340]",[],[],"[1004, 1004]","[1027, 2055, 2003]",[],[],[],[],[],"[1037, 3070, 1042, 2055, 2003]",[],[3004],[],[],[],[],"[3006, 1042, 1042]",[],"[1043, 1052]",[],[],[],[],[1037],[],[3124],[],[],[3101],[]
participant_2_SOLD,[],[],[],[],[],[],[2003],[2003],[],[],[],"[1027, 1004]",[],"[3070, 1037]",[],[],[2003],[],[1042],[2055],"[1042, 1042]",[],[],[],[],[2055],[],"[1052, 1043, 1037]",[],[3004],[],[]
participant_2_UNDO,[],[],[],[],[],"[[0, 1004]]",[],[],[],[],[],[],[],[],[],[],[],[],[],[],[],[],[],[],[],[],[],[],[],[],[],[]
participant_3_GOLD,500,500,577,867,1127,1438,1729,2071,2353,2539,2789,3106,3298,3530,3653,3916,4221,4720,4967,5540,5737,5937,6169,6514,6776,7011,7427,7731,8174,8394,8704,9012
participant_3_CURRENTGOLD,500,0,77,367,377,338,629,971,1253,1439,1689,331,523,80,203,466,771,1270,117,690,52,252,484,829,1091,481,897,411,854,1074,284,562
participant_3_LEVEL,1,1,1,2,3,4,4,5,5,6,6,6,7,7,7,8,8,9,9,10,10,10,10,11,11,11,12,12,12,13,13,13
participant_3_MINIONSKILLED,0,0,3,13,19,28,37,46,52,56,60,68,72,74,74,80,87,92,95,100,100,104,106,116,120,123,128,132,142,148,155,159
participant_3_KILLS,0,0,0,0,1,1,1,1,2,2,2,2,2,2,3,3,3,4,4,4,5,5,5,5,5,6,6,7,7,7,7,7
participant_3_BUY,[],"[1054, 2003, 3340]",[],[],[],"[3751, 2031]",[],[],[],[],"[3047, 1029, 1028]",[],[],[],[],"[3068, 3211]",[],[],[],[3067],"[3065, 1029]",[],[],[],"[3076, 2033]",[],[],[],[3075],[],[],[]
participant_3_SOLD,[],[],[],[],[2003],[],[],[],[],[],[],[],[],[],[],"[1029, 1028, 3751]",[],[],[],[],"[3211, 3067]",[],[],[],"[1029, 2031]",[],[],[],[3076],[],[],[]
participant_3_UNDO,[],[],[],[],[],[],[],[],[],[],[],[],[],[],[],[],[],[],[],[],[],[],[],[],[],[],[],[],[],[],[],[]
participant_4_GOLD,500,500,523,687,912,1046,1241,1450,1620,1770,1949,2098,2232,2804,2944,3165,3365,3731,3871,4161,4392,4622,4791,4962,5143,5408,5629,5819,5974,6177,6317,6432
participant_4_CURRENTGOLD,500,0,23,187,112,121,316,525,695,845,1024,1173,282,854,244,465,665,1031,111,401,167,397,91,262,443,274,419,609,349,552,43,157
participant_4_LEVEL,1,1,1,2,2,3,4,4,5,5,6,6,7,7,7,7,7,8,8,9,9,9,9,10,10,10,10,10,11,11,11,11
participant_4_MINIONSKILLED,0,0,0,0,0,0,0,0,1,1,1,2,2,3,3,4,5,5,5,5,5,7,8,8,11,11,12,12,13,17,17,17
participant_4_KILLS,0,0,0,0,0,0,0,1,1,1,1,1,1,2,2,2,2,2,2,2,3,3,4,5,5,5,5,5,5,5,5,5
participant_4_BUY,[],"[1041, 2031, 3340]",[],[],[],"[1036, 1006, 1036]",[],"[3077, 1036]",[],[],"[2055, 3364, 3134, 2055]",[],[],[],[3133],[],[],"[3147, 1036]",[],[],[],[],[],[],"[3142, 3067]",[],[],[],[],[],[],[]
participant_4_SOLD,[],[],[],[],[],[2031],[],"[1036, 1006, 1036]",[],[],"[3340, 1036]",[2055],[2055],[],[],[],[],"[3134, 3133]",[],[],[],[],[],[],"[1036, 2031]",[],[],[],[],[],[],[]
participant_4_UNDO,[],[],[],[],[],"[[2031, 0]]",[],[],[],[],[],[],[],[],[],[],[],[],[],[],[],[],[],[],[],[],[],[],[],[],[],[]
participant_5_GOLD,500,500,521,671,875,1018,1309,1445,1567,1711,2017,2196,2332,2573,2840,2990,3232,3539,3727,3941,4064,4437,4603,4851,5073,5267,5466,5743,6443,6603,6750,7021
participant_5_CURRENTGOLD,500,0,21,171,375,118,409,545,667,311,617,796,82,323,240,390,632,139,327,541,664,1037,1203,651,273,467,666,943,1643,603,100,371
participant_5_LEVEL,1,1,1,3,4,4,5,6,6,7,7,8,8,9,9,9,10,10,10,11,11,11,11,11,12,12,12,13,13,14,14,14
participant_5_MINIONSKILLED,0,0,0,2,4,5,16,17,17,18,26,29,30,37,41,43,50,50,52,55,55,66,68,68,68,69,74,77,78,78,78,79
participant_5_KILLS,0,0,0,0,0,0,0,0,0,0,0,0,0,0,0,0,0,0,0,0,0,0,0,0,1,1,1,2,2,3,3,3
participant_5_BUY,[],"[1055, 2003, 3340]",[],[],[],[3070],[],[],[],[],[],[3004],[],[],[],[],[],[],[],[],"[3009, 3134, 1037, 1028]",[],[],[],[],"[3814, 3134, 1036]",[],[],[],"[3147, 1036]",[],[]
participant_5_SOLD,[],[],[],[],[],[],[],[2010],[],[2010],[2010],[3070],[],[],[],[],[],[2003],[],[],[2422],[],[3004],[],[],"[1037, 3134, 1028]",[],[],[],"[3134, 1036]",[],[]
participant_5_UNDO,[],[],[],[],[],[],[],[],[],[],[],[],[],[],[],[],[],[],[],[],[],[],[],[],[],[],[],[],[],[],[],[]
participant_6_GOLD,500,500,521,933,1077,1276,1584,1791,2041,2264,2606,2729,3028,3150,3398,3795,4037,4503,4919,5209,6020,6422,6725,7046,7529,8096,8371,8973,9725,10159,10445,11217
participant_6_CURRENTGOLD,500,500,21,433,577,776,1084,191,441,664,1006,1129,1428,50,298,695,62,528,944,1234,60,462,765,1086,1569,2136,346,948,1700,495,780,1492
participant_6_LEVEL,1,1,1,3,3,3,4,4,5,5,6,6,6,6,7,7,8,8,9,9,10,10,11,11,12,12,12,13,14,14,14,15
participant_6_MINIONSKILLED,0,0,0,0,1,1,1,1,2,2,2,2,4,4,4,4,4,6,6,7,8,8,13,16,17,20,25,27,30,30,34,36
participant_6_KILLS,0,0,0,0,0,0,0,0,0,0,0,0,0,0,0,0,0,0,0,0,0,0,0,0,0,0,0,0,0,0,0,0
participant_6_BUY,[],"[2003, 1054]",[],[],[],[1028],[],[],[],[3751],[],[],"[1028, 1033]",[],[3211],[],[],[3067],[],[],[],[],[],[3065],[3009],[],[],[],[],"[1031, 1028]",[3068],[]
participant_6_SOLD,[],[],[],[2003],[],[],[],[],[],[1028],[],[],[],[],"[1028, 1033]",[],[],[],[],[],[],[],[],"[3211, 3067]",[2422],[],[],[],[],[],"[1031, 1028, 3751]",[]
participant_6_UNDO,[],[],[],[],[],[],[],[],[],[],[],[],[],[],[],[],[],[],[],[],[],[],[],[],[],[],[],[],[],[],[],[]
participant_7_GOLD,500,500,591,920,1204,1452,1858,2072,2737,2930,3171,3917,4417,4747,5727,5997,6675,7418,8820,9173,9806,10075,10442,10843,11605,11878,12000,13294,14055,14235,14526,15610
participant_7_CURRENTGOLD,500,0,91,420,704,52,458,672,1337,180,421,1167,1667,1997,2977,247,925,93,1495,1849,506,775,1143,1543,2306,2578,600,1895,2656,911,1202,2085
participant_7_LEVEL,1,1,1,3,4,5,6,6,8,8,8,9,10,10,11,11,12,12,12,13,13,13,13,14,14,14,14,15,16,16,16,16
participant_7_MINIONSKILLED,0,0,4,13,22,27,40,44,54,58,65,80,89,95,105,110,121,121,121,128,128,136,143,148,148,151,151,160,160,160,165,169
participant_7_KILLS,0,0,0,0,0,0,0,0,0,0,0,0,0,0,0,0,0,0,0,0,2,2,2,2,2,3,3,4,4,5,5,6
participant_7_BUY,[],[],"[1039, 2003, 2003, 2003, 3340]",[],[],[],[],"[3706, 1001, 2031, 3364]",[],[],[],[],[],[1402],[],[],"[3020, 2055]",[],[],[],"[1058, 1052, 1042]",[],[],[],[],[],[3152],[],[],"[3101, 3108]",[],[]
participant_7_SOLD,[],[],[],[2003],"[2003, 2003]",[],[],"[1039, 3340]",[],[],[],[],[],[3706],[],[],[1001],[2055],[],[],[],[],[],[],[],[],[1052],[],[],"[2031, 1042]",[],[]
participant_7_UNDO,[],[],[],[],[],[],[],[],[],[],[],[],[],[],[],[],[],[],[],[],[],[],[],[],[],[],[],[],[],[],[],[]
participant_8_GOLD,500,500,566,870,1122,1383,1680,1899,2187,2493,2838,3003,3380,3682,4052,4480,4826,5043,5558,5802,5924,6217,6633,6916,7795,7954,8344,9002,9624,10199,10513,11185
participant_8_CURRENTGOLD,500,0,66,370,622,33,330,549,837,1143,1488,103,480,782,1152,1580,1926,2143,2658,2902,49,342,758,1041,1920,104,494,1152,1774,549,863,1535
participant_8_LEVEL,1,1,1,2,3,4,4,5,5,6,6,6,7,8,8,9,9,9,10,10,10,11,11,12,12,12,12,13,14,14,15,15
participant_8_MINIONSKILLED,0,0,2,12,17,22,29,34,40,47,51,53,64,70,74,87,95,98,107,107,107,112,120,121,121,123,129,132,132,132,138,141
participant_8_KILLS,0,0,0,0,0,0,0,0,0,0,0,0,0,1,1,1,1,1,1,1,1,2,2,2,2,3,3,3,3,3,3,4
participant_8_BUY,[],[],"[3854, 2003, 2003, 3340]",[],[],[],"[2003, 1001, 2055, 2003, 2003]",[],[],[],[],[],"[3044, 2055, 3364]",[],"[2003, 2003, 2055, 2003]",[],[],[],[3047],[],"[3067, 2003, 2003, 2003]",[],[3071],[],[],[],[3052],[1028],[],[],[1037],[]
participant_8_SOLD,[],[],[],[],"[2003, 2003]",[],[],"[2055, 2003, 2003]",[2003],[],[3854],[],[3340],[2055],[],[],[],[],"[1001, 2055, 2003]","[2003, 2003]",[],[2003],"[3044, 3067]","[2003, 2003]",[3855],[],[],[],[],[],[],[]
participant_8_UNDO,[],[],[],[],[],[],[],[],[],[],[],[],[],[],[],[],[],[],[],[],[],[],[],[],[],[],[],[],[],[],[],[]
participant_9_GOLD,500,500,523,713,869,1066,1288,1467,1719,1968,2120,2260,2442,2927,3097,3361,3609,3829,4057,4310,4715,5416,5636,5917,6117,6772,6913,7141,7681,7907,8047,8685
participant_9_CURRENTGOLD,500,500,23,213,369,566,263,442,694,943,1095,1235,92,577,522,786,1034,1254,682,935,391,1091,361,642,842,1498,438,266,806,1032,298,935
participant_9_LEVEL,1,1,1,2,2,3,4,4,5,6,6,6,6,7,7,7,8,8,8,8,9,9,10,10,10,11,11,11,12,13,13,13
participant_9_MINIONSKILLED,0,0,0,3,4,5,7,10,14,17,18,18,21,23,24,28,30,31,32,32,32,36,41,42,44,45,45,45,45,47,47,47
participant_9_KILLS,0,0,0,0,0,0,0,0,1,1,1,2,2,2,3,3,4,5,8,8,9,9,9,9,11,11,11,13,13,13,13,15
participant_9_BUY,[],"[1055, 2003, 3340]",[],[],[],"[1001, 1042, 1042]",[],[],[],"[1038, 2003]",[],[],[],[],[],"[3095, 3009, 1018]",[],"[3094, 2055]",[],[],"[1038, 1037]",[],[],[],[],[],"[3031, 1037]",[],[],[3036],[],[]
participant_9_SOLD,[],[],[],[],[],[],[],[],[],[],[],[],[2003],[],[],"[1038, 1042, 1001]",[],"[1018, 1042]",[],[],"[1055, 2003]",[],[],[],[],[],"[1038, 1037]",[],[2055],[1037],[],[]
participant_9_UNDO,[],[],[],[],[],[],[],[],[],[],[],[],[],[],[],[],[],[],[],[],[],[],[],[],[],[],[],[],[],[],[],[]
team0_KILLS,0,0,0,0,1,1,1,2,3,3,3,3,3,5,6,6,6,8,8,9,13,13,14,15,15,18,18,19,19,19,19,19
team0_CURRENTGOLD,2500,0,413,1681,2390,1204,2413,3264,3744,4975,3098,2630,2429,3745,2370,1872,2598,3886,2009,2753,2224,3649,4562,6431,2172,3372,4887,5353,4017,2993,2181,2792
team0_TOTALGOLD,2500,2500,2913,4181,5865,7054,8263,9989,11519,12750,13623,14830,16179,18170,19390,21242,22318,24706,25589,27133,30204,31629,33017,34886,35716,38196,39786,41042,42021,42932,43867,44590
team0_LEVEL,5,5,6,13,16,20,23,27,29,31,34,35,38,40,41,42,44,47,47,50,53,53,54,57,57,59,60,61,62,63,64,64
team0_SBIRES,0,0,10,33,46,67,88,113,128,145,153,176,198,215,227,240,256,264,269,279,285,304,317,340,348,353,363,369,381,393,407,411
team1_KILLS,0,0,0,0,0,0,0,0,1,1,1,2,2,3,4,4,5,6,9,9,12,13,13,13,16,18,18,22,22,24,24,28
team1_CURRENTGOLD,2500,1000,222,1607,2647,1545,2544,2399,3976,3241,4627,4430,3749,3729,5189,3698,4579,4157,6106,7461,1670,3707,4230,4963,6910,6783,2544,5204,8579,3590,3243,6418
team1_TOTALGOLD,2500,2500,2722,4107,5147,6195,7719,8674,10251,11366,12752,14105,15599,17079,19114,20623,22379,24332,27081,28435,30529,32567,34039,35573,38119,39967,41094,44153,47528,49103,50281,53718
team1_LEVEL,5,5,5,13,16,19,23,25,29,32,33,35,37,40,42,43,47,47,49,51,53,54,56,58,60,61,61,65,69,71,72,73
team1_SBIRES,0,0,6,30,48,60,93,106,127,142,162,182,208,229,248,272,300,306,318,329,330,358,385,395,398,408,424,441,445,447,462,472
delta_KILLS,0,0,0,0,1,1,1,2,2,2,2,1,1,2,2,2,1,2,-1,0,1,0,1,2,-1,0,0,-3,-3,-5,-5,-9
delta_CURRENTGOLD,0,-1000,191,74,-257,-341,-131,865,-232,1734,-1529,-1800,-1320,16,-2819,-1826,-1981,-271,-4097,-4708,554,-58,332,1468,-4738,-3411,2343,149,-4562,-597,-1062,-3626
delta_TOTALGOLD,0,0,191,74,718,859,544,1315,1268,1384,871,725,580,1091,276,619,-61,374,-1492,-1302,-325,-938,-1022,-687,-2403,-1771,-1308,-3111,-5507,-6171,-6414,-9128
delta_LEVEL,0,0,1,0,0,1,0,2,0,-1,1,0,1,0,-1,-1,-3,0,-2,-1,0,-1,-2,-1,-3,-2,-1,-4,-7,-8,-8,-9
delta_SBIRES,0,0,4,3,-2,7,-5,7,1,3,-9,-6,-10,-14,-21,-32,-44,-42,-49,-50,-45,-54,-68,-55,-50,-55,-61,-72,-64,-54,-55,-61
