name,frame_0,frame_1,frame_2,frame_3,frame_4,frame_5,frame_6,frame_7,frame_8,frame_9,frame_10,frame_11,frame_12,frame_13,frame_14,frame_15,frame_16,frame_17,frame_18,frame_19,frame_20,frame_21
nameStamp,Tstart,Tearly,Tearly,Tearly,Tearly,Tearly,Tearly,Tearly,Tearly,Tearly,Tmid,Tmid,Tmid,Tmid,Tmid,Tmid,Tmid,Tmid,Tmid,Tmid,Tmid,Tmid
timestamp,0,60010,120021,180046,240066,300082,360101,420125,480145,540170,600195,660204,720206,780220,840221,900248,960251,1020268,1080292,1140304,1200326,1260350
participant_0_GOLD,1400,1400,2040,2774,3568,4587,5008,5459,5849,6323,7029,7579,8038,8464,8848,9279,11069,11618,13128,14263,14852,15224
participant_0_CURRENTGOLD,1400,0,640,174,168,1187,408,409,99,173,879,129,588,1014,198,279,2069,18,1528,2663,352,224
participant_0_LEVEL,1,3,4,5,6,7,8,8,9,9,11,11,12,13,13,14,15,16,17,18,18,18
participant_0_MINIONSKILLED,0,0,2,5,7,8,10,10,10,11,17,17,17,17,17,19,29,31,36,40,44,44
participant_0_KILLS,0,0,1,2,3,5,5,5,5,5,5,6,6,6,6,6,9,9,12,13,13,13
participant_0_BUY,[],"[3177, 1028, 2003]",[],[6029],"[3044, 3067, 1001, 3067, 1028]",[],"[6630, 1001]",[1033],"[3111, 1036]","[1036, 1028]",[],"[1057, 3066]",[],[],[4401],[1036],[],[3074],[],[],"[3053, 3065]",[2140]
participant_0_SOLD,[],[],[2003],[],"[1028, 1028, 1028]",[],"[6029, 1028, 3067]",[],"[1001, 1033]",[],[],[1028],[],[],"[1057, 3066]",[],[],"[1036, 1036]",[],[],[],[2140]
participant_0_UNDO,[],[],[],[],"[[0, 3044], [0, 1001], [0, 3067]]",[],[],[],[],"[[0, 1036]]",[],[],[],[],[],[],[],[],[],[],"[[0, 3053]]",[]
participant_1_GOLD,1400,1410,1866,2548,3067,3691,4179,4545,4997,5393,5816,6266,6700,7193,8119,8569,9067,9568,9964,11004,11394,11818
participant_1_CURRENTGOLD,1400,160,616,98,217,841,1329,262,114,510,183,83,517,1010,1936,186,284,785,381,1421,311,735
participant_1_LEVEL,1,3,4,5,6,7,8,8,9,10,11,11,12,13,14,14,15,16,16,17,17,17
participant_1_MINIONSKILLED,0,0,1,3,3,5,6,6,7,7,7,7,8,9,18,18,20,22,22,24,24,26
participant_1_KILLS,0,0,0,1,1,2,2,2,2,2,2,2,2,2,3,3,3,3,3,5,5,5
participant_1_BUY,[],"[3177, 1042]",[],"[3051, 1028]",[3067],[],[],[3078],"[1042, 1042]",[],"[1043, 1036]",[1053],[],[],[],"[3153, 3158]",[1028],[],"[1036, 3123]",[],[6609],[]
participant_1_SOLD,[],[],[],[1042],[1028],[],[],"[3051, 3067]",[],[],"[1042, 1042]",[1036],[],[],[],"[1053, 1043]",[],[],[1036],[],"[3123, 1028]",[]
participant_1_UNDO,[],[],[],[],[],[],[],[],[],[],[],[],[],[],[],[],[],[],[],[],[],[]
participant_2_GOLD,1400,1400,1839,2761,3261,3701,4276,4688,6396,6795,7236,7875,8750,9298,9658,10461,11168,11558,12047,12841,13501,13924
participant_2_CURRENTGOLD,1400,1400,539,1461,811,251,826,338,2046,945,1386,725,1600,448,808,1611,2318,708,497,1291,651,1074
participant_2_LEVEL,1,3,4,5,6,7,7,8,9,10,10,11,12,13,13,14,15,15,16,17,18,18
participant_2_MINIONSKILLED,0,0,1,3,6,7,14,16,21,22,25,28,32,38,38,41,41,41,47,52,55,57
participant_2_KILLS,0,0,0,1,1,1,1,1,5,5,5,6,7,7,7,8,9,9,9,9,10,10
participant_2_BUY,[],[],"[3184, 1036]",[],"[1053, 1018]","[1036, 1042, 1036]",[],"[6670, 6673]",[],"[1053, 1018]",[],[1038],[],"[3072, 3006]",[],[],[],"[3123, 3086]",[3033],[],[3140],[]
participant_2_SOLD,[],[],[],[],[1036],[],[],"[1036, 1042, 1036, 6670, 1018, 1053]",[],[],[],[],[],"[1038, 1018, 1053]",[],[],[],[],"[3123, 3086]",[],[],[]
participant_2_UNDO,[],[],[],[],[],[],[],[],[],[],[],[],[],[],[],[],[],[],[],[],[],[]
participant_3_GOLD,1400,1400,1803,2249,3037,3471,3979,5005,5626,6120,7466,7889,8608,9058,9780,10230,10862,11363,12008,12722,13292,13838
participant_3_CURRENTGOLD,1400,0,103,549,887,571,1079,955,326,420,1766,489,1208,258,980,130,612,363,708,1422,1992,588
participant_3_LEVEL,1,3,4,5,6,7,8,8,9,10,11,12,13,13,14,15,16,16,17,18,18,18
participant_3_MINIONSKILLED,0,0,1,1,2,3,5,5,5,7,12,13,14,14,21,24,28,30,31,35,35,35
participant_3_KILLS,0,0,0,0,1,1,1,2,2,2,4,4,5,5,5,5,5,5,5,5,6,7
participant_3_BUY,[],"[6660, 1001, 2003, 2003]",[1029],[],[1033],[3105],[],"[3068, 1033]","[3111, 1057]",[1028],[],"[3001, 1029]",[],"[3024, 1028, 3067]",[],"[3050, 1029, 1029, 1029]",[1033],[3105],[1029],[],[],"[3193, 1033]"
participant_3_SOLD,[],[],"[2003, 2003]",[],[],"[1033, 1029]",[],"[6660, 3105]","[1001, 1033]",[],[],"[1028, 1057]",[],"[1029, 1028]",[],"[3067, 3024]",[],"[1033, 1029]",[],[],[],"[1029, 3105]"
participant_3_UNDO,[],[],[],[],[],[],[],[],[],[],[],[],[],[],[],"[[0, 1029]]","[[0, 1029]]",[],[],[],[],[]
participant_4_GOLD,1400,1400,1867,2346,2833,3320,3884,4333,4869,5487,6324,6702,7238,8018,8903,9299,9734,10487,10934,11706,12214,12592
participant_4_CURRENTGOLD,1400,100,567,446,583,520,1084,233,169,137,424,102,638,1418,103,499,34,787,634,806,439,217
participant_4_LEVEL,1,3,4,5,6,7,8,8,9,10,11,11,12,13,13,14,15,15,16,16,17,17
participant_4_MINIONSKILLED,0,0,2,3,6,6,12,13,15,17,18,18,20,20,20,20,20,27,28,34,37,37
participant_4_KILLS,0,0,0,0,0,0,0,0,0,1,2,2,2,4,5,5,5,6,6,6,6,6
participant_4_BUY,[],[6670],[],[1018],[1036],[1053],[],[1038],[3072],"[1036, 1042]",[1053],[1043],[],[],"[3153, 1053]",[],"[1018, 1001]",[],[6673],[1018],[1037],[3086]
participant_4_SOLD,[],[],[],[],[],[1036],[],[],"[1038, 1018, 1053]",[],[1036],[1042],[],[],"[1053, 1043]",[],[],[],"[6670, 1018, 1053]",[],[],[1018]
participant_4_UNDO,[],[],[],[],[],[],[],[],[],[],[],[],[],[],[],[],[],[],[],[],[],[]
participant_5_GOLD,1400,1400,1934,2483,3369,4457,5087,6004,7241,8346,8816,9594,10109,10880,11794,12500,13457,14806,15765,16318,16984,18220
participant_5_CURRENTGOLD,1400,15,549,398,819,1107,1737,104,1341,2446,166,494,259,630,294,1000,72,1421,1130,433,599,1835
participant_5_LEVEL,1,3,4,5,6,7,8,9,10,11,12,13,13,14,14,15,16,17,17,18,18,18
participant_5_MINIONSKILLED,0,0,6,8,10,12,12,16,20,26,27,27,32,34,37,42,43,47,51,55,60,69
participant_5_KILLS,0,0,0,0,2,4,5,7,9,11,11,12,12,13,14,14,16,19,21,21,22,24
participant_5_BUY,[],"[3112, 1052]",[],"[1028, 1001]","[4635, 3158]",[3020],[],"[4633, 2420]",[],[],"[3157, 3108]",[1033],[4632],[3102],[1058],[],"[1058, 3089]",[],[4630],[3135],[2139],[]
participant_5_SOLD,[],[],[],[],"[1028, 1052, 1001]",[1001],[],[4635],[],[2420],[2421],[],[1033],"[3108, 4632]",[],[],"[3112, 1058, 1058]",[],[],[4630],[2139],[]
participant_5_UNDO,[],[],[],[],"[[0, 3158]]",[],[],[],[],[],[],[],[],[],[],[],[],[],[],[],[],[]
participant_6_GOLD,1400,1400,1832,2373,3102,3672,4144,4732,5207,6109,6584,7311,8293,9063,9474,10698,11207,12168,12879,13329,14094,14973
participant_6_CURRENTGOLD,1400,0,432,973,1702,2272,2744,3332,107,1009,334,1061,2043,2813,174,1398,207,1168,1879,494,1259,2138
participant_6_LEVEL,1,3,4,5,6,7,8,9,10,11,11,12,13,14,14,15,16,17,18,18,18,18
participant_6_MINIONSKILLED,0,0,0,1,2,3,5,7,7,9,11,14,16,19,19,26,29,31,31,31,33,34
participant_6_KILLS,0,0,0,0,1,1,1,1,1,2,2,3,5,5,5,8,8,10,10,10,11,11
participant_6_BUY,[],"[3112, 3070, 2003]",[],[],[],[],[],[],"[6655, 1001]",[],"[3020, 1027]",[],[],[],"[3003, 1052, 3916]",[],"[4630, 3165]",[],[],"[4630, 3135]",[],[]
participant_6_SOLD,[],[],[2003],[],[],[],[],[],[],[],[1001],[],[],[],"[3070, 1027, 3003, 1052]",[],[3916],[],[],"[3112, 4630]",[],[]
participant_6_UNDO,[],[],[],[],[],[],[],[],[],[],[],[],[],[],[],[],"[[0, 4630]]",[],[],[],[],[]
participant_7_GOLD,1400,1400,1856,2702,3298,4075,4471,5287,5726,6299,6878,7470,8041,8862,9303,9835,10195,10636,11146,11686,13011,13771
participant_7_CURRENTGOLD,1400,0,456,1302,1898,2675,571,1387,76,649,1228,1820,2391,3212,3653,4185,245,686,796,1336,2661,3421
participant_7_LEVEL,1,3,4,5,6,8,8,9,10,10,11,12,13,14,14,15,15,16,16,17,18,18
participant_7_MINIONSKILLED,0,0,0,2,4,8,8,12,13,13,14,16,19,20,20,20,20,20,20,20,25,28
participant_7_KILLS,0,0,0,1,1,2,2,3,3,3,4,4,4,5,5,5,5,5,5,6,8,8
participant_7_BUY,[],"[3802, 2003, 2003]",[],[],[],[],"[6653, 1001, 2003, 2003]",[],"[3111, 2003, 1011]",[],[],[],[],[],[],[],"[4637, 3108, 4632, 2003, 2003]",[],[3102],[],[],[]
participant_7_SOLD,[],[],[2003],[2003],[],[],"[3802, 2003]",[],"[2003, 1001]",[],[2003],[],[],[],[],[],[1011],[],"[3108, 4632]",[],[],"[2003, 2003]"
participant_7_UNDO,[],[],[],[],[],[],[],[],[],[],[],[],[],[],[],[],[],[],[],[],[],[]
participant_8_GOLD,1400,1400,1870,2677,3055,3754,4184,4689,5594,6313,6730,7589,8074,8798,9372,9894,10284,10833,11470,11842,12343,12900
participant_8_CURRENTGOLD,1400,0,470,427,455,1154,334,839,109,828,1245,754,424,1148,522,1044,134,683,1320,442,93,650
participant_8_LEVEL,1,3,4,5,6,7,8,9,10,11,11,12,13,14,15,16,16,17,18,18,18,18
participant_8_MINIONSKILLED,0,0,1,1,1,2,5,5,8,11,12,15,17,19,20,21,21,21,22,22,22,22
participant_8_KILLS,0,0,0,2,2,3,3,3,5,5,5,6,6,6,7,7,7,7,7,7,7,7
participant_8_BUY,[],"[3802, 2003, 2003]",[],[1026],"[1001, 2003]",[],[6656],[],"[3020, 1028, 1052]",[],[],"[1026, 1011]",[4637],[],"[3057, 1052, 3916, 1028]",[],"[1026, 3165]",[],[],[4630],[1026],[]
participant_8_SOLD,[],[],[],"[2003, 2003]",[],[],"[1026, 3802, 1026]",[2003],[1001],[],[],[1028],"[1026, 1011, 1052]",[],[],[],"[1026, 3916, 1028]",[],[],[],[],[]
participant_8_UNDO,[],[],[],[],[],[],"[[1026, 0]]",[],[],[],[],[],[],[],"[[0, 1052], [0, 3057]]",[],[],[],[],[],[],[]
participant_9_GOLD,1400,1400,2096,2569,3455,4057,4670,5576,6412,7297,7885,8895,9315,10069,10458,11429,11904,12659,13608,14407,14873,16113
participant_9_CURRENTGOLD,1400,15,246,284,305,907,1520,2426,62,947,250,1260,330,234,623,1594,369,1124,823,1622,353,1593
participant_9_LEVEL,1,3,4,5,6,7,8,9,10,11,11,13,13,14,14,15,15,17,17,18,18,18
participant_9_MINIONSKILLED,0,0,0,0,2,7,12,14,19,19,19,27,27,28,29,34,35,42,47,50,52,53
participant_9_KILLS,0,0,1,1,3,3,3,5,6,7,8,10,10,11,11,13,13,13,14,15,15,18
participant_9_BUY,[],"[3112, 1052]",[3108],[1052],[3802],[],[],[],"[6653, 3020, 1011]",[],"[1052, 1026]",[],"[4637, 1052, 3916, 1028]",[1026],[],[],"[3165, 1058]",[],[1058],[],"[3089, 1052]",[]
participant_9_SOLD,[],[],[1052],[],[1052],[],[],[],"[3802, 3108]",[],[],[],"[1026, 1011, 1052, 3112, 1052]",[],[],[],"[1026, 3916, 1028]",[],[],[],"[1058, 1058]",[]
participant_9_UNDO,[],[],[],[],[],[],[],[],[],[],[],[],[],[],[],[],[],[],[],[],[],[]
team0_KILLS,0,0,1,4,6,9,9,10,14,15,18,20,22,24,26,27,31,32,35,38,40,41
team0_CURRENTGOLD,7000,1660,2465,2728,2666,3370,4726,2197,2754,2185,4638,1528,4551,4148,4025,2705,5317,2661,3748,7603,3745,2838
team0_TOTALGOLD,7000,7010,9415,12678,15766,18770,21326,24030,27737,30118,33871,36311,39334,42031,45308,47838,51900,54594,58081,62536,65253,67396
team0_LEVEL,5,15,20,25,30,35,39,40,45,49,54,56,61,65,67,71,76,78,82,86,88,88
team0_SBIRES,0,0,7,15,24,29,47,50,58,64,79,83,91,98,114,122,138,151,164,185,195,199
team1_KILLS,0,0,1,4,9,13,14,19,24,28,30,35,37,40,42,47,49,54,57,59,63,68
team1_CURRENTGOLD,7000,30,2153,3384,5179,8115,6906,8088,1695,5879,3223,5389,5447,8037,5266,9221,1027,5082,5948,4327,4965,9637
team1_TOTALGOLD,7000,7000,9588,12804,16279,20015,22556,26288,30180,34364,36893,40859,43832,47672,50401,54356,57047,61102,64868,67582,71305,75977
team1_LEVEL,5,15,20,25,30,36,40,45,50,54,56,62,65,70,71,76,78,84,86,89,90,90
team1_SBIRES,0,0,7,12,19,32,42,54,67,78,83,99,111,120,125,143,148,161,171,178,192,206
delta_KILLS,0,0,0,0,-3,-4,-5,-9,-10,-13,-12,-15,-15,-16,-16,-20,-18,-22,-22,-21,-23,-27
delta_CURRENTGOLD,0,1630,312,-656,-2513,-4745,-2180,-5891,1059,-3694,1415,-3861,-896,-3889,-1241,-6516,4290,-2421,-2200,3276,-1220,-6799
delta_TOTALGOLD,0,10,-173,-126,-513,-1245,-1230,-2258,-2443,-4246,-3022,-4548,-4498,-5641,-5093,-6518,-5147,-6508,-6787,-5046,-6052,-8581
delta_LEVEL,0,0,0,0,0,-1,-1,-5,-5,-5,-2,-6,-4,-5,-4,-5,-2,-6,-4,-3,-2,-2
delta_SBIRES,0,0,0,3,5,-3,5,-4,-9,-14,-4,-16,-20,-22,-11,-21,-10,-10,-7,7,3,-7
