name,frame_0,frame_1,frame_2,frame_3,frame_4,frame_5,frame_6,frame_7,frame_8,frame_9,frame_10,frame_11,frame_12,frame_13,frame_14,frame_15,frame_16,frame_17,frame_18,frame_19,frame_20,frame_21,frame_22,frame_23,frame_24,frame_25,frame_26,frame_27,frame_28,frame_29
nameStamp,Tstart,Tearly,Tearly,Tearly,Tearly,Tearly,Tearly,Tearly,Tearly,Tearly,Tearly,Tearly,Tearly,Tmid,Tmid,Tmid,Tmid,Tmid,Tmid,Tmid,Tmid,Tmid,Tend,Tend,Tend,Tend,Tend,Tend,Tend,Tend
timestamp,0,60018,120049,180087,240105,300109,360142,420168,480193,540214,600240,660269,720296,780325,840350,900380,960397,1020429,1080450,1140474,1200499,1260507,1320525,1380527,1440549,1500580,1560606,1620610,1680634,1740634
participant_0_GOLD,500,500,563,962,1666,1788,2173,2295,3228,3413,4416,4857,5160,6009,6677,6989,7301,7578,7903,8523,9197,9675,9909,10400,11142,11481,12357,12834,14186,14261
participant_0_CURRENTGOLD,500,0,63,462,1166,138,523,195,1128,288,1291,107,410,59,727,239,551,828,813,1433,2107,2585,244,735,1478,391,1267,645,1997,2011
participant_0_LEVEL,1,1,1,3,4,4,5,6,7,7,8,9,9,10,10,10,10,11,11,11,12,13,13,13,14,14,15,15,16,16
participant_0_MINIONSKILLED,0,0,2,16,21,21,34,34,52,55,63,69,72,82,84,90,95,100,105,115,118,121,124,134,144,153,159,171,180,180
participant_0_KILLS,0,0,0,0,1,1,1,1,1,1,1,1,1,1,1,1,1,1,1,1,1,1,1,1,1,1,1,1,1,1
participant_0_BUY,[],"[3854, 2003, 2003, 3340]",[],[],[],"[1029, 1001, 1028, 2055, 2003]",[],[],[],[],"[3009, 1033, 2055, 3364]",[1029],[],[3067],[],[],"[3066, 3190]",[],"[1028, 2055]",[],[],"[3067, 1028, 2055, 2055]",[],[],[3109],[],[3067],[],[],[]
participant_0_SOLD,[],[],[],[2003],[],[2003],[2055],[],[2003],[],"[1001, 3340]",[],[3854],[1028],[],[2055],"[3067, 1033, 1029]",[],[],[2055],[3855],[1028],[],[],"[1028, 3067]",[],[2055],[],[2055],[]
participant_0_UNDO,[],[],[],[],[],"[[0, 1029]]",[],[],[],[],[],[],[],[],[],[],"[[0, 3066]]",[],[],[],[],[],[],[],[],[],[],[],[],[]
participant_1_GOLD,500,500,591,1169,1383,1624,1810,2065,2559,2773,3530,3909,4313,4675,4853,5486,5786,6059,6464,6902,7247,7670,7892,8365,9270,9422,9759,9881,10478,10602
participant_1_CURRENTGOLD,500,0,91,669,48,129,315,570,1054,328,185,554,948,1310,288,921,121,394,799,1237,1582,515,737,260,1165,467,804,186,783,727
participant_1_LEVEL,1,1,1,3,4,4,5,6,6,7,7,8,8,9,9,10,10,10,11,11,12,12,12,13,13,13,14,14,14,14
participant_1_MINIONSKILLED,0,0,4,7,13,17,20,27,32,38,44,56,66,77,80,89,95,95,99,102,108,108,113,126,130,131,132,132,132,132
participant_1_KILLS,0,0,0,0,1,1,1,1,2,2,4,4,4,4,5,5,5,5,5,5,6,6,6,6,6,6,7,7,10,10
participant_1_BUY,[],"[1054, 2003, 3340]",[],[],[],"[3051, 2003]",[],"[1028, 2003, 3364]",[],"[3067, 1037, 2031]",[],"[6631, 1001, 1028]",[],"[3047, 3066]",[],[1031],[],[],[1028],[],[],[],"[4401, 1037]",[],[],[6333],[],[3044],[],[]
participant_1_SOLD,[],[],[],[],[2003],[],[2003],[3340],[2003],[1028],[],"[1037, 3051, 1028]",[],"[1001, 1028]",[],[],[],[],[2031],[],[],[],"[1028, 3066]",[],[],"[1031, 1037]",[],[],[],[]
participant_1_UNDO,[],[],[],[],[],[],[],[],[],"[[0, 3067]]",[],[],[],[],[],[],[],[],[],[],[],[],[],[],[],[],[],[],[],[]
participant_2_GOLD,500,510,662,1058,1765,2070,2707,3591,3912,4391,4513,4940,5558,6405,6869,7209,7621,8228,8591,9408,10335,10988,11321,11858,12978,13676,13848,14684,15222,15359
participant_2_CURRENTGOLD,500,10,162,558,1265,95,732,1616,1937,2416,-112,315,933,55,509,849,146,78,441,1258,2186,1588,221,759,178,876,1049,1884,2423,2609
participant_2_LEVEL,1,1,2,3,4,5,6,6,7,8,8,8,9,9,10,10,11,11,12,12,13,14,14,14,14,15,15,16,16,16
participant_2_MINIONSKILLED,0,1,1,1,3,3,3,9,12,12,12,12,13,15,19,28,28,28,28,29,29,29,29,30,30,31,31,37,38,41
participant_2_KILLS,0,0,0,0,1,1,2,4,4,4,4,4,4,5,5,5,5,6,6,8,10,10,10,10,13,13,13,14,15,15
participant_2_BUY,[],"[1035, 3340, 1039, 3340, 2031]",[3364],[],[],"[3145, 1082, 2055]",[],[],[],[],"[3152, 1052, 2055]",[],[],"[3020, 1026, 2055]",[],[],"[3113, 3057]","[3100, 2055]",[],[],[],[3041],"[3916, 1026]",[],"[3165, 1026]",[],[],[],[],[]
participant_2_SOLD,[],[],[3340],[],[],[],[2055],[],[],[1039],"[3145, 2031]","[2055, 3364]",[3513],[2422],[2055],[],[1052],"[3057, 3113, 1026]",[2055],[],[],[1082],[],[],"[1026, 3916]",[],[],[],[],[]
participant_2_UNDO,[],"[[3340, 0], [0, 1035]]",[],[],[],[],[],[],[],[],[],[],[],[],[],[],[],[],[],[],[],[],[],[],[],[],[],[],[],[]
participant_3_GOLD,500,500,584,895,1172,1414,1571,2444,2616,2884,3118,3351,3790,3963,4594,4738,4951,5334,5800,6000,6274,6697,7109,7380,7847,8069,8297,8420,8840,8915
participant_3_CURRENTGOLD,500,0,84,395,172,414,271,1144,315,584,268,201,640,12,644,788,1001,1384,350,550,824,347,759,1030,1497,59,287,110,530,365
participant_3_LEVEL,1,1,1,2,2,3,3,4,5,5,6,6,7,7,7,7,8,8,8,9,9,10,10,11,11,11,12,12,12,12
participant_3_MINIONSKILLED,0,0,3,14,15,20,22,33,36,45,52,55,67,67,68,69,75,83,92,94,97,97,98,104,107,107,110,110,112,112
participant_3_KILLS,0,0,0,1,1,1,1,1,1,1,2,2,2,2,2,3,3,3,3,3,3,3,3,3,5,5,5,5,6,6
participant_3_BUY,[],"[1056, 2003, 2003]",[],[],"[1052, 1056]",[2031],[],[],[],"[3802, 2055]",[3108],[],[],[],[6653],[],[3020],[],[],[],[],"[3191, 2420]",[],[3157],[],[1026],[],[1011],[],[]
participant_3_SOLD,[],[],[],"[2003, 2003]",[],[],[],[],[],[1052],[],[2055],[],[],"[3802, 3108]",[],[],[],[],[],[],[2031],[],"[3191, 2420]",[],[],[],[1056],[],[]
participant_3_UNDO,[],[],[],[],[],[],[],[],[],[],[],[],[],[],[],[],[],[],[],[],[],[],[],[],[],[],[],[],[],[]
participant_4_GOLD,500,500,523,699,1323,1457,1613,2175,2351,2526,2703,2912,3140,3424,3879,4301,4501,4713,5049,5547,5858,6342,6533,6724,7098,7268,7608,7779,8015,8093
participant_4_CURRENTGOLD,500,0,23,199,823,132,288,850,1026,1201,253,162,390,274,729,1151,201,413,274,772,1083,617,808,999,273,443,14,184,420,468
participant_4_LEVEL,1,1,1,2,3,3,4,5,5,5,6,6,7,7,8,8,8,9,9,9,10,10,11,11,11,11,12,12,12,12
participant_4_MINIONSKILLED,0,0,0,2,12,12,13,17,19,20,22,23,25,30,32,38,40,41,42,45,45,47,48,48,48,49,49,50,50,50
participant_4_KILLS,0,0,0,0,0,0,0,1,1,1,1,1,1,1,2,2,2,2,2,2,2,2,2,2,2,2,2,2,2,2
participant_4_BUY,[],"[1055, 2003, 3340]",[],[],"[1042, 1042, 1036, 2031]",[],[1042],[],"[6670, 1036]",[],[1053],[1042],[],"[3006, 1042]",[],[],[],[],"[6673, 1042]",[],[],[3086],[],[],[],[3085],[],[1042],[],[]
participant_4_SOLD,[],[],[],[2003],[],[],[],[],"[1036, 1042]",[],[1036],[],[],"[1042, 2422]",[],[],[],[],"[6670, 1053]",[],[],[1042],[],[],[],"[1055, 2031, 3086, 1042]",[],[],[],[]
participant_4_UNDO,[],[],[],[],"[[0, 1042], [0, 1042]]",[],[],[],[],[],[],[],[],[],[],[],[],[],[],[],[],[],[],[],[],[],[],[],[],[]
participant_5_GOLD,500,500,563,706,983,1329,1543,1882,2074,2455,2691,2912,3034,3191,3538,3690,4214,4441,4598,4721,5052,5352,5474,5696,5890,6339,6866,7120,7242,7267
participant_5_CURRENTGOLD,500,0,63,206,183,529,43,382,74,455,691,237,9,91,438,590,1114,66,223,346,677,977,399,221,415,864,1391,45,167,192
participant_5_LEVEL,1,1,1,2,3,5,5,6,6,7,7,7,8,8,8,8,9,10,10,10,10,11,11,11,11,12,13,13,13,13
participant_5_MINIONSKILLED,0,0,2,3,12,22,27,40,44,50,53,59,59,61,69,70,82,89,91,91,100,103,103,103,103,114,119,123,123,123
participant_5_KILLS,0,0,0,0,0,0,0,0,0,0,0,0,0,0,0,0,0,0,0,0,0,0,0,0,0,0,1,1,1,1
participant_5_BUY,[],"[1054, 2003, 3340]",[],[],[1029],[],"[1001, 1028]",[],[3047],[],[],"[6660, 2055]","[1029, 2003]",[2055],[],[],[],"[3105, 2055]",[],[],[],[],[3068],[1028],[],[],[],"[3066, 1031, 1028]",[],[]
participant_5_SOLD,[],[],[],[],[2003],[],[],[],"[1001, 1029]",[],[],"[1028, 2055]",[],[],[2055],[2003],[],[1029],[],[],[],[],"[6660, 3105]",[],[2055],[],[],[1028],[],[]
participant_5_UNDO,[],[],[],[],[],[],[],[],[],[],[],[],[],[],[],[],[],[],[],[],[],[],[],[],[],[],[],[],[],[]
participant_6_GOLD,500,500,621,1018,1241,1515,1638,1760,2067,2476,2737,3087,3522,4091,4365,4597,5177,5299,5657,5814,6073,6314,6827,7287,7410,7961,8207,8517,8640,8664
participant_6_CURRENTGOLD,500,0,121,518,41,315,38,85,392,801,22,372,807,1376,115,347,52,174,532,689,98,264,777,537,260,811,182,342,465,439
participant_6_LEVEL,1,1,2,3,4,4,4,4,5,5,6,6,7,8,8,9,9,9,10,10,10,10,11,11,11,12,12,13,13,13
participant_6_MINIONSKILLED,0,0,0,0,0,0,0,0,0,0,0,1,2,2,6,6,8,8,8,10,13,20,29,33,33,38,41,48,48,48
participant_6_KILLS,0,0,0,0,0,1,1,1,1,2,2,2,2,2,2,2,2,2,2,2,2,2,2,2,2,3,4,4,4,4
participant_6_BUY,[],"[2003, 1055]",[],[],"[3070, 2003, 2003]",[],[],"[1001, 3057, 2003, 2003]",[],[],"[3133, 1036]",[],[],[3004],[],[1042],[],[],"[3044, 3006]",[],[1028],[3363],[3067],[],[6632],"[3123, 2055]",[],[],"[1036, 1033]",[]
participant_6_SOLD,[],[],[],[2003],[2010],"[2003, 2010, 2003]",[],[],[],"[2003, 2010, 2003]",[],[],[],"[3070, 3133]",[],[],[],[3004],"[1036, 1001, 1042]",[],[],[3340],[1028],[],"[1055, 3044, 3057, 3067]",[2055],[],[],[],[]
participant_6_UNDO,[],[],[],[],[],[],[],[],[],[],[],[],[],[],[],[],[],[],[],[],[],[],[],[],[],[],[],[],[],[]
participant_7_GOLD,500,500,577,867,1088,1448,1805,1978,2169,2553,3725,3897,4292,4872,5155,5452,5638,6265,6641,7085,7363,7496,7786,8217,8391,8720,9032,9552,9718,9743
participant_7_CURRENTGOLD,500,0,77,367,188,538,885,1058,19,393,1565,372,757,872,380,677,458,1085,846,640,918,1051,1341,397,571,900,363,192,358,43
participant_7_LEVEL,1,1,1,3,3,4,6,6,6,7,7,8,8,9,9,9,10,10,11,11,11,11,11,12,12,12,12,13,13,13
participant_7_MINIONSKILLED,0,0,3,12,18,29,40,43,44,56,56,59,74,84,84,95,99,105,117,118,127,128,138,146,146,157,164,179,181,181
participant_7_KILLS,0,0,0,0,0,0,0,0,0,0,2,2,2,3,3,3,3,4,4,5,5,5,5,5,5,5,5,5,5,5
participant_7_BUY,[],"[2033, 3340]",[],[],[1056],[],[],[],"[1082, 1052, 1052]",[],[],"[3108, 3158]",[],"[3191, 3364]","[3157, 2055]",[],[1052],[],[3145],[1026],[],[],[],"[4636, 2055]",[],[],[1026],[3113],[],[]
participant_7_SOLD,[],[],[],[],[],[],[],[],[],[],[],[1052],[],"[1052, 3340]","[3191, 3108]",[],[2055],[],[1052],[2033],[],[],[],"[3145, 1026]",[],[2055],[],[1056],[],[]
participant_7_UNDO,[],[],[],[],[],[],[],[],[],[],[],[],[],[],[],[],[],[],[],[],[],[],[],[],[],[],[],[],[],[]
participant_8_GOLD,500,500,584,860,1199,1761,2150,2429,2900,3552,3968,4259,4664,5041,5220,5427,5850,6126,6408,6594,6833,7087,7294,7516,7690,8638,9325,9483,9732,9757
participant_8_CURRENTGOLD,500,0,84,360,199,761,1150,329,800,1452,418,709,1114,391,570,477,900,1176,208,394,233,487,294,516,170,243,930,1088,537,382
participant_8_LEVEL,1,1,1,2,3,3,4,5,5,6,6,7,8,8,8,8,9,9,9,10,10,10,10,10,10,11,12,12,12,12
participant_8_MINIONSKILLED,0,0,3,12,17,25,38,44,52,57,67,77,86,92,95,99,108,113,119,123,125,129,134,134,134,140,151,153,156,156
participant_8_KILLS,0,0,0,0,1,1,1,1,1,2,2,2,2,3,3,3,3,3,3,3,3,3,3,3,4,4,4,4,4,4
participant_8_BUY,[],"[3850, 2003, 2003]",[],[],[],[],[],"[4642, 2003, 3364, 2055]",[],[],[],"[3067, 1082]",[],"[6617, 2055]",[],[],[],[3041],[2055],[],[],[],[],[],[],[],[],[],[],[]
participant_8_SOLD,[],[],[],[],[2003],[2003],[],[3340],[],"[2003, 3850]",[2055],[],[],"[3067, 4642]",[],[],"[2055, 3851]",[1082],[2055],[],[],[],[],[],[],[],[],[],[],[]
participant_8_UNDO,[],[],[],[],[],[],[],[],[],[],[],[],[],[],[],[],[],[],[],[],[],[],[],[],[],[],[],[],[],[]
participant_9_GOLD,500,500,523,757,1232,1541,1756,1910,2084,2801,3172,3312,3660,4141,4375,4545,4876,5166,5306,5599,5739,5880,6050,6290,6732,6872,7115,7255,7395,7424
participant_9_CURRENTGOLD,500,0,23,257,732,1041,1256,235,409,1126,1497,487,835,391,625,795,1126,166,231,524,664,805,975,1216,1657,1797,2040,2180,2321,2349
participant_9_LEVEL,1,1,1,2,3,4,4,4,5,5,6,6,6,7,7,7,8,8,8,9,9,9,9,10,10,10,11,11,11,11
participant_9_MINIONSKILLED,0,0,0,0,0,0,0,0,0,0,0,0,3,3,4,4,4,4,4,4,4,4,5,5,5,5,6,6,6,6
participant_9_KILLS,0,0,0,0,0,0,0,0,0,0,0,0,1,1,1,1,2,2,2,2,2,2,2,2,2,2,2,2,2,2
participant_9_BUY,[],"[1035, 2031, 3340, 3364]",[],[],"[1036, 1036]",[],[3134],[2055],[],[],[3133],[],[],[],"[6691, 1033, 2055]",[],"[3111, 1033, 2055]",[],[],[],[3155],[2055],[],"[1036, 1036]",[3134],[],[1037],"[2055, 2055]",[],[]
participant_9_SOLD,[],[3340],[],[],[],[],"[1036, 1036]",[],[],[],[2031],"[1035, 2055]",[],[],"[3134, 3133]",[2055],"[1033, 2422]",[2055],[3364],[],[1033],[],[3513],[2055],"[1036, 1036]",[],[],[],[],[]
participant_9_UNDO,[],[],[],[],[],[],[],[],[],[],[],[],[],[],[],[],[],[],[],[],[],[],[],[],[],[],[],[],[],[]
team0_KILLS,0,0,0,1,4,4,5,8,9,9,12,12,12,13,15,16,16,17,17,19,22,22,22,22,27,27,28,29,34,34
team0_CURRENTGOLD,2500,10,423,2283,3474,908,2129,4375,5460,4817,1885,1339,3321,1710,2897,3948,2020,3097,2677,5250,7782,5652,2769,3783,4591,2236,3421,3009,6153,6180
team0_TOTALGOLD,2500,2510,2923,4783,7309,8353,9874,12570,14666,15987,18280,19969,21961,24476,26872,28723,30160,31912,33807,36380,38911,41372,42764,44727,48335,49916,51869,53598,56741,57230
team0_LEVEL,5,5,6,13,17,19,23,27,30,32,35,37,40,42,44,45,47,49,51,52,56,59,60,62,63,64,68,69,70,70
team0_SBIRES,0,1,10,40,64,73,92,120,151,170,193,215,243,271,283,314,333,347,366,385,397,402,412,442,459,471,481,500,512,515
team1_KILLS,0,0,0,0,1,2,2,2,2,4,6,6,7,9,9,9,10,11,11,12,12,12,12,12,13,14,16,16,16,16
team1_CURRENTGOLD,2500,0,368,1708,1343,3184,3372,2089,1694,4227,4193,2177,3522,3121,2128,2886,3650,2667,2040,2593,2590,3584,3786,2887,3073,4615,4906,3847,3848,3405
team1_TOTALGOLD,2500,2500,2868,4208,5743,7594,8892,9959,11294,13837,16293,17467,19172,21336,22653,23711,25755,27297,28610,29813,31060,32129,33431,35006,36113,38530,40545,41927,42727,42855
team1_LEVEL,5,5,6,12,16,20,23,25,27,30,32,34,37,40,40,41,45,46,48,50,50,51,52,54,54,57,60,62,62,62
team1_SBIRES,0,0,8,27,47,76,105,127,140,163,176,196,224,242,258,274,301,319,339,346,369,384,409,421,421,454,481,509,514,514
delta_KILLS,0,0,0,1,3,2,3,6,7,5,6,6,5,4,6,7,6,6,6,7,10,10,10,10,14,13,12,13,18,18
delta_CURRENTGOLD,0,10,55,575,2131,-2276,-1243,2286,3766,590,-2308,-838,-201,-1411,769,1062,-1630,430,637,2657,5192,2068,-1017,896,1518,-2379,-1485,-838,2305,2775
delta_TOTALGOLD,0,10,55,575,1566,759,982,2611,3372,2150,1987,2502,2789,3140,4219,5012,4405,4615,5197,6567,7851,9243,9333,9721,12222,11386,11324,11671,14014,14375
delta_LEVEL,0,0,0,1,1,-1,0,2,3,2,3,3,3,2,4,4,2,3,3,2,6,8,8,8,9,7,8,7,8,8
delta_SBIRES,0,1,2,13,17,-3,-13,-7,11,7,17,19,19,29,25,40,32,28,27,39,28,18,3,21,38,17,0,-9,-2,1
