name,frame_0,frame_1,frame_2,frame_3,frame_4,frame_5,frame_6,frame_7,frame_8,frame_9,frame_10,frame_11,frame_12,frame_13,frame_14,frame_15,frame_16,frame_17,frame_18,frame_19,frame_20,frame_21,frame_22,frame_23,frame_24,frame_25,frame_26,frame_27
nameStamp,Tstart,Tearly,Tearly,Tearly,Tearly,Tearly,Tearly,Tearly,Tearly,Tearly,Tmid,Tmid,Tmid,Tmid,Tmid,Tmid,Tmid,Tmid,Tmid,Tmid,Tmid,Tmid,Tmid,Tmid,Tmid,Tmid,Tmid,Tmid
timestamp,0,60010,120013,180013,240014,300047,360076,420108,480111,540144,600175,660204,720236,780239,840248,900280,960287,1020287,1080319,1140348,1200352,1260360,1320391,1380395,1440402,1500418,1560425,1620425
participant_0_GOLD,1400,1400,1862,2263,3156,3680,4140,4632,5064,5885,6305,6797,7231,8101,8664,9188,9715,10834,11326,12156,12637,13138,13555,14604,15152,15593,16036,16639
participant_0_CURRENTGOLD,1400,1400,462,863,1756,980,1440,1932,2364,3185,3605,1147,381,1251,164,688,1215,2334,2826,1106,337,838,65,1114,1662,1203,1146,1689
participant_0_LEVEL,1,3,4,5,6,7,7,8,9,10,11,11,12,13,13,14,15,16,17,18,18,18,18,18,18,18,18,18
participant_0_MINIONSKILLED,0,0,2,3,4,7,8,8,8,9,9,9,12,12,12,15,20,28,32,33,37,40,40,46,49,50,51,53
participant_0_KILLS,0,0,0,0,2,2,2,2,2,2,2,2,2,4,4,4,4,5,5,7,7,7,7,8,8,8,8,8
participant_0_BUY,[],[],"[3802, 2003, 2003]",[],[],"[1026, 1001, 2031]",[],[],[],[],[],"[6655, 3020, 3108]",[4632],[],"[3102, 1058]",[],[],[],[],[3089],"[3108, 3089, 4630]",[],[3135],[],[],[3108],[2139],[]
participant_0_SOLD,[],[],[2003],[],[2003],[],[],[],[],[],[],"[3802, 1026, 1001]",[],[],"[3108, 4632]",[],[],[],[],[1058],[1058],[],"[2031, 4630]",[],[],[],[2139],[]
participant_0_UNDO,[],[],[],[],[],[],[],[],[],[],[],[],[],[],[],[],[],[],[],[],"[[0, 3108], [0, 3089]]",[],[],[],[],[],[],[]
participant_1_GOLD,1400,1400,1942,2417,3214,4460,4951,5519,6044,7006,7460,8548,8908,9903,10781,11358,11898,13936,14687,15047,15452,16113,16576,17126,17924,18284,19578,20539
participant_1_CURRENTGOLD,1400,100,642,1117,914,2160,2651,3219,3744,4706,5160,6248,208,1203,881,258,798,2836,3587,547,952,1613,1441,391,1189,179,1473,-261
participant_1_LEVEL,1,3,4,5,6,8,8,9,10,11,11,12,13,14,14,15,15,17,17,18,18,18,18,18,18,18,18,18
participant_1_MINIONSKILLED,0,0,3,5,9,14,18,23,28,32,33,35,35,44,44,50,50,62,66,66,66,76,77,77,82,82,98,98
participant_1_KILLS,0,0,0,0,1,3,3,3,3,4,4,6,6,8,9,9,10,14,15,15,15,15,15,16,17,17,19,21
participant_1_BUY,[],"[3177, 3177, 1001, 2003]",[],[],"[1036, 1042, 1036]",[],[],[],[],[],[],[],"[6672, 3006, 3508, 1042]",[],"[3086, 1042]",[3046],[],[],[],[3031],[],[],[3140],[3139],[],[3072],[],[]
participant_1_SOLD,[],[],[2003],[],[],[],[],[],[],[],[],[],"[1036, 1042, 1036, 1001]",[],[1042],"[1042, 3086]",[],[],[],[],[],[],[3177],[3140],[],[3139],[],[]
participant_1_UNDO,[],"[[0, 3177]]",[],[],[],[],[],[],[],[],[],[],[],[],[],[],[],[],[],[],[],[],[],[],[],[],[],[]
participant_2_GOLD,1400,1400,2046,2506,3119,3626,4146,4652,5047,6009,6458,7153,7537,8005,8707,9328,9781,10282,10836,11439,11979,12470,12905,13422,13973,14988,15591,16533
participant_2_CURRENTGOLD,1400,0,646,1106,1719,476,996,1502,147,1109,1558,203,587,1055,122,743,496,297,851,1454,894,485,920,1437,1988,1503,2106,2383
participant_2_LEVEL,1,3,4,5,6,7,8,8,9,10,10,11,12,12,13,14,14,15,16,17,17,17,18,18,18,18,18,18
participant_2_MINIONSKILLED,0,0,0,1,4,6,9,10,11,15,16,16,16,16,16,17,19,19,20,20,20,21,21,24,25,27,27,27
participant_2_KILLS,0,0,1,1,1,1,1,1,1,2,2,3,3,3,4,5,5,5,5,5,6,6,6,6,6,7,7,8
participant_2_BUY,[],"[3112, 1033]",[],[],[],"[6660, 1029, 1057]",[],[],"[6664, 1001, 1033]",[],[],"[3111, 3067, 3024]",[],[],"[3050, 3801, 1006, 3067]",[],[3109],"[1028, 1029]",[],[],"[3082, 3067]",[3143],[],[],[],[3105],[],[]
participant_2_SOLD,[],[],[],[],[],[1033],[],[],"[6660, 1029, 1057]",[],[],"[1001, 1033]",[],[],"[3067, 3024, 3112]",[],"[3801, 1006, 3067]",[],[],[],"[1029, 1028]","[3082, 3067]",[],[],[],[],[],[]
participant_2_UNDO,[],[],[],[],[],[],[],[],[],[],[],[],[],[],[],[],[],[],[],[],[],[],[],[],[],[],[],[]
participant_3_GOLD,1400,1400,2219,2743,3568,4236,4748,5373,5820,7164,7731,8761,9165,9823,10391,10978,11504,11936,12542,13133,13612,14200,14961,15460,16258,16868,17622,18673
participant_3_CURRENTGOLD,1400,100,919,1443,2268,536,1048,1673,945,2289,2856,2861,265,923,191,778,1304,1136,1742,2333,212,800,861,670,1468,2078,2832,3673
participant_3_LEVEL,1,3,4,5,6,7,8,8,9,10,10,11,12,13,13,14,14,15,16,16,17,17,18,18,18,18,18,18
participant_3_MINIONSKILLED,0,0,8,12,19,22,27,35,39,49,56,58,60,68,68,74,78,78,78,80,83,88,89,93,101,111,121,130
participant_3_KILLS,0,0,1,1,2,3,3,3,3,5,5,7,7,7,7,7,7,7,8,9,9,9,11,11,12,12,12,13
participant_3_BUY,[],"[3086, 1018, 1001, 1042, 2003, 2003]",[],[],[],"[3086, 3085, 3006, 1038]",[],[],"[1037, 1042]",[],[],[3085],"[3031, 1053]",[],[6670],[],[],[1018],[],[],"[6673, 3086, 3123]",[],[3033],"[1042, 1018]",[],[],[],[]
participant_3_SOLD,[],[3599],"[2003, 2003]",[],[],"[1018, 1042, 3086, 1001]",[],[],[],[],[],"[1037, 3086, 1042]",[1038],[],[],[],[],[],[],[],"[6670, 1018, 1053]",[],"[3123, 3086]",[1042],[],[],[],[]
participant_3_UNDO,[],"[[0, 3086]]",[],[],[],"[[0, 3085]]",[],[],[],[],[],[],[],[],[],[],[],[],[],[],[],[],[],[],[],[],[],[]
participant_4_GOLD,1400,1400,1889,2501,3101,3534,3924,4582,4978,5750,6232,6724,7193,7649,8261,8674,9082,9514,10014,10415,10873,11364,11781,13055,13445,13953,14396,15056
participant_4_CURRENTGOLD,1400,100,589,1201,1801,134,524,1182,478,1250,1732,974,2318,1224,386,799,1207,589,1089,690,1148,1639,351,825,1215,873,466,-1044
participant_4_LEVEL,1,3,4,5,6,7,7,8,8,9,10,11,12,12,13,13,14,14,15,15,16,17,17,18,18,18,18,18
participant_4_MINIONSKILLED,0,0,0,0,2,2,2,4,4,4,8,8,10,10,12,13,13,13,16,17,20,21,21,26,26,31,32,33
participant_4_KILLS,0,0,0,1,1,1,1,2,2,3,3,3,3,3,3,3,3,3,3,3,3,3,3,4,4,4,4,4
participant_4_BUY,[],[3802],[],[],[],[6655],[],[],[3020],[],[],[1058],[],"[3057, 3113]",[3100],[],[],[4642],[],[3067],[],[],"[3067, 3115]",[3916],[],[1026],[3165],[]
participant_4_SOLD,[],[],[],[],[],[3802],[],[],[],[],[],[],[1058],[],"[3057, 3113]",[],[],[],[],[],[],[],"[3067, 4642]",[],[],[],"[1026, 3916]",[]
participant_4_UNDO,[],[],[],[],[],[],[],[],[],[],[],[],[],[],[],[],[],[],[],[],[],[],"[[0, 3067]]",[],[],[],[],[]
participant_5_GOLD,1400,1400,1845,2649,3393,4284,4824,5226,5762,6248,6709,7519,8066,8432,9853,10522,11352,11808,12912,13397,13916,14370,15012,15474,15997,16815,17229,17397
participant_5_CURRENTGOLD,1400,0,445,549,1293,484,1024,126,662,298,759,119,666,232,1653,2322,3152,508,912,497,1016,1470,1212,74,597,1415,1329,1497
participant_5_LEVEL,1,3,4,5,6,7,7,8,9,9,10,11,12,12,14,15,15,16,16,17,17,18,18,18,18,18,18,18
participant_5_MINIONSKILLED,0,0,1,1,1,1,1,1,1,1,2,2,5,5,9,10,12,12,13,17,20,21,22,22,25,26,26,26
participant_5_KILLS,0,0,0,2,3,4,4,4,4,4,4,6,6,6,9,10,11,11,12,12,12,12,12,12,12,13,13,13
participant_5_BUY,[],"[3134, 1001]",[],"[1036, 1036]",[],"[6691, 1029]",[],"[3047, 1036, 1036, 1033]",[],"[3155, 1036]",[],"[3133, 3156]",[],"[1036, 1036, 3067]",[],[],[],"[6695, 1033, 1029]",[3082],[3143],[],[],[3191],[3157],[],[],[2140],[]
participant_5_SOLD,[],[],[],[],[2052],"[3134, 1036, 1036]",[],"[1001, 1029]",[],"[1036, 1033]",[],"[1036, 3155, 3133]",[],[],[],[],[],[],[1029],"[3082, 3067]",[],[2052],[],[3191],[],[],[2140],[]
participant_5_UNDO,[],[],[],[],[],[],[],"[[0, 1036]]",[],[],[],[],[],"[[0, 1036], [0, 1036]]",[],[],[],"[[0, 1033]]",[],[],[],[],[],[],[],[],[],[]
participant_6_GOLD,1400,1400,1850,2527,2919,3419,4088,4618,5188,5627,6195,7516,8251,8669,9029,9577,10298,10952,11573,12008,12819,13397,14166,14857,15400,15760,16352,16526
participant_6_CURRENTGOLD,1400,100,200,877,119,619,1288,1818,2388,327,895,1416,701,1119,279,827,1548,252,873,408,1219,1797,66,757,1300,1160,1752,1926
participant_6_LEVEL,1,3,4,5,6,7,7,8,9,9,10,11,11,12,12,13,14,14,15,15,16,17,18,18,18,18,18,18
participant_6_MINIONSKILLED,0,0,2,11,12,16,18,23,28,31,37,39,45,46,46,51,56,59,65,67,77,85,87,91,97,97,106,106
participant_6_KILLS,0,0,0,0,0,0,1,1,1,1,1,3,4,4,4,4,4,5,5,5,5,5,5,6,6,6,6,6
participant_6_BUY,[],[6670],[1036],[],"[1053, 1018]",[],[],[],[],"[6673, 1038, 1018]",[],"[3031, 3095]",[3035],[],"[1018, 1001, 1042]",[],[],"[3036, 3006, 1042, 1042]",[],"[3086, 3086]",[],[],"[3046, 1038]",[1038],[],[2140],[],[]
participant_6_SOLD,[],[],[],[],[1036],[],[],[],[],"[6670, 1018, 1053]",[],"[1038, 1018, 1038, 1018]",[],[],[],[],[],"[3035, 1018, 1001, 1042]",[],"[1042, 1042]",[],[],"[1042, 3086]",[],[],[2140],[],[]
participant_6_UNDO,[],[],[],[],[],[],[],[],[],[],[],"[[0, 3031]]",[],[],[],[],[],[],[],"[[0, 3086]]",[],[],[],"[[0, 1038]]",[],[],[],[]
participant_7_GOLD,1400,1400,1842,2329,2777,3406,3886,4351,5061,5497,5980,6440,7059,7441,8170,8831,9442,9886,10340,10753,11709,12186,13142,13531,14507,15162,15582,15762
participant_7_CURRENTGOLD,1400,0,442,929,202,231,711,1176,1886,297,780,40,659,141,870,1531,2142,686,1140,453,1409,1886,2842,231,1207,1862,2282,2462
participant_7_LEVEL,1,3,4,5,6,7,7,8,9,10,10,11,12,12,13,14,14,15,16,16,17,17,18,18,18,18,18,18
participant_7_MINIONSKILLED,0,0,1,3,3,6,9,12,15,17,20,20,21,22,28,30,31,31,32,33,39,41,49,50,56,65,65,65
participant_7_KILLS,0,0,0,0,0,1,1,1,2,2,2,2,3,3,4,5,5,5,5,5,6,6,7,7,9,9,9,9
participant_7_BUY,[],"[6670, 2003, 2003]",[],[],"[1037, 1001]",[1018],[],[],[],"[6672, 3006, 1018]",[],"[3086, 1042, 1042]",[],[3046],[],[],[],"[3086, 2015]",[],"[3094, 1042]",[],[],[],"[3033, 1018]",[],[],[],[]
participant_7_SOLD,[],[],[],"[2003, 2003]",[],[],[],[],[],"[6670, 1018, 1037, 1001]",[],[1018],[],"[1042, 3086, 1042]",[],[],[],[],[],"[3086, 2015]",[],[],[],[1042],[],[],[],[]
participant_7_UNDO,[],[],[],[],[],[],[],[],[],[],[],[],[],[],[],[],[],[],[],[],[],[],[],[],[],[],[],[]
participant_8_GOLD,1400,1400,1856,2412,3029,3485,3996,4444,5380,5797,6273,6834,7542,7914,8619,9262,10051,10435,10966,12090,13081,13616,14807,15179,15667,16027,16531,16705
participant_8_CURRENTGOLD,1400,0,456,1012,1629,400,911,1359,2295,262,738,284,992,264,369,1012,1801,185,281,1405,2396,2931,4122,1579,2067,2427,2931,555
participant_8_LEVEL,1,3,4,5,6,7,7,8,9,10,10,11,12,12,13,14,15,15,16,17,18,18,18,18,18,18,18,18
participant_8_MINIONSKILLED,0,0,2,3,4,4,6,7,13,14,16,17,20,20,20,27,32,32,37,39,46,50,55,55,56,56,58,58
participant_8_KILLS,0,0,0,0,1,1,1,1,3,3,3,3,3,3,4,4,4,4,4,6,8,8,10,10,10,10,10,10
participant_8_BUY,[],"[3145, 1001, 2003]",[],[],[],"[1026, 1028, 1052]",[],[],[],"[3100, 3152, 3057, 3113, 1026]",[],[3100],[],"[3020, 1029]",[3191],[],[],"[3157, 1028]",[1052],[],[],[],[],"[3165, 1058]",[],[],[],[3089]
participant_8_SOLD,[],[],[2003],[],[],[],[],[],[],"[1052, 1026, 3145, 1028, 1026, 1052]",[],"[3057, 1052, 1026]",[],[1001],[1029],[],[],[3191],[],[],[],[],[],"[1052, 1028]",[],[],[],[1058]
participant_8_UNDO,[],[],[],[],[],[],[],[],[],"[[0, 3100], [0, 3113]]",[],[],[],[],[],[],[],[],[],[],[],[],[],[],[],[],[],[]
participant_9_GOLD,1400,1400,1834,2361,2902,3419,3891,4329,5005,5625,6075,6679,7910,8366,9155,9643,10413,10974,11580,12194,12689,13144,14411,14846,15375,16527,16945,17113
participant_9_CURRENTGOLD,1400,0,434,961,352,569,1041,1479,2155,625,1075,429,1660,2116,755,1243,1113,774,680,844,589,1044,2311,1446,1975,3127,410,-87
participant_9_LEVEL,1,3,4,5,6,7,8,8,9,10,10,11,12,13,14,14,15,15,16,17,18,18,18,18,18,18,18,18
participant_9_MINIONSKILLED,0,0,1,3,5,7,9,9,11,13,13,19,22,26,26,26,28,34,34,37,37,38,44,47,49,56,58,58
participant_9_KILLS,0,0,0,0,0,0,0,0,0,1,1,1,2,2,3,3,4,4,5,5,5,5,7,7,7,9,9,9
participant_9_BUY,[],"[3070, 3112, 2003]",[],[],"[3145, 2003, 2003]",[1001],[],[],[],[3152],[],[1058],[],[],"[3003, 3020]",[],[3191],[3108],[3157],[1033],[4632],[],[],[3102],[],[],[3089],[]
participant_9_SOLD,[],[],[2003],[],[],[],"[2003, 2003]",[],[],[3145],[],[],[],[],"[3070, 1058, 3003, 1001]",[],[],[],"[3191, 3108]",[],[1033],[],[],[4632],[],[],[3112],[]
participant_9_UNDO,[],[],[],[],[],[],[],[],[],[],[],[],[],[],[],[],[],[],[],[],[],[],[],[],[],[],[],[]
team0_KILLS,0,0,2,3,7,10,10,11,11,16,16,21,21,25,27,28,29,34,36,39,40,40,42,45,47,48,50,54
team0_CURRENTGOLD,7000,1700,3258,5730,8458,4286,6659,9508,7678,12539,14911,11433,3759,5656,1744,3266,5020,7192,10095,6130,3543,5375,3638,4437,7522,5836,8023,6440
team0_TOTALGOLD,7000,7000,9958,12430,16158,19536,21909,24758,26953,31814,34186,37983,40034,43481,46804,49526,51980,56502,59405,62190,64553,67285,69778,73667,76752,79686,83223,87440
team0_LEVEL,5,15,20,25,30,36,38,41,45,50,52,56,61,64,66,70,72,77,81,84,86,87,89,90,90,90,90,90
team0_SBIRES,0,0,13,21,38,51,64,80,90,109,122,126,133,150,152,169,180,200,212,216,226,246,248,266,283,301,329,341
team1_KILLS,0,0,0,2,4,6,7,7,10,11,11,15,18,18,24,26,28,29,31,33,36,36,41,42,44,47,47,47
team1_CURRENTGOLD,7000,100,1977,4328,3595,2303,4975,5958,9386,1809,4247,2288,4678,3872,3926,6935,9756,2405,3886,3607,6629,9128,10553,4087,7146,9991,8704,6353
team1_TOTALGOLD,7000,7000,9227,12278,15020,18013,20685,22968,26396,28794,31232,34988,38828,40822,44826,47835,51556,54055,57371,60442,64214,66713,71538,73887,76946,80291,82639,83503
team1_LEVEL,5,15,20,25,30,35,36,40,45,48,50,55,59,61,66,70,73,75,79,82,86,88,90,90,90,90,90,90
team1_SBIRES,0,0,7,21,25,34,43,52,68,76,88,97,113,119,129,144,159,168,181,193,219,235,257,265,283,300,313,313
delta_KILLS,0,0,2,1,3,4,3,4,1,5,5,6,3,7,3,2,1,5,5,6,4,4,1,3,3,1,3,7
delta_CURRENTGOLD,0,1600,1281,1402,4863,1983,1684,3550,-1708,10730,10664,9145,-919,1784,-2182,-3669,-4736,4787,6209,2523,-3086,-3753,-6915,350,376,-4155,-681,87
delta_TOTALGOLD,0,0,731,152,1138,1523,1224,1790,557,3020,2954,2995,1206,2659,1978,1691,424,2447,2034,1748,339,572,-1760,-220,-194,-605,584,3937
delta_LEVEL,0,0,0,0,0,1,2,1,0,2,2,1,2,3,0,0,-1,2,2,2,0,-1,-1,0,0,0,0,0
delta_SBIRES,0,0,6,0,13,17,21,28,22,33,34,29,20,31,23,25,21,32,31,23,7,11,-9,1,0,1,16,28
