name,frame_0,frame_1,frame_2,frame_3,frame_4,frame_5,frame_6,frame_7,frame_8,frame_9,frame_10,frame_11,frame_12,frame_13,frame_14,frame_15,frame_16,frame_17,frame_18,frame_19,frame_20,frame_21,frame_22,frame_23,frame_24,frame_25
nameStamp,Tstart,Tearly,Tearly,Tearly,Tearly,Tearly,Tearly,Tearly,Tearly,Tearly,Tearly,Tearly,Tearly,Tearly,Tmid,Tmid,Tmid,Tmid,Tmid,Tmid,Tmid,Tmid,Tmid,Tmid,Tmid,Tmid
timestamp,0,60031,120040,180045,240062,300063,360066,420068,480095,540113,600133,660133,720141,780171,840173,900191,960217,1020232,1080234,1140255,1200269,1260286,1320293,1380322,1440322,1500353
participant_0_GOLD,500,500,577,899,1078,1417,1701,2057,2332,2581,2927,3230,3584,3840,4038,4490,4905,5208,5630,6160,6477,6710,7161,7297,7840,9024
participant_0_CURRENTGOLD,500,0,77,399,578,917,1201,1557,82,331,677,980,1334,1590,738,1190,1605,1908,30,560,77,310,361,497,1040,2224
participant_0_LEVEL,1,1,1,3,4,5,5,6,7,8,8,9,9,10,10,10,11,11,12,12,13,13,13,13,14,15
participant_0_MINIONSKILLED,0,0,3,12,15,25,34,45,51,59,72,79,89,94,94,107,119,126,130,141,148,148,160,161,161,168
participant_0_KILLS,0,0,0,0,0,0,0,0,0,0,0,0,1,1,1,1,2,2,2,2,2,3,3,3,4,4
participant_0_BUY,[],"[3850, 2003, 2003]",[],[],[],"[1052, 1001, 2055]",[],"[1052, 2055]",[],[],"[3802, 1052, 2055, 2055, 3364]",[],"[3108, 2055, 2055]",[],[],[],[],"[6653, 3020, 2055]",[],"[3916, 1028]",[],[],[],[],[],[]
participant_0_SOLD,[],[],[],[2003],[],[],"[2003, 2055]",[2055],[],[3850],"[1052, 1052, 3340]","[2055, 2055]",[1052],[],[],[3851],[2055],"[3802, 3108, 1001]",[],[],[],[2055],[],[],[],[]
participant_0_UNDO,[],[],[],[],[],[],[],[],[],[],[],[],[],[],[],[],[],[],[],[],[],[],[],[],[],[]
participant_1_GOLD,500,500,621,929,1564,1763,1991,2809,3084,3307,3629,3894,4287,4544,5105,5712,5984,6325,6831,7017,7365,7603,8349,8572,9094,9516
participant_1_CURRENTGOLD,500,0,121,429,1064,1263,1491,2309,74,297,619,884,1277,234,295,902,1174,1515,2021,2207,580,818,189,412,184,607
participant_1_LEVEL,1,1,2,2,3,4,4,6,6,7,7,7,8,8,9,10,10,11,11,11,12,12,13,13,13,13
participant_1_MINIONSKILLED,0,0,0,1,1,1,1,2,8,8,8,9,9,9,12,14,17,17,19,23,23,24,24,24,24,24
participant_1_KILLS,0,0,0,0,1,1,1,2,2,4,4,6,7,8,9,12,12,12,12,14,15,15,15,18,18,20
participant_1_BUY,[],"[3070, 2003, 2003]",[],[],[],"[1082, 2420]",[],[],"[1052, 1052, 2055]",[3157],[],[],"[3041, 1001]",[],"[3020, 1052]",[],[],"[4635, 1026]",[],[],"[4633, 3916]",[],[3165],[],[],[]
participant_1_SOLD,[],[],[],[2003],[],[],[2003],[],[],"[2055, 1052, 2420, 1052]",[],[],[1082],[],[1001],[],[],[1052],[],[],"[4635, 1026]",[],[3916],[],[],[]
participant_1_UNDO,[],[],[],[],[],[],[],[],[],[],[],[],[],[],[],[],[],[],[],[],[],[],[],[],[],[]
participant_2_GOLD,500,500,612,1261,1447,1772,2084,2335,2492,3050,3375,3526,4617,5377,6229,6490,7236,7779,8112,8638,9109,9468,10409,10757,11977,12748
participant_2_CURRENTGOLD,500,0,112,751,237,552,864,5,162,210,535,86,1177,37,879,240,986,1529,1862,688,259,618,259,607,1828,1398
participant_2_LEVEL,1,1,1,3,4,5,5,6,6,7,8,8,9,9,10,10,11,11,11,12,12,12,13,14,15,15
participant_2_MINIONSKILLED,0,0,5,14,18,27,38,43,45,50,62,64,80,82,93,94,94,94,94,99,101,111,117,121,132,136
participant_2_KILLS,0,0,0,1,1,1,1,1,1,2,2,2,2,2,3,3,4,5,5,6,7,7,8,8,10,10
participant_2_BUY,[],"[1055, 3340, 2003]",[],[],"[1042, 1042, 1001, 2003, 2003]",[],[],"[3006, 1042, 1042]",[],"[6677, 1042]",[],[1018],[],"[6670, 1036, 1053]",[],"[6673, 1042]",[],[],[],[3124],[1053],[],[1038],[],[],[3072]
participant_2_SOLD,[],[],[],[],[2003],"[2003, 2003]",[],"[1001, 1042]",[],"[1042, 1042]",[],[],[],"[1042, 1036]",[],"[6670, 1018, 1053]",[],[],[],"[6677, 1042]",[],[],[],[],[],"[1038, 1053]"
participant_2_UNDO,[],[],[],[],"[[0, 1042]]",[],[],[],[],[],[],[],[],[],[],[],[],[],[],[],[],[],[],[],[],[]
participant_3_GOLD,500,500,563,804,1466,1609,1868,2506,2733,3554,3913,4803,5342,5903,6326,7636,8394,8591,9525,10500,10842,11300,11864,13090,14041,15167
participant_3_CURRENTGOLD,500,0,63,304,966,109,368,1006,288,129,488,1378,367,928,116,1426,2184,666,1600,2576,1068,1525,390,1615,2566,3693
participant_3_LEVEL,1,1,1,2,3,3,4,5,6,6,7,8,8,9,9,10,10,11,11,12,12,13,13,14,14,15
participant_3_MINIONSKILLED,0,0,2,9,16,17,22,25,32,38,49,57,59,66,66,76,93,93,109,121,121,121,127,134,146,155
participant_3_KILLS,0,0,0,0,1,1,1,3,3,3,3,3,3,3,4,5,5,5,5,5,5,5,7,7,8,8
participant_3_BUY,[],"[1035, 2003, 3340, 2031, 3340]",[],[],[],[],[],[],"[3134, 3133, 1001]",[],[],[],[],"[6691, 1029]",[3047],[],[],[],[],[],"[3134, 1037, 3364]",[],"[3142, 1036]",[],[3134],[]
participant_3_SOLD,[],[],[],[],[],[],[],[],[],[1035],[3340],[],[3513],"[3134, 3133]","[1001, 1029]",[],[],"[3340, 3513]",[],[],[3340],[],"[3134, 1037]",[],[1036],[]
participant_3_UNDO,[],"[[3340, 0], [0, 2003]]",[],[],[],[],[],[],[],[],[],[],[],[],[],[],[],[],[],[],[],[],[],[],[],[]
participant_4_GOLD,500,500,563,811,1290,1484,1720,2130,2339,2861,3011,3600,4080,4565,4745,5113,5663,5927,6404,6832,6972,7639,7829,8151,8877,9298
participant_4_CURRENTGOLD,500,0,63,311,790,174,410,310,519,1041,176,765,630,1115,1296,1663,2213,402,879,107,247,914,1104,1426,2152,2573
participant_4_LEVEL,1,1,1,2,3,3,4,4,5,5,6,7,7,7,7,8,9,10,10,11,11,11,11,12,12,13
participant_4_MINIONSKILLED,0,0,0,1,1,1,2,4,5,6,6,7,8,14,14,17,17,20,30,30,30,39,39,43,45,49
participant_4_KILLS,0,0,0,0,0,0,0,0,0,0,0,0,0,0,0,0,0,0,0,0,0,0,0,0,1,3
participant_4_BUY,[],"[2033, 3340]",[],[],[],[],[],[],"[6660, 1001, 1033]",[],[],[],[],[],[3105],[],[],[],"[3068, 3111, 3066]",[],[1031],[],[1028],[],[],[]
participant_4_SOLD,[],[],[],[],[],[],[],[],[],[],[],[],[],[],[1033],[],[],[],"[6660, 3105, 1001]",[],[],[],[],[],[],[]
participant_4_UNDO,[],[],[],[],[],[],[],[],[],[],[],[],[],[],[],[],[],[],[],[],[],[],[],[],[],[]
participant_5_GOLD,500,500,554,859,1100,1334,1457,1694,1999,2163,2490,2753,2980,3328,3782,4149,4555,4740,4953,5328,5821,6115,6338,6679,7427,7674
participant_5_CURRENTGOLD,500,0,54,359,600,834,957,1194,424,588,915,1178,1405,128,582,949,1355,490,703,303,196,490,38,379,227,474
participant_5_LEVEL,1,1,1,2,4,5,6,6,7,7,8,9,9,9,10,10,11,11,11,12,12,13,13,13,13,14
participant_5_MINIONSKILLED,0,0,0,10,17,21,21,25,36,39,48,56,62,72,79,89,101,105,111,113,114,120,120,129,130,130
participant_5_KILLS,0,0,1,1,1,1,1,1,1,1,1,1,1,1,1,2,2,2,2,2,2,2,3,3,3,3
participant_5_BUY,[],"[3070, 1083, 2003, 3340]","[1036, 2003]",[],[],"[3862, 2003]",[],"[3134, 2055]",[],[1001],[],[1028],[],[],[3044],[3057],[1028],[],[],[],"[3067, 6632, 3364]",[],[3009],[],[],[1018]
participant_5_SOLD,[],[],[],[2003],"[2003, 1083]",[],[2003],[1036],[2055],[],[],[],[],[3862],[1028],[],[],[],[],[],"[1028, 3044, 3057, 3067, 3340]",[3863],[1001],[],[],[]
participant_5_UNDO,[],"[[0, 3070]]",[],[],[],[],[],[],[],[],[],[],[],[],[],[],[],[],[],[],[],[],[],[],[],[]
participant_6_GOLD,500,500,664,957,1314,1521,1826,2026,2362,2782,2904,3427,3549,3899,4096,4371,4579,4851,5025,5654,6150,6671,6949,7305,7473,7668
participant_6_CURRENTGOLD,500,0,164,457,814,1021,1326,1526,1862,2282,354,877,249,599,296,571,779,1051,525,704,1200,521,799,755,73,268
participant_6_LEVEL,1,1,2,2,3,4,5,5,6,7,7,7,7,8,8,9,9,9,10,10,11,11,12,12,13,13
participant_6_MINIONSKILLED,0,0,0,0,0,0,0,0,0,4,4,4,4,5,5,5,5,5,6,11,18,19,20,25,28,29
participant_6_KILLS,0,0,0,0,0,0,1,2,2,2,2,2,2,3,3,3,3,3,3,3,3,3,3,3,3,3
participant_6_BUY,[],"[1036, 2003, 2003, 2003, 3340]",[],[],[1036],[],[],"[3134, 1053, 1001]",[],[1036],[],[6692],[],[],[3134],[2055],[],[1036],[],[1018],[1033],[],[1037],[],"[6676, 3111]",[]
participant_6_SOLD,[],[],[],[],[],[],"[2003, 2003]","[1036, 1036]",[],[],[],"[3134, 1036, 1053]",[],[],[],[],[],[2055],[],[],[1036],[],[2003],[],"[3134, 1037, 1018, 1001, 1033]",[]
participant_6_UNDO,[],[],[],[],[],[],[],[],[],[],[],[],[],[],[],[],[],[],[],[],[],[],[],[],[],[]
participant_7_GOLD,500,500,594,898,1175,1486,1808,2419,2708,3159,3428,3656,3778,4502,5650,5996,6290,7240,8115,8643,9065,9563,11190,11712,11848,12892
participant_7_CURRENTGOLD,500,0,94,48,325,126,438,1049,328,129,398,226,348,1072,620,966,385,310,1185,213,235,734,2360,282,419,1462
participant_7_LEVEL,1,1,1,3,4,4,5,6,6,7,8,8,8,9,9,10,10,10,11,11,11,12,13,13,13,13
participant_7_MINIONSKILLED,0,0,4,14,23,31,40,51,58,60,69,75,75,90,91,100,106,108,121,127,127,141,151,151,152,153
participant_7_KILLS,0,0,0,0,0,0,0,0,0,0,0,1,1,1,1,1,1,1,1,2,2,3,3,3,3,3
participant_7_BUY,[],"[1039, 2003, 3340, 2003, 2003]",[],[],[],[],[],[],[],[],"[6660, 1033, 1029, 1006, 1029]",[],[3105],[],[3047],[],[],[],[3068],[1033],[],"[3211, 1028]",[],[3067],[3065],[]
participant_7_SOLD,[],[],[2003],[2003],[2003],[],[],[],[],[1039],[],[],"[1033, 1029]",[],"[1029, 2422]",[],[],[],"[6660, 3105]",[],[],[1033],[],[1028],"[3211, 3067]",[]
participant_7_UNDO,[],[],[],[],[],[],[],[],[],[],"[[0, 1006]]",[],[],[],[],[],[],[],[],[],[],[],[],[],[],[]
participant_8_GOLD,500,500,554,876,1128,1565,2138,2535,2964,3086,3479,3739,4045,4716,4944,5067,5189,5514,5837,6009,6299,6734,6977,7447,7719,8046
participant_8_CURRENTGOLD,500,0,54,376,278,715,1288,85,514,286,679,89,395,1066,194,242,364,339,662,234,319,754,142,612,109,436
participant_8_LEVEL,1,1,1,2,2,4,4,5,6,6,6,7,7,8,8,8,8,9,9,9,10,10,11,11,12,12
participant_8_MINIONSKILLED,0,0,0,11,16,31,35,35,50,50,62,67,74,80,81,81,81,89,94,94,97,102,103,113,113,120
participant_8_KILLS,0,0,0,0,0,0,0,1,1,2,2,2,2,3,4,4,4,5,6,6,7,7,9,10,10,12
participant_8_BUY,[],"[1036, 2003, 3340, 2003, 2003]",[],[1036],[],"[3134, 2003, 2003]",[],[],"[1053, 2003, 2003]","[1001, 1036]",[],"[1036, 2003]",[],[],"[6692, 3134, 3134]",[],[1037],[3142],[],"[3047, 3111, 1036, 1036]",[3134],[],[],"[3814, 3123]",[],[]
participant_8_SOLD,[],[],[],"[2003, 2003]",[],"[2003, 1036, 1036]","[2003, 2003]",[],[],[2003],[2003],[],[2003],[],"[3134, 1036, 1053, 1036, 1036]",[],[],"[3134, 1037]",[],"[1001, 1001]","[1036, 1036]",[],[],[3134],[],[]
participant_8_UNDO,[],[],[],[],[],[],[],[],[],[],[],[],[],[],"[[0, 3134]]",[],[],[],[],"[[0, 3047]]",[],[],[],[],[],[]
participant_9_GOLD,500,500,924,1058,1212,1411,1893,2205,2402,2596,2780,2937,3118,3584,3893,4442,4715,4870,5105,5482,5691,5854,6430,6570,6753,7108
participant_9_CURRENTGOLD,500,0,24,158,492,241,723,210,407,301,485,242,423,889,498,346,220,375,610,987,96,259,235,375,558,313
participant_9_LEVEL,1,1,1,2,2,3,3,4,5,5,5,5,5,6,7,8,8,8,9,9,9,9,11,11,11,12
participant_9_MINIONSKILLED,0,0,0,0,1,1,1,2,4,4,4,4,5,5,8,10,14,14,15,17,18,18,22,22,25,26
participant_9_KILLS,0,0,0,0,0,0,0,0,0,0,0,0,0,0,0,0,0,0,0,0,1,1,1,1,2,2
participant_9_BUY,[],"[2033, 3340]",[],[],[],[],[],[],"[6660, 2055]",[],[],[],[],"[3111, 1033, 2055]",[],[],[],[3105],[],"[3068, 2055]","[1029, 1029]",[],"[3076, 1028, 2055]",[],[1057],[]
participant_9_SOLD,[],[],[],[2010],[],[2010],[],[2010],[],[2055],[],[],[],[],[],[2055],[],[1033],[],"[6660, 3105]",[],[2055],"[1029, 1029]",[2055],[],[]
participant_9_UNDO,[],[],[],[],[],[],[],[],[],[],[],[],[],[],[],[],[],[],[],[],[],[],[],[],[],[]
team0_KILLS,0,0,0,1,3,3,3,6,6,9,9,11,13,14,17,21,23,24,24,27,29,30,33,36,41,45
team0_CURRENTGOLD,2500,0,436,2194,3635,3015,4334,5187,1125,2008,2495,4093,4785,3904,3324,5421,8162,6020,6392,6138,2231,4185,2303,4557,7770,10495
team0_TOTALGOLD,2500,2500,2936,4704,6845,8045,9364,11837,12980,15353,16855,19053,21910,24229,26443,29441,32182,33830,36502,39147,40765,42720,45612,47867,51829,55753
team0_LEVEL,5,5,6,12,17,20,22,27,30,33,36,39,41,43,45,48,51,54,55,58,60,61,63,66,68,71
team0_SBIRES,0,0,10,37,51,71,97,119,141,161,197,216,245,265,279,308,340,350,382,414,423,443,467,483,508,532
team1_KILLS,0,0,1,1,1,1,2,4,4,5,5,6,6,8,9,10,10,11,12,13,15,16,19,20,21,23
team1_CURRENTGOLD,2500,0,390,1398,2509,2937,4732,4064,3535,3586,2831,2612,2820,3754,2190,3074,3103,2565,3685,2441,2046,2758,3574,2403,1386,2953
team1_TOTALGOLD,2500,2500,3290,4648,5929,7317,9122,10879,12435,13786,15081,16512,17470,20029,22365,24025,25328,27215,29035,31116,33026,34937,37884,39713,41220,43388
team1_LEVEL,5,5,6,11,15,20,23,26,30,32,34,36,36,40,42,45,46,47,50,51,53,55,60,60,62,64
team1_SBIRES,0,0,4,35,57,84,97,113,148,157,187,206,220,252,264,285,307,321,347,362,374,400,416,440,448,458
delta_KILLS,0,0,-1,0,2,2,1,2,2,4,4,5,7,6,8,11,13,13,12,14,14,14,14,16,20,22
delta_CURRENTGOLD,0,0,46,796,1126,78,-398,1123,-2410,-1578,-336,1481,1965,150,1134,2347,5059,3455,2707,3697,185,1427,-1271,2154,6384,7542
delta_TOTALGOLD,0,0,-354,56,916,728,242,958,545,1567,1774,2541,4440,4200,4078,5416,6854,6615,7467,8031,7739,7783,7728,8154,10609,12365
delta_LEVEL,0,0,0,1,2,0,-1,1,0,1,2,3,5,3,3,3,5,7,5,7,7,6,3,6,6,7
delta_SBIRES,0,0,6,2,-6,-13,0,6,-7,4,10,10,25,13,15,23,33,29,35,52,49,43,51,43,60,74
