name,frame_0,frame_1,frame_2,frame_3,frame_4,frame_5,frame_6,frame_7,frame_8,frame_9,frame_10,frame_11,frame_12,frame_13,frame_14,frame_15,frame_16,frame_17,frame_18,frame_19,frame_20,frame_21,frame_22,frame_23,frame_24,frame_25,frame_26
nameStamp,Tstart,Tearly,Tearly,Tearly,Tearly,Tearly,Tearly,Tearly,Tearly,Tearly,Tearly,Tearly,Tearly,Tmid,Tmid,Tmid,Tmid,Tmid,Tmid,Tmid,Tmid,Tmid,Tmid,Tmid,Tmid,Tmid,Tend
timestamp,0,60020,120047,180063,240077,300097,360116,420137,480151,540171,600188,660199,720215,780234,840247,900264,960280,1020305,1080327,1140360,1200369,1260394,1320414,1380447,1440465,1500466,1560466
participant_0_GOLD,500,500,521,1006,1343,1558,1894,2093,2320,2478,2969,3411,3807,3954,4368,4790,5091,5492,5732,5855,6411,6639,7400,7870,8633,9175,9259
participant_0_CURRENTGOLD,500,500,21,71,408,623,559,293,220,378,869,461,857,1004,1418,490,291,692,932,205,761,154,915,1385,398,940,1024
participant_0_LEVEL,1,1,1,2,3,4,5,5,5,6,6,6,7,7,8,8,8,9,9,9,11,11,12,13,13,13,13
participant_0_MINIONSKILLED,0,0,0,4,14,18,28,32,32,34,37,43,55,55,68,68,74,86,89,89,107,113,120,132,132,140,140
participant_0_KILLS,0,0,0,0,1,1,1,1,1,1,1,1,1,1,2,2,2,2,5,5,5,5,6,6,6,6,6
participant_0_BUY,[],"[1055, 2003, 3340]",[],[],[1053],[],[],"[1036, 1036, 2031]",[],"[6670, 1001]",[],[3006],[],[],[],[6673],[1042],[],[],"[3086, 1037, 3363]",[],[],[],"[3085, 3123]",[],[],[3086]
participant_0_SOLD,[],[],[],[2003],[],[],[],[],[],"[1036, 1036]",[3400],[1001],[],[],[],"[6670, 1053]",[],[],[],"[1042, 3340]",[2031],[],[],"[1037, 3086]",[],[],[2031]
participant_0_UNDO,[],[],[],[],[],[],[],[],[],[],[],[],[],[],[],[],[],[],[],[],"[[2031, 0]]",[],[],[],[],[],[]
participant_1_GOLD,500,500,670,963,1277,1534,1742,2040,2397,2725,3084,3293,3635,3757,4100,4372,4839,5064,5211,5582,5884,6300,6552,6780,6940,7209,7292
participant_1_CURRENTGOLD,500,0,170,463,777,334,542,840,147,475,84,293,635,757,1100,372,139,64,211,582,384,800,147,375,535,864,-233
participant_1_LEVEL,1,1,2,3,4,4,4,5,6,6,7,7,8,8,8,8,9,9,10,10,11,11,11,11,12,12,12
participant_1_MINIONSKILLED,0,0,0,0,1,1,1,1,1,1,3,4,4,4,4,4,4,7,7,9,16,20,20,23,23,28,28
participant_1_KILLS,0,0,0,0,0,0,0,0,0,0,0,0,0,0,0,0,1,1,1,1,1,1,1,1,1,1,1
participant_1_BUY,[],"[1035, 2031, 3340]",[],[],[],"[1036, 1036]",[],[],"[3134, 1036, 1029, 1001]",[],[3133],[3364],[],[],[],[6693],"[1036, 1036]",[1029],[],[],[3047],[],"[3044, 1028]",[],[],[],[1037]
participant_1_SOLD,[],[],[],[],[],[],[],[],"[1036, 1036]",[],"[1035, 1036]",[3340],[],[],[],"[3134, 3133]",[],[],[],[],"[1001, 1029]",[],"[1036, 1036]",[],[],[2031],[]
participant_1_UNDO,[],[],[],[],[],[],[],[],"[[0, 1029]]",[],[],[],[],[],[],[],[],[],[],[],[],[],[],[],[],[],[]
participant_2_GOLD,500,500,598,846,1099,1389,1641,1805,2108,2359,3479,3768,4143,4265,5166,5722,5908,6215,7237,7390,8340,8462,9735,10025,11348,11470,12253
participant_2_CURRENTGOLD,500,0,98,346,589,869,1111,175,468,709,1829,358,723,845,46,602,388,695,1717,345,1295,318,1590,105,458,580,1253
participant_2_LEVEL,1,1,1,3,4,5,6,6,7,7,8,9,9,9,10,10,10,10,11,11,12,12,13,13,13,13,13
participant_2_MINIONSKILLED,0,0,4,11,16,23,28,30,38,42,48,54,65,65,67,72,76,83,83,84,89,89,89,95,95,95,95
participant_2_KILLS,0,0,0,0,0,0,0,0,0,0,1,1,1,1,1,2,2,2,3,3,4,4,6,6,8,8,9
participant_2_BUY,[],"[1055, 2003]",[],[],[],[],[],[3134],[],[],[],"[3133, 1036, 1001, 3364]",[],[],"[6691, 1036, 1036]",[],[3134],[],[],"[3814, 2055]",[],[3134],[],"[3179, 2055]","[3047, 1036]",[],[]
participant_2_SOLD,[],[],[],[2003],[],[],[],[],[],[],[3400],[3340],[],[],"[3400, 3134, 3133]",[],"[1036, 1036]",[],[],"[1036, 3134, 2055]",[3400],[],[3400],[3134],"[1055, 1001]",[],[]
participant_2_UNDO,[],[],[],[],[],[],[],[],[],[],[],[],[],[],[],[],[],[],[],[],[],[],[],[],[],[],[]
participant_3_GOLD,500,500,521,853,1454,1830,2267,2403,2870,3205,3752,4035,4185,4307,5181,5511,5711,5924,7420,7743,7893,8334,9550,9880,10204,10689,10773
participant_3_CURRENTGOLD,500,0,21,353,54,430,867,153,620,55,602,85,235,357,1221,351,251,464,1960,508,658,1099,2315,520,844,1330,163
participant_3_LEVEL,1,1,1,2,3,4,4,5,5,6,6,6,7,7,8,8,8,9,10,10,10,11,11,12,12,13,13
participant_3_MINIONSKILLED,0,0,0,11,18,29,40,41,54,63,70,70,72,72,87,91,95,100,102,104,106,114,127,132,133,150,150
participant_3_KILLS,0,0,0,0,0,0,0,0,0,0,0,0,0,0,0,0,0,0,0,0,1,1,1,1,1,1,1
participant_3_BUY,[],"[3850, 2003, 2003, 3340]",[],[],"[1052, 1027, 1001]",[],[],"[1028, 1052, 2003, 2055]",[],[],[],[],"[4642, 3067, 3364]",[],[],[],[6617],[],[],"[3158, 2055]",[3114],[2055],[],[1026],[3504],[],[]
participant_3_SOLD,[],[],[],"[2010, 2003]",[2003],[],[2010],[2010],[2055],[3850],[],[],"[1052, 3340]",[],[],[3851],"[3067, 4642]",[2003],[],"[1001, 2055]",[3400],[2055],[3400],[],"[1027, 3114, 1026]",[],[]
participant_3_UNDO,[],[],[],[],"[[0, 1052]]",[],[],"[[0, 1028]]",[],[],[],[],[],[],[],[],[],[],[],[],[],[],[],[],[],[],[]
participant_4_GOLD,500,500,583,879,1165,1340,1675,1829,2064,2286,2603,3129,3289,3509,3650,3996,4206,4361,4801,4994,5748,5930,6681,6881,7059,7269,7365
participant_4_CURRENTGOLD,500,0,83,379,15,190,525,119,354,576,893,1419,164,384,525,871,231,386,826,344,298,406,1156,506,279,489,340
participant_4_LEVEL,1,1,1,2,3,3,4,4,5,5,6,6,6,7,7,8,8,8,9,9,10,10,11,11,11,12,12
participant_4_MINIONSKILLED,0,0,0,3,3,3,4,4,4,6,11,17,17,17,17,18,22,23,23,26,27,29,31,31,31,35,35
participant_4_KILLS,0,0,0,1,1,1,1,1,1,1,2,2,2,2,2,2,2,2,2,2,2,2,3,3,4,4,4
participant_4_BUY,[],[],"[1056, 3340, 2003, 2003]",[1052],[],[],[1028],[4635],[1001],[],[],[1026],[],[],[],"[4633, 1029]",[3047],[],[],[1026],[],"[1028, 1052]",[],[],"[4637, 1028, 1052]",[],[]
participant_4_SOLD,[],[],[],[2003],[2003],[],[],"[1028, 1052]",[],[],[],[],[],[],[],"[4635, 1026]","[1001, 1029]",[],[],[],[],[],[],[],"[1026, 1028, 1052]",[],[]
participant_4_UNDO,[],[],[],[],[],[],[],[],[],[],[],[],[],[],[],[],[],[],[],[],[],[],[],[],"[[0, 1028]]",[],[]
participant_5_GOLD,500,500,584,1176,1513,2103,2616,3213,3610,4071,4444,4790,5613,6879,7082,8064,8969,9458,9655,10024,10521,11285,11703,11888,13371,14075,14529
participant_5_CURRENTGOLD,500,0,84,51,388,978,91,688,1085,1546,479,825,215,1481,99,1081,1986,2475,52,421,43,808,800,285,1769,2473,2696
participant_5_LEVEL,1,1,1,2,4,5,5,7,7,8,9,9,9,9,10,10,11,11,12,12,12,13,13,14,14,15,15
participant_5_MINIONSKILLED,0,0,3,7,17,24,28,38,47,64,69,73,78,88,89,100,108,121,121,135,135,148,155,159,160,163,168
participant_5_KILLS,0,0,0,0,0,0,0,0,0,0,0,0,0,0,0,0,0,1,1,1,1,1,1,1,1,1,1
participant_5_BUY,[],"[3850, 2003, 2003, 3850, 2003, 2003]",[],[],"[2031, 2055, 3364]",[],[],[3009],[],[],[],[],[],[],"[3067, 3066, 2055, 2055]",[],[2055],[],"[2065, 1004]",[],"[3114, 2055, 2055, 1082]",[],[2055],[],[],[],[]
participant_5_SOLD,[],[],[],[2003],"[2003, 3340, 2055]",[],[],[],[],[],[],[],[3850],[],[],[2055],[],[],"[3067, 3066]","[3851, 2055]","[2055, 1004, 2031]",[],[2055],[2055],[],[2055],[]
participant_5_UNDO,[],"[[0, 2003], [0, 2003], [0, 3850]]",[],[],[],[],[],[],[],[],[],[],[],[],[],[],[],[],[],[],[],[],[],[],[],[],[]
participant_6_GOLD,500,500,682,963,1368,1750,2098,2250,2457,2799,3055,3283,3560,3944,4413,4986,5448,5706,6220,6623,7122,7541,7759,7986,8293,8835,9074
participant_6_CURRENTGOLD,500,0,182,463,868,1250,298,375,582,924,1180,1408,510,894,1363,736,1198,156,670,1073,1572,891,109,336,193,735,974
participant_6_LEVEL,1,1,2,3,4,5,5,5,6,6,7,7,7,8,9,9,9,10,10,11,11,12,12,12,13,13,13
participant_6_MINIONSKILLED,0,0,0,0,0,0,0,0,0,1,1,1,1,1,1,1,1,1,4,4,6,6,6,6,6,6,6
participant_6_KILLS,0,0,0,0,0,0,0,0,0,0,0,0,0,1,1,1,2,2,3,3,4,4,4,4,4,4,6
participant_6_BUY,[],"[1055, 2003, 3340]",[],[],[],[],"[1053, 2055, 2003]",[],[],[],[],"[3134, 2055]",[],[],"[6692, 1001]",[],"[1037, 2055]",[],[1018],[],"[6676, 3363]",[],[],[1042],"[3006, 1036, 2055]",[],[]
participant_6_SOLD,[],[],[],[2003],[],[],[],[],[2055],[],[],[],[2055],[],"[3134, 1053]",[],[],[2055],[2003],[],"[1037, 1018, 3340]",[],[],[],"[1001, 1042]",[],[]
participant_6_UNDO,[],[],[],[],[],[],[],[],[],[],[],[],[],[],[],[],[],[],[],[],[],[],[],[],[],[],[]
participant_7_GOLD,500,500,598,871,1160,1757,2142,2390,2693,2991,3427,3856,4239,4761,4989,5494,6108,6486,6908,7238,7760,7953,8413,8636,9795,10768,11001
participant_7_CURRENTGOLD,500,0,98,361,650,1237,1612,260,553,851,1287,1706,2079,191,419,924,688,1066,588,918,625,308,768,191,1350,2323,1351
participant_7_LEVEL,1,1,1,3,4,5,6,7,7,8,9,9,10,10,10,11,11,11,11,12,12,12,12,12,13,14,14
participant_7_MINIONSKILLED,0,0,4,10,19,26,39,47,54,64,73,87,96,96,102,116,121,127,127,135,135,139,140,140,140,140,140
participant_7_KILLS,0,0,0,0,0,1,1,1,1,1,1,1,1,2,2,2,3,3,4,4,4,4,5,5,8,9,9
participant_7_BUY,[],"[1056, 2003, 2003]",[],[],[],[],[],"[4635, 1001]",[],[],[],[],[],"[4633, 1052, 2055]",[],[],[1026],[],[1011],[],[4637],"[1052, 2055]",[],[3020],[],[],"[3108, 3067]"
participant_7_SOLD,[],[],[],[],[],[],[],[2003],[2003],[],[],[],[],[4635],[],[2055],[],[],[],[],"[1026, 1011, 1052]",[],[2055],[1001],[],[],[1052]
participant_7_UNDO,[],[],[],[],[],[],[],[],[],[],[],[],[],[],[],[],[],[],[],[],[],[],[],[],[],[],[]
participant_8_GOLD,500,500,556,790,1134,1410,1561,1788,2150,2462,2782,2982,3259,3999,4440,4885,5388,5696,6093,6614,7365,7782,8000,8222,8579,9112,9916
participant_8_CURRENTGOLD,500,0,56,290,634,910,36,263,625,937,1257,282,559,1299,240,685,238,546,343,864,90,507,725,647,79,613,1416
participant_8_LEVEL,1,1,1,2,3,4,4,5,5,6,6,7,7,8,8,9,9,10,10,11,11,12,12,12,12,13,14
participant_8_MINIONSKILLED,0,0,2,8,18,27,29,35,45,56,64,69,75,84,89,101,101,104,104,118,120,127,127,128,128,129,133
participant_8_KILLS,0,0,0,1,1,2,2,3,3,3,3,3,3,5,5,6,7,7,7,7,8,9,9,9,11,11,12
participant_8_BUY,[],"[1055, 2003, 3340]",[],"[3070, 2031, 2055]",[],[],"[3057, 2055, 1001, 1028]",[],[],[],"[3067, 3051]",[],"[3078, 1036, 1036]",[],"[3133, 3004, 2055]",[],[],[],"[1053, 3133, 3047]",[],"[3363, 1037]",[],[3074],"[1036, 1036]",[],[],[]
participant_8_SOLD,[],[],[],[2003],[2055],[],[],[],[],[],"[1028, 2031]",[],"[3057, 3051, 3067]",[],"[1036, 1036, 3070, 3133]",[2055],[],[],"[1055, 1001]",[],[3340],[],"[3004, 1037, 1053, 3133]",[],[],[],[]
participant_8_UNDO,[],[],[],[],[],[],"[[0, 2055]]",[],[],[],[],[],[],[],[],[],[],[],[],[],[],[],[],[],[],[],[]
participant_9_GOLD,500,500,563,811,967,1161,1418,1660,1804,1959,2245,2380,2589,3481,3621,4076,4317,4907,5211,5351,5842,6059,6295,6441,6815,7306,7557
participant_9_CURRENTGOLD,500,0,63,311,262,456,713,55,199,354,640,775,984,1876,266,721,887,1477,431,571,72,289,450,596,970,1461,1632
participant_9_LEVEL,1,1,1,2,3,4,4,5,5,6,6,7,7,8,8,8,8,9,9,9,10,10,10,10,10,11,12
participant_9_MINIONSKILLED,0,0,0,1,2,2,4,8,9,9,12,12,12,12,12,12,12,12,12,12,12,16,16,16,16,16,16
participant_9_KILLS,0,0,0,0,0,0,0,0,0,0,0,0,0,0,0,1,1,1,1,1,1,1,1,1,1,1,1
participant_9_BUY,[],"[1035, 3340, 2003, 2003, 2031]",[],[],[],[],"[6660, 1001]","[2055, 3364]",[],[],[],[],"[3047, 1029, 2055]",[],[],[3105],[],"[3068, 1033, 1029, 1029]",[],[],[],"[3076, 1011]",[3075],[],[1033],[],[]
participant_9_SOLD,[],[],[],[],[],[],[],[3340],[],[],[1035],[],"[3364, 1001]",[3513],[],[1029],[],"[6660, 3105]",[],"[2055, 3364, 3513]",[],"[1029, 1029]","[3076, 1011]",[],[],[],[2055]
participant_9_UNDO,[],"[[0, 2003], [0, 2003]]",[],[],[],[],[],[],[],[],[],[],[],[],[],[],[],"[[0, 1033]]",[],[],[],[],[],[],[],[],[]
team0_KILLS,0,0,0,1,2,2,2,2,2,2,4,4,4,4,5,6,7,7,11,11,13,13,17,17,20,20,21
team0_CURRENTGOLD,2500,500,393,1612,1843,2446,3604,1580,1809,2193,4277,2616,2614,3347,4310,2686,1300,2301,5646,1984,3396,2777,6123,2891,2514,4203,2547
team0_TOTALGOLD,2500,2500,2893,4547,6338,7651,9219,10170,11759,13053,15887,17636,19059,19792,22465,24391,25755,27056,30401,31564,34276,35665,39918,41436,44184,45812,46942
team0_LEVEL,5,5,6,12,17,20,23,25,28,30,33,34,37,38,41,42,43,45,49,49,54,55,58,60,61,63,63
team0_SBIRES,0,0,4,29,52,74,101,108,129,146,169,188,213,213,243,253,271,299,304,312,345,365,387,413,414,448,448
team1_KILLS,0,0,0,1,1,3,3,4,4,4,4,4,4,8,8,10,13,14,16,16,18,19,20,20,25,26,29
team1_CURRENTGOLD,2500,0,483,1476,2802,4831,2750,1641,3044,4612,4843,4996,4347,5741,2387,4147,4997,5720,2084,3847,2402,2803,2852,2055,4361,7605,8069
team1_TOTALGOLD,2500,2500,2983,4611,6142,8181,9835,11301,12714,14282,15953,17291,19260,23064,24545,27505,30230,32253,34087,35850,38610,40620,42170,43173,46853,50096,52077
team1_LEVEL,5,5,6,12,18,23,24,29,30,34,37,39,40,43,45,47,48,51,52,55,56,59,59,60,62,66,68
team1_SBIRES,0,0,9,26,56,79,100,128,155,194,219,242,262,281,293,330,343,365,368,404,408,436,444,449,450,454,463
delta_KILLS,0,0,0,0,1,-1,-1,-2,-2,-2,0,0,0,-4,-3,-4,-6,-7,-5,-5,-5,-6,-3,-3,-5,-6,-8
delta_CURRENTGOLD,0,500,-90,136,-959,-2385,854,-61,-1235,-2419,-566,-2380,-1733,-2394,1923,-1461,-3697,-3419,3562,-1863,994,-26,3271,836,-1847,-3402,-5522
delta_TOTALGOLD,0,0,-90,-64,196,-530,-616,-1131,-955,-1229,-66,345,-201,-3272,-2080,-3114,-4475,-5197,-3686,-4286,-4334,-4955,-2252,-1737,-2669,-4284,-5135
delta_LEVEL,0,0,0,0,-1,-3,-1,-4,-2,-4,-4,-5,-3,-5,-4,-5,-5,-6,-3,-6,-2,-4,-1,0,-1,-3,-5
delta_SBIRES,0,0,-5,3,-4,-5,1,-20,-26,-48,-50,-54,-49,-68,-50,-77,-72,-66,-64,-92,-63,-71,-57,-36,-36,-6,-15
