name,frame_0,frame_1,frame_2,frame_3,frame_4,frame_5,frame_6,frame_7,frame_8,frame_9,frame_10,frame_11,frame_12,frame_13,frame_14,frame_15,frame_16,frame_17,frame_18,frame_19,frame_20,frame_21,frame_22,frame_23,frame_24,frame_25,frame_26,frame_27,frame_28,frame_29
nameStamp,Tstart,Tearly,Tearly,Tearly,Tearly,Tearly,Tearly,Tearly,Tearly,Tearly,Tearly,Tearly,Tearly,Tearly,Tearly,Tearly,Tearly,Tearly,Tearly,Tmid,Tmid,Tmid,Tmid,Tmid,Tmid,Tmid,Tmid,Tend,Tend,Tend
timestamp,0,60024,120043,180043,240053,300080,360109,420114,480144,540145,600174,660182,720191,780217,840223,900233,960248,1020265,1080276,1140291,1200301,1260329,1320340,1380370,1440399,1500407,1560439,1620455,1680469,1740472
participant_0_GOLD,500,500,563,1274,1755,2074,2427,2975,3243,3697,4326,4775,5185,5618,5741,6826,7004,7385,7815,8608,9389,9984,11040,11513,12238,12435,13568,13871,14395,15301
participant_0_CURRENTGOLD,500,0,63,774,1255,24,377,575,543,997,1626,317,727,260,383,718,896,1277,57,850,1631,661,1717,65,790,188,1320,1623,2147,33
participant_0_LEVEL,1,1,1,3,4,5,6,7,7,8,9,9,10,10,10,11,11,12,12,13,13,14,14,14,15,15,16,16,16,17
participant_0_MINIONSKILLED,0,0,2,12,17,26,39,48,53,70,83,89,103,108,108,112,115,126,126,143,156,161,175,175,185,185,191,194,197,198
participant_0_KILLS,0,0,0,0,0,0,0,0,1,1,1,1,1,2,2,2,2,2,2,3,5,6,6,6,6,6,6,6,6,6
participant_0_BUY,[],"[1035, 1035, 3340, 2031]",[],[],"[1028, 3364]",[],[],[],[],[],"[6660, 3105]",[],[],[],[],[],"[3068, 3111]",[],[],[],[],[],"[3065, 1029]",[],"[3076, 2055, 2055]",[],[],[],[3075],[]
participant_0_SOLD,[],[],[],[],[3340],[],[],[],[],[1035],[1028],[],[],[],[],[],"[6660, 3105]",[],[],[],[],[],[],[],[1029],[],[],[],[3076],[]
participant_0_UNDO,[],"[[0, 1035]]",[],[],[],[],[],[],[],[],[],[],[],[],[],[],[],[],[],[],[],[],[],[],[],[],[],[],[],[]
participant_1_GOLD,500,500,621,1033,1156,1401,1621,1963,2590,2824,3055,3388,3680,4226,4613,4871,5153,5495,5618,6415,7423,8039,8423,8859,9082,9599,10312,10638,10836,11281
participant_1_CURRENTGOLD,500,0,121,533,256,501,721,1063,1690,1924,55,388,680,1226,1613,1871,353,695,818,1615,2623,3239,423,859,432,949,1662,1988,286,731
participant_1_LEVEL,1,1,2,3,3,3,4,4,5,6,6,7,7,7,8,9,9,9,9,10,11,12,12,12,13,13,14,15,15,15
participant_1_MINIONSKILLED,0,0,0,0,0,0,0,1,2,2,2,2,2,3,4,4,4,5,5,5,7,7,9,11,11,12,12,12,13,13
participant_1_KILLS,0,0,0,0,0,0,0,0,0,0,0,0,0,0,1,1,2,2,2,5,5,5,6,6,7,9,13,14,14,15
participant_1_BUY,[],"[1056, 2003, 2003]",[],[],[],[],"[1027, 1052, 1001]",[],[],"[3802, 1052]",[2055],[],[],[3108],[],"[6653, 1052, 2055, 3363]",[],[],[],[],"[3020, 3057, 3113, 1026]",[],[],[],"[3100, 3108, 1052]",[],[],"[4629, 1058]",[],[]
participant_1_SOLD,[],[],[],[],[2003],[],[],[],[],"[1052, 1027]",[2055],[],[],"[2003, 1052]",[],"[3802, 3108, 3340]",[2055],[],[],[],"[1001, 1052]",[],[],[],"[3057, 3113, 1026]",[],[],"[3108, 1052]",[],[]
participant_1_UNDO,[],[],[],[],[],[],[],[],[],[],[],[],[],[],[],[],[],[],[],[],[],[],[],[],[],[],[],[],[],[]
participant_2_GOLD,500,500,591,941,1211,1501,1816,2113,2514,2835,3090,3514,3903,4120,4933,5140,5950,6433,6625,7791,7963,8271,9245,9647,10142,11078,12773,13401,14051,14731
participant_2_CURRENTGOLD,500,0,91,431,701,981,201,498,889,250,430,844,1223,975,1788,285,1095,1578,1770,2936,343,651,1625,2027,587,1523,3218,932,1582,2261
participant_2_LEVEL,1,1,1,3,4,5,6,7,7,8,8,9,10,10,10,11,11,12,12,13,13,13,14,14,14,15,16,16,16,17
participant_2_MINIONSKILLED,0,0,4,14,23,30,38,48,61,69,77,86,98,101,107,112,119,129,133,140,140,148,155,160,166,172,174,185,200,205
participant_2_KILLS,0,0,0,1,2,2,2,3,3,3,4,4,4,5,5,8,8,8,9,9,9,10,11,11,12,12,13,13,14,16
participant_2_BUY,[],"[1055, 2003]",[],[],[],"[3057, 3067, 2003]",[],[1036],[1042],[],[],"[3078, 1036, 2031, 2055]",[],"[1053, 1036]",[],[3133],[],[],"[3074, 1036]",[],[],"[3044, 1037]",[],"[3053, 1043]",[],[3111],[],[],[],"[3153, 3133]"
participant_2_SOLD,[],[],[],"[2003, 2010]",[],[],[],"[2003, 2010]",[],[],[2010],"[3057, 1042, 1036, 3067]",[2055],[1036],[],[1036],[],[],"[1053, 3133]",[],[],"[1036, 2031]",[],"[1037, 3044]",[],[2422],[],[],[],"[1043, 1055]"
participant_2_UNDO,[],[],[],[],[],[],[],[],[],[],[],[],[],[],[],[],[],[],[],[],[],[],[],[],[],[],[],[],[],[]
participant_3_GOLD,500,500,584,860,1169,1333,1659,1966,2386,2593,2962,3328,3646,3898,4195,4507,4814,5223,5591,5916,6544,6896,7761,8537,9197,9394,10156,10412,10965,11988
participant_3_CURRENTGOLD,500,0,84,360,669,83,409,141,561,68,437,803,1121,173,470,782,1089,1498,1866,391,119,471,1336,92,752,74,836,492,1045,2068
participant_3_LEVEL,1,1,1,2,3,3,4,4,5,5,6,6,7,7,8,8,9,9,10,10,11,12,12,13,13,13,14,15,15,16
participant_3_MINIONSKILLED,0,0,3,12,20,23,35,43,53,58,72,82,93,98,108,118,125,137,146,151,160,170,180,187,199,199,200,201,201,214
participant_3_KILLS,0,0,0,0,0,0,0,0,0,0,0,0,0,0,0,0,1,1,1,1,1,1,1,1,1,1,1,1,1,2
participant_3_BUY,[],"[3858, 2003, 2003, 3340]",[],[],[],[1028],[],"[1001, 2055]",[],[3066],[],[],[],"[3067, 2055, 3364]",[],[],[],"[2065, 2055, 2055]",[],"[3009, 2055]","[1004, 2055]",[],[],"[3114, 1033, 2055]",[],[],[],"[4641, 3222, 2055, 2055]",[],[]
participant_3_SOLD,[],[],[],[],[],[2003],[],[],[],"[2003, 1028]",[2055],[],[3858],[3340],[],[],[2055],"[3067, 3066]","[2055, 2055]",[1001],[],[2055],[],"[3859, 1004]",[],[],"[2055, 2055]","[3114, 1033]",[],[2055]
participant_3_UNDO,[],[],[],[],[],[],[],[],[],[],[],[],[],[],[],[],[],[],[],[],[],[],[],[],[],[],[],"[[0, 4641]]",[],[]
participant_4_GOLD,500,500,523,678,873,1007,1156,1377,1655,1790,1954,2178,2400,2616,2757,2998,3944,4174,4344,4610,4920,5121,5837,6163,6575,6812,7603,7862,8112,8771
participant_4_CURRENTGOLD,500,0,23,178,373,107,256,102,380,115,279,503,725,66,207,448,1394,374,544,135,120,321,1037,288,700,937,1728,787,1037,1697
participant_4_LEVEL,1,1,1,2,3,3,4,4,5,5,6,6,7,7,7,8,9,9,9,9,10,10,11,11,12,13,14,14,14,15
participant_4_MINIONSKILLED,0,0,0,1,2,2,3,5,6,6,7,9,13,14,14,15,16,17,17,17,19,20,23,24,25,26,27,27,27,28
participant_4_KILLS,0,0,0,0,0,0,0,0,0,0,0,0,0,0,0,0,0,0,0,0,0,0,0,1,2,2,2,2,3,4
participant_4_BUY,[],"[1055, 2003, 3340]",[],[],[],"[1001, 1042, 2031]",[],"[3006, 2055]",[],"[1036, 1036]",[],[],[],"[6670, 1018]",[],[],[],[],[],"[6671, 1042, 6672, 1042]",[3086],[],[],[3085],[],"[1018, 1037]",[],[1018],[],[]
participant_4_SOLD,[],[],[],[2003],[],[],[],"[1001, 1042]",[],[],[2055],[],[],"[1036, 1036]",[],[],[],[],[],"[6670, 1018, 6670, 1018]",[1042],[],[],"[1055, 3086]",[],[],[],[],[],[]
participant_4_UNDO,[],[],[],[],[],[],[],[],[],[],[],[],[],[],[],[],[],[],[],"[[0, 1042], [0, 6671]]",[],[],[],[],[],"[[0, 1018]]",[],[],[],[]
participant_5_GOLD,500,500,605,769,1120,1389,1683,1880,2344,2509,2836,3202,3429,4205,4579,4785,4938,5060,5911,6118,6442,6781,7182,7304,7427,7634,7871,8217,8506,8824
participant_5_CURRENTGOLD,500,0,105,194,545,379,673,870,1334,399,111,477,704,145,519,725,878,150,1001,393,317,656,1057,329,452,659,896,342,231,549
participant_5_LEVEL,1,1,1,2,3,4,5,5,7,7,7,8,8,9,10,10,10,10,11,11,11,12,12,12,12,13,13,13,14,14
participant_5_MINIONSKILLED,0,0,5,7,18,27,34,34,52,54,63,74,80,89,95,100,101,101,113,118,126,135,147,147,147,149,155,161,167,174
participant_5_KILLS,0,0,0,0,0,0,0,0,0,0,0,0,0,1,1,1,1,1,1,1,1,1,1,1,1,1,1,1,1,1
participant_5_BUY,[],"[2033, 3340]",[],[2055],[],[1052],[],[],[],"[1026, 3047]",[3145],[],[],"[1011, 1052, 1011, 1052]",[],[],[],[1026],[],[4637],[1028],[],[],[1026],[],[],[],[3152],[1028],[]
participant_5_SOLD,[],[],[],[2010],[],[],[2055],"[2010, 2010]",[],[],[1052],[],[],[],[],[],[],[],[],"[1026, 1011, 1052]",[],[],[],[],[],[],[],"[3145, 1028, 1026]",[],[]
participant_5_UNDO,[],[],[],[],[],[],[],[],[],"[[0, 1026]]",[],[],[],"[[0, 1052], [0, 1011]]",[],[],[],[],[],[],[],[],[],[],[],[],[],[],[],[]
participant_6_GOLD,500,500,621,948,1225,1942,2235,2962,3184,3307,3644,3967,4309,4740,4863,5810,5933,6427,6599,7034,7371,7650,7936,8263,8456,8933,9181,9529,9756,9878
participant_6_CURRENTGOLD,500,0,121,448,725,1442,160,887,334,457,794,1117,26,457,580,1527,75,569,666,1101,1438,117,403,730,123,600,49,396,223,346
participant_6_LEVEL,1,1,2,3,3,4,5,5,5,6,6,7,7,8,8,9,9,10,10,10,11,11,12,12,12,13,13,13,13,14
participant_6_MINIONSKILLED,0,0,0,0,0,0,0,0,0,0,0,0,0,0,0,0,0,10,10,10,10,15,15,24,28,41,41,49,49,49
participant_6_KILLS,0,0,0,0,0,1,1,1,1,1,1,1,1,2,2,2,2,2,4,4,6,6,6,6,6,6,6,6,6,6
participant_6_BUY,[],"[1056, 2003, 2003, 3340]",[],[],[],"[3802, 2055]",[],[],[],"[1026, 1082]",[],[],"[6655, 3363, 2055]",[],[],[3020],[],[1052],[],[1058],[4628],[],[1052],[],[],[1058],[],[],[1058],[]
participant_6_SOLD,[],[],[],[],[],[],[],[2055],[],[],[],[],"[2003, 3802, 1026, 3340]",[2055],[2003],[],[],[],[],[],"[1058, 1052]",[],[],[],[],[1052],[],[],[1082],[]
participant_6_UNDO,[],[],[],[],[],[],[],[],[],[],[],[],[],[],[],[],[],[],[],[],[],[],[],[],[],[],[],[],[],[]
participant_7_GOLD,500,500,612,1004,1253,1927,2263,2649,3050,3413,3682,4120,4530,5238,5717,5839,6161,6527,7391,7514,8841,9116,9309,9605,10088,10261,10383,11099,11346,11468
participant_7_CURRENTGOLD,500,0,112,494,743,32,358,744,1135,288,557,985,60,768,1237,259,581,512,1376,249,261,537,294,590,1074,301,423,1138,276,398
participant_7_LEVEL,1,1,1,3,4,5,6,7,7,8,8,9,10,10,11,11,12,12,12,12,13,13,13,13,14,14,14,15,15,15
participant_7_MINIONSKILLED,0,0,5,18,26,38,48,59,72,83,92,106,119,127,138,138,147,158,160,160,166,171,175,181,194,194,194,215,218,218
participant_7_KILLS,0,0,0,0,0,0,0,0,0,0,0,0,0,0,0,0,0,0,0,0,0,0,0,0,0,0,0,0,0,1
participant_7_BUY,[],"[3858, 2003, 2003]",[],[],[],[1001],"[1029, 2055, 2003]",[],[],"[1028, 2055, 3364]",[1033],[],[],"[6660, 3111, 2055, 2003]",[],[],"[3067, 1033]",[],[],"[3105, 2055]",[],"[3190, 3190]",[2055],[],[],"[1028, 1029]",[],[],[3067],[]
participant_7_SOLD,[],[],[],"[2003, 2010]",[2003],[],[],[],"[2055, 2003, 2010]","[3340, 3858]",[2010],[],[2055],"[1028, 1001, 1033]",[],[2055],"[1028, 3859]",[],[2003],"[1033, 1029]",[],"[3067, 3105, 3067, 3105]",[],[2055],[],[],[],[],[1028],[]
participant_7_UNDO,[],[],[],[],[],[],[],[],[],[],[],[],[],"[[0, 6660]]",[],[],[],[],[],[],[],"[[0, 3190]]",[],[],[],[],[],[],[],[]
participant_8_GOLD,500,500,563,811,1134,1534,1678,2118,2459,2843,3028,3436,3783,4101,4494,4712,4936,5274,5666,5915,6197,6341,6533,6934,8289,8861,8983,9674,10061,10452
participant_8_CURRENTGOLD,500,0,63,311,634,1034,128,568,909,1293,103,511,858,1176,1569,262,186,524,916,665,247,391,183,584,1939,311,434,1124,261,653
participant_8_LEVEL,1,1,1,2,3,4,4,5,5,6,6,7,7,8,8,8,9,9,10,10,10,10,11,11,12,12,12,12,13,13
participant_8_MINIONSKILLED,0,0,2,9,18,27,28,44,54,66,69,83,92,103,115,116,118,126,130,137,142,143,147,159,162,162,162,167,178,185
participant_8_KILLS,0,0,0,0,0,0,0,0,0,0,0,0,0,0,0,0,0,0,0,0,0,0,0,0,1,2,2,3,3,3
participant_8_BUY,[],"[1055, 2003, 3340]",[],[],[],[],"[1037, 2003, 2055, 2003]",[],[],[],"[6670, 2055]",[],[],[],[],"[6671, 1001]",[1042],[],[],[3006],"[1036, 1036]",[],[3134],[],[],"[6676, 1042]",[],[],"[3086, 1036]",[]
participant_8_SOLD,[],[],[],[],[2003],[],[],[],[2055],[2003],[],[2055],[2003],[],[],"[6670, 1037]",[],[],[],"[1001, 1042]",[],[],"[1036, 1036]",[],[],[3134],[],[],[1042],[]
participant_8_UNDO,[],[],[],[],[],[],[],[],[],[],[],[],[],[],[],[],[],[],[],[],[],[],[],[],[],[],[],[],[],[]
participant_9_GOLD,500,500,544,720,915,1222,1357,1592,1805,2033,2194,2462,2680,2820,3076,3451,3679,3850,4190,4331,4653,4793,4934,5102,5331,5522,5677,5908,6048,6938
participant_9_CURRENTGOLD,500,0,44,220,415,422,132,367,580,333,74,342,560,226,481,856,234,405,746,61,383,124,189,357,587,77,232,463,203,1094
participant_9_LEVEL,1,1,1,2,3,4,4,5,5,6,6,6,7,7,7,8,8,8,9,9,9,9,10,10,11,11,11,11,12,12
participant_9_MINIONSKILLED,0,0,1,3,4,7,7,10,11,13,14,18,19,19,25,26,27,29,29,29,33,33,33,35,36,36,37,39,39,39
participant_9_KILLS,0,0,0,0,0,1,1,2,2,2,2,2,2,2,2,4,4,4,4,4,4,4,4,4,4,4,4,4,4,4
participant_9_BUY,[],"[1039, 2031, 3364, 3340]",[],[],[],[],"[3051, 1028, 3364, 2055]",[],"[3067, 1001, 2055]",[],[],[],[3078],[],[],[],"[3044, 1028, 2055]",[],[2055],[],[],[3053],[],[],[3047],[],[3076],[],[1028],[]
participant_9_SOLD,[],[3364],[],[],[],[],[3340],[2055],[1028],[],[1039],[2055],"[3364, 3051, 3067]",[],[3513],[],[],[2055],[],[],[2055],"[3044, 1028]",[],[],[1001],[],[],[],[],[]
participant_9_UNDO,[],[],[],[],[],[],[],[],[],[],[],[],[],[],[],[],[],[],[],[],[],[],[],[],[],[],[],[],[],[]
team0_KILLS,0,0,0,1,2,2,2,3,4,4,5,5,5,7,8,11,13,13,14,18,20,22,24,25,28,30,35,36,38,43
team0_CURRENTGOLD,2500,0,382,2276,3254,1696,1964,2379,4063,3354,2827,2855,4476,2700,4461,4104,4827,5422,5055,5927,4836,5343,6138,3331,3261,3671,8764,5822,6097,6790
team0_TOTALGOLD,2500,2500,2882,4786,6164,7316,8679,10394,12388,13739,15387,17183,18814,20478,22239,24342,26865,28710,29993,33340,36239,38311,42306,44719,47234,49318,54412,56184,58359,62072
team0_LEVEL,5,5,6,13,17,19,24,26,29,32,35,37,41,41,43,47,49,51,52,55,58,61,63,64,67,69,74,76,76,80
team0_SBIRES,0,0,9,39,62,81,115,145,175,205,241,268,309,324,341,361,379,414,427,456,482,506,542,557,586,594,604,619,638,658
team1_KILLS,0,0,0,0,0,2,2,3,3,3,3,3,3,5,5,7,7,7,9,9,11,11,11,11,12,13,13,14,14,15
team1_CURRENTGOLD,2500,0,445,1667,3062,3309,1451,3436,4292,2770,1639,3432,2208,2772,4386,3629,1954,2160,4705,2469,2646,1825,2126,2590,4175,1948,2034,3463,1194,3040
team1_TOTALGOLD,2500,2500,2945,4252,5647,8014,9216,11201,12842,14105,15384,17187,18731,21104,22729,24597,25647,27138,29757,30912,33504,34681,35894,37208,39591,41211,42095,44427,45717,47560
team1_LEVEL,5,5,6,12,16,21,24,27,29,33,33,37,39,42,44,46,48,49,52,52,54,55,58,58,61,63,63,64,67,68
team1_SBIRES,0,0,13,37,66,99,117,147,189,216,238,281,310,338,373,380,393,424,442,454,477,497,517,546,567,582,589,631,651,665
delta_KILLS,0,0,0,1,2,0,0,0,1,1,2,2,2,2,3,4,6,6,5,9,9,11,13,14,16,17,22,22,24,28
delta_CURRENTGOLD,0,0,-63,609,192,-1613,513,-1057,-229,584,1188,-577,2268,-72,75,475,2873,3262,350,3458,2190,3518,4012,741,-914,1723,6730,2359,4903,3750
delta_TOTALGOLD,0,0,-63,534,517,-698,-537,-807,-454,-366,3,-4,83,-626,-490,-255,1218,1572,236,2428,2735,3630,6412,7511,7643,8107,12317,11757,12642,14512
delta_LEVEL,0,0,0,1,1,-2,0,-1,0,-1,2,0,2,-1,-1,1,1,2,0,3,4,6,5,6,6,6,11,12,9,12
delta_SBIRES,0,0,-4,2,-4,-18,-2,-2,-14,-11,3,-13,-1,-14,-32,-19,-14,-10,-15,2,5,9,25,11,19,12,15,-12,-13,-7
