name,frame_0,frame_1,frame_2,frame_3,frame_4,frame_5,frame_6,frame_7,frame_8,frame_9,frame_10,frame_11,frame_12,frame_13,frame_14,frame_15,frame_16,frame_17,frame_18,frame_19,frame_20,frame_21,frame_22
nameStamp,Tstart,Tearly,Tearly,Tearly,Tearly,Tearly,Tearly,Tearly,Tearly,Tearly,Tearly,Tearly,Tearly,Tearly,Tearly,Tearly,Tearly,Tmid,Tmid,Tmid,Tmid,Tmid,Tmid
timestamp,0,60027,120054,180075,240105,300116,360140,420170,480184,540194,600199,660211,720243,780255,840255,900276,960306,1020317,1080321,1140345,1200360,1260365,1320365
participant_0_GOLD,500,500,521,762,1440,1562,1685,1870,2706,2899,3460,3667,4250,4784,4963,5484,5904,6360,6691,7251,7540,7802,7825
participant_0_CURRENTGOLD,500,0,21,262,940,12,135,220,1056,1249,10,217,800,1334,263,784,1204,1660,1991,151,440,702,725
participant_0_LEVEL,1,1,1,2,4,4,4,5,7,7,8,8,9,10,10,11,11,12,12,13,13,13,13
participant_0_MINIONSKILLED,0,0,0,7,18,18,18,21,32,36,43,48,57,67,71,83,97,98,106,116,122,126,126
participant_0_KILLS,0,0,0,0,0,1,2,2,2,2,2,2,2,2,2,2,2,3,3,3,3,3,3
participant_0_BUY,[],"[2003, 1055, 3340]",[],[],[],"[1036, 1036, 1042, 2055]",[],"[6670, 1001, 2055]",[],[],[],[],[],"[3363, 1037, 1018, 2055]",[6672],[],[1042],[1053],[],[1042],[],[1043],[]
participant_0_SOLD,[],[],[],[],[2003],[],[],"[1036, 1042, 1036]",[],[2055],[],[],[],[3340],"[1055, 6670, 1018, 1037]",[],[],[],[],[],[],"[1042, 1042]",[]
participant_0_UNDO,[],[],[],[],[],[],[],[],[],[],[],[],[],[],[],[],[],[],[],[],[],[],[]
participant_1_GOLD,500,500,521,743,1101,1424,1867,1989,2234,2457,2834,3247,3369,3547,3797,4175,4298,4450,4760,5253,5480,5658,5681
participant_1_CURRENTGOLD,500,0,21,243,601,924,467,164,59,282,259,672,794,972,222,600,123,275,585,578,265,443,406
participant_1_LEVEL,1,1,1,2,3,4,4,4,5,5,6,7,7,7,7,8,8,8,8,9,9,9,9
participant_1_MINIONSKILLED,0,0,0,0,0,0,0,0,0,0,0,0,0,3,5,6,6,6,6,6,6,6,6
participant_1_KILLS,0,0,0,0,1,1,1,1,2,2,3,3,4,4,4,4,4,5,5,5,5,5,5
participant_1_BUY,[],"[1054, 2003, 3340]",[],[],[],"[1029, 1028, 1001, 2003]",[],"[2003, 2003]",[],[],"[3105, 6660]",[],[],[],"[3068, 1033, 2003, 2003]",[],[],[],[],"[3111, 3211, 3067]",[],[],[]
participant_1_SOLD,[],[],[],[],[2003],[],[2003],[],[],"[2003, 2003]","[1029, 1028]",[],[],[],"[6660, 3105]",[],[],[2003],[2003],"[1001, 1033]",[],[],[]
participant_1_UNDO,[],[],[],[],[],[],[],[],[],[],[],[],[],[],[],[],[],[],[],[],[],[],[]
participant_2_GOLD,500,500,549,857,1113,1653,2245,2437,2755,3012,3219,3528,4184,4335,4481,4821,4943,5581,5728,6095,6462,6730,6753
participant_2_CURRENTGOLD,500,0,49,347,603,58,650,167,475,722,929,1228,1874,475,176,516,338,76,223,290,657,525,428
participant_2_LEVEL,1,1,1,3,4,5,6,7,7,8,8,9,9,10,10,10,10,11,11,11,12,12,12
participant_2_MINIONSKILLED,0,0,2,10,18,21,31,35,44,49,54,62,72,74,76,85,85,93,95,96,106,110,110
participant_2_KILLS,0,0,0,0,0,0,1,1,1,1,1,1,1,1,1,1,1,1,1,2,2,2,2
participant_2_BUY,[],"[1039, 2031]",[],[],[],[],[1053],"[1036, 2055]",[1036],[],[3134],[],[],[],[3181],[],"[1001, 1042]",[],[],[3006],"[3363, 1029, 1029]",[],[]
participant_2_SOLD,[],[],[],[],[],[],[],[],[],"[1039, 3340]","[1036, 1036]",[],[],[3513],"[3134, 1053]",[],[],[],[],"[1001, 1042]","[3340, 2031]",[],[]
participant_2_UNDO,[],[],[],[],[],[],[],[],[],[],[],[],[],[],[],[],[],[],[],[],[],[],[]
participant_3_GOLD,500,500,521,1064,1313,1624,2016,2313,2512,2777,2899,3136,3412,3583,3901,4159,4296,4446,4568,4950,5072,5265,5302
participant_3_CURRENTGOLD,500,0,21,164,413,724,1116,1413,1612,327,449,686,962,33,351,609,746,896,143,525,647,215,252
participant_3_LEVEL,1,1,1,1,2,3,4,5,5,6,6,6,7,7,7,8,8,8,8,9,9,9,9
participant_3_MINIONSKILLED,0,0,0,1,8,16,28,38,42,47,47,53,62,65,71,79,80,82,82,90,90,94,95
participant_3_KILLS,0,0,0,0,0,0,0,0,0,0,0,0,0,0,0,0,0,0,0,0,0,0,0
participant_3_BUY,[],"[2003, 3854, 3340, 2003]",[],[],[],"[1036, 2031]",[],[],[],"[1036, 1042]",[],[],[],"[3134, 1036, 1006]",[],[],[],[],[],[],[],[3133],[]
participant_3_SOLD,[],[],[],[],"[2003, 2003]",[],[],[],[],[],[],[],[],"[1036, 1036, 1042]",[],[],[],[],[],[],[],"[3854, 1006, 1036]",[]
participant_3_UNDO,[],[],[],[],[],[],[],[],[],[],[],[],[],[],[],[],[],[],[],[],[],[],[]
participant_4_GOLD,500,500,523,871,1041,1175,1375,1510,1644,1779,1913,2075,2259,2393,2528,2662,2796,3001,3170,3376,3552,3815,3841
participant_4_CURRENTGOLD,500,0,23,371,541,175,375,510,644,129,263,425,609,53,188,322,456,661,830,1036,1212,830,541
participant_4_LEVEL,1,1,1,2,3,3,4,4,4,5,5,6,6,6,6,6,7,8,8,8,9,9,9
participant_4_MINIONSKILLED,0,0,0,4,6,6,7,7,7,7,7,9,12,12,12,12,12,16,18,19,21,24,24
participant_4_KILLS,0,0,0,1,1,1,1,1,1,1,1,1,1,1,1,1,1,1,1,1,1,1,1
participant_4_BUY,[],"[1055, 2003, 3340]",[],"[1036, 2003]",[],[],[],[],[],"[6670, 1001, 1042]",[],[],[],"[3006, 1018]",[],[],[],[],[1037],[],[],[6672],[]
participant_4_SOLD,[],[],[2003],[],[],[2003],[],[],[],[1036],[],[],[],"[1001, 1042]",[],[],[],[],[],[],[],"[6670, 1018, 1037]",[]
participant_4_UNDO,[],[],[],[],[],[],[],[],[],[],[],[],[],[],[],[],[],[],[],[],[],[],[]
participant_5_GOLD,500,500,577,899,1057,1410,2337,2637,2815,3269,3686,3913,4323,4937,5590,6331,7304,7958,8361,8897,9229,10501,10757
participant_5_CURRENTGOLD,500,0,77,399,107,460,1387,1687,40,494,91,318,728,617,1270,911,1884,638,1040,1577,109,1381,1457
participant_5_LEVEL,1,1,1,3,3,4,6,7,7,8,8,9,9,10,10,10,11,11,12,12,12,13,13
participant_5_MINIONSKILLED,0,0,3,12,14,25,33,41,44,60,60,66,80,81,91,97,103,113,122,129,129,136,136
participant_5_KILLS,0,0,0,0,0,0,0,0,0,0,1,1,1,1,1,2,2,2,2,3,3,3,3
participant_5_BUY,[],"[3858, 3340, 2003, 2003]",[],[],[],"[1001, 1004]",[],[],[],"[3020, 2003]",[],[],[],"[3145, 2003]",[1028],[],[],[1026],[],[],"[4636, 3113]",[],[]
participant_5_SOLD,[],[],[2003],[],[2003],[],[],[],[],[1001],"[3858, 2003]",[],[],[],[],[],[3859],[2003],[],[],"[3145, 1028, 1026]",[],[]
participant_5_UNDO,[],[],[],[],[],[],[],[],[],[],[],[],[],[],[],[],[],[],[],[],[],[],[]
participant_6_GOLD,500,500,621,1043,1371,1570,1900,2212,2658,2966,3238,3636,3758,4070,4193,4520,4948,5070,5307,5588,6075,6606,6979
participant_6_CURRENTGOLD,500,0,121,118,446,645,975,1287,1733,2041,163,561,183,495,618,945,1373,70,307,238,725,1256,1629
participant_6_LEVEL,1,1,2,2,3,3,4,4,4,5,5,6,7,7,7,8,8,8,8,8,9,10,10
participant_6_MINIONSKILLED,0,0,0,0,0,0,0,0,2,2,2,2,2,2,2,2,2,2,3,3,4,13,13
participant_6_KILLS,0,0,0,1,1,1,1,1,2,2,2,2,2,2,2,2,2,2,2,2,2,2,2
participant_6_BUY,[],"[2031, 3340, 1039]",[],"[1036, 2055]",[],[],[],[],[],[],"[3134, 3133, 1029]",[],[3047],[],[],[],[],"[6691, 1036, 2055]",[],[1036],[],[],[]
participant_6_SOLD,[],[],[],[],[],[],[],[],[2055],[1039],[1036],[],"[1029, 2422]",[],[],[],[],"[3134, 3133]",[],[],[2055],[],[]
participant_6_UNDO,[],[],[],[],[],[],[],[],[],[],[],[],[],[],[],[],[],[],[],[],[],[],[]
participant_7_GOLD,500,500,535,769,1018,1253,1540,1746,1966,2159,2484,2719,2918,3613,3919,4210,4871,5035,5417,5877,6116,6565,6638
participant_7_CURRENTGOLD,500,100,135,369,618,243,520,176,396,89,414,649,148,843,39,330,991,1155,237,697,36,485,588
participant_7_LEVEL,1,1,1,2,4,5,5,6,6,7,8,8,9,10,10,10,11,11,12,12,13,13,13
participant_7_MINIONSKILLED,0,0,1,7,14,18,25,30,36,40,52,59,64,68,71,77,89,91,96,106,109,109,109
participant_7_KILLS,0,0,0,0,0,0,0,0,0,0,0,0,0,1,1,1,1,1,2,2,2,2,2
participant_7_BUY,[],[1056],[],[],[],"[1029, 1001]",[],"[1028, 1006]",[],[3047],[],[],"[1029, 1028]",[],"[6660, 1057]",[],[],[],"[6664, 1029]",[],"[3076, 1028]",[],[]
participant_7_SOLD,[],[],[],[],[],[],[],[],[],"[1001, 1029]",[],[],[],[],"[1028, 1028]",[],[],[],"[6660, 1029, 1057]",[],[1029],[],[]
participant_7_UNDO,[],[],[],[],[],[],[],[],[],[],[],[],[],[],[],[],[],[],[],[],[],[],[]
participant_8_GOLD,500,500,563,937,1137,1420,1675,2025,2307,2565,2984,3321,3486,3805,4023,4518,5010,5201,5323,5860,6103,6676,6749
participant_8_CURRENTGOLD,500,0,63,437,637,220,475,825,1107,315,734,1071,1236,55,273,768,410,251,373,910,403,976,1049
participant_8_LEVEL,1,1,1,2,3,4,4,5,5,6,6,7,7,8,8,9,9,9,9,10,10,10,10
participant_8_MINIONSKILLED,0,0,2,11,15,22,29,39,45,49,57,66,69,77,81,84,88,88,88,89,89,89,89
participant_8_KILLS,0,0,0,0,0,0,2,2,2,2,3,3,3,4,5,7,9,10,10,10,11,14,15
participant_8_BUY,[],"[1055, 2003, 3340]",[],[],"[1036, 1042, 1036, 2003, 2003]",[],[],[],"[6670, 1018, 1037]",[],"[1018, 1001, 2003, 2003]",[],[],"[6672, 2003, 2003]",[],"[3006, 1042]",[],"[1038, 1018]",[],[],"[3095, 1038]",[],[]
participant_8_SOLD,[],[],[],[],[],[],[2003],"[2003, 2003]",[1036],[],[1055],"[2003, 2003]",[],"[6670, 1018, 1037]",[],[1001],"[2003, 2003]",[],[3340],[3513],"[1038, 1018, 1042]",[],[]
participant_8_UNDO,[],[],[],[],"[[0, 1036], [0, 1042]]",[],[],[],"[[0, 1018]]",[],[],[],[],[],[],[],[],[],[],[],[],[],[]
participant_9_GOLD,500,500,523,804,960,1178,1333,1510,1877,2105,2587,2823,2977,3330,3646,4269,4948,5157,5297,5962,6167,6788,6921
participant_9_CURRENTGOLD,500,0,23,304,460,128,283,460,827,205,687,923,1077,330,246,869,1548,927,1067,1732,187,808,921
participant_9_LEVEL,1,1,1,2,2,3,4,4,5,5,6,6,7,7,7,8,9,9,10,10,10,11,11
participant_9_MINIONSKILLED,0,0,0,3,4,6,7,9,11,13,15,17,18,18,19,20,23,23,23,23,24,25,25
participant_9_KILLS,0,0,0,0,0,0,0,0,0,0,0,0,0,0,0,0,0,0,0,0,0,1,1
participant_9_BUY,[],"[1055, 2003, 3340]",[],[],[],"[1036, 1036]",[],[],[],"[3134, 1036, 1001]",[],[],[],"[1053, 1036, 3009]",[],[],[6692],[1036],[],[],[3134],[],[]
participant_9_SOLD,[],[],[],[],[2003],[],[],[],[],"[1036, 1036]",[],[],[],"[1036, 1001]",[],[],"[3134, 1036, 1053]",[],[],[],[1036],[],[]
participant_9_UNDO,[],[],[],[],[],[],[],[],[],[],[],[],[],[],[],[],[],[],[],[],[],[],[]
team0_KILLS,0,0,0,1,2,3,5,5,6,6,7,7,8,8,8,8,8,10,10,11,11,11,11
team0_CURRENTGOLD,2500,0,135,1387,3098,1893,2743,2474,3846,2709,1910,3228,5039,2867,1200,2831,2867,3568,3772,2580,3221,2715,2352
team0_TOTALGOLD,2500,2500,2635,4297,6008,7438,9188,10119,11851,12924,14325,15653,17474,18642,19670,21301,22237,23838,24917,26925,28106,29270,29402
team0_LEVEL,5,5,5,10,16,19,22,25,28,31,33,36,38,40,40,43,44,47,47,50,52,52,52
team0_SBIRES,0,0,2,22,50,61,84,101,125,139,151,172,203,221,235,265,280,295,307,327,345,360,361
team1_KILLS,0,0,0,1,1,1,3,3,4,4,6,6,6,8,9,12,14,15,16,17,18,22,23
team1_CURRENTGOLD,2500,100,419,1627,2268,1696,3640,4435,4103,3144,2089,3522,3372,2340,2446,3823,6206,3041,3024,5154,1460,4906,5644
team1_TOTALGOLD,2500,2500,2819,4452,5543,6831,8785,10130,11623,13064,14979,16412,17462,19755,21371,23848,27081,28421,29705,32184,33690,37136,38044
team1_LEVEL,5,5,6,11,15,19,23,26,27,31,33,36,39,42,42,45,48,48,51,52,54,57,57
team1_SBIRES,0,0,6,33,47,71,94,119,138,164,186,210,233,246,264,280,305,317,332,350,355,372,372
delta_KILLS,0,0,0,0,1,2,2,2,2,2,1,1,2,0,-1,-4,-6,-5,-6,-6,-7,-11,-12
delta_CURRENTGOLD,0,-100,-284,-240,830,197,-897,-1961,-257,-435,-179,-294,1667,527,-1246,-992,-3339,527,748,-2574,1761,-2191,-3292
delta_TOTALGOLD,0,0,-184,-155,465,607,403,-11,228,-140,-654,-759,12,-1113,-1701,-2547,-4844,-4583,-4788,-5259,-5584,-7866,-8642
delta_LEVEL,0,0,-1,-1,1,0,-1,-1,1,0,0,0,-1,-2,-2,-2,-4,-1,-4,-2,-2,-5,-5
delta_SBIRES,0,0,-4,-11,3,-10,-10,-18,-13,-25,-35,-38,-30,-25,-29,-15,-25,-22,-25,-23,-10,-12,-11
