name,frame_0,frame_1,frame_2,frame_3,frame_4,frame_5,frame_6,frame_7,frame_8,frame_9,frame_10,frame_11,frame_12,frame_13,frame_14,frame_15,frame_16,frame_17,frame_18,frame_19,frame_20,frame_21,frame_22
nameStamp,Tstart,Tearly,Tearly,Tearly,Tearly,Tearly,Tearly,Tearly,Tearly,Tearly,Tearly,Tearly,Tearly,Tearly,Tearly,Tearly,Tmid,Tmid,Tmid,Tmid,Tmid,Tmid,Tmid
timestamp,0,60019,120052,180072,240106,300127,360139,420171,480184,540209,600242,660262,720271,780283,840302,900326,960348,1020370,1080386,1140396,1200409,1260418,1320418
participant_0_GOLD,500,500,563,969,1113,1396,1547,1983,2565,2786,3099,3456,4311,4433,4691,5132,5643,6146,6591,6957,7692,8020,8484
participant_0_CURRENTGOLD,500,0,63,469,163,446,597,233,815,286,599,606,1461,1033,91,532,1043,1546,1991,2357,3092,420,884
participant_0_LEVEL,1,1,1,3,3,5,5,6,7,7,8,8,9,9,9,10,11,11,12,12,13,13,13
participant_0_MINIONSKILLED,0,0,2,16,17,24,26,27,34,39,47,52,63,63,70,77,92,99,105,112,114,115,121
participant_0_KILLS,0,0,0,0,0,0,0,1,2,2,2,2,2,2,2,2,2,2,2,2,3,4,5
participant_0_BUY,[],"[1055, 2003]",[],[],[1055],[],[],"[1001, 1036, 2031]",[],[3134],[],[1036],[],[1053],[6692],[],[],[],[],[],[],[3142],[]
participant_0_SOLD,[],[],[],[2003],[],[],[],[],[],[1036],[],[],[],[1036],"[3134, 1053]",[],[],[],[],[],[],[],[]
participant_0_UNDO,[],[],[],[],[],[],[],[],[],[],[],[],[],[],[],[],[],[],[],[],[],[],[]
participant_1_GOLD,500,500,606,859,1167,1507,1678,1970,2092,2605,3462,4122,4513,5786,6118,6758,7171,8113,8609,8970,9467,9959,10304
participant_1_CURRENTGOLD,500,0,106,209,517,857,28,320,67,580,1437,2097,438,1711,43,683,1096,2038,584,945,242,734,1079
participant_1_LEVEL,1,1,2,2,3,4,4,5,5,6,7,7,8,9,9,10,10,11,11,12,12,13,13
participant_1_MINIONSKILLED,0,0,0,0,0,0,0,0,0,0,1,1,2,2,2,6,6,6,15,20,20,20,26
participant_1_KILLS,0,0,0,0,0,0,0,0,0,0,0,0,0,0,0,1,1,1,1,2,2,2,2
participant_1_BUY,[],"[1055, 2003, 3340]",[],[],[],[],"[1036, 1036, 3134, 2031]",[],[],[],"[3009, 2055]",[],[1053],[],[6692],[],[],"[3134, 1018]",[3363],[],[],"[6676, 2055]",[]
participant_1_SOLD,[],[],[],[],[],[2003],[],[],[],[],[],[],[],[],"[3134, 1053]",[],[2055],[],[3340],[],[],"[3134, 1018, 2055]",[]
participant_1_UNDO,[],[],[],[],[],[],"[[0, 1036], [0, 1036]]",[],[],[],[],[],[],[],[],[],[],[],[],[],[],[],[]
participant_2_GOLD,500,500,584,885,1232,1627,1869,2054,2343,2564,2968,3201,3820,4061,4391,5054,5483,5760,5907,6135,6460,6861,7073
participant_2_CURRENTGOLD,500,0,84,375,722,1107,299,484,38,259,653,26,635,876,1196,559,988,130,277,90,415,816,298
participant_2_LEVEL,1,1,1,3,4,5,6,6,7,7,8,8,9,10,10,11,11,11,11,12,12,12,13
participant_2_MINIONSKILLED,0,0,3,11,24,37,44,48,55,60,74,77,85,92,101,111,124,128,128,135,140,152,158
participant_2_KILLS,0,0,0,0,0,0,0,0,0,0,0,0,1,1,1,2,2,2,2,2,2,2,2
participant_2_BUY,[],[2033],[],[],[],[],[3145],[],"[1082, 2055, 1001]",[],[],[1026],[],[],[],"[3152, 3364]",[],"[3057, 1052]",[],[3113],[],[],[3020]
participant_2_SOLD,[],[],[],[],"[2403, 2403, 2403]",[],[],[],[],[],[],[],[],[],[],"[3145, 1026, 3340, 2055]",[],[],[],[1052],[],[],[1001]
participant_2_UNDO,[],[],[],[],[],[],[],[],[],[],[],[],[],[],[],[],[],[],[],[],[],[],[]
participant_3_GOLD,500,500,577,1089,1275,1684,1821,2198,2459,2829,3218,3894,4072,4745,4973,5926,6093,6571,6888,7356,8102,8399,8505
participant_3_CURRENTGOLD,500,0,77,589,775,1184,71,448,709,1079,493,1169,447,1120,148,1101,1268,46,363,831,1577,499,605
participant_3_LEVEL,1,1,1,2,3,4,4,4,5,5,6,7,7,8,8,9,9,9,10,10,11,11,11
participant_3_MINIONSKILLED,0,0,3,14,17,31,32,44,49,60,63,73,76,91,97,107,109,120,127,134,146,153,153
participant_3_KILLS,0,0,0,0,0,0,0,0,0,0,2,3,3,5,5,6,6,7,7,7,8,8,8
participant_3_BUY,[],"[1039, 2031, 3340, 3364]",[],"[2055, 2055]",[],[],[6660],[],"[1029, 2055]",[],[],[],"[3068, 2055, 2055]",[],"[3111, 1011]",[],[],[],"[3001, 2055, 2055]",[],"[3076, 1028]",[],[]
participant_3_SOLD,[],[3340],[],[],[],[],[2055],[],[2055],[1039],[2055],[],"[6660, 1029]",[],[],"[2055, 2055]",[],"[3364, 3513]",[1011],[2055],[2055],[],[]
participant_3_UNDO,[],[],[],[],[],[],[],[],[],[],[],[],[],[],[],[],[],[],[],[],[],[],[]
participant_4_GOLD,500,500,523,1159,1315,1554,1689,1962,2186,2398,2613,3150,3320,3749,3889,4501,4671,5181,5321,5600,6126,6287,6483
participant_4_CURRENTGOLD,500,0,23,659,815,1054,114,387,611,823,1038,400,85,364,504,1116,136,646,61,341,241,402,558
participant_4_LEVEL,1,1,1,2,3,4,4,4,5,5,6,6,7,7,7,8,8,9,9,9,10,10,11
participant_4_MINIONSKILLED,0,0,0,3,4,7,7,12,14,15,15,17,18,21,21,26,26,28,28,32,32,33,34
participant_4_KILLS,0,0,0,1,1,1,1,1,1,1,1,2,2,2,2,2,2,3,3,3,3,3,3
participant_4_BUY,[],"[3854, 2003, 2003, 3340]",[],[],[],[],"[3117, 2055]",[],[],[],[],"[3067, 1029, 2055, 3364]","[1033, 2055]","[2055, 2055]",[],[],[3190],[],"[1028, 2055, 1004]",[],"[3114, 2055]",[],[]
participant_4_SOLD,[],[],[],[],[],[],[],[2055],[],[3854],[],[3340],"[2055, 2003, 2003]",[2055],[2055],[],"[3067, 1033, 1029]",[],[],"[3855, 2055]",[1004],[],[]
participant_4_UNDO,[],[],[],[],[],[],[],[],[],[],[],[],[],[],[],[],[],[],[],[],[],[],[]
participant_5_GOLD,500,500,563,741,1092,1382,1704,2140,2471,2869,3590,3790,4371,4744,5109,5308,5522,5728,5927,6176,6298,6616,6886
participant_5_CURRENTGOLD,500,0,63,241,592,882,1204,155,486,884,1605,340,921,244,609,808,222,28,227,476,598,916,1186
participant_5_LEVEL,1,1,1,2,4,5,6,6,7,8,9,9,10,10,11,11,12,12,12,12,12,13,13
participant_5_MINIONSKILLED,0,0,2,5,16,23,32,33,42,55,62,67,73,78,89,94,100,105,110,117,117,124,125
participant_5_KILLS,0,0,0,0,0,0,1,1,1,1,1,1,1,1,1,1,1,1,1,1,1,1,1
participant_5_BUY,[],[2033],[],[],[],[],[],"[1082, 1001, 3020]",[],"[1028, 2055]",[],"[3067, 1052, 2055]",[],[],[],[4642],[4005],[],"[1026, 2055]",[],[1011],[3363],[]
participant_5_SOLD,[],[],[],[],[],"[2010, 2010]",[],"[1001, 2010]",[],[2055],[],[1028],[],[],[],[1052],"[3067, 4642]",[2055],[],[],[2055],[3340],[]
participant_5_UNDO,[],[],[],[],[],[],[],[],[],[],[],[],[],[],[],[],[],[],[],[],[],[],[]
participant_6_GOLD,500,500,621,1033,1318,1545,2113,2260,2970,3477,3844,4371,4861,4983,5474,5920,6042,6511,7083,7710,8107,8364,8920
participant_6_CURRENTGOLD,500,0,121,533,818,270,838,210,920,1427,1794,221,711,58,549,195,317,786,1358,710,1107,189,745
participant_6_LEVEL,1,1,2,3,4,4,5,5,6,7,7,8,9,9,9,10,10,10,11,11,12,12,12
participant_6_MINIONSKILLED,0,0,0,0,0,0,0,0,2,3,4,4,7,7,8,8,8,9,9,9,13,14,14
participant_6_KILLS,0,0,0,0,0,0,0,1,1,1,2,2,3,3,3,3,3,3,3,3,3,3,3
participant_6_BUY,[],"[1054, 2003, 3340]",[],[],[],[],[],"[3191, 1052, 2031]",[],[],[],"[3157, 1001]",[],[3145],[],[],[3020],[1028],[],[],[],[],[]
participant_6_SOLD,[],[],[],[2003],[],[],[],[],[],[],[],"[3191, 1052]",[],[],[],[],[1001],[],[],[],[],[],[]
participant_6_UNDO,[],[],[],[],[],[],[],[],[],[],[],[],[],[],[],[],[],[],[],[],[],[],[]
participant_7_GOLD,500,500,612,934,1176,1515,1998,2162,2581,2766,3008,3460,3724,3951,4364,4697,4987,5329,5841,6329,6731,7111,7301
participant_7_CURRENTGOLD,500,0,112,424,666,995,1478,192,601,311,553,85,339,566,969,687,127,469,56,544,76,456,676
participant_7_LEVEL,1,1,1,3,4,5,5,6,6,6,7,8,8,8,9,9,10,10,11,12,12,12,13
participant_7_MINIONSKILLED,0,0,5,14,21,31,32,35,40,44,51,58,63,69,82,91,101,113,128,137,149,160,165
participant_7_KILLS,0,0,0,0,0,0,0,0,1,1,1,1,1,1,1,1,1,1,1,1,1,1,1
participant_7_BUY,[],"[3850, 3364, 3340, 2003, 2003]",[],[],[],[],[],"[1052, 4642]","[1028, 2055]",[],[],"[3067, 2055, 3364]",[],"[1001, 2055]",[],[],[],[],[],[],"[4005, 3117, 2055]",[],[]
participant_7_SOLD,[],[],[],[2003],[],[2003],[],[1052],[],[2055],[3850],"[1028, 3340, 2055]",[],[],[],[],[2055],[],[],[3851],"[3067, 4642, 1001]",[],[]
participant_7_UNDO,[],"[[3364, 0]]",[],[],[],[],[],[],[],[],[],[],[],[],[],[],[],[],[],[],[],[],[]
participant_8_GOLD,500,500,521,706,1011,1259,1853,2017,2467,2751,3148,3633,3875,4062,4441,4654,5137,5315,5852,6031,6314,6829,6935
participant_8_CURRENTGOLD,500,0,21,56,361,609,1203,167,617,901,58,243,485,72,451,364,847,250,787,66,349,864,35
participant_8_LEVEL,1,1,1,1,3,3,4,4,5,6,6,7,7,8,8,8,9,9,10,10,11,12,12
participant_8_MINIONSKILLED,0,0,0,4,15,19,22,24,41,50,63,65,69,72,83,88,105,108,127,130,140,153,153
participant_8_KILLS,0,0,0,0,0,0,1,1,1,1,1,2,2,2,2,2,2,2,2,2,2,2,2
participant_8_BUY,[],"[2003, 3340, 1055]",[],[2031],[],[],[],"[1053, 1042]",[],[],"[1018, 1036, 1036]",[6670],[],[6673],[],[1042],[],"[1043, 2055]",[],[1053],[],[],[1037]
participant_8_SOLD,[],[],[],[2003],[],"[2010, 2010]",[],[2010],[],[],[2031],"[1036, 1042, 1036]",[],"[6670, 1018, 1053]",[],[],[],[1042],[2055],[],[],[],[]
participant_8_UNDO,[],[],[],[],[],[],[],[],[],[],[],[],[],[],[],[],[],[],[],[],[],[],[]
participant_9_GOLD,500,500,523,738,933,1181,1521,1695,2249,2403,2619,2795,3140,3281,3421,3641,3920,4080,4298,4518,4658,4799,4920
participant_9_CURRENTGOLD,500,0,23,238,433,681,1021,145,224,378,594,295,640,406,546,766,1045,1205,1423,1643,158,299,420
participant_9_LEVEL,1,1,1,2,3,4,4,4,5,5,6,6,6,6,7,7,7,7,9,9,9,9,9
participant_9_MINIONSKILLED,0,0,0,1,1,2,2,2,3,3,3,5,6,6,6,6,9,9,13,13,13,13,13
participant_9_KILLS,0,0,0,0,0,0,1,1,2,2,2,3,4,4,4,4,4,4,5,6,6,6,7
participant_9_BUY,[],"[3340, 1035, 1039, 2031]",[3364],[],[],"[1036, 1036, 2055]",[],"[3134, 1001, 2055]",[],[],[],[6691],[],"[1036, 1036, 2055]",[],[3111],[],[],[],"[3134, 1037]",[],"[3142, 2055, 2055]",[]
participant_9_SOLD,[],[],[3340],[],[],[],[2055],"[1036, 1036]",[1039],[],[2055],[3134],[],[],[],[1001],[2055],[],[],"[1036, 1036]",[],"[3134, 1037]",[]
participant_9_UNDO,[],"[[0, 1035]]",[],[],[],[],[],[],[],[],[],[],[],[],[],[],[],[],[],[],[],[],[]
team0_KILLS,0,0,0,1,1,1,1,2,3,3,5,7,8,10,10,13,13,15,15,16,18,19,20
team0_CURRENTGOLD,2500,0,353,2301,2992,4648,1109,1872,2240,3027,4220,4298,3066,5104,1982,3991,4531,4406,3276,4564,5567,2871,3424
team0_TOTALGOLD,2500,2500,2853,4961,6102,7768,8604,10167,11645,13182,15360,17823,20036,22774,24062,27371,29061,31771,33316,35018,37847,39526,40849
team0_LEVEL,5,5,6,12,16,22,23,25,29,30,35,36,40,43,43,48,49,51,53,55,58,59,61
team0_SBIRES,0,0,8,44,62,99,109,131,152,174,200,220,244,269,291,327,357,381,403,433,452,473,492
team1_KILLS,0,0,0,0,0,0,3,4,6,6,7,9,11,11,11,11,11,11,12,13,13,13,14
team1_CURRENTGOLD,2500,0,340,1492,2870,3437,5744,869,2848,3901,4604,1184,3096,1346,3124,2820,2558,2738,3851,3439,2288,2724,3062
team1_TOTALGOLD,2500,2500,2840,4152,5530,6882,9189,10274,12738,14266,16209,18049,19971,21021,22809,24220,25608,26963,29001,30764,32108,33719,34962
team1_LEVEL,5,5,6,11,18,21,24,25,29,32,35,38,40,41,44,45,48,48,53,54,56,58,59
team1_SBIRES,0,0,7,24,53,75,88,94,128,155,183,199,218,232,268,287,323,344,387,406,432,464,470
delta_KILLS,0,0,0,1,1,1,-2,-2,-3,-3,-2,-2,-3,-1,-1,2,2,4,3,3,5,6,6
delta_CURRENTGOLD,0,0,13,809,122,1211,-4635,1003,-608,-874,-384,3114,-30,3758,-1142,1171,1973,1668,-575,1125,3279,147,362
delta_TOTALGOLD,0,0,13,809,572,886,-585,-107,-1093,-1084,-849,-226,65,1753,1253,3151,3453,4808,4315,4254,5739,5807,5887
delta_LEVEL,0,0,0,1,-2,1,-1,0,0,-2,0,-2,0,2,-1,3,1,3,0,1,2,1,2
delta_SBIRES,0,0,1,20,9,24,21,37,24,19,17,21,26,37,23,40,34,37,16,27,20,9,22
