name,frame_0,frame_1,frame_2,frame_3,frame_4,frame_5,frame_6,frame_7,frame_8,frame_9,frame_10,frame_11,frame_12,frame_13,frame_14,frame_15,frame_16,frame_17,frame_18,frame_19,frame_20,frame_21,frame_22
nameStamp,Tstart,Tearly,Tearly,Tearly,Tearly,Tearly,Tearly,Tearly,Tearly,Tearly,Tearly,Tearly,Tearly,Tearly,Tmid,Tmid,Tmid,Tmid,Tmid,Tmid,Tmid,Tmid,Tmid
timestamp,0,60014,120028,180036,240058,300096,360108,420116,480146,540158,600191,660195,720223,780255,840285,900300,960327,1020342,1080363,1140366,1200392,1260396,1320425
participant_0_GOLD,500,500,520,811,1043,1200,1620,1840,2192,2385,2612,2950,3072,3529,3750,3935,4306,4684,5029,5389,5525,5795,6140
participant_0_CURRENTGOLD,500,0,20,311,543,165,585,115,467,110,337,600,722,1179,550,735,206,584,129,489,190,460,40
participant_0_LEVEL,1,1,1,2,3,4,5,6,6,7,7,8,8,8,9,9,9,10,10,11,11,11,12
participant_0_MINIONSKILLED,0,0,0,10,14,16,30,36,46,50,56,65,65,75,81,84,95,103,112,122,123,131,140
participant_0_KILLS,0,0,0,0,0,0,0,0,0,0,0,0,0,0,0,0,0,0,0,0,0,0,0
participant_0_BUY,[],"[1055, 2003, 3340]",[],[],[1036],[],[1053],[],[],[],"[1018, 1042]",[],[],"[3006, 1042]",[],[],[],[6673],[],"[1042, 1042]",[],[1043],[1036]
participant_0_SOLD,[],[],[],[],[2003],[],[1036],[],[],[],[],[],[],"[1042, 2422]",[],[],[],"[1055, 1042, 1018, 1053]",[],[],[],"[1042, 1042]",[]
participant_0_UNDO,[],[],[],[],[],[],[],[],[],[],[],[],[],[],[],[],[],[],[],[],[],[],[]
participant_1_GOLD,500,500,620,1388,1714,2071,2457,2732,2928,3113,3540,3817,4618,5460,5643,5818,6039,6347,6660,6797,7000,7522,8024
participant_1_CURRENTGOLD,500,0,120,888,1214,46,432,707,903,238,665,292,1083,1925,158,333,554,862,300,437,640,622,1124
participant_1_LEVEL,1,1,2,2,4,4,5,5,6,6,7,8,8,10,10,10,10,10,11,11,11,11,12
participant_1_MINIONSKILLED,0,0,0,1,3,3,3,3,7,11,11,14,27,35,35,36,37,37,53,54,58,66,76
participant_1_KILLS,0,0,0,1,1,1,1,1,1,1,1,1,1,2,2,2,2,2,2,2,2,2,2
participant_1_BUY,[],"[1039, 2031, 3364]",[],[],[],"[3134, 1036, 2055]",[],[],[],"[1053, 1001]",[],"[1036, 1042]",[],[],"[6692, 3134]",[],[],[1018],[1037],[],[],[1018],[]
participant_1_SOLD,[],[],[],[],[],[],[],[2055],[],[1036],"[3364, 1039]",[],[3513],[],"[3134, 1036, 1053]",[],[],[],[],[],[],[2031],[]
participant_1_UNDO,[],[],[],[],[],[],[],[],[],[],[],[],[],[],[],[],[],"[[0, 1018]]",[],[],[],[],[]
participant_2_GOLD,500,510,586,1254,1675,2028,2241,2588,2884,3049,3388,4004,4127,4366,4654,4888,5330,5795,6279,6653,7230,7424,7985
participant_2_CURRENTGOLD,500,10,86,754,1165,1508,71,418,704,134,473,1079,352,591,879,1113,445,110,594,503,1080,374,935
participant_2_LEVEL,1,1,1,2,4,5,5,6,7,7,7,8,8,8,9,9,9,10,10,11,12,12,12
participant_2_MINIONSKILLED,0,1,4,12,27,38,43,56,64,67,81,90,90,92,98,104,118,121,134,144,150,153,166
participant_2_KILLS,0,0,0,0,0,0,0,0,0,0,0,0,0,1,1,1,1,1,1,1,1,1,1
participant_2_BUY,[],"[3858, 2003, 2003, 3340]",[],[],"[1001, 3364]",[],[1028],[],[],[],[3009],[],"[3067, 2055]","[3024, 2055, 2055]",[],[1028],[],[],[3050],[],[],"[3067, 2055]","[1033, 2055]"
participant_2_SOLD,[],[],[],[2003],"[2003, 3340]",[],[],[],[],[],[1001],[],"[1028, 2055]",[],[3858],[],[2055],[],"[3067, 3024]",[],[2055],"[1028, 3859, 2055]",[]
participant_2_UNDO,[],[],[],[],[],[],[],[],[],[],[],[],[],[],[],[],[],[],[],[],[],[],[]
participant_3_GOLD,500,500,562,892,1078,1490,1683,2015,2167,2535,2764,2901,3149,3458,3879,4036,4344,4607,4910,5132,5366,5816,6022
participant_3_CURRENTGOLD,500,0,62,392,228,640,283,615,767,1135,464,601,849,358,779,936,1244,87,390,12,246,296,152
participant_3_LEVEL,1,1,1,2,3,4,4,5,5,6,6,6,6,7,8,8,8,9,9,9,10,10,10
participant_3_MINIONSKILLED,0,0,2,11,14,29,33,45,46,60,65,66,74,80,94,96,103,108,114,116,123,134,139
participant_3_KILLS,0,0,0,0,0,0,0,0,0,0,0,0,0,0,0,0,0,0,0,0,0,0,0
participant_3_BUY,[],"[1056, 3340, 2003, 2003]",[],[],[],"[1052, 2003, 2003]",[],"[1052, 3145, 2055]",[],"[2031, 1028]",[],[2055],[],[],[1026],[],[3152],[],[3020],[],[1052],[],"[3108, 1029]"
participant_3_SOLD,[],[],[],[2003],[2003],[],[2003],"[1052, 1052]","[2003, 2055]",[],[],[],[],[2055],[],[1056],"[3145, 1028, 1026]",[],[2422],[],[],[],[1052]
participant_3_UNDO,[],[],[],[],[],[],[],[],[],[],[],[],[],[],[],"[[1056, 0]]",[],[],[],[],[],[],[]
participant_4_GOLD,500,500,522,720,855,1097,1253,1443,1577,1775,1972,2271,2405,3574,3815,3968,4222,4412,4700,4960,5101,5329,5499
participant_4_CURRENTGOLD,500,0,22,220,55,297,53,243,377,575,172,471,130,249,480,233,487,677,265,525,666,419,64
participant_4_LEVEL,1,1,1,2,2,3,4,5,5,5,5,6,6,6,7,7,7,7,8,8,8,9,9
participant_4_MINIONSKILLED,0,0,0,3,3,6,7,10,10,13,16,18,18,20,22,22,27,27,31,33,33,36,37
participant_4_KILLS,0,0,0,1,1,1,1,1,1,1,1,2,2,2,2,2,2,2,2,2,3,3,3
participant_4_BUY,[],"[2033, 3340]",[],[],[],[],"[3802, 1082]",[],[],"[1001, 1052]",[],[],[1026],[],[],[],[6655],[3020],[],[3108],[],[3191],[]
participant_4_SOLD,[],[],[],[],[2403],"[2403, 2403]",[],[],[],[],[],[],[],[],[],[],"[1082, 3802, 1026]",[1001],[],[1052],[],[],[]
participant_4_UNDO,[],[],[],[],[],[],[],[],[],[],[],[],[],[],[],[],[],[],[],[],[],[],[]
participant_5_GOLD,500,500,520,769,1322,1794,1987,2413,2693,3432,3962,4201,5199,5492,5809,6800,7283,7985,8220,8532,9662,9913,10409
participant_5_CURRENTGOLD,500,0,20,269,822,1294,37,463,743,1482,512,751,1749,382,698,1690,2173,2875,270,582,1712,263,760
participant_5_LEVEL,1,1,1,3,4,5,6,7,7,8,9,9,10,10,11,12,12,13,13,13,14,14,14
participant_5_MINIONSKILLED,0,0,0,7,12,30,34,49,56,70,78,81,94,100,107,123,129,141,143,149,153,159,160
participant_5_KILLS,0,0,0,0,0,0,0,0,0,0,1,2,2,2,3,5,5,5,5,5,5,5,5
participant_5_BUY,[],"[3340, 2031, 1039]",[],[1028],[],[],[],[],[],[],"[6660, 3105, 1001]",[],[],"[3068, 3006, 3047, 2055]",[],[],[],[],[],[],[],[],[]
participant_5_SOLD,[],[],[],[],[],[],[],[],[1039],[2419],"[1028, 2031]",[2423],[],"[2424, 6660, 3105, 1001, 1001]",[2055],[],[3340],[3513],[],[],[],[],[]
participant_5_UNDO,[],[],[],[],[],[],[],[],[],[],[],[],[],"[[0, 3006]]",[],[],[],[],[],[],[],[],[]
participant_6_GOLD,500,500,620,933,1133,1363,1813,2020,2343,2685,3288,3885,4174,4874,5343,6193,6592,7190,7501,7813,8279,8586,8881
participant_6_CURRENTGOLD,500,0,120,33,233,463,913,1120,1443,1785,48,645,934,99,568,1418,1817,2415,2726,3038,3504,3811,4106
participant_6_LEVEL,1,1,2,3,3,3,4,5,5,6,6,7,8,8,9,10,10,11,11,11,12,12,13
participant_6_MINIONSKILLED,0,0,0,0,0,0,0,0,0,0,1,2,9,12,13,15,15,15,15,15,15,18,18
participant_6_KILLS,0,0,0,0,1,1,1,1,1,1,2,2,3,3,3,4,4,5,5,5,8,8,8
participant_6_BUY,[],"[1056, 3340, 2003, 2003]",[],[],[],[],"[1026, 1001, 1042]",[],[],[],"[1043, 3020]",[],[],"[3115, 1052, 2055]",[],[],[],[],"[4636, 2055, 3364]",[],[],"[1026, 3113]",[]
participant_6_SOLD,[],[],[2003],[2003],[],[],[],[],[],[],"[1042, 1001]",[],[],"[1043, 1026, 2055]",[],[],[],[],"[1052, 3340]",[2055],[],[],[]
participant_6_UNDO,[],[],[],[],[],[],[],[],[],[],[],[],[],[],[],[],[],[],[],[],[],[],[]
participant_7_GOLD,500,500,562,934,1865,2050,3100,3244,3645,4731,5162,5911,6517,7017,8009,9206,9478,10424,10697,11192,11822,12049,12172
participant_7_CURRENTGOLD,500,0,62,434,1365,200,1250,94,495,1581,462,1211,1817,467,1458,2656,414,1360,337,832,1462,1690,237
participant_7_LEVEL,1,1,1,2,3,3,4,4,5,6,6,7,8,8,9,10,10,10,10,11,11,11,11
participant_7_MINIONSKILLED,0,0,2,14,23,26,44,45,58,63,71,86,99,99,110,122,122,124,124,132,142,148,148
participant_7_KILLS,0,0,0,0,2,2,4,4,4,7,7,7,8,9,10,12,12,14,14,15,15,15,15
participant_7_BUY,[],"[1055, 2003, 3340]",[],[],[],"[1053, 1001, 2031]",[],[6670],[],[],"[6673, 1036]",[],[],"[1038, 1053]",[],[],"[3072, 1038, 2055, 3363]",[],"[1037, 1018]",[],[],[],"[3031, 1036, 1018]"
participant_7_SOLD,[],[],[],[],[2003],[],[],[],[],[],"[6670, 1053]",[],[],[1036],[],[],"[1038, 1053, 2031, 3340]",[],"[2055, 1055]",[],[],[],"[1038, 1037, 1018]"
participant_7_UNDO,[],[],[],[],[],[],[],[],[],[],[],[],[],[],[],[],[],[],[],[],[],[],[]
participant_8_GOLD,500,500,590,790,990,1357,1557,1840,2171,2677,3071,3257,3562,3999,4329,4777,5269,6145,6780,7286,7619,7741,8473
participant_8_CURRENTGOLD,500,0,90,140,340,697,197,480,801,897,391,227,522,109,439,887,154,1030,1665,2171,2504,36,768
participant_8_LEVEL,1,1,1,2,3,4,5,6,6,7,8,8,9,9,9,10,10,11,11,12,12,12,13
participant_8_MINIONSKILLED,0,0,4,9,14,25,29,39,48,58,65,69,76,82,91,97,101,114,118,129,132,132,138
participant_8_KILLS,0,0,0,0,0,0,0,0,0,0,0,0,0,0,0,0,0,1,1,1,1,1,2
participant_8_BUY,[],"[1055, 2003, 3340]",[],[2031],[],[],"[1036, 1036]",[],[],[3134],[1053],[1036],[],[6692],[],[],"[3006, 1036, 3363, 2055]",[],[],[],[],[6676],[]
participant_8_SOLD,[],[],[],"[2003, 2010]",[],[2010],[],[],[],"[2010, 1036, 1036]",[],[],[],"[3134, 1036, 1053]",[],[],"[2422, 3340]",[],[2055],[],[],"[2031, 1036]",[]
participant_8_UNDO,[],[],[],[],[],[],[],[],[],[],[],[],[],[],[],[],[],[],[],[],[],[],[]
participant_9_GOLD,500,500,522,738,1224,1380,1731,1866,2069,2353,2620,3241,3547,4109,4531,4947,5167,5567,5767,5998,6534,6675,6845
participant_9_CURRENTGOLD,500,0,22,238,724,505,856,141,344,628,95,716,1022,664,1076,92,312,712,78,308,844,985,405
participant_9_LEVEL,1,1,1,2,3,3,4,4,5,5,6,7,7,8,8,9,9,10,10,10,10,10,10
participant_9_MINIONSKILLED,0,0,0,2,5,6,8,8,9,9,13,14,15,16,19,19,20,21,21,23,25,25,25
participant_9_KILLS,0,0,0,0,0,0,0,0,0,0,0,1,1,1,1,1,1,1,1,1,1,1,1
participant_9_BUY,[],"[3854, 2003, 2003, 3340]",[],[],[],"[1001, 2055]",[],"[3117, 2055, 2055]",[],[],"[1028, 1028]",[],[],"[3067, 3066, 3364, 2055, 2055]",[],"[2065, 1029]",[],[],"[3067, 2055]",[],[],[],"[3024, 2055, 2055]"
participant_9_SOLD,[],[],[],[],"[2003, 2010]",[],[2055],"[2419, 1001]","[2055, 2055]","[2010, 2003]",[],[3854],[],"[1028, 1028, 2010, 3340]",[],"[2423, 3067, 3066]",[2055],[2055],[2424],[],[3855],[2055],[1029]
participant_9_UNDO,[],[],[],[],[],[],[],[],[],[],[],[],[],[],[],[],[],[],[],[],[],[],[]
team0_KILLS,0,0,0,2,2,2,2,2,2,2,2,3,3,5,5,5,5,5,5,5,6,6,6
team0_CURRENTGOLD,2500,10,310,2565,3205,2656,1424,2098,3218,2192,2111,3043,3136,4302,2846,3350,2936,2320,1678,1966,2822,2171,2315
team0_TOTALGOLD,2500,2510,2810,5065,6365,7886,9254,10618,11748,12857,14276,15943,17371,20387,21741,22645,24241,25845,27578,28931,30222,31886,33670
team0_LEVEL,5,5,6,10,16,20,23,27,29,31,32,36,36,39,43,43,43,46,48,50,52,53,55
team0_SBIRES,0,1,6,37,61,92,116,150,173,201,229,253,274,302,330,342,380,396,444,469,487,520,558
team1_KILLS,0,0,0,0,3,3,5,5,5,8,10,12,14,15,17,22,22,26,26,27,30,30,31
team1_CURRENTGOLD,2500,0,314,1114,3484,3159,3253,2298,3826,6373,1508,3550,6044,1721,4239,6743,4870,8392,5076,6931,10026,6785,6276
team1_TOTALGOLD,2500,2500,2814,4164,6534,7944,10188,11383,12921,15878,18103,20495,22999,25491,28021,31923,33789,37311,38965,40821,43916,44964,46780
team1_LEVEL,5,5,6,12,16,18,23,26,28,32,35,38,42,43,46,51,51,55,55,57,59,59,61
team1_SBIRES,0,0,6,32,54,87,115,141,171,200,228,252,293,309,340,376,387,415,421,448,467,482,489
delta_KILLS,0,0,0,2,-1,-1,-3,-3,-3,-6,-8,-9,-11,-10,-12,-17,-17,-21,-21,-22,-24,-24,-25
delta_CURRENTGOLD,0,10,-4,1451,-279,-503,-1829,-200,-608,-4181,603,-507,-2908,2581,-1393,-3393,-1934,-6072,-3398,-4965,-7204,-4614,-3961
delta_TOTALGOLD,0,10,-4,901,-169,-58,-934,-765,-1173,-3021,-3827,-4552,-5628,-5104,-6280,-9278,-9548,-11466,-11387,-11890,-13694,-13078,-13110
delta_LEVEL,0,0,0,-2,0,2,0,1,1,-1,-3,-2,-6,-4,-3,-8,-8,-9,-7,-7,-7,-6,-6
delta_SBIRES,0,1,0,5,7,5,1,9,2,1,1,1,-19,-7,-10,-34,-7,-19,23,21,20,38,69
