name,frame_0,frame_1,frame_2,frame_3,frame_4,frame_5,frame_6,frame_7,frame_8,frame_9,frame_10,frame_11,frame_12,frame_13,frame_14,frame_15,frame_16,frame_17,frame_18,frame_19,frame_20,frame_21,frame_22,frame_23,frame_24,frame_25,frame_26,frame_27,frame_28,frame_29,frame_30,frame_31,frame_32,frame_33,frame_34,frame_35,frame_36,frame_37,frame_38,frame_39,frame_40
nameStamp,Tstart,Tearly,Tearly,Tearly,Tearly,Tearly,Tearly,Tearly,Tearly,Tearly,Tearly,Tearly,Tearly,Tearly,Tearly,Tearly,Tearly,Tearly,Tearly,Tmid,Tmid,Tmid,Tmid,Tmid,Tmid,Tmid,Tmid,Tmid,Tmid,Tmid,Tmid,Tmid,Tmid,Tmid,Tmid,Tmid,Tmid,Tmid,Tmid,Tend,Tend
timestamp,0,60001,120004,180010,240026,300034,360035,420038,480054,540061,600063,660088,720097,780122,840132,900171,960173,1020179,1080209,1140217,1200248,1260263,1320268,1380288,1440318,1500333,1560337,1620351,1680355,1740371,1800372,1860398,1920399,1980413,2040414,2100418,2160435,2220444,2280473,2340485,2400485
participant_0_GOLD,500,500,562,789,1231,1501,1907,2490,2779,3516,3778,4102,4449,4934,5499,5727,6495,6618,6883,7250,7372,7671,8719,9218,9854,10027,11268,11890,12281,12796,13447,13881,14139,14734,15154,15803,16125,16451,16916,18150,18653
participant_0_CURRENTGOLD,500,0,62,289,731,1001,1407,1990,2279,716,978,402,749,1234,1799,177,945,268,533,900,1022,1321,919,518,1155,137,1379,2000,292,806,1458,642,900,1495,1915,2563,2886,3212,627,1861,2303
participant_0_LEVEL,1,1,1,3,4,5,6,7,7,8,8,8,9,10,11,11,11,11,12,12,12,12,13,14,14,14,15,15,15,16,16,16,16,17,17,17,18,18,18,18,18
participant_0_MINIONSKILLED,0,0,2,8,24,32,46,55,62,63,72,80,89,101,111,117,131,131,136,146,146,156,156,161,175,175,184,193,193,196,200,203,204,215,217,225,225,227,230,237,237
participant_0_KILLS,0,0,0,0,1,1,1,1,2,3,3,3,5,5,6,7,7,8,9,10,11,11,13,13,15,16,17,17,19,19,19,20,22,22,22,23,23,23,24,24,24
participant_0_BUY,[],"[1039, 2031, 3340]",[],[],[],[],"[3134, 1001]",[],[],"[3133, 1036]",[],[],"[6691, 3133]",[],[],[],[3508],[],[],[],"[1038, 1037, 3158]",[],[],[],[],"[3031, 3133]",[1018],[],[],[6675],[],[3133],[],[],[],[6694],[],[],[],[],[]
participant_0_SOLD,[],[],[],[],[],[],[],[],[],[],[1039],[],"[3134, 3133, 1036]",[],[],[],[3133],[],[],[],[1001],[],[],[],[],"[1038, 1037, 2031]",[],[],[],"[3133, 1018]",[],[],[],[],[],[3133],[],[],[],[],[]
participant_0_UNDO,[],[],[],[],[],[],[],[],[],[],[],[],[],[],[],[],[],[],[],[],[],[],[],[],[],[],[],[],[],[],[],[],[],[],[],[],[],[],[],[],[]
participant_1_GOLD,500,500,662,962,1662,1890,2013,2542,3164,3561,4008,4387,5209,5432,6271,6827,7103,7812,8615,9206,9821,10028,10771,11056,12073,12781,13383,13740,14496,14693,15119,15830,16853,17093,17426,17941,18064,18421,19137,19625,19916
participant_1_CURRENTGOLD,500,0,162,462,1162,1390,113,642,1264,211,658,1027,99,322,1161,1716,192,902,1705,2296,136,343,1086,1371,2389,831,833,1190,1947,444,870,481,1504,1744,2077,292,415,772,1488,1977,2216
participant_1_LEVEL,1,1,2,3,4,4,5,6,6,7,8,8,9,9,10,10,11,12,13,13,13,13,14,14,15,15,16,16,16,17,17,17,18,18,18,18,18,18,18,18,18
participant_1_MINIONSKILLED,0,0,0,0,0,0,0,4,4,4,5,8,9,9,9,13,13,17,17,17,19,19,20,23,23,26,26,26,27,27,27,32,37,37,37,37,37,37,37,45,48
participant_1_KILLS,0,0,0,0,0,0,0,0,0,0,0,1,1,1,1,1,1,1,1,2,2,2,2,2,2,2,2,2,3,5,5,5,5,6,7,7,8,8,8,8,8
participant_1_BUY,[],"[1055, 1055, 2003]",[],[],[],[],[],"[3070, 1036, 1027]",[],[],"[3133, 1001]",[],[3004],[3158],[],[],[3057],[],[],[],[],[],[],"[3051, 3067]",[],[],"[3078, 1053]",[],[],[],[],[],[3153],[],[3133],[1031],[],[],[],[],[]
participant_1_SOLD,[],[],[],[],[],[],[2003],[],[],[],[1036],[],"[3070, 3133, 1027]",[1001],[],[],[],[],[],[],[],[],[],[],[],[],"[3057, 3051, 3067]",[],[3004],[],[],[],[1053],[],[1055],[],[],[],[],[],[]
participant_1_UNDO,[],"[[0, 1055]]",[],[],[],[],[],[],[],[],[],[],[],[],[],[],[],[],[],[],[],[],[],[],[],[],[],[],[],[],[],[],[],[],[],[],[],[],[],[],[]
participant_2_GOLD,500,500,590,870,1084,1375,1725,1917,2262,2553,2954,3182,3632,3817,4360,4716,5087,5377,5612,5885,6328,6614,6811,7149,7678,8087,8909,9082,9608,9970,10580,10853,11507,11887,12149,12383,12813,13248,13803,14165,14330
participant_2_CURRENTGOLD,500,0,90,360,574,855,1195,87,422,413,14,242,682,867,1400,906,1277,1567,477,100,543,829,126,464,993,452,74,247,773,1135,1746,718,1372,1752,765,998,1428,1864,2418,2781,3005
participant_2_LEVEL,1,1,1,3,4,5,6,6,7,7,8,8,9,9,10,10,11,11,12,12,12,13,13,13,14,14,15,15,15,15,16,16,17,17,17,17,18,18,18,18,18
participant_2_MINIONSKILLED,0,0,4,11,16,23,33,37,47,57,64,70,81,85,97,102,113,123,127,127,142,148,148,157,160,170,171,171,182,186,193,193,210,216,218,220,231,235,238,239,239
participant_2_KILLS,0,0,0,0,0,0,0,2,2,2,2,2,2,2,2,2,3,3,3,3,4,4,4,4,4,4,4,4,4,4,4,4,4,5,5,5,5,5,5,5,5
participant_2_BUY,[],"[3850, 2003, 2003]",[],[],[],[],[],[3009],"[1033, 2055]",[],"[1029, 1004, 2055]",[],[],"[3114, 2055]",[],[],"[3105, 2055, 2055]",[],[],[],"[3190, 2055, 2055, 3364]",[],[1026],[],[],[],"[3504, 2055]",[],[],[],[],"[3114, 2055, 2055]",[],[],[],[3107],[],[],[],[],[]
participant_2_SOLD,[],[],[],[],[],[],[],[],[],"[2003, 2003]",[],[2055],[3850],[1004],[2055],[2055],"[1033, 1029]",[],[],"[2055, 2055]","[3105, 3340]",[2055],[3851],[],[],[2055],"[3114, 1026]",[],[2055],[],[],[],[],[],[],[3114],[],[],[2055],[],[]
participant_2_UNDO,[],[],[],[],[],[],[],[],[],[],[],[],[],[],[],[],[],[],[],[],[],[],[],[],[],[],[],[],[],[],[],[],[],[],[],[],[],[],[],[],[]
participant_3_GOLD,500,500,562,810,1101,1392,1613,1948,2265,2697,3010,3572,4069,4282,4626,4804,5016,5382,5840,6341,6464,6586,6708,7001,7817,8325,8536,9039,9559,10349,10471,10643,10884,11917,12359,12481,12924,13096,13518,13733,13868
participant_3_CURRENTGOLD,500,0,62,310,601,892,1113,348,665,1097,360,922,669,282,626,804,316,682,1140,1641,1764,1886,2008,401,1217,1725,303,806,1326,2116,2238,2411,451,1484,1006,329,771,944,1366,1580,1535
participant_3_LEVEL,1,1,1,2,3,4,4,5,5,6,6,7,7,8,8,8,8,9,9,10,10,10,10,10,11,11,11,12,12,13,13,13,13,13,14,14,14,14,14,15,15
participant_3_MINIONSKILLED,0,0,2,9,18,25,31,34,42,49,57,62,69,74,83,86,87,97,109,114,114,114,114,114,124,128,128,132,133,137,137,137,140,146,146,146,146,146,146,149,149
participant_3_KILLS,0,0,0,0,0,0,0,0,0,0,0,0,0,0,0,0,0,0,0,0,0,0,0,0,1,1,2,2,2,2,3,3,3,3,3,3,3,3,3,3,3
participant_3_BUY,[],"[1056, 2003, 2003, 3340]",[],[],[],[],[],[3802],[],[1001],[3020],[],[],[],[],[1026],[],[],"[6655, 2055]",[2420],[],[],[3191],[],[],[3157],[4632],[],[],[],[],[3102],[],[],[1058],[],[],[],[],[],[]
participant_3_SOLD,[],[],[],"[2003, 2010]",[],"[2010, 2003]",[],[],[2010],[],[1001],[],[],[],[],[],[],[],"[3802, 1026]",[],[2055],[],[],[],[],"[3191, 2420]",[],[],[],[],[],[4632],[],[],[],[],[],[],[],[],[]
participant_3_UNDO,[],[],[],[],[],[],[],[],[],[],[],[],[],[],[],[],[],[],[],[],[],[],[],[],[],[],[],[],[],[],[],[],[],[],[],[],[],[],[],[],[]
participant_4_GOLD,500,500,522,676,831,966,1241,1975,2109,2528,2662,2945,3224,3364,3525,3806,4315,4455,4706,4995,5699,5900,6285,6425,6766,6956,7097,7387,7669,7956,8165,8580,8721,9091,9336,9477,9817,10007,10448,10759,10932
participant_4_CURRENTGOLD,500,0,22,176,331,466,741,575,184,603,112,395,674,189,350,631,240,380,631,920,274,475,10,150,491,681,97,387,669,956,1165,630,771,1141,1386,27,367,558,998,1309,1482
participant_4_LEVEL,1,1,1,2,3,4,4,5,5,6,6,6,7,7,7,8,8,8,8,9,10,10,10,10,11,11,12,12,13,13,13,14,14,15,15,15,16,16,16,17,17
participant_4_MINIONSKILLED,0,0,0,0,0,0,0,0,0,1,1,1,1,1,1,2,2,2,2,2,3,3,3,3,3,3,3,3,3,4,4,4,4,4,4,4,4,4,4,5,5
participant_4_KILLS,0,0,0,0,0,0,0,1,1,3,3,3,3,3,4,4,5,5,5,5,5,5,8,9,9,9,12,12,13,14,15,16,16,16,17,18,19,19,19,21,23
participant_4_BUY,[],"[1082, 2003, 2003, 2003, 1082, 2031]",[],[],[],[],[],[],[],"[3145, 3145, 1028, 1026]",[],[4636],[],[],[],"[3057, 3113, 1001]",[],[3020],[],[],[],[],[3100],[3108],[],[3041],[],[],[4629],[],[],[1058],[],[],[],[],[],[],"[3089, 2139]",[],[]
participant_4_SOLD,[],[],[],[],[],[],[],[],[],[],[],"[3145, 1028, 1026]",[],[],[],[],[],[1001],[],[],[],[],"[3057, 3113]",[],[],"[2031, 1082]",[],[],[3108],[],[],[],[],[],[],[],[],[],"[1058, 2139]",[],[]
participant_4_UNDO,[],"[[0, 2003], [0, 2003], [0, 2003], [0, 1082]]",[],[],[],[],[],[],[],"[[0, 3145]]",[],[],[],[],[],[],[],[],[],[],[],[],[],[],[],[],[],[],[],[],[],[],[],[],[],[],[],[],[],[],[]
participant_5_GOLD,500,500,520,782,926,1273,1515,1728,1871,2196,2627,2932,3075,3365,3611,3866,4101,4279,4826,5200,5456,6022,6584,6706,7263,7671,8017,8139,8336,8459,8734,8856,9174,9457,9933,10379,11006,11372,11870,12064,12117
participant_5_CURRENTGOLD,500,0,20,282,126,473,315,178,321,296,327,632,375,665,211,466,701,179,26,400,256,822,1384,356,913,271,617,739,136,259,494,617,84,367,144,189,817,383,880,275,-1983
participant_5_LEVEL,1,1,1,3,3,4,5,6,6,6,7,7,7,8,9,9,9,10,11,11,11,12,13,13,13,14,14,14,14,14,14,14,15,15,15,16,17,17,17,17,17
participant_5_MINIONSKILLED,0,0,0,8,9,20,26,31,32,35,40,51,52,62,66,70,76,79,85,96,101,112,120,120,129,142,151,151,151,151,156,156,163,173,182,189,200,211,220,223,223
participant_5_KILLS,0,0,0,0,0,0,0,1,1,1,2,2,4,4,4,4,4,5,5,5,5,5,6,6,6,6,6,6,6,6,6,6,6,6,6,6,6,6,6,6,6
participant_5_BUY,[],"[1082, 2003, 2003, 2003, 2031]",[],[],[1001],[],[],"[1026, 1028]",[],[],[],[4635],[],[],"[4633, 3057, 1052]",[3113],[],[3100],[],[],[],"[3111, 1052]",[1026],[],[],[],[],[],[],[],[],[],[3115],[],[],[1028],[],[],[1011],[],[]
participant_5_SOLD,[],[],[],[],[],[],[],[],[],[],[],[1028],[],[],"[4635, 1026]",[1052],[],"[3057, 3113]",[],[],[],[1001],[2031],[],[],[],[],[],[],[],[],[],"[1026, 1052]",[],[],[],[],[],[1028],[],[]
participant_5_UNDO,[],"[[0, 2003], [0, 2003], [0, 2003]]",[],[],[],[],[],[],[],[],[],[],[],[],[],[],[],[],[],[],[],[],[],[],[],[],[],[],[],[],[],[],[],[],[],[],[],[],[],[],[]
participant_6_GOLD,500,500,620,1032,1155,1460,1795,2010,2132,2995,3357,3480,3847,4154,4542,4949,5412,5915,6447,6589,7792,8149,8928,9156,9363,9586,10367,10489,11717,12020,12277,12783,13163,13424,15944,16961,17737,18389,18761,19425,19478
participant_6_CURRENTGOLD,500,0,120,532,55,360,695,910,52,915,1277,1400,292,299,62,419,82,585,1117,259,62,419,1199,326,533,176,957,180,307,310,68,573,954,1215,734,1752,2528,3180,952,1616,-2992
participant_6_LEVEL,1,1,2,3,3,4,4,5,5,6,6,6,7,7,8,8,8,9,10,10,11,11,12,12,12,12,13,13,13,14,14,14,15,15,16,16,17,17,17,18,18
participant_6_MINIONSKILLED,0,0,0,0,0,0,0,0,0,0,0,0,0,0,0,1,1,2,2,2,2,2,2,2,2,2,7,7,7,13,13,27,32,36,41,42,43,61,67,81,81
participant_6_KILLS,0,0,0,0,0,0,0,0,0,1,1,1,1,1,1,1,2,2,3,3,4,4,5,5,5,5,6,6,7,7,7,7,7,7,11,12,14,14,14,14,14
participant_6_BUY,[],"[1035, 2003, 2003, 2003]",[],[],"[1042, 1042]",[],[],[],[6670],[],[],[],"[1018, 1037]",[1001],[6672],[2003],"[3006, 1042]",[],[],"[2015, 1018]",[3095],[],[],"[6677, 1042]",[],[1018],[],[3124],[3133],[1029],[1031],[],[],[],"[6333, 1038, 2140]",[],[],[],"[3026, 3072, 2140]",[],"[3031, 3026]"
participant_6_SOLD,[],[],[],[2003],[],[],[],[],"[2003, 1042]",[1035],[],[],[],[],"[6670, 1018, 1037]",[],"[1001, 1042]",[2003],[],[1042],"[1018, 2015]",[],[],[],[],[2003],[],"[6677, 1018, 1042]",[],[],[1029],[],[],[],"[1031, 3133, 2140]",[],[],[],"[1038, 1038, 2140]",[],"[3124, 3072]"
participant_6_UNDO,[],[],[],[],[],[],[],[],[],[],[],[],[],[],[],[],[],[],[],[],[],[],[],[],[],[],[],[],[],[],[],[],[],[],[],[],[],[],"[[0, 3026]]",[],"[[0, 3031], [3124, 0]]"
participant_7_GOLD,500,500,583,817,961,1336,1623,2191,2501,2794,3309,3604,4750,5326,5532,5802,6025,7219,7426,7694,8306,8652,9169,9377,9499,9621,9744,10012,10148,10285,10474,10596,10879,11001,11476,11599,11749,11920,12094,12216,12344
participant_7_CURRENTGOLD,500,0,83,317,161,526,803,121,421,704,1219,604,1750,2326,347,202,425,169,376,644,1256,367,94,302,424,547,669,937,1074,1210,1400,1522,89,212,687,410,560,731,405,527,644
participant_7_LEVEL,1,1,1,2,3,4,5,6,7,8,9,9,9,10,10,10,10,11,11,12,12,13,13,13,13,13,13,13,13,13,14,14,14,14,15,15,15,15,15,15,16
participant_7_MINIONSKILLED,0,0,4,10,11,23,30,38,46,53,59,66,71,79,84,92,94,102,107,111,123,129,130,130,130,130,130,134,135,136,140,140,145,145,156,156,158,161,162,162,162
participant_7_KILLS,0,0,0,0,0,0,1,1,1,1,1,1,1,1,1,1,1,1,1,1,1,1,2,2,2,2,2,2,2,2,2,2,2,2,2,2,2,2,2,2,3
participant_7_BUY,[],"[1055, 3340, 2003]",[],[],[],[],[],"[6670, 1018, 2003, 2003]",[],[1053],"[2003, 2055]",[],[6673],[],[],[],"[3111, 1036]",[],[],[1038],[],[],[1053],[1018],[3072],[1042],[],[],[],[3086],[],[2015],[],[],[3094],[],[],[1037],[],[],[]
participant_7_SOLD,[],[],[],[],[],[],[2003],[],[],[2003],[],[],"[2055, 6670, 1018, 1053]",[],[],[],[],[],[2003],[],[],[],"[2003, 1036]",[],"[1038, 1018, 1053]",[],[],[],[],[1042],[],[],[],[],"[3086, 2015]",[],[],[],[],[],[]
participant_7_UNDO,[],[],[],[],[],[],[],[],[],[],[],[],[],[],[],[],[],[],[],[],[],[],[],[],[],[],[],[],[],[],[],[],[],[],[],[],[],[],[],[],[]
participant_8_GOLD,500,500,597,947,1252,1627,2479,2807,3250,3558,3680,4088,4231,4655,5065,5460,5658,6073,6418,6848,7131,7697,8440,8591,8832,8954,9133,9374,9705,10060,10561,10683,11022,11221,11535,11743,12131,12399,13120,13461,14081
participant_8_CURRENTGOLD,500,0,97,447,752,1127,1979,307,750,158,155,563,136,560,970,1365,113,528,873,3,286,852,1045,596,237,60,238,479,811,265,767,189,527,727,241,449,837,230,951,1292,1881
participant_8_LEVEL,1,1,1,2,3,4,5,5,6,6,6,7,7,7,8,8,9,9,9,10,10,10,11,11,11,11,11,12,12,13,13,13,13,14,14,14,15,15,16,16,16
participant_8_MINIONSKILLED,0,0,4,15,25,37,43,46,62,68,68,81,82,96,104,116,116,129,137,151,153,161,161,163,170,170,174,182,185,193,206,206,214,218,221,221,227,231,249,253,253
participant_8_KILLS,0,0,0,0,0,0,0,1,1,1,1,1,1,1,1,2,2,2,2,2,2,2,2,2,2,2,2,2,2,2,2,2,2,3,3,3,3,3,3,3,3
participant_8_BUY,[],"[3858, 2003, 2003, 3340]",[],[],[],[],[],"[3067, 1029, 1001]",[],[],"[3364, 1033]",[],[],[],[],[],"[3190, 3024, 2055]",[],[],[],[1028],[],[3067],[],[3050],[],[],"[3111, 2055]",[1006],[],[],"[1028, 3801]",[2055],[3067],"[3109, 2055, 2055]",[],[],[1033],[],[3105],[]
participant_8_SOLD,[],[],[],[],[],[],[],[],[3858],[2003],"[3340, 2003]",[2010],[],[],[],"[2010, 3859]","[3067, 1033, 1029]",[2055],[2010],[],[],[],[1028],[],"[3067, 3024]",[],[],[1001],[2055],[],[],"[1028, 1006]",[],[2055],"[3801, 3067]",[],[],"[2055, 2055]",[],[1033],[]
participant_8_UNDO,[],[],[],[],[],[],[],[],[],[],[],[],[],[],[],[],[],[],[],[],[],[],[],[],[],[],[],[],[],[],[],[],[],[],[],[],[],[],[],[],[]
participant_9_GOLD,500,500,543,758,935,1133,1547,1981,2226,2461,2601,2887,3112,3402,3755,4300,4516,4666,4806,4967,5307,5634,5824,6106,6272,6472,6777,6947,7107,7248,7439,7593,7774,8944,9459,9698,10093,10234,10631,10801,10937
participant_9_CURRENTGOLD,500,0,43,258,435,633,1047,81,326,561,271,557,782,1072,1425,1970,61,211,351,512,452,779,569,851,317,517,822,117,127,268,459,113,219,619,135,373,768,519,916,37,62
participant_9_LEVEL,1,1,1,2,3,4,5,5,5,6,6,6,7,7,8,8,8,9,9,9,10,10,11,11,11,11,12,12,12,12,12,13,13,14,15,15,16,16,16,16,16
participant_9_MINIONSKILLED,0,0,1,3,5,6,10,10,13,14,14,19,19,23,26,28,28,29,29,31,31,32,32,37,38,40,41,42,43,43,44,45,46,47,47,53,54,54,61,62,62
participant_9_KILLS,0,0,0,0,0,0,0,0,0,0,0,0,0,0,0,0,0,0,1,1,1,1,1,1,1,1,1,1,1,1,1,1,1,1,1,1,1,1,1,1,1
participant_9_BUY,[],"[1055, 2003]",[],[],[1001],[],[1028],[1036],[],[3044],[1028],[],[3067],[],[3057],[],[],[6632],"[1036, 1036]",[],[3133],[],[],"[3067, 1036]",[],[3071],[],[],[3111],[],"[3134, 1053, 1036]",[],[6692],[],"[1036, 1036]",[3133],[],[3123],[],[6609],[]
participant_9_SOLD,[],[],[],[2003],[],[],[],[],[],"[1028, 1036]",[],[],[1028],[],[],[],[],"[3044, 3057, 3067]",[],[],"[1036, 1036]",[],[],[],[],"[3133, 3067, 1036]",[],[],[1001],[],[6632],[],"[3134, 1036, 1053]",[],[],"[1036, 1036]",[],[],[],"[3123, 3133]",[]
participant_9_UNDO,[],[],[],[],[],[],[],[],[],[],[],[],[],[],[],[],[],[],[],[],[],[],[],[],[],[],[],[],[],[],[],[],[],[],[],[],[],[],[],[],[]
team0_KILLS,0,0,0,0,1,1,1,4,5,8,8,9,11,11,13,14,16,17,18,20,22,22,27,28,31,32,37,37,41,44,46,48,50,52,54,56,58,58,59,61,63
team0_CURRENTGOLD,2500,0,398,1597,3399,4604,4569,3642,4814,3040,2122,2988,2873,2894,5336,4234,2970,3799,4486,5857,3739,4854,4149,2904,6245,3826,2686,4630,5007,5457,7477,4882,4998,7616,7149,4209,5867,7350,6897,9508,10541
team0_TOTALGOLD,2500,2500,2898,4107,5909,7124,8499,10872,12579,14855,16412,18188,20583,21829,24281,25880,28016,29644,31656,33677,35684,36799,39294,40849,44188,46176,49193,51138,53613,55764,57782,59787,62104,64722,66424,68085,69743,71223,73822,76432,77699
team0_LEVEL,5,5,6,13,18,22,25,29,30,34,36,37,41,43,46,47,49,51,54,56,57,58,60,61,65,65,69,70,71,74,75,76,78,80,81,81,84,84,84,86,86
team0_SBIRES,0,0,8,28,58,80,110,130,155,174,199,221,249,270,301,320,346,370,391,406,424,440,441,458,485,502,512,525,538,550,561,569,595,618,622,632,643,649,655,675,678
team1_KILLS,0,0,0,0,0,0,1,3,3,4,5,5,7,7,7,8,9,10,12,12,13,13,16,16,16,16,17,17,18,18,18,18,18,19,23,24,26,26,26,26,27
team1_CURRENTGOLD,2500,0,363,1836,1529,3119,4839,1597,1870,2634,3249,3756,3335,4922,3015,4422,1382,1672,2743,1818,2312,3239,4291,2431,2424,1571,3303,2452,2455,2312,3188,3014,1873,3140,1941,3173,5510,5043,4104,3747,-2388
team1_TOTALGOLD,2500,2500,2863,4336,5229,6829,8959,10717,11980,14004,15574,16991,19015,20902,22505,24377,25712,28152,29923,31298,33992,36154,38945,39936,41229,42304,44038,44961,47013,48072,49485,50511,52012,54047,58347,60380,62716,64314,66476,67967,68957
team1_LEVEL,5,5,6,12,15,20,24,27,29,32,34,35,37,39,43,43,44,48,50,52,54,56,60,60,60,61,63,64,64,66,67,68,70,72,75,76,80,80,81,82,83
team1_SBIRES,0,0,9,36,50,86,109,125,153,170,181,217,224,260,280,307,315,341,360,391,410,436,445,452,469,484,503,516,521,536,559,574,600,619,647,661,682,718,759,781,781
delta_KILLS,0,0,0,0,1,1,0,1,2,4,3,4,4,4,6,6,7,7,6,8,9,9,11,12,15,16,20,20,23,26,28,30,32,33,31,32,32,32,33,35,36
delta_CURRENTGOLD,0,0,35,-239,1870,1485,-270,2045,2944,406,-1127,-768,-462,-2028,2321,-188,1588,2127,1743,4039,1427,1615,-142,473,3821,2255,-617,2178,2552,3145,4289,1868,3125,4476,5208,1036,357,2307,2793,5761,12929
delta_TOTALGOLD,0,0,35,-229,680,295,-460,155,599,851,838,1197,1568,927,1776,1503,2304,1492,1733,2379,1692,645,349,913,2959,3872,5155,6177,6600,7692,8297,9276,10092,10675,8077,7705,7027,6909,7346,8465,8742
delta_LEVEL,0,0,0,1,3,2,1,2,1,2,2,2,4,4,3,4,5,3,4,4,3,2,0,1,5,4,6,6,7,8,8,8,8,8,6,5,4,4,3,4,3
delta_SBIRES,0,0,-1,-8,8,-6,1,5,2,4,18,4,25,10,21,13,31,29,31,15,14,4,-4,6,16,18,9,9,17,14,2,-5,-5,-1,-25,-29,-39,-69,-104,-106,-103
