name,team0,team1
win,Win,Fail
firstBlood,False,True
firstTower,False,True
firstInhibitor,True,False
firstBaron,True,False
firstDragon,True,False
firstRiftHerald,False,False
towerKills,11,3
inhibitorKills,4,0
baronKills,1,0
dragonKills,3,2
riftHeraldKills,0,0
