name,frame_0,frame_1,frame_2,frame_3,frame_4,frame_5,frame_6,frame_7,frame_8,frame_9,frame_10,frame_11,frame_12,frame_13,frame_14,frame_15,frame_16,frame_17,frame_18,frame_19,frame_20,frame_21,frame_22,frame_23,frame_24,frame_25,frame_26,frame_27,frame_28,frame_29,frame_30,frame_31,frame_32,frame_33,frame_34,frame_35
nameStamp,Tstart,Tearly,Tearly,Tearly,Tearly,Tearly,Tearly,Tearly,Tearly,Tearly,Tearly,Tearly,Tearly,Tearly,Tmid,Tmid,Tmid,Tmid,Tmid,Tmid,Tmid,Tmid,Tmid,Tmid,Tmid,Tend,Tend,Tend,Tend,Tend,Tend,Tend,Tend,Tend,Tend,Tend
timestamp,0,60002,120027,180060,240066,300086,360101,420102,480109,540155,600184,660201,720230,780262,840287,900296,960319,1020330,1080359,1140368,1200369,1260377,1320390,1380403,1440408,1500440,1560442,1620448,1680470,1740475,1800480,1860488,1920514,1980515,2040529,2100529
participant_0_GOLD,500,500,562,741,1315,1584,2049,2412,2684,3723,3859,4129,4469,5500,5923,7013,7192,8410,8632,8754,8877,8999,9121,9972,10094,10479,10726,11023,11161,11469,11591,12402,12524,12884,13069,13087
participant_0_CURRENTGOLD,500,0,62,241,380,649,14,377,214,1253,409,29,369,1400,538,1628,142,1360,182,304,427,549,672,972,394,779,277,2954,191,500,187,998,380,739,925,-1598
participant_0_LEVEL,1,1,1,3,4,5,6,7,7,8,9,9,10,10,10,11,11,13,13,13,13,13,13,13,13,13,14,14,14,14,14,15,15,15,15,15
participant_0_MINIONSKILLED,0,0,3,7,13,22,25,37,37,52,53,62,71,79,79,89,89,109,109,109,109,109,109,111,111,112,112,112,113,117,117,117,117,127,130,130
participant_0_KILLS,0,0,0,0,1,1,1,1,2,2,2,3,3,3,3,4,5,5,6,6,7,7,7,7,7,8,8,9,10,10,10,10,10,10,10,10
participant_0_BUY,[],"[1039, 2031, 3340]",[],[],"[3706, 1001, 3364, 2055]",[],[],[],[3751],[],[],"[1401, 1042]",[],[],[],"[1037, 1043, 1052, 3124]",[],[],[],"[3009, 1043, 1057]",[1042],[],[3091],"[1029, 1029, 1031]",[],[1028],[1011],[],[3742],[],[1053],[],[3144],[],[],[]
participant_0_SOLD,[],[],[],[],"[1039, 3340]",[],[],[2055],[],[],[],"[3751, 3706]",[],"[3364, 3513]",[],"[1042, 1052, 1043, 1037]",[],[],[],"[1001, 2031]",[3364],[],"[1043, 1057, 1042, 3513]",[1029],[],[],[1028],[],"[1031, 1011]",[],[],[],[1053],[],[],[]
participant_0_UNDO,[],[],[],[],[],[],[],[],[],[],[],[],[],[],[],[],[],[],[],[],[],[],[],"[[0, 1029]]",[],[],[],[],[],[],[],[],[],[],[],[]
participant_1_GOLD,500,500,620,978,1533,1817,1965,2287,2751,2998,3325,3986,4326,5238,5566,6188,7036,7454,8482,8604,9261,9589,9796,10389,10756,11664,11861,12418,13211,13460,13841,14027,14201,14323,14529,14547
participant_1_CURRENTGOLD,500,0,120,478,8,292,440,762,326,573,900,661,1001,1913,2241,63,911,1329,2357,219,576,904,231,25,391,899,496,1054,746,996,477,662,137,259,465,422
participant_1_LEVEL,1,1,2,3,4,4,5,5,6,6,7,7,8,9,9,10,11,11,12,12,12,13,13,13,13,14,14,14,15,15,15,15,15,15,16,16
participant_1_MINIONSKILLED,0,0,0,0,0,0,0,1,3,4,4,4,6,13,13,13,16,16,18,18,19,25,25,26,33,35,35,37,44,44,48,50,53,53,57,57
participant_1_KILLS,0,0,0,0,0,1,1,1,1,1,1,1,2,2,4,4,6,6,6,6,6,6,6,6,6,7,9,9,10,11,11,11,11,11,11,11
participant_1_BUY,[],"[1054, 2003, 3340]",[],[],[],[],[1038],[],[1042],[],[],[],[],"[3095, 3006]",[],"[1018, 1053]",[],[],[],[3094],[],[],[1038],[],[],[],"[3031, 1029]",[],[3105],[],"[3812, 1033]",[],[],[],[3211],[]
participant_1_SOLD,[],[],[],[2003],[],[],[],[],[],[],[],[],[],"[1038, 1042, 2422]",[],[],[],[],[],[1018],[],[],[],[],[],[],"[1038, 1054]",[],[1029],[],"[3105, 1053]",[],[],[],[1033],[]
participant_1_UNDO,[],[],[],[],[],[],[],[],[],[],[],[],[],[],[],[],[],[],[],[],[],[],[],[],[],[],[],[],[],[],[],[],[],[],[],[]
participant_2_GOLD,500,500,597,958,1240,1550,1769,1905,2246,2497,2755,3252,3549,3834,4036,4260,4433,4763,5725,5847,6429,6551,6676,7008,7283,7507,8303,8734,8857,9602,9908,10118,10289,10512,10680,10698
participant_2_CURRENTGOLD,500,0,97,458,740,1050,1269,180,521,772,295,377,274,559,761,185,358,688,1650,337,254,376,501,833,258,482,1278,1709,932,1677,1984,2193,364,588,915,613
participant_2_LEVEL,1,1,1,3,4,5,6,6,7,8,8,9,9,9,10,10,10,11,11,11,11,11,11,12,12,13,13,14,14,14,15,15,15,15,15,15
participant_2_MINIONSKILLED,0,0,4,15,24,32,37,38,48,55,63,72,79,85,89,90,90,99,106,106,106,106,106,108,113,114,127,127,127,138,145,145,148,155,158,158
participant_2_KILLS,0,0,0,0,1,1,2,2,2,3,3,3,3,4,5,7,7,8,8,8,8,8,8,9,9,9,9,9,9,9,9,10,10,10,10,10
participant_2_BUY,[],"[1056, 2003, 2003, 3340]",[],[],[1052],[],"[3145, 3057, 2003]",[],[1052],[],"[3145, 3067]",[3152],[],[],"[1026, 1052]",[],"[3100, 3020]",[],"[3145, 1036]",[],[],[],[],[1053],[3144],[],[3146],[],[3157],[],[1052],[],"[3108, 1052]",[],[],[]
participant_2_SOLD,[],[],[2003],[2003],[],[],[1052],[],[],[2003],"[1052, 1052]","[3145, 3067]",[],[],[],[],"[3057, 1052, 1026, 2422]",[],[],[],[],[],[],[1036],[1053],[],"[3144, 3145]",[3146],[],[],[],[],"[1052, 1056]",[],[],[]
participant_2_UNDO,[],[],[],[],[],[],"[[0, 3145]]",[],[],[],[],[],[],[],[],[],[],[],[],[],[],[],[],[],[],[],[],[],[],[],[],[],[],[],[],[]
participant_3_GOLD,500,500,541,871,1197,1772,2091,2213,2579,2900,3155,3528,4697,4883,6166,6393,7610,7993,8516,8708,8963,9363,9590,9908,10136,10700,12147,12644,13595,14378,14500,14783,15172,15450,15691,15709
participant_3_CURRENTGOLD,500,0,41,371,697,1272,291,413,479,800,1055,1428,2597,383,1666,193,1410,1793,2316,708,963,1363,290,609,836,1400,627,1125,1275,2059,131,413,803,1081,572,409
participant_3_LEVEL,1,1,1,2,3,4,5,5,5,6,6,7,8,8,9,9,10,10,11,11,11,12,12,12,12,13,13,14,14,15,15,15,15,15,15,15
participant_3_MINIONSKILLED,0,0,1,10,22,27,38,38,50,58,66,77,83,84,92,98,113,125,132,136,140,152,159,160,160,167,169,175,183,190,190,195,203,207,210,210
participant_3_KILLS,0,0,0,0,0,0,0,0,0,0,0,0,0,0,0,0,0,0,1,1,2,2,2,2,2,2,3,4,4,5,5,5,5,5,5,5
participant_3_BUY,[],"[1056, 2003, 3340, 2003]",[],[],[],[],[],"[3196, 2055]",[],[],"[1001, 1052]",[3113],[1028],[],[],[3020],[],[],[],"[3197, 1052]",[3136],[],[],[],[3198],[],[],[],[3108],[],[],[],[3157],[],[],[]
participant_3_SOLD,[],[],[],[],[2003],[],[],[3200],[2055],[2003],[],[1052],[],[],[],[1001],[],[],[],[3196],"[1028, 1052]",[],[],[],[3197],[],[],[],[1056],[],[],[],[3108],[],[1056],[]
participant_3_UNDO,[],[],[],[],[],[],[],[],[],[],[],[],[],[],[],[],[],[],[],[],[],[],[],[],[],[],[],[],"[[1056, 0]]",[],[],[],[],[],[],[]
participant_4_GOLD,500,500,564,720,897,1031,1222,1478,1744,1909,2085,2316,3249,3433,4248,4398,4843,5033,5465,5648,5944,6205,6349,6659,6871,7102,7368,7673,7963,8207,8347,8572,8722,8862,9003,9024
participant_4_CURRENTGOLD,500,0,64,220,397,531,347,103,369,534,710,941,1874,283,1098,248,693,208,640,123,119,380,49,359,571,802,93,398,289,532,72,297,447,588,728,749
participant_4_LEVEL,1,1,1,2,3,3,4,4,5,6,6,7,7,8,8,9,9,9,10,10,10,11,11,11,11,12,12,13,13,14,14,14,14,14,14,14
participant_4_MINIONSKILLED,0,0,2,3,5,5,8,12,16,17,19,21,24,24,27,28,29,29,30,32,33,36,36,40,43,43,43,45,45,45,45,45,45,45,45,45
participant_4_KILLS,0,0,0,0,0,0,0,0,0,0,0,0,2,2,2,2,2,2,2,2,2,2,2,2,2,2,2,2,2,2,2,2,2,2,2,2
participant_4_BUY,[],"[3858, 2003, 2003]",[],[],[],[],"[1029, 2055]",[1031],[],[],[],[],[],"[3193, 3364, 2055]",[],[3117],[],"[1029, 1029, 2055]",[],"[3076, 1029]",[1029],[],"[3082, 2055]",[],[],[],"[3075, 2055]",[],[1028],[],[1011],[],[],[],[],[]
participant_4_SOLD,[],[],[],[2003],[2003],[2010],[2010],"[2010, 1029]",[2055],[],[],[],[],"[1031, 3340]",[3858],[],[2055],[],[],"[1029, 1029]",[2055],[],"[1029, 1029]",[],[3859],[],"[3076, 3082]",[],[],[],[1028],[2055],[],[],[],[]
participant_4_UNDO,[],[],[],[],[],[],[],[],[],[],[],[],[],[],[],[],[],[],[],[],[],[],[],[],[],[],[],[],[],[],[],[],[],[],[],[]
participant_5_GOLD,500,500,520,699,1122,1391,1915,2121,2577,2821,3146,3621,3785,4012,4426,4623,5120,5333,5588,5921,6346,7140,7499,7828,8385,8508,8668,9488,10126,11094,11376,12264,13063,13723,14331,14399
participant_5_CURRENTGOLD,500,0,20,199,222,491,165,371,227,121,446,921,285,62,476,323,820,200,455,488,213,1007,1366,1695,152,275,135,955,193,461,243,1132,330,990,1599,1466
participant_5_LEVEL,1,1,1,3,4,5,6,6,7,7,8,9,9,9,10,10,11,11,12,12,13,13,13,14,14,14,15,15,16,16,17,17,18,18,18,18
participant_5_MINIONSKILLED,0,0,0,3,3,8,11,16,17,23,35,45,47,53,66,66,81,86,89,95,98,106,116,117,117,117,117,124,135,135,141,145,153,160,166,166
participant_5_KILLS,0,0,0,0,0,0,0,0,0,1,1,2,2,2,2,2,2,2,3,4,6,6,6,9,9,9,9,11,11,11,11,11,11,12,13,13
participant_5_BUY,[],"[1056, 2003, 2003, 3340]",[],[],[],"[1052, 2031, 2055]",[],[3802],[],[],[1026],[],"[1001, 1052]",[],[],[3285],[],"[3020, 2055]",[],[3136],[],[3151],[],[1026],[],[],[3116],[],[3108],[],[],[],[3102],[],[],[]
participant_5_SOLD,[],[],[],[2003],[2003],[],[],[1052],[],[],[2055],[],[],[],[],"[3802, 1026]",[],[1001],[],[1052],[2031],[3136],[],[2031],[],[],[1026],[2055],[],[],[],[],[3108],[],[],[]
participant_5_UNDO,[],[],[],[],[],[],[],[],[],[],[],[],[],[],[],[],[],[],[],[],"[[2031, 0]]",[],[],[],[],[],[],[],[],[],[],[],[],[],[],[]
participant_6_GOLD,500,920,1040,1353,1561,1918,2211,2513,2833,3041,3263,3495,3618,4008,4304,5047,6401,6623,7087,7915,8248,8710,8927,9100,9707,9914,10727,11349,11720,11843,12285,12771,13409,14162,15450,15569
participant_6_CURRENTGOLD,500,420,190,503,111,468,761,1063,1383,1591,188,420,543,933,1229,72,1426,548,312,1140,373,835,1052,325,932,125,587,1209,1581,1703,1596,2082,1419,873,2161,2219
participant_6_LEVEL,1,1,2,3,3,4,4,5,5,6,6,7,7,8,8,9,9,10,10,11,11,12,12,12,13,13,14,14,15,15,15,16,16,17,18,18
participant_6_MINIONSKILLED,0,0,0,0,0,0,0,0,0,0,0,0,0,4,4,4,6,6,7,7,7,7,7,7,7,7,7,7,10,10,10,12,12,18,31,31
participant_6_KILLS,0,0,0,0,0,1,2,3,3,3,3,3,3,3,3,3,3,3,4,4,4,4,6,7,7,7,7,7,7,7,7,8,8,8,9,9
participant_6_BUY,[],"[1054, 1055, 2003, 3340]",[],[],[],[],"[1053, 1001, 1042, 2055]",[],"[3144, 2003]",[],[],[],"[1043, 1042]",[],"[3006, 2031]",[],[3153],[],[],"[1043, 1052]",[],[],[],"[3124, 3363]",[3086],[],[1042],[],[],"[3046, 1036]",[],[],[],[],[],[]
participant_6_SOLD,[],[],[],[],[],[2003],[],[],"[2055, 1053]",[],[2003],[],[1042],[],"[1001, 1042]",[],"[3144, 1043]",[],[],[],[],[],[],"[1052, 1043, 3340]",[],[],[2031],[],[],"[1042, 3086]",[],[],[],[],[],[]
participant_6_UNDO,[],"[[0, 1054]]",[],[],[],[],[],[],[],[],[],[],[],[],[],[],[],[],[],[],[],[],[],[],[],[],[],[],[],[],[],[],[],[],[],[]
participant_7_GOLD,500,500,611,888,1186,1483,1805,2039,2405,2982,3132,3751,4028,4319,4766,4944,5437,5636,6438,7173,8052,8571,8891,10093,10661,10986,11288,12200,12372,13004,13168,13565,13988,14606,15606,15674
participant_7_CURRENTGOLD,500,0,111,388,686,323,645,14,380,957,257,876,418,709,1156,284,777,101,903,573,1452,371,691,1103,1672,1996,548,1460,733,1364,1529,1926,248,866,1866,1814
participant_7_LEVEL,1,1,1,3,4,5,6,6,7,8,8,9,10,10,11,11,12,12,13,13,14,14,14,15,15,15,16,16,16,17,17,17,17,18,18,18
participant_7_MINIONSKILLED,0,0,5,14,24,32,41,48,59,68,70,80,86,96,108,112,121,126,135,145,151,154,158,162,167,175,178,179,179,190,193,193,193,197,200,200
participant_7_KILLS,0,1,1,1,1,1,1,1,1,1,1,1,1,1,1,2,4,4,5,6,6,6,6,6,6,6,8,9,9,9,9,10,10,11,12,12
participant_7_BUY,[],"[1041, 2031, 3340]",[1039],[],"[3706, 1001]",[],[],[],[],[],[1416],[],[],[],[],"[3006, 3134]",[],[3133],[3147],[],[3134],[],[],[1053],[],"[3181, 2055]",[1036],[],[],[],[1053],[],[1038],[3072],[],[]
participant_7_SOLD,[],[],[],[],"[1039, 1041]",[],[],[],[],[],[3706],[],[],[],[],[1001],[],[],"[3134, 3133]",[],[],[],[],[],[],"[3134, 1053, 2031]",[],[2055],[],[],[1036],[],[],"[1038, 1053]",[],[]
participant_7_UNDO,[],[],[],[],[],[],[],[],[],[],[],[],[],[],[],[],[],[],[],[],[],[],[],[],[],[],[],[],[],[],[],[],[],[],[],[]
participant_8_GOLD,500,550,633,889,1177,1616,2101,2600,2910,3294,3605,3956,4114,4425,4548,4943,5254,5398,6484,6801,7256,7712,8423,9212,9833,10012,10361,10859,11365,11487,11903,12375,12911,13305,14133,14251
participant_8_CURRENTGOLD,500,50,133,389,677,1116,26,525,85,469,780,1131,289,600,73,468,79,223,1309,191,646,1102,1813,937,158,337,447,944,1450,323,738,1211,1747,2140,2969,3026
participant_8_LEVEL,1,1,1,2,3,4,4,5,5,6,6,7,7,8,8,8,9,9,10,10,11,11,12,12,13,13,14,14,15,15,15,15,16,16,17,17
participant_8_MINIONSKILLED,0,0,3,11,18,20,23,29,37,49,60,70,72,83,83,95,101,102,107,114,121,121,122,129,135,138,139,146,157,157,162,162,163,168,169,169
participant_8_KILLS,0,0,0,0,1,1,2,2,3,3,3,3,3,3,3,3,3,3,3,3,3,3,3,3,3,3,3,4,4,5,5,7,7,7,7,7
participant_8_BUY,[],"[2033, 3340]",[],[],[1028],[],[3044],[],"[1042, 1042]",[1027],[],[],"[3101, 1001]",[1033],[],[3111],[],"[3057, 3078]",[],[1042],[1043],[],[],[],[3124],[],[1029],[],"[3076, 1029, 1028]",[3082],[3075],[],"[3211, 1028]",[],[],[]
participant_8_SOLD,[],[],[],[],[],[],[1028],[],[],[],[],[],"[1042, 1042]",[],[],"[1001, 1033]",[],"[1027, 2033, 3101, 3057, 3044]",[],[],[1042],[],[],[],[1043],[],[],[],[1029],[1029],"[3076, 1028, 3082]",[],[],[],[],[]
participant_8_UNDO,[],[],[],[],[],[],[],[],[],[],[],[],[],[],[],[],[],[],[],[],[],[],[],[],[],[],[],[],[],[],[],[],[],[],[],[]
participant_9_GOLD,500,550,572,756,951,1222,1535,1811,1945,2143,2312,2747,2881,3065,3473,3683,3917,4057,4587,4777,5672,6145,6404,7139,7579,7858,8386,8707,8897,10387,10528,10943,11383,11789,12931,13002
participant_9_CURRENTGOLD,500,50,72,256,451,22,335,161,295,493,662,172,306,489,298,208,442,82,312,202,1097,170,429,264,404,683,261,312,502,1012,253,668,1108,1514,806,877
participant_9_LEVEL,1,1,1,1,2,3,4,5,5,5,6,7,7,7,7,8,8,8,9,9,10,10,11,12,12,12,13,13,13,14,14,14,15,15,16,16
participant_9_MINIONSKILLED,0,0,0,3,4,4,6,8,8,12,14,14,14,17,17,17,18,18,19,19,23,23,23,24,24,28,28,29,29,29,29,29,29,30,31,31
participant_9_KILLS,0,0,0,0,0,0,0,0,0,0,0,1,1,1,2,2,2,2,2,2,4,4,4,4,4,4,5,5,5,8,8,8,8,8,10,10
participant_9_BUY,[],"[3854, 2003, 2003, 3340]",[],[],[],"[1029, 1028]",[],"[3067, 2003]",[],[],[],"[1031, 1001, 2055, 2003]",[],[],[3109],[1029],[],[3047],[1029],[1029],[],"[3076, 3082]",[],[3075],[1029],[],"[1031, 1033]",[1057],[],[3193],[3751],[],[],[],[3068],[]
participant_9_SOLD,[],[],[],"[2003, 2003]",[],[],[],[1028],[],[],[2003],[1029],[],[],"[3067, 1031]",[2003],[3854],"[1001, 1029]",[],[],[2055],"[1029, 1029]",[],"[3076, 3082]",[],[],[1029],[1033],[3855],"[1031, 1057]",[],[],[],[],[3751],[]
participant_9_UNDO,[],[],[],[],[],[],[],[],[],[],[],[],[],[],[],[],[],[],[],[],[],[],[],[],[],[],[],[],[],[],[],[],[],[],[],[]
team0_KILLS,0,0,0,0,2,3,4,4,5,6,6,7,10,11,14,17,20,21,23,23,25,25,25,26,26,28,31,33,35,37,37,38,38,38,38,38
team0_CURRENTGOLD,2500,0,384,1768,2222,3794,2361,1835,1909,3932,3369,3436,6115,4538,6304,2317,3514,5378,7145,1691,2339,3572,1743,2798,2450,4362,2771,7240,3433,5764,2851,4563,2131,3255,3605,595
team0_TOTALGOLD,2500,2500,2884,4268,6182,7754,9096,10295,12004,14027,15179,17211,20290,22888,25939,28252,31114,33653,36820,37561,39474,40707,41532,43936,45140,47452,50405,52492,54787,57116,58187,59902,60908,62031,62972,63065
team0_LEVEL,5,5,6,13,18,21,26,27,30,34,36,39,42,44,46,49,51,54,57,57,57,60,60,61,61,65,66,69,70,72,73,74,74,74,75,75
team0_SBIRES,0,0,10,35,64,86,108,126,154,186,205,236,263,285,300,318,337,378,395,401,407,428,435,445,460,471,486,496,512,534,545,552,566,587,600,600
team1_KILLS,0,1,1,1,2,3,5,6,7,8,8,10,10,10,11,12,14,14,17,19,23,23,25,29,29,29,32,36,36,40,40,44,44,46,51,51
team1_CURRENTGOLD,2500,520,526,1735,2147,2420,1932,2134,2370,3631,2333,3520,1841,2793,3232,1355,3544,1154,3291,2594,3781,3485,5351,4324,3318,3416,1978,4880,4459,4863,4359,7019,4852,6383,9401,9402
team1_TOTALGOLD,2500,3020,3376,4585,5997,7630,9567,11084,12670,14281,15458,17570,18426,19829,21517,23240,26129,27047,30184,32587,35574,38278,40144,43372,46165,47278,49430,52603,54480,57815,59260,61918,64754,67585,72451,72895
team1_LEVEL,5,5,6,12,16,21,24,27,29,32,34,39,40,42,44,46,49,50,54,55,59,60,62,65,67,67,72,72,75,77,78,79,82,84,87,87
team1_SBIRES,0,0,8,31,49,64,81,101,121,152,179,209,219,253,278,294,327,338,357,380,400,411,426,439,450,465,469,485,510,521,535,541,550,573,597,597
delta_KILLS,0,-1,-1,-1,0,0,-1,-2,-2,-2,-2,-3,0,1,3,5,6,7,6,4,2,2,0,-3,-3,-1,-1,-3,-1,-3,-3,-6,-6,-8,-13,-13
delta_CURRENTGOLD,0,-520,-142,33,75,1374,429,-299,-461,301,1036,-84,4274,1745,3072,962,-30,4224,3854,-903,-1442,87,-3608,-1526,-868,946,793,2360,-1026,901,-1508,-2456,-2721,-3128,-5796,-8807
delta_TOTALGOLD,0,-520,-492,-317,185,124,-471,-789,-666,-254,-279,-359,1864,3059,4422,5012,4985,6606,6636,4974,3900,2429,1388,564,-1025,174,975,-111,307,-699,-1073,-2016,-3846,-5554,-9479,-9830
delta_LEVEL,0,0,0,1,2,0,2,0,1,2,2,0,2,2,2,3,2,4,3,2,-2,0,-2,-4,-6,-2,-6,-3,-5,-5,-5,-5,-8,-10,-12,-12
delta_SBIRES,0,0,2,4,15,22,27,25,33,34,26,27,44,32,22,24,10,40,38,21,7,17,9,6,10,6,17,11,2,13,10,11,16,14,3,3
