name,frame_0,frame_1,frame_2,frame_3,frame_4,frame_5,frame_6,frame_7,frame_8,frame_9,frame_10,frame_11,frame_12,frame_13,frame_14,frame_15,frame_16,frame_17,frame_18,frame_19,frame_20,frame_21,frame_22,frame_23,frame_24,frame_25,frame_26,frame_27,frame_28,frame_29,frame_30,frame_31
nameStamp,Tstart,Tearly,Tearly,Tearly,Tearly,Tearly,Tearly,Tearly,Tearly,Tearly,Tearly,Tearly,Tearly,Tearly,Tearly,Tearly,Tmid,Tmid,Tmid,Tmid,Tmid,Tmid,Tmid,Tend,Tend,Tend,Tend,Tend,Tend,Tend,Tend,Tend
timestamp,0,60013,120035,180049,240076,300093,360104,420119,480137,540158,600183,660193,720211,780241,840268,900296,960310,1020330,1080353,1140377,1200396,1260426,1320438,1380470,1440488,1500515,1560529,1620550,1680571,1740593,1800605,1860622
participant_0_GOLD,500,500,584,870,1249,1504,1669,2007,2587,2820,3201,3821,4288,4508,5011,5322,5784,6743,7215,7533,8181,8891,9759,10007,10628,10780,11083,11262,11412,11534,11855,12566
participant_0_CURRENTGOLD,500,0,84,370,749,1004,119,457,1037,220,601,121,588,808,1311,389,851,1810,282,600,1248,358,1226,374,995,47,351,529,679,102,422,1134
participant_0_LEVEL,1,1,1,2,4,4,5,6,6,7,8,8,9,9,10,10,11,12,12,12,13,13,14,14,15,15,15,15,15,15,15,16
participant_0_MINIONSKILLED,0,0,3,13,24,29,31,40,46,52,64,70,84,89,105,112,125,132,132,138,154,161,162,168,179,180,185,185,187,187,192,195
participant_0_KILLS,0,0,0,0,0,0,1,1,1,2,2,2,4,4,4,4,4,4,4,5,6,6,6,6,6,6,6,7,7,7,7,7
participant_0_BUY,[],"[3858, 2003, 2003, 3340]",[],[],[1052],[],[],[],[],"[3916, 1001, 1082, 2003]",[],[],[],[3165],[],"[3364, 2055]",[],[3191],[],[],"[3111, 1052]",[],[3108],[],[],[3157],[2055],[],"[2055, 2055]",[],[1026],[]
participant_0_SOLD,[],[],[2003],[2003],[],[],[],[],[],[1052],[2003],[],[3858],[3916],[],[3340],[2055],[],[],[],[1001],[],[1052],[],[3859],"[3191, 3108]",[2055],[],[2055],[],[2055],[]
participant_0_UNDO,[],[],[],[],[],[],[],[],[],[],[],[],[],[],[],[],[],[],[],[],[],[],[],[],[],[],[],[],[],[],[],[]
participant_1_GOLD,500,500,606,955,1152,1552,1749,2042,2336,2892,3528,3755,4166,4467,4804,5263,5575,6745,7129,7426,8172,8450,9357,9681,9804,9931,10054,10257,10464,10587,10762,10884
participant_1_CURRENTGOLD,500,0,106,455,302,702,89,382,676,1232,1868,120,531,92,429,888,450,1620,1714,411,1157,115,1022,1347,1469,1596,114,242,450,572,747,870
participant_1_LEVEL,1,1,2,2,3,4,4,5,5,6,7,7,8,8,9,9,10,10,11,11,12,12,13,13,13,13,13,14,14,14,14,14
participant_1_MINIONSKILLED,0,0,0,0,0,3,3,3,6,12,16,16,20,21,25,29,29,32,32,32,32,32,34,34,34,34,34,34,34,34,34,34
participant_1_KILLS,0,0,0,0,0,0,0,0,0,0,1,1,1,1,1,1,1,2,2,2,2,2,3,3,3,3,3,3,3,3,3,3
participant_1_BUY,[],"[1039, 2031, 3340]",[],[],[1041],[],"[1052, 3706, 2055]",[],[],[],[],"[1401, 2055, 1028, 3364]",[],"[3136, 2055]",[],[],"[1001, 1033]",[],"[3111, 1057, 1031]","[3067, 1031]",[],"[3109, 1057]",[],[],[],[],"[3193, 2055]",[2055],[],[],[],[]
participant_1_SOLD,[],[],[],[],[],[],"[1039, 1041]",[2055],[2419],[],[],"[3706, 3340]",[2055],"[1028, 1052]",[2423],[2055],[],[],"[1001, 1033, 2031]",[3364],[3513],"[3067, 1031]",[],[],[],[],"[1057, 2424, 2055]",[],[],[],[],[2055]
participant_1_UNDO,[],[],[],[],[],[],[],[],[],[],[],[],[],[],[],[],[],[],"[[0, 1031], [0, 1057]]",[],[],[],[],[],[],[],[],[],[],[],[],[]
participant_2_GOLD,500,500,591,1222,1541,1775,2207,2392,2800,3007,3415,3699,3926,4592,4715,4858,5173,5505,6722,7164,7705,8389,9311,10049,10422,10770,11066,11234,11397,12575,12867,13365
participant_2_CURRENTGOLD,500,0,91,222,541,775,32,217,625,82,490,474,101,67,115,258,573,205,1422,1864,130,814,1737,1359,357,705,306,475,637,1815,108,530
participant_2_LEVEL,1,1,1,2,4,5,5,6,7,7,7,8,8,9,9,9,9,10,11,11,12,12,13,14,14,15,15,15,15,15,15,16
participant_2_MINIONSKILLED,0,0,4,8,20,26,37,40,54,59,66,75,81,94,94,95,102,104,111,121,121,141,141,152,163,170,176,177,179,182,186,186
participant_2_KILLS,0,0,0,0,1,1,1,1,2,2,2,2,2,3,3,4,4,5,5,5,7,7,7,7,7,7,7,7,7,7,7,7
participant_2_BUY,[],"[1055, 2003, 3340]",[],[1001],"[1027, 1004]",[],[3070],[],[3057],[],[],[],[],"[3004, 2055]",[],[],"[3047, 1036, 1028]",[],"[3044, 1042]",[],[],"[3078, 1053, 1036]","[3144, 1042]",[],[],[1043],[],[],"[3153, 2055, 3363]",[1033],[],[]
participant_2_SOLD,[],[],[2003],[],[],[],"[1027, 1004]",[],[],[],[],[],[],[3070],[2055],[],[1001],[],"[1028, 1036]",[],[3004],"[1042, 3057, 3044]","[1053, 1036]",[],[],[1042],[],[],"[3144, 1043, 3340]",[2055],[],[]
participant_2_UNDO,[],[],[],[],[],[],[],[],[],[],[],[],[],[],[],[],[],[],[],[],[],[],[],[],[],[],[],[],[],[],[],[]
participant_3_GOLD,500,500,544,713,983,1194,1716,1915,2180,2915,3237,3393,4150,4332,4473,4772,5120,5511,5729,6170,6734,7055,7601,7770,7932,8072,8271,8712,9042,9272,9474,9615
participant_3_CURRENTGOLD,500,0,44,213,48,259,781,980,1245,115,437,593,1350,132,273,497,845,136,354,795,124,445,526,696,857,97,221,662,843,1072,454,595
participant_3_LEVEL,1,1,1,2,2,3,4,5,5,6,6,7,7,8,8,8,9,9,9,10,10,10,11,11,12,12,12,12,12,13,13,13
participant_3_MINIONSKILLED,0,0,1,3,4,6,8,11,15,15,17,18,19,21,21,22,30,30,32,32,32,34,37,39,40,40,43,43,49,50,51,51
participant_3_KILLS,0,0,0,1,1,1,1,1,1,1,1,1,1,1,1,1,1,1,3,3,4,4,4,5,5,5,5,5,5,6,6,7
participant_3_BUY,[],"[1054, 2003, 3340]",[],"[1036, 2031]",[],[],"[3134, 1036, 2055]",[],[],[3133],[],[1001],"[3158, 3364]","[3147, 3142]",[2055],[],[],"[1036, 1036]",[],[],"[3147, 2055]",[],[],"[3134, 2055]","[3179, 2055]",[],"[3123, 2055]",[],[],[],[3033],[2055]
participant_3_SOLD,[],[],[],[2003],[],[],[1036],[],[],[1036],[],[],"[2055, 1001, 3340]","[3134, 3133, 3133, 3134]",[],[],[],[2055],[],[],"[1036, 1036]",[2055],[],"[2031, 2055]","[3134, 2055]",[],"[1054, 2055]",[],[],[],[3123],[]
participant_3_UNDO,[],[],[],[],[],[],[],[],[],[],[],[],[],"[[0, 3147]]",[],[],[],[],[],[],[],[],[],[],[],[],[],[],[],[],[],[]
participant_4_GOLD,500,500,584,811,1315,1710,2018,2280,2744,3121,3432,3721,4087,4509,5245,5852,6125,7197,7533,7826,9017,9299,9863,10230,10527,10655,10877,11051,11389,11781,11925,12268
participant_4_CURRENTGOLD,500,0,84,11,40,435,368,630,44,421,732,1021,1387,184,920,1527,250,1322,858,1151,2342,242,155,522,820,247,470,643,206,179,322,666
participant_4_LEVEL,1,1,1,2,2,3,4,4,5,5,6,7,7,7,8,8,9,10,10,10,11,11,12,12,13,13,13,13,13,14,14,15
participant_4_MINIONSKILLED,0,0,3,9,11,24,32,39,42,53,64,71,77,77,85,87,92,105,106,108,115,116,121,127,137,137,137,137,146,153,154,159
participant_4_KILLS,0,0,0,0,0,0,0,0,1,1,1,1,1,1,1,1,1,2,3,3,3,3,4,4,4,4,4,4,4,4,4,5
participant_4_BUY,[],"[2033, 3340]",[],[],[],[],[3057],[],[],"[1028, 1036, 1042]",[],"[3044, 1001, 1042]",[],[],[],"[3078, 1028, 3363]",[],[],"[3052, 1028, 1029, 3047]",[],[],[3053],[],[3133],[],[3105],[],[3902],[],[1053],[],[]
participant_4_SOLD,[],[],[],[2010],[],[2010],[],[],[2010],[],[],"[1028, 1036]",[],[],[],"[1042, 1042, 3057, 3044, 3340]",[],[],"[1028, 1001, 1029]",[],[],"[3052, 1028]",[],[],[],[],[],[3902],[],[2033],[],[]
participant_4_UNDO,[],[],[],[],[],[],[],[],[],[],[],[],[],[],[],[],[],[],[],[],[],[],[],[],[],[],[],[],[],[],[],[]
participant_5_GOLD,500,500,563,769,1113,1347,1958,2185,2677,2821,3076,3262,3489,3824,4161,4403,4725,4958,5450,5733,5855,6335,7319,7714,7893,8892,9604,10109,10293,11114,12058,12739
participant_5_CURRENTGOLD,500,0,63,269,613,72,683,310,302,446,701,337,564,899,886,528,450,683,75,358,130,610,1594,439,318,1317,21,156,590,1412,1135,1816
participant_5_LEVEL,1,1,1,2,4,5,5,6,7,7,7,7,8,9,9,10,10,10,11,11,11,11,12,13,13,14,14,14,14,15,16,16
participant_5_MINIONSKILLED,0,0,2,7,17,23,32,38,42,43,51,55,61,73,82,86,93,95,95,100,100,113,115,123,126,137,143,143,143,147,164,169
participant_5_KILLS,0,0,0,0,0,0,0,0,0,0,0,0,0,0,1,1,1,1,1,1,1,1,1,1,1,2,2,2,2,2,2,3
participant_5_BUY,[],"[1041, 2031, 3340, 3364]",[],[1001],[],[],[],"[3715, 1052, 2055]",[],[],[],[1414],"[1052, 2055]",[],[],[],[],[],[],"[3151, 1052, 2055]",[],[],"[3020, 2055]",[],[],[],[],[],"[3116, 2139]",[],"[1026, 2055, 2055]",[]
participant_5_SOLD,[],[3340],[],[],[],[],[],[1041],[],[],[],"[1052, 3715, 2055]",[],[],[2055],[],[],[],[],[1052],[],[2055],[1001],[],[2055],[],[],[],[1052],[2139],[2031],"[2055, 2055]"
participant_5_UNDO,[],[],[],[],[],[],[],[],[],[],[],[],[],[],[],[],[],[],[],[],[],[],[],[],[],[],[],[],[],[],[],[]
participant_6_GOLD,500,500,631,858,1138,1438,1907,2115,2601,3062,3354,3576,3811,4238,4846,5456,5928,6359,6746,6869,7091,7654,7909,8336,8577,9289,9715,10075,10458,11081,11378,12482
participant_6_CURRENTGOLD,500,0,131,58,338,638,1107,155,641,1102,1394,551,276,703,1311,1921,2393,2824,3211,159,381,944,324,751,992,1704,2130,2490,208,832,188,1293
participant_6_LEVEL,1,1,2,2,2,3,4,4,6,6,7,7,7,8,9,10,10,11,11,11,12,12,12,13,13,14,14,14,15,15,16,16
participant_6_MINIONSKILLED,0,0,1,1,5,5,5,5,10,15,20,20,20,21,24,25,25,34,34,34,34,41,41,42,45,51,51,52,52,52,58,65
participant_6_KILLS,0,0,0,0,0,0,1,1,2,2,2,2,2,2,2,2,2,2,3,3,3,3,5,5,5,6,6,7,7,7,8,8
participant_6_BUY,[],"[2033, 3340]",[],[],[],"[1036, 1036, 2055]",[],"[1001, 1029]",[3047],[],[],[1053],[],[],[3144],"[1042, 1042]",[1043],[],"[3153, 1028]",[],[1036],[],[],"[3044, 3057]",[1042],[],"[3078, 3067, 2055]",[1028],"[1028, 2055, 2055]",[],[3044],[]
participant_6_SOLD,[],[],[],[],[2010],[2010],[2055],[],"[2010, 1001, 1029]",[],[],[1036],[],[],"[1053, 1036]",[],"[1042, 1042]",[],"[3144, 1043]",[],[],[],[],"[1028, 1036]",[],[],"[1042, 3057, 3044]",[2055],[2055],[],[2055],[]
participant_6_UNDO,[],[],[],[],[],[],[],[],[],[],[],[],[],[],[],[],[],[],[],[],[],[],[],[],[],[],[],[],"[[0, 1028], [0, 1028]]",[],[],[]
participant_7_GOLD,500,500,598,1213,1434,1731,1969,2322,2688,3473,3616,4012,4540,5335,5956,6784,7191,7517,8437,8831,9703,10702,11314,11542,11824,12441,12848,13931,14400,15561,15684,16958
participant_7_CURRENTGOLD,500,0,98,713,209,506,444,797,1163,1948,56,452,980,1775,256,1084,1491,17,937,1331,2233,1632,2245,372,654,1271,29,1111,180,1342,964,2239
participant_7_LEVEL,1,1,1,3,4,5,5,6,7,8,8,9,9,10,10,11,11,12,12,13,13,13,14,14,14,15,15,16,16,17,17,17
participant_7_MINIONSKILLED,0,0,4,13,19,29,33,46,57,70,71,83,94,99,106,119,131,133,145,153,153,157,165,171,177,182,182,192,200,213,213,215
participant_7_KILLS,0,0,0,1,3,3,3,3,5,5,5,5,5,7,7,8,8,9,9,9,9,10,10,10,10,12,12,14,15,17,17,17
participant_7_BUY,[],"[1055, 3340, 2003]",[],[],"[3006, 1042, 1042]",[],[],[],[],[3144],[],[],[],"[3153, 1043]",[],"[1037, 3363, 1052]","[1037, 1052, 3363]",[],[3124],[],"[1042, 1042]",[],[3086],[],[3046],[],"[1057, 2140]",[],[1038],[],[3026],[]
participant_7_SOLD,[],[],[2003],[],[],[],[],[],[],[],[],[],[],"[3144, 1042, 1042]",[],[3340],[3340],[],"[1052, 1043, 1037]",[],[],[],[1042],[],"[1042, 3086]",[],[2140],[],[1055],[],[1038],[]
participant_7_UNDO,[],[],[],[],[],[],[],[],[],[],[],[],[],[],[],[],"[[0, 1052], [3363, 0], [0, 1037]]",[],[],[],[],[],[],[],[],[],[],[],[],[],[],[]
participant_8_GOLD,500,500,563,1167,2216,2549,2877,3196,3988,4173,4578,4971,5277,6313,6547,7250,7373,7903,8242,8636,9078,9756,9966,10328,10620,11568,12003,12882,13456,14785,15231,16097
participant_8_CURRENTGOLD,500,0,63,667,16,349,677,996,1788,373,778,1171,1477,413,647,40,163,693,242,636,478,1156,266,628,21,969,183,1063,517,1846,791,1657
participant_8_LEVEL,1,1,1,2,3,4,4,5,6,6,7,7,8,8,9,9,9,10,11,11,12,12,12,13,13,14,14,14,15,15,16,16
participant_8_MINIONSKILLED,0,0,2,13,21,30,38,50,56,60,73,85,92,93,93,103,103,105,114,125,136,142,142,149,159,169,170,174,179,185,194,203
participant_8_KILLS,0,0,0,0,1,1,1,1,1,1,1,1,1,1,1,1,1,1,1,1,1,1,1,1,1,1,1,1,1,1,1,1
participant_8_BUY,[],"[2003, 2003, 3850, 3340]",[],[],[],"[3028, 2003, 2055]",[],[],"[1028, 1001, 2003, 2003]",[],[],[],[],"[3108, 2055, 3364]",[],[3174],[],"[3801, 2055, 2003]",[],"[3158, 2003]",[2055],[],[],"[3801, 3114, 2055, 2055]",[],"[3107, 2055]",[],[1052],[],[],[3113],[3504]
participant_8_SOLD,[],[],[],"[2003, 2003]",[],[],[2055],[],[2003],[],[],[],"[2003, 2003]","[3850, 3340]",[],"[3108, 3028]",[2055],[1028],[2003],"[1001, 2003]",[],[2055],[2055],[],[2055],"[3114, 3801]",[2055],[3851],[],[],[1052],"[2055, 3113]"
participant_8_UNDO,[],[],[],[],[],[],[],[],[],[],[],[],[],[],[],[],[],[],[],[],[],[],[],"[[0, 3801]]",[],[],[],[],[],[],[],[]
participant_9_GOLD,500,500,538,702,1422,1556,1801,1980,2294,2457,2636,2771,3025,3314,3606,3991,4153,4293,4652,4852,5107,5300,5648,5788,5973,6425,6666,7064,7273,7910,8050,8758
participant_9_CURRENTGOLD,500,0,38,202,922,131,376,555,69,232,411,546,800,114,406,391,553,318,677,227,407,600,948,138,323,50,291,254,463,1100,825,113
participant_9_LEVEL,1,1,1,2,3,4,4,5,5,6,6,7,7,7,8,8,9,9,9,9,10,10,11,11,11,12,12,13,13,14,14,15
participant_9_MINIONSKILLED,0,0,0,0,0,0,0,0,0,2,2,2,2,2,3,3,4,4,8,9,9,9,9,9,10,11,11,12,12,12,12,13
participant_9_KILLS,0,0,0,1,1,1,1,1,1,2,2,2,2,4,5,6,6,7,8,8,10,11,12,12,12,13,13,15,15,16,16,19
participant_9_BUY,[],"[2033, 3340]",[],[],"[1082, 1001, 1029, 2055]",[],[1001],[],[],[],"[3191, 3020, 1052]",[],[],[],"[3152, 2055]",[],[],[3157],[],[],[],[3916],[],"[3041, 1058]",[],[],"[3364, 3907]",[],[3165],[],[2139],[]
participant_9_SOLD,[],[],[],[],[],[],[],[2055],[],[],"[2010, 1029, 1001]",[],[],[],"[2010, 2010, 1052]",[],[],[3191],[],[],[2055],[],[],"[1082, 2033]",[],[],"[3340, 1058]",[],[3916],[],[2139],[]
participant_9_UNDO,[],[],[],[],"[[0, 1001]]",[],[],[],[],[],[],[],[],[],[],[],[],[],[],[],[],[],[],[],[],[],[],[],[],[],[],[]
team0_KILLS,0,0,0,1,2,2,3,3,5,6,7,7,9,10,10,11,11,14,17,18,22,22,24,25,25,25,25,26,26,27,27,29
team0_CURRENTGOLD,2500,0,409,1271,1680,3175,1389,2666,3627,2070,4128,2329,3957,1283,3048,3559,2969,5093,4630,4821,5001,1974,4666,4298,4498,2692,1462,2551,2815,3740,2053,3795
team0_TOTALGOLD,2500,2500,2909,4571,6240,7735,9359,10636,12647,14755,16813,18389,20617,22408,24248,26067,27777,31701,34328,36119,39809,42084,45891,47737,49313,50208,51351,52516,53704,55749,56883,58698
team0_LEVEL,5,5,6,10,15,19,22,26,28,31,34,37,39,41,44,44,48,51,53,54,58,58,63,64,67,68,68,69,69,71,71,74
team0_SBIRES,0,0,11,33,59,88,111,133,163,191,227,250,281,302,330,345,378,403,413,431,454,484,495,520,553,561,575,576,595,606,617,625
team1_KILLS,0,0,0,2,5,5,6,6,9,10,10,10,10,14,16,18,18,20,22,22,24,26,29,29,29,34,34,39,40,43,44,48
team1_CURRENTGOLD,2500,0,393,1909,2098,1696,3287,2813,3963,4101,3340,3057,4097,3904,3506,3964,5050,4535,5142,2711,3629,4942,5377,2328,2308,5311,2654,5074,1958,6532,3903,7118
team1_TOTALGOLD,2500,2500,2893,4709,7323,8621,10512,11798,14248,15986,17260,18592,20142,23024,25116,27884,29370,31030,33527,34921,36834,39747,42156,43708,44887,48615,50836,54061,55880,60451,62401,67034
team1_LEVEL,5,5,6,11,16,21,22,26,31,33,35,37,39,42,45,48,49,52,54,55,58,58,61,64,64,69,69,71,73,76,79,80
team1_SBIRES,0,0,9,34,62,87,108,139,165,190,217,245,269,288,308,336,356,371,396,421,432,462,472,494,517,550,557,573,586,609,641,665
delta_KILLS,0,0,0,-1,-3,-3,-3,-3,-4,-4,-3,-3,-1,-4,-6,-7,-7,-6,-5,-4,-2,-4,-5,-4,-4,-9,-9,-13,-14,-16,-17,-19
delta_CURRENTGOLD,0,0,16,-638,-418,1479,-1898,-147,-336,-2031,788,-728,-140,-2621,-458,-405,-2081,558,-512,2110,1372,-2968,-711,1970,2190,-2619,-1192,-2523,857,-2792,-1850,-3323
delta_TOTALGOLD,0,0,16,-138,-1083,-886,-1153,-1162,-1601,-1231,-447,-203,475,-616,-868,-1817,-1593,671,801,1198,2975,2337,3735,4029,4426,1593,515,-1545,-2176,-4702,-5518,-8336
delta_LEVEL,0,0,0,-1,-1,-2,0,0,-3,-2,-1,0,0,-1,-1,-4,-1,-1,-1,-1,0,0,2,0,3,-1,-1,-2,-4,-5,-8,-6
delta_SBIRES,0,0,2,-1,-3,1,3,-6,-2,1,10,5,12,14,22,9,22,32,17,10,22,22,23,26,36,11,18,3,9,-3,-24,-40
