name,frame_0,frame_1,frame_2,frame_3,frame_4,frame_5,frame_6,frame_7,frame_8,frame_9,frame_10,frame_11,frame_12,frame_13,frame_14,frame_15,frame_16,frame_17,frame_18,frame_19,frame_20,frame_21,frame_22
nameStamp,Tstart,Tearly,Tearly,Tearly,Tearly,Tearly,Tearly,Tearly,Tearly,Tearly,Tmid,Tmid,Tmid,Tmid,Tmid,Tmid,Tmid,Tmid,Tmid,Tmid,Tmid,Tmid,Tmid
timestamp,0,60031,120044,180075,240088,300121,360123,420130,480132,540165,600195,660200,720204,780222,840227,900237,960241,1020244,1080252,1140255,1200263,1260274,1320279
participant_0_GOLD,1400,1400,1870,3096,3683,4541,5501,6154,6595,7431,8119,8497,9036,9890,10774,11656,12133,13139,13891,15506,15866,16318,16784
participant_0_CURRENTGOLD,1400,100,570,1796,283,1141,2101,2754,195,1031,519,597,1136,790,1674,2556,533,1539,2291,306,666,1118,1584
participant_0_LEVEL,1,3,4,6,6,7,8,9,10,11,12,12,13,14,15,15,16,17,17,18,18,18,18
participant_0_MINIONSKILLED,0,0,3,12,19,23,30,36,37,50,50,50,57,66,74,78,80,84,89,89,89,92,92
participant_0_KILLS,0,0,0,2,2,3,5,5,5,6,6,6,6,7,8,9,9,10,11,13,13,13,13
participant_0_BUY,[],"[2003, 6670]",[],[],[6672],[],[],[],"[3006, 1043, 1053]",[],[3153],[1042],[],"[3086, 1042]",[],[],"[3085, 1018]",[],[],"[3031, 3123]",[],[],[]
participant_0_SOLD,[],[],[],[],[6670],[],[],[],[],[2052],"[1053, 1043]",[],[],[1042],[],[],"[3086, 1042]",[],[],[1018],[],[],[]
participant_0_UNDO,[],"[[0, 2003]]",[],[],[],[],[],[],[],[],[],[],[],[],[],[],[],[],[],[],[],[],[]
participant_1_GOLD,1400,1400,1839,2468,2864,3464,3905,4354,4951,5605,6168,6591,7266,7786,8301,8932,9480,10074,10677,11793,12302,12686,13285
participant_1_CURRENTGOLD,1400,250,689,168,564,1164,55,504,368,1022,485,108,783,953,418,649,497,1091,479,870,1379,513,1112
participant_1_LEVEL,1,3,4,5,6,7,8,8,9,10,11,11,12,13,13,14,14,15,16,17,18,18,18
participant_1_MINIONSKILLED,0,0,1,1,1,8,8,8,13,13,13,13,13,17,17,19,19,21,25,25,28,28,29
participant_1_KILLS,0,0,0,1,1,1,1,1,1,2,2,2,3,3,3,3,4,4,4,6,6,6,7
participant_1_BUY,[],"[3057, 2031, 1001]",[],"[3047, 1036]",[],[],"[3051, 3067]",[],[3078],[],[3133],[3067],[],[1036],[3071],"[1036, 1028]",[3044],[],"[1037, 1028]",[3053],[],"[3066, 1033]",[]
participant_1_SOLD,[],[],[],[1001],[2052],[],[1036],[],"[3057, 3051, 3067]",[],[],[],[],[],"[3133, 3067, 1036]",[],[1028],[],[2031],"[1037, 3044, 1028]",[],[],[]
participant_1_UNDO,[],[],[],[],[],[],[],[],[],[],[],[],[],[],[],"[[0, 1036]]",[],[],[],[],[],[],[]
participant_2_GOLD,1400,1400,1763,2254,2905,3443,3880,4490,5001,5483,6093,6493,6979,7445,8189,9112,9558,10041,10609,11037,11483,12041,12497
participant_2_CURRENTGOLD,1400,1400,13,504,1155,1693,380,505,316,283,458,443,79,-55,639,1562,408,441,659,137,583,1141,797
participant_2_LEVEL,1,3,4,5,6,7,7,8,9,10,10,11,12,12,13,14,14,15,16,17,17,18,18
participant_2_MINIONSKILLED,0,0,0,3,4,6,7,7,12,14,18,20,22,23,27,32,33,33,38,38,41,47,47
participant_2_KILLS,0,0,0,0,1,1,1,2,2,2,2,2,2,2,3,4,4,4,4,4,4,4,4
participant_2_BUY,[],[],"[3145, 1028, 1001]",[],[],[],[3152],[1052],[3057],[3191],"[1052, 1052]",[3113],[1026],[3100],[],[],[3157],[1033],[3111],[3108],[],[],[3067]
participant_2_SOLD,[],[],[],[],[],[],"[3145, 1028]",[],[],[1052],[],[1052],[],"[3057, 3113, 1026]",[],[],[3191],[],"[1001, 1033]",[],[],[],[]
participant_2_UNDO,[],[],[],[],[],[],[],[],[],[],"[[0, 1052]]",[],[],[],[],[],[],[],[],[],[],[],[]
participant_3_GOLD,1400,1400,1839,2578,3079,3629,4349,5551,6175,6565,8048,8453,9432,9947,10828,11448,11932,13207,13650,14212,14798,15251,15964
participant_3_CURRENTGOLD,1400,0,439,328,829,1379,2099,3301,2675,565,2048,1203,2182,347,1228,113,597,507,950,377,963,1416,64
participant_3_LEVEL,1,3,4,5,6,7,8,9,10,10,12,12,13,13,14,15,15,16,16,17,18,18,18
participant_3_MINIONSKILLED,0,0,1,2,3,4,4,7,7,7,14,14,15,19,21,22,25,25,26,28,32,34,35
participant_3_KILLS,0,0,0,1,1,1,2,5,6,6,8,8,9,9,10,10,10,12,12,12,12,12,13
participant_3_BUY,[],"[3802, 2003, 2003]",[],[1026],[],[],[],[],[6655],[3135],[],[1058],[],"[1058, 3020]",[],"[3089, 1052]",[],"[3191, 1052, 3108]",[],"[3157, 1052]",[],[],[3102]
participant_3_SOLD,[],[],[2003],[],[],[2003],[],[],"[3802, 1026]",[],[],[],[],[],[],"[1058, 1058]",[],"[1052, 1052]",[],"[3191, 3108]",[],[],[1052]
participant_3_UNDO,[],[],[],[],[],[],[],[],[],[],[],[],[],[],[],[],[],[],[],[],[],[],[]
participant_4_GOLD,1400,1400,1793,2272,2922,3332,3764,4227,4848,5373,6831,7371,7869,8282,9391,10062,10585,11264,11778,12340,13220,13795,14485
participant_4_CURRENTGOLD,1400,1400,393,572,1222,342,774,437,1058,733,2191,1481,744,292,1401,2072,745,989,353,915,1380,1955,495
participant_4_LEVEL,1,3,4,5,6,6,7,8,8,9,11,11,12,12,13,14,15,16,16,17,18,18,18
participant_4_MINIONSKILLED,0,0,0,0,1,2,2,4,4,7,12,12,12,13,18,20,23,24,27,27,38,44,44
participant_4_KILLS,0,0,0,0,1,1,1,1,2,2,4,5,5,5,6,6,6,7,7,8,9,9,10
participant_4_BUY,[],[],"[4635, 2003, 2003]",[1001],[],"[3802, 1026, 3108]",[],[3020],[],[1026],[],[6655],"[3067, 1052]",[4629],[],[],"[1026, 1043]",[1052],"[3115, 1052]",[],[3113],[],"[1026, 3100]"
participant_4_SOLD,[],[],[],[2003],[],[4635],[],[1001],[],[2003],[],"[3802, 1026]",[],"[3108, 3067, 1052]",[],[],[],[],"[1043, 1026, 1052]",[],[1052],[],"[3113, 1026]"
participant_4_UNDO,[],[],[],[],[],"[[0, 1026]]",[],[],[],[],[],[],[],[],[],[],[],[],[],[],[],[],[]
participant_5_GOLD,1400,1400,1892,2432,3010,3498,4285,4678,5272,5818,6343,7522,7983,8584,9146,9834,10539,11431,11986,12438,12798,13570,14338
participant_5_CURRENTGOLD,1400,0,492,732,1310,1798,2585,443,602,168,693,1872,2333,2934,1546,984,1689,2581,586,1038,148,920,1688
participant_5_LEVEL,1,3,4,5,6,7,8,8,9,10,11,12,13,13,14,15,16,17,18,18,18,18,18
participant_5_MINIONSKILLED,0,0,5,10,15,18,22,23,26,26,27,34,34,36,39,40,41,45,45,46,46,52,57
participant_5_KILLS,0,0,0,0,0,0,1,1,1,1,1,2,2,3,3,4,5,5,5,5,5,6,7
participant_5_BUY,[],"[3802, 2003, 2003]",[],[1001],[],[],[],"[6655, 1052]",[1052],"[3020, 3145]",[],[],[],[],[4628],[1058],[],[],[3089],[],[4630],[],[]
participant_5_SOLD,[],[],[],[],[],[],"[2003, 2003]",[3802],[],"[1001, 1052, 1052]",[],[],[],[],[3145],[],[],[],[1058],[],[],[],[]
participant_5_UNDO,[],[],[],[],[],[],[],[],[],[],[],[],[],[],[],[],[],[],[],[],[],[],[]
participant_6_GOLD,1400,1400,1859,2647,3218,3739,4512,4919,5874,6716,7385,8606,9301,9706,10442,11189,12783,13635,14400,15354,15714,16435,16973
participant_6_CURRENTGOLD,1400,0,459,1247,1818,2339,3112,519,1474,2316,435,1656,1751,721,1457,639,2233,1045,175,1129,1024,1745,683
participant_6_LEVEL,1,3,4,5,6,7,8,9,10,11,11,12,13,13,14,15,16,17,18,18,18,18,18
participant_6_MINIONSKILLED,0,0,2,7,10,15,22,23,29,34,36,41,43,43,50,51,64,65,72,72,72,87,90
participant_6_KILLS,0,0,0,1,1,1,2,2,3,4,5,7,8,8,9,10,13,14,14,17,17,17,17
participant_6_BUY,[],"[4635, 2003, 2003]",[],[],[],[],[],"[4633, 3020]",[],[],"[3057, 3113, 1026, 2031]",[],[3100],"[1043, 1052]",[],[3115],[],"[3077, 1053]","[3074, 1052]",[],[3191],[],[3157]
participant_6_SOLD,[],[],[],"[2003, 2003]",[],[],[],[4635],[],[],[],[],"[3057, 3113, 1026]",[],[],"[1043, 1052]",[],[2031],"[3077, 1053]",[],[1052],[],[3191]
participant_6_UNDO,[],[],[],[],[],[],[],[],[],[],[],[],[],[],[],[],[],[],[],[],[],[],[]
participant_7_GOLD,1400,1400,1829,2777,3689,4127,4553,4943,5599,6151,6523,7732,8228,8588,9030,9632,10022,11461,11971,12825,13185,13611,14470
participant_7_CURRENTGOLD,1400,0,429,497,759,297,723,323,179,731,53,1262,1758,533,975,477,867,2306,216,670,1030,581,415
participant_7_LEVEL,1,3,4,5,6,6,7,8,9,9,10,11,12,12,13,13,14,15,16,17,17,18,18
participant_7_MINIONSKILLED,0,0,0,0,0,0,0,0,3,3,3,6,6,6,6,7,7,17,17,25,25,25,26
participant_7_KILLS,0,0,0,3,5,5,5,5,6,6,6,7,7,7,7,8,8,11,11,11,11,11,13
participant_7_BUY,[],"[2051, 1036, 2003, 2003]",[],"[3134, 2031]","[1036, 1001]","[1053, 1036]",[],[6692],[3111],[],"[1036, 1036, 1036]",[],[],"[3133, 3077, 3074]",[],[3134],[],[],"[3142, 1036, 1036]",[3134],[],[1037],[6676]
participant_7_SOLD,[],[],[2003],"[1036, 2003]",[],[1036],[],"[2031, 3134, 1036, 1053]",[1001],[],[],[],[],"[1036, 1036, 2051, 3077, 1036, 3133]",[],[],[],[],[3134],"[1036, 1036]",[],[],"[3134, 1037]"
participant_7_UNDO,[],[],[],[],[],[],[],[],[],[],[],[],[],[],[],[],[],[],[],[],[],[],[]
participant_8_GOLD,1400,1400,1879,2431,3022,3601,4210,4771,6591,7346,8043,8893,9897,10539,11096,11633,12281,13284,14204,15999,16359,16891,18004
participant_8_CURRENTGOLD,1400,50,529,1081,572,1151,660,121,1941,2696,693,1543,2547,3189,746,1283,1931,1634,2554,2249,539,1071,2184
participant_8_LEVEL,1,3,4,5,6,7,8,8,9,10,11,12,13,14,14,15,16,17,18,18,18,18,18
participant_8_MINIONSKILLED,0,0,3,5,10,17,20,20,22,28,32,34,40,42,47,47,49,49,49,55,55,56,58
participant_8_KILLS,0,0,0,0,0,0,0,1,4,4,5,5,7,8,8,8,8,9,11,14,14,14,16
participant_8_BUY,[],"[3070, 3177]",[],[],"[1036, 1036, 3133]",[],[3004],"[1036, 1036, 3133]",[],[],"[6691, 3009]",[],[],[],[6676],[],[],[1038],[],[3031],[3094],[],[]
participant_8_SOLD,[],[],[],[2010],"[1036, 1036]",[2010],"[3070, 3133]","[1036, 1036]",[2010],[],"[3133, 2422, 3004]",[],[],[],[],[],[],[],[],[1038],[3009],[],[]
participant_8_UNDO,[],[],[],[],[],[],[],[],[],[],[],[],[],[],[],[],[],[],[],[],[],[],[]
participant_9_GOLD,1400,1400,1862,2418,2965,3361,4021,4519,5047,5650,6160,6968,7664,8086,8553,8937,9452,10378,11264,11624,12278,12816,13688
participant_9_CURRENTGOLD,1400,50,512,668,365,326,86,584,312,915,960,533,1229,351,818,302,817,1278,2164,139,793,1331,2203
participant_9_LEVEL,1,3,4,5,6,7,7,8,9,10,11,12,13,13,14,14,15,16,17,17,18,18,18
participant_9_MINIONSKILLED,0,0,2,4,7,7,7,10,13,13,16,16,16,16,16,16,17,17,20,20,25,30,34
participant_9_KILLS,0,0,0,0,0,0,1,1,1,1,1,2,3,3,3,3,3,5,6,6,7,7,8
participant_9_BUY,[],"[3145, 1001]",[],[1028],[1026],[1052],[4636],[],[3020],[],[3108],"[3067, 1052]",[],"[4629, 1052]",[],"[3108, 1052]",[],[3191],[],"[3157, 1058, 1052]",[],[],[]
participant_9_SOLD,[],[],[],[],[],[],"[3145, 1028, 1026]",[],[1001],[],[1052],[],[],"[3108, 3067, 1052]",[],[1052],[],[1052],[],"[3191, 3108]",[],[],[]
participant_9_UNDO,[],[],[],[],[],[],[],[],[],[],[],[],[],[],[],[],[],[],[],[],[],[],[]
team0_KILLS,0,0,0,4,6,7,10,14,16,18,22,23,25,26,30,32,33,37,38,43,44,44,47
team0_CURRENTGOLD,7000,3150,2104,3368,4053,5719,5409,7501,4612,3634,5701,3832,4924,2327,5360,6952,2780,4567,4732,2605,4971,6143,4052
team0_TOTALGOLD,7000,7000,9104,12668,15453,18409,21399,24776,27570,30457,35259,37405,40582,43350,47483,51210,53688,57725,60605,64888,67669,70091,73015
team0_LEVEL,5,15,20,26,30,34,38,42,46,50,56,57,62,64,68,72,74,79,81,86,89,90,90
team0_SBIRES,0,0,5,18,28,43,51,62,73,91,107,109,119,138,157,171,180,187,205,207,228,245,247
team1_KILLS,0,0,0,4,6,6,9,10,15,16,18,23,27,29,30,33,37,44,47,53,54,55,61
team1_CURRENTGOLD,7000,100,2421,4225,4824,5911,7166,1990,4508,6826,2834,6866,9618,7728,5542,3685,7537,8844,5695,5225,3534,5648,7173
team1_TOTALGOLD,7000,7000,9321,12705,15904,18326,21581,23830,28383,31681,34454,39721,43073,45503,48267,51225,55077,60189,63825,68240,70334,73323,77473
team1_LEVEL,5,15,20,25,30,34,38,41,46,50,54,59,64,65,69,72,77,82,87,88,89,90,90
team1_SBIRES,0,0,12,26,42,57,71,76,93,104,114,131,139,143,158,161,178,193,203,218,223,250,265
delta_KILLS,0,0,0,0,0,1,1,4,1,2,4,0,-2,-3,0,-1,-4,-7,-9,-10,-10,-11,-14
delta_CURRENTGOLD,0,3050,-317,-857,-771,-192,-1757,5511,104,-3192,2867,-3034,-4694,-5401,-182,3267,-4757,-4277,-963,-2620,1437,495,-3121
delta_TOTALGOLD,0,0,-217,-37,-451,83,-182,946,-813,-1224,805,-2316,-2491,-2153,-784,-15,-1389,-2464,-3220,-3352,-2665,-3232,-4458
delta_LEVEL,0,0,0,1,0,0,0,1,0,0,2,-2,-2,-1,-1,0,-3,-3,-6,-2,0,0,0
delta_SBIRES,0,0,-7,-8,-14,-14,-20,-14,-20,-13,-7,-22,-20,-5,-1,10,2,-6,2,-11,5,-5,-18
