name,frame_0,frame_1,frame_2,frame_3,frame_4,frame_5,frame_6,frame_7,frame_8,frame_9,frame_10,frame_11,frame_12,frame_13,frame_14,frame_15,frame_16,frame_17,frame_18,frame_19,frame_20,frame_21,frame_22,frame_23,frame_24,frame_25,frame_26,frame_27,frame_28,frame_29,frame_30,frame_31,frame_32,frame_33
nameStamp,Tstart,Tearly,Tearly,Tearly,Tearly,Tearly,Tearly,Tearly,Tearly,Tearly,Tearly,Tearly,Tearly,Tmid,Tmid,Tmid,Tmid,Tmid,Tmid,Tmid,Tmid,Tmid,Tend,Tend,Tend,Tend,Tend,Tend,Tend,Tend,Tend,Tend,Tend,Tend
timestamp,0,60009,120019,180031,240055,300062,360077,420084,480097,540106,600126,660142,720150,780158,840171,900181,960195,1020211,1080236,1140246,1200256,1260271,1320280,1380299,1440316,1500340,1560352,1620368,1680386,1740402,1800417,1860428,1920451,1980451
participant_0_GOLD,500,500,520,803,1095,1268,1685,1964,2351,2509,2948,3085,3517,3820,4171,4631,4754,5163,5844,6333,6553,7014,7263,7450,7839,8053,8562,9014,9136,9550,9673,10247,10369,10414
participant_0_CURRENTGOLD,500,0,20,303,595,168,585,214,601,759,1198,285,717,120,471,931,14,423,71,560,155,616,865,152,541,135,644,1096,118,533,655,1229,1352,1096
participant_0_LEVEL,1,1,1,2,4,4,5,6,7,7,8,8,9,9,9,10,10,10,11,11,11,12,12,12,12,12,13,13,13,14,14,14,14,14
participant_0_MINIONSKILLED,0,0,0,9,19,21,35,41,53,55,70,71,83,84,93,108,108,118,123,126,129,137,139,140,144,149,149,155,155,164,164,178,178,178
participant_0_KILLS,0,0,0,0,0,0,0,0,0,0,0,0,0,0,0,0,0,0,1,2,2,2,2,2,2,2,3,3,3,3,3,3,3,3
participant_0_BUY,[],"[1055, 2003, 3340]",[],[],[],"[1055, 2031]",[],"[1001, 1036]",[],[],[],[3057],[],"[3155, 3044]",[],[],[3101],[],"[3078, 1036, 1036]",[],"[3133, 3077]",[],[],[1053],[],"[1037, 3047]",[],[],[3105],[],[],[],[],[]
participant_0_SOLD,[],[],[],[],[2003],[],[],[],[],[],[],[],[],"[2031, 1036, 1036]",[],[],[2031],[],"[3101, 3057, 3044]",[],"[1036, 1036, 1036, 1036]",[],[],[],[],"[1055, 1001]",[],[],[],[],[],[],[],[]
participant_0_UNDO,[],[],[],[],[],[],[],[],[],[],[],[],[],"[[2031, 0], [0, 3155]]",[],[],[],[],[],[],"[[0, 3133]]",[],[],[],[],"[[0, 1037]]",[],[],[],[],[],[],[],[]
participant_1_GOLD,500,500,675,954,1260,1482,1935,2137,2709,3130,3622,4378,4952,5200,5323,6321,6940,7317,7994,8692,9026,9238,9545,10058,10180,10388,10992,11215,11472,11624,11747,11883,12005,12050
participant_1_CURRENTGOLD,500,0,175,454,760,982,1435,252,24,445,937,1693,2267,375,198,1196,1815,517,1194,1892,2226,398,306,818,940,1148,1753,125,383,535,107,244,366,350
participant_1_LEVEL,1,1,2,3,3,4,5,5,5,6,7,7,8,8,9,9,10,11,11,12,12,12,13,13,13,13,14,14,14,14,14,14,14,14
participant_1_MINIONSKILLED,0,0,0,0,1,1,1,1,1,1,1,4,4,4,4,7,13,13,25,25,25,27,27,27,27,27,32,32,33,34,34,35,35,35
participant_1_KILLS,0,0,0,0,0,0,0,0,1,1,1,1,1,1,1,2,2,2,2,3,3,3,3,3,3,3,3,3,3,3,3,3,3,3
participant_1_BUY,[],"[3340, 1039, 2031]",[],[],[],[],[],"[3706, 1001, 1052, 3364]",[3047],[],[],[],[],"[1402, 1011, 2055]",[1029],[],[],"[3742, 2055]",[],[],[],"[3076, 3105]",[1028],[],[],[],[],"[3075, 1036]",[],[],[1053],[],[],[]
participant_1_SOLD,[],[],[],[],[],[],[],"[1039, 3340]",[1001],[],[3364],[3513],[],"[1052, 3706]",[],[2055],[],"[1029, 1011]",[],[2055],[],[2031],[],[],[],[],[],"[3076, 1028]",[],[],[1036],[],[],[]
participant_1_UNDO,[],[],[],[],[],[],[],[],[],[],[],[],[],[],[],[],[],[],[],[],[],[],[],[],[],[],[],[],[],[],[],[],[],[]
participant_2_GOLD,500,500,625,996,1204,1571,1942,2497,2703,3245,3580,4305,5229,6062,6746,6987,7407,7934,8542,8935,9272,10228,10569,11436,11593,11821,13980,14287,14672,15100,15664,15919,16201,16246
participant_2_CURRENTGOLD,500,0,125,496,204,571,942,247,453,995,280,255,1179,22,706,947,1367,794,1402,795,1132,2088,109,976,34,261,2420,78,462,131,695,949,1232,716
participant_2_LEVEL,1,1,1,3,3,4,5,6,7,7,8,8,9,10,10,10,11,11,12,12,12,13,13,13,13,14,14,14,15,15,15,15,16,16
participant_2_MINIONSKILLED,0,0,6,18,23,34,45,53,58,71,79,89,96,108,119,126,139,145,158,164,170,188,190,202,204,204,213,213,213,223,228,232,237,237
participant_2_KILLS,0,0,0,0,0,0,0,1,1,1,1,2,2,3,3,3,3,3,3,3,3,3,3,4,4,4,7,7,7,7,7,7,7,7
participant_2_BUY,[],"[1054, 3364, 2003, 3340]",[],[],"[2031, 1036]",[],[],[3144],[],[],[3145],[3146],[],"[3006, 1082, 3108, 3363]",[],[],[],[3101],[],[3115],[],[],"[1058, 1058]",[],[3089],[],[],[3135],[],[3108],[],[],[],[]
participant_2_SOLD,[],[3364],[],[2003],[],[],[],[1036],[],[],[],"[3144, 3145]",[],"[2422, 2031, 3340]",[],[],[],[1054],[],"[3101, 3108]",[],[],[1054],[],"[1058, 1058]",[],[],[],[],[1082],[],[],[],[]
participant_2_UNDO,[],[],[],[],[],[],[],[],[],[],[],[],[],[],[],[],[],"[[1054, 0]]",[],[],[],[],[],[],[],[],[],[],[],[],[],[],[],[]
participant_3_GOLD,500,500,597,845,1429,1854,1998,2319,2999,3122,3447,3736,4613,4955,5141,5432,5754,6303,6935,7072,7292,7528,7771,8393,8565,8953,9881,10211,10550,10906,11592,11882,12074,12140
participant_3_CURRENTGOLD,500,0,97,345,929,1354,123,444,1124,272,597,886,188,130,316,7,329,878,1510,847,1067,1303,1546,2168,340,728,1656,1986,405,761,73,362,554,440
participant_3_LEVEL,1,1,1,2,2,4,4,4,5,5,6,6,7,7,7,8,8,9,9,10,10,10,11,11,11,12,13,13,13,13,14,14,14,14
participant_3_MINIONSKILLED,0,0,4,12,12,26,27,39,46,46,58,64,70,79,83,88,95,105,107,108,114,118,119,119,122,129,132,132,141,145,153,158,162,163
participant_3_KILLS,0,0,0,0,1,1,1,1,2,2,2,2,3,3,3,3,3,3,4,4,4,4,4,5,5,5,6,6,6,6,7,7,7,7
participant_3_BUY,[],"[1055, 2003, 3340]",[],[],[],[],"[1038, 2055]",[],[],"[3009, 2055]",[],[],"[1018, 2015, 2055]",[3095],[],"[1042, 1042]",[],[],[],"[3086, 2015, 3123]",[],[],[],[],[3094],[],[],[],"[1038, 1018]",[],"[3031, 2055]",[],[],[]
participant_3_SOLD,[],[],[],[],[2003],[],[],[2055],[],[2055],[],[],[],"[1038, 1018, 2015]",[2055],[],[],[],[],"[1042, 1042]",[],[],[],[],"[1042, 1042]",[],[],[],[1055],[],"[1038, 1018]",[],[],[]
participant_3_UNDO,[],[],[],[],[],[],[],[],[],[],[],[],[],[],[],[],[],[],[],"[[0, 2015], [0, 3086]]",[],[],[],[],[],[],[],[],[],[],[],[],[],[]
participant_4_GOLD,500,500,564,698,909,1116,1251,1437,1581,2104,2332,2466,2842,3090,3230,3522,3820,4100,5302,5538,5678,5868,6009,6279,6573,6713,7166,7406,7547,7696,8028,8183,8323,8375
participant_4_CURRENTGOLD,500,0,64,123,34,241,171,357,101,624,852,86,462,710,450,742,1100,280,1482,198,338,453,594,864,1158,168,621,211,352,501,759,913,1053,1025
participant_4_LEVEL,1,1,1,2,2,3,3,4,4,5,5,6,6,7,7,7,8,8,9,9,10,10,10,10,10,10,11,11,11,11,12,12,12,12
participant_4_MINIONSKILLED,0,0,2,2,2,6,6,9,9,12,14,14,16,17,17,20,25,26,28,28,28,28,28,28,33,33,33,33,33,33,35,36,36,36
participant_4_KILLS,0,0,0,0,0,0,0,0,0,1,1,1,1,1,1,1,1,1,2,2,2,2,2,2,2,2,2,2,2,2,2,2,2,2
participant_4_BUY,[],"[2003, 3340, 2003, 3858]",[],[2055],[1001],[],"[2055, 2031]",[],[1028],[],[],"[3009, 1029]",[],[],[3067],[],[3364],[3109],[],"[2420, 1057, 2055, 2055]",[],[2055],[],[],[],[3193],[],[3801],[],[],[2055],[],[],[]
participant_4_SOLD,[],[],[],[],[2003],[2055],[2003],[],[],[],[],[1001],[],[3858],[1028],[],"[3340, 2031]","[3067, 1029]",[2055],[],"[3859, 2055]",[],[],[2420],[],"[1057, 2421]",[],[2055],[],[],[],[],[],[]
participant_4_UNDO,[],[],[],[],[],[],[],[],[],[],[],[],[],[],[],[],[],[],[],[],[],[],[],[],[],[],[],[],[],[],[],[],[],[]
participant_5_GOLD,500,500,597,915,1311,1580,1801,2290,2579,2984,3211,4343,4730,5644,6496,6619,7235,7936,8165,8288,8668,9262,9573,9795,11237,11711,11988,12120,12997,13447,14332,14687,15177,15363
participant_5_CURRENTGOLD,500,0,97,415,286,255,476,65,279,684,291,1423,60,974,276,399,215,916,345,468,848,59,370,143,1494,969,65,122,25,399,244,600,1089,805
participant_5_LEVEL,1,1,1,3,3,4,4,6,6,7,7,9,9,10,11,11,11,12,12,12,12,13,13,13,14,14,15,15,15,16,16,16,17,17
participant_5_MINIONSKILLED,0,0,4,15,18,27,32,51,57,71,77,95,101,117,129,129,140,151,157,157,168,174,184,184,189,193,198,199,199,210,216,222,227,230
participant_5_KILLS,0,0,0,0,0,0,0,0,0,0,0,1,1,2,2,2,3,4,4,4,4,4,4,4,6,6,6,6,7,7,9,9,9,9
participant_5_BUY,[],"[2033, 3340]",[],[],"[1055, 2055]",[1001],[],[1053],[2055],[],"[1036, 1042]",[],[3153],[],"[3047, 1028, 1036]",[],"[3044, 1042, 3363]",[],[3101],[],[],[3078],[],[1033],[1057],[1043],[3091],[2055],"[3105, 2055]",[2055],[3133],[],[],[]
participant_5_SOLD,[],[],[],[],"[2010, 2055]",[],[],[2010],[],[2055],[2010],[],"[1053, 1036, 1042]",[],[1001],[],"[1028, 1036, 3340]",[],[1042],[],[],"[3101, 3044]",[],[],"[1033, 1055]",[],"[1043, 1057]",[2055],[2033],[],"[2055, 2055]",[],[],[]
participant_5_UNDO,[],[],[],[],[],[],[],[],[],[],[],[],[],[],[],[],[],[],[],[],[],[],[],[],[],[],[],[],[],[],[],[],[],[]
participant_6_GOLD,500,500,620,1367,1825,2024,2282,2404,2729,2951,3216,3598,3860,4458,4956,5273,5686,5903,6211,6375,6567,7217,7392,7779,8096,8294,8736,8859,9696,9947,10206,10504,10970,11213
participant_6_CURRENTGOLD,500,0,120,867,250,449,707,829,254,476,741,1123,860,658,1156,1473,336,463,771,935,1127,27,202,589,906,304,746,869,1706,1957,366,664,1131,1313
participant_6_LEVEL,1,1,2,3,3,4,4,4,5,5,5,6,7,7,8,8,9,9,10,10,10,11,11,11,12,12,12,12,14,14,14,15,15,15
participant_6_MINIONSKILLED,0,0,0,0,1,1,1,1,1,1,1,3,3,3,6,6,6,6,6,8,9,9,11,11,14,14,14,14,15,17,19,20,20,22
participant_6_KILLS,0,0,0,0,0,0,0,0,0,0,0,0,0,0,0,0,0,0,0,0,0,0,0,0,0,0,0,0,0,0,0,0,1,1
participant_6_BUY,[],"[3854, 2003, 2003]",[],[],[],"[1001, 1028]",[],[],[],"[3117, 1029, 2055, 2003]",[],[],"[3067, 2055, 3364]",[],[],[1031],[],[],"[3109, 1028]",[],[3801],"[3114, 2055]",[],[],[],[3107],[1028],[],[3024],[],[1029],[],[],[]
participant_6_SOLD,[],[],[],[2003],"[2003, 2010]",[],[],[],"[2010, 2010]",[1001],[2003],[],"[1028, 3340]","[3854, 2055]",[],[1029],[],[],"[3067, 1031]",[],"[1028, 3855]",[2055],[],[],[],"[3114, 3801]",[],[2055],[1028],[],[],[],[],[]
participant_6_UNDO,[],[],[],[],[],[],[],[],[],[],[],[],[],[],[],[],[],[],[],[],[],[],[],[],[],[],[],[],[],[],[],[],[],[]
participant_7_GOLD,500,500,562,842,1170,1559,1922,2407,2972,3320,3548,4149,4355,4855,5451,5974,6330,6668,6889,7095,7218,8490,8926,9899,10321,10960,11083,11721,12785,13906,14234,15041,16007,16566
participant_7_CURRENTGOLD,500,0,62,342,245,634,997,612,1177,1525,273,874,330,830,326,9,365,703,924,230,353,125,561,1534,356,996,318,246,261,1381,1709,2517,3483,3841
participant_7_LEVEL,1,1,1,3,3,5,6,6,6,7,7,8,8,9,9,10,10,10,11,11,11,12,12,12,12,13,13,13,15,15,15,16,16,16
participant_7_MINIONSKILLED,0,0,2,9,13,26,37,41,43,54,60,73,78,83,89,94,104,112,118,123,123,123,134,134,134,140,140,149,166,179,184,193,199,200
participant_7_KILLS,0,0,0,1,2,2,2,2,2,2,2,2,2,3,3,3,3,3,3,3,3,3,3,3,3,3,4,4,4,4,4,4,4,4
participant_7_BUY,[],"[1041, 2031, 3340]",[],[],"[3715, 1036, 2055]",[],[],[],"[3133, 2055, 2055]",[],[],[],[1412],[3047],[],[],"[3067, 1028, 1036]","[2055, 2055]",[],[],[],"[3071, 1029]",[],[],[],"[2420, 2055, 2055, 3364, 3340]",[],[],[],[],[3026],[],[],[]
participant_7_SOLD,[],[],[],[],[1041],[2055],[],[],[1036],[],[],[2055],"[3133, 3715]","[2422, 2055]",[],[],[],[2031],[3340],[3513],[],"[2055, 1028, 1036, 3067]",[2055],[],[],"[3340, 3364, 2055]",[2420],[],[],[],"[1029, 2421, 2055]",[],[],[]
participant_7_UNDO,[],[],[],[],[],[],[],[],[],[],[],[],[],[],[],[],[],[],[],[],[],[],[],[],[],[],[],[],[],[],[],[],[],[]
participant_8_GOLD,500,500,562,887,1477,1750,2123,2316,2990,3259,3944,4353,4602,5060,5566,6110,6639,6887,7010,7287,7664,8383,8647,9008,9330,9848,10020,10428,11204,11533,11826,12127,12716,12911
participant_8_CURRENTGOLD,500,0,62,387,977,175,548,741,15,284,969,1378,237,695,151,694,1224,1472,395,672,1048,68,332,693,116,633,305,714,189,519,812,417,1007,961
participant_8_LEVEL,1,1,1,2,3,3,4,5,5,5,6,7,7,8,8,8,9,9,9,10,10,11,12,12,12,13,13,13,15,15,16,16,16,16
participant_8_MINIONSKILLED,0,0,2,9,16,22,33,38,38,46,58,70,74,81,82,83,98,105,105,109,119,128,129,130,130,139,139,140,143,148,150,157,160,160
participant_8_KILLS,0,0,0,0,0,0,0,1,2,2,2,3,3,4,5,6,6,6,6,6,6,8,8,10,11,12,12,13,14,15,15,16,18,19
participant_8_BUY,[],"[1082, 2031]",[],[],"[1082, 2055]",[],[],"[1052, 1052]",[],[],"[3802, 3145]",[],"[1001, 3030]",[],[3191],[3108],[],[],[],[3157],[],[3136],[],[],[3151],[],[3020],[1026],[3041],[],[],[],[],[]
participant_8_SOLD,[],[],[],[2010],[],[2055],[2010],[2010],[],[],"[1052, 1052]",[],"[3802, 3145]",[],[],[2031],[],[],[],"[3191, 3108]",[],[],[],[],[3136],[],[1001],[1082],[1082],[],[],[],[],[]
participant_8_UNDO,[],[],[],[],[],[],[],[],[],[],[],[],[],[],[],[],[],[],[],[],[],[],[],[],[],[],[],[],[],[],[],[],[],[]
participant_9_GOLD,500,500,564,800,1030,1228,1383,1668,2089,2331,2650,2805,3053,3264,3544,3759,4118,4343,4483,4756,4986,5464,5625,5916,6106,6297,6487,6667,7158,7394,7580,7785,8449,8672
participant_9_CURRENTGOLD,500,0,64,300,530,28,183,468,889,6,325,480,253,464,744,459,818,1043,183,456,436,39,200,491,681,222,12,192,63,299,185,390,1054,997
participant_9_LEVEL,1,1,1,2,3,3,4,4,5,5,6,6,7,7,8,8,9,9,9,9,9,10,11,11,11,11,11,12,12,13,13,13,14,14
participant_9_MINIONSKILLED,0,0,2,3,6,7,8,8,8,13,15,16,19,20,20,20,22,23,23,26,27,27,28,28,28,28,28,30,30,31,31,32,32,33
participant_9_KILLS,0,0,0,0,1,1,1,1,3,3,4,4,4,4,4,5,5,5,5,5,5,5,5,5,5,5,5,5,5,5,5,5,5,5
participant_9_BUY,[],"[1055, 2003, 3340]",[],[],[],"[1037, 1004, 2055]",[],[],[3004],[],[],[],"[3134, 1036]",[],"[3133, 1029]",[],[],[],"[3047, 3142, 3363]",[],[],"[3086, 1042]",[],[],[3094],[],[2140],[],[1038],[],[],[1037],[],[]
participant_9_SOLD,[],[],[],[],[],[],[],[2003],"[2010, 1004, 1037]",[],[2055],[],"[2010, 2010]",[],[1036],[],[],[],"[1029, 2422, 3133, 3134, 3340]",[],[],[],[3004],[],"[3086, 1042]",[],[2140],[],[],[],[],[1055],[],[]
participant_9_UNDO,[],[],[],[],[],[],[],[],[],[],[],[],[],[],[],[],[],[],[],[],[],[],[],[],[],[],[],[],[],[],[],[],[],[]
team0_KILLS,0,0,0,0,1,1,1,2,4,5,5,6,7,8,8,9,9,9,12,14,14,14,14,16,16,16,21,21,21,21,22,22,22,22
team0_CURRENTGOLD,2500,0,481,1721,2522,3316,3256,1514,2303,3095,3864,3205,4813,1357,2141,3823,4625,2892,5659,4292,4918,4858,3420,4978,3013,2440,7094,3496,1720,2461,2289,3697,4557,3627
team0_TOTALGOLD,2500,2500,2981,4296,5897,7291,8811,10354,12343,14110,15929,17970,21153,23127,24611,26893,28675,30817,34617,36570,37821,39876,41157,43616,44750,45928,50581,52133,53377,54876,56704,58114,58972,59225
team0_LEVEL,5,5,6,12,14,19,22,25,28,30,34,35,39,41,42,44,47,49,52,54,55,57,59,59,59,61,65,65,66,67,69,69,70,70
team0_SBIRES,0,0,12,41,57,88,114,143,167,185,222,242,269,292,316,349,380,407,441,451,466,498,503,516,530,542,559,565,575,599,614,639,648,649
team1_KILLS,0,0,0,1,3,3,3,4,7,7,8,10,10,13,14,16,17,18,18,18,18,20,20,22,25,26,27,28,30,31,33,34,37,38
team1_CURRENTGOLD,2500,0,405,2311,2288,1541,2911,2715,2614,2975,2599,5278,1740,3621,2653,3034,2958,4597,2618,2761,3812,318,1665,3450,3553,3124,1446,2143,2244,4555,3316,4588,7764,7917
team1_TOTALGOLD,2500,2500,2905,4811,6813,8141,9511,11085,13359,14845,16569,19248,20600,23281,26013,27735,30008,31737,32758,33801,35103,38816,40163,42397,45090,47110,48314,49795,53840,56227,58178,60144,63319,64725
team1_LEVEL,5,5,6,13,15,19,22,25,27,29,31,36,38,41,44,45,48,49,51,52,52,57,59,59,61,63,64,65,71,73,74,76,78,78
team1_SBIRES,0,0,10,36,54,83,111,139,147,185,211,257,275,304,326,332,370,397,409,423,446,461,486,487,495,514,519,532,553,585,600,624,638,645
delta_KILLS,0,0,0,-1,-2,-2,-2,-2,-3,-2,-3,-4,-3,-5,-6,-7,-8,-9,-6,-4,-4,-6,-6,-6,-9,-10,-6,-7,-9,-10,-11,-12,-15,-16
delta_CURRENTGOLD,0,0,76,-590,234,1775,345,-1201,-311,120,1265,-2073,3073,-2264,-512,789,1667,-1705,3041,1531,1106,4540,1755,1528,-540,-684,5648,1353,-524,-2094,-1027,-891,-3207,-4290
delta_TOTALGOLD,0,0,76,-515,-916,-850,-700,-731,-1016,-735,-640,-1278,553,-154,-1402,-842,-1333,-920,1859,2769,2718,1060,994,1219,-340,-1182,2267,2338,-463,-1351,-1474,-2030,-4347,-5500
delta_LEVEL,0,0,0,-1,-1,0,0,0,1,1,3,-1,1,0,-2,-1,-1,0,1,2,3,0,0,0,-2,-2,1,0,-5,-6,-5,-7,-8,-8
delta_SBIRES,0,0,2,5,3,5,3,4,20,0,11,-15,-6,-12,-10,17,10,10,32,28,20,37,17,29,35,28,40,33,22,14,14,15,10,4
