name,team0,team1
win,Fail,Win
firstBlood,False,True
firstTower,True,False
firstInhibitor,False,True
firstBaron,False,False
firstDragon,True,False
firstRiftHerald,True,False
towerKills,3,7
inhibitorKills,0,1
baronKills,0,0
dragonKills,2,1
riftHeraldKills,1,0
