name,team0,team1
win,Fail,Win
firstBlood,False,True
firstTower,True,False
firstInhibitor,True,False
firstBaron,False,False
firstDragon,False,False
firstRiftHerald,False,False
towerKills,2,4
inhibitorKills,2,2
baronKills,0,0
dragonKills,0,0
riftHeraldKills,0,0
