name,frame_0,frame_1,frame_2,frame_3,frame_4,frame_5,frame_6,frame_7,frame_8,frame_9,frame_10,frame_11,frame_12,frame_13,frame_14,frame_15,frame_16,frame_17,frame_18,frame_19,frame_20,frame_21
nameStamp,Tstart,Tearly,Tearly,Tearly,Tearly,Tearly,Tearly,Tearly,Tearly,Tearly,Tearly,Tearly,Tearly,Tearly,Tmid,Tmid,Tmid,Tmid,Tmid,Tmid,Tmid,Tmid
timestamp,0,60000,120008,180019,240037,300075,360081,420113,480118,540131,600155,660186,720191,780214,840243,900261,960269,1020281,1080284,1140300,1200302,1260302
participant_0_GOLD,500,500,520,775,1259,1438,1735,2008,2214,2399,2662,2943,3066,3188,3310,3433,3555,3678,3800,3922,4045,4076
participant_0_CURRENTGOLD,500,0,20,275,759,388,685,133,339,524,787,1068,1191,1313,1435,1558,1680,1803,1925,2047,2170,2201
participant_0_LEVEL,1,1,1,3,4,4,5,6,6,6,7,8,8,8,8,8,8,8,8,8,8,8
participant_0_MINIONSKILLED,0,0,0,7,16,19,30,36,41,45,53,59,59,59,59,59,59,59,59,59,59,59
participant_0_KILLS,0,0,0,0,0,0,0,0,0,0,0,0,0,0,0,0,0,0,0,0,0,0
participant_0_BUY,[],"[1036, 3340, 2003, 2003, 2003]",[],[],[],"[1028, 1053]",[],"[1036, 1036, 2003, 2055]",[],[],[],[],[],[],[],[],[],[],[],[],[],[]
participant_0_SOLD,[],[],[],[],[2003],[1036],[],[2003],[],[],"[2055, 2003]",[2003],[],[],[],[],[],[],[],[],[],[]
participant_0_UNDO,[],[],[],[],[],"[[0, 1028]]",[],[],[],[],[],[],[],[],[],[],[],[],[],[],[],[]
participant_1_GOLD,500,500,620,932,1533,1755,1908,2115,2277,2500,2772,2937,3059,3281,3631,3853,3976,4098,4276,4577,4745,4777
participant_1_CURRENTGOLD,500,0,120,432,1033,1255,158,365,527,750,122,287,409,631,81,303,426,548,726,1027,345,377
participant_1_LEVEL,1,1,2,3,3,3,3,4,4,4,5,6,6,6,6,7,7,7,7,8,8,8
participant_1_MINIONSKILLED,0,0,0,0,0,0,1,1,1,1,1,3,3,3,4,4,4,4,7,9,9,9
participant_1_KILLS,0,0,0,0,1,1,1,1,1,1,1,1,1,1,1,1,1,1,1,1,1,1
participant_1_BUY,[],"[1039, 2031, 3340]",[],[],[],[],"[3108, 1027]",[],[],[],[1402],[],[],[],[3108],[],[],[],[],[],[1026],[]
participant_1_SOLD,[],[],[],[],[],[],[],[],[],[],"[3108, 1027, 1039]",[],[],[],[],[],[],[],[],[],[],[]
participant_1_UNDO,[],[],[],[],[],[],[],[],[],[],[],[],[],[],[],[],[],[],[],[],[],[]
participant_2_GOLD,500,500,583,852,1176,1536,1715,1900,2238,2587,3185,3308,3697,3967,4417,4623,4781,5803,6289,6862,7176,7208
participant_2_CURRENTGOLD,500,0,83,352,676,1036,65,25,363,712,1310,133,522,792,1242,88,246,203,689,582,896,-92
participant_2_LEVEL,1,1,1,3,4,5,5,6,7,7,8,8,8,9,9,10,10,11,11,11,12,12
participant_2_MINIONSKILLED,0,0,3,11,20,31,35,39,49,59,67,67,79,88,97,102,104,104,105,105,110,110
participant_2_KILLS,0,0,0,0,0,0,0,0,0,0,1,1,1,1,1,1,1,2,3,4,4,4
participant_2_BUY,[],"[1056, 2003, 2003, 3340]",[],[],[],[],[3196],"[2031, 2055]",[],[],[],"[3197, 1001]",[],[],[],"[3198, 1052, 2055]",[],[3136],[],"[2420, 1029]",[],[3191]
participant_2_SOLD,[],[],[],[2003],[2003],[],[3200],[],[2055],[],[],[3196],[],[],[],[3197],[],[1052],[],"[1056, 2031]",[],"[1029, 2420]"
participant_2_UNDO,[],[],[],[],[],[],[],[],[],[],[],[],[],[],[],[],[],[],[],[],[],[]
participant_3_GOLD,500,500,543,719,855,1073,1208,1478,1852,1987,2163,2377,2822,2993,3163,3333,3474,3704,4030,4171,4357,4393
participant_3_CURRENTGOLD,500,0,43,219,55,273,333,603,677,362,188,402,847,493,663,108,249,479,806,346,232,268
participant_3_LEVEL,1,1,1,2,2,3,3,4,5,5,6,6,7,7,7,8,8,8,8,8,9,9
participant_3_MINIONSKILLED,0,0,1,3,3,5,5,10,12,12,14,15,20,21,22,23,23,24,26,26,26,26
participant_3_KILLS,0,0,0,0,0,0,0,0,0,0,0,0,0,0,0,0,0,0,0,0,0,0
participant_3_BUY,[],"[3858, 2003, 2003, 3340]",[],[],[1001],[],[2055],[],"[1029, 3364]","[1033, 1029, 3364]",[3105],[],[],"[1033, 2055]",[],"[3190, 2055]",[],[],[],[3117],[1029],[]
participant_3_SOLD,[],[],[],[],[2003],[],[],[2003],[3340],[3340],"[1033, 1029]","[3858, 2055]",[],[],[2055],"[3105, 1033]",[],"[2010, 2010, 2010]",[],[1001],[3859],[]
participant_3_UNDO,[],[],[],[],[],[],[],[],[],"[[3364, 0], [0, 1029]]",[],[],[],[],[],[],[],[],[],[],[],[]
participant_4_GOLD,500,500,597,887,1176,1508,1673,1896,2704,2890,3231,3520,4145,4358,4681,4957,5101,5557,5878,6203,6822,6867
participant_4_CURRENTGOLD,500,0,97,387,676,83,248,171,979,290,631,245,870,133,456,257,401,857,1178,403,1022,567
participant_4_LEVEL,1,1,1,2,3,4,4,4,5,5,6,7,7,8,8,9,9,9,10,10,10,10
participant_4_MINIONSKILLED,0,0,4,13,20,30,32,35,44,47,57,63,70,75,83,92,93,105,107,114,121,122
participant_4_KILLS,0,0,0,0,0,0,0,0,1,1,1,1,2,2,2,2,2,2,2,2,3,3
participant_4_BUY,[],"[1055, 2003, 3340]",[],[],[],"[3070, 2055]",[],[1001],[],[1037],[],[3004],[],"[3158, 1036]",[],"[1028, 2055]",[],[],[],"[3044, 1042, 1042]",[],[3101]
participant_4_SOLD,[],[],[],[],[],[],"[2055, 2003]",[],[],[],[],"[3070, 1037]",[],[1001],[],[],[],[2055],[],"[1028, 1036]",[],"[1042, 1042]"
participant_4_UNDO,[],[],[],[],[],[],[],[],[],[],[],[],[],[],[],[],[],[],[],[],[],[]
participant_5_GOLD,500,500,590,817,1190,1431,1774,2356,2715,3036,3447,3957,4562,4938,5205,5583,6569,6978,7562,7914,8611,8643
participant_5_CURRENTGOLD,500,0,90,317,690,206,549,731,390,711,1122,182,787,1163,255,633,1619,503,1087,339,1036,1068
participant_5_LEVEL,1,1,1,2,4,4,5,6,7,8,8,9,9,10,10,11,11,11,12,12,13,13
participant_5_MINIONSKILLED,0,0,4,10,22,26,36,44,55,63,70,84,92,100,105,112,124,124,127,129,133,133
participant_5_KILLS,0,0,0,0,0,0,0,1,1,1,1,1,2,2,2,2,3,4,5,5,7,7
participant_5_BUY,[],"[1036, 1006, 2031, 3340]",[],[],[],"[1036, 1001, 2055]",[],[3134],"[1036, 1036]",[],[],"[3142, 1036, 3363]",[],[],"[3134, 1036, 2055]",[],[],"[3147, 2055]",[],[3134],[],[]
participant_5_SOLD,[],[],[],[],[],[],[],"[1036, 1036]",[],[],[],"[1036, 1036, 3134, 3340, 2055]",[],[],[1036],[],[],"[3134, 1036]",[],[],[],[]
participant_5_UNDO,[],"[[0, 1006]]",[],[],[],[],[],[],[],[],[],[],[],[],[],[],[],[],[],[],[],[]
participant_6_GOLD,500,500,590,873,1032,1441,1770,2268,2655,3545,3829,4433,4640,5810,6091,6712,7430,7847,8360,8927,9498,9656
participant_6_CURRENTGOLD,500,0,90,373,132,541,870,1368,405,1295,479,1083,340,1510,341,962,760,327,840,1407,270,68
participant_6_LEVEL,1,1,1,3,3,5,6,6,7,8,9,10,10,10,11,11,12,12,13,13,13,13
participant_6_MINIONSKILLED,0,0,4,13,15,30,39,42,55,65,74,84,89,103,108,119,131,131,137,144,145,145
participant_6_KILLS,0,0,0,0,0,0,0,1,1,2,2,3,3,3,3,4,4,5,6,6,6,6
participant_6_BUY,[],"[1054, 3340, 2003]",[],[],"[1001, 2003, 2003]",[],[],[],"[3044, 2003, 2003]",[],"[3067, 1033, 1029]",[],[3071],[],"[3057, 1028]",[],"[3047, 1042, 1042]","[3101, 1036]",[],[],"[3078, 1037]",[]
participant_6_SOLD,[],[],[],[2003],[],[],[],"[2003, 2003]","[2003, 2003]",[],[],[],"[3044, 3067, 1054]",[],[],[],"[1001, 1029, 1054]","[1042, 1042]",[],[],"[3101, 3057, 1028, 1036]",[]
participant_6_UNDO,[],[],[],[],[],[],[],[],[],[],"[[0, 1033]]",[],"[[1054, 0]]",[],[],[],[],[],[],[],[],[]
participant_7_GOLD,500,500,583,968,1260,1396,1958,2600,2722,3092,3637,4108,4384,4619,5208,5777,7633,7855,8449,8773,9036,9137
participant_7_CURRENTGOLD,500,0,83,468,760,71,633,1275,47,417,962,233,209,369,958,727,2583,495,1089,23,286,387
participant_7_LEVEL,1,1,1,2,3,3,4,5,5,6,6,7,7,8,8,9,10,10,11,11,11,11
participant_7_MINIONSKILLED,0,0,3,16,26,27,35,42,42,53,60,62,70,73,79,83,98,98,108,109,109,114
participant_7_KILLS,0,0,0,0,0,0,1,2,2,2,2,3,3,3,4,5,8,8,8,8,8,8
participant_7_BUY,[],"[1055, 2003, 3340]",[],[],[],"[2015, 2003, 2055]",[],[],"[1038, 2003]",[],[],[3095],[1001],[2055],[],[3006],[],"[1037, 1043, 1052]",[],"[3124, 1042, 3363, 1042]",[],[]
participant_7_SOLD,[],[],[],[2003],[],[2055],[],[2003],[],[],[2003],"[1038, 2015]",[],[2055],[],[1001],[],[],[],"[1052, 1043, 1037, 3340]",[],[]
participant_7_UNDO,[],[],[],[],[],[],[],[],[],[],[],[],[],[],[],[],[],[],[],[],[],[]
participant_8_GOLD,500,500,522,731,927,1147,1432,1746,2019,2234,2898,3114,3539,3809,3950,4238,4895,5122,5562,5941,6132,6168
participant_8_CURRENTGOLD,500,0,22,231,77,297,582,896,319,534,1198,279,704,974,375,663,1320,1547,437,816,157,193
participant_8_LEVEL,1,1,1,2,3,3,4,5,5,6,6,7,7,8,8,8,9,9,9,9,9,9
participant_8_MINIONSKILLED,0,0,0,0,0,3,3,3,9,11,11,11,13,15,15,17,20,23,23,25,25,25
participant_8_KILLS,0,0,0,0,0,0,0,0,0,0,1,1,1,1,1,1,1,1,2,2,2,2
participant_8_BUY,[],"[3850, 2003, 2003, 3340]",[],[],[1082],[],[],[],[1026],[],[],"[1052, 1028, 1001, 3364]",[],[],"[3136, 2055]",[],[],[],"[3151, 3020]",[],[1026],[]
participant_8_SOLD,[],[],[],"[2003, 2003]",[],[],[],[],[],[],[3850],[3340],[],[],"[1028, 1052]",[2055],[],[3851],"[3136, 1026, 1001]",[],[],[]
participant_8_UNDO,[],[],[],[],[],[],[],[],[],[],[],[],[],[],[],[],[],[],[],[],[],[]
participant_9_GOLD,500,500,620,932,1346,1565,2188,2595,2832,3083,3655,3963,4370,4667,4790,5142,5727,5948,6156,6563,6735,6767
participant_9_CURRENTGOLD,500,0,120,432,846,290,913,1320,132,383,330,338,745,1042,65,417,1002,388,596,1003,300,332
participant_9_LEVEL,1,1,2,3,4,4,4,5,5,6,6,7,7,8,8,8,9,9,9,10,10,10
participant_9_MINIONSKILLED,0,0,0,0,0,0,0,0,0,1,1,1,1,1,1,2,4,5,5,5,5,5
participant_9_KILLS,0,0,0,0,0,0,1,1,1,1,2,2,2,2,2,2,2,2,2,2,2,2
participant_9_BUY,[],"[1041, 2003, 3340, 2003, 2003]",[],[],[],"[3715, 2055, 2003]",[],[],"[1043, 1001, 2003, 2055]",[],[1419],[1042],[],[],"[3006, 1042, 1042]",[],[],"[1043, 1052]",[],[],[1037],[]
participant_9_SOLD,[],[],[],"[2003, 2003, 2003]",[],"[1041, 2003]",[2055],[],[],[2003],"[1043, 3715]",[],"[2055, 3340]",[],"[1001, 1042]",[3513],[],"[1042, 1042]",[],[],[],[]
participant_9_UNDO,[],[],[],[],[],[],[],[],[],[],[],[],[],[],[],[],[],[],[],[],[],[]
team0_KILLS,0,0,0,0,1,1,1,1,2,2,3,3,4,4,4,4,4,5,6,7,8,8
team0_CURRENTGOLD,2500,0,363,1665,3199,3035,1489,1297,2885,2638,3038,2135,3839,3362,3877,2314,3002,3890,5324,4405,4665,3321
team0_TOTALGOLD,2500,2500,2863,4165,5999,7310,8239,9397,11285,12363,14013,15085,16789,17787,19202,20199,20887,22840,24273,25735,27145,27321
team0_LEVEL,5,5,6,13,16,19,20,24,27,27,32,35,36,38,38,42,42,43,44,45,47,47
team0_SBIRES,0,0,8,34,59,85,103,121,147,164,192,207,231,246,265,280,283,296,304,313,325,326
team1_KILLS,0,0,0,0,0,0,2,5,5,6,8,10,11,11,12,14,18,20,23,23,25,25
team1_CURRENTGOLD,2500,0,405,1821,2505,1405,3547,5590,1293,3340,4091,2115,2785,5058,1994,3402,7284,3260,4049,3588,2049,2048
team1_TOTALGOLD,2500,2500,2905,4321,5755,6980,9122,11565,12943,14990,17466,19575,21495,23843,25244,27452,32254,33750,36089,38118,40012,40371
team1_LEVEL,5,5,6,12,17,19,23,27,29,34,35,40,40,44,45,47,51,51,54,55,56,56
team1_SBIRES,0,0,11,39,63,86,113,131,161,193,216,242,265,292,308,333,377,381,400,412,417,422
delta_KILLS,0,0,0,0,1,1,-1,-4,-3,-4,-5,-7,-7,-7,-8,-10,-14,-15,-17,-16,-17,-17
delta_CURRENTGOLD,0,0,-42,-156,694,1630,-2058,-4293,1592,-702,-1053,20,1054,-1696,1883,-1088,-4282,630,1275,817,2616,1273
delta_TOTALGOLD,0,0,-42,-156,244,330,-883,-2168,-1658,-2627,-3453,-4490,-4706,-6056,-6042,-7253,-11367,-10910,-11816,-12383,-12867,-13050
delta_LEVEL,0,0,0,1,-1,0,-3,-3,-2,-7,-3,-5,-4,-6,-7,-5,-9,-8,-10,-10,-9,-9
delta_SBIRES,0,0,-3,-5,-4,-1,-10,-10,-14,-29,-24,-35,-34,-46,-43,-53,-94,-85,-96,-99,-92,-96
