name,frame_0,frame_1,frame_2,frame_3,frame_4,frame_5,frame_6,frame_7,frame_8,frame_9,frame_10,frame_11,frame_12,frame_13,frame_14,frame_15,frame_16,frame_17,frame_18,frame_19,frame_20,frame_21,frame_22,frame_23,frame_24,frame_25
nameStamp,Tstart,Tearly,Tearly,Tearly,Tearly,Tearly,Tearly,Tearly,Tearly,Tearly,Tearly,Tearly,Tearly,Tearly,Tearly,Tmid,Tmid,Tmid,Tmid,Tmid,Tmid,Tmid,Tmid,Tmid,Tend,Tend
timestamp,0,60014,120021,180035,240058,300070,360080,420093,480106,540117,600142,660151,720170,780185,840200,900216,960235,1020255,1080267,1140285,1200297,1260309,1320328,1380353,1440368,1500368
participant_0_GOLD,500,500,562,881,1183,1473,1834,2012,2462,2683,3470,3801,4150,5093,5622,6306,6704,6982,7411,7911,8109,8510,8633,8755,9101,9437
participant_0_CURRENTGOLD,500,0,62,381,58,348,709,287,737,208,245,576,925,868,97,381,779,207,636,1136,594,995,268,390,336,612
participant_0_LEVEL,1,1,1,3,4,5,6,6,7,7,8,9,9,10,10,11,11,11,12,13,13,13,13,13,13,14
participant_0_MINIONSKILLED,0,0,2,13,21,28,42,45,61,67,76,85,89,98,101,114,126,132,146,159,159,171,171,171,177,188
participant_0_KILLS,0,0,0,0,0,0,0,0,0,0,0,0,0,2,2,2,3,3,4,4,4,4,4,4,4,4
participant_0_BUY,[],"[1039, 3340, 2003, 2003, 2031]",[],[],"[1036, 1001]",[],[],[1028],[],[],[],[],"[6029, 3044, 3067, 6029]",[1029],[],[],[],"[3047, 6630, 3133, 1028]",[],"[3067, 1036]",[],[1053],[],[],[],[]
participant_0_SOLD,[],[],[],[],[],[],[],[],[1039],[],[],[],"[1028, 1036, 1028]",[],[],[],[],"[1001, 1029, 6029, 1036, 3067]",[],[1028],[],[1036],[],[],[],[]
participant_0_UNDO,[],"[[0, 2003], [0, 2003]]",[],[],[],[],[],[],[],[],[],[],"[[0, 3044], [0, 6029]]",[],[],[],[],[],[],"[[0, 3067]]",[],[],[],[],[],[]
participant_1_GOLD,500,500,725,1018,1298,1592,1849,2052,2434,2741,3187,3594,3875,4808,5582,5823,6367,6646,7069,7191,7409,7616,7738,7861,8033,8111
participant_1_CURRENTGOLD,500,0,225,518,148,442,699,502,884,1191,1637,2044,725,1358,2132,2373,2917,246,669,441,659,316,438,561,733,811
participant_1_LEVEL,1,1,2,3,3,4,4,5,5,6,6,7,8,8,8,9,9,10,10,10,10,11,11,11,11,11
participant_1_MINIONSKILLED,0,0,0,0,0,0,1,1,1,1,2,2,2,3,7,8,8,9,9,9,9,9,9,9,9,9
participant_1_KILLS,0,0,0,0,0,0,0,0,0,0,1,1,1,2,2,3,3,3,3,3,3,3,3,3,3,3
participant_1_BUY,[],"[1054, 2003, 3340]",[],[],"[1028, 2031, 2055]",[],[],[6660],[],"[1033, 1029]",[3105],[],[],"[3068, 1029]","[3047, 3076]",[1028],[],[3211],[],[],[3067],[],[3065],[],[1028],[]
participant_1_SOLD,[],[],[],[2003],[],[],[],[1028],[],[],"[1033, 1029]",[],"[3340, 2055]","[6660, 3105]","[3513, 1029, 2422]",[],[],[1028],[],[],[2031],[],"[3211, 3067]",[],[],[]
participant_1_UNDO,[],[],[],[],[],[],[],[],[],[],[],[],[],[],[],[],[],[],[],[],[],[],[],[],[],[]
participant_2_GOLD,500,500,582,717,941,1360,1590,1785,2000,2235,2420,2676,2836,3286,3870,4111,4433,4623,4819,4959,5099,5240,5470,5610,5801,5890
participant_2_CURRENTGOLD,500,0,82,217,91,510,230,100,315,185,370,226,161,611,395,236,558,748,19,159,299,90,320,461,651,740
participant_2_LEVEL,1,1,1,2,2,3,4,4,4,5,5,6,6,6,7,7,8,8,8,8,8,8,9,9,9,9
participant_2_MINIONSKILLED,0,0,0,0,0,2,5,5,6,7,8,8,8,8,8,9,10,10,10,10,10,10,11,11,11,11
participant_2_KILLS,0,0,0,0,0,0,0,0,0,0,0,0,0,0,0,0,0,0,0,0,0,0,0,0,0,0
participant_2_BUY,[],"[3850, 2003, 2003]",[],[],"[1001, 2003]",[],"[1052, 2055]","[1004, 2055]",[],"[4642, 3364]",[],[1028],"[2055, 2031]",[],[3047],[3067],[],[],"[6617, 2055]",[],[],[1082],[],[],[],[]
participant_2_SOLD,[],[],[],"[2003, 2003]",[],[2003],[2055],[],[],"[1004, 1052, 3340]","[2055, 3850]",[],[],[],[1001],"[1028, 2055]",[3851],[],"[3067, 4642]",[],[],[],[],[],[],[]
participant_2_UNDO,[],[],[],[],[],[],[],[],[],[],[],[],[],[],[],[],[],[],[],[],[],[],[],[],[],[]
participant_3_GOLD,500,500,562,818,1341,1854,2057,2347,2643,2892,3056,3814,4028,4271,4528,4734,5196,5723,5845,6093,6243,6708,7194,7316,7795,8172
participant_3_CURRENTGOLD,500,0,62,318,191,54,257,547,843,492,156,114,328,271,528,134,596,23,145,393,543,1008,1494,141,620,372
participant_3_LEVEL,1,1,1,2,2,3,4,5,5,6,6,6,7,7,7,8,9,9,9,9,10,10,11,11,11,12
participant_3_MINIONSKILLED,0,0,2,10,10,15,17,27,34,42,45,47,49,50,55,60,76,82,82,85,87,97,107,107,110,110
participant_3_KILLS,0,0,0,0,1,2,2,2,2,2,2,3,3,3,3,3,3,3,3,3,3,3,3,3,3,3
participant_3_BUY,[],"[1055, 3340, 2003]",[],[],"[1036, 1036, 1042, 1036]",[6670],[],[],[],"[1037, 1001, 1042]",[3006],"[1042, 1042, 6677]",[],[1042],[],[1018],[],"[3124, 3363]",[],[],[],[],[],"[1037, 1018]",[],[6672]
participant_3_SOLD,[],[],[2003],[],[],"[1036, 1042]",[],[],[],[],"[1001, 1042]","[1042, 1042]",[],[],[],[],[],"[6677, 1018, 1042, 3340]",[],[],[],[],[],[],[],"[6670, 1018, 1037]"
participant_3_UNDO,[],[],[],[],"[[0, 1036], [0, 1036]]",[],[],[],[],"[[0, 1037]]",[],[],[],[],[],[],[],[],[],[],[],[],[],[],[],[]
participant_4_GOLD,500,500,576,832,1092,1340,1617,1938,2283,2688,3603,4534,4740,5046,5468,5865,6283,6483,6932,7069,8146,8596,9466,9741,9962,11254
participant_4_CURRENTGOLD,500,0,76,332,582,95,372,218,553,948,1863,2784,40,346,758,1155,1573,88,537,674,501,951,1821,781,1003,2354
participant_4_LEVEL,1,1,1,3,4,4,5,6,7,7,8,9,9,10,10,10,11,11,12,12,12,13,13,13,13,14
participant_4_MINIONSKILLED,0,0,3,11,17,24,33,42,51,64,72,81,86,92,103,110,119,121,133,134,140,155,164,169,172,173
participant_4_KILLS,0,0,0,0,0,0,0,0,0,0,1,2,2,2,2,2,2,2,2,2,3,3,4,4,4,6
participant_4_BUY,[],"[1056, 2003, 2003]",[],[],[],"[1001, 1052]",[],[3191],[],[],[],[],"[3006, 3020, 3802, 3363, 1026]",[],[],[],[],"[6655, 1052]",[],[],"[1058, 1058]",[],[],[4628],[],[]
participant_4_SOLD,[],[],[],[2003],"[2010, 2003]",[2010],[],"[2010, 1052]",[],[],[],[],"[1001, 1001, 3340]",[],[],[],[],"[3802, 1026]",[],[],[],[],[],"[1058, 1052]",[],[]
participant_4_UNDO,[],[],[],[],[],[],[],[],[],[],[],[],"[[0, 3006]]",[],[],[],[],[],[],[],"[[0, 1058]]",[],[],[],[],[]
participant_5_GOLD,500,500,562,769,1064,1298,1475,1873,2010,2340,3041,3352,3563,4169,4645,5327,5888,6354,6826,7553,8310,8607,8893,9961,10363,10702
participant_5_CURRENTGOLD,500,0,62,269,564,123,300,698,50,380,781,577,788,1394,170,852,213,679,1151,1878,35,257,543,1611,813,-98
participant_5_LEVEL,1,1,1,2,3,4,5,6,6,7,8,9,9,10,10,11,11,11,12,12,13,13,13,14,14,15
participant_5_MINIONSKILLED,0,0,2,7,14,18,23,38,39,50,57,65,70,85,92,104,109,113,113,121,121,127,128,132,132,135
participant_5_KILLS,0,0,0,0,1,3,3,3,3,3,3,4,5,5,5,5,5,6,6,7,10,10,11,12,12,12
participant_5_BUY,[],"[1055, 2003, 3340]",[],[],"[1042, 1042, 2055, 2003, 1036, 1036, 2055, 2003]",[],[],[],"[6670, 1053, 1001, 2055]",[],[],"[6673, 1036, 2055]",[],[3134],[],[],[],[],"[6676, 2055, 2055, 3363]",[],[],"[3123, 3047, 1036]",[],[],"[6609, 1037]",[]
participant_5_SOLD,[],[],[],[],[2003],[2003],[2055],[],"[1036, 1036]",[],[2055],"[6670, 1053]",[],[1036],[],[2055],[],[],"[3134, 3340]",[],[],"[1001, 1055, 2055, 2055, 2055]",[2055],[],"[3123, 1036]",[]
participant_5_UNDO,[],[],[],[],"[[0, 2003], [0, 2055], [0, 1042], [0, 1042]]",[],[],[],[],[],[],[],[],[],[],[],[],[],[],[],[],"[[2055, 0], [2055, 0]]",[],[],[],[]
participant_6_GOLD,500,500,620,943,1643,1899,2237,2854,3192,3820,4138,4430,4640,4991,5621,6546,7208,7946,9178,9571,9779,10302,10959,11667,12065,12453
participant_6_CURRENTGOLD,500,0,120,443,1143,299,637,1254,392,1020,138,430,640,291,911,1836,198,936,1218,1611,9,532,1189,1897,571,878
participant_6_LEVEL,1,1,2,3,4,5,5,6,6,7,8,8,9,9,10,11,11,12,12,13,13,14,14,15,15,15
participant_6_MINIONSKILLED,0,0,0,0,1,4,4,9,9,10,16,16,16,16,24,35,41,42,50,50,52,52,55,56,65,70
participant_6_KILLS,0,0,0,0,0,0,0,1,1,3,3,3,3,3,3,3,3,3,3,3,4,4,5,5,5,6
participant_6_BUY,[],"[1042, 1036, 2031, 3340]",[],[],"[1036, 2055]",[],[],"[3134, 1036, 1036, 2055]",[],[],[6692],[],"[1001, 2055]",[3117],[],[1036],[],[],"[3134, 2055]",[],[],[3142],"[1036, 1036]",[],[],[]
participant_6_SOLD,[],[],[],[],[],[],[2055],"[1036, 1036]",[],[],"[3134, 1036, 1036, 2055]",[],[],"[2055, 1001]",[],[],[],[],[1036],[],[2055],[3134],[],[],[],[]
participant_6_UNDO,[],"[[0, 1042]]",[],[],[],[],[],[],[],[],[],[],[],[],[],[],[],[],[],[],[],[],[],[],[],[]
participant_7_GOLD,500,500,583,818,1106,1424,1767,2308,2695,3591,3819,4129,4401,4629,5046,5169,5609,5959,6194,6806,7399,7951,8394,9031,9458,9855
participant_7_CURRENTGOLD,500,0,83,318,171,479,812,178,555,1451,279,579,466,24,441,214,654,1004,414,1026,1619,271,14,651,1078,1505
participant_7_LEVEL,1,1,1,3,3,4,5,6,7,8,8,8,9,9,10,10,10,11,11,11,12,13,13,14,14,14
participant_7_MINIONSKILLED,0,0,3,9,16,25,35,42,54,61,67,76,81,87,103,103,108,119,119,134,144,151,151,154,154,154
participant_7_KILLS,0,0,0,0,0,0,0,0,0,0,1,1,1,1,1,2,2,2,3,3,4,4,4,5,6,6
participant_7_BUY,[],"[1056, 2003, 2003]",[],[],[],"[1083, 2031, 2055]",[],[],"[1052, 1027]",[],[1001],[3802],[],[],"[3108, 3020]",[],[6653],[],[],[],[4637],[2055],[],[],"[3916, 1028]",[1026]
participant_7_SOLD,[],[],[],[],"[2003, 2003]",[],[2055],[],[],[],[],"[1052, 1027]",[],[],[1001],[],"[3802, 3108]",[],[],[],"[1083, 2031, 1056]",[],[2055],[],[],[]
participant_7_UNDO,[],[],[],[],[],[],[],[],[],[],[],[],[],[],[],[],[],[],[],[],[],[],[],[],[],[]
participant_8_GOLD,500,500,576,832,1415,2432,2659,3111,3387,3967,4368,4904,5637,5843,6231,6598,6877,7737,7985,8629,10026,10149,10820,11805,12023,12425
participant_8_CURRENTGOLD,500,0,76,332,90,1107,1334,1786,187,767,1168,79,812,268,656,1023,1302,2162,360,1004,2401,754,1425,2410,203,365
participant_8_LEVEL,1,1,1,2,2,4,5,5,6,6,7,7,8,8,9,9,9,10,10,11,11,11,12,13,13,13
participant_8_MINIONSKILLED,0,0,3,11,12,28,34,46,52,65,72,75,89,94,100,110,113,122,122,131,140,140,146,150,152,159
participant_8_KILLS,0,0,0,0,1,1,1,2,2,2,2,2,2,2,2,3,3,4,6,6,6,6,7,8,8,8
participant_8_BUY,[],"[1035, 2031, 3364]",[],[],[],[3134],[],[],"[1053, 1001]",[],[6692],[],[],"[1036, 1036]",[],[],[6676],[],"[1037, 2055]",[],"[3123, 3134]",[],[],[],"[6695, 1053]",[]
participant_8_SOLD,[],[3340],[],[],[],[],[],[],[],[1035],"[3134, 1053]",[],[],[],[],[],"[1036, 1036]",[],[],[3364],"[2031, 2055]",[],[],[3513],"[3134, 1037]",[]
participant_8_UNDO,[],[],[],[],[],[],[],[],[],[],[],[],[],[],[],[],[],[],[],[],[],[],[],[],[],[]
participant_9_GOLD,500,500,543,699,903,1386,1521,1744,1948,2372,2557,3125,3339,3795,3994,4218,4459,4849,5115,5301,5656,5812,6066,6786,6987,7212
participant_9_CURRENTGOLD,500,0,43,199,103,586,121,344,98,522,707,75,289,745,394,618,88,479,270,456,11,167,421,1141,242,437
participant_9_LEVEL,1,1,1,2,2,3,4,4,4,5,5,6,6,7,7,8,8,8,9,9,10,10,11,12,12,12
participant_9_MINIONSKILLED,0,0,1,2,2,5,5,6,7,10,12,18,18,19,22,23,23,25,25,25,26,27,27,29,29,29
participant_9_KILLS,0,0,0,0,0,0,0,0,0,0,0,1,1,2,2,2,2,2,2,2,2,2,2,2,2,2
participant_9_BUY,[],"[3858, 2003, 2003, 3340]",[],[],[1001],[],[3009],[],"[2031, 1029]",[],[],"[3105, 3364]",[],[],"[1028, 2055, 2055]",[],[3190],[],"[1028, 2055]",[],"[3067, 1028]",[],[],[],[3109],[]
participant_9_SOLD,[],[],[2003],"[2010, 2003]",[],[2010],[1001],[2010],[],[],[],"[1029, 3340]",[],[],[3858],[],"[2055, 1028, 3105]",[2055],[],[2055],[1028],[],[],[],"[1028, 3067, 3859]",[]
participant_9_UNDO,[],[],[],[],[],[],[],[],[],[],[],[],[],[],[],[],[],[],[],[],[],[],[],[],[],[]
team0_KILLS,0,0,0,0,1,2,2,2,2,2,4,6,6,9,9,10,11,11,12,12,13,13,14,14,14,16
team0_CURRENTGOLD,2500,0,507,1766,1070,1449,2267,1654,3332,3024,4271,5744,2179,3454,3910,4279,6423,1312,2006,2803,2596,3360,4341,2334,3343,4889
team0_TOTALGOLD,2500,2500,3007,4266,5855,7619,8947,10134,11822,13239,15736,18419,19629,22504,25070,26839,28983,30457,32076,33223,35006,36670,38501,39283,40692,42864
team0_LEVEL,5,5,6,13,15,19,23,26,28,31,33,37,39,41,42,45,48,49,51,52,53,55,57,57,57,60
team0_SBIRES,0,0,7,34,48,69,98,120,153,181,203,223,234,251,274,301,339,354,380,397,405,442,462,467,479,491
team1_KILLS,0,0,0,0,2,4,4,6,6,8,9,11,12,13,13,15,15,17,20,21,26,26,29,32,33,34
team1_CURRENTGOLD,2500,0,384,1561,2071,2594,3204,4260,1282,4140,3073,1740,2995,2722,2572,4543,2455,5260,3413,5975,4075,1981,3592,7710,2907,3087
team1_TOTALGOLD,2500,2500,2884,4061,6131,8439,9659,11890,13232,16090,17923,19940,21580,23427,25537,27858,30041,32845,35298,37860,41170,42821,45132,49250,50896,52647
team1_LEVEL,5,5,6,12,14,20,24,27,29,33,36,38,41,43,46,49,49,52,54,56,59,61,63,68,68,69
team1_SBIRES,0,0,9,29,45,80,101,141,161,196,224,250,274,301,341,375,394,421,429,461,483,497,507,521,532,547
delta_KILLS,0,0,0,0,-1,-2,-2,-4,-4,-6,-5,-5,-6,-4,-4,-5,-4,-6,-8,-9,-13,-13,-15,-18,-19,-18
delta_CURRENTGOLD,0,0,123,205,-1001,-1145,-937,-2606,2050,-1116,1198,4004,-816,732,1338,-264,3968,-3948,-1407,-3172,-1479,1379,749,-5376,436,1802
delta_TOTALGOLD,0,0,123,205,-276,-820,-712,-1756,-1410,-2851,-2187,-1521,-1951,-923,-467,-1019,-1058,-2388,-3222,-4637,-6164,-6151,-6631,-9967,-10204,-9783
delta_LEVEL,0,0,0,1,1,-1,-1,-1,-1,-2,-3,-1,-2,-2,-4,-4,-1,-3,-3,-4,-6,-6,-6,-11,-11,-9
delta_SBIRES,0,0,-2,5,3,-11,-3,-21,-8,-15,-21,-27,-40,-50,-67,-74,-55,-67,-49,-64,-78,-55,-45,-54,-53,-56
