name,frame_0,frame_1,frame_2,frame_3,frame_4,frame_5,frame_6,frame_7,frame_8,frame_9,frame_10,frame_11,frame_12,frame_13,frame_14,frame_15,frame_16,frame_17,frame_18,frame_19,frame_20,frame_21,frame_22,frame_23,frame_24,frame_25,frame_26,frame_27,frame_28,frame_29,frame_30,frame_31,frame_32,frame_33,frame_34,frame_35
nameStamp,Tstart,Tearly,Tearly,Tearly,Tearly,Tearly,Tearly,Tearly,Tearly,Tearly,Tearly,Tearly,Tearly,Tearly,Tearly,Tearly,Tearly,Tearly,Tmid,Tmid,Tmid,Tmid,Tmid,Tmid,Tmid,Tmid,Tmid,Tend,Tend,Tend,Tend,Tend,Tend,Tend,Tend,Tend
timestamp,0,60020,120047,180081,240104,300132,360154,420175,480190,540212,600229,660260,720279,780296,840318,900346,960366,1020395,1080422,1140447,1200471,1260494,1320515,1380537,1440553,1500583,1560613,1620636,1680659,1740687,1800713,1860744,1920767,1980772,2040800,2100800
participant_0_GOLD,500,500,598,923,1367,1850,2217,2475,2730,2922,3155,3299,3491,4124,4547,4802,5016,5328,5479,5950,6830,7042,7164,7288,7424,7597,8131,8253,8731,9380,9586,9708,9861,10206,10551,10673
participant_0_CURRENTGOLD,500,0,98,423,42,475,842,50,305,497,155,299,191,824,447,702,916,1228,246,642,1522,1734,331,135,271,444,528,100,578,1227,1433,61,138,483,379,290
participant_0_LEVEL,1,1,1,3,4,5,5,6,7,7,8,8,8,9,9,9,10,11,11,11,12,12,13,13,13,13,14,14,14,14,15,15,15,15,15,15
participant_0_MINIONSKILLED,0,0,4,16,17,27,31,37,42,46,49,50,54,63,63,70,76,84,86,98,106,107,107,107,108,108,115,115,128,132,137,137,138,147,156,157
participant_0_KILLS,0,0,0,1,1,1,1,1,1,1,1,1,2,2,3,3,4,4,5,5,5,5,5,5,5,6,6,6,6,6,6,6,6,6,6,6
participant_0_BUY,[],"[1055, 2003]",[],[],[],[],[],[],[],[3004],[],[],[],[],"[3009, 3134, 1036, 1036]",[],[],[3142],[1042],[2015],[],[1018],[],[],[3086],[],[],"[3094, 3134]",[],[],[1037],[3363],[],[3814],[1036],[]
participant_0_SOLD,[],[],[],[],[2010],[2010],[2003],[],[],[],[],[2010],[],[],[2422],[],[],"[1036, 1036, 3134]",[],[1042],[],[],[],[3004],[1018],[],[],"[3086, 2015, 1055]",[],[],[],[3340],[],"[1037, 3134]",[],[]
participant_0_UNDO,[],[],[],[],[],[],[],[],[],[],[],[],[],[],[],[],[],[],[],[],[],[],[],[],[],[],[],[],[],[],[],[],[],[],[],[]
participant_1_GOLD,500,500,663,963,2063,2560,2872,3144,3465,3633,4202,4614,4822,4974,5547,5769,5921,6490,6763,7290,8012,8235,8512,8908,9031,9203,9736,9858,10530,10827,11054,11295,11448,11668,11989,12097
participant_1_CURRENTGOLD,500,0,163,463,1563,2060,2372,419,440,608,1177,1589,162,314,272,419,571,1140,288,815,1537,160,437,834,106,278,811,383,1056,127,354,596,748,969,1290,1337
participant_1_LEVEL,1,1,2,3,4,5,5,6,6,6,7,8,8,8,9,9,9,10,10,11,11,12,12,12,12,12,13,13,14,14,14,15,15,15,15,15
participant_1_MINIONSKILLED,0,0,0,0,0,0,0,0,0,1,6,6,6,7,7,7,7,11,11,11,14,14,14,19,19,19,19,19,20,23,23,30,31,31,35,35
participant_1_KILLS,0,0,0,0,0,0,0,0,0,0,0,1,1,1,1,1,1,1,1,1,1,1,1,1,1,1,1,1,1,1,1,1,1,1,1,1
participant_1_BUY,[],"[3850, 2003, 2003, 3340]",[],[],[],[1052],[1029],[],[],[3108],[1029],[],[3191],[3157],[1001],[],[],[],[3020],[],[],[3108],"[3364, 2055, 2055]",[],[],[],[],[3174],[],[],"[1033, 2055, 2055]",[],[],[],[],[]
participant_1_SOLD,[],[],[],[],[],[2003],[],[2003],[],[1052],[],"[2419, 3850]","[1029, 1029]","[3191, 3108, 2423]",[],[],[],[],[1001],[3851],[],[],[3340],[2055],[],[],[2055],[3108],[],[],[],[],[2055],[],[],[]
participant_1_UNDO,[],[],[],[],[],[],[],[],[],[],[],[],[],[],[],[],[],[],[],[],[],[],[],[],[],[],[],[],[],[],[],[],[],[],[],[]
participant_2_GOLD,500,510,573,807,1155,1565,1921,2518,2676,3059,3750,4073,4448,4993,5405,5724,6293,6996,7132,7533,7831,8086,8307,8486,8757,9623,10075,10385,10781,11517,11739,12237,12400,12742,13017,13229
participant_2_CURRENTGOLD,500,10,73,307,145,554,911,1508,101,484,1175,1498,673,1218,1630,49,568,1271,1407,408,406,661,82,261,532,1398,1850,1471,1866,2602,224,723,885,1228,1503,1554
participant_2_LEVEL,1,1,1,3,4,5,6,7,7,7,8,9,9,10,10,11,11,12,12,12,12,12,13,13,13,13,14,14,15,15,15,15,15,16,16,16
participant_2_MINIONSKILLED,0,1,3,10,15,29,40,50,52,64,74,83,95,101,107,115,119,128,129,141,141,149,154,157,160,163,165,172,179,189,189,202,205,214,219,221
participant_2_KILLS,0,0,0,0,3,4,4,4,4,4,5,5,5,5,6,6,6,6,6,6,7,7,7,7,7,7,7,7,8,8,8,8,8,8,8,8
participant_2_BUY,[],"[1039, 2031, 3340]",[],[],[],[],[],"[3364, 2055, 1402]",[1001],[],[],[],"[3020, 1028, 1052]",[],[3145],[2055],[],[],"[3152, 2055]",[],[],[3916],[],[],[1026],[],[],[3165],[],"[1026, 1052]",[],[],[],[],[],[]
participant_2_SOLD,[],[],[],[],[],[],[],"[3340, 1039, 2055]",[],[],[],[],[1001],[],[1052],[],[2055],[],"[3145, 1028]",[],[],[],[],[2055],[],[],[],"[3916, 1026]",[],[2031],[],[],[],[],[],[]
participant_2_UNDO,[],[],[],[],[],[],[],[],[],[],[],[],[],[],[],[],[],[],[],[],[],[],[],[],[],[],[],[],[],[],[],[],[],[],[],[]
participant_3_GOLD,500,500,545,1168,1570,1888,2112,2502,2853,2982,3405,3918,4679,4982,5455,5808,6364,6631,7095,7465,7873,8026,8310,8600,8841,9860,10288,10731,10990,11327,11561,11684,11896,12159,12329,12472
participant_3_CURRENTGOLD,500,0,45,668,1070,1388,1612,2002,2353,82,505,1018,1779,2082,155,508,1064,231,395,365,773,126,410,700,341,1360,1789,811,1070,1407,767,889,1102,440,259,222
participant_3_LEVEL,1,1,1,2,3,4,4,5,6,6,7,7,8,8,9,9,10,10,10,11,11,11,11,12,12,13,13,14,14,14,14,14,14,15,15,15
participant_3_MINIONSKILLED,0,0,1,7,20,28,34,46,56,56,67,78,89,99,99,109,110,111,113,123,129,130,135,140,147,157,157,168,171,171,172,172,173,174,176,178
participant_3_KILLS,0,0,0,0,0,0,0,1,1,1,2,2,2,2,2,2,3,4,4,4,4,4,4,4,4,5,5,5,5,6,6,6,6,6,6,6
participant_3_BUY,[],"[2003, 1056, 2003, 3340]",[],[],"[1052, 2055]",[],[],[],"[3802, 1001, 1028]",[],[],[],[3916],[],[],[3285],"[3363, 2003]",[],[],[3165],[1029],[],[3020],[],[],[],[],[1026],[],[],"[3135, 3191]",[],[],[],[],[]
participant_3_SOLD,[],[],[2003],[2003],[],[],[],[],[1052],[2055],[2419],[],[1028],[],[],[3802],[3340],[],[2003],[3916],[],[],[1001],[],[],[],[],[1056],[],[],"[1026, 1029]",[],[],[],[],[2423]
participant_3_UNDO,[],[],[],[],[],[],[],[],[],[],[],[],[],[],[],[],[],[],[],[],[],[],[],[],[],[],[],[],[],[],[],[],[],[],[],[]
participant_4_GOLD,500,500,523,920,1099,1294,1457,1665,1860,1994,2217,2731,3146,3316,3642,3782,4175,4523,4679,4879,5223,5378,5518,5723,5872,6034,6474,6644,6785,7088,7297,7467,7633,7891,8122,8246
participant_4_CURRENTGOLD,500,0,23,420,599,359,222,430,625,294,217,731,646,166,192,332,725,1073,429,629,973,228,218,423,572,734,1174,145,285,588,197,368,533,792,1022,1146
participant_4_LEVEL,1,1,1,2,3,4,4,5,5,6,6,6,7,7,8,8,8,8,8,9,9,9,9,9,9,10,10,11,11,12,12,12,12,12,13,13
participant_4_MINIONSKILLED,0,0,0,1,1,1,2,3,3,3,5,7,7,7,7,7,8,8,8,10,12,13,13,17,17,18,18,19,19,22,22,23,25,28,29,29
participant_4_KILLS,0,0,0,0,0,0,0,0,0,0,0,0,0,1,2,2,2,2,2,2,3,3,3,3,3,3,3,3,3,4,4,4,4,4,4,4
participant_4_BUY,[],"[2003, 1055, 3340]",[],[],"[1036, 1028, 2055]",[2003],[],[3057],[],[],"[3044, 2055]",[],[1042],[],[3111],[],[],[],[3078],[2055],[],[],"[3105, 1036, 2055]","[1036, 3363]",[],[],[3123],[1053],[],[],[],"[3812, 2055]",[2055],[],[1033],[]
participant_4_SOLD,[],[],[],[2010],[2003],[],[2010],"[2010, 2003, 2055]",[],[],"[1028, 1036]",[2055],[],[],[2422],[],[],[],"[1042, 3057, 3044]",[],[2055],[],[],"[2055, 3340]",[],[],[1036],[1036],[],[],[],"[1055, 3105, 1053]",[2055],[2055],[],[]
participant_4_UNDO,[],[],[],[],[],[],[],[],[],[],[],[],[],[],[],[],[],[],[],[],[],[],[],[],[],[],[],[],[],[],[],[],[],[],[],[]
participant_5_GOLD,500,500,584,762,987,1221,1648,1896,2018,2514,2636,3387,3936,4301,4760,5165,5558,6409,7284,7511,8562,9088,9872,10324,10580,11425,11632,12179,12539,13190,13952,14199,14641,15293,15491,16153
participant_5_CURRENTGOLD,500,0,84,262,2,236,663,911,118,614,136,887,1436,361,20,425,818,359,1234,121,1172,1698,2482,259,515,1360,172,720,1079,880,818,414,857,1009,1206,1628
participant_5_LEVEL,1,1,1,2,3,4,5,6,6,7,7,9,9,10,10,11,11,12,12,12,13,13,14,14,14,14,15,15,15,16,16,16,17,17,17,18
participant_5_MINIONSKILLED,0,0,3,6,10,16,31,38,38,57,57,73,85,94,100,112,118,130,134,140,154,159,165,170,175,184,186,186,196,204,210,211,211,216,216,216
participant_5_KILLS,0,0,0,0,0,0,0,0,0,0,0,1,1,1,1,1,1,1,2,2,4,5,6,6,6,7,7,8,8,9,10,10,11,11,11,12
participant_5_BUY,[],"[2003, 1054]",[],[],"[1052, 2003]",[],[],[],"[3108, 1042, 2031]",[],"[1042, 1001]",[],[],[3115],[3111],[],[],"[3067, 1052, 2055, 3363]",[],"[3152, 2055]",[],[],[],"[3116, 2055]",[],[],"[3136, 2055]",[],[],[1026],"[3151, 2055]",[2420],[],[2138],[],[]
participant_5_SOLD,[],[],[],[],[2003],[],[],[2003],[1052],[],[],[],[],"[2031, 1042, 1042, 3108]",[1001],[],[3340],"[3513, 3340]",[2055],"[1052, 3067]",[2055],[],[],[],[2055],[],[1054],[2055],[],[],"[3136, 1026]",[2055],[],[2138],[],[2420]
participant_5_UNDO,[],[],[],[],[],[],[],[],[],[],[],[],[],[],[],[],[],[],[],[],[],[],[],[],[],[],[],[],[],[],[],[],[],[],[],[]
participant_6_GOLD,500,500,621,1118,1376,1895,2238,2550,3245,3688,4165,4485,4692,5239,5412,5783,5906,6478,6953,7381,7881,8128,8441,9384,10065,10211,10505,11038,11696,11971,12686,13030,13394,13987,14208,15144
participant_6_CURRENTGOLD,500,0,121,618,176,695,1038,225,920,1363,190,510,717,1264,4,375,48,620,1095,423,923,1170,543,36,717,63,282,815,1473,74,788,77,442,34,256,826
participant_6_LEVEL,1,1,2,3,4,4,5,5,6,7,8,8,8,9,9,9,9,10,10,11,11,12,12,13,13,13,14,14,15,15,16,16,16,17,17,17
participant_6_MINIONSKILLED,0,0,0,0,0,0,0,0,6,6,8,8,8,8,8,9,9,9,12,12,13,13,13,13,13,14,15,17,26,31,36,40,42,44,47,54
participant_6_KILLS,0,0,0,0,0,1,1,1,2,2,3,3,3,4,4,4,4,5,5,5,5,5,5,6,7,7,7,7,7,7,8,8,8,8,8,10
participant_6_BUY,[],"[1039, 2031]",[],[],"[1001, 1028]",[],[],"[3057, 2055]",[],[],"[3044, 3111]",[],[],[],[3078],[],[1033],[],[],[3133],[],[],"[3105, 1036]","[3812, 1028]",[],[3211],[2055],[],[],"[3065, 2055]",[],"[1011, 1029]",[],"[1031, 2138]",[],[]
participant_6_SOLD,[],[],[],[],[],[],[],[],[],[],"[1028, 1001]",[],[2031],[],"[3057, 3044]",[2055],[],[],[],[],[],[],"[1033, 2031]","[3105, 1036, 3133]",[],[1028],[],[],[2055],[3211],[2055],[1039],[],"[1029, 2138]",[],[]
participant_6_UNDO,[],[],[],[],[],[],[],[],[],[],[],[],"[[2031, 0]]",[],[],[],[],[],[],[],[],[],[],[],[],[],[],[],[],[],[],[],[],[],[],[]
participant_7_GOLD,500,500,612,804,1102,1399,1749,2732,3067,3430,3552,3946,4314,4707,4947,5370,5542,5906,6078,6320,6442,6990,7859,8360,8702,9227,9575,9979,10458,10601,10894,11195,11551,12173,12445,12916
participant_7_CURRENTGOLD,500,0,112,304,327,624,974,1957,152,515,7,401,319,362,477,900,1072,451,158,400,122,670,1014,1515,637,72,420,824,53,197,489,790,1147,1303,1576,1766
participant_7_LEVEL,1,1,1,3,4,5,6,7,7,8,8,8,9,10,10,10,11,11,11,11,11,12,13,13,13,14,14,14,15,15,15,15,15,16,16,17
participant_7_MINIONSKILLED,0,0,5,9,19,27,37,46,50,61,61,74,85,96,98,112,115,117,117,124,124,142,151,152,155,157,157,163,175,176,178,181,187,188,193,197
participant_7_KILLS,0,0,0,0,0,0,0,0,0,0,0,0,0,0,1,1,1,1,1,1,1,1,1,1,1,1,1,1,1,1,1,1,1,1,1,1
participant_7_BUY,[],"[3850, 2003, 2003, 3340]",[],"[2003, 1004]",[2003],[],[],[],"[1004, 3114, 2003, 2055, 3364]",[],[],"[1033, 1004, 1004, 1029, 1001, 2003]",[],[],[],"[3222, 2031, 2055]",[],[1052],[],[3113],[],[],"[3158, 2055]",[],[],[],[3114],[],[3504],[1082],[],[1052],[],[3108],[],[]
participant_7_SOLD,[],[],[],[2003],[2003],[],[2003],[],"[1004, 1004, 3340, 2055]",[],"[2003, 3850]",[],[2003],[],[2003],"[1004, 1004, 3114]",[],[],[],[1052],[3851],[],[1001],[],[],[],"[2031, 2055]",[],"[3114, 3113]",[],[],[2055],[],[1052],[],[]
participant_7_UNDO,[],[],[],[],[],[],[],[],[],[],[],"[[0, 1033], [0, 1029]]",[],[],[],[],[],[],[],[],[],[],[],[],[],[],[],[],[],[],[],[],[],[],[],[]
participant_8_GOLD,500,500,612,874,1169,1609,1980,2242,2476,2783,3146,3395,3580,3990,4966,5088,5365,5690,6340,6714,6836,7085,7318,7769,8526,8679,9347,9619,9805,9927,10300,10671,10823,11454,11731,12517
participant_8_CURRENTGOLD,500,0,112,374,669,1109,1480,1742,151,458,821,1070,380,790,541,213,490,415,1065,1439,141,390,323,474,1231,534,752,1024,510,132,506,876,278,360,636,1242
participant_8_LEVEL,1,1,1,2,3,4,5,5,6,6,7,7,7,8,8,8,9,9,9,10,10,10,10,11,11,11,11,12,12,12,13,13,13,14,14,14
participant_8_MINIONSKILLED,0,0,5,13,21,28,39,47,53,61,70,77,81,94,96,96,100,105,109,119,119,119,121,122,138,139,146,146,149,149,159,167,168,175,179,187
participant_8_KILLS,0,0,0,0,0,0,0,1,1,1,1,1,1,1,1,1,1,1,1,1,1,1,2,2,2,3,4,4,4,4,4,4,4,4,4,4
participant_8_BUY,[],"[2003, 2003, 1056, 3340]",[],[],"[2031, 1004]",[],[],[],"[3802, 1052, 1052]",[],"[3145, 1033]",[],[3030],[3111],[1004],[],[],"[3028, 1052]","[3108, 3363]",[],[3174],[],"[1052, 2055, 2055]",[],[1058],[1058],[],[],"[3089, 2055, 2055]",[],[],[],[],[3108],[],[]
participant_8_SOLD,[],[],[2003],"[2010, 2003]",[],[],[],[2010],[2010],[],"[1052, 1052]",[],"[3802, 3145]","[1033, 2422]",[],[],[],"[1004, 1004]","[1052, 3340]",[],"[3108, 3028]",[],[2031],[2055],[2055],[1056],[],[],"[1058, 1058]",[],[],[],[2055],[1052],[2055],[]
participant_8_UNDO,[],[],[],[],[],[],[],[],[],[],[],[],[],[],[],[],[],[],[],[],[],[],[],[],[],[],[],[],[],[],[],[],[],[],[],[]
participant_9_GOLD,500,500,523,717,897,1106,1301,1495,1629,1789,2093,2264,2455,2625,3401,3551,3782,3972,4252,4423,4647,4937,5078,5457,5662,5921,6277,6497,6668,6808,7012,7228,7398,7902,8212,8680
participant_9_CURRENTGOLD,500,0,23,42,172,381,576,770,104,264,568,139,330,501,1276,151,382,137,418,173,397,687,153,532,737,997,612,832,353,143,348,158,328,367,677,1055
participant_9_LEVEL,1,1,1,2,3,3,4,4,5,5,6,6,6,7,7,8,8,8,8,8,9,10,10,10,10,11,11,11,12,12,12,12,13,14,14,14
participant_9_MINIONSKILLED,0,0,0,0,0,0,0,0,0,1,1,1,2,2,2,3,4,4,4,5,5,5,5,5,6,8,9,10,11,11,12,13,14,18,19,19
participant_9_KILLS,0,0,0,0,0,0,0,0,0,0,0,0,0,0,2,2,2,2,3,3,3,3,3,3,3,3,4,4,4,4,4,4,4,4,4,5
participant_9_BUY,[],"[1055, 2003, 3340]",[],[],[],[],[],[],"[1038, 1001, 2003, 2003, 2003, 2055]",[],[],[],[1037],[],[3031],"[1042, 2003, 2003, 2003]",[],"[2015, 3363]",[],[],"[3111, 1018]",[],[1042],[3086],[],"[3094, 1036]",[3123],[],"[1036, 1036]",[2140],[],[],[3035],[3033],[],[]
participant_9_SOLD,[],[],[],[],[],[],[2003],[],[],[2055],[],[2003],[],[2003],"[2003, 1038, 1037]",[],"[2003, 2003]","[1042, 3340]",[2003],[],"[1001, 1055]",[],[],"[1018, 1042]",[],"[3086, 2015]",[1036],[],[],[2140],[],[],"[1036, 1036]","[3035, 3123]",[],[]
participant_9_UNDO,[],[],[],[],[],[],[],[],[],[],[],[],[],[],[],[],[],[],[],[],[],[],[],[],[],[],[],[],[],[],[],[],[],[],[],[]
team0_KILLS,0,0,0,1,4,5,5,6,6,6,8,9,10,11,14,14,16,17,18,18,20,20,20,20,20,22,22,22,23,25,25,25,25,25,25,25
team0_CURRENTGOLD,2500,10,402,2281,3419,4836,5959,4409,3824,1965,3229,5135,3451,4604,2696,2010,3844,4943,2765,2859,5211,2909,1478,2353,1822,4214,6152,2910,4855,5951,2975,2637,3406,3912,4453,4549
team0_TOTALGOLD,2500,2510,2902,4781,7254,9157,10579,12304,13584,14590,16729,18635,20586,22389,24596,25885,27769,29968,31148,33117,35769,36767,37811,39005,39925,42317,44704,45871,47817,50139,51237,52391,53238,54666,56008,56717
team0_LEVEL,5,5,6,13,18,23,24,29,31,32,36,38,40,42,45,46,48,51,51,54,55,56,58,59,59,61,64,66,68,69,70,71,71,73,74,74
team0_SBIRES,0,1,8,34,53,85,107,136,153,170,201,224,251,277,283,308,320,342,347,383,402,413,423,440,451,465,474,493,517,537,543,564,572,594,615,620
team1_KILLS,0,0,0,0,0,1,1,2,3,3,4,5,5,6,9,9,9,10,12,12,14,15,17,18,19,21,23,24,24,25,27,27,28,28,28,32
team1_CURRENTGOLD,2500,0,452,1600,1346,3045,4731,5605,1445,3214,1722,3007,3182,3278,2318,2064,2810,1982,3970,2556,2755,4615,4515,2816,3837,3026,2238,4215,3468,1426,2949,2315,3052,3073,4351,6517
team1_TOTALGOLD,2500,2500,2952,4275,5531,7230,8916,10915,12435,14204,15592,17477,18977,20862,23486,24957,26153,28455,30907,32349,34368,36228,38568,41294,43535,45463,47336,49312,51166,52497,54844,56323,57807,60809,62087,65410
team1_LEVEL,5,5,6,12,17,20,25,27,30,33,36,38,39,44,44,46,48,50,50,52,54,57,59,61,61,63,65,66,69,70,72,72,74,78,78,80
team1_SBIRES,0,0,13,28,50,71,107,131,147,186,197,233,261,294,304,332,346,365,376,400,415,438,455,462,487,502,513,522,557,571,595,612,622,641,654,673
delta_KILLS,0,0,0,1,4,4,4,4,3,3,4,4,5,5,5,5,7,7,6,6,6,5,3,2,1,1,-1,-2,-1,0,-2,-2,-3,-3,-3,-7
delta_CURRENTGOLD,0,10,-50,681,2073,1791,1228,-1196,2379,-1249,1507,2128,269,1326,378,-54,1034,2961,-1205,303,2456,-1706,-3037,-463,-2015,1188,3914,-1305,1387,4525,26,322,354,839,102,-1968
delta_TOTALGOLD,0,10,-50,506,1723,1927,1663,1389,1149,386,1137,1158,1609,1527,1110,928,1616,1513,241,768,1401,539,-757,-2289,-3610,-3146,-2632,-3441,-3349,-2358,-3607,-3932,-4569,-6143,-6079,-8693
delta_LEVEL,0,0,0,1,1,3,-1,2,1,-1,0,0,1,-2,1,0,0,1,1,2,1,-1,-1,-2,-2,-2,-1,0,-1,-1,-2,-1,-3,-5,-4,-6
delta_SBIRES,0,1,-5,6,3,14,0,5,6,-16,4,-9,-10,-17,-21,-24,-26,-23,-29,-17,-13,-25,-32,-22,-36,-37,-39,-29,-40,-34,-52,-48,-50,-47,-39,-53
