name,team0,team1
win,Fail,Win
firstBlood,False,True
firstTower,True,False
firstInhibitor,False,True
firstBaron,False,True
firstDragon,False,True
firstRiftHerald,False,True
towerKills,8,11
inhibitorKills,1,4
baronKills,0,1
dragonKills,2,3
riftHeraldKills,0,2
