name,frame_0,frame_1,frame_2,frame_3,frame_4,frame_5,frame_6,frame_7,frame_8,frame_9,frame_10,frame_11,frame_12,frame_13,frame_14,frame_15,frame_16,frame_17,frame_18,frame_19,frame_20,frame_21,frame_22,frame_23
nameStamp,Tstart,Tearly,Tearly,Tearly,Tearly,Tearly,Tearly,Tearly,Tearly,Tearly,Tearly,Tearly,Tmid,Tmid,Tmid,Tmid,Tmid,Tmid,Tmid,Tmid,Tmid,Tmid,Tend,Tend
timestamp,0,60024,120055,180058,240085,300112,360120,420146,480175,540205,600205,660222,720228,780233,840247,900257,960261,1020290,1080311,1140320,1200347,1260362,1320389,1380389
participant_0_GOLD,500,500,584,881,1573,1864,2662,3351,3593,4108,4573,5612,5931,6173,7511,8257,8754,9176,9776,10262,10558,11232,11924,12180
participant_0_CURRENTGOLD,500,0,84,381,548,839,1637,126,368,883,1348,2387,456,348,1686,2432,329,751,1351,117,414,1087,1780,1855
participant_0_LEVEL,1,1,1,3,3,4,6,6,7,8,8,9,9,10,11,11,12,12,13,13,13,14,14,15
participant_0_MINIONSKILLED,0,0,3,13,17,24,43,52,58,75,85,96,104,111,122,134,149,162,179,180,186,197,214,215
participant_0_KILLS,0,0,0,0,0,0,0,0,1,1,1,1,1,1,1,2,2,2,3,4,4,4,6,7
participant_0_BUY,[],"[2033, 3340]",[],[],[],"[1082, 1001, 2055]",[],"[1052, 1004]",[],"[4642, 3067]",[],[],[],[4005],[1033],[],"[3111, 1026, 3363]",[],[],[],[3116],[],[],[]
participant_0_SOLD,[],[],[],[],[],[],[],[],[2055],"[1004, 1052]",[],[],[],"[3067, 4642]",[],[],"[1001, 1033, 3340]",[],[],[],[1026],[],[],[]
participant_0_UNDO,[],[],[],[],[],[],[],[],[],[],[],[],[],[],[],[],[],[],[],[],[],[],[],[]
participant_1_GOLD,500,500,698,1013,1565,1864,2152,2494,2617,2949,3171,4163,4482,4825,5336,5866,6268,6576,7048,8073,8371,8893,9464,9560
participant_1_CURRENTGOLD,500,0,198,513,1065,1364,177,519,267,599,821,1813,2132,250,761,1291,1693,226,698,1723,396,918,1489,875
participant_1_LEVEL,1,1,2,3,3,4,4,5,6,6,7,7,8,8,9,9,10,10,10,11,12,12,13,13
participant_1_MINIONSKILLED,0,0,0,0,1,1,1,1,1,1,1,2,4,6,7,10,10,10,17,19,19,20,24,24
participant_1_KILLS,0,0,0,0,0,0,0,0,0,0,0,0,0,0,0,0,0,0,0,0,0,0,0,0
participant_1_BUY,[],"[3854, 3340, 2003, 2003]",[],[],[1001],[],[],[],[],"[6660, 2055]",[],"[1029, 2055, 3364]",[],[],"[1033, 3111, 2055, 2055]",[],[1033],[],[],"[3068, 2055]",[],[],[],"[1028, 3066, 1029]"
participant_1_SOLD,[],[],[],[],[2003],[2003],[],[],[],[],[2055],"[3854, 3340]",[],[2055],"[1001, 1033]",[2055],[],[2055],[],"[6660, 1033, 1029]",[],[2055],[],[1028]
participant_1_UNDO,[],[],[],[],[],[],[],[],[],[],[],[],[],[],[],[],[],[],[],[],[],[],[],[]
participant_2_GOLD,500,500,591,885,1202,1541,1853,2150,2809,3186,3566,3961,4359,4635,4809,5548,5945,6248,6930,7617,7869,8546,9620,10285
participant_2_CURRENTGOLD,500,0,91,375,692,296,608,220,869,71,451,846,1234,660,384,1123,320,623,1305,1992,94,771,1845,2560
participant_2_LEVEL,1,1,1,3,4,5,6,6,7,8,8,9,9,10,10,10,11,11,11,12,12,13,13,14
participant_2_MINIONSKILLED,0,0,4,12,19,30,41,51,62,74,80,90,102,111,113,123,128,135,138,146,152,154,165,169
participant_2_KILLS,0,0,0,0,1,1,1,1,1,1,1,2,2,2,3,3,3,3,3,5,5,5,5,5
participant_2_BUY,[],"[1039, 2031, 3340, 1035, 2031, 3340, 3364]",[],[],[],[],"[1082, 3145, 2055]",[],"[1001, 2055]",[],[],[],[],"[4636, 2055]",[],[],[],"[3020, 3191, 2055]",[],[],"[3041, 1052]",[],[],"[2420, 3157, 2055, 2055]"
participant_2_SOLD,[],[3340],[],[],[],[],[],[2055],[],[],"[2055, 3364, 1035]",[3513],[],[3145],[2055],[],[],"[3364, 1001]",[3513],[],"[2031, 1082]",[2055],[],"[3191, 2420, 1052]"
participant_2_UNDO,[],"[[3340, 0], [0, 2031], [0, 1039]]",[],[],[],[],[],[],[],[],[],[],[],[],[],[],[],[],[],[],[],[],[],"[[0, 2055], [0, 2055], [0, 3157]]"
participant_3_GOLD,500,500,584,881,1288,1655,1904,2236,3003,3231,3656,4037,4307,4611,4734,5216,5463,5930,6561,6957,7100,7704,8152,8958
participant_3_CURRENTGOLD,500,0,84,381,788,1155,54,386,1153,331,756,1137,327,631,4,486,258,725,1356,1752,395,224,672,1458
participant_3_LEVEL,1,1,1,2,3,4,4,5,5,6,6,7,7,8,8,8,8,9,10,10,10,11,12,12
participant_3_MINIONSKILLED,0,0,3,13,27,38,46,58,66,72,87,95,100,110,110,114,114,129,137,143,144,150,154,156
participant_3_KILLS,0,0,0,0,1,1,2,3,3,3,3,3,3,3,5,5,5,5,5,5,5,5,5,5
participant_3_BUY,[],"[2033, 3340]",[],[],"[1055, 2055]",[],[],"[3044, 3057, 1028]",[],[],[],[],"[6632, 3111, 1036]","[1036, 1036]",[],[],[3071],[],[],"[1043, 1053]",[],[],[],[]
participant_3_SOLD,[],[],[],[],[],"[2055, 2010]",[],[2010],[],[],[],[2010],"[3044, 3057, 1028, 2422]",[],[],[],"[1036, 1036]",[],[],[1055],[],[],[],[]
participant_3_UNDO,[],[],[],[],[],[],[],[],[],[],[],[],[],"[[0, 1036]]",[],[],[],[],[],[],[],[],[],[]
participant_4_GOLD,500,500,523,713,862,1101,1323,1520,1894,2029,2276,2540,2724,2895,3335,3797,4083,4421,4895,5210,5394,5865,6289,6516
participant_4_CURRENTGOLD,500,0,23,213,62,301,523,720,1094,154,401,280,464,635,125,587,423,761,1235,25,209,680,1104,241
participant_4_LEVEL,1,1,1,2,3,3,4,5,5,5,6,6,6,7,7,8,8,8,9,9,9,10,10,11
participant_4_MINIONSKILLED,0,0,0,3,4,7,8,11,13,13,19,20,22,23,23,28,29,35,37,37,39,40,41,41
participant_4_KILLS,0,0,0,0,0,0,0,0,1,1,1,1,1,1,1,1,1,1,1,1,1,1,1,3
participant_4_BUY,[],"[1055, 2003]",[],[],[],[],"[3070, 3158, 2003]",[],[],"[3057, 1036]",[],[],"[3133, 1027]",[],[3004],[],"[1028, 2055]",[],[],[],"[3044, 3067, 3363]","[6632, 2055]",[],[]
participant_4_SOLD,[],[],[],[],[],[2003],[],[],[],[],[],[],"[1036, 2003]",[],"[3070, 3133, 1027]",[],[],[],[],[2055],"[1028, 3340]","[3004, 3044, 3057, 3067]",[],[]
participant_4_UNDO,[],[],[],[],[],[],[],[],[],[],[],[],[],[],[],[],[],[],[],[],[],[],[],[]
participant_5_GOLD,500,500,621,933,1195,1357,1557,1869,2176,2502,2719,2942,3064,3476,3998,4204,4512,4792,5067,5490,5914,6152,6324,6370
participant_5_CURRENTGOLD,500,0,121,433,695,157,357,669,151,477,694,167,289,701,223,429,737,1017,292,25,449,287,459,445
participant_5_LEVEL,1,1,2,3,3,3,4,4,5,6,6,6,6,7,7,8,8,8,9,9,9,9,10,10
participant_5_MINIONSKILLED,0,0,0,0,1,1,1,1,1,1,2,2,2,2,5,6,7,7,11,11,17,18,18,18
participant_5_KILLS,0,0,0,1,1,1,1,1,1,1,1,1,1,1,1,1,1,1,1,1,1,1,1,2
participant_5_BUY,[],[2033],[],[],"[1028, 1029, 2055]",[],[1001],[],[3047],[],[],[],[6660],[],[],[],[3105],[],[],[3068],[],[],[3076],[]
participant_5_SOLD,[],[],[],[],[],[],[],[],"[1001, 1029]",[],[],[],"[2055, 1028]",[],[],[],[],[],[],"[6660, 3105]",[],[],[],[]
participant_5_UNDO,[],[],[],[],[],[],[],[],[],[],[],[],[],[],[],[],[],[],[],[],[],[],[],[]
participant_6_GOLD,500,500,542,1239,1362,1547,1670,1813,2118,2241,2582,2808,2930,3220,3430,3861,4580,4786,5132,5292,5540,5978,6100,6446
participant_6_CURRENTGOLD,500,0,42,739,87,272,95,238,43,166,507,733,255,545,755,1186,405,611,957,417,665,1103,425,771
participant_6_LEVEL,1,1,1,3,3,4,4,4,5,5,6,7,7,8,8,9,9,10,10,10,11,11,11,12
participant_6_MINIONSKILLED,0,0,1,11,11,12,12,13,20,20,29,32,32,42,42,57,70,75,84,84,93,102,102,102
participant_6_KILLS,0,0,0,0,1,1,1,1,1,1,1,1,1,1,1,1,1,1,1,1,1,1,2,2
participant_6_BUY,[],"[3854, 3340, 2003, 2003]",[],[],[],[],[],"[3117, 2055]",[1029],[],[],[],"[3067, 2055, 3364]",[],[1033],[],[],[],[3105],[3190],[],[],[],[]
participant_6_SOLD,[],[],[],[],[2010],"[2003, 2003, 2010]",[],[],[2010],[2055],[],[3854],[3340],[],[],[],[2055],[],"[1033, 1029]","[3067, 3105]",[3855],[],[],[]
participant_6_UNDO,[],[],[],[],[],[],[],[],[],[],[],[],[],[],[],[],[],[],[],[],[],[],[],[]
participant_7_GOLD,500,500,626,864,1064,1249,1592,1861,2178,2499,2705,3008,3292,3540,4000,4201,4593,4787,5042,5202,5499,5693,5865,5911
participant_7_CURRENTGOLD,500,0,126,354,554,239,572,106,413,734,940,1233,272,520,400,601,993,1187,1442,812,1109,328,500,101
participant_7_LEVEL,1,1,1,3,4,4,5,6,7,7,8,8,9,9,9,10,10,10,11,11,12,12,12,12
participant_7_MINIONSKILLED,0,0,6,11,15,19,29,38,47,58,63,70,76,84,84,88,97,101,105,105,116,120,120,120
participant_7_KILLS,0,0,0,0,0,0,0,0,0,0,0,1,1,1,1,1,1,1,1,1,1,1,1,1
participant_7_BUY,[],"[1055, 2003, 3340]",[],[],[],[],[3134],[],[],[1053],[],[],"[6692, 1001, 2055]",[],[3009],[],[],"[1036, 1036, 3363]",[3134],[],[],[],"[1037, 1018]",[]
participant_7_SOLD,[],[],[],[2003],[],[],[],[],[],[],[],[],"[3134, 1053]",[],[1001],[],[],[3340],"[1036, 1036]",[],[],[],[2055],[]
participant_7_UNDO,[],[],[],[],[],[],[],[],[],[],[],[],[],[],[],[],[],[],[],[],[],[],[],[]
participant_8_GOLD,500,500,577,846,1347,1616,1872,2249,2573,2873,3177,3893,4200,4624,4784,5201,5607,5792,6017,6309,6723,7229,7585,7706
participant_8_CURRENTGOLD,500,0,77,346,847,1116,272,649,973,373,677,1393,125,549,109,526,932,417,242,534,948,1454,365,456
participant_8_LEVEL,1,1,1,2,3,4,4,5,5,6,6,7,7,7,8,8,9,9,9,9,10,10,11,11
participant_8_MINIONSKILLED,0,0,3,11,22,28,36,48,57,64,74,85,91,105,105,118,128,132,141,145,153,166,172,172
participant_8_KILLS,0,0,0,0,0,0,0,0,0,0,0,0,0,0,1,1,1,1,1,2,2,2,2,2
participant_8_BUY,[],"[1055, 1039, 3340, 2003, 2031]",[],[],[],"[1036, 1036]",[],[],"[3134, 1036, 2055, 3364]",[],[],[3133],[],[],[6691],[],[],[],"[1001, 1036, 1036]","[3134, 1036]",[],[1028],[],[]
participant_8_SOLD,[],[],[],[],[],[],[],[],"[1036, 1036, 3340]",[2055],[],[1036],[],[1039],"[3134, 3133]",[],[],[],[],"[1036, 1036, 2031]",[],[],[],[]
participant_8_UNDO,[],"[[0, 1055], [0, 2003]]",[],[],[],[],[],[],[],[],[],[],[],[],[],[],[],[],[],[],[],[],[],[]
participant_9_GOLD,500,500,523,699,1243,1454,1652,1807,1941,2239,2408,2799,3019,3293,3542,3788,4018,4214,4355,4548,4808,4979,5919,6047
participant_9_CURRENTGOLD,500,0,23,199,743,954,1152,232,66,364,533,924,269,543,342,588,818,1015,405,198,458,629,1569,1697
participant_9_LEVEL,1,1,1,2,3,4,4,5,5,6,6,7,7,8,8,8,8,9,9,9,10,10,10,10
participant_9_MINIONSKILLED,0,0,0,2,6,8,11,12,12,18,20,23,23,27,28,30,32,35,35,36,38,39,39,39
participant_9_KILLS,0,0,0,0,0,0,0,0,0,0,0,0,0,0,1,1,1,1,1,1,1,1,1,1
participant_9_BUY,[],"[1056, 2003, 2003, 3340]",[],[],[],"[1082, 2031]",[],"[1001, 1052]",[],[],[],[],"[3111, 1052, 3364]",[],"[3145, 1028]",[],[],[],[],[1026],[],"[3152, 2055]",[],[1052]
participant_9_SOLD,[],[],[],"[2003, 2003]",[],[],[],[],[],[],[],[],"[1001, 3340]",[],"[1052, 1052]",[],[],[],[],[2031],[],"[3145, 1028, 1026, 2055]",[],[]
participant_9_UNDO,[],[],[],[],[],[],[],[],[],[],[],[],[],[],[],[],[],[],[],[],[],[],[],[]
team0_KILLS,0,0,0,0,2,2,3,4,6,6,6,7,7,7,10,11,11,11,12,15,15,15,17,20
team0_CURRENTGOLD,2500,0,480,1863,3155,3955,2999,1971,3751,2038,3777,6463,4613,2524,2960,5919,3023,3086,5945,5609,1508,3680,6890,6989
team0_TOTALGOLD,2500,2500,2980,4373,6490,8025,9894,11751,13916,15503,17242,20313,21803,23139,25725,28684,30513,32351,35210,38119,39292,42240,45449,47499
team0_LEVEL,5,5,6,13,16,20,24,27,30,33,35,38,39,43,45,46,49,50,53,55,56,60,62,65
team0_SBIRES,0,0,10,41,68,100,139,173,200,235,272,303,332,361,375,409,430,471,508,525,540,561,598,605
team1_KILLS,0,0,0,1,2,2,2,2,2,2,2,3,3,3,5,5,5,5,5,6,6,6,7,8
team1_CURRENTGOLD,2500,0,389,2071,2926,2738,2448,1894,1646,2114,3351,4450,1210,2858,1829,3330,3885,4247,3338,1986,3629,3801,3318,3470
team1_TOTALGOLD,2500,2500,2889,4581,6211,7223,8343,9599,10986,12354,13591,15450,16505,18153,19754,21255,23310,24371,25613,26841,28484,30031,31793,32480
team1_LEVEL,5,5,6,13,16,19,21,24,27,30,32,35,36,39,40,43,44,46,48,48,52,52,54,55
team1_SBIRES,0,0,10,35,55,68,89,112,137,161,188,212,224,260,264,299,334,350,376,381,417,445,451,451
delta_KILLS,0,0,0,-1,0,0,1,2,4,4,4,4,4,4,5,6,6,6,7,9,9,9,10,12
delta_CURRENTGOLD,0,0,91,-208,229,1217,551,77,2105,-76,426,2013,3403,-334,1131,2589,-862,-1161,2607,3623,-2121,-121,3572,3519
delta_TOTALGOLD,0,0,91,-208,279,802,1551,2152,2930,3149,3651,4863,5298,4986,5971,7429,7203,7980,9597,11278,10808,12209,13656,15019
delta_LEVEL,0,0,0,0,0,1,3,3,3,3,3,3,3,4,5,3,5,4,5,7,4,8,8,10
delta_SBIRES,0,0,0,6,13,32,50,61,63,74,84,91,108,101,111,110,96,121,132,144,123,116,147,154
