name,frame_0,frame_1,frame_2,frame_3,frame_4,frame_5,frame_6,frame_7,frame_8,frame_9,frame_10,frame_11,frame_12,frame_13,frame_14,frame_15,frame_16,frame_17,frame_18,frame_19,frame_20,frame_21,frame_22,frame_23,frame_24,frame_25,frame_26,frame_27,frame_28,frame_29,frame_30,frame_31,frame_32
nameStamp,Tstart,Tearly,Tearly,Tearly,Tearly,Tearly,Tearly,Tearly,Tearly,Tearly,Tearly,Tearly,Tmid,Tmid,Tmid,Tmid,Tmid,Tmid,Tmid,Tmid,Tmid,Tmid,Tmid,Tmid,Tmid,Tmid,Tmid,Tmid,Tmid,Tmid,Tmid,Tmid,Tmid
timestamp,0,60024,120030,180053,240064,300097,360128,420137,480170,540201,600202,660210,720236,780241,840261,900266,960294,1020319,1080350,1140381,1200404,1260414,1320432,1380463,1440489,1500494,1560515,1620548,1680551,1740583,1800612,1860617,1920617
participant_0_GOLD,500,500,541,818,1411,1694,1894,2107,2369,3206,3509,4253,4438,5401,5681,6199,6676,7228,7400,8157,8279,8402,8658,8780,9403,9825,9947,10864,11160,11585,11770,12364,12795
participant_0_CURRENTGOLD,500,0,41,318,211,494,694,407,169,1006,259,703,588,301,581,29,506,1058,49,107,229,232,488,211,533,955,1078,1995,91,115,301,495,745
participant_0_LEVEL,1,1,1,3,3,5,5,6,7,8,8,9,9,10,10,11,11,12,12,13,13,13,13,13,13,14,14,14,14,15,15,15,16
participant_0_MINIONSKILLED,0,0,1,9,13,19,24,29,37,49,50,63,67,68,73,73,79,88,91,91,91,91,96,96,96,96,96,101,103,105,108,110,112
participant_0_KILLS,0,0,0,0,1,1,1,1,1,2,2,2,2,3,3,5,5,6,6,8,8,8,8,8,9,9,9,10,10,11,11,12,12
participant_0_BUY,[],"[1054, 2003]",[],[],"[1028, 1029]",[],[],[3751],[1031],[],[3068],[1029],[1001],"[3047, 1028, 1027]",[],"[3010, 1057]",[],[],[3001],"[3373, 3379, 1029, 1028]",[],[1029],[],[3082],[1029],[],[],[],"[3075, 1011]",[1028],[],[3067],[]
participant_0_SOLD,[],[],[],[],[],[],"[2010, 2010]","[1028, 2010]",[1029],[2003],"[1031, 3751]",[],[],"[1001, 1029]",[],"[1028, 1027]",[],[],"[3010, 1057]","[3068, 3001]",[],[1054],[],"[1029, 1029]",[],[],[],[],"[1029, 1028, 3082]",[],[],[1028],[]
participant_0_UNDO,[],[],[],[],[],[],[],[],[],[],[],[],[],[],[],[],[],[],[],[],[],[],[],[],[],[],[],[],[],[],[],[],[]
participant_1_GOLD,500,500,660,1013,1406,1637,1948,2155,2383,2618,2948,3755,4055,5053,5236,5443,5969,6276,6447,6655,6802,6925,7247,7369,7492,7714,7922,8232,8502,8879,9304,10291,10871
participant_1_CURRENTGOLD,500,0,160,513,906,1137,1448,1655,1883,278,608,1415,1715,163,346,553,1079,1386,707,165,312,435,107,229,352,574,347,657,262,639,1064,2051,2571
participant_1_LEVEL,1,1,2,3,3,4,4,5,5,5,6,7,7,8,8,9,9,10,10,10,10,10,10,10,10,11,11,12,12,12,13,14,15
participant_1_MINIONSKILLED,0,0,0,0,0,0,0,0,0,0,0,2,3,6,8,8,8,8,11,11,11,11,11,11,11,11,11,11,11,11,15,26,28
participant_1_KILLS,0,0,0,0,0,0,0,0,0,1,2,2,2,2,2,2,4,4,5,6,6,7,7,7,7,8,8,9,9,9,9,9,9
participant_1_BUY,[],"[1055, 2003]",[],[],[],[],[],"[1053, 1036]",[3144],[],"[1042, 1042]",[1043],[],[],[3153],[],[],[3044],[3067],[],[],[3071],[],[],[1028],[],"[1037, 3052, 3389]",[],[1037],[],[],[],[]
participant_1_SOLD,[],[],[],[],[2003],[],[],[],"[1053, 1036]",[],[],"[1042, 1042]",[],[],"[3144, 1043]",[],[],[],[],[],[1055],"[3044, 3067]",[],[],[],[],"[1028, 3153]",[],[],[],[],[],[]
participant_1_UNDO,[],[],[],[],[],[],[],[],[],[],[],[],[],[],[],[],[],[],[],[],[],[],[],[],[],[],"[[0, 1037]]",[],[],[],[],[],[]
participant_2_GOLD,500,500,601,918,1152,1479,1699,1970,2667,3113,3462,4299,4465,4637,4979,5102,5740,5973,6184,6454,7096,7219,7793,8466,8617,10102,10440,10614,10947,11369,11882,12484,12903
participant_2_CURRENTGOLD,500,0,101,418,652,979,199,470,1167,1613,462,1299,165,337,679,102,740,973,84,354,596,718,593,1266,297,1782,2120,194,527,874,1388,1990,828
participant_2_LEVEL,1,1,1,3,4,5,5,6,7,8,8,8,9,9,9,9,10,10,10,11,11,11,11,12,12,12,13,13,13,13,14,14,14
participant_2_MINIONSKILLED,0,0,4,12,18,27,33,39,50,59,63,69,71,71,71,71,82,88,88,90,90,90,93,100,102,106,114,114,120,120,125,128,130
participant_2_KILLS,0,0,0,0,0,1,1,1,2,2,2,2,2,2,2,2,3,3,3,3,3,3,3,3,3,3,3,5,5,5,5,6,6
participant_2_BUY,[],"[3858, 3340, 2003]",[],[],[],[],"[1052, 1052]",[],[],[],"[3145, 3067]",[],[3152],[],[1001],[],[],[3108],[1052],[],[],[1029],[2420],[],[],[],[3157],[],[],[],"[1058, 3386]",[],[3113]
participant_2_SOLD,[],[],[],[],[2003],"[2010, 2010]",[],[],[],[2010],"[1052, 1052]",[],"[3145, 3067]",[],[],[],[],[3858],[],[],[],[],[],[],[],[],"[3859, 1052, 3108, 2420]",[],[],[],[3157],[],"[3386, 3152, 1001, 3113, 1058]"
participant_2_UNDO,[],[],[],[],[],[],[],[],[],[],[],[],[],[],[],[],[],[],[],[],[],"[[0, 1029]]",[],[],[],[],[],[],[],[],[],[],[]
participant_3_GOLD,500,500,520,741,1008,1419,1664,1807,2128,2613,3055,3263,3484,3656,3874,4199,5483,5605,5923,6220,6452,6770,6999,7121,7243,7961,8083,8755,8954,9076,9198,9408,9660
participant_3_CURRENTGOLD,500,0,20,241,508,919,1164,57,28,513,355,163,384,556,74,399,1683,555,73,370,782,150,379,501,223,941,263,935,259,381,504,713,785
participant_3_LEVEL,1,1,1,2,3,4,5,5,5,6,6,7,7,7,7,8,9,9,9,9,10,10,10,10,11,12,12,12,13,13,13,13,13
participant_3_MINIONSKILLED,0,0,0,6,11,15,19,20,23,26,26,28,30,30,32,40,43,43,43,44,44,44,47,47,47,47,47,48,49,49,49,49,49
participant_3_KILLS,0,0,0,0,0,0,0,0,0,0,0,2,2,3,3,3,3,3,3,3,3,3,3,3,3,3,3,3,3,3,3,4,5
participant_3_BUY,[],"[1039, 2031, 3340]",[],[],[],[],[],[],[],"[1041, 3706, 1052, 3108, 1027]",[],[],[],"[1402, 1033, 3111, 3136]",[],[],[],[],[1026],[3151],[],[],[2420],[],[],[],[1052],[],[3191],[],[],[],[]
participant_3_SOLD,[],[],[],[],[],[],[],[],[],"[1039, 1041, 1052, 2031]",[],[],"[3340, 3513]","[3108, 1027, 3706, 1033, 2422]",[],[],[],[],[],"[3136, 1026]",[],[],[],[],[],[],[],[],[1052],[],[],[],[]
participant_3_UNDO,[],[],[],[],[],[],[],[],[],[],[],[],[],[],[],[],[],[],[],[],[],[],[],[],[],[],[],[],[],[],[],[],[]
participant_4_GOLD,500,500,522,755,925,1415,1637,1841,2338,2515,2649,2834,3010,3194,3329,3519,4354,4492,4653,4920,5060,5201,5412,5552,5693,5908,6189,6937,7109,7358,7480,8171,8423
participant_4_CURRENTGOLD,500,50,72,305,475,965,317,521,1018,1195,349,534,60,244,79,269,1104,342,68,335,475,615,177,317,458,673,199,947,1119,1368,240,931,173
participant_4_LEVEL,1,1,1,2,3,4,4,5,6,6,6,7,7,7,7,7,9,9,9,9,9,9,9,9,10,10,10,11,11,11,11,12,12
participant_4_MINIONSKILLED,0,0,0,5,7,10,12,16,19,22,22,22,24,24,24,27,29,29,30,30,30,30,31,31,31,31,31,31,31,31,31,31,31
participant_4_KILLS,0,0,0,0,0,0,0,0,0,0,0,0,0,0,1,1,1,1,1,1,3,3,4,4,4,7,7,7,7,8,9,10,10
participant_4_BUY,[],"[1083, 2003]",[],[],[],[],"[1036, 1036, 1001]",[],[],[],"[3134, 3133]",[],"[3147, 3009]",[],[],"[1036, 1036]",[],[],"[3133, 1036, 1036]",[],[3134],[],[3142],[],[1038],[],[],[3031],[],"[2055, 3363]",[],[],[3086]
participant_4_SOLD,[],[],[],[],[],[2003],[],[],[],[],"[1036, 1036]",[],"[3134, 3133, 1001]",[],[],[],[],[],"[1036, 1036]",[],"[1036, 1036]",[],"[3133, 3134]",[],[1083],[],[],[1038],[],[3340],[2055],[],[]
participant_4_UNDO,[],[],[],[],[],[],[],[],[],[],[],[],[],[],[],[],[],[],[],[],[],[],[],[],[],[],[],[],[],[],[],[],[]
participant_5_GOLD,500,500,576,825,1336,1626,1819,2105,2346,2532,2731,2910,3074,3196,3519,3641,3998,4155,4277,4484,4871,6485,6662,7663,8679,8961,9084,9228,9406,10504,10751,11143,11806
participant_5_CURRENTGOLD,500,0,76,325,186,476,669,955,1196,1382,531,110,274,76,399,21,378,535,257,464,1,1615,259,1260,276,558,231,75,254,1351,349,741,873
participant_5_LEVEL,1,1,1,3,3,5,6,6,7,7,8,8,8,8,9,9,10,10,10,10,11,11,12,12,13,13,13,13,13,14,14,14,15
participant_5_MINIONSKILLED,0,0,3,10,13,20,24,31,37,41,46,49,51,51,59,59,68,70,70,75,75,79,79,83,91,91,91,92,95,97,100,102,108
participant_5_KILLS,0,0,0,0,0,0,0,0,0,0,0,0,0,0,0,0,0,0,0,0,0,0,0,0,0,0,0,0,0,0,0,0,0
participant_5_BUY,[],"[1056, 2003, 3340, 2003]",[],[],[],[],[],[],[],[],[],[],[],[],[],[],[],[],[],[],[],[],[],[],[],[],[],[],[],[],[],[],[]
participant_5_SOLD,[],[],[],"[2010, 2003, 2003]",[],[2010],[],[],[],[],[],[],[],[],[],[],[],[],[],[],[],[],[],[],[],[],[],[],[],[],[],[],[]
participant_5_UNDO,[],[],[],[],[],[],[],[],[],[],[],[],[],[],[],[],[],[],[],[],[],[],[],[],[],[],[],[],[],[],[],[],[]
participant_6_GOLD,500,500,620,913,1241,1405,1684,1820,1967,2175,2425,2576,2798,2950,3128,3335,3533,3739,3950,4128,4381,4694,5071,5437,5754,5975,6097,6221,6357,6654,6902,7978,8080
participant_6_CURRENTGOLD,500,0,120,413,91,255,534,670,817,375,625,26,248,400,228,85,283,489,300,478,730,69,446,811,429,300,422,146,342,239,487,1563,55
participant_6_LEVEL,1,1,2,2,3,4,4,5,5,5,6,6,6,6,7,7,7,8,8,8,9,9,10,11,11,11,11,11,11,12,12,13,13
participant_6_MINIONSKILLED,0,0,0,0,0,3,4,5,5,5,7,9,9,9,9,9,9,14,14,18,18,19,23,23,23,23,23,23,24,26,29,30,30
participant_6_KILLS,0,0,0,0,0,0,0,0,0,0,0,0,1,1,1,1,2,2,3,3,5,5,5,5,6,7,7,7,7,7,7,7,7
participant_6_BUY,[],"[3850, 2003, 3340, 2003]",[],[],[],[],[],[],[],[],"[3114, 3108, 1001, 2003]",[],[],[3504],[],"[3117, 1029]",[],[1052],[],"[3191, 2420]",[],"[3157, 1052]",[],[],[],[],[1026],[3135],[],[],[1052],[],[]
participant_6_SOLD,[],[],[],[],[2003],"[2003, 2010, 2010]",[],[2010],[],[],[3850],[],[2003],[3114],[],[1001],[3851],[],[],"[1029, 1052]",[],"[3191, 3108, 2420]",[],[],[],[],[],"[1026, 1052]",[],[],[],[],[]
participant_6_UNDO,[],[],[],[],[],[],[],[],[],[],[],[],[],[],[],[],[],[],[],[],[],[],[],[],[],[],[],[],[],[],[],[],[]
participant_7_GOLD,500,500,565,790,933,1077,1200,1322,1444,1567,1689,1812,1934,2056,2179,2301,2424,2546,2668,2791,2913,3036,3158,3280,3403,3525,3648,3771,3893,4016,4138,4261,4363
participant_7_CURRENTGOLD,500,0,65,290,433,577,700,822,944,1067,1189,1312,1434,1556,1679,1801,1924,2046,2168,2291,2413,2536,2658,2780,2903,3025,3148,3271,3393,3516,3638,3761,3863
participant_7_LEVEL,1,1,1,3,4,4,4,4,4,4,4,4,4,4,4,4,4,4,4,4,4,4,4,4,4,4,4,4,4,4,4,4,4
participant_7_MINIONSKILLED,0,0,2,5,6,7,7,7,7,7,7,7,7,7,7,7,7,7,7,7,7,7,7,7,7,7,7,7,7,7,7,7,7
participant_7_KILLS,0,0,0,0,1,1,1,1,1,1,1,1,1,1,1,1,1,1,1,1,1,3,3,5,7,8,8,8,8,10,10,10,11
participant_7_BUY,[],"[1054, 2003, 3340]",[],[],"[1001, 1029, 2003, 1029, 1001, 2003, 2003]",[],[],[],[],[3047],[3057],"[1042, 1042]",[],[3047],[],[3101],[],[],[1028],[],[3044],[],"[3078, 3052]",[],[3053],[],[1033],[1029],[],[],"[3105, 1053]",[],[1036]
participant_7_SOLD,[],[],[],[],[],[],"[2003, 2003]",[],[],"[1001, 1029]",[],[],[],"[1054, 1001, 1029]",[],"[1042, 1042]",[],[],[],[],[1028],[],"[3101, 3057, 3044]",[],[3052],[],[],[],[],[],"[1033, 1029]",[],[3047]
participant_7_UNDO,[],[],[],[],"[[0, 2003], [0, 1029], [0, 1001], [0, 2003]]",[],[],[],[],"[[0, 3047]]",[],[],[],[],[],[],[],[],[],[],[],[],[],[],[],[],[],[],[],[],[],[],[]
participant_8_GOLD,500,500,576,776,1050,1507,1721,1948,2405,2992,3484,4195,4683,5136,5836,7013,7365,7900,8314,8437,9334,10037,10560,10992,11240,11386,11710,11868,12165,12512,12829,13062,13406
participant_8_CURRENTGOLD,500,500,576,776,1050,757,371,598,255,842,234,945,1433,186,886,763,15,550,964,112,1009,1712,2235,2668,90,236,560,719,1015,663,980,1212,1556
participant_8_LEVEL,1,1,1,2,3,4,4,5,5,6,6,7,7,8,8,9,9,10,10,10,11,11,12,12,13,13,13,13,13,13,14,14,14
participant_8_MINIONSKILLED,0,0,3,7,13,15,20,26,28,29,33,38,41,44,49,55,58,62,70,70,70,73,79,84,84,84,91,93,99,102,109,111,116
participant_8_KILLS,0,0,0,0,0,0,0,0,0,0,0,0,0,0,0,0,0,0,0,0,0,0,0,0,0,0,0,0,0,0,0,2,2
participant_8_BUY,[],"[1039, 3340, 2031]",[],[],[3706],[],[],[],[],"[1001, 1036]",[],"[1036, 3133]",[],[],[1036],[1036],[],[],[3133],[],[],"[1400, 1033]",[],[],"[3111, 1036]",[1036],[],[3134],[],[1028],[],[],"[3142, 3044]"
participant_8_SOLD,[],[],[],[],[1039],[],[],[],[],[],[],"[1036, 1036]",[],[],[],[],[],[],"[1036, 1036]",[],[],"[3133, 3706]",[],[],"[1001, 1033]",[],[],"[1036, 1036]",[2031],[],[],[],"[3133, 3134, 1028]"
participant_8_UNDO,[],[],[],[],[],[],[],[],[],[],[],[],[],[],[],[],[],[],[],[],[],[],[],[],[],[],[],[],[],[],[],[],[]
participant_9_GOLD,500,500,522,686,910,1284,1527,1727,2226,2705,2845,3225,3978,4283,4791,5275,5826,6116,6608,6748,7408,7548,7757,7998,8798,9325,9465,9649,9834,10102,10257,10507,10699
participant_9_CURRENTGOLD,500,0,22,186,410,784,1027,1227,1726,2205,295,675,1428,233,741,225,776,631,1123,248,908,363,573,813,1613,2140,1430,249,434,703,422,673,864
participant_9_LEVEL,1,1,1,2,3,3,4,5,5,6,6,7,8,8,9,9,10,10,11,11,11,11,11,12,12,13,13,13,13,13,13,14,14
participant_9_MINIONSKILLED,0,0,0,1,2,2,6,7,12,18,18,18,22,24,24,25,27,27,32,32,32,32,33,33,39,43,43,46,49,51,52,54,54
participant_9_KILLS,0,0,0,0,0,1,1,1,2,3,4,5,5,6,8,10,10,11,11,11,12,13,14,14,14,14,14,14,14,14,14,14,14
participant_9_BUY,[],[],[],[],[],"[1055, 1001]","[1042, 1042]",[],"[3006, 1042]",[],[3086],[],[],"[3085, 1018]",[],[1038],[3133],[],[],"[3508, 1037]",[],[],[],[],"[3031, 1042]",[],[],[],[],[1043],[],[],[]
participant_9_SOLD,[],[],[],[],[],[2010],[],[],"[2010, 1001, 1042]",[],[1042],[],[2010],"[1042, 3086]",[],[],[],[],[],"[1038, 3133, 1018]",[],[],[],[],[1037],[],[],[],[],[1042],[],[],[]
participant_9_UNDO,[],[],[],[],[],[],[],[],[],[],[],[],[],[],[],[],[],[],[],[],[],[],[],[],[],[],[],[],[],[],[],[],[]
team0_KILLS,0,0,0,0,1,2,2,2,3,5,6,8,8,10,11,13,16,17,18,21,23,24,25,25,26,30,30,34,34,36,37,41,42
team0_CURRENTGOLD,2500,50,394,1795,2752,4494,3822,3110,4265,4605,2033,4114,2912,1601,1759,1352,5112,4314,981,1331,2394,2150,1744,2524,1863,4925,4007,4728,2258,3377,3497,6180,5102
team0_TOTALGOLD,2500,2500,2844,4245,5902,7644,8842,9880,11885,14065,15623,18404,19452,21941,23099,24462,28222,29574,30607,32406,33689,34517,36109,37288,38448,41510,42581,45402,46672,48267,49634,52718,54652
team0_LEVEL,5,5,6,13,16,22,23,27,30,33,34,38,39,41,41,44,48,50,50,52,53,53,53,54,56,59,60,62,63,64,66,68,70
team0_SBIRES,0,0,5,32,49,71,88,104,129,156,161,184,195,199,208,219,241,256,263,266,266,266,278,285,287,291,299,305,314,316,328,344,350
team1_KILLS,0,0,0,0,1,2,2,2,3,4,5,6,7,8,10,12,13,14,15,15,18,21,22,24,27,29,29,29,29,31,31,33,34
team1_CURRENTGOLD,2500,500,859,1990,2170,2849,3301,4272,4938,5871,2874,3068,4817,2451,3933,2895,3376,4251,4812,3593,5061,6295,6171,8332,5311,6259,5791,4460,5438,6472,5876,7950,7211
team1_TOTALGOLD,2500,2500,2859,3990,5470,6899,7951,8922,10388,11971,13174,14718,16467,17621,19453,21565,23146,24456,25817,26588,28907,31800,33208,35370,37874,39172,40004,40737,41655,43788,44877,46951,48354
team1_LEVEL,5,5,6,12,16,20,22,25,26,28,30,32,33,34,37,38,40,42,43,43,46,46,49,51,53,54,54,54,54,56,57,59,60
team1_SBIRES,0,0,8,23,34,47,61,76,89,100,111,121,130,135,148,155,169,180,193,202,202,210,221,230,244,248,255,261,274,283,297,304,315
delta_KILLS,0,0,0,0,0,0,0,0,0,1,1,2,1,2,1,1,3,3,3,6,5,3,3,1,-1,1,1,5,5,5,6,8,8
delta_CURRENTGOLD,0,-450,-465,-195,582,1645,521,-1162,-673,-1266,-841,1046,-1905,-850,-2174,-1543,1736,63,-3831,-2262,-2667,-4145,-4427,-5808,-3448,-1334,-1784,268,-3180,-3095,-2379,-1770,-2109
delta_TOTALGOLD,0,0,-15,255,432,745,891,958,1497,2094,2449,3686,2985,4320,3646,2897,5076,5118,4790,5818,4782,2717,2901,1918,574,2338,2577,4665,5017,4479,4757,5767,6298
delta_LEVEL,0,0,0,1,0,2,1,2,4,5,4,6,6,7,4,6,8,8,7,9,7,7,4,3,3,5,6,8,9,8,9,9,10
delta_SBIRES,0,0,-3,9,15,24,27,28,40,56,50,63,65,64,60,64,72,76,70,64,64,56,57,55,43,43,44,44,40,33,31,40,35
