name,frame_0,frame_1,frame_2,frame_3,frame_4,frame_5,frame_6,frame_7,frame_8,frame_9,frame_10,frame_11,frame_12,frame_13,frame_14,frame_15,frame_16,frame_17,frame_18,frame_19,frame_20,frame_21,frame_22,frame_23,frame_24,frame_25,frame_26,frame_27,frame_28,frame_29,frame_30,frame_31,frame_32,frame_33
nameStamp,Tstart,Tearly,Tearly,Tearly,Tearly,Tearly,Tearly,Tearly,Tearly,Tearly,Tearly,Tearly,Tearly,Tearly,Tearly,Tearly,Tearly,Tearly,Tearly,Tmid,Tmid,Tmid,Tmid,Tmid,Tmid,Tmid,Tmid,Tmid,Tmid,Tend,Tend,Tend,Tend,Tend
timestamp,0,60009,120041,180063,240077,300082,360094,420095,480116,540137,600165,660196,720222,780250,840272,900272,960293,1020323,1080346,1140375,1200394,1260398,1320420,1380452,1440471,1500486,1560510,1620514,1680529,1740534,1800561,1860563,1920593,1980593
participant_0_GOLD,500,500,563,1124,1672,1948,2228,2455,2835,3121,3445,3708,3908,4142,4479,4762,5540,6259,6431,6833,7263,7485,7775,8066,8507,8899,9116,9268,9675,9798,10410,10607,11364,11431
participant_0_CURRENTGOLD,500,0,63,624,497,73,353,580,960,1246,270,533,163,397,734,1017,95,814,86,488,918,240,530,821,1262,1654,372,523,480,604,1215,663,1419,-174
participant_0_LEVEL,1,1,1,3,4,5,6,6,7,8,8,9,9,9,10,10,11,11,11,12,12,12,13,13,14,14,14,14,15,15,16,16,16,16
participant_0_MINIONSKILLED,0,0,2,9,15,21,28,34,46,53,55,63,64,71,80,85,92,97,97,110,121,124,127,132,137,137,137,139,148,148,152,152,160,160
participant_0_KILLS,0,0,0,1,2,2,2,2,2,2,2,2,2,2,2,2,3,4,4,4,4,4,4,4,4,4,4,4,4,4,4,4,5,5
participant_0_BUY,[],"[2033, 3340]",[],[],"[1001, 1029, 2055]",[3076],[],[],[],[],"[3082, 1029]",[],[3009],[3363],[],[],"[3075, 3191]",[],[3108],[],[],[3157],[],[],[],[],[3136],[],[1033],[],[],"[3211, 3211]",[],[3065]
participant_0_SOLD,[],[],[],[],[],[1029],[],[],[],[],[2055],[],"[2055, 1001]",[3340],[],[],"[3076, 3082, 1029]",[],[],[],[],"[3191, 3108]",[],[],[],[],[],[],[],[],[],"[1033, 1033]",[],"[2033, 3211]"
participant_0_UNDO,[],[],[],[],[],[],[],[],[],[],"[[2055, 0]]",[],[],[],[],[],[],[],[],[],[],[],[],[],[],[],[],[],[],[],[],"[[0, 3211]]",[],[]
participant_1_GOLD,500,500,706,1041,1540,1848,2105,2463,2820,3027,3300,3507,3730,4402,4659,4782,4989,5287,5633,5830,6384,6556,6814,6936,7185,7883,8033,8506,8774,8897,9170,9322,9579,9647
participant_1_CURRENTGOLD,500,0,206,541,65,373,630,988,95,227,500,407,630,1302,1559,1082,189,487,833,130,684,856,1114,236,85,783,558,1031,634,757,1030,332,590,597
participant_1_LEVEL,1,1,2,3,3,4,4,5,5,6,6,6,7,8,8,8,8,9,9,9,10,10,10,10,10,11,11,11,12,12,13,13,13,13
participant_1_MINIONSKILLED,0,0,0,0,0,0,1,1,1,1,1,1,1,1,1,1,1,1,4,4,7,7,7,7,7,7,9,9,13,13,13,13,13,13
participant_1_KILLS,0,0,0,0,0,1,1,2,2,3,4,4,4,4,4,4,4,4,4,4,4,4,4,4,6,6,7,7,7,7,7,7,7,7
participant_1_BUY,[],"[1056, 2003, 2003, 3340]",[],[],"[1082, 2031]",[1052],[],"[1052, 1027, 3802]",[],[],[3020],[2055],[],"[1026, 3363]",[],[3285],[1052],[],[],"[3108, 2420]",[],[],[],"[3157, 1052]",[1026],[],[3116],[1026],"[1028, 1052]",[],[3136],[1026],[],[]
participant_1_SOLD,[],[],[2003],[2003],[],[],[],"[1052, 1027, 1052]",[],[],[2422],[],[2055],[3340],[],"[2031, 3802, 1026]",[],[],[],[1052],[],"[1082, 1056, 1056]",[],"[3108, 2420]","[1056, 1082]",[],"[1026, 1052]",[1082],[],[],"[1028, 1052]",[],[],[]
participant_1_UNDO,[],[],[],[],[],[],[],[],[],[],[],[],[],[],[],[],[],[],[],[],[],"[[1056, 0], [1082, 0], [1056, 0]]",[],[],"[[1082, 0]]",[],[],[],"[[0, 1026]]",[],[],[],[],[]
participant_2_GOLD,500,500,563,769,1082,1505,1833,2339,2567,3045,3552,3674,4042,4625,4873,5101,5499,5773,6598,6783,7264,7492,8193,8386,10108,10244,10667,11156,11278,11669,11981,12590,12712,12793
participant_2_CURRENTGOLD,500,0,63,269,82,70,398,39,267,745,452,499,867,600,848,86,49,323,1148,218,699,927,1628,36,1068,1205,312,91,229,619,267,25,147,-732
participant_2_LEVEL,1,1,1,3,4,5,6,6,7,8,8,8,9,9,10,10,10,11,11,11,12,12,12,12,13,13,13,13,13,14,14,15,15,15
participant_2_MINIONSKILLED,0,0,2,6,9,9,19,24,31,35,41,41,51,59,67,73,85,89,95,99,108,111,123,127,127,128,128,137,137,144,145,161,161,162
participant_2_KILLS,0,0,0,0,1,1,1,1,1,1,1,1,1,2,2,2,2,2,2,2,2,2,2,2,2,3,3,4,4,4,4,4,4,4
participant_2_BUY,[],"[1039, 3340, 2031]",[],[],"[3108, 2055]",[],[],[],[1402],"[2055, 3364]",[],[1001],[],[],[],[3158],[3101],[],[],[3108],[],[],[],[3115],[1028],[],[1052],[],[3136],[],[],[1026],[],[]
participant_2_SOLD,[],[],[],[],[],[],[],[],"[3108, 1039]","[2419, 3340, 2055]",[2423],[],[],[],[2055],[1001],[],[3364],[],[],[3513],[],[],"[3101, 3108]",[],[],[2031],[],"[1028, 1052]",[],[],[],[],[]
participant_2_UNDO,[],[],[],[],[],[],[],[],[],[],[],[],[],[],[],[],[],[],[],[],[],[],[],[],[],[],[],[],[],[],[],[],[],[]
participant_3_GOLD,500,500,584,1606,1813,2047,2366,2711,3167,3437,3952,4213,4831,4974,5294,5703,6198,6350,6613,7788,8066,8656,8912,9209,9331,10162,10374,10649,10877,11238,13122,13397,14120,14187
participant_3_CURRENTGOLD,500,0,84,1106,88,322,641,986,142,412,627,288,906,174,494,903,898,275,538,1713,1991,331,587,884,1006,1838,929,1204,208,568,1053,1328,850,677
participant_3_LEVEL,1,1,1,2,3,3,4,5,6,6,7,7,8,8,8,9,9,9,10,10,11,11,12,12,12,12,13,13,13,13,14,14,15,15
participant_3_MINIONSKILLED,0,0,3,12,17,23,35,45,52,61,72,76,87,88,94,107,113,114,115,130,136,146,151,157,157,162,163,168,169,178,184,189,189,189
participant_3_KILLS,0,0,0,2,2,2,2,2,2,2,2,2,3,3,3,3,4,4,4,5,5,5,5,5,5,6,6,6,6,6,9,9,10,10
participant_3_BUY,[],"[1055, 2003, 3340]",[],[],"[1037, 1027]",[],[],[],"[3004, 2055, 2003]",[],[1001],"[1042, 1042]",[],[1037],[],[],[3006],"[1043, 2055]",[],[],[],"[3124, 1037, 2055, 2055]",[],[],[],[],"[1038, 3363]",[],[3031],[],[3086],[],[3085],[]
participant_3_SOLD,[],[],[],[],[],[],[],[2003],"[1027, 1037]",[],"[2055, 2003]",[],[],[],[],[],"[1001, 1042]",[1042],[],[],[2055],"[1043, 1037]",[],[3004],[],[],"[1055, 3340]",[],"[1038, 1037]",[],[],"[2055, 2055]",[3086],[]
participant_3_UNDO,[],[],[],[],[],[],[],[],[],[],[],[],[],[],[],[],[],[],[],[],[],[],[],[],[],[],[],[],[],[],[],"[[2055, 0], [2055, 0]]",[],[]
participant_4_GOLD,500,500,526,988,1129,1342,1530,1707,1841,2065,2598,2732,3101,3279,3488,3736,4130,4333,4523,5423,5613,5818,6009,6445,6750,6995,7135,7368,7657,7805,8298,9033,9242,9319
participant_4_CURRENTGOLD,500,0,26,488,254,467,655,7,141,365,898,182,551,129,338,586,980,283,473,1373,213,419,109,545,850,295,435,668,957,1105,298,584,792,869
participant_4_LEVEL,1,1,1,2,3,3,4,4,4,5,5,5,6,6,7,7,8,8,8,9,9,9,9,10,11,11,11,12,12,12,12,13,13,13
participant_4_MINIONSKILLED,0,0,0,0,0,1,1,1,1,3,4,4,4,6,9,11,11,15,15,15,15,15,15,23,23,24,24,25,29,29,29,31,32,32
participant_4_KILLS,0,0,0,0,0,0,0,0,0,0,1,1,1,1,1,1,1,1,1,2,2,2,2,2,2,2,2,2,2,2,3,4,4,4
participant_4_BUY,[],"[3862, 2003, 2003, 3340]",[],[],"[1001, 3364, 2055]",[],[],"[1036, 1028, 2055]",[],[],[],"[3052, 1028]",[],[1011],[],[],[],[3022],[],[],"[3009, 1028, 1036]",[],[3044],[],[],[3067],[],[],[],[],"[3071, 1036]",[3123],[],[]
participant_4_SOLD,[],[],[],[2003],"[3340, 2055]",[2003],[],[],[],[2055],[],"[1036, 1028]",[],"[3862, 1028]",[],[],[],"[3052, 1011]",[],[],[1001],[],"[1028, 1036]",[],[3863],[],[],[],[],[],"[3044, 3067]",[1036],[],[]
participant_4_UNDO,[],[],[],[],[],[],[],[],[],[],[],[],[],[],[],[],[],[],[],[],[],[],[],[],[],[],[],[],[],[],[],[],[],[]
participant_5_GOLD,500,500,584,741,1398,1674,1856,2090,2456,2712,3696,4078,4354,5077,5456,5830,6336,6458,7477,7831,8283,9127,9682,9961,10213,10655,10978,11626,12243,12412,12534,13467,13590,13807
participant_5_CURRENTGOLD,500,0,84,241,898,349,531,765,1131,1387,1046,1428,154,877,1256,1630,161,283,1302,656,1108,1952,582,861,763,1206,428,1076,44,212,335,1268,150,307
participant_5_LEVEL,1,1,1,2,4,5,5,6,7,7,8,8,9,9,10,11,11,11,12,12,13,14,14,14,14,14,15,15,16,16,16,17,17,17
participant_5_MINIONSKILLED,0,0,3,5,15,24,28,35,46,54,59,68,77,90,101,112,115,115,126,136,151,158,162,170,172,172,172,179,186,188,188,194,194,194
participant_5_KILLS,0,0,0,0,0,0,0,0,0,0,1,1,1,1,1,2,3,3,3,3,3,4,4,4,4,5,5,6,6,6,6,6,8,8
participant_5_BUY,[],"[3854, 2003, 2003, 3340]",[],[2055],[],[],[],[],[],[],[],"[3134, 3009, 2055, 2003]",[],"[3179, 3364, 2055]",[2003],[],[],"[3134, 3111]",[],"[3133, 2055]",[],"[3142, 1036]",[],[],[],[],[3133],[],[],[],"[3147, 3134]",[],[],[]
participant_5_SOLD,[],[],[],[2003],[],[],"[2055, 2003]",[],[],[],[3400],[],"[3854, 2003, 3400]","[3134, 3340]",[],"[2003, 2055, 3400]",[],[3009],"[3400, 2055]",[],[],"[3133, 3134]",[],[],[3855],[],[1036],[],[2055],[],[3133],[],[],[]
participant_5_UNDO,[],[],[],[],[],[],[],[],[],[],[],[],[],[],[],[],[],[],[],[],[],[],[],[],[],[],[],[],[],[],[],[],[],[]
participant_6_GOLD,500,500,621,948,1141,1480,1738,1959,2535,2888,3370,3678,4310,4594,4964,5671,5794,6113,6516,6739,6867,7415,7745,8409,8889,9547,10010,10785,11358,11738,12511,12639,13316,13534
participant_6_CURRENTGOLD,500,0,121,448,641,980,38,259,835,1188,1670,128,760,1044,1414,2121,304,623,1026,1249,77,625,155,819,1299,1957,720,1495,648,1029,1801,449,1127,784
participant_6_LEVEL,1,1,2,3,3,4,4,5,6,6,7,7,8,8,9,9,9,10,10,10,10,11,12,13,13,14,14,14,15,16,16,16,17,17
participant_6_MINIONSKILLED,0,0,0,0,4,4,4,4,4,4,4,4,4,10,11,12,12,12,12,12,12,16,20,26,29,29,31,31,31,38,38,38,38,38
participant_6_KILLS,0,0,0,0,0,1,1,2,2,2,2,3,4,4,4,5,6,6,8,9,9,10,11,12,15,15,18,20,21,21,21,21,23,23
participant_6_BUY,[],"[1056, 2003, 2003, 2033, 3340]",[],[],"[1082, 2055]",[1001],[],[3117],[],[],[3145],[1028],[],"[3152, 2055, 3364]",[],[],[3057],[3113],[],[],"[3100, 2055]",[],[],"[3041, 3191]",[],[],[],"[3157, 1058]",[],[],[3089],[],[],[]
participant_6_SOLD,[],[],[],[2010],[],[2010],[],"[2010, 1001]",[2055],[],[],[],[],"[3145, 1028, 3340]",[],[],[],[2055],[],[],"[3057, 3113]",[2055],[],[1082],[],[],[],"[3191, 2033]",[],[],[1058],[],[],[]
participant_6_UNDO,[],"[[0, 2003], [0, 2003], [0, 1056]]",[],[],[],[],[],[],[],[],[],[],[],[],[],[],[],[],[],[],[],[],[],[],[],[],[],[],[],[],[],[],[],[]
participant_7_GOLD,500,500,584,790,1011,1364,1636,1908,2148,2355,2889,3012,3164,3419,3686,3983,4375,4957,5882,6005,6215,6695,7544,7941,8260,8842,9727,10062,10484,10906,11688,11810,12264,12914
participant_7_CURRENTGOLD,500,0,84,290,511,864,1136,108,348,555,1089,37,189,444,711,1008,175,757,1682,1805,115,595,1444,41,360,142,1028,42,464,886,218,441,894,1364
participant_7_LEVEL,1,1,1,2,3,4,4,5,5,5,6,6,6,7,7,8,8,9,10,10,10,10,11,12,12,12,13,13,13,14,14,14,15,15
participant_7_MINIONSKILLED,0,0,3,8,14,25,32,38,42,47,53,53,54,62,67,73,80,85,100,100,104,117,135,137,148,148,161,161,161,166,166,166,176,178
participant_7_KILLS,0,0,0,0,0,0,0,0,1,1,1,1,2,2,2,2,2,2,2,2,2,2,2,3,3,4,4,4,4,4,6,6,6,6
participant_7_BUY,[],"[1041, 2031, 3340]",[],[],[],[],"[3706, 1028, 1006, 3364]",[],[],[],[],"[1401, 3009, 2055, 2055]",[],[],[],[],"[3211, 3067]",[],[],[],"[3065, 3801]",[],[3067],[],[],[],"[3083, 1042]",[],"[1043, 1057]",[],[],"[3091, 1029]",[],[1031]
participant_7_SOLD,[],[],[],[],[],[],"[1041, 3340]",[],[],[],[],"[1028, 3706, 2422]",[],[2055],[],[3400],[2031],[],[],[2055],"[3211, 3067, 1006]",[],[],[],[],[],"[3067, 3801]",[3400],[1042],[],[],"[1043, 1057]",[],[1029]
participant_7_UNDO,[],[],[],[],[],[],[],[],[],[],[],[],[],[],[],[],[],[],[],[],[],[],[],[],[],[],[],[],[],[],[],[],[],[]
participant_8_GOLD,500,500,544,699,844,1083,1239,1439,1677,1833,2759,2894,3435,4188,4359,5214,5696,5867,6942,7082,7237,8127,8433,8593,8829,9720,9910,11550,12138,12289,12460,12705,13906,14287
participant_8_CURRENTGOLD,500,0,44,124,269,508,664,864,1102,1258,2184,194,735,113,234,1089,1571,172,1247,213,367,207,513,673,910,1800,1240,2881,3468,3620,890,1135,2336,2087
participant_8_LEVEL,1,1,1,2,2,3,4,4,5,5,6,6,7,7,7,7,8,8,9,9,9,10,10,10,11,12,12,12,13,13,13,13,14,15
participant_8_MINIONSKILLED,0,0,1,2,2,5,6,7,10,11,13,13,13,16,17,19,21,22,23,23,24,25,26,26,27,27,27,28,28,28,29,33,33,33
participant_8_KILLS,0,0,0,0,0,0,0,0,0,0,0,0,0,0,0,0,0,1,2,2,2,2,2,2,2,2,3,3,3,3,4,4,4,5
participant_8_BUY,[],"[1055, 2003, 3340]",[],[],[],[],[],[1038],[],[],[],"[3006, 1001, 1037]",[],[],[],[],[3031],[],[],[],"[3006, 1018, 1042, 3363]",[],[],"[3085, 1042]",[],[1018],[],"[3086, 3046]",[],[],"[3133, 1036]","[1053, 1033]",[],[]
participant_8_SOLD,[],[],[],[2003],[],[],[],[],[],[],[3400],[],[],[],[],[],"[1038, 1037]",[],[],[],"[1001, 3340]",[],[],"[1042, 1018]",[],[3400],[],"[1018, 1042, 1055, 3086]",[],[],[],[],[],[]
participant_8_UNDO,[],[],[],[],[],[],[],[],[],[],[],"[[0, 3006]]",[],[],[],[],[],[],[],[],[],[],[],[],[],[],[],[],[],[],[],"[[0, 1036], [0, 3133]]",[],[]
participant_9_GOLD,500,500,556,905,1128,1600,1876,2372,2895,3255,3462,4076,4588,4735,5060,5661,6100,6450,7314,8044,8313,9204,9745,10232,11232,11354,12741,13947,14881,15019,15319,15566,16448,16835
participant_9_CURRENTGOLD,500,0,56,405,203,375,651,447,970,1330,487,701,1213,235,560,1161,550,50,914,1644,538,1429,1970,307,1307,1429,2817,1173,2106,2245,194,442,1324,1510
participant_9_LEVEL,1,1,1,3,4,5,5,6,7,8,8,9,9,9,10,11,12,12,13,13,14,14,14,14,15,15,16,16,17,17,17,17,17,17
participant_9_MINIONSKILLED,0,0,2,12,18,20,28,32,43,53,53,61,66,67,74,82,88,92,99,113,124,127,130,131,134,134,144,145,155,156,157,158,159,164
participant_9_KILLS,0,0,0,0,1,1,1,1,1,1,3,3,3,3,3,3,4,4,5,5,5,6,7,7,7,8,8,8,8,8,8,9,9,9
participant_9_BUY,[],"[1036, 2003, 2003, 2003, 3340]",[],[],[],"[1001, 3133, 2055]",[],[],[],[],"[3067, 1001, 2055, 2031]",[],"[3111, 1028, 1036]",[],[],[],"[3071, 1033, 2055]","[2055, 3364]",[],"[3105, 1036]",[],[],"[3812, 1036, 1036, 3123, 2055]",[],[1036],[],[3035],[],"[3033, 3133]",[],[],[],[3155],[]
participant_9_SOLD,[],[],[],"[2003, 2010, 2003]",[2003],[1036],[2055],"[2010, 2010]",[],[],[],[2055],[1001],[],[],[],"[1028, 1036, 3067]",[3340],[2055],[1033],[],[],"[3105, 1036, 3133, 1036]",[],[2055],[],[1036],[],"[3035, 3123]",[],[],[],[2031],[]
participant_9_UNDO,[],[],[],[],[],"[[0, 1001]]",[],[],[],[],[],[],[],[],[],[],[],"[[0, 2055]]",[],[],[],[],"[[0, 1036]]",[],[],[],[],[],[],[],[],[],[],[]
team0_KILLS,0,0,0,3,5,6,6,7,7,8,10,10,11,12,12,12,14,15,15,17,17,17,17,17,19,21,22,23,23,23,27,28,30,30
team0_CURRENTGOLD,2500,0,442,3028,986,1305,2677,2600,1605,2995,2747,1909,3117,2602,3973,3674,2211,2182,3078,3922,4505,2773,3968,2522,4271,5775,2606,3517,2508,3653,3863,2932,3798,1237
team0_TOTALGOLD,2500,2500,2942,5528,7236,8690,10062,11675,13230,14695,16847,17834,19612,21422,22793,24084,26356,28002,29798,32657,34590,36007,37703,39042,41881,44183,45325,46947,48261,49407,52981,54949,57017,57377
team0_LEVEL,5,5,6,13,17,20,24,26,29,33,34,35,39,40,43,44,46,48,49,51,54,54,56,57,60,61,62,63,65,66,69,71,72,72
team0_SBIRES,0,0,7,27,41,54,84,105,131,153,173,185,207,225,251,277,302,316,326,358,387,403,423,446,451,458,461,478,496,512,523,546,555,556
team1_KILLS,0,0,0,0,1,2,2,3,4,4,7,8,10,10,10,12,15,16,20,21,21,24,26,28,31,34,38,41,42,42,45,46,50,51
team1_CURRENTGOLD,2500,0,389,1508,2522,3076,3020,2443,4386,5718,6476,2488,3051,2713,4175,7009,2761,1885,6171,5567,2205,4808,4664,2701,4639,6534,6233,6667,6730,7992,3438,3735,5831,6052
team1_TOTALGOLD,2500,2500,2889,4083,5522,7201,8345,9768,11711,13043,16176,17738,19851,22013,23525,26359,28301,29845,34131,35701,36915,40568,43149,45136,47423,50118,53366,57970,61104,62364,64512,66187,69524,71377
team1_LEVEL,5,5,6,12,16,21,22,26,30,31,35,36,39,40,43,46,48,50,54,54,56,59,61,63,65,67,70,70,74,76,76,77,80,81
team1_SBIRES,0,0,9,27,53,78,98,116,145,169,182,199,214,245,270,298,316,326,360,384,415,443,473,490,510,510,535,544,561,576,578,589,600,607
delta_KILLS,0,0,0,3,4,4,4,4,3,4,3,2,1,2,2,0,-1,-1,-5,-4,-4,-7,-9,-11,-12,-13,-16,-18,-19,-19,-18,-18,-20,-21
delta_CURRENTGOLD,0,0,53,1520,-1536,-1771,-343,157,-2781,-2723,-3729,-579,66,-111,-202,-3335,-550,297,-3093,-1645,2300,-2035,-696,-179,-368,-759,-3627,-3150,-4222,-4339,425,-803,-2033,-4815
delta_TOTALGOLD,0,0,53,1445,1714,1489,1717,1907,1519,1652,671,96,-239,-591,-732,-2275,-1945,-1843,-4333,-3044,-2325,-4561,-5446,-6094,-5542,-5935,-8041,-11023,-12843,-12957,-11531,-11238,-12507,-14000
delta_LEVEL,0,0,0,1,1,-1,2,0,-1,2,-1,-1,0,0,0,-2,-2,-2,-5,-3,-2,-5,-5,-6,-5,-6,-8,-7,-9,-10,-7,-6,-8,-9
delta_SBIRES,0,0,-2,0,-12,-24,-14,-11,-14,-16,-9,-14,-7,-20,-19,-21,-14,-10,-34,-26,-28,-40,-50,-44,-59,-52,-74,-66,-65,-64,-55,-43,-45,-51
