name,frame_0,frame_1,frame_2,frame_3,frame_4,frame_5,frame_6,frame_7,frame_8,frame_9,frame_10,frame_11,frame_12,frame_13,frame_14,frame_15,frame_16,frame_17,frame_18,frame_19,frame_20,frame_21,frame_22,frame_23,frame_24,frame_25,frame_26,frame_27
nameStamp,Tstart,Tearly,Tearly,Tearly,Tearly,Tearly,Tearly,Tearly,Tearly,Tearly,Tearly,Tearly,Tearly,Tearly,Tmid,Tmid,Tmid,Tmid,Tmid,Tmid,Tmid,Tmid,Tmid,Tmid,Tmid,Tmid,Tmid,Tmid
timestamp,0,60012,120015,180041,240048,300086,360118,420124,480147,540177,600210,660211,720243,780249,840277,900286,960309,1020323,1080347,1140377,1200401,1260408,1320425,1380457,1440480,1500502,1560521,1620521
participant_0_GOLD,500,500,583,948,1412,1709,1951,2356,2645,2980,3325,3567,4229,4351,4646,5104,5241,5983,6639,7069,7324,7782,8085,9087,9209,10378,11029,11160
participant_0_CURRENTGOLD,500,0,83,448,112,309,551,956,320,655,350,592,71,143,438,896,733,855,111,541,296,754,1057,2059,181,1350,901,502
participant_0_LEVEL,1,1,1,3,4,4,5,6,7,7,8,8,9,9,9,10,10,10,11,11,12,12,12,13,13,14,14,14
participant_0_MINIONSKILLED,0,0,3,15,16,24,31,45,52,61,65,73,77,77,84,93,94,94,95,105,114,122,128,137,137,145,163,164
participant_0_KILLS,0,0,0,0,0,1,1,1,2,2,2,3,3,3,3,3,3,3,3,3,4,4,4,4,6,6,6,6
participant_0_BUY,[],"[1055, 2003]",[],[],[],[],[6670],[],"[1001, 3009]",[3006],[],[1018],[],[1037],[],[],[6672],[],[1018],[],[1037],[],[],[],[3031],[],[],[1036]
participant_0_SOLD,[],[],[],[],[],[2003],[],[],[1001],[1001],[],[],[],[],[],[],"[6670, 1018, 1037]",[],[],[],[],[],[],[],"[1037, 1018]",[],[],[]
participant_0_UNDO,[],[],[],[],[],[],[],[],[],"[[0, 3009]]",[],[],[],[],[],[],[],[],[],[],[],[],[],[],[],[],[],[]
participant_1_GOLD,500,500,620,963,1271,1512,1781,2062,2429,2670,3182,3390,3723,4834,5257,5393,5516,5728,6235,7358,7813,8735,8934,9224,9525,9919,10229,10339
participant_1_CURRENTGOLD,500,50,170,513,821,1062,1331,1612,1979,150,662,490,813,1924,397,533,356,568,575,1298,1753,975,1174,214,515,909,1220,89
participant_1_LEVEL,1,1,2,3,3,4,4,5,6,6,7,7,8,8,9,9,9,9,10,10,11,11,11,12,12,12,13,13
participant_1_MINIONSKILLED,0,0,0,0,0,1,1,1,1,1,3,3,6,10,10,11,11,11,25,25,37,38,43,46,48,60,67,67
participant_1_KILLS,0,0,0,1,1,1,1,1,1,1,1,1,1,2,3,3,3,3,3,3,3,3,3,3,3,3,3,3
participant_1_BUY,[],"[3340, 3858, 2003, 2003]",[],"[1029, 2003, 2055]",[],[],"[1001, 1028]",[],"[3067, 3364]",[],[],"[3117, 2003]",[],[1033],[],[],"[3190, 2055]",[2003],[],[],"[1029, 1027]",[],"[3024, 2003]",[1028],[3067],[],[],[]
participant_1_SOLD,[],[],[2003],[2003],[],"[2003, 2010]",[],[],"[2010, 1028, 3340]",[],[2055],"[2010, 1001]",[3858],[],[],[2003],"[3067, 1033, 1029]",[],[],[2003],[2055],[],"[1027, 1029]",[],[1028],[],[],[]
participant_1_UNDO,[],[],[],[],[],[],[],[],[],[],[],[],[],[],[],[],[],[],[],[],[],[],[],[],[],[],[],[]
participant_2_GOLD,500,500,597,864,1092,1263,1428,1662,1896,2089,2316,2502,2624,2809,3254,3425,3548,3670,3792,3915,4037,4232,4389,4562,4747,5020,5142,5287
participant_2_CURRENTGOLD,500,50,147,404,632,803,568,802,1036,179,406,592,714,899,1334,655,778,900,122,245,367,562,719,542,727,565,687,852
participant_2_LEVEL,1,1,1,3,4,5,5,6,7,7,8,8,8,8,9,10,10,10,10,10,10,10,10,10,11,11,11,12
participant_2_MINIONSKILLED,0,0,4,10,16,19,22,28,34,38,43,47,47,51,57,60,60,60,60,60,60,62,64,64,68,68,68,70
participant_2_KILLS,0,0,0,0,0,0,0,0,0,0,0,0,0,0,0,0,0,0,0,0,0,0,0,0,0,0,0,0
participant_2_BUY,[],[1054],[],[],[],[],[1028],[],[],[3145],[],[],[],[],[],[1026],[],[],[3152],[],[],[],[],[1027],[],[1052],[],[]
participant_2_SOLD,[],[],[],[],[2403],[],[],[],[],[2403],[2403],[],[],[],[],[],[],[],"[3145, 1028, 1026]",[],[],[],[],[],[],[],[],[]
participant_2_UNDO,[],[],[],[],[],[],[],[],[],[],[],[],[],[],[],[],[],[],[],[],[],[],[],[],[],[],[],[]
participant_3_GOLD,500,500,522,1057,1269,1595,1730,1965,2270,2505,2743,2913,3140,3655,4245,4386,4547,4738,4878,5068,5298,5539,5679,6033,6324,6464,6605,6731
participant_3_CURRENTGOLD,500,0,22,132,344,670,105,340,245,480,718,138,365,430,1020,1161,97,238,378,568,148,389,229,183,74,214,355,481
participant_3_LEVEL,1,1,1,1,2,3,3,4,5,6,6,6,7,7,8,8,8,9,9,9,9,10,10,11,11,11,12,12
participant_3_MINIONSKILLED,0,0,0,0,4,6,6,9,10,13,15,17,19,19,19,19,20,20,20,20,21,24,24,25,25,25,25,25
participant_3_KILLS,0,0,0,0,0,0,0,0,0,0,1,1,1,2,3,3,3,3,3,4,4,5,5,5,5,5,5,5
participant_3_BUY,[],"[1039, 2003, 2003, 3340]",[],[],[],[],[],[],[],"[1026, 1052, 1027, 1052]",[],"[1001, 3802]",[],[],"[6655, 3117]",[],[1029],[],[1031],[1028],[],[3742],[],[1058],[],[],[],[1058]
participant_3_SOLD,[],[],[],[2003],[],[2003],[],[],[],[1039],[],"[1052, 1027, 1052]",[],[],"[3802, 1026, 1001]",[],[],[],[1029],[],[],"[1028, 1031]",[],[],[],[],[],[]
participant_3_UNDO,[],[],[],[],[],[],[],[],[],[],[],[],[],[],[],[],[],[],[],[],[],[],[],[],[],[],[],[]
participant_4_GOLD,500,500,520,966,1270,1931,2095,2473,2965,3266,3588,4031,4372,4796,4939,5258,5429,5745,5895,6095,6745,7045,7272,7445,8545,8709,8895,9005
participant_4_CURRENTGOLD,500,0,20,466,770,1431,295,673,265,366,688,531,872,421,564,883,429,745,295,495,270,570,797,969,145,309,495,255
participant_4_LEVEL,1,1,1,2,3,4,4,5,5,6,6,7,7,8,8,8,8,9,9,9,10,10,11,11,11,11,12,12
participant_4_MINIONSKILLED,0,0,0,8,18,29,32,45,49,56,63,64,73,77,78,86,89,93,95,97,102,110,116,116,118,121,125,125
participant_4_KILLS,0,0,0,0,1,1,1,1,1,1,1,1,2,2,2,2,2,3,4,4,4,4,4,5,5,6,6,6
participant_4_BUY,[],"[1055, 2003, 3340]",[],[],[3067],"[2003, 2003]",[],[],"[3057, 2003, 2003, 2003, 2055]",[],"[1036, 1042]",[],[3078],[2003],[],[],[1001],[3111],"[3133, 1029]",[],[1031],[],[],[],"[6333, 3067]",[],[3133],[1036]
participant_4_SOLD,[],[],[],[2003],[],[],"[2003, 2003]",[],[],[2003],"[2055, 2003]",[],"[2003, 3057, 1042, 1036, 3067]",[2003],[],[],[],"[1055, 1001]",[],[],[1029],[],[],[],"[1031, 3133]",[],[],[]
participant_4_UNDO,[],[],[],[],[],[],[],[],[],[],[],[],[],[],[],[],[],[],[],[],[],[],[],[],[],[],[],[]
participant_5_GOLD,500,500,583,741,976,1294,1553,1675,2376,2625,2875,3480,3794,5232,5625,6474,6697,7304,7484,8074,8197,8472,9355,9862,11499,11812,12085,13169
participant_5_CURRENTGOLD,500,0,83,241,126,444,703,125,826,1075,175,30,344,1782,150,999,347,954,734,1324,72,347,1230,587,2225,1138,310,1214
participant_5_LEVEL,1,1,1,2,3,5,6,6,7,8,8,8,9,10,10,11,11,12,12,12,12,12,13,13,14,14,14,15
participant_5_MINIONSKILLED,0,0,3,5,12,20,25,25,38,45,49,55,57,65,69,73,73,78,78,78,78,83,86,86,96,96,96,99
participant_5_KILLS,0,0,0,0,0,0,0,0,1,1,1,2,2,3,3,5,5,6,6,7,7,7,8,9,13,14,14,17
participant_5_BUY,[],"[1055, 2003, 3340]",[],[],[1036],[],[],"[1036, 1001, 2003]",[],[],"[3134, 1036, 1036, 2003]","[3133, 1036]",[],[],"[6691, 3158, 1036, 2055]",[],"[3134, 1037]",[],[3134],[],"[3142, 1036]",[],[],"[3134, 1028]",[],[3814],[3133],[]
participant_5_SOLD,[],[],[],[2003],[],[],[],[],[],[2003],"[1036, 1036]","[1036, 1036]",[2003],[],"[3134, 3133, 1001]",[2055],"[1036, 1036]",[],"[1036, 1036]",[],"[3134, 1037]",[],[],[1036],[],"[3134, 1028]",[1055],[]
participant_5_UNDO,[],[],[],[],[],[],[],[],[],[],[],[],[],[],[],[],"[[0, 3134]]",[],[],[],[],[],[],[],[],[],"[[1055, 0]]",[]
participant_6_GOLD,500,500,636,913,1318,1682,1860,2172,2463,2686,3326,3609,4151,5188,5617,5931,6667,7303,7625,8208,8519,8820,10078,10417,11108,11632,12604,13524
participant_6_CURRENTGOLD,500,0,136,413,818,1182,1360,332,623,71,711,444,986,2023,802,341,1077,1713,160,743,204,506,1763,128,818,517,1490,2349
participant_6_LEVEL,1,1,2,2,4,4,5,5,6,6,7,8,8,9,9,10,10,11,11,12,12,12,13,13,14,15,15,16
participant_6_MINIONSKILLED,0,0,0,0,0,0,0,0,3,3,3,3,3,12,13,13,16,16,16,16,16,20,21,22,25,26,27,38
participant_6_KILLS,0,0,0,0,0,0,0,0,1,1,1,1,1,1,1,1,1,1,1,1,1,2,2,2,2,2,2,3
participant_6_BUY,[],"[1056, 2003, 2003, 3340]",[],[],[],[],[3802],[],[],[],[],[],[],[6653],[3020],[],[],[],[3145],[],[],[],"[4628, 1052]",[1029],[],[],[],[]
participant_6_SOLD,[],[],[],[],[],[],[],[],[],[],[],[],[],[3802],[2422],[],"[2003, 2003]",[],[],[],[],[],[3145],[],[],[],[],[]
participant_6_UNDO,[],[],[],[],[],[],[],[],[],[],[],[],[],[],[],[],[],[],[],[],[],[],[],[],[],[],[],[]
participant_7_GOLD,500,500,611,895,1218,1613,1883,2194,2832,3327,3589,3955,4302,4671,5382,5554,6111,6495,6897,7301,7535,8075,8423,8545,9018,9408,9808,10491
participant_7_CURRENTGOLD,500,0,111,395,708,1093,63,374,1002,1487,1749,2115,2462,721,622,794,1351,1735,1087,1491,1725,2265,228,50,523,913,1313,2056
participant_7_LEVEL,1,1,1,3,4,5,6,7,7,8,8,9,10,10,11,11,12,12,13,13,13,14,14,14,14,15,15,16
participant_7_MINIONSKILLED,0,0,5,14,23,36,45,56,66,75,83,93,103,112,122,122,129,132,142,155,162,165,166,166,181,191,202,212
participant_7_KILLS,0,0,0,0,0,0,0,0,0,0,1,1,2,2,2,2,3,4,4,4,4,4,6,6,6,6,7,8
participant_7_BUY,[],"[1039, 2031]",[],[],[],[],[],"[3134, 1001]",[],"[1036, 1036, 2055, 3364]",[],[1053],[],[],"[6692, 3006]","[1036, 1036, 2055]",[],[],"[3134, 1037, 1018]",[],"[6676, 1036, 2055]",[],[],"[3134, 1037, 1036]",[],[6695],[],[]
participant_7_SOLD,[],[],[],[],[],[],[],[2031],[],[3340],[2055],[1036],[1039],"[3364, 3513]","[3134, 1036, 1053, 1001]",[],[],[2055],"[1036, 1036]",[],"[3134, 1037, 1018]",[],[2055],[1036],[],"[3134, 1037]",[],[]
participant_7_UNDO,[],[],[],[],[],[],[],[],[],[],[],[],[],[],[],[],[],[],[],[],[],[],[],[],[],[],[],[]
participant_8_GOLD,500,500,562,1178,1497,1864,2029,2413,3161,3469,3845,4807,5098,5884,6521,7112,8308,8650,9980,10526,10649,10963,11869,12753,13185,13657,14201,14931
participant_8_CURRENTGOLD,500,0,62,678,997,1364,129,513,1261,119,495,707,298,284,921,1512,2708,300,1630,227,349,663,1569,2454,910,1383,1926,2656
participant_8_LEVEL,1,1,1,2,3,4,4,5,6,6,7,8,8,8,9,9,10,11,11,12,12,12,13,13,14,14,14,15
participant_8_MINIONSKILLED,0,0,2,10,22,33,35,47,59,65,76,87,93,94,101,114,122,122,133,133,133,135,146,156,161,161,166,170
participant_8_KILLS,0,0,0,1,1,1,1,1,2,2,2,4,4,6,6,6,8,9,12,12,12,12,13,14,14,15,16,16
participant_8_BUY,[],"[3070, 2003, 2003, 3340]",[],[],[],[],"[3133, 1001]",[],[],"[3004, 1036]",[],[3044],[3057],[3067],[],[],[],"[6632, 3158, 3035]",[],[6694],[],[],[],[],"[3133, 1037]",[],[],[]
participant_8_SOLD,[],[],[],"[2003, 2003]",[],[],[],[],[],"[3070, 3133]",[],[1036],[],[],[],[],[3004],"[3044, 3057, 3067, 1001]",[],[3035],[],[],[],[],[],[],[],[]
participant_8_UNDO,[],[],[],[],[],[],[],[],[],[],[],[],[],[],[],[],[],[],[],[],[],[],[],[],[],[],[],[]
participant_9_GOLD,500,500,543,855,1039,1236,1370,1592,1931,2160,2315,2769,2996,3334,3845,4244,5392,5533,6181,6733,6874,7014,7254,7994,8543,8829,9738,10197
participant_9_CURRENTGOLD,500,0,43,280,464,11,145,367,306,535,690,19,246,184,294,694,1842,133,781,1333,374,164,404,1144,693,979,1888,2347
participant_9_LEVEL,1,1,1,1,2,3,3,4,4,5,5,6,6,7,7,8,9,9,10,10,10,10,10,11,12,12,13,14
participant_9_MINIONSKILLED,0,0,1,3,6,7,7,9,11,12,13,13,15,15,15,16,19,19,22,22,22,22,22,23,24,24,28,28
participant_9_KILLS,0,0,0,0,0,0,0,0,0,0,0,0,0,0,1,1,3,3,3,4,4,4,4,5,5,5,6,6
participant_9_BUY,[],"[3854, 2003, 2003]",[],[2055],[],"[1036, 2055, 1001]",[],[],[1028],[],[],"[3044, 3057, 2055]",[],[1028],[3067],[],[],"[6632, 3047, 1036]",[],[],"[3134, 1036]",[1036],[],[],"[3179, 3364]",[],[],[]
participant_9_SOLD,[],[],"[2003, 2003]",[],[],[],[2055],[],[],[],[],"[1028, 1036]",[],[3854],[1028],[],[2055],"[3044, 3057, 3067, 1001]",[],[],[1036],[],[],[],"[3134, 1036, 1036, 3340]",[3855],[],[]
participant_9_UNDO,[],[],[],[],[],"[[0, 2055]]",[],[],[],[],[],[],[],[],[],[],[],[],[],[],[],[],[],[],[],[],[],[]
team0_KILLS,0,0,0,1,2,3,3,3,4,4,5,6,7,9,11,11,11,12,13,14,15,16,16,17,19,20,20,20
team0_CURRENTGOLD,2500,100,442,1963,2679,4275,2850,4383,3845,1830,2824,2343,2835,3817,3753,4128,2393,3306,1481,3147,2834,3250,3976,3967,1642,3347,3658,2179
team0_TOTALGOLD,2500,2500,2842,4798,6314,8010,8985,10518,12205,13510,15154,16403,18088,20445,22341,23566,24281,25864,27439,29505,31217,33333,34359,36351,38350,40490,41900,42522
team0_LEVEL,5,5,6,12,16,20,21,26,30,32,35,36,39,40,43,45,45,47,49,49,52,53,54,57,58,59,62,63
team0_SBIRES,0,0,7,33,54,79,92,128,146,169,189,204,222,234,248,269,274,278,295,307,334,356,375,388,396,419,448,451
team1_KILLS,0,0,0,1,1,1,1,1,4,4,5,8,9,12,13,15,20,23,26,28,28,29,33,36,40,42,45,50
team1_CURRENTGOLD,2500,0,435,2007,3113,4094,2400,1711,4018,3287,3820,3315,4336,4994,2789,4340,7325,4835,4392,5118,2724,3945,5194,4363,5169,4930,6927,10622
team1_TOTALGOLD,2500,2500,2935,4582,6048,7689,8695,10046,12763,14267,15950,18620,20341,24309,26990,29315,33175,35285,38167,40842,41774,43344,46979,49571,53353,55338,58436,62312
team1_LEVEL,5,5,6,10,16,21,24,27,30,33,35,39,41,44,46,49,52,55,57,59,59,60,63,64,68,70,71,76
team1_SBIRES,0,0,11,32,63,96,112,137,177,200,224,251,271,298,320,338,359,367,391,404,411,425,441,453,487,498,519,547
delta_KILLS,0,0,0,0,1,2,2,2,0,0,0,-2,-2,-3,-2,-4,-9,-11,-13,-14,-13,-13,-17,-19,-21,-22,-25,-30
delta_CURRENTGOLD,0,100,7,-44,-434,181,450,2672,-173,-1457,-996,-972,-1501,-1177,964,-212,-4932,-1529,-2911,-1971,110,-695,-1218,-396,-3527,-1583,-3269,-8443
delta_TOTALGOLD,0,0,-93,216,266,321,290,472,-558,-757,-796,-2217,-2253,-3864,-4649,-5749,-8894,-9421,-10728,-11337,-10557,-10011,-12620,-13220,-15003,-14848,-16536,-19790
delta_LEVEL,0,0,0,2,0,-1,-3,-1,0,-1,0,-3,-2,-4,-3,-4,-7,-8,-8,-10,-7,-7,-9,-7,-10,-11,-9,-13
delta_SBIRES,0,0,-4,1,-9,-17,-20,-9,-31,-31,-35,-47,-49,-64,-72,-69,-85,-89,-96,-97,-77,-69,-66,-65,-91,-79,-71,-96
