name,frame_0,frame_1,frame_2,frame_3,frame_4,frame_5,frame_6,frame_7,frame_8,frame_9,frame_10,frame_11,frame_12,frame_13,frame_14,frame_15,frame_16,frame_17,frame_18,frame_19,frame_20,frame_21,frame_22,frame_23,frame_24,frame_25,frame_26,frame_27,frame_28,frame_29,frame_30,frame_31,frame_32,frame_33,frame_34
nameStamp,Tstart,Tearly,Tearly,Tearly,Tearly,Tearly,Tearly,Tearly,Tearly,Tearly,Tearly,Tearly,Tearly,Tearly,Tearly,Tearly,Tearly,Tmid,Tmid,Tmid,Tmid,Tmid,Tmid,Tmid,Tmid,Tmid,Tmid,Tmid,Tmid,Tmid,Tmid,Tmid,Tmid,Tmid,Tmid
timestamp,0,60014,120023,180030,240053,300061,360080,420089,480107,540116,600139,660149,720161,780173,840182,900202,960209,1020220,1080249,1140263,1200278,1260303,1320324,1380344,1440359,1500374,1560387,1620404,1680415,1740431,1800455,1860469,1920486,1980499,2040499
participant_0_GOLD,500,500,597,845,1004,1196,1389,1549,1720,1999,2324,2552,2765,2895,3032,3658,3938,4409,4901,5441,5564,5778,6382,7104,7301,7424,7748,8071,8249,9013,9948,10070,10310,10433,10521
participant_0_CURRENTGOLD,500,0,97,345,154,346,239,399,120,389,714,942,1155,435,572,1198,678,1149,191,731,104,318,922,769,966,124,448,771,949,1713,448,570,811,933,971
participant_0_LEVEL,1,1,1,3,3,4,5,5,6,7,7,8,8,8,8,9,10,10,11,11,11,12,12,12,13,13,13,13,13,14,14,14,14,14,14
participant_0_MINIONSKILLED,0,0,4,11,13,17,21,22,25,31,43,49,54,54,55,60,65,68,72,75,75,77,83,83,83,83,90,90,93,95,102,102,105,105,105
participant_0_KILLS,0,0,0,0,0,0,0,0,0,0,0,0,0,1,1,1,1,2,2,3,3,3,3,3,4,4,4,4,4,4,4,4,4,4,4
participant_0_BUY,[],[2033],[],[],[],[],[3067],[],[],[],[],[],"[3044, 3057]",[],[],"[6632, 1001]",[],[],[3047],[1036],[],[3133],[1029],[],[],[],[],"[1031, 1037, 6333]",[],[1036],[],[],[],[3133],[]
participant_0_SOLD,[],[],[],[],[],[],[],[],[],[],[],[],[],[],[],"[3044, 3057, 3067]",[],[],[1001],[],[],[1036],[],[],[],[],[],"[1029, 1031, 3133, 1037]",[],[],[],[],[],[1036],[]
participant_0_UNDO,[],[],[],[],[],[],[],[],[],[],[],[],[],[],[],[],[],[],[],[],[],[],[],[],[],[],[],[],[],[],[],[],[],[],[]
participant_1_GOLD,500,500,583,761,941,1182,1382,1658,1885,2101,2989,3761,4031,4314,4888,5389,5540,5806,5963,6388,7033,7504,7627,7844,8041,8164,8502,8674,9075,9692,9995,10416,10538,10814,12429
participant_1_CURRENTGOLD,500,0,83,261,441,682,882,1158,1385,401,1289,511,781,1064,1638,2139,340,456,263,688,1333,1804,532,149,346,469,807,555,955,272,575,396,519,794,2179
participant_1_LEVEL,1,1,1,2,3,4,4,5,6,6,7,8,8,8,9,10,10,10,11,11,12,12,12,13,13,13,13,13,13,14,14,14,14,14,15
participant_1_MINIONSKILLED,0,0,3,6,9,13,17,26,32,34,42,45,50,60,65,72,74,77,79,86,94,97,97,97,97,97,106,106,115,115,117,126,126,131,137
participant_1_KILLS,0,0,0,0,0,0,0,0,0,0,2,3,3,3,4,4,4,4,4,4,5,5,5,5,5,5,5,5,5,6,6,6,6,6,8
participant_1_BUY,[],"[1055, 2003, 3340]",[],[],[],[],[],[],[],"[3134, 2003, 2003]",[],"[1053, 1036, 1001]",[],[],[],[],"[6692, 3006, 1042]","[2003, 2003, 2003]",[1036],[],[],[],"[3134, 1037]",[1018],[],[],[],[6676],[],[1038],[],[1018],[],[],[]
participant_1_SOLD,[],[],[],[],[],[2003],[],[],[],[],[],[],[],[],[2003],[2003],"[3134, 1036, 1053, 1001]",[],[],[],[2003],[2003],"[2003, 1036, 1042]",[],[],[],[],"[3134, 1037, 1018]",[],[],[],[],[],[],[]
participant_1_UNDO,[],[],[],[],[],[],[],[],[],[],[],[],[],[],[],[],[],[],[],[],[],[],[],[],[],[],[],[],[],[],[],[],[],[],[]
participant_2_GOLD,500,500,562,775,1043,1263,1599,1756,1969,2225,2615,2946,3159,3668,3941,4351,4777,5314,5520,5987,6200,6372,6494,6659,7598,7721,7906,8078,8319,8441,8613,8778,9109,9232,9320
participant_2_CURRENTGOLD,500,0,62,275,543,763,299,456,669,925,1315,1646,59,568,841,251,677,1214,620,737,950,372,194,359,1298,1421,1606,78,319,91,264,428,759,132,220
participant_2_LEVEL,1,1,1,2,4,5,5,6,7,7,8,8,9,10,10,10,11,12,12,12,13,13,13,13,13,13,13,13,14,14,14,14,15,15,15
participant_2_MINIONSKILLED,0,0,2,7,14,20,24,26,32,39,51,59,65,72,77,77,91,98,103,107,108,108,108,110,116,116,119,119,122,122,122,125,133,133,133
participant_2_KILLS,0,0,0,0,0,0,0,0,0,0,0,0,0,0,0,0,0,0,0,0,0,0,0,0,0,0,0,1,1,1,1,1,1,1,2
participant_2_BUY,[],"[3850, 2003, 2003, 3340]",[],[],[],[],[],[],[3108],[],[],[],[],[],[],[3802],[],[],[],[],"[6653, 1001]",[],[],[3020],[],[],[1052],[3108],[],[],[],[4632],[],[],[3102]
participant_2_SOLD,[],[],[],[],[2003],[2003],[],[],[],[],[],[],[],[3850],[],[],[],[],[],[3851],"[3802, 3108]",[],[],[1001],[],[],[],[1052],[],[],[],[],[],[],"[3108, 4632]"
participant_2_UNDO,[],[],[],[],[],[],[],[],[],[],[],[],[],[],[],[],[],[],[],[],[],[],[],[],[],[],[],[],[],[],[],[],[],[],[]
participant_3_GOLD,500,500,522,776,992,1140,1315,1449,1583,1739,2186,2341,2509,2746,2967,3107,3287,3672,3894,4190,4330,4520,4689,5054,5195,5425,5565,6356,6559,6850,7068,7229,7370,7545,8922
participant_3_CURRENTGOLD,500,0,22,276,492,640,815,949,183,339,786,941,1109,1346,1567,407,587,972,1194,1490,130,320,489,54,195,425,130,456,659,950,1168,129,270,445,1422
participant_3_LEVEL,1,1,1,2,3,4,4,5,5,6,6,6,7,7,8,8,8,9,9,10,10,10,11,11,11,11,11,12,12,12,13,13,13,13,14
participant_3_MINIONSKILLED,0,0,0,0,0,1,1,1,1,2,4,4,5,5,5,5,5,6,8,8,8,8,10,10,10,11,11,11,15,15,17,18,18,20,23
participant_3_KILLS,0,0,0,0,0,0,1,1,1,1,1,1,1,1,1,3,3,4,4,4,4,4,4,4,4,4,4,4,4,4,4,4,5,5,5
participant_3_BUY,[],"[1039, 2031, 3340]",[],[],[1028],[],[],[],"[6660, 1029]",[],[],[],[],[],"[3105, 3068]",[],[],"[3076, 1011]",[],[],[],[],"[3075, 3067]",[],[1029],[1029],[],[],[],[],[3143],[1001],[1029],[],[3047]
participant_3_SOLD,[],[],[],[],[],[],[],[],[1028],[],[1039],[],[],[],"[1029, 6660, 3105]",[],[],[],[],[],[],[],"[3076, 1011]",[],[],[],[],[],[],[],"[1029, 1029, 3067]",[],[],[],"[1001, 1029]"
participant_3_UNDO,[],[],[],[],[],[],[],[],[],[],[],[],[],[],[],[],[],[],[],[],[],[],[],[],[],[],[],[],[],[],[],[],[],[],[]
participant_4_GOLD,500,500,605,962,1171,1475,1926,2125,2382,2590,2992,3115,3342,3685,3808,5095,5349,5915,6228,6476,6814,7104,7380,7649,7771,7894,8030,8550,8758,9100,9384,9598,10020,10163,10541
participant_4_CURRENTGOLD,500,0,105,462,271,575,1026,1225,582,790,1192,1315,1542,1885,108,1395,1649,515,828,1076,1414,1704,180,449,271,94,230,750,958,1300,285,198,320,464,341
participant_4_LEVEL,1,1,2,3,3,4,4,5,5,5,6,6,7,7,7,8,9,9,10,10,11,11,11,11,11,11,12,12,12,13,13,13,14,14,15
participant_4_MINIONSKILLED,0,0,0,0,0,0,2,2,2,2,2,2,2,2,2,2,2,3,3,3,3,6,15,19,19,19,20,27,27,27,34,39,39,40,44
participant_4_KILLS,0,0,0,0,0,0,0,0,0,0,0,0,0,0,0,1,1,2,3,4,4,4,5,7,7,7,7,7,7,8,9,9,9,9,9
participant_4_BUY,[],"[1036, 2031, 3340]",[],[],[1036],[],[1001],[],[1033],[],[],[],[],"[3155, 1036]",[],[],[3111],[],"[3156, 1036]",[],[3134],[],[],[1037],[],[3142],[],[],[],[],"[3134, 3133]",[],[],[],[]
participant_4_SOLD,[],[],[],[],[],[],[],[],[],[],[],[],[],"[1036, 1033]",[],[],[1001],[],"[3155, 1036, 1036]",[],[1036],[],[],[],[],"[2031, 3134, 1037]",[],[],[],[],[],[],[],[],[]
participant_4_UNDO,[],[],[],[],[],[],[],[],[],[],[],[],[],[],[],[],[],[],[],[],[],[],[],[],[],[],[],[],[],[],[],[],[],[],[]
participant_5_GOLD,500,500,555,828,1015,1249,1442,1564,1937,2235,2399,2688,2944,3463,3709,3831,4112,4234,4509,4682,4945,5309,5751,6193,6316,6520,6784,7099,7221,7467,7990,8207,8650,8872,9153
participant_5_CURRENTGOLD,500,0,55,328,515,749,942,89,462,760,49,338,594,313,559,181,462,584,859,1032,1295,1659,451,43,166,370,634,949,421,667,1190,257,150,372,653
participant_5_LEVEL,1,1,1,3,4,5,6,6,7,7,8,8,9,9,9,9,10,10,10,11,11,11,11,12,12,13,13,13,13,14,14,14,15,15,15
participant_5_MINIONSKILLED,0,0,2,8,11,17,22,22,33,43,45,51,55,60,64,64,66,66,71,71,77,78,78,78,78,78,80,82,82,84,86,86,86,86,88
participant_5_KILLS,0,0,0,0,0,0,0,0,0,0,1,1,1,1,1,1,1,2,2,2,2,2,2,2,2,4,4,4,4,4,4,4,5,5,5
participant_5_BUY,[],[1055],[],[],[],[],[],[],[],"[6670, 1018]",[],[],[],[],[],[6672],[],[],[],[],"[3086, 2015]",[],[3094],[],[],[],[],[],[],[3095],[],[],[],[],[]
participant_5_SOLD,[],[],[],[],[],[],[],[],[],[],[],[],[],[],[],"[6670, 1018]",[],[],[],[],[],[],"[3086, 2015]",[],[],[],[],[],[],[],[],[],[],[],[]
participant_5_UNDO,[],[],[],[],[],[],[],[],[],[],[],[],[],[],[],[],[],[],[],[],[],[],[],[],[],[],[],[],[],[],[],[],[],[],[]
participant_6_GOLD,500,500,562,782,1120,1396,1690,1875,2310,2475,3043,3345,3636,3891,4077,4199,4662,5385,5744,6189,6424,6729,7074,7196,7528,8316,8543,8961,9084,9356,9759,9906,10323,10753,11015
participant_6_CURRENTGOLD,500,50,112,332,670,946,1240,1425,1860,125,693,995,1286,1541,1727,349,812,1535,1894,2339,674,979,524,646,978,1766,1993,2411,2534,106,509,657,1073,1504,1765
participant_6_LEVEL,1,1,1,2,3,4,4,5,6,6,6,7,7,8,8,8,9,9,10,10,10,11,11,11,11,12,12,13,13,13,14,14,14,15,15
participant_6_MINIONSKILLED,0,0,2,7,17,23,30,33,40,42,49,54,61,68,72,72,85,92,102,110,114,118,127,127,131,134,140,144,144,144,150,150,150,157,157
participant_6_KILLS,0,0,0,0,0,0,0,0,0,0,0,0,0,0,1,1,1,1,1,2,2,2,2,4,4,4,4,5,5,7,7,8,8,10,12
participant_6_BUY,[],"[1056, 2003, 2003, 3340]",[],[],[],[],[],[],[],[],[],"[3802, 1026, 1001, 2003]",[],[],[],[6655],[],[],"[3020, 1052, 2003, 1052]",[],[3145],[],[],[],"[4628, 3108]",[],[],[3102],[],[],[],[1058],[],[],[]
participant_6_SOLD,[],[],[],[],[2010],"[2010, 2003]",[],[2010],[],[2003],[],[],[],[2419],[2423],"[3802, 1026]",[],[],"[1001, 2003]",[],"[1052, 1052]",[],[],[],[3145],[],[],"[1056, 3108]",[],[],[],[],[],[],[]
participant_6_UNDO,[],[],[],[],[],[],[],[],[],[],[],[],[],[],[],[],[],[],"[[0, 2003]]",[],[],[],[],[],[],[],[],[],[],[],[],[],[],[],[]
participant_7_GOLD,500,500,583,877,1085,1445,1809,2002,2479,2686,2892,3153,3566,4321,4813,4935,5732,5966,6110,6888,7227,7578,7907,9211,9383,9692,9926,10536,10790,11577,11907,12529,12955,13971,14705
participant_7_CURRENTGOLD,500,0,83,367,575,925,1279,1472,1939,2146,2352,103,516,1271,1763,635,1432,1666,160,938,1097,1448,1777,3081,403,712,946,116,370,1157,1487,860,1286,2302,2905
participant_7_LEVEL,1,1,1,3,4,5,6,6,7,8,8,9,9,10,10,10,11,11,11,12,12,12,13,14,14,14,14,15,15,15,16,16,16,17,17
participant_7_MINIONSKILLED,0,0,3,11,16,27,38,42,51,56,61,66,76,85,89,89,102,110,111,118,124,126,130,137,137,137,145,145,149,150,151,151,157,161,162
participant_7_KILLS,0,0,0,0,2,2,2,3,3,3,3,4,5,6,6,6,6,6,6,6,6,7,8,8,10,10,11,13,13,13,14,14,15,17,18
participant_7_BUY,[],"[1035, 2031]",[],[],[],[6670],[],[],[],[],[],[6673],[],[],[],[3006],[],"[2015, 1018]",[],[],[],[],[],"[3095, 1031, 3133]",[1031],[],[],[],[],"[6333, 1038]",[],[1031],[],[],[]
participant_7_SOLD,[],[],[],[],[],[],[],[],[],[],[1035],[6670],[],[],[],[],[],[],[],[],[],[],[],[1018],[],[],[],[],[],"[1031, 3133]",[],[2031],[],[],[]
participant_7_UNDO,[],[],[],[],[],[],[],[],[],[],[],[],[],[],[],[],[],"[[0, 2015]]",[],[],[],[],[],"[[0, 1031]]",[],[],[],[],[],[],[],[],[],[],[]
participant_8_GOLD,500,500,620,842,1806,2013,2136,2631,2853,3076,3488,3981,4422,4965,5187,5310,5806,6003,6211,6588,7046,8134,8801,9129,10000,10123,10768,11781,12029,12393,12957,13179,13920,15335,16069
participant_8_CURRENTGOLD,500,0,120,342,1306,213,336,831,1053,1276,1688,81,522,1065,1287,310,806,403,611,988,1446,2534,3201,329,401,523,1168,2181,2430,293,857,340,1080,2496,3169
participant_8_LEVEL,1,1,2,2,3,4,4,4,5,5,6,6,7,7,8,8,9,9,9,10,10,10,11,12,13,13,13,14,15,15,15,15,16,17,17
participant_8_MINIONSKILLED,0,0,0,0,0,0,0,0,0,0,0,0,0,0,0,0,0,0,0,4,6,7,10,10,10,10,13,14,14,19,21,21,21,29,33
participant_8_KILLS,0,0,0,0,0,0,0,0,1,1,1,1,1,1,1,1,1,1,1,1,1,1,1,1,2,2,2,3,3,4,4,5,5,5,5
participant_8_BUY,[],"[3850, 2003, 2003]",[],[],[],[],[],"[1027, 2003, 2003, 2003, 2003, 2003]",[],[],"[3802, 2003]",[],[],[],[],[],[],[],"[1026, 2003, 2003]",[6656],[1001],[],[],"[3020, 2003, 2003, 1052]",[],[],[],[],"[3191, 3108, 2003, 2003, 2003, 2003, 2003]","[3157, 2003, 2003]",[],[],[3108],[],[]
participant_8_SOLD,[],[],[],"[2010, 2003]",[2003],[2010],[],[],[2003],[],"[3850, 1027]",[],[],[],[],[2003],[2003],[3851],[],"[3802, 1026]",[],"[2003, 2010]",[],"[2003, 1001]",[],"[2003, 2003, 2003]",[],"[2003, 2003]",[1052],"[2003, 2003, 3191, 3108]",[],[],[],[],[]
participant_8_UNDO,[],[],[],[],[],[],[],[],[],[],[],[],[],[],[],[],[],[],[],[],[],[],[],[],[],[],[],[],[],[],[],[],[],[],[]
participant_9_GOLD,500,500,522,784,1000,1194,1349,1483,2018,2174,2540,2836,2977,3205,3615,3797,4042,4359,4499,4689,4880,5270,5485,6076,6666,6843,7019,7699,7839,8472,8662,9282,9572,9837,10159
participant_9_CURRENTGOLD,500,0,22,284,500,694,849,383,918,1074,440,736,877,1105,1515,1697,1942,2259,1449,389,280,670,886,141,731,908,1084,1764,290,122,312,932,322,588,909
participant_9_LEVEL,1,1,1,2,3,4,4,4,6,6,7,7,7,8,8,9,9,9,10,10,10,10,10,11,12,12,12,13,13,13,13,14,14,14,14
participant_9_MINIONSKILLED,0,0,0,2,2,2,2,2,3,4,4,5,5,7,7,8,10,11,11,11,11,14,14,14,14,14,16,17,17,20,20,22,22,22,22
participant_9_KILLS,0,0,0,0,0,0,0,0,0,0,0,0,0,0,0,0,0,0,0,0,0,0,1,2,2,2,2,2,2,2,3,3,4,4,4
participant_9_BUY,[],"[1054, 2003]",[],[],[],[],[],"[1037, 2003, 2003]",[],[],"[3077, 1028, 2003, 2003, 2003]",[],[],"[3044, 2003, 2003]",[],"[1028, 2003, 2003]",[],[],[],[],[],[],"[3053, 2003]","[1028, 1028, 2003]",[],[],[],[],"[1011, 2003, 2003, 2003]",[],[],"[3748, 1036]",[1053],[],[]
participant_9_SOLD,[],[],[],[2003],[],[],[],[],[],"[2003, 2003]",[1037],[],[2003],"[2003, 2003, 1028]",[],[],[],[2003],[],[],[],"[2003, 2003]","[3044, 1028]","[2003, 2003]",[],[2003],[],[],[1028],[],[],"[3077, 1028, 1011]","[2003, 1036]",[],"[2003, 2003]"
participant_9_UNDO,[],[],[],[],[],[],[],[],[],[],[],[],[],[],[],[],[],[],[],[],[],[],[],[],[],[],[],[],[],[],[],[],[],[],[]
team0_KILLS,0,0,0,0,0,0,1,1,1,1,3,4,4,5,6,9,9,12,13,15,16,16,17,19,20,20,20,21,21,23,24,24,25,25,28
team0_CURRENTGOLD,2500,0,369,1619,1901,3006,3261,4187,2939,2844,5296,5355,4646,5298,4726,5390,3931,4306,3096,4722,3931,4518,2317,1780,3076,2533,3221,2610,3840,4326,2740,1721,2679,2768,5133
team0_TOTALGOLD,2500,2500,2869,4119,5151,6256,7611,8537,9539,10654,13106,14715,15806,17308,18636,21600,22891,25116,26506,28482,29941,31278,32572,34310,35906,36628,37751,39729,40960,43096,45008,46091,47347,48187,51733
team0_LEVEL,5,5,6,12,16,21,22,26,29,31,34,36,39,40,42,45,48,50,53,54,57,58,59,60,61,61,62,63,64,67,68,68,70,70,73
team0_SBIRES,0,0,9,24,36,51,65,77,92,108,142,159,176,193,204,216,237,252,265,279,288,296,313,319,325,326,346,353,372,374,392,410,421,429,442
team1_KILLS,0,0,0,0,2,2,2,3,4,4,5,6,7,8,9,9,9,10,10,11,11,12,14,17,20,22,23,27,27,30,32,34,37,41,44
team1_CURRENTGOLD,2500,50,392,1653,3566,3527,4646,4200,6232,5381,5222,2253,3795,5295,6851,3172,5454,6447,4973,5686,4792,7290,6839,4240,2679,4279,5825,7421,6045,2345,4355,3046,3911,7262,9401
team1_TOTALGOLD,2500,2500,2842,4113,6026,7297,8426,9555,11597,12646,14362,16003,17545,19845,21401,22072,24354,25947,27073,29036,30522,33020,35018,37805,39893,41494,43040,46076,46963,49265,51275,53103,55420,58768,61101
team1_LEVEL,5,5,6,12,17,22,24,25,31,32,35,37,39,42,43,44,48,48,50,53,53,54,56,60,62,64,64,68,69,70,72,73,75,78,78
team1_SBIRES,0,0,7,28,46,69,92,99,127,145,159,176,197,220,232,233,263,279,295,314,332,343,359,366,370,373,394,402,406,417,428,430,436,455,462
delta_KILLS,0,0,0,0,-2,-2,-1,-2,-3,-3,-2,-2,-3,-3,-3,0,0,2,3,4,5,4,3,2,0,-2,-3,-6,-6,-7,-8,-10,-12,-16,-16
delta_CURRENTGOLD,0,-50,-23,-34,-1665,-521,-1385,-13,-3293,-2537,74,3102,851,3,-2125,2218,-1523,-2141,-1877,-964,-861,-2772,-4522,-2460,397,-1746,-2604,-4811,-2205,1981,-1615,-1325,-1232,-4494,-4268
delta_TOTALGOLD,0,0,27,6,-875,-1041,-815,-1018,-2058,-1992,-1256,-1288,-1739,-2537,-2765,-472,-1463,-831,-567,-554,-581,-1742,-2446,-3495,-3987,-4866,-5289,-6347,-6003,-6169,-6267,-7012,-8073,-10581,-9368
delta_LEVEL,0,0,0,0,-1,-1,-2,1,-2,-1,-1,-1,0,-2,-1,1,0,2,3,1,4,4,3,0,-1,-3,-2,-5,-5,-3,-4,-5,-5,-8,-5
delta_SBIRES,0,0,2,-4,-10,-18,-27,-22,-35,-37,-17,-17,-21,-27,-28,-17,-26,-27,-30,-35,-44,-47,-46,-47,-45,-47,-48,-49,-34,-43,-36,-20,-15,-26,-20
