name,frame_0,frame_1,frame_2,frame_3,frame_4,frame_5,frame_6,frame_7,frame_8,frame_9,frame_10,frame_11,frame_12,frame_13,frame_14,frame_15,frame_16,frame_17,frame_18,frame_19,frame_20,frame_21,frame_22,frame_23,frame_24,frame_25,frame_26,frame_27,frame_28,frame_29,frame_30,frame_31,frame_32,frame_33
nameStamp,Tstart,Tearly,Tearly,Tearly,Tearly,Tearly,Tearly,Tearly,Tearly,Tearly,Tearly,Tearly,Tearly,Tearly,Tmid,Tmid,Tmid,Tmid,Tmid,Tmid,Tmid,Tmid,Tmid,Tmid,Tmid,Tend,Tend,Tend,Tend,Tend,Tend,Tend,Tend,Tend
timestamp,0,60030,120060,180088,240118,300125,360149,420180,480210,540242,600268,660269,720296,780304,840329,900362,960387,1020397,1080427,1140439,1200445,1260445,1320475,1380484,1440488,1500490,1560517,1620518,1680549,1740575,1800600,1860608,1920627,1980627
participant_0_GOLD,500,500,612,1239,1548,1985,2314,2597,2921,3079,3285,3637,3942,4289,4712,5144,5344,5829,6272,6569,6691,7163,7459,7824,8447,9052,9216,9590,10075,10197,10355,10617,10836,10908
participant_0_CURRENTGOLD,500,0,112,139,348,785,614,47,371,79,285,637,442,339,112,544,194,9,452,349,121,593,889,1254,697,1302,367,740,125,248,405,368,586,658
participant_0_LEVEL,1,1,1,2,4,5,6,6,7,7,8,8,9,9,10,11,11,11,12,12,12,13,13,13,14,14,14,15,15,15,16,16,16,16
participant_0_MINIONSKILLED,0,0,5,11,19,35,43,53,61,63,68,78,86,96,109,121,125,129,130,136,136,146,152,162,162,173,175,186,199,199,201,202,203,203
participant_0_KILLS,0,0,0,0,1,1,1,2,2,2,2,3,3,4,4,5,5,5,5,5,5,5,5,6,6,7,7,7,8,8,10,11,11,11
participant_0_BUY,[],"[1036, 2031, 3340]",[],[],"[1033, 1036]",[],[],[],"[3155, 3133, 2055, 3364]",[],"[3156, 2055]","[1001, 1036, 2055]",[],[],"[3134, 3158]",[],[],[],"[1036, 1036, 3133]",[],"[3147, 3142]",[],[],"[1036, 1036, 2055]","[3134, 1036, 2055]",[],[3133],[3147],[1033],[1029],"[3105, 1036]",[1053],[3388],[]
participant_0_SOLD,[],[],[],[],[],[],[],[],"[1036, 1033, 1036, 3340, 2055]",[],"[3155, 3133]",[2055],[2055],[],"[1036, 1001]",[],[],[],"[2031, 2031, 1036, 1036]",[],"[3134, 3133, 3133, 3134]",[],[],[2055],"[1036, 1036]",[2055],[1036],"[3134, 3133]",[],[],"[1033, 1029]",[1036],[3142],[]
participant_0_UNDO,[],[],[],[],[],[],[],[],[],[],[],[],[],[],[],[],[],[],"[[2031, 0]]",[],"[[0, 3147]]",[],[],[],[],[],[],[],[],[],[],[],[],[]
participant_1_GOLD,500,500,621,1013,1759,2053,2190,2397,2754,3320,3542,3815,3937,4289,4753,5879,6372,6644,6950,7136,7288,7616,7901,8188,8311,8977,9223,9346,9469,9726,9965,10137,10675,10748
participant_1_CURRENTGOLD,500,0,121,513,1259,1553,1690,147,504,1070,1292,465,62,414,78,1204,1697,719,1025,1211,413,741,1026,313,36,702,349,471,294,252,490,363,901,-5864
participant_1_LEVEL,1,1,2,3,4,5,5,5,6,7,7,7,7,8,8,9,10,11,11,11,11,12,12,12,12,13,13,13,13,14,14,14,15,15
participant_1_MINIONSKILLED,0,0,0,0,8,8,9,9,9,9,9,9,9,9,10,11,11,11,12,16,16,16,20,24,24,26,27,27,27,27,28,28,34,34
participant_1_KILLS,0,0,0,0,0,0,1,1,1,1,1,2,2,2,2,2,2,3,3,3,3,3,3,3,3,3,3,3,3,3,3,3,3,3
participant_1_BUY,[],"[3858, 3340, 2003, 2003]",[],[],[],[],"[1001, 1052, 2055, 2055, 2031]",[],[],[],"[3802, 2055]",[],"[3020, 2055]",[],[],"[1026, 3364]",[],[],[3285],[],[],[],[],[1026],[],[],[1052],[],[],"[3916, 2055]",[],[3165],[1082],[]
participant_1_SOLD,[],[],[],[2003],[2003],[],[],[2055],[],[],"[1052, 2055]",[],[1001],[],[3858],[3340],[],[],"[2031, 3802, 1026]",[],[],[],[],[],[],[],[],[2055],[],[1052],[3859],"[3916, 1026]",[],[]
participant_1_UNDO,[],[],[],[],[],[],[],[],[],[],[],[],[],[],[],[],[],[],[],[],[],[],[],[],[],[],[],[],[],[],[],[],[],[]
participant_2_GOLD,500,500,584,899,1371,1682,2039,2706,2849,3553,3780,4287,4580,5262,5637,5900,6256,6631,6754,7227,7608,8033,8353,8929,9201,10244,10381,10543,11113,11235,12367,13196,13487,13559
participant_2_CURRENTGOLD,500,0,84,399,71,382,739,1406,224,928,230,12,305,987,12,275,631,1006,89,562,243,668,988,789,236,1280,666,128,248,70,503,781,1072,1024
participant_2_LEVEL,1,1,1,3,3,4,5,6,6,7,8,8,9,9,10,10,11,11,11,11,12,12,13,13,13,14,14,14,14,14,15,15,15,15
participant_2_MINIONSKILLED,0,0,3,12,15,23,34,48,49,62,68,73,79,91,93,93,108,113,113,122,133,143,151,156,156,157,158,160,164,164,165,168,173,173
participant_2_KILLS,0,0,0,0,1,1,1,1,1,2,2,2,2,2,3,5,5,5,5,5,5,5,5,5,5,6,6,6,6,6,6,6,6,6
participant_2_BUY,[],"[1039, 2003, 2003, 3340, 2003]",[],[],[],[],[],"[3117, 3706, 2003, 2003]",[],[],[],[3133],[1400],[],[3067],[],[],[3044],[],[],[3071],[],[],[3082],[1028],[],[1011],[],"[1400, 3006, 3031, 3371]",[1042],[],[1042],[],[1018]
participant_2_SOLD,[],[],[2003],[2003],[2003],[],[],[1039],[],"[2003, 2003]",[],[],"[3133, 3706]",[],[],[],[],[],[],[],"[3044, 3067]",[],[],[],[],[],[1028],[],"[1011, 3071, 3117, 3082, 1400, 3031]",[],[],[],[],[]
participant_2_UNDO,[],[],[],[],[],[],[],[],[],[],[],[],[],[],[],[],[],[],[],[],[],[],[],[],[],[],[],[],"[[0, 1400], [1400, 0]]",[],[],[],[],[]
participant_3_GOLD,500,500,584,881,1169,1759,2102,2765,3131,3775,3975,4556,5281,5817,6237,6507,6657,7023,7305,7906,8586,9393,9572,9750,10276,10677,10848,11278,11604,11859,12210,12383,12826,12898
participant_3_CURRENTGOLD,500,0,84,381,669,1259,177,840,1206,1850,350,931,1656,42,462,732,47,413,695,530,1211,2018,397,575,1101,1502,273,704,1029,1285,386,558,1002,1073
participant_3_LEVEL,1,1,1,2,3,4,4,5,5,6,6,7,8,8,9,9,9,10,10,10,11,11,12,12,12,12,13,13,13,14,14,14,14,14
participant_3_MINIONSKILLED,0,0,3,13,20,27,31,43,54,65,69,80,92,97,111,114,116,125,130,132,143,145,148,151,153,155,158,166,174,182,187,187,188,188
participant_3_KILLS,0,0,0,0,0,1,1,2,2,3,3,3,4,4,4,4,4,4,4,5,6,7,7,7,8,8,8,8,8,8,8,8,9,9
participant_3_BUY,[],"[3340, 1056, 2003, 2003]",[],[],[],[],"[3802, 2003, 2055]",[],[],[],"[3020, 1026, 2003]",[],[],"[3285, 3191]",[],[],"[1052, 1028]",[],[],[3916],[],[],[3157],[],[],[],"[3165, 3386]",[],[],[],[1058],[],[],[]
participant_3_SOLD,[],[],[],[2003],[2010],"[2003, 2010]",[],[2003],[],[2010],[2422],[2055],[],"[3802, 1026]",[],[2003],[],[],[],"[1028, 1052]",[],[],[3191],[],[],[],"[3916, 3157]",[],[],[],[],[],[],[]
participant_3_UNDO,[],[],[],[],[],[],[],[],[],[],[],[],[],[],[],[],[],[],[],[],[],[],[],[],[],[],[],[],[],[],[],[],[],[]
participant_4_GOLD,500,500,544,713,848,1099,1583,1897,2142,2517,2672,3237,3532,4071,4274,4414,4726,5166,5306,5461,5664,6005,6145,6285,6426,6790,6986,7127,7379,7791,8186,8480,8824,8907
participant_4_CURRENTGOLD,500,0,44,213,348,599,48,362,607,982,197,762,182,721,924,214,526,966,116,271,474,815,955,245,386,750,512,652,905,76,471,215,209,232
participant_4_LEVEL,1,1,1,2,3,4,4,5,6,6,7,7,7,8,8,8,8,9,9,9,10,10,10,10,11,11,11,11,11,12,13,13,14,14
participant_4_MINIONSKILLED,0,0,1,3,3,5,8,9,12,15,16,18,18,18,22,22,28,28,28,29,32,32,32,32,32,35,38,38,40,48,49,54,60,60
participant_4_KILLS,0,0,0,1,1,1,1,1,1,1,1,1,1,1,1,1,1,2,3,3,3,3,3,3,4,4,4,4,4,4,4,4,4,4
participant_4_BUY,[],"[1054, 2003, 3340]",[],"[1029, 1001]","[2003, 2003]",[],[3047],"[1031, 2003]",[],"[1028, 2003]",[],[],[3751],"[1028, 2003]",[3068],[],"[1033, 2003, 2003]","[1057, 1027, 2003]",[],[1028],[3010],[3373],[],[],"[3001, 3379]",[],[3105],[],[3190],[],[],[1029],[],[]
participant_4_SOLD,[],[],[],[2003],[],[],"[2003, 1001, 1029]",[2003],[],[2003],[2003],[],[1028],[],"[1031, 1028, 3751]",[2003],"[2003, 2003]",[1033],[2003],[],"[1028, 1027]",[3068],[],[],"[3010, 1057, 3001]",[],[],[],[3105],[],[],[],[],[]
participant_4_UNDO,[],[],[],[],[],[],[],[],[],[],[],[],[],[],[],[],[],[],[],[],[],[],[],[],[],[],[],[],[],[],[],[],[],[]
participant_5_GOLD,500,500,563,825,1183,1459,1729,2162,2326,3301,3688,4629,5366,5593,6418,6540,6841,7517,7639,7790,8783,9079,9767,10364,11426,11549,12214,13607,14054,14365,14738,16305,16838,17828
participant_5_CURRENTGOLD,500,0,63,175,533,809,1079,1512,126,1101,138,1079,1816,143,968,240,541,417,539,690,1683,290,978,774,1837,59,724,2118,844,1155,1529,3096,403,1153
participant_5_LEVEL,1,1,1,3,4,4,5,6,7,8,8,9,10,10,11,11,11,12,12,12,13,13,14,14,15,15,15,16,16,17,17,17,18,18
participant_5_MINIONSKILLED,0,0,2,10,17,23,32,47,49,65,71,88,96,102,113,113,119,124,124,126,136,143,157,165,165,165,184,191,196,199,210,218,218,222
participant_5_KILLS,0,0,0,0,0,0,1,1,1,1,1,2,2,2,2,3,3,4,5,5,5,6,6,7,7,7,8,9,9,10,11,11,11,12
participant_5_BUY,[],"[1039, 2031, 3340]",[],[],[1041],[],"[3706, 1001, 1036, 2055, 3364]",[],[],[],"[3133, 1400]",[3111],[],"[1028, 1036]",[2055],[],"[3044, 1028, 2055]",[],[],"[3071, 1029]",[],[3105],[],[],"[1053, 3133]",[],[],[],"[3812, 1038]",[],[],"[3026, 2055]",[],[]
participant_5_SOLD,[],[],[],[],[2031],[],"[1039, 1041, 3340]",[],[],[],"[1036, 2031, 3133, 3706]",[1001],[],"[2055, 3364]",[3513],[2055],"[1028, 1036]",[],[],"[3044, 1028]",[2055],[1029],[],[],[],[],[],[],"[3105, 1053, 3133]",[],[],[1038],[],[]
participant_5_UNDO,[],[],[],[],"[[2031, 0]]",[],[],[],[],[],[],[],[],[],[],[],[],[],[],[],[],[],[],[],[],[],[],[],[],[],[],[],[],[]
participant_6_GOLD,500,500,726,1033,1241,1384,1946,2288,2600,3070,3397,4190,4486,4819,4942,5543,5901,6551,7283,7539,7821,8238,8721,9571,10233,10460,11031,12117,12515,13191,13948,14241,14962,15652
participant_6_CURRENTGOLD,500,0,226,533,391,534,71,413,725,1195,307,300,596,179,227,828,211,861,1593,199,481,98,581,1431,93,321,891,1977,576,1252,2009,726,1448,2017
participant_6_LEVEL,1,1,2,3,3,3,5,5,6,7,7,8,9,9,9,10,10,11,11,12,12,12,13,13,14,14,15,15,16,16,17,17,18,18
participant_6_MINIONSKILLED,0,0,0,0,0,1,2,2,2,7,7,7,8,8,8,11,11,13,13,15,15,15,15,15,15,15,17,25,25,31,42,42,42,44
participant_6_KILLS,0,0,0,0,0,0,1,1,1,1,1,1,1,1,1,1,1,3,3,3,3,3,4,4,4,4,4,5,6,6,6,6,6,6
participant_6_BUY,[],"[1055, 2003, 3340]",[],[],[],[],"[1037, 1027, 2003, 2003, 2003]",[2003],[],"[3070, 2003, 2003]",[],"[1042, 2003]",[],[],[],"[3004, 3006, 2003, 2003]",[2003],[],[],"[1037, 1042, 1042]",[1043],"[2003, 2003, 2003]",[],[],"[3124, 1042]",[],[],"[3101, 1052]",[3108],[],[],[],"[3115, 2003, 2003, 2003]",[]
participant_6_SOLD,[],[],[],[],"[2010, 2003]",[2010],[],[2003],"[2003, 2010, 2003]",[1027],[2003],[],[],[],"[2003, 2003]","[2003, 3070, 1037, 1042, 2422]",[],[],"[2003, 2003, 2003]",[],"[1042, 1042]",[],[2003],[2003],"[1043, 1037]",[],[2003],[1042],[1052],[],[],[],"[3101, 3108, 3004]","[2003, 2003, 2003]"
participant_6_UNDO,[],[],[],[],[],[],[],[],[],[],[],[],[],[],[],[],[],[],[],[],[],[],[],[],[],[],[],[],[],[],[],[],[],[]
participant_7_GOLD,500,500,605,909,1388,1720,2063,2248,2489,2612,2853,3160,3479,3836,4566,4688,5037,5341,5628,6127,6605,7038,7819,8169,9035,9318,9934,11194,11339,11991,12114,12236,12744,12973
participant_7_CURRENTGOLD,500,0,105,409,213,545,888,173,414,37,278,585,394,751,1481,238,587,891,328,827,1305,1738,2519,169,1035,1318,1934,3194,79,732,504,627,84,-27
participant_7_LEVEL,1,1,1,3,4,5,6,6,7,7,7,8,8,9,10,10,11,11,11,12,12,13,13,13,14,15,15,16,16,16,16,16,17,17
participant_7_MINIONSKILLED,0,0,5,15,18,28,38,42,49,49,56,58,66,74,78,78,91,92,92,96,105,110,110,110,120,125,131,145,146,150,150,150,150,150
participant_7_KILLS,0,0,0,0,0,0,0,0,0,1,1,2,3,3,4,4,4,5,5,5,6,6,6,6,8,8,8,9,9,9,9,12,12,14
participant_7_BUY,[],"[1055, 2003, 3340]",[],[2031],[],[],[],[],"[1053, 1036, 1001]",[],"[3144, 1043]",[],[],"[3153, 3111, 1028]",[],[3044],[],[3067],[],[],[],"[3071, 1028, 1028]",[],[3052],[],"[3053, 1029]",[],[],"[3105, 3133]",[3133],[],[],"[3812, 3077, 2140]",[]
participant_7_SOLD,[],[],[],[2003],[],[],[],[],[],[],"[1053, 1036]",[],[],"[3144, 1043, 1001]",[],[1028],[],[],[],[],[],"[3044, 3067, 2031]",[],[1028],[],"[3052, 1028]",[],[],"[1029, 1055]",[],[],[],"[3105, 3133, 2140]",[]
participant_7_UNDO,[],[],[],[],[],[],[],[],[],[],[],[],[],[],[],[],[],[],[],[],[],[],[],[],[],[],[],[],[],"[[0, 3133]]",[],[],[],[]
participant_8_GOLD,500,500,584,913,1204,1487,1931,2182,2408,2643,2892,3015,3200,3457,3864,4154,4277,5541,5797,5920,6177,6391,7039,7615,8087,8295,8668,9250,9771,9943,10095,10243,10941,11151
participant_8_CURRENTGOLD,500,0,84,413,704,987,56,257,483,118,367,140,325,582,989,4,77,1341,1597,245,102,166,814,1390,337,545,918,265,321,493,645,793,341,551
participant_8_LEVEL,1,1,1,2,3,4,4,4,5,5,5,5,6,7,7,8,8,9,9,9,9,10,10,11,11,12,12,12,13,13,13,14,14,14
participant_8_MINIONSKILLED,0,0,3,13,23,29,30,34,37,43,51,51,55,62,68,78,78,83,88,88,88,93,101,108,108,108,118,121,124,124,125,125,134,134
participant_8_KILLS,0,0,0,0,1,1,1,1,1,1,1,1,1,1,2,2,2,2,2,3,3,3,4,4,4,4,5,5,5,6,6,6,6,6
participant_8_BUY,[],"[2033, 3340]",[],[],"[1001, 2055, 1052, 1029]",[],[],"[3158, 1029]",[],[3191],[],[],"[1052, 2055]",[],[],[3157],[],[],[1026],[],[],[],[],"[3100, 1082]",[],[],[],[],"[1058, 1058, 3089]",[],[1082],[],[3041],[]
participant_8_SOLD,[],[],[],[],[],[],[],[1001],[],"[1029, 1029]",[2055],[],[],[],[],"[3191, 1052]",[2055],[],[],[],[],[],[],[1026],[],[],[],[],"[2033, 1082, 1058, 1058]",[],[],[],[1082],[]
participant_8_UNDO,[],[],[],[],"[[0, 1052]]",[],[],[],[],[],[],[],[],[],[],[],[],[],[],[],[],[],[],[],[],[],[],[],[],[],[],[],[],[]
participant_9_GOLD,500,500,523,732,942,1136,1334,1614,1793,1979,2188,2351,2706,3421,3948,4119,4359,4784,5593,6068,6535,6675,6889,7287,7972,8112,8288,8698,8840,9510,10072,10533,11149,11370
participant_9_CURRENTGOLD,500,0,23,232,442,636,274,554,733,69,278,441,131,846,523,694,214,639,863,1338,1805,695,909,392,1077,43,218,628,120,790,1352,1813,329,520
participant_9_LEVEL,1,1,1,2,3,4,4,5,5,6,6,7,7,7,8,8,8,9,10,10,11,11,11,11,12,12,12,13,13,13,14,15,15,15
participant_9_MINIONSKILLED,0,0,0,0,0,0,4,11,11,12,13,15,16,21,24,24,24,25,30,33,42,42,48,48,48,48,50,52,52,54,57,58,58,58
participant_9_KILLS,0,0,0,0,0,0,0,0,0,0,0,0,0,1,1,1,1,1,2,2,2,2,2,2,3,3,3,3,3,3,4,4,5,5
participant_9_BUY,[],"[3850, 2003, 2003, 3340]",[],[],[],[],"[1052, 2055, 3364, 2003]",[],[],"[1028, 1001, 2055, 2055]",[],[],[3136],[],[1026],[],[3151],[],"[1028, 1052, 2055, 2055]",[],[],"[1026, 1028]",[],[3116],[],"[3020, 1029, 2055]",[],[],[2420],[],[],[],"[3157, 2055, 2055]",[]
participant_9_SOLD,[],[],[],[],[],"[2003, 2003]",[3340],[2055],[2003],[],[2055],[],"[3850, 1028, 1052]",[],[],[],"[2055, 3136, 1026]",[],[],[2055],[2055],[3851],[],"[1026, 1052, 1028]",[],[1001],[],[2055],[],[],[],[],"[1029, 2420]",[]
participant_9_UNDO,[],[],[],[],[],[],[],[],[],[],[],[],[],[],[],[],[],[],"[[0, 1028]]",[],[],[],[],[],[],[],[],[],[],[],[],[],[],[]
team0_KILLS,0,0,0,1,3,4,5,7,7,9,9,11,12,13,14,17,17,19,20,21,22,23,23,24,26,28,28,28,29,29,31,32,33,33
team0_CURRENTGOLD,2500,0,445,1645,2695,4578,3268,2802,2912,4909,2354,2807,2647,2503,1588,2969,3095,3113,2377,2923,2462,4835,4255,3176,2456,5536,2167,2695,2601,1931,2255,2285,3770,-2877
team0_TOTALGOLD,2500,2500,2945,4745,6695,8578,10228,12362,13797,16244,17254,19532,21272,23728,25613,27844,29355,31293,32587,34299,35837,38210,39430,40976,42661,45740,46654,47884,49640,50808,53083,54813,56648,57020
team0_LEVEL,5,5,6,12,17,22,24,27,30,33,36,37,40,42,45,47,49,52,53,53,56,58,60,60,62,64,65,66,66,69,72,72,74,74
team0_SBIRES,0,0,12,39,65,98,125,162,185,214,230,258,284,311,345,361,388,406,413,435,460,482,503,525,527,546,556,577,604,620,630,639,658,658
team1_KILLS,0,0,0,0,1,1,3,3,3,4,4,6,7,8,10,11,11,15,17,18,19,20,22,23,26,26,28,31,32,34,36,39,40,43
team1_CURRENTGOLD,2500,0,501,1762,2283,3511,2368,2909,2481,2520,1368,2545,3262,2501,4188,2004,1630,4149,4920,3299,5376,2987,5801,4156,4379,2286,4685,8182,1940,4422,6039,7055,2605,4214
team1_TOTALGOLD,2500,2500,3001,4412,5958,7186,9003,10494,11616,13605,15018,17345,19237,21126,23738,25044,26415,29734,31940,33444,35921,37421,40235,43006,46753,47734,50135,54866,56519,59000,60967,63558,66634,68974
team1_LEVEL,5,5,6,13,17,20,24,26,30,33,33,37,40,42,45,47,48,52,53,55,57,59,61,62,66,68,69,72,74,75,77,79,82,82
team1_SBIRES,0,0,10,38,58,81,106,136,148,176,198,219,241,267,291,304,323,337,347,358,386,403,431,446,456,461,500,534,543,558,584,593,602,608
delta_KILLS,0,0,0,1,2,3,2,4,4,5,5,5,5,5,4,6,6,4,3,3,3,3,1,1,0,2,0,-3,-3,-5,-5,-7,-7,-10
delta_CURRENTGOLD,0,0,-56,-117,412,1067,900,-107,431,2389,986,262,-615,2,-2600,965,1465,-1036,-2543,-376,-2914,1848,-1546,-980,-1923,3250,-2518,-5487,661,-2491,-3784,-4770,1165,-7091
delta_TOTALGOLD,0,0,-56,333,737,1392,1225,1868,2181,2639,2236,2187,2035,2602,1875,2800,2940,1559,647,855,-84,789,-805,-2030,-4092,-1994,-3481,-6982,-6879,-8192,-7884,-8745,-9986,-11954
delta_LEVEL,0,0,0,-1,0,2,0,1,0,0,3,0,0,0,0,0,1,0,0,-2,-1,-1,-1,-2,-4,-4,-4,-6,-8,-6,-5,-7,-8,-8
delta_SBIRES,0,0,2,1,7,17,19,26,37,38,32,39,43,44,54,57,65,69,66,77,74,79,72,79,71,85,56,43,61,62,46,46,56,50
