name,frame_0,frame_1,frame_2,frame_3,frame_4,frame_5,frame_6,frame_7,frame_8,frame_9,frame_10,frame_11,frame_12,frame_13,frame_14,frame_15,frame_16,frame_17,frame_18,frame_19,frame_20,frame_21,frame_22,frame_23,frame_24
nameStamp,Tstart,Tearly,Tearly,Tearly,Tearly,Tearly,Tearly,Tearly,Tearly,Tearly,Tearly,Tearly,Tearly,Tearly,Tmid,Tmid,Tmid,Tmid,Tmid,Tmid,Tmid,Tmid,Tmid,Tmid,Tmid
timestamp,0,60025,120047,180081,240114,300128,360147,420174,480190,540198,600211,660213,720245,780247,840255,900283,960300,1020327,1080354,1140372,1200372,1260374,1320379,1380380,1440380
participant_0_GOLD,500,500,556,783,1018,1161,1350,1486,1761,1954,2418,2710,2987,3243,3366,3896,4110,4296,4497,4619,4863,5035,5277,5400,5604
participant_0_CURRENTGOLD,500,150,206,433,668,811,150,286,561,754,1218,1510,1787,2043,366,896,1110,246,447,569,813,135,377,500,704
participant_0_LEVEL,1,1,1,2,3,4,5,5,6,7,8,8,9,9,9,10,11,11,11,11,11,11,12,12,12
participant_0_MINIONSKILLED,0,0,2,8,14,15,16,17,23,27,30,33,39,44,44,48,50,51,53,53,54,54,58,58,58
participant_0_KILLS,0,0,0,0,0,0,0,0,0,0,1,1,1,1,1,2,2,2,2,2,2,2,2,2,2
participant_0_BUY,[],"[1001, 2003]",[],[],[],[],[1026],[],[],[],[],[],[],[],[3135],[],[],[3057],[],[],[],[1026],[],[],[]
participant_0_SOLD,[],[],[],[],[],[],[],[],[],[],[],[],[],[],[1026],[],[],[],[],[],[],[],[],[],[]
participant_0_UNDO,[],[],[],[],[],[],[],[],[],[],[],[],[],[],[],[],[],[],[],[],[],[],[],[],[]
participant_1_GOLD,500,500,621,1269,1392,1605,1756,1878,2000,2123,2245,2368,2490,2662,2785,2907,3080,3252,3424,3547,3769,3942,4114,4521,4964
participant_1_CURRENTGOLD,500,0,121,769,242,455,606,728,850,973,1095,1218,1340,1512,1635,1757,1930,2102,2274,2397,2619,2792,64,471,914
participant_1_LEVEL,1,1,2,3,3,4,4,4,4,4,4,4,4,4,4,4,4,4,4,4,4,4,4,5,6
participant_1_MINIONSKILLED,0,0,0,1,1,2,4,4,4,4,4,4,4,4,4,4,4,4,4,4,4,4,4,4,7
participant_1_KILLS,0,0,0,1,1,1,1,1,1,1,1,1,1,1,1,1,1,1,1,1,1,1,1,1,1
participant_1_BUY,[],"[1041, 2031, 3340]",[],[],[3706],[],[],[],[],[],[],[],[],[],[],[],[],[],[],[],[],[],"[1402, 1001, 3101]",[],[]
participant_1_SOLD,[],[],[],[],[1041],[],[],[],[],[],[],[],[],[],[],[],[],[],[],[],[],[],[3706],[],[]
participant_1_UNDO,[],[],[],[],[],[],[],[],[],[],[],[],[],[],[],[],[],[],[],[],[],[],[],[],[]
participant_2_GOLD,500,500,542,837,960,1096,1219,1341,1463,1586,1708,1831,1953,2125,2248,2370,2543,2715,2887,3010,3232,3405,3577,3699,3903
participant_2_CURRENTGOLD,500,0,42,337,460,596,719,841,963,1086,1208,1331,1453,1625,1748,1870,2043,2215,2387,2510,2732,2905,3077,3199,3403
participant_2_LEVEL,1,1,1,2,3,3,3,3,3,3,3,3,3,3,3,3,3,3,3,3,3,3,3,3,3
participant_2_MINIONSKILLED,0,0,1,3,3,4,4,4,4,4,4,4,4,4,4,4,4,4,4,4,4,4,4,4,4
participant_2_KILLS,0,0,0,0,0,0,0,0,0,0,0,0,0,0,0,0,0,0,0,0,0,0,0,0,0
participant_2_BUY,[],"[1054, 2003, 3340]",[],[],[],[],[],[],[],[],[],[],[],[],[],[],[],[],[],[],[],[],[],[],[]
participant_2_SOLD,[],[],[],[2003],[],[],[],[],[],[],[],[],[],[],[],[],[],[],[],[],[],[],[],[],[]
participant_2_UNDO,[],[],[],[],[],[],[],[],[],[],[],[],[],[],[],[],[],[],[],[],[],[],[],[],[]
participant_3_GOLD,500,500,521,657,780,937,1116,1238,1736,1880,2002,2248,2483,3006,3746,3910,4082,4405,4616,5059,5309,5704,6198,6320,6858
participant_3_CURRENTGOLD,500,200,221,357,480,637,816,138,636,180,302,548,783,1306,2046,2210,382,705,916,259,509,904,1398,270,808
participant_3_LEVEL,1,1,1,2,3,4,4,5,6,6,7,7,7,8,9,9,9,9,10,10,10,11,11,11,12
participant_3_MINIONSKILLED,0,0,0,1,1,3,6,6,9,10,10,13,16,17,22,24,24,24,25,25,27,36,37,37,38
participant_3_KILLS,0,0,0,0,0,0,0,0,1,1,1,1,1,1,3,3,3,3,3,4,4,4,4,4,5
participant_3_BUY,[],[1001],[],[],[],[],[],[3020],[],[2420],[],[],[],[],[],[],"[3916, 1028]",[],[],[3136],[],[],[],[1058],[]
participant_3_SOLD,[],[],[],[],[],[],[],[1001],[],[],[],[],[],[],[],[],[],[],[],[1028],[],[],[],[],[]
participant_3_UNDO,[],[],[],[],[],[],[],[],[],[],[],[],[],[],[],[],[],[],[],[],[],[],[],[],[]
participant_4_GOLD,500,500,962,1263,1785,2020,2486,2665,2941,3519,4097,4578,4995,5801,6254,6418,7439,8646,9296,9516,10602,12302,13311,13434,14203
participant_4_CURRENTGOLD,500,0,462,763,1285,1520,1986,215,491,1069,1647,2128,2545,3351,3804,68,1089,2296,166,366,1453,3152,4162,464,1033
participant_4_LEVEL,1,1,1,3,4,5,6,6,7,8,8,9,9,10,10,11,12,13,13,13,14,15,15,15,16
participant_4_MINIONSKILLED,0,0,1,9,15,21,27,30,39,48,58,65,75,83,88,90,104,117,120,126,140,148,156,156,163
participant_4_KILLS,0,0,1,1,2,2,3,3,3,4,5,6,6,8,8,8,9,12,13,13,13,17,19,19,20
participant_4_BUY,[],"[1055, 2003, 3340]",[],[],[],[],[],"[1038, 1001, 1042, 2003]",[],[],[],[],[],[],[],"[3508, 3086, 3006]",[],[],"[3094, 1053, 3144]",[3144],[],[],[],"[3153, 3044, 3057]",[]
participant_4_SOLD,[],[],[],[2003],[],[],[],[],[],[],[],[],[],[],[],"[1038, 1042, 1001]",[],[],"[3086, 2003, 1053]",[1053],[],[2003],[],"[3144, 1055]",[]
participant_4_UNDO,[],[],[],[],[],[],[],[],[],[],[],[],[],[],[],[],[],[],[],"[[0, 3144], [2003, 0]]",[],[],[],[],[]
participant_5_GOLD,500,500,556,748,1074,1396,1703,2012,2134,2383,2758,3109,3260,3970,4226,4628,4750,4915,6169,6383,6519,6691,7134,7463,7657
participant_5_CURRENTGOLD,500,0,56,248,174,46,353,662,334,583,958,1309,60,770,1026,1428,550,215,1469,433,169,341,384,713,907
participant_5_LEVEL,1,1,1,2,3,4,4,5,5,6,6,7,7,8,8,9,9,9,10,10,10,10,11,12,12
participant_5_MINIONSKILLED,0,0,2,6,10,12,20,28,28,36,43,53,55,64,72,84,84,87,90,95,96,96,96,102,103
participant_5_KILLS,0,0,0,0,0,0,0,0,0,0,0,0,0,0,0,0,0,0,1,1,1,1,2,2,2
participant_5_BUY,[],"[1055, 2003, 3340]",[],[],"[1036, 2003]","[1036, 2003, 2003]",[],[],"[3134, 2003]",[],[],[],"[3133, 1001]",[],[],[],"[3142, 1042]",[3006],[],[3044],[1028],[],[3067],[],[]
participant_5_SOLD,[],[],[],[2003],[],[2003],[],[],"[2003, 1036, 1036]","[2003, 2003]",[],[],[],[],[],[],"[3133, 3134]","[1001, 1042]",[],[],[],[],[1028],[],[]
participant_5_UNDO,[],[],[],[],[],[],[],[],[],[],[],[],[],[],[],[],[],[],[],[],[],[],[],[],[]
participant_6_GOLD,500,500,542,664,801,1000,1144,1266,1388,1511,1633,1756,1878,2050,2173,2295,2418,2540,2662,2785,2907,3080,3202,3324,3428
participant_6_CURRENTGOLD,500,0,42,64,201,400,44,116,238,11,133,256,28,200,323,445,93,215,337,110,232,405,527,649,53
participant_6_LEVEL,1,1,1,1,2,3,3,3,3,3,3,3,3,3,3,3,3,3,3,3,3,3,3,3,3
participant_6_MINIONSKILLED,0,0,1,1,2,6,7,7,7,7,7,7,7,7,7,7,7,7,7,7,7,7,7,7,7
participant_6_KILLS,0,0,0,0,0,0,0,0,0,0,0,0,0,0,0,0,0,0,0,0,0,0,0,0,0
participant_6_BUY,[],"[1054, 2003, 3340]",[],"[2003, 2003]",[],[],"[1001, 1006, 2003]",[2003],[],[1036],[],[],[1036],[],[],[],[3077],[],[],[1027],[],[],[],[],[3057]
participant_6_SOLD,[],[],[2003],[],"[2003, 2003]",[],[],[],[],[],[],[],[],[],[],[],"[1036, 1006, 1036]",[],[],[],[],[],[],[],[1027]
participant_6_UNDO,[],[],[],[],[],[],[],[],[],[],[],[],[],[],[],[],[],[],[],[],[],[],[],[],[]
participant_7_GOLD,500,500,563,741,906,1049,1221,1462,1688,1811,2067,2204,2326,2512,2698,2820,2992,3156,3328,3713,4156,4643,4765,4887,5019
participant_7_CURRENTGOLD,500,0,63,241,406,49,221,462,688,376,632,419,106,212,398,520,692,856,178,563,1006,1493,380,502,634
participant_7_LEVEL,1,1,1,3,4,4,6,6,7,7,8,8,8,8,9,9,9,9,10,11,11,12,12,12,12
participant_7_MINIONSKILLED,0,0,2,5,8,9,12,19,22,22,23,24,24,25,29,29,32,34,34,41,42,43,43,43,45
participant_7_KILLS,0,0,0,0,0,0,0,0,0,0,0,0,0,0,0,0,0,0,0,0,1,1,1,1,1
participant_7_BUY,[],"[1056, 2003, 2003, 3340]",[],[],[],"[1001, 2003, 2003, 2003, 2003]",[],[],[],[1052],[],[1027],[1052],[3802],[],[],[],[],[1026],[],[],[],"[3020, 1052]",[],[]
participant_7_SOLD,[],[],[],[2003],[2003],[],[],"[2003, 2003]","[2003, 2003]",[],[],[],[],"[1052, 1027, 1052]",[],[],[],[],[],[],[],[],[1001],[],[]
participant_7_UNDO,[],[],[],[],[],[],[],[],[],[],[],[],[],[],[],[],[],[],[],[],[],[],[],[],[]
participant_8_GOLD,500,500,593,811,1546,1997,2250,2444,2579,2834,3124,3272,3702,3915,4049,4303,4579,4804,5159,6069,6360,6550,6690,8126,8246
participant_8_CURRENTGOLD,500,0,93,311,146,597,850,1044,79,334,624,772,1202,515,649,303,579,803,359,1019,1310,1000,1140,376,496
participant_8_LEVEL,1,1,1,2,3,4,4,5,5,6,6,7,7,7,8,9,9,10,10,11,11,11,11,12,12
participant_8_MINIONSKILLED,0,0,4,8,8,10,17,17,17,21,23,24,31,33,33,36,40,45,46,50,50,50,50,51,51
participant_8_KILLS,0,0,0,0,2,3,3,3,3,3,3,3,3,3,3,3,3,3,3,4,4,4,4,6,6
participant_8_BUY,[],"[3858, 2003, 2003, 3340]",[],[],"[1001, 1028, 2003, 2003, 2003, 2003]",[],[],[],"[1029, 3111, 3364, 3340]",[],[],[],[],"[3067, 1031]",[],[3109],[],[],"[1027, 1029, 1006]",[3024],[],[3801],[],"[3800, 3105]",[]
participant_8_SOLD,[],[],[],[2003],[2003],"[2003, 2003, 2003]",[2003],[],"[1001, 3340, 3364]",[],[],[],[],"[1028, 1029]",[],"[3067, 1031]",[3858],[],[],"[1027, 1029]",[],[1006],[],"[3024, 3801]",[]
participant_8_UNDO,[],[],[],[],[],[],[],[],[],[],[],[],[],[],[],[],[],[],[],[],[],[],[],[],[]
participant_9_GOLD,500,500,521,678,836,958,1158,1350,1556,1707,1829,1973,2095,2281,2439,2701,2967,3089,3813,3950,4093,4294,4437,4669,4815
participant_9_CURRENTGOLD,500,0,21,178,136,258,58,250,456,257,379,523,295,181,339,251,517,89,813,300,443,644,787,1019,65
participant_9_LEVEL,1,1,1,1,2,3,3,4,5,5,6,7,7,7,7,8,8,8,9,9,9,10,10,11,11
participant_9_MINIONSKILLED,0,0,0,2,4,4,8,12,17,19,19,20,20,21,23,27,31,31,35,36,37,39,40,42,45
participant_9_KILLS,0,0,0,0,0,0,0,0,0,0,0,0,0,0,0,0,0,0,1,1,1,1,1,1,1
participant_9_BUY,[],"[1054, 2003, 3340]",[],[],"[2003, 2003, 2003, 2003]",[],[1028],[],[],[1027],[],[],[3010],[1029],[],[1027],[],"[3024, 1001]",[],[3801],[],[],[],[],[3800]
participant_9_SOLD,[],[],[2003],[],[],"[2003, 2003]","[2003, 2003]",[],[],[],[],[],"[1028, 1027]",[],[],[],[],"[1027, 1029]",[],[],[],[],[],[],"[3024, 3801]"
participant_9_UNDO,[],[],[],[],[],[],[],[],[],[],[],[],[],[],[],[],[],[],[],[],[],[],[],[],[]
team0_KILLS,0,0,1,2,3,3,4,4,5,6,8,9,9,11,13,14,15,18,19,20,20,24,26,26,28
team0_CURRENTGOLD,2500,350,1052,2659,3135,4019,4277,2208,3501,4062,5470,6735,7908,9837,9599,6801,6554,7564,6190,6101,8126,9888,9078,4904,6862
team0_TOTALGOLD,2500,2500,3202,4809,5935,6819,7927,8608,9901,11062,12470,13735,14908,16837,18399,19501,21254,23314,24720,25751,27775,30388,32477,33374,35532
team0_LEVEL,5,5,6,12,16,20,22,23,26,28,30,31,32,34,35,37,39,40,41,41,42,44,45,46,49
team0_SBIRES,0,0,4,22,34,45,57,61,79,93,106,119,138,152,162,170,186,200,206,212,229,246,259,259,270
team1_KILLS,0,0,0,0,2,3,3,3,3,3,3,3,3,3,3,3,3,3,5,6,7,7,8,10,10
team1_CURRENTGOLD,2500,0,275,1042,1063,1350,1526,2534,1795,1561,2726,3279,1691,1878,2735,2947,2431,2178,3156,2425,3160,3883,3218,3259,2155
team1_TOTALGOLD,2500,2500,2775,3642,5163,6400,7476,8534,9345,10246,11411,12314,13261,14728,15585,16747,17706,18504,21131,22900,24035,25258,26228,28469,29165
team1_LEVEL,5,5,5,9,14,18,20,23,25,27,29,32,32,33,35,38,38,39,42,44,44,46,47,50,50
team1_SBIRES,0,0,9,22,32,41,64,83,91,105,115,128,137,150,164,183,194,204,212,229,232,235,236,245,251
delta_KILLS,0,0,1,2,1,0,1,1,2,3,5,6,6,8,10,11,12,15,14,14,13,17,18,16,18
delta_CURRENTGOLD,0,350,777,1617,2072,2669,2751,-326,1706,2501,2744,3456,6217,7959,6864,3854,4123,5386,3034,3676,4966,6005,5860,1645,4707
delta_TOTALGOLD,0,0,427,1167,772,419,451,74,556,816,1059,1421,1647,2109,2814,2754,3548,4810,3589,2851,3740,5130,6249,4905,6367
delta_LEVEL,0,0,1,3,2,2,2,0,1,1,1,-1,0,1,0,-1,1,1,-1,-3,-2,-2,-2,-4,-1
delta_SBIRES,0,0,-5,0,2,4,-7,-22,-12,-12,-9,-9,1,2,-2,-13,-8,-4,-6,-17,-3,11,23,14,19
