name,frame_0,frame_1,frame_2,frame_3,frame_4,frame_5,frame_6,frame_7,frame_8,frame_9,frame_10,frame_11,frame_12,frame_13,frame_14,frame_15,frame_16,frame_17,frame_18,frame_19,frame_20,frame_21,frame_22,frame_23,frame_24,frame_25,frame_26,frame_27,frame_28,frame_29,frame_30,frame_31,frame_32,frame_33,frame_34,frame_35,frame_36
nameStamp,Tstart,Tearly,Tearly,Tearly,Tearly,Tearly,Tearly,Tearly,Tearly,Tearly,Tearly,Tearly,Tearly,Tearly,Tearly,Tearly,Tmid,Tmid,Tmid,Tmid,Tmid,Tmid,Tmid,Tmid,Tmid,Tmid,Tmid,Tmid,Tmid,Tmid,Tmid,Tmid,Tmid,Tmid,Tmid,Tmid,Tmid
timestamp,0,60006,120025,180047,240052,300070,360099,420114,480136,540159,600175,660200,720224,780244,840256,900282,960301,1020320,1080338,1140359,1200379,1260397,1320425,1380439,1440456,1500477,1560497,1620512,1680535,1740551,1800570,1860593,1920615,1980634,2040649,2100666,2160666
participant_0_GOLD,500,500,583,843,1057,1548,1755,1933,2208,2592,2714,3465,3831,4080,4968,5259,5816,6001,6793,7089,7296,7667,7991,8198,8979,9450,9903,10067,11287,11410,11757,11880,12834,12998,13693,14219,14606
participant_0_CURRENTGOLD,500,0,83,343,557,48,255,433,708,1092,289,740,106,355,1243,359,916,1101,110,406,613,384,708,915,596,218,670,484,105,227,275,397,1351,816,1510,2037,523
participant_0_LEVEL,1,1,1,2,3,4,5,5,6,7,7,8,8,9,10,10,10,11,11,12,12,12,12,12,13,14,14,14,15,15,15,15,15,15,16,16,17
participant_0_MINIONSKILLED,0,0,3,9,14,17,22,26,31,43,43,44,49,57,69,75,83,87,100,106,107,113,121,126,130,146,147,149,154,154,162,162,169,171,193,198,200
participant_0_KILLS,0,0,0,0,0,0,0,0,0,0,0,0,1,1,1,1,1,1,1,1,1,1,1,1,2,2,2,2,2,2,2,2,2,2,2,2,2
participant_0_BUY,[],"[1039, 2031, 3340]",[],[],[],[],[],"[3751, 3706, 1001]",[],[],"[2055, 2055]",[1401],[],"[3111, 2055]",[],[],[],"[3010, 1057, 1028]",[],[],[3010],[],[],[],[],"[3001, 1029, 1029, 2055]",[],[3076],[1028],[],[],[1029],[],[3082],[],"[3075, 3364, 2055]",[]
participant_0_SOLD,[],[],[],[],[],[],[],[1039],[],[],[],"[3751, 3706]",[2055],[1001],[],[],[],[],[],[],[1028],[2055],[2055],[],[],"[3010, 1057, 2031]",[],"[1029, 1029]",[],[],[2055],[],[],[1029],[],"[3076, 1028, 3082, 3340]",[]
participant_0_UNDO,[],[],[],[],[],[],[],[],[],[],[],[],[],[],[],[],[],"[[0, 3010]]",[],[],[],[],[],[],[],[],[],[],[],[],[],[],[],[],[],[],[]
participant_1_GOLD,500,500,705,1013,1213,1590,1960,2367,2589,2879,3102,3388,4043,4300,4557,4897,5356,5478,5726,6183,6356,6528,6727,6965,7626,7859,8098,8220,8419,8793,8915,9038,9412,9535,10033,10193,10245
participant_1_CURRENTGOLD,500,0,205,513,713,1090,1460,17,239,529,602,288,943,325,582,922,1381,383,631,1088,561,733,932,1170,1831,269,508,230,29,403,526,348,722,145,643,228,220
participant_1_LEVEL,1,1,2,3,3,4,5,5,5,6,6,7,7,7,8,8,9,9,9,10,10,10,10,10,11,11,12,12,12,13,13,13,13,13,14,14,14
participant_1_MINIONSKILLED,0,0,0,0,0,0,0,0,0,1,1,2,4,5,5,5,6,6,6,7,7,7,7,8,20,22,22,22,22,30,30,30,36,36,45,45,45
participant_1_KILLS,0,0,0,0,0,0,0,1,1,2,2,2,3,3,3,4,4,5,6,6,6,6,6,6,6,7,7,7,7,7,7,7,7,8,8,8,8
participant_1_BUY,[],"[1054, 2003, 3340]",[],[],[],[],[],[],"[3006, 3144, 1001, 2003]",[],[3006],[],[],[1043],[],[],[3153],[],[],[],"[1043, 1037]",[1052],[],[],[],[],"[3124, 1042, 1042]",[],[],[3086],[],[],[],"[3046, 1018]",[],[],[1037]
participant_1_SOLD,[],[],[],[2003],[],[],[],[],[],[],[1001],[],[],[],[],[2003],"[3144, 1043]",[],[],[],[],[],[],[],[],[],"[1052, 1043, 1037]",[],[],"[1054, 1042]",[],[],[],"[1042, 3086]",[],[],[]
participant_1_UNDO,[],[],[],[],[],[],[],[],"[[0, 3006]]",[],[],[],[],[],[],[],[],[],[],[],[],[],[],[],[],[],[],[],[],[],[],[],[],[],[],[],[]
participant_2_GOLD,500,500,604,941,1169,1557,1708,2376,2651,3000,3178,4071,4463,4791,5204,5536,5826,6005,6198,6426,6876,7111,7342,7548,7742,7864,8061,8316,8514,9622,10113,10354,10642,11789,12097,12573,12625
participant_2_CURRENTGOLD,500,0,104,441,669,1057,338,1006,551,900,228,71,463,356,769,1101,1391,335,128,356,806,276,507,713,907,1029,1226,1481,279,1387,628,869,1157,2304,263,739,790
participant_2_LEVEL,1,1,1,3,4,5,5,6,6,7,8,8,9,9,9,10,10,11,11,11,11,12,12,12,12,12,12,13,13,13,14,14,14,15,16,16,16
participant_2_MINIONSKILLED,0,0,5,15,21,34,36,43,49,59,63,67,75,83,87,96,106,110,111,117,119,123,123,128,129,129,129,133,133,142,156,164,165,168,170,179,179
participant_2_KILLS,0,0,0,0,0,1,1,1,1,1,1,2,2,2,3,3,4,4,4,4,4,4,4,4,5,5,6,6,7,7,7,7,8,8,8,9,10
participant_2_BUY,[],"[1054, 2003, 3340]",[],[],[],"[1001, 1042, 1028]",[],[],[],[],"[3006, 1036, 2055]",[1029],"[3044, 1042, 1031]",[],[],"[3101, 2055]",[],[],"[3078, 1028]",[],[],[1011],[],[],[3742],"[1033, 1028]",[],[3211],[3065],[],[1029],[],[],[3076],[],[],[3075]
participant_2_SOLD,[],[],[],[2003],[],[],[],[],[],[],"[1001, 1042]",[],"[1028, 1036, 1029]",[],[2055],[],[2055],[],"[3101, 3044]",[],[],[1028],[],[],"[1031, 1011]",[],[],"[1028, 1033]",[3211],[],[],[],[],[1029],[],[],[3076]
participant_2_UNDO,[],[],[],[],[],[],[],[],[],[],[],[],"[[0, 1042]]",[],[],[],[],[],[],[],[],[],[],[],[],[],[],[],[],[],[],[],[],[],[],[],[]
participant_3_GOLD,500,500,520,706,1053,1371,1536,2261,2529,3114,3293,3567,4166,4302,4688,5172,5409,5971,6665,6900,7204,7406,7633,7912,8216,8748,8870,8993,9484,9656,9863,10096,10313,11336,11778,12104,12156
participant_3_CURRENTGOLD,500,0,20,206,553,871,1036,1761,79,664,43,317,916,52,438,922,459,1021,1715,1950,379,146,373,652,956,1488,220,343,834,87,293,526,744,66,509,835,-169
participant_3_LEVEL,1,1,1,2,3,4,4,5,6,6,6,7,7,7,8,9,9,9,10,10,10,11,11,11,12,12,12,12,12,13,13,13,13,14,15,15,15
participant_3_MINIONSKILLED,0,0,0,4,17,25,27,41,46,56,59,65,67,68,79,81,84,91,99,105,109,110,112,117,119,120,120,120,129,129,134,136,136,136,146,150,150
participant_3_KILLS,0,0,0,0,0,0,0,0,0,0,0,0,0,0,0,0,0,0,0,0,0,0,0,0,1,1,1,1,1,1,1,1,1,1,2,2,2
participant_3_BUY,[],"[3850, 2003, 2003, 3340]",[],[],[],[],[],[],"[1001, 3028, 2003]",[],"[1052, 2055]",[],[],"[3108, 3364, 2055]",[],[],[],[3174],[],[],"[3117, 1004]",[],[1004],[],[],[3504],[],[1028],[3801],[],[],[3114],[],[],[3107],[],[]
participant_3_SOLD,[],[],[],[],[],[2003],"[2010, 2010]",[2010],[],[2003],[],[3850],[],"[1052, 3340]",[],[],[],"[3108, 3028]",[],[],[1001],[],[],[],[3851],"[1004, 1004]",[],[],[1028],[],[],"[2055, 2055]",[],[],"[3114, 3801]",[],[]
participant_3_UNDO,[],[],[],[],[],[],[],[],"[[0, 2003]]",[],[],[],[],[],[],[],[],[],[],[],[],[],[],[],[],[],[],[],[],[],[],[],[],[],[],[],[]
participant_4_GOLD,500,500,522,717,912,1135,1360,1614,1748,2047,2182,2412,2583,2758,2928,3098,3283,3454,3748,3889,4029,4264,4468,4623,5986,6202,6417,6703,6991,7320,7489,7629,7810,7950,8475,8683,8757
participant_4_CURRENTGOLD,500,0,22,217,412,635,860,1114,148,447,72,302,473,108,278,448,633,404,698,839,154,389,468,623,1986,152,367,254,291,621,789,189,370,510,385,593,607
participant_4_LEVEL,1,1,1,1,3,3,4,5,5,5,5,6,6,6,6,7,7,7,8,8,8,8,9,9,10,10,10,11,11,12,12,12,12,13,13,14,14
participant_4_MINIONSKILLED,0,0,0,0,0,1,1,1,1,3,3,5,5,7,8,8,8,8,9,9,9,10,14,14,16,16,16,21,26,30,32,32,34,34,36,37,38
participant_4_KILLS,0,0,0,0,0,0,0,1,1,1,1,2,2,2,2,2,2,2,2,2,3,3,3,3,3,3,3,3,3,4,4,4,4,6,6,6,6
participant_4_BUY,[],"[1056, 2003, 2003, 3340]",[],[],[],[],"[1052, 1052]",[],"[1001, 3802]",[],[1026],[3285],[],[1052],[],[],[],"[3020, 1052]",[1028],[],[],[3916],[],[],[],[],[],[],[3165],[],[1058],[],[],[],[3089],[],[]
participant_4_SOLD,[],[],[],[],[],[],[],[2003],"[1052, 1052]",[2003],[],"[3802, 1026]",[],[],[],[],[],[1001],[],[],[],"[1028, 1052]",[],[],[],[],[],[],[3916],[],[],[],[],[],[1058],[],[]
participant_4_UNDO,[],[],[],[],[],[],[],[],[],[],[],[],[],[],[],[],[],[],[],[],[],[],[],[],[],[],[],[],[],[],[],[],[],[],[],[],[]
participant_5_GOLD,500,500,583,1238,1554,2066,2621,3123,3531,3789,4562,4684,5316,5878,6042,6771,6963,7676,8183,8385,9115,9648,10078,10843,11646,11768,13184,13499,14250,15077,15199,16049,16171,17320,17493,18390,18602
participant_5_CURRENTGOLD,500,0,83,738,1054,516,1071,1573,1981,214,987,209,841,1403,134,863,1055,68,125,252,182,715,45,811,963,385,1802,441,1193,119,242,1092,214,1363,1536,2433,2444
participant_5_LEVEL,1,1,1,3,4,5,6,7,8,8,9,9,10,10,10,11,11,12,12,12,12,12,13,14,14,14,14,15,15,16,16,16,16,17,17,17,17
participant_5_MINIONSKILLED,0,0,3,9,18,22,28,38,52,56,67,67,75,82,84,92,96,107,108,108,111,111,117,133,141,141,142,144,154,155,155,156,156,167,167,167,168
participant_5_KILLS,0,0,0,0,0,0,0,0,0,0,0,0,0,1,2,4,4,6,6,6,7,9,9,9,10,13,14,14,15,15,18,18,19,20,20,20,20
participant_5_BUY,[],"[1039, 2031, 3340]",[],[2055],[1001],[1041],[],"[3715, 2055]",[],[],[],[3020],"[3364, 2055, 1052]",[],[],[],"[1414, 3145, 1028, 2055]",[],[],[],[],[],"[3152, 3191, 3108]",[],"[3157, 1028]",[],[],[],"[3165, 3751]",[],[],[],[3068],[],[2139],[],"[1082, 1082, 1082, 1082, 1082, 1082]"
participant_5_SOLD,[],[],[],[],[],[],[],"[1039, 1041]",[2055],[],[],[1001],[3340],[],[2055],[],"[1052, 3715]",[],[3364],[3513],[],[2055],"[3145, 1028]",[],"[3191, 3108]",[],[],[],"[1028, 2031]",[],[],[],[3751],[],[2139],[],"[3068, 3157, 3020, 3165, 1414, 3152]"
participant_5_UNDO,[],[],[],[],"[[0, 2055]]",[],[],[],[],[],[],[],[],[],[],[],[],[],[],[],[],[],[],[],[],[],[],[],[],[],[],[],[],[],[],[],[]
participant_6_GOLD,500,500,620,828,1096,1408,1616,1836,2151,2477,2713,2836,3085,3568,4371,5401,5551,6453,7045,7376,7882,8847,9127,9484,10006,11093,11917,12783,13306,13844,14841,15438,16046,16682,17144,17901,17953
participant_6_CURRENTGOLD,500,0,120,253,296,258,466,311,626,952,1188,511,250,733,1536,2566,126,1028,1620,1951,2457,3422,652,1009,231,1318,2142,3009,91,630,1627,2224,982,1617,1580,2337,228
participant_6_LEVEL,1,1,2,2,3,3,3,4,5,5,6,6,6,7,8,8,9,9,10,11,11,12,12,12,13,13,14,15,15,16,16,17,17,17,18,18,18
participant_6_MINIONSKILLED,0,0,0,0,0,0,0,1,1,1,2,2,5,5,5,7,9,10,15,18,19,19,19,21,21,25,25,33,33,33,33,35,35,38,38,42,42
participant_6_KILLS,0,0,0,1,1,2,3,3,3,3,4,4,5,5,5,5,5,5,6,6,7,8,8,9,9,9,12,12,13,15,15,17,17,18,18,20,20
participant_6_BUY,[],"[2033, 3340]",[],[],[],[3057],[],[],[],"[3044, 1036, 1036, 2055]",[],"[3111, 3144]",[],[],[3078],[],[],[3153],[1033],[2055],"[3111, 1033]",[],[3133],[],[3105],[1053],[],"[3812, 3101, 2055]",[],[3115],[],[],[1043],[],[],[],[]
participant_6_SOLD,[],[],[],[],[],[],[],[],[],[],[2055],"[2422, 1036, 1036]",[],[],"[3057, 3044]",[],[],[3144],[],[2055],"[1033, 2422]",[],[],[],[1033],[2033],[],"[3105, 1053, 3133]",[2055],[3101],[],[],[],[],[],[],[]
participant_6_UNDO,[],[],[],[],[],[],[],[],[],[],[],"[[0, 3111]]",[],[],[],[],[],[],[],[],[],[],[],[],[],[],[],[],[],[],[],[],[],[],[],[],[]
participant_7_GOLD,500,500,569,948,1218,1340,1463,1585,1853,2158,2385,2695,3117,3239,3663,3940,4063,4488,4814,5160,5398,5910,6320,6734,6999,7206,7490,7940,8358,8740,8967,9304,9725,10678,10949,11644,12031
participant_7_CURRENTGOLD,500,0,69,448,718,840,963,235,503,808,250,560,982,589,1013,240,363,788,314,660,898,575,985,634,49,256,540,440,858,1240,217,554,976,1928,949,1645,1871
participant_7_LEVEL,1,1,1,3,4,4,4,4,5,6,6,7,7,7,8,9,9,9,10,10,10,11,12,12,12,12,13,13,13,14,14,14,14,15,15,16,16
participant_7_MINIONSKILLED,0,0,3,15,23,23,23,23,28,38,44,52,52,52,57,64,64,69,74,80,86,90,101,111,114,114,124,132,138,144,150,157,166,166,167,176,178
participant_7_KILLS,0,0,0,0,0,0,0,0,0,0,0,0,0,0,0,0,0,0,0,0,0,1,1,1,1,1,1,1,1,1,1,1,1,3,3,3,3
participant_7_BUY,[],"[1056, 2003, 2003, 3340]",[],[],[],[],[],[1026],[],[],"[1027, 1052]",[],[],[3802],[],[3285],[],[],[3020],[],[],"[1052, 1028]",[],[3916],[1026],[],[],[3165],[],[],[1058],[],[],[],[1058],[],[]
participant_7_SOLD,[],[],[],[],[],[],[],[],[2010],"[2010, 2010]",[],[],[3400],"[2003, 2003, 1052, 1027]",[],"[3802, 1026]",[],[3400],[2422],[],[],[],[],"[1028, 1052]",[],[],[],"[3916, 1026]",[],[],[],[],[],[],[1056],[],[]
participant_7_UNDO,[],[],[],[],[],[],[],[],[],[],[],[],[],[],[],[],[],[],[],[],[],[],[],[],[],[],[],[],[],[],[],[],[],[],"[[1056, 0]]",[],[]
participant_8_GOLD,500,500,597,1048,1318,1681,2051,2319,2632,2846,3214,3621,3848,4078,4366,4972,5299,5445,5666,6123,6345,6675,6811,7038,7260,7458,7914,8089,8263,8406,8734,8977,9202,9465,9637,9913,10036
participant_8_CURRENTGOLD,500,0,97,548,818,1181,1551,94,407,221,589,996,623,853,1141,1747,2074,445,666,1123,1345,1675,511,738,960,283,739,914,1088,1231,1560,577,802,1065,438,713,836
participant_8_LEVEL,1,1,1,2,3,4,4,5,5,5,6,7,7,7,7,8,9,9,9,10,10,10,10,11,11,11,12,12,12,12,12,12,12,12,13,13,14
participant_8_MINIONSKILLED,0,0,4,13,21,32,44,48,56,61,71,84,90,96,102,110,117,118,121,133,136,137,138,144,144,144,144,144,144,145,149,149,149,149,149,149,150
participant_8_KILLS,0,0,0,1,1,1,1,1,1,1,1,1,2,2,2,2,2,3,3,3,3,3,3,3,3,3,4,5,5,5,5,5,5,5,5,7,8
participant_8_BUY,[],"[3854, 2003, 3340, 2003]",[],[],[],[],[],[],"[3111, 2055, 3364]",[],"[1036, 1036]",[],[],"[3134, 1036]",[],[],"[3133, 1029]",[],[1031],[],[],[],[3142],[2420],[],[],[],"[3026, 1036, 1036]",[],[],"[3134, 1036]",[],[],[3147],[],[],[]
participant_8_SOLD,[],[],[],[],[],[],[],[],"[3340, 2055]",[],[3854],[],[3400],"[1036, 1036]",[],[],[1036],[2003],[1029],[3855],[],[2003],"[3133, 3134]",[],[],[],[3400],"[3400, 2420, 1031, 2421]",[],[],"[1036, 1036]",[],[],"[3134, 1036]",[],[],[3400]
participant_8_UNDO,[],[],[],[],[],[],[],[],[],[],[],[],[],[],[],[],[],[],[],[],[],[],[],[],[],[],[],[],[],[],[],[],[],[],[],[],[]
participant_9_GOLD,500,500,522,1059,1215,1433,1634,1848,2093,2228,2458,2619,3381,3573,3824,4104,4245,4824,5126,5377,5517,5827,5997,6167,6408,6815,7682,8472,8759,9011,9181,9459,10148,10472,10721,11511,13371
participant_9_CURRENTGOLD,500,0,22,559,715,933,1134,1348,418,553,83,244,1006,448,699,979,70,649,451,702,842,1152,622,143,383,790,1657,397,685,936,356,635,1324,197,446,1236,3096
participant_9_LEVEL,1,1,1,2,3,4,4,5,5,5,6,6,7,7,7,8,8,8,8,9,9,10,10,10,10,11,12,13,13,13,13,14,14,15,15,15,16
participant_9_MINIONSKILLED,0,0,0,3,4,6,7,7,10,10,12,13,14,17,19,20,20,20,22,25,25,25,26,27,27,29,29,29,30,32,33,34,34,34,37,37,37
participant_9_KILLS,0,0,0,0,0,0,0,0,0,0,0,0,0,0,0,0,0,0,0,0,0,0,0,0,0,0,0,0,0,0,0,0,0,0,0,0,0
participant_9_BUY,[],"[1055, 2003, 3340]",[],[],[],[],[],"[1001, 2031, 3052, 2055]",[],[1028],[],[],[1011],[],[],[],[],"[3022, 3111, 2055, 3363]",[],[],[],[],[1038],[],[],[1037],[],[],[],[],[],[3031],[],[],[3067],[],[]
participant_9_SOLD,[],[],[],[],[],[2003],[],[],[],[],[],[],"[2055, 1028]",[],[],[],[],"[3052, 1011, 1001, 3340]",[],[2055],[],[],[],[],[],[],[],[],[],[],[],"[1038, 1037]",[],[],[],[],[]
participant_9_UNDO,[],[],[],[],[],[],[],[],[],[],[],[],[],[],[],[],[],[],[],[],[],[],[],[],[],[],[],[],[],[],[],[],[],[],[],[],[]
team0_KILLS,0,0,0,0,0,1,1,3,3,4,4,6,8,8,9,10,11,12,13,13,14,14,14,14,17,18,19,19,20,21,21,21,22,25,26,27,28
team0_CURRENTGOLD,2500,0,434,1720,2904,3701,3949,4331,1725,3632,1234,1718,2901,1196,3310,3752,4780,3244,3282,4639,2513,1928,2988,4073,6276,3156,2991,2792,1538,2725,2511,2329,4344,3841,3310,4432,1971
team0_TOTALGOLD,2500,2500,2934,4220,5404,7201,8319,10551,11725,13632,14469,16903,19086,20231,22345,23962,25690,26909,29130,30487,31761,32976,34161,35246,38549,40123,41349,42299,44695,46801,48137,48997,51011,53608,56076,57772,58389
team0_LEVEL,5,5,6,11,16,20,23,26,28,31,32,36,37,38,41,44,45,47,49,51,51,53,54,54,58,59,60,62,63,66,67,67,67,70,74,75,76
team0_SBIRES,0,0,8,28,52,77,86,111,127,162,169,183,200,220,248,265,287,302,325,344,351,363,377,393,414,433,434,445,464,485,514,524,540,545,590,609,612
team1_KILLS,0,0,0,2,2,3,4,4,4,4,5,5,7,8,9,11,11,14,15,15,17,21,21,22,23,26,31,32,34,36,39,41,42,46,46,50,51
team1_CURRENTGOLD,2500,0,391,2546,3601,3728,5185,3561,3935,2748,3097,2520,3702,4026,4523,6395,3688,2978,3176,4688,5724,7539,2815,3335,2586,3032,6880,5201,3915,4156,4002,5082,4298,6170,4949,8364,8475
team1_TOTALGOLD,2500,2500,2891,5121,6401,7928,9385,10711,12260,13498,15332,16455,18747,20336,22266,25188,26121,28886,30834,32421,34257,36907,38333,40266,42319,44340,48187,50783,52936,55078,56922,59227,61292,64617,65944,69359,71993
team1_LEVEL,5,5,6,12,17,20,21,25,28,29,33,35,37,38,40,44,46,47,49,52,52,55,57,59,60,61,65,68,68,71,71,73,73,76,78,79,81
team1_SBIRES,0,0,10,40,66,83,102,117,147,166,196,218,236,252,267,293,306,324,340,364,377,382,401,436,447,453,464,482,499,509,520,531,540,554,558,571,575
delta_KILLS,0,0,0,-2,-2,-2,-3,-1,-1,0,-1,1,1,0,0,-1,0,-2,-2,-2,-3,-7,-7,-8,-6,-8,-12,-13,-14,-15,-18,-20,-20,-21,-20,-23,-23
delta_CURRENTGOLD,0,0,43,-826,-697,-27,-1236,770,-2210,884,-1863,-802,-801,-2830,-1213,-2643,1092,266,106,-49,-3211,-5611,173,738,3690,124,-3889,-2409,-2377,-1431,-1491,-2753,46,-2329,-1639,-3932,-6504
delta_TOTALGOLD,0,0,43,-901,-997,-727,-1066,-160,-535,134,-863,448,339,-105,79,-1226,-431,-1977,-1704,-1934,-2496,-3931,-4172,-5020,-3770,-4217,-6838,-8484,-8241,-8277,-8785,-10230,-10281,-11009,-9868,-11587,-13604
delta_LEVEL,0,0,0,-1,-1,0,2,1,0,2,-1,1,0,0,1,0,-1,0,0,-1,-1,-2,-3,-5,-2,-2,-5,-6,-5,-5,-4,-6,-6,-6,-4,-4,-5
delta_SBIRES,0,0,-2,-12,-14,-6,-16,-6,-20,-4,-27,-35,-36,-32,-19,-28,-19,-22,-15,-20,-26,-19,-24,-43,-33,-20,-30,-37,-35,-24,-6,-7,0,-9,32,38,37
