name,frame_0,frame_1,frame_2,frame_3,frame_4,frame_5,frame_6,frame_7,frame_8,frame_9,frame_10,frame_11,frame_12,frame_13,frame_14,frame_15,frame_16,frame_17,frame_18,frame_19,frame_20,frame_21,frame_22,frame_23,frame_24,frame_25,frame_26
nameStamp,Tstart,Tearly,Tearly,Tearly,Tearly,Tearly,Tearly,Tearly,Tearly,Tearly,Tearly,Tearly,Tearly,Tearly,Tearly,Tmid,Tmid,Tmid,Tmid,Tmid,Tmid,Tmid,Tmid,Tmid,Tmid,Tmid,Tend
timestamp,0,60006,120013,180025,240035,300063,360065,420068,480087,540116,600147,660150,720170,780180,840206,900231,960238,1020251,1080271,1140284,1200300,1260311,1320330,1380360,1440386,1500389,1560389
participant_0_GOLD,500,500,562,831,1053,1608,1829,2122,2502,3134,3278,3685,4135,4257,4762,5208,5805,6186,6756,7267,7593,8147,8357,8605,8819,9242,9523
participant_0_CURRENTGOLD,500,0,62,331,553,1108,1329,22,402,1034,328,735,1185,107,612,1058,1655,2036,956,567,892,1447,1657,305,519,152,373
participant_0_LEVEL,1,1,1,3,4,5,5,6,7,8,8,9,10,10,10,11,11,12,12,13,13,13,14,14,14,14,15
participant_0_MINIONSKILLED,0,0,2,10,16,21,26,33,46,56,57,70,78,78,94,106,116,127,133,134,139,141,141,141,144,144,144
participant_0_KILLS,0,0,0,0,0,0,0,0,0,0,1,1,1,1,1,1,1,1,1,1,1,1,1,1,1,1,1
participant_0_BUY,[],"[3854, 2003, 2003, 3340]",[],[],[],[],[3009],[],[],"[1029, 1028]","[3067, 2055, 2055, 3364]",[],[],"[1033, 2055, 2055]",[],[3190],[],"[1028, 1004, 2055]",[],[],"[3114, 2055]",[],[],"[3107, 2055]",[],"[1028, 3801, 2055]",[]
participant_0_SOLD,[],[],[],[],[2003],[2003],[],[],[],[],"[1028, 3340, 2055]","[3854, 2055]",[],[],[],"[3067, 1033, 1029]",[2055],[2055],[],[3855],"[1004, 2055]",[2055],[],"[1028, 3114]",[2055],"[1028, 2055]",[]
participant_0_UNDO,[],[],[],[],[],[],[],[],[],[],[],[],[],[],[],[],[],[],[],[],[],[],[],[],[],[],[]
participant_1_GOLD,500,500,620,947,1092,1461,1949,2148,2484,2606,2889,3331,3748,3970,4908,5354,5527,5851,6194,6565,6822,7217,7482,7690,7812,8354,8561
participant_1_CURRENTGOLD,500,0,120,447,592,961,1449,48,384,506,164,606,1023,520,1458,1904,277,601,944,1315,322,717,182,390,362,904,1111
participant_1_LEVEL,1,1,2,3,3,4,4,5,5,5,6,7,7,8,8,9,9,9,10,10,10,11,11,11,11,12,13
participant_1_MINIONSKILLED,0,0,0,0,1,1,1,1,1,1,1,2,2,2,2,6,6,10,11,13,13,16,18,18,18,18,18
participant_1_KILLS,0,0,0,0,0,0,1,1,2,2,3,3,3,3,3,3,3,4,4,4,4,6,6,6,8,10,12
participant_1_BUY,[],"[2055, 1055, 2003, 3340]",[],[],[],[],[],"[6670, 1001, 1042, 2003]",[],[],"[1037, 3006]",[],[1018],[],[],"[6672, 1053, 2003, 2003]",[],[],[],[],[],[],"[3153, 1038, 3363]",[1037],[],[3031],[]
participant_1_SOLD,[],[],[],[],[],[],[],[],[],"[2003, 2003]","[1001, 1042]",[],[],[],[],"[6670, 1018, 1037]",[2003],[],[],[2003],[],[],"[1053, 3340]",[],[],"[1038, 1037]",[]
participant_1_UNDO,[],"[[0, 2055]]",[],[],[],[],[],[],[],[],[],[],[],[],[],[],[],[],[],[],[],[],[],[],[],[],[]
participant_2_GOLD,500,500,611,912,1527,1873,2155,2874,3164,3973,4659,4927,5190,5703,6325,6728,7142,7349,7611,8440,8613,9100,9656,9884,10124,10547,11070
participant_2_CURRENTGOLD,500,0,111,402,117,453,735,144,434,1233,194,102,365,878,1500,403,817,24,286,1115,413,900,656,514,755,557,920
participant_2_LEVEL,1,1,1,3,4,5,6,6,7,8,8,9,9,9,10,10,11,11,11,12,12,12,13,13,13,14,14
participant_2_MINIONSKILLED,0,0,5,12,17,28,33,48,58,68,73,78,83,89,96,105,115,117,125,131,131,134,138,138,138,138,140
participant_2_KILLS,0,0,0,0,0,1,1,1,1,2,2,2,2,2,2,2,2,2,3,4,4,5,5,5,5,5,5
participant_2_BUY,[],"[1055, 2003]",[],[],[],[],[],"[4635, 3145, 1028, 2031]",[],[],[1026],[],[],"[3152, 1001]",[],[],[],[],"[1026, 3020]",[1011],[],[],[],"[4637, 1082]",[],[1026],[]
participant_2_SOLD,[],[],[],[],[2003],[],[],[],[],[],[],[],[],"[3145, 1028, 1026]",[],[],[],[],[1001],[],[],[],[],"[1026, 1011]",[],[2031],[]
participant_2_UNDO,[],[],[],[],[],[],[],"[[0, 4635]]",[],[],[],[],[],[],[],[],[],[],[],[],[],[],[],[],[],[],[]
participant_3_GOLD,500,500,597,989,1302,1697,2340,2591,3154,3290,3967,4311,4468,4724,5806,6313,6725,7345,7925,8434,9062,10046,10519,10726,11548,12654,13518
participant_3_CURRENTGOLD,500,0,97,489,802,1197,1840,141,704,840,142,486,43,299,1381,263,675,1295,1875,2384,3013,3996,869,201,1023,905,1768
participant_3_LEVEL,1,1,1,2,3,4,5,5,6,6,6,7,7,7,8,8,9,9,10,11,11,12,12,12,12,13,14
participant_3_MINIONSKILLED,0,0,4,17,28,41,47,52,58,59,64,74,76,84,95,100,108,118,128,138,139,149,155,155,155,155,158
participant_3_KILLS,0,0,0,0,1,1,1,2,2,3,3,3,3,4,4,4,4,4,4,5,5,5,6,6,6,6,7
participant_3_BUY,[],"[1055, 2003, 3340]",[],[],"[1053, 1042, 1042, 1001]",[],[],"[1043, 1053]",[],[],"[3153, 1036, 2055]",[1036],[],[],[],"[3134, 3133]",[],[6693],[],[],"[3066, 2055, 3364]",[],[3047],[1028],[],[1031],[]
participant_3_SOLD,[],[],[],[],[],[],[],"[1042, 1042]",[2003],[],"[1053, 1043]",[2055],[],[],[],"[1036, 1036]",[],"[3134, 3133]",[3340],[3513],[3340],[],[1001],[2055],[],[1055],[]
participant_3_UNDO,[],[],[],[],"[[0, 1053]]",[],[],[],[],[],[],[],[],[],[],[],[],[],[],[],[],[],[],[],[],[],[]
participant_4_GOLD,500,500,522,758,936,1133,1439,1792,2084,2218,2850,3084,3324,3634,4330,4576,4797,5170,5523,5972,6163,6601,6849,6990,7329,7994,8422
participant_4_CURRENTGOLD,500,0,22,258,436,633,39,392,684,118,200,434,664,374,1070,166,387,35,388,837,403,841,1089,55,394,334,772
participant_4_LEVEL,1,1,1,2,3,4,4,5,6,6,6,6,7,7,7,7,7,8,8,9,9,10,10,10,10,11,12
participant_4_MINIONSKILLED,0,0,0,3,5,6,7,10,11,11,13,16,18,18,19,22,24,27,30,30,30,32,32,32,34,34,34
participant_4_KILLS,0,0,0,0,0,0,1,1,1,1,1,1,2,2,4,4,4,4,4,4,4,4,4,4,4,4,4
participant_4_BUY,[],"[1035, 2055, 2031]",[],[],[],[],[],"[3134, 1036, 2055, 2055]",[],[],"[1053, 2055]",[],[],"[1036, 1001, 2055]",[],[],"[6692, 3111, 2055, 2055]",[],[],[],"[3133, 2055, 2055]",[],[1031],[],"[2055, 2055]",[],[]
participant_4_SOLD,[],[],[],[],[],[],[],[],"[2055, 1035]",[2055],[1036],[2055],[],[],[2055],[],"[3134, 1036, 1053, 1001]",[2055],[2055],[],[],[],[],[2055],[2055],"[2055, 2055]",[]
participant_4_UNDO,[],"[[0, 2055]]",[],[],[],[],[],[],[],[],[],[],[],[],[],[],[],[],[],[],[],[],[],[],[],[],[]
participant_5_GOLD,500,500,541,831,983,1210,1515,1871,2216,2411,2827,3013,3280,3517,3796,4002,4328,4506,4852,4975,5097,5464,5636,6082,6205,6686,7067
participant_5_CURRENTGOLD,500,0,41,331,483,135,440,796,1141,286,702,888,105,342,621,827,1153,181,527,300,422,189,361,607,330,311,692
participant_5_LEVEL,1,1,1,3,4,4,5,6,7,7,8,8,9,9,10,10,11,11,12,12,12,12,12,13,13,13,13
participant_5_MINIONSKILLED,0,0,1,10,12,18,28,39,49,50,67,70,75,82,90,94,101,105,118,118,118,128,128,134,134,139,139
participant_5_KILLS,0,0,0,0,0,0,0,0,0,1,1,1,2,2,2,2,2,2,2,2,2,2,3,3,4,4,5
participant_5_BUY,[],"[3854, 2003, 2003, 3340]",[],[],[],[],"[1036, 1036]","[2003, 2003]",[],[],"[3134, 1036, 1036]",[],[],"[3133, 1001, 1036, 3364, 2055]",[],[],[],[],"[6691, 2055]",[],[],[],[],"[3009, 3134, 2055]","[1036, 1036]",[],[3179]
participant_5_SOLD,[],[],[],[],[2003],[],[2003],[],[],"[2003, 2003]","[1036, 1036]",[3854],[],"[3400, 1036, 1036, 3340]",[],[],[],[2055],"[3134, 3133, 3855]",[],[2055],[],[3400],"[1001, 1036]","[2055, 3400]",[],"[3134, 1036, 1036]"
participant_5_UNDO,[],[],[],[],[],[],[],[],[],[],[],[],[],[],[],[],[],[],[],[],[],[],[],[],[],[],[]
participant_6_GOLD,500,500,725,1017,1314,1498,1941,2293,2870,3278,3530,3963,4610,4817,4989,5331,5484,5826,6198,6321,6603,6791,7498,7910,8089,8253,8430
participant_6_CURRENTGOLD,500,0,225,517,814,273,716,1068,545,953,405,838,585,792,614,956,184,526,898,271,478,316,1023,1435,1614,1778,105
participant_6_LEVEL,1,1,2,3,4,4,4,5,5,6,6,7,8,8,8,9,9,9,10,10,10,10,11,12,12,12,13
participant_6_MINIONSKILLED,0,0,0,0,0,0,0,0,0,1,1,1,1,1,4,4,5,6,7,7,7,8,8,8,12,15,15
participant_6_KILLS,0,0,0,0,1,1,1,1,1,1,1,2,2,2,2,2,2,2,2,4,4,4,4,4,4,4,4
participant_6_BUY,[],"[1054, 2003, 3340]",[],[],"[1001, 1052]",[],[],"[1028, 1029]",[],[3191],[1052],[],"[4635, 1026]",[],[1029],[],[],[4633],[3020],[],[],[3157],[],[],[],[],[]
participant_6_SOLD,[],[],[],[2003],[],[],[],[],[],"[1052, 1029]",[],[],"[1028, 1052]",[],[],[],[],"[4635, 1026]",[1001],[],[],[3191],[],[],[],[],[]
participant_6_UNDO,[],[],[],[],[],[],[],[],[],[],[],[],[],[],"[[0, 1029]]",[],[],[],[],[],[],[],[],[],[],[],[]
participant_7_GOLD,500,500,562,817,1322,1528,1948,2154,2527,2769,2982,3962,4084,4318,4462,4843,5151,5412,5813,6984,7392,7536,7658,8205,8328,8480,8562
participant_7_CURRENTGOLD,500,0,62,317,77,283,693,199,562,639,417,1387,194,428,572,953,1261,472,73,1244,1652,196,318,865,988,1140,1262
participant_7_LEVEL,1,1,1,3,4,5,6,6,7,7,8,8,9,9,9,10,10,10,10,11,12,12,12,13,13,13,13
participant_7_MINIONSKILLED,0,0,2,10,12,16,30,35,46,52,57,63,63,70,71,82,89,93,105,113,126,127,127,144,144,145,145
participant_7_KILLS,0,0,0,0,0,0,0,0,0,0,0,0,0,0,0,0,0,0,0,0,0,0,0,0,0,0,0
participant_7_BUY,[],"[1054, 2003, 3340]",[],[],[],"[1028, 2003, 2003, 2055]",[],[],[],"[6660, 1033]",[],[],[3105],[],[],[],[],"[3068, 1029, 1033]",[],[3111],[],"[1029, 1029]",[],[3076],[1028],[1011],[]
participant_7_SOLD,[],[],[],[],[2003],[],[],[],"[2003, 2003, 2055]",[1028],[],[],[1033],[],[],[],[],"[6660, 3105]",[],"[1033, 2422]",[],[],[],"[1029, 1029]",[],"[3400, 1028]",[3400]
participant_7_UNDO,[],[],[],[],[],[],[],[],[],[],[],[],[],[],[],[],[],"[[0, 1029]]",[],[],[],[],[],[],[],[],[]
participant_8_GOLD,500,500,543,712,922,1077,1301,1484,1783,2218,2502,2772,3212,3652,3814,4026,4283,4598,4849,4990,5130,5270,6061,6231,6935,7187,8380
participant_8_CURRENTGOLD,500,0,43,212,422,577,101,184,483,918,102,372,812,127,289,501,758,1073,249,390,530,670,1461,206,210,462,655
participant_8_LEVEL,1,1,1,2,3,4,4,4,5,5,6,6,6,6,6,7,7,8,8,8,8,9,10,10,10,10,11
participant_8_MINIONSKILLED,0,0,1,3,5,6,7,10,12,12,12,16,16,16,17,20,22,27,29,29,29,29,29,30,31,33,33
participant_8_KILLS,0,0,0,0,0,0,0,0,0,0,2,2,2,2,2,2,2,2,2,3,3,3,4,5,5,5,5
participant_8_BUY,[],"[1055, 2003, 3340]",[],[],[],[],"[3057, 1036, 2031]",[],[],[3051],[],[],"[3078, 1036, 3070]",[],[3158],[],[],[],"[3133, 1027]",[],[],"[3004, 3123]",[],[6609],[],[],[1031]
participant_8_SOLD,[],[],[],[],[2003],[],[],[],[],[1036],[],[],"[3057, 3051, 1055]",[],[2422],[],[],[],[],[],[],"[3070, 3133, 1027]",[],"[3400, 3123]",[3004],[],[]
participant_8_UNDO,[],[],[],[],[],[],[],[],[],[],[],[],"[[0, 1036]]",[],[],[],[],[],[],[],[],[],[],[],[],[],[]
participant_9_GOLD,500,500,583,852,1169,1459,1748,2111,2510,2705,4002,4333,4575,5076,5213,5657,5840,6186,6475,7432,7735,7991,9062,9784,10388,10511,10592
participant_9_CURRENTGOLD,500,0,83,352,669,959,48,411,810,255,1552,1883,362,863,400,844,1027,1373,212,1169,1472,178,1249,71,675,798,-91
participant_9_LEVEL,1,1,1,2,3,4,4,5,5,6,7,7,8,9,9,9,9,10,10,11,12,12,12,12,13,13,13
participant_9_MINIONSKILLED,0,0,3,11,20,29,34,45,54,55,61,70,74,93,94,109,110,123,129,133,139,147,150,150,159,159,159
participant_9_KILLS,0,0,0,0,0,0,1,1,2,2,2,2,2,2,2,2,2,2,2,2,2,2,3,3,3,3,3
participant_9_BUY,[],"[1035, 3340, 2031]",[],[],[],"[1036, 1001, 2055, 3364]",[],[],"[3134, 1036]",[],[3047],[],"[1053, 1036]",[],[1036],[],"[6692, 2055]",[],[],[3133],[2055],[1036],[],[],[],[],[3071]
participant_9_SOLD,[],[],[],[],[],[3340],[],[],[1036],[],[1001],[1035],[1036],[2055],[],[],"[3134, 1036, 1053]",[2055],[],[1036],[],[],[],[],[],[],"[3133, 1036]"
participant_9_UNDO,[],[],[],[],[],[],[],[],[],[],[],[],[],[],[],[],[],[],[],[],[],[],[],[],[],[],[]
team0_KILLS,0,0,0,0,1,2,4,5,6,8,10,10,11,12,14,14,14,15,16,18,18,21,22,22,24,26,29
team0_CURRENTGOLD,2500,0,412,1927,2500,4352,5392,747,2608,3731,1028,2363,3280,2178,6021,3794,3811,3991,4449,6218,5043,7901,4453,1465,3053,2852,4944
team0_TOTALGOLD,2500,2500,2912,4437,5910,7772,9712,11527,13388,15221,17643,19338,20865,22288,26131,28179,29996,31901,34009,36678,38253,41111,42863,43895,45632,48791,51094
team0_LEVEL,5,5,6,13,17,22,24,27,31,33,34,38,40,41,43,45,47,49,51,55,55,58,60,60,60,64,68
team0_SBIRES,0,0,11,42,67,97,114,144,174,195,208,240,257,271,306,339,369,399,427,446,452,472,484,484,489,489,494
team1_KILLS,0,0,0,0,1,1,2,2,3,4,6,7,8,8,8,8,8,8,8,11,11,11,14,15,16,16,17
team1_CURRENTGOLD,2500,0,454,1729,2465,2227,1998,2658,3541,3051,3178,5368,2058,2552,2496,4081,4383,3625,1959,3374,4554,1549,4412,3184,3817,4489,2623
team1_TOTALGOLD,2500,2500,2954,4229,5710,6772,8453,9913,11906,13381,15843,18043,19761,21380,22274,23859,25086,26528,28187,30702,31957,33052,35915,38212,39945,41117,43031
team1_LEVEL,5,5,6,13,18,21,23,26,29,31,35,36,40,41,42,45,46,48,50,52,54,55,57,60,61,61,63
team1_SBIRES,0,0,7,34,49,69,99,129,161,170,198,220,229,262,276,309,327,354,388,400,419,439,442,466,480,491,491
delta_KILLS,0,0,0,0,0,1,2,3,3,4,4,3,3,4,6,6,6,7,8,7,7,10,8,7,8,10,12
delta_CURRENTGOLD,0,0,-42,198,35,2125,3394,-1911,-933,680,-2150,-3005,1222,-374,3525,-287,-572,366,2490,2844,489,6352,41,-1719,-764,-1637,2321
delta_TOTALGOLD,0,0,-42,208,200,1000,1259,1614,1482,1840,1800,1295,1104,908,3857,4320,4910,5373,5822,5976,6296,8059,6948,5683,5687,7674,8063
delta_LEVEL,0,0,0,0,-1,1,1,1,2,2,-1,2,0,0,1,0,1,1,1,3,1,3,3,0,-1,3,5
delta_SBIRES,0,0,4,8,18,28,15,15,13,25,10,20,28,9,30,30,42,45,39,46,33,33,42,18,9,-2,3
