name,frame_0,frame_1,frame_2,frame_3,frame_4,frame_5,frame_6,frame_7,frame_8,frame_9,frame_10,frame_11,frame_12,frame_13,frame_14,frame_15,frame_16,frame_17,frame_18,frame_19,frame_20,frame_21,frame_22
nameStamp,Tstart,Tearly,Tearly,Tearly,Tearly,Tearly,Tearly,Tearly,Tearly,Tearly,Tearly,Tearly,Tmid,Tmid,Tmid,Tmid,Tmid,Tmid,Tmid,Tmid,Tmid,Tmid,Tmid
timestamp,0,60031,120056,180069,240081,300093,360113,420128,480139,540151,600160,660176,720187,780197,840208,900222,960235,1020247,1080257,1140280,1200299,1260312,1320312
participant_0_GOLD,500,500,563,790,1004,1224,1424,1759,2090,2304,2638,2887,3108,3335,3700,4597,4941,5435,5769,5987,6769,7038,7439
participant_0_CURRENTGOLD,500,0,63,290,504,724,124,459,790,1004,1338,1587,708,935,1300,2197,341,835,1169,187,969,1238,1639
participant_0_LEVEL,1,1,1,3,4,4,5,6,7,7,8,9,9,9,10,11,11,12,12,12,12,13,14
participant_0_MINIONSKILLED,0,0,2,8,14,19,24,34,43,48,57,64,71,77,88,94,100,105,112,113,116,124,126
participant_0_KILLS,0,0,0,0,0,0,0,0,0,0,0,0,0,0,0,0,0,0,0,1,1,1,1
participant_0_BUY,[],"[1039, 2031]",[],[],[],[6660],[],[],[],[],[],"[1033, 1029]",[],[3105],[3068],[],[1001],[],[],[3111],[],[1011],[]
participant_0_SOLD,[],[],[],[],[],[],[],[],[],[],[3340],[],[3513],"[1033, 1029]","[2031, 6660, 3105]",[],[],[],[],[1001],[],[],[]
participant_0_UNDO,[],[],[],[],[],[],[],[],[],[],[],[],[],[],[],[],[],[],[],[],[],[],[]
participant_1_GOLD,500,500,629,1013,1332,1559,1767,1974,2096,2404,2677,2950,3505,3627,3750,4382,4569,4691,4998,5508,5767,5904,5977
participant_1_CURRENTGOLD,500,0,129,513,832,59,267,474,596,904,1177,700,1255,627,110,742,629,751,1058,768,1027,264,277
participant_1_LEVEL,1,1,2,3,4,4,5,5,5,5,6,6,7,7,7,8,8,9,9,9,10,10,10
participant_1_MINIONSKILLED,0,0,0,0,1,3,3,3,3,3,5,5,7,7,7,7,8,8,8,15,17,18,18
participant_1_KILLS,0,0,0,0,0,0,0,0,0,0,0,0,0,0,0,0,0,0,0,0,0,0,0
participant_1_BUY,[],"[1055, 2003]",[],[],[1042],[],[],[],[1018],[],[1036],[1036],[],"[6670, 1036]",[],[],[],"[6673, 1042]",[],[3006],[],[],[]
participant_1_SOLD,[],[],[],[],[2003],[2010],[2010],[2010],[],[],[],[],[],"[1036, 1042, 1036]",[],[],[],"[6670, 1018, 1036]",[],"[1042, 2422]",[],[],[]
participant_1_UNDO,[],[],[],[],[],[],[],[],[],[],[],[],[],[],[],[],[],[],[],[],[],[],[]
participant_2_GOLD,500,500,556,825,990,1273,1525,1794,2111,2276,2531,3443,3628,4050,4271,5161,5612,5825,6024,6189,6485,6720,6793
participant_2_CURRENTGOLD,500,0,56,325,55,328,570,839,181,346,601,653,838,1260,1481,2371,472,685,884,1049,1345,1580,1693
participant_2_LEVEL,1,1,1,3,4,5,6,6,7,7,8,8,9,9,9,10,10,10,11,11,11,12,12
participant_2_MINIONSKILLED,0,0,2,10,12,19,24,32,40,42,50,52,56,56,62,72,74,79,84,87,93,99,99
participant_2_KILLS,0,0,0,0,0,0,0,0,0,0,0,0,0,1,1,1,1,1,1,1,1,1,1
participant_2_BUY,[],"[3858, 2003, 2003, 3340]",[],[],[1004],[],[],[],[],"[1001, 1028, 2055]",[],[],[],"[3067, 3066]",[],[],[],[],[],[2065],[],[3117],[]
participant_2_SOLD,[],[],[],[2003],[2003],[],[],[],[],[],[],[],[2055],"[3858, 1028]",[],[],[],[],[],"[3067, 1004, 3066]",[],[1001],[]
participant_2_UNDO,[],[],[],[],[],[],[],[],[],[],[],[],[],[],[],[],[],[],[],[],[],[],[]
participant_3_GOLD,500,500,563,741,864,1077,1291,1661,1783,2032,2154,2368,2785,3132,3455,3780,4079,4264,4602,4816,5126,5298,5371
participant_3_CURRENTGOLD,500,0,63,241,64,277,491,861,383,632,404,268,685,382,705,1030,1329,64,402,116,426,598,671
participant_3_LEVEL,1,1,1,2,2,3,3,4,4,5,5,6,6,7,7,8,8,8,9,9,10,10,10
participant_3_MINIONSKILLED,0,0,2,5,5,10,15,27,27,35,35,40,54,54,63,71,79,82,91,96,103,103,103
participant_3_KILLS,0,0,0,0,0,0,0,0,0,0,0,0,0,0,0,2,2,3,3,3,4,4,5
participant_3_BUY,[],"[2033, 3340]",[],[],[],[],[3067],[],[],[],[],[],[3044],[],[],[],"[3111, 6632]",[],[],"[3066, 1028]",[],[],[]
participant_3_SOLD,[],[],[],[],[2010],[2010],[],[],[],[],[2010],[],[],[],[],[],"[2422, 3044, 3067]",[],[],[],[],[],[]
participant_3_UNDO,[],[],[],[],[],[],[],[],[],[],[],[],[],[],[],[],[],[],[],[],[],[],[]
participant_4_GOLD,500,500,523,699,834,1010,1166,1408,1542,1677,1832,2009,2272,2786,2926,3193,3383,3545,3685,3900,4236,4376,4460
participant_4_CURRENTGOLD,500,0,23,199,84,260,416,658,792,152,307,484,747,61,201,468,658,820,960,325,661,101,185
participant_4_LEVEL,1,1,1,2,2,3,3,4,4,4,5,5,6,6,6,7,7,7,7,8,8,8,8
participant_4_MINIONSKILLED,0,0,0,2,2,4,5,8,8,8,9,11,14,14,14,17,17,18,18,18,20,20,20
participant_4_KILLS,0,0,0,0,0,0,0,0,0,0,0,1,1,2,2,3,3,3,3,3,3,3,3
participant_4_BUY,[],"[1056, 2003, 2003]",[],[],[1052],[],[],[],"[3802, 2003, 2003]",[],[],[1026],[],[],[],[],"[6655, 3111]",[],[],[],[],[],[]
participant_4_SOLD,[],[],[],[],[],[],[],"[2010, 2010, 2003]","[2010, 1052]",[2003],[],[],[],[],[2003],[2003],"[3802, 1026]",[],[],[],[],[],[]
participant_4_UNDO,[],[],[],[],[],[],[],[],[],[],[],[],[],[],[],[],[],[],[],[],[],[],[]
participant_5_GOLD,500,500,556,790,934,1294,1595,1738,2111,2418,2631,2984,3169,3431,3719,3841,4199,4335,4807,5222,5721,6027,6206
participant_5_CURRENTGOLD,500,0,56,290,434,794,1095,1238,1611,1918,2131,2484,44,306,594,641,999,35,507,922,146,452,631
participant_5_LEVEL,1,1,1,3,4,5,6,6,7,8,9,9,9,10,10,10,11,11,11,12,12,13,13
participant_5_MINIONSKILLED,0,0,2,9,10,22,30,31,43,51,56,63,67,76,82,82,89,90,90,102,106,114,117
participant_5_KILLS,0,0,0,0,0,0,0,0,0,0,0,1,1,2,2,2,2,2,2,2,2,3,4
participant_5_BUY,[],"[3850, 2003, 2003, 3340]",[],[],[],[],[],[],"[3802, 2055, 3364]",[],[],[1026],[3158],[],[],[],"[6655, 2055]",[],[],[],"[1026, 1052]",[],[]
participant_5_SOLD,[],[],[],"[2003, 2003]",[],[],[],[3850],[3340],[2055],[],[],[],[3851],[],[],"[3802, 1026]",[],[],[],[],[],[]
participant_5_UNDO,[],[],[],[],[],[],[],[],[],[],[],[],[],[],[],[],[],[],[],[],[],[],[]
participant_6_GOLD,500,500,651,1013,1471,1593,1906,2028,2288,2680,2902,3573,3705,4087,4416,4591,5393,5516,6159,6626,7498,8070,8893
participant_6_CURRENTGOLD,500,0,151,513,971,1093,1406,3,263,655,877,1548,-120,262,591,-84,718,841,1484,1951,1148,1720,2643
participant_6_LEVEL,1,1,2,3,3,3,4,4,4,5,5,6,7,7,8,8,9,9,10,10,11,11,12
participant_6_MINIONSKILLED,0,0,0,0,0,0,0,0,0,0,0,0,1,1,2,2,7,7,8,12,12,12,12
participant_6_KILLS,0,0,0,0,0,0,0,0,0,0,0,0,0,0,0,0,0,0,1,1,1,1,1
participant_6_BUY,[],"[1054, 2003, 3340]",[],[],[],[],[],[],[],[],[],[],"[4635, 1026, 1001, 2055, 2003, 2003]",[],[],[2055],[],"[4633, 2003]",[],[],"[3020, 1028, 2055]",[],[]
participant_6_SOLD,[],[],[],[],[2003],[],[],[],[],[],[],[],[],[2055],[],[],[],"[2003, 2003, 4635, 1026]",[],[2055],[1001],[2003],[]
participant_6_UNDO,[],[],[],[],[],[],[],[],[],[],[],[],[],[],[],[],[],[],[],[],[],[],[]
participant_7_GOLD,500,500,598,850,1520,1963,2152,2449,3188,3438,3715,4256,4439,5165,5287,5466,5713,6487,7154,7410,7732,8148,8815
participant_7_CURRENTGOLD,500,0,98,340,1010,1453,332,629,1368,508,785,476,224,950,22,201,448,1222,1889,2145,502,918,1615
participant_7_LEVEL,1,1,1,3,4,5,5,6,7,7,8,8,8,9,9,9,9,10,11,11,11,11,12
participant_7_MINIONSKILLED,0,0,4,9,19,20,21,31,34,38,47,47,53,58,58,61,61,66,66,67,67,67,69
participant_7_KILLS,0,0,0,0,1,2,2,2,4,4,4,5,5,7,7,7,7,9,10,10,10,10,11
participant_7_BUY,[],"[2033, 3340]",[],[],[],[],[4635],[],[],[3020],[],[1026],[1052],[],[4633],[],[],[],[],[],"[1026, 3113, 3113, 3057]",[],[]
participant_7_SOLD,[],[],[],[],[],[],[],[],[],[],[],[],[],[],"[4635, 1026]",[],[],[],[],[],[1052],[],[]
participant_7_UNDO,[],[],[],[],[],[],[],[],[],[],[],[],[],[],[],[],[],[],[],[],"[[0, 3113]]",[],[]
participant_8_GOLD,500,500,563,892,1315,1633,1826,2043,2186,2470,2878,3654,3776,4428,4750,5131,6037,6377,6521,6939,7112,7451,7624
participant_8_CURRENTGOLD,500,0,63,392,815,1133,1326,1543,261,545,953,229,351,53,365,746,1652,1992,586,1004,477,816,999
participant_8_LEVEL,1,1,1,2,3,4,4,5,5,6,6,7,7,7,8,8,9,9,9,9,9,10,10
participant_8_MINIONSKILLED,0,0,2,12,20,29,33,37,38,47,54,60,60,64,72,83,90,93,94,98,98,103,106
participant_8_KILLS,0,0,0,0,0,0,0,0,0,0,0,0,0,1,1,1,2,2,2,2,2,2,2
participant_8_BUY,[],"[1055, 2003, 3340]",[],[],[],[],[],[],"[6670, 2003, 2055]",[],[],"[1018, 1053]",[],"[6673, 1036]",[],[],[],[],"[3006, 3133]",[],[3057],[],[]
participant_8_SOLD,[],[],[],[],[],[],[],"[2010, 2003, 2010]",[],[],"[2010, 2003]",[2055],[],"[6670, 1018, 1053]",[],[],[],[],"[2422, 1036]",[],[],[],[]
participant_8_UNDO,[],[],[],[],[],[],[],[],[],[],[],[],[],[],[],[],[],[],[],[],[],[],[]
participant_9_GOLD,500,500,523,791,1226,1380,1635,1869,2029,2304,2806,3613,3837,4504,4721,4892,5157,5699,6033,6428,6618,7213,7912
participant_9_CURRENTGOLD,500,0,23,291,726,880,1135,1369,154,429,931,888,212,879,1097,1267,207,749,1083,1478,383,978,1677
participant_9_LEVEL,1,1,1,2,3,4,4,5,5,5,6,6,7,8,8,8,8,9,10,10,10,11,11
participant_9_MINIONSKILLED,0,0,0,1,1,1,1,1,1,2,5,8,13,16,21,22,22,28,28,31,31,31,37
participant_9_KILLS,0,0,0,0,0,0,0,0,0,0,0,1,1,1,1,1,2,2,3,3,5,6,8
participant_9_BUY,[],"[1039, 2031]",[],[],[],[],[],"[3145, 1028, 2055]",[],[],[],[],[3152],[],[],[3020],[],[],[],[],"[2055, 3041]",[],[]
participant_9_SOLD,[],[],[],[],[],[],[],[],[2055],[1039],[],[],"[3145, 1028]",[],[],[2422],[],[3340],[],[3513],[2055],[],[]
participant_9_UNDO,[],[],[],[],[],[],[],[],[],[],[],[],[],[],[],[],[],[],[],[],[],[],[]
team0_KILLS,0,0,0,0,0,0,0,0,0,0,0,1,1,3,3,6,6,7,7,8,9,9,10
team0_CURRENTGOLD,2500,0,334,1568,1539,1648,1868,3291,2742,3038,3827,3692,4233,3265,3797,6808,3429,3155,4473,2445,4428,3781,4465
team0_TOTALGOLD,2500,2500,2834,4068,5024,6143,7173,8596,9622,10693,11832,13657,15298,16930,18102,21113,22584,23760,25078,26400,28383,29336,30040
team0_LEVEL,5,5,6,13,16,19,22,25,27,28,32,34,37,38,39,44,44,46,48,49,51,53,54
team0_SBIRES,0,0,6,25,34,55,71,104,121,136,156,172,202,208,234,261,278,292,313,329,349,364,366
team1_KILLS,0,0,0,0,1,2,2,2,4,4,4,7,7,11,11,11,13,15,18,18,20,22,26
team1_CURRENTGOLD,2500,0,391,1826,3956,5353,5294,4782,3657,4055,5677,5625,711,2450,2669,2771,4024,4839,5549,7500,2656,4884,7565
team1_TOTALGOLD,2500,2500,2891,4336,6466,7863,9114,10127,11802,13310,14932,18080,18926,21615,22893,23921,26499,28414,30674,32625,34681,36909,39450
team1_LEVEL,5,5,6,13,17,21,23,26,28,31,34,36,38,41,43,43,46,48,51,52,53,56,58
team1_SBIRES,0,0,8,31,50,72,85,100,116,138,162,178,194,215,235,250,269,284,286,310,314,327,341
delta_KILLS,0,0,0,0,-1,-2,-2,-2,-4,-4,-4,-6,-6,-8,-8,-5,-7,-8,-11,-10,-11,-13,-16
delta_CURRENTGOLD,0,0,-57,-258,-2417,-3705,-3426,-1491,-915,-1017,-1850,-1933,3522,815,1128,4037,-595,-1684,-1076,-5055,1772,-1103,-3100
delta_TOTALGOLD,0,0,-57,-268,-1442,-1720,-1941,-1531,-2180,-2617,-3100,-4423,-3628,-4685,-4791,-2808,-3915,-4654,-5596,-6225,-6298,-7573,-9410
delta_LEVEL,0,0,0,0,-1,-2,-1,-1,-1,-3,-2,-2,-1,-3,-4,1,-2,-2,-3,-3,-2,-3,-4
delta_SBIRES,0,0,-2,-6,-16,-17,-14,4,5,-2,-6,-6,8,-7,-1,11,9,8,27,19,35,37,25
