name,frame_0,frame_1,frame_2,frame_3,frame_4,frame_5,frame_6,frame_7,frame_8,frame_9,frame_10,frame_11,frame_12,frame_13,frame_14,frame_15,frame_16,frame_17,frame_18,frame_19,frame_20,frame_21,frame_22,frame_23,frame_24,frame_25,frame_26,frame_27,frame_28,frame_29
nameStamp,Tstart,Tearly,Tearly,Tearly,Tearly,Tearly,Tearly,Tearly,Tearly,Tearly,Tearly,Tearly,Tearly,Tearly,Tearly,Tearly,Tmid,Tmid,Tmid,Tmid,Tmid,Tmid,Tmid,Tmid,Tmid,Tmid,Tmid,Tmid,Tmid,Tmid
timestamp,0,60030,120058,180074,240100,300126,360145,420164,480173,540204,600224,660226,720239,780271,840301,900320,960341,1020360,1080387,1140419,1200437,1260440,1320462,1380489,1440507,1500533,1560560,1620588,1680607,1740607
participant_0_GOLD,500,500,628,963,1271,1798,2086,2368,2888,3196,3478,3656,4426,4633,5221,5567,6650,6847,7259,7682,8415,8637,9238,9545,10384,10871,11284,12374,12940,13335
participant_0_CURRENTGOLD,500,0,128,463,771,123,411,693,1213,1521,1803,231,1001,208,796,1142,2225,72,484,907,965,837,1439,1745,59,547,959,2050,2615,3010
participant_0_LEVEL,1,1,2,3,3,4,5,5,6,6,7,7,8,8,9,10,10,11,11,11,12,12,13,13,14,14,14,15,16,16
participant_0_MINIONSKILLED,0,0,0,0,0,0,0,0,0,0,0,0,3,3,5,5,5,5,5,5,5,5,5,5,8,9,9,13,21,24
participant_0_KILLS,0,0,0,0,0,1,1,1,2,2,2,2,3,3,4,4,6,6,6,7,7,7,8,8,9,10,10,12,12,12
participant_0_BUY,[],"[1035, 2031]",[],[],[],"[3134, 2055]",[],[],[],[],[],"[3133, 1001, 1036]",[],[6691],[],[],[],"[6609, 3364]",[],[],"[3158, 2055]",[1036],[],[],"[3134, 3179, 2055]",[],[],[],[],[]
participant_0_SOLD,[],[],[],[],[],[],[],[],[2055],[1035],[],[],[],"[3134, 3133]",[],[],[],"[1036, 3340]",[],[],"[1001, 3400]",[],[],[2055],"[3400, 1036, 3134]",[],[2055],[],[],[]
participant_0_UNDO,[],[],[],[],[],[],[],[],[],[],[],[],[],[],[],[],[],[],[],[],[],[],[],[],[],[],[],[],[],[]
participant_1_GOLD,500,500,598,1056,1269,1567,2114,2335,2885,3177,3481,4121,4511,4633,5345,5843,6490,7504,7724,8267,8810,9032,10375,10563,11082,11306,11613,12329,12755,14402
participant_1_CURRENTGOLD,500,0,98,556,19,317,864,235,35,327,631,171,561,83,795,1293,340,1354,124,667,70,292,1635,73,593,116,424,1139,1565,3152
participant_1_LEVEL,1,1,1,2,3,3,5,5,6,7,7,8,8,8,9,9,10,11,11,12,12,12,13,13,14,14,14,15,15,16
participant_1_MINIONSKILLED,0,0,4,12,17,24,36,41,53,59,68,73,85,85,97,109,115,125,131,151,151,151,161,161,176,176,176,180,185,193
participant_1_KILLS,0,0,0,0,0,0,0,0,0,0,0,0,0,0,0,0,0,2,2,2,3,3,5,5,5,5,5,5,5,6
participant_1_BUY,[],"[3070, 2003, 2003]",[],[],"[1036, 1036, 1028]",[],[],"[3057, 2031]",[3044],[1028],[],[6632],[],"[1001, 1029]",[],[],"[3047, 3133]",[],"[3004, 1036]",[],[3077],[],[],[3074],[],"[1036, 1042, 1036, 1036]",[],[],[],[]
participant_1_SOLD,[],[],[],"[2003, 2003]",[],[],[],[],"[1028, 1036]",[],[],"[3400, 3044, 3057, 1028]",[],[],[],[],"[1001, 1029]",[],"[3070, 3133, 3004]",[],[2031],[],[],"[3077, 1036]",[],[],[],[],[],[]
participant_1_UNDO,[],[],[],[],"[[0, 1036]]",[],[],[],[],[],[],[],[],[],[],[],[],[],[],[],[],[],[],[],[],"[[0, 1042], [0, 1036]]",[],[],[],[]
participant_2_GOLD,500,500,544,1059,1215,1349,2063,2197,2721,2970,3631,3951,4164,4304,4595,5196,5586,5802,5972,7112,8252,8407,8866,9081,10421,11379,12119,12484,12675,15815
participant_2_CURRENTGOLD,500,0,44,559,715,74,788,172,696,245,906,126,339,129,420,1021,61,277,447,1587,2727,82,541,756,2096,3054,394,760,950,4090
participant_2_LEVEL,1,1,1,2,3,3,4,4,5,5,6,6,6,7,7,8,8,9,9,10,11,11,12,12,12,13,13,14,14,14
participant_2_MINIONSKILLED,0,0,1,3,4,4,8,8,10,13,14,14,17,17,17,22,22,22,23,27,27,28,31,31,31,39,39,39,39,39
participant_2_KILLS,0,0,0,1,1,1,2,2,3,3,4,4,4,4,4,5,5,5,5,6,8,8,8,8,10,11,12,12,12,16
participant_2_BUY,[],"[3854, 3340, 2003, 2003]",[],[],[],"[1036, 1036, 2055]",[],"[3134, 1001, 2003]",[],[3117],[],[3133],[],[1036],[],[],"[6691, 1036, 3364]",[],[],[],[],"[3179, 1036, 1036]",[],[],[],[],"[3142, 3133, 3133]",[],[],[]
participant_2_SOLD,[],[],[],[2003],[2003],[],[2055],"[1036, 1036]",[],[1001],"[3854, 2003, 3400]",[],[],[],[],[],"[3134, 3133, 3340]",[],[],"[3400, 3855]",[3400],"[1036, 1036]",[],[],[],[],"[1036, 1036]",[],[],[]
participant_2_UNDO,[],[],[],[],[],[],[],[],[],[],[],[],[],[],[],[],[],[],[],[],[],[],[],[],[],[],"[[0, 3133]]",[],[],[]
participant_3_GOLD,500,500,521,825,1064,1256,1519,1756,2052,2210,2353,3254,3582,3774,4132,4254,4800,5685,5912,6063,6890,7098,7765,8296,8931,9420,9731,11153,11403,11612
participant_3_CURRENTGOLD,500,0,21,325,564,756,1019,156,452,610,753,154,482,374,732,184,730,815,342,93,920,153,820,1351,86,575,887,2308,2558,207
participant_3_LEVEL,1,1,1,2,3,4,5,6,6,7,7,8,9,9,10,10,10,11,12,12,12,12,13,14,14,15,15,16,16,16
participant_3_MINIONSKILLED,0,0,0,10,14,18,27,31,38,40,41,47,51,55,58,58,62,79,85,87,99,99,114,120,122,128,139,147,149,149
participant_3_KILLS,0,0,0,0,0,0,0,0,0,0,0,1,1,1,1,1,1,2,2,2,2,2,2,2,2,2,2,5,5,5
participant_3_BUY,[],"[2033, 3340]",[],[],[],[],[],[3044],[],[],[],"[3057, 3067]",[],[1001],[],[6632],[],[3047],"[1036, 1036]","[1036, 3134]",[],"[1053, 3363, 2055]",[],[],[6676],[],[],[],[],[3072]
participant_3_SOLD,[],[],[],[],[],[],[],[],[],[],[2010],"[2010, 2010]",[],[],[],"[3044, 3057, 3067, 2010]",[],[1001],[],"[1036, 1036]",[],[3340],[2055],[],"[3400, 3134]",[],[],[],[],[1053]
participant_3_UNDO,[],[],[],[],[],[],[],[],[],[],[],"[[2010, 0]]",[],[],[],[],[],[],[],"[[0, 1036]]",[],[],[],[],[],[],[],[],[],[]
participant_4_GOLD,500,500,626,860,1169,1609,1966,2223,2676,2969,3252,3424,3938,4416,5121,6074,6803,7009,7396,7988,8813,9131,9954,10347,10574,11570,12006,12391,13341,13935
participant_4_CURRENTGOLD,500,0,126,360,659,249,596,853,1296,204,52,224,728,491,1186,1039,1768,74,461,1053,279,596,1419,1812,539,1535,1121,1507,2456,2910
participant_4_LEVEL,1,1,1,3,4,5,6,7,7,8,8,8,9,9,10,11,12,12,12,13,13,14,14,14,15,15,15,16,16,17
participant_4_MINIONSKILLED,0,0,6,12,20,30,41,48,55,62,72,75,85,96,109,118,126,131,142,149,167,174,182,189,195,201,202,211,221,227
participant_4_KILLS,0,0,0,0,0,0,0,0,0,0,0,0,0,0,1,2,2,2,2,3,3,3,4,4,4,5,5,5,6,6
participant_4_BUY,[],[2033],[],[],[],[1026],[],[],[],"[1043, 1001, 2055]",[1052],[],[],[3115],[],[4635],[],[4633],[],[],[3041],[],[],[],"[3006, 3057]",[],[3113],[],[],[]
participant_4_SOLD,[],[],[],[],[],[],[],[],[],[],[],[],[],"[1043, 1026, 1052]",[],[2033],[2055],[4635],[],[],[],[],[],[],[1001],[3400],[3400],[],[],[]
participant_4_UNDO,[],[],[],[],[],[],[],[],[],[],[],[],[],[],[],[],[],[],[],[],[],[],[],[],[],[],[],[],[],[]
participant_5_GOLD,500,500,542,664,1264,1955,2134,2518,2710,2938,3244,3677,3887,4952,5074,5289,5701,5872,6246,6382,7238,7485,7777,7900,8224,8348,9913,10035,10158,10330
participant_5_CURRENTGOLD,500,0,42,64,664,1355,184,568,160,388,694,227,262,1327,99,314,726,397,771,207,1063,310,602,725,1049,1173,1618,440,563,555
participant_5_LEVEL,1,1,1,1,2,4,4,5,5,5,6,7,7,8,8,8,8,9,9,9,10,10,11,11,11,11,12,12,12,13
participant_5_MINIONSKILLED,0,0,1,1,7,15,18,30,34,40,48,56,58,68,68,70,83,86,96,97,97,100,100,100,108,108,115,115,115,119
participant_5_KILLS,0,0,0,0,1,2,2,2,2,2,2,2,2,3,3,3,3,3,3,3,4,4,4,4,4,4,5,5,5,5
participant_5_BUY,[],"[1055, 2003, 3340]",[],"[2003, 2003]",[],[],"[6670, 2003]",[],[1018],[],[],[1053],"[2003, 2003, 2055]",[],"[6673, 1001, 1042, 2003, 2003, 2003]",[],[],[3006],[],"[1036, 1036]",[],"[3134, 1018]",[],[],[],[],[6676],[1038],[],[]
participant_5_SOLD,[],[],[],[2003],[],[2003],[],[],[],"[2003, 2003]",[],[],[],"[2003, 2055]","[2003, 6670, 1018, 1053]",[],[],"[1001, 1042]",[],[2003],[],"[1036, 1036]",[],[],[],[],"[1055, 3134, 1018]",[],[],[]
participant_5_UNDO,[],[],[],[],[],[],[],[],[],[],[],[],[],[],[],[],[],[],[],[],[],[],[],[],[],[],[],[],[],[]
participant_6_GOLD,500,500,523,771,1156,1480,1678,1862,2036,2171,2360,2495,2829,3621,3782,4116,4277,4477,4792,4973,5141,5383,6137,6333,6516,6657,6798,6980,7141,7378
participant_6_CURRENTGOLD,500,500,23,271,656,70,268,452,626,761,950,445,404,1196,407,741,902,302,617,798,966,1208,732,928,211,352,58,240,401,618
participant_6_LEVEL,1,1,1,2,3,4,4,5,6,6,6,7,7,8,8,8,8,8,9,9,9,9,10,11,11,11,12,12,12,12
participant_6_MINIONSKILLED,0,0,0,1,1,1,4,5,5,5,7,7,8,8,8,10,12,12,18,18,20,21,22,26,29,29,29,32,33,35
participant_6_KILLS,0,0,0,0,0,0,0,0,0,0,0,0,0,1,1,1,1,1,1,1,1,1,2,2,2,2,2,2,2,2
participant_6_BUY,[],[],"[3850, 2003, 2003, 3340]",[],[],"[1052, 1027, 2055, 2003]",[],[],[],[],[],"[3802, 2055, 2003]","[2055, 1001, 3364]",[],"[1026, 2003, 2003]",[],[],[3020],[],[],[],[],[6655],[],[3191],[],[1052],[],[],[]
participant_6_SOLD,[],[],[],"[2003, 2010, 2003]",[],[2010],[],[2055],"[2003, 2010]",[],[],"[1052, 1027]","[2003, 3340]",[3850],[2055],"[2055, 2003]",[],[1001],[],[],[],[3851],"[2003, 3802, 1026]",[],[],[],[],[],[],[]
participant_6_UNDO,[],[],[],[],[],[],[],[],[],[],[],[],[],[],[],[],[],[],[],[],[],[],[],[],[],[],[],[],[],[]
participant_7_GOLD,500,500,621,1018,1318,1667,2065,2407,2629,2965,3673,4183,4468,4795,5402,5759,5882,6850,7538,7661,7811,8357,8602,8901,9604,9853,10059,10710,10922,11452
participant_7_CURRENTGOLD,500,0,121,518,818,167,565,907,1129,1465,2173,183,383,710,142,499,622,115,803,201,61,607,352,651,54,303,510,10,222,642
participant_7_LEVEL,1,1,2,3,4,4,5,6,6,6,8,9,9,9,10,10,10,11,11,11,11,12,12,12,13,13,13,14,14,15
participant_7_MINIONSKILLED,0,0,0,0,0,0,0,0,0,1,6,6,7,13,18,18,18,18,18,18,20,28,28,28,30,38,43,49,50,60
participant_7_KILLS,0,0,0,0,0,0,0,0,0,0,1,1,1,1,1,1,1,2,3,3,3,3,3,3,4,4,4,5,5,5
participant_7_BUY,[],"[1035, 2031]",[],[],[],"[1036, 1036, 1001]",[],[],[],[],[],[6692],"[2055, 3364]",[],"[3134, 2055]",[],[1036],"[1037, 1018]",[],"[6676, 1029]",[1036],[],[3047],[],[1038],[],[],"[1018, 1053]",[],[]
participant_7_SOLD,[],[],[],[],[],[],[],[],[],[1035],[],"[1036, 1036]","[3340, 2055]",[3364],[3513],[],[2055],[],[],"[3134, 1037, 1018]","[2031, 2031]",[],"[1001, 1029]",[],[],[],[],[1036],[],[]
participant_7_UNDO,[],[],[],[],[],[],[],[],[],[],[],[],[],[],[],[],"[[0, 1036]]",[],[],[],"[[2031, 0]]",[],[],[],[],[],[],[],[],[]
participant_8_GOLD,500,500,1011,1273,1638,2061,2376,2876,3166,3535,4341,4491,5059,5224,6097,6809,7221,7625,8011,8356,8648,9259,9590,10028,10376,10990,12645,12767,13251,14079
participant_8_CURRENTGOLD,500,0,511,73,438,861,1176,51,341,710,1516,133,701,166,1039,351,763,877,1263,1608,331,941,72,511,58,673,227,349,834,1421
participant_8_LEVEL,1,1,1,2,4,5,6,7,7,8,8,9,9,9,11,11,11,12,12,12,13,13,14,14,14,15,16,16,16,16
participant_8_MINIONSKILLED,0,0,4,12,23,38,46,51,58,70,82,84,91,93,106,113,126,129,139,148,148,168,176,186,186,200,216,216,228,231
participant_8_KILLS,0,0,1,1,1,1,1,2,2,2,2,2,3,3,4,4,4,4,4,4,4,4,4,4,4,4,5,5,5,6
participant_8_BUY,[],"[1055, 2003, 3340]",[],[3057],[],[],[],"[3051, 1001, 2055, 2031]",[],[],[],[3078],[],"[1029, 3070]",[],"[3047, 1053]",[],[1036],[],[],[3181],[],[3077],[],[3076],[],[3074],[3363],[],[]
participant_8_SOLD,[],[],[2003],[],[],[],[],[],[],[],[2055],"[3057, 3051]",[],[],[],"[1001, 1029]",[],[2031],[],[],"[1055, 1036, 1053]",[],[],[],[],[],[3077],[3340],[],[]
participant_8_UNDO,[],[],[],[],[],[],[],[],[],[],[],[],[],[],[],[],[],[],[],[],[],[],[],[],[],[],[],[],[],[]
participant_9_GOLD,500,500,584,867,1162,1751,1930,2272,2506,2806,2949,4162,4403,4985,5439,5737,6010,6348,6498,6651,7093,7244,7366,7616,8209,8771,8956,9169,9291,9400
participant_9_CURRENTGOLD,500,0,84,367,652,1231,285,617,101,391,484,47,288,870,1324,287,260,598,748,51,493,644,766,1016,194,321,507,254,376,525
participant_9_LEVEL,1,1,1,3,4,5,5,6,7,7,8,8,9,9,10,10,10,11,11,11,12,12,12,12,13,13,13,14,14,14
participant_9_MINIONSKILLED,0,0,3,13,21,27,30,40,46,53,54,54,61,70,75,83,88,97,99,100,100,102,102,109,109,116,120,121,121,121
participant_9_KILLS,0,0,0,0,0,1,1,1,1,1,1,3,3,4,4,4,4,4,4,4,5,5,5,5,6,7,7,7,7,7
participant_9_BUY,[],"[1054, 2003]",[],[],[],[],"[3145, 2055]",[],"[1001, 1028, 2003]",[],[2003],"[1026, 3020]",[],[],[],"[4636, 1052]",[1042],[],[],[1026],[],[],[],[],[3115],[1052],[],[3191],[],[]
participant_9_SOLD,[],[],[],[],[],[],"[2055, 2003]",[],[],[],[2003],[1001],[],[2003],[],"[3145, 1028, 1026]",[],[],[],[],[],[],[],[],"[1042, 1026, 1052]",[],[],[1052],[],[]
participant_9_UNDO,[],[],[],[],[],[],[],[],[],[],[],[],[],[],[],[],[],[],[],[],[],[],[],[],[],[],[],[],[],[]
team0_KILLS,0,0,0,1,1,2,3,3,5,5,6,7,8,8,10,12,14,17,17,20,23,23,27,27,30,33,34,39,40,45
team0_CURRENTGOLD,2500,0,417,2263,2728,1519,3678,2109,3692,2907,4145,906,3111,1285,3929,4679,5124,2592,1858,4307,4961,1960,5854,5737,3373,5827,3785,7764,10144,13369
team0_TOTALGOLD,2500,2500,2917,4763,5988,7579,9748,10879,13222,14522,16195,18406,20621,21760,24414,26934,30329,32847,34263,37112,41180,42305,46198,47832,51392,54546,56753,60731,63114,69099
team0_LEVEL,5,5,6,12,16,19,25,27,30,33,35,37,40,41,45,48,50,54,55,58,60,61,65,66,69,71,71,76,77,79
team0_SBIRES,0,0,11,37,55,76,112,128,156,174,195,209,241,256,286,312,330,362,386,419,449,457,493,506,532,553,565,590,615,632
team1_KILLS,0,0,1,1,2,4,4,5,5,5,6,8,9,12,13,13,13,14,15,15,17,17,18,18,20,21,23,24,24,25
team1_CURRENTGOLD,2500,500,781,1293,3228,3684,2478,2595,2357,3715,5817,1035,2038,4269,3011,2192,3273,2289,4202,2865,2914,3710,2524,3831,1566,2822,2920,1293,2396,3761
team1_TOTALGOLD,2500,2500,3281,4593,6538,8914,10183,11935,13047,14415,16567,19008,20646,23577,25794,27710,29091,31172,33085,34023,35931,37728,39472,40778,42929,44619,48371,49661,50763,52639
team1_LEVEL,5,5,6,11,17,22,24,29,31,32,36,40,41,43,47,47,47,51,52,52,55,56,59,60,62,63,66,68,68,70
team1_SBIRES,0,0,8,27,52,81,98,126,143,169,197,207,225,252,275,294,327,342,370,381,385,419,428,449,462,491,523,533,547,566
delta_KILLS,0,0,-1,0,-1,-2,-1,-2,0,0,0,-1,-1,-4,-3,-1,1,3,2,5,6,6,9,9,10,12,11,15,16,20
delta_CURRENTGOLD,0,-500,-364,970,-500,-2165,1200,-486,1335,-808,-1672,-129,1073,-2984,918,2487,1851,303,-2344,1442,2047,-1750,3330,1906,1807,3005,865,6471,7748,9608
delta_TOTALGOLD,0,0,-364,170,-550,-1335,-435,-1056,175,107,-372,-602,-25,-1817,-1380,-776,1238,1675,1178,3089,5249,4577,6726,7054,8463,9927,8382,11070,12351,16460
delta_LEVEL,0,0,0,1,-1,-3,1,-2,-1,1,-1,-3,-1,-2,-2,1,3,3,3,6,5,5,6,6,7,8,5,8,9,9
delta_SBIRES,0,0,3,10,3,-5,14,2,13,5,-2,2,16,4,11,18,3,20,16,38,64,38,65,57,70,62,42,57,68,66
