name,frame_0,frame_1,frame_2,frame_3,frame_4,frame_5,frame_6,frame_7,frame_8,frame_9,frame_10,frame_11,frame_12,frame_13,frame_14,frame_15,frame_16,frame_17,frame_18,frame_19,frame_20,frame_21,frame_22,frame_23,frame_24,frame_25,frame_26,frame_27,frame_28,frame_29,frame_30
nameStamp,Tstart,Tearly,Tearly,Tearly,Tearly,Tearly,Tearly,Tearly,Tearly,Tearly,Tearly,Tmid,Tmid,Tmid,Tmid,Tmid,Tmid,Tmid,Tmid,Tmid,Tmid,Tmid,Tmid,Tmid,Tmid,Tmid,Tmid,Tmid,Tmid,Tmid,Tmid
timestamp,0,60005,120030,180056,240080,300105,360136,420165,480192,540218,600245,660274,720300,780329,840356,900358,960387,1020415,1080420,1140448,1200476,1260499,1320529,1380562,1440564,1500577,1560606,1620634,1680658,1740691,1800691
participant_0_GOLD,1400,1685,2133,2701,3115,3859,4379,4831,5301,5878,6361,6993,7395,8139,8769,9345,9903,10350,11661,12109,12534,13057,13540,14124,15179,15643,16027,17261,17672,18115,18169
participant_0_CURRENTGOLD,1400,285,733,1301,815,1559,2079,231,701,1278,1761,2393,295,1039,1669,495,1053,250,1561,2009,2434,457,940,1124,2179,423,307,1541,1452,1895,1669
participant_0_LEVEL,1,3,4,5,6,7,8,8,9,10,10,12,12,13,14,14,15,16,17,17,18,18,18,18,18,18,18,18,18,18,18
participant_0_MINIONSKILLED,0,0,1,3,3,9,12,14,16,18,22,28,28,29,33,35,41,41,47,48,48,52,52,59,64,68,68,77,77,78,78
participant_0_KILLS,0,1,1,1,1,2,2,2,2,2,2,2,2,2,3,3,3,3,5,5,5,5,5,5,5,5,5,6,6,6,6
participant_0_BUY,[],"[3802, 2003, 2003]",[],[],[3108],[],[],"[6653, 3020]",[],[],[],[],[3135],[],[],"[1011, 1026]",[],[4637],[],[],[],[3165],[],[3070],[],[3157],[2139],[],[2139],[],[]
participant_0_SOLD,[],[],[2003],[2003],[],[],[],"[3802, 3108]",[],[],[],[],[],[],[],[],[],"[1026, 1011]",[],[],[],[],[],[],[],[3070],[2139],[],[2139],[],[]
participant_0_UNDO,[],[],[],[],[],[],[],[],[],[],[],[],[],[],[],[],[],[],[],[],[],[],[],[],[],[],[],[],[],[],[]
participant_1_GOLD,1400,1400,1828,2466,2895,3358,3820,5076,5535,7063,7517,8119,9546,10962,11446,11949,12390,13406,14732,15244,15787,16605,17454,17918,19415,19828,20495,21031,22366,23215,23269
participant_1_CURRENTGOLD,1400,1400,528,1166,95,558,120,576,685,2213,2667,619,2046,3462,3946,1049,590,306,1632,2144,687,1505,454,418,1915,2328,2995,2531,3866,4715,4769
participant_1_LEVEL,1,3,4,5,6,6,7,8,9,10,10,11,12,13,13,14,15,15,16,17,17,18,18,18,18,18,18,18,18,18,18
participant_1_MINIONSKILLED,0,0,1,7,8,12,12,14,18,25,28,30,38,42,45,51,51,57,71,75,81,90,100,101,111,112,122,125,138,146,146
participant_1_KILLS,0,0,0,0,0,0,0,3,3,5,5,6,8,11,11,11,11,12,14,14,14,15,16,16,18,18,18,18,20,21,21
participant_1_BUY,[],[],[6670],[],"[1053, 1018]",[],"[6673, 1001]",[3006],[1036],[],[],[6676],[],[],[],[3031],[1053],[1038],[],[],"[3072, 3123]",[],[3033],[2140],[],[],[],"[2140, 2139]",[],[],[]
participant_1_SOLD,[],[],[],[],[],[],"[6670, 1018, 1053]",[1001],[],[],[],[1036],[],[],[],[],[],[],[],[],"[1038, 1053]",[],[3123],[2140],[],[],[],"[2140, 2139]",[],[],[]
participant_1_UNDO,[],[],[],[],[],[],[],[],[],[],[],[],[],[],[],[],[],[],[],[],[],[],[],[],[],[],[],[],[],[],[]
participant_2_GOLD,1400,1415,1919,2770,3164,3729,4640,5114,5621,6341,6713,7131,7763,8434,8882,9905,10470,10830,11480,12227,13173,13563,14100,14629,15941,16395,16927,17317,17881,18427,18481
participant_2_CURRENTGOLD,1400,15,519,1370,564,729,1640,414,921,1641,413,481,1113,1074,1522,1145,410,420,1070,367,913,803,1340,1869,3181,1600,2132,522,1086,1632,981
participant_2_LEVEL,1,3,4,5,6,7,8,9,9,10,11,11,12,13,13,14,15,15,16,16,17,17,18,18,18,18,18,18,18,18,18
participant_2_MINIONSKILLED,0,0,4,4,5,9,15,17,22,24,24,26,30,33,36,39,40,40,42,47,48,48,49,51,54,57,58,58,58,59,59
participant_2_KILLS,0,0,0,2,2,2,3,3,3,4,4,4,4,4,4,5,6,6,6,7,8,8,8,8,9,9,9,9,9,9,9
participant_2_BUY,[],"[2051, 1001, 2003, 2003, 2003]",[],[],[6029],[1028],[],[6630],[],[],"[3111, 3067]",[1036],[],[3133],[],[3071],[3155],[1036],[],[3156],[1028],[1011],[],[],[],"[3001, 1057]",[],[4401],[],[],[]
participant_2_SOLD,[],[],[2003],"[2419, 2003, 2010, 2003]",[],[],[2010],"[6029, 1028]",[2010],[],[1001],[],[2423],"[1036, 2424]",[],"[3133, 3067]",[],[],[],"[3155, 1036]",[],[1028],[],[],[],"[1011, 2051]",[],[1057],[],[],[]
participant_2_UNDO,[],[],[],[],[],[],[],[],[],[],[],[],[],[],[],[],[],[],[],[],[],[],[],[],[],[],[],[],[],[],[]
participant_3_GOLD,1400,1580,2100,2836,3404,4001,4379,4853,5255,5724,6084,6689,7360,8017,8383,9068,9625,10084,10984,11421,11849,12209,12653,13158,14899,15301,16181,17158,17606,18055,18109
participant_3_CURRENTGOLD,1400,180,700,1436,54,651,429,453,505,124,484,1089,960,1617,383,1068,875,434,1334,271,699,709,1153,908,2649,951,1831,808,1256,1705,1759
participant_3_LEVEL,1,3,4,5,6,7,7,8,9,9,10,11,12,13,13,14,14,15,16,17,17,17,18,18,18,18,18,18,18,18,18
participant_3_MINIONSKILLED,0,0,5,10,10,11,11,12,12,13,13,15,17,20,20,26,32,32,34,35,35,35,35,37,40,40,40,40,42,43,43
participant_3_KILLS,0,1,1,2,3,3,3,3,3,3,3,3,4,4,4,5,5,5,5,5,5,5,5,5,7,7,8,9,9,9,9
participant_3_BUY,[],"[6029, 2003, 2003, 2003, 2003]",[],[],"[3044, 3067, 2003]",[],"[6630, 1001, 2003, 2003]",[1033],[3111],"[1033, 1028]",[],[],"[3211, 1028]",[],"[3065, 1036]",[],"[3123, 1042]",[3086],[],"[3033, 1031]",[],[1036],[],[3133],[],"[6333, 1057]",[],[4401],[],[],[]
participant_3_SOLD,[],[],"[2003, 2003]","[2003, 2003]",[],[2003],"[6029, 3044, 3067]",[2003],"[1001, 1033]",[],[],[2003],"[1028, 1033]",[],"[3211, 1028]",[],[1036],[1042],[],"[3123, 3086]",[],[],[],[1036],[],"[1031, 3133]",[],[1057],[],[],[]
participant_3_UNDO,[],[],[],[],[],[],[],[],[],[],[],[],[],[],[],[],[],[],[],[],[],[],[],[],[],[],[],[],[],[],[]
participant_4_GOLD,1400,1492,1918,2648,3128,3878,4596,5245,5700,6167,6539,7234,7821,8496,8892,9716,10154,10896,11637,11997,12473,12963,13408,14030,15078,15438,15998,16724,17175,17848,17902
participant_4_CURRENTGOLD,1400,192,618,1348,678,1428,2146,2795,3250,332,239,934,821,246,642,266,704,146,887,1247,473,963,108,730,1778,888,1448,2174,875,1548,1602
participant_4_LEVEL,1,3,4,5,6,7,8,9,10,10,11,12,12,13,13,14,15,15,16,17,17,18,18,18,18,18,18,18,18,18,18
participant_4_MINIONSKILLED,0,0,0,1,5,10,13,16,17,19,19,21,24,27,27,27,27,28,29,29,31,32,35,42,48,48,50,55,56,60,60
participant_4_KILLS,0,0,0,1,1,2,3,3,3,3,3,4,4,4,4,5,5,6,6,6,6,6,6,6,6,6,6,6,6,7,7
participant_4_BUY,[],[3802],[],[],"[3108, 1026, 1001]",[],[],[],[],"[6655, 3020, 1011, 3191, 1052]",[3108],[],[3157],[1058],[],"[1058, 3916, 1028]",[],[3165],[],[],[1058],[],[3089],[],[],[4630],[],[],"[3135, 2139]",[],[]
participant_4_SOLD,[],[],[],[],[],[],[],[],[],"[3802, 1026, 1001]",[1052],[],"[3191, 3108]",[],[],[],[],"[3916, 1028]",[],[],[],[],"[1058, 1058]",[],[],[],[],[],"[4630, 2139]",[],[]
participant_4_UNDO,[],[],[],[],"[[0, 3108]]",[],[],[],[],"[[0, 1011]]",[],[],[],[],[],"[[0, 1058]]",[],[],[],[],[],[],[],[],[],[],[],[],[],[],[]
participant_5_GOLD,1400,1400,1886,2329,3290,3698,4287,4887,5537,6063,6831,7911,8367,8952,9364,10512,11046,11919,12505,13076,13805,14401,15024,15574,15951,16559,17258,17901,18368,19940,20150
participant_5_CURRENTGOLD,1400,0,486,494,1455,198,787,287,937,1463,2231,3311,332,917,114,1262,1796,1819,1155,1726,2455,3051,3674,4224,801,1459,2158,2801,1968,3140,1250
participant_5_LEVEL,1,3,4,5,6,7,8,9,9,10,11,12,13,14,14,15,16,16,17,18,18,18,18,18,18,18,18,18,18,18,18
participant_5_MINIONSKILLED,0,0,3,6,7,7,11,15,17,21,23,26,28,35,36,37,39,43,45,48,49,53,55,57,57,61,61,69,70,70,70
participant_5_KILLS,0,0,0,0,1,1,1,1,1,1,1,2,2,2,2,3,3,4,5,5,5,5,5,5,5,5,5,5,5,7,7
participant_5_BUY,[],"[3802, 2003, 2003]",[],[1052],[],[6653],[],[3020],[],[],[],[],"[4637, 1052]",[],"[3916, 1026]",[],[],[3165],[1058],[],[],[],[],[],"[3089, 4630]",[4632],[],[],[3102],[3135],[]
participant_5_SOLD,[],[],[2003],[],[],"[2003, 3802, 1052]",[],[],[3400],[],[],[],[],[],[1052],[],[],"[1026, 3916]",[],[],[3400],[],[],[],[1058],[],[],[],[4632],[4637],[]
participant_5_UNDO,[],[],[],[],[],[],[],[],[],[],[],[],[],[],[],[],[],[],[],[],[],[],[],[],[],"[[0, 4630]]",[],[],[],[],[]
participant_6_GOLD,1400,1422,1891,2415,3666,4307,5221,6465,7071,7844,9041,10212,10647,11500,12188,13239,13719,15134,15562,16035,16927,17821,18426,18898,19339,20566,21626,22016,22765,23902,24106
participant_6_CURRENTGOLD,1400,22,491,615,1866,2507,3421,4665,5271,59,1256,2427,2862,850,638,89,569,1984,1112,1585,2477,3371,1776,2248,2189,3416,4476,3866,4615,5752,5956
participant_6_LEVEL,1,3,4,5,6,7,8,9,10,10,11,12,13,13,14,15,15,17,17,17,18,18,18,18,18,18,18,18,18,18,18
participant_6_MINIONSKILLED,0,0,2,6,6,8,13,17,26,28,42,49,51,54,58,69,73,85,88,91,101,112,115,118,119,133,146,146,157,168,168
participant_6_KILLS,0,0,0,0,2,3,5,6,6,7,9,12,12,14,15,17,17,19,19,19,19,20,20,20,20,21,23,23,23,24,24
participant_6_BUY,[],"[3070, 3145, 1001, 2003]",[],[1028],[],[],[],[],[],"[3152, 3089, 1052]",[],[],[],"[3135, 3020]","[3191, 3108]",[3157],[],[],"[3916, 2139]",[],[],[],"[3165, 2139]",[],[2139],[],[],"[2139, 2139]",[],[],[]
participant_6_SOLD,[],[],[2003],[],[3400],[],[],[3400],[],"[3145, 1028]",[],[],[],"[1052, 1001]",[],[3108],[],[3400],[2139],[],[],[],"[3916, 2139]",[],[2139],[],[],"[2139, 2139]",[],[],[]
participant_6_UNDO,[],"[[0, 3070]]",[],[],[],[],[],[],[],[],[],[],[],[],"[[0, 3191]]",[],[],[],[],[],[],[],[],[],[],[],[],[],[],[],[]
participant_7_GOLD,1400,1580,2000,2421,3165,3690,4149,4651,5175,5820,6711,7409,7798,8483,9351,9772,10196,10830,11283,12060,12769,13574,14334,14961,15397,16848,17388,17859,18636,19191,19395
participant_7_CURRENTGOLD,1400,180,600,321,1065,440,99,601,1125,320,1211,459,848,1533,2401,172,596,1230,83,860,1569,2374,3134,3761,1597,3048,453,424,701,1256,515
participant_7_LEVEL,1,3,4,5,6,7,8,8,9,10,10,12,12,13,14,14,14,15,16,17,17,18,18,18,18,18,18,18,18,18,18
participant_7_MINIONSKILLED,0,0,0,1,7,13,13,14,16,16,18,19,20,25,28,29,30,30,31,34,38,41,44,51,52,53,55,58,60,60,60
participant_7_KILLS,0,1,1,1,1,1,1,1,1,2,3,4,4,4,6,6,6,6,6,7,7,8,8,8,8,11,11,11,13,13,13
participant_7_BUY,[],"[3070, 3112, 2003]",[],[3057],[],"[3113, 1001]",[3020],[],[],[3100],[],"[3145, 1028]",[],[],[],"[3152, 3191]",[],[],[3157],[],[],[],[],[],[3003],[],[3089],[2139],[2139],[],[]
participant_7_SOLD,[],[],[2003],[],[],[],[1001],[],[],"[3057, 3113]",[],[],[],[],[],"[3145, 1028]",[],[],"[3070, 3191]",[],[],[],[],[],"[3070, 3003]",[],[3112],[2139],[2139],[],[]
participant_7_UNDO,[],[],[],[],[],[],[],[],[],[],[],[],[],[],[],[],[],[],"[[3070, 0]]",[],[],[],[],[],[],[],[],[],[],[],[]
participant_8_GOLD,1400,1422,1874,2327,3089,3491,3969,4460,4910,5445,6092,6582,7030,7396,7945,8487,8913,9699,10132,10568,11117,11658,12059,12516,12900,13483,14015,14495,15015,15965,16175
participant_8_CURRENTGOLD,1400,22,474,927,89,491,969,1460,1910,2445,3092,3582,4030,96,645,1187,453,1239,572,558,1107,1648,464,921,505,1088,1620,2100,2620,3570,3075
participant_8_LEVEL,1,3,4,5,6,7,8,9,9,10,11,12,12,13,14,14,15,16,16,17,17,18,18,18,18,18,18,18,18,18,18
participant_8_MINIONSKILLED,0,0,1,1,2,2,2,2,2,4,4,5,6,6,8,8,8,9,9,9,9,10,10,10,10,13,14,14,14,15,15
participant_8_KILLS,0,0,0,0,1,1,1,1,1,1,1,1,1,1,1,1,1,1,1,1,1,1,1,1,1,1,1,1,1,1,1
participant_8_BUY,[],"[2051, 1029, 2003, 2003, 2003]",[],[],"[3067, 3105, 1028]",[],[],[],[],[],[],[],[],"[3190, 3047, 3024, 3067, 3050]",[],[],"[3114, 1028]",[],[3107],[1033],[],[],"[1057, 3001]",[],[3076],[],[],[],[],[],[]
participant_8_SOLD,[],[],[],"[2419, 2010]","[2003, 1029]",[],"[2010, 2003]","[2010, 2423]",[2003],[],[],[],[],"[1028, 3105, 3067, 3024]",[],[],[2424],[],"[1028, 3114]",[],[],[],"[1033, 2051, 1057]",[],[],[],[],[],[],[],[]
participant_8_UNDO,[],[],[],[],"[[0, 3067]]",[],[],[],[],[],[],[],[],[],[],[],[],[],[],[],[],[],[],[],[],[],[],[],[],[],[]
participant_9_GOLD,1400,1400,1832,2267,3319,3769,4147,5607,6111,6548,7278,7759,8155,8653,9922,10378,11194,12424,12790,13588,15242,15632,17254,17707,18265,19107,20274,20999,21604,23212,23472
participant_9_CURRENTGOLD,1400,0,432,517,1569,2019,647,307,811,373,1103,209,605,3,1272,278,1094,674,290,1088,2042,832,2454,2907,1065,1907,3074,3799,3904,5512,5772
participant_9_LEVEL,1,3,4,5,6,7,8,8,9,10,11,11,12,13,14,14,15,16,16,17,17,18,18,18,18,18,18,18,18,18,18
participant_9_MINIONSKILLED,0,0,0,0,0,0,0,0,3,3,4,4,4,5,7,7,10,10,10,10,11,11,11,11,11,16,17,17,23,28,28
participant_9_KILLS,0,0,0,0,2,2,2,6,6,6,6,6,6,6,6,6,7,9,9,10,13,13,18,18,19,20,21,22,22,24,24
participant_9_BUY,[],"[3134, 1001]",[],[1036],[],[],[6691],"[3117, 1036, 1036, 3134, 3134]",[],[1037],[],"[3142, 1036]",[],"[3134, 1036]",[],[3814],[],"[3155, 1036]",[3133],[],[3156],"[3134, 2139]",[],[],"[3181, 2139]",[],[],[],[2139],[],[]
participant_9_SOLD,[],[2052],[],[],[3400],[],"[3134, 1036]","[3400, 1001, 1036, 1036, 1036, 1036]",[],[],[],"[2052, 3134, 1037]",[],[1036],"[3400, 3400]","[1036, 3134]",[],[3400],[1036],[],"[3155, 3133]",[2139],[],[],"[3134, 2139]",[],[],[],[2139],[],[]
participant_9_UNDO,[],[],[],[],[],[],[],"[[0, 3134]]",[],[],[],[],[],[],[],[],[],[],[],[],[],[],[],[],[],[],[],[],[],[],[]
team0_KILLS,0,2,2,6,7,9,11,14,14,17,17,19,22,25,26,29,30,32,36,37,38,39,40,40,45,45,46,48,50,52,52
team0_CURRENTGOLD,7000,2072,3098,6621,2206,4925,6414,4469,6062,5588,5564,5516,5235,7438,8162,4023,3632,1556,6484,6038,5206,4437,3995,5049,11702,6190,8713,7576,8535,11495,10780
team0_TOTALGOLD,7000,7572,9898,13421,15706,18825,21814,25119,27412,31173,33214,36166,39885,44048,46372,49983,52542,55566,60494,62998,65816,68397,71155,73859,80512,82605,85628,89491,92700,95660,95930
team0_LEVEL,5,15,20,25,30,34,38,42,46,49,52,57,60,65,66,70,74,76,81,84,86,88,90,90,90,90,90,90,90,90,90
team0_SBIRES,0,0,11,25,31,51,63,73,85,99,106,120,137,151,161,178,191,198,223,234,243,257,271,290,317,325,338,355,371,386,386
team1_KILLS,0,1,1,1,7,8,10,15,15,17,20,25,25,27,30,33,34,39,40,42,45,47,52,52,53,58,61,62,64,69,69
team1_CURRENTGOLD,7000,224,2483,2874,6044,5655,5923,7320,10054,4660,8893,9988,8677,3399,5070,2988,4508,6946,3212,5817,9650,11276,11502,14061,6157,10918,11781,12990,13808,19230,16568
team1_TOTALGOLD,7000,7224,9483,11759,16529,18955,21773,26070,28804,31720,35953,39873,41997,44984,48770,52388,55068,60006,62272,65327,69860,73086,77097,79656,81852,86563,90561,93270,96388,102210,103298
team1_LEVEL,5,15,20,25,30,35,40,43,46,50,54,59,62,66,70,72,75,80,82,86,87,90,90,90,90,90,90,90,90,90,90
team1_SBIRES,0,0,6,14,22,30,39,48,64,72,91,103,109,125,137,150,160,177,183,192,208,227,235,247,249,276,293,304,324,341,341
delta_KILLS,0,1,1,5,0,1,1,-1,-1,0,-3,-6,-3,-2,-4,-4,-4,-7,-4,-5,-7,-8,-12,-12,-8,-13,-15,-14,-14,-17,-17
delta_CURRENTGOLD,0,1848,615,3747,-3838,-730,491,-2851,-3992,928,-3329,-4472,-3442,4039,3092,1035,-876,-5390,3272,221,-4444,-6839,-7507,-9012,5545,-4728,-3068,-5414,-5273,-7735,-5788
delta_TOTALGOLD,0,348,415,1662,-823,-130,41,-951,-1392,-547,-2739,-3707,-2112,-936,-2398,-2405,-2526,-4440,-1778,-2329,-4044,-4689,-5942,-5797,-1340,-3958,-4933,-3779,-3688,-6550,-7368
delta_LEVEL,0,0,0,0,0,-1,-2,-1,0,-1,-2,-2,-2,-1,-4,-2,-1,-4,-1,-2,-1,-2,0,0,0,0,0,0,0,0,0
delta_SBIRES,0,0,5,11,9,21,24,25,21,27,15,17,28,26,24,28,31,21,40,42,35,30,36,43,68,49,45,51,47,45,45
