name,team0,team1
win,Fail,Win
firstBlood,False,True
firstTower,False,True
firstInhibitor,False,True
firstBaron,True,False
firstDragon,False,True
firstRiftHerald,False,False
towerKills,3,10
inhibitorKills,0,2
baronKills,1,0
dragonKills,1,4
riftHeraldKills,0,0
