name,frame_0,frame_1,frame_2,frame_3,frame_4,frame_5,frame_6,frame_7,frame_8,frame_9,frame_10,frame_11,frame_12,frame_13,frame_14,frame_15,frame_16,frame_17,frame_18,frame_19,frame_20,frame_21,frame_22,frame_23,frame_24,frame_25,frame_26,frame_27,frame_28,frame_29,frame_30,frame_31,frame_32,frame_33,frame_34,frame_35,frame_36,frame_37
nameStamp,Tstart,Tearly,Tearly,Tearly,Tearly,Tearly,Tearly,Tearly,Tearly,Tearly,Tearly,Tearly,Tearly,Tearly,Tmid,Tmid,Tmid,Tmid,Tmid,Tmid,Tmid,Tmid,Tmid,Tmid,Tmid,Tmid,Tmid,Tmid,Tmid,Tmid,Tend,Tend,Tend,Tend,Tend,Tend,Tend,Tend
timestamp,0,60008,120011,180043,240060,300063,360080,420108,480129,540149,600177,660193,720199,780201,840216,900231,960260,1020268,1080268,1140290,1200321,1260329,1320334,1380346,1440349,1500372,1560376,1620378,1680391,1740407,1800424,1860433,1920451,1980482,2040496,2100514,2160519,2220519
participant_0_GOLD,500,500,583,920,1092,1382,1687,2050,2332,2577,2926,3396,3781,4071,4923,5655,5837,6267,6585,7011,7304,7751,8719,9234,9529,9778,10222,10445,10779,11419,11632,12524,12848,13203,13736,14039,14517,14554
participant_0_CURRENTGOLD,500,0,83,420,592,882,1187,1550,1832,52,401,871,1256,1546,2398,3130,12,442,760,1186,1479,1926,909,1424,720,968,1412,75,409,1050,387,1279,304,658,1192,195,402,229
participant_0_LEVEL,1,1,1,2,3,4,4,5,5,5,6,7,7,8,8,9,9,9,10,10,11,11,12,12,13,13,13,13,14,14,15,15,16,16,16,16,17,17
participant_0_MINIONSKILLED,0,0,3,13,16,23,33,45,51,55,65,82,93,103,107,112,114,123,130,141,151,162,169,179,180,187,202,202,203,219,220,229,236,240,250,258,270,270
participant_0_KILLS,0,0,0,0,0,0,0,0,0,0,0,0,0,0,2,3,3,3,3,3,3,3,5,5,5,5,5,5,5,5,5,5,5,5,5,5,5,5
participant_0_BUY,[],"[1055, 1054, 2003, 3340]",[],[],[],[],[],[],[],"[1038, 1036, 1001, 2055]",[],[],[],[],[],[],"[3508, 3006, 3070]",[],[],[],[],[],"[3004, 1052]",[],[1043],[3363],[],"[3124, 2055]",[],[3108],"[1037, 1018, 1037]",[],[1038],[],[],"[3031, 2055]",[1042],[]
participant_0_SOLD,[],[],[],[],[],[],[],[],[],[2003],[],[],[],[],[],[2055],"[1038, 1036, 1001]",[],[],[],[],[],[3070],[],[],[3340],[],"[1054, 1052, 1043]",[],[2055],[],[3400],[],[],[],"[1038, 1037, 3004]",[2055],[]
participant_0_UNDO,[],"[[0, 1055]]",[],[],[],[],[],[],[],[],[],[],[],[],[],[],[],[],[],[],[],[],[],[],[],[],[],[],[],"[[0, 3108]]","[[0, 1037], [0, 1018]]",[],[],[],[],[],[],[]
participant_1_GOLD,500,500,522,759,894,1112,1261,1475,1609,1810,2003,2212,2448,2588,2879,3049,3306,3744,3905,4232,4564,4705,5060,5229,5494,5717,5872,6363,6513,6653,7019,7259,7415,7655,7975,8130,8300,8343
participant_1_CURRENTGOLD,500,0,22,259,394,612,761,975,1109,110,228,437,673,813,1104,399,221,659,820,82,414,555,910,1079,544,332,487,113,263,404,369,359,515,755,276,430,600,643
participant_1_LEVEL,1,1,1,2,2,3,4,4,5,5,5,6,7,7,7,8,8,9,9,9,10,10,11,11,11,12,12,12,12,12,13,13,13,13,14,14,14,14
participant_1_MINIONSKILLED,0,0,0,3,3,5,6,8,8,8,11,12,14,14,14,15,16,21,22,24,26,26,27,29,29,30,31,31,32,32,32,32,33,33,34,35,35,35
participant_1_KILLS,0,0,0,0,0,0,0,0,0,0,0,0,0,0,0,0,0,0,0,0,0,0,0,0,0,0,0,1,1,1,1,1,1,1,1,1,1,1
participant_1_BUY,[],"[3858, 2003, 2003, 3340]",[],[],[],[],[],[],[],"[3114, 1001, 2003, 2003]",[2055],[],[],[],[],"[3117, 2055, 2003, 2003, 3364]",[1052],[],[],[3504],[],[],[],[],[3028],[1052],[],[3174],[],[],[1028],[3801],[],[],[3114],[],[],[]
participant_1_SOLD,[],[],[],"[2010, 2003]",[2003],[2010],[],[],[],[2010],[2055],[],[3858],[],"[2003, 2003]","[1001, 3340, 2055]",[],[2003],[],"[3114, 1052]",[],[],[2003],[3859],[],[],[],"[1052, 3028]",[],[],[],[1028],[],[],[],[],[],[]
participant_1_UNDO,[],[],[],[],[],[],[],[],[],[],[],[],[],[],[],[],[],[],[],[],[],[],[],[],[],[],[],[],[],[],[],[],[],[],[],[],[],[]
participant_2_GOLD,500,500,590,906,1183,1487,1666,1935,2148,2723,2999,3361,3558,3785,3985,4555,4907,5196,5513,5706,5828,6104,6443,6697,7099,7486,7660,7912,8243,8415,8786,9146,9464,9741,9863,10285,10581,10619
participant_2_CURRENTGOLD,500,0,90,406,683,987,291,560,48,623,899,1261,158,385,585,1155,707,206,523,716,998,1274,1613,517,919,356,530,347,678,60,31,392,709,986,49,470,767,304
participant_2_LEVEL,1,1,1,3,4,5,5,6,7,7,8,8,9,9,9,10,10,11,11,11,11,12,12,12,13,13,13,13,14,14,15,15,15,15,15,16,16,16
participant_2_MINIONSKILLED,0,0,4,12,22,29,32,41,46,61,70,81,81,88,93,99,108,114,122,126,126,131,133,137,149,160,162,163,172,175,181,188,195,202,202,211,218,218
participant_2_KILLS,0,0,0,0,0,0,0,0,0,0,0,0,0,0,0,1,1,1,1,1,1,1,1,1,1,1,1,1,1,1,1,1,1,1,1,1,1,1
participant_2_BUY,[],"[1056, 2003, 2003, 3340]",[],[],[],[],"[1001, 1082, 2031, 2055]",[],"[2420, 2055]",[],[],[],[3802],[],[],[],[3020],[1026],[],[],[],[],[],"[3285, 1029]",[],"[3191, 2055, 2055]",[],[1052],[],"[3157, 2055]",[1028],[],[],[],"[1026, 1052, 3916]",[],[],[]
participant_2_SOLD,[],[],[],[],[],"[2003, 2003]",[],[2055],[],[],[],[2055],[],[],[],[],[1001],"[2420, 2031]",[],[],[1056],[],[],"[3802, 1026]",[],"[1029, 2055]",[2055],[],[],"[3191, 1052, 2421]",[2055],[],[],[],"[1082, 1082, 1028, 1052]",[],[],[]
participant_2_UNDO,[],[],[],[],[],[],[],[],[],[],[],[],[],[],[],[],[],[],[],[],[],[],[],[],[],[],[],[],[],[],[],[],[],[],"[[1082, 0], [0, 1026]]",[],[],[]
participant_3_GOLD,500,500,562,762,1085,1473,1596,1973,2220,3143,3454,3607,4001,4151,4460,4646,4888,5229,5477,6192,6889,7026,7198,7550,8348,8850,9062,9323,9521,9733,11159,12086,12238,12710,13071,13256,13527,13565
participant_3_CURRENTGOLD,500,0,62,262,585,973,46,423,670,93,404,557,951,276,585,771,1013,304,552,92,789,926,348,700,1498,600,812,373,571,783,1410,286,438,291,651,837,1108,965
participant_3_LEVEL,1,1,1,2,4,5,5,6,7,7,8,8,9,9,9,9,10,10,11,11,11,12,12,12,12,13,13,14,14,14,14,15,15,15,15,15,15,15
participant_3_MINIONSKILLED,0,0,2,6,15,28,28,40,44,44,55,56,64,66,73,74,81,86,94,99,99,100,100,109,109,115,116,120,122,123,125,127,128,128,138,141,145,145
participant_3_KILLS,0,0,0,0,0,0,0,0,0,1,1,1,1,1,1,1,1,1,1,2,3,3,3,3,4,5,5,5,5,5,7,8,8,9,9,9,9,9
participant_3_BUY,[],"[1054, 2003, 3340]",[],[],[],[],"[3117, 2003]",[],[],"[3134, 1036, 2003]",[],[],[],"[3133, 2055]",[2055],[],[],"[3147, 1036]",[],"[3134, 1036, 2055]",[],[],[3133],[3364],[],"[3142, 1036, 1036]",[],"[3133, 1029]",[],[],[3105],"[3812, 2420]",[],[1031],[],[],[],[]
participant_3_SOLD,[],[],[],[2003],[],[],[],[],[],"[2003, 3400]",[2003],[],[],[1036],[],[],[],"[3134, 3133]",[2055],"[3400, 1036]",[],[],[1036],[3340],"[2055, 3400]","[3133, 3134]",[],"[1036, 1036]",[],[],[1029],"[3105, 3133]",[],"[2420, 1054]",[],[],[],[]
participant_3_UNDO,[],[],[],[],[],[],[],[],[],[],[],[],[],[],"[[0, 2055]]",[],[],[],[],[],[],[],[],[],[],[],[],[],[],[],[],[],[],[],[],[],[],[]
participant_4_GOLD,500,500,705,1118,1403,1641,1953,2115,2517,3071,3513,3856,4433,4677,4964,5236,5798,6483,6800,7298,8121,8370,8963,9375,10422,10648,10970,11442,11933,12281,13803,14407,14661,15059,15997,16263,16525,16562
participant_4_CURRENTGOLD,500,0,205,618,903,1141,1453,180,582,46,488,831,1408,1652,304,576,1138,233,550,298,1121,1370,323,736,1782,258,580,453,943,1292,914,1517,302,699,1638,4,265,212
participant_4_LEVEL,1,1,2,3,4,4,5,5,6,6,7,7,8,8,8,9,10,10,10,11,12,12,12,13,13,13,14,14,14,15,15,16,16,16,17,17,17,17
participant_4_MINIONSKILLED,0,0,0,0,0,0,0,0,0,2,3,3,3,4,5,5,5,6,10,11,18,19,20,20,22,24,25,25,36,36,36,44,48,53,62,63,67,67
participant_4_KILLS,0,0,0,0,0,0,0,0,0,0,0,0,1,1,1,1,1,3,3,3,4,4,5,5,6,6,6,7,7,7,8,8,8,8,9,9,9,9
participant_4_BUY,[],"[1039, 2031, 3340]",[],[],[],[],[],"[3706, 1052, 1027, 3364]",[],"[1402, 1001, 2055]",[],[],[],[],"[3047, 1052, 1028]",[],[],"[3136, 1026, 2055]",[],[3151],[],[],"[3108, 2420, 2055, 2055]",[],[],"[3157, 1028]",[],[1011],[],[],[3742],[],"[3082, 2139]",[],[],[3143],[],[]
participant_4_SOLD,[],[],[],[],[],[],[],"[1039, 3340]",[],"[3400, 1052, 1027, 3706]",[],[2055],[],[],[1001],[],[],"[1028, 1052]",[],"[3136, 1026]",[],[2055],[2031],[],[],"[3108, 2420]",[2055],[1028],[],[],[1011],[],"[2055, 2139]",[],[],[3082],[],[]
participant_4_UNDO,[],[],[],[],[],[],[],[],[],[],[],[],[],[],[],[],[],[],[],[],[],[],[],[],[],[],[],[],[],[],[],[],[],[],[],[],[],[]
participant_5_GOLD,500,500,564,759,915,1112,1334,1468,1692,1827,1991,2246,2437,2669,2988,3128,3339,3550,3730,3921,4111,4282,5027,5167,5338,5478,5741,5932,6172,6868,7008,7148,7314,7704,7845,7985,8530,8674
participant_5_CURRENTGOLD,500,0,64,259,415,612,834,968,1192,77,241,496,687,920,1238,128,339,200,381,196,386,557,1302,68,238,228,492,682,772,1468,158,224,389,779,345,485,1031,1174
participant_5_LEVEL,1,1,1,2,3,4,4,5,5,5,5,6,6,7,7,7,8,8,8,8,8,9,10,10,10,10,10,11,11,12,12,12,12,12,12,13,14,14
participant_5_MINIONSKILLED,0,0,2,3,4,5,7,7,9,9,10,13,15,17,19,19,23,24,26,26,26,26,27,27,28,28,33,33,33,33,33,33,34,34,34,34,34,34
participant_5_KILLS,0,0,0,0,0,0,0,0,0,0,0,0,0,0,0,0,0,0,0,0,0,0,1,1,1,1,1,1,1,1,1,1,1,1,1,1,1,1
participant_5_BUY,[],"[3858, 2003, 2003, 3340]",[],[],[],[],[],[],[],"[3067, 1029, 2055, 2055]",[],[],[],[],[],"[3109, 2055, 2055, 3364]",[],"[1001, 2055, 2003]",[],"[1029, 2055]",[],[],[],"[3111, 1031, 2055]",[],"[2055, 2055]",[],[],"[2055, 2055]",[],[3193],[2055],[],[],"[2055, 2138]",[],[],[]
participant_5_SOLD,[],[],[],[2003],[],[],[],[],[2003],[],[2055],"[2055, 3858]",[],[],"[2419, 2423]","[3067, 1029, 3340]",[2055],[],[2055],[2003],[2055],[],[],"[1001, 1029]",[2055],[],"[3859, 2055, 2055]",[],[],[2055],"[1031, 2424]",[],[2055],[],[2138],[2055],[],[]
participant_5_UNDO,[],[],[],[],[],[],[],[],[],[],[],[],[],[],[],[],[],"[[0, 2055]]",[],[],[],[],[],[],[],[],[],[],[],[],[],[],[],[],[],[],[],[]
participant_6_GOLD,500,500,583,920,1211,1564,1949,2190,2507,2672,2794,3118,3580,3948,4113,4235,4638,4887,5246,5633,6286,6795,7142,7368,7605,7943,8096,8493,8800,9502,9729,9851,10014,11182,11530,11937,12687,12824
participant_6_CURRENTGOLD,500,0,83,420,711,1064,1449,1690,2007,2172,119,443,905,1273,688,810,1213,262,621,1008,1661,2170,2517,868,1105,1443,781,1178,260,962,1189,212,374,1542,1891,498,1247,1324
participant_6_LEVEL,1,1,1,2,3,4,4,5,5,6,6,6,7,7,8,8,8,8,9,9,10,10,11,11,12,12,12,13,13,14,14,14,14,14,15,15,16,16
participant_6_MINIONSKILLED,0,0,3,13,23,33,45,52,60,62,62,70,87,98,100,100,113,117,127,131,144,148,148,150,156,164,165,165,165,172,174,174,176,182,182,190,197,197
participant_6_KILLS,0,0,0,0,0,0,0,0,0,0,0,0,0,0,0,0,0,0,0,0,0,1,1,1,1,1,1,1,1,1,1,1,1,2,2,2,2,2
participant_6_BUY,[],"[1055, 2003, 3340]",[],[],[],[],[],[],[],[],"[1038, 1001, 1036, 2031, 2055]",[],[],[],[3133],[],[],"[3508, 1042]",[],[],[],[],[],"[1038, 3006, 3363, 2055]",[],[],[1037],[],[3031],[],[],"[3134, 3134]",[],[],[],[3814],[],[]
participant_6_SOLD,[],[],[],[2003],[],[],[],[],[],[],[],[],[2055],[],[1036],[],[],"[1038, 3133]",[],[],[],[],[],"[1001, 1042, 3340]",[],[],"[2031, 2055]",[],"[1038, 1037]",[],[],[],[],[],[],[3134],[],[]
participant_6_UNDO,[],[],[],[],[],[],[],[],[],[],[],[],[],[],[],[],[],[],[],[],[],[],[],[],[],[],[],[],[],[],[],"[[0, 3134]]",[],[],[],[],[],[]
participant_7_GOLD,500,500,620,1033,1233,1440,1698,2016,2238,2475,2862,3125,3278,3940,4348,4470,4693,5025,5232,5922,6136,6259,7356,7583,7783,7990,8248,8620,9132,9880,10267,10474,10597,10940,11352,11793,12655,12813
participant_7_CURRENTGOLD,500,0,120,533,733,940,1198,141,363,600,987,1250,53,715,1123,95,318,650,92,782,146,269,266,418,618,155,413,785,197,945,232,440,562,905,617,1059,670,738
participant_7_LEVEL,1,1,2,3,3,4,4,5,5,5,6,7,7,8,8,8,8,9,9,10,10,10,10,11,11,11,11,12,13,14,14,14,14,14,15,15,16,16
participant_7_MINIONSKILLED,0,0,0,0,0,0,0,0,0,1,1,1,1,1,1,1,1,3,3,7,10,10,10,10,10,10,11,11,11,11,23,23,23,23,23,24,25,26
participant_7_KILLS,0,0,0,0,0,0,0,0,0,0,0,0,0,1,1,1,1,1,1,2,2,2,4,4,4,4,4,4,4,5,5,5,5,5,5,5,6,6
participant_7_BUY,[],"[1039, 2031, 3340]",[],[],[],[],[],"[3706, 1001, 1036, 2055]",[2055],[],[],[],"[1400, 2055]",[],[],"[1033, 3111, 1036]",[],[],"[3134, 2055]",[],"[1036, 1036, 2055, 2055]",[],[3147],[2055],[],"[1036, 1036]",[],[],"[3134, 1036, 1036]",[],[3142],[],[],[],"[1036, 1036]",[],"[3134, 1036, 2140]",[]
participant_7_SOLD,[],[],[],[],[],[],[],[1039],[],[2055],[],[],"[1036, 3706]",[2055],[],"[1001, 1033]",[3340],[3513],"[1036, 2031]",[2055],[],"[2055, 2055]","[3134, 1036, 1036]",[],[],[2055],[],[],"[1036, 1036]",[],"[1036, 1036, 3134]",[],[],[],[],[],"[1036, 1036, 2140]",[]
participant_7_UNDO,[],[],[],[],[],[],[],[],"[[0, 2055]]",[],[],[],[],[],[],[],[],[],[],[],[],[],[],[],[],[],[],[],[],[],[],[],[],[],[],[],[],[]
participant_8_GOLD,500,500,562,864,1134,1424,1732,2126,2401,2852,3058,3361,3682,4137,4783,4905,5229,5680,5955,6245,6535,6782,6996,7118,7269,7572,7723,8495,8836,9289,9466,9818,10004,10453,10660,10796,11545,11732
participant_8_CURRENTGOLD,500,0,62,364,634,924,1232,201,326,377,583,886,1207,1662,2308,130,454,905,1180,380,270,517,731,53,204,207,358,1130,21,474,651,1004,39,488,695,112,860,987
participant_8_LEVEL,1,1,1,3,4,5,6,6,7,7,8,8,9,9,10,10,10,11,11,12,12,12,12,12,13,13,13,13,14,15,15,15,15,16,16,16,17,17
participant_8_MINIONSKILLED,0,0,2,10,19,28,34,41,48,50,55,63,71,79,83,83,90,99,104,107,110,113,116,116,118,125,127,127,134,134,134,143,147,151,151,152,158,158
participant_8_KILLS,0,0,0,0,0,0,0,0,0,1,1,1,1,1,2,2,2,2,2,2,2,2,2,2,2,2,2,3,3,3,3,3,3,3,3,3,3,3
participant_8_BUY,[],"[3340, 2003, 1056, 2003]",[],[],[],[],[],"[3145, 1001, 2055]",[2031],[1028],[],[],[],[],[],"[3152, 3111, 1033]",[],[],[],"[3211, 1028]",[3067],[],[],[3065],[],[1029],[],[],"[2420, 3191]",[],[],[],[3157],[],[2420],"[2420, 1057]",[],[]
participant_8_SOLD,[],[],[],[],[],"[2003, 2003]",[],[],[2055],[],[],[],[],[],[],"[3145, 1028, 1001]",[],[],[],"[1033, 2031]",[1028],[],[],"[3211, 3067]",[],[],[],[],[1029],[],[],[],"[3191, 2420]",[],[],[],[],[]
participant_8_UNDO,[],[],[],[],[],[],[],[],[],[],[],[],[],[],[],[],[],[],[],[],[],[],[],[],[],[],[],[],[],[],[],[],[],[],"[[0, 2420]]","[[0, 2420]]",[],[]
participant_9_GOLD,500,500,583,846,1120,1417,1875,2360,2551,3193,3580,4211,4389,5772,6137,6441,6875,7454,7681,8483,8955,9431,9617,10119,10548,10713,10953,13459,14132,14996,15149,16048,16275,17467,17660,17783,18603,18936
participant_9_CURRENTGOLD,500,0,83,346,95,392,850,1335,176,818,155,786,264,1647,312,616,1050,1629,356,1158,530,1007,1192,574,1004,1168,209,2715,187,1052,404,1304,1531,2723,316,439,1259,1211
participant_9_LEVEL,1,1,1,3,4,4,5,6,6,7,8,9,9,10,10,11,11,12,12,13,13,13,14,14,15,15,15,15,16,16,16,17,17,18,18,18,18,18
participant_9_MINIONSKILLED,0,0,3,11,18,25,37,49,50,68,74,91,94,111,121,128,142,156,156,175,175,187,191,198,212,214,217,228,228,231,232,242,248,255,256,256,262,269
participant_9_KILLS,0,0,0,0,0,0,0,0,0,0,0,0,0,1,1,1,1,1,1,1,2,2,2,2,2,2,2,6,6,7,7,8,8,10,10,10,11,11
participant_9_BUY,[],"[2033, 3340]",[],[],"[1055, 2055]",[],[],[],"[1037, 1027, 1004]",[],[3004],[],"[1037, 1036, 1036]",[],"[3133, 1038]",[],[],[],"[3508, 1001, 1042]",[],[3086],[],[],[3140],[],[],[3094],[],[3031],[],[3006],[],[],[],"[3139, 2140]",[],[],[]
participant_9_SOLD,[],[],[],[],[],[],[2055],[],[],[],"[1027, 1004, 1037]",[],[],[],"[1036, 1036]",[],[],[],"[1038, 3133]",[],[1042],[],[],[1055],[3004],[],[3086],[],[2033],[],[1001],[],[],[],"[3140, 2140]",[],[],[]
participant_9_UNDO,[],[],[],[],[],[],[],[],[],[],[],[],"[[0, 1037]]",[],[],[],[],[],[],[],[],[],[],[],[],[],[],[],[],[],[],[],[],[],[],[],[],[]
team0_KILLS,0,0,0,0,0,0,0,0,0,1,1,1,2,2,4,6,6,8,8,9,11,11,14,14,16,17,17,19,19,19,22,23,23,24,25,25,25,25
team0_CURRENTGOLD,2500,0,462,1965,3157,4595,3738,3688,4241,924,2420,3957,4446,4672,4976,6031,3091,1844,3205,2374,4801,6051,4103,4456,5463,2514,3821,1361,2864,3589,3111,3833,2268,3389,3806,1936,3142,2353
team0_TOTALGOLD,2500,2500,2962,4465,5657,7095,8163,9548,10826,13324,14895,16432,18221,19272,21211,23141,24736,26919,28280,30439,32706,33956,36383,38085,40892,42479,43786,45485,46989,48501,52399,55422,56626,58368,60642,61973,63450,63643
team0_LEVEL,5,5,6,12,17,21,23,26,30,30,34,36,40,41,41,45,47,49,51,52,55,57,59,60,62,64,65,66,68,69,72,74,75,75,77,78,79,79
team0_SBIRES,0,0,9,34,56,85,99,134,149,170,204,234,255,275,292,305,324,350,378,401,420,438,449,474,489,516,536,541,565,585,594,620,640,656,686,708,735,735
team1_KILLS,0,0,0,0,0,0,0,0,0,1,1,1,1,3,4,4,4,4,4,5,6,7,10,10,10,10,10,15,15,17,17,18,18,21,21,21,23,23
team1_CURRENTGOLD,2500,0,412,1922,2588,3932,5563,4335,4064,4044,2085,3861,3116,6217,5669,1779,3374,3646,2630,3524,2993,4520,6008,1981,3169,3201,2253,6490,1437,4901,2634,3184,2895,6437,3864,2593,5067,5434
team1_TOTALGOLD,2500,2500,2912,4422,5613,6957,8588,10160,11389,13019,14285,16061,17366,20466,22369,23179,24774,26596,27844,30204,32023,33549,36138,37355,38543,39696,40761,44999,47072,50535,51619,53339,54204,57746,59047,60294,64020,64979
team1_LEVEL,5,5,6,13,17,21,23,27,28,30,33,36,38,41,43,44,45,48,49,52,53,54,57,58,61,61,61,64,67,71,71,72,72,74,76,77,81,81
team1_SBIRES,0,0,10,37,64,91,123,149,167,190,202,238,268,306,324,331,369,399,416,446,465,484,492,501,524,541,553,564,571,581,596,615,628,645,646,656,676,684
delta_KILLS,0,0,0,0,0,0,0,0,0,0,0,0,1,-1,0,2,2,4,4,4,5,4,4,4,6,7,7,4,4,2,5,5,5,3,4,4,2,2
delta_CURRENTGOLD,0,0,50,43,569,663,-1825,-647,177,-3120,335,96,1330,-1545,-693,4252,-283,-1802,575,-1150,1808,1531,-1905,2475,2294,-687,1568,-5129,1427,-1312,477,649,-627,-3048,-58,-657,-1925,-3081
delta_TOTALGOLD,0,0,50,43,44,138,-425,-612,-563,305,610,371,855,-1194,-1158,-38,-38,323,436,235,683,407,245,730,2349,2783,3025,486,-83,-2034,780,2083,2422,622,1595,1679,-570,-1336
delta_LEVEL,0,0,0,-1,0,0,0,-1,2,0,1,0,2,0,-2,1,2,1,2,0,2,3,2,2,1,3,4,2,1,-2,1,2,3,1,1,1,-2,-2
delta_SBIRES,0,0,-1,-3,-8,-6,-24,-15,-18,-20,2,-4,-13,-31,-32,-26,-45,-49,-38,-45,-45,-46,-43,-27,-35,-25,-17,-23,-6,4,-2,5,12,11,40,52,59,51
