name,frame_0,frame_1,frame_2,frame_3,frame_4,frame_5,frame_6,frame_7,frame_8,frame_9,frame_10,frame_11,frame_12,frame_13,frame_14,frame_15,frame_16,frame_17,frame_18,frame_19,frame_20,frame_21,frame_22,frame_23,frame_24,frame_25,frame_26,frame_27,frame_28,frame_29,frame_30,frame_31,frame_32,frame_33,frame_34,frame_35,frame_36,frame_37,frame_38,frame_39,frame_40,frame_41,frame_42,frame_43,frame_44
nameStamp,Tstart,Tearly,Tearly,Tearly,Tearly,Tearly,Tearly,Tearly,Tearly,Tearly,Tearly,Tearly,Tearly,Tearly,Tearly,Tearly,Tmid,Tmid,Tmid,Tmid,Tmid,Tmid,Tmid,Tmid,Tmid,Tmid,Tmid,Tmid,Tmid,Tmid,Tmid,Tmid,Tmid,Tmid,Tmid,Tmid,Tmid,Tmid,Tmid,Tmid,Tmid,Tend,Tend,Tend,Tend
timestamp,0,60024,120046,180067,240076,300091,360102,420128,480141,540156,600167,660179,720192,780208,840217,900234,960246,1020264,1080279,1140292,1200305,1260324,1320348,1380349,1440377,1500405,1560423,1620448,1680468,1740493,1800517,1860547,1920553,1980563,2040595,2100600,2160618,2220646,2280662,2340690,2400709,2460710,2520740,2580770,2640770
participant_0_GOLD,500,500,584,755,1071,1466,1889,2521,2726,3373,3509,4459,5066,5582,6022,6863,7524,7647,7884,8517,8682,8953,9089,10496,10637,10853,10996,11332,11504,11627,11888,12121,12248,12488,12809,13451,13641,14314,14589,14775,15533,16008,17787,18269,18284
participant_0_CURRENTGOLD,500,0,84,255,571,966,289,921,1126,1773,109,1059,1666,382,822,1663,2324,747,984,1617,1782,2053,390,1796,1937,2154,2296,2633,2805,327,589,821,1129,1369,1689,1032,1222,1895,2170,257,1014,1489,3268,3751,3584
participant_0_LEVEL,1,1,1,2,4,5,5,7,7,8,8,9,10,11,11,11,12,12,12,12,12,13,13,13,13,13,13,14,14,14,14,14,14,14,15,15,15,16,16,16,17,17,18,18,18
participant_0_MINIONSKILLED,0,0,3,6,14,27,27,39,41,54,55,59,65,70,76,82,90,90,92,95,97,99,100,104,105,106,106,114,114,114,118,120,120,123,127,132,136,156,158,159,166,178,178,179,179
participant_0_KILLS,0,0,0,0,0,0,0,0,0,0,0,0,0,0,0,0,0,0,0,0,0,0,0,0,0,0,0,0,0,0,0,0,0,0,0,1,1,1,1,1,2,2,2,2,2
participant_0_BUY,[],"[1027, 2031]",[],[],[],[1052],[],[],"[3070, 1001]",[],[],[],"[3802, 1026, 2055]",[],[],[6655],[],[],[],[1058],[],[3020],[2055],[],[1027],[],[],[3003],"[3108, 2055]",[],[],"[3067, 1052]",[],[],[],[],"[4629, 1026, 1052]",[],[],"[3116, 3108]",[],[],[],[],[]
participant_0_SOLD,[],[],[],[],[],[],[],[],[],[],[],[],"[1052, 1027]",[2055],[],"[3802, 1026]",[],[],[],[],[],[1001],[2055],[],[],[],[],"[3070, 1058, 1027, 3003]",[],[2055],[],[2031],[],[],[],[],"[3108, 3067, 1052]",[],[],"[1026, 1052]",[],[],[],[],[]
participant_0_UNDO,[],[],[],[],[],[],[],[],[],[],[],[],[],[],[],[],[],[],[],[],[],[],[],[],[],[],[],[],[],[],[],[],[],[],[],[],[],[],[],[],[],[],[],[],[]
participant_1_GOLD,500,500,621,928,1233,1355,1563,2075,2383,2591,2798,3700,4012,4312,4555,4728,5040,5357,6213,6361,6514,6715,6837,6981,7213,7350,8154,8386,8664,9155,9743,9937,10436,10583,10706,11037,11244,11731,11968,12395,13084,13216,13800,14467,14481
participant_1_CURRENTGOLD,500,0,121,428,733,855,363,875,133,341,548,1450,12,312,555,728,390,707,1563,1711,1864,2065,562,206,438,575,1379,586,514,455,1044,637,1136,44,166,498,105,591,829,456,1145,627,1211,1877,1831
participant_1_LEVEL,1,1,2,2,3,3,4,4,5,5,5,7,7,8,8,8,8,9,10,10,10,10,10,10,10,11,11,12,12,12,13,13,13,13,13,14,14,14,14,15,16,16,16,17,17
participant_1_MINIONSKILLED,0,0,0,0,0,0,0,1,1,1,1,1,1,4,5,5,5,9,11,12,13,14,14,15,15,16,16,16,16,16,16,20,29,29,29,31,31,37,37,37,38,38,44,52,52
participant_1_KILLS,0,0,0,0,0,0,0,1,1,1,1,2,2,2,2,2,2,2,4,4,4,4,4,4,4,4,5,5,5,6,7,7,7,7,7,7,7,7,7,7,7,7,7,7,7
participant_1_BUY,[],"[1035, 2031]",[],[],[],[],"[1036, 1036]",[],"[3134, 1036, 1001]",[],[],[],[6692],[],[],[],"[1029, 1036]",[],[],[],[],[],"[3134, 1037]",[3047],[],[],[],[6676],[1036],[1053],[],[1018],[],[1038],[],[],[3072],[],[],[1031],[],"[2420, 2420]",[],[],[]
participant_1_SOLD,[],[],[],[],[],[],[],[],"[1036, 1036]",[],[],"[1035, 3340]","[3134, 1036]",[],[],[3513],[],[],[],[],[],[],[1036],"[1001, 1029]",[],[],[],"[3134, 1037]",[],[1036],[],[],[],[2031],[],[],"[1038, 1018, 1053]",[],[],[],[],[],[2420],[],[]
participant_1_UNDO,[],[],[],[],[],[],[],[],[],[],[],[],[],[],[],[],[],[],[],[],[],[],[],[],[],[],[],[],[],[],[],[],[],[],[],[],[],[],[],[],[],"[[0, 2420]]",[],[],[]
participant_2_GOLD,500,500,568,805,1052,1258,1578,1872,2090,2454,2738,3076,3344,3605,3950,4379,4744,5089,5426,5901,6218,6559,6862,7104,7255,7580,8011,8425,9153,9612,10077,10398,10545,10667,11105,12439,12930,13324,14263,14815,15787,16163,16623,17168,17183
participant_2_CURRENTGOLD,500,0,68,305,552,323,633,927,445,799,1083,1411,229,490,825,4,369,714,1051,276,593,134,362,604,405,730,1161,575,328,787,1252,399,545,667,1106,2439,781,1175,2113,51,1023,1399,1859,2404,2408
participant_2_LEVEL,1,1,1,3,4,5,6,6,7,7,8,9,9,10,10,11,11,12,12,12,12,13,13,13,13,13,14,14,15,15,15,15,15,15,16,16,17,17,18,18,18,18,18,18,18
participant_2_MINIONSKILLED,0,0,2,9,15,20,28,37,43,53,62,70,75,82,91,102,112,119,121,129,136,138,145,145,147,154,163,172,182,190,196,203,204,204,213,213,227,238,253,260,260,263,266,275,275
participant_2_KILLS,0,0,0,0,0,0,0,0,0,0,0,0,0,0,0,0,0,0,0,1,1,1,1,1,1,1,1,1,1,1,1,1,1,1,1,1,1,1,1,1,1,1,1,2,2
participant_2_BUY,[],"[1055, 3340, 2003]",[],[],[],[1018],[],"[1042, 1036]",[],[],[6670],[],[],[],[],[1037],[],[],[],"[6672, 3006]",[],[],[1042],[],[],[1018],[],[2015],[],[],[],[],[],[3095],[],[],[3086],[],[],[2015],[],[],[],[],[]
participant_2_SOLD,[],[],[],[],[2003],[],[],[],[],[],"[1036, 1042]",[],[],[],[],[],[],[],[],"[6670, 1018, 1037]",[],[],[],[],[],[],[],[1042],[],[],[],[],[],"[1018, 2015]",[],[],[],[],[],[],[],[],[],[],[]
participant_2_UNDO,[],[],[],[],[],[],[],[],[],[],[],[],[],[],[],[],[],[],[],[],[],[],[],[],[],[],[],[],[],[],[],[],[],[],[],[],[],[],[],[],[],[],[],[],[]
participant_3_GOLD,500,500,521,909,1162,1452,1666,1991,2294,2466,2630,2774,2975,3146,3381,3553,4057,4312,4647,5090,5250,5399,5535,5657,5985,6107,6492,6663,6922,7302,7454,7640,7767,7889,8297,8712,9025,9197,9808,10092,10653,11051,11652,12498,12512
participant_3_CURRENTGOLD,500,0,21,409,662,352,566,241,544,716,230,374,575,746,981,278,782,1037,1372,90,250,399,235,357,685,207,592,363,622,1002,1154,1340,1467,189,597,1012,126,297,908,492,1053,1452,2053,2898,2912
participant_3_LEVEL,1,1,1,2,3,4,4,4,5,5,6,6,6,6,7,7,8,8,9,9,9,9,9,9,9,10,10,10,10,11,11,11,11,11,12,12,13,13,13,13,14,14,15,16,16
participant_3_MINIONSKILLED,0,0,0,15,20,27,32,36,44,47,50,51,55,58,65,65,84,92,95,95,97,98,99,99,106,106,117,120,123,126,127,129,129,129,137,142,149,152,156,158,162,173,178,184,184
participant_3_KILLS,0,0,0,0,0,0,0,0,0,0,0,0,0,0,0,0,0,0,0,0,0,0,0,0,0,0,0,0,0,0,0,0,0,0,0,0,0,0,0,0,0,0,0,0,0
participant_3_BUY,[],"[3850, 2003, 2003, 3340]",[],[],[],[1052],[],[4642],[],[],[1028],[],[],[],[3067],[],[6617],[],[],[],[1001],[],[3117],[],[],[],[],[],[],"[1026, 1004]",[],[3114],[],[],[],[],[6616],[1004],[],[3114],[],[],[],[3067],[]
participant_3_SOLD,[],[],[],[2003],[2003],[],[],[1052],[],[],[],[],[],[3850],[1028],[],"[3067, 4642]",[],[],[],[],[],[1001],[3851],[],[],[],[],[],[],[],[1004],[],[],[],[],"[3114, 1026]",[],[],[1004],[],[],[],[],[]
participant_3_UNDO,[],[],[],[],[],[],[],[],[],[],[],[],[],[],[],[],[],[],[],[],[],[],[],[],[],[],[],[],[],[],[],[],[],[],[],[],[],[],[],[],[],[],[],[],[]
participant_4_GOLD,500,500,523,725,940,1148,1303,1572,1706,1902,2077,2307,2553,2728,2888,3200,3340,3480,3731,3951,4117,4262,4482,4844,4984,5143,5284,5424,5650,5790,5949,6091,6236,6377,6517,6732,6894,7034,7275,7576,8021,8162,8527,8817,8834
participant_4_CURRENTGOLD,500,0,23,225,440,213,368,22,156,352,127,357,603,778,538,850,140,280,531,751,617,762,282,644,784,944,1084,1224,1450,490,650,241,387,527,667,883,394,284,525,276,722,862,1227,718,734
participant_4_LEVEL,1,1,1,2,3,3,4,4,5,5,5,6,6,7,7,7,8,8,8,8,8,9,9,9,10,10,10,10,10,11,11,11,11,11,11,12,12,12,12,13,13,13,13,13,13
participant_4_MINIONSKILLED,0,0,0,2,2,3,3,3,3,4,5,6,12,12,12,13,13,13,17,17,17,17,17,19,19,20,20,20,22,22,23,23,23,23,23,24,25,25,25,27,27,27,27,27,27
participant_4_KILLS,0,0,0,0,0,0,1,2,2,3,3,4,5,6,6,6,7,7,7,8,8,8,8,9,9,9,9,9,9,9,9,9,9,9,9,10,10,10,10,10,10,10,11,11,11
participant_4_BUY,[],"[1054, 2003]",[],[],[],[],[3044],[],[],[],"[3057, 3067, 1001]",[],[],"[6632, 3047, 1029]",[],[],[],"[3066, 1031, 1028]",[],[],[],[],"[3742, 1057]",[],[],[],[],[],[],"[4401, 1018]",[],[],[],[],[],[1038],[],[],[],"[3031, 1018]",[],[],[],[],[]
participant_4_SOLD,[],[],[],[2003],[],[],[],[],[],[],[],[],[],"[3044, 3057, 3067, 1001]",[],[],[],[1029],[],[],[],[],"[3066, 1028, 1031]",[],[],[],[],[],[],[1057],[],[],[1054],[],[],[],[],[],[],"[1038, 1018]",[],[],[],[],[]
participant_4_UNDO,[],[],[],[],[],[],[],[],[],[],[],[],[],[],[],[],[],[],[],[],[],[],[],[],[],[],[],[],[],[],[],[],[],[],[],[],[],[],[],[],[],[],[],[],[]
participant_5_GOLD,500,500,563,825,1064,1479,1923,2139,2470,2649,2806,2929,3051,3229,3437,3686,4388,4601,4723,4846,4968,5091,5263,5385,5508,5680,5803,5925,6047,6170,6292,6416,6588,6710,6833,6955,7078,7200,7322,7445,7567,7690,7812,7934,7949
participant_5_CURRENTGOLD,500,0,63,325,564,979,123,339,670,849,206,329,451,229,37,286,988,118,240,363,485,608,780,902,1025,1197,1320,1442,1564,1687,1809,1933,2105,2227,2350,2472,2595,2717,2839,2962,3084,3207,3329,3451,3466
participant_5_LEVEL,1,1,1,3,4,4,5,5,6,7,7,7,7,8,8,8,9,9,9,9,9,9,9,9,9,9,9,9,9,9,9,9,9,9,9,9,9,9,9,9,9,9,9,9,9
participant_5_MINIONSKILLED,0,0,2,10,14,19,20,23,33,36,38,38,38,41,41,46,48,53,53,53,53,53,53,53,53,53,53,53,53,53,53,53,53,53,53,53,53,53,53,53,53,53,53,53,53
participant_5_KILLS,0,0,0,0,0,0,0,0,0,0,1,1,1,1,1,1,1,1,1,1,1,1,3,4,4,4,4,4,4,4,4,4,4,4,4,4,4,4,4,4,4,4,4,4,4
participant_5_BUY,[],"[3850, 2003, 2003, 3340]",[],[],[],[],[],"[1001, 1052, 2055, 2055]",[],[],[],"[3802, 3020, 3364]",[],[],[],[],[1026],[],[],[6655],[],[],"[3191, 3108]",[],[],[],[],[],"[3157, 3916]",[],[],[],[1026],[],[],[],[],[],[],[],[],[],[],[],[]
participant_5_SOLD,[],[],[],[2003],[],[],[],[],[2055],"[2003, 3850]",[],"[1052, 1001, 3340]",[],[],[],[3851],[],[],[],"[3802, 1026]",[],[],[],[],[],[],[],[],"[3191, 3108]",[],[],[],[2055],[],[],[],[],[],[],[],[],[],[],[],[]
participant_5_UNDO,[],[],[],[],[],[],[],[],[],[],[],[],[],[],[],[],[],[],[],[],[],[],[],[],[],[],[],[],[],[],[],[],[],[],[],[],[],[],[],[],[],[],[],[],[]
participant_6_GOLD,500,500,621,913,1318,1951,2183,2410,2706,2955,3975,4098,4350,4493,4826,5178,5461,5668,5909,6132,6268,6641,7079,7306,7814,8142,8265,8666,8877,9120,9243,9656,9883,10311,10433,11104,11311,11675,11987,12341,12632,12754,12877,12999,13013
participant_6_CURRENTGOLD,500,0,121,413,818,1451,233,460,756,1005,2025,98,350,193,526,878,311,168,409,232,368,741,1179,1406,1914,2242,115,516,728,171,293,706,934,1361,1484,204,412,775,1088,1442,433,555,678,800,813
participant_6_LEVEL,1,1,2,2,4,4,5,5,6,6,8,8,8,8,8,9,9,10,10,10,10,11,11,12,12,12,12,13,13,13,13,14,14,15,15,15,15,16,16,16,16,17,17,17,17
participant_6_MINIONSKILLED,0,0,0,0,0,0,0,1,1,2,8,8,13,14,14,14,14,14,14,14,15,15,15,15,15,16,16,18,19,19,19,20,20,20,20,21,21,22,23,25,27,27,27,27,27
participant_6_KILLS,0,0,0,0,0,0,1,1,1,1,1,1,1,1,1,1,2,2,2,2,2,2,2,2,2,2,2,2,2,2,2,2,2,2,2,2,2,2,2,2,2,2,2,2,2
participant_6_BUY,[],"[1054, 2003]",[],[],[],[],"[3057, 1042, 1001]",[],[],[],[3051],[],[],[1028],[3067],[],[],"[3078, 1036]",[],[],[],[],[],[],[],[],[],[],[],[],[],[],[],[],[],[],[],[],[],[],[],[],[],[],[]
participant_6_SOLD,[],[],[],[2003],[],[],[],[],[],[],[1042],[],[],[],[1028],[],[],"[3057, 3051, 3067]",[],[],[],[],[],[],[],[],[],[],[],[],[],[],[],[],[],[],[],[],[],[],[],[],[],[],[]
participant_6_UNDO,[],[],[],[],[],[],[],[],[],[],[],[],[],[],[],[],[],[],[],[],[],[],[],[],[],[],[],[],[],[],[],[],[],[],[],[],[],[],[],[],[],[],[],[],[]
participant_7_GOLD,500,500,570,846,1211,1536,1865,2183,2410,2731,2979,3435,3747,4009,4244,4647,5090,5428,5634,5799,5998,6259,6643,7062,7399,7783,8060,8376,8678,9122,9567,9691,10104,10607,10979,11337,11723,11998,12121,12514,12755,12982,13146,13407,13422
participant_7_CURRENTGOLD,500,0,70,346,701,1016,1335,1653,1880,381,629,1075,1377,1639,1874,262,705,1043,1249,1414,1613,1874,373,792,1129,1513,1790,256,558,1002,1448,1571,1984,82,355,712,1098,1374,1496,1890,2131,2358,2522,283,197
participant_7_LEVEL,1,1,1,3,4,5,6,6,7,8,8,9,10,10,11,11,12,12,12,12,13,13,13,13,14,14,14,14,15,15,15,16,16,16,16,17,17,17,17,18,18,18,18,18,18
participant_7_MINIONSKILLED,0,0,3,11,22,32,41,52,58,67,74,81,89,97,104,113,127,135,139,141,145,148,148,152,154,156,160,163,165,168,171,171,173,173,180,185,192,197,197,205,209,211,213,217,217
participant_7_KILLS,0,0,0,0,0,0,0,0,0,0,0,0,0,0,0,0,0,0,0,0,0,0,0,0,0,0,0,0,0,0,1,1,1,2,2,2,2,2,2,2,2,2,2,2,2
participant_7_BUY,[],"[1056, 2003, 2003, 3340]",[],[],[],[],[],[],[],"[3802, 1052, 2055]",[],[],[],[],[],"[6653, 1001, 2003]",[],[],[],[],[],[],"[3020, 2420, 1052]",[],[],[],[],"[3157, 1052]",[],[],[],[],[],[4637],"[2003, 2003]",[],[],[],[],[],[],[],[],[3135],[]
participant_7_SOLD,[],[],[],[],[],[],[],[],[],[],[],[2003],[2003],[],[],"[3802, 1052]",[],[2003],[],[],[],[],[1001],[],[],[],[],"[1052, 2420]",[],[],[],[],[],"[1056, 1052]",[],[],[],[],[],[2055],[],[],"[2003, 2003]",[],[]
participant_7_UNDO,[],[],[],[],[],[],[],[],[],[],[],[],[],[],[],[],[],[],[],[],[],[],[],[],[],[],[],[],[],[],[],[],[],[],[],[],[],[],[],[],[],[],[],[],[]
participant_8_GOLD,500,500,598,867,1148,1424,1767,1910,2255,2560,3525,4102,4386,4955,5306,5834,5998,6808,7035,7332,7489,8110,9006,9128,9722,10378,10557,11096,12069,13090,13544,14249,15169,15850,16275,16980,17103,17735,18184,18640,19012,19280,19807,19929,19943
participant_8_CURRENTGOLD,500,0,98,367,648,924,1267,60,405,710,1675,2252,286,855,1206,284,448,1258,1485,1782,1939,560,1456,328,922,1578,232,772,1744,2765,3220,524,1444,2126,2551,3316,739,1371,1820,2276,2648,2916,3443,3565,3518
participant_8_LEVEL,1,1,1,2,3,4,4,5,5,6,6,7,8,8,9,9,9,10,10,11,11,11,12,12,12,13,13,13,14,14,15,15,15,16,16,16,16,17,17,17,18,18,18,18,18
participant_8_MINIONSKILLED,0,0,4,12,19,25,35,36,46,56,66,73,79,87,96,99,101,115,121,127,129,132,140,140,148,153,156,165,177,182,188,194,196,196,202,206,206,217,228,239,242,246,254,254,254
participant_8_KILLS,0,0,0,0,0,1,1,1,1,1,2,2,2,2,2,2,2,2,2,2,2,2,2,2,3,3,3,3,3,3,3,3,3,3,3,4,4,4,4,4,5,5,5,5,5
participant_8_BUY,[],"[1039, 2031, 3364]",[],[],[],[],"[3134, 1036]",[],[],[],[],"[6693, 1001]",[],[1029],[],[],"[3047, 1036]",[1036],[],[3134],[],[],[],[],[],[],"[3142, 1036]",[],[],[1031],[],[],[],[],[],[6333],[],[],[],[],[3155],[],[],[],[]
participant_8_SOLD,[],[],[],[],[],[],[],[],[],[1039],[],"[3134, 1036]",[],[],[],[],"[1001, 1029]",[],[],"[1036, 1036]",[],[],[],[],[],[],[3134],[],[],[],[],[],[],[],[],"[1031, 1036]",[],[],[],[],[],[],[],[],[]
participant_8_UNDO,[],[],[],[],[],[],[],[],[],[],[],[],[],[],[],[],[],[],[],[],[],[],[],[],[],[],[],[],[],[],[],[],[],[],[],[],[],[],[],[],[],[],[],[],[]
participant_9_GOLD,500,500,557,731,994,1188,1377,1531,1823,2054,2972,3112,3273,3723,3986,4604,4852,5034,5189,5329,5498,5859,7063,7555,7830,8120,8360,8501,8641,8946,9087,9534,10133,10328,10468,10609,10749,10890,11030,11170,11311,11451,11591,11732,11748
participant_9_CURRENTGOLD,500,0,57,231,494,688,877,146,438,669,1587,62,223,673,936,1554,952,1135,1289,179,348,709,113,605,880,1170,1411,1551,191,496,637,1084,863,1058,1199,1339,1479,1620,1760,1901,2041,2182,2322,2462,2448
participant_9_LEVEL,1,1,1,2,3,4,4,4,5,6,7,7,7,7,8,8,9,9,9,9,9,10,11,11,11,12,12,12,12,12,13,13,14,14,14,14,14,14,14,14,14,14,14,14,14
participant_9_MINIONSKILLED,0,0,1,1,3,3,4,4,10,11,13,13,13,13,17,20,21,24,25,25,27,32,33,37,42,42,42,42,42,50,50,60,66,66,66,66,66,66,66,66,66,66,66,66,66
participant_9_KILLS,0,0,0,0,0,0,0,0,0,0,1,2,2,3,3,4,4,5,5,5,5,6,7,7,8,9,9,10,11,14,14,15,17,19,19,20,20,21,21,21,21,21,22,22,22
participant_9_BUY,[],"[2003, 3070, 2003, 3340]",[],[],[],[],[],"[3057, 1036, 1001]",[],[],[],[],[6632],[],[],"[3133, 1027]",[],[],[],[],[],"[3158, 3004, 1036, 1042]",[],"[1053, 1043]",[],[],"[3153, 2055, 2031]",[],[],[],[],[6694],[],[],[],[],[6609],[],[],[],[],[],[],[],[]
participant_9_SOLD,[],[],[],[],"[2010, 2003, 2003]",[2010],[],[2010],[],[],[],[],"[1036, 3057]",[],[],[],[],[],[],[],[],"[1001, 3070, 3133, 1027, 3004]",[],"[1036, 1042]",[],[],"[1053, 1043]",[2055],[],[],[],[],[],[],[],[2031],[],[],[],[],[],[],[],[],[]
participant_9_UNDO,[],[],[],[],[],[],[],[],[],[],[],[],[],[],[],[],[],[],[],[],[],[],[],[],[],[],[],[],[],[],[],[],[],[],[],[],[],[],[],[],[],[],[],[],[]
team0_KILLS,0,0,0,0,0,0,1,3,3,4,4,6,7,8,8,8,9,9,11,13,13,13,13,14,14,14,15,15,15,16,17,17,17,17,17,19,19,19,19,19,20,20,21,22,22
team0_CURRENTGOLD,2500,0,317,1622,2958,2709,2219,2986,2404,3981,2097,4651,3085,2708,3721,3523,4005,3485,5501,4445,5106,5413,1831,3607,4249,4610,6512,5381,5719,3061,4689,3438,4664,2796,4225,5864,2628,4242,6545,1532,4957,5829,9618,11648,11469
team0_TOTALGOLD,2500,2500,2817,4122,5458,6679,7999,10031,11199,12786,13752,16316,17950,19373,20796,22723,24705,25885,27901,29820,30781,31888,32805,35082,36074,37033,38937,40230,41893,43486,45111,46187,47232,48004,49434,52371,53734,55600,57903,59653,63078,64600,68389,71219,71294
team0_LEVEL,5,5,6,11,17,20,23,25,29,30,32,37,38,42,43,44,47,49,51,51,51,54,54,54,55,57,58,60,61,63,64,64,64,64,67,69,71,72,73,75,78,78,80,82,82
team0_SBIRES,0,0,5,32,51,77,90,116,132,159,173,187,208,226,249,267,304,323,336,348,360,366,375,382,392,402,422,442,457,468,480,495,505,508,529,542,568,608,629,641,653,679,693,717,717
team1_KILLS,0,0,0,0,0,1,2,2,2,2,5,6,6,7,7,8,9,10,10,10,10,11,14,15,17,18,18,19,20,23,24,25,27,30,30,32,32,33,33,33,34,34,35,35,35
team1_CURRENTGOLD,2500,0,409,1682,3225,5058,3835,2658,4149,3614,6122,3816,2687,3589,4579,3264,3404,3722,4672,3970,4753,4492,3901,4033,5870,7700,4868,4537,4785,6121,7407,5818,7330,6854,7939,8043,6323,7857,9003,10471,10337,11218,12294,10561,10442
team1_TOTALGOLD,2500,2500,2909,4182,5735,7578,9115,10173,11664,12949,16257,17676,18807,20409,21799,23949,25789,27539,28490,29438,30221,31960,35054,36436,38273,40103,41045,42564,44312,46448,47733,49546,51877,53806,54988,56985,57964,59498,60644,62110,63277,64157,65233,66001,66075
team1_LEVEL,5,5,6,12,18,21,24,25,29,33,36,38,40,41,44,45,48,50,50,51,52,54,56,57,58,60,60,61,63,63,65,67,68,70,70,71,71,73,73,74,75,76,76,76,76
team1_SBIRES,0,0,10,34,58,79,100,116,148,172,199,213,232,252,272,292,311,341,352,360,369,380,389,397,412,420,427,441,456,472,481,498,508,508,521,531,538,555,567,588,597,603,613,617,617
delta_KILLS,0,0,0,0,0,-1,-1,1,1,2,-1,0,1,1,1,0,0,-1,1,3,3,2,-1,-1,-3,-4,-3,-4,-5,-7,-7,-8,-10,-13,-13,-13,-13,-14,-14,-14,-14,-14,-14,-13,-13
delta_CURRENTGOLD,0,0,-92,-60,-267,-2349,-1616,328,-1745,367,-4025,835,398,-881,-858,259,601,-237,829,475,353,921,-2070,-426,-1621,-3090,1644,844,934,-3060,-2718,-2380,-2666,-4058,-3714,-2179,-3695,-3615,-2458,-8939,-5380,-5389,-2676,1087,1027
delta_TOTALGOLD,0,0,-92,-60,-277,-899,-1116,-142,-465,-163,-2505,-1360,-857,-1036,-1003,-1226,-1084,-1654,-589,382,560,-72,-2249,-1354,-2199,-3070,-2108,-2334,-2419,-2962,-2622,-3359,-4645,-5802,-5554,-4614,-4230,-3898,-2741,-2457,-199,443,3156,5218,5219
delta_LEVEL,0,0,0,-1,-1,-1,-1,0,0,-3,-4,-1,-2,1,-1,-1,-1,-1,1,0,-1,0,-2,-3,-3,-3,-2,-1,-2,0,-1,-3,-4,-6,-3,-2,0,-1,0,1,3,2,4,6,6
delta_SBIRES,0,0,-5,-2,-7,-2,-10,0,-16,-13,-26,-26,-24,-26,-23,-25,-7,-18,-16,-12,-9,-14,-14,-15,-20,-18,-5,1,1,-4,-1,-3,-3,0,8,11,30,53,62,53,56,76,80,100,100
