name,team0,team1
win,Fail,Win
firstBlood,False,True
firstTower,False,True
firstInhibitor,False,True
firstBaron,False,True
firstDragon,False,True
firstRiftHerald,False,False
towerKills,4,9
inhibitorKills,0,2
baronKills,0,2
dragonKills,4,2
riftHeraldKills,0,0
