name,frame_0,frame_1,frame_2,frame_3,frame_4,frame_5,frame_6,frame_7,frame_8,frame_9,frame_10,frame_11,frame_12,frame_13,frame_14,frame_15,frame_16,frame_17,frame_18,frame_19,frame_20,frame_21,frame_22,frame_23
nameStamp,Tstart,Tearly,Tearly,Tearly,Tearly,Tearly,Tearly,Tearly,Tearly,Tearly,Tearly,Tearly,Tearly,Tearly,Tearly,Tearly,Tmid,Tmid,Tmid,Tmid,Tmid,Tmid,Tmid,Tend
timestamp,0,60022,120030,180072,240099,300105,360135,420163,480186,540195,600225,660241,720265,780274,840295,900297,960328,1020331,1080333,1140354,1200381,1260384,1320412,1380412
participant_0_GOLD,500,500,583,762,1120,1424,1659,2008,2263,2605,2877,3222,3485,3840,4121,4418,4633,4881,5288,5639,5977,6130,6347,6546
participant_0_CURRENTGOLD,500,0,83,262,620,924,1159,208,463,355,127,472,735,1090,271,268,183,431,38,389,332,485,702,796
participant_0_LEVEL,1,1,1,2,4,5,5,6,7,8,8,8,9,9,10,10,10,11,11,12,12,12,12,13
participant_0_MINIONSKILLED,0,0,3,6,17,25,31,41,49,59,59,69,74,87,93,99,101,109,111,116,125,126,127,127
participant_0_KILLS,0,0,0,0,0,0,0,0,0,0,0,0,0,0,0,0,0,0,0,0,0,0,0,1
participant_0_BUY,[],"[1055, 2003, 3340]",[],[],[],"[1036, 1042]",[],[],"[6670, 1001, 1042, 2003]",[],[],[],[],"[3006, 1018, 2003]",[],[],"[1053, 2003]",[],[],"[6673, 1042, 1042]",[],[],"[6677, 1018, 1042]",[]
participant_0_SOLD,[],[],[],[2003],[],[],[],[],"[1036, 1042]",[],[],[],[2003],"[1001, 1042]",[],[2003],[],[],[],"[6670, 1018, 1053]",[],[],"[1042, 1042, 2003]",[]
participant_0_UNDO,[],[],[],[],[],[],[],[],[],[],[],[],[],[],[],[],[],[],[],[],[],[],[],[]
participant_1_GOLD,500,500,620,813,1156,1355,1563,1770,2127,2335,2557,2827,3111,3249,3372,3494,3667,3789,3961,4084,4206,4329,4451,4500
participant_1_CURRENTGOLD,500,0,120,163,506,705,913,270,627,400,187,457,261,399,522,644,817,939,1111,1234,1356,1479,1601,1450
participant_1_LEVEL,1,1,1,2,3,3,4,4,5,5,5,6,6,6,6,6,6,6,6,6,6,6,6,6
participant_1_MINIONSKILLED,0,0,0,0,0,0,0,0,0,0,0,0,0,0,0,0,0,0,0,0,0,0,0,0
participant_1_KILLS,0,0,0,1,1,1,1,1,1,1,1,1,1,1,1,1,1,1,2,3,3,3,3,3
participant_1_BUY,[],"[3850, 2003, 2003]",[],[],[],"[1026, 2055]",[],[],"[1027, 3364]",[],[],[],[],[3802],[],[],[],[6655],[],[],[1058],[],[],[]
participant_1_SOLD,[],[],[],[2010],"[2003, 2003]",[2010],[2055],[3850],"[2010, 3340]",[],[],[],[],[1027],[],[3851],[],"[3802, 1026]",[],[],[],[],[],[]
participant_1_UNDO,[],[],[],[],[],[],[],[],[],[],[],[],[],[],[],[],[],[],[],[],[],[],[],[]
participant_2_GOLD,500,500,625,1411,1646,2246,2602,3401,3984,4290,4713,5255,5753,7081,7259,7529,8570,8989,9627,9749,10371,10641,11079,11128
participant_2_CURRENTGOLD,500,0,125,901,261,31,377,1176,1749,345,118,650,173,151,329,599,440,859,197,319,67,336,419,103
participant_2_LEVEL,1,1,1,4,4,5,6,7,8,8,9,9,10,10,10,11,11,12,12,12,13,13,13,13
participant_2_MINIONSKILLED,0,0,6,18,25,34,45,57,63,71,71,91,95,101,104,109,114,128,139,139,139,144,153,153
participant_2_KILLS,0,0,0,0,0,0,0,0,0,0,0,0,0,0,0,0,0,0,0,0,0,0,0,0
participant_2_BUY,[],"[1054, 2003]",[],[],[],[],[],"[6660, 1029]",[],[1033],[1031],[],[],[],"[6662, 1006]",[1001],"[1006, 1029]",[],"[3047, 1029]",[],[3076],[],[],[]
participant_2_SOLD,[],[],[],[],[2003],[],[],[],[],[],[1029],[],[],[],"[6660, 1033, 1031]",[],[],[],"[1001, 1029]",[],"[1006, 1029]",[],[],[]
participant_2_UNDO,[],[],[],[],[],[],[],[],[],[],[],[],[],[],[],[],"[[0, 1006]]",[],[],[],[],[],[],[]
participant_3_GOLD,500,500,541,927,1295,1480,1913,2183,2458,2772,3027,3385,3697,3949,4351,4620,4949,5292,5752,5966,6528,6869,7100,7469
participant_3_CURRENTGOLD,500,0,41,427,795,330,763,1033,8,322,577,935,1247,349,751,1020,399,742,1202,216,778,1119,270,619
participant_3_LEVEL,1,1,1,2,3,3,4,5,5,6,6,7,7,8,8,9,9,9,10,10,11,11,12,12
participant_3_MINIONSKILLED,0,0,1,8,22,23,38,47,53,61,68,78,89,100,111,120,125,125,132,137,150,162,167,167
participant_3_KILLS,0,0,0,1,1,2,2,3,4,4,5,5,5,7,7,7,8,8,8,8,9,9,9,9
participant_3_BUY,[],"[1055, 2003, 3340]",[],[],[1037],"[1036, 1036, 1001]",[],[],[],"[6670, 3006, 3006, 1018, 1036, 1042]","[6670, 1036]",[],"[6672, 1036]","[1018, 3133, 1036]",[],[],[3508],[],[1038],[],[1037],[],[1018],[]
participant_3_SOLD,[],[],[],[2003],[],[1055],[],[],[],"[1036, 1036, 1001, 1001]","[1036, 1042, 1036]",[],"[6670, 1018, 1037]","[1036, 1036]",[],[],"[3133, 1018]",[],[],[],[],[],[1036],[]
participant_3_UNDO,[],[],[],[],[],[],[],[],[],"[[0, 3006], [0, 6670], [0, 1036]]",[],[],[],[],[],[],[],[],[],[],[],[],[],[]
participant_4_GOLD,500,500,522,1097,1332,1506,1681,1955,2169,2381,2629,2870,3030,3361,3522,3737,4061,4201,5033,5544,5684,5896,6121,6177
participant_4_CURRENTGOLD,500,0,22,597,832,81,256,530,394,606,854,1095,1255,636,797,1012,1336,226,1059,1569,459,672,896,952
participant_4_LEVEL,1,1,1,2,3,3,4,5,5,6,6,6,7,8,8,8,8,9,10,10,10,11,11,11
participant_4_MINIONSKILLED,0,0,0,0,0,0,0,0,1,3,5,5,5,6,6,8,12,12,22,27,27,29,33,33
participant_4_KILLS,0,0,0,0,0,0,0,0,0,0,0,0,0,0,0,0,0,0,0,0,0,0,0,0
participant_4_BUY,[],"[1056, 2003, 2003, 3340]",[],[1039],[],[],[],[1026],[],"[1028, 1052]",[1052],[],"[1001, 3145]",[],[],[],[],[],[],[],[],[],[],[]
participant_4_SOLD,[],[],[],"[1056, 2003, 2003]",[],[],[],[],[1039],[],[],[],"[1052, 1052]",[],[],[],[],[],[],[],[],[],[],[]
participant_4_UNDO,[],[],[],[],[],[],[],[],[],"[[0, 1028]]",[],[],[],[],[],[],[],[],[],[],[],[],[],[]
participant_5_GOLD,500,500,555,874,1144,1336,1840,2046,2656,3023,3497,3725,4043,4446,5233,5897,6317,6634,6899,7560,8004,8384,9492,9623
participant_5_CURRENTGOLD,500,0,55,374,644,836,1340,221,831,98,572,800,1118,1521,2308,232,652,969,434,1095,1539,119,1227,1298
participant_5_LEVEL,1,1,1,3,4,5,6,7,8,8,9,9,10,10,11,11,12,12,12,13,13,14,14,15
participant_5_MINIONSKILLED,0,0,2,13,21,25,44,49,58,63,74,80,91,104,112,117,127,134,137,148,157,168,180,181
participant_5_KILLS,0,0,0,0,0,0,0,0,1,1,1,1,1,1,2,2,2,2,2,2,2,2,3,3
participant_5_BUY,[],"[1054, 2003, 3340]",[],[],[],[],[],"[3134, 2055, 2031]",[],[3047],[],[],[],[],[],"[6692, 1036, 1036]",[],[],"[3133, 1028]",[],[],[3071],[],[]
participant_5_SOLD,[],[],[],[],[2003],[],[],[2055],[],[],[],[],[],[],[],"[3134, 2031]",[],[],"[1036, 1036]",[],[],"[3133, 1028]",[],[]
participant_5_UNDO,[],[],[],[],[],[],[],[],[],[],[],[],[],[],[],[],[],[],[],[],[],[],[],[]
participant_6_GOLD,500,500,620,1018,1617,1874,2074,2196,2450,2726,3005,3448,3595,4685,5012,5269,5705,6051,6768,7785,8223,8666,9113,9162
participant_6_CURRENTGOLD,500,0,120,518,1117,1374,1574,221,475,751,330,773,920,2010,29,286,722,1068,1785,2802,765,1208,1655,1704
participant_6_LEVEL,1,1,2,3,4,5,5,5,6,6,7,7,8,8,9,9,10,10,10,11,12,12,13,13
participant_6_MINIONSKILLED,0,0,0,0,4,4,4,4,4,4,4,5,5,9,9,9,13,13,23,23,23,23,23,23
participant_6_KILLS,0,0,0,0,0,2,2,2,3,4,4,4,4,5,5,5,5,5,5,6,6,6,6,6
participant_6_BUY,[],"[1055, 2003, 3340]",[],[],"[2031, 1036]","[3134, 2031]",[],[],[],"[1053, 1001, 1036]",[],[],[],[6692],"[3134, 1042]",[],"[3006, 1018, 3363]",[],[],[],"[6676, 1036]",[1036],[],[]
participant_6_SOLD,[],[],[],[],[2003],[1036],[],[],[],[],[],[],[],"[3134, 1036, 1053]",[],[],"[1001, 1042, 3340]",[],[],[],"[3134, 1018, 2031]",[],[],[]
participant_6_UNDO,[],[],[],[],"[[0, 2031]]",[],[],[],[],[],[],[],[],[],[],[],[],[],[],[],[],[],[],[]
participant_7_GOLD,500,500,576,783,1004,1545,1839,2070,2276,2660,3276,3627,3862,4215,4975,5225,5397,5701,6232,6779,7337,7640,8063,8411
participant_7_CURRENTGOLD,500,0,76,208,429,960,374,605,231,605,1221,1562,37,390,1140,265,437,741,1272,1819,2377,730,1153,1561
participant_7_LEVEL,1,1,1,3,3,5,5,6,6,7,8,8,9,9,10,10,10,11,11,11,12,12,13,13
participant_7_MINIONSKILLED,0,0,3,7,13,17,24,29,34,47,51,61,64,68,73,78,78,85,90,90,92,99,99,99
participant_7_KILLS,0,0,0,0,0,0,0,0,1,1,1,1,1,1,1,1,1,1,1,1,1,1,2,2
participant_7_BUY,[],"[3850, 2003, 2003, 3340]",[],[],[],"[1052, 2031, 2055]",[],[],[],"[3802, 1052, 2055]",[],[],[],[3108],"[3009, 3009]",[],"[3364, 2139, 2055, 3364]",[],[],[6653],"[1052, 2055, 2055]",[],[],[1026]
participant_7_SOLD,[],[],[],"[2010, 2003]",[2003],[2010],[],[2010],[2055],[1052],[],[3850],[2055],[1052],"[2422, 2422]",[],"[3340, 3340]",[2055],[],"[3802, 3108, 3851]",[],[],[2055],[2031]
participant_7_UNDO,[],[],[],[],[],[],[],[],[],[],[],[],[],[],"[[0, 3009]]",[],"[[0, 2139], [3364, 0]]",[],[],[],[],[],[],[]
participant_8_GOLD,500,500,562,818,1025,1831,1996,2331,3000,3422,3806,4213,4581,5727,5933,6280,6662,7063,7614,8333,8633,8791,9213,9412
participant_8_CURRENTGOLD,500,0,62,318,195,101,266,601,1270,142,526,933,1301,1597,403,750,32,433,984,1703,413,221,643,762
participant_8_LEVEL,1,1,1,2,2,3,4,4,5,5,6,7,7,8,8,8,9,9,10,11,11,11,12,12
participant_8_MINIONSKILLED,0,0,2,10,14,19,21,30,43,43,56,70,80,85,90,100,105,117,126,134,136,138,138,138
participant_8_KILLS,0,0,0,0,1,1,1,1,1,1,1,1,1,3,3,3,3,3,3,5,5,5,5,5
participant_8_BUY,[],"[1039, 3340, 2055, 2055, 2031]",[],[],[],[],[],"[3051, 1001, 2055, 3364]",[],[],[3057],[],[],[],"[3078, 1036, 1036, 2055]",[],[],[],[],[],"[6333, 2055]",[],[],[]
participant_8_SOLD,[],[],[],[],[],[],[],[3340],[],[3364],[],[2055],[],[3513],"[1039, 3057, 3051]",[],"[3364, 2055]",[],[3513],[],"[1036, 1036]",[],[2055],[]
participant_8_UNDO,[],"[[0, 2055], [0, 2055]]",[],[],[],[],[],[],[],[],[],[],[],[],[],[],[],[],[],[],[],[],[],[]
participant_9_GOLD,500,500,522,731,866,1394,1569,1757,2459,2763,2937,3117,3277,3675,3815,4129,4485,4625,5046,5591,5731,5956,6846,6902
participant_9_CURRENTGOLD,500,0,22,231,366,234,409,597,1299,228,402,582,742,675,215,529,810,950,1371,716,271,496,1386,592
participant_9_LEVEL,1,1,1,2,3,3,4,4,5,6,6,7,7,8,8,8,9,9,9,10,10,10,11,11
participant_9_MINIONSKILLED,0,0,0,1,1,2,2,3,4,4,4,4,4,4,4,5,5,5,5,5,5,10,10,10
participant_9_KILLS,0,0,0,0,0,1,1,1,1,1,2,2,2,2,3,3,3,3,3,4,5,5,5,6
participant_9_BUY,[],"[1056, 2003, 2003, 3340]",[],[2055],[],[],"[1052, 1052]",[],"[3145, 1028]",[],[],[],[4636],[],[],"[3145, 2055, 3363]",[],[],[],[],[],[4628],[],[]
participant_9_SOLD,[],[],[],[],[2055],[2003],[],[2003],"[1052, 1052]",[],[],[],"[3145, 1028]",[],[],[3340],[],[2055],[],[],[],[3145],[],[]
participant_9_UNDO,[],[],[],[],[],[],[],[],[],[],[],[],[],[],[],[],[],[],[],[],[],[],[],[]
team0_KILLS,0,0,0,2,2,3,3,4,5,5,6,6,6,8,8,8,9,9,10,11,12,12,12,13
team0_CURRENTGOLD,2500,0,391,2350,3014,2071,3468,3217,3241,2028,1863,3609,3671,2625,2670,3543,3175,3197,3607,3727,2992,4091,3888,3920
team0_TOTALGOLD,2500,2500,2891,5010,6549,8011,9418,11317,13001,14383,15803,17559,19076,21480,22625,23798,25880,27152,29661,30982,32766,33865,35098,35820
team0_LEVEL,5,5,5,12,17,19,23,27,30,33,34,36,39,41,42,44,44,47,49,50,52,53,54,55
team0_SBIRES,0,0,10,32,64,82,114,145,166,194,203,243,263,294,314,336,352,374,404,419,441,461,480,480
team1_KILLS,0,0,0,0,1,4,4,4,7,8,9,9,9,12,14,14,14,14,14,18,19,19,21,22
team1_CURRENTGOLD,2500,0,335,1649,2751,3505,3963,2245,4106,1824,3051,4650,4118,6193,4095,2062,2653,4161,5846,8135,5365,2774,6064,5917
team1_TOTALGOLD,2500,2500,2835,4224,5656,7980,9318,10400,12841,14594,16521,18130,19358,22748,24968,26800,28566,30074,32559,36048,37928,39437,42727,43510
team1_LEVEL,5,5,6,13,16,21,24,26,30,32,36,38,41,43,46,46,50,51,52,56,58,59,63,64
team1_SBIRES,0,0,7,31,53,67,95,115,143,161,189,220,244,270,288,309,328,354,381,400,413,438,450,451
delta_KILLS,0,0,0,2,1,-1,-1,0,-2,-3,-3,-3,-3,-4,-6,-6,-5,-5,-4,-7,-7,-7,-9,-9
delta_CURRENTGOLD,0,0,56,701,263,-1434,-495,972,-865,204,-1188,-1041,-447,-3568,-1425,1481,522,-964,-2239,-4408,-2373,1317,-2176,-1997
delta_TOTALGOLD,0,0,56,786,893,31,100,917,160,-211,-718,-571,-282,-1268,-2343,-3002,-2686,-2922,-2898,-5066,-5162,-5572,-7629,-7690
delta_LEVEL,0,0,-1,-1,1,-2,-1,1,0,1,-2,-2,-2,-2,-4,-2,-6,-4,-3,-6,-6,-6,-9,-9
delta_SBIRES,0,0,3,1,11,15,19,30,23,33,14,23,19,24,26,27,24,20,23,19,28,23,30,29
