name,team0,team1
win,Win,Fail
firstBlood,False,True
firstTower,False,True
firstInhibitor,True,False
firstBaron,False,True
firstDragon,False,True
firstRiftHerald,False,False
towerKills,7,4
inhibitorKills,2,0
baronKills,1,1
dragonKills,3,3
riftHeraldKills,0,0
