name,frame_0,frame_1,frame_2,frame_3,frame_4,frame_5,frame_6,frame_7,frame_8,frame_9,frame_10,frame_11,frame_12,frame_13,frame_14,frame_15,frame_16,frame_17,frame_18,frame_19,frame_20,frame_21,frame_22,frame_23,frame_24,frame_25,frame_26
nameStamp,Tstart,Tearly,Tearly,Tearly,Tearly,Tearly,Tearly,Tearly,Tearly,Tearly,Tearly,Tearly,Tearly,Tearly,Tearly,Tearly,Tearly,Tmid,Tmid,Tmid,Tmid,Tmid,Tmid,Tmid,Tmid,Tmid,Tmid
timestamp,0,60013,120016,180029,240058,300090,360091,420100,480116,540145,600174,660193,720208,780219,840230,900245,960259,1020262,1080288,1140316,1200344,1260375,1320400,1380410,1440437,1500466,1560466
participant_0_GOLD,500,500,562,947,1155,1602,1795,2425,2708,3227,3454,3875,4145,4450,5387,5600,6055,6228,6645,7737,7910,8305,8765,9538,9883,10310,10352
participant_0_CURRENTGOLD,500,0,62,447,655,1102,245,875,8,527,279,700,230,535,1472,450,905,228,645,622,195,590,1050,1823,534,96,-23
participant_0_LEVEL,1,1,1,3,4,5,5,7,7,8,9,9,10,10,11,11,11,11,12,12,12,13,13,14,14,15,15
participant_0_MINIONSKILLED,0,0,2,15,20,28,32,42,49,56,62,76,85,92,101,107,115,115,122,125,125,142,142,152,161,168,168
participant_0_KILLS,0,0,0,1,1,2,2,2,2,2,2,3,3,3,3,4,6,6,6,6,6,7,9,10,10,10,11
participant_0_BUY,[],"[1035, 2031, 3340]",[],[],[],"[3134, 1001]",[],[],[],"[1036, 1042]",[],[],"[1053, 1018]",[],[],[],"[3181, 3006, 1037]",[],[],[],"[6676, 1036]",[1018],[],[6670],[1037],[],[]
participant_0_SOLD,[],[],[],[],[],[],[],[],[],[],[1035],[],[1036],[],[],[],"[3134, 1053, 1001, 1042]",[],[],[],"[3340, 1037, 1018]",[],[],"[3513, 1036]",[2031],[],[]
participant_0_UNDO,[],[],[],[],[],[],[],[],[],[],[],[],[],[],[],[],[],[],[],[],[],[],[],[],[],[],[]
participant_1_GOLD,500,500,620,1062,1468,1910,2033,2386,2663,2806,3053,3626,3748,3962,4384,5272,6149,6638,6941,7649,8006,8660,9520,10428,10823,11238,11814
participant_1_CURRENTGOLD,500,0,120,562,968,10,133,486,763,256,503,1076,48,262,684,1572,74,563,866,1574,56,110,970,928,508,923,1439
participant_1_LEVEL,1,1,2,2,3,4,4,5,5,6,6,7,7,7,8,9,9,10,10,11,11,12,12,13,13,13,14
participant_1_MINIONSKILLED,0,0,0,0,0,0,0,0,0,1,1,3,3,8,8,8,9,13,20,20,20,20,20,25,27,28,32
participant_1_KILLS,0,0,0,0,0,0,0,1,1,2,2,2,2,2,4,4,4,4,5,8,8,8,9,9,9,9,9
participant_1_BUY,[],"[1056, 2003, 2003, 3340]",[],[],[],[],[3145],[],"[1026, 1001]",[],"[1028, 2055]",[],[4636],[],[],"[3020, 1052]",[],[1026],[],"[3113, 3057]",[3100],[],[],[],"[4632, 1052]",[3102],[]
participant_1_SOLD,[],[],[],[],[2003],[2003],[],[],[],[],[],[2055],"[1056, 3145, 1028, 1026]",[],[],[1001],[],[],[],[1052],"[3057, 3113, 1026]",[],[],[],[],"[1052, 4632]",[]
participant_1_UNDO,[],[],[],[],[],[],[],[],[],[],[],[],[],[],[],[],[],[],[],[],[],[],[],[],[],[],[]
participant_2_GOLD,500,500,625,871,1156,1551,1916,2109,2614,2849,3471,3656,4296,4488,4932,5434,6184,6525,6717,7351,7885,8242,8615,9756,10121,11023,11469
participant_2_CURRENTGOLD,500,0,125,71,356,741,1096,69,59,219,841,561,1191,183,627,1129,229,495,252,886,1420,62,435,1576,691,1594,2069
participant_2_LEVEL,1,1,1,2,3,5,5,6,7,7,8,8,9,9,9,10,10,11,11,12,12,13,13,13,14,14,14
participant_2_MINIONSKILLED,0,0,6,6,15,28,39,43,47,54,65,69,77,81,84,93,100,104,108,114,121,121,124,128,128,134,135
participant_2_KILLS,0,0,0,0,0,0,0,0,1,1,2,2,2,2,2,2,2,2,2,3,3,3,3,5,5,6,7
participant_2_BUY,[],"[1056, 2003, 2003, 3340]",[],[1001],[],[],[],"[1052, 1052, 1027]","[3802, 1052]",[2055],[],[3108],[],[6653],[],[],"[3020, 1026]",[2055],[1052],[],[],[4637],[],[],[1058],[],[]
participant_2_SOLD,[],[],[],[2003],[2003],[],[],[],"[1052, 1027, 1052]",[],[2055],[1052],[],"[3802, 3108]",[],[],[1001],[],[],[],[],"[1026, 1052]",[],[2055],[],[],[]
participant_2_UNDO,[],[],[],[],[],[],[],[],[],[],[],[],[],[],[],[],[],[],[],[],[],[],[],[],[],[],[]
participant_3_GOLD,500,500,541,803,1607,1841,2110,2685,3367,3674,4022,5052,5237,5742,5885,6288,7143,7739,8450,9373,9545,10533,10801,11569,12081,13079,13221
participant_3_CURRENTGOLD,500,0,41,303,1107,341,610,1185,1867,99,447,1477,87,592,85,488,1343,689,1400,2323,55,444,712,184,697,1694,271
participant_3_LEVEL,1,1,1,2,3,4,4,5,6,6,6,7,7,8,8,9,9,10,11,11,11,12,12,13,13,13,14
participant_3_MINIONSKILLED,0,0,1,9,21,25,34,42,57,63,73,78,81,94,95,108,113,119,130,141,141,150,150,152,153,158,158
participant_3_KILLS,0,0,0,0,1,1,1,1,1,1,1,1,1,3,3,3,3,3,3,3,3,3,3,3,3,3,3
participant_3_BUY,[],"[3858, 2003, 2003]",[],[],[],"[1028, 1001, 2055]",[],[],[],"[3117, 1029, 2055, 2031]",[],[],[3067],[],"[1033, 3364]",[],[3190],[2055],[],[],"[3067, 1057, 1004]",[],[],[],[3222],[],[]
participant_3_SOLD,[],[],[],[],[2003],[2055],[2003],[],[],[1001],[3858],[2055],[1028],[],[3340],[],"[2031, 3067, 1033, 1029]",[],[2055],[],[],[],[],[],[1057],[],[]
participant_3_UNDO,[],[],[],[],[],[],[],[],[],[],[],[],[],[],[],[],[],[],[],[],"[[0, 3067], [0, 1004]]",[],[],[],[],[],[]
participant_4_GOLD,500,500,522,719,1386,1583,1718,1987,2313,2527,2758,3263,3403,3860,4000,4170,4473,4664,4839,5549,5739,6030,6282,6739,6880,7170,7318
participant_4_CURRENTGOLD,500,0,22,219,886,308,443,712,1038,27,258,763,503,960,650,820,33,149,324,1034,324,615,867,1325,65,355,443
participant_4_LEVEL,1,1,1,2,3,4,4,4,5,5,6,6,7,7,7,7,8,8,8,9,9,10,10,11,11,11,11
participant_4_MINIONSKILLED,0,0,0,3,5,6,6,7,9,9,11,14,14,14,14,15,15,15,15,16,16,16,16,16,16,16,16
participant_4_KILLS,0,0,0,0,1,1,1,2,3,3,3,5,5,5,5,5,6,6,7,8,8,10,10,11,12,14,14
participant_4_BUY,[],"[1055, 2003]",[],[],[],"[1036, 1036, 1042]",[],[],[],"[6670, 1018, 1037, 1001]",[],[],"[6672, 3006, 2031]",[],"[1036, 1042]",[],[],"[1053, 1043]",[],[],"[3153, 1033, 3140]","[1042, 1018]",[],"[3086, 1037]",[],[],[3085]
participant_4_SOLD,[],[],[],[2003],[2010],[],[],[],[],"[1036, 1042, 1036]",[],[2010],"[2010, 6670, 1018, 1037, 1001]",[],[],[],[],"[1036, 1042]",[],[],"[1053, 1043, 2031, 1033]",[],[],"[1018, 1055]",[],[],"[1037, 3086]"
participant_4_UNDO,[],[],[],[],[],[],[],[],[],[],[],[],[],[],[],[],[],[],[],[],[],"[[0, 1042]]",[],[],[],[],[]
participant_5_GOLD,500,500,562,824,1043,1228,1519,1683,2035,2409,2587,2876,3680,3802,3925,4208,4574,5367,5758,6251,6547,7169,7317,7634,7945,8228,8270
participant_5_CURRENTGOLD,500,0,62,324,143,328,19,183,535,459,337,176,980,302,425,408,774,217,608,581,477,1099,547,864,1175,268,-80
participant_5_LEVEL,1,1,1,3,4,4,5,6,7,7,7,8,9,9,9,9,10,10,11,11,12,12,12,13,13,14,14
participant_5_MINIONSKILLED,0,0,2,10,13,17,27,30,41,46,49,56,66,66,66,72,81,82,89,93,99,100,100,107,119,125,125
participant_5_KILLS,0,0,0,0,0,0,0,0,0,0,0,0,0,0,0,0,0,0,1,1,1,1,1,1,1,1,1
participant_5_BUY,[],"[1039, 2031]",[],[],[],"[1033, 1029, 2055, 3364]",[],[],[],[],[],"[6660, 1001, 2055]",[],[],"[3105, 1033]",[2055],[3111],[],"[3068, 2055]",[],[1052],[1028],[2055],[],[],[1026],[]
participant_5_SOLD,[],[],[],[],[],[3340],[2055],[],[],[],[1039],[],[2055],[],"[1033, 1029]",[2055],"[2031, 1001, 1033]",[],"[6660, 3105]",[],[2055],[],[2055],[],[],[],[]
participant_5_UNDO,[],[],[],[],[],[],[],[],[],[],[],[],[],[],[],[],[],[],[],[],[],[],[],[],[],[],[]
participant_6_GOLD,500,500,653,1051,1409,1531,1739,1966,2189,2471,2783,3006,3413,3747,3971,4178,4331,4795,5305,5505,5754,6057,6194,6316,6782,7076,7193
participant_6_CURRENTGOLD,500,0,153,551,909,206,414,641,864,1146,1458,306,713,1047,71,203,66,530,265,465,279,182,244,366,832,276,333
participant_6_LEVEL,1,1,2,3,4,4,4,5,5,5,6,6,7,8,8,8,8,9,9,10,10,11,11,11,11,12,12
participant_6_MINIONSKILLED,0,0,0,0,0,0,0,0,0,1,1,1,1,2,4,4,5,10,13,15,17,18,19,19,22,24,24
participant_6_KILLS,0,0,0,0,0,0,0,0,0,0,0,0,1,1,1,1,1,2,2,2,2,2,2,2,2,2,2
participant_6_BUY,[],"[1054, 2003, 3340]",[],[],[1028],[],[6660],[],[],[1033],[1001],[1057],[],[3111],[],[1029],[],"[3105, 3364, 2055, 2055]",[],[3068],[1028],[],"[1029, 1028]",[7004],[],"[1011, 3001]",[]
participant_6_SOLD,[],[],[],[],"[2003, 2010]",[2010],[1028],[2010],[],[],[],[1033],[],[1001],[],[],[],"[1029, 3340]",[],"[1054, 6660, 3105]","[2055, 2055]",[],[],[3068],[],"[1028, 1029, 1011, 1057]",[]
participant_6_UNDO,[],[],[],[],[],[],[],[],[],[],[],[],[],[],[],[],[],[],[],[],[],[],[],[],[],[],[]
participant_7_GOLD,500,500,623,1165,1435,1725,1981,2180,2645,3851,4036,4711,5767,5939,7177,7313,7436,8078,8306,9591,10107,10939,11077,11200,11603,12156,12322
participant_7_CURRENTGOLD,500,0,123,265,535,815,1071,185,135,1331,666,1331,37,209,797,193,316,168,396,1246,547,94,233,355,293,847,722
participant_7_LEVEL,1,1,1,3,4,5,6,6,7,8,8,9,10,10,11,11,11,11,12,12,13,13,13,13,13,14,14
participant_7_MINIONSKILLED,0,0,4,11,19,26,34,38,41,56,60,71,76,79,82,83,83,87,93,97,107,108,108,108,120,124,127
participant_7_KILLS,0,0,0,1,1,1,1,1,2,4,4,5,6,6,8,8,8,9,9,11,11,13,13,13,13,14,14
participant_7_BUY,[],"[1056, 2003, 2003]",[],[1056],[],[],[],"[1027, 1052, 2055, 2031, 2055]",[3802],[],[1026],[],"[6655, 3020]",[],[2420],[3191],[],[3157],[],[1052],"[3916, 1026]","[3165, 1052]",[],[],[3108],[],[]
participant_7_SOLD,[],[],[],[2003],[2003],[],[],[],"[1052, 1027]",[2055],[2055],[],"[3802, 1026]",[],[],[1056],[],"[2420, 1056, 3191, 2421]",[],[],[1052],"[1026, 3916]",[],[],[1052],[],[]
participant_7_UNDO,[],[],[],[],[],[],[],[],[],[],[],[],[],[],[],[],[],[],[],[],[],[],[],[],[],[],[]
participant_8_GOLD,500,500,997,1382,1527,1887,2153,2380,2725,2983,3231,3354,3624,3872,4119,4521,4644,5017,5139,5312,6454,7298,7552,8374,8671,9157,9241
participant_8_CURRENTGOLD,500,0,497,882,227,587,853,1080,1425,583,831,204,474,722,164,566,139,512,634,807,1949,160,414,1236,733,1219,1058
participant_8_LEVEL,1,1,1,2,2,3,4,4,5,5,6,6,6,7,7,8,8,8,8,9,10,10,10,11,12,12,12
participant_8_MINIONSKILLED,0,0,4,17,18,29,35,41,51,56,63,63,68,75,78,91,91,101,101,101,111,112,116,116,121,122,124
participant_8_KILLS,0,0,0,0,0,0,0,0,0,0,0,0,0,0,0,0,0,0,0,0,0,1,1,2,2,2,3
participant_8_BUY,[],"[3858, 2003, 2003, 3340]",[],[],[1001],[],[],[],[3067],[],[],"[1029, 3364]",[],[1033],[],[],"[3105, 3190]",[],[],[],[],[3117],[1028],"[3067, 1029]",[],[1027],[]
participant_8_SOLD,[],[],[],[],[],[],[],[],[2003],[],[3858],"[2010, 3340]",[],[2003],[],[],"[1033, 1029, 2010, 2010, 3067, 3105]",[3859],[],[],[],[1001],[],[1028],[],[],[]
participant_8_UNDO,[],[],[],[],[],[],[],[],[],[],[],[],[],[],[],[],[],[],[],[],[],[],[],[],[],[],[]
participant_9_GOLD,500,500,576,792,927,1201,1423,1578,1734,1940,2121,2262,2501,2642,3007,3287,3427,3700,3840,4031,4171,4611,4752,5342,5512,5803,6450
participant_9_CURRENTGOLD,500,0,76,292,127,401,623,778,134,340,521,362,601,312,677,957,8,280,420,611,751,492,232,122,292,233,800
participant_9_LEVEL,1,1,1,2,3,4,4,5,5,5,5,6,6,6,7,7,7,8,8,8,9,9,9,10,10,11,11
participant_9_MINIONSKILLED,0,0,1,3,3,8,10,11,12,13,15,15,17,17,17,21,21,24,24,24,24,24,24,24,25,25,25
participant_9_KILLS,0,0,1,1,1,1,1,1,1,1,1,1,1,1,1,1,1,1,1,1,2,3,3,4,4,5,5
participant_9_BUY,[],"[3070, 2003, 2003, 3340]",[],[],"[1036, 1036, 2003, 2003]",[],[],[],[],"[3133, 1027, 1027]",[],[3004],[],[],"[3057, 1036]",[],[1053],[],[],[],[],[3078],[],[],[3111],[],[]
participant_9_SOLD,[],[],[],[],[2003],[],[],[],"[2003, 2003]","[1036, 1036]",[],"[3070, 3133, 1027]",[],[],"[2003, 1027]",[],[1036],[],[],[],[3004],[3057],[],[],[2422],[],[]
participant_9_UNDO,[],[],[],[],[],[],[],[],[],[],[],[],[],[],[],[],[],[],[],[],[],[],[],[],[],[],[]
team0_KILLS,0,0,0,1,3,4,4,6,8,9,10,13,13,15,17,18,21,21,23,28,28,31,34,38,39,42,44
team0_CURRENTGOLD,2500,0,370,1602,3972,2502,2527,3327,3735,1128,2328,4577,2059,2532,3518,4459,2584,2124,3487,6439,2050,1821,4034,5836,2495,4662,4199
team0_TOTALGOLD,2500,2500,2870,4402,6772,8487,9572,11592,13665,15083,16758,19472,20829,22502,24588,26764,30004,31794,33592,37659,39085,41770,43983,48030,49788,52820,54174
team0_LEVEL,5,5,6,11,16,22,22,27,30,32,35,37,40,41,43,46,47,50,52,55,55,60,60,64,65,66,68
team0_SBIRES,0,0,9,33,61,87,111,134,162,183,212,240,260,289,302,331,352,366,395,416,423,449,452,473,485,504,509
team1_KILLS,0,0,1,2,2,2,2,2,3,5,5,6,8,8,10,10,10,12,13,15,16,20,20,22,22,24,25
team1_CURRENTGOLD,2500,0,911,2314,1941,2337,2980,2867,3093,3859,3813,2379,2805,2592,2134,2327,1303,1707,2323,3710,4003,2027,1670,2943,3325,2843,2833
team1_TOTALGOLD,2500,2500,3411,5214,6341,7572,8815,9787,11328,13654,14758,16209,18985,20002,22199,23507,24412,26957,28348,30690,33033,36074,36892,38866,40513,42420,43476
team1_LEVEL,5,5,6,13,17,20,23,26,29,30,32,35,38,40,42,43,44,46,48,50,54,55,55,58,59,63,63
team1_SBIRES,0,0,11,41,53,80,106,120,145,172,188,206,228,239,247,271,281,304,320,330,358,362,367,374,407,420,425
delta_KILLS,0,0,-1,-1,1,2,2,4,5,4,5,7,5,7,7,8,11,9,10,13,12,11,14,16,17,18,19
delta_CURRENTGOLD,0,0,-541,-712,2031,165,-453,460,642,-2731,-1485,2198,-746,-60,1384,2132,1281,417,1164,2729,-1953,-206,2364,2893,-830,1819,1366
delta_TOTALGOLD,0,0,-541,-812,431,915,757,1805,2337,1429,2000,3263,1844,2500,2389,3257,5592,4837,5244,6969,6052,5696,7091,9164,9275,10400,10698
delta_LEVEL,0,0,0,-2,-1,2,-1,1,1,2,3,2,2,1,1,3,3,4,4,5,1,5,5,6,6,3,5
delta_SBIRES,0,0,-2,-8,8,7,5,14,17,11,24,34,32,50,55,60,71,62,75,86,65,87,85,99,78,84,84
