name,frame_0,frame_1,frame_2,frame_3,frame_4,frame_5,frame_6,frame_7,frame_8,frame_9,frame_10,frame_11,frame_12,frame_13,frame_14,frame_15,frame_16,frame_17,frame_18,frame_19,frame_20,frame_21,frame_22,frame_23,frame_24,frame_25,frame_26,frame_27,frame_28,frame_29,frame_30,frame_31,frame_32
nameStamp,Tstart,Tearly,Tearly,Tearly,Tearly,Tearly,Tearly,Tearly,Tearly,Tearly,Tearly,Tearly,Tearly,Tearly,Tearly,Tmid,Tmid,Tmid,Tmid,Tmid,Tmid,Tmid,Tmid,Tmid,Tend,Tend,Tend,Tend,Tend,Tend,Tend,Tend,Tend
timestamp,0,60000,120023,180043,240049,300071,360104,420119,480137,540159,600179,660193,720217,780236,840256,900276,960296,1020321,1080336,1140356,1200374,1260377,1320401,1380429,1440457,1500488,1560490,1620498,1680525,1740557,1800577,1860601,1920601
participant_0_GOLD,500,500,562,867,1102,1434,1634,2109,2496,2745,3037,3417,3785,4715,5704,6229,6607,7018,7819,8041,8358,8537,9306,9786,10596,10826,11049,11356,11878,12626,13236,13458,13552
participant_0_CURRENTGOLD,500,0,62,367,602,934,134,609,996,1245,137,517,885,1815,904,629,1007,1418,2219,241,558,737,406,886,1696,1927,49,356,159,906,1516,39,-48
participant_0_LEVEL,1,1,1,3,4,5,5,6,7,8,8,9,9,10,10,11,11,11,12,12,12,12,13,14,14,14,14,15,15,15,16,16,16
participant_0_MINIONSKILLED,0,0,2,13,19,29,33,51,63,70,77,88,99,109,120,122,133,136,138,138,146,149,154,157,167,172,172,173,173,180,180,180,180
participant_0_KILLS,0,0,0,0,0,0,0,0,0,0,0,0,1,1,2,2,2,2,2,3,3,3,3,3,3,3,4,4,4,4,4,4,4
participant_0_BUY,[],"[1039, 2031, 3340]",[],[],[],[],[],"[6660, 1001]",[],[],[],[],[],"[3105, 1033]","[3068, 3068]",[],[3111],[],[3076],[],[],"[1011, 1033]",[],[],[],[],"[3075, 1011]",[],[1057],[],[],"[3001, 1029]",[]
participant_0_SOLD,[],[],[],[],[],[],[],[],[],[],[1039],[],[],[],"[2031, 6660, 3105, 6660, 3105]",[],"[1001, 1033]","[3340, 3513]",[],[],[],[],[],[],[],[],"[3076, 1011]",[],[1033],[],[],"[1011, 1057]",[]
participant_0_UNDO,[],[],[],[],[],[],[],[],[],[],[],[],[],[],"[[0, 3068], [2031, 0]]",[],[],[],[],[],[],[],[],[],[],[],[],[],[],[],[],[],[]
participant_1_GOLD,500,533,634,1226,1411,1785,2224,2536,2832,3219,3868,4046,4229,4351,4523,5168,5332,5869,6091,6739,7314,7487,8056,8569,8908,9343,9565,10066,11796,12458,13520,14211,14355
participant_1_CURRENTGOLD,500,33,134,726,61,425,864,1176,387,774,1413,141,324,71,243,888,117,654,26,274,849,557,1126,589,928,1363,335,836,2566,679,1740,1182,30
participant_1_LEVEL,1,1,1,3,4,5,5,6,7,7,8,8,8,8,8,9,9,10,10,11,11,11,12,12,13,13,13,14,15,15,16,16,16
participant_1_MINIONSKILLED,0,0,3,13,17,30,32,43,50,56,66,69,70,70,70,78,80,88,88,88,93,93,98,103,107,117,117,132,143,153,157,164,164
participant_1_KILLS,0,1,2,2,2,2,2,2,2,2,2,2,2,2,2,2,2,2,2,4,4,6,6,6,6,6,6,6,6,6,8,8,8
participant_1_BUY,[],"[1055, 2003, 3340]","[1036, 1036]",[],[],[],[],"[3134, 1053, 1036, 2055, 2031]",[],[],"[6692, 2055]",[],[],[1001],[],"[3006, 1036]","[2055, 2055]",[],[],[3134],[],[6676],[],[],[3123],[],[1018],[],[],[],[],"[3033, 3133]",[]
participant_1_SOLD,[],[],[2003],[],[],[],[],"[1036, 1036]",[2055],[],"[3134, 1036, 1053]",[],[2055],[],[],[1001],[2055],[2055],[],[1036],[],[3134],[],[],[],[],[2031],[],[],[],[],"[3123, 1018]",[]
participant_1_UNDO,[],[],[],[],[],[],[],[],[],[],[],[],[],[],[],[],[],[],[],[],[],[],[],[],[],[],[],[],[],[],[],[],[]
participant_2_GOLD,500,533,578,987,1291,1548,1832,2045,2231,2538,3009,3329,3751,4024,4496,4996,5118,5534,5852,6611,6873,7045,7268,7877,8162,8399,8972,9144,9691,9831,10416,10684,10778
participant_2_CURRENTGOLD,500,33,78,487,791,1048,1332,245,431,738,1209,1529,1951,274,46,546,318,734,252,1011,1273,95,318,927,1212,1449,122,294,392,531,1116,184,218
participant_2_LEVEL,1,1,1,2,3,4,4,5,5,6,6,7,7,7,8,9,9,9,10,10,11,11,11,12,12,12,13,13,14,14,15,15,15
participant_2_MINIONSKILLED,0,0,0,0,0,0,0,1,4,4,4,7,7,7,7,10,10,10,11,11,12,12,12,12,12,13,13,13,13,13,13,13,13
participant_2_KILLS,0,0,0,0,0,0,0,0,0,0,0,0,0,0,0,1,1,1,3,3,3,3,4,4,6,6,6,6,7,8,8,8,8
participant_2_BUY,[],"[1054, 2003, 3340]",[],[],[],[],[6660],[],[],[],"[3111, 1029]",[],[],[],[3068],[3076],[],[],[],"[3075, 1029]",[],[],"[3082, 1028]",[],[],[],"[3143, 1033, 3067]",[],[1011],[],[],"[3083, 1028]",[]
participant_2_SOLD,[],[],[],[],[2010],[],[2010],[],[],"[2010, 2003]",[],[],[],[],"[6660, 1029]",[],[],[],[],[3076],[],[],[1029],[],[],[],"[3082, 1028]",[],[1054],[],[],"[1011, 3067]",[]
participant_2_UNDO,[],[],[],[],[],[],[],[],[],[],[],[],[],[],[],[],[],[],[],[],[],[],[],[],[],[],"[[0, 1033]]",[],[],[],[],[],[]
participant_3_GOLD,500,920,1260,1502,1909,2269,2557,3129,3552,3999,4192,4489,4792,4915,5498,5747,5869,6128,6425,7307,7628,8564,8686,9176,9345,9468,9690,9861,10187,10756,12086,12729,13157
participant_3_CURRENTGOLD,500,420,60,302,709,1069,1357,54,477,924,192,489,792,615,1198,297,269,528,825,957,1278,314,436,926,296,418,100,272,597,1167,2496,740,1107
participant_3_LEVEL,1,1,1,2,3,4,4,5,6,6,7,7,8,8,8,8,8,8,9,9,10,11,11,11,12,12,12,12,12,13,14,15,15
participant_3_MINIONSKILLED,0,0,0,7,21,32,40,46,61,70,74,84,90,90,96,103,103,103,106,106,110,116,116,118,118,118,118,121,126,140,145,158,169
participant_3_KILLS,0,0,0,1,1,1,2,2,2,2,3,3,3,3,3,4,4,4,4,5,6,6,7,7,7,7,7,7,9,9,10,11,11
participant_3_BUY,[],[2033],[],[],[1026],[],[],[],"[1043, 2055]",[],[],"[3115, 1001]",[],"[1042, 2055]",[],[],"[3006, 1052]",[],"[1028, 1026]",[1028],[],[4635],[],[4633],[],[],[1058],[],[],[3089],[],[4630],"[3135, 2055]"
participant_3_SOLD,[],[],[],[],[],[],[],[],[],[2055],[],"[1043, 1026]",[],[],[],[2055],"[1001, 1042]",[],[],[],[],"[1028, 1052]",[],"[4635, 1026]",[],[],[],[],[],[1058],[],[],"[2033, 4630]"
participant_3_UNDO,[],[],[],[],[],[],[],[],[],[],[],[],[],[],[],[],[],[],"[[0, 1028]]",[],[],[],[],[],[],[],[],[],[],[],[],[],[]
participant_4_GOLD,500,533,580,772,966,1206,1361,2136,2381,2824,3007,3226,3469,3959,4299,4540,4680,5371,6312,6652,6943,7133,7792,8232,8520,8674,9165,9670,9936,10187,11015,11315,11423
participant_4_CURRENTGOLD,500,33,80,272,466,706,861,36,281,724,-193,26,269,759,99,340,330,1022,1962,102,318,508,1167,-293,-5,150,140,645,411,662,1490,-60,148
participant_4_LEVEL,1,1,1,2,3,4,4,5,6,6,7,7,7,8,8,8,8,9,10,10,10,10,11,12,12,12,12,13,13,13,14,15,15
participant_4_MINIONSKILLED,0,0,0,3,4,7,8,9,12,14,16,20,23,23,23,28,28,35,35,35,35,35,35,35,38,39,39,40,40,42,42,43,43
participant_4_KILLS,0,0,0,0,0,0,0,2,2,3,3,3,3,4,4,4,4,5,6,6,6,6,7,7,7,7,8,9,9,9,10,10,10
participant_4_BUY,[],"[3854, 2003, 3340, 2003]",[],[],[],[],[],"[6660, 1033, 2055, 2055]",[],[],"[1057, 1029, 1001]",[],[],[],"[6664, 3364]",[],"[2055, 2055]",[],[],"[3009, 3066, 1031]",[2055],[],[],"[3742, 1028, 1006]",[],[],"[1011, 3067, 3801, 1028]",[],[1011],[],[],"[3083, 1028]",[]
participant_4_SOLD,[],[],[],[],[],[],[],[2003],[],"[2055, 3854, 2003]",[1033],[2055],[],[],"[6660, 1029, 1057, 3340]",[],[],[2055],[],[1001],[2055],[3855],[2055],"[3066, 1031]",[],[],"[1028, 1028, 1028, 1006]",[],[1028],[],[],"[1011, 3801]",[]
participant_4_UNDO,[],[],[],[],[],[],[],[],[],[],[],[],[],[],[],[],[],[],[],[],[],[],[],[],[],[],"[[0, 1011], [0, 3067]]",[],[],[],[],[],[]
participant_5_GOLD,500,500,541,748,1092,1487,2057,2280,2653,2930,3327,3637,4007,4317,4530,4968,5167,5564,6465,6667,7046,7540,7953,8252,8632,8797,9819,10352,11587,11760,12104,12527,12664
participant_5_CURRENTGOLD,500,0,41,248,592,987,1557,205,578,855,1252,1562,279,589,502,940,339,736,387,189,568,1062,1475,524,904,1069,391,924,2159,492,437,459,356
participant_5_LEVEL,1,1,1,2,4,5,6,6,7,8,8,9,9,10,10,10,11,11,11,12,12,13,13,13,14,14,14,15,15,15,16,16,16
participant_5_MINIONSKILLED,0,0,1,5,16,29,37,40,51,60,73,80,86,86,91,106,110,120,122,122,132,143,153,158,168,170,170,183,195,195,200,200,202
participant_5_KILLS,0,0,1,1,1,1,1,2,2,2,2,2,2,2,2,2,2,2,2,2,2,2,2,2,2,2,3,3,3,3,3,3,3
participant_5_BUY,[],"[3858, 3340, 2003, 2003]",[1001],[],[],[],[],"[3067, 1029]",[],[],[],"[3047, 3117, 2055]",[],"[1033, 2055]",[3364],[],[],"[3105, 2055]",[],"[3190, 1029]",[],"[3024, 1028]",[],[3067],[],[],[],[3050],[3801],[],[],"[1028, 3067]",[]
participant_5_SOLD,[],[2003],[2003],[],[],"[2010, 2010]",[],[2010],[],[],[],"[1001, 1029, 1001]",[2055],[3858],[3340],[2055],[],"[1033, 1029]",[2055],"[3067, 3105]",[],[1029],[],[1028],[],[],[],"[3859, 3067, 3024]",[],[],[],[1028],[]
participant_5_UNDO,[],[],[],[],[],[],[],[],[],[],[],"[[0, 3047]]",[],[],[],[],[],[],[],[],[],[],[],[],[],[],[],[],[],[],[],[],[]
participant_6_GOLD,500,500,620,828,1213,1525,1967,2103,2495,2639,2861,3069,3191,3566,3873,4180,4377,4599,5112,5748,5871,6023,6208,6473,6595,6718,8267,8389,8812,9074,9196,9479,9572
participant_6_CURRENTGOLD,500,0,120,328,713,1025,1467,303,695,839,1061,1269,641,266,573,180,377,599,312,148,271,423,208,473,595,218,1767,139,562,824,196,479,122
participant_6_LEVEL,1,1,2,2,3,4,5,5,6,6,6,6,7,7,7,8,8,8,9,9,9,9,9,10,10,10,11,11,12,12,12,13,13
participant_6_MINIONSKILLED,0,0,0,0,0,0,1,2,2,3,3,3,3,3,3,6,6,6,6,6,6,7,11,13,13,13,20,20,20,24,24,25,25
participant_6_KILLS,0,0,0,0,0,0,0,0,0,0,0,0,0,2,3,5,6,6,7,8,8,11,11,11,11,11,11,11,13,13,13,15,15
participant_6_BUY,[],"[1055, 2003]",[],[],[],[],[],"[6670, 2003, 2003, 2055]",[],[],"[1036, 2003, 2003, 2055]",[],[],[],"[6673, 1042, 1001, 2003]",[],"[3006, 1036, 1036, 2003, 2003]",[],[3134],[1037],[2003],[6676],[1036],[],[],[],[1053],[],[3072],[],[],[2140],[]
participant_6_SOLD,[],[],[],[],[],[2003],[],[],[],"[2003, 2055]",[],"[2055, 2003]","[2003, 2003]",[],"[6670, 1036]",[2003],"[1001, 1042]",[],"[2003, 1036, 1036]",[],[],"[3134, 1037]",[],[],[],[2003],[1036],[],[1053],[],[],[2140],[]
participant_6_UNDO,[],[],[],[],[],[],[],[],[],[],[],[],[],[],[],[],[],[],[],[],[],[],[],[],[],[],[],[],[],[],[],[],[]
participant_7_GOLD,500,500,616,893,1100,1383,1607,1876,2496,2754,2939,3333,3831,4776,4898,5147,5419,5562,5996,6888,7124,7848,7991,8270,8462,9055,9707,9884,11023,11146,11360,12063,12157
participant_7_CURRENTGOLD,500,0,66,343,200,473,177,446,1066,274,284,668,1166,2111,333,147,419,462,896,38,274,998,206,485,677,235,887,1064,138,262,40,743,547
participant_7_LEVEL,1,1,1,2,3,4,4,5,6,6,7,7,8,8,8,9,9,9,10,10,11,11,11,12,12,12,13,13,14,14,14,15,15
participant_7_MINIONSKILLED,0,0,1,10,15,21,24,32,34,39,43,56,59,63,63,64,69,70,87,87,89,93,94,103,107,107,112,112,114,114,119,120,120
participant_7_KILLS,0,0,0,0,0,0,0,0,0,0,0,0,0,0,0,0,0,0,1,2,2,2,2,2,2,2,4,4,4,4,4,4,4
participant_7_BUY,[],"[1039, 2031, 3340]",[],[],[],[],[],"[6660, 1001]",[],[],[],[],"[1033, 1029]",[3105],[],[3068],[],[],[3047],[3076],[],[],[1028],[],[],[1011],[],"[3075, 1033, 1029]",[],[],[3105],[],[1033]
participant_7_SOLD,[],[],[],[],[],[],[],[],[],[],[1039],[],[],"[1033, 1029]",[],"[6660, 3105]",[],[],[1001],[],[],[],[],[],[],[1028],[],"[3076, 1011]",[],[],"[1033, 1029]",[],[]
participant_7_UNDO,[],[],[],[],[],[],[],[],[],[],[],[],[],[],[],[],[],[],[],[],[],[],[],[],[],[],[],[],[],[],[],[],[]
participant_8_GOLD,500,500,611,902,1102,1399,1749,2035,2332,2539,2724,3090,3275,4527,4971,5943,6284,6651,7104,7601,7829,8926,9048,9506,9713,9905,10253,10822,12329,12461,12764,14651,14965
participant_8_CURRENTGOLD,500,0,111,402,602,899,1249,60,357,564,224,590,775,2027,71,1043,84,451,504,126,304,376,148,606,813,1006,803,1372,380,511,814,2202,2515
participant_8_LEVEL,1,1,1,2,3,4,5,5,5,6,6,7,7,8,8,9,9,10,10,10,11,12,12,12,12,12,13,13,14,14,15,15,16
participant_8_MINIONSKILLED,0,0,5,14,18,27,38,39,49,54,57,68,72,78,79,90,90,101,102,102,108,108,108,118,118,122,122,133,140,140,142,153,160
participant_8_KILLS,0,0,0,0,0,0,0,0,1,1,1,1,2,4,4,4,4,4,4,5,5,6,6,6,6,7,7,7,9,9,9,10,10
participant_8_BUY,[],"[1055, 2003, 3340]",[2003],[],"[1001, 2003]",[],"[1052, 2055]",[],[],"[4635, 2003, 2003, 2055]","[2003, 2003, 2055]",[],[],[],[4633],[1052],[],"[2003, 2003]",[],"[3020, 1026, 2003, 2003]",[],[],"[3113, 3057]",[],[],"[3100, 1052]",[],[],[3165],[],[1052],[],"[1042, 2055, 2055]"
participant_8_SOLD,[],[],[],[2003],[],[],"[2003, 2003]",[2055],[],"[1052, 2055]","[2003, 2003]",[2003],[2055],[2003],[4635],[],[],[],[],"[2003, 2003, 1001]",[],[2003],"[1052, 1055]",[],[],"[3057, 3113, 1026]",[],[],"[2003, 1052]",[],[],[],[2055]
participant_8_UNDO,[],[],[],[],[],[],[],[],[],[],[],[],[],[],[],[],[],[],[],[],[],[],[],[],[],[],[],[],[],[],[],[],"[[0, 1042]]"
participant_9_GOLD,500,500,822,999,1176,1373,1529,1977,2153,2365,2671,2820,3005,3258,3398,3982,4207,4426,4692,5057,5197,5863,6003,6216,6356,6496,7339,7480,7923,8100,8240,8445,8552
participant_9_CURRENTGOLD,500,0,22,199,376,573,729,77,253,465,771,145,330,58,198,782,1007,401,667,332,472,138,278,91,231,371,1214,655,448,625,365,170,277
participant_9_LEVEL,1,1,1,2,2,3,4,4,5,6,6,7,7,7,7,8,8,9,9,10,10,11,11,11,11,11,13,13,13,13,13,13,14
participant_9_MINIONSKILLED,0,0,0,2,4,7,8,9,11,15,21,22,24,25,25,29,30,34,34,34,34,34,34,36,36,36,40,40,45,47,47,48,48
participant_9_KILLS,0,0,0,0,0,0,1,1,1,1,1,1,1,1,1,1,1,1,3,3,3,3,3,3,3,3,5,5,5,5,5,6,6
participant_9_BUY,[],"[1054, 2003]",[],[],[],[],[],"[3057, 3067, 2055]",[],[],[],[],[3078],[],[1001],[],[3111],[],[3211],[1028],[],[],[],[3065],[],[],"[1011, 3076]",[],[],"[3075, 1057]",[1028],[3066],[]
participant_9_SOLD,[],[],[],[],[2003],[],[],[],[2055],[],[],[2010],"[1054, 3057, 3067]",[],[],[],[1001],[],[],[],[],[],[],"[3211, 1028]",[],[],[],[],[],"[3076, 1011, 2010, 2010]",[],[1028],[]
participant_9_UNDO,[],[],[],[],[],[],[],[],[],[],[],[],[],[],[],[],[],[],[],[],[],[],[],[],[],[],[],[],[],[],[],[],[]
team0_KILLS,0,1,2,3,3,3,4,6,6,7,8,8,9,10,11,13,13,14,17,21,22,24,27,27,29,29,31,32,35,36,40,41,41
team0_CURRENTGOLD,2500,519,414,2154,2629,4182,4548,2120,2572,4405,2758,2702,4221,3534,2490,2700,2041,4356,5284,2585,4276,2211,3453,3035,4127,5307,746,2403,4125,3945,8358,2085,1455
team0_TOTALGOLD,2500,3019,3614,5354,6679,8242,9608,11955,13492,15325,17113,18507,20026,21964,24520,26680,27606,29920,32499,35350,37116,38766,41108,43640,45531,46710,48441,50097,53488,55858,60273,62397,63265
team0_LEVEL,5,5,5,12,17,22,22,27,31,33,36,38,39,41,42,45,45,47,51,52,54,55,58,61,63,63,64,67,69,70,75,77,77
team0_SBIRES,0,0,5,36,61,98,113,150,190,214,237,268,289,299,316,341,354,372,378,378,396,405,415,425,442,459,459,479,495,528,537,558,569
team1_KILLS,0,0,1,1,1,1,2,3,4,4,4,4,5,9,10,12,13,13,17,20,20,24,24,24,24,25,30,30,34,34,34,38,38
team1_CURRENTGOLD,2500,0,360,1520,2483,3957,5179,1091,2949,2997,3592,4234,3191,5051,1677,3092,2226,2649,2766,833,1889,2997,2315,2179,3220,2899,5062,4154,3687,2714,1852,4053,3817
team1_TOTALGOLD,2500,2500,3210,4370,5683,7167,8909,10271,12129,13227,14522,15949,17309,20444,21670,24220,25454,26802,29369,31961,33067,36200,37203,38717,39758,40971,45385,46927,51674,52541,53664,57165,57910
team1_LEVEL,5,5,6,10,15,20,24,25,29,32,33,36,38,40,40,44,45,47,49,51,53,56,56,58,59,59,64,65,68,68,70,72,74
team1_SBIRES,0,0,7,31,53,84,108,122,147,171,197,229,244,255,261,295,305,331,351,351,369,385,400,428,442,448,464,488,514,520,532,546,555
delta_KILLS,0,1,1,2,2,2,2,3,2,3,4,4,4,1,1,1,0,1,0,1,2,0,3,3,5,4,1,2,1,2,6,3,3
delta_CURRENTGOLD,0,519,54,634,146,225,-631,1029,-377,1408,-834,-1532,1030,-1517,813,-392,-185,1707,2518,1752,2387,-786,1138,856,907,2408,-4316,-1751,438,1231,6506,-1968,-2362
delta_TOTALGOLD,0,519,404,984,996,1075,699,1684,1363,2098,2591,2558,2717,1520,2850,2460,2152,3118,3130,3389,4049,2566,3905,4923,5773,5739,3056,3170,1814,3317,6609,5232,5355
delta_LEVEL,0,0,-1,2,2,2,-2,2,2,1,3,2,1,1,2,1,0,0,2,1,1,-1,2,3,4,4,0,2,1,2,5,5,3
delta_SBIRES,0,0,-2,5,8,14,5,28,43,43,40,39,45,44,55,46,49,41,27,27,27,20,15,-3,0,11,-5,-9,-19,8,5,12,14
