name,team0,team1
win,Win,Fail
firstBlood,False,True
firstTower,True,False
firstInhibitor,True,False
firstBaron,True,False
firstDragon,True,False
firstRiftHerald,True,False
towerKills,7,3
inhibitorKills,1,0
baronKills,1,0
dragonKills,3,0
riftHeraldKills,1,0
