name,frame_0,frame_1,frame_2,frame_3,frame_4,frame_5,frame_6,frame_7,frame_8,frame_9,frame_10,frame_11,frame_12,frame_13,frame_14,frame_15,frame_16,frame_17,frame_18,frame_19,frame_20,frame_21,frame_22,frame_23,frame_24
nameStamp,Tstart,Tearly,Tearly,Tearly,Tearly,Tearly,Tearly,Tearly,Tearly,Tearly,Tearly,Tearly,Tearly,Tmid,Tmid,Tmid,Tmid,Tmid,Tmid,Tmid,Tmid,Tmid,Tmid,Tmid,Tend
timestamp,0,60009,120028,180047,240076,300097,360124,420143,480162,540183,600212,660218,720241,780266,840291,900307,960321,1020327,1080345,1140355,1200373,1260391,1320399,1380420,1440442
participant_0_GOLD,500,525,591,896,1149,1425,1632,2262,2462,2675,2868,3226,4074,4337,4795,4981,5370,5707,6344,6963,7212,7384,8002,8474,9198
participant_0_CURRENTGOLD,500,25,91,396,649,925,232,862,462,175,368,726,1574,487,945,331,720,57,694,413,162,334,552,124,848
participant_0_LEVEL,1,1,1,3,4,5,5,7,7,7,8,8,9,9,10,10,11,11,11,12,12,12,13,13,14
participant_0_MINIONSKILLED,0,0,1,11,16,22,27,38,43,48,52,62,74,82,89,93,106,111,112,114,122,122,129,129,133
participant_0_KILLS,0,1,2,2,2,3,4,5,5,6,6,6,8,9,10,10,10,10,11,11,11,11,11,13,14
participant_0_BUY,[],"[1055, 3340, 2003]","[1055, 1036, 1036]",[],"[1001, 2031]",[],[],"[3144, 1043]",[],[],[3153],[1038],"[3006, 1036]",[],[],"[3508, 1037, 3363]",[],[1038],[3031],[3031],[],[3035],[],[],"[3033, 3086]"
participant_0_SOLD,[],[],[],[2003],[],[],[],"[1036, 1036]",[],[],"[3400, 3144, 1043]",[],[1001],[],[],"[1038, 1036, 3340]",[],[2031],"[1055, 1038, 1037]","[1038, 1037]",[3400],[1055],[],[],[3035]
participant_0_UNDO,[],[],"[[0, 1055]]",[],[],[],[],[],[],[],[],[],[],[],[],[],[],[],[],"[[0, 3031], [1055, 0]]",[],[],[],[],[]
participant_1_GOLD,500,525,977,1238,1538,1745,2040,2598,2845,3067,3560,3972,5485,5842,6394,6617,6852,7712,7984,8660,8832,9420,9542,10675,10918
participant_1_CURRENTGOLD,500,25,477,738,1038,1245,265,823,1070,292,785,597,1600,1957,2509,232,467,1327,334,1010,592,220,342,1475,819
participant_1_LEVEL,1,1,2,2,3,4,4,5,6,6,7,8,8,9,9,9,9,11,11,11,11,12,12,13,13
participant_1_MINIONSKILLED,0,0,0,0,0,0,2,6,6,6,10,10,18,18,21,21,22,27,27,32,32,33,33,36,37
participant_1_KILLS,0,0,0,0,0,0,0,1,1,1,1,1,1,1,1,1,1,1,2,3,3,3,4,4,5
participant_1_BUY,[],"[2033, 3340]",[],[],[],[],[3751],[],"[1001, 1029]",[1031],[],[],[],"[3068, 1029]",[],"[3047, 1029]",[],"[3076, 1029]",[],"[3082, 1028]",[3075],[],[1028],"[1011, 1029]",[]
participant_1_SOLD,[],[],[],[],[2010],[],[2010],[2010],[],[1029],[],[],[],"[1031, 3751]",[],"[1001, 1029]",[],[1029],[],"[1029, 2033]","[3076, 1028, 3082]",[],[],[1028],[]
participant_1_UNDO,[],[],[],[],[],[],[],[],[],[],[],[],[],[],[],[],[],[],[],[],[],[],[],[],[]
participant_2_GOLD,500,545,715,1020,1353,1615,2102,2385,2976,3311,3622,3973,5004,5252,5838,6171,6980,7983,8529,9346,9886,10227,10528,11263,12118
participant_2_CURRENTGOLD,500,45,215,520,853,1115,52,335,276,610,922,223,1254,302,888,181,990,1993,2539,131,672,1012,1313,1148,253
participant_2_LEVEL,1,1,2,3,4,5,5,6,7,8,8,9,9,10,10,10,11,12,12,13,13,13,13,14,15
participant_2_MINIONSKILLED,0,0,6,16,28,33,37,47,54,64,75,85,86,92,98,107,121,127,133,133,135,135,141,142,148
participant_2_KILLS,0,0,0,0,0,0,0,1,1,1,2,2,3,3,4,4,6,7,8,10,11,12,12,12,13
participant_2_BUY,[],"[3340, 3854, 2003, 2003]",[],[],[],[],"[1001, 1001, 1036, 1036, 2055]",[],[],"[3047, 3134, 2055]",[],"[1036, 1036]",[],"[3364, 3142, 1036]",[],"[3134, 3133]",[],[],"[3147, 3134, 1036]","[3181, 1036]",[],[],[],[3044],[]
participant_2_SOLD,[],[],[],[],"[2003, 2003]",[],[],[2055],[],"[1001, 1036, 1036]",[3400],[],[],"[3854, 3340, 1036, 1036, 3134]",[3400],[1036],[],"[2055, 3400]","[3134, 3133]","[3134, 1036]",[3855],[],[],[1036],[]
participant_2_UNDO,[],[],[],[],[],[],"[[0, 1001]]",[],[],[],[],[],[],[],[],[],[],[],[],[],[],[],[],[],[]
participant_3_GOLD,500,920,1323,1635,1877,2578,3199,3785,4323,4964,5703,6085,7109,7572,9172,9463,10670,10792,11582,11890,12752,13099,13322,15080,15897
participant_3_CURRENTGOLD,500,420,123,435,227,928,1549,235,773,1414,1453,535,409,872,2472,238,1445,328,72,200,1062,140,362,2121,187
participant_3_LEVEL,1,1,1,2,3,4,5,5,6,6,7,7,8,8,10,10,11,11,12,12,12,13,13,14,14
participant_3_MINIONSKILLED,0,0,3,14,21,34,41,41,53,60,74,82,90,91,112,118,132,132,136,136,149,149,149,160,166
participant_3_KILLS,0,0,0,0,0,0,1,1,2,2,2,2,3,3,4,4,5,7,7,7,8,8,8,8,9
participant_3_BUY,[],"[2003, 1054]",[],[],[],[],"[3077, 2031, 2055]",[],"[1036, 1001]",[],[],"[3117, 1036, 3364]",[],"[3134, 3123]",[],[3133],[],[],[],"[3147, 3179, 3074, 1036]",[],[],[],[3044],[3071]
participant_3_SOLD,[],[],[],[],[],[2003],[],[2055],[],[],[],"[1001, 3340]",[],"[1036, 1036]",[],[2031],[],[],[],"[3134, 3133, 3077]",[],[],[],[1036],[3044]
participant_3_UNDO,[],[],[],[],[],[],[],[],[],[],[],[],[],[],[],[],[],[],[],"[[0, 3179]]",[],[],[],[],[]
participant_4_GOLD,500,525,647,824,1022,1369,1675,2462,2618,3003,3773,4062,5092,5253,6689,6963,8702,9486,9976,11515,12449,12989,13205,14302,15367
participant_4_CURRENTGOLD,500,25,147,324,522,869,100,887,1043,153,923,512,1542,253,1689,113,1852,2636,976,615,1549,2089,2305,2502,3567
participant_4_LEVEL,1,1,1,2,3,4,4,5,5,6,6,7,7,8,8,8,9,10,10,11,12,12,12,13,14
participant_4_MINIONSKILLED,0,0,0,2,5,6,7,11,12,13,15,16,17,18,19,20,22,25,25,25,28,28,28,28,28
participant_4_KILLS,0,0,1,1,1,1,1,2,2,2,3,3,3,3,3,3,3,3,3,3,3,4,4,6,6
participant_4_BUY,[],"[1039, 3340, 2031]",[],[],[],[],"[3108, 1001, 3364, 2055]",[],[],"[3706, 1082]",[],[1402],"[1052, 2055]",[],[],"[3152, 1052]",[],[],"[3020, 3108]",[],[2420],[3191],[],[],"[3157, 2420]"
participant_4_SOLD,[],[],[],[],[],[],[3340],[2055],[],[1039],[],"[3364, 3108, 3706]",[3513],[2055],[3400],[1052],[],[],"[3364, 1001, 1052]",[],[2031],[1082],[3513],[],"[3191, 3108, 2420]"
participant_4_UNDO,[],[],[],[],[],[],[],[],[],[],[],[],[],[],[],[],[],[],[],[],[],[],[],[],[]
participant_5_GOLD,500,500,597,839,1099,1487,1851,2043,2396,3015,3137,3475,3597,3866,4198,4390,4625,4941,5152,6425,7023,7378,7680,8181,8304
participant_5_CURRENTGOLD,500,0,97,339,599,987,1351,93,446,1065,87,425,247,516,848,1040,125,441,252,200,798,353,655,1156,229
participant_5_LEVEL,1,1,1,2,3,5,6,6,7,8,8,9,9,9,10,10,10,11,11,12,12,12,13,13,13
participant_5_MINIONSKILLED,0,0,4,11,16,29,41,45,58,69,69,79,79,87,95,99,102,104,105,105,110,114,114,122,122
participant_5_KILLS,0,0,0,0,0,0,0,0,0,0,0,0,0,0,0,0,0,0,0,1,1,2,2,2,2
participant_5_BUY,[],"[1055, 2003, 3340, 2033]",[],[],[],[],[3134],[],[1036],[],[],"[3179, 1036]",[1036],[],[],[],[],"[3134, 3047]",[],"[1037, 3363]",[1028],[],[],"[3814, 2055, 2055]",[]
participant_5_SOLD,[],[],[],[],[2010],[],[],[],[],[],[],"[3134, 1036]",[2010],[],[],[],[],"[1036, 1036, 2422]",[],"[2010, 3340]",[],[],[],"[1037, 3134, 1028]",[]
participant_5_UNDO,[],"[[3340, 0], [0, 2003], [0, 1055]]",[],[],[],[],[],[],[],[],[],[],[],[],[],[],[],[],[],[],[],[],[],[],[]
participant_6_GOLD,500,500,605,963,1453,1661,2044,2166,2608,3020,3412,3745,4722,4952,5374,5631,5790,6817,7580,7745,8052,8433,8576,8883,10371
participant_6_CURRENTGOLD,500,0,105,113,603,211,594,316,258,70,462,95,1072,502,124,381,140,1167,790,155,62,443,186,493,331
participant_6_LEVEL,1,1,2,3,4,4,5,5,6,6,7,8,8,8,9,9,9,10,10,10,11,11,11,11,12
participant_6_MINIONSKILLED,0,0,0,0,0,0,1,1,1,2,2,2,2,2,5,5,7,7,8,11,12,15,16,16,16
participant_6_KILLS,0,0,0,1,1,1,1,2,2,2,2,2,2,2,2,2,2,2,2,2,3,4,5,5,6
participant_6_BUY,[],"[1055, 2003, 3340]",[],[],"[1037, 1004]",[],"[1001, 2003, 2055]",[3070],[],[],[],"[3004, 1042, 1042]",[],[],[3006],[],[],[1043],[1052],[],[1037],[3124],[],"[3191, 1042]",[]
participant_6_SOLD,[],[],[],[],[],[],[],[1004],[],[],[2003],"[3070, 1037]",[],[2055],"[1001, 1042]",[],[],[1042],[],[],[],"[1052, 1043, 1037]",[],[],[]
participant_6_UNDO,[],[],[],[],[],[],"[[0, 2003]]",[],[],[],[],[],[],[],[],[],[],[],[],[],[],[],[],[],[]
participant_7_GOLD,500,500,562,948,1267,1585,1837,2190,2494,2773,3049,3415,3612,3909,4323,4704,5098,5220,5433,6081,6402,6846,7115,7327,7450
participant_7_CURRENTGOLD,500,0,62,448,767,1085,237,590,544,823,1099,165,12,309,723,1104,1498,420,633,406,327,771,1040,577,700
participant_7_LEVEL,1,1,1,3,4,5,6,6,7,7,8,9,9,9,10,10,11,11,11,12,12,12,13,13,13
participant_7_MINIONSKILLED,0,0,2,15,26,35,40,54,65,71,80,91,91,101,114,125,131,131,137,137,140,141,150,151,151
participant_7_KILLS,0,0,0,0,0,0,0,0,0,0,0,0,1,1,1,1,1,2,3,3,3,3,3,3,5
participant_7_BUY,[],"[1039, 2031, 3340]",[],[1041],[],"[3715, 1029]",[],[1028],[3751],[1413],[],[3076],[],[3047],[3067],[],[1028],[],"[3211, 1028]",[3065],[3067],[],[1028],[],"[3801, 3083]"
participant_7_SOLD,[],[],[],[],[],"[1039, 1041]",[],[2031],"[1028, 2031]","[3751, 3715]",[],[1029],[],"[2031, 2422]",[],[],[],[],"[1028, 2031]","[3211, 3067]",[1028],[],[],[],"[1028, 3067, 3801]"
participant_7_UNDO,[],[],[],[],[],[],[],"[[2031, 0]]","[[2031, 0]]",[],[],[],[],"[[2031, 0]]",[],[],[],[],[],[],[],[],[],[],[]
participant_8_GOLD,500,500,583,1296,1597,1761,2066,2701,3130,3507,3748,4093,4215,4537,4716,5006,5314,5687,5995,6388,7172,7936,8601,8811,9399
participant_8_CURRENTGOLD,500,0,83,796,97,261,191,101,530,907,1148,218,340,662,341,631,939,612,485,878,787,761,1426,236,824
participant_8_LEVEL,1,1,1,2,3,3,4,5,6,6,7,7,7,8,8,8,9,9,10,11,11,12,12,12,13
participant_8_MINIONSKILLED,0,0,3,11,18,20,29,32,47,58,64,74,74,89,92,98,104,115,120,127,129,140,149,156,156
participant_8_KILLS,0,0,0,0,0,0,0,0,0,1,1,1,1,1,1,1,1,1,1,2,3,3,3,3,3
participant_8_BUY,[],"[1054, 2003, 3340]",[],[],[],[],[],"[3751, 1028, 2031]",[],[],"[1031, 3047]",[],[1029],[],[],[],[3068],[],[1028],[3077],[],[3052],[],[],"[3748, 2055]"
participant_8_SOLD,[],[2003],[],[],[],[],[],[],[],[],[],[],[],[],[],[],"[1029, 1028, 3751]",[],[],[2031],[],[1028],[],[],"[3077, 3052]"
participant_8_UNDO,[],[],[],[],[],[],[],[],[],[],"[[0, 1031]]",[],[],[],[],[],[],[],[],"[[2031, 0]]",[],[],[],[],[]
participant_9_GOLD,500,500,522,870,1066,1215,1477,1779,1953,2452,2646,2781,3088,3258,3488,3693,3878,4069,4413,5110,5437,5750,5991,6164,6478
participant_9_CURRENTGOLD,500,0,22,370,91,240,502,54,228,727,321,456,763,233,463,668,253,444,788,685,112,25,266,439,403
participant_9_LEVEL,1,1,1,2,3,3,3,4,4,5,5,6,6,6,6,7,7,7,8,9,10,10,11,11,12
participant_9_MINIONSKILLED,0,0,0,0,0,0,3,3,3,3,3,3,3,3,3,6,6,7,10,16,20,22,22,22,22
participant_9_KILLS,0,0,0,0,0,0,0,0,0,1,1,1,1,1,1,1,1,1,1,2,2,2,2,2,2
participant_9_BUY,[],"[3862, 2003, 2003, 3340]",[],[],"[1036, 2055, 2003]",[],[],[3134],[],[],[3009],[],[],"[1036, 1036]",[],[3364],[3179],[],[],[3028],[3108],[3174],[],[],[1036]
participant_9_SOLD,[],[],[],[2003],[],[],"[2003, 2010]","[2055, 1036]",[],[2003],[2422],[],[2010],[3862],[],[3340],"[3134, 1036, 1036]",[],[2010],[],[],"[3863, 3108, 3028]",[],[],[]
participant_9_UNDO,[],[],[],[],[],[],[],[],[],[],[],[],[],[],[],[],[],[],[],[],[],[],[],[],[]
team0_KILLS,0,1,3,3,3,4,6,10,11,12,14,14,18,19,22,22,25,28,31,34,36,38,39,43,47
team0_CURRENTGOLD,2500,540,1053,2413,3289,5082,2198,3142,3624,2644,4451,2593,6379,3871,8503,1095,5474,6341,4615,2369,4037,3795,4874,7370,5674
team0_TOTALGOLD,2500,3040,4253,5613,6939,8732,10648,13492,15224,17020,19526,21318,26764,28256,32888,34195,38574,41680,44415,48374,51131,53119,54599,59794,63498
team0_LEVEL,5,5,7,12,17,22,23,28,31,33,36,39,41,44,47,47,51,55,56,59,60,62,63,67,70
team0_SBIRES,0,0,10,43,70,95,114,143,168,191,226,255,285,301,339,359,403,422,433,440,466,467,480,495,512
team1_KILLS,0,0,0,1,1,1,1,2,2,4,4,4,5,5,5,5,5,6,7,10,12,14,15,15,18
team1_CURRENTGOLD,2500,0,369,2066,2157,2784,2875,1154,2006,3592,3117,1359,2434,2222,2499,3824,2955,3084,2948,2324,2086,2353,3573,2901,2487
team1_TOTALGOLD,2500,2500,2869,4916,6482,7709,9275,10879,12581,14767,15992,17509,19234,20522,22099,23424,24705,26734,28573,31749,34086,36343,37963,39366,42002
team1_LEVEL,5,5,6,12,17,20,24,26,30,32,35,39,39,40,43,44,46,48,50,54,56,57,60,60,63
team1_SBIRES,0,0,9,37,60,84,114,135,174,203,218,249,249,282,309,333,350,364,380,396,411,432,451,467,467
delta_KILLS,0,1,3,2,2,3,5,8,9,8,10,10,13,14,17,17,20,22,24,24,24,24,24,28,29
delta_CURRENTGOLD,0,540,684,347,1132,2298,-677,1988,1618,-948,1334,1234,3945,1649,6004,-2729,2519,3257,1667,45,1951,1442,1301,4469,3187
delta_TOTALGOLD,0,540,1384,697,457,1023,1373,2613,2643,2253,3534,3809,7530,7734,10789,10771,13869,14946,15842,16625,17045,16776,16636,20428,21496
delta_LEVEL,0,0,1,0,0,2,-1,2,1,1,1,0,2,4,4,3,5,7,6,5,4,5,3,7,7
delta_SBIRES,0,0,1,6,10,11,0,8,-6,-12,8,6,36,19,30,26,53,58,53,44,55,35,29,28,45
