name,team0,team1
win,Fail,Win
firstBlood,True,False
firstTower,True,False
firstInhibitor,True,False
firstBaron,False,True
firstDragon,True,False
firstRiftHerald,False,False
towerKills,6,9
inhibitorKills,1,2
baronKills,0,2
dragonKills,2,4
riftHeraldKills,0,0
