name,frame_0,frame_1,frame_2,frame_3,frame_4,frame_5,frame_6,frame_7,frame_8,frame_9,frame_10,frame_11,frame_12,frame_13,frame_14,frame_15,frame_16,frame_17,frame_18,frame_19,frame_20,frame_21
nameStamp,Tstart,Tearly,Tearly,Tearly,Tearly,Tearly,Tearly,Tearly,Tearly,Tearly,Tearly,Tearly,Tearly,Tearly,Tearly,Tearly,Tearly,Tearly,Tmid,Tmid,Tmid,Tmid
timestamp,0,60008,120014,180037,240049,300079,360098,420099,480120,540121,600122,660158,720180,780218,840244,900249,960251,1020252,1080275,1140287,1200313,1260313
participant_0_GOLD,500,500,520,843,1308,1507,1777,2346,2593,2730,3362,3484,3731,3909,4331,4922,5597,6153,6715,6913,7687,7809
participant_0_CURRENTGOLD,500,0,20,343,58,257,527,1096,1343,130,762,134,381,559,271,862,1537,2093,2655,453,1227,1359
participant_0_LEVEL,1,1,1,3,4,4,6,7,7,8,8,8,9,9,9,10,11,11,12,12,12,12
participant_0_MINIONSKILLED,0,0,0,9,11,15,24,33,37,38,38,38,43,46,48,54,55,61,69,69,79,79
participant_0_KILLS,0,0,0,0,0,0,0,2,2,2,3,3,3,3,3,3,3,3,3,3,4,4
participant_0_BUY,[],"[1035, 2003, 2003, 2003, 3340]",[],[],[],[],"[1036, 1036]",[],"[3134, 1036, 1036]",[],[1053],[],[],[],[],"[6692, 3111]",[],[],[3155],[],[],[]
participant_0_SOLD,[],[],[],"[2003, 2003]",[],[2003],[],[],"[1036, 1036]",[],[1036],[],[3340],[],[3513],"[3134, 1036, 1053]",[],[1035],[],[],[],[]
participant_0_UNDO,[],[],[],[],[],[],[],[],[],[],[],[],[],[],[],[],[],[],[],[],[],[]
participant_1_GOLD,500,500,620,878,1283,1490,1613,2375,2595,3081,3443,3875,4241,4469,5121,5344,5798,6237,6472,6790,7525,7586
participant_1_CURRENTGOLD,500,0,120,378,783,990,413,1175,295,781,593,1025,1391,1619,2271,544,998,1437,372,690,1425,1486
participant_1_LEVEL,1,1,2,2,4,4,4,4,5,6,6,7,8,8,8,9,9,10,10,10,11,11
participant_1_MINIONSKILLED,0,0,0,0,0,0,0,0,3,3,3,3,4,4,4,4,4,6,10,10,16,17
participant_1_KILLS,0,0,0,0,1,1,1,1,1,1,1,1,2,2,3,3,5,5,5,6,6,6
participant_1_BUY,[],"[1056, 2003, 2003, 3340]",[],[],[],[],"[3802, 2003, 2003, 2003]",[],[],[],"[1026, 2055, 2055]",[],[],[],[6655],[],[],"[1058, 3020]",[],[],[],[]
participant_1_SOLD,[],[],[],[],[],[],[],[],"[2003, 2010]",[],[],[],[],[2010],"[3802, 1026]",[2010],"[2003, 2003]",[2422],[2055],"[3340, 2003]","[2003, 3513]",[]
participant_1_UNDO,[],[],[],[],[],[],[],[],[],[],[],[],[],[],[],[],[],[],[],[],[],[]
participant_2_GOLD,500,500,625,927,1646,1922,2101,2272,2603,2973,3245,3597,4153,4366,5078,5418,6521,6722,7018,7524,8318,8389
participant_2_CURRENTGOLD,500,0,125,417,1136,1402,131,302,623,983,255,597,1143,1356,818,1158,2261,412,708,1214,2008,2139
participant_2_LEVEL,1,1,1,3,4,5,5,6,6,7,7,8,9,9,9,10,10,10,11,11,12,12
participant_2_MINIONSKILLED,0,0,6,14,25,31,35,38,48,59,59,69,74,79,79,88,90,92,99,104,112,112
participant_2_KILLS,0,0,0,0,0,0,0,0,1,1,1,1,1,1,1,1,1,1,1,1,1,1
participant_2_BUY,[],"[3858, 2003, 2003, 3340]",[],[],[],[],[],[],[],[],"[3105, 2003]",[],"[1028, 2003, 2003]",[],[3067],[],"[2003, 2055, 2055]",[],[3190],[],[],"[1033, 1001]"
participant_2_SOLD,[],[],[],[],"[2003, 2010]",[],[2010],"[2010, 2003]",[],[],[],[],[2003],[],[1028],[],[2003],"[2055, 2003, 2003]","[3067, 3105, 2055]",[],[3858],[]
participant_2_UNDO,[],[],[],[],[],[],[],[],[],[],[],[],[],[],[],[],[],[],[],[],[],[]
participant_3_GOLD,500,500,562,804,1127,1417,1659,2011,2424,2637,2773,3125,3488,3807,5536,5659,6018,6274,6578,6875,7839,8186
participant_3_CURRENTGOLD,500,0,62,304,627,917,1159,1511,1924,2137,523,875,1238,1557,2536,459,818,1074,1378,542,1506,1853
participant_3_LEVEL,1,1,1,2,3,4,4,5,6,6,6,7,7,8,8,8,9,9,10,10,11,11
participant_3_MINIONSKILLED,0,0,2,9,18,27,34,38,44,50,51,61,62,71,74,74,78,83,86,92,97,97
participant_3_KILLS,0,0,0,0,0,0,0,0,0,0,0,0,1,1,4,4,4,4,4,4,6,7
participant_3_BUY,[],"[3070, 2003, 2003, 3340]",[],[],[],[],[],[],[],[],"[3133, 1027, 1001]",[],[],[],[3004],"[3051, 3057, 1028]",[],[],[],[3078],[],[]
participant_3_SOLD,[],[],[],"[2003, 2003]",[2010],[2010],[],[2010],[],[],[],[],[],[],"[3070, 3133, 1027]",[],[],[],[],"[3057, 3051, 1028]",[3004],[]
participant_3_UNDO,[],[],[],[],[],[],[],[],[],[],[],[],[],[],[],[],[],[],[],[],[],[]
participant_4_GOLD,500,500,522,678,873,1028,1163,1447,1856,2018,2153,2376,2620,2804,3038,3172,3344,3529,3713,3904,4315,4444
participant_4_CURRENTGOLD,500,0,22,178,373,528,663,947,1356,1518,103,326,70,254,88,222,194,379,163,353,765,144
participant_4_LEVEL,1,1,1,2,3,4,4,4,4,5,5,5,5,6,6,6,7,7,7,7,8,8
participant_4_MINIONSKILLED,0,0,0,1,2,3,3,3,3,5,5,7,7,10,10,10,10,10,10,13,14,14
participant_4_KILLS,0,0,0,0,1,1,1,2,2,2,3,3,3,3,3,4,6,6,6,6,6,6
participant_4_BUY,[],"[1054, 2003, 3364, 3340]",[],[],"[1028, 1029, 2003]",[],[],[],[],"[6660, 1033, 1001]",[],[3105],[],[],[3068],[],[],[],[],"[3111, 3077, 1028]",[],[]
participant_4_SOLD,[],[3364],[],[2003],[],[],[2003],[],[],[1028],[],"[1033, 1029]",[],[],"[6660, 3105]",[],[],[],[],[1001],[],[]
participant_4_UNDO,[],[],[],[],[],[],[],[],[],[],[],[],[],[],[],[],[],[],[],[],[],[]
participant_5_GOLD,500,500,520,741,1014,1178,1315,1437,1573,2215,2456,3065,3334,3505,4060,4287,4410,4532,4654,4937,5209,5256
participant_5_CURRENTGOLD,500,0,20,241,114,278,415,137,273,915,1156,65,334,205,760,287,410,532,654,937,409,456
participant_5_LEVEL,1,1,1,2,3,4,4,4,6,7,8,8,8,9,9,9,9,9,9,10,10,10
participant_5_MINIONSKILLED,0,0,0,5,5,7,8,8,9,18,25,31,40,43,49,55,55,55,55,61,68,68
participant_5_KILLS,0,0,0,0,0,0,0,0,0,0,0,0,0,0,0,0,0,0,0,0,0,0
participant_5_BUY,[],"[3862, 2003, 2003, 3340]",[],[],[],[],[],"[3067, 1036]",[],[1042],[1042],[1036],[],[],[],"[6670, 1018]",[],[],[],[1053],[6673],[]
participant_5_SOLD,[],[],[],[],[2003],[],[2003],[],[],[],[3862],[],[],[],[],"[1036, 1042, 1036]",[],[],[3863],[],"[6670, 1018, 1053]",[]
participant_5_UNDO,[],[],[],[],[],[],[],[],[],[],"[[0, 1042]]",[],[],[],[],[],[],[],[],[],[],[]
participant_6_GOLD,500,500,725,1002,1634,1818,2456,2683,2990,3298,3910,4403,4645,4868,5311,5657,5858,6361,6757,6980,7202,7249
participant_6_CURRENTGOLD,500,0,225,502,1134,1318,1956,2183,1490,398,1010,1503,545,768,511,857,158,661,1057,380,602,649
participant_6_LEVEL,1,1,2,3,4,4,5,5,5,6,6,7,7,8,8,8,9,9,9,10,10,10
participant_6_MINIONSKILLED,0,0,0,0,0,0,0,0,0,0,0,0,0,0,0,0,0,0,1,1,1,1
participant_6_KILLS,0,0,0,0,0,0,0,0,0,0,0,1,1,1,1,1,1,1,1,1,1,1
participant_6_BUY,[],"[1056, 1054, 2003]",[],[],[],[],[],"[1026, 2003, 2003]",[],[],[],"[1052, 1028, 4635]",[],[],[],[],"[4633, 2003]",[],[1028],[],[1052],[]
participant_6_SOLD,[],[],[],[2003],[],[],[],[],[],[],[2003],"[1028, 1052]",[2003],[],[],[],"[4635, 1026]",[2003],[],[],[],[]
participant_6_UNDO,[],"[[0, 1056]]",[],[],[],[],[],[],[],[],[],[],[],[],[],[],[],[],[],[],[],[]
participant_7_GOLD,500,500,583,871,1050,1319,1890,2173,2864,3178,3600,4418,4861,5360,5783,6019,6450,6711,7358,7697,7917,7964
participant_7_CURRENTGOLD,500,0,83,361,115,374,945,1228,1919,2223,445,1253,321,820,393,629,210,471,1118,1457,302,389
participant_7_LEVEL,1,1,1,3,3,4,5,6,7,8,8,9,9,9,10,10,10,10,11,11,12,12
participant_7_MINIONSKILLED,0,0,3,10,14,20,26,35,42,49,49,65,66,70,70,71,71,75,83,91,97,97
participant_7_KILLS,0,0,0,0,1,1,2,2,2,2,3,3,3,3,4,4,4,5,5,5,5,5
participant_7_BUY,[],"[1035, 2031, 3340]",[],[],[],[],[],[],[6660],"[3111, 1029]",[],[],[3105],[],[3068],[],[1057],[],[],[1011],[],[]
participant_7_SOLD,[],[],[],[],[],[],[],[],[1035],[],[],[],[1029],[],"[6660, 3105]",[],[],[],[],[],[],[]
participant_7_UNDO,[],[],[],[],[],[],[],[],[],[],[],[],[],[],[],[],[],[],[],[],[],[]
participant_8_GOLD,500,500,562,769,1078,1368,1541,1663,1855,2055,2380,2803,3028,3220,3499,3754,3927,4194,4366,4691,4813,4860
participant_8_CURRENTGOLD,500,0,62,269,578,868,1041,213,405,605,930,53,278,470,739,994,67,334,106,431,118,175
participant_8_LEVEL,1,1,1,2,3,4,4,4,5,5,6,6,7,7,7,8,8,8,8,9,9,9
participant_8_MINIONSKILLED,0,0,2,7,16,23,23,23,27,31,35,35,37,41,42,46,46,51,51,59,59,59
participant_8_KILLS,0,0,0,0,0,0,0,0,0,1,1,1,1,1,1,1,1,1,1,1,1,1
participant_8_BUY,[],"[1054, 2003, 3340]",[],[],[1028],[],[],[1028],[],[],[],"[6660, 3105]",[],[1001],[],[3068],[],[],[],[],[3111],[]
participant_8_SOLD,[],[],[2003],[],[],[],[],[],[],[],[],"[1028, 1028]",[],[],[],"[6660, 3105]",[],[],[],[],[1001],[]
participant_8_UNDO,[],[],[],[],[],[],[],[],[],[],[],[],[],[],[],[],[],[],[],[],[],[]
participant_9_GOLD,500,500,525,778,1048,1212,1437,1711,1916,2114,2399,2605,2779,2964,3313,3476,3747,4111,4395,4560,4703,4757
participant_9_CURRENTGOLD,500,0,25,278,548,712,937,61,266,164,449,305,479,664,1013,276,547,911,1195,460,3,57
participant_9_LEVEL,1,1,1,2,3,3,4,4,4,5,5,6,6,6,6,7,7,7,8,8,8,8
participant_9_MINIONSKILLED,0,0,0,2,2,3,3,3,5,5,6,10,11,12,13,13,13,18,23,24,24,24
participant_9_KILLS,0,0,0,0,0,0,1,1,2,2,3,4,5,6,7,7,8,8,9,9,9,9
participant_9_BUY,[],"[1056, 2003, 2003, 3340]",[],[],"[1082, 2055]",[],[],[],[],[],"[3145, 1026, 1001]",[],"[3152, 2055]",[],[3113],[],[1026],[],[],[],"[3100, 2055]",[]
participant_9_SOLD,[],[],[],[],[2003],[],[2003],[],[],[],[],[],"[2055, 3145, 1026]",[],[],[2055],[],[],[],[],"[3113, 1026]",[]
participant_9_UNDO,[],[],[],[],[],[],[],[],[],[],[],[],[],[],[],[],[],[],[],[],[],[]
team0_KILLS,0,0,0,0,2,2,2,5,6,6,8,8,10,10,14,15,19,19,19,20,23,24
team0_CURRENTGOLD,2500,0,349,1620,2977,4094,2893,5031,5541,5549,2236,2957,4223,5345,5984,3245,5808,5395,5276,3252,6931,6981
team0_TOTALGOLD,2500,2500,2849,4130,6237,7364,8313,10451,12071,13439,14976,16457,18233,19355,23104,24515,27278,28915,30496,32006,35684,36414
team0_LEVEL,5,5,6,12,18,21,23,26,28,32,32,35,38,40,40,43,46,47,50,50,54,54
team0_SBIRES,0,0,8,33,56,76,96,112,135,155,156,178,190,210,215,230,237,252,274,288,318,319
team1_KILLS,0,0,0,0,1,1,3,3,4,5,7,9,10,11,13,13,14,15,16,16,16,16
team1_CURRENTGOLD,2500,0,415,1651,2489,3550,5294,3822,4353,4305,3990,3179,1957,2927,3416,3043,1392,2909,4130,3665,1434,1726
team1_TOTALGOLD,2500,2500,2915,4161,5824,6895,8639,9667,11198,12860,14745,17294,18647,19917,21966,23193,24392,25909,27530,28865,29844,30086
team1_LEVEL,5,5,6,12,16,19,22,23,27,31,33,36,37,39,40,42,43,43,45,48,49,49
team1_SBIRES,0,0,5,24,37,53,60,69,83,103,115,141,154,166,174,185,185,199,213,236,249,249
delta_KILLS,0,0,0,0,1,1,-1,2,2,1,1,-1,0,-1,1,2,5,4,3,4,7,8
delta_CURRENTGOLD,0,0,-66,-31,488,544,-2401,1209,1188,1244,-1754,-222,2266,2418,2568,202,4416,2486,1146,-413,5497,5255
delta_TOTALGOLD,0,0,-66,-31,413,469,-326,784,873,579,231,-837,-414,-562,1138,1322,2886,3006,2966,3141,5840,6328
delta_LEVEL,0,0,0,0,2,2,1,3,1,1,-1,-1,1,1,0,1,3,4,5,2,5,5
delta_SBIRES,0,0,3,9,19,23,36,43,52,52,41,37,36,44,41,45,52,53,61,52,69,70
