name,frame_0,frame_1,frame_2,frame_3,frame_4,frame_5,frame_6,frame_7,frame_8,frame_9,frame_10,frame_11,frame_12,frame_13,frame_14,frame_15,frame_16,frame_17,frame_18,frame_19,frame_20,frame_21,frame_22
nameStamp,Tstart,Tearly,Tearly,Tearly,Tearly,Tearly,Tearly,Tearly,Tearly,Tearly,Tearly,Tearly,Tearly,Tmid,Tmid,Tmid,Tmid,Tmid,Tmid,Tmid,Tmid,Tmid,Tmid
timestamp,0,60005,120036,180064,240075,300110,360111,420112,480143,540152,600158,660173,720188,780199,840201,900212,960240,1020258,1080291,1140317,1200341,1260344,1320344
participant_0_GOLD,500,500,621,933,1533,2246,2478,3014,3563,3786,4441,4838,5371,5849,7070,7218,7796,8273,8989,9659,9881,10334,10456
participant_0_CURRENTGOLD,500,0,121,433,1033,1746,228,764,1313,1535,366,763,1296,49,1270,568,1146,323,1039,374,192,644,706
participant_0_LEVEL,1,1,2,3,4,5,5,6,6,7,7,8,8,9,10,10,11,11,12,13,13,13,13
participant_0_MINIONSKILLED,0,0,0,0,0,4,4,4,8,8,10,10,10,10,11,11,12,21,31,37,37,37,37
participant_0_KILLS,0,0,0,0,1,2,2,3,4,4,4,4,5,5,8,8,9,9,9,10,10,10,10
participant_0_BUY,[],"[1039, 2031, 3340]",[],[],[],[],"[3145, 1028, 1001, 3364]",[],[],[],"[3152, 2055, 3340, 3364]",[],[],"[3111, 3113, 1026, 3113, 2055]",[],[1026],[],[3100],[],"[3191, 1052]",[3108],[],[]
participant_0_SOLD,[],[],[],[],[],[],[3340],[],[],"[1039, 3364, 3513]","[3145, 1028, 3364, 3340]",[],[],[1001],[],[2055],[2055],"[3113, 1026]",[],[],"[2031, 1052]",[],[]
participant_0_UNDO,[],[],[],[],[],[],[],[],[],[],[],[],[],"[[0, 3113], [0, 1026]]",[],[],[],[],[],[],[],[],[]
participant_1_GOLD,500,500,521,727,892,1398,1542,1947,2215,2338,2808,3083,3512,3964,4121,4495,4761,5142,5418,5540,5933,6111,6133
participant_1_CURRENTGOLD,500,0,21,227,242,748,242,647,915,88,558,833,362,814,371,745,411,792,1068,390,783,61,83
participant_1_LEVEL,1,1,1,1,2,3,3,4,5,5,6,6,6,7,7,8,8,9,9,9,9,10,10
participant_1_MINIONSKILLED,0,0,0,5,8,13,14,28,33,33,45,50,53,60,62,73,73,76,78,78,85,85,85
participant_1_KILLS,0,0,0,0,0,1,1,1,1,1,1,1,1,1,1,1,1,1,1,1,1,1,1
participant_1_BUY,[],"[1055, 2003]",[],[],[2031],[],"[1042, 1036]",[],[],"[6670, 1001]",[],[],[1053],[],[1018],[],[6673],[],[],[3006],[],"[1042, 1018]",[]
participant_1_SOLD,[],[],[2003],[],[],[],[],[],[],"[1036, 1042]",[],[],[],[],[],[],"[6670, 1018, 1053]",[],[],[1001],[],[],[]
participant_1_UNDO,[],[],[],[],[],[],[],[],[],[],[],[],[],[],[],[],[],[],[],[],[],[],[]
participant_2_GOLD,500,500,523,692,848,1134,1290,1556,1759,1908,2194,2406,2991,3182,3518,3688,4110,4488,4768,4909,5049,5244,5270
participant_2_CURRENTGOLD,500,0,23,192,348,184,340,606,809,958,1244,1456,341,532,868,278,700,1078,1358,399,539,334,320
participant_2_LEVEL,1,1,1,2,3,4,4,5,5,6,6,7,7,7,8,8,9,9,10,10,10,10,10
participant_2_MINIONSKILLED,0,0,0,2,3,5,6,11,12,13,14,15,18,18,19,20,23,25,26,26,26,26,26
participant_2_KILLS,0,0,0,0,0,0,0,0,0,0,0,0,1,1,1,1,1,1,1,1,1,1,1
participant_2_BUY,[],"[3854, 2003, 2003, 3340]",[],[],[],"[1029, 2031, 3364]",[],[],[],[],[],[],"[3024, 3111]",[],[],[3067],[],[],[],"[3050, 1028]",[],[3067],[]
participant_2_SOLD,[],[],[],"[2010, 2003]",[2003],"[2010, 3340]",[],[],[],[],[],"[3854, 2010]","[2419, 1029]",[],[2423],[2424],[],[],[3855],"[3067, 3024]",[],[1028],[]
participant_2_UNDO,[],[],[],[],[],[],[],[],[],[],[],[],[],[],[],[],[],[],[],[],[],[],[]
participant_3_GOLD,500,500,521,790,1067,1385,2020,2205,2694,3220,3980,4235,4763,5225,5720,5843,6841,7644,7987,8653,9175,9786,10129
participant_3_CURRENTGOLD,500,0,21,290,567,885,1520,255,744,120,880,1135,1663,75,570,268,1266,2069,2412,3078,80,691,854
participant_3_LEVEL,1,1,1,3,4,5,6,6,7,8,9,9,10,10,10,11,11,11,12,13,13,13,14
participant_3_MINIONSKILLED,0,0,0,8,17,26,35,38,48,53,67,75,85,90,92,92,104,112,113,129,131,138,138
participant_3_KILLS,0,0,0,0,0,0,1,1,1,1,2,2,2,2,2,2,4,5,5,6,7,8,9
participant_3_BUY,[],"[1054, 2003]",[],[],[],[],[],"[3134, 1036]",[],"[1053, 1001, 1029]",[],[],[],"[6692, 3047, 1036]",[],"[1036, 2055]",[],[],[],[],"[6333, 3155]",[],[]
participant_3_SOLD,[],[],[],[],[2003],[],[],[],[],[1036],[],[],[],"[3134, 1053, 1001, 1029]",[],[],[],[],[],[],"[1036, 1036, 1054]",[],[]
participant_3_UNDO,[],[],[],[],[],[],[],[],[],[],[],[],[],[],[],[],[],[],[],[],[],[],[]
participant_4_GOLD,500,500,626,871,1679,1990,2375,2707,3122,3589,3865,4107,5091,5277,5912,6237,7222,7767,8614,8806,9109,9451,9473
participant_4_CURRENTGOLD,500,0,126,361,1169,420,795,277,692,1149,1425,267,1251,212,847,322,1307,1852,549,741,1044,136,198
participant_4_LEVEL,1,1,1,3,4,5,6,6,7,8,8,9,9,9,10,10,11,12,12,12,13,13,13
participant_4_MINIONSKILLED,0,0,6,11,20,29,41,53,61,69,78,85,100,101,107,115,126,131,138,143,150,150,150
participant_4_KILLS,0,0,0,0,1,1,1,1,1,1,1,1,1,1,2,2,4,5,7,7,7,8,8
participant_4_BUY,[],"[1056, 2003, 2003, 3340]",[],[],[],[3145],[],[1026],[],[],[],"[4636, 2003, 2003]",[],"[3020, 2003, 2055]",[],[1026],[],[],[4637],[],[],[4630],[]
participant_4_SOLD,[],[],[],[],"[2003, 2003]",[],[],[],[],[],[],"[3145, 1026]",[],[2055],"[2003, 2003, 2003]",[],[],[],[1026],[],[],[],[]
participant_4_UNDO,[],[],[],[],[],[],[],[],[],[],[],[],[],[],[],[],[],[],[],[],[],[],[]
participant_5_GOLD,500,500,521,871,1206,1331,1753,1966,2346,2792,2987,3353,4095,4328,4758,5002,5289,5411,5561,6792,7150,8769,8866
participant_5_CURRENTGOLD,500,0,21,371,706,131,553,766,1146,1592,287,653,395,278,358,202,489,611,161,1392,275,1894,1991
participant_5_LEVEL,1,1,1,2,3,3,4,4,5,6,6,7,7,8,8,8,9,9,9,10,10,11,11
participant_5_MINIONSKILLED,0,0,0,11,18,18,32,37,49,60,64,75,83,90,96,99,108,108,110,116,122,128,128
participant_5_KILLS,0,0,0,0,0,0,0,0,0,0,0,0,1,1,1,1,1,1,1,2,2,4,4
participant_5_BUY,[],"[1055, 2003, 3340]",[],[],[],"[1036, 1036]",[],[],[],[],"[3134, 3133]",[],[6691],[1036],[1036],[3134],[],[],[3009],[],"[1037, 1018]",[],[]
participant_5_SOLD,[],[],[],"[2003, 2010]",[],[2010],[],[],[],[],"[1036, 1036]",[],"[3134, 3133]",[],[2010],"[1036, 1036]",[],[],[2422],[],[],[],[]
participant_5_UNDO,[],[],[],[],[],[],[],[],[],[],[],[],[],[],[],[],[],[],[],[],[],[],[]
participant_6_GOLD,500,500,636,1013,1136,1555,1678,1830,2340,2588,2710,3023,3286,3607,4155,4462,4685,4835,5138,5442,5634,5892,5914
participant_6_CURRENTGOLD,500,0,136,513,36,455,578,380,890,1138,110,423,286,607,22,329,102,252,555,159,351,259,281
participant_6_LEVEL,1,1,2,3,3,4,4,4,5,6,6,6,7,7,8,8,8,9,9,10,10,10,10
participant_6_MINIONSKILLED,0,0,0,0,0,0,0,0,0,0,0,0,0,0,0,0,0,2,9,13,13,13,13
participant_6_KILLS,0,0,0,0,0,0,0,0,0,0,0,0,0,0,1,1,1,1,1,1,1,1,1
participant_6_BUY,[],"[1039, 2031, 3340]",[],[],"[1042, 1001]",[],[],[1036],[],[],"[3051, 3057]",[],[1028],[],[],[3078],[1033],[],[],"[3111, 1036]",[],[1036],[]
participant_6_SOLD,[],[],[],[],[],[],[],[],[],[1039],"[1042, 1036]",[],[],[],[],"[3057, 3051, 1028]",[3340],[],[3513],"[1001, 1033]",[],[],[]
participant_6_UNDO,[],[],[],[],[],[],[],[],[],[],[],[],[],[],[],[],[],[],[],[],[],[],[]
participant_7_GOLD,500,500,563,853,1050,1368,1592,1826,2122,2371,2686,2963,3589,3858,4530,4820,5048,5494,5616,6009,6194,6317,6639
participant_7_CURRENTGOLD,500,0,63,353,190,498,712,946,282,531,846,1123,489,758,1430,370,598,1044,316,709,94,217,589
participant_7_LEVEL,1,1,1,3,3,4,5,6,6,7,8,8,9,9,9,10,10,11,11,11,12,12,12
participant_7_MINIONSKILLED,0,0,2,12,14,23,26,33,40,48,62,71,79,88,91,97,103,114,114,122,126,126,126
participant_7_KILLS,0,0,0,0,0,0,0,0,0,0,0,0,1,1,2,2,2,2,2,2,2,2,3
participant_7_BUY,[],"[3070, 2003, 2003]",[],[],[1027],[],[],[],[3802],[],[],[],[1058],[],[],[3003],[],[],[1026],[],[3020],[],[]
participant_7_SOLD,[],[],[],[],[],[],[],"[2010, 2010]",[1027],[2010],[2003],[],[],[2003],[],"[3070, 1058]",[],[],[],[],[2422],[3003],[]
participant_7_UNDO,[],[],[],[],[],[],[],[],[],[],[],[],[],[],[],[],[],[],[],[],[],[],[]
participant_8_GOLD,500,500,523,759,1016,1150,1386,1576,1800,2036,2195,2431,2869,3053,3430,3570,3803,3944,4126,4363,4588,4958,4984
participant_8_CURRENTGOLD,500,0,23,259,516,100,336,526,750,986,110,346,19,203,580,170,403,544,726,113,338,23,49
participant_8_LEVEL,1,1,1,2,3,3,4,4,5,6,6,7,7,8,8,8,9,9,9,10,10,11,11
participant_8_MINIONSKILLED,0,0,0,3,5,5,8,11,13,14,15,17,19,21,23,23,27,27,30,31,33,33,33
participant_8_KILLS,0,0,0,0,0,0,0,0,0,0,0,0,0,0,0,0,0,0,0,0,0,0,0
participant_8_BUY,[],"[3850, 3340, 2003, 3858, 3340, 2003, 2003]",[],[],[],"[1001, 1004]",[],[],[],[],"[1052, 3158, 3364]",[],"[4642, 1028]",[],[],"[3067, 2055, 2055]",[],[],[],[4005],[],"[1004, 1052]",[]
participant_8_SOLD,[],[],[2003],[2010],[],[2010],[],[],[],[],"[3858, 1001, 3340]",[2010],"[2003, 1004, 1052]",[],[],[1028],[],[],"[3859, 2055]","[3067, 4642]",[],[],[2055]
participant_8_UNDO,[],"[[0, 2003], [3340, 0], [0, 3850]]",[],[],[],[],[],[],[],[],[],[],[],[],[],[],[],[],[],[],[],[],[]
participant_9_GOLD,500,500,598,867,1141,1403,1652,1809,1966,2231,2388,2774,2962,3301,3594,3940,4308,4430,4670,4793,5858,6608,6705
participant_9_CURRENTGOLD,500,0,98,367,641,903,1152,109,266,381,188,574,112,451,744,1090,583,80,320,143,1208,1958,2055
participant_9_LEVEL,1,1,1,3,4,5,5,6,6,6,7,7,8,8,9,9,10,10,10,10,11,11,12
participant_9_MINIONSKILLED,0,0,4,12,18,23,30,32,34,39,41,47,49,62,64,70,80,80,83,83,92,95,95
participant_9_KILLS,0,0,0,0,0,0,0,0,0,0,0,0,0,0,0,0,0,0,0,0,1,2,2
participant_9_BUY,[],"[1055, 2003, 3340]",[],[],[],[],[],"[1018, 1042, 1029]",[],[2031],[1036],[],[6670],[],[],[],[1037],[6672],[],[1001],[],[],[]
participant_9_SOLD,[],[],[],[],[2003],[],[],[],[],[],[],[],"[1036, 1042]",[],[],[],[],"[6670, 1018, 1037]",[],[],[],[],[]
participant_9_UNDO,[],[],[],[],[],[],[],[],[],[],[],[],[],[],[],[],[],[],[],[],[],[],[]
team0_KILLS,0,0,0,0,2,4,5,6,7,7,8,8,10,10,14,14,19,21,23,25,26,28,29
team0_CURRENTGOLD,2500,0,312,1503,3359,3983,3125,2549,4473,3850,4473,4454,4913,1682,3926,2181,4830,6114,6426,4982,2638,1866,2161
team0_TOTALGOLD,2500,2500,2812,4013,6019,8153,9705,11429,13353,14841,17288,18669,21728,23497,26341,27481,30730,33314,35776,37567,39147,40926,41461
team0_LEVEL,5,5,6,12,17,22,24,27,30,34,36,39,40,42,45,47,50,52,55,57,58,59,60
team0_SBIRES,0,0,6,26,48,77,100,134,162,176,214,235,266,279,291,311,338,365,386,413,429,436,436
team1_KILLS,0,0,0,0,0,0,0,0,0,0,0,0,2,2,4,4,4,4,4,5,6,9,10
team1_CURRENTGOLD,2500,0,341,1863,2089,2087,3331,2727,3334,4628,1541,3119,1301,2297,3134,2161,2175,2531,2078,2516,2266,4351,4965
team1_TOTALGOLD,2500,2500,2841,4363,5549,6807,8061,9007,10574,12018,12966,14544,16801,18147,20467,21794,23133,24114,25111,27399,29424,32544,33108
team1_LEVEL,5,5,6,13,16,19,22,24,27,31,33,35,38,40,42,43,46,48,48,51,53,55,56
team1_SBIRES,0,0,6,38,55,69,96,113,136,161,182,210,230,261,274,289,318,331,346,365,386,395,395
delta_KILLS,0,0,0,0,2,4,5,6,7,7,8,8,8,8,10,10,15,17,19,20,20,19,19
delta_CURRENTGOLD,0,0,-29,-360,1270,1896,-206,-178,1139,-778,2932,1335,3612,-615,792,20,2655,3583,4348,2466,372,-2485,-2804
delta_TOTALGOLD,0,0,-29,-350,470,1346,1644,2422,2779,2823,4322,4125,4927,5350,5874,5687,7597,9200,10665,10168,9723,8382,8353
delta_LEVEL,0,0,0,-1,1,3,2,3,3,3,3,4,2,2,3,4,4,4,7,6,5,4,4
delta_SBIRES,0,0,0,-12,-7,8,4,21,26,15,32,25,36,18,17,22,20,34,40,48,43,41,41
