name,frame_0,frame_1,frame_2,frame_3,frame_4,frame_5,frame_6,frame_7,frame_8,frame_9,frame_10,frame_11,frame_12,frame_13,frame_14,frame_15,frame_16,frame_17,frame_18,frame_19,frame_20,frame_21,frame_22,frame_23,frame_24,frame_25
nameStamp,Tstart,Tearly,Tearly,Tearly,Tearly,Tearly,Tearly,Tearly,Tearly,Tearly,Tearly,Tearly,Tearly,Tearly,Tmid,Tmid,Tmid,Tmid,Tmid,Tmid,Tmid,Tmid,Tend,Tend,Tend,Tend
timestamp,0,60022,120051,180072,240093,300125,360142,420158,480166,540184,600202,660203,720231,780263,840280,900311,960323,1020348,1080357,1140385,1200405,1260436,1320460,1380464,1440481,1500485
participant_0_GOLD,500,500,521,1169,1313,1745,1944,2446,2997,3120,3558,4077,4299,5324,6280,6417,6899,7721,7944,8418,8791,9238,10441,10563,10941,11764
participant_0_CURRENTGOLD,500,0,21,669,813,495,694,1196,1747,120,558,127,349,1374,2330,367,849,796,1019,1493,241,688,1891,854,131,954
participant_0_LEVEL,1,1,1,3,4,4,5,6,7,7,8,9,9,10,10,10,11,12,12,12,12,13,14,14,14,15
participant_0_MINIONSKILLED,0,0,0,7,8,10,15,25,34,34,43,47,47,53,62,63,80,80,80,88,88,88,92,92,92,98
participant_0_KILLS,0,0,0,1,1,2,2,2,3,3,4,4,4,5,5,5,5,6,6,6,6,6,9,9,9,10
participant_0_BUY,[],"[1055, 2003]",[],[],[],"[2031, 1001, 1042]",[],[],[],"[3006, 1053, 1036]",[],"[3144, 1042, 1042]",[],[],[],"[3153, 1043]",[],[1037],[],[],"[3124, 1028]",[],[],"[1011, 1031]",[3742],[]
participant_0_SOLD,[],[],[],[2003],[],[],[],[],[],"[1001, 1042]",[],"[1053, 1036]",[],[],[],"[3144, 1042, 1042]",[],[],[],[3340],"[3513, 1043, 1037]",[],[],"[2031, 1055, 1028]","[1031, 1011]",[]
participant_0_UNDO,[],[],[],[],[],[],[],[],[],[],[],[],[],[],[],[],[],[],[],[],[],[],[],[],[],[]
participant_1_GOLD,500,500,606,999,1271,1607,1835,2042,2204,2548,2785,3168,3488,4248,4556,4763,4986,5594,6016,6339,7313,7820,8563,8990,9247,9995
participant_1_CURRENTGOLD,500,0,106,499,771,1107,-65,142,304,648,885,343,663,1423,1731,138,361,-131,241,-126,848,1355,598,1025,532,1280
participant_1_LEVEL,1,1,2,3,3,4,4,5,5,5,6,7,7,8,8,8,9,9,9,10,11,12,12,13,13,13
participant_1_MINIONSKILLED,0,0,0,0,0,0,0,0,1,2,3,3,3,7,7,7,7,9,9,9,10,10,10,10,10,10
participant_1_KILLS,0,0,0,0,0,1,1,2,2,3,3,3,4,4,4,4,4,4,4,6,7,7,7,7,7,8
participant_1_BUY,[],"[1054, 2003, 3340]",[],[],[],[],"[3145, 2003, 2003, 2003, 2003]",[],[],"[1001, 1053, 1036]",[],[],[],"[3144, 3146]",[],[],[],"[3020, 1052]",[],[3136],[],[],[3151],[],[],[]
participant_1_SOLD,[],[],[],[2003],[],[],[],"[2003, 2003, 2003]",[2003],[],[],[],[],"[1053, 1036, 3144, 3145]",[],[],[],[1001],[],[1052],[],[],[3136],[],[],[]
participant_1_UNDO,[],[],[],[],[],[],[],[],[],[],[],[],[],[],[],[],[],[],[],[],[],[],[],[],[],[]
participant_2_GOLD,500,500,612,874,1169,1829,1987,2627,2917,3329,3598,4014,4516,4689,5012,5366,5659,5956,6211,7418,7871,8447,8852,9052,9224,9823
participant_2_CURRENTGOLD,500,0,112,374,669,1329,237,877,1167,29,298,714,1216,289,612,966,1259,321,576,718,1171,1747,552,752,924,1523
participant_2_LEVEL,1,1,1,3,4,5,6,7,8,8,9,9,10,10,10,11,11,11,12,12,13,13,13,14,14,14
participant_2_MINIONSKILLED,0,0,5,13,20,31,33,38,45,49,58,65,73,73,78,88,94,94,98,103,109,114,123,125,125,126
participant_2_KILLS,0,0,0,0,0,0,0,0,0,1,1,1,1,1,1,1,1,2,2,2,3,3,3,3,3,3
participant_2_BUY,[],"[2003, 3854, 2003, 3340]",[],[],[],[],[],"[1001, 1036, 1036]",[],[],[],[],"[3134, 3009, 2055, 3364]",[],[1036],[],[],[3179],[],[],[],[],"[3044, 3067]",[],[],[]
participant_2_SOLD,[],[],[],[2003],[],[2003],[],[],[],[],[],[],"[1036, 1036, 1001, 3340]",[],[],[2055],[3854],"[3134, 1036]",[],[],[],[],[],[],[],[]
participant_2_UNDO,[],[],[],[],[],[],[],[],[],[],[],[],[],[],[],[],[],[],[],[],[],[],[],[],[],[]
participant_3_GOLD,500,500,598,1160,1455,1912,2049,2377,2610,2838,3051,3279,3485,4077,4285,4701,5090,6225,6376,7205,7633,8098,9172,9295,9847,10207
participant_3_CURRENTGOLD,500,0,98,660,955,1412,274,602,835,1063,1276,1504,185,777,185,601,990,2125,841,1670,2098,2563,437,95,647,1007
participant_3_LEVEL,1,1,1,2,3,4,4,5,6,6,6,7,7,8,8,9,9,10,10,11,11,12,13,13,13,13
participant_3_MINIONSKILLED,0,0,4,12,19,21,22,31,35,40,45,52,57,68,70,83,90,100,102,102,108,110,115,115,124,124
participant_3_KILLS,0,0,0,1,1,2,2,2,2,2,2,2,2,2,2,2,3,4,4,5,5,5,6,6,6,6
participant_3_BUY,[],"[1055, 2003, 3340]",[],[],[],[],"[1037, 1001, 2003, 2003]",[],[],[],[],[],"[3070, 3004]",[],"[1042, 3006]",[],[],[],"[1043, 1052]",[],[],[],"[3124, 3101, 1052]",[3108],[],[]
participant_3_SOLD,[],[],[],[],[],[2003],[],[],"[2003, 2003]",[],[],[],"[3070, 1037]",[],"[1001, 1042]",[],[],[],[],[],[],[],"[1052, 1043]",[1052],[],[3004]
participant_3_UNDO,[],[],[],[],[],[],[],[],[],[],[],[],[],[],[],[],[],[],[],[],[],[],[],[],[],[]
participant_4_GOLD,500,500,523,805,1021,1325,1474,1608,1825,2368,2547,2709,2858,3042,3226,3500,3812,4438,4589,4843,5443,5884,6091,6231,6572,6979
participant_4_CURRENTGOLD,500,0,23,305,521,825,974,108,325,868,1047,1209,282,467,301,575,887,563,714,968,1568,2009,166,306,647,1054
participant_4_LEVEL,1,1,1,2,3,4,4,5,5,6,6,6,7,7,7,7,8,8,8,9,9,10,10,10,10,11
participant_4_MINIONSKILLED,0,0,0,0,2,2,3,3,5,8,10,12,13,13,13,15,16,16,17,17,18,18,18,18,18,19
participant_4_KILLS,0,0,0,0,0,0,0,0,0,0,0,1,1,1,1,1,1,2,3,3,5,5,6,7,7,9
participant_4_BUY,[],"[1039, 2031, 3340]",[],[],[],[],"[3706, 1036, 1036]",[],[],[],[],[1400],[],[],[],"[3117, 3134]",[],[3133],[],[3142],[],[],"[3134, 1036]",[],[3133],[]
participant_4_SOLD,[],[],[],[],[],[],[1039],[],[],[],[],"[1036, 1036, 3706]",[3340],[3513],[],[2422],[],[],[],"[2031, 3133, 3134]",[],[],[],[],[1036],[]
participant_4_UNDO,[],[],[],[],[],[],[],[],[],[],[],[],[],[],[],[],[],[],[],[],[],[],[],[],[],[]
participant_5_GOLD,500,500,535,720,969,1217,1396,1518,1835,2000,2264,2387,2509,2750,2915,3037,3188,3413,3585,3708,4047,4226,5198,6095,6281,6553
participant_5_CURRENTGOLD,500,0,35,70,319,32,211,33,350,115,379,502,624,250,415,237,388,113,285,408,447,191,83,980,101,183
participant_5_LEVEL,1,1,1,2,4,4,5,5,5,6,6,6,6,7,7,7,7,8,8,8,9,9,10,11,11,11
participant_5_MINIONSKILLED,0,0,1,5,13,18,22,22,30,32,38,38,38,45,48,48,50,52,52,52,59,63,63,63,67,67
participant_5_KILLS,0,0,0,0,0,0,0,0,0,0,0,0,0,0,0,0,0,1,2,2,2,2,2,2,2,3
participant_5_BUY,[],"[1036, 2003, 2003, 2003, 3340]",[],[],[],[1053],[],[1036],[],[3144],[],[1052],[],[1052],[],[],[],"[3145, 3146, 1001]",[],"[3020, 1029]",[1029],[],[],[],[],"[3191, 2420, 1052]"
participant_5_SOLD,[],[],[],[2003],[2003],[1036],[],[2003],[],"[1053, 1036]",[],[],[],[],[],[],[],"[1052, 1052, 3144, 3145]",[],[1001],[],[],[],[],[],"[1029, 1029]"
participant_5_UNDO,[],[],[],[],[],[],[],[],[],[],[],[],[],[],[],[],[],[],[],[],[],[],[],[],[],"[[0, 2420]]"
participant_6_GOLD,500,500,621,1018,1318,1440,1698,1990,2317,2440,2747,3366,3524,3646,3999,4355,4499,4653,5109,5499,5803,6283,6645,7689,8035,8241
participant_6_CURRENTGOLD,500,0,121,518,818,215,473,765,1092,1215,1522,2141,74,196,549,905,199,353,809,1199,403,883,1245,1599,370,576
participant_6_LEVEL,1,1,2,3,4,4,4,5,5,6,6,7,7,7,7,8,8,8,9,10,10,11,11,12,12,12
participant_6_MINIONSKILLED,0,0,0,0,0,0,0,0,0,0,0,0,0,0,0,1,2,2,14,17,24,36,36,40,49,54
participant_6_KILLS,0,0,0,0,0,0,0,0,0,0,0,0,0,0,0,0,0,1,1,1,1,1,1,1,1,1
participant_6_BUY,[],"[1055, 2003]",[],[],[],[],[],[3070],[],[],[],[],[],[3004],[],[],[3009],[3133],[1036],[],[1036],[],[3134],[],[3142],[1042]
participant_6_SOLD,[],[],[],"[2010, 2003]",[],[2010],[],[],[2010],[],[],[],[],[3070],[],[],[2422],[],[],[],[],[],"[1036, 1036]",[],"[3133, 3134]",[]
participant_6_UNDO,[],[],[],[],[],[],[],[],[],[],[],[],[],[],[],[],[],[],[],[],[],[],[],[],[],[]
participant_7_GOLD,500,500,584,825,990,1189,1518,1682,1867,2104,2268,2541,2719,2876,3020,3163,3328,4462,5002,5167,5289,5461,5673,5837,6071,6493
participant_7_CURRENTGOLD,500,0,84,325,490,139,468,282,467,354,518,356,534,256,400,543,708,612,1152,217,39,211,423,587,821,308
participant_7_LEVEL,1,1,1,3,4,5,5,6,7,7,7,8,8,8,9,9,9,10,10,10,10,11,11,11,11,12
participant_7_MINIONSKILLED,0,0,3,9,11,15,24,26,30,34,37,37,40,42,43,44,47,50,56,59,59,62,63,66,68,68
participant_7_KILLS,0,0,0,0,0,0,0,0,0,0,0,0,0,0,1,1,1,2,2,2,3,3,3,3,3,3
participant_7_BUY,[],"[1056, 2003, 2003, 3340]",[],[],[],[],[],"[1052, 2055]",[],[1028],[],[],[],"[1027, 1004]",[],[],"[1026, 3850]",[3116],[],[1052],[3158],[],[],[1026],[1027],[]
participant_7_SOLD,[],[],[],[2010],[2003],"[2003, 2010]",[],[2010],[],[2055],[],[],[],[],[],[],"[1004, 1056]","[1027, 1026, 1052, 1028]",[],[],[2422],[],[],[3850],[],[]
participant_7_UNDO,[],[],[],[],[],[],[],[],[],[],[],[],[],[],[],[],[],[],[],[],[],[],[],[],[],[]
participant_8_GOLD,500,500,542,754,1023,1217,1473,1595,1836,2108,2263,2604,2911,3075,3539,3781,3910,4903,5176,5372,5631,5913,6059,6350,6512,6787
participant_8_CURRENTGOLD,500,0,42,254,523,717,973,245,486,758,913,1254,1561,175,639,881,410,303,226,422,331,613,359,650,112,87
participant_8_LEVEL,1,1,1,2,3,4,5,5,5,6,6,7,7,7,8,8,8,9,9,10,10,10,11,11,11,12
participant_8_MINIONSKILLED,0,0,1,6,11,15,22,22,29,35,36,45,55,57,64,66,66,67,73,77,80,85,86,91,92,96
participant_8_KILLS,0,0,0,0,0,0,0,0,0,0,0,1,1,1,1,1,1,1,1,1,1,1,1,2,2,2
participant_8_BUY,[],"[1041, 2031]",[],[],[],"[3715, 2055, 3364]",[],[],[],[],[],[],"[1412, 1001, 1042]",[],[],[],"[3006, 1036]",[],[],[],"[3134, 1036]",[],[],[3133],"[3142, 1036, 1036, 1037]",[]
participant_8_SOLD,[],[],[],[],[],"[1041, 3340]",[],[],[2055],[],[],[],[3715],[],[],[],"[1001, 1042]",[],[],[],[1036],[],[],"[1036, 2031]","[3133, 3134]",[]
participant_8_UNDO,[],[],[],[],[],[],[],[],[],[],[],[],[],[],[],[],[],[],[],[],[],[],[],[],"[[0, 1036], [0, 1036]]",[]
participant_9_GOLD,500,500,521,678,815,965,1088,1210,1332,1465,1587,1710,1945,2067,2711,2903,3061,3722,3996,4146,4688,4989,5184,5517,5966,6089
participant_9_CURRENTGOLD,500,0,21,178,315,465,588,200,322,55,177,300,535,182,826,1018,174,164,439,153,95,397,591,234,334,456
participant_9_LEVEL,1,1,1,2,2,3,4,4,4,5,5,6,6,6,7,7,8,9,9,9,9,10,10,11,11,11
participant_9_MINIONSKILLED,0,0,0,2,3,5,5,5,5,6,6,6,9,9,10,14,15,18,18,18,22,27,27,34,45,45
participant_9_KILLS,0,0,0,0,0,0,0,0,0,0,0,0,0,0,0,0,0,0,0,0,0,0,1,2,2,2
participant_9_BUY,[],"[1056, 2003, 2003, 3340]",[],"[2003, 2003, 2003]",[],"[1052, 2003, 2003]",[],[1001],[],"[2003, 2003, 1029]",[],[],[],[3145],[],[1029],[],[3191],[],[],[1029],[1052],"[1028, 3152]",[],"[3108, 1029, 1029]",[3082]
participant_9_SOLD,[],[],"[2003, 2003]",[],"[2003, 2003]",[],"[2003, 2003]",[],[2003],[],"[2003, 2003]",[],[],[1052],[],[],[],"[1029, 1029]",[],[],[],[],"[1056, 1029, 3145, 1028]",[],[1052],"[1001, 1029, 1029]"
participant_9_UNDO,[],[],[],[],[],[],[],[],[],[],[],[],[],[],[],[],[],[],[],[],[],[],[],[],[],[]
team0_KILLS,0,0,0,2,2,5,5,6,7,9,10,11,12,13,13,13,14,18,19,22,26,26,31,32,32,36
team0_CURRENTGOLD,2500,0,360,2507,3729,5168,2114,2925,4378,2728,4064,3897,2695,4330,5159,2647,4346,3674,3391,4723,5926,8362,3644,3032,2881,5818
team0_TOTALGOLD,2500,2500,2860,5007,6229,8418,9289,11100,12553,14203,15539,17247,18646,21380,23359,24747,26446,29934,31136,34223,37051,39487,43119,44131,45831,48768
team0_LEVEL,5,5,6,13,17,21,23,28,31,32,35,38,40,43,43,45,48,50,51,54,56,60,62,64,64,66
team0_SBIRES,0,0,9,32,49,64,73,97,120,133,159,179,193,214,230,256,287,299,306,319,333,340,358,360,369,377
team1_KILLS,0,0,0,0,0,0,0,0,0,0,0,1,1,1,2,2,2,5,6,6,7,7,8,10,10,11
team1_CURRENTGOLD,2500,0,303,1345,2465,1568,2713,1525,2717,2497,3509,4553,3328,1059,2829,3584,1879,1545,2911,2399,1315,2295,2701,4050,1738,1610
team1_TOTALGOLD,2500,2500,2803,3995,5115,6028,7173,7995,9187,10117,11129,12608,13608,14414,16184,17239,17986,21153,22868,23892,25458,26872,28759,31488,32865,34163
team1_LEVEL,5,5,6,12,17,20,23,25,26,30,30,34,34,35,38,39,40,44,45,47,48,51,53,56,56,58
team1_SBIRES,0,0,5,22,38,53,73,75,94,107,117,126,142,153,165,173,180,189,213,223,244,273,275,294,321,330
delta_KILLS,0,0,0,2,2,5,5,6,7,9,10,10,11,12,11,11,12,13,13,16,19,19,23,22,22,25
delta_CURRENTGOLD,0,0,57,1162,1264,3600,-599,1400,1661,231,555,-656,-633,3271,2330,-937,2467,2129,480,2324,4611,6067,943,-1018,1143,4208
delta_TOTALGOLD,0,0,57,1012,1114,2390,2116,3105,3366,4086,4410,4639,5038,6966,7175,7508,8460,8781,8268,10331,11593,12615,14360,12643,12966,14605
delta_LEVEL,0,0,0,1,0,1,0,3,5,2,5,4,6,8,5,6,8,6,6,7,8,9,9,8,8,8
delta_SBIRES,0,0,4,10,11,11,0,22,26,26,42,53,51,61,65,83,107,110,93,96,89,67,83,66,48,47
