name,team0,team1
win,Win,Fail
firstBlood,True,False
firstTower,True,False
firstInhibitor,False,False
firstBaron,False,False
firstDragon,True,False
firstRiftHerald,True,False
towerKills,3,0
inhibitorKills,0,0
baronKills,0,0
dragonKills,2,0
riftHeraldKills,1,0
