name,team0,team1
win,Win,Fail
firstBlood,False,True
firstTower,False,True
firstInhibitor,True,False
firstBaron,True,False
firstDragon,False,True
firstRiftHerald,False,True
towerKills,9,3
inhibitorKills,2,0
baronKills,1,0
dragonKills,2,2
riftHeraldKills,1,1
