name,team0,team1
win,Fail,Win
firstBlood,True,False
firstTower,True,False
firstInhibitor,True,False
firstBaron,False,True
firstDragon,False,True
firstRiftHerald,False,True
towerKills,7,10
inhibitorKills,1,1
baronKills,0,1
dragonKills,1,5
riftHeraldKills,0,1
