name,frame_0,frame_1,frame_2,frame_3,frame_4,frame_5,frame_6,frame_7,frame_8,frame_9,frame_10,frame_11,frame_12,frame_13,frame_14,frame_15,frame_16,frame_17,frame_18,frame_19,frame_20,frame_21,frame_22,frame_23,frame_24,frame_25,frame_26,frame_27,frame_28,frame_29,frame_30,frame_31
nameStamp,Tstart,Tearly,Tearly,Tearly,Tearly,Tearly,Tearly,Tearly,Tearly,Tearly,Tearly,Tearly,Tearly,Tearly,Tearly,Tearly,Tmid,Tmid,Tmid,Tmid,Tmid,Tmid,Tmid,Tmid,Tmid,Tmid,Tmid,Tmid,Tmid,Tmid,Tmid,Tmid
timestamp,0,60020,120022,180059,240085,300104,360113,420115,480138,540169,600201,660209,720217,780224,840226,900234,960243,1020264,1080266,1140286,1200301,1260310,1320319,1380350,1440352,1500355,1560367,1620384,1680409,1740426,1800457,1860457
participant_0_GOLD,500,500,961,1238,1795,2121,2505,2823,3134,3619,4286,4520,5039,5387,5802,6965,7434,7654,8290,8796,9207,9733,10232,11067,11616,12833,13318,14025,14509,14935,15602,16500
participant_0_CURRENTGOLD,500,0,461,38,595,296,680,998,1309,294,961,555,274,622,1037,2200,2669,139,775,331,742,168,668,102,652,1868,2354,3061,3545,3971,817,1475
participant_0_LEVEL,1,1,1,2,4,5,6,6,7,8,9,9,10,10,11,11,12,12,12,13,13,14,14,15,15,15,16,16,16,17,17,17
participant_0_MINIONSKILLED,0,0,1,10,18,27,40,51,59,63,76,83,87,97,105,110,119,125,127,137,148,153,171,173,181,186,190,198,199,211,220,224
participant_0_KILLS,0,0,0,0,0,0,2,3,3,3,3,3,3,3,3,3,3,3,3,3,3,3,3,3,3,3,3,3,3,3,3,3
participant_0_BUY,[],"[3850, 2003, 2003, 3340]",[],[],"[1004, 1004]",[],[],"[3028, 3009]",[2055],[],[],[1052],[],[],"[3174, 1004, 2055, 3364]","[1004, 2055]",[],[],[],"[1082, 3114, 1052]",[],[3113],[],[],[3504],[],[3114],[],[],[3041],[],[]
participant_0_SOLD,[],[],[],[2003],[],[],[2003],"[1004, 1004]",[2055],[],[],[],[],[3850],"[1052, 3028, 3340]",[2055],[],[2055],[],"[1004, 1004]",[],[1052],[3851],[],"[3114, 3113]",[],[],[],[],[1082],[],[]
participant_0_UNDO,[],[],[],[],[],[],[],[],[],[],[],[],[],[],[],[],[],[],[],[],[],[],[],[],[],[],[],[],[],[],[],[]
participant_1_GOLD,500,500,662,963,1277,1589,1860,2013,2405,2726,3038,3171,3398,3620,3843,4295,4967,5254,5597,5954,6640,6989,7259,7831,8052,8493,8855,9239,9638,9889,10160,11017
participant_1_CURRENTGOLD,500,0,162,463,777,1089,1360,88,480,801,1113,71,298,520,293,745,1417,179,522,879,770,1119,1389,1961,402,843,1205,1589,588,839,136,992
participant_1_LEVEL,1,1,2,3,3,4,5,5,5,6,6,6,7,7,7,8,9,9,10,10,11,11,12,12,12,13,13,14,14,14,15,15
participant_1_MINIONSKILLED,0,0,0,0,1,1,3,3,3,3,3,4,5,5,5,5,15,16,16,19,19,19,19,19,19,28,30,30,35,35,38,39
participant_1_KILLS,0,0,0,0,0,0,0,0,0,0,0,0,0,0,0,0,1,1,1,1,2,2,2,3,3,3,3,3,3,3,3,5
participant_1_BUY,[],"[1039, 2031, 3340]",[],[],[],[],[],"[3751, 3706, 1028, 2055, 3364, 1001]",[],[],[],"[1401, 2055]",[],[],[1033],[],[],"[3111, 3010, 2055]",[],[],"[1057, 2055]",[],[],[],"[3001, 1029, 1029]",[],[],[],"[3076, 3082]",[],"[3075, 2055]",[]
participant_1_SOLD,[],[],[],[],[],[],[],"[1039, 3340, 2055]",[],[],[],"[1028, 3706]",[2055],[],[],[],[],"[1001, 1033]",[2055],[],[],[],[],[2055],"[3010, 1057]",[],[],[],"[1029, 1029]",[],"[3076, 3082]",[]
participant_1_UNDO,[],[],[],[],[],[],[],"[[0, 3751]]",[],[],[],[],[],[],[],[],[],[],[],[],[],[],[],[],[],[],[],[],[],[],[],[]
participant_2_GOLD,500,500,562,783,1057,1452,1979,2300,2464,2762,2905,3119,3668,3895,4109,4515,5915,6278,6526,6872,7356,7786,8035,8207,8712,8954,9250,10111,10283,10406,10877,11107
participant_2_CURRENTGOLD,500,0,62,283,257,652,79,400,114,412,555,419,968,1195,309,715,2115,1578,426,772,1256,1686,1935,187,692,384,680,141,314,436,907,157
participant_2_LEVEL,1,1,1,2,4,5,6,7,7,8,8,8,9,9,9,10,11,11,11,12,12,13,13,13,14,14,14,15,15,15,15,16
participant_2_MINIONSKILLED,0,0,2,8,14,27,32,40,42,52,53,59,71,77,83,90,99,109,113,119,126,135,142,142,144,144,144,155,155,155,155,155
participant_2_KILLS,0,0,0,0,0,0,1,1,1,1,1,1,1,1,1,1,3,3,3,3,3,3,3,3,3,3,3,4,4,4,4,4
participant_2_BUY,[],"[1055, 2003, 3340]",[],[],[1042],[],"[3006, 1042]",[],"[1042, 2003, 2003, 2003]",[],[],[1036],[],[],[3086],[],[],[3046],"[1038, 2003, 2003]",[],[],[],[],[3031],[],[1053],[],"[3133, 1029, 1029]",[],[],[],[3105]
participant_2_SOLD,[],[],[],[2003],[],[],[1042],[],[],[2003],[2003],[],[],[],"[1042, 2003]",[],[],"[1042, 3086]",[],[],[],[],[2003],"[1055, 1038]",[2003],[1036],[],[],[],[],[],[1029]
participant_2_UNDO,[],[],[],[],[],[],[],[],[],[],[],[],[],[],[],[],[],[],[],[],[],[],[],[],[],[],[],"[[0, 1029]]",[],[],[],[]
participant_3_GOLD,500,500,583,853,976,1295,1891,2334,2674,2909,3289,3522,4273,4660,4798,5170,5543,6346,6552,6823,7949,8142,8445,9352,9781,10506,10739,11270,12192,12579,13430,14089
participant_3_CURRENTGOLD,500,0,83,353,26,345,941,84,424,659,1039,1272,2023,2410,65,437,210,1013,1219,390,416,609,912,919,548,1273,887,1417,2339,126,978,1456
participant_3_LEVEL,1,1,1,2,2,3,4,5,5,6,6,7,7,8,8,9,9,9,10,10,11,11,11,12,12,13,13,14,14,14,15,15
participant_3_MINIONSKILLED,0,0,3,12,12,20,32,39,48,55,66,71,85,95,96,104,104,115,116,122,130,134,140,140,150,163,165,176,180,183,191,191
participant_3_KILLS,0,0,1,1,2,2,2,2,2,3,4,4,5,5,5,7,7,7,8,8,8,9,9,10,11,14,14,15,15,15,16,18
participant_3_BUY,[],"[1055, 2003, 3340]",[],"[1036, 1036]",[],"[3133, 2055, 2031]",[],[],[],"[3067, 1028, 1036, 1036, 1036, 1036]",[],"[3134, 1029]","[3047, 3111]",[],[],[],[],"[3142, 3044, 3105]",[],[3071],[],[3133],[],[3812],[],[],[],[],[],[],"[3026, 3052]",[]
participant_3_SOLD,[],[],[2003],[],[],"[1036, 1036]",[],[2055],[],[],[],"[1036, 1036, 2031]","[1029, 2422, 2422]",[],[],[],[],"[3133, 3134, 1029]",[],"[3044, 3067]",[],[],[],"[3105, 3133]",[],[],[],[],[],[],[1055],[]
participant_3_UNDO,[],[],[],[],[],[],[],[],[],"[[0, 1036], [0, 1036], [0, 1028]]",[],[],"[[0, 3047]]",[],[],[],[],[],[],[],[],[],[],[],[],[],[],[],[],[],[],[]
participant_4_GOLD,500,500,537,717,888,1037,1997,2491,2650,2800,2978,3143,3397,3740,3881,4230,4599,4790,5104,5438,5622,5829,6029,6550,6915,7348,7488,7949,8306,8491,8810,9485
participant_4_CURRENTGOLD,500,0,37,217,138,287,1247,291,375,525,703,433,687,1030,106,255,624,815,1129,128,312,104,304,825,540,973,313,774,1131,266,585,1260
participant_4_LEVEL,1,1,1,2,2,3,4,5,5,6,6,6,7,7,7,8,9,9,9,9,9,10,10,11,11,12,12,12,13,13,13,14
participant_4_MINIONSKILLED,0,0,0,0,1,1,1,1,2,2,3,3,3,5,6,7,7,8,12,13,15,17,17,19,20,22,22,25,25,25,27,27
participant_4_KILLS,0,0,0,0,0,0,0,0,0,0,0,0,1,1,1,1,1,1,1,1,2,2,2,4,4,4,4,4,6,7,8,9
participant_4_BUY,[],"[1055, 2003, 3340]",[],[],[1083],[],[],"[3044, 2003]",[],[],[],[],[],[],[3078],[],"[1001, 1042]",[],[],"[3086, 3020, 1042]",[3086],[],[],[3046],[1018],[],[1018],[],[],[3031],[],[]
participant_4_SOLD,[],[],[],[],[2003],[],[],[],[],[2003],[],[],[],[],[3044],[],[],[],[],"[1042, 1001]",[1042],[],[],"[1042, 3086]",[],[],[1083],[],[],[1018],[],[]
participant_4_UNDO,[],[],[],[],[],[],[],[],[],[],[],[],[],[],[],[],[],[],[],"[[0, 3086]]",[],[],[],[],[],[],[],[],[],[],[],[]
participant_5_GOLD,500,500,576,797,1315,1591,1714,1969,2531,2766,3205,4219,4726,5281,5590,6062,6312,7509,7731,8001,8327,8524,8912,9484,9844,10016,10570,10983,11465,11845,12595,12688
participant_5_CURRENTGOLD,500,0,76,297,260,536,44,299,861,396,835,199,706,1261,70,107,357,39,261,531,287,485,872,159,519,191,746,1158,276,56,805,433
participant_5_LEVEL,1,1,1,3,4,4,5,5,7,7,8,9,10,11,11,11,11,12,13,13,13,13,14,14,14,15,15,16,16,16,17,17
participant_5_MINIONSKILLED,0,0,3,9,12,18,18,25,34,40,55,67,77,85,92,92,96,111,111,120,129,129,140,140,150,150,167,172,180,191,202,202
participant_5_KILLS,0,0,0,0,0,0,0,0,0,1,1,2,2,2,2,2,2,2,2,2,3,3,3,3,3,4,4,5,5,5,5,5
participant_5_BUY,[],"[1055, 2003, 3340]",[],[2003],"[1042, 1042]",[2031],[],[],[],"[3006, 1042]",[],[],[3086],[],[],"[3046, 1036]",[],[],[],[1038],[],[1018],[],[1037],[],"[3031, 1036]",[],[1053],[1036],[],[],[3133]
participant_5_SOLD,[],[],[2003],[],[2003],[],[],[],[],[1042],[],[],[1042],[],[],"[1042, 3086]",[],[],[],[2031],[],[],[],[1036],[],"[1038, 1037, 1018]",[],[1036],[],[],[],[1036]
participant_5_UNDO,[],[],[],[],[],[],[],[],[],[],[],[],[],[],[],[],[],[],[],[],[],[],[],[],[],[],[],[],[],[],[],[]
participant_6_GOLD,500,500,620,1033,1376,1980,2262,2586,2941,3384,3633,3916,4585,5048,5270,5649,6342,6633,6791,7116,7670,7877,8071,8399,8674,8846,9084,9291,9755,9983,10348,10440
participant_6_CURRENTGOLD,500,0,120,533,876,130,337,661,1016,1459,1708,691,1360,1823,320,699,1392,358,516,841,295,502,288,616,541,714,261,468,583,735,1100,382
participant_6_LEVEL,1,1,2,3,4,5,5,6,6,7,8,8,9,9,10,10,11,11,11,11,12,12,12,13,13,13,13,13,14,14,14,14
participant_6_MINIONSKILLED,0,0,0,0,0,0,0,4,6,6,9,10,10,14,14,15,19,19,20,22,22,22,26,26,31,31,31,31,34,41,43,43
participant_6_KILLS,0,0,0,0,0,0,0,0,0,0,0,1,1,1,1,1,1,1,1,1,1,2,2,2,2,2,2,2,2,2,2,2
participant_6_BUY,[],"[1055, 2003, 3340]",[],[],[],"[1037, 1001]",[1042],[],[],[],[],[],[],[],"[3031, 3006]",[],"[2015, 1042]",[],[],[3086],[],[],[],"[3094, 1018, 1042]",[],[],[],[1038],[],[3095],[],[]
participant_6_SOLD,[],[],[],[],[],[],[],[],[],[2003],[],[],[],[],"[1037, 1001, 1042]",[],[],[],[],[1042],[],[],[],"[3086, 2015]",[],[],[],[1055],[],"[1038, 1018, 1042]",[],[]
participant_6_UNDO,[],[],[],[],[],[],[],[],[],[],[],[],[],[],[],[],[],[],[],[],[],[],[],[],[],[],[],[],[],[],[],[]
participant_7_GOLD,500,500,590,927,1190,1482,1626,1874,2184,2713,2849,3702,4030,4348,4784,5027,5227,5658,5816,6238,6794,7105,7228,7476,7774,8217,8409,9064,9371,9529,10057,10150
participant_7_CURRENTGOLD,500,0,90,377,40,182,326,574,884,313,449,1302,530,848,1284,277,477,908,1066,248,804,315,438,56,354,22,214,319,276,434,963,0
participant_7_LEVEL,1,1,1,3,4,4,5,5,6,7,7,8,8,9,10,10,10,10,10,11,11,12,12,12,12,12,13,13,14,14,14,14
participant_7_MINIONSKILLED,0,0,4,14,22,22,23,30,38,40,41,52,55,60,69,73,75,86,87,100,104,115,115,123,128,128,132,137,138,140,153,153
participant_7_KILLS,0,0,0,0,2,2,2,3,3,3,3,3,3,3,3,3,4,4,4,4,4,4,4,4,4,4,4,4,4,4,4,4
participant_7_BUY,[],"[3854, 2003, 2003, 3340]",[],[],[],"[3117, 2055]",[2055],[1029],[],[],[],[],"[3105, 1029, 1027, 2055, 3364]",[],"[3050, 2055]",[],"[3801, 2055]",[],[],[3114],[],"[3107, 2055]",[],"[1029, 2055]","[2055, 2055]",[],[],[1033],[],[],[],[3105]
participant_7_SOLD,[],[],[],"[2010, 2003]",[2003],"[2010, 2055]",[],"[2055, 2010]",[],[],[],[],"[1029, 3340]",[],"[2055, 3854, 3105, 1027, 1029]",[2055],[],[2055],[],[],[3855],"[3114, 3801]",[2055],[],[2055],[],[2055],[2055],[],[],[],"[1033, 1029]"
participant_7_UNDO,[],[],[],[],[],[],[],[],[],[],[],[],[],[],[],[],[],[],[],[],[],[],[],[],[],[],[],[],[],[],[],[]
participant_8_GOLD,500,500,562,920,1680,1837,2064,2330,2640,2959,3335,4273,4560,4928,5296,6004,6346,6858,7031,7384,7855,8600,8876,9245,9529,9778,10165,10482,10809,11153,11507,11600
participant_8_CURRENTGOLD,500,0,62,420,1180,162,89,355,665,984,1360,2298,2585,2953,296,1004,346,858,1031,284,755,1500,1776,545,830,1078,1465,663,989,534,887,800
participant_8_LEVEL,1,1,1,2,3,3,4,5,5,6,7,7,7,8,8,9,9,10,10,10,11,11,11,12,12,12,13,13,13,13,14,14
participant_8_MINIONSKILLED,0,0,2,13,22,24,30,35,43,54,66,77,82,94,100,116,116,130,132,143,149,154,159,165,165,168,179,186,193,197,203,203
participant_8_KILLS,0,0,0,0,1,1,1,1,2,2,2,3,3,4,4,5,5,6,6,6,6,6,6,7,7,7,7,7,7,7,8,8
participant_8_BUY,[],"[2003, 1054, 3340]",[],[],"[1052, 1006, 2055]",[],"[1052, 3145]",[],[],"[1036, 1036]",[],[3146],[],[],"[3020, 1028]",[1052],[],"[3136, 1026]",[],[],[3151],[],[],"[1026, 1052]",[],[2139],[],[],[3135],"[1029, 1029]",[],[]
participant_8_SOLD,[],[],[],[],"[2003, 1006]",[2055],"[1052, 1052]",[],[],[],[],"[1036, 1036, 3145]",[],[],[],[],[],"[1028, 1052]",[],[1054],"[1054, 3136, 1026]",[],[],[],[],[],[],[2139],"[1026, 1052]",[],[],[]
participant_8_UNDO,[],[],[],[],[],[],[],[],[],[],[],[],[],[],[],[],[],[],[],"[[1054, 0]]",[],[],[],[],[],[],[],[],[],[],[],[]
participant_9_GOLD,500,500,543,759,1515,1680,1836,2270,2418,2588,2855,3325,3539,3756,4076,4517,5008,5360,5501,5731,6166,6382,6582,6723,6863,7003,7183,7323,7493,7724,7932,8038
participant_9_CURRENTGOLD,500,0,43,259,1015,135,216,350,498,668,935,1405,94,311,56,497,263,615,756,186,621,112,312,78,68,208,388,78,248,479,687,413
participant_9_LEVEL,1,1,1,2,3,3,4,4,4,5,6,6,7,7,7,8,8,8,8,9,9,9,10,10,10,10,10,10,10,11,11,11
participant_9_MINIONSKILLED,0,0,1,3,4,6,7,7,8,10,14,16,16,17,19,21,21,24,24,25,27,27,29,29,29,29,30,30,31,32,33,33
participant_9_KILLS,0,0,0,0,0,1,1,1,1,1,1,1,2,3,3,3,3,3,3,3,3,3,3,3,3,3,3,3,4,4,4,4
participant_9_BUY,[],"[1039, 2031, 3340]",[],[],[],"[3706, 1036, 1036]",[2055],[],[],[],[],"[1400, 1001, 2055]",[],[],"[3057, 3009, 2055]",[],[],"[3044, 2055, 3364]",[],[],[3101],[],"[3078, 2055]",[],[1036],[],[3134],[],[1036],[2055],[],[3133]
participant_9_SOLD,[],[],[],[],[],[1039],[],[2055],[],[],[],"[1036, 1036, 3706]",[],[2055],"[1001, 2055]",[3340],[3513],[3340],[2055],[],[],[],"[3101, 3057, 3044]",[],[],[],"[2031, 1036]",[],[],[],[2055],[1036]
participant_9_UNDO,[],[],[],[],[],[],[],[],[],[],[],[],[],[],[],[],[],[],[],[],[],[],[],[],[],[],[],[],[],[],[],[]
team0_KILLS,0,0,1,1,2,2,5,6,6,7,8,8,10,10,10,12,15,15,16,16,18,19,19,23,24,27,27,29,31,32,34,39
team0_CURRENTGOLD,2500,0,805,1354,1793,2669,4307,1861,2702,2691,4371,2750,4250,5777,1810,4352,7035,3724,4071,2500,3496,3686,5208,3994,2834,5341,5439,6982,7917,5638,3423,5340
team0_TOTALGOLD,2500,2500,3305,4554,5993,7494,10232,11961,13327,14816,16496,17475,19775,21302,22433,25175,28458,30322,32069,33883,36774,38479,40000,43007,45076,48134,49650,52594,54928,56300,58879,62198
team0_LEVEL,5,5,6,11,15,20,25,28,29,34,35,36,40,41,42,46,50,50,52,54,56,59,60,63,64,67,68,71,72,73,75,77
team0_SBIRES,0,0,6,30,46,76,108,134,154,175,201,220,251,279,295,316,344,373,384,410,438,458,489,493,514,543,551,584,594,609,631,636
team1_KILLS,0,0,0,0,3,4,4,5,6,7,7,10,11,13,13,14,15,16,16,16,17,18,18,19,19,20,20,21,22,22,23,23
team1_CURRENTGOLD,2500,0,391,1886,3371,1145,1012,2239,3924,3820,5287,5895,5275,7196,2026,2584,2835,2778,3630,2090,2762,2914,3686,1454,2312,2213,3074,2686,2372,2238,4442,2028
team1_TOTALGOLD,2500,2500,2891,4436,7076,8570,9502,11029,12714,14410,15877,19435,21440,23361,25016,27259,29235,32018,32870,34470,36812,38488,39669,41327,42684,43860,45411,47143,48893,50234,52439,52916
team1_LEVEL,5,5,6,13,18,19,23,25,28,32,36,38,41,44,46,48,49,51,52,54,56,57,59,61,61,62,64,65,67,68,70,70
team1_SBIRES,0,0,10,39,60,70,78,101,129,150,185,222,240,270,294,317,327,370,374,410,431,447,469,483,503,506,539,556,576,601,634,634
delta_KILLS,0,0,1,1,-1,-2,1,1,0,0,1,-2,-1,-3,-3,-2,0,-1,0,0,1,1,1,4,5,7,7,8,9,10,11,16
delta_CURRENTGOLD,0,0,414,-532,-1578,1524,3295,-378,-1222,-1129,-916,-3145,-1025,-1419,-216,1768,4200,946,441,410,734,772,1522,2540,522,3128,2365,4296,5545,3400,-1019,3312
delta_TOTALGOLD,0,0,414,118,-1083,-1076,730,932,613,406,619,-1960,-1665,-2059,-2583,-2084,-777,-1696,-801,-587,-38,-9,331,1680,2392,4274,4239,5451,6035,6066,6440,9282
delta_LEVEL,0,0,0,-2,-3,1,2,3,1,2,-1,-2,-1,-3,-4,-2,1,-1,0,0,0,2,1,2,3,5,4,6,5,5,5,7
delta_SBIRES,0,0,-4,-9,-14,6,30,33,25,25,16,-2,11,9,1,-1,17,3,10,0,7,11,20,10,11,37,12,28,18,8,-3,2
