name,frame_0,frame_1,frame_2,frame_3,frame_4,frame_5,frame_6,frame_7,frame_8,frame_9,frame_10,frame_11,frame_12,frame_13,frame_14,frame_15,frame_16,frame_17,frame_18,frame_19,frame_20,frame_21,frame_22,frame_23,frame_24,frame_25
nameStamp,Tstart,Tearly,Tearly,Tearly,Tearly,Tearly,Tearly,Tearly,Tearly,Tearly,Tearly,Tearly,Tearly,Tmid,Tmid,Tmid,Tmid,Tmid,Tmid,Tmid,Tmid,Tmid,Tend,Tend,Tend,Tend
timestamp,0,60017,120023,180031,240048,300059,360076,420083,480104,540117,600135,660148,720170,780188,840203,900218,960231,1020242,1080272,1140285,1200304,1260319,1320341,1380358,1440369,1500397
participant_0_GOLD,500,500,541,726,1196,1479,1972,2286,2743,2922,3044,3382,4025,4147,4804,4989,5438,5560,6885,7008,7439,7925,8521,9091,9466,10085
participant_0_CURRENTGOLD,500,0,41,226,46,29,522,336,793,972,94,432,625,347,1004,56,505,277,1602,175,606,342,288,858,358,977
participant_0_LEVEL,1,1,1,2,4,4,6,6,7,8,8,8,9,9,10,10,10,10,12,12,12,13,13,14,14,15
participant_0_MINIONSKILLED,0,0,1,4,14,20,24,33,49,52,52,61,62,62,71,74,86,86,104,104,110,113,119,125,133,141
participant_0_KILLS,0,0,0,0,0,0,0,0,0,0,0,0,0,0,0,0,0,0,0,0,0,0,0,0,0,0
participant_0_BUY,[],"[1056, 2003, 3340, 2003]",[],[],[1052],[],[],[3802],[],[1026],[],[],"[6655, 1033]",[],[3111],[],[1052],[],[],[4632],[],[],"[3108, 3102]",[],[1058],[]
participant_0_SOLD,[],[],[],[],[],[],[],"[2010, 1052]",[],[2003],[],[],"[2010, 3802, 1026]",[],"[1033, 2422]",[2003],[],[],[],[1052],[],[],"[2010, 3108, 4632]",[],[],[]
participant_0_UNDO,[],[],[],[],[],[],[],[],[],[],[],[],[],[],[],[],[],[],[],[],[],[],[],[],[],[]
participant_1_GOLD,500,500,636,1012,1533,1760,2053,2273,2715,3135,3269,3527,4076,4317,4828,5050,5244,5549,5949,6350,6527,6975,7097,7349,7897,8856
participant_1_CURRENTGOLD,500,0,136,512,1033,160,453,673,1115,1535,269,102,641,882,1393,265,59,364,764,1165,167,615,162,414,962,1921
participant_1_LEVEL,1,1,2,3,3,4,4,5,6,6,6,7,7,8,9,9,9,10,10,10,11,12,12,12,12,13
participant_1_MINIONSKILLED,0,0,0,0,0,0,0,0,0,0,0,1,6,6,12,12,13,14,23,27,27,27,27,27,28,33
participant_1_KILLS,0,0,0,0,0,0,1,1,1,1,1,1,2,2,2,2,2,2,3,3,3,3,4,4,4,4
participant_1_BUY,[],"[2031, 2033, 3340]",[],[],"[1036, 1029]",[1001],[],[3047],[],[],"[3057, 1042]",[],[3051],[1028],[],[3078],[],[1036],[],"[3077, 1036]",[],"[3133, 1036]",[3074],[],[1037],[]
participant_1_SOLD,[],[2031],[],[2010],[],[2010],[],"[1001, 1029]",[2010],[],[],[],"[1042, 1036]",[],[],"[3057, 3051, 1028]",[],[],[],[],[],"[1036, 1036]","[3077, 1036, 3133]",[],[],[]
participant_1_UNDO,[],[],[],[],[],[],[],[],[],[],[],[],[],[],[],[],[],[],[],[],[],[],[],[],[],[]
participant_2_GOLD,500,500,597,954,1253,1508,2018,2294,2639,2867,3052,3419,4534,4845,4968,5349,5522,5644,6078,6312,6490,7271,7625,8583,8932,9444
participant_2_CURRENTGOLD,500,0,97,444,308,563,1063,474,809,187,372,739,154,465,238,619,357,479,913,382,560,1341,395,1353,452,964
participant_2_LEVEL,1,1,1,3,4,5,6,6,7,7,8,8,8,8,9,9,9,9,10,10,10,11,12,13,13,14
participant_2_MINIONSKILLED,0,0,4,16,26,34,44,53,63,69,73,79,82,93,93,105,105,105,108,110,113,121,125,137,140,144
participant_2_KILLS,0,0,0,2,2,2,2,2,2,2,2,3,3,3,3,3,3,3,3,3,3,3,3,3,3,3
participant_2_BUY,[],"[3858, 2003, 2003, 3340]",[],[],"[3114, 2055]",[1001],[],[],[],[1026],[],[],"[3504, 1004, 2055, 3364]",[],[],[],"[3158, 1052, 2055, 2055]",[],"[4642, 2055]",[],[],[],[6617],[],"[3114, 2055, 2055]",[]
participant_2_SOLD,[],[],[],[],[],[2003],[2055],[],[],[],[3858],[2003],"[3114, 1026, 3340]",[2055],[],[],"[1001, 3859, 2055]",[],"[1004, 1052]",[],[2055],[2055],[4642],[],[],[2055]
participant_2_UNDO,[],[],[],[],[],[],[],[],[],[],[],[],[],[],[],[],[],[],[],[],[],[],[],[],[],[]
participant_3_GOLD,500,500,583,1321,1486,1798,2103,2470,3143,3390,3864,4322,4808,5022,5403,6522,7193,8134,8530,9418,9979,12205,12327,15026,15638,16984
participant_3_CURRENTGOLD,500,0,83,821,136,448,303,670,1343,715,1189,2,488,102,483,1602,373,94,490,178,740,1265,87,2786,799,2145
participant_3_LEVEL,1,1,1,2,3,3,4,5,5,6,6,7,7,7,8,9,9,10,10,11,12,13,13,14,14,15
participant_3_MINIONSKILLED,0,0,3,19,21,30,40,51,61,68,80,87,97,102,112,123,133,136,144,155,173,177,177,185,190,201
participant_3_KILLS,0,0,0,0,0,0,0,0,1,1,1,1,1,1,1,3,3,4,4,5,5,8,8,13,14,16
participant_3_BUY,[],"[1055, 2003, 3340]",[],[],"[1036, 1036, 2031]",[1042],[1083],[],[],[1037],[],"[6670, 1018, 6672]",[],"[1001, 1042]",[],[],"[3006, 6677, 1018, 3363]",[3124],[],[3086],[],[3046],[1038],[],"[3072, 2140]",[]
participant_3_SOLD,[],[],[],[2003],[],[],[],[],[],[],[],"[1036, 1036, 1083, 2031, 6670, 1018, 1037]",[],[],[],[],"[1001, 1042, 3340]","[1055, 6677, 1018]",[],[],[],[3086],[],[],"[1038, 2140]",[]
participant_3_UNDO,[],[],[],[],[],"[[0, 1042]]",[],[],[],[],[],"[[2031, 0]]",[],[],[],[],[],[],[],[],[],[],[],[],[],[]
participant_4_GOLD,500,500,522,1412,1569,1787,1953,2153,2541,2697,3009,3524,3715,3921,4164,4709,4951,5214,5553,5799,5989,6654,6877,7727,8055,8522
participant_4_CURRENTGOLD,500,0,22,912,194,112,278,478,866,172,484,999,215,421,664,1209,266,529,428,674,864,1529,102,952,330,797
participant_4_LEVEL,1,1,1,2,3,3,4,5,5,6,6,7,7,7,8,9,9,9,10,10,10,12,12,13,13,14
participant_4_MINIONSKILLED,0,0,0,3,4,6,8,9,12,13,15,16,16,20,22,24,27,28,32,38,39,39,39,39,39,39
participant_4_KILLS,0,0,0,0,1,1,1,1,1,1,1,1,1,1,1,1,1,1,1,1,1,1,1,1,1,3
participant_4_BUY,[],"[1035, 3364, 2031, 3340]",[3364],[],[],[3134],[],[],[],[],"[3133, 1001]","[1036, 2055]",[],[],[],"[6691, 1036]",[3134],[],[],[],"[1037, 1029]",[],"[3047, 2055]",[],[],[]
participant_4_SOLD,[],[3364],[3340],[],[],[],[],[],[],[1035],[],[],[],[2055],[],"[3134, 3133]","[1036, 1036]",[],[],[],[],[],"[1001, 1029, 2055]",[],[],[]
participant_4_UNDO,[],[],[],[],[],[],[],[],[],[],[],[],[],[],[],[],[],[],[],[],[],[],[],[],[],[]
participant_5_GOLD,500,500,583,859,1004,1629,1920,2161,2332,2546,3528,3798,4457,4729,5277,5959,6236,6938,7060,7620,7967,8340,8462,8653,8957,9080
participant_5_CURRENTGOLD,500,0,83,359,154,779,1070,211,382,596,1578,298,957,129,677,1359,261,963,210,770,1117,1490,37,228,457,580
participant_5_LEVEL,1,1,1,3,3,5,6,6,7,7,8,9,10,10,10,11,11,12,12,13,13,14,14,14,14,14
participant_5_MINIONSKILLED,0,0,3,12,13,23,33,40,43,49,60,69,73,73,83,94,100,112,112,128,134,137,137,137,143,143
participant_5_KILLS,0,0,0,0,0,1,1,1,1,1,2,2,3,3,4,4,4,5,5,5,5,5,5,5,5,5
participant_5_BUY,[],"[1055, 3340, 2003]",[],[],[1036],[],[],"[3134, 1036]",[],[],[],[3181],[],[3006],[],[],"[6670, 3364, 2055]",[],[1037],[],[],[],"[6671, 1036]",[],[2055],[]
participant_5_SOLD,[],[],[],[2003],[],[],[],[1036],[],[],[],"[3134, 1036]",[],[],[],[],[3340],[2055],[],[],[],[],"[6670, 1037]",[],[],[]
participant_5_UNDO,[],[],[],[],[],[],[],[],[],[],[],[],[],[],[],[],[],[],[],[],[],[],[],[],[],[]
participant_6_GOLD,500,500,620,1017,1453,2256,2654,2911,3238,3641,4632,5234,5686,6108,6521,6978,8111,8494,8716,9193,9681,10237,10360,10576,10831,11008
participant_6_CURRENTGOLD,500,0,120,517,953,1756,2154,136,463,866,1857,726,1178,60,473,930,2063,2446,193,320,808,1365,262,78,333,511
participant_6_LEVEL,1,1,2,3,4,5,5,6,6,7,8,8,9,9,10,10,11,12,12,12,13,13,13,14,14,14
participant_6_MINIONSKILLED,0,0,0,0,0,1,1,1,1,1,3,3,3,3,3,3,3,3,3,3,3,6,6,6,11,11
participant_6_KILLS,0,0,0,0,0,1,1,1,1,1,3,4,5,6,6,6,8,8,9,10,10,11,11,11,11,11
participant_6_BUY,[],"[1035, 2031, 3340]",[],[],[],[],[],"[3051, 3057, 1028, 2055]",[],[],[],"[3078, 1001, 1029]",[],"[3047, 3133]",[],[],[],[],"[6333, 3364, 1028, 2055]",[1036],[],[],"[3044, 1037]",[1028],[],[]
participant_6_SOLD,[],[],[],[],[],[],[],[],"[2055, 1035]",[],[],"[3057, 3051, 1028]",[],"[2031, 1001, 1029]",[],"[3340, 3513]",[],[],"[3133, 3340, 2055]",[],[],[],"[1028, 1036]",[],[],[]
participant_6_UNDO,[],[],[],[],[],[],[],[],[],[],[],[],[],[],[],[],[],[],[],[],[],[],[],[],[],[]
participant_7_GOLD,500,500,583,870,1120,1487,1645,2071,2395,3079,3415,4079,4555,5020,5536,5939,6395,6680,6976,7389,7974,8410,8532,8654,9041,9253
participant_7_CURRENTGOLD,500,0,83,360,610,967,255,671,985,389,725,1379,605,1070,241,644,1100,70,366,779,1364,950,572,94,481,43
participant_7_LEVEL,1,1,1,3,4,5,5,6,7,8,8,9,9,10,10,11,12,12,12,12,13,13,13,13,13,14
participant_7_MINIONSKILLED,0,0,3,10,17,29,31,46,55,67,71,77,90,92,104,114,123,123,129,138,145,153,153,153,161,162
participant_7_KILLS,0,0,0,0,0,1,1,1,1,1,1,1,1,1,1,1,1,2,2,2,2,3,3,3,3,3
participant_7_BUY,[],"[3070, 2003, 2003, 3340]",[],"[2003, 2003]",[],[],"[3057, 1036, 2003, 2003]",[],[],[],"[3051, 1028]",[],[],[],"[3078, 1036]",[1036],[],[],"[3004, 3363]",[1029],[],[3047],"[1036, 1036]",[],[],[1037]
participant_7_SOLD,[],[],[],"[2003, 2003, 2010]",[2003],[2010],[],[],[2010],[],[1036],[],[],[2003],"[3057, 3051, 1028]",[],[],[2003],"[3070, 1036, 1036, 3340]",[],[],"[1029, 2422, 3004]",[],[],[],[2003]
participant_7_UNDO,[],[],[],[],[],[],[],[],[],[],[],[],[],[],[],[],[],[],[],[],[],[],"[[0, 1036]]",[],[],[]
participant_8_GOLD,500,500,597,789,1067,1760,1904,2302,2626,2959,3237,3627,3979,4518,4788,5051,5521,6125,6317,6572,7018,7499,7621,7744,8021,8326
participant_8_CURRENTGOLD,500,0,97,189,467,1160,154,552,876,1209,337,727,1079,1618,405,318,788,1392,84,39,485,466,238,361,638,68
participant_8_LEVEL,1,1,1,2,2,3,3,4,5,6,6,6,7,7,8,8,9,9,9,10,10,10,10,10,11,11
participant_8_MINIONSKILLED,0,0,4,8,17,26,27,40,48,60,66,69,73,85,94,99,113,117,121,125,131,132,132,132,136,146
participant_8_KILLS,0,0,0,0,0,0,0,0,0,1,1,2,2,3,3,3,3,4,4,4,5,5,5,5,5,5
participant_8_BUY,[],"[2033, 3340]",[],[],[],[],"[1052, 1052]",[],[],"[3145, 3020]",[],[],"[1026, 1028]",[],"[3152, 1052]",[],[],"[3191, 3113]",[],[],[],[1026],[3057],[3100],[],[2420]
participant_8_SOLD,[],[],[],[],[],[],[],[],[],"[1052, 1052]",[],[],[],[],"[3145, 1028, 1026]",[],[],[1052],[],[],[],[],[2033],"[3057, 3113, 1026]",[],[]
participant_8_UNDO,[],[],[],[],[],[],[],[],[],[],[],[],[],[],[],[],[],[],[],[],[],[],[],[],[],[]
participant_9_GOLD,500,500,564,698,971,1297,1432,1674,1877,2254,2499,3015,3355,3547,3752,3977,4168,4414,4597,4737,5138,5879,6019,6434,6574,6715
participant_9_CURRENTGOLD,500,0,64,198,471,797,132,374,27,394,639,55,385,577,782,1007,1198,1444,427,567,969,859,999,54,194,335
participant_9_LEVEL,1,1,1,2,3,4,4,5,5,6,6,7,7,8,8,8,8,9,9,9,10,10,10,10,10,11
participant_9_MINIONSKILLED,0,0,2,2,7,9,9,12,13,16,19,19,22,24,25,27,27,27,29,29,31,31,31,31,31,31
participant_9_KILLS,0,0,0,0,0,0,0,0,0,0,0,1,1,1,1,1,1,1,1,1,1,2,2,3,3,3
participant_9_BUY,[],"[3854, 2003, 2003]",[],[],[],[],"[1001, 1028, 2003, 2003]",[],"[3067, 2055, 2055]",[],[],"[1033, 3111, 1029]",[],[],[],[],[],[],[3105],[],[],"[3190, 1029, 2055, 2055, 3364]",[],"[3024, 3067]",[],[]
participant_9_SOLD,[],[],[],"[2003, 2003]",[],"[2010, 2010]",[],[],"[2003, 2003, 2010, 1028]","[2055, 2419]",[3854],"[2055, 2423, 1001, 1033]",[],[],[],[],[],[],[1029],[],[3855],"[3067, 3105, 3340]",[2055],"[1029, 2424]",[2055],[]
participant_9_UNDO,[],[],[],[],[],[],[],[],[],[],[],[],[],[],[],[],[],[],[],[],[],[],[],[],[],[]
team0_KILLS,0,0,0,2,3,3,4,4,5,5,5,6,7,7,7,9,9,10,11,12,12,15,16,21,22,26
team0_CURRENTGOLD,2500,0,379,2915,1717,1312,2619,2631,4926,3581,2408,2274,2123,2217,3782,3751,1560,1743,4197,2574,2937,5092,1034,6363,2901,6804
team0_TOTALGOLD,2500,2500,2879,5425,7037,8332,10099,11476,13781,15011,16238,18174,21158,22252,24167,26619,28348,30101,32995,34887,36424,41030,42447,47776,49988,53891
team0_LEVEL,5,5,6,12,17,19,24,27,30,33,34,37,38,39,44,46,46,48,52,53,55,61,62,66,66,71
team0_SBIRES,0,0,8,42,65,90,116,146,185,202,220,244,263,283,310,338,364,369,411,434,462,477,487,513,530,558
team1_KILLS,0,0,0,0,0,3,3,3,3,4,7,10,12,14,15,15,17,20,21,22,23,26,26,27,27,27
team1_CURRENTGOLD,2500,0,447,1623,2655,5459,3765,1944,2733,3454,5136,3185,4204,3454,2578,4258,5410,6315,1280,2475,4743,5130,2108,815,2103,1537
team1_TOTALGOLD,2500,2500,2947,4233,5615,8429,9555,11119,12468,14479,17311,19753,22032,23922,25874,27904,30431,32651,33666,35511,37778,40365,40994,42061,43424,44382
team1_LEVEL,5,5,6,13,16,22,23,27,30,34,36,39,42,44,46,48,51,54,54,56,59,60,60,61,62,64
team1_SBIRES,0,0,12,32,54,88,101,139,160,193,219,237,261,277,309,337,366,382,394,423,444,459,459,459,482,493
delta_KILLS,0,0,0,2,3,0,1,1,2,1,-2,-4,-5,-7,-8,-6,-8,-10,-10,-10,-11,-11,-10,-6,-5,-1
delta_CURRENTGOLD,0,0,-68,1292,-938,-4147,-1146,687,2193,127,-2728,-911,-2081,-1237,1204,-507,-3850,-4572,2917,99,-1806,-38,-1074,5548,798,5267
delta_TOTALGOLD,0,0,-68,1192,1422,-97,544,357,1313,532,-1073,-1579,-874,-1670,-1707,-1285,-2083,-2550,-671,-624,-1354,665,1453,5715,6564,9509
delta_LEVEL,0,0,0,-1,1,-3,1,0,0,-1,-2,-2,-4,-5,-2,-2,-5,-6,-2,-3,-4,1,2,5,4,7
delta_SBIRES,0,0,-4,10,11,2,15,7,25,9,1,7,2,6,1,1,-2,-13,17,11,18,18,28,54,48,65
