name,team0,team1
win,Fail,Win
firstBlood,False,True
firstTower,False,True
firstInhibitor,False,True
firstBaron,False,False
firstDragon,False,True
firstRiftHerald,False,True
towerKills,0,8
inhibitorKills,0,1
baronKills,0,0
dragonKills,0,3
riftHeraldKills,0,2
