name,frame_0,frame_1,frame_2,frame_3,frame_4,frame_5,frame_6,frame_7,frame_8,frame_9,frame_10,frame_11,frame_12,frame_13,frame_14,frame_15,frame_16,frame_17,frame_18,frame_19,frame_20,frame_21,frame_22,frame_23,frame_24,frame_25,frame_26,frame_27,frame_28,frame_29,frame_30,frame_31,frame_32,frame_33
nameStamp,Tstart,Tearly,Tearly,Tearly,Tearly,Tearly,Tearly,Tearly,Tearly,Tearly,Tearly,Tearly,Tearly,Tearly,Tearly,Tmid,Tmid,Tmid,Tmid,Tmid,Tmid,Tmid,Tmid,Tmid,Tmid,Tmid,Tmid,Tmid,Tmid,Tmid,Tmid,Tmid,Tmid,Tend
timestamp,0,60014,120027,180060,240086,300103,360108,420110,480115,540116,600120,660161,720187,780216,840241,900269,960276,1020297,1080326,1140350,1200377,1260392,1320406,1380416,1440429,1500436,1560461,1620461,1680471,1740482,1800510,1860542,1920550,1980550
participant_0_GOLD,500,500,562,720,1043,1723,1937,2206,2496,3011,3260,3487,3672,4026,4148,4348,4520,4987,5109,5336,5691,6819,7451,7667,7853,8317,8781,8976,10551,11133,11603,12047,13053,13078
participant_0_CURRENTGOLD,500,0,62,220,543,1223,62,331,621,36,285,512,697,1051,373,573,745,112,234,460,816,1944,2576,92,278,742,1206,1401,2976,3558,1929,1272,2278,2303
participant_0_LEVEL,1,1,1,2,3,5,5,6,7,8,8,9,9,10,10,10,10,11,11,11,11,13,13,13,13,14,14,14,16,16,17,17,18,18
participant_0_MINIONSKILLED,0,0,2,4,13,27,32,41,50,56,64,70,74,81,81,86,86,86,86,88,99,115,120,122,126,142,158,161,177,195,207,207,214,214
participant_0_KILLS,0,0,0,0,1,1,1,1,1,1,1,1,1,1,1,1,1,1,1,1,2,2,2,2,2,2,2,2,2,2,2,2,2,2
participant_0_BUY,[],"[1082, 2031, 3340]",[],[],"[1052, 1001]",[],[3145],[],[1028],[],[],[3067],[],[3152],[],[],[3020],[],[1029],[],"[3191, 1052]",[],[],[3113],[],[],"[1026, 3108]",[],[],[3157],[],[],[],[]
participant_0_SOLD,[],[],[],[],[],[],[1052],[],[],[],[],[1028],[],"[3145, 3067]",[],[],[1001],[],[],[],[1029],[],[],"[1052, 1082]",[],[],[],[],[],"[3191, 3108]",[],[],[],[]
participant_0_UNDO,[],[],[],[],[],[],[],[],[],[],[],[],[],[],[],[],[],[],[],[],[],[],[],[],[],[],"[[0, 1026]]",[],[],[],[],[],[],[]
participant_1_GOLD,500,500,620,948,1085,1454,1788,2010,2452,2760,3085,3240,3467,3874,4002,4124,4392,4535,4742,4865,5232,5405,5662,5871,5994,6337,6494,6716,7036,7286,7805,7978,8320,8366
participant_1_CURRENTGOLD,500,0,120,448,585,954,1288,185,27,335,660,815,1042,1449,177,299,567,60,267,315,82,180,437,196,48,392,549,771,351,601,1120,323,665,621
participant_1_LEVEL,1,1,2,3,3,4,5,5,5,6,6,6,7,7,7,7,8,8,8,8,9,9,9,9,10,10,11,11,12,12,13,13,13,13
participant_1_MINIONSKILLED,0,0,0,0,1,1,2,2,2,2,3,3,3,3,3,3,7,8,8,8,8,8,8,9,9,15,17,17,17,20,29,32,32,33
participant_1_KILLS,0,0,0,0,0,1,1,1,1,2,2,2,2,2,2,2,2,3,3,3,3,4,4,4,4,4,4,4,5,5,5,6,7,7
participant_1_BUY,[],"[1054, 2003, 3340]",[],[],[],[],"[3077, 2003]",[],[],"[1001, 3006]",[],[],[],[],[1018],[],[],[3133],[],[],[],[],[],"[3508, 1038]",[],[],[],[],[],[],[3031],[3101],[],[]
participant_1_SOLD,[],[],[],[],[],[],[],[],[2003],[1001],[],[],[],[],[],[],[2003],[],[],[],[],[],[],"[3133, 1018]",[],[],[],[],[],[],[1038],[],[],[]
participant_1_UNDO,[],[],[],[],[],[],[],[],[],[],[],[],[],[],[],[],[],[],[],[],[],[],[],[],[],[],[],[],[],[],[],[],[],[]
participant_2_GOLD,500,500,611,885,1422,1761,1989,2251,2394,2636,2903,3152,3415,3621,3772,3922,4137,4322,4594,4717,5764,6091,6333,6497,6724,6942,7113,7529,7689,7888,8073,8197,8369,8395
participant_2_CURRENTGOLD,500,0,111,385,187,526,139,401,144,386,653,502,765,321,472,622,37,222,194,317,129,456,698,587,814,1032,303,719,879,178,363,487,659,545
participant_2_LEVEL,1,1,1,3,4,5,5,6,6,7,7,8,8,9,9,9,9,10,10,10,10,11,11,11,11,12,12,12,13,13,13,13,13,13
participant_2_MINIONSKILLED,0,0,5,11,12,22,28,36,37,44,48,56,61,66,68,70,73,77,77,77,77,86,90,93,95,95,98,111,111,116,120,120,120,120
participant_2_KILLS,0,0,0,0,0,0,0,0,0,1,2,5,5,6,6,6,6,6,6,6,6,6,6,7,7,9,9,9,12,12,12,12,14,14
participant_2_BUY,[],"[1055, 2003, 3340]",[],[],[],[],[],"[3134, 1001]",[],"[1036, 2003]",[],"[3133, 1042, 2003]",[],"[3142, 3006, 1036, 1036]",[3134],[],[],[],[3133],[],[],[],[3147],[],[3067],[],[3044],[],[],"[3071, 1038, 1037]",[],[],[3031],[]
participant_2_SOLD,[],[],[],[2003],[],[],[],[],[],[],[],"[1036, 2003]",[],"[3133, 3134, 1001, 1042]","[1036, 1036]",[],[2003],[],[],[],[],[],"[3134, 3133]",[],[],[],[],[],[],"[3044, 3067, 1055]",[],[],"[1038, 1037]",[]
participant_2_UNDO,[],[],[],[],[],[],[],[],[],[],[],[],[],[],[],[],[],[],[],[],[],[],[],[],[],[],[],[],[],[],[],[],[],[]
participant_3_GOLD,500,500,562,846,1155,1438,1659,1917,2259,2796,3368,4671,5039,5543,5775,6093,6373,6805,6983,7154,7276,7483,7881,8383,8640,9497,9619,10088,12606,12999,13246,13523,14295,14321
participant_3_CURRENTGOLD,500,0,62,346,655,938,1159,17,359,496,1068,1271,1639,243,75,393,673,1105,183,354,476,683,381,883,340,1197,69,539,3056,504,752,1028,576,421
participant_3_LEVEL,1,1,1,2,3,4,5,5,5,6,7,7,8,8,8,9,9,10,10,10,10,11,11,11,11,12,12,12,13,13,13,13,14,14
participant_3_MINIONSKILLED,0,0,2,11,19,25,30,35,39,43,43,47,54,60,63,74,76,84,87,91,91,93,96,101,108,113,113,120,127,134,137,142,142,142
participant_3_KILLS,0,0,0,0,0,0,0,0,1,1,1,1,1,1,1,1,1,1,1,1,1,1,1,1,1,1,1,1,1,1,1,1,1,1
participant_3_BUY,[],"[1041, 2031, 3340]",[],[],[],[],[],"[1036, 1036, 1006, 3077]","[1001, 1029]",[],[],[],[],[],"[3117, 3047, 1028, 3751]",[],[],[3706],[],[2055],[1401],[2055],[],[1033],[1057],[],[],[],"[1031, 1028, 3067]",[],[],[1011],[],[]
participant_3_SOLD,[],[],[],[],[],[],[],"[1036, 1006, 1036]",[],[],[],[],[],[3340],"[1001, 1001, 1029, 1028]",[3513],[],[1041],[],[2055],"[3751, 3706]",[],[],[],[1033],[],[],[],"[2031, 1028]",[],[],[2055],[],[]
participant_3_UNDO,[],[],[],[],[],[],[],[],[],[],[],[],[],[],"[[0, 3117]]",[],[],[],[],[],[],[],[],[],[],[],[],[],"[[0, 1031]]",[],[],[],[],[]
participant_4_GOLD,500,500,543,713,869,1087,1222,1391,1595,1730,1885,2573,2890,3168,3303,3525,3715,3856,4316,4456,5167,5378,5569,5817,6008,6284,6446,6686,7114,7296,7437,7578,7789,7818
participant_4_CURRENTGOLD,500,0,43,213,69,287,422,591,795,155,85,773,1090,1368,128,350,465,156,616,756,1467,278,119,367,108,384,546,136,564,96,237,378,589,618
participant_4_LEVEL,1,1,1,2,3,3,4,5,5,5,6,7,7,8,8,8,8,9,9,9,10,10,10,10,10,11,11,11,12,12,12,12,13,13
participant_4_MINIONSKILLED,0,0,1,3,4,6,6,8,12,12,13,16,19,20,20,25,25,25,25,25,25,26,26,28,30,30,31,33,34,36,36,36,36,36
participant_4_KILLS,0,0,0,0,0,0,0,0,0,0,0,0,0,0,0,0,0,0,1,1,2,2,2,2,2,2,2,2,2,2,2,2,2,2
participant_4_BUY,[],"[3858, 2003, 3340, 2003]",[],[],[1001],[],[],[],[],"[1029, 1028, 2055]","[2055, 1006]",[],[],[],"[3024, 3801, 3117, 2055]",[],"[3364, 2055]",[1033],[],[],[],"[3800, 1029]",[3105],[],[1033],[],[],[3190],[],[3801],[],[],[],[]
participant_4_SOLD,[],[],[],"[2003, 2003]",[],[],[],[],[],[],[2055],[],[2055],[],"[1029, 1028, 1006, 1001, 2055]",[3858],[3340],[],[],[],[],"[3024, 3801]","[1033, 1029]",[],[],[],[],"[3105, 1033]",[],[3859],[],[],[],[]
participant_4_UNDO,[],[],[],[],[],[],[],[],[],[],[],[],[],[],[],[],[],[],[],[],[],[],[],[],[],[],[],[],[],[],[],[],[],[]
participant_5_GOLD,500,500,590,769,1018,1238,1487,1714,2010,2175,2416,2719,3030,3292,3616,3934,4263,4498,4727,4988,5224,5360,5596,5858,6100,6520,6746,6939,7390,7513,7635,7848,8891,8916
participant_5_CURRENTGOLD,500,0,90,269,518,303,252,479,775,75,316,619,930,1192,216,534,863,98,277,538,774,410,246,13,255,675,236,429,880,153,275,488,781,766
participant_5_LEVEL,1,1,1,3,4,4,5,6,7,7,8,8,9,9,10,11,11,11,12,12,12,12,12,12,13,13,13,13,14,14,14,14,15,15
participant_5_MINIONSKILLED,0,0,4,7,14,17,24,30,36,39,46,53,64,72,77,84,92,95,95,99,103,104,108,109,113,115,117,118,124,124,124,125,125,125
participant_5_KILLS,0,0,0,0,0,0,0,0,0,0,1,1,1,1,2,2,2,2,3,3,4,4,4,4,4,4,4,4,4,4,4,4,5,5
participant_5_BUY,[],"[1039, 2031, 3340]",[],[],[],[3706],[],[],[3751],[],[],[],"[1401, 1001, 1029]",[],[],"[3047, 3076]",[],[],[],[],"[3075, 1028]",[],[1011],[],[],[3801],[3067],[],[],[],"[3083, 1057, 1028]",[],[],[]
participant_5_SOLD,[],[],[],[],[],[1039],[],[],[],[],[],[],"[3751, 3706]",[],[],"[1001, 1029]",[],[],[],[],[3076],[],[1028],[],[],[],[2031],[],[],[],"[1011, 3067, 3801]",[],[],[]
participant_5_UNDO,[],[],[],[],[],[],[],[],[],[],[],[],[],[],[],[],[],[],[],[],[],[],[],[],[],[],[],[],[],[],[],[],[],[]
participant_6_GOLD,500,500,620,1018,1255,1377,1625,1881,2178,2301,3013,3295,3502,4039,4867,4990,5333,5913,6844,6966,7378,7726,8009,8356,8715,9217,9440,9643,10271,10620,10947,11165,12268,12463
participant_6_CURRENTGOLD,500,0,120,518,755,227,475,731,128,251,963,1245,252,789,1617,240,583,1163,2094,2216,328,676,359,706,1065,917,400,604,1232,1580,387,606,1708,1843
participant_6_LEVEL,1,1,2,3,4,4,5,5,5,5,6,6,7,7,8,8,9,10,11,11,11,12,12,12,12,13,13,13,14,14,14,15,16,16
participant_6_MINIONSKILLED,0,0,0,0,1,1,1,4,4,4,4,8,8,8,10,10,10,24,27,27,27,27,27,27,29,29,29,29,29,29,29,29,29,29
participant_6_KILLS,0,0,0,0,1,1,1,1,2,2,2,2,2,3,3,3,3,3,3,3,3,4,4,6,6,6,7,7,9,9,9,10,12,13
participant_6_BUY,[],"[1036, 2031]",[],[],"[1052, 2055, 1001]",[],[],[],"[3145, 1053, 2055]",[],[3144],[],[],[],[],[],"[3146, 3020, 1029, 2420]",[],[3108],[],[],[],[],[],[],"[3165, 3157, 3916]",[],[],[3165],[],[],[],[],"[1058, 1058]"
participant_6_SOLD,[],[],[],[],[],[],[],[],"[1052, 1036]",[],[1053],[],[],[],[],[],"[3144, 3145, 1001]",[2055],[],[],[],[],[],[2420],[],"[3108, 2421]",[],[],[3916],[],[],[],[],[2031]
participant_6_UNDO,[],[],[],[],"[[0, 2055]]",[],[],[],[],[],[],[],[],[],[],[],"[[0, 1029]]",[],[],[],[],[],[],[],[],"[[0, 3165]]",[],[],[],[],[],[],[],[]
participant_7_GOLD,500,500,576,804,1371,1612,1927,2175,2666,2959,3267,3418,3814,4549,5024,5507,5685,6136,6378,6710,7274,7695,8108,8920,9259,9431,10119,10462,11443,11606,11826,12319,13396,13721
participant_7_CURRENTGOLD,500,0,76,304,136,377,692,940,191,484,92,243,639,1374,1849,2332,360,811,153,485,1049,1470,1883,2695,3034,206,895,1237,819,981,1201,1695,2771,596
participant_7_LEVEL,1,1,1,3,4,5,6,6,7,7,8,8,9,9,10,10,10,10,11,11,11,12,12,12,13,13,13,14,14,14,14,14,15,16
participant_7_MINIONSKILLED,0,0,3,8,14,21,30,37,40,47,52,54,66,74,81,89,92,94,98,106,106,110,117,120,125,125,133,136,138,138,144,144,145,145
participant_7_KILLS,0,0,0,0,0,0,0,0,0,0,0,0,0,0,0,0,0,0,0,0,0,0,0,0,0,0,0,0,0,0,0,0,1,1
participant_7_BUY,[],"[1056, 2003, 2003, 3340]",[],[],[],"[1001, 1052]",[1001],[],[],"[3108, 1042, 2003, 2003]",[],[],[],[],"[3101, 1042, 2003, 2003, 2003, 2003]",[],[],[3115],[2003],[],[],[3006],[1028],"[1052, 2003, 2003]",[],[],[3136],[],[],[1026],[],[],[3151],[]
participant_7_SOLD,[],[],[],[],[],[2003],[],[2003],[],[1052],[],[],[2003],[],[1042],[],[],"[2003, 3101, 3108]",[],[2003],"[2003, 2003]","[1001, 1042]",[],"[2003, 2003]",[],[2003],"[1028, 1052]",[2003],[],[],[],[],"[3136, 1026]",[]
participant_7_UNDO,[],[],[],[],[],"[[0, 1001]]",[],[],[],[],[],[],[],[],[],[],[],[],[],[],[],[],[],[],[],[],[],[],[],[],[],[],[],[]
participant_8_GOLD,500,500,562,920,1218,1592,2005,2176,2653,3133,3775,4214,4441,5577,7144,7323,8070,8632,9255,9455,9737,10394,10924,11407,12018,13367,13655,14315,15231,15398,15819,16201,16698,16724
participant_8_CURRENTGOLD,500,0,62,420,718,1092,1505,76,553,1033,1675,214,391,1527,419,598,1345,682,1305,1505,87,744,374,857,68,1417,1706,2366,861,529,950,1332,129,-26
participant_8_LEVEL,1,1,1,2,3,4,4,5,5,6,7,7,7,8,9,9,9,10,10,11,11,11,12,12,12,13,13,14,14,14,15,15,16,16
participant_8_MINIONSKILLED,0,0,2,13,23,35,49,52,54,75,81,91,97,106,112,115,126,130,135,139,139,145,155,164,167,176,178,187,192,192,201,212,212,212
participant_8_KILLS,0,0,0,0,0,0,0,0,0,0,0,0,0,0,0,1,1,1,3,3,4,4,4,5,5,5,5,6,6,6,6,6,6,6
participant_8_BUY,[],"[3850, 2003, 2003, 3340]",[],[],[],[],[],"[1026, 2003, 2055]",[],[],"[1001, 2003, 2003]",[1052],[],[1027],[],[],[3802],[],[],"[3020, 3285, 1028]",[],[],[3916],[],[3041],[3165],[],[],[],[3041],[],[],[],[]
participant_8_SOLD,[],[],[],[],[],[],[],[],"[2003, 2003]",[2055],[],[3850],[],[],[],[],"[2003, 1052, 1027]",[],[2003],"[1001, 3802, 1026, 3851]",[],[],[1028],[],[],[3916],[],[],[],[],[],[],[],[]
participant_8_UNDO,[],[],[],[],[],[],[],"[[0, 2003]]",[],[],[],[],[],[],[],[],[],[],[],[],[],[],[],[],[],"[[0, 3041]]",[],[],[],[],[],[],[],[]
participant_9_GOLD,500,500,537,747,956,1150,1330,1494,1768,1963,2174,2467,2653,2808,3108,3633,3899,4278,5374,5602,6411,6723,7180,7800,8094,8464,8633,9198,9709,9850,9990,10207,10647,10676
participant_9_CURRENTGOLD,500,0,37,247,456,650,830,69,343,538,349,207,393,198,499,1023,774,1153,2249,227,1036,1348,605,1225,119,489,658,1223,334,475,615,832,1272,1301
participant_9_LEVEL,1,1,1,2,3,4,4,5,5,6,6,6,6,7,7,8,8,9,10,10,10,11,11,12,12,12,12,13,14,14,14,14,14,14
participant_9_MINIONSKILLED,0,0,0,0,1,1,1,1,1,1,1,1,2,2,2,2,2,11,13,16,23,26,31,31,32,33,35,36,42,42,42,42,42,42
participant_9_KILLS,0,0,0,0,0,0,0,0,1,1,2,2,2,3,5,5,6,7,7,7,7,8,8,8,9,12,12,13,14,14,14,14,14,14
participant_9_BUY,[],"[2003, 1055, 3340]",[],[],[],[],[],"[1038, 1042]",[],[],[],"[3095, 1042]",[2003],[],"[3006, 1038, 1037]",[],[],[3031],[],[],"[3086, 1042]",[],[3087],[],[3086],[],[],[],"[3094, 3086]",[2140],[],[],"[3046, 2140]",[]
participant_9_SOLD,[],[],[],[],[2010],[2010],[],[2010],[2003],[],[],"[1038, 1042]",[],[],"[1042, 2422]",[2003],[],"[1038, 1037]",[],[],[],[],"[3086, 1042]",[],[],[],[],[],"[3086, 1055]",[2140],[],[],"[3086, 2140]",[]
participant_9_UNDO,[],[],[],[],[],[],[],[],[],[],[],[],[],[],[],[],[],[],[],[],[],[],[],[],[],[],[],[],[],[],[],[],[],[]
team0_KILLS,0,0,0,0,1,2,2,2,3,5,6,9,9,10,10,10,10,11,12,12,14,15,15,16,16,18,18,18,22,22,22,23,26,26
team0_CURRENTGOLD,2500,0,398,1612,2039,3928,3070,1525,1946,1408,2751,3873,5233,4432,1225,2237,2487,1655,1494,2202,2970,3541,4211,2125,1588,3747,2673,3566,7826,4937,4401,3488,4767,4508
team0_TOTALGOLD,2500,2500,2898,4112,5574,7463,8595,9775,11196,12933,14501,17123,18483,20232,21000,22012,23137,24505,25744,26528,29130,31176,32896,34235,35219,37377,38453,39995,44996,46602,48164,49323,51826,51978
team0_LEVEL,5,5,6,12,16,21,24,27,28,32,34,37,39,42,42,43,44,48,48,48,50,54,54,54,55,59,60,60,66,66,68,68,71,71
team0_SBIRES,0,0,10,29,49,81,98,122,140,157,171,192,211,230,235,258,267,280,283,289,300,328,340,353,368,395,417,442,466,501,529,537,544,545
team1_KILLS,0,0,0,0,1,1,1,1,3,3,5,5,5,7,10,11,12,13,16,16,18,20,20,23,24,27,28,30,33,33,33,34,38,39
team1_CURRENTGOLD,2500,0,385,1758,2583,2649,3754,2295,1990,2381,3395,2528,2605,5080,4600,4727,3925,3907,6078,4971,3274,4648,3467,5496,4541,3704,3895,5859,4126,3718,3428,4953,6661,4480
team1_TOTALGOLD,2500,2500,2885,4258,5818,6969,8374,9440,11275,12531,14645,16113,17440,20265,23759,25387,27250,29457,32578,33721,36024,37898,39817,42341,44186,46999,48593,50557,54044,54987,56217,57740,61900,62500
team1_LEVEL,5,5,6,13,18,21,24,27,29,31,35,35,38,40,44,46,47,50,54,55,55,58,59,60,62,64,64,67,70,70,71,72,76,77
team1_SBIRES,0,0,9,28,53,75,105,124,135,166,184,207,237,262,282,300,322,354,368,387,398,412,438,451,466,478,492,506,525,525,540,552,553,553
delta_KILLS,0,0,0,0,0,1,1,1,0,2,1,4,4,3,0,-1,-2,-2,-4,-4,-4,-5,-5,-7,-8,-9,-10,-12,-11,-11,-11,-11,-12,-13
delta_CURRENTGOLD,0,0,13,-146,-544,1279,-684,-770,-44,-973,-644,1345,2628,-648,-3375,-2490,-1438,-2252,-4584,-2769,-304,-1107,744,-3371,-2953,43,-1222,-2293,3700,1219,973,-1465,-1894,28
delta_TOTALGOLD,0,0,13,-146,-244,494,221,335,-79,402,-144,1010,1043,-33,-2759,-3375,-4113,-4952,-6834,-7193,-6894,-6722,-6921,-8106,-8967,-9622,-10140,-10562,-9048,-8385,-8053,-8417,-10074,-10522
delta_LEVEL,0,0,0,-1,-2,0,0,0,-1,1,-1,2,1,2,-2,-3,-3,-2,-6,-7,-5,-4,-5,-6,-7,-5,-4,-7,-4,-4,-3,-4,-5,-6
delta_SBIRES,0,0,1,1,-4,6,-7,-2,5,-9,-13,-15,-26,-32,-47,-42,-55,-74,-85,-98,-98,-84,-98,-98,-98,-83,-75,-64,-59,-24,-11,-15,-9,-8
