name,frame_0,frame_1,frame_2,frame_3,frame_4,frame_5,frame_6,frame_7,frame_8,frame_9,frame_10,frame_11,frame_12,frame_13,frame_14,frame_15,frame_16,frame_17,frame_18,frame_19,frame_20,frame_21,frame_22,frame_23,frame_24,frame_25,frame_26
nameStamp,Tstart,Tearly,Tearly,Tearly,Tearly,Tearly,Tearly,Tearly,Tearly,Tearly,Tearly,Tearly,Tearly,Tearly,Tearly,Tmid,Tmid,Tmid,Tmid,Tmid,Tmid,Tmid,Tmid,Tmid,Tmid,Tmid,Tmid
timestamp,0,60006,120019,180053,240065,300089,360114,420125,480129,540158,600183,660213,720214,780214,840232,900256,960288,1020314,1080346,1140375,1200398,1260408,1320421,1380442,1440461,1500490,1560501
participant_0_GOLD,500,500,541,818,1099,1473,1757,2120,2507,2979,3199,3385,3781,3931,4630,5925,7434,7699,8359,8832,9093,9389,9560,9781,9903,10171,10894
participant_0_CURRENTGOLD,500,0,41,318,599,973,1257,1620,2007,2479,199,35,431,176,875,2170,246,511,1171,244,105,401,173,393,115,384,1106
participant_0_LEVEL,1,1,1,3,4,5,6,6,7,8,8,8,9,9,10,11,11,12,13,13,13,14,14,14,14,14,14
participant_0_MINIONSKILLED,0,0,1,10,17,28,37,48,60,71,77,80,93,95,106,118,125,134,144,145,146,152,155,161,161,165,165
participant_0_KILLS,0,0,0,0,0,0,0,0,0,0,0,0,0,0,0,1,3,3,4,5,5,5,5,5,5,5,6
participant_0_BUY,[],"[1054, 2003]",[],[],[],[],[],[],[],[],"[3051, 3047, 1042]","[1042, 2003]",[],"[3057, 2055, 2003]",[],[],"[3078, 1036, 1036, 3133, 3067]",[],[],[3071],[1028],[],[3066],[],[1028],[],[]
participant_0_SOLD,[],[],[],[],[2003],[],[],[],[],[],[],[1042],[],"[2003, 1042, 1042]",[],[2003],"[3057, 3051, 1036, 1036]",[2055],[],"[3133, 3067]",[],[],[1028],[],[],[],[]
participant_0_UNDO,[],[],[],[],[],[],[],[],[],[],[],"[[1042, 0]]",[],[],[],[],[],[],[],[],[],[],[],[],[],[],[]
participant_1_GOLD,500,500,662,993,1171,1498,1621,1986,2295,2503,2646,2995,3287,3944,4135,4506,5020,6078,6242,6379,6686,6989,7387,7597,7720,7941,8064
participant_1_CURRENTGOLD,500,0,162,493,671,998,71,436,345,553,396,745,1037,1694,135,506,1020,2078,157,294,301,604,1002,1212,635,856,264
participant_1_LEVEL,1,1,2,3,3,4,4,5,5,6,6,6,7,7,8,8,9,10,10,10,10,11,11,12,12,12,12
participant_1_MINIONSKILLED,0,0,0,0,0,0,0,0,0,0,1,2,2,2,10,11,13,15,17,18,18,18,20,21,21,22,22
participant_1_KILLS,0,0,0,0,0,0,0,0,0,0,0,0,0,0,0,0,0,0,0,1,2,2,2,2,2,2,2
participant_1_BUY,[],"[3850, 2003, 2003, 3340]",[],[],[],"[1036, 2055, 2031, 1036]",[],[],[],"[3044, 2055, 3364]",[],[],[1028],[],[3067],[],[],"[3057, 2055]",[],[],"[6632, 1036, 2055, 6632, 3009]",[],[],[],"[1036, 2055]",[],[1036]
participant_1_SOLD,[],[],[],"[2003, 2003]",[],[],[],[],[],"[1036, 3340]",[2055],[],[],[3850],[1028],[],[],[2031],[2055],[],"[3044, 3057, 3067, 3044, 3057, 3067, 2422]",[],[],[],[],[],[3851]
participant_1_UNDO,[],[],[],[],[],"[[0, 2055], [0, 1036]]",[],[],[],[],[],[],[],[],[],[],[],[],[],[],"[[0, 2055], [0, 1036], [0, 6632]]",[],[],[],[],[],[]
participant_2_GOLD,500,500,609,842,1086,1208,1948,2210,2557,2739,2861,3126,3268,3444,3682,4094,4217,4608,4917,5148,5391,5685,5864,6342,6492,6692,7295
participant_2_CURRENTGOLD,500,0,109,332,576,113,843,115,452,634,356,611,678,854,242,654,777,1168,502,733,276,570,749,792,142,342,480
participant_2_LEVEL,1,1,1,3,4,4,5,6,7,7,7,8,8,8,8,9,9,10,10,11,11,11,11,11,11,12,12
participant_2_MINIONSKILLED,0,0,4,7,13,13,20,27,35,38,38,42,43,46,52,60,60,71,80,83,85,90,93,93,94,98,99
participant_2_KILLS,0,0,0,0,0,0,1,1,1,1,1,1,1,1,1,1,1,1,1,1,1,1,1,2,2,2,3
participant_2_BUY,[],"[1056, 2003, 2003, 3340]",[],[],[],"[1052, 2031]",[],"[3145, 1001, 2055]",[],[],[1028],[],[2055],[],[1026],[],[],[],"[4636, 2055]",[],"[3020, 3057]",[],[],[1052],[3020],[],[3108]
participant_2_SOLD,[],[],[],"[2003, 2003]",[],[],[],[1052],[],[],[2055],[],[],[2055],[],[],[],[],"[3145, 1028, 1026]",[],"[2055, 1001]",[],[],[],[1001],[],[1052]
participant_2_UNDO,[],[],[],[],[],[],[],[],[],[],[],[],[],[],[],[],[],[],[],[],"[[0, 3020]]",[],[],[],[],[],[]
participant_3_GOLD,500,500,541,804,1071,1420,1647,1969,2412,2609,2996,3319,3441,3806,4137,4609,5438,5611,5838,6380,6656,7078,7418,7862,7984,8444,8641
participant_3_CURRENTGOLD,500,0,41,304,121,470,697,1019,1462,1659,2046,2369,216,231,562,1034,1863,211,438,180,456,178,518,962,134,594,341
participant_3_LEVEL,1,1,1,2,3,4,4,5,6,6,7,7,7,8,9,9,10,10,10,11,11,12,12,12,12,13,13
participant_3_MINIONSKILLED,0,0,1,9,15,25,31,39,53,57,68,79,79,85,97,109,117,117,123,127,132,132,145,154,154,164,164
participant_3_KILLS,0,0,0,0,0,0,0,0,0,0,0,0,0,1,1,1,1,3,3,3,3,3,3,3,3,3,3
participant_3_BUY,[],"[1039, 3340, 2031]",[],[],[],[],[3145],[],[1028],[],[1001],[],[],[],[4636],[],[],[],"[3020, 1043, 1026, 1052]",[],[1042],[],[],[],[1043],[],[3115]
participant_3_SOLD,[],[],[],[],[],[],[],[],[1039],[],[],[],[],[],"[3145, 1028]",[],[],[],[1001],[],[],[],[],[],[1042],[],"[1043, 1026, 1052]"
participant_3_UNDO,[],[],[],[],[],[],[],[],[],[],[],[],[],[],[],[],[],[],"[[0, 1043]]",[],[],[],[],[],[],[],[]
participant_4_GOLD,500,500,525,703,924,1058,1256,1422,1605,1780,1930,2118,2252,2571,2711,2904,3308,3559,3740,4234,4718,4862,5031,5263,5403,5576,5872
participant_4_CURRENTGOLD,500,0,25,203,424,8,206,372,555,-95,5,193,-123,196,-114,79,483,-31,150,644,-172,-78,91,323,-12,161,107
participant_4_LEVEL,1,1,1,2,3,3,3,4,5,5,5,6,6,6,6,7,8,8,9,9,9,9,10,10,11,11,11
participant_4_MINIONSKILLED,0,0,0,0,0,0,0,0,0,0,1,2,2,3,3,3,5,5,6,7,7,7,7,8,8,9,9
participant_4_KILLS,0,0,0,0,0,0,0,0,0,0,0,0,0,0,0,0,0,0,0,1,1,2,2,2,2,2,2
participant_4_BUY,[],"[3070, 3340, 2003, 2003]",[],[],[1083],[],[],[],[],[],[],[],"[3004, 2055]",[1036],[],[],[],"[3057, 3044, 1001, 2055, 3363]",[],[3067],[],[6632],[],[],"[3158, 1036]",[],[3123]
participant_4_SOLD,[],[],[],"[2003, 2003]",[],[],[],[],[],[],[],[],[3070],[],[],[2055],[],"[1036, 3340]","[3004, 2055]",[],[],"[3044, 3057, 3067]",[],[],[1001],[],[1036]
participant_4_UNDO,[],[],[],[],[],[],[],[],[],[],[],[],[],[],[],[],[],[],[],[],[],[],[],[],[],[],[]
participant_5_GOLD,500,500,583,843,987,1249,1620,1798,2101,2259,2902,3391,3534,4089,4876,5019,5404,5652,5977,6700,6822,7441,8351,9074,9522,9644,10017
participant_5_CURRENTGOLD,500,0,83,343,37,299,670,848,1151,1309,52,541,134,689,1476,219,604,852,1177,1100,82,701,1611,2334,2782,184,557
participant_5_LEVEL,1,1,1,3,3,4,5,6,7,7,8,9,9,10,11,11,11,12,12,12,12,13,13,14,14,14,15
participant_5_MINIONSKILLED,0,0,3,8,9,14,25,28,35,37,42,52,53,68,69,70,81,88,92,92,92,97,117,127,137,137,138
participant_5_KILLS,0,0,0,0,0,0,0,0,0,0,0,0,0,0,0,0,0,0,0,0,0,0,0,0,0,0,0
participant_5_BUY,[],"[1055, 2003]",[],[],[],"[1036, 1036, 1042]",[],[],[],[],[],"[6670, 1037, 1018, 1001]",[2055],[6672],[],[],"[3006, 3363]",[],[],[],"[1038, 1018]",[],[],[1053],[],[],[]
participant_5_SOLD,[],[],[],[2003],[],[],[],[],[],[],[],"[1036, 1042, 1036]",[],"[6670, 1018, 1037]",[2055],[],"[1001, 3340]",[],[],[],[],[],[],[],[],[],[]
participant_5_UNDO,[],[],[],[],[],[],[],[],[],[],[],[],[],[],[],[],[],[],[],[],[],[],[],[],[],[],[]
participant_6_GOLD,500,500,620,1118,1411,1715,2143,2342,2989,3382,4144,4723,5121,5597,6533,6945,7388,7700,8328,8450,10013,10581,10877,11475,12631,12965,14460
participant_6_CURRENTGOLD,500,0,120,618,911,215,218,417,1064,1457,2219,98,496,972,1898,2310,128,440,1068,65,1628,2196,2492,416,1571,265,1761
participant_6_LEVEL,1,1,2,3,4,4,5,6,6,7,8,8,9,10,10,11,11,11,12,12,13,13,14,14,15,15,16
participant_6_MINIONSKILLED,0,0,0,0,2,2,2,2,2,2,6,8,8,9,14,14,14,14,14,14,14,14,15,15,26,26,32
participant_6_KILLS,0,0,0,0,0,0,0,0,0,0,0,0,0,1,1,1,1,2,3,3,3,4,4,4,5,6,7
participant_6_BUY,[],"[1056, 2003, 2003, 3340]",[],[],"[1052, 2031]",[],[],"[1052, 2055]",[],[],"[3802, 1001]",[],[1026],[],[],[],"[6655, 3020, 3363]",[3057],[],[1026],[],"[1026, 3113]",[],[],[],[3100],[]
participant_6_SOLD,[],[],[],[2003],[2003],[],[],[2055],[],[],"[1052, 1052]",[],[],[],[],[],"[3802, 1026, 1001, 3340]",[],[],[],[],[2031],[],[],[],"[3057, 3113, 1026]",[]
participant_6_UNDO,[],[],[],[],[],[],[],[],[],[],[],[],[],[],[],[],[],[],[],[],[],"[[0, 1026]]",[],[],[],[],[]
participant_7_GOLD,500,500,625,920,1106,1361,1638,1837,2182,2473,2772,3105,3410,3916,4934,5203,5560,6132,6838,6961,7215,7812,7997,8428,9164,9648,10187
participant_7_CURRENTGOLD,500,0,125,410,11,256,533,222,557,848,407,740,185,691,1709,1978,285,157,863,136,390,197,382,813,1550,1433,1972
participant_7_LEVEL,1,1,1,3,4,5,5,6,7,7,8,8,9,10,10,10,11,11,12,12,12,12,12,13,14,14,14
participant_7_MINIONSKILLED,0,0,6,13,17,22,31,35,45,55,62,74,81,86,93,102,107,107,112,112,116,116,120,131,137,141,143
participant_7_KILLS,0,0,0,0,0,0,0,0,0,0,0,0,0,1,1,1,1,2,2,2,2,3,3,3,3,3,4
participant_7_BUY,[],"[3858, 2003, 2003, 3340]",[],[],[],"[1052, 1004, 1028, 1001, 2055]",[],[],[],[],[],"[4642, 1028]","[2031, 3364]",[],[],[3067],[],[4005],[3009],[],[],"[3114, 1026]",[],[],[],[],[]
participant_7_SOLD,[],[],[],[],[],[],[],[],[2055],[2003],[],"[3858, 2003, 1004]",[3340],[],[],[1028],[],"[3067, 4642]",[1001],[],[],[],[3859],[],[],[],[]
participant_7_UNDO,[],[],[],[],[],"[[0, 1052], [0, 1028]]",[],[],[],[],[],[],[],[],[],[],[],[],[],[],[],[],[],[],[],[],[]
participant_8_GOLD,500,500,583,962,1246,1581,1931,2263,2620,2967,3323,3654,4071,4427,4691,5093,5307,5492,6172,6805,7002,7363,7806,8115,8373,8654,9197
participant_8_CURRENTGOLD,500,0,83,462,746,81,431,763,1120,1467,1823,79,421,152,416,818,232,417,1097,1730,27,388,831,240,498,779,1322
participant_8_LEVEL,1,1,1,2,3,3,4,5,5,6,7,7,8,8,8,9,9,9,10,10,11,11,12,12,12,13,13
participant_8_MINIONSKILLED,0,0,3,15,24,29,39,51,57,70,79,88,102,107,112,124,129,133,144,159,159,166,174,180,180,187,192
participant_8_KILLS,0,0,0,0,0,0,0,0,0,0,1,1,1,1,3,3,3,3,3,5,5,5,6,6,6,6,6
participant_8_BUY,[],"[1055, 2003, 3340]",[],[],[1054],[],[],[],[],[],"[3044, 1028, 1001, 2003, 2003]",[],"[3067, 2031]",[],[],[6632],[],[],[],[3111],[3077],[],[],[],[],"[3074, 1031]",[]
participant_8_SOLD,[],[],[],[],[2003],[],[],[],[],[],[],"[2003, 2003]",[1028],[],[],"[3044, 3067]",[],[],[],[1001],[2031],[],[],[],[],"[3077, 1055]",[]
participant_8_UNDO,[],[],[],[],[],[],[],[],[],[],[],[],[],[],[],[],[],[],[],[],[],[],[],[],[],[],[]
participant_9_GOLD,500,500,522,759,936,1213,1418,1594,1872,2042,2277,2543,2694,3155,3356,3580,3785,4376,4692,4967,5513,6140,6437,6627,7021,7213,7773
participant_9_CURRENTGOLD,500,0,22,259,436,88,293,469,747,917,1152,218,219,680,881,705,910,651,367,642,1188,165,462,652,1046,1238,1798
participant_9_LEVEL,1,1,1,2,3,3,4,5,5,6,6,6,7,7,7,7,8,8,9,10,10,11,12,12,12,13,13
participant_9_MINIONSKILLED,0,0,0,3,5,6,10,12,13,15,16,19,20,21,21,22,25,25,33,35,36,36,41,41,45,46,46
participant_9_KILLS,0,0,0,0,0,0,0,0,1,1,2,3,3,4,4,4,5,5,6,6,9,9,9,10,12,12,15
participant_9_BUY,[],"[1035, 2031, 3364, 3340]",[],[],[],"[3057, 1001, 3364]","[1036, 2055]",[],[],[],[],"[6632, 1033]",[],[],[],[],"[3111, 1031, 3133, 1037, 3133, 1029]",[],[],"[6333, 1029]",[],[],[],"[3742, 2055]",[],"[3076, 1011]",[]
participant_9_SOLD,[],[3364],[],[],[],[3340],[],[2055],[1035],[],[],"[1036, 3057]",[],"[3364, 3513]",[],[],"[1001, 1033]",[],[],"[1029, 3133, 1037]",[],[],[],[1029],[2055],[2031],[]
participant_9_UNDO,[],[],[],[],[],[],[],[],[],[],[],[],[],[],[],[],"[[0, 3133], [0, 1031]]",[],[],[],[],[],[],[],[],[],[]
team0_KILLS,0,0,0,0,0,0,1,1,1,1,1,1,1,2,2,3,5,7,8,11,12,13,13,14,14,14,16
team0_CURRENTGOLD,2500,0,378,1650,2391,2562,3074,3562,4821,5230,3002,3953,2239,3151,1700,4443,4389,3937,2418,2095,966,1675,2533,3682,1014,2337,2298
team0_TOTALGOLD,2500,2500,2878,4160,5351,6657,8229,9707,11376,12610,13632,14943,16029,17696,19295,22038,25417,27555,29096,30973,32544,34003,35260,36845,37502,38824,40766
team0_LEVEL,5,5,6,13,17,20,22,26,30,32,33,35,37,38,41,44,47,50,52,54,54,57,58,59,60,62,62
team0_SBIRES,0,0,6,26,45,66,88,114,148,166,185,205,219,231,268,301,320,342,370,380,388,399,420,437,438,458,459
team1_KILLS,0,0,0,0,0,0,0,0,1,1,3,4,4,7,9,9,10,12,14,16,19,21,22,23,26,27,32
team1_CURRENTGOLD,2500,0,433,2092,2141,939,2145,2719,4639,5998,5653,1676,1455,3184,6380,6030,2159,2517,4572,3673,3315,3647,5778,4455,7447,3899,7410
team1_TOTALGOLD,2500,2500,2933,4602,5686,7119,8750,9834,11764,13123,15418,17416,18830,21184,24390,25840,27444,29352,32007,33883,36565,39337,41468,43719,46711,48124,51634
team1_LEVEL,5,5,6,13,17,19,23,28,30,33,37,38,42,45,46,48,50,51,55,56,58,60,63,65,67,69,71
team1_SBIRES,0,0,12,39,57,73,107,128,152,179,205,241,264,291,309,332,356,367,395,412,417,429,467,494,525,537,551
delta_KILLS,0,0,0,0,0,0,1,1,0,0,-2,-3,-3,-5,-7,-6,-5,-5,-6,-5,-7,-8,-9,-9,-12,-13,-16
delta_CURRENTGOLD,0,0,-55,-442,250,1623,929,843,182,-768,-2651,2277,784,-33,-4680,-1587,2230,1420,-2154,-1578,-2349,-1972,-3245,-773,-6433,-1562,-5112
delta_TOTALGOLD,0,0,-55,-442,-335,-462,-521,-127,-388,-513,-1786,-2473,-2801,-3488,-5095,-3802,-2027,-1797,-2911,-2910,-4021,-5334,-6208,-6874,-9209,-9300,-10868
delta_LEVEL,0,0,0,0,0,1,-1,-2,0,-1,-4,-3,-5,-7,-5,-4,-3,-1,-3,-2,-4,-3,-5,-6,-7,-7,-9
delta_SBIRES,0,0,-6,-13,-12,-7,-19,-14,-4,-13,-20,-36,-45,-60,-41,-31,-36,-25,-25,-32,-29,-30,-47,-57,-87,-79,-92
