name,frame_0,frame_1,frame_2,frame_3,frame_4,frame_5,frame_6,frame_7,frame_8,frame_9,frame_10,frame_11,frame_12,frame_13,frame_14,frame_15,frame_16,frame_17,frame_18,frame_19,frame_20,frame_21,frame_22,frame_23,frame_24,frame_25,frame_26,frame_27,frame_28,frame_29,frame_30,frame_31
nameStamp,Tstart,Tearly,Tearly,Tearly,Tearly,Tearly,Tearly,Tearly,Tearly,Tearly,Tearly,Tearly,Tearly,Tearly,Tearly,Tearly,Tearly,Tearly,Tmid,Tmid,Tmid,Tmid,Tmid,Tmid,Tmid,Tmid,Tmid,Tmid,Tend,Tend,Tend,Tend
timestamp,0,60002,120031,180036,240048,300050,360068,420068,480069,540075,600077,660079,720086,780094,840101,900125,960147,1020147,1080153,1140155,1200185,1260201,1320220,1380243,1440266,1500274,1560303,1620331,1680345,1740355,1800357,1860385
participant_0_GOLD,500,500,551,958,1102,1511,1882,2485,2858,3065,3420,3751,3999,4474,4811,5748,5976,6217,6869,7076,7769,8453,8741,9272,9423,9699,9957,10514,11205,11738,12227,13410
participant_0_CURRENTGOLD,500,0,51,458,117,526,897,1500,1873,2080,120,451,699,1174,176,1113,1341,317,969,376,1069,1753,441,132,283,559,817,704,1395,604,1092,2275
participant_0_LEVEL,1,1,1,3,3,5,6,6,7,7,8,9,9,10,10,11,11,11,12,12,13,13,13,14,14,14,14,15,16,16,17,17
participant_0_MINIONSKILLED,0,0,2,16,17,31,43,48,60,64,75,83,91,101,110,116,122,129,138,143,153,158,159,159,161,166,166,166,175,176,184,191
participant_0_KILLS,0,0,0,0,1,1,1,3,3,3,4,4,5,5,5,6,6,7,7,7,8,8,9,9,9,9,11,11,11,11,12,14
participant_0_BUY,[],"[2003, 2003, 2003, 1036]",[],[],[],"[2031, 3134]","[2055, 1001, 3364]","[3158, 1036]",[],[3133],[],[1036],[6693],[],[],"[3134, 1036, 1036]",[3179],[],"[1036, 1036]",[2055],[],"[3134, 1028, 1036]",[],[],[],"[3814, 1036, 1036, 2055, 2055]",[],"[3035, 3111]",[3133],[],"[6694, 2055]",[]
participant_0_SOLD,[],[],[],"[2003, 2003, 2003]",[],[1036],[3340],[1001],[],[1036],[],[],"[2055, 3134, 3133]",[],[],"[1036, 2031]","[3134, 1036, 1036]",[],[],[],[2055],"[1036, 1036]",[],[],[],"[1036, 3134, 1028]","[2055, 2055]","[1036, 3158]",[],[],"[3133, 3035, 2055]",[]
participant_0_UNDO,[],[],[],[],[],[],[],[],[],[],[],[],[],[],[],[],[],[],[],[],[],[],[],[],[],"[[0, 1036]]",[],"[[0, 3111], [3158, 0]]",[],[],[],[]
participant_1_GOLD,500,500,630,943,1243,1632,1785,2278,2703,3126,3398,3521,3833,4178,4601,5099,5409,5616,5938,6061,6494,6857,7310,7594,7841,8153,8446,9223,9669,9903,10384,11066
participant_1_CURRENTGOLD,500,0,130,443,743,1132,210,703,28,451,273,96,408,678,1101,1599,1909,116,438,61,494,857,1310,619,866,203,496,398,844,64,545,1226
participant_1_LEVEL,1,1,2,3,3,4,4,5,6,6,7,7,7,8,8,9,9,10,10,10,11,11,12,12,12,13,13,14,15,15,15,16
participant_1_MINIONSKILLED,0,0,0,0,0,0,1,2,2,2,2,2,3,3,3,4,5,5,5,5,6,7,14,15,15,15,15,15,17,17,17,25
participant_1_KILLS,0,0,0,0,0,0,0,1,1,1,1,1,1,1,1,3,3,3,3,3,4,5,5,6,6,6,6,6,7,8,8,10
participant_1_BUY,[],"[1055, 2003, 3340]",[],[],"[1052, 2003]",[],[],[],[],[],"[3145, 1026, 1028, 1001, 2031]",[],[],[],"[3152, 1052]",[],[],"[3020, 3191]",[],[3916],[],[],[3157],[1011],[],[],[],[1026],[],"[4637, 2055]",[],[]
participant_1_SOLD,[],[],[],[],[],[],[2003],[],[],[2003],[1052],[],[],[],"[3145, 1028, 1026]",[],[],"[1001, 1052]",[],[],[],[],[3191],[2031],[],[],[],[1055],[],"[1026, 1011]",[2055],[]
participant_1_UNDO,[],[],[],[],[],[],[],[],[],[],[],[],[],[],[],[],[],[],[],[],[],[],[],[],[],[],[],[],[],[],[],[]
participant_2_GOLD,500,500,583,783,1392,1647,1983,2796,3109,3647,4361,4610,5102,5308,6234,7206,7371,7973,8145,8278,9187,9731,10204,10579,11040,11421,12133,12951,13153,13484,14186,15255
participant_2_CURRENTGOLD,500,0,83,283,882,227,178,41,344,132,836,735,227,433,1349,931,96,698,170,228,1137,532,1004,1379,1841,671,1383,1101,204,535,311,1380
participant_2_LEVEL,1,1,1,3,4,5,6,6,7,7,8,9,9,9,10,10,11,11,11,11,12,13,13,14,14,14,15,16,16,16,17,17
participant_2_MINIONSKILLED,0,0,3,8,16,21,31,36,45,51,56,64,68,73,89,89,92,92,92,93,109,121,121,131,138,149,150,155,156,157,168,173
participant_2_KILLS,0,0,1,1,1,1,2,2,2,2,2,2,2,2,2,2,2,2,2,2,2,2,3,4,4,4,4,4,4,6,6,6
participant_2_BUY,[],"[3854, 2003, 2003, 3340]",[],[],"[1001, 1028, 2055]",[],"[3158, 2055, 2031]",[2055],[],"[6660, 3364]",[],[],[],"[1033, 1029]",[],"[3105, 2055]",[],[3068],[],[],"[1028, 1029]",[],[],"[3066, 1031]",[],[],"[3742, 2055]",[],"[1028, 2055, 2055]",[],"[1011, 1029]",[]
participant_2_SOLD,[],[],[],[2003],[],"[2055, 2003]",[1001],[2055],[],"[1028, 3340]",[],"[2055, 3854]",[],[],[],"[1033, 1029]",[2055],"[6660, 3105, 3855]",[],[],[],[],[],"[1028, 1029]",[],[],"[3066, 1031]",[2055],[2031],[],"[1028, 2055, 2055]",[]
participant_2_UNDO,[],[],[],[],[],[],[],[],[],[],[],[],[],[],[],[],[],[],[],[],[],[],[],[],[],[],[],[],[],[],[],[]
participant_3_GOLD,500,500,707,1086,1564,2239,2511,3290,3705,3827,4062,4922,5123,5455,5855,6229,6463,6760,7626,7749,8233,8913,9483,10294,10702,11124,11897,12927,13710,13870,14747,15665
participant_3_CURRENTGOLD,500,0,207,586,64,739,186,340,755,77,312,1172,173,505,904,229,463,360,1226,473,958,263,833,544,952,1374,2147,278,1060,100,977,1896
participant_3_LEVEL,1,1,1,2,3,4,4,4,5,5,6,6,6,7,8,8,9,9,10,10,10,11,11,12,12,13,13,14,15,15,16,16
participant_3_MINIONSKILLED,0,0,3,15,18,30,30,33,47,47,54,63,64,76,88,99,106,112,122,122,135,146,155,162,174,187,187,199,214,214,228,232
participant_3_KILLS,0,0,0,0,1,2,2,3,3,3,3,4,4,4,4,4,4,4,5,5,5,5,5,6,6,6,8,9,9,9,10,11
participant_3_BUY,[],"[1055, 2003, 3340]",[],[],"[1036, 1036, 1001]",[],"[3134, 1036, 2055]","[1053, 2055]",[],[3006],[],[],[6692],[],[],"[1036, 1036, 1036]",[3134],[3134],[],[1037],[],"[6676, 1036]",[3363],"[3035, 1036]",[],[],[],"[6694, 1038]",[],[3140],[],[]
participant_3_SOLD,[],[],[],[],[2003],[],"[1036, 1036, 2055]",[1036],[],[1001],[],[2055],"[3134, 1053]",[],[],[],"[1036, 1036]","[1036, 1036]",[],[],[],"[3134, 1037]",[3340],"[1036, 1036]",[],[],[],"[1036, 3035]",[],[1055],[],[]
participant_3_UNDO,[],[],[],[],[],[],[],[],[],[],[],[],[],[],[],[],"[[0, 3134]]",[],[],[],[],[],[],[],[],[],[],[],[],[],[],[]
participant_4_GOLD,500,500,943,1159,1464,1842,2276,2557,2802,2947,3081,3509,3918,4068,4346,4785,5061,5202,5434,5679,5969,6399,6911,7461,7601,7751,8062,8573,8812,9590,9865,10394
participant_4_CURRENTGOLD,500,0,443,659,189,567,176,382,627,172,306,734,1143,543,821,435,711,152,384,629,219,649,1161,811,951,1101,38,548,297,1075,610,1139
participant_4_LEVEL,1,1,1,2,3,4,4,4,5,5,5,6,7,7,7,8,8,8,8,9,9,10,11,11,11,11,12,12,13,13,14,14
participant_4_MINIONSKILLED,0,0,1,3,4,7,7,8,11,12,12,15,22,23,27,31,35,35,37,39,39,42,43,44,44,45,45,48,51,51,51,52
participant_4_KILLS,0,0,0,0,0,0,0,0,0,1,1,1,1,1,2,2,2,2,2,2,2,2,2,2,2,2,2,2,2,2,3,3
participant_4_BUY,[],"[1035, 3340, 2031, 3364]",[],[],[],[],"[6660, 2055]",[],[3111],[],[1033],[1029],[],[2055],[],[],[],"[3068, 1028, 2055, 2055]",[],[1011],[],[],[],"[1057, 2055]",[],"[3001, 2055]",[],"[3067, 2055]",[],"[3082, 2055]",[],[]
participant_4_SOLD,[],[3340],[],[],[],[],[2055],[],[1035],[],[],[],[],[],[2055],[],[3364],"[6660, 1033, 1029, 2055]",[2055],[1028],[3513],[],[],[],[2055],"[1011, 1057]",[2055],[],[2055],[2031],[2055],[]
participant_4_UNDO,[],[],[],[],[],[],[],[],[],[],[],[],[],[],[],[],[],[],[],[],[],[],[],[],[],[],[],[],[],[],[],[]
participant_5_GOLD,500,500,562,776,1211,1417,1739,2085,2360,2700,2936,3281,3614,3839,4099,4277,4508,4924,5046,5559,5804,6066,6383,6505,7145,7386,7584,7833,8445,9354,9476,9598
participant_5_CURRENTGOLD,500,0,62,276,711,192,514,860,260,600,286,631,964,1189,1449,352,233,649,421,434,279,66,383,105,45,286,484,733,1345,779,101,224
participant_5_LEVEL,1,1,1,2,4,4,5,6,7,8,8,9,9,9,10,10,10,11,11,11,12,12,13,13,13,14,14,14,14,15,15,15
participant_5_MINIONSKILLED,0,0,2,7,24,26,34,47,52,65,68,78,87,92,96,99,106,116,116,131,141,145,152,152,171,178,178,180,193,208,208,208
participant_5_KILLS,0,0,0,0,1,1,1,3,3,5,6,7,8,8,8,8,9,9,9,9,9,9,10,10,10,10,10,10,10,11,11,11
participant_5_BUY,[],"[1001, 2003, 2003, 2003, 2003, 3340]",[],[],"[1036, 1036]",[1036],[],"[3134, 1053]",[],[6692],[],"[3047, 1036, 2003, 2055]",[],"[1018, 1036]",[],[],"[1037, 3363]",[],[],"[6676, 1036, 1036, 2055]",[],[],[],"[3035, 2055]",[],[],[3036],[],[],"[3140, 1018]",[],[]
participant_5_SOLD,[],[],[],[],[2003],[],[],"[1036, 1036, 1036]",[2003],"[3134, 1053]","[2003, 2003]",[1001],[],[2055],[],[2003],[3340],[],[],"[1036, 1036, 1037, 1018]",[2055],[],[],"[1036, 1036]",[],[],[3035],[],[],[2055],[],[]
participant_5_UNDO,[],[],[],[],[],[],[],[],[],[],[],[],[],[],[],[],[],[],[],[],[],[],[],[],[],[],[],[],[],[],[],[]
participant_6_GOLD,500,500,605,1048,1645,2252,2885,3292,3600,4097,4645,5147,5945,6202,6510,7222,7810,8213,8635,9273,9665,9872,10134,10381,10888,11141,11743,12155,12334,12545,12752,12875
participant_6_CURRENTGOLD,500,0,105,548,235,842,1475,267,575,1072,1620,237,235,492,335,1047,1635,338,460,1098,240,447,694,941,1449,351,253,666,154,366,573,695
participant_6_LEVEL,1,1,2,3,3,4,5,5,6,6,7,8,9,9,9,10,11,11,11,12,12,12,13,13,13,14,14,14,14,15,15,15
participant_6_MINIONSKILLED,0,0,0,0,0,1,2,2,2,2,4,9,9,9,9,9,15,15,15,15,17,17,21,24,24,24,25,25,29,30,30,30
participant_6_KILLS,0,0,0,0,1,2,3,3,3,4,5,5,7,7,7,8,8,8,9,10,10,10,10,10,10,10,11,11,11,11,11,11
participant_6_BUY,[],"[1035, 2031, 3340, 1039, 2031, 3364, 3340, 3364]",[],[],"[1052, 1028, 2055]",[],[],"[4635, 1026, 1001]",[],[],[],"[4633, 1052, 1028]",[3047],[],[3108],[],[],[4629],[1029],[],"[3191, 2420]",[],[2055],[],[],"[3157, 1028]","[3066, 1029]",[],[1057],[],[],[]
participant_6_SOLD,[],"[3364, 3340]",[],[],[],[2055],[],"[1028, 1052]",[],[],[1039],"[4635, 1026]",[1001],[],[1052],[],[],"[3108, 1028]",[],[],[1029],[],[2031],[2055],[],"[3191, 2420]",[1028],[],[1029],[],[],[]
participant_6_UNDO,[],"[[3340, 0], [0, 2031], [0, 1035]]",[],[],[],[],[],[],[],[],[],[],[],[],[],[],[],[],[],[],[],[],[],[],[],[],[],[],[],[],[],[]
participant_7_GOLD,500,500,597,888,1095,1294,1595,2300,2589,2862,3096,3510,3765,4062,4350,4782,5556,6177,6474,6737,6859,7402,7779,7901,8116,8454,8736,8859,8995,9118,9325,9537
participant_7_CURRENTGOLD,500,0,97,388,10,209,500,305,284,157,391,330,585,882,310,742,1516,787,1084,412,69,612,289,411,626,964,1247,119,255,378,585,798
participant_7_LEVEL,1,1,1,3,4,4,5,6,7,7,8,8,9,9,9,10,11,11,11,12,12,12,13,13,13,13,14,14,14,14,14,14
participant_7_MINIONSKILLED,0,0,4,14,19,24,32,40,47,47,54,59,67,77,83,96,108,111,122,130,130,146,152,152,155,164,169,169,170,170,170,171
participant_7_KILLS,0,0,0,0,0,0,0,0,0,0,0,0,0,0,0,0,0,0,0,0,0,0,0,0,0,0,0,0,0,1,1,1
participant_7_BUY,[],"[1054, 3340, 2003]",[],[],[],"[1001, 1036, 2055]",[],[],"[3111, 2055]",[],"[1036, 1053]",[],[],[],[],"[3077, 2055]",[1036],[],[1036],[3074],[1028],"[3067, 2055]",[],[1028],[3044],[],[],[],[],"[6632, 2055]",[3067],[]
participant_7_SOLD,[],[],[],[],[],[],[2055],[],[1001],[2003],[1036],[],[],[2055],[],[],[2055],[],[],"[3077, 1053, 1036, 1036]",[],[1028],[],[],[1028],[],[],[2055],[],"[3044, 3067]",[],[]
participant_7_UNDO,[],[],[],[],[],[],[],[],[],[],"[[0, 1036]]",[],[],[],[],[],[],[],[],[],[],[],[],[],[],[],[],[],[],[],[],[]
participant_8_GOLD,500,500,583,818,1549,1831,2114,2871,3228,4097,4733,5155,5682,6121,6499,6919,7404,7676,8174,8446,8792,9172,9619,9770,10158,10610,10838,11238,11659,13137,13454,13576
participant_8_CURRENTGOLD,500,0,83,318,349,281,564,371,728,397,1033,180,707,196,574,994,604,876,1374,46,392,772,1219,545,933,1386,163,563,985,592,910,1032
participant_8_LEVEL,1,1,1,2,3,3,4,5,5,6,7,7,7,8,8,9,9,10,10,11,11,11,12,12,12,12,12,13,13,14,14,14
participant_8_MINIONSKILLED,0,0,3,9,21,23,32,34,39,48,58,58,59,74,85,94,98,98,111,111,120,131,131,133,141,155,161,169,177,179,187,187
participant_8_KILLS,0,0,0,0,0,0,0,0,1,1,1,2,2,2,2,2,2,2,2,2,2,2,2,2,2,2,2,2,2,2,2,2
participant_8_BUY,[],"[3858, 2003, 2003, 3340]",[],[],"[1001, 2055]",[],"[1028, 2003]",[6660],[],[],"[3111, 2055]","[1029, 1033]",[],[],[],"[3105, 2055, 3364]",[],[3068],[],"[2055, 1029]",[],[],[],"[3024, 2055]",[],"[1028, 2055]",[3067],[],[],[],[],[]
participant_8_SOLD,[],[],[],[],[2003],[2003],[],[1028],[],[2055],[1001],[2055],[2003],[3858],[],"[1033, 1029, 3340]",[],"[6660, 3105]",[2055],[],[],[],[2055],[1029],[2055],[3859],[1028],[],[],[],[2055],[]
participant_8_UNDO,[],[],[],[],[],[],[],[],[],[],[],[],[],[],[],[],[],[],[],[],[],[],[],[],[],[],[],[],[],[],[],[]
participant_9_GOLD,500,500,564,720,1098,1370,1685,1969,2424,2826,3029,3538,3878,4134,4274,4534,4791,5156,5372,5512,5680,5962,6132,6467,6688,6967,7183,7323,7505,7721,7891,8032
participant_9_CURRENTGOLD,500,0,64,220,223,495,360,-6,449,851,179,-112,228,484,624,59,316,-69,147,-138,30,312,482,92,313,67,-117,-27,155,371,541,682
participant_9_LEVEL,1,1,1,2,3,4,4,4,5,6,6,6,7,7,7,8,8,9,9,9,9,10,10,10,10,11,11,11,12,12,12,12
participant_9_MINIONSKILLED,0,0,2,3,6,7,8,8,9,11,11,11,12,15,15,22,24,24,24,24,26,29,30,37,38,42,42,42,45,45,46,46
participant_9_KILLS,0,0,0,0,0,0,0,1,1,1,1,1,1,1,1,1,2,3,3,3,3,3,3,3,3,3,3,3,3,3,3,3
participant_9_BUY,[],"[1056, 2003, 3340, 2003]",[],[],"[1052, 2031]",[],[],"[3191, 1052]",[1001],[1028],[],[4635],[],[],[1026],[],[],"[4633, 1029]",[],"[3047, 1052]",[3108],[],[3157],[],[],[],[],"[1058, 4630]",[],[],[],[]
participant_9_SOLD,[],[],[],"[2003, 2003]",[],[],[],[1052],[],[],[],"[1028, 1052]",[],[],[],[],[],"[4635, 1026]",[],"[1001, 1029]",[1052],[],"[3191, 3108]",[],[],[],[],[],[],[],[],[]
participant_9_UNDO,[],[],[],[],[],[],[],[],[],[],[],[],[],[],[],[],[],[],[],[],[],[],[],[],[],[],[],"[[0, 1058]]",[],[],[],[]
team0_KILLS,0,0,1,1,3,4,5,9,9,10,11,12,13,13,14,17,17,18,19,19,21,22,24,27,27,27,31,32,33,36,39,44
team0_CURRENTGOLD,2500,0,914,2429,1995,3191,1647,2966,3627,2912,1847,3188,2650,3333,4351,4307,4520,1643,3187,1767,3877,4054,4749,3485,4893,3908,4881,3029,3800,2378,3535,7916
team0_TOTALGOLD,2500,2500,3414,4929,6765,8871,10437,13406,15177,16612,18322,20313,21975,23483,25847,29067,30280,31768,34012,34843,37652,40353,42649,45200,46607,48148,50495,54188,56549,58585,61409,65790
team0_LEVEL,5,5,6,13,16,22,24,25,30,30,34,37,38,41,43,46,48,49,51,52,55,58,60,63,63,65,67,71,75,75,79,80
team0_SBIRES,0,0,9,42,55,89,112,127,165,176,199,227,248,276,317,339,360,373,394,402,442,474,492,511,532,562,563,583,613,615,648,673
team1_KILLS,0,0,0,0,2,3,4,7,8,11,13,15,18,18,18,19,21,22,23,24,24,24,25,25,25,25,26,26,26,28,28,28
team1_CURRENTGOLD,2500,0,411,1750,1528,2019,3413,1797,2296,3077,3509,1266,2719,3243,3292,3194,4304,2581,3486,1852,1010,2209,3067,2094,3366,3054,2030,2054,2894,2486,2710,3431
team1_TOTALGOLD,2500,2500,2911,4250,6598,8164,10018,12517,14201,16582,18439,20631,22884,24358,25732,27734,30069,32146,33701,35527,36800,38474,40047,41024,42995,44558,46084,47408,48938,51875,52898,53618
team1_LEVEL,5,5,6,12,17,19,23,26,30,33,36,38,41,42,43,47,49,52,52,55,56,57,61,61,61,64,65,66,67,70,70,70
team1_SBIRES,0,0,11,33,70,81,108,131,149,173,195,215,234,267,288,320,351,364,388,411,434,468,486,498,529,563,575,585,614,632,641,642
delta_KILLS,0,0,1,1,1,1,1,2,1,-1,-2,-3,-5,-5,-4,-2,-4,-4,-4,-5,-3,-2,-1,2,2,2,5,6,7,8,11,16
delta_CURRENTGOLD,0,0,503,679,467,1172,-1766,1169,1331,-165,-1662,1922,-69,90,1059,1113,216,-938,-299,-85,2867,1845,1682,1391,1527,854,2851,975,906,-108,825,4485
delta_TOTALGOLD,0,0,503,679,167,707,419,889,976,30,-117,-318,-909,-875,115,1333,211,-378,311,-684,852,1879,2602,4176,3612,3590,4411,6780,7611,6710,8511,12172
delta_LEVEL,0,0,0,1,-1,3,1,-1,0,-3,-2,-1,-3,-1,0,-1,-1,-3,-1,-3,-1,1,-1,2,2,1,2,5,8,5,9,10
delta_SBIRES,0,0,-2,9,-15,8,4,-4,16,3,4,12,14,9,29,19,9,9,6,-9,8,6,6,13,3,-1,-12,-2,-1,-17,7,31
