name,frame_0,frame_1,frame_2,frame_3,frame_4,frame_5,frame_6,frame_7,frame_8,frame_9,frame_10,frame_11,frame_12,frame_13,frame_14,frame_15,frame_16,frame_17,frame_18,frame_19,frame_20,frame_21,frame_22,frame_23,frame_24,frame_25,frame_26,frame_27,frame_28,frame_29
nameStamp,Tstart,Tearly,Tearly,Tearly,Tearly,Tearly,Tearly,Tearly,Tearly,Tearly,Tearly,Tearly,Tearly,Tearly,Tmid,Tmid,Tmid,Tmid,Tmid,Tmid,Tmid,Tmid,Tmid,Tmid,Tmid,Tmid,Tmid,Tmid,Tend,Tend
timestamp,0,60010,120022,180062,240077,300103,360115,420136,480166,540180,600213,660224,720234,780260,840292,900297,960305,1020313,1080328,1140337,1200360,1260378,1320406,1380428,1440440,1500472,1560493,1620496,1680504,1740504
participant_0_GOLD,500,500,597,874,1141,1459,1743,2008,2367,2539,2745,3076,3806,3998,4691,4967,5320,5575,5853,6025,6299,6690,7148,7909,8131,8427,8975,9559,9702,10183
participant_0_CURRENTGOLD,500,0,97,374,181,489,773,128,477,149,355,676,1396,588,1271,247,600,55,333,505,509,900,668,1429,201,47,595,429,273,583
participant_0_LEVEL,1,1,1,3,3,4,5,5,6,7,7,8,8,8,9,10,10,10,11,11,12,12,13,13,14,14,14,15,15,15
participant_0_MINIONSKILLED,0,0,4,13,19,27,36,42,53,56,61,70,75,79,91,100,106,106,112,112,116,127,130,142,142,148,148,155,156,167
participant_0_KILLS,0,0,0,0,0,0,0,0,0,0,1,2,2,2,2,2,2,2,4,4,4,4,4,5,5,5,6,7,7,7
participant_0_BUY,[],"[3858, 2003, 3340, 2003]",[],[],[],"[1004, 2055]",[],[],[1052],[1001],[4642],"[1028, 3067]",[],[],[],[4005],[],[3158],[3364],[3114],[],[],[1026],[],[6616],[],[],"[3114, 1026]",[],[]
participant_0_SOLD,[],[],[],[2003],[2003],[],[],[2055],[],[],"[1004, 1052]",[1028],[],[],[],"[3067, 4642]",[3858],[1001],[3340],[],[],[],[],[],"[3114, 1026]",[],[],[],[3859],[]
participant_0_UNDO,[],[],[],[],[],[],[],[],[],[],[],[],[],[],[],[],[],[],[],[],[],[],[],[],[],[],[],[],[],[]
participant_1_GOLD,500,500,620,828,1233,1735,1878,2025,2418,2640,3002,3759,4402,5043,5548,6284,6980,7696,8165,8468,9065,10100,11016,11438,12046,12358,12745,13393,14662,14965
participant_1_CURRENTGOLD,500,0,120,328,733,1235,203,350,743,965,227,984,194,835,1340,2076,622,1338,1807,110,707,1742,2658,1165,648,960,1348,545,1814,2027
participant_1_LEVEL,1,1,2,2,3,4,4,5,5,6,6,7,8,8,9,10,10,11,12,12,13,13,14,14,15,15,15,16,17,17
participant_1_MINIONSKILLED,0,0,0,0,0,0,1,1,1,1,1,2,2,2,3,3,3,9,13,15,19,25,28,28,29,29,29,30,37,39
participant_1_KILLS,0,0,0,0,0,0,0,0,0,0,0,0,0,1,1,1,1,1,2,2,4,4,5,5,5,5,5,5,5,5
participant_1_BUY,[],"[1055, 2003, 3340]",[],[],"[1036, 2003]",[],[],[],"[3134, 2003]","[1036, 1001]",[],[],[1053],"[1036, 1036]",[],[6692],[],"[3009, 1036]",[],[3134],[],"[1037, 1018]",[],"[6676, 1036]",[],[],"[3134, 1036]",[],[],[]
participant_1_SOLD,[],[],[],[],[2003],[],[2003],[],[1036],[2003],[],[],[1036],[],[],"[3134, 1036, 1053]",[],[1001],[],[1036],[],[],[],"[3134, 1037, 1018]",[],[],[1036],[],[],[]
participant_1_UNDO,[],[],[],[],[],[],[],[],[],[],[],[],[],"[[0, 1036]]",[],[],[],[],[],[],[],[],[],[],[],[],[],[],[],[]
participant_2_GOLD,500,500,611,1260,1530,1950,2213,2565,2842,2964,3545,4216,5029,5546,6119,6485,6820,8119,8478,9638,9761,10053,10817,11289,12461,13139,13487,14147,14951,15432
participant_2_CURRENTGOLD,500,0,111,760,1030,1450,113,465,742,64,645,1316,2129,111,684,1050,420,1719,128,389,511,803,1567,439,1612,1199,1547,2207,3012,3332
participant_2_LEVEL,1,1,1,3,4,5,6,7,7,7,8,9,10,11,11,11,11,12,12,13,13,13,14,14,14,15,15,16,16,17
participant_2_MINIONSKILLED,0,0,5,12,20,27,35,45,54,54,66,76,87,96,96,100,100,108,118,127,127,131,139,139,139,139,139,139,151,154
participant_2_KILLS,0,0,0,1,1,1,1,1,1,1,1,1,2,3,4,4,4,5,5,7,7,7,7,8,11,12,12,13,14,15
participant_2_BUY,[],"[1056, 2003, 2003]",[],[],[],[],"[3802, 1001]",[],[],[3020],[],[],[],"[6653, 1052]",[],[],"[3145, 1082]",[],[4628],[3191],[],[],[],[3157],[],[1058],[],[],[],[]
participant_2_SOLD,[],[],[],[],[2003],[],[],[],[2003],[1001],[],[],[],[3802],[],[],[1052],[],[3145],[],[],[],[],[3191],[],[1056],[],[],[],[]
participant_2_UNDO,[],[],[],[],[],[],[],[],[],[],[],[],[],[],[],[],[],[],[],[],[],[],[],[],[],[],[],[],[],[]
participant_3_GOLD,500,500,562,860,1127,1361,1603,1900,2127,2390,2645,2859,3169,3743,3999,4142,4745,5223,5796,5918,6925,7375,8177,8440,8803,9093,9215,9940,10340,10952
participant_3_CURRENTGOLD,500,0,62,360,227,461,703,1000,427,40,295,509,269,493,749,42,645,173,746,118,1125,100,902,390,753,1043,65,790,1190,1802
participant_3_LEVEL,1,1,1,2,3,4,4,5,6,6,7,7,7,8,8,8,9,9,9,9,10,11,12,12,13,13,13,14,15,15
participant_3_MINIONSKILLED,0,0,2,12,18,25,31,41,47,55,63,68,72,77,85,86,103,112,112,112,121,123,136,141,142,152,152,166,174,187
participant_3_KILLS,0,0,0,0,0,1,1,1,1,1,2,3,4,5,5,6,8,9,9,9,9,11,12,12,12,12,12,12,14,14
participant_3_BUY,[],"[1035, 2003, 2003, 2003, 2031, 3340]",[],[],[],[],"[3051, 2055]",[],[],[],"[3057, 1028]",[],"[3078, 1001]",[],[],[],"[3047, 1043, 1036]",[],[],"[3153, 2055, 2055]",[],[],[],"[3044, 1037]",[3053],[],[],"[2420, 1031]",[],[]
participant_3_SOLD,[],[],[],[],[],[],[],[2055],[],[],[],[1035],"[3057, 3051, 1028]",[],[],[3340],[1001],[],[3513],"[1036, 1043]",[],[2055],[],"[2031, 2055]","[2055, 1037, 3044]",[],[],[],[],[2420]
participant_3_UNDO,[],"[[0, 2003], [0, 2003], [0, 2003]]",[],[],[],[],[],[],[],[],[],[],[],[],[],[],[],[],[],[],[],[],[],"[[2055, 0]]",[],[],[],[],[],[]
participant_4_GOLD,500,500,522,706,862,996,1194,1363,1497,1646,2280,2871,3170,3543,3755,3910,4283,4577,5428,5684,5877,6017,6257,6608,6749,6889,7349,8160,8688,8969
participant_4_CURRENTGOLD,500,0,22,206,362,171,369,538,237,86,355,146,445,818,1030,335,708,402,1253,709,902,1042,432,783,274,414,874,35,563,844
participant_4_LEVEL,1,1,1,2,3,3,3,4,4,4,6,6,7,7,7,8,8,8,9,9,10,10,10,10,10,10,11,12,13,13
participant_4_MINIONSKILLED,0,0,0,3,4,4,7,9,9,10,10,13,13,14,18,19,22,23,23,24,26,26,26,26,26,26,26,26,34,34
participant_4_KILLS,0,0,0,0,0,0,0,0,0,0,0,0,1,1,2,2,2,2,2,2,2,2,3,3,3,3,4,4,4,4
participant_4_BUY,[],"[1054, 2003]",[],[],"[1029, 2031]",[],[],"[3076, 1028]",[],[1011],[],[],[],[6660],[],"[3075, 1029]",[],[3111],[],[],[1033],[],[3105],[],"[3068, 1033, 1029]",[1033],[],[3105],[1029],[]
participant_4_SOLD,[],[],[],"[2003, 2010]",[],[],[2010],"[2010, 1029]",[],[1028],[],[],[],[],[],"[3076, 1011]",[],[2422],[],[],[1054],[],"[1033, 1029, 2031]",[],"[6660, 3105]",[],[],"[1033, 1029]",[],[]
participant_4_UNDO,[],[],[],[],[],[],[],[],[],[],[],[],[],[],[],[],[],[],[],[],[],[],[],[],[],[],[],[],[],[]
participant_5_GOLD,500,500,541,762,948,1161,1462,1710,1992,2160,2497,2669,2792,3020,3248,3370,3542,3820,3984,4341,4463,4599,4772,4992,5178,5578,5937,6224,6534,6766
participant_5_CURRENTGOLD,500,0,41,262,448,661,527,775,1057,1225,547,419,542,770,998,270,442,720,884,1241,63,199,372,132,318,718,1077,164,474,-1534
participant_5_LEVEL,1,1,1,2,3,4,5,6,6,7,7,7,7,8,8,8,8,9,9,10,10,11,11,11,11,12,12,12,13,13
participant_5_MINIONSKILLED,0,0,1,7,10,13,21,28,34,37,37,37,37,40,47,47,47,54,57,65,65,66,66,72,75,84,94,95,101,105
participant_5_KILLS,0,0,0,0,1,1,1,1,1,1,2,2,2,3,3,3,3,4,4,4,4,5,5,6,6,6,6,6,6,7
participant_5_BUY,[],"[3850, 2003, 3364, 3340, 2003]",[],[],[],[],[],"[3802, 2003]",[],[],[],[],[6655],[],"[3111, 1052]","[2031, 3364]",[4632],[],[1052],[3108],[3102],[],"[1052, 1029]",[3191],[],"[2420, 3108]",[],[3157],[],[]
participant_5_SOLD,[],[3364],[],[],[2003],[2010],"[2003, 2010]",[3850],[],[2003],[2010],[],[3802],[3851],[],[3340],[1052],[],[],"[2031, 1052]","[3108, 4632]",[],[],"[1052, 1029]",[],[],[],"[3191, 3108]",[],[]
participant_5_UNDO,[],[],[],[],[],[],[],[],[],[],[],[],[],[],[],[],[],[],[],[],[],[],[],[],[],"[[0, 2420]]",[],[],[],[]
participant_6_GOLD,500,500,693,1048,1433,1660,1953,2166,2528,3156,3568,3761,4253,4690,4963,5185,5563,6127,6350,7592,8054,8467,8838,8960,9633,9865,10207,10480,10892,11700
participant_6_CURRENTGOLD,500,0,193,548,933,1160,1453,1666,2028,2656,3068,361,120,557,5,152,530,1094,567,1289,1751,464,835,208,880,297,640,512,925,517
participant_6_LEVEL,1,1,2,3,4,4,5,5,6,7,7,7,8,8,9,9,9,10,10,11,11,12,12,12,13,13,13,13,14,14
participant_6_MINIONSKILLED,0,0,0,0,0,0,0,0,0,0,0,0,0,0,1,1,1,2,2,2,2,2,4,4,5,6,6,6,6,6
participant_6_KILLS,0,0,0,0,0,0,0,0,0,2,3,4,4,5,5,5,5,6,6,6,6,7,8,8,8,8,8,8,8,8
participant_6_BUY,[],"[1055, 2003, 3340]",[],[],[],[],[],"[3006, 1036, 2055]",[],[],"[6670, 1053, 2055]",[],"[1018, 6673]",[3134],[],[],[],[],[6676],[],[],[1038],[],[],[1018],[3072],[],[1018],[],[]
participant_6_SOLD,[],[],[],[],[2003],[],[],[],[],[2055],[1036],[2055],"[6670, 1018, 1053]",[],[],[],[],[],[3134],[],[],[],[],[],[],"[1038, 1018]",[],[],[],[]
participant_6_UNDO,[],[],[],[],[],[],[],[],[],[],[],[],[],[],[],[],[],[],[],[],[],[],[],[],[],[],[],[],[],[]
participant_7_GOLD,500,500,611,962,1511,1920,2235,2736,3054,3817,4058,4379,5322,6006,6244,7519,8003,8614,8737,9169,9465,9881,10827,11229,11402,11594,12295,13758,13930,14112
participant_7_CURRENTGOLD,500,0,111,452,101,500,805,56,364,1117,508,829,1772,2456,134,1409,1893,2504,177,209,505,921,152,555,302,494,1196,2658,281,462
participant_7_LEVEL,1,1,1,3,4,5,6,7,7,8,9,9,10,10,10,12,12,12,12,13,13,13,14,14,14,15,15,16,16,16
participant_7_MINIONSKILLED,0,0,5,15,22,36,44,50,59,71,78,90,101,111,114,126,141,152,152,153,159,172,178,185,185,189,214,228,228,229
participant_7_KILLS,0,0,0,0,0,0,0,0,0,1,1,1,2,2,2,2,2,2,2,4,4,4,4,4,5,5,5,5,5,6
participant_7_BUY,[],"[1039, 2031, 3340]",[],[],[],[],[],[],[],[],[],"[3067, 3051, 3057, 1001, 3364]",[3078],[],"[1036, 1028, 2055]",[2055],[],[],"[3044, 3133]",[1031],[],"[6333, 1036, 2055, 2055]",[],[3044],[],[1037],[],[1028],[],"[3053, 2055, 2055]"
participant_7_SOLD,[],[],[],[],[],[],[],[],[],[],[],[3340],"[3057, 3051, 3067]",[1039],[],[],[2055],[2055],"[1028, 1036, 1036]",[1028],[],"[1031, 3133]",[],[1036],[2055],"[2031, 2055]",[],[],[],"[1037, 3044, 1028]"
participant_7_UNDO,[],[],[],[],[],[],[],[],[],[],[],[],[],[],[],[],[],[],"[[0, 3044]]",[],[],[],[],[],[],[],[],[],[],[]
participant_8_GOLD,500,500,583,881,1396,1756,2113,2361,2828,3679,4180,4925,5208,6366,6538,6849,7289,8098,8231,8395,8733,9530,10825,11279,11452,11963,12316,12818,13199,13367
participant_8_CURRENTGOLD,500,0,83,381,896,1256,1613,336,803,1654,230,975,58,116,288,599,1039,1848,81,245,583,80,1375,1830,1402,413,767,668,1050,1217
participant_8_LEVEL,1,1,1,2,3,4,5,5,6,7,7,7,7,8,8,9,9,10,10,10,10,11,11,12,12,13,13,13,14,14
participant_8_MINIONSKILLED,0,0,3,13,25,36,47,55,67,76,79,89,90,101,104,111,115,122,123,125,133,136,141,147,147,157,162,167,173,173
participant_8_KILLS,0,0,0,0,1,1,1,2,2,3,3,3,5,5,5,8,8,8,8,9,9,9,10,10,10,10,10,11,11,11
participant_8_BUY,[],"[1036, 2003, 2003, 2003]",[],[],"[3134, 2031]",[],[],"[1053, 1036]",[],[],"[6692, 3364]",[],[],[],"[3067, 3133, 1001, 1036]",[],[],[],"[3071, 1053, 3006, 1042, 1042]",[1043],[],[],"[1037, 1053]",[],[3153],[],[],[],"[3035, 3133]",[]
participant_8_SOLD,[],[],[],"[2003, 2003]","[2003, 1036]",[],[],[],[],[],"[3134, 1036, 1053, 3340]",[],[],[],[],[],[],[],"[3133, 3067, 1036, 1001]","[1042, 1042]",[],[],[2031],[],"[1053, 1043, 1037]",[],[],[],[],[]
participant_8_UNDO,[],[],[],[],[],[],[],[],[],[],[],[],[],[],[],[],[],[],"[[0, 1053]]",[],[],[],[],[],[],[],[],[],[],[]
participant_9_GOLD,500,500,562,797,1366,1580,1815,1949,2314,2967,3594,3938,4427,5523,5677,6135,6500,7060,7211,7557,7718,8459,8738,9242,9558,9698,10041,10331,10555,11765
participant_9_CURRENTGOLD,500,0,62,297,866,1080,1315,99,464,1117,1744,2088,477,1573,192,500,100,660,376,317,78,819,363,702,1018,259,601,191,416,1565
participant_9_LEVEL,1,1,1,2,3,4,4,5,5,6,7,7,8,9,9,9,10,10,10,11,11,11,12,12,13,13,13,13,13,14
participant_9_MINIONSKILLED,0,0,0,0,1,1,1,1,3,5,9,10,11,12,13,19,22,26,26,30,31,31,32,36,36,36,43,43,48,50
participant_9_KILLS,0,0,0,0,0,0,0,0,0,0,0,0,0,0,0,0,0,0,0,0,0,0,0,0,0,0,0,0,0,0
participant_9_BUY,[],"[2033, 3340]",[],[],[],[],[1052],[],[],[],"[3145, 1028]",[1001],[],[],[],[1026],[],[],[],[],"[3152, 1028]",[],[],"[1011, 3802, 3108]",[],[],[],[6653],[],[]
participant_9_SOLD,[],[],[],[],[],[],[],[],[],[],[1052],[],[],[],[],[],[],[],[],[],"[3145, 1028, 1026]",[],[],"[1028, 3152]",[],[],[],"[3802, 3108]",[],[]
participant_9_UNDO,[],[],[],[],[],[],[],[],[],[],[],[],[],[],[],[],[],[],[],[],[],[],[],[],[],[],[],[],[],[]
team0_KILLS,0,0,0,1,1,2,2,2,2,2,4,6,9,12,14,15,17,19,22,24,26,28,31,33,36,37,39,41,44,45
team0_CURRENTGOLD,2500,0,412,2028,2533,3806,2161,2481,2626,1304,1877,3631,4433,2845,5074,3750,2995,3687,4267,1831,3754,4587,6227,4206,3488,3663,4429,4006,6852,8588
team0_TOTALGOLD,2500,2500,2912,4528,5893,7501,8631,9861,11251,12179,14217,16781,19576,21873,24112,25788,28148,31190,33720,35733,37927,40235,43415,45684,48190,49906,51771,55199,58343,60501
team0_LEVEL,5,5,6,12,16,20,22,26,28,30,34,37,40,42,44,47,48,50,53,54,58,59,63,63,66,67,68,73,76,77
team0_SBIRES,0,0,11,40,61,83,110,138,164,176,201,229,249,268,293,308,334,358,378,390,409,432,459,476,478,494,494,516,552,581
team1_KILLS,0,0,0,0,2,2,2,3,3,7,9,10,13,15,15,18,18,20,20,23,23,25,27,28,29,29,29,30,30,32
team1_CURRENTGOLD,2500,0,490,1940,3244,4657,5713,2932,4716,7769,6097,4672,2969,5472,1617,2930,4004,6826,2085,3301,2980,2483,3097,3427,3920,2181,4281,4193,3146,2227
team1_TOTALGOLD,2500,2500,2990,4450,6654,8077,9578,10922,12716,15779,17897,19672,22002,25605,26670,29058,30897,33719,34513,37054,38433,40936,44000,45702,47223,48698,50796,53611,55110,57710
team1_LEVEL,5,5,6,12,17,21,25,28,30,35,37,37,40,43,44,47,48,51,51,55,55,58,60,61,63,66,66,67,70,71
team1_SBIRES,0,0,9,35,58,86,113,134,163,189,203,226,239,264,279,304,326,356,360,375,390,407,421,444,448,472,519,539,556,563
delta_KILLS,0,0,0,1,-1,0,0,-1,-1,-5,-5,-4,-4,-3,-1,-3,-1,-1,2,1,3,3,4,5,7,8,10,11,14,13
delta_CURRENTGOLD,0,0,-78,88,-711,-851,-3552,-451,-2090,-6465,-4220,-1041,1464,-2627,3457,820,-1009,-3139,2182,-1470,774,2104,3130,779,-432,1482,148,-187,3706,6361
delta_TOTALGOLD,0,0,-78,78,-761,-576,-947,-1061,-1465,-3600,-3680,-2891,-2426,-3732,-2558,-3270,-2749,-2529,-793,-1321,-506,-701,-585,-18,967,1208,975,1588,3233,2791
delta_LEVEL,0,0,0,0,-1,-1,-3,-2,-2,-5,-3,0,0,-1,0,0,0,-1,2,-1,3,1,3,2,3,1,2,6,6,6
delta_SBIRES,0,0,2,5,3,-3,-3,4,1,-13,-2,3,10,4,14,4,8,2,18,15,19,25,38,32,30,22,-25,-23,-4,18
