name,frame_0,frame_1,frame_2,frame_3,frame_4,frame_5,frame_6,frame_7,frame_8,frame_9,frame_10,frame_11,frame_12,frame_13,frame_14,frame_15,frame_16,frame_17,frame_18,frame_19,frame_20,frame_21
nameStamp,Tstart,Tearly,Tearly,Tearly,Tearly,Tearly,Tearly,Tearly,Tearly,Tearly,Tearly,Tearly,Tmid,Tmid,Tmid,Tmid,Tmid,Tmid,Tmid,Tmid,Tmid,Tmid
timestamp,0,60003,120023,180048,240080,300105,360134,420146,480176,540202,600227,660254,720282,780299,840322,900342,960375,1020407,1080434,1140458,1200460,1260460
participant_0_GOLD,500,500,621,932,1884,2942,3231,5062,5742,6451,7054,8257,9375,10293,11608,12485,13941,15087,16622,18629,19463,21142
participant_0_CURRENTGOLD,500,0,121,432,1384,2442,281,2112,2792,3501,4104,307,1425,2343,3658,4534,2490,1037,2572,4579,2613,4292
participant_0_LEVEL,1,1,1,3,4,5,6,7,7,8,8,9,10,10,11,12,12,13,14,15,15,16
participant_0_MINIONSKILLED,0,0,5,12,14,18,24,33,42,47,55,58,70,82,91,97,103,114,124,137,141,144
participant_0_KILLS,0,0,0,0,2,4,4,8,9,10,11,13,16,17,22,26,32,36,43,53,57,62
participant_0_BUY,[],"[1036, 2003, 2003, 2003]",[],[],[],[],"[1018, 1038, 1036]",[],[],[],[],"[3508, 3031, 3006]",[],[],[],[],[3072],"[3086, 2015, 3087]",[],[],[3036],[]
participant_0_SOLD,[],[],[],[],[],"[2003, 2003, 2003]",[],[],[],[],[],"[1038, 1036, 1036, 1018]",[],[],[],[],[],"[3086, 2015]",[],[],[],[]
participant_0_UNDO,[],[],[],[],[],[],[],[],[],[],[],[],[],[],[],[],[],[],[],[],[],[]
participant_1_GOLD,500,500,530,848,1130,1369,1581,2106,2623,3192,3483,3716,4286,4960,5403,5775,6260,6563,6797,7314,7733,8011
participant_1_CURRENTGOLD,500,200,230,548,830,419,631,606,1123,1692,1983,216,786,1460,1903,2275,2760,3063,147,664,784,1061
participant_1_LEVEL,1,1,1,3,3,4,4,5,6,7,8,8,8,8,9,10,11,11,11,11,12,12
participant_1_MINIONSKILLED,0,0,0,7,12,15,17,18,19,24,27,27,30,32,36,38,40,40,40,42,43,43
participant_1_KILLS,0,0,0,0,0,0,0,1,2,3,3,3,3,4,4,4,4,5,5,5,5,5
participant_1_BUY,[],[1001],[],[],[],"[1042, 1036]",[],[1053],[],[],[],"[1038, 1036, 1036]",[],[],[],[],[],[],"[3072, 1055, 1053, 3006, 1042, 2015]",[],[1042],[]
participant_1_SOLD,[],[],[],[],[],[],[],[1036],[],[],[],[],[],[],[],[],[],[],"[1038, 1036, 1053, 1036, 1001, 1042, 1042]",[],[],[]
participant_1_UNDO,[],[],[],[],[],[],[],[],[],[],[],[],[],[],[],[],[],[],[],[],[],[]
participant_2_GOLD,500,500,544,873,1099,1670,1917,2101,2381,2914,3329,3636,3933,4754,4972,5170,5510,5821,6100,6426,6751,7029
participant_2_CURRENTGOLD,500,200,244,573,799,1370,1617,201,481,1014,529,336,633,1454,1673,570,910,1221,1500,1826,2151,429
participant_2_LEVEL,1,1,2,3,4,5,6,6,6,7,7,7,8,8,9,9,9,10,11,11,12,12
participant_2_MINIONSKILLED,0,0,1,7,9,10,14,14,16,19,20,20,22,25,27,28,28,29,30,32,34,34
participant_2_KILLS,0,0,0,0,0,1,1,1,1,2,3,3,3,7,7,7,7,7,7,7,7,7
participant_2_BUY,[],[1001],[],[],[],[],[],"[1038, 1042]",[],[],[1053],[3006],[],[],[],[3072],[],[],[],[],[],"[3155, 1036, 1036]"
participant_2_SOLD,[],[],[],[2010],[],[2010],[],[],[2010],[2419],[],"[1001, 1042]",[2423],[],[],"[1038, 1053]",[],[],[],[],[],[]
participant_2_UNDO,[],[],[],[],[],[],[],[],[],[],[],[],[],[],[],[],[],[],[],[],[],[]
participant_3_GOLD,500,500,530,764,1004,1378,1618,2110,2992,3176,3660,3936,4189,4800,5289,5683,6214,6628,6861,7145,7662,8344
participant_3_CURRENTGOLD,500,200,230,464,704,1078,418,910,1792,376,860,286,539,1150,1639,2033,2564,2978,112,395,62,744
participant_3_LEVEL,1,1,1,2,3,3,3,4,6,6,7,7,7,8,9,9,10,10,10,10,11,11
participant_3_MINIONSKILLED,0,0,0,3,7,8,11,12,17,17,23,25,29,34,41,49,55,64,64,64,67,73
participant_3_KILLS,0,0,0,0,0,0,0,1,3,3,4,4,4,4,5,5,6,6,6,6,6,6
participant_3_BUY,[],[1001],[],[],[],[],[1053],[],[],"[1038, 1042]",[],"[3006, 1036]",[],[],[],[],[],[],"[3072, 1055, 1053, 1018]",[],[3113],[]
participant_3_SOLD,[],[],[],[],[],[],[],[],[],[],[],"[1001, 1042]",[],[],[],[],[],[],"[1038, 1036, 1053]",[],[],[]
participant_3_UNDO,[],[],[],[],[],[],[],[],[],[],[],[],[],[],[],[],[],[],[],[],[],[]
participant_4_GOLD,500,500,544,729,927,1173,1357,1691,1978,2210,2480,2735,2939,3187,3542,3803,4114,4339,4719,5002,5286,5770
participant_4_CURRENTGOLD,500,200,244,79,277,523,307,291,578,810,1080,535,739,587,942,1203,1514,1739,2119,1552,1836,2320
participant_4_LEVEL,1,1,1,2,3,4,4,5,5,6,6,6,6,7,7,8,9,9,10,10,10,10
participant_4_MINIONSKILLED,0,0,1,1,2,3,3,3,5,8,10,11,12,13,19,24,28,30,34,34,34,34
participant_4_KILLS,0,0,0,0,0,0,0,0,0,0,0,0,0,0,0,0,0,0,0,0,0,0
participant_4_BUY,[],[1001],[],[1027],[],[],[1028],[3010],[],[],[],[3020],[],[1028],[],[],[],[],[],[1026],[],[]
participant_4_SOLD,[],[],[],[],[],[],[],"[1028, 1027]",[],[],[],[1001],[],[],[],[],[],[],[],[],[],[]
participant_4_UNDO,[],[],[],[],[],[],[],[],[],[],[],[],[],[],[],[],[],[],[],[],[],[]
participant_5_GOLD,500,500,520,643,766,909,1182,1304,1426,1549,1671,1794,1916,2038,2161,2283,3490,3612,3734,3857,4979,5097
participant_5_CURRENTGOLD,500,300,320,443,566,709,982,1104,1226,1349,1471,1594,1716,1838,1961,2083,3290,3412,3534,3657,4779,4897
participant_5_LEVEL,1,1,1,1,1,2,3,3,4,4,5,5,6,6,6,6,7,8,8,8,8,9
participant_5_MINIONSKILLED,0,0,0,0,0,1,1,1,1,1,1,1,1,1,1,1,2,2,2,2,2,2
participant_5_KILLS,0,0,0,0,0,0,0,0,0,0,0,0,0,0,0,0,1,1,1,1,2,2
participant_5_BUY,[],"[2003, 2003, 2003, 2003, 3340]",[],[],[],[],[],[],[],[],[],[],[],[],[],[],[],[],[],[],[],[]
participant_5_SOLD,[],[],[],[],[],[],[2003],[2003],[],[],[2003],[],[2003],[],[],[],[],[],[],[],[],[]
participant_5_UNDO,[],[],[],[],[],[],[],[],[],[],[],[],[],[],[],[],[],[],[],[],[],[]
participant_6_GOLD,500,500,520,643,766,888,1046,1168,1290,1413,1535,1721,1843,1965,2088,2210,2408,2530,2652,2775,2972,3154
participant_6_CURRENTGOLD,500,300,320,443,566,688,846,968,1090,1213,1335,1521,1643,1765,1888,2010,2208,2330,2452,2575,2772,2954
participant_6_LEVEL,1,1,1,1,2,2,3,3,3,4,4,5,5,5,6,6,7,7,7,7,8,8
participant_6_MINIONSKILLED,0,0,0,0,0,0,2,2,2,2,2,5,5,5,5,5,5,5,5,5,5,6
participant_6_KILLS,0,0,0,0,0,0,0,0,0,0,0,0,0,0,0,0,0,0,0,0,0,0
participant_6_BUY,[],"[2003, 2003, 2003, 2003, 3340]",[],[],[],[],[],[],[],[],[],[],[],[],[],[],[],[],[],[],[],[]
participant_6_SOLD,[],[],[],[],[],[2003],[],[2003],[2003],[],[],[],[2003],[],[],[],[],[],[],[],[],[]
participant_6_UNDO,[],[],[],[],[],[],[],[],[],[],[],[],[],[],[],[],[],[],[],[],[],[]
participant_7_GOLD,500,500,520,643,766,1188,1346,1468,1687,1810,1953,2132,2268,2460,2583,2705,2924,3046,3168,3291,4413,4581
participant_7_CURRENTGOLD,500,300,320,443,566,988,1146,1268,1487,1610,1753,1932,2068,2260,2383,2505,2724,2846,2968,3091,4213,4381
participant_7_LEVEL,1,1,1,1,2,4,5,5,6,7,7,7,8,8,9,9,9,9,9,9,10,10
participant_7_MINIONSKILLED,0,0,0,0,0,0,2,2,5,5,6,9,10,14,14,14,15,15,15,15,15,15
participant_7_KILLS,0,0,0,0,0,1,1,1,1,1,1,1,1,1,1,1,1,1,1,1,2,2
participant_7_BUY,[],"[2003, 2003, 2003, 2003, 3340]",[],[],[],[],[],[],[],[],[],[],[],[],[],[],[],[],[],[],[],[]
participant_7_SOLD,[],[],[],[],"[2003, 2003]","[2003, 2003]",[],[],[],[],[],[],[],[],[],[],[],[],[],[],[],[]
participant_7_UNDO,[],[],[],[],[],[],[],[],[],[],[],[],[],[],[],[],[],[],[],[],[],[]
participant_8_GOLD,500,500,520,643,766,902,1810,1932,2054,2177,2299,2422,2558,2680,2803,2925,3062,3184,3306,3429,3551,3719
participant_8_CURRENTGOLD,500,300,320,443,566,702,1610,1732,1854,1977,2099,2222,2358,2480,2603,2725,2862,2984,3106,3229,3351,3519
participant_8_LEVEL,1,1,1,1,1,1,3,3,3,3,4,4,5,5,6,6,7,7,7,7,9,9
participant_8_MINIONSKILLED,0,0,0,0,0,1,3,3,3,3,3,3,4,4,4,4,5,5,5,5,5,5
participant_8_KILLS,0,0,0,0,0,0,1,1,1,1,1,1,1,1,1,1,1,1,1,1,1,1
participant_8_BUY,[],"[2003, 2003, 2003, 2003, 3340]",[],[],[],[],[],[],[],[],[],[],[],[],[],[],[],[],[],[],[],[]
participant_8_SOLD,[],[],[],[],[],[2003],[2003],[2003],[],[],[],[],[2003],[],[],[],[],[],[],[],[],[]
participant_8_UNDO,[],[],[],[],[],[],[],[],[],[],[],[],[],[],[],[],[],[],[],[],[],[]
participant_9_GOLD,500,500,520,643,766,888,1011,1147,1269,1511,1661,1784,1906,2028,2172,2294,2417,2560,2682,2805,3002,4120
participant_9_CURRENTGOLD,500,300,320,443,566,688,811,947,1069,1311,1461,1584,1706,1828,1972,2094,2217,2360,2482,2605,2802,3920
participant_9_LEVEL,1,1,1,1,2,3,3,4,4,5,5,6,6,6,6,6,7,7,7,7,8,8
participant_9_MINIONSKILLED,0,0,0,0,0,0,0,1,1,8,10,10,10,10,11,11,11,12,12,12,12,12
participant_9_KILLS,0,0,0,0,0,0,0,0,0,0,0,0,0,0,0,0,0,0,0,0,0,1
participant_9_BUY,[],"[2003, 2003, 2003, 2003, 3340]",[],[],[],[],[],[],[],[],[],[],[],[],[],[],[],[],[],[],[],[]
participant_9_SOLD,[],[],[],[],[],"[2003, 2003]",[],[2003],[2003],[],[],[],[],[],[],[],[],[],[],[],[],[]
participant_9_UNDO,[],[],[],[],[],[],[],[],[],[],[],[],[],[],[],[],[],[],[],[],[],[]
team0_KILLS,0,0,0,0,2,5,5,11,15,18,21,23,26,32,38,42,49,54,61,71,75,80
team0_CURRENTGOLD,2500,800,1069,2096,3994,5832,3254,4120,6766,7393,8556,1680,4122,6994,9815,10615,10238,10038,6450,9016,7446,8846
team0_TOTALGOLD,2500,2500,2769,4146,6044,8532,9704,13070,15716,17943,20006,22280,24722,27994,30814,32916,36039,38438,41099,44516,46895,50296
team0_LEVEL,5,5,6,13,17,21,23,27,30,34,36,37,39,41,45,48,51,53,56,57,60,61
team0_SBIRES,0,0,7,30,44,54,69,80,99,115,135,141,163,186,214,236,254,277,292,309,319,328
team1_KILLS,0,0,0,0,0,1,2,2,2,2,2,2,2,2,2,2,3,3,3,3,5,6
team1_CURRENTGOLD,2500,1500,1600,2215,2830,3775,5395,6019,6726,7460,8119,8853,9491,10171,10807,11417,13301,13932,14542,15157,17917,19671
team1_TOTALGOLD,2500,2500,2600,3215,3830,4775,6395,7019,7726,8460,9119,9853,10491,11171,11807,12417,14301,14932,15542,16157,18917,20671
team1_LEVEL,5,5,5,5,8,12,17,18,20,23,25,27,30,30,33,33,37,38,38,38,43,44
team1_SBIRES,0,0,0,0,0,2,8,9,12,19,22,28,30,34,35,35,38,39,39,39,39,40
delta_KILLS,0,0,0,0,2,4,3,9,13,16,19,21,24,30,36,40,46,51,58,68,70,74
delta_CURRENTGOLD,0,-700,-531,-119,1164,2057,-2141,-1899,40,-67,437,-7173,-5369,-3177,-992,-802,-3063,-3894,-8092,-6141,-10471,-10825
delta_TOTALGOLD,0,0,169,931,2214,3757,3309,6051,7990,9483,10887,12427,14231,16823,19007,20499,21738,23506,25557,28359,27978,29625
delta_LEVEL,0,0,1,8,9,9,6,9,10,11,11,10,9,11,12,15,14,15,18,19,17,17
delta_SBIRES,0,0,7,30,44,52,61,71,87,96,113,113,133,152,179,201,216,238,253,270,280,288
