name,team0,team1
win,Fail,Win
firstBlood,True,False
firstTower,False,True
firstInhibitor,False,True
firstBaron,False,True
firstDragon,True,False
firstRiftHerald,False,True
towerKills,2,8
inhibitorKills,0,3
baronKills,0,2
dragonKills,2,3
riftHeraldKills,0,1
