name,frame_0,frame_1,frame_2,frame_3,frame_4,frame_5,frame_6,frame_7,frame_8,frame_9,frame_10,frame_11,frame_12,frame_13,frame_14,frame_15,frame_16,frame_17,frame_18,frame_19,frame_20,frame_21,frame_22,frame_23,frame_24,frame_25,frame_26,frame_27,frame_28,frame_29,frame_30
nameStamp,Tstart,Tearly,Tearly,Tearly,Tearly,Tearly,Tearly,Tearly,Tearly,Tearly,Tearly,Tearly,Tearly,Tearly,Tearly,Tearly,Tearly,Tearly,Tearly,Tearly,Tmid,Tmid,Tmid,Tmid,Tmid,Tmid,Tend,Tend,Tend,Tend,Tend
timestamp,0,60008,120030,180061,240077,300079,360093,420125,480136,540165,600180,660208,720240,780269,840294,900327,960354,1020381,1080401,1140401,1200418,1260446,1320474,1380501,1440524,1500553,1560559,1620562,1680586,1740609,1800609
participant_0_GOLD,500,500,520,832,1095,1385,1578,1878,2640,2763,3251,3668,4431,4637,4823,5088,5211,5550,5735,6705,6912,7162,7284,7406,7694,8012,8219,8557,9313,9756,10283
participant_0_CURRENTGOLD,500,0,20,332,595,885,53,353,1115,138,626,1043,1806,167,353,618,66,405,590,1560,367,617,139,261,249,567,774,1112,768,111,458
participant_0_LEVEL,1,1,1,3,4,5,6,6,7,7,7,8,9,9,10,10,10,10,11,11,11,12,12,12,12,12,13,13,13,13,14
participant_0_MINIONSKILLED,0,0,0,10,18,25,29,37,37,37,49,57,66,71,75,80,80,85,89,104,104,106,106,106,114,121,126,134,135,135,145
participant_0_KILLS,0,0,0,0,0,0,0,0,0,0,0,0,0,0,0,0,1,1,1,1,1,1,1,1,1,1,1,1,1,1,1
participant_0_BUY,[],"[3862, 2003, 2003]",[],[],[],[],"[1042, 1036]",[],[],[],[],[],"[6670, 1018, 2055]",[],[],[],[1037],[],"[2422, 6671]",[],[],[],[],[],[],[],[],[],[],[],[]
participant_0_SOLD,[],[],[],[],"[2010, 2003, 2003]",[2010],[],[],[2010],[],[],[3862],"[1036, 1042]",[],[],[],[],[],"[2422, 2422, 6670, 1018, 1037]",[],[],[],[],[],[],[],[3863],[],[],[],[]
participant_0_UNDO,[],[],[],[],[],[],[],[],[],[],[],[],[],[],[],[],[],[],[],[],[],[],[],[],[],[],[],[],[],[],[]
participant_1_GOLD,500,500,620,1018,1441,1689,2498,2705,2977,3185,3712,3935,4352,4609,4945,5067,5450,5897,6324,6497,6831,7080,7502,7749,8347,8760,8962,9085,9296,9610,10057
participant_1_CURRENTGOLD,500,0,120,518,941,1189,1998,2205,527,735,1262,1485,77,334,670,792,1175,1622,2049,272,606,855,1277,289,212,625,828,515,726,576,932
participant_1_LEVEL,1,1,2,3,4,4,5,5,5,5,6,7,7,8,8,8,9,9,10,10,11,11,11,12,12,13,13,13,13,14,15
participant_1_MINIONSKILLED,0,0,0,0,0,0,0,0,0,0,0,2,2,2,3,3,4,4,4,4,9,9,9,12,12,12,12,12,13,16,17
participant_1_KILLS,0,0,0,0,0,0,0,0,0,0,0,0,1,1,1,1,2,2,2,2,2,2,2,2,2,2,2,2,2,2,2
participant_1_BUY,[],"[1055, 2003, 3340]",[],[],[],[],[],[],[6670],[],[],[],[],"[1037, 1018, 2055]",[],[],"[6672, 3006]",[],"[2031, 2055]",[1042],[],[],[],[1053],[1042],[],[],"[1043, 1037]",[],[],[]
participant_1_SOLD,[],[],[],[],[2003],[],[],[2010],[2010],[],[],[],[],[],[2055],[2010],"[6670, 1018, 1037]",[],[],[],[],[2055],[],[],[2031],[],[],"[1042, 1042]",[],[],[]
participant_1_UNDO,[],[],[],[],[],[],[],[],[],[],[],[],[],[],[],[],[],[],[],[],[],[],[],[],[],[],[],[],[],[],[]
participant_2_GOLD,500,500,625,888,1467,1708,2124,2351,2623,3474,3701,4215,4520,4663,5228,5504,6112,6334,6595,6991,7329,7633,7823,7990,8287,8542,9180,9638,9781,10218,10635
participant_2_CURRENTGOLD,500,0,125,388,967,63,469,696,353,1194,1421,35,330,473,1038,214,822,9,270,666,1004,1308,1498,225,522,777,1416,1873,351,448,685
participant_2_LEVEL,1,1,1,3,4,5,6,7,7,8,8,9,10,10,10,10,11,12,12,12,13,13,13,13,13,14,14,15,15,15,15
participant_2_MINIONSKILLED,0,0,6,13,16,20,26,33,33,38,44,49,57,58,61,70,77,82,86,95,104,111,113,113,119,123,132,139,140,141,150
participant_2_KILLS,0,0,0,0,0,0,2,2,2,2,3,3,3,3,3,3,3,3,3,3,3,3,4,4,5,5,5,5,5,5,6
participant_2_BUY,[],"[1035, 2031, 3364]",[],[],[],[],[],[],"[3145, 1082, 1028, 2055, 2055]",[],[],[],"[4636, 2055]",[],[],[],[],[],[],"[3020, 3057, 1052, 2055]",[],[],[],"[3113, 1026]","[3100, 2055]",[],[],[1052],[],[3191],[]
participant_2_SOLD,[],[3340],[],[],[],[],[],[],[],[1035],[2055],[],"[3145, 1028]",[],"[2055, 2055]",[],[],[],[],"[2422, 2031]",[],[],[],"[1052, 2055]","[3057, 3113, 1026]",[],[],[],[],[1052],[]
participant_2_UNDO,[],[],[],[],[],[],[],[],[],[],[],[],[],[],[],[],[],[],[],[],[],[],[],[],[],[],[],[],[],[],[]
participant_3_GOLD,500,500,572,861,1124,1349,1589,1779,1948,2125,2522,2755,3357,3528,4112,4318,5080,5207,5482,5756,6010,6206,6717,6839,7080,7308,7722,8072,8429,8552,8777
participant_3_CURRENTGOLD,500,0,72,361,624,849,1089,1279,148,325,722,955,1557,178,762,968,5,132,182,156,410,606,1117,339,340,568,982,57,414,537,702
participant_3_LEVEL,1,1,1,2,3,4,5,5,6,6,6,7,8,8,8,9,9,9,9,10,10,10,11,11,11,11,12,12,13,13,13
participant_3_MINIONSKILLED,0,0,2,11,16,22,24,28,31,34,47,53,63,66,76,81,86,86,90,96,100,104,113,113,116,122,131,140,145,145,151
participant_3_KILLS,0,0,0,0,1,1,1,1,1,2,2,3,3,3,4,4,5,5,5,5,5,5,5,5,5,5,6,6,6,7,7
participant_3_BUY,[],"[1056, 2003, 2003]",[],[],[],"[1001, 1052, 1028]",[],[],"[4635, 2031]",[],[],[4633],[],[],[],"[3020, 1029]",[],"[3191, 1052]",[],[],[],[],[],"[3157, 1052]",[],[],[],[],"[4630, 1026]",[3135],[]
participant_3_SOLD,[],[],[],[],[2003],[2003],[],[],"[1028, 1052]",[],[],[4635],[],[],[],[1001],[],[1029],[],[],[],[],[],"[1056, 3191, 1052]",[],[],[],[],[1052],"[2031, 4630, 1026]",[]
participant_3_UNDO,[],[],[],[],[],[],[],[],[],[],[],[],[],[],[],[],[],[],[],[],[],[],[],[],[],[],[],[],[],[],[]
participant_4_GOLD,500,500,547,748,1020,1213,1486,1640,1869,2079,2258,2424,2653,2835,3133,3307,3780,3952,4092,4319,4460,4600,4741,4881,5021,5163,5303,5444,5584,5725,5863
participant_4_CURRENTGOLD,500,0,47,248,520,713,336,490,719,929,1108,1274,178,360,658,832,430,602,237,465,605,745,886,1026,1167,1308,1449,1589,1729,1870,1588
participant_4_LEVEL,1,1,1,2,3,4,4,4,5,6,6,7,7,7,8,8,8,9,9,9,9,9,9,9,9,9,9,9,9,9,9
participant_4_MINIONSKILLED,0,0,0,0,0,0,0,0,1,2,2,2,2,4,4,4,4,5,5,5,5,5,5,5,5,5,5,5,5,5,5
participant_4_KILLS,0,0,0,0,0,0,0,0,2,2,2,2,3,3,3,3,3,3,3,3,3,3,3,3,3,3,3,3,4,5,5
participant_4_BUY,[],"[1054, 2003]",[],[],[],[],"[1001, 1018, 2055, 2003]",[],[],"[1053, 1042, 3006, 1036, 1036, 1042]",[],[],[],"[6670, 1036, 1053, 2055, 2003]",[],[],"[6673, 2055]",[],[],[],"[6677, 1018]",[],"[1042, 1018]",[],[1042],[],[],[],[3124],[3051],[]
participant_4_SOLD,[],[],[],[],[],[2003],[],[2055],[2003],"[1001, 1042]",[],[],[],"[1042, 1054, 1036]",[],[2055],"[6670, 1018, 1053]",[2055],[3340],[3513],[2003],[],[],[],[],[],[],[],"[6677, 1018, 1042]",[],[]
participant_4_UNDO,[],[],[],[],[],[],[],[],[],"[[0, 1053], [0, 1036], [0, 1036]]",[],[],[],[],[],[],[],[],[],[],[],[],"[[0, 1042]]",[],[],[],[],[],[],[],[]
participant_5_GOLD,500,500,597,797,983,1140,1340,1598,1870,2108,2442,2635,2757,2998,3589,3739,4326,4539,4779,4990,5280,5646,5943,6135,6257,6681,6853,7241,7788,8202,8542
participant_5_CURRENTGOLD,500,0,97,297,483,640,240,498,770,1008,1342,1535,157,398,989,1139,1726,1939,679,890,180,546,843,1035,1157,1581,453,841,1388,202,542
participant_5_LEVEL,1,1,1,3,4,5,5,6,6,7,7,8,8,9,9,10,10,11,11,11,11,12,12,12,13,13,13,14,14,14,15
participant_5_MINIONSKILLED,0,0,4,8,12,14,18,23,23,31,40,44,44,51,56,58,63,68,71,78,81,81,87,91,91,91,91,95,95,97,97
participant_5_KILLS,0,0,0,0,0,0,1,1,1,1,1,1,1,1,2,2,3,3,3,3,3,3,3,3,3,3,3,4,5,5,5
participant_5_BUY,[],"[1039, 2031, 3340, 3364]",[],[],[],[],[],[],[],"[3145, 1026, 1042]",[1001],[],[],[],[4636],[],[3020],[],[],[],[],[],[],"[1026, 1043]",[],[],[3115],[],[],[],[]
participant_5_SOLD,[],[3340],[],[],[],[],[],[],[],[1039],[],[],[],[],"[3145, 1026]",[],[1001],[],[],[],[],[],[],[1042],[],[],"[1043, 1026]",[],[],[],[]
participant_5_UNDO,[],[],[],[],[],[],[],[],[],[],[],[],[],[],[],[],[],[],[],[],[],[],[],[],[],[],[],[],[],[],[]
participant_6_GOLD,500,500,620,933,1141,1604,2132,2339,2711,2919,3141,3349,3669,3926,4405,4627,5155,5372,5519,5757,6249,6557,6784,6981,7360,7908,8251,8902,9697,10129,10524
participant_6_CURRENTGOLD,500,0,120,433,641,1104,1632,1839,2211,219,141,349,669,926,105,327,55,272,419,657,1149,1457,1684,331,710,1258,451,1102,1897,2329,2724
participant_6_LEVEL,1,1,2,3,3,4,5,5,6,6,6,7,7,7,8,8,9,9,9,10,10,11,11,11,12,13,13,14,14,15,15
participant_6_MINIONSKILLED,0,0,0,0,0,1,1,1,1,1,1,1,4,4,8,8,8,8,8,9,9,11,11,11,11,11,11,11,11,11,11
participant_6_KILLS,0,0,0,0,0,0,0,0,0,0,0,0,0,0,0,0,1,1,1,1,1,1,1,1,1,1,1,1,1,1,2
participant_6_BUY,[],"[2003, 1054, 3340]",[],[],[],[],"[1029, 1001]",[],[],[],[],[],"[3047, 6660]",[],[],[],[],[],[3105],[],"[3068, 1029]",[],[],[],[],[],"[3066, 1031]",[],[],"[3742, 1029]",[]
participant_6_SOLD,[],[],[],[],[2003],[],[],[],[],[],[],[],"[1001, 1029]",[],[],[],[],[],[],[],"[6660, 3105]",[],[],[],[],[],[1029],[],[],"[3066, 1031]",[]
participant_6_UNDO,[],[],[],[],[],[],[],[],[],[],[],[],[],[],[],[],[],[],[],[],[],[],[],[],[],[],[],[],[],[],[]
participant_7_GOLD,500,500,583,913,1106,1814,2192,2391,3354,3957,4289,4571,4848,5935,6142,6516,6872,7014,7240,7649,8002,8782,8939,10038,10292,10716,11125,11755,13059,14243,14688
participant_7_CURRENTGOLD,500,0,83,403,221,919,1287,286,1249,302,634,6,273,760,292,666,122,264,490,899,1252,2032,2189,1088,743,46,455,1085,2390,973,1288
participant_7_LEVEL,1,1,1,3,3,5,6,6,7,7,8,9,9,10,10,11,11,11,11,12,12,13,13,13,13,14,14,15,15,16,16
participant_7_MINIONSKILLED,0,0,3,13,17,30,42,47,49,49,61,67,73,83,88,99,103,105,107,119,125,132,134,140,144,144,153,161,174,182,189
participant_7_KILLS,0,0,0,0,0,1,1,1,3,4,4,4,4,5,5,5,5,5,5,5,5,6,6,8,8,8,8,8,9,11,11
participant_7_BUY,[],"[1055, 3340, 2003]",[],[],"[1042, 2055]",[],[],"[3111, 3006, 1036, 2003]",[],"[1018, 6670]",[],[1053],[],[6673],"[1018, 2055]",[],[1057],[],[],[],[],[],[],[3091],[1018],[1038],[],[],[],"[3072, 3133]",[]
participant_7_SOLD,[],[],[],[],[],[],[],[1042],[2003],"[2003, 2055, 1036]",[],[],[],"[6670, 1018, 1053]",[2055],[],[],[],[],[],[],[],[],[1057],[],[1055],[],[],[],"[1038, 1018]",[]
participant_7_UNDO,[],[],[],[],[],[],[],"[[0, 3111]]",[],[],[],[],[],[],[],[],[],[],[],[],[],[],[],[],[],[],[],[],[],[],[]
participant_8_GOLD,500,500,541,776,997,1133,1441,1675,1867,2095,2217,2534,3258,3430,3552,3724,3846,4268,4530,5030,5391,5939,6125,6505,6902,7450,8447,8619,9288,9731,9941
participant_8_CURRENTGOLD,500,0,41,276,497,283,591,825,1017,1245,117,434,358,530,217,389,46,468,730,1230,391,939,1125,1505,652,1200,2197,1119,1788,2231,291
participant_8_LEVEL,1,1,1,2,3,3,4,5,5,6,6,7,7,8,8,8,8,8,9,10,10,10,11,11,12,12,13,13,14,15,15
participant_8_MINIONSKILLED,0,0,1,7,12,13,15,22,26,32,32,41,43,46,46,49,49,49,53,58,62,75,78,89,89,92,98,98,112,116,117
participant_8_KILLS,0,0,0,0,0,0,0,0,0,0,0,0,2,2,2,2,2,3,3,3,3,3,3,3,4,4,5,5,5,5,5
participant_8_BUY,[],"[1056, 2003, 2003]",[],[],[],[1027],[],[],[],[],"[3802, 1001]",[],[3020],[],[1052],[],[3108],[],[],[],[6653],[],[],[],[1058],[],[],[1058],[],[],"[3089, 1026]"
participant_8_SOLD,[],[],[],[],[],[],[],[],[],[],[1027],[2003],[1001],[],[],[],[1052],[],[],[2003],"[3802, 3108]",[],[],[],[],[],[],[],[],[],"[1058, 1058]"
participant_8_UNDO,[],[],[],[],[],[],[],[],[],[],[],[],[],[],[],[],[],[],[],[],[],[],[],[],[],[],[],[],[],[],[]
participant_9_GOLD,500,500,522,697,832,966,1184,1358,1580,1815,1949,2125,2646,2899,3093,3373,3782,3992,4305,5359,5704,5981,6479,6818,6959,7532,7827,8231,8762,9003,9172
participant_9_CURRENTGOLD,500,0,22,197,332,466,34,208,430,665,799,975,1496,214,408,688,1097,1307,1620,2674,120,396,894,1233,1374,247,543,946,612,853,172
participant_9_LEVEL,1,1,1,2,3,3,4,4,5,5,6,6,7,8,8,9,9,10,10,11,11,11,11,12,12,13,13,14,14,14,14
participant_9_MINIONSKILLED,0,0,0,0,0,0,1,1,3,3,3,4,4,11,12,17,25,26,34,39,40,42,45,46,46,50,57,60,66,66,70
participant_9_KILLS,0,0,0,0,0,0,0,0,0,0,0,0,0,0,0,0,0,0,0,2,2,2,3,3,3,3,3,3,3,3,3
participant_9_BUY,[],"[3850, 2003, 2003, 3340]",[],[],[],[],"[1027, 1001]",[],[],[],[],[],[],"[3802, 1052, 2055, 2055, 3364]",[],[],[],[],[],[],"[6653, 3020, 1052]",[],[],[],[],"[3108, 3067, 1052]",[],[],[4629],[],[1026]
participant_9_SOLD,[],[],[],[],[2003],[2003],[],[],[],[],[],[],[],"[3850, 1027, 3340]",[],[2055],[],[2055],[],[],"[3851, 3802, 1052, 1001]",[],[],[],[],[1052],[],[],"[3108, 3067, 1052]",[],[]
participant_9_UNDO,[],[],[],[],[],[],[],[],[],[],[],[],[],[],[],[],[],[],[],[],[],[],[],[],[],[],[],[],[],[],[]
team0_KILLS,0,0,0,0,1,1,3,3,5,6,7,8,10,10,11,11,14,14,14,14,14,14,15,15,16,16,17,17,18,20,21
team0_CURRENTGOLD,2500,0,384,1847,3647,3699,3945,5023,2862,3321,5139,4792,3948,1512,3481,3424,2498,2770,3328,3119,2992,4131,4917,2140,2490,3845,5449,5146,3988,3542,4365
team0_TOTALGOLD,2500,2500,2884,4347,6147,7344,9275,10353,12057,13626,15444,16997,19313,20272,22241,23284,25633,26940,28228,30268,31542,32681,34067,34865,36429,37785,39386,40796,42403,43861,45615
team0_LEVEL,5,5,6,13,18,22,26,27,30,32,33,38,41,42,44,45,47,49,51,52,54,55,56,57,57,59,61,62,63,64,66
team0_SBIRES,0,0,8,34,50,67,79,98,102,111,142,163,190,201,219,238,251,262,274,304,322,335,346,349,366,383,406,430,438,442,468
team1_KILLS,0,0,0,0,0,1,2,2,4,5,5,5,7,8,9,9,11,12,12,14,14,15,16,18,19,19,20,21,23,25,26
team1_CURRENTGOLD,2500,0,363,1606,2174,3412,3784,3656,5677,3439,3033,3299,2953,2828,2011,3209,3046,4250,3938,6350,3092,5370,6735,5192,4636,4332,4099,5093,8075,6588,5017
team1_TOTALGOLD,2500,2500,2863,4116,5059,6657,8289,9361,11382,12894,14038,15214,17178,19188,20781,21979,23981,25185,26373,28785,30626,32905,34270,36477,37770,40287,42503,44748,48594,51308,52867
team1_LEVEL,5,5,6,13,16,20,24,26,29,31,33,37,38,42,43,46,47,49,50,54,54,57,58,59,62,65,66,70,71,74,75
team1_SBIRES,0,0,8,28,41,58,77,94,102,116,137,157,168,195,210,231,248,256,273,303,317,341,355,377,381,388,410,425,458,472,484
delta_KILLS,0,0,0,0,1,0,1,1,1,1,2,3,3,2,2,2,3,2,2,0,0,-1,-1,-3,-3,-3,-3,-4,-5,-5,-5
delta_CURRENTGOLD,0,0,21,241,1473,287,161,1367,-2815,-118,2106,1493,995,-1316,1470,215,-548,-1480,-610,-3231,-100,-1239,-1818,-3052,-2146,-487,1350,53,-4087,-3046,-652
delta_TOTALGOLD,0,0,21,231,1088,687,986,992,675,732,1406,1783,2135,1084,1460,1305,1652,1755,1855,1483,916,-224,-203,-1612,-1341,-2502,-3117,-3952,-6191,-7447,-7252
delta_LEVEL,0,0,0,0,2,2,2,1,1,1,0,1,3,0,1,-1,0,0,1,-2,0,-2,-2,-2,-5,-6,-5,-8,-8,-10,-9
delta_SBIRES,0,0,0,6,9,9,2,4,0,-5,5,6,22,6,9,7,3,6,1,1,5,-6,-9,-28,-15,-5,-4,5,-20,-30,-16
