name,team0,team1
win,Win,Fail
firstBlood,True,False
firstTower,True,False
firstInhibitor,True,False
firstBaron,False,True
firstDragon,True,False
firstRiftHerald,False,True
towerKills,8,6
inhibitorKills,2,1
baronKills,0,1
dragonKills,3,3
riftHeraldKills,0,2
