name,team0,team1
win,Win,Fail
firstBlood,False,True
firstTower,True,False
firstInhibitor,True,False
firstBaron,False,False
firstDragon,False,False
firstRiftHerald,False,False
towerKills,4,2
inhibitorKills,2,1
baronKills,0,0
dragonKills,0,0
riftHeraldKills,0,0
