name,frame_0,frame_1,frame_2,frame_3,frame_4,frame_5,frame_6,frame_7,frame_8,frame_9,frame_10,frame_11,frame_12,frame_13,frame_14,frame_15,frame_16,frame_17,frame_18,frame_19,frame_20,frame_21,frame_22,frame_23,frame_24,frame_25,frame_26,frame_27,frame_28,frame_29,frame_30,frame_31,frame_32,frame_33,frame_34
nameStamp,Tstart,Tearly,Tearly,Tearly,Tearly,Tearly,Tearly,Tearly,Tearly,Tearly,Tearly,Tearly,Tearly,Tearly,Tearly,Tearly,Tmid,Tmid,Tmid,Tmid,Tmid,Tmid,Tmid,Tmid,Tmid,Tmid,Tmid,Tmid,Tend,Tend,Tend,Tend,Tend,Tend,Tend
timestamp,0,60014,120035,180062,240080,300102,360130,420158,480183,540205,600222,660254,720274,780290,840303,900321,960332,1020349,1080356,1140369,1200383,1260401,1320414,1380432,1440444,1500462,1560475,1620498,1680514,1740537,1800553,1860576,1920598,1980630,2040630
participant_0_GOLD,500,500,663,908,1186,1385,1508,2085,2398,2841,3040,3263,3485,3726,3924,4154,4382,4923,5046,5497,5939,6232,6619,6837,6973,7180,7520,7768,8075,8298,8435,8578,8721,8844,8904
participant_0_CURRENTGOLD,500,0,163,408,686,885,358,935,1248,216,415,638,860,1101,99,329,557,1098,121,572,214,507,894,262,398,605,945,843,1150,1373,310,453,597,719,779
participant_0_LEVEL,1,1,2,2,3,4,4,4,5,6,6,6,7,7,7,8,8,9,9,9,9,10,10,11,11,12,12,12,13,13,13,13,13,13,13
participant_0_MINIONSKILLED,0,0,0,0,0,0,0,2,3,3,3,3,3,3,3,3,3,5,5,5,5,5,9,9,10,11,11,14,15,15,16,17,18,18,18
participant_0_KILLS,0,0,0,0,0,0,0,1,1,2,2,2,2,2,2,2,2,2,2,3,4,4,4,4,4,4,4,4,4,4,4,4,4,4,4
participant_0_BUY,[],"[3340, 1006, 1041]",[],[],[],[],[3706],[],[],"[3077, 1001]",[],[],[],[],"[3751, 1029]",[],[],[],"[1401, 3047]",[],[3067],[],[],"[1028, 1033]",[],[],[],[3211],[],[],"[3065, 1028]",[],[],[],[]
participant_0_SOLD,[],[],[],[],[],[],[1041],[],[],[1006],[],[],[],[],[],[],[],[],"[3751, 3706, 1001, 1029]",[],[],[],[],[],[],[],[],"[1028, 1033]",[],[],"[3211, 3067]",[],[],[],[]
participant_0_UNDO,[],[],[],[],[],[],[],[],[],[],[],[],[],[],[],[],[],[],[],[],[],[],[],[],[],[],[],[],[],[],[],[],[],[],[]
participant_1_GOLD,500,500,523,762,1001,1360,1525,1823,2013,2207,2662,2846,3046,3300,4020,4518,4745,5100,5551,6121,6731,6949,7409,7976,8206,8451,8698,8838,9128,9270,9410,9842,9997,10262,10331
participant_1_CURRENTGOLD,500,0,23,262,501,860,175,38,228,422,877,1061,1261,100,820,218,445,365,351,921,196,414,174,741,971,1216,363,503,794,935,1076,1508,97,363,127
participant_1_LEVEL,1,1,1,2,3,4,4,4,5,5,6,7,7,7,8,9,9,9,10,10,11,11,12,12,12,13,13,13,13,13,13,14,14,14,14
participant_1_MINIONSKILLED,0,0,0,0,1,1,1,2,5,6,12,13,13,18,18,18,21,22,22,22,22,26,26,30,31,33,37,37,37,37,37,38,39,42,42
participant_1_KILLS,0,0,0,0,0,0,0,0,0,0,0,0,0,0,1,2,2,2,2,3,4,4,5,6,6,6,6,6,6,6,6,6,6,6,6
participant_1_BUY,[],"[3850, 2003, 2003, 3340]",[],[],[],[],"[3114, 2003]",[1052],[],[],[],[],[],"[3504, 1001, 2003]",[],[3191],[],[1052],[3108],[],"[3157, 1052]",[],[3117],[],[],[],"[3105, 3105]",[],[],[],[],[],"[3050, 3113]",[],[]
participant_1_SOLD,[],[],[],[2003],[2003],[],[],[],[],[],"[2003, 3850]",[],[],"[3114, 1052]",[2003],[],[],[],[1052],[3851],"[3191, 3108]",[],[1001],[],[],[],[],[],[1052],[],[],[],"[3105, 1052]",[],[]
participant_1_UNDO,[],[],[],[],[],[],[],[],[],[],[],[],[],[],[],[],[],[],[],[],[],[],[],[],[],[],"[[0, 3105]]",[],"[[1052, 0]]",[],[],[],[],[],[]
participant_2_GOLD,500,500,563,797,962,1182,1305,1469,1779,2128,2633,2847,3109,4032,4197,4487,4823,5510,6168,6486,6608,7266,7688,7885,8231,8993,9381,9503,9868,10441,10563,10702,10845,11196,11256
participant_2_CURRENTGOLD,500,0,63,297,112,332,155,319,629,278,783,997,1259,2182,447,737,1073,1760,2418,2736,375,1033,1455,552,898,1660,2048,170,535,1108,961,99,242,294,173
participant_2_LEVEL,1,1,1,3,3,4,4,5,6,6,7,7,8,9,10,10,11,11,12,12,12,13,13,13,14,14,14,14,15,15,15,15,15,16,16
participant_2_MINIONSKILLED,0,0,2,8,10,13,13,15,23,26,30,35,43,52,55,60,68,79,80,87,87,88,101,101,110,110,115,115,121,126,126,126,127,132,132
participant_2_KILLS,0,0,0,0,0,0,0,0,0,0,1,1,1,2,2,2,2,2,3,3,3,4,4,4,4,6,6,6,6,6,6,6,6,6,6
participant_2_BUY,[],"[1054, 2003]",[],[],[1027],[],[1001],[],[],[3057],[],[],[],[],"[3047, 3101]",[],[],[],[],[],"[3078, 3024]",[],[],"[3801, 1033]",[],[],[],"[3800, 3211, 1006]",[],[],[1033],[3194],[],[1029],[]
participant_2_SOLD,[],[],[2003],[],[],[],[],[],[],[1027],[],[],[],[],[1001],[],[],[],[],[],"[3101, 3057]",[],[],[],[],[],[],"[3024, 3801, 1033]",[],[],[1054],"[1033, 3211, 1006]",[],[],[]
participant_2_UNDO,[],[],[],[],[],[],[],[],[],[],[],[],[],[],[],[],[],[],[],[],[],[],[],[],[],[],[],[],[],[],[],[],[],[],[]
participant_3_GOLD,500,500,542,664,1285,1540,1677,1862,2830,3193,3563,3845,4246,4396,4603,4842,4965,6034,6199,6467,6590,6712,7342,7507,7800,7923,8378,8500,9950,10661,10950,11204,11355,11477,11537
participant_3_CURRENTGOLD,500,0,42,164,785,1040,77,262,1230,1593,163,445,846,196,403,642,765,1834,699,92,215,337,967,357,100,223,678,800,2250,2961,300,555,155,277,337
participant_3_LEVEL,1,1,1,2,3,4,5,5,6,7,7,8,9,9,9,9,9,10,10,11,11,11,11,11,11,11,12,12,13,13,14,14,14,14,14
participant_3_MINIONSKILLED,0,0,1,1,3,8,9,13,17,28,33,39,46,48,53,53,53,59,62,62,62,62,69,71,72,72,76,76,82,94,100,104,106,106,106
participant_3_KILLS,0,0,0,0,1,1,1,1,3,3,3,3,3,3,3,3,3,5,5,5,5,5,6,6,6,6,6,6,9,10,10,10,10,10,10
participant_3_BUY,[],"[1055, 2003, 3340]",[],[],[],[],"[1018, 1042]",[],[],[],"[3046, 1001]",[],[],[1018],[],[],[],[],[1038],[1037],[],[],[],"[3031, 1036]",[1053],[],[],[],[],[],"[3072, 1036]",[],[1053],[],[]
participant_3_SOLD,[],[],[],[2003],[],[],[],[],[],[],"[1042, 1018]",[],[],[],[],[],[],[],[],[],[],[],[],"[1038, 1037, 1018]",[1036],[],[],[],[],[],[1053],[],[1036],[],[]
participant_3_UNDO,[],[],[],[],[],[],[],[],[],[],[],[],[],[],[],[],[],[],[],[],[],[],[],[],[],[],[],[],[],[],[],[],[],[],[]
participant_4_GOLD,500,500,556,787,987,1597,1957,2230,2822,3057,3499,3797,3933,4453,5505,5823,6388,7264,7797,8090,8382,8504,8702,8824,10001,10238,10873,10995,11591,11714,11836,12991,13309,13445,13505
participant_4_CURRENTGOLD,500,0,56,287,487,1097,1457,1730,22,257,299,597,733,1253,1505,623,1188,664,297,290,82,205,402,184,1362,298,933,1056,1651,575,397,1552,1169,1306,805
participant_4_LEVEL,1,1,1,2,3,4,5,5,6,6,7,7,7,8,9,9,10,10,11,11,11,11,12,12,12,13,13,13,14,14,14,15,15,15,15
participant_4_MINIONSKILLED,0,0,2,6,10,17,21,24,24,30,30,41,42,44,45,52,55,60,65,65,65,65,65,65,67,69,70,70,78,78,78,86,93,94,94
participant_4_KILLS,0,0,0,0,0,1,1,1,2,2,3,3,3,4,5,5,6,7,8,8,8,8,8,8,9,9,10,10,10,10,10,12,12,12,12
participant_4_BUY,[],"[1055, 2003, 3340]",[],[],[],[],[],[],"[1038, 1001, 1036, 1036]",[],[3133],[],[],[],[3006],"[3508, 1042]",[],"[3086, 1042]",[3085],[1029],[1031],[],[],[1053],[],[3140],[],[],[],[3139],[1042],[],[1043],[],[]
participant_4_SOLD,[],[],[],[],[2003],[],[],[],[],[],"[1036, 1036]",[],[],[],[1001],"[1038, 3133]",[],[1042],"[1042, 3086]",[],[1029],[],[],[1031],[],[],[],[],[],"[3140, 1053]",[],[],[1042],[],[]
participant_4_UNDO,[],[],[],[],[],[],[],[],[],[],[],[],[],[],[],[],[],[],[],[],[],[],[],[],[],[],[],[],[],[],[],[],[],[],[]
participant_5_GOLD,500,500,535,1120,1643,1794,2394,2614,3434,4034,4628,5012,5639,6137,6911,7083,7949,8071,8844,9446,10632,11344,12085,12712,13686,13961,14950,15373,15882,16501,17189,17473,17620,18180,18391
participant_5_CURRENTGOLD,500,0,35,620,1143,144,309,529,484,1084,628,1012,1639,2137,2911,883,1749,621,294,821,2008,1129,1870,2498,631,906,1896,18,528,1147,1835,2119,516,1076,1066
participant_5_LEVEL,1,1,1,2,4,4,5,6,7,7,8,8,9,9,9,9,10,10,11,11,12,13,13,14,14,14,15,16,16,16,16,17,17,17,17
participant_5_MINIONSKILLED,0,0,1,4,12,14,16,22,33,35,36,41,41,41,45,45,45,45,45,45,46,58,59,65,65,70,77,77,81,85,90,90,90,90,90
participant_5_KILLS,0,0,0,1,2,2,3,3,4,5,6,6,7,8,10,10,12,12,14,15,18,19,21,22,24,24,25,25,25,26,27,27,27,27,27
participant_5_BUY,[],"[1056, 2003, 3340, 2003]",[],[],[],"[1001, 1026]",[1052],[],[3802],[],[3285],[],[],[],[],"[3020, 1058, 2055, 2055]",[],[1058],[3089],[2055],[],"[3108, 1026]",[],[],"[3157, 3108]",[],[],"[3102, 3145]",[],[],[],[],[3030],[],[]
participant_5_SOLD,[],[],[],[],[],[2003],[2003],[],[1052],[],"[3802, 1026]",[],[],[],[],"[1001, 2055]",[],[],"[1058, 1058]",[],[],[1056],[],[],"[3108, 2055, 2055]",[],[],"[3108, 1026]",[],[],[],[],[3145],[],[]
participant_5_UNDO,[],[],[],[],[],[],[],[],[],[],[],[],[],[],[],[],[],[],[],[],[],[],[],[],[],[],[],[],[],[],[],[],[],[],[]
participant_6_GOLD,500,500,535,895,1017,1224,1781,1924,2207,2378,2734,3015,3291,3540,4065,4238,4767,4889,5346,5693,6285,6639,6852,6995,7396,7603,7761,8183,8455,8642,8814,8936,9059,9461,9621
participant_6_CURRENTGOLD,500,50,85,445,217,423,981,149,432,253,59,340,616,865,1390,288,816,189,646,993,1585,1938,2152,2295,2696,153,311,733,155,342,514,637,459,862,1021
participant_6_LEVEL,1,1,1,2,2,4,5,5,5,5,6,7,7,8,9,9,9,9,9,10,10,11,11,11,11,11,12,12,12,12,12,13,13,13,13
participant_6_MINIONSKILLED,0,0,1,5,5,9,13,14,14,17,21,27,36,43,49,49,56,56,58,62,62,68,74,75,80,80,82,82,82,86,86,86,86,87,87
participant_6_KILLS,0,0,0,0,0,0,1,1,1,1,1,1,1,1,1,1,2,2,2,2,3,3,3,3,3,3,3,3,3,3,3,3,3,3,3
participant_6_BUY,[],[1055],[],[],[1036],[],[],[3077],[],[1036],[1053],[],[],[],[],[3074],[],"[1001, 1033]",[],[],[],[],[],[],[],"[3111, 3155, 3133]",[],[],[3156],[],[],[],[1029],[],[]
participant_6_SOLD,[],[],[],[],[],[],[],[1036],[],[],[1036],[],[],[],[],"[3077, 1053]",[],[],[],[],[],[],[],[],[],"[1001, 1033]",[],[],"[3155, 3133]",[],[],[],[],[],[]
participant_6_UNDO,[],[],[],[],[],[],[],[],[],[],[],[],[],[],[],[],[],[],[],[],[],[],[],[],[],[],[],[],[],[],[],[],[],[],[]
participant_7_GOLD,500,500,563,829,1050,1270,1393,1620,1784,2242,2553,2934,3168,3311,3634,3876,4160,4324,4752,5345,5542,5914,6036,6461,7127,7277,8185,8646,8768,9331,9841,10441,10564,11118,11564
participant_7_CURRENTGOLD,500,0,63,329,550,770,293,520,684,42,353,734,968,1111,1434,1676,1960,924,1352,645,42,414,536,961,1627,477,1385,246,369,931,1441,2042,864,1418,1864
participant_7_LEVEL,1,1,1,3,4,4,4,5,6,7,8,8,9,9,9,10,10,11,11,11,11,12,12,12,13,13,14,14,14,15,15,15,15,16,16
participant_7_MINIONSKILLED,0,0,2,8,14,17,17,23,25,27,39,45,51,52,60,64,69,69,73,73,73,75,75,78,87,89,91,92,92,95,100,101,101,105,111
participant_7_KILLS,0,0,0,0,0,0,0,0,0,1,1,1,1,1,1,1,1,1,1,2,2,2,2,2,2,2,3,3,3,4,4,5,5,5,5
participant_7_BUY,[],"[1055, 2003, 3340]",[],[],[],[],"[1001, 1042]",[],[],[3086],[],[],[],[],[],[],[],[3094],[],[1038],[1018],[],[],[],[],[3031],[],"[3006, 1018]",[],[],[],[],[1038],[],[]
participant_7_SOLD,[],[],[],[],[2003],[],[],[],[],[1042],[],[],[],[],[],[],[],[3086],[],[],[],[],[],[],[],"[1038, 1018]",[],[1001],[],[],[],[],[],[],[]
participant_7_UNDO,[],[],[],[],[],[],[],[],[],[],[],[],[],[],[],[],[],[],[],[],[],[],[],[],[],[],[],[],[],[],[],[],[],[],[]
participant_8_GOLD,500,500,563,839,1232,1737,1982,2480,2630,3074,3395,3761,4136,4820,5289,5805,6211,6549,7820,7956,8895,9840,10293,11101,11458,11605,12954,13741,14225,14489,15333,16369,17799,19598,19911
participant_8_CURRENTGOLD,500,0,63,339,732,1237,232,730,205,649,230,596,971,455,924,140,546,9,1280,191,1130,176,628,36,393,541,1889,2676,3161,204,1048,2085,3514,5313,5386
participant_8_LEVEL,1,1,1,2,3,4,4,5,5,6,6,7,7,8,8,9,9,9,11,11,12,13,13,14,14,14,15,15,15,16,16,16,17,18,18
participant_8_MINIONSKILLED,0,0,2,11,23,27,31,34,36,52,55,66,77,86,93,98,110,119,131,131,138,154,161,169,169,169,170,174,174,174,184,186,198,204,209
participant_8_KILLS,0,0,0,0,0,1,1,2,2,2,2,2,2,3,3,3,3,3,4,4,5,5,5,7,7,7,10,10,11,11,12,14,17,21,21
participant_8_BUY,[],"[1055, 2003]",[],[],[],[],"[3006, 2031]",[],"[1042, 1042, 2055]",[],[1018],[],[],[3087],[],"[3363, 1038]",[],[1037],[],[3031],[],"[1053, 1043]",[],[3153],[],[],[],[],[],"[3140, 3139]",[],[],[],[],[]
participant_8_SOLD,[],[],[],[2003],[],[],[],[],[],[],[2031],[],[],"[1018, 1042, 1042]",[],[3340],[],[2055],[],"[1038, 1037]",[],[],[],"[1053, 1043]",[],[],[],[],[],"[1055, 3140]",[],[],[],[],[]
participant_8_UNDO,[],[],[],[],[],[],[],[],[],[],[],[],[],[],[],[],[],[],[],[],[],[],[],[],[],[],[],[],[],[],[],[],[],[],[]
participant_9_GOLD,500,500,544,692,869,1017,1152,1456,1646,1864,2580,2729,3068,3392,3803,4201,4594,4729,4913,5313,5527,5968,6279,6440,6925,7066,7301,7742,7882,8164,8486,8715,8946,9903,10072
participant_9_CURRENTGOLD,500,0,44,192,369,217,352,56,246,464,1180,1329,1668,1992,2403,2801,3194,3329,1413,1812,327,768,1079,1240,1725,1866,1701,2142,82,364,686,915,1146,2103,2272
participant_9_LEVEL,1,1,1,2,3,3,4,4,5,6,7,7,8,8,9,9,10,10,10,10,11,11,12,12,13,13,13,14,14,14,15,15,16,16,16
participant_9_MINIONSKILLED,0,0,1,2,4,5,5,5,8,10,16,17,19,19,20,21,21,21,21,21,21,32,32,33,36,36,36,36,36,36,36,36,37,39,39
participant_9_KILLS,0,0,0,0,0,0,0,0,0,0,1,1,1,1,1,1,1,1,1,1,1,1,1,1,1,1,1,1,1,1,1,1,1,2,2
participant_9_BUY,[],"[3858, 2003, 2003, 3340]",[],[],[],[1001],[],[3009],[],[],[],[],[],[],[],[],[],[],[3107],[],"[3108, 3028]",[],[],[],[],[],[3174],[],[3109],[],[],[],[],[],[]
participant_9_SOLD,[],[],[],[],"[2003, 2003]",[],[],[1001],[],[],[],[],[],[],[],[],[],[],[],[],[3858],[],[],[],[],[],"[3108, 3028]",[],[],[],[],[],[],[3859],[]
participant_9_UNDO,[],[],[],[],[],[],[],[],[],[],[],[],[],[],[],[],[],[],[],[],[],[],[],[],[],[],[],[],[],[],[],[],[],[],[]
team0_KILLS,0,0,0,0,1,2,2,3,6,7,9,9,9,11,13,14,15,18,20,22,24,25,27,28,29,31,32,32,35,36,36,38,38,38,38
team0_CURRENTGOLD,2500,0,347,1418,2571,4214,2222,3284,3357,2766,2537,3738,4959,4832,3274,2549,4028,5721,3886,4611,1082,2496,3892,2096,3729,4002,4967,3372,6380,6952,3044,4167,2260,2959,2221
team0_TOTALGOLD,2500,2500,2847,3918,5421,7064,7972,9469,11842,13426,15397,16598,17819,19907,22249,23824,25303,28831,30761,32661,34250,35663,37760,39029,41211,42785,44850,45604,48612,50384,51194,53317,54227,55224,55533
team0_LEVEL,5,5,6,11,15,20,22,23,28,30,33,35,38,40,43,45,47,49,52,53,54,56,58,59,60,63,64,64,68,68,69,71,71,72,72
team0_SBIRES,0,0,5,15,24,39,44,56,72,93,108,131,147,165,174,186,200,225,234,241,241,246,270,276,290,295,309,312,333,350,357,371,383,392,392
team1_KILLS,0,0,0,1,2,3,5,6,7,9,11,11,12,14,16,16,19,19,22,24,29,30,32,35,37,37,42,42,43,45,47,50,53,58,58
team1_CURRENTGOLD,2500,50,290,1925,3011,2791,2167,1984,2051,2492,2450,4011,5862,6560,9062,5788,8265,5072,4985,4462,5092,4425,6265,7030,7072,3943,7182,5815,4295,2988,5524,7798,6499,10772,11609
team1_TOTALGOLD,2500,2500,2740,4375,5811,7042,8702,10094,11701,13592,15890,17451,19302,21200,23702,25203,27681,28562,31675,33753,36881,39705,41545,43709,46592,47512,51151,53685,55212,57127,59663,61934,63988,68260,69559
team1_LEVEL,5,5,5,11,16,19,22,25,28,31,35,37,40,42,44,46,48,49,52,53,56,60,61,63,65,65,69,71,71,73,74,76,78,80,80
team1_SBIRES,0,0,7,30,58,72,82,98,116,141,167,196,224,241,267,277,301,310,328,332,340,387,401,420,437,444,456,461,465,476,496,499,512,525,536
delta_KILLS,0,0,0,-1,-1,-1,-3,-3,-1,-2,-2,-2,-3,-3,-3,-2,-4,-1,-2,-2,-5,-5,-5,-7,-8,-6,-10,-10,-8,-9,-11,-12,-15,-20,-20
delta_CURRENTGOLD,0,-50,57,-507,-440,1423,55,1300,1306,274,87,-273,-903,-1728,-5788,-3239,-4237,649,-1099,149,-4010,-1929,-2373,-4934,-3343,59,-2215,-2443,2085,3964,-2480,-3631,-4239,-7813,-9388
delta_TOTALGOLD,0,0,107,-457,-390,22,-730,-625,141,-166,-493,-853,-1483,-1293,-1453,-1379,-2378,269,-914,-1092,-2631,-4042,-3785,-4680,-5381,-4727,-6301,-8081,-6600,-6743,-8469,-8617,-9761,-13036,-14026
delta_LEVEL,0,0,1,0,-1,1,0,-2,0,-1,-2,-2,-2,-2,-1,-1,-1,0,0,0,-2,-4,-3,-4,-5,-2,-5,-7,-3,-5,-5,-5,-7,-8,-8
delta_SBIRES,0,0,-2,-15,-34,-33,-38,-42,-44,-48,-59,-65,-77,-76,-93,-91,-101,-85,-94,-91,-99,-141,-131,-144,-147,-149,-147,-149,-132,-126,-139,-128,-129,-133,-144
