name,frame_0,frame_1,frame_2,frame_3,frame_4,frame_5,frame_6,frame_7,frame_8,frame_9,frame_10,frame_11,frame_12,frame_13,frame_14,frame_15,frame_16,frame_17,frame_18,frame_19,frame_20,frame_21,frame_22,frame_23
nameStamp,Tstart,Tearly,Tearly,Tearly,Tearly,Tearly,Tearly,Tearly,Tearly,Tearly,Tearly,Tearly,Tmid,Tmid,Tmid,Tmid,Tmid,Tmid,Tmid,Tmid,Tmid,Tmid,Tmid,Tmid
timestamp,0,60007,120034,180061,240089,300123,360135,420155,480158,540173,600182,660183,720210,780225,840241,900260,960272,1020298,1080304,1140319,1200319,1260329,1320336,1380336
participant_0_GOLD,500,500,521,769,892,1091,1270,1392,1570,1693,1815,1938,2125,2401,2524,2702,2965,3207,3329,3589,3711,3834,3956,3994
participant_0_CURRENTGOLD,500,25,46,294,17,216,395,517,695,108,230,353,540,816,69,247,510,752,874,54,176,299,421,319
participant_0_LEVEL,1,1,1,2,2,3,4,4,5,5,5,5,5,6,6,7,8,8,8,8,8,8,8,8
participant_0_MINIONSKILLED,0,0,0,8,8,13,16,16,20,20,20,20,23,26,26,29,38,40,40,40,40,40,40,40
participant_0_KILLS,0,0,0,0,0,1,1,1,1,3,3,3,5,5,5,5,7,7,7,8,8,8,8,8
participant_0_BUY,[],"[1035, 2031, 3340]",[],[],[],[],[],[3134],[],[],"[3133, 1018]",[],[],"[6691, 1036]",[1036],[],[],[3134],[],[6676],[],[1018],[],[]
participant_0_SOLD,[],[],[],[],[],[],[],[],[],[1035],[],[],[],"[3134, 3133]",[],[],[],"[1036, 1036]",[],"[3134, 1018]",[],[],[],[]
participant_0_UNDO,[],[],[],[],[],[],[],[],[],[],[],[],[],[],[],[],[],[],[],[],[],[],[],[]
participant_1_GOLD,500,500,606,963,1163,1599,1722,2034,2247,3070,3192,3425,4608,4815,5038,5375,6147,6354,6602,6999,7384,7506,7628,7666
participant_1_CURRENTGOLD,500,0,106,463,663,1099,1222,434,647,1470,-158,75,1258,65,-112,225,997,804,1052,149,534,56,178,366
participant_1_LEVEL,1,1,2,3,3,3,3,4,4,5,5,6,7,7,7,8,9,9,9,10,10,10,10,10
participant_1_MINIONSKILLED,0,0,0,0,0,1,1,1,1,1,1,1,1,1,1,2,5,5,5,5,5,5,5,5
participant_1_KILLS,0,0,0,0,0,0,0,0,0,0,0,0,0,0,0,0,0,0,0,0,0,0,0,0
participant_1_BUY,[],"[1082, 2003, 2055]",[],[],[1028],[],[],[],[],[1026],[],[],[],[],"[1052, 1052]",[],[],[],[],[4636],[],[],[],[]
participant_1_SOLD,[],[],[],"[2003, 2010]",[],[2010],[],[],"[2010, 2055]",[1082],[],[],[],[],[],"[2419, 2423]",[],[],[],"[1052, 1052, 1028, 1026]",[],[],[],[]
participant_1_UNDO,[],[],[],[],[],[],[],[],[],[],[],[],[],[],[],[],[],[],[],[],[],[],[],[]
participant_2_GOLD,500,500,563,818,997,1380,1559,1758,2082,2375,2866,3127,3908,4156,4444,4685,4885,5637,5926,6063,6801,6924,7074,7112
participant_2_CURRENTGOLD,500,0,63,318,497,880,84,283,597,880,71,322,1103,1351,129,370,570,1322,1611,78,816,759,909,987
participant_2_LEVEL,1,1,1,3,4,5,6,6,7,8,8,8,9,10,10,10,11,11,12,12,12,12,12,12
participant_2_MINIONSKILLED,0,0,2,10,13,18,21,26,34,41,44,49,55,63,69,76,81,86,92,93,97,97,99,99
participant_2_KILLS,0,0,0,0,0,1,1,1,1,1,1,1,1,1,1,1,1,1,1,2,2,2,2,2
participant_2_BUY,[],"[1055, 3340, 2003]",[],[],[],[1037],[],[],[],[],"[6670, 2055]",[],[],[6672],[],[],"[1037, 3363]",[1001],[],[],[],[1018],[],[]
participant_2_SOLD,[],[],[],[2003],[],[],[],[],[],[],[],[2055],[],"[1055, 6670, 1037]",[],[],[3340],[],[],[],[],[],[],[]
participant_2_UNDO,[],[],[],[],[],[],[],[],[],[],[],[],[],[],[],[],[],[],[],[],[],[],[],[]
participant_3_GOLD,500,500,577,804,1029,1451,1714,1986,2283,2883,3061,3427,3837,4015,4327,4680,4817,4981,5103,5526,5822,6015,6165,6203
participant_3_CURRENTGOLD,500,0,77,304,529,76,339,611,908,1508,311,677,1087,220,532,885,147,11,133,556,852,445,595,453
participant_3_LEVEL,1,1,1,2,3,3,5,5,6,7,7,7,8,8,9,9,9,9,9,9,10,10,10,10
participant_3_MINIONSKILLED,0,0,3,9,13,13,21,21,31,45,48,59,62,65,77,86,87,90,90,90,96,100,102,102
participant_3_KILLS,0,0,0,0,0,0,0,2,2,2,2,2,3,3,3,3,3,3,3,3,3,3,3,3
participant_3_BUY,[],"[1006, 1027]",[],[],[],[],[],[],"[3067, 1033, 2003, 2003, 2003]",[],[],[],[3105],[],[],[3190],[],[],[],[3024],[],[],[],[]
participant_3_SOLD,[],[],[],[],[2010],[2010],[],[],[],[],"[2003, 2003, 2003, 2010]",[],[1033],[],[],"[3067, 3105]",[],[],[],[1027],[],[],[],[]
participant_3_UNDO,[],[],[],[],[],[],[],[],[],[],[],[],[],[],[],[],[],[],[],[],[],[],[],[]
participant_4_GOLD,500,500,521,643,766,1038,1161,1883,2005,2203,2411,2564,3061,3204,3327,3449,3621,3893,4036,4309,4581,4704,4826,4864
participant_4_CURRENTGOLD,500,0,21,143,266,538,661,1383,105,303,511,664,111,254,377,99,271,543,686,409,681,804,926,964
participant_4_LEVEL,1,1,1,2,3,3,3,4,4,5,5,6,6,7,7,7,8,8,8,9,9,9,9,9
participant_4_MINIONSKILLED,0,0,0,0,0,0,0,0,0,0,2,3,3,4,4,4,7,7,8,8,8,8,8,8
participant_4_KILLS,0,0,0,0,0,0,0,0,0,0,1,1,2,2,2,2,2,3,3,3,4,4,4,4
participant_4_BUY,[],"[2033, 3340]",[],[],[],[],"[1052, 3108, 2055]",[],[],[],[3802],[],[],[],"[6653, 1001]",[],[],[],[],"[3020, 1052, 1052]",[],[3145],[],[]
participant_4_SOLD,[],[],[],[],[],[],[],[],[],[2055],[],[],[],[],"[3802, 3108]",[],[],[],[],[1001],[],"[1052, 1052]",[],[]
participant_4_UNDO,[],[],[],[],[],[],"[[0, 1052]]",[],[],[],[],[],[],[],[],[],[],[],[],[],[],[],[],[]
participant_5_GOLD,500,500,563,804,941,1147,1389,1588,2042,2325,2687,3258,3486,3720,4185,4627,4983,5324,5517,6154,6346,7475,7892,7995
participant_5_CURRENTGOLD,500,0,63,304,41,247,489,138,592,875,287,858,136,370,235,677,433,774,967,1604,196,1325,1742,1845
participant_5_LEVEL,1,1,1,3,3,4,5,6,7,7,7,7,8,8,9,9,10,10,10,11,11,12,13,13
participant_5_MINIONSKILLED,0,0,2,9,10,15,22,27,34,43,43,46,46,53,62,62,66,72,77,84,88,90,90,90
participant_5_KILLS,0,0,0,0,1,1,1,1,2,2,2,2,3,3,3,5,5,6,6,6,6,8,9,9
participant_5_BUY,[],"[1035, 3340, 2031]",[],[],[],[],[],"[1053, 1036, 1001, 2055]",[],[],[],"[6692, 1029, 1036]",[],"[1037, 3134]",[],[],"[3047, 1037]",[],[],[],"[6676, 1053]",[],[],[]
participant_5_SOLD,[],[],[],[],[],[],[],[],"[2055, 1035]",[3340],[3513],"[1036, 1053]",[],[1036],[],[],"[1001, 1029]",[],[],[],"[3134, 1037]",[],[],[]
participant_5_UNDO,[],[],[],[],[],[],[],[],[],[],[],[],[],"[[0, 1037]]",[],[],[],[],[],[],[],[],[],[]
participant_6_GOLD,500,500,621,951,1595,1973,2261,2460,3158,3394,4294,4888,5635,5942,6177,6971,7360,7837,8164,8816,9228,10666,11338,11461
participant_6_CURRENTGOLD,500,0,121,451,1095,1473,1761,335,1033,1269,2169,163,910,467,702,1496,510,987,1314,1966,453,1891,2564,2686
participant_6_LEVEL,1,1,2,3,4,4,5,5,6,6,7,7,8,8,9,10,10,11,11,12,13,13,14,14
participant_6_MINIONSKILLED,0,0,0,1,1,1,1,1,3,4,8,11,11,11,11,13,13,15,22,24,24,29,29,29
participant_6_KILLS,0,0,0,0,0,0,1,1,1,1,1,1,1,1,2,2,3,3,3,5,5,5,5,5
participant_6_BUY,[],"[1082, 2031, 3340]",[],[],[],[],[],[],[],[],"[1011, 1026]",[],[1052],[],[],[4637],[],[],[],[1058],[],[],[],[]
participant_6_SOLD,[],[],[],[],[],[],[],[],[],[],[],[],[],[],[],"[1026, 1011, 1052]",[],[],[],[],[],[],[],[]
participant_6_UNDO,[],[],[],[],[],[],[],[],[],[],[],[],[],[],[],[],[],[],[],[],[],[],[],[]
participant_7_GOLD,500,500,626,867,1123,1329,1772,1978,2205,2447,2583,2819,2969,3189,3987,4172,4640,4790,4912,5725,5847,6203,6350,6453
participant_7_CURRENTGOLD,500,0,126,367,623,829,1272,1478,1705,1947,333,569,284,504,1302,672,1140,1290,1412,975,1097,1453,1600,1703
participant_7_LEVEL,1,1,1,3,4,5,5,5,6,7,7,7,7,8,8,8,8,9,9,9,9,9,10,10
participant_7_MINIONSKILLED,0,0,6,13,21,26,26,31,37,44,45,49,51,57,58,62,63,65,65,65,65,69,69,69
participant_7_KILLS,0,0,0,0,0,0,0,0,0,0,1,1,1,1,2,3,3,3,3,4,4,6,7,7
participant_7_BUY,[],"[1055, 3340, 2003]",[],[],"[1036, 2003]",[],[],[1053],[],[],"[1018, 1036]",[],[6670],[],[6673],[],"[1001, 1042]",[],[],[],"[3006, 3134]",[],[],[]
participant_7_SOLD,[],[],[],[2003],[],[],[2003],[1036],[],[],[],[],[1036],[],"[6670, 1018, 1053]",[],[],[],[],[],"[1001, 1042]",[],[],[]
participant_7_UNDO,[],[],[],[],[],[],[],[],[],[],[],[],[],[],[],[],[],[],[],[],[],[],[],[]
participant_8_GOLD,500,500,584,790,1057,1584,1857,2129,2377,2905,3062,3394,3729,3928,4216,4539,4683,4993,5136,5259,5548,5926,6058,6141
participant_8_CURRENTGOLD,500,0,84,290,557,1084,1357,79,327,855,362,694,1029,1228,1516,1839,183,493,636,259,548,926,1058,1141
participant_8_LEVEL,1,1,1,2,3,4,4,4,5,6,6,7,7,8,8,8,9,9,9,9,10,10,10,10
participant_8_MINIONSKILLED,0,0,3,8,13,19,19,19,26,32,34,40,44,48,54,61,62,69,70,70,75,81,81,81
participant_8_KILLS,0,0,0,0,0,1,1,1,1,2,2,2,2,2,2,2,2,2,2,2,2,2,2,2
participant_8_BUY,[],"[1055, 2003, 3340]",[],[],[],[],[],"[1053, 1042, 1036]",[],[],[6670],[],[],[],[],[],"[6673, 1042, 1001]",[],[],[3006],[],[],[],[]
participant_8_SOLD,[],[],[],[],[],[],[],[],[],[],"[1036, 1042]",[],[],[],[2003],[],"[6670, 1053]",[],[],"[1001, 1042]",[],[],[],[]
participant_8_UNDO,[],[],[],[],[],[],[],[],[],[],[],[],[],[],[],[],[],[],[],[],[],[],[],[]
participant_9_GOLD,500,500,543,751,954,1319,1474,1988,2210,2615,2755,2946,3141,3302,3482,3826,4477,4647,4925,5423,5592,5896,6036,6354
participant_9_CURRENTGOLD,500,0,43,251,454,84,239,243,465,870,355,546,741,902,1082,1426,1227,147,426,923,67,371,512,829
participant_9_LEVEL,1,1,1,2,3,3,3,4,4,5,5,5,6,6,6,7,8,8,8,8,9,9,9,9
participant_9_MINIONSKILLED,0,0,0,1,3,4,4,4,6,6,6,6,8,8,8,11,11,12,17,17,19,23,23,23
participant_9_KILLS,0,0,0,0,0,0,0,1,1,1,1,1,1,1,1,1,2,2,2,3,3,3,3,4
participant_9_BUY,[],"[3850, 2003, 2003, 3340]",[],[],[],"[1052, 1001]",[],"[1052, 2055]",[],[],"[3802, 2003, 2003, 2003, 2055]",[],[],[],[],[],[1026],"[3364, 3020, 6655]",[],[],"[3020, 2055, 2003, 2003, 2003]",[],[],[]
participant_9_SOLD,[],[2003],[],"[2003, 2010]",[],[],[],[2010],[],"[2010, 2055, 3850]","[1052, 1052]",[],[],[2055],[],[2003],[2003],"[3340, 1001, 3802, 1026]",[],"[2003, 3851]",[1001],"[2003, 2003, 2055]",[2003],[]
participant_9_UNDO,[],[],[],[],[],[],[],[],[],[],[],[],[],[],[],[],[],"[[0, 3020]]",[],[],[],[],[],[]
team0_KILLS,0,0,0,0,0,2,2,4,4,6,7,7,11,11,11,11,13,14,14,16,17,17,17,17
team0_CURRENTGOLD,2500,25,313,1522,1972,2809,2701,3228,2952,4269,965,2091,4099,2706,995,1826,2495,3432,4356,1246,3059,2363,3029,3089
team0_TOTALGOLD,2500,2500,2788,3997,4847,6559,7426,9053,10187,12224,13345,14481,17539,18591,19660,20891,22435,24072,24996,26486,28299,28983,29649,29839
team0_LEVEL,5,5,6,12,15,17,21,23,26,30,30,32,35,38,39,41,45,45,46,48,49,49,49,49
team0_SBIRES,0,0,5,27,34,45,59,64,86,107,115,132,144,159,177,197,218,228,235,236,246,250,254,254
team1_KILLS,0,0,0,0,1,2,3,4,5,6,7,7,8,8,10,13,15,16,16,20,20,24,26,27
team1_CURRENTGOLD,2500,0,437,1663,2770,3717,5118,2273,4122,5816,3506,2830,3100,3471,4837,6110,3493,3691,4755,5727,2361,5966,7476,8204
team1_TOTALGOLD,2500,2500,2937,4163,5670,7352,8753,10143,11992,13686,15381,17305,18960,20081,22047,24135,26143,27591,28654,31377,32561,36166,37674,38404
team1_LEVEL,5,5,6,13,17,20,22,24,28,31,32,33,36,38,40,42,45,47,47,49,52,53,56,56
team1_SBIRES,0,0,11,32,48,65,72,82,106,129,136,152,160,177,193,209,215,233,251,260,271,292,292,292
delta_KILLS,0,0,0,0,-1,0,-1,0,-1,0,0,0,3,3,1,-2,-2,-2,-2,-4,-3,-7,-9,-10
delta_CURRENTGOLD,0,25,-124,-141,-798,-908,-2417,955,-1170,-1547,-2541,-739,999,-765,-3842,-4284,-998,-259,-399,-4481,698,-3603,-4447,-5115
delta_TOTALGOLD,0,0,-149,-166,-823,-793,-1327,-1090,-1805,-1462,-2036,-2824,-1421,-1490,-2387,-3244,-3708,-3519,-3658,-4891,-4262,-7183,-8025,-8565
delta_LEVEL,0,0,0,-1,-2,-3,-1,-1,-2,-1,-2,-1,-1,0,-1,-1,0,-2,-1,-1,-3,-4,-7,-7
delta_SBIRES,0,0,-6,-5,-14,-20,-13,-18,-20,-22,-21,-20,-16,-18,-16,-12,3,-5,-16,-24,-25,-42,-38,-38
