name,frame_0,frame_1,frame_2,frame_3,frame_4,frame_5,frame_6,frame_7,frame_8,frame_9,frame_10,frame_11,frame_12,frame_13,frame_14,frame_15,frame_16,frame_17,frame_18,frame_19,frame_20,frame_21,frame_22,frame_23,frame_24,frame_25,frame_26,frame_27,frame_28,frame_29,frame_30,frame_31,frame_32
nameStamp,Tstart,Tearly,Tearly,Tearly,Tearly,Tearly,Tearly,Tearly,Tearly,Tearly,Tearly,Tearly,Tearly,Tearly,Tearly,Tearly,Tearly,Tearly,Tmid,Tmid,Tmid,Tmid,Tmid,Tmid,Tmid,Tmid,Tmid,Tmid,Tmid,Tmid,Tmid,Tend,Tend
timestamp,0,60025,120046,180066,240080,300105,360123,420138,480159,540183,600206,660237,720258,780275,840292,900319,960342,1020372,1080386,1140414,1200434,1260438,1320470,1380502,1440513,1500543,1560562,1620589,1680614,1740645,1800663,1860692,1920692
participant_0_GOLD,500,500,584,860,1659,1991,2306,2540,2934,3165,3527,3858,4513,4879,5293,5660,5916,6977,7612,8035,8526,8862,9412,9612,9993,10422,10640,10989,11431,11658,12339,12584,13468
participant_0_CURRENTGOLD,500,0,84,360,1159,1491,1806,415,809,240,602,133,788,204,618,985,141,1202,737,1160,1651,287,837,537,919,1347,266,614,1056,234,914,240,943
participant_0_LEVEL,1,1,1,2,4,5,6,6,7,7,8,8,9,9,10,10,11,12,12,13,13,13,14,14,14,14,14,15,15,15,16,16,16
participant_0_MINIONSKILLED,0,0,3,12,24,33,41,48,61,68,79,88,96,101,114,124,132,144,146,156,161,161,165,165,171,180,183,189,189,195,199,204,205
participant_0_KILLS,0,0,0,0,0,0,0,0,1,1,1,1,1,1,2,2,2,3,3,3,4,5,7,7,7,7,7,7,7,7,8,8,9
participant_0_BUY,[],"[1039, 2031, 3340]",[],[],[3706],[],[],[3108],[],[1402],[],[],[],"[3020, 1052, 1052]",[],"[3145, 3067]",[],[],[],"[3152, 3113]",[],[],[1026],[],"[3100, 2420]",[],[],[],[],[],[],[3157],[]
participant_0_SOLD,[],[],[],[],[1039],[],[],[],[],"[3108, 3706]",[],[],[],[],[],"[1052, 1052]",[],[],[],"[3145, 3067]",[],[],[],[],"[3113, 1026]",[],[],[],[],[],[],[2420],[]
participant_0_UNDO,[],[],[],[],[],[],[],[],[],[],[],[],[],[],[],[],[],[],[],[],[],[],[],[],[],[],[],[],[],[],[],[],[]
participant_1_GOLD,500,500,661,1013,1339,1681,1889,2193,2781,3003,3328,3603,4356,4660,5271,5615,5823,6440,6936,7180,7985,8718,9528,10008,10320,10599,10820,11251,11411,12083,12804,13065,13909
participant_1_CURRENTGOLD,500,0,161,513,189,531,739,143,731,353,678,953,1706,40,651,15,223,840,1336,80,885,1618,1578,2058,221,499,720,1152,1312,1983,2705,715,1559
participant_1_LEVEL,1,1,2,3,3,4,4,5,5,6,6,7,8,8,9,10,10,11,11,12,12,13,13,13,14,14,14,14,14,15,16,16,16
participant_1_MINIONSKILLED,0,0,0,0,1,1,1,1,2,2,2,2,6,7,13,13,13,14,14,14,18,18,18,20,20,22,23,30,30,36,36,36,40
participant_1_KILLS,0,0,0,0,1,1,1,1,1,1,1,1,2,2,2,2,2,3,4,4,4,4,4,4,4,4,4,4,5,5,5,5,7
participant_1_BUY,[],"[1055, 2003, 3340]",[],[],[],[],[],"[3044, 1001, 2055]",[],"[3067, 3047]",[],[3067],[],"[3071, 2031]",[],[],[3105],[],[3133],[],[],"[3812, 1029]",[],[1031],[],[],[1038],[],[],"[3026, 1036]",[],[3035],[]
participant_1_SOLD,[],[],[],[],[2003],[],[],[],[],"[2055, 1001]",[],[],[],"[3044, 3067]",[],[],[],[],[],[],[],"[3105, 3133]",[],[1029],[],[],[],[],[],"[1038, 1031]",[],"[1055, 1036]",[]
participant_1_UNDO,[],[],[],[],[],[],[],[],[],"[[0, 3067]]",[],[],[],"[[0, 2031]]",[],[],[],[],[],[],[],[],[],[],[],[],[],[],[],[],[],[],[]
participant_2_GOLD,500,500,612,934,1239,1578,1827,2204,2563,2880,3135,3543,3869,4124,4656,5030,5387,6124,6467,6639,7326,7877,8379,8938,9280,9982,10428,10715,11113,11235,11763,12010,12569
participant_2_CURRENTGOLD,500,0,112,434,739,1078,102,479,838,280,535,943,1269,349,881,1255,562,1299,2,174,861,1412,481,165,507,1209,1656,142,540,587,1115,563,1061
participant_2_LEVEL,1,1,1,3,4,5,6,6,7,8,8,9,9,10,10,11,11,12,12,12,13,13,13,14,14,14,15,15,15,15,16,16,16
participant_2_MINIONSKILLED,0,0,5,14,25,35,42,54,65,74,82,95,103,111,122,133,143,154,159,162,167,175,178,185,197,209,219,224,229,229,231,234,240
participant_2_KILLS,0,0,0,0,0,0,0,0,0,0,0,0,0,0,0,0,0,0,0,0,0,0,0,0,0,0,0,0,0,0,0,0,2
participant_2_BUY,[],"[3850, 2003, 2003, 3340]",[],[],[],[],"[1052, 2055]",[],[],"[3802, 2055, 3364]",[],[],[],[],"[1026, 2055]",[],[],[3285],[],[],[],"[3020, 1052, 2055]",[],[],[1028],[],[3136],[],[],[2055],[],"[1026, 2055]",[]
participant_2_SOLD,[],[],[],"[2010, 2003]",[2003],[],[2055],[2010],[2010],"[1052, 3340]",[],[3850],[],[],[],[],[],"[3802, 1026]",[],[],[],"[2055, 2422]",[2055],[3851],[],[],"[1028, 1052]",[],[],[2055],[2055],[],[]
participant_2_UNDO,[],[],[],[],[],[],[],[],[],[],[],[],[],[],[],[],[],[],[],[],[],[],[],[],[],[],[],[],[],[],[],[],[]
participant_3_GOLD,500,500,584,846,1225,1627,1806,2176,2542,2993,3262,3609,3858,4176,4299,4526,4827,5278,5546,6004,6281,6817,7306,7894,8017,8281,8643,9040,9225,9473,9941,10209,10856
participant_3_CURRENTGOLD,500,0,84,346,725,1127,331,701,1067,168,437,784,433,751,274,501,352,803,291,749,626,1162,1651,2239,262,101,463,860,1045,1293,461,730,1356
participant_3_LEVEL,1,1,1,2,3,4,4,5,6,6,6,7,7,8,8,8,8,9,9,10,10,11,12,12,12,13,13,13,13,14,14,15,15
participant_3_MINIONSKILLED,0,0,3,11,23,37,40,52,63,65,74,87,91,102,102,108,114,126,130,146,152,169,169,177,177,182,191,192,192,200,200,205,207
participant_3_KILLS,0,0,0,0,0,0,0,0,0,1,1,1,1,1,1,1,1,1,1,1,1,1,1,2,2,2,2,2,2,2,2,2,2
participant_3_BUY,[],"[1055, 2003, 3340]",[],[],[],[],"[1037, 2003, 2003]",[],[],"[1038, 2003]",[],[],"[1001, 1042]",[],[3009],[],"[2015, 2003]",[],[1018],[],[3095],[],[],[],"[1038, 1018]",[3031],[],[],[],[],[3140],[],[]
participant_3_SOLD,[],[],[],[2003],[],[],[],[],[],[2003],[],[],[],[],"[2003, 2003, 1001]",[],[1042],[],[2003],[],"[1038, 1018, 2015]",[],[],[],[],"[1038, 1037, 1018]",[],[],[],[],[],[],[]
participant_3_UNDO,[],[],[],[],[],[],[],[],[],[],[],[],[],[],[],[],[],[],[],[],[],[],[],[],[],[],[],[],[],[],[],[],[]
participant_4_GOLD,500,500,538,747,927,1106,1241,1450,1764,2109,2401,2561,2787,2942,3127,3311,3627,4101,4397,4538,4985,5364,5639,5847,6017,6209,6389,6530,6708,6908,7394,7549,8609
participant_4_CURRENTGOLD,500,0,38,247,427,606,231,440,754,159,451,611,837,992,252,436,752,176,472,613,1060,129,404,612,382,574,89,230,408,533,1019,250,1309
participant_4_LEVEL,1,1,1,2,3,4,4,4,5,5,6,6,6,7,7,7,8,8,9,9,9,10,10,10,11,11,11,11,11,11,12,12,13
participant_4_MINIONSKILLED,0,0,0,0,0,0,0,0,0,0,4,5,8,9,9,11,18,19,20,20,23,25,25,26,27,27,28,28,28,30,30,31,33
participant_4_KILLS,0,0,0,0,0,0,0,0,0,0,0,0,0,0,0,0,0,1,1,1,2,2,3,4,4,4,4,4,4,4,4,4,4
participant_4_BUY,[],"[1055, 2003, 3340]",[],[],[],[],"[3070, 1001, 2055]",[],[],[1037],[],[],[],"[3004, 1036, 2031]",[],[],[3057],[],"[3044, 3020]",[],[],[],[3078],"[1018, 2055]",[],[],[],"[3086, 1042, 3046]",[],[2055],[],[1018],[]
participant_4_SOLD,[],[],[],[2003],[],[],[],[],[2055],[],[],[],[],"[3070, 1037]",[],[],[],[],"[1036, 2031, 1001]",[],[],[3004],"[3057, 3044]",[],[2055],[],[],"[1018, 1042, 3086]",[],[],[2055],[],[]
participant_4_UNDO,[],[],[],[],[],[],[],[],[],[],[],[],[],[],[],[],[],[],[],[],[],[],[],[],[],[],[],[],[],[],[],[],[]
participant_5_GOLD,500,500,577,892,1113,1494,1820,2190,2486,2891,3218,3542,3769,4041,4615,4961,5234,5448,5877,6372,6717,7419,7646,7900,8277,8561,8809,9317,9703,10742,11021,11457,11611
participant_5_CURRENTGOLD,500,0,77,392,178,559,885,1255,36,441,768,317,244,516,1090,1436,359,73,502,197,542,344,571,825,202,486,735,7,393,1433,46,483,1
participant_5_LEVEL,1,1,1,3,4,5,6,6,7,8,8,9,9,9,10,10,11,11,11,12,12,13,13,13,14,14,14,15,15,15,16,16,16
participant_5_MINIONSKILLED,0,0,3,12,17,29,41,52,59,73,84,93,99,108,121,130,135,137,151,161,170,182,188,192,199,209,212,223,230,235,236,243,245
participant_5_KILLS,0,0,0,0,0,0,0,0,0,0,0,0,0,0,0,0,0,0,0,0,0,0,0,0,0,0,0,0,0,0,0,0,0
participant_5_BUY,[],"[1056, 2003, 2003, 3340]",[],[],[],[],[3196],[],[],"[3197, 1001]",[],[],"[1027, 1004, 2055]",[],[3198],[],[1033],[3111],"[1052, 3363]",[],[],[3802],[],[1026],[],[],[3285],[],[],[],"[1026, 2055]",[],[]
participant_5_SOLD,[],[],[],[2003],[],[],[3200],[],[],"[2003, 3196]",[],[],[],[],[3197],[2055],[],"[1001, 1033]",[3340],[],[],"[1052, 1027]",[],[],[],[],"[1056, 1004, 3802, 1026]",[],[],[],[2055],[],[]
participant_5_UNDO,[],[],[],[],[],[],[],[],[],[],[],[],[],[],[],[],[],[],[],[],[],[],[],[],[],[],"[[1004, 0]]",[],[],[],[],[],[]
participant_6_GOLD,500,500,621,1018,1376,1575,1888,2230,2466,2909,3351,3954,4185,4527,4791,5174,5771,6277,6616,7327,7449,7622,8069,8191,8651,8774,9002,9369,9491,9614,9910,10082,10194
participant_6_CURRENTGOLD,500,0,121,518,226,425,38,380,616,19,461,1064,695,437,201,584,1181,87,426,1137,1259,399,846,118,578,701,929,146,268,391,687,860,911
participant_6_LEVEL,1,1,2,3,4,4,5,5,6,6,7,8,8,8,9,9,10,10,10,11,11,11,12,12,12,12,13,13,13,13,13,13,13
participant_6_MINIONSKILLED,0,0,0,0,0,0,0,0,1,1,7,7,12,12,15,16,16,17,18,20,20,20,20,20,29,29,29,34,34,34,40,40,40
participant_6_KILLS,0,0,0,0,0,0,0,0,0,0,0,0,0,0,0,0,0,0,0,0,0,0,0,0,0,0,0,0,0,1,1,1,1
participant_6_BUY,[],"[2033, 3340]",[],[],[1052],[],[],[],"[1053, 3145]",[],[],"[3144, 2055]",[1001],[],[],[],"[3146, 1042, 1042]",[3006],[],[3101],[3363],[3108],[],[],[3115],[],[],"[1043, 1052]",[],[],[3124],[],[1052]
participant_6_SOLD,[],[],[],[],[],[],"[2010, 2010]",[2010],[1052],[],[],"[1053, 2055]",[],[],[],[],"[3144, 3145]","[1001, 1042]",[],[1042],[3340],[],[],[],"[3101, 3108]",[],[],[2033],[],[],"[1052, 1043]",[],[]
participant_6_UNDO,[],[],[],[],[],[],[],[],[],[],[],[],[],[],[],[],[],[],[],[],[],[],[],[],[],[],[],[],[],[],[],[],[]
participant_7_GOLD,500,500,584,920,1281,1641,1963,2253,2612,2954,3181,3470,3711,4163,4486,4860,5231,5424,5728,6039,6461,6662,6916,7038,7217,7556,7895,8163,8348,8804,8926,9344,9470
participant_7_CURRENTGOLD,500,0,84,420,781,1141,313,603,962,4,231,520,211,663,136,510,431,274,143,454,876,562,816,88,267,606,55,323,508,964,161,579,458
participant_7_LEVEL,1,1,1,3,4,5,6,6,7,8,8,9,9,9,10,10,11,11,12,12,12,12,13,13,13,13,13,14,14,14,14,14,14
participant_7_MINIONSKILLED,0,0,3,13,27,38,47,56,67,77,83,90,97,106,114,125,136,137,148,155,168,170,173,173,176,184,193,197,200,206,206,211,212
participant_7_KILLS,0,0,0,0,0,0,0,0,0,1,1,2,2,2,2,3,3,4,5,6,6,6,6,6,6,6,6,6,6,6,6,6,6
participant_7_BUY,[],"[1039, 2031, 3340]",[],[],[3706],[],"[1001, 1028]",[],[],"[3751, 1401]",[],[],[3009],"[1042, 1042]",[3101],[],[],"[3044, 1027]",[],[],[],[3078],[],"[1028, 1033]",[],[],[],"[3211, 3067]",[],[],[],[],[]
participant_7_SOLD,[],[],[],[],[1039],[],[],[],[],"[1028, 2031, 3751, 3706]",[],[],[1001],[],"[1042, 1042]",[],[],[],[],[],[],"[3101, 1027, 3044]",[],[],[],[],[],"[1028, 1033]",[],[],[],[],[]
participant_7_UNDO,[],[],[],[],[],[],[],[],[],[],[],[],[],[],[],[],[],[],[],[],[],[],[],[],[],[],[],[],[],[],[],[],[]
participant_8_GOLD,500,500,563,913,1260,1403,1869,2274,2595,3157,3769,4286,4741,5075,5467,5845,6264,6742,7193,7639,7866,8170,8500,8845,9247,9476,9779,10085,10340,10797,11222,11582,11743
participant_8_CURRENTGOLD,500,0,63,413,760,128,594,999,20,582,74,591,1046,1380,1772,375,794,1272,73,519,246,550,880,425,828,1056,1359,1666,1920,228,652,1013,993
participant_8_LEVEL,1,1,1,2,3,3,4,5,5,6,7,7,8,8,9,9,10,10,10,11,11,11,12,12,12,12,12,13,13,13,13,13,14
participant_8_MINIONSKILLED,0,0,2,13,26,27,44,57,60,67,74,88,99,104,111,115,128,134,145,149,155,155,164,173,180,186,192,197,201,207,217,222,225
participant_8_KILLS,0,0,0,0,0,0,0,0,0,1,2,2,2,2,2,2,2,2,2,2,2,2,2,2,2,2,2,2,2,2,2,2,2
participant_8_BUY,[],"[1055, 2003, 3340]",[],[],[],"[1036, 1036, 2055]",[],[],[1038],[],[3508],[],[],[],[],"[3086, 1001, 2055]",[],[],"[3085, 1042, 2055, 2055]",[],[3006],[],[],[3123],[],[],[],[],[],"[3033, 2055, 2055]",[],[],[]
participant_8_SOLD,[],[],[],"[2010, 2003]",[],[2010],[],[2010],[],[],"[1055, 1038, 1036, 1036]",[],[2055],[],[],[],[],[2055],[3086],[2055],"[1001, 1042]",[2055],[],[],[],[],[],[],[],[3123],[2055],[],[]
participant_8_UNDO,[],[],[],[],[],[],[],[],[],[],[],[],[],[],[],[],[],[],[],[],[],[],[],[],[],[],[],[],[],[],[],[],[]
participant_9_GOLD,500,500,523,706,841,975,1215,1415,1863,1998,2375,2585,2892,3033,3461,3632,3894,4305,4580,4720,4861,5051,5235,5508,5648,5790,5930,6110,6281,6421,6572,6845,6974
participant_9_CURRENTGOLD,500,0,23,206,341,100,340,540,988,98,40,250,557,698,1126,357,619,1031,1305,135,276,466,650,508,648,790,205,386,556,696,847,1121,299
participant_9_LEVEL,1,1,1,2,3,3,4,5,5,5,6,6,7,7,8,8,8,8,9,9,10,10,10,10,11,11,11,11,11,12,12,12,12
participant_9_MINIONSKILLED,0,0,0,3,3,3,6,7,8,8,10,10,12,12,13,14,17,18,19,19,19,19,21,24,24,24,24,26,27,27,27,27,27
participant_9_KILLS,0,0,0,0,0,0,0,0,1,1,1,1,1,1,2,2,2,2,2,2,2,2,2,2,2,2,2,2,2,2,2,2,2
participant_9_BUY,[],"[3850, 3340, 2003, 2003, 3858, 2003, 2003, 3340]",[],[],[],"[1001, 2055]",[],[],[],"[3028, 2055, 2003, 2003, 2003]","[1052, 3364]",[],[],[],[],"[3174, 2055]",[],[],[],"[3114, 1052, 2055]",[],[],[],[3113],[],[],"[3504, 2055]",[],[],[],[],[],"[3117, 1004, 1004]"
participant_9_SOLD,[],[],[],"[2010, 2003, 2003]",[],"[2055, 2010]",[],[2010],[],[2055],"[2003, 3340]",[],[3858],[],"[2003, 2003]","[1052, 3028, 2055]",[],[],[],[],[],[],[2055],"[1052, 3859]",[],[],"[3114, 3113]",[],[],[],[2055],[],[1001]
participant_9_UNDO,[],"[[0, 2003], [0, 2003], [3340, 0], [0, 3850]]",[],[],[],[],[],[],[],[],[],[],[],[],[],[],[],[],[],[],[],[],[],[],[],[],[],[],[],[],[],[],[]
team0_KILLS,0,0,0,0,1,1,1,1,2,3,3,3,4,4,5,5,5,8,9,9,11,12,15,17,17,17,17,17,18,18,19,19,24
team0_CURRENTGOLD,2500,0,479,1900,3239,4833,3209,2178,4199,1200,2703,3424,5033,2336,2676,3192,2030,4320,2838,2776,5083,4608,4951,5611,2291,3730,3194,2998,4361,4630,6214,2498,6228
team0_TOTALGOLD,2500,2500,2979,4400,6389,7983,9069,10563,12584,14150,15653,17174,19383,20781,22646,24142,25580,28920,30958,32396,35103,37638,40264,42299,43627,45493,46920,48525,49888,51357,54241,55417,59411
team0_LEVEL,5,5,6,12,17,22,24,26,30,32,34,37,39,42,44,46,48,52,53,56,57,60,62,63,65,66,67,68,68,70,74,75,76
team0_SBIRES,0,0,11,37,73,106,124,155,191,209,241,277,304,330,360,389,420,457,469,498,521,548,555,573,592,620,644,663,668,690,696,710,725
team1_KILLS,0,0,0,0,0,0,0,0,1,3,4,5,5,5,6,7,7,8,9,10,10,10,10,10,10,10,10,10,10,11,11,11,11
team1_CURRENTGOLD,2500,0,368,1949,2286,2353,2170,3777,2622,1144,1574,2742,2753,3694,4325,3262,3384,2737,2449,2442,3199,2321,3763,1964,2523,3639,3283,2528,3645,3712,2393,4056,2662
team1_TOTALGOLD,2500,2500,2868,4449,5871,7088,8755,10362,12022,13909,15894,17837,19298,20839,22820,24472,26394,28196,29994,32097,33354,34924,36366,37482,39040,40157,41415,43044,44163,46378,47651,49310,49992
team1_LEVEL,5,5,6,13,18,20,25,27,30,33,36,39,41,41,46,46,50,50,52,55,56,57,60,60,62,62,63,66,66,67,68,68,69
team1_SBIRES,0,0,8,41,73,97,138,172,195,226,258,288,319,342,374,400,432,443,481,504,532,546,566,582,608,632,650,677,692,709,726,743,749
delta_KILLS,0,0,0,0,1,1,1,1,1,0,-1,-2,-1,-1,-1,-2,-2,0,0,-1,1,2,5,7,7,7,7,7,8,7,8,8,13
delta_CURRENTGOLD,0,0,111,-49,953,2480,1039,-1599,1577,56,1129,682,2280,-1358,-1649,-70,-1354,1583,389,334,1884,2287,1188,3647,-232,91,-89,470,716,918,3821,-1558,3566
delta_TOTALGOLD,0,0,111,-49,518,895,314,201,562,241,-241,-663,85,-58,-174,-330,-814,724,964,299,1749,2714,3898,4817,4587,5336,5505,5481,5725,4979,6590,6107,9419
delta_LEVEL,0,0,0,-1,-1,2,-1,-1,0,-1,-2,-2,-2,1,-2,0,-2,2,1,1,1,3,2,3,3,4,4,2,2,3,6,7,7
delta_SBIRES,0,0,3,-4,0,9,-14,-17,-4,-17,-17,-11,-15,-12,-14,-11,-12,14,-12,-6,-11,2,-11,-9,-16,-12,-6,-14,-24,-19,-30,-33,-24
