name,team0,team1
win,Win,Fail
firstBlood,False,True
firstTower,True,False
firstInhibitor,True,False
firstBaron,True,False
firstDragon,True,False
firstRiftHerald,False,True
towerKills,8,1
inhibitorKills,3,0
baronKills,2,0
dragonKills,5,0
riftHeraldKills,0,1
