name,frame_0,frame_1,frame_2,frame_3,frame_4,frame_5,frame_6,frame_7,frame_8,frame_9,frame_10,frame_11,frame_12,frame_13,frame_14,frame_15,frame_16,frame_17,frame_18,frame_19,frame_20,frame_21,frame_22,frame_23,frame_24,frame_25,frame_26,frame_27,frame_28,frame_29,frame_30
nameStamp,Tstart,Tearly,Tearly,Tearly,Tearly,Tearly,Tearly,Tearly,Tearly,Tearly,Tearly,Tearly,Tearly,Tmid,Tmid,Tmid,Tmid,Tmid,Tmid,Tmid,Tmid,Tmid,Tmid,Tmid,Tmid,Tmid,Tmid,Tmid,Tmid,Tmid,Tmid
timestamp,0,60026,120054,180079,240094,300101,360125,420130,480162,540189,600221,660222,720244,780258,840287,900287,960310,1020317,1080339,1140371,1200382,1260399,1320414,1380419,1440431,1500464,1560493,1620514,1680526,1740553,1800553
participant_0_GOLD,500,500,584,885,1440,1882,2309,2466,2861,3391,3583,4057,4509,4715,5578,5812,6174,6666,7084,7600,8035,8235,9048,9428,9722,10026,10847,11064,11207,11381,11933
participant_0_CURRENTGOLD,500,0,84,385,940,182,609,116,511,1041,383,857,1309,1515,328,562,174,666,484,1000,135,335,1148,228,222,527,1347,464,608,181,733
participant_0_LEVEL,1,1,1,3,4,4,6,6,7,8,8,9,9,9,9,10,10,11,11,12,12,13,13,13,14,14,14,15,15,15,15
participant_0_MINIONSKILLED,0,0,3,11,17,17,30,32,48,52,56,64,64,69,69,76,80,80,80,83,91,96,99,110,115,119,124,124,125,125,131
participant_0_KILLS,0,0,0,0,1,2,2,2,2,2,2,2,2,2,4,4,4,5,5,6,6,6,7,7,7,7,8,8,8,8,8
participant_0_BUY,[],"[1055, 2003]",[],[],[],"[3134, 2003, 2003]",[],"[1036, 1001]",[],[],"[1053, 1042]",[],[],[],"[6692, 3006, 1036]",[],[3134],[],[1018],[],[6676],[],[],[1038],[1042],[],[],[3095],[],[1018],[]
participant_0_SOLD,[],[],[],[],[2003],[],[],[2003],[],[2003],[1036],[],[],[],"[3134, 1053, 1001, 1042]",[],[1036],[],[],[],"[3134, 1018]",[],[],[],[],[],[],"[1038, 1042]",[],[],[]
participant_0_UNDO,[],[],[],[],[],[],[],[],[],[],[],[],[],[],[],[],[],[],[],[],[],[],[],[],[],[],[],[],[],[],[]
participant_1_GOLD,500,500,621,928,1399,1692,1891,2597,2905,3112,3365,4227,5253,5460,6508,7037,7774,8126,8608,8866,9308,9580,10387,10769,11347,11916,12804,13744,13967,14586,15322
participant_1_CURRENTGOLD,500,0,121,428,899,1192,291,997,1305,1512,1765,2627,353,210,1248,577,1314,1666,2148,2406,598,421,1228,1609,637,1206,2095,3035,157,776,1522
participant_1_LEVEL,1,1,2,2,4,4,4,5,5,6,6,7,8,8,9,10,10,11,11,12,12,12,12,13,14,14,15,15,15,16,16
participant_1_MINIONSKILLED,0,0,0,0,0,0,0,3,3,3,4,4,11,11,14,14,14,14,15,15,15,15,15,15,19,20,24,29,29,30,34
participant_1_KILLS,0,0,0,0,0,0,0,0,0,1,1,1,2,2,2,2,2,2,3,3,4,4,5,5,7,7,7,7,7,9,9
participant_1_BUY,[],"[3070, 2003, 2003, 3340]",[],[],[],[],[],[],"[3802, 1001]",[],"[3020, 2055]",[],[],[],"[6653, 2055, 3363]",[],[],[1027],[],[],[1058],[3003],[],[3916],"[1058, 1052]",[],[],[],[3145],[4628],[1028]
participant_1_SOLD,[],[],[],[],[],[],[],[],[],[2003],"[2003, 1001]",[],[],[2055],"[3802, 3340]",[],[2055],[],[],[],[],"[3070, 1058, 1027, 3003]",[],[],[],[],[],[],[1052],"[1058, 3145]",[]
participant_1_UNDO,[],[],[],[],[],[],[],[],[],[],[],[],[],[],[],[],[],[],[],[],[],[],[],[],[],[],[],[],[],[],[]
participant_2_GOLD,500,500,563,804,1103,1467,1814,2176,2471,3091,3255,3599,4792,5090,5384,5630,5893,6148,6714,7283,7898,8154,8836,9132,10287,10564,10737,10883,11151,12301,12839
participant_2_CURRENTGOLD,500,0,63,304,603,957,1294,1656,341,961,250,584,1777,2075,194,440,703,608,1174,1743,1108,364,1046,542,12,290,462,608,262,711,889
participant_2_LEVEL,1,1,1,3,4,5,6,7,7,8,8,9,10,10,10,11,11,11,12,12,13,13,14,14,14,15,15,15,15,16,16
participant_2_MINIONSKILLED,0,0,3,10,20,31,40,49,56,67,69,78,87,98,99,102,106,110,110,119,128,136,136,142,142,148,148,148,148,157,170
participant_2_KILLS,0,0,0,0,0,0,0,0,0,0,0,0,0,0,1,1,1,1,2,2,2,3,3,3,5,5,5,6,6,6,8
participant_2_BUY,[],"[3862, 2003, 2003, 3340]",[],[],[1036],[],[],[],"[3057, 1028]",[],[],[],"[3044, 1028]",[],[],"[6632, 2055, 3364]",[],"[3009, 2055, 2055]",[],"[3134, 1036]",[],[],[3133],[3179],[],[],[],[],"[3134, 1037]",[6676],[]
participant_2_SOLD,[],[],[],"[2010, 2003, 2003]",[],[],[2010],[2010],[],[],[],[],"[3862, 1028, 1036]",[],[],"[3044, 3057, 1028, 3340]",[2055],"[2422, 2055]",[3863],[],[],[2055],[1036],"[3134, 3133]",[],[],[],[],[],"[3134, 1037]",[]
participant_2_UNDO,[],[],[],[],[],[],[],[],[],[],[],[],[],[],[],[],[],[],[],[],[],[],[],[],[],[],[],[],[],[],[]
participant_3_GOLD,500,500,584,783,948,1231,1494,1996,2195,2402,2722,3018,3546,3724,4219,4529,4693,5135,5682,5917,6040,6730,7077,7369,7839,8012,8501,8623,9143,10053,10534
participant_3_CURRENTGOLD,500,0,84,283,148,431,694,1196,195,402,22,318,846,274,769,1079,3,445,392,277,50,340,687,979,329,502,991,1114,1633,2543,2454
participant_3_LEVEL,1,1,1,2,2,3,4,4,5,5,5,6,6,7,8,8,8,9,9,9,9,10,11,11,12,12,12,12,13,14,14
participant_3_MINIONSKILLED,0,0,3,8,10,17,25,27,31,36,45,52,55,58,65,68,70,70,70,74,74,77,77,82,85,85,91,91,99,102,103
participant_3_KILLS,0,0,0,0,0,0,0,1,1,1,1,1,2,2,2,2,2,3,4,4,4,5,5,5,5,5,5,5,5,7,7
participant_3_BUY,[],"[1055, 2003]",[],[],[1001],[],[],[],"[1053, 1042]",[],"[1036, 1036]",[],[],"[3134, 1036]",[],[],"[6692, 3009]",[],[1018],[1036],[1036],[3134],[],[],[6676],[],[],[],[],[],[]
participant_3_SOLD,[],[],[],[],[],[2003],[],[],[],[],[],[],[],"[1036, 1036]",[],[],"[3134, 1036, 1053, 1042, 1001]",[],[],[],[],"[1036, 1036, 1055]",[],[],"[1055, 3134, 1018]",[],[],[],[],[],[]
participant_3_UNDO,[],[],[],[],[],[],[],[],[],[],[],[],[],[],[],[],[],[],[],[],[],"[[1055, 0]]",[],[],[],[],[],[],[],[],[]
participant_4_GOLD,500,500,543,803,1043,1233,1428,1876,2010,2168,2308,2497,2894,3253,4037,4178,4613,4763,5960,6214,6404,7173,7483,7623,8592,8998,9588,10190,10469,10811,11892
participant_4_CURRENTGOLD,500,0,43,303,193,383,578,1026,60,218,358,547,194,553,1337,303,738,138,1335,139,329,1098,658,198,1167,1573,2163,2765,1069,386,1467
participant_4_LEVEL,1,1,1,2,3,4,4,4,4,5,5,6,6,7,8,8,9,9,10,10,10,11,11,11,12,12,13,14,14,14,15
participant_4_MINIONSKILLED,0,0,0,0,3,4,4,4,4,4,4,4,4,11,11,11,16,17,19,23,23,32,38,38,42,45,48,50,50,53,54
participant_4_KILLS,0,0,0,0,0,0,0,1,1,1,1,2,3,3,5,6,8,8,9,9,10,10,12,12,13,13,15,17,17,18,19
participant_4_BUY,[],"[1039, 3340, 2031]",[],[],[],[],[3044],[],[],[],[],[],"[6632, 3111]",[1036],[],"[3123, 1036, 1036, 1028]",[],[],[],[],"[6609, 3051]",[1033],[],[],[3091],[],[],[],[6333],[],[]
participant_4_SOLD,[],[],[],[],[],[],[],[],[1039],[],"[3340, 3513]",[],[3044],[],[],[1036],[],[],"[3340, 3513]",[],"[3123, 1028, 1036]",[],[],[],"[3051, 1033]",[],[],[],[],[],[]
participant_4_UNDO,[],[],[],[],[],[],[],[],[],[],[],[],[],[],[],"[[0, 1036]]",[],[],[],[],[],[],[],[],[],[],[],[],[],[],[]
participant_5_GOLD,500,500,563,804,1022,1347,1533,1905,2027,2341,2686,3186,3308,3473,3814,3936,4157,4335,4458,4629,5222,5395,5573,5942,6595,6717,6840,7234,7684,8156,8266
participant_5_CURRENTGOLD,500,0,63,304,87,412,598,970,167,481,211,711,433,598,29,151,372,550,673,844,1437,275,53,422,835,92,215,609,1059,296,256
participant_5_LEVEL,1,1,1,3,3,5,5,6,6,7,8,9,9,9,10,10,10,10,10,11,11,11,11,12,12,12,12,13,13,14,14
participant_5_MINIONSKILLED,0,0,2,8,11,23,26,36,36,44,48,61,61,64,69,69,75,78,78,81,82,82,85,92,95,95,95,107,113,116,116
participant_5_KILLS,0,0,0,0,0,1,1,1,1,1,1,2,2,2,2,2,2,2,2,2,2,2,2,2,2,2,2,2,2,2,3
participant_5_BUY,[],"[1056, 2003, 2003, 3340]",[],[],[],[],[],[],[],[],"[3802, 3108, 1001, 2003]",[],[3020],[],[],[],[],[],[6653],[],[],"[1028, 1052]",[],"[1011, 1026]",[],[1011],[],[],[4637],[],[1052]
participant_5_SOLD,[],[],[],[],[],[2003],[],[],[],[],[],[],[1001],[],[],"[2003, 2003]",[],[],"[3802, 3108]",[],[],[],[],[1028],[],[1028],[],[],"[1026, 1011, 1052]",[],[]
participant_5_UNDO,[],[],[],[],[],[],[],[],[],[],[],[],[],[],[],[],[],[],[],[],[],[],[],"[[0, 1011]]",[],[],[],[],[],[],[]
participant_6_GOLD,500,500,621,1018,1376,1725,2038,2759,3064,3587,3818,4046,4168,4610,5683,5905,6225,6621,7643,7851,8594,9300,9873,10240,10608,11010,12050,12323,12778,12951,13539
participant_6_CURRENTGOLD,500,0,121,518,876,450,763,1484,1789,2312,2543,171,293,735,8,230,550,546,668,876,1619,26,598,965,1333,1735,2776,158,613,787,1314
participant_6_LEVEL,1,1,2,3,4,4,5,6,6,7,7,7,7,8,9,9,9,10,11,11,12,12,13,13,13,14,15,15,16,16,16
participant_6_MINIONSKILLED,0,0,0,0,0,0,0,1,1,1,6,6,6,6,6,6,9,15,15,15,20,25,25,33,35,42,46,46,53,53,55
participant_6_KILLS,0,0,0,0,0,0,0,1,1,2,2,2,2,2,4,4,4,4,7,7,8,9,10,10,10,10,12,12,12,12,13
participant_6_BUY,[],"[1035, 2031, 3340]",[],[],[],"[3057, 2055]",[],[],[],[],[],[6632],[],[],"[3047, 1028, 1029]",[],[],[3066],"[1031, 1028]",[],[],"[3742, 3133, 1029]",[],[],[],[],[],"[6333, 3123, 1033]",[],[],[]
participant_6_SOLD,[],[],[],[],[],[],[],[],[2055],[],[1035],[3057],[],[],[],[],[],[1028],[1029],[],[],"[3066, 1028, 1031]",[],[],[],[],[],"[1029, 3133, 2031]",[],[],[]
participant_6_UNDO,[],[],[],[],[],[],[],[],[],[],[],[],[],[],[],[],[],[],[],[],[],[],[],[],[],[],[],[],[],[],[]
participant_7_GOLD,500,500,591,871,1183,1794,2064,2380,2690,3075,3267,3823,3945,4368,4586,4807,4957,5220,5457,5698,5884,6230,6647,7189,7410,7554,7822,8187,8310,8433,8943
participant_7_CURRENTGOLD,500,0,91,361,673,1274,1544,1860,2160,2545,187,733,55,478,696,917,1067,1330,367,608,794,305,722,414,635,279,547,912,220,343,458
participant_7_LEVEL,1,1,1,3,4,5,6,7,7,8,8,9,9,9,10,10,10,11,11,11,12,12,12,13,13,13,13,13,14,14,14
participant_7_MINIONSKILLED,0,0,4,11,22,30,39,46,54,60,64,70,70,78,79,85,87,90,95,102,106,112,124,131,134,135,140,146,146,146,149
participant_7_KILLS,0,0,0,0,0,0,0,0,0,0,0,0,0,0,0,0,0,0,0,0,1,1,1,1,2,2,2,2,2,3,3
participant_7_BUY,[],"[1056, 2003, 2003, 3340]",[],[],[1052],[],[],[],"[1026, 2055]",[],[3145],[],[1028],[],[3152],[],[],[],[],[],[],"[3108, 1052]",[1028],[],[3067],[4629],[],[],[],"[3020, 1052]",[]
participant_7_SOLD,[],[],[],[],[2003],[],[2003],[],[],[],"[2055, 1052]",[],[],[],"[3145, 1028, 1026]",[],[],[],[],[],[],[],[],[],"[1028, 1056]","[3108, 3067, 1052]",[],[],[],[2422],[]
participant_7_UNDO,[],[],[],[],[],[],[],[],[],[],[],[],[],[],[],[],[],[],[],[],[],[],[],[],[],[],[],[],[],[],[]
participant_8_GOLD,500,500,584,1232,1844,2092,2491,3063,3401,3650,4100,4466,4738,4965,5088,5294,5417,5577,5849,6021,6338,6845,6967,7153,7372,7494,7631,7753,7875,8181,8291
participant_8_CURRENTGOLD,500,0,84,732,1344,117,516,303,641,890,1340,1706,138,365,488,694,177,337,609,781,1098,355,477,163,382,69,206,328,450,756,706
participant_8_LEVEL,1,1,1,2,4,4,5,6,6,7,8,8,8,9,9,9,9,9,10,10,10,10,10,10,11,11,11,11,11,12,12
participant_8_MINIONSKILLED,0,0,3,11,22,27,40,40,51,58,68,78,78,84,84,89,89,92,92,95,102,107,107,108,109,109,110,110,110,114,114
participant_8_KILLS,0,0,0,1,2,2,2,3,3,3,3,3,3,3,3,3,3,3,3,3,3,3,3,3,3,3,3,3,3,3,3
participant_8_BUY,[],"[1056, 2003, 3340, 2003]",[],[],[],"[3802, 2003, 2003, 2055]",[],"[1001, 1052, 2003]",[],[],[],[],"[6653, 2003, 2003, 2055]",[],[],[],[3020],[],[],[],[],"[1026, 1028]",[],[1011],[],[1052],[],[],[],[],[]
participant_8_SOLD,[],[],[],"[2003, 2003]",[],[],[2003],[2055],[],[],[],[2003],"[2003, 3802, 1052]",[2055],[],[],"[2003, 1056, 1001]",[],[],[],[2003],[],[],[1028],[],[],[],[],[],[],[]
participant_8_UNDO,[],[],[],[],[],[],[],[],[],[],[],[],[],[],[],[],[],[],[],[],[],[],[],[],[],[],[],[],[],[],[]
participant_9_GOLD,500,500,523,699,890,1024,1260,1694,1828,1963,2097,2370,2853,3245,3382,3543,4133,4274,4653,4865,5193,6383,6674,6996,7832,7973,8113,8596,9037,9242,9547
participant_9_CURRENTGOLD,500,0,23,199,240,374,610,1044,1178,263,397,670,1153,1545,172,333,923,214,593,805,1133,1023,64,386,1222,1363,253,737,742,948,-888
participant_9_LEVEL,1,1,1,1,2,3,4,4,4,4,4,5,5,6,6,6,7,7,8,8,9,9,10,10,11,11,11,12,12,12,13
participant_9_MINIONSKILLED,0,0,0,2,5,5,8,8,8,8,8,12,15,20,20,21,21,21,22,25,32,32,32,35,36,36,36,38,38,39,41
participant_9_KILLS,0,0,0,0,0,0,0,1,1,1,1,1,2,2,2,2,3,3,3,3,3,4,4,4,6,6,6,7,8,8,8
participant_9_BUY,[],"[3858, 3340, 2003, 2003]",[],[],[1006],[],[],[],[],"[3801, 1006, 1028]",[],[],[],[],"[3109, 3020, 1058]",[],[],[1026],[],[],[],[3802],[6655],[3364],[],[],[1058],[],[1052],[],[3089]
participant_9_SOLD,[],[],[],"[2003, 2003]",[],[],[],[],[],[1006],[],[],[],[],"[3801, 1006, 1028, 3801, 1028, 1006, 3858]",[],[],[],[],[],[],[],"[3802, 1026]",[3340],[],[],[],[],[3859],[],"[1052, 1058, 1058]"
participant_9_UNDO,[],[],[],[],[],[],[],[],[],[],[],[],[],[],"[[0, 3109]]",[],[],[],[],[],[],[],[],[],[],[],[],[],[],[],[]
team0_KILLS,0,0,0,0,1,2,2,4,4,5,5,6,9,9,14,15,17,19,23,24,26,28,32,32,37,37,40,43,43,48,51
team0_CURRENTGOLD,2500,0,395,1703,2783,3145,3466,4991,2412,4134,2778,4933,4479,4627,3876,2961,2932,3523,5533,5565,2220,2558,4767,3556,2367,4098,7058,7986,3729,4597,7065
team0_TOTALGOLD,2500,2500,2895,4203,5933,7505,8936,11111,12442,14164,15233,17398,20994,22242,25726,27186,29147,30838,34048,35880,37685,39872,42831,44321,47787,49516,52477,54504,55937,59132,62520
team0_LEVEL,5,5,6,12,17,20,24,26,28,32,32,37,39,41,44,47,48,51,53,55,56,59,61,62,66,67,69,71,72,75,76
team0_SBIRES,0,0,9,29,50,69,99,115,142,162,178,202,221,247,258,271,286,291,294,314,331,356,365,387,403,417,435,442,451,467,492
team1_KILLS,0,0,0,1,2,3,3,6,6,7,7,8,9,9,11,11,12,12,15,15,17,19,20,20,23,23,25,26,27,28,30
team1_CURRENTGOLD,2500,0,382,2114,3220,2627,4031,5661,5935,6491,4678,3991,2072,3721,1393,2325,3089,2977,2910,3914,6081,1984,1914,2350,4407,3538,3997,2744,3084,3130,1846
team1_TOTALGOLD,2500,2500,2882,4624,6315,7982,9386,11801,13010,14616,15968,17891,19012,20661,22553,23485,24889,26027,28060,29064,31231,34153,35734,37520,39817,40748,42456,44093,45684,46963,48586
team1_LEVEL,5,5,6,12,17,21,25,29,29,33,35,38,38,41,44,44,45,47,50,51,54,54,56,58,60,61,62,64,66,68,69
team1_SBIRES,0,0,9,32,60,85,113,131,150,171,194,227,230,252,258,270,281,296,302,318,342,358,373,399,409,417,427,447,460,468,475
delta_KILLS,0,0,0,-1,-1,-1,-1,-2,-2,-2,-2,-2,0,0,3,4,5,7,8,9,9,9,12,12,14,14,15,17,16,20,21
delta_CURRENTGOLD,0,0,13,-411,-437,518,-565,-670,-3523,-2357,-1900,942,2407,906,2483,636,-157,546,2623,1651,-3861,574,2853,1206,-2040,560,3061,5242,645,1467,5219
delta_TOTALGOLD,0,0,13,-421,-382,-477,-450,-690,-568,-452,-735,-493,1982,1581,3173,3701,4258,4811,5988,6816,6454,5719,7097,6801,7970,8768,10021,10411,10253,12169,13934
delta_LEVEL,0,0,0,0,0,-1,-1,-3,-1,-1,-3,-1,1,0,0,3,3,4,3,4,2,5,5,4,6,6,7,7,6,7,7
delta_SBIRES,0,0,0,-3,-10,-16,-14,-16,-8,-9,-16,-25,-9,-5,0,1,5,-5,-8,-4,-11,-2,-8,-12,-6,0,8,-5,-9,-1,17
