name,team0,team1
win,Win,Fail
firstBlood,True,False
firstTower,True,False
firstInhibitor,True,False
firstBaron,True,False
firstDragon,False,True
firstRiftHerald,False,True
towerKills,11,3
inhibitorKills,3,0
baronKills,1,0
dragonKills,3,1
riftHeraldKills,0,1
