name,frame_0,frame_1,frame_2,frame_3,frame_4,frame_5,frame_6,frame_7,frame_8,frame_9,frame_10,frame_11,frame_12,frame_13,frame_14,frame_15,frame_16,frame_17,frame_18,frame_19,frame_20,frame_21,frame_22,frame_23
nameStamp,Tstart,Tearly,Tearly,Tearly,Tearly,Tearly,Tearly,Tearly,Tearly,Tearly,Tearly,Tearly,Tearly,Tearly,Tearly,Tearly,Tmid,Tmid,Tmid,Tmid,Tmid,Tmid,Tmid,Tmid
timestamp,0,60001,120015,180017,240028,300036,360052,420081,480100,540139,600165,660192,720194,780199,840201,900206,960224,1020234,1080240,1140257,1200272,1260286,1320287,1380287
participant_0_GOLD,500,500,562,824,1101,1378,1798,2039,2398,2768,2911,3484,3934,4246,4753,5149,5562,5943,6170,6330,6789,7685,8187,8249
participant_0_CURRENTGOLD,500,500,62,324,601,878,1298,1539,1898,2268,241,814,1264,1576,2083,2479,2892,3273,3500,110,569,1465,1967,1849
participant_0_LEVEL,1,1,1,3,4,5,6,7,7,8,8,9,9,9,10,10,11,11,12,12,12,13,13,13
participant_0_MINIONSKILLED,0,0,2,10,19,25,39,46,56,67,68,68,78,86,91,100,113,121,127,127,140,146,155,155
participant_0_KILLS,0,0,0,0,0,0,0,0,1,1,1,2,2,3,3,4,4,6,7,8,8,9,9,10
participant_0_BUY,[],"[1039, 2031, 3340]",[],[],[],[],"[3715, 1001]",[],[],"[3108, 1027]",[],[1414],[],[],[],"[3020, 3057]",[],[],"[1026, 3113]",[],"[3100, 1052, 1052]",[],[],[]
participant_0_SOLD,[],[],[],[],[],[],[1039],[],[],[],[],"[3108, 1027, 3715]",[],[],[],[1001],[],[],[],[],"[3057, 3113, 1026]",[],[],[]
participant_0_UNDO,[],[],[],[],[],[],[],[],[],[],[],[],[],[],[],[],[],[],[],[],[],[],[],[]
participant_1_GOLD,500,500,673,912,1212,1470,1678,1877,2554,2757,3169,3736,4009,4429,4650,5323,5754,6701,7127,7711,7970,8737,9137,9382
participant_1_CURRENTGOLD,500,0,173,412,712,970,228,427,1104,57,469,786,1059,1479,1700,523,954,1901,627,1211,150,917,1317,1562
participant_1_LEVEL,1,1,2,3,3,4,4,4,5,5,6,7,7,7,8,9,9,10,10,11,11,11,12,12
participant_1_MINIONSKILLED,0,0,0,0,0,0,0,0,0,0,0,0,1,1,1,1,1,3,3,3,3,8,11,11
participant_1_KILLS,0,0,0,0,0,0,0,0,0,0,0,1,1,1,2,2,2,2,2,2,2,3,3,3
participant_1_BUY,[],[],"[1054, 2003, 3340]",[],[],[],[],[],[],[],"[3044, 1001, 3067]",[],[],[],[],[],[],[],[],"[3071, 3111, 1031, 1011]",[],[],[],[]
participant_1_SOLD,[],[],[],[],[],[],[],[],[],[],[1054],[],[],[],[],[],[],[],[2003],"[3044, 3067, 1001]",[],[],[],[]
participant_1_UNDO,[],[],[],[],[],[],[],[],[],[],[],[],[],[],[],[],[],[],[],[],[],[],[],[]
participant_2_GOLD,500,500,583,849,1115,1378,1634,1850,2172,2480,2881,3149,3432,3610,4006,4269,4560,4808,4952,5112,5470,5643,5815,5952
participant_2_CURRENTGOLD,500,0,83,349,615,878,1134,1350,72,380,781,1049,1332,1510,606,434,725,123,267,187,545,718,890,867
participant_2_LEVEL,1,1,1,3,4,5,6,6,7,7,8,9,9,10,10,10,11,11,11,11,11,11,11,12
participant_2_MINIONSKILLED,0,0,3,10,17,22,29,34,34,44,51,55,64,67,71,77,83,84,85,85,86,86,86,86
participant_2_KILLS,0,0,0,0,0,0,0,0,0,0,0,0,0,0,0,0,0,0,0,0,0,0,0,0
participant_2_BUY,[],"[1056, 2003, 2003, 3340]",[],[],[],[],[],[],"[3010, 1026, 1027, 1028]",[],[],[],[],[],"[3027, 1001]",[1052],[],[1026],[],[1028],[],[],[],[]
participant_2_SOLD,[],[],[],[],[],[2003],[2003],[],[],[],[],[2419],[],[],"[1028, 1027, 1026]",[],[],[],[],[1056],[],[],[],[]
participant_2_UNDO,[],[],[],[],[],[],[],[],"[[0, 3010]]",[],[],[],[],[],[],[],[],[],[],[],[],[],[],[]
participant_3_GOLD,500,500,541,933,1196,1501,1701,2057,2235,2925,3622,4219,4745,5235,6233,7087,7356,8612,8889,9678,10520,10692,10969,11315
participant_3_CURRENTGOLD,500,0,41,433,696,1001,1201,1557,135,825,1522,144,670,1160,2158,312,581,1837,515,1303,2145,517,794,1140
participant_3_LEVEL,1,1,1,2,3,4,4,5,5,6,7,7,8,8,9,9,10,11,11,11,12,12,12,12
participant_3_MINIONSKILLED,0,0,1,15,23,33,37,48,51,63,73,80,91,97,110,116,124,135,136,147,153,153,159,159
participant_3_KILLS,0,0,0,0,0,0,0,0,0,0,0,0,1,1,1,1,1,1,1,1,1,1,1,1
participant_3_BUY,[],"[3858, 2003, 2003]",[],[],[],[],[],[],"[1001, 1029, 2003, 2055, 1029]",[],[],[],[],[],"[3117, 1031, 3082, 1031, 3082]","[3024, 1028, 2055, 3024, 3082, 1031, 1028, 2055, 3364]",[],[3067],[1029],[],[],[],[],[]
participant_3_SOLD,[],[],[],[],[],[],[],[],[],[2055],"[2003, 2003, 2003]",[3858],[],[],"[1001, 1029, 1029, 1029, 1029, 1029]","[1029, 1029, 1029, 1029, 3340]",[],"[1028, 2055]",[],[],[],[],[],[]
participant_3_UNDO,[],[],[],[],[],[],[],[],[],[],[],[],[],[],"[[0, 1031], [0, 3082]]","[[0, 3082], [0, 2055], [0, 1028], [0, 3024], [0, 1031], [0, 3082]]",[],[],[],[],[],[],[],[]
participant_4_GOLD,500,500,522,737,914,1070,1226,1440,1595,1973,2379,2707,3143,3416,3751,3941,4112,4440,4581,4864,5128,5566,5919,6060
participant_4_CURRENTGOLD,500,0,22,237,414,570,726,940,70,448,854,1182,1618,1891,326,141,312,270,111,394,658,1096,1449,1560
participant_4_LEVEL,1,1,1,2,3,4,4,5,5,6,6,7,7,7,8,8,8,8,9,9,10,10,10,11
participant_4_MINIONSKILLED,0,0,0,2,4,5,6,8,9,11,13,15,16,16,18,18,20,20,20,21,24,26,29,29
participant_4_KILLS,0,0,0,0,0,0,0,0,0,1,2,3,3,3,5,5,5,7,7,8,10,10,10,11
participant_4_BUY,[],"[1055, 2003, 3340]",[],[],[],[],[],[],"[1038, 1001]",[],[],"[3095, 2055]",[],[],[],"[3009, 1038, 1018]",[],[],"[3031, 1042]",[],[],"[2015, 3086]",[],[]
participant_4_SOLD,[],[],[],[],[],[],[],[2003],[],[],[],[1038],[],[2055],[],[1001],[],[],"[1038, 1018]",[],[],[1042],[],[]
participant_4_UNDO,[],[],[],[],[],[],[],[],[],[],[],[],[],[],[],[],[],[],[],[],[],[],[],[]
participant_5_GOLD,500,500,583,901,1171,1462,1725,2109,2510,2696,2951,3296,3580,3891,4291,4624,5037,5361,5741,6429,6677,7858,8078,8146
participant_5_CURRENTGOLD,500,0,83,401,671,962,275,659,1060,1246,1501,1846,380,691,1091,1424,1837,361,741,1429,327,468,688,696
participant_5_LEVEL,1,1,1,3,4,5,6,6,7,8,8,9,9,10,10,11,11,12,12,13,13,13,13,13
participant_5_MINIONSKILLED,0,0,3,14,22,32,39,51,64,67,75,85,91,102,115,124,133,141,152,163,170,171,177,179
participant_5_KILLS,0,0,0,0,0,0,0,0,0,0,0,0,0,0,0,0,0,0,0,0,0,1,1,1
participant_5_BUY,[],"[1055, 2003, 3340]",[],[],[],[],"[3070, 2003, 2003]",[],[],[],[],[],"[1001, 3134, 1036]",[],[],[],[],"[3142, 1036]",[],[],"[3158, 3134]",[3133],[],[]
participant_5_SOLD,[],[],[],[],[],[],[],[],[],[],[],[],[],[],[],[],[],"[1036, 3134]",[],[],"[1001, 1036]","[2003, 2003, 2003]",[],[]
participant_5_UNDO,[],[],[],[],[],[],[],[],[],[],[],[],[],[],[],[],[],[],[],[],[],[],[],[]
participant_6_GOLD,500,500,725,1040,1375,1528,1811,1933,2180,2578,2900,3173,3430,3637,3760,4092,4215,4657,4945,5212,5515,5716,5838,5864
participant_6_CURRENTGOLD,500,0,225,540,875,1028,1311,83,330,728,1050,223,480,687,810,1142,65,107,395,262,265,466,588,614
participant_6_LEVEL,1,1,2,3,4,4,5,5,5,6,7,7,7,7,8,8,8,8,9,9,9,10,10,10
participant_6_MINIONSKILLED,0,0,0,0,0,0,0,0,0,0,0,0,0,0,0,2,2,2,2,2,4,5,5,5
participant_6_KILLS,0,0,0,0,0,0,0,0,0,0,0,1,1,1,1,1,1,1,1,1,1,2,2,2
participant_6_BUY,[],"[1036, 2003, 2003, 2003, 3340]",[],[],[],"[1028, 1001, 2055, 2003]",[],[],"[3044, 2055, 2003, 2003]",[],"[1042, 1042, 2003, 2003]",[3101],[],[],[],[],"[3057, 3363]",[3078],[],[],[],[1038],[],[]
participant_6_SOLD,[],[],[],[],[],[],"[2003, 2003]","[2003, 2003, 2055]","[1028, 1036]","[2003, 2003]",[],"[2055, 1042, 1042]","[2003, 2003]",[],[],[],[3340],"[3101, 3057, 3044]",[],[],[],[],[],[]
participant_6_UNDO,[],[],[],[],[],[],[],[],[],[],[],[],[],[],[],[],[],[],[],[],[],[],[],[]
participant_7_GOLD,500,500,634,986,1292,1550,1905,2048,2266,2577,2781,3224,3477,3765,3972,4144,4503,4716,5038,5210,5480,6027,6247,6272
participant_7_CURRENTGOLD,500,0,134,486,792,225,580,723,266,577,81,24,277,565,772,944,253,133,455,627,897,144,364,389
participant_7_LEVEL,1,1,1,3,4,5,6,6,7,7,8,8,8,9,9,9,9,9,10,10,10,11,11,11
participant_7_MINIONSKILLED,0,0,6,16,26,31,41,42,48,55,59,59,62,71,75,75,78,82,89,89,96,101,102,102
participant_7_KILLS,0,0,0,0,0,0,0,0,0,0,0,0,0,0,0,0,0,0,1,1,1,1,1,1
participant_7_BUY,[],"[1055, 2003, 3340]",[],[],[],[],[1001],[],[],[],"[1036, 1036]",[],[],[3133],[],[],[1042],[3006],[],[1018],[],[],[],[]
participant_7_SOLD,[],[],[],[],[],[],[],[2003],[],[],[],[],[],"[1036, 1036]",[],[],[],"[1001, 1042]",[],[],[],[],[],[]
participant_7_UNDO,[],[],[],[],[],[],[],[],[],[],[],[],[],[],[],[],[],[],[],[],[],[],[],[]
participant_8_GOLD,500,500,520,663,786,923,1046,1168,1374,1497,1633,1756,1934,2077,2200,2393,2516,3055,3452,3699,3843,4002,4146,4171
participant_8_CURRENTGOLD,500,0,20,163,286,423,246,368,574,697,133,256,434,177,300,493,316,355,752,199,343,502,646,671
participant_8_LEVEL,1,1,1,1,2,2,2,3,4,4,5,5,5,6,6,6,7,8,8,9,9,9,9,9
participant_8_MINIONSKILLED,0,0,0,1,1,2,2,2,6,6,7,7,10,11,11,12,12,14,14,14,15,15,16,16
participant_8_KILLS,0,0,0,0,0,0,0,0,0,0,0,0,0,0,0,0,0,1,1,1,1,1,1,1
participant_8_BUY,[],"[1041, 1006, 3340]",[],[],[],[],[],"[3706, 1028, 1001]",[],[],[],[1401],[],[],[],[],[3211],[1028],[],[3067],[1029],[],[],[]
participant_8_SOLD,[],[],[],[],[],[],[],[1041],[],[],[3340],"[1028, 3706]",[],[],[3513],[],[],[],[],[1028],[],[],[],[]
participant_8_UNDO,[],[],[],[],[],[],[],[],[],[],[],[],[],[],[],[],[],[],[],[],[],[],[],[]
participant_9_GOLD,500,500,522,751,959,1181,1393,1652,1842,2092,2256,2433,2682,2854,3037,3524,3766,5071,5317,6129,6370,6592,6847,6876
participant_9_CURRENTGOLD,500,0,22,251,459,681,893,1152,67,317,46,173,72,169,352,839,1081,2386,217,1029,20,242,497,526
participant_9_LEVEL,1,1,1,2,3,4,5,5,6,6,7,7,7,8,8,8,9,9,10,10,10,11,11,11
participant_9_MINIONSKILLED,0,0,0,2,4,6,10,12,15,19,19,22,26,29,29,36,39,39,39,43,47,48,53,53
participant_9_KILLS,0,0,0,0,0,0,0,0,0,0,0,0,0,0,0,0,0,2,2,3,3,3,3,3
participant_9_BUY,[],"[1056, 2003, 3850, 2003, 2003, 3340]",[],[],[],[],[],[],"[3020, 2003, 2003, 2055]",[],[1052],[2003],[1027],"[2003, 2055]",[],[],[],[],"[3802, 1026, 3285]",[],[1058],[],[],[]
participant_9_SOLD,[],[],[],[2003],[2003],[],[],[],[],[2055],[],[],[],[2055],[3850],[],[2003],"[2003, 2003]","[1052, 1027, 3802, 1026]",[],[],[],[3851],[]
participant_9_UNDO,[],"[[0, 2003], [0, 1056]]",[],[],[],[],[],[],[],[],[],[],[],"[[0, 2003]]",[],[],[],[],[],[],[],[],[],[]
team0_KILLS,0,0,0,0,0,0,0,0,1,2,3,6,7,8,11,12,12,16,17,19,21,23,23,25
team0_CURRENTGOLD,2500,500,381,1755,3038,4297,4587,5813,3279,3978,3867,3975,5943,7616,6873,3889,5464,7404,5020,3205,4067,4713,6417,6978
team0_TOTALGOLD,2500,2500,2881,4255,5538,6797,8037,9263,10954,12903,14962,17295,19263,20936,23393,25769,27344,30504,31719,33695,35877,38323,40027,40958
team0_LEVEL,5,5,6,13,17,22,24,27,29,32,35,39,40,41,45,46,49,51,53,54,56,57,58,60
team0_SBIRES,0,0,6,37,63,85,111,136,150,185,205,218,250,267,291,312,341,363,371,383,406,419,440,440
team1_KILLS,0,0,0,0,0,0,0,0,0,0,0,1,1,1,1,1,1,4,5,6,6,8,8,8
team1_CURRENTGOLD,2500,0,484,1841,3083,3319,3305,2985,2297,3565,2811,2522,1643,2289,3325,4842,3552,3342,2560,3546,1852,1822,2783,2896
team1_TOTALGOLD,2500,2500,2984,4341,5583,6644,7880,8910,10172,11440,12521,13882,15103,16224,17260,18777,20037,22860,24493,26679,27885,30195,31156,31329
team1_LEVEL,5,5,6,12,17,20,24,25,29,31,35,36,36,40,41,42,44,46,49,51,51,54,54,54
team1_SBIRES,0,0,9,33,53,71,92,107,133,147,160,173,189,213,230,249,264,278,296,311,332,340,353,355
delta_KILLS,0,0,0,0,0,0,0,0,1,2,3,5,6,7,10,11,11,12,12,13,15,15,15,17
delta_CURRENTGOLD,0,500,-103,-86,-45,978,1282,2828,982,413,1056,1453,4300,5327,3548,-953,1912,4062,2460,-341,2215,2891,3634,4082
delta_TOTALGOLD,0,0,-103,-86,-45,153,157,353,782,1463,2441,3413,4160,4712,6133,6992,7307,7644,7226,7016,7992,8128,8871,9629
delta_LEVEL,0,0,0,1,0,2,0,2,0,1,0,3,4,1,4,4,5,5,4,3,5,3,4,6
delta_SBIRES,0,0,-3,4,10,14,19,29,17,38,45,45,61,54,61,63,77,85,75,72,74,79,87,85
