name,team0,team1
win,Win,Fail
firstBlood,True,False
firstTower,True,False
firstInhibitor,True,False
firstBaron,False,True
firstDragon,True,False
firstRiftHerald,True,False
towerKills,8,3
inhibitorKills,1,0
baronKills,0,1
dragonKills,3,0
riftHeraldKills,2,0
