name,team0,team1
win,Fail,Win
firstBlood,False,True
firstTower,False,True
firstInhibitor,False,True
firstBaron,False,True
firstDragon,True,False
firstRiftHerald,False,True
towerKills,4,11
inhibitorKills,0,5
baronKills,1,2
dragonKills,3,3
riftHeraldKills,0,2
