name,frame_0,frame_1,frame_2,frame_3,frame_4,frame_5,frame_6,frame_7,frame_8,frame_9,frame_10,frame_11,frame_12,frame_13,frame_14,frame_15,frame_16,frame_17,frame_18,frame_19,frame_20,frame_21,frame_22,frame_23,frame_24,frame_25,frame_26,frame_27,frame_28,frame_29,frame_30,frame_31,frame_32
nameStamp,Tstart,Tearly,Tearly,Tearly,Tearly,Tearly,Tearly,Tearly,Tearly,Tearly,Tearly,Tearly,Tearly,Tearly,Tearly,Tearly,Tmid,Tmid,Tmid,Tmid,Tmid,Tmid,Tmid,Tmid,Tmid,Tmid,Tmid,Tmid,Tmid,Tmid,Tmid,Tend,Tend
timestamp,0,60006,120014,180049,240076,300109,360141,420150,480179,540205,600210,660213,720229,780247,840265,900297,960298,1020313,1080322,1140333,1200349,1260359,1320385,1380407,1440414,1500430,1560461,1620469,1680475,1740476,1800494,1860507,1920507
participant_0_GOLD,500,500,520,811,1064,1312,1704,1896,2185,2399,2593,2833,2997,3266,3549,3671,3794,3966,4088,4211,4383,4506,4678,4800,4923,5145,5268,5390,5512,5635,5807,5930,6034
participant_0_CURRENTGOLD,500,0,20,311,564,112,504,696,985,1199,48,288,152,421,704,826,949,1121,1243,1366,1538,1661,1833,1955,2078,2300,2423,2545,2667,2790,2962,3085,3009
participant_0_LEVEL,1,1,1,2,3,4,5,6,7,8,8,8,8,9,9,9,9,9,9,9,9,9,9,9,9,9,9,9,9,9,9,9,9
participant_0_MINIONSKILLED,0,0,0,9,14,19,31,35,42,47,48,51,53,62,62,62,62,62,62,62,62,62,62,62,62,62,62,62,62,62,62,62,62
participant_0_KILLS,0,0,0,0,0,0,0,0,1,1,1,1,1,2,2,2,2,2,2,2,3,3,3,3,4,5,5,5,5,5,5,5,5
participant_0_BUY,[],"[1041, 2031, 3340]",[],[],[],[],"[3706, 1001]",[],[],[],[3133],[],[],"[1400, 3047]",[],[],[],"[3044, 2055, 3364]",[],[],[],[],"[3101, 3057]",[],[],[],[],"[3078, 3105, 1053]",[],[],[],[3133],[]
participant_0_SOLD,[],[],[],[],[],[],[1041],[],[],[],[],[],[],"[3133, 3706, 1001]",[],[],[],[3340],[],[2055],[],[],[],[],[],[],[],"[3101, 3057, 3044, 2031]",[],[],[],[],[]
participant_0_UNDO,[],[],[],[],[],[],[],[],[],[],[],[],[],[],[],[],[],[],[],[],[],[],[],[],[],[],[],[],[],[],[],[],[]
participant_1_GOLD,500,500,620,893,1156,1413,1621,1820,2397,2740,2862,3220,3527,3969,4277,4619,4997,5295,5717,5979,6778,7341,7513,7636,8208,8924,9345,9630,10013,10246,10551,10847,10951
participant_1_CURRENTGOLD,500,0,120,393,656,913,171,370,947,1290,312,670,977,94,402,744,1122,95,517,779,1578,2141,163,286,858,1574,1995,8,390,623,928,124,168
participant_1_LEVEL,1,1,2,3,3,4,4,4,5,6,6,7,7,7,8,8,9,9,10,10,11,11,11,12,12,12,13,13,14,14,14,14,14
participant_1_MINIONSKILLED,0,0,0,0,0,0,0,0,2,2,2,2,2,2,2,2,2,2,2,4,4,5,5,5,5,7,7,7,13,15,19,25,25
participant_1_KILLS,0,0,0,0,0,0,0,0,0,0,0,0,0,0,0,0,1,1,1,1,1,2,2,2,2,2,2,5,5,5,5,5,5
participant_1_BUY,[],"[1055, 2003]",[],[],[1055],"[2003, 2003]",[],[],[1018],[2031],[],[1042],[3086],[],[],"[1042, 1001]",[],"[3046, 3006]",[],[],[1018],[],"[1038, 1037]",[],[3031],[],[],"[1053, 1038]",[],[],[],[],[]
participant_1_SOLD,[],[],[2003],[],[],[],[],"[2003, 2003]",[],[],[],[],"[1018, 1042]",[],[],[],[],"[1042, 3086, 1001]",[],[],[],[],"[2031, 1055]",[],"[1038, 1018]",[],[],[1055],[],[],[],[],[]
participant_1_UNDO,[],[],[],[],[],[],[],[],[],[],[],[],[],[],[],[],[],[],[],[],[],[],"[[0, 1037]]","[[1055, 0]]",[],[],[],[],[],[],[],[],[]
participant_2_GOLD,500,500,611,885,1078,1235,1519,1742,2104,2348,2547,2684,2876,3082,3363,3548,4637,4979,5220,5699,6158,7376,7875,8187,8310,8910,9290,10442,10773,10985,11402,11872,11976
participant_2_CURRENTGOLD,500,0,111,385,128,185,469,692,254,348,547,384,276,482,763,348,1437,79,320,799,458,1676,1115,1247,70,670,1050,182,513,726,1142,1612,1296
participant_2_LEVEL,1,1,1,3,4,4,5,6,6,7,7,8,8,8,9,9,10,10,11,11,12,12,13,13,13,14,14,14,15,15,15,16,16
participant_2_MINIONSKILLED,0,0,5,11,15,17,26,29,33,37,41,42,46,52,58,62,78,78,81,91,99,105,116,116,116,123,129,129,137,138,149,161,161
participant_2_KILLS,0,0,0,0,0,0,0,0,0,0,0,0,0,0,0,0,0,0,0,0,0,0,0,0,0,0,0,0,0,0,0,0,0
participant_2_BUY,[],"[1055, 2003, 3340]",[],[],[],"[1036, 1036]",[],[],[],[],"[3077, 1001, 1036, 1053]",[],[1001],[],[],[],[],[],[],[],[],[],[],[],[],[],[],[],[],[],[],[],[]
participant_2_SOLD,[],[],[],[],[],[2003],[],[],[],[],"[1036, 1036, 1055]",[],[],[],[],[],[],[],[],[],[],[],[],[],[],[],[],[],[],[],[],[],[]
participant_2_UNDO,[],[],[],[],[],[],[],[],[],[],"[[0, 1036], [0, 1001]]",[],[],[],[],[],[],[],[],[],[],[],[],[],[],[],[],[],[],[],[],[],[]
participant_3_GOLD,500,500,555,899,1505,2087,2392,2706,2933,3224,3656,4572,4968,5260,5604,5981,6317,7060,7922,8758,9524,11022,11417,12543,12834,13761,13884,14810,14932,15054,15624,15899,16017
participant_3_CURRENTGOLD,500,0,55,399,1005,212,517,831,1058,474,906,1822,2218,185,529,906,1242,1985,1147,1983,50,1547,792,1919,2209,3137,489,1415,1537,1660,2229,505,442
participant_3_LEVEL,1,1,1,2,3,4,4,5,5,6,6,7,8,8,8,9,9,10,10,11,11,12,12,13,13,14,14,14,14,14,15,15,15
participant_3_MINIONSKILLED,0,0,2,13,17,23,33,41,47,57,72,78,91,91,101,113,121,136,136,145,145,145,154,166,176,177,177,183,183,183,187,191,192
participant_3_KILLS,0,0,0,0,0,0,0,0,0,0,0,0,0,0,0,0,0,1,1,2,2,2,2,2,2,3,3,3,3,3,3,3,3
participant_3_BUY,[],"[3854, 2003, 2003, 3340]",[],[],[],"[1001, 1036]",[],[],[],[1053],[],[],"[1036, 1036]",[],[3134],[],[],[],[3181],[],"[3009, 1036]",[1036],[],[],"[3134, 1036, 1036]",[],"[3179, 1006]",[1028],[],[3801],[],[1028],[]
participant_3_SOLD,[],[],[2003],[2003],[],[],[],[],[],[1036],[],[3854],[],[],"[1036, 1036]",[],[],[],"[3134, 1053]",[3855],[1001],[],[],[],"[1036, 1036]",[],"[3134, 1036, 1036]",[],[],"[1028, 1006]",[],[],[]
participant_3_UNDO,[],[],[],[],[],[],[],[],[],[],[],[],[],[],[],[],[],[],[],[],[],[],[],[],[],[],[],[],[],[],[],[],[]
participant_4_GOLD,500,500,543,759,929,1296,1473,1628,1783,1939,2166,2377,2518,2658,2901,3146,3286,3797,4102,4789,4980,5245,5659,6136,6276,7041,7181,7492,7667,7817,8208,8348,8467
participant_4_CURRENTGOLD,500,0,43,259,429,146,323,478,633,239,466,677,118,258,101,346,486,997,302,990,230,145,559,1036,77,841,231,142,317,367,758,498,617
participant_4_LEVEL,1,1,1,2,3,4,4,5,5,6,6,6,7,7,7,7,8,8,8,9,9,10,10,11,11,12,12,12,12,12,13,13,13
participant_4_MINIONSKILLED,0,0,1,3,5,6,8,9,10,11,13,14,14,14,16,18,18,18,18,21,21,21,30,33,33,35,35,35,37,38,39,39,39
participant_4_KILLS,0,0,0,0,1,2,2,2,2,2,2,3,3,3,3,3,3,3,5,6,7,11,11,13,13,14,14,15,15,15,16,16,16
participant_4_BUY,[],"[3340, 2003, 1055]",[],[],[],"[1038, 2055]",[],[],[],[1037],[],[],[],"[3031, 3006, 1042]",[],[],[],[],"[3086, 1042, 1042]",[],"[3085, 3363, 3086, 2015]",[],"[3094, 2420]",[],[],[],"[3026, 3123]",[],[],[],[],[3033],[]
participant_4_SOLD,[],[],[],[2010],[],[2010],[],[],"[2010, 2055]",[],[],[],[2003],"[1038, 1037, 2422]",[],[],[],[],[1042],[],"[1042, 3086, 1042, 3340]",[],"[3086, 2015]",[],[],[],"[2420, 1055]",[],[],[],[],[3123],[]
participant_4_UNDO,[],[],[],[],[],[],[],[],[],[],[],[],[],[],[],[],[],[],[],[],[],[],[],[],[],[],[],[],[],[],[],[],[]
participant_5_GOLD,500,500,520,846,1120,1654,1906,2098,2499,2713,3144,3482,4025,4239,4830,5321,5977,6587,6824,7506,8187,8335,8583,8832,9039,9293,9982,10879,11016,11226,12509,13078,14041
participant_5_CURRENTGOLD,500,0,20,346,620,1154,431,623,1024,1238,119,457,1000,264,855,1346,2002,2612,749,1431,2112,1210,268,18,224,478,1168,79,217,426,945,1513,2416
participant_5_LEVEL,1,1,1,3,4,5,6,6,7,7,8,8,10,10,11,11,12,12,12,13,13,14,14,14,14,14,15,15,15,15,17,17,17
participant_5_MINIONSKILLED,0,0,0,12,18,24,29,33,46,52,57,67,76,81,92,102,112,112,113,133,141,141,141,144,149,153,156,162,162,162,182,200,212
participant_5_KILLS,0,0,0,0,0,0,0,0,0,0,0,0,1,1,1,1,1,1,1,1,1,1,1,3,3,3,3,4,4,4,4,4,5
participant_5_BUY,[],"[3340, 3850, 2003, 2003]",[],[],[],[],[],[],[],"[1052, 1027, 1001, 2003, 2003]",[],[],[],[],[],"[3802, 3020, 2003, 2003]",[],[],[],[],[],[],"[1026, 1028, 1052]",[],[3285],[],[],[],"[3916, 2003, 2003, 2003]",[],"[1026, 2003, 2003, 2003]",[],[]
participant_5_SOLD,[],[],"[2003, 2003]",[],[],[],[],[],[],[],[],[],"[2003, 3850]",[2003],[],"[1052, 1027, 1001]",[],[],[],[],[],"[2003, 2003, 3851]",[],[],"[3802, 1026]",[],[],[],"[1028, 1052]",[],"[2003, 2003, 2003]",[],[]
participant_5_UNDO,[],[],[],[],[],[],[],[],[],[],[],[],[],[],[],[],[],[],[],[],[],[],[],[],[],[],[],[],[],[],[],[],[]
participant_6_GOLD,500,500,628,913,1318,1632,1890,2287,2434,2692,3070,3463,3980,4175,4453,4681,4953,5113,5236,5578,6026,6274,6541,6929,7051,7173,7482,8070,8278,8627,9075,9388,9755
participant_6_CURRENTGOLD,500,0,128,413,818,1132,490,887,1034,342,720,1113,1630,225,503,731,1003,163,286,628,176,424,391,779,901,1023,1332,180,388,737,485,498,805
participant_6_LEVEL,1,1,2,2,4,4,4,5,5,6,6,7,7,8,8,8,9,9,9,9,10,10,10,11,11,11,11,12,12,13,13,14,14
participant_6_MINIONSKILLED,0,0,0,0,0,2,2,2,2,2,3,3,3,3,3,4,4,4,4,4,4,4,4,4,4,4,6,6,6,7,7,7,9
participant_6_KILLS,0,0,0,0,0,1,1,1,2,2,4,5,5,5,6,7,7,8,8,8,9,10,10,11,11,11,11,11,11,11,11,11,12
participant_6_BUY,[],"[1055, 2003, 3340]",[],[],[],[],"[1053, 1036]",[],"[1042, 1042]",[1001],[],"[3006, 3153, 1042]","[2003, 2003]",[],[],[],"[3006, 1038, 1036]",[],[1018],[],"[3508, 1018]",[],[1037],[],[],[],[],[1038],[],[],"[3031, 3123]",[1042],[]
participant_6_SOLD,[],[],[],[],[],[],[],[],[],[2003],[],"[1001, 1042, 1053, 1036, 1042, 1042]",[],[2003],[],[2003],"[1001, 1042]",[],[1055],[],"[1038, 1036, 1018]",[],[1055],[],[],[],[],[],[],[],"[1038, 1037, 1018]",[],[]
participant_6_UNDO,[],[],[],[],[],[],[],[],[],[],[],"[[0, 3006]]",[],[],[],[],[],[],"[[1055, 0]]",[],[],[],[],[],[],[],[],[],[],[],[],[],[]
participant_7_GOLD,500,500,520,832,1183,1738,1941,2161,2680,3022,3866,4497,4731,5105,5674,6618,6818,7613,7735,7963,9220,9727,9941,10504,10879,11023,11223,11435,11884,12229,12651,12962,13793
participant_7_CURRENTGOLD,500,0,20,332,683,1238,191,411,330,392,1236,117,251,625,1193,2138,188,983,305,533,140,647,166,729,1105,1248,1448,361,809,1154,352,363,813
participant_7_LEVEL,1,1,1,2,4,5,5,6,7,8,8,9,9,10,10,11,11,12,12,12,12,12,13,13,13,14,14,14,14,15,15,15,16
participant_7_MINIONSKILLED,0,0,0,11,22,30,32,37,40,50,58,61,67,73,80,87,89,104,104,110,110,110,115,120,125,126,128,129,139,139,139,141,142
participant_7_KILLS,0,0,0,0,0,0,0,0,0,0,0,0,1,1,1,1,1,1,1,1,1,1,1,1,1,1,1,2,2,2,2,2,2
participant_7_BUY,[],"[1039, 2031, 3364]",[],[],[],[],[3751],[],[],"[3715, 1001]",[],[],[],"[1413, 3082]",[],[],[],[1011],[],[],[3143],[],[1029],[],[],[],[],"[3047, 1011, 1029]",[],[],[3076],[1029],[]
participant_7_SOLD,[],[],[],[],[],[],[],[],[],[1039],[],[],[],"[3751, 3715]",[],[],[],[],[],[],"[3082, 1011]",[],[],[],[],[],[],"[1001, 1029, 2031]",[],[],[1029],[],[]
participant_7_UNDO,[],[],[],[],[],[],[],[],[],[],[],[],[],[],[],[],[],[],[],[],[],[],[],[],[],[],[],[],[],[],[],[],[]
participant_8_GOLD,500,500,541,741,920,1084,1298,1616,1842,1986,2241,2525,2777,2899,3167,3438,3778,4289,4545,4785,4958,5430,5698,6140,6276,6399,6536,6733,7385,8807,9572,9833,10872
participant_8_CURRENTGOLD,500,0,41,241,420,184,398,716,942,236,491,775,227,349,617,888,1228,89,345,585,758,280,548,990,26,149,286,83,735,2157,722,983,2022
participant_8_LEVEL,1,1,1,2,3,3,4,5,5,6,6,7,7,7,7,8,8,9,9,10,10,10,10,11,11,11,11,11,12,12,13,14,14
participant_8_MINIONSKILLED,0,0,1,6,9,12,17,28,31,32,40,49,49,49,53,59,65,66,74,77,77,77,81,87,88,88,89,89,94,94,96,100,100
participant_8_KILLS,0,0,0,0,0,1,1,1,1,1,1,1,2,2,3,3,3,4,4,4,4,4,4,4,4,4,5,6,6,6,6,6,7
participant_8_BUY,[],"[3340, 1027, 2031]",[],[],[],[],"[3070, 1028, 2055]",[],[],[],"[3010, 1026]",[],[],"[3027, 1001]",[],[],[],[],"[3020, 3802]",[],[],[3003],"[2420, 1029, 1029]",[3191],[],[],[],"[3157, 1028, 1052]",[],[],[3916],[],[]
participant_8_SOLD,[],[],[],[],[],[],"[1027, 2055]",[],[],[],[1028],[],[],"[3010, 1026]",[],[],[],[],[1001],[],[],"[3070, 3802]",[2031],"[2420, 3003, 1029, 1029]",[],[],[],"[3191, 2421]",[],[],"[1028, 1052]",[],[]
participant_8_UNDO,[],[],[],[],[],[],[],[],[],[],[],[],[],[],[],[],[],[],[],[],[],[],[],[],[],[],[],[],[],[],[],[],[]
participant_9_GOLD,500,500,552,702,882,1108,1303,1481,1660,1795,1989,2169,2735,2965,3204,3394,3585,3898,4068,4253,4459,4784,4925,5803,5943,6084,6337,6897,7167,7409,7849,7990,8632
participant_9_CURRENTGOLD,500,0,52,202,382,608,803,981,1160,110,304,484,1050,1280,1519,294,485,798,968,1153,1359,1684,140,1018,108,249,502,1062,417,659,99,240,882
participant_9_LEVEL,1,1,1,2,2,3,4,5,5,5,6,6,7,7,7,7,8,8,8,8,8,9,9,10,10,10,10,11,12,12,12,12,13
participant_9_MINIONSKILLED,0,0,0,0,0,4,4,5,5,5,5,5,5,5,5,5,5,5,5,5,5,5,5,9,9,9,12,19,19,20,20,20,21
participant_9_KILLS,0,0,0,0,0,0,0,0,0,0,0,0,0,0,0,0,0,1,1,1,1,2,2,2,2,2,2,2,3,5,6,6,7
participant_9_BUY,[],"[1055, 2003, 3340]",[],[],[],"[1036, 2003]",[],[],[],"[1053, 1001]",[],[],[3006],[],[],[],[],"[1038, 1036]",[],[],[],[3072],[],[],[3134],[],[],[1028],[],[],"[3814, 3123]",[],[]
participant_9_SOLD,[],[],[],[],[2003],[],[],[],[],[1036],[],[],[1001],[2003],[],[],[],[],[],[],[],"[1038, 1036, 1053]",[],[],[],[],[],[],[],[],"[3134, 1028]",[],[]
participant_9_UNDO,[],[],[],[],[],[],[],[],[],[],[],[],[],[],[],[],[],[],[],[],[],[],[],[],[],[],[],[],[],[],[],[],[]
team0_KILLS,0,0,0,0,1,2,2,2,3,3,3,4,4,5,5,5,6,7,9,11,13,18,18,20,21,24,24,28,28,28,29,29,29
team0_CURRENTGOLD,2500,0,349,1747,2782,1568,1984,3067,3877,3550,2279,3841,3741,1440,2499,3170,5236,4277,3529,5917,3854,7170,4462,6443,5292,8522,6188,4292,5424,6166,8019,5824,5532
team0_TOTALGOLD,2500,2500,2849,4247,5732,7343,8709,9792,11402,12650,13824,15686,16886,18235,19694,20965,23031,25097,27049,29436,31823,35490,37142,39302,40551,43781,44968,47764,48897,49737,51592,52896,53445
team0_LEVEL,5,5,6,12,16,20,22,26,28,33,33,36,38,39,41,42,45,46,48,50,52,54,55,58,58,61,62,62,64,64,66,67,67
team0_SBIRES,0,0,8,36,51,65,98,114,134,154,176,187,206,221,239,257,281,296,299,323,331,338,367,382,392,404,410,416,432,436,456,478,479
team1_KILLS,0,0,0,0,0,2,2,2,3,3,5,6,9,9,11,12,12,15,15,15,16,18,18,21,21,21,22,25,26,28,29,29,33
team1_CURRENTGOLD,2500,0,261,1534,2923,4316,2313,3618,4490,2318,2870,2946,4158,2743,4687,5397,4906,4645,2653,4330,4545,4245,1513,3534,2364,3147,4736,1765,2566,5133,2603,3597,6938
team1_TOTALGOLD,2500,2500,2761,4034,5423,7216,8338,9643,11115,12208,14310,16136,18248,19383,21328,23452,25111,27500,28408,30085,32850,34550,35688,38208,39188,39972,41560,44014,45730,48298,51656,53251,57093
team1_LEVEL,5,5,6,11,17,20,23,27,29,32,34,37,40,42,43,45,48,50,50,52,53,55,56,59,59,60,61,63,65,67,70,72,74
team1_SBIRES,0,0,1,29,49,72,84,105,124,141,163,185,200,211,233,257,275,291,300,329,337,337,346,364,375,380,391,405,420,422,444,468,484
delta_KILLS,0,0,0,0,1,0,0,0,0,0,-2,-2,-5,-4,-6,-7,-6,-8,-6,-4,-3,0,0,-1,0,3,2,3,2,0,0,0,-4
delta_CURRENTGOLD,0,0,88,213,-141,-2748,-329,-551,-613,1232,-591,895,-417,-1303,-2188,-2227,330,-368,876,1587,-691,2925,2949,2909,2928,5375,1452,2527,2858,1033,5416,2227,-1406
delta_TOTALGOLD,0,0,88,213,309,127,371,149,287,442,-486,-450,-1362,-1148,-1634,-2487,-2080,-2403,-1359,-649,-1027,940,1454,1094,1363,3809,3408,3750,3167,1439,-64,-355,-3648
delta_LEVEL,0,0,0,1,-1,0,-1,-1,-1,1,-1,-1,-2,-3,-2,-3,-3,-4,-2,-2,-1,-1,-1,-1,-1,1,1,-1,-1,-3,-4,-5,-7
delta_SBIRES,0,0,7,7,2,-7,14,9,10,13,13,2,6,10,6,0,6,5,-1,-6,-6,1,21,18,17,24,19,11,12,14,12,10,-5
