name,frame_0,frame_1,frame_2,frame_3,frame_4,frame_5,frame_6,frame_7,frame_8,frame_9,frame_10,frame_11,frame_12,frame_13,frame_14,frame_15,frame_16,frame_17,frame_18,frame_19,frame_20,frame_21,frame_22,frame_23,frame_24,frame_25,frame_26
nameStamp,Tstart,Tearly,Tearly,Tearly,Tearly,Tearly,Tearly,Tearly,Tearly,Tearly,Tmid,Tmid,Tmid,Tmid,Tmid,Tmid,Tmid,Tmid,Tmid,Tmid,Tmid,Tmid,Tmid,Tmid,Tmid,Tmid,Tmid
timestamp,0,60007,120026,180048,240081,300110,360139,420165,480193,540218,600248,660254,720280,780306,840335,900340,960369,1020378,1080404,1140416,1200448,1260462,1320494,1380516,1440548,1500549,1560577
participant_0_GOLD,950,950,1474,2199,2589,2887,3305,3575,3937,4354,4615,4940,5354,7132,7591,8021,9814,10771,12355,12809,13820,14875,15325,16700,17634,18608,19695
participant_0_CURRENTGOLD,950,0,524,349,739,337,754,225,587,1004,265,590,604,682,741,1171,264,1221,2805,559,1570,2625,785,2160,695,1668,2755
participant_0_LEVEL,3,3,3,4,5,6,7,7,8,9,10,10,11,12,13,13,15,16,16,17,18,18,18,18,18,18,18
participant_0_MINIONSKILLED,0,0,2,4,9,13,19,21,28,32,34,39,45,50,57,65,75,83,89,100,120,127,134,145,149,161,172
participant_0_KILLS,0,0,1,2,2,2,2,2,2,2,2,2,2,3,3,3,5,6,7,7,7,8,8,10,11,11,11
participant_0_BUY,[],"[3340, 1033, 1036, 2003, 2003, 2003, 2031]",[],"[3155, 1028]",[],"[3067, 1001]",[],[3111],[],[],[1011],[],[1028],[3022],[1028],[],"[3071, 1053]",[],[],[3812],[],[],"[3156, 1028]",[],[3065],[],[]
participant_0_SOLD,[],[],[],"[1036, 1033]",[],[1028],[],[1001],[],[],[],[],[],"[1028, 1011]",[],[],"[1028, 3067]",[],[],[1053],[],[],"[3155, 2031]",[],[1028],[],[]
participant_0_UNDO,[],"[[0, 2003], [0, 2003], [0, 2003]]",[],[],[],[],[],[],[],[],[],[],[],[],[],[],[],[],[],[],[],[],[],[],[],[],[]
participant_1_GOLD,950,950,1040,1727,2043,2346,2725,2941,3285,4190,4574,4854,5840,7027,7243,7509,7725,8259,9028,9875,10261,11291,12927,13183,13780,14596,15483
participant_1_CURRENTGOLD,950,0,90,777,1093,196,575,791,1135,940,524,804,940,2127,393,659,875,1410,878,1725,2111,1191,2827,883,1481,2297,1184
participant_1_LEVEL,3,3,3,4,5,6,7,8,9,10,10,11,11,12,13,13,13,14,15,15,16,17,17,18,18,18,18
participant_1_MINIONSKILLED,0,0,0,0,5,6,14,14,19,25,29,32,32,43,43,43,43,57,70,73,76,80,87,87,88,88,89
participant_1_KILLS,0,0,0,1,1,1,1,1,1,2,2,2,3,4,4,4,4,4,4,5,5,6,7,7,7,8,9
participant_1_BUY,[],"[3067, 2003, 2003, 2003]",[],[],[],[3211],[],[],[],"[3065, 1001]",[3111],[],"[1028, 1033]",[],[3194],[],[],[],[3155],[],[],[3156],[],"[3052, 1011]",[],[],"[3022, 3133]"
participant_1_SOLD,[],[2003],[],[2003],[2003],[],[],[],[],"[3211, 3067]",[1001],[],[],[],"[1033, 1028]",[],[],[],[],[],[],[3155],[],[],[],[],"[3052, 1011]"
participant_1_UNDO,[],[],[],[],[],[],[],[],[],[],[],[],[],[],[],[],[],[],[],[],[],[],[],[],[],[],[]
participant_2_GOLD,950,950,950,1213,1429,1699,1915,2159,2438,2654,2925,3168,3528,3994,4407,4710,4925,5141,5484,5844,6060,6343,6875,7156,7774,8861,9707
participant_2_CURRENTGOLD,950,0,0,263,129,399,165,409,538,754,1025,268,628,1094,1507,510,725,941,384,444,310,593,475,406,274,1361,2207
participant_2_LEVEL,3,3,3,4,4,5,6,6,7,8,8,9,9,10,12,12,13,13,13,14,14,15,16,16,17,18,18
participant_2_MINIONSKILLED,0,0,0,2,2,5,5,6,9,9,12,13,16,25,26,28,28,28,30,33,33,34,43,45,47,54,60
participant_2_KILLS,0,0,0,0,0,0,0,0,0,0,0,0,0,0,0,0,0,0,0,0,0,0,0,0,0,1,1
participant_2_BUY,[],"[1033, 1028, 2003, 2003]",[],[],[3211],[],[1033],[],[1006],[],[],[3194],[],[],[],[3155],[],[],"[1033, 1033]",[1001],[3111],[],[3105],[1036],[3133],[],[]
participant_2_SOLD,[],[],[],[],"[1028, 1033, 2003]",[],[],[],[2003],[],[],"[1033, 3211, 1006]",[],[],[],[],[],[],[],[],"[1001, 1033]",[],[1033],[],[1036],[],[]
participant_2_UNDO,[],[],[],[],[],[],[],[],[],[],[],[],[],[],[],[],[],[],[],[],[],[],[],[],[],[],[]
participant_3_GOLD,950,950,950,1422,1638,1936,2179,3034,3463,3697,4108,4324,4586,5136,7765,8049,8320,8817,9566,10286,11154,11949,12529,13018,14279,14985,16858
participant_3_CURRENTGOLD,950,450,0,472,238,236,129,183,613,847,358,124,36,586,3215,649,920,1417,216,937,1804,850,1429,998,2260,465,2338
participant_3_LEVEL,3,3,3,4,5,6,6,7,8,9,10,10,10,11,12,12,13,13,14,15,15,16,17,17,18,18,18
participant_3_MINIONSKILLED,0,0,0,12,12,15,16,17,24,25,30,30,32,35,38,39,42,46,49,55,58,64,74,78,81,86,97
participant_3_KILLS,0,0,0,0,0,0,0,1,1,1,1,1,1,1,3,3,3,3,4,4,5,6,6,6,7,7,9
participant_3_BUY,[],"[1055, 2003, 2033, 3340]",[1055],[],[1033],[1001],[3111],"[1033, 1036]",[],[],"[3155, 1028]",[1033],[3211],[],[],"[3071, 3194, 3044]",[],[],[3156],[],[],[3071],[],[3105],[],[3812],[]
participant_3_SOLD,[],[],[],[],[],[],"[1001, 1033]",[],[],[],"[1036, 1033]",[],"[1028, 1033]",[],[],[3211],[],[],[3155],[],[],[3044],[],[1055],[],[3105],[]
participant_3_UNDO,[],"[[0, 2003], [0, 1055]]",[],[],[],[],[],[],[],[],[],[],[],[],[],"[[0, 3071]]",[],[],[],[],[],[],[],[],[],[],[]
participant_4_GOLD,950,950,1022,1469,1712,2032,2267,2483,2744,2960,3194,3517,3733,4063,4279,4932,5148,5364,5652,6411,6627,7123,7339,8032,8349,8713,9179
participant_4_CURRENTGOLD,950,0,72,519,762,632,617,733,44,210,394,717,483,813,1029,1682,648,864,1152,1911,2077,2573,1839,2532,150,514,980
participant_4_LEVEL,3,3,3,5,6,7,7,8,9,9,9,10,10,11,12,12,13,13,14,14,15,16,16,17,17,17,17
participant_4_MINIONSKILLED,0,0,3,10,11,13,14,14,16,16,17,18,18,21,21,27,27,27,28,31,31,34,34,35,35,35,35
participant_4_KILLS,0,0,0,0,0,0,0,0,0,0,0,0,0,0,0,0,0,0,0,1,1,1,1,2,2,2,2
participant_4_BUY,[],"[3067, 2003, 2003, 2003, 3340]",[],[],[],"[2003, 1001, 2003, 2003]","[2003, 2003, 2003, 2003, 2003]","[2003, 2003]","[3047, 2003, 2003, 2003]",[2003],[2003],"[3364, 3340]",[1055],[],[],[],[3044],[],[],[],[2003],[],[3071],[],"[2003, 3800]",[],[]
participant_4_SOLD,[],[],[],[2003],"[2003, 2003]","[2003, 2003]",[2003],"[2003, 2003]","[2003, 2003, 2003, 2003, 2003, 1001]",[],[],"[3340, 3364]",[],[],[],[],[],[],[],[2003],[],[],"[3044, 3067]",[2003],[],[2003],[]
participant_4_UNDO,[],[],[],[],[],[],[],[],[],[],[],[],[],[],[],[],[],[],[],[],[],[],[],[],[],[],[]
participant_5_GOLD,950,950,1050,1514,1921,2192,3520,4326,5369,6290,6853,7183,7718,8084,8478,8911,10148,10626,11039,11255,12130,12882,13865,14081,14299,14901,15117
participant_5_CURRENTGOLD,950,30,130,594,271,542,1870,226,1269,2190,554,883,518,884,228,661,1898,2376,289,505,280,1033,2015,231,449,1051,1267
participant_5_LEVEL,3,3,3,5,6,7,9,10,11,12,13,13,14,14,15,15,16,17,17,17,18,18,18,18,18,18,18
participant_5_MINIONSKILLED,0,0,4,12,21,24,35,44,59,62,69,69,72,72,72,78,95,99,103,103,103,106,116,116,116,122,122
participant_5_KILLS,0,0,0,0,0,0,1,2,3,4,5,5,5,5,5,6,6,8,8,8,10,10,11,11,11,11,11
participant_5_BUY,[],"[1052, 1052, 2003]",[],[],"[3802, 1001]",[],[],"[3916, 1026]",[],[],"[3165, 3020, 1026]",[],[3108],[],[3285],[],[],[],"[1058, 1058]",[],[3089],[],[],[3157],[],[],[]
participant_5_SOLD,[],[],[],[],"[1052, 1052]",[],[],[2003],[],[],"[3916, 1026, 1001]",[],[],[3340],"[3802, 1026]",[],[3513],[],[],[],"[1058, 1058]",[],[],[3108],[],[],[]
participant_5_UNDO,[],[],[],[],[],[],[],[],[],[],[],[],[],[],[],[],[],[],[],[],[],[],[],[],[],[],[]
participant_6_GOLD,950,950,1040,1257,1601,1835,2223,2593,2872,3184,3532,3811,4334,4600,5097,5475,5999,6260,6558,6883,7338,7679,7986,8230,8807,9108,9324
participant_6_CURRENTGOLD,950,0,90,307,651,885,1273,343,622,84,432,711,1234,450,947,1325,299,560,858,1183,1638,730,1037,180,757,1058,474
participant_6_LEVEL,3,3,3,4,5,6,7,8,9,9,10,11,11,12,12,13,13,14,14,15,15,15,16,16,16,17,17
participant_6_MINIONSKILLED,0,0,0,0,6,7,11,14,17,19,23,25,26,26,34,37,38,40,44,49,53,54,59,60,69,71,71
participant_6_KILLS,0,0,0,0,0,0,0,0,0,0,0,0,0,0,0,0,0,0,0,0,0,0,0,0,0,0,0
participant_6_BUY,[],"[1056, 3340, 1056, 2003, 2003, 2003]",[],[],[],[],[],[3802],[],[1026],[],[],[],[3285],[],[],"[1058, 1001]",[],[],[],[],[1058],[],[3089],[],[],[3020]
participant_6_SOLD,[],[],[2003],[2010],[],[2010],[2003],[],"[2003, 2010]",[],[],[],[],"[3802, 1026]",[],[],[],[],[],[],[],[],[],"[1058, 1058]",[],[],[1001]
participant_6_UNDO,[],[],[],[],[],[],[],[],[],[],[],[],[],[],[],[],[],[],[],[],[],[],[],[],[],[],[]
participant_7_GOLD,950,950,1658,1876,2678,3390,4063,4342,4667,5261,5828,6533,7058,7324,8116,8621,9196,9430,9773,10123,10389,10655,10871,11250,11495,11711,11927
participant_7_CURRENTGOLD,950,50,758,225,1028,390,1063,542,867,1461,128,833,1358,424,367,871,1447,191,533,233,499,25,241,620,865,831,1047
participant_7_LEVEL,3,3,3,4,6,7,8,8,9,10,11,12,12,13,13,14,15,15,16,16,16,16,17,17,17,18,18
participant_7_MINIONSKILLED,0,0,1,1,6,11,18,20,25,32,36,36,41,41,45,50,52,52,54,56,56,56,56,59,60,60,60
participant_7_KILLS,0,0,1,1,2,3,3,3,3,3,4,6,6,6,7,7,7,7,8,8,8,8,8,8,8,8,8
participant_7_BUY,[],"[1056, 1056, 2003, 3340, 2003]",[],"[1028, 1001, 2003]",[],"[3802, 2003]",[],[3020],[],[],[3285],[],[],[3916],[1026],[],[],"[3165, 3191]",[],[2420],[],[3108],[],[],[],[3157],[]
participant_7_SOLD,[],[],[2003],[],"[2003, 2003]",[],[],[1001],[2003],[],[3802],[],[],[1028],[],[],[],"[3916, 1026, 1056]",[],[],[],"[2420, 1056]",[],[],[],"[3191, 3108, 2421]",[]
participant_7_UNDO,[],[],[],[],[],[],[],[],[],[],[],[],[],[],[],[],[],[],[],[],[],[],[],[],[],[],[]
participant_8_GOLD,950,950,1400,1663,1980,2324,3081,3875,4359,5221,6204,6674,7823,8089,9215,10230,10839,11082,11443,11659,11925,12334,12550,12766,12984,13200,13416
participant_8_CURRENTGOLD,950,30,480,213,530,873,1630,525,574,1436,870,1339,2488,404,1530,2545,3154,398,758,124,390,800,1016,1232,1449,1665,1881
participant_8_LEVEL,3,3,3,3,5,6,7,8,8,10,11,11,12,12,14,15,15,15,16,16,16,17,17,17,17,17,18
participant_8_MINIONSKILLED,0,0,0,2,4,10,14,17,26,33,41,48,54,54,63,74,80,81,84,84,84,87,87,87,87,87,87
participant_8_KILLS,0,0,1,1,1,1,2,3,3,4,5,6,8,8,11,13,13,13,14,14,14,14,14,14,14,14,14
participant_8_BUY,[],"[1052, 1052, 2003, 3340]",[],"[3802, 2003, 2003]",[],[],[],[3285],[1052],[],"[1058, 1001]",[],[],[3089],[],[],[],"[3165, 1052]",[],[1026],[],[],[],[],[],[],[]
participant_8_SOLD,[],[],[2003],"[1052, 1052]",[],[],[2010],"[2010, 3802]",[],[2010],[],[2003],[2003],[1058],[],[],[],[1052],[],[],[],[],[],[],[],[],[]
participant_8_UNDO,[],[],[],[],[],[],[],[],[],[],[],[],[],[],[],[],[],[],[],[],[],[],[],[],[],[],[]
participant_9_GOLD,950,950,1565,1856,2695,3238,4328,5237,5498,6314,6779,7200,7940,8722,8965,9236,10175,10418,10643,11084,11478,11878,12477,13287,13504,14170,14423
participant_9_CURRENTGOLD,950,15,630,921,1760,188,1278,2187,548,1364,144,565,890,1672,1115,551,725,968,343,785,1178,1029,1628,1187,1405,2071,2323
participant_9_LEVEL,3,3,3,4,6,7,8,9,10,10,11,12,13,13,13,14,14,15,15,15,16,16,17,17,17,18,18
participant_9_MINIONSKILLED,0,0,2,5,12,12,22,27,29,33,35,41,55,61,62,65,68,69,69,76,81,81,87,90,90,90,92
participant_9_KILLS,0,0,1,1,2,3,5,7,7,8,8,8,9,9,9,9,10,10,10,10,10,10,10,11,11,12,12
participant_9_BUY,[],"[1056, 1052, 2003, 2003, 3340]",[],[],[],"[3802, 3020, 2003, 2003, 2003]",[],[],[3285],[],"[1058, 1052]",[],[3113],[],[3907],"[1052, 1028]",[3916],[],[1026],[],[],[3165],[],[1058],[],[],[]
participant_9_SOLD,[],[],[2003],[],[],[1052],[2003],"[2003, 2003]",[3802],[2003],[],[],[1052],[],"[1058, 3113]",[],"[1028, 1052]",[],[],[],[],"[3916, 1026]",[],[],[],[],[]
participant_9_UNDO,[],[],[],[],[],[],[],[],[],[],[],[],[],[],[],[],[],[],[],[],[],[],[],[],[],[],[]
team0_KILLS,0,0,1,3,3,3,3,4,4,5,5,5,6,8,10,10,12,13,15,17,18,21,22,25,27,29,32
team0_CURRENTGOLD,4750,450,686,2380,2961,1800,2240,2341,2917,3755,2566,2503,2691,5302,6885,4671,3432,5853,5435,5576,7872,7832,7355,6979,4860,6305,9464
team0_TOTALGOLD,4750,4750,5436,8030,9411,10900,12391,14192,15867,17855,19416,20803,23041,27352,31285,33221,35932,38352,42085,45225,47922,51581,54995,58089,61816,65763,70922
team0_LEVEL,15,15,15,21,25,30,33,36,41,45,47,50,51,56,62,62,67,69,72,75,78,82,84,86,88,89,89
team0_SBIRES,0,0,5,28,39,52,68,72,96,107,122,132,143,174,185,202,215,241,266,292,318,339,372,390,400,424,453
team1_KILLS,0,0,3,3,5,7,11,15,16,19,22,25,28,28,32,35,36,38,40,40,42,42,43,44,44,45,45
team1_CURRENTGOLD,4750,125,2088,2260,4240,2878,7114,3823,3880,6535,2128,4331,6488,3834,4187,5953,7523,4493,2781,2830,3985,3617,5937,3450,4925,6676,6992
team1_TOTALGOLD,4750,4750,6713,8166,10875,12979,17215,20373,22765,26270,29196,31401,34873,36819,39871,42473,46357,47816,49456,51004,53260,55428,57749,59614,61089,63090,64207
team1_LEVEL,15,15,15,20,28,33,39,43,47,51,56,59,62,64,67,71,73,76,78,79,81,82,85,85,85,88,89
team1_SBIRES,0,0,7,20,49,64,100,122,156,179,204,219,248,254,276,304,333,341,354,368,377,384,405,412,422,430,432
delta_KILLS,0,0,-2,0,-2,-4,-8,-11,-12,-14,-17,-20,-22,-20,-22,-25,-24,-25,-25,-23,-24,-21,-21,-19,-17,-16,-13
delta_CURRENTGOLD,0,325,-1402,120,-1279,-1078,-4874,-1482,-963,-2780,438,-1828,-3797,1468,2698,-1282,-4091,1360,2654,2746,3887,4215,1418,3529,-65,-371,2472
delta_TOTALGOLD,0,0,-1277,-136,-1464,-2079,-4824,-6181,-6898,-8415,-9780,-10598,-11832,-9467,-8586,-9252,-10425,-9464,-7371,-5779,-5338,-3847,-2754,-1525,727,2673,6715
delta_LEVEL,0,0,0,1,-3,-3,-6,-7,-6,-6,-9,-9,-11,-8,-5,-9,-6,-7,-6,-4,-3,0,-1,1,3,1,0
delta_SBIRES,0,0,-2,8,-10,-12,-32,-50,-60,-72,-82,-87,-105,-80,-91,-102,-118,-100,-88,-76,-59,-45,-33,-22,-22,-6,21
