name,frame_0,frame_1,frame_2,frame_3,frame_4,frame_5,frame_6,frame_7,frame_8,frame_9,frame_10,frame_11,frame_12,frame_13,frame_14,frame_15,frame_16,frame_17,frame_18,frame_19,frame_20,frame_21,frame_22,frame_23,frame_24,frame_25,frame_26,frame_27,frame_28,frame_29,frame_30,frame_31,frame_32,frame_33
nameStamp,Tstart,Tearly,Tearly,Tearly,Tearly,Tearly,Tearly,Tearly,Tearly,Tearly,Tearly,Tearly,Tearly,Tearly,Tearly,Tearly,Tmid,Tmid,Tmid,Tmid,Tmid,Tmid,Tmid,Tend,Tend,Tend,Tend,Tend,Tend,Tend,Tend,Tend,Tend,Tend
timestamp,0,60021,120027,180030,240037,300056,360084,420120,480151,540174,600205,660237,720264,780267,840290,900293,960318,1020338,1080341,1140345,1200370,1260391,1320413,1380427,1440448,1500480,1560510,1620511,1680535,1740536,1800551,1860577,1920591,1980591
participant_0_GOLD,500,500,583,905,1099,1605,1902,2470,2818,3475,3703,4026,4596,4719,5104,5368,5616,5801,5924,6195,6495,6987,7566,8733,9069,9345,9641,9819,9985,10367,10608,11096,11729,11777
participant_0_CURRENTGOLD,500,0,83,405,599,495,57,625,973,1630,193,51,621,244,619,883,1131,1316,239,510,810,167,746,1913,384,260,556,235,400,782,1024,1511,44,102
participant_0_LEVEL,1,1,1,3,4,5,6,7,7,8,9,9,10,10,10,11,11,11,11,11,12,12,12,13,13,13,14,14,14,14,15,15,16,16
participant_0_MINIONSKILLED,0,0,3,12,16,21,30,38,46,57,64,72,74,74,85,90,96,100,100,108,111,111,114,117,120,125,132,135,138,143,150,162,167,167
participant_0_KILLS,0,0,0,0,0,0,0,0,0,0,0,0,0,0,0,0,0,0,0,0,0,0,0,0,0,0,0,0,0,0,0,0,0,0
participant_0_BUY,[],"[3850, 2003, 2003, 3340]",[],[],[],[],[],"[4642, 2055, 3364]",[],[],[],[],[],[3067],"[1004, 1004, 2055]",[],[],[],[4005],[],[],"[3114, 3114]",[],[],[1026],[2055],[],[],[3504],[],[1028],[],[],[]
participant_0_SOLD,[],[],[],[],[2003],[],[2003],[3340],[3850],[2055],[],[],[],[],[],[],[3851],[],"[2055, 3067, 4642]",[],[],"[1004, 1004]",[],[],[],[],[],[],"[3114, 1026]",[],[],[],[],[]
participant_0_UNDO,[],[],[],[],[],[],[],[],[],[],[],[],[],[],[],[],[],[],[],[],[],[],[],[],[],[],[],[],[],[],[],[],[],[]
participant_1_GOLD,500,500,620,947,1148,1355,1485,1632,1869,2167,2289,2546,2753,3332,3555,3912,4045,4167,4415,4538,4840,4963,5375,6187,6542,6665,6957,7218,7611,7842,8069,8191,8396,8444
participant_1_CURRENTGOLD,500,0,120,447,648,855,985,1132,1369,1667,339,596,803,1382,555,912,1045,467,715,38,340,463,875,237,592,715,207,468,861,1092,269,391,596,644
participant_1_LEVEL,1,1,2,3,3,3,3,4,4,5,5,5,5,7,7,7,7,8,8,8,8,8,9,10,11,11,11,11,12,12,12,13,14,14
participant_1_MINIONSKILLED,0,0,0,0,0,0,0,0,0,0,0,1,1,1,1,1,2,2,2,2,3,3,3,3,3,3,3,7,10,11,13,13,14,14
participant_1_KILLS,0,0,0,0,0,0,0,0,0,0,0,0,0,0,0,0,0,0,0,0,0,0,0,0,2,2,3,3,3,3,3,3,3,3
participant_1_BUY,[],"[3070, 2003, 2003]",[],[],[],[],[],[3133],[],[],"[1027, 1001]",[],[],[],[],[],[],[3004],[3158],[],[],"[3044, 1028]",[],[3067],[3057],[],[6632],[1053],[],[],"[1042, 1042]",[1043],[],[]
participant_1_SOLD,[],[],[],[2003],[],[],[2003],[],[],[],[],[],[],[],[],[],[],"[3070, 3133, 1027, 3004]",[1001],[],[],[],[],[1028],[],[],"[3044, 3057, 3067]",[],[],[],[],"[1042, 1042]",[],[]
participant_1_UNDO,[],[],[],[],[],[],[],[],[],[],[],[],[],[],[],[],[],[],[],[],[],[],[],[],[],[],[],[],[],[],[],[],[],[]
participant_2_GOLD,500,500,597,891,1141,1396,1575,2031,2418,2788,3022,3250,4279,5216,5504,6174,6360,6991,7268,8895,10246,10463,11106,11366,12348,12470,12726,12890,13568,14709,15096,16920,17728,17776
participant_2_CURRENTGOLD,500,0,97,381,631,886,1065,71,448,808,142,370,1399,2336,324,194,380,411,688,2315,3666,764,1406,366,248,371,626,790,449,1589,37,1861,1568,-974
participant_2_LEVEL,1,1,1,3,4,5,6,6,7,8,8,9,10,10,11,11,11,12,13,13,14,14,14,14,15,15,15,15,15,16,16,17,17,17
participant_2_MINIONSKILLED,0,0,4,11,18,25,28,29,42,53,59,66,78,88,94,100,104,115,120,132,143,143,143,143,143,143,146,149,151,164,175,197,199,199
participant_2_KILLS,0,0,0,0,0,1,1,2,2,3,3,3,4,4,4,4,4,4,4,4,4,5,6,8,8,8,8,8,8,8,8,8,9,9
participant_2_BUY,[],"[1056, 2003, 2003, 3340]",[],[],[],"[1052, 2055, 2003, 2003]","[1052, 1001]",[],[],[],"[3802, 3111, 1052]",[3108],[],[2033],[],[],[],[],[6653],[],[],"[3057, 1052]",[],[],[3100],[1028],[],[1011],[],[],[],[],[4637],[]
participant_2_SOLD,[],[],"[2003, 2003]",[],[],"[2003, 2003]",[2055],[],[],[],"[1052, 1052, 1001]",[1052],[],[],[],[],[],[],"[3802, 3108]",[],[],[],[],[],"[3057, 1052]",[],[],[1028],[],[],[],[],[1011],[]
participant_2_UNDO,[],[],[],[],[],[],[],[],[],[],[],[],[],[],[],[],[],[],[],[],[],[],[],[],[],[],[],[],[],[],[],[],[],[]
participant_3_GOLD,500,500,562,803,990,1259,1417,1605,1727,2027,2299,2581,2801,2923,3081,3309,3551,3788,4105,4402,4985,5129,5335,5855,6615,6808,7792,7914,8108,8411,8658,9004,9235,9283
participant_3_CURRENTGOLD,500,0,62,303,490,759,917,5,127,427,49,331,551,673,831,1059,1301,788,505,802,1385,29,235,355,415,607,892,114,308,611,258,204,435,483
participant_3_LEVEL,1,1,1,2,3,4,4,5,5,5,5,6,6,7,7,7,8,8,9,9,9,10,10,11,11,12,12,12,12,13,13,14,14,14
participant_3_MINIONSKILLED,0,0,2,9,13,21,23,24,24,31,35,41,47,47,49,52,55,58,65,71,80,81,86,90,90,94,101,101,105,111,114,118,119,119
participant_3_KILLS,0,0,0,0,0,0,0,0,0,0,0,0,0,1,1,1,1,1,1,1,1,1,1,2,2,2,2,2,2,2,2,2,2,2
participant_3_BUY,[],"[1035, 3340, 2031]",[],[],[],[],[],[],[],[],"[6660, 1033, 3364]",[],[],[],[3105],[],[],[3068],[],[3047],[],[],[],"[3133, 1036]",[],[],[3067],[],[],[],[3071],[],[],[]
participant_3_SOLD,[],[],[],[],[],[],[],[],[],[1035],[3340],[],[],[],[1033],[],[],"[6660, 3105]",[],[2422],[],[],[],[],[],[],[],[],[],[],"[3133, 3067, 1036]",[],[],[]
participant_3_UNDO,[],[],[],[],[],[],[],[],[],[],[],[],[],[],[],[],[],[],[],[],[],[],[],[],[],[],[],[],[],[],[],[],[],[]
participant_4_GOLD,500,500,522,716,972,1186,1462,1636,1811,1982,2302,2535,2750,3100,3240,3511,3691,3832,3972,4412,4753,4968,5109,5520,5873,6013,6294,6469,6685,6901,7041,7557,7845,7900
participant_4_CURRENTGOLD,500,0,22,216,472,686,962,11,186,357,677,910,1125,675,241,511,691,832,152,593,933,48,189,600,103,168,449,624,191,406,146,662,950,975
participant_4_LEVEL,1,1,1,2,3,4,4,4,4,5,5,6,6,7,7,7,7,8,8,8,9,10,10,11,11,11,12,12,12,13,13,14,14,14
participant_4_MINIONSKILLED,0,0,0,0,0,0,1,1,1,2,2,6,7,7,7,7,7,7,7,7,7,7,7,7,7,7,8,10,10,10,10,10,10,10
participant_4_KILLS,0,0,0,0,0,0,0,1,1,1,1,1,2,3,3,3,3,4,4,6,7,7,8,8,10,10,10,10,11,12,12,15,16,16
participant_4_BUY,[],"[2003, 1055, 3340]",[],[],[],[],[],"[6670, 2031]",[],[],[1053],[],[],[],"[6673, 3006]",[6677],[],[1018],[],[],[],"[3124, 1053, 1043]",[],[3153],[3051],[],[],[],[6672],[],[3091],[],[3133],[]
participant_4_SOLD,[],[],[],[],[2003],[],[],[],[],[],[],[],[],[],"[6670, 1053]",[],[],[],[],[],[],"[6677, 1018, 1055]",[],"[1053, 1043]",[],[],[],[],[6673],[],"[2031, 3051]",[],[],[]
participant_4_UNDO,[],[],[],[],[],[],[],[],[],[],[],[],[],[],[],[],[],[],[],[],[],[],[],[],[],[],[],[],[],[],[],[],[],[]
participant_5_GOLD,500,500,562,733,997,1610,1834,2014,2290,2413,2838,3487,3700,3822,4173,4662,5070,5213,5725,6214,6937,7109,7740,8037,9647,9969,10470,10869,11974,12396,12798,12920,13641,13943
participant_5_CURRENTGOLD,500,0,62,233,497,1110,334,214,490,613,1038,1687,425,547,898,1387,1795,213,725,514,1237,209,40,337,1947,2269,150,549,1654,577,978,1100,1822,1943
participant_5_LEVEL,1,1,1,2,4,5,5,6,6,6,7,8,8,9,9,10,11,11,11,12,13,13,13,14,14,15,15,15,16,16,16,16,17,17
participant_5_MINIONSKILLED,0,0,2,5,13,18,21,24,33,33,47,54,59,59,69,72,79,80,94,103,116,116,124,130,134,140,149,153,161,161,173,173,179,181
participant_5_KILLS,0,0,0,0,0,0,0,0,0,0,0,0,0,0,0,0,0,0,0,0,0,1,1,1,1,1,1,1,1,1,1,1,1,1
participant_5_BUY,[],"[3850, 2003, 2003, 3340]",[],[],[],[],[],"[4642, 3364]",[],[3067],[],[],[],[6617],[],[],[],[],"[3158, 3114]",[],[],[],[6616],[1004],[],[],[],[],[],[3504],[],[],[1004],[]
participant_5_SOLD,[],[],[],[],"[2003, 2003]",[],[3850],[3340],[],[],[],[],[],"[3067, 4642, 3851]",[],[],[],[],[],[],[],[],[3114],[],[],[],[],[],[],[1004],[],[],[],[]
participant_5_UNDO,[],[],[],[],[],[],[],[],[],[],[],[],[],[],[],[],[],[],[],[],[],[],[],[],[],[],[],[],[],[],[],[],[],[]
participant_6_GOLD,500,500,620,1009,1376,1718,2108,2279,2572,2985,3205,3683,4230,4352,4560,5218,5546,5970,6297,6700,7183,7975,8423,8790,9327,9585,9987,10970,11430,11979,12316,12717,14024,14192
participant_6_CURRENTGOLD,500,50,120,509,876,1218,1608,204,497,910,230,708,1255,402,610,1268,1596,2020,447,850,1333,2125,2573,240,777,1035,1437,2421,2881,629,227,628,1934,2042
participant_6_LEVEL,1,1,2,3,4,4,5,5,5,6,6,7,8,8,9,9,10,10,11,11,12,12,13,13,14,14,14,15,16,16,16,17,17,18
participant_6_MINIONSKILLED,0,0,0,0,0,0,0,0,0,0,0,0,0,0,0,1,1,2,8,8,11,11,11,11,11,11,11,16,19,19,19,20,23,27
participant_6_KILLS,0,0,0,0,0,0,0,0,0,0,0,0,1,1,1,2,2,2,2,2,2,3,3,3,3,3,3,4,4,4,4,4,5,5
participant_6_BUY,[],"[1039, 2003, 2003]","[2031, 3340]",[],[],[],[],"[3047, 1028, 2055, 3364]",[],[],"[6660, 1029]",[],[],"[1057, 2055]",[],[],[],[],[3068],[],[],[],[],[3075],[],[],[],[],[],"[4401, 1031]",[3066],[],[],[]
participant_6_SOLD,[],[],[],[],[],[],[],[3340],[],[],"[1039, 1028]",[2055],[],[],[],"[3364, 2055]",[3513],[],"[6660, 1029]",[],[],[],[],[],[],[],[],[],[],[1057],[2031],[],[],[]
participant_6_UNDO,[],[],"[[0, 2003], [0, 2003]]",[],[],[],[],[],[],[],[],[],[],[],[],[],[],[],[],[],[],[],[],[],[],[],[],[],[],[],[],[],[],[]
participant_7_GOLD,500,500,590,954,1169,1480,1830,2071,2367,2751,3383,3964,4341,4884,5230,5737,6272,7312,7609,8278,8450,8943,9365,10128,10400,10712,11607,12206,12505,13026,13248,13371,13655,13816
participant_7_CURRENTGOLD,500,0,90,444,659,960,1300,91,377,751,1383,429,431,509,845,1352,687,1727,1124,1793,715,1208,195,58,330,643,1537,2137,520,1041,339,461,746,916
participant_7_LEVEL,1,1,1,3,4,5,6,6,7,8,9,9,10,10,11,11,11,12,12,12,12,13,13,13,14,14,14,15,15,16,16,16,16,16
participant_7_MINIONSKILLED,0,0,4,16,21,29,39,46,53,65,77,82,88,96,106,111,115,125,131,142,142,149,149,149,149,149,150,159,159,160,160,160,160,164
participant_7_KILLS,0,0,0,0,0,0,0,0,2,2,3,3,3,5,5,5,5,5,5,5,5,7,7,7,8,8,9,9,10,10,10,10,13,13
participant_7_BUY,[],"[1055, 3340, 2003]",[],[],[],[],[],"[1036, 1036, 1042]",[],"[6670, 1037]",[],[],[],[1018],[],[],[],[],"[6672, 3006, 3133]",[],[],[],[],"[3508, 1036, 1036]",[],"[3134, 1018]",[],[],[6676],[],[1038],[],[1037],[]
participant_7_SOLD,[],[],[],[],[2003],[],[],[],[],"[1036, 1042, 1036]",[],[],[],[],[],[],[],[],"[6670, 1018, 1037]",[],[],[],[],"[3133, 1055]",[],"[1036, 1036]",[],[],"[3134, 1018]",[],[],[],[],[]
participant_7_UNDO,[],[],[],[],[],[],[],[],[],[],[],[],[],[],[],[],[],[],[],[],[],[],[],[],[],[],[],[],[],[],[],[],[],[]
participant_8_GOLD,500,500,520,761,990,1189,1567,1689,2523,2789,3263,3581,3836,4614,5073,5302,5898,6182,6304,6486,6659,7919,8536,8733,9632,9977,10618,10951,11689,12137,12259,12381,13554,13652
participant_8_CURRENTGOLD,500,0,20,261,490,689,1067,189,1023,114,588,906,1161,1339,1798,2027,2623,2907,204,386,559,1819,2436,313,1212,557,1199,1531,970,1417,240,362,659,577
participant_8_LEVEL,1,1,1,2,3,3,4,4,5,6,6,7,7,7,8,8,9,9,9,10,10,11,12,12,13,13,14,14,14,15,15,15,15,15
participant_8_MINIONSKILLED,0,0,0,7,13,15,27,27,34,38,42,49,57,57,67,73,83,86,86,87,87,93,100,100,100,109,116,119,122,122,122,122,122,122
participant_8_KILLS,0,0,0,0,0,1,1,1,1,1,1,2,2,2,2,2,2,2,2,3,3,3,3,3,7,7,7,7,9,9,9,9,10,10
participant_8_BUY,[],"[1055, 2003, 3340]",[],[],[],[],"[1036, 1036, 1042]",[6670],[],[],[],[],"[1037, 1018]",[],[],[],[],"[6672, 3006]",[],[2015],[],[3086],[3094],[],[],[],"[6677, 1042, 3124]",[],[],"[1053, 1018]",[],[],[],[]
participant_8_SOLD,[],[],[2003],[],[],[],[],"[1036, 1042, 1036]",[],[],[],[],[],[],[],[],[],"[6670, 1018, 1037]",[],[],[],[],"[3086, 2015]",[],[],[],"[1055, 6677, 1042]",[],[],[],[],[],[],[]
participant_8_UNDO,[],[],[],[],[],[],[],[],[],[],[],[],[],[],[],[],[],[],[],[],[],[],[],[],[],[],[],[],[],[],[],[],[],[]
participant_9_GOLD,500,500,562,796,1052,1326,1542,1702,2251,2571,2883,3154,3314,3815,4145,4315,4711,5122,5262,5448,5639,6259,6699,6840,7080,7241,7542,7957,8345,8785,8925,9122,9439,9544
participant_9_CURRENTGOLD,500,0,62,296,552,826,1042,152,701,221,533,804,964,615,945,1116,1511,1922,362,548,739,1359,299,190,430,592,892,1308,1695,85,226,422,489,594
participant_9_LEVEL,1,1,1,2,3,4,4,4,5,5,6,6,7,7,7,8,8,9,9,9,9,10,11,11,12,12,12,12,13,13,14,14,15,15
participant_9_MINIONSKILLED,0,0,0,0,0,0,0,0,2,2,3,5,5,5,5,5,6,6,6,6,6,6,6,6,6,7,8,9,9,9,9,13,14,14
participant_9_KILLS,0,0,0,0,0,0,0,0,0,0,1,1,1,2,2,3,3,6,6,7,7,8,8,10,10,10,12,12,12,12,12,12,12,12
participant_9_BUY,[],"[3070, 2003, 2003, 3340]",[],[],[],[],[],"[3802, 2031]",[],[],[],"[3047, 1027, 2055]",[1052],[3108],[],[],[6653],[],[3191],[],[1058],[],"[3003, 1052]","[3108, 1052]",[],[],[],[],"[3157, 3916, 1026]",[],"[3165, 2055]",[],[],[]
participant_9_SOLD,[],[],[],[],[],[],"[2003, 2003]",[],[],[],[],[],"[2055, 2031]",[1052],[],[],"[3802, 3108]",[],[],[],[],[],"[3070, 1058, 1027, 3003]",[1052],[],[],[],[],"[3191, 3108, 1052]",[],"[1026, 3916]",[2055],[],[]
participant_9_UNDO,[],[],[],[],[],[],[],[],[],[],[],[],[],[],[],[],[],[],[],[],[],[],[],[],[],[],[],[],[],[],[],[],[],[]
team0_KILLS,0,0,0,0,0,1,1,3,3,4,4,4,6,8,8,8,8,9,9,11,12,13,15,18,22,22,23,23,24,25,25,28,30,30
team0_CURRENTGOLD,2500,0,384,1752,2840,3681,3986,1844,3103,4889,1400,2258,4499,5310,2570,3559,4548,3814,2299,4258,7134,1471,3451,3471,1742,2121,2730,2231,2209,4480,1734,4629,3593,1230
team0_TOTALGOLD,2500,2500,2884,4262,5350,6801,7841,9374,10643,12439,13615,14938,17179,19290,20484,22274,23263,24579,25684,28442,31319,32510,34491,37661,40447,41301,43410,44310,45957,48230,49472,52768,54933,55180
team0_LEVEL,5,5,6,13,17,21,23,26,27,31,32,35,37,41,42,43,44,47,49,49,52,54,55,59,61,62,64,64,65,68,69,73,75,75
team0_SBIRES,0,0,9,32,47,67,82,92,113,143,160,186,207,217,236,250,264,282,294,320,344,345,353,360,363,372,390,402,414,439,462,500,509,509
team1_KILLS,0,0,0,0,0,1,1,1,3,3,5,6,7,10,10,12,12,15,15,17,17,22,22,24,29,29,32,33,36,36,36,36,41,41
team1_CURRENTGOLD,2500,50,354,1743,3074,4803,5351,850,3088,2609,3772,4534,4236,3412,5096,7150,8212,8789,2862,4091,4583,6720,5543,1138,4696,5096,5215,7946,7720,3749,2010,2973,5650,6072
team1_TOTALGOLD,2500,2500,2854,4253,5584,7323,8881,9755,12003,13509,15572,17869,19421,21487,23181,25234,27497,29799,31197,33126,34868,38205,40763,42528,46086,47484,50224,52953,55943,58323,59546,60511,64313,65147
team1_LEVEL,5,5,6,12,18,21,24,25,28,31,34,37,40,41,44,46,49,51,52,54,56,59,62,63,67,68,69,71,74,76,77,78,80,81
team1_SBIRES,0,0,6,28,47,62,87,97,122,138,169,190,209,217,247,262,284,299,325,346,362,375,390,396,400,416,434,456,470,471,483,488,498,508
delta_KILLS,0,0,0,0,0,0,0,2,0,1,-1,-2,-1,-2,-2,-4,-4,-6,-6,-6,-5,-9,-7,-6,-7,-7,-9,-10,-12,-11,-11,-8,-11,-11
delta_CURRENTGOLD,0,-50,30,9,-234,-1122,-1365,994,15,2280,-2372,-2276,263,1898,-2526,-3591,-3664,-4975,-563,167,2551,-5249,-2092,2333,-2954,-2975,-2485,-5715,-5511,731,-276,1656,-2057,-4842
delta_TOTALGOLD,0,0,30,9,-234,-522,-1040,-381,-1360,-1070,-1957,-2931,-2242,-2197,-2697,-2960,-4234,-5220,-5513,-4684,-3549,-5695,-6272,-4867,-5639,-6183,-6814,-8643,-9986,-10093,-10074,-7743,-9380,-9967
delta_LEVEL,0,0,0,1,-1,0,-1,1,-1,0,-2,-2,-3,0,-2,-3,-5,-4,-3,-5,-4,-5,-7,-4,-6,-6,-5,-7,-9,-8,-8,-5,-5,-6
delta_SBIRES,0,0,3,4,0,5,-5,-5,-9,5,-9,-4,-2,0,-11,-12,-20,-17,-31,-26,-18,-30,-37,-36,-37,-44,-44,-54,-56,-32,-21,12,11,1
