name,frame_0,frame_1,frame_2,frame_3,frame_4,frame_5,frame_6,frame_7,frame_8,frame_9,frame_10,frame_11,frame_12,frame_13,frame_14,frame_15,frame_16,frame_17,frame_18,frame_19,frame_20,frame_21,frame_22,frame_23,frame_24,frame_25
nameStamp,Tstart,Tearly,Tearly,Tearly,Tearly,Tearly,Tearly,Tearly,Tearly,Tearly,Tearly,Tearly,Tearly,Tearly,Tearly,Tearly,Tmid,Tmid,Tmid,Tmid,Tmid,Tmid,Tmid,Tmid,Tmid,Tmid
timestamp,0,60006,120032,180065,240090,300092,360108,420141,480167,540195,600220,660248,720268,780290,840311,900340,960357,1020358,1080380,1140410,1200430,1260454,1320474,1380502,1440520,1500551
participant_0_GOLD,500,500,562,1076,1199,1468,2017,2244,2569,3218,3403,4107,4229,4666,5521,6253,6636,7016,7376,7568,7865,8362,8912,9163,9949,10122
participant_0_CURRENTGOLD,500,0,62,576,399,668,317,544,869,1518,268,972,119,556,1411,2143,2526,2906,3266,648,945,1442,1112,1363,2149,1073
participant_0_LEVEL,1,1,1,3,3,4,5,6,7,8,8,9,9,10,11,12,12,12,13,13,13,14,14,14,15,15
participant_0_MINIONSKILLED,0,0,2,7,7,13,21,27,39,49,52,61,61,70,78,89,93,104,114,118,124,130,132,134,145,145
participant_0_KILLS,0,0,0,0,0,0,0,0,0,1,1,1,1,1,1,1,1,1,2,2,3,4,4,5,5,6
participant_0_BUY,[],[],"[1039, 1041, 2031]",[],[],[],[],[],"[3706, 3133]",[],[],[],[],[],[],"[1400, 3134, 1001, 1036]",[],[1036],[3133],[],"[3147, 3111]",[],[],"[3134, 1028]",[],[]
participant_0_SOLD,[],[],[],[],[],[],[],[],[1041],[],[],[],[],[],[],"[3133, 3706]",[],[],"[1036, 1036]",[3400],"[3134, 3133, 1001]",[],[],[],[],[]
participant_0_UNDO,[],[],"[[0, 1039]]",[],[],[],[],[],[],[],[],[],[],[],[],[],[],[],[],[],[],[],[],[],[],[]
participant_1_GOLD,500,500,520,913,1318,1575,2058,2213,2335,3013,3305,3428,3715,3878,4155,4582,5025,5382,5924,6502,7034,7591,8096,8668,9215,9853
participant_1_CURRENTGOLD,500,500,20,413,818,1075,1558,1713,85,763,1055,1178,1465,1628,1905,57,500,507,649,1227,259,816,1321,393,940,1578
participant_1_LEVEL,1,1,1,2,4,4,5,5,5,6,7,7,7,7,8,8,9,9,9,10,10,11,12,12,13,14
participant_1_MINIONSKILLED,0,0,0,0,0,0,2,2,2,2,2,2,3,3,3,3,3,3,3,3,3,3,9,11,11,15
participant_1_KILLS,0,0,2,2,3,3,4,4,4,4,4,5,6,6,7,7,7,8,10,10,10,12,13,14,15,16
participant_1_BUY,[],"[1055, 2003]",[],[],[],[1038],[],[],[],[],[3031],[],[],[],"[3006, 1018, 1042]",[],[3085],"[1036, 1036]",[],[3035],[],[],[],[],"[3036, 1053]",[]
participant_1_SOLD,[],[],[],[2010],[2003],[],[],[],[],"[2010, 2010]",[1038],[],[],[],[2422],[],"[3400, 1042, 1018]",[],[],"[1036, 1036]",[],[],[],[],[3035],[]
participant_1_UNDO,[],[],[],[],[],[],[],[],[],[],[],[],[],[],[],[],[],[],[],[],[],[],[],[],[],[]
participant_2_GOLD,500,900,995,1262,1462,1717,1990,2168,2367,2862,3371,3624,3809,4039,4375,5052,5869,6130,7077,7199,7840,8196,8507,9361,10405,11120
participant_2_CURRENTGOLD,500,400,495,762,962,1217,1490,1668,167,662,1171,399,584,814,1150,1827,794,580,1527,449,1090,596,357,1211,2255,2970
participant_2_LEVEL,1,1,1,3,4,5,6,6,7,7,8,8,9,9,10,11,11,12,13,13,13,13,13,14,15,16
participant_2_MINIONSKILLED,0,0,0,6,10,15,20,23,28,33,43,47,51,57,65,70,79,83,91,91,101,102,103,107,111,118
participant_2_KILLS,0,0,0,1,1,1,2,2,2,3,3,4,4,4,6,6,6,6,6,6,6,6,6,6,6,6
participant_2_BUY,[],"[1056, 2003, 2003, 3340]",[],[],[1001],[],"[3020, 2003, 2003]",[],[],[],"[1043, 1052]",[],"[1037, 2003, 2003]",[],[],[],[],[],[],"[3124, 1043, 1057, 1042]",[],[],[3091],[],[],[1058]
participant_2_SOLD,[],[],[],"[2003, 2003]",[],[],[1001],[],[],[],[],[],[2003],[],"[2003, 2003, 2003]",[],[],[],[],"[1052, 1043, 1037]",[],[],"[1043, 1057, 1042]",[],[],[]
participant_2_UNDO,[],[],[],[],[],[],[],[],[],[],[],[],[],[],[],[],[],[],[],[],[],[],[],[],[],[]
participant_3_GOLD,500,550,1247,1598,2091,2262,2794,3014,3465,3813,4149,4778,5474,5807,6356,7294,7848,8270,8912,9262,9502,10582,11540,12492,13165,13790
participant_3_CURRENTGOLD,500,50,747,1098,1591,462,994,1214,1665,2013,249,878,1574,1907,556,1494,548,270,912,512,753,1832,2790,3742,2165,2790
participant_3_LEVEL,1,1,1,3,3,3,4,5,6,6,7,8,8,9,9,10,10,10,10,11,11,12,12,13,13,14
participant_3_MINIONSKILLED,0,0,4,15,19,22,29,35,45,55,63,72,84,96,103,118,126,126,126,131,134,143,155,165,165,169
participant_3_KILLS,0,1,1,1,1,1,1,1,1,2,2,2,2,2,2,3,4,4,5,5,6,6,6,7,9,10
participant_3_BUY,[],"[1056, 2003, 2003, 3340]",[],[],[],[],[],[],"[3802, 1001, 2003, 2003]",[],[],"[1026, 2055, 2003, 2003]",[],[],[],[],"[3285, 3020]","[1028, 2055]",[],[3916],[],[1026],[3165],[],[],[]
participant_3_SOLD,[],[2003],[],[2003],[],[],[],[],[],[2003],[2003],[],[2055],[],[],[],"[3802, 1026, 1001]",[],[2003],"[2003, 1028]",[],[3400],"[3916, 1026]",[],[],[]
participant_3_UNDO,[],[],[],[],[],[],[],[],[],[],[],[],[],[],[],[],[],[],[],[],[],[],[],[],[],[]
participant_4_GOLD,500,550,647,863,1012,1160,1453,1608,1856,2076,2311,2526,2864,3059,3525,3940,4239,4379,4629,5370,6176,6755,7235,7475,7937,8129
participant_4_CURRENTGOLD,500,50,147,363,162,310,603,758,1006,176,411,626,264,459,925,240,539,679,229,970,1776,2356,435,375,837,529
participant_4_LEVEL,1,1,1,2,2,4,4,5,5,6,6,6,6,7,8,8,8,8,9,9,10,10,11,11,12,12
participant_4_MINIONSKILLED,0,0,0,2,3,4,5,6,9,11,12,12,13,16,16,16,18,18,19,19,25,25,26,26,28,28
participant_4_KILLS,0,0,0,0,0,0,0,0,0,0,0,0,0,0,1,1,1,1,1,2,3,4,4,4,4,4
participant_4_BUY,[],"[3854, 2003, 2003, 3340]",[],[],[1036],[],[],[],[],"[3134, 1001]",[],[],[3117],[],[],[3133],[],[],[3142],[],[],[],[3179],[1029],[],[2140]
participant_4_SOLD,[],[],"[2003, 2003]",[],[],[],[],[],[],[1036],[],[],[1001],[3854],[],[3400],[],[],"[3133, 3134]",[3400],[],[3400],[],[],[],[]
participant_4_UNDO,[],[],[],[],[],[],[],[],[],[],[],[],[],[],[],[],[],[],[],[],[],[],[],[],[],[]
participant_5_GOLD,500,500,541,1033,1489,1758,2038,2279,2422,2566,2912,3077,4385,4563,4896,5074,5539,6097,6400,7164,7690,7813,8166,8608,8822,9278
participant_5_CURRENTGOLD,500,0,41,383,839,1108,288,529,122,216,562,277,1585,413,196,374,839,147,450,214,740,163,516,958,422,878
participant_5_LEVEL,1,1,1,2,4,5,6,6,7,7,8,8,9,10,10,10,11,11,12,13,13,13,14,14,14,14
participant_5_MINIONSKILLED,0,0,1,4,20,26,32,40,41,42,55,57,68,71,80,83,96,100,107,118,123,123,132,132,133,147
participant_5_KILLS,0,0,0,0,0,0,0,0,0,0,0,0,0,0,0,0,0,0,0,0,0,1,1,1,1,2
participant_5_BUY,[],"[3850, 2003, 3340, 2003]",[],[],[],"[1001, 1004, 1004, 3364, 2055, 2055]","[2055, 2055]",[],[],"[3117, 1006]",[],[3801],[1004],[],[],[3114],[3107],[],[1052],[],[3108],[1029],[],[3191],[],[3157]
participant_5_SOLD,[],[2003],[2003],[2010],[],"[3340, 2055]",[2055],[2055],"[2010, 2010]",[1001],[2055],"[2419, 3850, 1006]",[],[],[],"[1004, 1004, 2423]","[3114, 3801]",[],[],[3851],[1052],[],[],[1029],[],"[3191, 3108, 2424]"
participant_5_UNDO,[],[],[],[],[],"[[0, 1004]]",[],[],[],[],[],[],[],[],[],[],[],[],[],[],[],[],[],[],[],[]
participant_6_GOLD,500,500,620,941,1241,1545,1753,1960,2217,2595,2717,2945,3546,3754,3995,4518,4895,5172,5450,6343,6541,6663,6785,6908,7030,7154
participant_6_CURRENTGOLD,500,0,120,441,741,1045,103,310,567,945,167,395,996,179,80,603,980,207,485,903,151,273,395,518,640,764
participant_6_LEVEL,1,1,2,3,3,4,4,5,5,6,6,6,7,7,7,8,8,9,9,9,10,10,10,10,10,10
participant_6_MINIONSKILLED,0,0,0,0,0,0,0,0,0,0,0,0,0,0,0,0,0,0,0,1,1,1,1,1,1,1
participant_6_KILLS,0,0,0,0,1,1,1,1,2,2,2,2,2,2,3,3,4,6,7,7,7,8,9,9,10,11
participant_6_BUY,[],"[3340, 1055, 2003]",[],[],[],[],"[3006, 3364]",[],[],[1037],[],[],[],[],[1038],[],[],[],"[3031, 1038, 1042]",[],[2015],[],[3095],[1038],[3133],[]
participant_6_SOLD,[],[],[],[2003],[],[],[3340],[],[],[],[],[],[],[],[],[],[],[],"[1038, 1037]",[],[1042],[],"[1038, 2015]",[],[],[]
participant_6_UNDO,[],[],[],[],[],[],[],[],[],[],[],[],[],[],[],[],[],[],[],[],[],[],[],[],[],[]
participant_7_GOLD,500,500,590,829,1190,1354,1681,1997,2119,2270,2397,3145,3351,3574,3944,4108,4231,4566,4849,4972,5094,5266,5407,5604,5777,5905
participant_7_CURRENTGOLD,500,0,90,329,690,269,596,912,119,270,197,945,251,474,844,108,81,416,699,222,344,516,657,154,327,55
participant_7_LEVEL,1,1,1,3,4,5,5,6,6,7,7,8,8,9,9,9,9,10,11,11,11,11,11,11,11,12
participant_7_MINIONSKILLED,0,0,4,8,21,24,32,43,43,45,45,50,55,60,70,72,72,76,85,85,85,88,89,89,89,89
participant_7_KILLS,0,0,0,0,0,0,0,0,0,0,0,0,1,1,1,2,2,2,2,3,3,3,3,3,3,3
participant_7_BUY,[],"[1039, 3340, 2031]",[],[],[],[],"[3715, 1036, 2055, 2055]",[],[],[],"[3133, 2055, 2055]",[],[],"[3364, 1412, 1036, 2055, 2055]",[1028],[],[],"[3044, 1028, 2055, 2055]",[],"[3067, 2055]",[3071],[],[],[],[],[]
participant_7_SOLD,[],[],[],[],[],[],[1039],"[2055, 2055]",[],[],"[1036, 2055]",[2055],[],"[3340, 3133, 3715, 2055]",[2031],[2055],[],"[1028, 1036]",[2055],[1028],"[3044, 3067]",[],[],[],[],[]
participant_7_UNDO,[],[],[],[],[],[],[],[],[],[],[],[],[],[],[],[],[],[],[],[],[],[],[],[],[],[]
participant_8_GOLD,500,505,530,793,1370,1632,1846,2094,2551,2817,3016,3230,3401,3537,4128,4339,5028,6621,7044,7444,7567,8958,9465,9781,10918,11662
participant_8_CURRENTGOLD,500,5,30,293,870,1132,246,494,951,342,541,755,926,1062,353,564,1253,2846,444,844,567,1958,1265,281,318,1062
participant_8_LEVEL,1,1,1,2,3,4,4,5,6,6,7,7,7,8,8,8,9,10,10,11,11,12,13,13,13,14
participant_8_MINIONSKILLED,0,0,0,7,16,22,28,36,38,46,51,56,59,60,69,70,82,86,86,94,94,106,108,111,119,129
participant_8_KILLS,0,0,0,1,1,1,1,1,1,1,1,1,2,2,2,2,2,2,2,3,4,4,4,5,5,5
participant_8_BUY,[],"[1055, 2003, 3340]",[],"[2003, 2003, 2003]",[],[],[3111],[],"[1036, 2003, 2003, 2003, 2003]",[2003],[],"[1036, 2003, 2003]",[],"[3044, 1028, 3364, 2003]","[3067, 2003, 2003, 2003]",[],[],"[3071, 1029]",[],"[1053, 1033]",[],"[3105, 1036]",[],[],[3133],[]
participant_8_SOLD,[],[],[],[2003],"[2003, 2003, 2003]",[],[],[],[],[],"[2003, 2003]",[],[2003],"[1036, 3340]","[2003, 2003, 2003, 1028]",[],[2003],"[3044, 3067]","[2003, 2003, 2003]","[2003, 1036]",[],"[1033, 1029]",[],[],[1036],[]
participant_8_UNDO,[],[],[],[],[],[],[],[],[],[],[],[],[],[],[],[],[],[],[],[],[],[],[],[],[],[]
participant_9_GOLD,500,530,552,783,1158,1292,1441,1621,2030,2210,2420,2618,2955,3182,3546,3821,3961,4393,4578,4793,5030,5770,6091,6231,6421,7021
participant_9_CURRENTGOLD,500,30,52,283,658,217,216,396,805,135,345,43,255,482,846,571,61,493,243,459,230,670,991,331,521,471
participant_9_LEVEL,1,1,1,2,3,3,3,4,5,5,5,6,6,6,7,7,8,8,8,9,9,10,11,11,11,12
participant_9_MINIONSKILLED,0,0,0,1,1,1,2,4,6,6,8,8,9,12,14,14,14,15,15,15,16,16,22,22,22,23
participant_9_KILLS,0,0,0,0,0,0,0,0,0,0,0,1,1,1,1,1,1,1,1,1,1,1,1,1,1,1
participant_9_BUY,[],"[1056, 2003, 2003, 3340]",[],[],[],"[2003, 2003, 1052, 2003]",[],[],"[3108, 1029, 2003, 2003, 2003]",[],"[2003, 2003, 2003, 2003]",[],"[3191, 2003, 2003]",[],[],[3157],"[2003, 2003, 2003]",[],[],"[1028, 2003, 2003, 2003, 2003]",[],[],[],[3010],[],[1028]
participant_9_SOLD,[],[],[],[2003],[2003],[],"[2003, 2003, 2003]",[],[1052],"[2003, 2003, 2003]",[],"[2003, 2003, 2003, 2003]",[1029],[],"[2003, 2003]","[3191, 3108]",[],[],"[2003, 2003, 2003]",[],[],[],[],"[2003, 1028, 2003, 2003, 2003]",[],[]
participant_9_UNDO,[],[],[],[],[],[],[],[],[],[],[],[],[],[],[],[],[],[],[],[],[],[],[],[],[],[]
team0_KILLS,0,1,3,4,5,5,7,7,7,10,10,12,13,13,17,18,19,20,24,25,28,32,33,36,39,42
team0_CURRENTGOLD,2500,1000,1471,3212,3932,3732,4962,5897,3792,5132,3154,4053,4006,5364,5947,5761,4907,4942,6583,3806,4823,7042,6015,7084,8346,8940
team0_TOTALGOLD,2500,3000,3971,5712,7082,8182,10312,11247,12592,14982,16539,18463,20091,21449,23932,27121,29617,31177,33918,35901,38417,41486,44290,47159,50671,53014
team0_LEVEL,5,5,5,13,16,20,24,27,30,33,36,38,39,42,46,49,50,51,54,56,57,60,62,64,68,71
team0_SBIRES,0,0,6,30,39,54,77,93,123,150,172,194,212,242,265,296,319,334,353,362,387,403,425,443,460,475
team1_KILLS,0,0,0,1,2,2,2,2,3,3,3,4,6,6,7,8,9,11,12,14,15,17,18,19,20,22
team1_CURRENTGOLD,2500,35,333,1729,3798,3771,1449,2641,2564,1908,1812,2415,4013,2610,2319,2220,3214,4109,2321,2642,2032,3580,3824,2242,2228,3230
team1_TOTALGOLD,2500,2535,2833,4379,6448,7581,8759,9951,11339,12458,13462,15015,17638,18610,20509,21860,23654,26849,28321,30716,31922,34470,35914,37132,38968,41020
team1_LEVEL,5,5,6,12,17,21,22,26,29,31,33,35,37,40,41,42,45,48,50,53,54,56,59,59,59,62
team1_SBIRES,0,0,5,20,58,73,94,123,128,139,159,171,191,203,233,239,264,277,293,313,319,334,352,355,364,389
delta_KILLS,0,1,3,3,3,3,5,5,4,7,7,8,7,7,10,10,10,9,12,11,13,15,15,17,19,20
delta_CURRENTGOLD,0,965,1138,1483,134,-39,3513,3256,1228,3224,1342,1638,-7,2754,3628,3541,1693,833,4262,1164,2791,3462,2191,4842,6118,5710
delta_TOTALGOLD,0,465,1138,1333,634,601,1553,1296,1253,2524,3077,3448,2453,2839,3423,5261,5963,4328,5597,5185,6495,7016,8376,10027,11703,11994
delta_LEVEL,0,0,-1,1,-1,-1,2,1,1,2,3,3,2,2,5,7,5,3,4,3,3,4,3,5,9,9
delta_SBIRES,0,0,1,10,-19,-19,-17,-30,-5,11,13,23,21,39,32,57,55,57,60,49,68,69,73,88,96,86
