name,team0,team1
win,Fail,Win
firstBlood,False,True
firstTower,True,False
firstInhibitor,True,False
firstBaron,False,False
firstDragon,True,False
firstRiftHerald,True,False
towerKills,5,7
inhibitorKills,1,1
baronKills,0,0
dragonKills,4,0
riftHeraldKills,2,0
