name,frame_0,frame_1,frame_2,frame_3,frame_4,frame_5,frame_6,frame_7,frame_8,frame_9,frame_10,frame_11,frame_12,frame_13,frame_14,frame_15,frame_16,frame_17,frame_18,frame_19,frame_20,frame_21,frame_22,frame_23,frame_24,frame_25,frame_26,frame_27,frame_28,frame_29,frame_30,frame_31,frame_32,frame_33,frame_34,frame_35,frame_36,frame_37,frame_38,frame_39,frame_40
nameStamp,Tstart,Tearly,Tearly,Tearly,Tearly,Tearly,Tearly,Tearly,Tearly,Tearly,Tearly,Tearly,Tearly,Tearly,Tearly,Tearly,Tearly,Tmid,Tmid,Tmid,Tmid,Tmid,Tmid,Tmid,Tmid,Tmid,Tmid,Tend,Tend,Tend,Tend,Tend,Tend,Tend,Tend,Tend,Tend,Tend,Tend,Tend,Tend
timestamp,0,60019,120044,180063,240076,300092,360102,420129,480146,540169,600179,660196,720208,780225,840237,900253,960265,1020284,1080296,1140320,1200336,1260356,1320371,1380403,1440424,1500444,1560458,1620484,1680509,1740525,1800536,1860551,1920558,1980585,2040599,2100623,2160647,2220670,2280687,2340711,2400711
participant_0_GOLD,500,500,563,755,1057,1256,1498,1641,1847,2075,2321,2610,2821,2985,3276,3594,3801,4123,4294,4725,4979,5102,5897,6061,6261,6558,7102,7224,7396,7669,7893,8308,8562,8685,9001,9461,9921,10199,10371,11126,11191
participant_0_CURRENTGOLD,500,0,63,255,557,281,523,666,872,50,296,285,496,160,451,769,226,548,719,400,654,77,872,236,436,733,1277,499,671,1004,228,643,97,220,536,177,636,14,186,942,766
participant_0_LEVEL,1,1,1,2,3,4,5,6,6,7,7,8,8,8,9,10,10,10,11,11,11,11,12,12,12,13,13,13,14,14,14,14,15,15,15,16,16,16,16,17,17
participant_0_MINIONSKILLED,0,0,2,6,14,19,26,27,32,39,42,48,49,51,61,69,74,74,77,77,80,80,89,92,96,96,97,97,97,97,101,104,107,107,108,109,109,109,109,110,111
participant_0_KILLS,0,0,0,0,0,0,1,1,1,1,1,1,1,1,1,1,1,2,2,2,2,4,4,4,4,4,6,6,6,6,6,7,7,7,8,8,8,8,8,8,8
participant_0_BUY,[],"[1056, 2003, 2003, 3340]",[],[],[1027],[],[],"[3802, 2055]",[],[],[],[1001],[],[],[],[1026],[],[],[6655],[],[],[],[],"[3020, 1058]",[],[],[],[4628],[],[1052],[3108],[],[],[1052],"[3102, 3364]",[],[],[2420],[],[],[]
participant_0_SOLD,[],[],[],[],[2003],[],[2003],[1027],[],[2055],[],[],[],[],[],[],[],[],"[3802, 1026]",[],[],[],[],[1001],[],[],[],[1058],[],[],[1052],[],[],[],"[3108, 1052, 3340]",[],[],[],[],[],[]
participant_0_UNDO,[],[],[],[],[],[],[],[],[],[],[],[],[],[],[],[],[],[],[],[],[],[],[],[],[],[],[],[],[],[],[],[],[],[],[],[],[],[],[],[],[]
participant_1_GOLD,500,500,606,1048,1248,1475,1768,2025,2155,2540,2976,3304,3876,4083,4515,5237,5660,6557,6864,7720,8142,8415,8782,9504,9741,10463,10885,11008,11504,11927,12236,12765,12929,13052,13274,14256,14942,15526,16118,16820,17213
participant_1_CURRENTGOLD,500,0,106,548,748,975,1268,125,255,640,1076,1404,1976,383,815,1537,960,1157,1064,1920,442,715,1082,504,741,1463,86,208,705,1127,1036,1565,1730,812,1035,2017,2702,3287,1029,1731,2063
participant_1_LEVEL,1,1,2,3,3,4,5,5,5,6,6,7,7,7,8,9,9,9,10,10,11,11,12,12,12,13,13,13,14,14,14,15,15,15,15,17,17,17,18,18,18
participant_1_MINIONSKILLED,0,0,0,0,0,0,0,0,0,0,1,1,1,1,1,1,1,1,1,3,3,3,3,3,4,4,4,4,4,4,8,11,14,14,14,27,30,36,47,52,55
participant_1_KILLS,0,0,0,0,0,0,0,0,0,0,1,1,2,2,2,3,4,5,5,6,7,7,7,9,9,11,11,11,12,13,13,13,13,13,13,13,13,13,13,13,14
participant_1_BUY,[],"[1039, 2003, 2031, 3340, 1039]",[],[],[],[],[],"[3134, 1036, 1001]",[],[],[],[],[],"[3133, 3117]",[],[],[6691],"[1036, 1036]",[3134],[],[3142],[],[],[3155],[],[],"[3133, 3156]",[],[],[],[1028],[],[],[3134],[],[],[],[],"[3814, 3035]",[],[]
participant_1_SOLD,[],[],[],[],[],[],[],[],[],[1039],[],[],[],[1001],[],[],"[3134, 3133]",[],"[1036, 1036]",[],[3134],[],[],[],[],[],"[3155, 3133]",[],[],[],[],[],[],[2031],[],[],[],[],"[3134, 1028]",[],[]
participant_1_UNDO,[],"[[0, 2003], [0, 1039]]",[],[],[],[],[],"[[0, 1036]]",[],[],[],[],[],[],[],[],[],[],[],[],[],[],[],[],[],[],[],[],[],[],[],[],[],[],[],[],[],[],[],[],[]
participant_2_GOLD,500,500,563,804,969,1147,1745,1930,2108,2301,2561,2684,2806,3179,3393,3578,3799,4279,4401,4668,4800,5990,6217,6489,6647,6819,8247,8453,8767,9043,9308,9755,9995,10117,10839,11342,11768,12041,12183,12643,12722
participant_2_CURRENTGOLD,500,0,63,304,119,297,895,55,233,426,686,509,631,1004,1218,553,774,1254,126,393,525,1715,1942,164,322,494,1922,378,692,533,334,780,1020,707,265,767,1194,816,959,1419,1497
participant_2_LEVEL,1,1,1,3,3,4,6,6,6,7,7,8,8,8,8,9,9,10,10,11,11,11,12,12,12,12,13,13,14,14,14,14,15,15,15,16,16,16,16,17,17
participant_2_MINIONSKILLED,0,0,2,9,11,14,24,28,31,35,38,38,38,44,49,53,59,59,59,65,66,72,78,78,80,80,80,86,91,96,102,102,105,105,105,111,114,114,116,116,118
participant_2_KILLS,0,0,0,0,0,0,0,0,0,0,0,0,0,0,0,0,0,0,0,1,1,1,2,2,2,2,2,2,2,2,2,2,2,2,2,2,2,2,2,3,3
participant_2_BUY,[],"[1054, 2003, 3340]",[],[],[],"[1028, 2055]",[],[],[],"[6660, 1001, 2031]",[],[1029],[],[3047],[],[],"[1029, 1033]",[],[],[3105],[],[3068],[],[3076],[],[],[],[1011],[],[],[3075],[],[3067],[],[],[3082],[],[3143],[],[],[]
participant_2_SOLD,[],[],[],[],[2003],[],[2055],[],[],[1028],[],[],[],"[1001, 1029]",[],[],[],[],[],"[1033, 1029]",[],"[6660, 3105]",[],[],[],[],[],[],[],[2031],"[3076, 1011]",[],[],[],[],[1054],[],"[3082, 3067]",[],[],[]
participant_2_UNDO,[],[],[],[],[],[],[],[],[],[],[],[],[],[],[],[],[],[],[],[],[],[],[],[],[],[],[],[],[],[],[],[],[],[],[],[],[],[],[],[],[]
participant_3_GOLD,500,500,598,846,1102,1280,1564,1819,2108,2352,2624,3098,3347,3469,4147,4386,4519,4991,5429,5652,6097,6220,6747,7172,7316,7983,8594,8716,8930,9151,10025,10464,11230,11437,12463,12932,14299,15024,15745,16705,17428
participant_3_CURRENTGOLD,500,0,98,346,602,130,414,669,958,227,499,973,272,19,697,11,144,41,479,62,507,630,1157,982,526,1193,1804,226,440,61,935,1374,2141,872,1899,442,1809,35,756,1715,2378
participant_3_LEVEL,1,1,1,2,3,3,4,5,5,6,6,7,7,7,8,8,8,9,9,9,10,10,10,11,11,12,12,13,13,13,14,14,15,15,16,16,17,17,17,18,18
participant_3_MINIONSKILLED,0,0,4,11,18,21,31,39,46,50,60,68,72,72,78,80,81,81,92,94,103,103,109,114,115,118,122,122,124,130,139,143,146,151,159,160,176,187,196,206,210
participant_3_KILLS,0,0,0,0,0,0,0,0,0,0,0,0,0,0,1,1,1,2,2,2,2,2,3,3,3,4,4,4,4,4,5,5,6,6,8,8,10,10,11,12,13
participant_3_BUY,[],"[3340, 2031, 1036]",[],[],[],"[1036, 1042]",[],[],[],"[6670, 1018, 2055]",[],[],"[1037, 2055]","[2055, 1001]",[],"[6672, 1042]",[],"[3006, 2055, 3363]",[],[2015],[],[],[],[1018],[3086],[],[],"[3094, 1053]",[],[1018],[],[],[],"[3086, 1037]",[],"[3085, 1018]",[],"[3072, 1018]",[],[],[]
participant_3_SOLD,[],[],[],[],[],[],[],[],[],"[1036, 1042, 1036]",[2055],[],[],[2055],[2055],"[6670, 1018, 1037]",[],"[1001, 1042, 3340]",[2055],[2031],[],[],[],[],[1018],[],[],"[3086, 2015]",[],[],[],[],[],[1018],[],"[1037, 3086]",[],"[1018, 1053]",[],[],[]
participant_3_UNDO,[],[],[],[],[],[],[],[],[],[],[],[],[],[],[],[],[],[],[],[],[],[],[],[],[],[],[],[],[],[],[],[],[],[],[],[],[],[],[],[],[]
participant_4_GOLD,500,500,563,831,1046,1180,1355,1509,1683,1909,2053,2589,2864,3085,3465,3720,3861,4116,4290,4521,4811,5136,5427,5567,5722,6037,6607,6748,7348,7488,7667,7926,8142,8282,8952,9393,9871,10161,10365,11021,11109
participant_4_CURRENTGOLD,500,0,63,331,546,170,345,499,673,209,353,889,1164,585,965,1220,361,616,790,121,411,737,1027,367,522,837,1407,48,648,789,168,427,642,782,1453,143,621,361,566,1221,1309
participant_4_LEVEL,1,1,1,2,3,3,3,4,4,5,5,6,6,6,7,7,7,7,8,8,8,9,10,10,10,11,12,12,12,12,12,12,13,13,14,14,15,15,15,16,16
participant_4_MINIONSKILLED,0,0,0,1,1,1,1,1,1,6,7,7,7,7,8,8,8,8,9,9,9,11,11,11,12,12,13,13,13,13,13,13,13,13,13,13,13,13,14,15,16
participant_4_KILLS,0,0,0,0,0,0,0,0,0,0,0,1,1,1,1,1,1,1,1,1,1,1,1,1,1,1,1,1,2,2,2,2,2,2,3,3,3,3,3,3,3
participant_4_BUY,[],"[3850, 3340, 2003, 2003]",[],[],[],"[1052, 2055]",[],[],[],"[4642, 3364, 2055]",[],[],[],[3067],[],[],"[6617, 2055, 2055]",[],[],[3158],[],[],[],[3114],[],[],[],[6616],[],[],[3114],[],[],[],[],"[3504, 1004]",[],[3114],[],[],[]
participant_4_SOLD,[],[],[],[],[2003],[2055],[],[2003],[],"[1052, 3340]",[],[3850],[],[],[],[2055],"[3067, 4642]",[],[],[3851],[],[],[2055],[],[2055],[],[],[3114],[],[],[],[],[],[],[],[3114],[],[1004],[],[],[]
participant_4_UNDO,[],[],[],[],[],[],[],[],[],[],[],[],[],[],[],[],[],[],[],[],[],[],[],[],[],[],[],[],[],[],[],[],[],[],[],[],[],[],[],[],[]
participant_5_GOLD,500,500,563,878,1057,1500,1735,2168,2383,2597,2931,3368,3595,3843,4127,4305,4818,5240,5488,5661,5847,6765,6887,7567,7690,7812,7935,8649,8877,9324,9447,9569,10142,10264,10686,10809,10931,11130,11303,11425,11476
participant_5_CURRENTGOLD,500,0,63,378,207,650,885,1318,1533,1747,2081,568,795,243,527,705,1218,640,888,161,347,1265,387,1067,315,437,560,1274,1502,124,247,370,642,764,1067,1189,212,411,583,106,-24
participant_5_LEVEL,1,1,1,3,4,4,5,6,7,7,8,8,8,9,9,10,10,11,11,11,12,12,12,13,13,13,13,14,14,14,14,15,15,15,15,15,15,16,16,16,16
participant_5_MINIONSKILLED,0,0,2,11,14,15,21,36,41,46,55,56,57,64,73,76,89,89,89,89,90,97,97,102,102,102,102,107,107,113,113,113,113,113,113,113,113,118,118,118,118
participant_5_KILLS,0,0,0,0,0,1,1,1,1,1,1,1,1,1,1,1,2,3,3,5,5,5,7,7,8,8,9,9,9,10,10,10,10,10,10,10,10,10,10,10,10
participant_5_BUY,[],"[3854, 3340, 2003, 2003]",[],[],[],[3117],[],[],[],"[1036, 2055, 2003]",[],[1036],[3134],[],[],[],"[6691, 1036, 3364]",[3134],[],[],[3179],[],[],[3134],[],[],[],"[3142, 1036, 3134]",[],[1036],[],[],[],[],[3814],[],[],[],[3134],[],[]
participant_5_SOLD,[],[],[],[],[],[],[],[2003],[],[2055],[3854],[],"[1036, 1036]",[2003],[2003],[],"[3400, 3134, 3340]","[3400, 1036]",[],[3855],"[3400, 3134]",[],[],[3400],[3400],[],[],"[3400, 3134, 3857, 1036]",[],[],[],[],[],[],"[1036, 3134]",[],[],[],[],[],[]
participant_5_UNDO,[],[],[],[],[],[],[],[],[],[],[],[],[],[],[],[],[],[],[],[],[],[],[],[],[],[],[],[],[],[],[],[],[],[],[],[],[],[],[],[],[]
participant_6_GOLD,500,500,621,948,1156,1378,1578,1835,1957,2285,2592,2905,3320,3571,3749,4350,4999,5441,5748,6130,6777,7346,7658,8083,8617,8767,8889,9247,9913,10346,10639,10792,11023,11302,11644,11787,12041,12317,12579,12913,12963
participant_6_CURRENTGOLD,500,0,121,448,656,878,1078,1335,357,685,992,1305,1720,1971,2149,2750,3399,341,648,1030,1677,446,158,583,1117,367,190,547,1213,1646,440,592,374,653,194,338,592,128,390,723,713
participant_6_LEVEL,1,1,2,3,3,3,4,4,4,5,6,6,7,7,7,8,9,9,9,10,10,11,11,12,12,12,12,13,13,14,14,14,14,14,15,15,15,15,15,15,15
participant_6_MINIONSKILLED,0,0,0,0,0,0,0,0,0,0,0,0,0,1,1,3,6,6,6,6,9,14,14,17,22,24,24,24,26,26,26,27,28,31,34,35,38,42,43,43,43
participant_6_KILLS,0,0,0,0,1,1,1,1,1,1,1,1,1,1,1,1,1,1,1,1,2,2,2,2,2,2,2,2,2,2,2,2,2,2,2,2,2,2,2,2,2
participant_6_BUY,[],"[1055, 2003, 3340]",[],[],[],"[6670, 2055]",[],[],[],[],[],"[3009, 1018, 2031]",[],[],[1053],[],[],[],[6673],"[1018, 3057]",[],[],[3508],[],[],[],[1018],[],[],[1037],[],[],[],[],[],[],[],[],[3031],[],[1042]
participant_6_SOLD,[],[],[],[2003],[],[],[],[],[2055],[],[],[],[],[],[],[],[],[],"[6670, 1018, 1053]",[],[],[],"[3057, 1018]",[],[],[],[],[],[],[2031],[],[],[],[],[],[],[],[],"[1037, 1018]",[],[]
participant_6_UNDO,[],[],[],[],[],[],[],[],[],[],[],[],[],[],[],[],[],[],[],[],[],[],[],[],[],[],[],[],[],[],[],[],[],[],[],[],[],[],[],[],[]
participant_7_GOLD,500,500,563,892,1506,1670,1821,2041,2539,2851,3141,3486,4292,4686,5002,6115,6338,6910,7513,8428,8900,9114,9669,9791,10346,10469,11191,11623,12058,12180,12728,12851,13558,14079,14202,14395,14545,15142,15920,16043,16093
participant_7_CURRENTGOLD,500,0,63,382,996,1160,11,231,719,1031,1321,506,1312,656,962,140,363,85,688,588,1060,625,1179,401,957,129,852,1284,468,591,49,171,879,1400,223,416,266,863,1141,1264,1193
participant_7_LEVEL,1,1,1,3,4,4,5,5,6,7,7,8,9,9,10,10,10,10,11,11,11,12,12,12,13,13,13,14,14,14,15,15,15,16,16,16,16,17,17,17,17
participant_7_MINIONSKILLED,0,0,2,11,16,18,20,26,35,46,56,65,70,76,84,89,89,89,95,98,98,100,104,104,112,112,112,118,118,118,121,121,126,129,129,133,135,142,152,152,152
participant_7_KILLS,0,0,0,0,0,1,1,1,1,1,1,2,2,2,2,2,2,3,3,3,3,4,4,5,5,5,5,6,6,6,6,6,7,7,8,8,8,8,8,8,8
participant_7_BUY,[],"[1055, 2003, 3340]",[],[],[1036],[],[],[],[],[],[],"[3134, 1053, 1001]",[],[3006],[],[],[],[3181],[],"[1018, 1042]",[],[],[6670],[],[1037],[],[],[],[],"[6672, 3086]",[],[],[1042],[],[1042],[],[3046],[],[],[1018],[]
participant_7_SOLD,[],[],[],[],[2003],[],[],[],[],[],[],[1036],[],[1001],[],[],[],"[3134, 1053]",[],[],[],[],[1042],[],[],[],[],[],[],"[6670, 1018, 1037]",[],[],[],[],[1055],[],"[1042, 3086, 1042]",[],[],[],[]
participant_7_UNDO,[],[],[],[],[],[],[],[],[],[],[],[],[],[],[],[],[],[],[],[],[],[],[],[],[],[],[],[],[],[],[],[],[],[],[],[],[],[],[],[],[]
participant_8_GOLD,500,500,584,846,1475,1921,2222,2526,2791,3075,3465,3651,4119,4426,4794,4979,5582,6331,6637,6871,7742,7915,8037,8342,8597,8740,8862,9060,9380,9502,9674,9902,10024,10181,10304,10551,10819,11039,11402,11539,11590
participant_8_CURRENTGOLD,500,0,84,346,975,46,347,651,916,1200,1590,126,594,901,369,554,1157,1906,1612,546,1417,1590,112,417,672,815,338,535,855,162,335,562,684,842,964,1212,1480,1699,138,275,-35
participant_8_LEVEL,1,1,1,2,3,4,4,5,5,6,6,7,7,8,8,8,8,10,10,10,10,10,10,11,11,11,11,12,12,12,12,12,12,13,13,13,13,13,14,14,14
participant_8_MINIONSKILLED,0,0,3,11,20,26,34,45,49,58,70,74,90,96,102,106,112,115,116,118,122,122,122,126,129,130,130,130,135,135,138,145,145,147,147,150,154,155,159,160,160
participant_8_KILLS,0,0,0,0,0,0,0,0,0,0,0,0,0,0,0,0,0,1,1,1,1,1,1,1,1,1,1,1,2,2,2,2,2,2,2,2,2,2,2,2,2
participant_8_BUY,[],"[1039, 2031, 3340]",[],[],[],[],[],[],[3047],[],[],[],[],[],[],[],[],"[3068, 1029]",[],[],[],"[3082, 3067, 1029]",[3143],[],[],[1011],[1029],[],[],[],[3075],[],[1033],[],[3211],[],[],[3067],[],[],[]
participant_8_SOLD,[],[],[],[],[],[],[],[],[],[],[],[],[3340],[],[],[],"[3513, 1039]",[],[],[],[3400],[1029],"[3082, 1029, 3067]",[],[3400],[],[],[],[],[],"[1029, 1011]",[],[],[],[1033],[],[],[2031],[],[],[]
participant_8_UNDO,[],[],[],[],[],[],[],[],[],[],[],[],[],[],[],[],[],[],[],[],[],[],[],[],[],[],[],[],[],[],[],[],[],[],[],[],[],[],[],[],[]
participant_9_GOLD,500,500,544,706,1051,1569,1805,1953,2156,2291,2536,2827,3011,3276,3619,3971,5404,6144,6299,7180,7850,8051,8791,9531,10282,10452,11057,11616,11887,12309,12447,12642,13469,13591,13714,14091,14255,14378,14669,14833,14884
participant_9_CURRENTGOLD,500,0,44,206,551,69,305,453,656,316,561,502,286,551,894,1246,229,219,375,1255,225,426,1166,806,1557,1727,2333,51,322,394,533,727,1554,1677,349,727,891,1013,205,369,259
participant_9_LEVEL,1,1,1,2,3,4,4,5,5,6,6,6,6,7,7,8,8,9,9,10,10,10,11,11,11,11,12,12,13,13,13,13,14,14,14,15,15,15,15,15,15
participant_9_MINIONSKILLED,0,0,1,3,4,6,9,10,11,11,14,14,16,18,21,27,29,29,30,31,32,33,33,33,34,35,36,36,38,38,39,42,48,48,48,52,55,55,61,64,64
participant_9_KILLS,0,0,0,0,1,1,1,1,1,1,1,1,3,3,3,6,6,7,8,10,11,11,12,12,13,13,15,15,16,16,17,17,18,19,19,19,19,20,20,20,20
participant_9_BUY,[],"[1056, 2003, 2003, 3340]",[],[],[],[],"[1052, 1028, 4635]",[],[],[],[],"[1026, 1001]",[],[4633],[],"[3020, 3057, 1052]",[],[1026],[],[3100],[1052],[2420],[],"[2421, 3191, 3191]",[],[3157],[],[],[1058],[],[1058],[],[],[],[3089],[],[1029],[],[1031],[],[]
participant_9_SOLD,[],[],[],[2003],[],[2003],[],[],[],[],[],[],[],"[4635, 1026]",[],[1001],[],[],[],"[3057, 1052, 1026]",[],[],[2420],[],[],"[3191, 2421]",[],[],[],[],[1056],[],[],[],"[1058, 1058]",[],[],[],[1029],[],[]
participant_9_UNDO,[],[],[],[],[],[],"[[0, 1028], [0, 1052]]",[],[],[],[],[],[],[],[],[],[],[],[],[],"[[0, 1052]]",[],[],"[[0, 2421], [0, 3191]]",[],[],[],[],[],[],[],[],[],[],[],[],[],[],[],[],[]
team0_KILLS,0,0,0,0,0,0,1,1,1,1,2,3,4,4,5,6,7,10,10,12,13,15,17,19,19,22,24,24,26,27,28,29,30,30,34,34,36,36,37,39,41
team0_CURRENTGOLD,2500,0,393,1784,2572,1853,3445,2014,2991,1552,2910,4060,4539,2151,4146,4090,2465,3616,3178,2896,2539,3874,6080,2253,2547,4720,6496,1359,3156,3514,2701,4789,5630,3393,5188,3546,6962,4513,3496,7028,8013
team0_TOTALGOLD,2500,2500,2893,4284,5422,6338,7930,8924,9901,11177,12535,14285,15714,16801,18796,20515,21640,24066,25278,27286,28829,30863,33070,34793,35687,37860,41435,42149,43945,45278,47129,49218,50858,51573,54529,57384,60801,62951,64782,68315,69663
team0_LEVEL,5,5,6,12,15,18,23,26,26,31,31,36,36,36,40,43,43,45,48,49,51,52,56,57,57,61,63,64,67,67,68,69,73,73,75,79,81,81,82,86,86
team0_SBIRES,0,0,8,27,44,55,82,95,110,130,148,162,167,175,197,211,223,223,238,248,261,269,290,298,307,310,316,322,329,340,363,373,385,390,399,420,442,459,482,499,510
team1_KILLS,0,0,0,0,2,4,4,4,4,4,4,5,7,7,7,10,11,15,16,20,22,23,26,27,29,29,32,33,35,36,37,37,39,40,41,41,41,42,42,42,42
team1_CURRENTGOLD,2500,0,375,1760,3385,2803,2626,3988,4181,4979,6545,3007,4707,4322,4901,5395,6366,3191,4211,3580,4726,4352,3002,3274,4618,3475,4273,3691,4360,2917,1604,2422,4133,5336,2797,3882,3441,4114,2457,2737,2106
team1_TOTALGOLD,2500,2500,2875,4270,6245,8038,9161,10523,11826,13099,14665,16237,18337,19802,21291,23720,27141,30066,31685,34270,37116,39191,41042,43314,45532,46240,47934,50195,52115,53661,54935,55756,58216,59417,60550,61633,62591,64006,65873,66753,67006
team1_LEVEL,5,5,6,13,17,19,22,25,27,31,33,35,37,40,41,44,45,49,50,52,53,55,56,59,60,60,61,65,66,67,68,69,70,72,73,74,74,76,77,77,77
team1_SBIRES,0,0,8,36,54,65,84,117,136,161,195,209,233,255,281,301,325,328,336,342,351,366,370,382,399,403,404,415,424,430,437,448,460,468,471,483,495,512,533,537,537
delta_KILLS,0,0,0,0,-2,-4,-3,-3,-3,-3,-2,-2,-3,-3,-2,-4,-4,-5,-6,-8,-9,-8,-9,-8,-10,-7,-8,-9,-9,-9,-9,-8,-9,-10,-7,-7,-5,-6,-5,-3,-1
delta_CURRENTGOLD,0,0,18,24,-813,-950,819,-1974,-1190,-3427,-3635,1053,-168,-2171,-755,-1305,-3901,425,-1033,-684,-2187,-478,3078,-1021,-2071,1245,2223,-2332,-1204,597,1097,2367,1497,-1943,2391,-336,3521,399,1039,4291,5907
delta_TOTALGOLD,0,0,18,14,-823,-1700,-1231,-1599,-1925,-1922,-2130,-1952,-2623,-3001,-2495,-3205,-5501,-6000,-6407,-6984,-8287,-8328,-7972,-8521,-9845,-8380,-6499,-8046,-8170,-8383,-7806,-6538,-7358,-7844,-6021,-4249,-1790,-1055,-1091,1562,2657
delta_LEVEL,0,0,0,-1,-2,-1,1,1,-1,0,-2,1,-1,-4,-1,-1,-2,-4,-2,-3,-2,-3,0,-2,-3,1,2,-1,1,0,0,0,3,1,2,5,7,5,5,9,9
delta_SBIRES,0,0,0,-9,-10,-10,-2,-22,-26,-31,-47,-47,-66,-80,-84,-90,-102,-105,-98,-94,-90,-97,-80,-84,-92,-93,-88,-93,-95,-90,-74,-75,-75,-78,-72,-63,-53,-53,-51,-38,-27
