name,team0,team1
win,Fail,Win
firstBlood,True,False
firstTower,False,True
firstInhibitor,False,True
firstBaron,False,True
firstDragon,True,False
firstRiftHerald,False,True
towerKills,4,11
inhibitorKills,0,4
baronKills,0,2
dragonKills,1,4
riftHeraldKills,0,2
