name,team0,team1
win,Win,Fail
firstBlood,True,False
firstTower,False,True
firstInhibitor,True,False
firstBaron,True,False
firstDragon,True,False
firstRiftHerald,True,False
towerKills,7,6
inhibitorKills,1,0
baronKills,1,0
dragonKills,4,1
riftHeraldKills,1,0
