name,team0,team1
win,Fail,Win
firstBlood,True,False
firstTower,True,False
firstInhibitor,False,True
firstBaron,False,True
firstDragon,False,True
firstRiftHerald,False,True
towerKills,7,9
inhibitorKills,1,1
baronKills,0,1
dragonKills,3,3
riftHeraldKills,0,1
