name,frame_0,frame_1,frame_2,frame_3,frame_4,frame_5,frame_6,frame_7,frame_8,frame_9,frame_10,frame_11,frame_12,frame_13,frame_14,frame_15,frame_16,frame_17,frame_18,frame_19,frame_20,frame_21,frame_22,frame_23,frame_24,frame_25,frame_26,frame_27,frame_28,frame_29,frame_30
nameStamp,Tstart,Tearly,Tearly,Tearly,Tearly,Tearly,Tearly,Tearly,Tearly,Tearly,Tearly,Tearly,Tearly,Tearly,Tmid,Tmid,Tmid,Tmid,Tmid,Tmid,Tmid,Tmid,Tmid,Tmid,Tmid,Tend,Tend,Tend,Tend,Tend,Tend
timestamp,0,60014,120034,180074,240085,300106,360126,420138,480144,540145,600158,660181,720187,780218,840237,900259,960283,1020289,1080300,1140301,1200304,1260323,1320347,1380367,1440372,1500388,1560411,1620435,1680461,1740475,1800475
participant_0_GOLD,500,500,584,839,1412,1887,2356,2478,3064,3321,3927,4147,4502,4874,4996,5203,5492,5855,6318,6788,7315,7689,8085,8466,9849,10653,10881,11120,11291,11651,12139
participant_0_CURRENTGOLD,500,0,84,339,37,512,981,203,789,246,852,782,1137,369,491,698,987,50,513,183,710,534,930,616,1999,578,806,545,197,206,-316
participant_0_LEVEL,1,1,1,3,4,5,6,6,7,8,8,9,9,9,9,9,10,10,11,11,12,12,12,12,13,14,14,14,14,15,15
participant_0_MINIONSKILLED,0,0,3,11,16,27,45,45,59,66,72,77,87,91,91,92,95,95,106,108,123,124,130,141,156,165,171,174,177,187,187
participant_0_KILLS,0,0,0,0,0,0,0,0,0,0,0,0,0,0,0,0,0,0,0,0,0,0,0,0,0,0,0,1,2,2,2
participant_0_BUY,[],"[1056, 2003, 2003]",[],[],"[1056, 2031]",[1004],[],[],[],"[3070, 2055]",[],[],"[1052, 1052, 1027, 3802]",[],[],[],[],[],"[3003, 1052, 2055, 3363]",[],[],[],[1026],[],[],[3136],[3151],[],"[1026, 1052]",[],[]
participant_0_SOLD,[],[],[],[],"[2003, 2003]",[],[],[],[],[1004],[2055],[],"[2031, 1052, 1027, 1052]",[],[],[],[],[],"[3070, 3802, 3340]",[],[2055],[],[],[],[3003],[1052],"[3136, 1026]",[],[],[],[]
participant_0_UNDO,[],[],[],[],[],[],[],[],[],[],[],[],[],[],[],[],[],[],[],[],[],[],[],[],[],[],[],[],[],[],[]
participant_1_GOLD,500,500,653,953,1363,1864,2062,2342,2882,3425,3672,4200,4557,4873,5300,5646,6479,7722,8132,8325,8632,9077,10213,10602,10979,11516,11639,11761,12634,13068,13295
participant_1_CURRENTGOLD,500,0,153,453,863,1364,237,517,1057,1600,572,300,657,23,450,796,1629,2872,442,635,542,987,48,437,814,1352,1474,156,1030,113,-280
participant_1_LEVEL,1,1,2,3,4,4,5,5,6,7,7,7,8,8,9,9,10,11,11,11,12,12,13,13,13,14,14,14,15,15,15
participant_1_MINIONSKILLED,0,0,0,0,3,3,3,3,3,3,3,3,4,5,5,14,14,15,18,18,18,18,24,31,34,34,34,34,41,41,43
participant_1_KILLS,0,0,0,0,1,1,1,1,2,2,3,3,3,3,3,3,3,3,3,4,4,4,4,4,6,7,7,7,7,7,8
participant_1_BUY,[],"[3340, 2003, 1054]",[],[],"[1036, 1055, 2055]",[],[],"[3133, 2003, 2003, 2031]",[],[3067],[],[1036],[],"[3044, 1001]",[],[],[],"[3071, 1036]",[],[3111],[],[1053],[],[1037],[],"[3812, 1038, 1029]",[],[1031],[3026],[1036],[1036]
participant_1_SOLD,[],[],[],[2003],[2010],[],[],"[1036, 2055]",[],[],[],"[2010, 2010]",[],"[1036, 2031]",[],[],[],"[3044, 3067]",[],[1001],[],[1036],[],"[1054, 1055]",[],"[1053, 1037, 3133]",[],[1029],"[1054, 1038, 1031]",[],[]
participant_1_UNDO,[],[],[],[],[],[],[],"[[0, 2003], [0, 2003]]",[],[],[],[],[],[],[],[],[],[],[],[],[],[],[],"[[1054, 0]]",[],[],[],[],[],[],[]
participant_2_GOLD,500,500,612,958,1116,1280,1466,1651,2019,2434,2780,3120,3242,3511,3820,3942,4086,4715,4935,5176,5503,5740,5937,6269,6753,6975,7667,8110,8802,9040,9139
participant_2_CURRENTGOLD,500,0,112,458,66,105,291,476,844,459,805,1145,27,296,605,727,871,1500,160,401,728,965,312,644,1128,285,227,670,77,315,354
participant_2_LEVEL,1,1,1,3,3,4,4,5,6,7,7,8,8,8,9,9,9,10,10,10,11,11,11,11,12,12,13,13,14,14,14
participant_2_MINIONSKILLED,0,0,5,18,20,23,27,30,41,46,59,72,72,81,88,88,89,108,114,117,117,118,118,118,120,120,125,126,134,135,135
participant_2_KILLS,0,0,0,0,0,0,1,1,1,2,2,2,2,2,2,2,3,3,3,3,3,3,4,4,4,4,4,4,4,4,4
participant_2_BUY,[],"[3858, 2003, 2003, 3340]",[],[],"[1001, 2055, 2055]",[],"[3117, 2055, 2003]",[],"[1029, 2003]",[],[],"[3067, 2055]",[],"[3364, 2003]",[],[1031],[],"[3109, 1033]",[],"[3105, 1033]",[2055],[],[3190],[1031],[],[],[2055],[],[],[],[3193]
participant_2_SOLD,[],[],[],[],[],[2055],"[2003, 1001]",[],[2003],[],"[2003, 2055]",[],[3858],[3340],[],[1029],[],"[3067, 1031]",[],"[2003, 2055, 1033, 2003]",[],[3859],"[3105, 1033]",[],[],[2055],[],[],[],[],[1031]
participant_2_UNDO,[],[],[],[],[],[],[],[],[],[],[],[],[],[],[],[],[],[],[],[],[],[],[],[],[],[],[],[],[],[],[]
participant_3_GOLD,500,500,584,839,1382,1770,1928,2566,2814,3101,3484,3770,4133,4332,4774,5190,5638,6165,6792,7089,7385,7996,8530,9015,9382,9504,10045,10389,10532,10989,11478
participant_3_CURRENTGOLD,500,0,84,339,182,570,178,166,414,101,484,370,733,157,599,1015,588,115,742,1039,460,1071,80,565,932,255,795,539,683,239,228
participant_3_LEVEL,1,1,1,2,2,3,4,4,5,5,6,6,7,7,8,9,9,9,10,10,11,11,11,12,12,12,13,13,13,14,14
participant_3_MINIONSKILLED,0,0,3,11,11,23,25,26,34,35,47,56,66,71,86,99,110,116,127,129,135,145,147,160,167,167,183,187,188,198,198
participant_3_KILLS,0,0,0,0,1,1,1,2,2,2,2,2,2,2,2,2,2,2,3,3,3,3,4,4,4,4,4,4,4,4,5
participant_3_BUY,[],"[1055, 2003, 3340]",[],[],"[1036, 1036]",[],[1053],"[3144, 1042]",[],"[1042, 1001]",[],[1043],[],"[3153, 2055]",[],[],"[3006, 3363, 2055]",[1043],[],[],[1037],[],"[3124, 1042]",[],[],[1018],[],"[3086, 1042]",[],[3046],[2140]
participant_3_SOLD,[],[],[],[2003],[],[],[1036],"[1053, 1036]",[],[],[],"[1042, 1042]",[],"[3144, 1043]",[2055],[],"[1001, 3340]",[],[2055],[],[],[],"[1043, 1037]",[],[],[],[],"[1018, 1042]",[],"[1042, 3086]",[2140]
participant_3_UNDO,[],[],[],[],[],[],[],[],[],[],[],[],[],[],[],[],[],[],[],[],[],[],[],[],[],[],[],[],[],[],[]
participant_4_GOLD,500,500,544,699,982,1221,1655,1853,1987,2422,2809,3093,3335,3476,3674,3870,4907,5257,5519,5709,5981,6449,7500,7670,7961,8232,8372,8587,8928,9098,9457
participant_4_CURRENTGOLD,500,0,44,199,32,271,-70,128,-138,296,684,93,335,426,624,320,1357,657,919,29,176,644,1045,415,706,977,1042,1257,1598,1768,557
participant_4_LEVEL,1,1,1,2,3,3,4,5,5,6,6,7,7,7,8,8,9,9,9,10,10,10,11,11,12,12,12,12,13,13,13
participant_4_MINIONSKILLED,0,0,1,2,3,6,6,9,9,9,12,12,15,15,18,21,22,27,30,30,33,34,36,37,39,40,40,40,43,44,48
participant_4_KILLS,0,0,0,0,0,1,1,1,1,2,2,3,3,3,3,3,4,5,5,5,5,5,7,7,7,8,8,8,9,9,9
participant_4_BUY,[],"[1041, 2031, 3340]",[],[],[],[],"[3706, 3751, 1039, 2055]",[],[],[],"[1401, 1001, 2055]",[3111],[],"[3801, 1029]",[],[],[],[],"[3800, 3211]",[],[1028],[],"[3067, 3065, 1031, 2055, 3364]",[],[],[],[],"[3076, 3082]",[],"[3075, 1033]",[]
participant_4_SOLD,[],[],[],[],[],[],[1041],[],[2055],[],"[3751, 1039, 1041]",[1001],"[3340, 2055, 3513]",[],[],[],[],[],"[1029, 3801, 2031]",[],[],[],"[1028, 3211, 3067, 3340]",[],[2055],[],[],[1031],[],"[3076, 3082]",[]
participant_4_UNDO,[],[],[],[],[],[],"[[0, 3706]]",[],[],[],[],[],[],[],[],[],[],[],[],[],[],[],[],[],[],[],[],[],[],[],[]
participant_5_GOLD,500,500,563,867,1130,1364,1522,1899,2197,2439,2836,3069,3464,3948,4311,4620,5279,5422,5824,6406,6681,7262,7920,8244,8730,9655,10373,10918,11277,11499,12087
participant_5_CURRENTGOLD,500,50,113,417,305,539,197,574,872,279,676,169,564,1048,1411,795,1454,112,514,1096,606,1187,270,519,155,1080,1799,2344,902,1125,1712
participant_5_LEVEL,1,1,1,3,4,5,5,6,7,7,8,8,9,10,10,10,11,11,12,12,12,13,13,13,14,14,15,15,15,15,16
participant_5_MINIONSKILLED,0,0,2,12,20,24,26,37,44,51,64,67,83,90,96,96,117,118,131,133,137,145,147,155,159,164,167,175,181,186,187
participant_5_KILLS,0,0,0,0,1,1,1,1,2,3,3,4,4,5,5,5,5,5,5,5,5,5,6,6,6,7,7,8,8,9,10
participant_5_BUY,[],"[1056, 2003, 2003, 3340]",[],[],[],"[1052, 1052, 2055]",[],[],[],[3152],[1001],[3111],[],[],"[3108, 1042]",[],[],[3101],[],[],"[3115, 1052]",[],[3916],[],[1026],[3165],[],[],[1058],[],[]
participant_5_SOLD,[],[],[],[],[],[2003],[],[],[],"[2003, 1052, 1052]","[2055, 2419]",[1001],[],[],[],[],[],[1042],[],[2423],"[3101, 3108, 2424]",[],[1052],[],[],"[3916, 1026]",[],[],[],[],[]
participant_5_UNDO,[],[],[],[],[],[],[],[],[],[],[],[],[],[],[],[],[],[],[],[],[],[],[],[],[],[],[],[],[],[],[]
participant_6_GOLD,500,500,726,1033,1438,1668,2238,2550,2832,3112,3419,4359,4704,5554,5937,6349,6825,7032,7338,7768,8180,8637,9055,9553,10183,10493,11035,11434,11619,12073,12417
participant_6_CURRENTGOLD,500,0,226,533,938,1168,313,625,907,187,494,1434,1779,2629,12,424,900,232,538,278,690,1147,90,588,1218,403,945,1344,629,1084,1367
participant_6_LEVEL,1,1,2,3,4,4,5,5,6,6,7,8,8,9,9,9,10,10,10,11,11,12,12,13,13,14,14,14,14,15,15
participant_6_MINIONSKILLED,0,0,0,0,0,4,4,4,6,6,6,10,10,11,12,16,17,17,19,19,19,21,21,22,28,31,33,34,34,38,40
participant_6_KILLS,0,0,0,0,0,0,0,0,0,0,0,0,0,0,0,1,1,1,1,1,1,1,1,1,1,1,2,2,2,2,2
participant_6_BUY,[],[],"[3858, 2003, 2003, 3340]",[],"[2055, 2003]",[],"[1001, 3117]",[],[],[],[],"[3024, 2055, 2003]",[],[],[],"[3800, 1029, 2055, 3364]",[],[],[],[],[3024],[],[],[],[],"[3105, 3050]",[],[],"[3067, 1031]",[],[2138]
participant_6_SOLD,[],[],[],"[2010, 2003, 2003]",[],[],"[2003, 2010, 1001]",[2055],[2010],[],[2419],[2055],[],[],[],"[2003, 3858, 3024, 3340]",[],[],[],[],[1029],[],[],[],"[2055, 2423]","[3105, 3024]",[],[],[],[],"[3859, 2138]"
participant_6_UNDO,[],[],[],[],[],[],[],[],[],[],[],[],[],[],[],[],[],[],[],[],[],[],[],[],[],[],[],[],"[[0, 3067]]",[],[]
participant_7_GOLD,500,500,605,885,1391,1625,1853,2279,2928,3522,3771,4325,4661,5407,5943,6291,6759,6902,7025,7461,7731,8324,8759,9142,9717,10210,10647,11310,11495,12273,12907
participant_7_CURRENTGOLD,500,0,105,385,891,180,408,834,1483,147,396,150,486,1232,568,916,1384,727,850,1286,141,734,4,387,113,55,492,1155,90,868,1482
participant_7_LEVEL,1,1,1,3,4,5,5,6,7,7,8,9,9,10,11,11,11,12,12,12,13,13,13,14,14,14,15,15,15,15,16
participant_7_MINIONSKILLED,0,0,5,11,15,19,25,40,47,54,62,69,79,85,102,113,119,120,120,122,131,143,146,157,162,162,167,174,174,187,187
participant_7_KILLS,0,0,0,0,0,0,0,0,0,0,0,0,0,0,0,0,0,0,0,1,1,1,2,2,2,3,4,4,4,4,5
participant_7_BUY,[],"[1001, 2031, 3340]",[],[],"[1029, 2055]",[],[3047],[],[],"[1052, 1028]",[],"[3136, 2055]",[],[],[],"[1026, 2055]",[],"[3151, 1052, 1042, 3364]",[],[],"[3108, 1042]",[],"[3115, 2055]",[2055],[1026],[],[],[],[3135],[],[]
participant_7_SOLD,[],[],[],[],[],[],"[1001, 1029]",[2055],[],[],[],"[1028, 1052, 2055]",[],[],[],[2055],[],"[3136, 1026, 3340]",[],[],[1052],[],"[1042, 1042, 3108]",[],[],[],[],[],[1026],[],[2055]
participant_7_UNDO,[],[],[],[],[],[],[],[],[],[],[],[],[],[],[],[],[],[],[],[],[],[],[],[],[],[],[],[],[],[],[]
participant_8_GOLD,500,500,584,888,1454,1695,2432,2939,3348,3881,4464,4895,5784,6840,7283,8034,8627,8847,9027,10413,10767,11082,11669,11918,12341,12588,13405,14710,14918,15251,16037
participant_8_CURRENTGOLD,500,0,84,388,154,395,1132,239,648,281,864,895,1784,2840,982,1734,227,447,627,2013,208,522,509,759,161,109,926,2231,239,572,1137
participant_8_LEVEL,1,1,1,2,3,3,4,5,6,6,7,7,8,8,9,9,10,10,10,11,11,12,12,13,13,13,14,15,15,15,15
participant_8_MINIONSKILLED,0,0,3,13,18,25,34,39,44,49,57,62,74,79,79,94,101,107,110,115,124,126,126,128,128,128,136,143,144,147,155
participant_8_KILLS,0,0,0,0,1,1,2,3,3,4,5,5,6,7,8,8,9,9,9,12,12,12,13,13,13,13,14,16,16,16,17
participant_8_BUY,[],"[1055, 2003, 3340]",[],[],"[1036, 1036, 2003, 2003]",[],[],"[1038, 2003, 2003]",[],"[3133, 3006, 2003, 2003]",[],[3133],[],[],"[3508, 1038, 2003, 2003]",[],[3031],[],[],[],"[3086, 1018, 3363]",[],[3086],[],[3087],[1042],[],[],"[3046, 3140]",[],[]
participant_8_SOLD,[],[],[],"[2010, 2003]",[],[],"[2003, 2003, 2010]",[2010],"[2003, 2003]","[1036, 1036, 2422]",[],"[1036, 1036]",[2003],[2003],"[1038, 3133]",[],[1038],[],[],[],"[2003, 2003, 3340]",[],[1018],[],"[1055, 3086]",[],[],[],"[1042, 3086]",[],[]
participant_8_UNDO,[],[],[],[],[],[],[],[],[],"[[0, 3133]]",[],[],[],[],[],[],[],[],[],[],[],[],[],[],[],[],[],[],[],[],[]
participant_9_GOLD,500,500,544,699,1026,1286,1571,1705,2049,2370,2675,2809,3229,4002,4211,4798,4989,5129,5269,5410,5550,5741,5931,6071,6542,6732,7265,7691,7881,8066,8363
participant_9_CURRENTGOLD,500,500,44,199,401,661,46,180,524,845,1150,259,679,1452,1661,123,314,454,594,735,275,466,656,796,1267,107,640,1066,456,642,438
participant_9_LEVEL,1,1,1,2,3,4,4,4,5,6,6,7,7,8,8,8,8,8,8,8,8,8,8,9,10,10,10,11,11,12,12
participant_9_MINIONSKILLED,0,0,1,2,4,8,8,8,10,17,18,18,22,24,24,27,27,27,27,27,27,27,27,27,27,27,29,30,30,32,33
participant_9_KILLS,0,0,0,0,0,0,1,1,1,1,1,2,2,3,3,3,3,3,3,3,3,4,4,4,4,4,4,4,4,4,4
participant_9_BUY,[],"[1041, 2031, 3340]",[],[],[],[],"[3715, 1036, 1036, 2055]",[],[],"[1412, 2055]",[],[],[],[],[3071],[],[],"[3111, 2055, 3364]",[],"[1036, 1028]",[],[],"[3052, 1037, 2055, 2055]",[],[],[3053],[],[],[3751],[],[]
participant_9_SOLD,[],[],[],[],[],[],[1041],[],[2055],"[1036, 1036, 3715]",[],[],[],[],[2055],[],[],"[2422, 3340]",[],[2031],[],[2055],"[1036, 1028]",[2055],[],"[3052, 1037]",[],[],[],[],[]
participant_9_UNDO,[],[],[],[],[],[],[],[],[],[],[],[],[],[],[],[],[],[],[],[],[],[],[],[],[],[],[],[],[],[],[]
team0_KILLS,0,0,0,0,2,3,4,5,6,8,9,10,10,10,10,10,12,13,14,15,15,15,19,19,21,23,23,24,26,26,28
team0_CURRENTGOLD,2500,0,477,1788,1180,2822,1617,1490,2966,2702,3397,2690,2889,1271,2769,3556,5432,5194,2776,2287,2616,4201,2415,2677,5579,3447,4344,3167,3585,2641,543
team0_TOTALGOLD,2500,2500,2977,4288,6255,8022,9467,10890,12766,14703,16672,18330,19769,21066,22564,23851,26602,29714,31696,33087,34816,36951,40265,42022,44924,46880,48604,49967,52187,53846,55508
team0_LEVEL,5,5,6,13,16,19,23,25,29,33,34,37,39,39,43,44,47,49,51,52,56,56,58,59,62,64,66,66,69,71,71
team0_SBIRES,0,0,12,42,53,82,106,113,146,159,193,220,244,263,288,314,330,361,395,402,426,439,455,487,516,526,553,561,583,605,611
team1_KILLS,0,0,0,0,2,2,4,5,6,8,9,11,12,15,16,17,18,18,18,22,22,23,26,26,26,28,31,34,34,35,38
team1_CURRENTGOLD,2500,550,572,1922,2689,2943,2096,2452,4434,1739,3580,2907,5292,9201,4634,3992,4279,1972,3123,5408,1920,4056,1529,3049,2914,1754,4802,8140,2316,4291,6136
team1_TOTALGOLD,2500,2500,3022,4372,6439,7638,9616,11372,13354,15324,17165,19457,21842,25751,27685,30092,32479,33332,34483,37458,38909,41046,43334,44928,47513,49678,52725,56063,57190,59162,61811
team1_LEVEL,5,5,6,13,18,21,23,26,31,32,36,39,41,45,47,47,50,51,52,54,55,58,58,62,64,65,68,70,70,72,74
team1_SBIRES,0,0,11,38,57,80,97,128,151,177,207,226,268,289,313,346,381,389,407,416,438,462,467,489,504,512,532,556,563,590,602
delta_KILLS,0,0,0,0,0,1,0,0,0,0,0,-1,-2,-5,-6,-7,-6,-5,-4,-7,-7,-8,-7,-7,-5,-5,-8,-10,-8,-9,-10
delta_CURRENTGOLD,0,-550,-95,-134,-1509,-121,-479,-962,-1468,963,-183,-217,-2403,-7930,-1865,-436,1153,3222,-347,-3121,696,145,886,-372,2665,1693,-458,-4973,1269,-1650,-5593
delta_TOTALGOLD,0,0,-45,-84,-184,384,-149,-482,-588,-621,-493,-1127,-2073,-4685,-5121,-6241,-5877,-3618,-2787,-4371,-4093,-4095,-3069,-2906,-2589,-2798,-4121,-6096,-5003,-5316,-6303
delta_LEVEL,0,0,0,0,-2,-2,0,-1,-2,1,-2,-2,-2,-6,-4,-3,-3,-2,-1,-2,1,-2,0,-3,-2,-1,-2,-4,-1,-1,-3
delta_SBIRES,0,0,1,4,-4,2,9,-15,-5,-18,-14,-6,-24,-26,-25,-32,-51,-28,-12,-14,-12,-23,-12,-2,12,14,21,5,20,15,9
