name,team0,team1
win,Fail,Win
firstBlood,False,True
firstTower,False,True
firstInhibitor,False,True
firstBaron,False,False
firstDragon,True,False
firstRiftHerald,False,False
towerKills,2,11
inhibitorKills,0,2
baronKills,0,0
dragonKills,2,3
riftHeraldKills,0,0
