name,frame_0,frame_1,frame_2,frame_3,frame_4,frame_5,frame_6,frame_7,frame_8,frame_9,frame_10,frame_11,frame_12,frame_13,frame_14,frame_15,frame_16,frame_17,frame_18,frame_19,frame_20,frame_21
nameStamp,Tstart,Tearly,Tearly,Tearly,Tearly,Tearly,Tearly,Tearly,Tearly,Tearly,Tearly,Tearly,Tmid,Tmid,Tmid,Tmid,Tmid,Tmid,Tmid,Tmid,Tmid,Tmid
timestamp,0,60000,120026,180028,240046,300064,360073,420085,480087,540100,600109,660118,720127,780145,840150,900154,960159,1020163,1080194,1140226,1200229,1260229
participant_0_GOLD,500,500,530,714,913,1302,1861,2156,2500,2683,3095,3419,3681,4092,4325,4565,4896,5101,5349,5582,5916,6048
participant_0_CURRENTGOLD,500,500,530,714,913,1302,1861,2156,2500,183,595,919,1181,1592,225,465,797,501,749,982,1316,1448
participant_0_LEVEL,1,1,1,2,2,3,3,4,4,4,5,5,5,6,6,7,7,7,8,8,8,8
participant_0_MINIONSKILLED,0,0,0,0,1,4,7,10,10,10,14,17,18,19,19,22,27,28,29,29,29,29
participant_0_KILLS,0,0,0,0,0,0,1,1,1,1,1,1,1,2,2,2,2,2,2,2,2,2
participant_0_BUY,[],[],[],[],[],[],[],[],[],"[1053, 1038, 1042]",[],[],[],[],"[1001, 3072]",[],[],[3006],[],[],[],[]
participant_0_SOLD,[],[],[],[],[],[],[],[],[],[],[],[],[],[],"[1038, 1053]",[],[],"[1001, 1042]",[],[],[],[]
participant_0_UNDO,[],[],[],[],[],[],[],[],[],[],[],[],[],[],[],[],[],[],[],[],[],[]
participant_1_GOLD,500,500,544,763,976,1194,1562,2000,2266,2549,2732,2994,3178,3411,3595,4087,4620,4803,5183,5535,6018,6151
participant_1_CURRENTGOLD,500,150,194,413,626,844,1212,1650,1916,199,382,644,828,261,445,937,1470,354,733,1085,1568,1701
participant_1_LEVEL,1,1,1,3,4,4,5,5,6,6,6,7,7,7,8,9,9,9,10,10,10,10
participant_1_MINIONSKILLED,0,0,1,3,5,7,9,11,13,13,13,15,15,15,15,16,16,16,17,20,20,20
participant_1_KILLS,0,0,0,0,0,0,0,1,1,1,1,1,1,1,1,1,2,2,2,2,2,2
participant_1_BUY,[],[1036],[],[],[],[],[],[],[],"[3044, 1029, 3047]",[],[],[],[3067],[],[],[],"[3071, 1036]",[],[],[],[]
participant_1_SOLD,[],[],[],[],[],[],[],[],[],"[2419, 1036, 1029]",[],[],[],[],[],[],[],"[3044, 3067]",[],[2423],[],[]
participant_1_UNDO,[],[],[],[],[],[],[],[],[],[],[],[],[],[],[],[],[],[],[],[],[],[]
participant_2_GOLD,500,500,565,749,955,1138,1617,2021,2394,2633,3120,3354,3880,4113,4476,4694,5064,5353,5586,5820,6217,6400
participant_2_CURRENTGOLD,500,100,165,349,555,388,867,771,544,783,1270,404,930,463,826,1044,1414,1703,836,1070,1467,1650
participant_2_LEVEL,1,1,2,2,3,3,4,5,6,6,7,8,8,9,9,10,10,11,11,11,11,12
participant_2_MINIONSKILLED,0,0,2,2,3,3,4,4,5,8,14,14,16,16,23,25,29,35,35,35,36,36
participant_2_KILLS,0,0,0,0,0,0,1,2,3,3,4,4,5,5,5,5,5,5,5,5,5,5
participant_2_BUY,[],[1028],[],[],[],[1036],[],[3044],"[1001, 1042]",[],[],[3086],[],"[1027, 1027]",[],[],[],[],[3101],[],[],[]
participant_2_SOLD,[],[],[],[],[],[],[],"[1028, 1036]",[],[],[],[1042],[],[],[],[],[],[],[],[],[],[]
participant_2_UNDO,[],[],[],[],[],[],[],[],[],[],[],[],[],[],[],[],[],[],[],[],[],[]
participant_3_GOLD,500,500,530,844,1050,1589,1773,1999,2361,2981,3214,3565,3748,3982,4609,4834,5131,5509,5917,6164,6698,6881
participant_3_CURRENTGOLD,500,500,180,494,400,939,123,349,711,1331,1564,1915,2098,482,1109,1334,1631,2009,2417,2665,3198,3381
participant_3_LEVEL,1,1,1,3,3,5,5,6,6,7,7,7,7,7,8,9,9,10,10,10,10,10
participant_3_MINIONSKILLED,0,0,0,5,6,9,9,12,14,16,19,21,21,21,24,27,31,38,41,42,42,42
participant_3_KILLS,0,0,0,0,0,1,1,1,1,2,2,2,2,2,2,2,2,2,2,2,2,2
participant_3_BUY,[],[],[1027],[],[1001],[],"[1028, 3009]",[],[],[],[],[],[],"[3010, 1026, 3027]",[],[],[],[],[],[],[],[]
participant_3_SOLD,[],[],[],[],[],[],[1001],[],[],[],[],[],[],"[1028, 1027, 3010, 1026]",[],[],[],[],[],[],[],[]
participant_3_UNDO,[],[],[],[],[],[],[],[],[],[],[],[],[],[],[],[],[],[],[],[],[],[]
participant_4_GOLD,500,500,565,833,1301,2219,2594,2832,3402,4029,4592,5404,5805,6662,7855,9471,10087,11774,13313,14943,16476,16808
participant_4_CURRENTGOLD,500,0,65,333,801,1719,2094,2332,2902,3529,4092,4904,1055,1912,3105,4721,5338,3924,5463,7093,8625,8958
participant_4_LEVEL,1,1,1,3,4,4,5,5,6,7,7,7,8,8,10,11,11,12,14,15,17,17
participant_4_MINIONSKILLED,0,0,2,7,12,14,16,16,23,31,34,37,42,52,56,66,67,69,77,89,100,100
participant_4_KILLS,0,0,0,0,0,2,2,2,3,4,6,7,8,9,16,24,26,34,41,49,57,59
participant_4_BUY,[],"[2031, 1082]",[],[],[],[],[],[],[],[],[],[],"[3100, 3041]",[],[],[],[],[3151],[],[],[],[]
participant_4_SOLD,[],[],[],[],[],[],[],[],[],[],[],[],[1082],[],[],[],[],[],[],[],[],[]
participant_4_UNDO,[],[],[],[],[],[],[],[],[],[],[],[],[],[],[],[],[],[],[],[],[],[]
participant_5_GOLD,500,500,520,642,766,888,1011,1133,1255,1378,1521,1694,1816,1938,2061,2183,3306,3428,3571,3694,3830,3885
participant_5_CURRENTGOLD,500,300,320,442,566,688,811,933,1055,1178,1321,1494,1616,1738,1861,1983,3106,3228,3371,3494,3630,3685
participant_5_LEVEL,1,1,1,1,1,2,3,3,3,3,4,5,5,5,5,5,6,6,7,7,7,7
participant_5_MINIONSKILLED,0,0,0,0,0,0,0,0,0,0,1,1,1,1,1,1,1,1,2,2,3,3
participant_5_KILLS,0,0,0,0,0,0,0,0,0,0,0,0,0,0,0,0,1,1,1,1,1,1
participant_5_BUY,[],"[2003, 2003, 2003, 2003, 3340]",[],[],[],[],[],[],[],[],[],[],[],[],[],[],[],[],[],[],[],[]
participant_5_SOLD,[],[],[],[],[2003],[2003],[],[],[],[],[2003],[],[],[2003],[],[],[],[],[],[],[],[]
participant_5_UNDO,[],[],[],[],[],[],[],[],[],[],[],[],[],[],[],[],[],[],[],[],[],[]
participant_6_GOLD,500,500,520,642,780,1073,1276,1499,1792,1992,2243,2766,2923,3087,3210,3332,3492,3614,3737,3859,3982,4037
participant_6_CURRENTGOLD,500,300,320,442,580,873,1076,1299,1592,1792,2043,2566,2723,2887,3010,3132,3292,3414,3537,3659,3782,3837
participant_6_LEVEL,1,1,1,1,1,3,4,4,5,6,6,7,7,8,8,8,8,8,8,9,9,9
participant_6_MINIONSKILLED,0,0,0,0,1,6,8,9,14,18,21,25,27,29,29,29,29,29,29,29,29,29
participant_6_KILLS,0,0,0,0,0,0,0,0,0,0,0,0,0,0,0,0,0,0,0,0,0,0
participant_6_BUY,[],"[2003, 2003, 2003, 2003, 3340]",[],[],[],[],[],[],[],[],[],[],[],[],[],[],[],[],[],[],[],[]
participant_6_SOLD,[],[],[],[],[2003],[],[],[],[],[],[],[],[2003],[],[],[],[],[2003],[2003],[],[],[]
participant_6_UNDO,[],[],[],[],[],[],[],[],[],[],[],[],[],[],[],[],[],[],[],[],[],[]
participant_7_GOLD,500,500,520,642,797,919,1042,1185,1481,1625,1747,1920,2251,2373,2496,2618,2778,2914,3037,3159,3282,3337
participant_7_CURRENTGOLD,500,300,320,442,597,719,842,985,1281,1425,1547,1720,2051,2173,2296,2418,2578,2714,2837,2959,3082,3137
participant_7_LEVEL,1,1,1,1,3,3,4,4,5,6,6,7,7,7,7,7,8,8,8,8,8,8
participant_7_MINIONSKILLED,0,0,0,0,2,2,2,3,4,5,5,5,8,8,8,8,8,9,9,9,9,9
participant_7_KILLS,0,0,0,0,0,0,0,0,0,0,0,0,0,0,0,0,0,0,0,0,0,0
participant_7_BUY,[],"[2003, 2003, 2003, 2003, 3340]",[],[],[],[],[],[],[],[],[],[],[],[],[],[],[],[],[],[],[],[]
participant_7_SOLD,[],[],[],[],[],[2003],"[2003, 2003]",[2003],[],[],[],[],[],[],[],[],[],[],[],[],[],[]
participant_7_UNDO,[],[],[],[],[],[],[],[],[],[],[],[],[],[],[],[],[],[],[],[],[],[]
participant_8_GOLD,500,500,520,642,766,888,1011,1133,1255,1378,1500,1673,1795,1917,2054,2176,2399,2521,2644,2822,2945,3000
participant_8_CURRENTGOLD,500,300,320,442,566,688,811,933,1055,1178,1300,1473,1595,1717,1854,1976,2199,2321,2444,2622,2745,2800
participant_8_LEVEL,1,1,1,1,2,2,2,3,4,4,5,5,5,5,6,6,6,6,7,7,7,7
participant_8_MINIONSKILLED,0,0,0,0,0,0,0,0,0,0,0,0,0,0,1,1,5,5,5,8,8,8
participant_8_KILLS,0,0,0,0,0,0,0,0,0,0,0,0,0,0,0,0,0,0,0,0,0,0
participant_8_BUY,[],"[2003, 2003, 2003, 2003, 3340]",[],[],[],[],[],[],[],[],[],[],[],[],[],[],[],[],[],[],[],[]
participant_8_SOLD,[],[],[],[],[2003],[],[],[],[2003],[],[2003],[],[2003],[],[],[],[],[],[],[],[],[]
participant_8_UNDO,[],[],[],[],[],[],[],[],[],[],[],[],[],[],[],[],[],[],[],[],[],[]
participant_9_GOLD,500,500,520,642,822,1136,1378,1629,1831,1989,2310,2798,2920,3042,3193,3315,3475,3597,3720,3842,3979,4034
participant_9_CURRENTGOLD,500,300,320,442,622,936,1178,1429,1631,1789,2110,2598,2720,2842,2993,3115,3275,3397,3520,3642,3779,3834
participant_9_LEVEL,1,1,1,1,1,3,4,4,4,5,5,6,6,6,7,7,7,7,8,8,8,8
participant_9_MINIONSKILLED,0,0,0,0,4,8,15,18,18,20,27,29,29,29,31,31,31,31,31,31,32,32
participant_9_KILLS,0,0,0,0,0,0,0,0,0,0,0,0,0,0,0,0,0,0,0,0,0,0
participant_9_BUY,[],"[2003, 2003, 2003, 2003, 3340]",[],[],[],[],[],[],[],[],[],[],[],[],[],[],[],[],[],[],[],[]
participant_9_SOLD,[],[],[],[],[2003],[],[],[],[],[],[],[],[2003],[],[],[],[2003],[2003],[],[],[],[]
participant_9_UNDO,[],[],[],[],[],[],[],[],[],[],[],[],[],[],[],[],[],[],[],[],[],[]
team0_KILLS,0,0,0,0,0,3,5,7,9,11,14,15,17,19,26,34,37,45,52,60,68,70
team0_CURRENTGOLD,2500,1250,1134,2303,3295,5192,6157,7258,8573,6025,7903,8786,6092,4710,5710,8501,10650,8491,10198,12895,16174,17138
team0_TOTALGOLD,2500,2500,2734,3903,5195,7442,9407,11008,12923,14875,16753,18736,20292,22260,24860,27651,29798,32540,35348,38044,41325,42288
team0_LEVEL,5,5,6,13,16,19,22,25,28,30,32,34,35,37,41,46,46,49,53,54,56,57
team0_SBIRES,0,0,5,17,27,37,45,53,65,78,94,104,112,123,137,156,170,186,199,215,227,227
team1_KILLS,0,0,0,0,0,0,0,0,0,0,0,0,0,0,0,0,1,1,1,1,1,1
team1_CURRENTGOLD,2500,1500,1600,2210,2931,3904,4718,5579,6614,7362,8321,9851,10705,11357,12014,12624,14450,15074,15709,16376,17018,17293
team1_TOTALGOLD,2500,2500,2600,3210,3931,4904,5718,6579,7614,8362,9321,10851,11705,12357,13014,13624,15450,16074,16709,17376,18018,18293
team1_LEVEL,5,5,5,5,8,13,17,18,21,24,26,30,30,31,33,33,35,35,38,39,39,39
team1_SBIRES,0,0,0,0,7,16,25,30,36,43,54,60,65,67,70,70,74,75,76,79,81,81
delta_KILLS,0,0,0,0,0,3,5,7,9,11,14,15,17,19,26,34,36,44,51,59,67,69
delta_CURRENTGOLD,0,-250,-466,93,364,1288,1439,1679,1959,-1337,-418,-1065,-4613,-6647,-6304,-4123,-3800,-6583,-5511,-3481,-844,-155
delta_TOTALGOLD,0,0,134,693,1264,2538,3689,4429,5309,6513,7432,7885,8587,9903,11846,14027,14348,16466,18639,20668,23307,23995
delta_LEVEL,0,0,1,8,8,6,5,7,7,6,6,4,5,6,8,13,11,14,15,15,17,18
delta_SBIRES,0,0,5,17,20,21,20,23,29,35,40,44,47,56,67,86,96,111,123,136,146,146
