name,frame_0,frame_1,frame_2,frame_3,frame_4,frame_5,frame_6,frame_7,frame_8,frame_9,frame_10,frame_11,frame_12,frame_13,frame_14,frame_15,frame_16,frame_17,frame_18,frame_19,frame_20,frame_21,frame_22,frame_23,frame_24,frame_25,frame_26,frame_27,frame_28,frame_29,frame_30,frame_31,frame_32,frame_33,frame_34,frame_35
nameStamp,Tstart,Tearly,Tearly,Tearly,Tearly,Tearly,Tearly,Tearly,Tearly,Tearly,Tearly,Tearly,Tearly,Tearly,Tearly,Tearly,Tmid,Tmid,Tmid,Tmid,Tmid,Tmid,Tmid,Tmid,Tmid,Tmid,Tmid,Tmid,Tmid,Tmid,Tmid,Tmid,Tmid,Tmid,Tmid,Tmid
timestamp,0,60004,120025,180049,240057,300091,360115,420131,480161,540193,600217,660242,720273,780298,840326,900348,960368,1020396,1080422,1140455,1200479,1260510,1320534,1380559,1440584,1500599,1560618,1620625,1680645,1740648,1800669,1860685,1920711,1980713,2040736,2100737
participant_0_GOLD,500,500,590,804,1043,1382,1631,2022,2265,2778,3117,4125,4255,4447,5034,5404,5632,5754,5906,6922,7247,7531,8049,8513,8771,9765,10262,10721,11012,11232,11914,12413,12535,13167,14389,14927
participant_0_CURRENTGOLD,500,0,90,304,543,882,81,472,715,28,367,1375,1105,497,1084,1454,1682,254,406,1422,197,481,999,63,321,1315,313,771,1062,1283,1964,864,186,818,2039,2578
participant_0_LEVEL,1,1,1,3,4,5,6,6,7,8,8,9,9,9,10,10,11,11,11,12,12,12,13,13,13,13,14,14,14,15,15,15,15,16,17,17
participant_0_MINIONSKILLED,0,0,4,9,13,26,33,46,52,56,69,69,69,73,78,85,91,91,92,98,98,108,117,119,119,120,120,120,120,126,127,138,138,150,160,161
participant_0_KILLS,0,0,0,0,0,0,0,0,0,0,0,0,0,0,0,0,1,1,1,2,2,2,3,4,5,7,7,7,10,10,11,11,11,13,16,18
participant_0_BUY,[],"[1055, 3340, 2003]",[],[],[],[],"[1053, 1036, 2003]",[],[],[],"[3134, 1036, 2003]",[],[6692],[],[],[],[],"[3006, 3134]",[],[1018],[],[],[6676],[],[1036],[],[],"[1053, 3134]",[],"[3181, 1018]",[],[1038],[],[],[],[]
participant_0_SOLD,[],[],[],[],[],[],[2003],[],[2003],[],[1036],[],"[3134, 1036, 1053]",[],[],[],[],[],[],[],[],[],"[3134, 1018]",[],[],[],[],"[1036, 2003]",[],"[3134, 1053]",[],[1055],[],[],[],[]
participant_0_UNDO,[],[],[],[],[],[],[],[],[],[],[],[],[],[],[],[],[],[],[],[],[],[],[],[],[],[],[],[],[],[],[],[],[],[],[],[]
participant_1_GOLD,500,500,620,963,1376,1638,1846,2103,2286,2562,2696,3239,3566,3789,4312,4684,4849,5239,5495,5819,5991,6199,6427,6784,7046,7338,7461,7625,8082,8390,8795,9262,9384,9723,10313,10901
participant_1_CURRENTGOLD,500,0,120,463,876,1138,1346,303,486,762,96,639,966,1189,179,551,266,656,912,736,508,716,544,901,1163,1455,388,252,709,517,922,1389,186,525,1115,1703
participant_1_LEVEL,1,1,2,3,4,4,4,5,5,6,6,6,7,7,7,8,8,9,9,10,10,10,10,11,11,11,12,12,13,13,13,14,14,14,15,16
participant_1_MINIONSKILLED,0,0,0,0,0,1,1,1,1,2,2,2,2,2,2,2,5,9,14,14,14,14,14,14,16,16,16,19,19,19,19,26,26,27,29,37
participant_1_KILLS,0,0,0,0,0,0,0,0,0,0,0,1,1,1,2,2,2,2,2,2,2,2,2,2,2,2,2,2,2,2,2,2,2,2,2,2
participant_1_BUY,[],"[1035, 2031, 3340]",[],[],[],[],[],"[3057, 1001, 1042]",[],[],[3067],[],[],[],[3078],[],"[1029, 3364, 2055, 2055]",[],[],[3047],[1028],[],[3067],[],[],[],[3211],[1029],[],[1031],[],[],"[3065, 1028, 2055]",[],[],[]
participant_1_SOLD,[],[],[],[],[],[],[],[],[],[],[],[1035],[3340],[],"[3057, 1042, 3067]",[3513],[3340],[],[],"[1001, 1029]",[2055],[],[1028],[],[],[],[2031],[],[],[1029],[],[],"[3211, 3067, 2055]",[],[],[]
participant_1_UNDO,[],[],[],[],[],[],[],[],[],[],[],[],[],[],[],[],[],[],[],[],[],[],[],[],[],[],[],[],[],[],[],[],"[[2055, 0]]",[],[],[]
participant_2_GOLD,500,500,576,899,1113,1431,1746,1931,2272,2565,2715,3209,3491,3697,4005,4539,4748,5018,5279,5506,6389,6817,7123,7340,7774,8147,8449,9201,9748,10122,10752,11434,11831,12149,12640,13499
participant_2_CURRENTGOLD,500,0,76,389,253,571,876,111,142,350,500,994,341,547,845,1379,338,608,869,296,1179,1607,313,530,964,367,669,986,1533,917,1547,1004,152,469,960,1880
participant_2_LEVEL,1,1,1,3,4,5,6,6,7,7,7,8,8,8,9,9,9,10,10,10,11,11,12,12,12,12,12,13,14,14,14,15,15,16,16,17
participant_2_MINIONSKILLED,0,0,3,12,18,29,37,41,50,57,59,68,71,76,83,93,94,102,106,106,124,132,137,137,147,150,150,160,167,168,176,183,183,190,193,193
participant_2_KILLS,0,0,0,0,0,0,1,1,1,1,1,1,1,1,1,1,1,1,1,1,1,2,2,2,2,2,2,2,3,3,4,4,4,4,4,5
participant_2_BUY,[],"[3850, 2003, 2003, 3340]",[],[],[],[],"[1027, 1001, 2055]",[1052],[],[],[],[],"[3802, 1052, 3364]",[],[],[],[],"[3108, 2055, 2055]",[],[],[],"[6655, 6655, 3020]",[],[1052],[],[3916],[],[],[],[3165],[],[1033],[4632],[],[],[]
participant_2_SOLD,[],[],[],[],[],[],[2003],[],[],[],[],[2055],"[3850, 1052, 1027, 3340]",[],[],[],[],[1052],[2055],[2003],[],"[3802, 3802, 1001]",[3851],[],[],[1052],[2055],[],[],[3916],[],[],[1033],[],[],[]
participant_2_UNDO,[],[],[],[],[],[],[],[],[],[],[],[],[],[],[],[],[],[],[],[],[],"[[0, 6655]]",[],[],[],[],[],[],[],[],[],[],[],[],[],[]
participant_3_GOLD,500,500,555,920,1211,1550,1907,2228,2664,2948,3142,3736,3933,4251,4799,5196,6036,6277,6428,6870,7043,7367,7972,8628,9137,10013,10135,10357,12014,12247,13002,13296,13717,14622,16230,17680
participant_3_CURRENTGOLD,500,0,55,420,711,1050,107,428,864,1148,192,786,133,451,999,1396,2236,277,428,270,443,767,72,728,887,1763,1885,478,2134,767,1523,696,1118,2022,3630,5081
participant_3_LEVEL,1,1,1,2,3,4,4,5,5,6,6,7,7,8,8,9,9,10,10,10,10,11,11,12,12,13,13,13,14,14,15,15,15,16,16,17
participant_3_MINIONSKILLED,0,0,2,13,22,32,33,42,57,67,68,77,78,90,100,109,115,118,120,120,120,128,130,134,136,140,140,140,148,150,153,154,160,163,170,183
participant_3_KILLS,0,0,0,0,0,0,0,0,0,0,0,0,0,0,0,0,0,0,0,0,0,0,0,0,0,0,0,1,1,1,1,2,2,2,2,4
participant_3_BUY,[],"[3070, 2003, 2003]",[],[],[1027],[],[],[3802],[1001],[2055],[],[],"[1026, 2055]",[],[],[],[6655],[],[3020],[3020],[],[],"[1058, 1027]",[],[],[3003],[],"[1028, 1052]",[],"[3108, 1033, 2055, 3363]",[],"[3102, 2055]",[1058],[],[],[]
participant_3_SOLD,[],[],[],[],[],[2003],"[2010, 2003]",[1027],[2010],[],[],"[2055, 2010]",[],[],[],[],"[3802, 1026]",[],[1001],[1001],[],[],[],[],[],"[2055, 3070, 1058, 1027, 3003]",[],[],[],"[1052, 3340]",[],"[3108, 1033]",[],[],[],"[2055, 2055]"
participant_3_UNDO,[],[],[],[],[],[],[],[],[],[],[],[],[],[],[],[],[],[],"[[0, 3020]]",[],[],[],[],[],[],[],[],"[[0, 1028]]",[],[],[],[],[],[],[],[]
participant_4_GOLD,500,500,522,657,812,1026,1690,1824,2058,2193,2442,2730,3048,3188,3564,3775,4006,4230,4445,5183,5467,6437,6579,6833,7009,7341,7670,8066,8637,8806,9448,9718,9942,10157,10705,11484
participant_4_CURRENTGOLD,500,0,22,157,312,526,465,164,398,533,782,1070,437,578,954,1165,1396,1006,1220,1958,2242,312,454,273,449,416,745,1141,1712,181,823,643,117,333,881,1659
participant_4_LEVEL,1,1,1,2,3,4,4,4,5,5,6,6,7,7,7,8,8,8,9,10,10,11,11,11,11,12,12,13,14,14,14,15,15,15,15,16
participant_4_MINIONSKILLED,0,0,0,0,0,0,3,3,3,3,5,7,7,7,10,10,16,21,22,28,33,34,34,38,40,43,54,64,65,69,72,77,82,82,86,91
participant_4_KILLS,0,0,0,0,0,0,0,0,0,1,1,3,3,3,4,4,4,4,4,6,6,6,6,6,6,7,8,9,9,9,10,10,10,10,11,11
participant_4_BUY,[],"[1055, 2003, 3340]",[],[],[],[],"[1053, 2003, 2003, 2003]",[],[],"[1036, 1001, 1036, 2003, 2003, 2003, 2003]",[],[],[3134],[3047],[],[],[],"[6692, 1036]",[],[],"[3133, 3067]",[],[],[3071],[],[],"[3044, 1028]",[],[],[],[],[3053],[3067],[],[],[]
participant_4_SOLD,[],[],[],[2003],[],[],[],[],"[2003, 2003]",[2003],[],[],"[1036, 1036]",[1001],[],[],"[2003, 2003]","[3134, 1053]",[],[],[1036],[2003],[],"[3133, 3067]",[],[2003],[],[],[],[],[],"[3044, 1028]",[],[],[],[]
participant_4_UNDO,[],[],[],[],[],[],[],[],[],[],[],[],[],[],[],[],[],[],[],[],[],[],[],[],[],[],[],[],[],[],[],[],[],[],[],[]
participant_5_GOLD,500,500,520,811,1102,1357,1630,1815,2126,2263,2618,2963,3148,3711,4027,4212,4625,4907,5554,6026,6371,6695,6902,7367,7693,7815,8643,9220,9867,10171,10293,10491,10788,10924,11047,12376
participant_5_CURRENTGOLD,500,0,20,311,602,857,355,540,851,188,543,888,1073,1636,152,337,750,1032,1679,51,396,420,627,1092,1418,140,968,1545,493,796,118,316,613,750,72,1401
participant_5_LEVEL,1,1,1,3,4,5,6,6,7,7,8,8,9,10,10,10,11,11,11,12,12,12,13,13,13,13,14,14,15,15,15,15,15,16,16,16
participant_5_MINIONSKILLED,0,0,0,10,19,24,30,34,45,46,56,66,70,83,91,95,109,115,120,120,124,127,133,136,137,137,137,149,149,156,156,156,159,160,160,163
participant_5_KILLS,0,0,0,0,0,0,0,0,0,0,1,1,1,1,2,3,4,4,4,5,7,9,9,9,10,10,10,10,11,11,11,11,11,11,11,11
participant_5_BUY,[],"[2033, 3340]",[],[],"[1052, 2055]",[],[],[],"[1026, 2055]",[],[],"[3802, 1001]",[],[],[6655],[],[3020],[2055],[],"[3916, 2055, 3364]",[],"[3165, 2420]",[],[1052],[],"[3191, 1052]",[],[3157],"[2055, 2055]",[],[],[],[],[1058],[],[]
participant_5_SOLD,[],[],[],[],[],[],[],[2055],[],[],[],[1052],[2055],[],"[3802, 1026]",[],[1001],[2055],[],[3340],[],[3916],[],[2055],[],"[1052, 2033]",[],"[3191, 2420, 1052]",[],[2055],[],[2055],[],[],[],[]
participant_5_UNDO,[],[],[],[],[],[],[],[],[],[],[],[],[],[],[],[],[],[],[],[],[],[],[],[],[],[],[],[],[],[],[],[],[],[],[],[]
participant_6_GOLD,500,500,620,948,1148,1513,1698,1925,2245,2640,2810,3031,3292,3903,4226,4492,4734,5131,5494,5932,6442,6956,7080,7524,7885,8191,8429,8686,9027,9222,9497,9677,10380,10601,10738,10888
participant_6_CURRENTGOLD,500,0,120,448,648,1013,98,325,645,1040,235,456,367,978,451,417,659,1056,319,157,667,1181,430,874,210,516,4,261,313,507,782,563,1265,87,223,373
participant_6_LEVEL,1,1,2,3,3,4,4,4,5,6,6,7,7,8,8,8,9,9,10,10,11,11,11,12,12,12,12,13,13,13,13,14,14,14,14,15
participant_6_MINIONSKILLED,0,0,0,0,0,0,0,0,0,0,0,0,0,0,0,7,7,7,7,12,18,19,19,26,26,33,34,34,37,41,45,48,62,63,64,66
participant_6_KILLS,0,0,0,0,0,0,0,0,0,0,0,0,0,0,0,0,0,0,1,2,2,2,2,3,3,3,5,5,6,6,6,6,6,6,6,7
participant_6_BUY,[],"[2033, 3340]",[],[],[],[],"[3057, 2055]",[],[],[3067],[],[],[],[],[6632],[],[],[],[],"[3047, 3082]",[],[1029],[],[],[],[3143],[],[],"[3076, 1011]",[],[3075],[],[],[],[3067],[]
participant_6_SOLD,[],[],[],[],[2010],[2010],[],[2055],[2010],[],[],[],[],[],"[3057, 3067]",[],[],[],[],[],[],[],[],[],[],"[3082, 1029]",[],[],[],[],"[2033, 3076, 1011]",[],[],[],[],[]
participant_6_UNDO,[],[],[],[],[],[],[],[],[],[],[],[],[],[],[],[],[],[],[],[],[],[],[],[],[],[],[],[],[],[],[],[],[],[],[],[]
participant_7_GOLD,500,500,583,892,1106,1452,1631,1900,2057,2229,2958,3170,3433,3894,4442,4840,5339,5654,5889,6311,7834,8835,8958,9151,9735,9879,10085,10426,10849,10981,11103,11373,11704,11916,12039,12250
participant_7_CURRENTGOLD,500,0,83,382,86,422,601,870,102,274,1003,40,293,754,42,440,139,379,614,161,1684,335,459,216,801,244,450,277,549,682,804,1073,1405,367,490,701
participant_7_LEVEL,1,1,1,3,4,5,5,6,7,7,8,8,8,9,10,11,11,11,12,12,12,13,13,13,13,13,14,14,14,14,14,14,15,15,15,15
participant_7_MINIONSKILLED,0,0,3,11,16,26,29,38,40,43,52,54,59,70,75,78,82,84,88,88,88,92,92,92,99,100,106,106,106,107,107,110,118,119,119,120
participant_7_KILLS,0,0,0,0,0,0,0,0,1,1,1,1,1,1,1,1,1,2,2,2,2,2,2,2,3,3,3,3,3,3,3,4,4,4,4,4
participant_7_BUY,[],"[3858, 2003, 2003]",[],[],[],[],"[1001, 1029, 2055]",[],[],[],[],[],[3105],[],[3190],[],[],[],[],"[3047, 3364]",[],[],"[1057, 1028]",[],[1011],[],[],[3001],[],[],[],"[1029, 1027]",[],[],[],[]
participant_7_SOLD,[],[],[],[],[],[],[],[2055],[2010],[],"[2003, 2010, 2003, 3858, 2010]",[],[1029],[],[3105],[],[],[],[],"[1001, 3340]",[],[3859],[],[],[1028],[],[],"[1011, 1057]",[],[],[],[],[],[],[],[]
participant_7_UNDO,[],[],[],[],[],[],[],[],[],[],[],[],[],[],[],[],[],[],[],[],[],[],[],[],[],[],[],[],[],[],[],[],[],[],[],[]
participant_8_GOLD,500,500,625,976,1295,1599,2078,2441,2908,3150,3840,4021,4431,4808,5417,5854,6078,6430,6697,6870,7247,7634,7953,8635,9016,9139,9491,9937,10206,10747,10939,11382,11504,11851,12002,12773
participant_8_CURRENTGOLD,500,0,125,476,795,1099,28,391,858,100,790,621,1031,1408,2017,1604,413,765,1032,105,482,24,343,1025,406,529,881,427,696,1237,1430,472,594,942,217,989
participant_8_LEVEL,1,1,1,2,3,4,4,5,6,6,7,7,8,8,9,9,9,10,10,10,11,11,11,12,12,12,13,13,13,14,14,14,14,14,14,15
participant_8_MINIONSKILLED,0,0,6,16,27,34,37,48,56,63,76,79,93,103,109,124,126,135,139,139,145,147,157,167,171,171,181,187,192,204,208,218,218,220,222,228
participant_8_KILLS,0,0,0,0,0,0,1,1,1,1,2,2,2,2,3,3,3,3,3,3,3,3,3,4,4,4,4,4,4,4,4,4,4,4,4,5
participant_8_BUY,[],"[1055, 2003, 3340]",[],[],[],[],"[3134, 1036, 2003, 2003]",[],[],"[1053, 1001, 2031]",[],[1036],[],[],[],[6692],"[3009, 1037, 3363]",[],[],[3134],[],[6676],[],[],"[2015, 1042]",[],[],[3086],[],[],[],"[3094, 1018]",[],[],[1037],[]
participant_8_SOLD,[],[],[],[],[],[2003],[],[],[2003],"[2003, 1036]",[],[],[],[],[],"[3134, 1036, 1053]","[1001, 2031, 3340]",[],[],[],[],"[1055, 3134, 1037]",[],[],[],[],[],[1042],[],[],[],"[3086, 2015]",[],[],[],[]
participant_8_UNDO,[],[],[],[],[],[],[],[],[],[],[],[],[],[],[],[],[],[],[],[],[],[],[],[],[],[],[],[],[],[],[],[],[],[],[],[]
participant_9_GOLD,500,500,543,759,936,1154,1439,1681,2184,2319,2790,2931,3170,3462,3699,3860,4150,4480,4671,4861,5152,5605,5746,5975,6369,6519,6895,7185,7400,7562,7702,8143,8314,8454,8595,8735
participant_9_CURRENTGOLD,500,0,43,259,436,654,264,506,1009,1144,1615,1756,795,1087,124,285,576,906,1096,486,777,1230,71,301,194,344,720,110,326,487,627,418,589,730,870,1010
participant_9_LEVEL,1,1,1,2,3,4,4,5,5,6,6,7,7,7,7,8,8,9,9,9,10,10,10,11,11,11,12,12,12,12,12,13,13,13,13,13
participant_9_MINIONSKILLED,0,0,1,3,5,7,7,10,11,11,13,13,15,18,19,20,20,21,21,21,21,22,22,23,23,23,24,24,24,25,25,25,27,27,27,27
participant_9_KILLS,0,0,0,0,0,0,0,0,0,0,0,0,0,1,1,1,1,1,1,1,1,1,1,1,1,1,1,1,1,1,1,1,1,1,1,1
participant_9_BUY,[],"[1035, 2031]",[],[],[],[],"[3134, 3364]",[],[],[],"[1053, 2055]",[],[1036],[],[6692],"[1036, 1001]",[],[],[3134],[3009],[],[],[1037],[],[3142],[],"[1028, 1036]",[],[1036],[],[],[3134],[],[3814],[],[]
participant_9_SOLD,[],[],[],[],[],[],[3340],[],[],[1035],[],[2055],[],[],"[3134, 1036, 1053]",[],[],[],[],[1001],[],[],[],[],"[3134, 1037]",[],[],[],[2031],[],[],"[1036, 1036]",[],"[3134, 1028]",[],[]
participant_9_UNDO,[],[],[],[],[],[],[],[],[],[],[],[],[],[],[],"[[0, 1036]]",[],[],[],[],[],[],[],[],[],[],[],[],[],[],[],[],[],[],[],[]
team0_KILLS,0,0,0,0,0,0,1,1,1,2,2,5,5,5,7,7,8,8,8,11,11,12,13,14,15,18,19,21,25,25,28,29,29,31,35,40
team0_CURRENTGOLD,2500,0,363,1733,2695,4167,2875,1478,2605,2821,1937,4864,2982,3262,4061,5945,5918,2801,3835,4682,4569,3883,2382,2495,3784,5316,4000,3628,7150,3665,6779,4596,1759,4167,8625,12901
team0_TOTALGOLD,2500,2500,2863,4243,5555,7027,8820,10108,11545,13046,14112,17039,18293,19372,21714,23598,25271,26518,27553,30300,32137,34351,36150,38098,39737,42604,43977,45970,49493,50797,53911,56123,57409,59818,64277,68491
team0_LEVEL,5,5,6,13,18,22,24,26,29,32,33,36,38,39,41,44,45,48,49,52,53,55,57,59,59,61,63,65,69,70,71,74,74,77,79,83
team0_SBIRES,0,0,9,34,53,88,107,133,163,185,203,223,227,248,273,299,321,341,354,366,389,416,432,442,458,469,480,503,519,532,547,578,589,612,638,665
team1_KILLS,0,0,0,0,0,0,1,1,2,2,4,4,4,5,7,8,9,10,11,13,15,17,17,19,21,21,23,23,25,25,25,26,26,26,26,28
team1_CURRENTGOLD,2500,0,391,1876,2567,4045,1346,2632,3465,2746,4186,3761,3559,5863,2786,3083,2537,4138,4740,960,4006,3190,1930,3508,3029,1773,3023,2620,2377,3709,3761,2842,4466,2876,1872,4474
team1_TOTALGOLD,2500,2500,2891,4386,5587,7075,8476,9762,11520,12601,15016,16116,17474,19778,21811,23258,24926,26602,28305,30000,33046,35725,36639,38652,40698,41543,43543,45454,47349,48683,49534,51066,52690,53746,54421,57022
team1_LEVEL,5,5,6,13,17,22,23,26,30,32,35,37,39,42,44,46,48,50,52,53,56,57,58,61,61,61,65,66,67,68,68,70,71,72,72,74
team1_SBIRES,0,0,10,40,67,91,103,130,152,163,197,212,237,274,294,324,344,362,375,380,396,407,423,444,456,464,482,500,508,533,541,557,584,589,592,604
delta_KILLS,0,0,0,0,0,0,0,0,-1,0,-2,1,1,0,0,-1,-1,-2,-3,-2,-4,-5,-4,-5,-6,-3,-4,-2,0,0,3,3,3,5,9,12
delta_CURRENTGOLD,0,0,-28,-143,128,122,1529,-1154,-860,75,-2249,1103,-577,-2601,1275,2862,3381,-1337,-905,3722,563,693,452,-1013,755,3543,977,1008,4773,-44,3018,1754,-2707,1291,6753,8427
delta_TOTALGOLD,0,0,-28,-143,-32,-48,344,346,25,445,-904,923,819,-406,-97,340,345,-84,-752,300,-909,-1374,-489,-554,-961,1061,434,516,2144,2114,4377,5057,4719,6072,9856,11469
delta_LEVEL,0,0,0,0,1,0,1,0,-1,0,-2,-1,-1,-3,-3,-2,-3,-2,-3,-1,-3,-2,-1,-2,-2,0,-2,-1,2,2,3,4,3,5,7,9
delta_SBIRES,0,0,-1,-6,-14,-3,4,3,11,22,6,11,-10,-26,-21,-25,-23,-21,-21,-14,-7,9,9,-2,2,5,-2,3,11,-1,6,21,5,23,46,61
