name,frame_0,frame_1,frame_2,frame_3,frame_4,frame_5,frame_6,frame_7,frame_8,frame_9,frame_10,frame_11,frame_12,frame_13,frame_14,frame_15,frame_16,frame_17,frame_18,frame_19,frame_20,frame_21,frame_22,frame_23,frame_24,frame_25,frame_26,frame_27,frame_28,frame_29,frame_30,frame_31,frame_32,frame_33,frame_34,frame_35,frame_36,frame_37,frame_38,frame_39,frame_40
nameStamp,Tstart,Tearly,Tearly,Tearly,Tearly,Tearly,Tearly,Tearly,Tearly,Tearly,Tearly,Tearly,Tearly,Tearly,Tearly,Tearly,Tearly,Tmid,Tmid,Tmid,Tmid,Tmid,Tmid,Tmid,Tmid,Tmid,Tmid,Tmid,Tmid,Tmid,Tmid,Tmid,Tmid,Tmid,Tmid,Tmid,Tmid,Tmid,Tmid,Tmid,Tmid
timestamp,0,60023,120042,180050,240071,300081,360098,420112,480133,540144,600172,660202,720225,780226,840240,900241,960263,1020265,1080267,1140313,1200324,1260347,1320372,1380396,1440403,1500434,1560439,1620459,1680468,1740494,1800510,1860520,1920524,1980525,2040534,2100537,2160555,2220588,2280612,2340616,2400616
participant_0_GOLD,500,500,556,699,1001,1179,1407,1724,1999,2306,2498,2663,3260,3682,4095,4217,4390,4526,4704,5278,5550,5672,6009,6216,6479,6601,6765,7077,7242,7448,7570,7862,8097,8219,8343,8464,8637,8760,8882,9004,9027
participant_0_CURRENTGOLD,500,0,56,199,501,679,907,274,549,856,213,378,975,1397,1810,67,240,76,204,778,1050,372,709,916,1179,1301,1465,1777,342,548,670,962,1197,1319,1443,1564,1737,1860,1982,2105,2127
participant_0_LEVEL,1,1,1,2,4,5,6,6,7,8,8,8,9,10,10,10,11,11,11,12,12,12,12,12,12,12,13,13,13,13,13,14,14,14,14,14,14,14,14,14,14
participant_0_MINIONSKILLED,0,0,2,3,11,14,20,22,28,35,39,42,48,56,60,60,60,61,65,68,68,68,75,75,75,75,78,81,84,89,89,95,95,95,95,95,95,95,95,95,95
participant_0_KILLS,0,0,0,0,0,0,0,0,0,0,0,0,0,0,0,1,1,1,2,2,2,2,2,2,2,2,2,2,2,2,2,2,3,5,5,5,5,5,5,5,5
participant_0_BUY,[],"[1055, 2003, 3340]",[],[],[],[1052],[],[],[1037],[],[1001],[],[],[1018],[],[],[],[3031],[],[],[],[1043],[],[],[],[],"[3124, 1042]",[],[],[],[1031],[],[],"[3026, 3006]",[],[],[1042],[3086],[],[],[]
participant_0_SOLD,[],[],[],[],[],[],[],[],[],[],[],[],[],[],[],[],[],"[1037, 1018]",[],[],[],[],[],[],[],[],"[2003, 1052, 1043]",[],[],[],[],[],[],"[1031, 1001, 1042]",[],[],[],"[1042, 1055]",[],[],[]
participant_0_UNDO,[],[],[],[],[],[],[],[],[],[],[],[],[],[],[],[],[],[],[],[],[],[],[],[],[],[],[],[],[],[],[],[],[],[],[],[],[],[],[],[],[]
participant_1_GOLD,500,500,629,751,874,1073,1358,1580,1802,1925,2170,2398,2697,2904,3127,3249,3986,4108,4439,4661,4969,5136,5444,5566,5738,5875,6011,6378,6500,6623,6845,6968,7232,7354,7777,7920,8093,8216,8491,8750,8773
participant_1_CURRENTGOLD,500,0,129,101,224,423,708,930,1152,175,420,648,947,1154,1377,849,1586,208,539,61,369,536,844,91,263,400,186,103,225,348,170,292,556,104,527,670,443,265,541,200,223
participant_1_LEVEL,1,1,2,2,2,2,3,3,4,4,4,5,6,6,7,7,8,8,8,9,9,9,10,10,10,10,10,10,10,11,11,11,11,11,12,12,12,12,13,13,13
participant_1_MINIONSKILLED,0,0,0,0,0,0,0,0,0,0,0,7,15,15,15,15,20,20,20,20,20,23,23,23,23,24,25,27,27,27,27,27,27,27,33,34,34,34,35,37,37
participant_1_KILLS,0,0,0,0,0,0,0,0,0,0,0,0,0,0,0,0,1,1,1,1,1,1,1,1,1,1,1,1,1,1,1,1,1,1,1,1,1,1,1,1,1
participant_1_BUY,[],"[1041, 1006]",[],"[3364, 2031]",[],[],[],[],[],[3047],[],[],[],[],[],[3706],[],[1401],[],"[1036, 1036]",[],[],[],"[3077, 1028]",[],[],[1036],[3052],[],[],[1028],[],[],[3748],[],[],[1028],[1029],[],[1011],[]
participant_1_SOLD,[],[],[],[3340],[],[],[],[],[],[],[],[],[],[],[],[1041],[],[3706],[],[],[],[],[],"[1036, 1006, 1036]",[],[],[],"[1036, 1028]",[],[],[],[],[],"[3077, 1028, 3052]",[],[],[],[],[],[1028],[]
participant_1_UNDO,[],[],[],[],[],[],[],[],[],[],[],[],[],[],[],[],[],[],[],[],[],[],[],[],[],[],[],[],[],[],[],[],[],[],[],[],[],[],[],[],[]
participant_2_GOLD,500,500,598,811,997,1238,1567,1759,2404,2555,2959,3499,4271,4456,4674,4913,5349,5652,6888,7460,7911,8075,8518,8641,9663,9806,10529,10784,10942,11524,11732,11854,12004,12277,12414,12605,12957,13156,13278,14422,14444
participant_2_CURRENTGOLD,500,0,98,311,497,738,1067,209,854,105,509,1049,71,256,474,713,309,612,1848,2420,21,185,628,751,1773,1917,689,945,352,935,1142,414,565,402,540,731,1082,1282,1404,2548,2509
participant_2_LEVEL,1,1,1,3,4,5,6,6,7,8,8,9,9,9,10,10,10,10,11,12,12,12,12,12,12,13,13,13,13,13,13,13,13,14,14,14,14,14,14,15,15
participant_2_MINIONSKILLED,0,0,4,10,14,18,27,32,42,44,58,62,62,65,67,70,73,80,81,91,93,96,97,97,97,98,98,98,100,105,105,105,107,107,108,112,114,118,118,119,119
participant_2_KILLS,0,0,0,0,0,0,0,0,1,1,1,2,4,4,4,4,4,4,7,8,9,9,10,10,12,12,13,13,13,14,14,14,14,14,14,14,14,14,14,15,15
participant_2_BUY,[],"[1036, 2031, 3340]",[],[],[],[],[],[3145],[],"[1053, 1036]",[],[],"[3146, 2420]",[],[],[],[3108],[],[],[],"[3157, 3020, 1028]",[],[],[],[],[],"[3136, 1026]",[],[3151],[],[],[1026],[],[1052],[],[],[],[],[],[],[]
participant_2_SOLD,[],[],[],[],[],[],[],[],[],[1036],[],[],"[1053, 1036, 3145]",[],[],[],[2031],[],[],[],"[3108, 2420]",[],[],[],[],[],[1028],[],"[3136, 1026]",[],[],[],[],[],[],[],[],[],[],[],[]
participant_2_UNDO,[],[],[],[],[],[],[],[],[],[],[],[],[],[],[],[],[],[],[],[],[],[],[],[],[],[],[],[],[],[],[],[],[],[],[],[],[],[],[],[],[]
participant_3_GOLD,500,500,542,818,1109,1252,1599,1854,1990,2183,2326,2669,3002,3201,3366,4235,4670,4834,5342,5808,6104,6318,6607,6939,7234,7537,7805,8019,8233,8526,8648,8771,9175,11272,11652,11864,12212,12438,12802,13163,13185
participant_3_CURRENTGOLD,500,0,42,318,609,317,664,919,180,373,216,559,892,291,456,1325,1760,199,707,1173,1469,683,972,1304,1599,1902,205,419,633,926,248,371,776,372,752,965,1012,229,593,953,585
participant_3_LEVEL,1,1,1,2,3,3,4,5,5,5,5,6,7,7,7,7,8,8,9,9,10,10,10,10,11,11,11,11,12,12,12,12,12,13,13,13,13,14,14,14,14
participant_3_MINIONSKILLED,0,0,1,10,20,21,32,39,40,44,45,49,58,62,64,68,68,70,72,76,82,87,92,100,104,111,115,117,122,123,123,123,123,129,136,141,147,149,154,156,156
participant_3_KILLS,0,0,0,0,0,0,0,0,0,0,0,0,0,0,0,0,0,0,0,0,0,0,0,0,0,0,0,0,0,0,0,0,0,0,0,0,0,0,0,0,0
participant_3_BUY,[],"[3850, 2003, 2003, 3340]",[],[],[],"[1004, 1004]",[],[],[3114],[],[],"[1001, 1004]",[],[],[],[],[3117],[],[],[3028],[],[3801],[],[],[],[3107],[],[],[1031],[],[],[],[],[3067],[],[3109],[],[],[],[3801],[]
participant_3_SOLD,[],[],[],[],[],[],[],[2003],"[2003, 1004]",[],[],[],[],[],[],[],[1001],[],[3850],[1004],[],[],[],[],[],"[3114, 3801]",[],[],[],[],[],[],[],[3851],[],"[3067, 1031]",[],[],[],[3853],[]
participant_3_UNDO,[],[],[],[],[],"[[0, 1004]]",[],[],[],[],[],[],[],[],[],[],[],[],[],[],[],[],[],[],[],[],[],[],[],[],[],[],[],[],[],[],[],[],[],[],[]
participant_4_GOLD,500,500,523,657,837,971,1135,1284,1433,1617,1780,1915,2079,2243,2408,2662,3062,3211,3537,3678,3854,4009,4290,4430,4621,4791,5020,5240,5380,5536,5721,5861,6089,6409,6551,6711,7052,7207,7357,7495,7518
participant_4_CURRENTGOLD,500,0,23,157,337,346,510,659,133,317,480,190,354,518,683,937,637,786,1112,578,754,259,540,680,871,391,620,840,180,336,521,661,889,409,551,111,453,607,757,406,268
participant_4_LEVEL,1,1,1,2,3,3,4,5,5,6,6,6,7,7,7,7,8,8,8,9,9,9,9,9,10,10,10,11,11,11,11,11,11,12,12,12,12,12,12,12,12
participant_4_MINIONSKILLED,0,0,0,0,0,0,1,1,1,4,5,5,5,5,5,5,5,5,5,5,6,6,8,8,8,8,9,10,10,10,10,10,12,12,12,13,13,14,15,15,15
participant_4_KILLS,0,0,0,0,0,0,0,0,0,0,0,0,1,1,1,1,1,1,1,2,2,2,2,2,2,2,2,2,2,2,2,2,2,2,2,2,2,2,2,2,2
participant_4_BUY,[],"[1054, 2003, 3340]",[],[],[],[],[],"[1026, 2003, 2003]",[],[],"[1028, 1052]",[],[],[],[],"[3116, 1026, 2003, 2003]",[],[1001],[2003],[],[],[3047],[],[],[],[],[],[],"[3136, 2003, 2003]",[],[],[],[],[],[],[],[],[],[],[],[]
participant_4_SOLD,[],[],[],[],[2003],[],[],[],[],[],[2003],[],[],[],[2003],"[1026, 1052, 1028]","[2003, 2003]",[],[],[2003],[],[1001],[],[],[],[],[],[],[],[],[],[],"[2003, 2003]",[],[],[],[],[],[],[],[]
participant_4_UNDO,[],[],[],[],[],[],[],[],[],[],[],[],[],[],[],[],[],[],[],[],[],[],[],[],[],[],[],[],[],[],[],[],[],[],[],[],[],[],[],[],[]
participant_5_GOLD,500,500,523,713,950,1119,1282,1444,1620,1846,2252,2706,2887,3031,3187,3342,3518,4048,4182,4419,4741,4947,5132,5298,5571,5851,6116,6480,6960,7130,7270,7424,7565,8252,8408,8602,8844,9059,9199,9459,9485
participant_5_CURRENTGOLD,500,0,23,213,450,619,107,269,445,671,1077,1531,12,156,311,117,293,823,332,568,891,1097,607,773,1045,1326,1591,455,935,1104,570,724,865,1552,408,602,844,1059,389,649,635
participant_5_LEVEL,1,1,1,3,4,5,5,6,6,7,8,9,9,9,10,10,11,11,11,11,12,12,12,12,12,13,13,13,13,14,14,14,14,14,14,15,15,15,15,15,15
participant_5_MINIONSKILLED,0,0,0,3,6,8,10,12,14,19,24,30,36,37,39,40,43,46,46,48,51,54,55,57,58,58,58,59,63,64,64,65,65,65,66,66,66,66,66,67,67
participant_5_KILLS,0,0,0,0,0,0,0,0,0,0,0,0,0,0,0,0,0,0,0,0,0,0,0,0,0,0,0,0,0,0,0,0,0,1,1,1,1,1,1,1,1
participant_5_BUY,[],"[3850, 2003, 2003, 3340]",[],[],[],[],"[1001, 1004, 1004, 1004]",[],[],[],[],[],"[3117, 3114, 1033]",[],[],"[3028, 1004]",[],[],"[3222, 1004]",[],[],[],"[3114, 1004]",[],[],[],[],[3504],[],[],[3114],[],[],[],[3107],[],[],[],[1026],[],[]
participant_5_SOLD,[],[],[],[],[],[],[],[],[],[],[],[],"[1001, 1004, 1004]",[],[],"[1004, 1033]",[],[],"[3028, 3114]",[],[],[],"[1004, 1004]",[],[3850],[],[],[3114],[],[],[1004],[],[],[3851],[3114],[],[],[],"[2003, 2003]",[],[]
participant_5_UNDO,[],[],[],[],[],[],[],[],[],[],[],[],[],[],[],[],[],[],[],[],[],[],[],[],[],[],[],[],[],[],[],[],[],[],[],[],[],[],[],[],[]
participant_6_GOLD,500,500,621,908,1086,1490,1698,1925,2304,2653,3189,3498,3621,4268,4685,5127,5350,6212,6334,6732,7080,7292,7415,7626,8001,8308,9090,9640,9826,10099,10435,11546,11971,12674,12797,13000,13455,13954,14391,15134,15327
participant_6_CURRENTGOLD,500,0,121,408,586,990,1198,1425,1804,2153,2689,548,271,918,1335,2,225,1087,1209,1607,1955,117,240,450,826,1133,115,665,851,1124,360,1471,556,159,283,486,940,565,1002,1745,1877
participant_6_LEVEL,1,1,2,2,3,4,4,5,5,6,6,7,7,8,8,8,9,9,9,10,11,11,11,11,11,12,12,12,12,13,13,13,14,14,14,14,15,15,16,16,16
participant_6_MINIONSKILLED,0,0,0,0,0,0,0,0,0,0,0,8,8,8,8,8,8,8,8,8,10,11,11,11,12,13,13,13,14,15,15,16,20,20,20,21,23,30,30,30,30
participant_6_KILLS,0,0,0,0,0,0,0,0,1,1,2,2,2,2,2,2,2,2,2,3,5,5,5,5,5,5,5,7,7,8,9,9,9,9,9,9,9,11,11,11,11
participant_6_BUY,[],"[1055, 2003, 3340]",[],[],[],[],[],[],[],"[1038, 1036, 2031]",[],[],"[3006, 1036]",[],[],[],[],[],"[3508, 1042, 1042]",[],[],[],[],[],"[3085, 1037]",[],[],[],[1038],[],[3031],[],[],[],[1038],[],[],[],[3072],[3123],[]
participant_6_SOLD,[],[],[],[],[2003],[],[],[],[],[],[],[],[2422],[],[],[],[],[],"[1038, 1036, 1036]",[],[],[],[],[],"[1042, 1042, 1055]",[],[],[],[],[],"[1038, 1037]",[],[],[],[],[],[],[],[1038],[2031],[]
participant_6_UNDO,[],[],[],[],[],[],[],[],[],[],[],[],[],[],[],[],[],[],[],[],[],[],[],[],[],[],[],[],[],[],[],[],[],[],[],[],[],[],[],[],[]
participant_7_GOLD,500,500,563,720,857,1014,1235,1434,1944,2138,2261,2397,2520,2656,2873,3052,3188,3411,3533,3655,3936,4059,4223,4414,4591,4714,4901,5215,5388,5821,6097,6269,6434,7134,7341,7554,7805,8019,8141,8397,8419
participant_7_CURRENTGOLD,500,0,63,220,357,514,735,934,1444,338,461,597,720,856,1073,1252,538,761,883,1005,1286,1409,223,414,591,714,901,1215,1388,1821,2097,219,384,1084,191,404,655,869,241,497,519
participant_7_LEVEL,1,1,1,2,4,5,6,6,7,7,7,8,8,8,9,9,10,10,10,10,10,10,11,11,11,11,11,12,12,13,13,13,13,14,14,14,14,15,15,15,15
participant_7_MINIONSKILLED,0,0,2,4,5,7,13,17,18,19,19,20,20,21,23,26,27,27,27,27,28,28,30,30,30,30,30,33,33,39,39,39,42,42,47,49,51,52,52,52,52
participant_7_KILLS,0,0,0,0,0,0,0,0,0,0,1,1,1,2,3,4,4,6,6,6,6,6,6,6,7,7,9,10,10,10,10,11,12,14,14,14,14,14,14,16,16
participant_7_BUY,[],"[3340, 2031, 1041]",[],[],[],[],[],[],[],[],[],"[3706, 3047, 1036, 1036]",[3133],[],[],"[1400, 3044]",[],[],[],[],[],"[3071, 1029]",[],[],[],[],"[1038, 1031]",[],[],[],"[3026, 1028]",[],"[1011, 1031]",[3742],[],[],[],[1037],[],[],[]
participant_7_SOLD,[],[],[],[],[],[],[],[],[],[],[],[1041],"[1036, 1036]",[],[],"[3133, 3706]",[],[],[],[],[],[3044],[],[],[],[],[1029],[],[],[],"[1038, 1031]",[],"[1028, 2031]","[1031, 1011]",[],[],[],[],[],[],[]
participant_7_UNDO,[],[],[],[],[],[],[],[],[],[],[],[],[],[],[],[],[],[],[],[],[],[],[],[],[],[],[],[],[],[],[],[],[],[],[],[],[],[],[],[],[]
participant_8_GOLD,500,500,556,776,1060,1385,1641,1941,2567,2690,3210,3590,3810,4213,4455,4689,4868,5345,5467,5974,7613,7820,8026,8280,8403,8770,9180,9948,10367,10869,11132,11499,11879,12714,13005,13469,13699,14582,14782,15036,15059
participant_8_CURRENTGOLD,500,0,56,276,560,885,1141,1441,2067,390,910,1290,360,763,1005,1239,1418,1895,117,624,2263,2470,2676,2930,358,725,1135,1903,1023,1525,562,930,1309,2145,1135,1600,1829,2713,713,227,9
participant_8_LEVEL,1,1,1,2,3,4,4,5,6,6,6,6,7,7,8,8,9,9,9,10,10,10,10,11,11,11,11,12,12,12,12,13,13,14,14,14,14,15,15,15,15
participant_8_MINIONSKILLED,0,0,2,8,17,26,33,41,44,44,50,61,67,74,81,88,91,97,97,102,107,112,117,121,121,128,137,144,148,153,153,160,166,177,182,192,195,207,211,215,215
participant_8_KILLS,0,0,0,0,0,0,0,0,0,0,0,0,0,0,0,0,0,1,1,1,2,2,2,3,3,4,4,4,4,5,7,7,7,7,7,8,9,10,10,11,12
participant_8_BUY,[],"[3850, 2003, 2003, 3340]",[],[],[],[],[],[],"[1001, 1026]",[],[],[],[1027],[],[],[],[],[],"[3285, 2003, 1082]",[],[3020],[],[],[],[],[],[3041],[1052],[],[],[],[],[],[3157],[],[],[],[],[3916],[],[]
participant_8_SOLD,[],[],[],[],[2003],[],[],[],[],[],[],[2010],[],[],[3850],[],[],[],"[1027, 1026]",[],[1001],[],[],[],"[3851, 2003, 2010]",[2003],"[2010, 1082]",[],[],[],[],[],[],[1052],[],[],[],[],[],[],[]
participant_8_UNDO,[],[],[],[],[],[],[],[],[],[],[],[],[],[],[],[],[],[],[],[],[],[],[],[],[],[],[],[],[],[],[],[],[],[],[],[],[],[],[],[],[]
participant_9_GOLD,500,500,523,686,940,1088,1268,1468,1699,1833,2221,2355,2511,2902,3220,3549,3778,4378,4547,4687,5210,5413,5554,5999,6239,6679,6885,7047,7349,7895,8579,8895,9145,9359,9619,9977,10569,10954,11094,11399,11724
participant_9_CURRENTGOLD,500,0,23,186,440,588,768,968,49,183,571,705,511,902,1220,1549,1778,2378,147,287,10,213,354,799,1039,1479,635,362,664,1211,1894,2210,2460,209,469,828,1419,1804,344,649,974
participant_9_LEVEL,1,1,1,2,3,4,4,5,5,5,6,6,6,7,7,8,8,9,9,9,9,10,10,10,10,11,11,11,11,12,12,12,13,13,13,13,13,14,14,14,14
participant_9_MINIONSKILLED,0,0,0,1,3,4,4,5,5,5,7,7,8,11,11,13,14,14,16,16,16,20,20,20,20,20,20,20,22,26,26,26,26,26,29,29,29,31,31,31,31
participant_9_KILLS,0,0,0,0,0,0,0,0,1,1,1,1,1,1,1,1,1,1,1,1,1,1,1,1,1,1,1,1,1,1,1,1,1,2,2,2,2,2,2,2,2
participant_9_BUY,[],"[1056, 2003, 2003, 3340]",[],[],[],[],[],[],[],[3802],[],[],[],[],[],[],[1026],[],[],[],[],[],"[3285, 1001]",[],[],[],[],[],[],[],[],"[3020, 1026, 1028]",[],[],[3136],[],[],[],[3151],[],[]
participant_9_SOLD,[],[],[],[2003],[],[],[2003],[],[],[],[],[],[],[],[],[],[],[],[],[],[],[],"[3802, 1026]",[],[],[],[],[],[],[],[],[1001],[],[],[1028],[],[],[],"[3136, 1026]",[],[]
participant_9_UNDO,[],[],[],[],[],[],[],[],[],[],[],[],[],[],[],[],[],[],[],[],[],[],[],[],[],[],[],[],[],[],[],[],[],[],[],[],[],[],[],[],[]
team0_KILLS,0,0,0,0,0,0,0,0,1,1,1,2,5,5,5,6,7,7,11,13,14,14,15,15,17,17,18,18,18,19,19,19,20,22,22,22,22,22,22,23,23
team0_CURRENTGOLD,2500,0,348,1086,2168,2503,3856,2991,2868,1826,1838,2824,3239,3616,4800,3891,4532,1881,4410,5010,3663,2035,3693,3742,5685,5911,3165,4084,1732,3093,2751,2700,3983,2606,3813,4041,4727,4243,5277,6212,5712
team0_TOTALGOLD,2500,2500,2848,3736,4818,5713,7066,8201,9628,10586,11733,13144,15309,16486,17670,19276,21457,22331,24910,26885,28388,29210,30868,31792,33735,34610,36130,37498,38297,39657,40516,41316,42597,45531,46737,47564,48951,49777,50810,52834,52947
team0_LEVEL,5,5,6,11,16,18,23,25,28,31,31,34,38,39,41,41,45,45,47,51,52,52,53,53,55,56,57,58,59,60,60,61,61,64,65,65,65,66,67,68,68
team0_SBIRES,0,0,7,23,45,53,80,94,111,127,147,165,188,203,211,218,226,236,243,260,269,280,295,303,307,316,325,333,343,354,354,360,364,370,384,395,403,410,417,422,422
team1_KILLS,0,0,0,0,0,0,0,0,2,2,4,4,4,5,6,7,7,10,10,11,14,14,14,15,16,17,19,22,22,24,27,28,29,33,33,34,35,38,38,41,42
team1_CURRENTGOLD,2500,0,286,1303,2393,3596,3949,5037,5809,3735,5708,4671,1874,3595,4944,4159,4252,6944,2688,4091,6405,5306,4100,5366,3859,5377,4377,4600,4861,6785,5483,5554,5574,5149,2486,3920,5687,7010,2689,3767,4014
team1_TOTALGOLD,2500,2500,2786,3803,4893,6096,7124,8212,10134,11160,13133,14546,15349,17070,18420,19759,20702,23394,24063,25467,28580,29531,30350,31617,32805,34322,36172,38330,39890,41814,43513,45633,46994,50133,51170,52602,54372,56568,57607,59425,60014
team1_LEVEL,5,5,6,11,17,22,23,27,29,31,33,36,37,39,42,43,47,48,48,50,52,53,54,55,55,58,58,60,60,64,64,65,67,69,69,70,71,74,75,75,75
team1_SBIRES,0,0,4,16,31,45,60,75,81,87,100,126,139,151,162,175,183,192,194,201,212,225,233,239,241,249,258,269,280,297,297,306,319,330,344,357,364,386,390,395,395
delta_KILLS,0,0,0,0,0,0,0,0,-1,-1,-3,-2,1,0,-1,-1,0,-3,1,2,0,0,1,0,1,0,-1,-4,-4,-5,-8,-9,-9,-11,-11,-12,-13,-16,-16,-18,-19
delta_CURRENTGOLD,0,0,62,-217,-225,-1093,-93,-2046,-2941,-1909,-3870,-1847,1365,21,-144,-268,280,-5063,1722,919,-2742,-3271,-407,-1624,1826,534,-1212,-516,-3129,-3692,-2732,-2854,-1591,-2543,1327,121,-960,-2767,2588,2445,1698
delta_TOTALGOLD,0,0,62,-67,-75,-383,-58,-11,-506,-574,-1400,-1402,-40,-584,-750,-483,755,-1063,847,1418,-192,-321,518,175,930,288,-42,-832,-1593,-2157,-2997,-4317,-4397,-4602,-4433,-5038,-5421,-6791,-6797,-6591,-7067
delta_LEVEL,0,0,0,0,-1,-4,0,-2,-1,0,-2,-2,1,0,-1,-2,-2,-3,-1,1,0,-1,-1,-2,0,-2,-1,-2,-1,-4,-4,-4,-6,-5,-4,-5,-6,-8,-8,-7,-7
delta_SBIRES,0,0,3,7,14,8,20,19,30,40,47,39,49,52,49,43,43,44,49,59,57,55,62,64,66,67,67,64,63,57,57,54,45,40,40,38,39,24,27,27,27
