name,frame_0,frame_1,frame_2,frame_3,frame_4,frame_5,frame_6,frame_7,frame_8,frame_9,frame_10,frame_11,frame_12,frame_13,frame_14,frame_15,frame_16,frame_17,frame_18,frame_19,frame_20,frame_21,frame_22
nameStamp,Tstart,Tearly,Tearly,Tearly,Tearly,Tearly,Tearly,Tearly,Tearly,Tearly,Tearly,Tmid,Tmid,Tmid,Tmid,Tmid,Tmid,Tmid,Tmid,Tmid,Tmid,Tmid,Tmid
timestamp,0,60003,120004,180035,240058,300092,360097,420129,480149,540179,600183,660209,720222,780228,840232,900264,960269,1020270,1080288,1140299,1200326,1260358,1320358
participant_0_GOLD,1400,1400,1853,2288,2683,3288,3737,4097,4563,5244,5784,6208,7341,7970,8581,8933,9395,10055,10628,11072,12104,12859,14238
participant_0_CURRENTGOLD,1400,0,453,888,1283,288,737,47,513,259,34,458,1591,120,731,208,370,195,768,422,1454,924,2303
participant_0_LEVEL,1,3,4,5,6,7,8,9,9,10,10,11,12,13,14,14,15,16,17,17,18,18,18
participant_0_MINIONSKILLED,0,0,4,5,5,6,8,8,13,14,14,16,24,26,28,29,30,30,36,38,52,58,68
participant_0_KILLS,0,0,0,0,0,0,0,0,0,1,2,2,3,3,3,3,3,4,4,4,5,6,8
participant_0_BUY,[],"[3145, 2031, 1001, 2003]",[],[],[],"[1053, 3144]",[],"[3146, 1042]",[],"[3006, 1052]","[1042, 3108]",[],[],"[3115, 1042]",[],"[1043, 1037]",[1042],"[1043, 1052]",[],[3124],[],"[1058, 1026, 1052]",[]
participant_0_SOLD,[],[],[2052],[2003],[],[1053],[],"[3144, 3145]",[],"[1001, 1042]",[1052],[],[],"[1042, 3108]",[],[1042],[],"[1042, 1042, 2052]",[],"[1052, 1043, 1037]",[],[],[]
participant_0_UNDO,[],"[[0, 2031]]",[],[],[],[],[],[],[],[],[],[],[],[],[],"[[0, 1043]]",[],[],[],[],[],"[[0, 1058]]",[]
participant_1_GOLD,1400,1400,1750,2183,2587,3438,3824,4537,5046,5492,6426,6841,7809,8507,9029,9382,9909,10379,11125,11635,12242,12737,13579
participant_1_CURRENTGOLD,1400,1400,350,483,452,353,739,1452,1961,207,1141,441,1409,807,479,397,924,494,740,1250,1857,137,979
participant_1_LEVEL,1,3,4,5,5,7,7,8,9,10,11,11,12,13,13,14,14,15,16,17,18,18,18
participant_1_MINIONSKILLED,0,0,0,2,4,8,8,9,13,16,23,23,26,28,28,29,30,34,35,38,41,41,43
participant_1_KILLS,0,0,0,0,0,2,2,3,3,3,4,4,6,7,8,8,9,9,11,11,11,11,12
participant_1_BUY,[],[],"[3802, 2003, 2003]",[1001],[1052],"[1026, 2003, 2003]",[],[],[],"[3285, 3020, 1027]",[],"[3057, 3113]",[],[3100],[1026],[1052],[],"[3108, 1052]",[2139],[],[],"[3165, 3135, 1026, 1052, 1026]",[]
participant_1_SOLD,[],[],[],"[2003, 2003]",[],[],[],"[2003, 2003]",[],"[3802, 1026, 1001]",[],"[1027, 1052]",[],"[3057, 3113]",[],[],[],[1052],[2139],[],[],"[1052, 1026, 1026, 1052]",[]
participant_1_UNDO,[],[],[],[],[],[],[],[],[],[],[],[],[],[],[],[],[],[],[],[],[],"[[0, 3165], [0, 1026], [0, 1052]]",[]
participant_2_GOLD,1400,1400,1844,2366,2726,4103,4810,5193,5688,6562,7102,7432,8471,9197,9931,10266,11260,11747,12484,12918,13423,14016,14733
participant_2_CURRENTGOLD,1400,0,444,966,76,1453,727,310,805,479,619,74,1113,214,948,183,827,1314,501,935,540,1133,1850
participant_2_LEVEL,1,3,4,5,6,7,8,8,9,10,10,11,12,13,14,14,15,16,17,17,18,18,18
participant_2_MINIONSKILLED,0,0,3,10,10,15,15,17,20,22,22,22,23,24,28,28,30,34,35,37,37,37,39
participant_2_KILLS,0,0,0,0,0,0,0,0,0,0,1,1,1,1,2,2,3,3,3,4,5,5,7
participant_2_BUY,[],"[1053, 1038, 2003, 2003]",[],[],[],"[3006, 1018]",[],[],[],"[3031, 1042]","[1018, 1042]",[],[],"[3046, 1036]",[],"[1053, 1043, 1036]",[3144],[],[],[],[],"[3153, 3814]",[]
participant_2_SOLD,[],[],[],[2003],[2003],[],[],[],[],"[1038, 1018]",[],[2052],[],"[1042, 1018, 1042]",[],[1036],"[1053, 1036]",[],[],[2052],[],"[3144, 1043]",[]
participant_2_UNDO,[],"[[0, 1053]]",[],[],[],[],[],[],[],[],[],[],[],[],[],[],[],[],[],[],[],[],[]
participant_3_GOLD,1400,1400,1853,2340,2789,3360,3871,4275,4795,5161,6228,6849,7597,8117,9210,9545,10318,10868,11411,12405,13183,13688,14794
participant_3_CURRENTGOLD,1400,0,453,940,1389,60,571,975,1495,261,228,849,1597,567,1660,95,518,1068,1611,2605,3383,288,1394
participant_3_LEVEL,1,3,4,5,6,7,8,8,9,10,10,11,12,13,14,14,15,16,17,18,18,18,18
participant_3_MINIONSKILLED,0,0,4,7,11,16,22,25,30,30,31,42,49,49,62,62,66,74,78,85,93,93,98
participant_3_KILLS,0,0,0,0,0,4,5,5,5,7,8,8,10,11,12,12,13,13,14,14,15,15,15
participant_3_BUY,[],"[3057, 1001, 2003]",[],[],[3044],[],[3078],[3047],[],[3052],[1028],[1037],[],"[3053, 1053]",[],[3105],[1036],[],"[3812, 1029]",[],"[1031, 1028]",[],[]
participant_3_SOLD,[],[],[2003],[],[],[],"[3057, 3044]",[1001],[2052],[],[],[],[],"[3052, 1037, 1028]",[],[],[],[2052],"[3105, 1053, 1036]",[],[1029],[],[]
participant_3_UNDO,[],[],[],[],[],[],[],[],[],[],[],[],[],[],[],[],[],[],[],[],[],[],[]
participant_4_GOLD,1400,1400,1800,2222,2644,3518,4043,4504,4934,5384,5978,6698,7317,7797,8500,8835,9165,9495,9825,10155,10485,10965,11384
participant_4_CURRENTGOLD,1400,0,400,822,1244,218,443,904,1334,1784,1128,1848,2467,597,1300,1635,1965,2295,2625,2955,3285,3765,4184
participant_4_LEVEL,1,3,4,5,6,7,8,8,9,10,11,12,13,13,14,15,15,15,15,16,16,16,16
participant_4_MINIONSKILLED,0,0,0,0,2,3,3,5,5,7,10,10,10,10,13,13,13,13,13,13,13,13,13
participant_4_KILLS,0,0,0,0,0,1,2,2,2,2,2,3,3,3,4,4,4,4,4,4,4,4,4
participant_4_BUY,[],"[3802, 2003, 2003]",[],[],[],[3285],[1001],[],[],[],[1058],[],[],[3089],[],[],[],[],[],[],[],[],[]
participant_4_SOLD,[],[],[],[],[],"[2003, 3802]",[],[],[2003],[],[],[],[],[1058],[],[],[],[],[],[],[],[],[]
participant_4_UNDO,[],[],[],[],[],[],[],[],[],[],[],[],[],[],[],[],[],[],[],[],[],[],[]
participant_5_GOLD,1400,1400,1848,2360,3049,3514,4154,4589,5016,5517,6093,6572,7055,7633,8096,8596,9419,9779,10109,10669,11054,11769,12038
participant_5_CURRENTGOLD,1400,0,448,960,1649,439,1079,489,916,17,593,1072,455,133,596,296,1119,1179,309,869,1254,669,588
participant_5_LEVEL,1,3,4,5,6,7,8,9,9,10,11,11,12,13,13,13,14,15,15,16,16,17,17
participant_5_MINIONSKILLED,0,0,4,9,14,15,21,22,24,28,31,35,41,42,45,45,49,49,49,51,51,57,57
participant_5_KILLS,0,0,0,0,1,1,1,1,1,1,1,1,1,2,2,2,4,4,4,5,5,5,5
participant_5_BUY,[],"[1038, 2003, 2003]",[],[],[],"[1037, 1018]",[],"[3031, 1001, 1042]",[],"[3006, 1042, 1042, 1042]",[],[],[3086],"[3085, 1042]",[],[1018],[],[3086],[3046],[],[],[1038],[1036]
participant_5_SOLD,[],[],[],"[2003, 2003]",[],[],[],"[1038, 1037, 1018]",[],"[1001, 1042]",[],[],[1042],"[1042, 3086, 1042]",[],[],[],"[1018, 1042]",[3086],[],[],[],[]
participant_5_UNDO,[],[],[],[],[],[],[],[],[],[],[],[],[],[],[],[],[],[],[],[],[],[],[]
participant_6_GOLD,1400,1410,1859,2302,2770,3679,4441,5255,5650,6975,7678,8178,8568,9153,9688,10669,11414,11876,12397,12727,13340,14462,14732
participant_6_CURRENTGOLD,1400,10,459,902,1370,289,751,1565,1960,3285,88,288,678,543,1078,2059,2804,3266,3787,207,820,1942,-618
participant_6_LEVEL,1,3,4,5,6,7,8,9,10,11,12,12,13,13,14,15,16,17,18,18,18,18,18
participant_6_MINIONSKILLED,0,0,3,4,6,11,11,20,20,24,26,26,27,30,30,32,33,34,36,36,39,42,42
participant_6_KILLS,0,0,0,0,0,2,4,5,5,9,10,11,11,11,12,13,14,14,14,14,15,16,16
participant_6_BUY,[],"[3044, 2031]",[],[],[],"[3071, 1001]",[1029],[],[],[],"[3022, 3047, 1042]",[1042],[],[1057],[],[],[],[],[],"[3091, 3111, 3082, 1011]",[],[],"[3143, 3105]"
participant_6_SOLD,[],[],[],[2052],[],"[2031, 3044]",[],[],[],[],"[1001, 1029]",[],[],[],[],[],[],[],[2052],"[1042, 1042, 1057, 3047]",[],[],"[3082, 1011]"
participant_6_UNDO,[],[],[],[],[],[],[],[],[],[],[],[],[],[],[],[],[],[],[],[],[],[],[]
participant_7_GOLD,1400,1400,1805,2464,3060,3482,4666,5072,5557,6173,6907,7310,7682,8697,9057,9885,10466,10836,11288,11671,12006,12829,13099
participant_7_CURRENTGOLD,1400,0,405,1064,1660,182,766,372,857,1473,207,610,582,1597,357,1185,566,936,188,571,906,1729,419
participant_7_LEVEL,1,3,4,5,6,7,8,9,9,11,12,12,13,14,14,15,16,16,17,17,18,18,18
participant_7_MINIONSKILLED,0,0,1,2,2,3,5,5,11,12,16,18,19,25,25,28,28,28,28,29,29,35,35
participant_7_KILLS,0,0,0,1,2,2,4,4,4,4,4,4,4,5,5,5,6,6,6,6,6,6,6
participant_7_BUY,[],"[2051, 1001, 2003, 2003, 2003]",[],[],[],"[3111, 1028, 1028, 1029]",[1011],[3211],[],[],"[3742, 1028]",[],[3067],[],"[3065, 3194]",[],[3211],[],"[3065, 1028]",[],[],[],"[3052, 1028]"
participant_7_SOLD,[],[],[],"[2003, 2003, 2003]",[],[1001],[1028],[1028],[],[],"[1029, 1011]",[],[1028],[],"[3211, 3067, 3211, 2051]",[],[],[],"[3211, 3067]",[],[],[],"[1028, 2051]"
participant_7_UNDO,[],[],[],[],[],[],[],[],[],[],[],[],[],[],"[[0, 3065], [2051, 0]]",[],[],[],[],[],[],[],[]
participant_8_GOLD,1400,1400,1833,2360,2846,3469,4103,4841,5344,6037,6746,7270,7649,8261,8718,9860,10721,11383,11921,12530,12977,13711,14141
participant_8_CURRENTGOLD,1400,65,498,1025,1511,219,853,1591,2094,87,796,1320,1699,511,118,1260,2121,933,221,830,27,761,1191
participant_8_LEVEL,1,3,4,5,6,7,8,9,10,11,12,12,13,14,14,16,17,17,17,18,18,18,18
participant_8_MINIONSKILLED,0,0,3,8,9,11,17,23,28,32,36,42,44,44,48,58,64,70,71,80,83,92,92
participant_8_KILLS,0,0,0,0,0,1,1,2,2,3,3,3,3,4,4,6,7,8,9,9,9,9,10
participant_8_BUY,[],"[3073, 1052, 2003]",[],[],[],[3007],[],[],[],"[3020, 3916]",[],[],[],"[3165, 1028]",[1026],[],[],[3151],[1058],[],[1058],[],[]
participant_8_SOLD,[],[],[],[],[2003],"[3073, 1052]",[],[],[3007],[],[],[],[],[3916],[],[],[],"[1028, 1026]",[],[],[],[],[]
participant_8_UNDO,[],[],[],[],[],[],[],[],[],[],[],[],[],[],[],[],[],[],[],[],[],[],[]
participant_9_GOLD,1400,1400,1830,2262,2711,3311,3920,4517,4912,5445,6339,6709,7064,8391,8736,9798,10209,10661,11608,11995,12360,13572,13841
participant_9_CURRENTGOLD,1400,0,430,862,1311,376,685,32,427,260,1154,424,779,1306,1651,1048,59,511,1458,245,210,1422,-809
participant_9_LEVEL,1,3,4,5,6,7,8,8,9,9,10,11,11,13,13,14,15,15,16,17,17,18,18
participant_9_MINIONSKILLED,0,0,1,1,4,5,5,6,6,6,9,9,9,16,16,22,25,26,35,36,36,40,40
participant_9_KILLS,0,0,0,0,0,1,2,3,3,4,6,6,6,8,8,10,10,10,11,11,11,13,13
participant_9_BUY,[],"[1043, 1036, 2003]",[],[],[],"[3006, 1052]",[1042],[3144],[],[3153],[],"[1043, 1028]",[],[3211],[],[3124],"[3052, 3086]",[],[],[3065],[1028],[],[3742]
participant_9_SOLD,[],[],[],[2003],[],[],[],[1036],[],"[3144, 1043]",[],[1042],[],[1028],[],"[1052, 1043]",[],[],[],[3211],[],[],"[3086, 1028]"
participant_9_UNDO,[],[],[],[],[],[],[],[],[],[],[],[],[],[],[],[],"[[0, 3052]]",[],[],[],[],[],[]
team0_KILLS,0,0,0,0,0,7,9,10,10,13,17,18,23,25,29,29,32,33,36,37,40,41,46
team0_CURRENTGOLD,7000,1400,2100,4099,4444,2372,3217,3688,6108,2990,3150,3670,8177,2305,5118,2518,4604,5366,6245,8167,10519,6247,10710
team0_TOTALGOLD,7000,7000,9100,11399,13429,17707,20285,22606,25026,27843,31518,34028,38535,41588,45251,46961,50047,52544,55473,58185,61437,64265,68728
team0_LEVEL,5,15,20,25,29,35,39,41,45,50,52,56,61,65,69,71,74,78,82,85,88,88,88
team0_SBIRES,0,0,11,24,32,48,56,64,81,89,100,113,132,137,159,161,169,185,197,211,236,242,261
team1_KILLS,0,0,0,1,3,7,12,15,15,21,24,25,25,30,31,36,41,42,44,45,46,49,50
team1_CURRENTGOLD,7000,75,2240,4813,7501,1505,4134,4049,6254,5122,2838,3714,4193,4090,3800,5848,6669,6825,5963,2722,3217,6523,771
team1_TOTALGOLD,7000,7010,9175,11748,14436,17455,21284,24274,26479,30147,33763,36039,38018,42135,44295,48808,52229,54535,57323,59592,61737,66343,67851
team1_LEVEL,5,15,20,25,30,35,40,44,47,52,57,58,62,67,68,73,78,80,83,86,87,89,89
team1_SBIRES,0,0,12,24,35,45,59,76,89,102,118,130,140,157,164,185,199,207,219,232,238,266,266
delta_KILLS,0,0,0,-1,-3,0,-3,-5,-5,-8,-7,-7,-2,-5,-2,-7,-9,-9,-8,-8,-6,-8,-4
delta_CURRENTGOLD,0,1325,-140,-714,-3057,867,-917,-361,-146,-2132,312,-44,3984,-1785,1318,-3330,-2065,-1459,282,5445,7302,-276,9939
delta_TOTALGOLD,0,-10,-75,-349,-1007,252,-999,-1668,-1453,-2304,-2245,-2011,517,-547,956,-1847,-2182,-1991,-1850,-1407,-300,-2078,877
delta_LEVEL,0,0,0,0,-1,0,-1,-3,-2,-2,-5,-2,-1,-2,1,-2,-4,-2,-1,-1,1,-1,-1
delta_SBIRES,0,0,-1,0,-3,3,-3,-12,-8,-13,-18,-17,-8,-20,-5,-24,-30,-22,-22,-21,-2,-24,-5
