name,frame_0,frame_1,frame_2,frame_3,frame_4,frame_5,frame_6,frame_7,frame_8,frame_9,frame_10,frame_11,frame_12,frame_13,frame_14,frame_15,frame_16,frame_17,frame_18,frame_19,frame_20,frame_21,frame_22,frame_23,frame_24,frame_25,frame_26,frame_27,frame_28
nameStamp,Tstart,Tearly,Tearly,Tearly,Tearly,Tearly,Tearly,Tearly,Tearly,Tearly,Tearly,Tearly,Tearly,Tearly,Tmid,Tmid,Tmid,Tmid,Tmid,Tmid,Tmid,Tmid,Tmid,Tmid,Tmid,Tmid,Tmid,Tmid,Tmid
timestamp,0,60001,120026,180035,240061,300067,360074,420085,480098,540115,600147,660160,720189,780230,840246,900251,960275,1020290,1080310,1140340,1200349,1260355,1320383,1380405,1440416,1500445,1560450,1620481,1680481
participant_0_GOLD,1400,1400,1819,2339,2795,3313,3760,4939,5656,6040,6468,7218,7941,8616,9641,10297,10904,11656,12043,12537,13095,13953,14496,15491,16447,16936,17622,18131,18999
participant_0_CURRENTGOLD,1400,0,419,939,545,1063,725,1904,2621,1240,568,418,1141,1816,741,1397,754,1506,288,782,490,1348,241,1236,942,1431,2117,2626,2549
participant_0_LEVEL,1,3,4,5,6,6,7,8,9,10,10,11,12,13,13,14,15,16,16,17,17,18,18,18,18,18,18,18,18
participant_0_MINIONSKILLED,0,0,1,4,7,11,12,16,19,19,21,24,26,28,28,31,33,44,44,48,48,54,57,63,69,73,76,78,80
participant_0_KILLS,0,0,0,0,0,0,0,2,3,3,3,4,5,5,8,9,10,10,10,10,11,11,11,13,13,13,14,14,15
participant_0_BUY,[],"[3112, 3070, 2003]",[],[],[1026],[],"[1052, 1027]",[],[],[6655],[3020],[1011],[],[],[4637],[],[1058],[],[3089],[],[1026],[],[3135],[],[1058],[],[],[],[]
participant_0_SOLD,[],[],"[2052, 2003]",[],[],[],[],[],[],"[1052, 1027, 1026]",[],[],[],[],[1011],[2052],[],[],"[3070, 3112, 1058]",[],[],[],[1026],[],[],[],[],[],[]
participant_0_UNDO,[],[],[],[],[],[],[],[],[],[],[],[],[],[],[],[],[],[],[],[],[],[],[],[],[],[],[],[],[]
participant_1_GOLD,1400,1400,2054,2515,3365,3854,4534,5042,6232,6731,7172,7907,8615,9465,10558,11061,11527,12406,12953,13682,14150,15686,16416,17019,17679,18287,18837,19464,21064
participant_1_CURRENTGOLD,1400,200,854,265,1115,154,834,242,1432,1931,2372,222,930,1780,2873,3376,1277,906,1453,2182,100,1636,1516,2119,2779,3387,1947,2574,1514
participant_1_LEVEL,1,3,4,5,6,7,8,8,10,10,11,11,12,13,14,15,15,16,16,17,18,18,18,18,18,18,18,18,18
participant_1_MINIONSKILLED,0,0,3,4,6,10,14,18,22,23,24,24,32,33,39,42,42,42,47,53,56,70,74,75,75,82,82,89,101
participant_1_KILLS,0,0,1,1,2,2,2,2,4,4,4,5,5,6,7,7,7,10,10,11,11,12,13,13,13,13,14,14,17
participant_1_BUY,[],"[1001, 2003, 1026]",[],[3145],[],"[4636, 2003, 2003, 2003]",[],"[3111, 1029]",[],[],[],"[3157, 1052, 2003, 2003, 2003, 2003, 2003]",[],[],[],[],[3100],[1058],[],[],"[1058, 3089]",[],[1026],[],[],[],"[3115, 3165]",[],[]
participant_1_SOLD,[],[2052],[2003],[],[],"[3145, 1026]","[2003, 2003, 2003]",[1001],[],[],[],[1029],"[2003, 2003]",[],"[2003, 2003]",[],[1052],[],[2003],[],"[1058, 1058]",[],[],[],[],[],"[3089, 1026]",[],[]
participant_1_UNDO,[],[],[],[],[],[],[],[],[],[],[],[],[],[],[],[],[],[],[],[],[],[],[],[],[],[],[],[],[]
participant_2_GOLD,1400,1400,1854,2229,2696,3098,3897,4415,4805,5670,6096,6569,7259,7902,8328,9064,9460,10670,11302,12032,12674,13401,14045,14793,16183,16637,17425,17785,18740
participant_2_CURRENTGOLD,1400,250,704,209,676,213,212,730,655,1520,696,719,1409,2052,428,1164,660,1870,2502,2532,674,1401,310,1058,383,837,1625,255,-330
participant_2_LEVEL,1,3,4,5,5,6,7,8,8,9,10,10,12,12,13,14,14,15,16,17,18,18,18,18,18,18,18,18,18
participant_2_MINIONSKILLED,0,0,0,0,1,1,1,2,2,5,5,8,10,14,14,20,20,20,21,21,25,25,25,27,27,29,29,29,33
participant_2_KILLS,0,0,0,0,0,0,1,1,1,3,3,3,4,4,4,5,5,7,8,9,10,10,11,12,13,13,14,14,15
participant_2_BUY,[],"[3802, 1026, 1001]",[],"[1052, 1052]",[],"[3802, 1052]",[3111],[],[3108],[],[6655],[1033],[],[],"[3102, 3191]",[],[3108],[],[],[3157],"[1058, 1058]",[],"[3089, 1052]",[],[3135],[],[],"[3108, 3108, 3165]",[]
participant_2_SOLD,[],[],[2052],[],[],"[1052, 1052]",[1001],[],[1052],[],"[3802, 1026]",[],[],[],"[2052, 3108, 1033]",[],[],[],[],"[3191, 3108]",[],[],"[1058, 1058]",[],[1052],[],[],"[3111, 3111]",[]
participant_2_UNDO,[],"[[0, 3802]]",[],[],[],[],[],[],[],[],[],[],[],[],[],[],[],[],[],[],[],[],[],[],[],[],[],"[[0, 3108], [0, 3108], [3111, 0]]",[]
participant_3_GOLD,1400,1400,1864,2432,2910,3389,3881,4386,4999,5536,5963,6574,7191,7897,8410,8847,9354,10229,10751,11150,11592,12384,12875,13444,14425,14827,15473,15935,16480
participant_3_CURRENTGOLD,1400,115,579,1147,760,1239,1731,2236,1599,886,443,1054,1671,2377,2890,1347,654,1529,2051,1150,342,1134,375,944,625,592,423,885,1430
participant_3_LEVEL,1,3,4,5,6,7,8,9,10,10,11,12,13,13,14,15,15,17,17,18,18,18,18,18,18,18,18,18,18
participant_3_MINIONSKILLED,0,0,3,9,14,16,16,16,19,20,23,30,32,38,38,39,44,48,50,50,51,51,52,54,56,56,57,57,58
participant_3_KILLS,0,0,0,0,0,0,0,0,0,0,0,0,0,0,0,0,0,1,1,1,1,2,2,2,2,2,2,2,2
participant_3_BUY,[],"[1026, 1052]",[],[],[3802],[],[],[],[6655],"[3145, 1058]","[1052, 1052]",[],[],[],[],"[4628, 3020]",[4632],[],[],[3102],[1058],[],[1058],[],[3089],[1052],[4630],[],[]
participant_3_SOLD,[],[],[2052],[],[1052],[],[],[],"[3802, 1026]",[],[],[],[],[],[],"[1058, 1052, 1052]",[],[],[],[4632],[],[],[],[],"[1058, 1058]",[],[1052],[],[]
participant_3_UNDO,[],[],[],[],[],[],[],[],[],"[[0, 3145]]",[],[],[],[],[],[],[],[],[],[],[],[],[],[],[],[],[],[],[]
participant_4_GOLD,1400,1400,1887,2381,2850,3303,4525,5108,5791,6341,6753,7183,7733,8777,9720,10265,10727,11300,11803,12194,12639,13930,14401,15141,16597,16957,17559,18161,18468
participant_4_CURRENTGOLD,1400,0,487,981,450,603,1825,2408,3091,3641,3,433,283,1327,2270,2815,632,915,1418,1809,2254,1370,541,761,2217,377,979,1441,-2782
participant_4_LEVEL,1,3,4,5,6,7,8,8,9,10,11,11,12,12,13,14,14,15,16,16,16,18,18,18,18,18,18,18,18
participant_4_MINIONSKILLED,0,0,2,4,4,7,13,17,20,25,26,27,27,28,38,41,45,45,50,50,52,58,59,67,75,75,81,89,89
participant_4_KILLS,0,0,0,0,0,0,2,2,3,3,3,3,4,5,6,6,6,6,6,6,6,8,8,8,11,11,11,11,11
participant_4_BUY,[],"[1042, 1053, 2003, 2003, 2003, 2003]",[],[],[6670],[1042],[],[],[],[],"[3085, 3006, 2003, 2003, 2003]",[],"[1018, 2003, 2003]",[],[],[],"[6671, 1053, 1037]",[1036],[],[],[],[6675],[1038],"[3031, 3067]",[],[3153],[],[3057],[1053]
participant_4_SOLD,[],[],[],"[2003, 2010]",[1042],[],"[2003, 2003, 2003]","[2010, 2010]",[],[],"[1042, 2422]",[],[],"[2003, 2003]",[],[],"[6670, 1018, 1053]","[2003, 2003, 2003]",[],[],[],"[1036, 1037]",[],"[6675, 1038]",[],"[1053, 2052]",[],[3067],[3057]
participant_4_UNDO,[],[],[],[],[],[],[],[],[],[],[],[],[],[],[],[],[],[],[],[],[],[],[],[],[],[],[],[],[]
participant_5_GOLD,1400,1400,1893,2391,2915,3720,4187,4653,5322,5848,6464,7300,7660,8089,8554,9034,10123,10790,11289,12078,12641,13030,14709,15404,15845,16571,17646,18336,18697
participant_5_CURRENTGOLD,1400,100,593,1091,1615,2420,2887,3353,1922,648,1264,2100,160,289,154,634,1723,1215,1714,78,641,430,2109,2804,2545,2271,3346,4036,2297
participant_5_LEVEL,1,3,4,5,6,7,8,9,9,10,11,12,12,12,13,14,15,16,16,17,17,18,18,18,18,18,18,18,18
participant_5_MINIONSKILLED,0,0,3,4,6,10,12,12,13,16,22,25,25,27,29,32,37,40,41,43,44,45,47,51,51,60,69,76,79
participant_5_KILLS,0,0,0,0,0,1,1,1,2,2,2,3,3,3,3,3,4,5,5,6,6,6,10,11,11,11,12,12,12
participant_5_BUY,[],"[3184, 6670]",[],[],[],[],[],[],[6673],"[3006, 2015]",[],[],"[3094, 1042]",[1042],[1018],[],[],"[3086, 1037]",[],"[3085, 3123, 1018]",[],[3086],[],[],[3033],[1043],[],[],[3153]
participant_5_SOLD,[],[],[],[2052],[],[],[],[],[6670],[],[],[],[2015],[],[],[],[],"[1018, 1042]",[],"[1037, 3086, 1042]",[],[1018],[],[],"[3123, 3086]",[],[],[],[1043]
participant_5_UNDO,[],"[[0, 3184]]",[],[],[],[],[],[],[],[],[],[],[],[],[],[],[],[],[],[],[],[],[],[],[],[],[],[],[]
participant_6_GOLD,1400,1400,2183,2773,3311,4091,4778,5478,6034,6672,7210,7762,8281,8874,9303,10076,10652,11776,12272,13306,14342,14714,15287,15924,16355,17106,18640,19243,19638
participant_6_CURRENTGOLD,1400,0,783,1373,1911,2691,378,1078,534,1172,835,1387,1906,2499,353,1126,552,376,872,1906,2942,314,887,1524,1955,2706,4240,4843,2738
participant_6_LEVEL,1,3,4,5,6,7,8,8,9,10,10,11,12,13,13,14,15,15,16,17,18,18,18,18,18,18,18,18,18
participant_6_MINIONSKILLED,0,0,2,6,9,15,20,26,30,33,36,38,41,49,49,55,55,56,62,65,70,70,75,81,82,92,104,112,114
participant_6_KILLS,0,0,1,1,1,2,3,4,4,5,5,5,5,5,5,6,6,8,8,10,11,11,11,11,11,11,15,15,15
participant_6_BUY,[],"[6670, 2003, 2003]",[],[],[],[],"[6673, 3009]",[],[3134],[],[1037],[],[],[],"[6676, 3086, 1036]",[],[3033],[1038],[],[],[],"[3031, 1053]",[],[],[],[],[],[],[3072]
participant_6_SOLD,[],[],"[2003, 2052, 2003]",[],[],[],[6670],[],[],[],[],[],[],[],"[3134, 1037]",[],"[1036, 3086]",[],[],[],[],[1038],[],[],[2052],[],[],[],[1053]
participant_6_UNDO,[],[],[],[],[],[],[],[],[],[],[],[],[],[],[],[],[],[],[],[],[],[],[],[],[],[],[],[],[]
participant_7_GOLD,1400,1400,2088,2558,3121,3796,4204,4717,5300,5874,6880,7408,7944,8340,9490,10417,11201,11746,12244,13502,14514,14909,15416,15821,16613,17009,17398,18035,18425
participant_7_CURRENTGOLD,1400,0,688,1158,1721,2396,104,617,50,624,1630,2158,2694,690,365,1292,2076,846,1344,2602,3614,219,726,431,833,329,718,1355,1415
participant_7_LEVEL,1,3,4,5,6,7,8,8,9,10,11,12,12,13,13,14,15,16,16,17,18,18,18,18,18,18,18,18,18
participant_7_MINIONSKILLED,0,0,3,4,8,10,10,14,19,23,27,30,35,35,37,41,43,45,49,62,70,71,74,74,77,77,77,85,86
participant_7_KILLS,0,0,1,1,1,2,2,2,2,2,3,3,3,3,5,6,6,6,6,7,8,8,8,8,9,9,9,9,9
participant_7_BUY,[],"[6670, 2003, 2003]",[],[],[],[],"[6672, 1042, 1042]",[],"[2015, 1018, 2031]",[],[],[],[],"[3094, 1038]","[1037, 1018]",[],[],"[3031, 1026, 1042]",[],[],[],"[3115, 3123, 3086]",[],[3033],"[1042, 1042]",[3086],[],[],[]
participant_7_SOLD,[],[],[],"[2003, 2003]",[2052],[],[6670],[],[1042],[],[],[],[],"[1018, 1042, 2015]",[2031],[],[],"[1038, 1037, 1018]",[],[],[],"[1042, 1026, 2031]",[],"[3123, 3086]",[1042],[1042],[],[],[]
participant_7_UNDO,[],[],[],[],[],[],[],[],[],[],[],[],[],[],"[[2031, 0]]",[],[],[],[],[],[],[],[],[],[],[],[],[],[]
participant_8_GOLD,1400,1400,1918,2599,3245,3860,4318,4842,5231,6178,6679,7084,7630,8120,8620,9027,10434,10954,11336,11818,12628,13021,14169,14733,15514,16197,16839,17217,17704
participant_8_CURRENTGOLD,1400,200,718,749,145,760,318,342,431,178,679,784,230,720,570,77,1484,454,836,218,728,621,1769,1133,614,1297,1939,217,704
participant_8_LEVEL,1,3,4,5,6,7,8,8,9,10,11,11,12,12,13,13,14,15,15,16,17,17,18,18,18,18,18,18,18
participant_8_MINIONSKILLED,0,0,3,7,7,10,13,15,15,17,18,18,22,26,31,32,38,42,42,42,42,44,52,58,58,67,68,68,68
participant_8_KILLS,0,0,0,1,2,2,2,2,2,3,3,3,3,3,3,3,5,5,5,5,6,6,7,7,8,8,8,8,9
participant_8_BUY,[],"[1053, 1001]",[],"[1042, 1036]","[6670, 1018]",[],"[6673, 1042]",[3006],[1042],"[3086, 1042]",[],[1042],[3046],[],"[1036, 1042]","[3051, 1033]",[],[3091],[],[3133],[1029],[1031],[],[6333],[1038],[],[],[3031],[]
participant_8_SOLD,[],[],[],[],"[1036, 1042]",[],"[6670, 1018, 1053]","[1001, 1042]",[],[1042],[],[],"[1042, 3086, 1042]",[],[],"[1042, 1036]",[],"[3051, 1033]",[],[],[],[1029],[],"[1031, 3133]",[],[],[],[1038],[]
participant_8_UNDO,[],[],[],[],[],[],[],[],[],[],[],[],[],[],[],[],[],[],[],[],[],[],[],[],[],[],[],[],[]
participant_9_GOLD,1400,1400,1893,2555,3375,3946,4450,4810,5487,6057,6901,7500,8153,8621,9045,9469,10057,10567,10945,11459,12388,12812,13225,13692,15121,15528,16130,16529,16883
participant_9_CURRENTGOLD,1400,0,493,1155,1975,2546,3050,510,1187,1757,2601,767,1420,638,1062,136,724,334,712,1226,2155,2579,2992,3459,2518,2925,3527,3926,-150
participant_9_LEVEL,1,3,4,5,6,7,8,8,9,10,11,11,12,12,13,13,14,15,15,16,17,18,18,18,18,18,18,18,18
participant_9_MINIONSKILLED,0,0,1,2,4,7,10,10,13,13,14,14,16,18,19,20,20,20,20,20,25,27,28,29,40,41,44,46,46
participant_9_KILLS,0,0,0,1,3,3,3,3,4,5,6,7,8,8,8,8,8,8,8,8,9,9,9,9,11,11,11,11,11
participant_9_BUY,[],"[4635, 3070, 3112, 2003]",[],[],[],[],[],"[1001, 3006, 3057, 3051]",[],[],[],"[3078, 3191]",[],[1058],[],[3003],[],[3108],[],[],[],[],[],[],[4628],[],[],[],[3089]
participant_9_SOLD,[],[],[],[2003],[],[],[],[1001],[],[],[],"[3057, 3051]",[],[],[],"[3070, 1058, 3003]",[],[],[],[],[],[],[],[],[3108],[],[],[],[3112]
participant_9_UNDO,[],"[[0, 4635]]",[],[],[],[],[],[],[],[],[],[],[],[],[],[],[],[],[],[],[],[],[],[],[],[],[],[],[]
team0_KILLS,0,0,1,1,2,2,5,7,11,13,13,15,18,20,25,27,28,34,35,37,39,43,45,48,52,52,55,55,60
team0_CURRENTGOLD,7000,565,3043,3541,3546,3272,5327,7520,9398,9218,4082,2846,5434,9352,9202,10099,3977,6726,7712,8455,3860,6889,2983,6118,6946,6624,7091,7781,2381
team0_TOTALGOLD,7000,7000,9478,11896,14616,16957,20597,23890,27483,30318,32452,35451,38739,42657,46657,49534,51972,56261,58852,61595,64150,69354,72233,75888,81331,83644,86916,89476,93751
team0_LEVEL,5,15,20,25,29,33,38,41,46,49,53,55,61,63,67,72,73,79,81,85,87,90,90,90,90,90,90,90,90
team0_SBIRES,0,0,9,21,32,45,56,69,82,92,99,113,127,141,157,173,184,199,212,222,232,258,267,286,302,315,325,342,361
team1_KILLS,0,0,2,4,7,10,11,12,14,17,19,21,22,22,24,26,29,32,32,36,40,40,45,46,50,50,55,55,56
team1_CURRENTGOLD,7000,300,3275,5526,7367,10813,6737,5900,4124,4379,7009,7196,6410,4836,2504,3265,6559,3225,5478,6030,10080,4163,8483,9351,8465,9528,13770,14377,7004
team1_TOTALGOLD,7000,7000,9975,12876,15967,19413,21937,24500,27374,30629,34134,37054,39668,42044,45012,48023,52467,55833,58086,62163,66513,68486,72806,75574,79448,82411,86653,89360,91347
team1_LEVEL,5,15,20,25,30,35,40,41,45,50,54,57,60,62,65,68,73,77,78,83,87,89,90,90,90,90,90,90,90
team1_SBIRES,0,0,12,23,34,52,65,77,90,102,117,125,139,155,165,180,193,203,214,232,251,257,276,293,308,337,362,387,393
delta_KILLS,0,0,-1,-3,-5,-8,-6,-5,-3,-4,-6,-6,-4,-2,1,1,-1,2,3,1,-1,3,0,2,2,2,0,0,4
delta_CURRENTGOLD,0,265,-232,-1985,-3821,-7541,-1410,1620,5274,4839,-2927,-4350,-976,4516,6698,6834,-2582,3501,2234,2425,-6220,2726,-5500,-3233,-1519,-2904,-6679,-6596,-4623
delta_TOTALGOLD,0,0,-497,-980,-1351,-2456,-1340,-610,109,-311,-1682,-1603,-929,613,1645,1511,-495,428,766,-568,-2363,868,-573,314,1883,1233,263,116,2404
delta_LEVEL,0,0,0,0,-1,-2,-2,0,1,-1,-1,-2,1,1,2,4,0,2,3,2,0,1,0,0,0,0,0,0,0
delta_SBIRES,0,0,-3,-2,-2,-7,-9,-8,-8,-10,-18,-12,-12,-14,-8,-7,-9,-4,-2,-10,-19,1,-9,-7,-6,-22,-37,-45,-32
