name,frame_0,frame_1,frame_2,frame_3,frame_4,frame_5,frame_6,frame_7,frame_8,frame_9,frame_10,frame_11,frame_12,frame_13,frame_14,frame_15,frame_16,frame_17,frame_18,frame_19,frame_20,frame_21,frame_22,frame_23,frame_24,frame_25,frame_26
nameStamp,Tstart,Tearly,Tearly,Tearly,Tearly,Tearly,Tearly,Tearly,Tearly,Tearly,Tearly,Tearly,Tearly,Tearly,Tearly,Tmid,Tmid,Tmid,Tmid,Tmid,Tmid,Tmid,Tmid,Tmid,Tmid,Tend,Tend
timestamp,0,60024,120032,180068,240085,300086,360100,420112,480139,540150,600177,660209,720241,780245,840278,900300,960317,1020321,1080332,1140360,1200390,1260393,1320425,1380439,1440439,1500446,1560446
participant_0_GOLD,500,543,627,943,1204,1444,1678,2007,2720,2998,3519,4179,4526,4684,5017,5657,6048,6220,6393,6867,7333,7630,7802,8205,8348,8534,8608
participant_0_CURRENTGOLD,500,43,127,443,704,944,403,732,1445,1723,394,304,651,409,742,1382,1773,145,318,792,908,1205,177,580,723,909,983
participant_0_LEVEL,1,1,1,3,4,4,5,6,7,7,8,9,9,9,10,11,11,11,11,12,12,12,13,13,13,14,14
participant_0_MINIONSKILLED,0,0,2,13,18,24,30,38,48,55,57,65,74,76,84,91,96,96,96,102,113,120,120,124,125,128,128
participant_0_KILLS,0,0,1,2,2,2,2,2,2,2,2,2,2,2,2,2,2,2,2,2,2,2,2,2,2,2,2
participant_0_BUY,[],"[3854, 2003, 2003, 3340]",[],[],"[3067, 2055]",[],[],[],[],"[3117, 2055, 2003]",[],[],"[1029, 3364, 2055]",[1033],[],[3105],[2003],[],[],"[3190, 2055]",[],[],[],"[1029, 1029]",[],[],[3024]
participant_0_SOLD,[],[],[2003],[2010],[],[2055],[],[],"[2003, 2010, 2010]",[],[],"[2055, 3854]",[3340],[2003],[],"[1033, 1029]",[],[2055],[],"[3067, 3105, 3855]",[],[2003],[],[],[],[2055],[1029]
participant_0_UNDO,[],[],[],[],[],[],[],[],[],[],[],[],[],[],[],[],[],[],[],[],[],[],[],[],[],[],[]
participant_1_GOLD,500,1240,1441,1927,2366,2489,2824,3945,4792,5119,5567,5789,5912,6658,7147,7485,7970,8348,8806,9353,9867,10157,10749,11062,11505,11723,11798
participant_1_CURRENTGOLD,500,740,241,727,1166,164,499,1620,2467,2794,3242,214,337,1083,1572,1910,2395,323,41,588,1102,1392,35,347,790,559,573
participant_1_LEVEL,1,1,2,3,4,5,5,7,8,8,9,9,9,10,10,11,12,12,12,13,13,14,14,14,14,15,15
participant_1_MINIONSKILLED,0,0,0,0,0,0,0,0,0,0,0,0,0,3,6,13,20,20,20,20,21,21,21,21,36,37,37
participant_1_KILLS,0,0,0,0,0,0,0,0,1,1,1,1,2,2,2,2,2,2,2,2,2,2,2,2,3,4,4
participant_1_BUY,[],"[1055, 2003, 3340]",[],[],"[1036, 1036]",[],[],[],[],"[6670, 3006, 2031, 2055]",[],[],[1037],[1018],[],[6672],[],[],[3057],[],[3133],[],[],[],"[3508, 1036, 1036]",[],[3133]
participant_1_SOLD,[],[],[],[],[],[],[],[],"[2010, 2003, 2010, 2010]","[1036, 1036, 2422]",[],[2055],[],[],[],"[6670, 1018, 1037]",[],[],[],[],[],[],[],[],"[3133, 3057, 2031]",[],"[1036, 1036]"
participant_1_UNDO,[],[],[],[],[],[],[],[],[],[],[],[],[],[],[],[],[],[],[],[],[],[],[],[],[],[],[]
participant_2_GOLD,500,543,659,902,1073,1420,1612,1856,2582,2990,3742,3941,4996,5196,6072,6286,7017,7778,7950,8073,8753,9091,9437,9559,9967,10090,10164
participant_2_CURRENTGOLD,500,43,159,402,223,485,242,126,842,100,842,526,331,531,147,361,1092,603,775,98,778,1116,1462,284,693,165,89
participant_2_LEVEL,1,1,1,3,4,5,5,6,7,7,8,8,9,9,10,10,11,12,12,12,12,13,13,13,13,13,13
participant_2_MINIONSKILLED,0,0,4,12,15,26,30,35,41,48,62,66,74,78,83,88,90,102,102,102,113,122,132,132,145,145,145
participant_2_KILLS,0,0,0,0,0,0,0,0,1,1,1,1,2,2,2,2,4,4,4,4,4,4,4,4,4,4,4
participant_2_BUY,[],"[2033, 3340]",[],[],[1082],[2055],[1052],[1027],[],"[1026, 1001]",[],[3802],[6655],[],[],[1058],[],[1058],[],[3111],[],[],[],[3089],[],"[1052, 1026]",[]
participant_2_SOLD,[],[],[],[],[],[],[2055],[],[],[],[],"[1052, 1027]","[3802, 1026]",[],[],[],[],[],[],[1001],[],[],[],"[1058, 1058]",[],[2033],[]
participant_2_UNDO,[],[],[],[],[],[],[],[],[],[],[],[],[],[],[],[],[],[],[],[],[],[],[],[],[],"[[0, 1052]]",[]
participant_3_GOLD,500,543,659,1127,1249,1680,2078,2410,2931,3137,3309,3768,4339,4646,5067,5232,5490,5783,6131,6625,6847,7072,7266,7556,8634,9106,9180
participant_3_CURRENTGOLD,500,43,159,627,49,480,878,1210,1731,312,484,943,638,346,767,307,565,857,506,1000,122,347,540,831,169,641,255
participant_3_LEVEL,1,1,1,2,2,3,4,5,5,6,6,6,7,7,7,7,8,8,9,9,9,10,10,10,11,11,11
participant_3_MINIONSKILLED,0,0,4,15,15,31,44,56,62,67,70,82,87,93,104,106,110,117,122,135,138,143,144,154,158,161,161
participant_3_KILLS,0,0,0,0,0,0,0,0,1,1,2,2,2,2,2,3,3,3,3,3,3,3,3,3,3,3,3
participant_3_BUY,[],"[2033, 3340]",[],[],[],[],"[3057, 2055]",[],[],[],"[3111, 1036, 1028]","[3044, 1028]",[],[3067],[],[],[],"[6632, 3133]",[],[],[1036],[],[3077],[],[],[],[]
participant_3_SOLD,[],[],[],[],[2010],[2010],[],[],[2010],[2055],[],"[1028, 1036]",[],[1028],[],[],[],"[3044, 3057, 3067]",[],[],[],[],[],[],[],[],[]
participant_3_UNDO,[],[],[],[],[],[],[],[],[],[],[],[],[],[],[],[],[],[],[],[],[],[],[],[],[],[],[]
participant_4_GOLD,500,543,880,1371,1505,1737,1959,2135,2448,2582,2751,3054,3423,3664,3971,4111,4251,4442,4692,4922,5113,5253,5443,5584,5781,5997,6082
participant_4_CURRENTGOLD,500,43,380,871,130,362,584,760,1073,82,251,554,548,359,666,56,146,337,587,342,533,673,863,404,601,817,282
participant_4_LEVEL,1,1,1,2,2,3,4,5,5,6,6,6,7,7,7,8,8,8,8,8,9,9,9,10,10,11,11
participant_4_MINIONSKILLED,0,0,1,3,3,6,8,10,12,12,14,16,17,18,21,21,21,21,23,24,24,24,24,24,27,27,27
participant_4_KILLS,0,2,2,2,2,2,2,4,5,5,5,5,5,6,6,6,6,6,7,8,8,8,9,9,9,9,9
participant_4_BUY,[],"[1035, 2031, 3340]","[1028, 1029, 3364]",[],[],"[6660, 1033, 2055]",[],[],[],[],[],"[3068, 3111, 1028, 1033, 2055, 2055]",[],[],[],[],[],"[3065, 1028]","[1011, 1029]",[],[],[],"[3075, 2055, 1033]",[],[],[1057],[]
participant_4_SOLD,[],[],[3340],[],[],[1028],[2055],[],[],"[3364, 1035]",[3513],"[6660, 1033, 1029, 2422]",[],[],[],[],[3364],"[1028, 1033]","[1028, 2031]","[2055, 3513]",[],[],"[1029, 1011]",[],[],[1033],[]
participant_4_UNDO,[],[],[],[],[],[],[],[],[],[],[],[],[],[],[],[],[],[],[],[],[],[],"[[0, 2055]]",[],[],[],[]
participant_5_GOLD,500,500,820,1065,1458,2020,2167,2373,2747,3138,4090,4276,4617,4910,5145,5557,5729,6046,7131,7264,7672,7795,8234,9187,9665,10297,10612
participant_5_CURRENTGOLD,500,0,20,265,658,1220,67,273,212,603,1555,1276,1617,1910,595,207,379,696,1781,664,1072,195,634,1588,815,1447,1762
participant_5_LEVEL,1,1,1,2,4,5,5,5,6,7,8,8,9,9,10,10,11,11,12,12,13,13,13,14,14,15,15
participant_5_MINIONSKILLED,0,0,0,6,19,27,28,32,48,60,72,76,87,88,95,108,111,118,135,135,148,148,158,166,167,175,177
participant_5_KILLS,0,0,0,0,0,0,0,0,0,0,1,1,1,1,1,1,2,2,2,2,2,2,2,2,2,3,3
participant_5_BUY,[],"[3858, 3854, 2003, 2003]",[],[],[],"[1001, 2055, 2003, 2003]",[],[],[],"[1036, 1036]",[],"[3009, 3134, 1036, 2055, 2055]",[],"[1053, 1036]",[],[],"[6692, 1036, 1036]",[],[],"[3133, 1036, 3364, 2139, 2055, 2055]",[],[],[3134],[],"[3179, 1036, 2055, 2055]",[],[3134]
participant_5_SOLD,[],[],[],[],"[2003, 2003]",[],[2055],[],"[2003, 2003]",[],"[3854, 3400]","[1001, 1036, 1036]","[3400, 2055]",[1036],[],[],"[3134, 1036, 1053]",[],[],"[1036, 1036, 2055, 3340]",[3855],[2055],[1036],[],"[2055, 3134, 3133]",[],[1036]
participant_5_UNDO,[],"[[0, 3858]]",[],[],[],[],[],[],[],[],[],[],[],[],[],[],[],[],[],"[[0, 2139]]",[],[],[],[],[],[],[]
participant_6_GOLD,500,500,605,913,1513,2031,2344,2740,2948,3360,4537,4709,5959,6381,6923,7986,8644,8791,9522,10050,10712,10919,12352,12950,13631,14364,15071
participant_6_CURRENTGOLD,500,0,105,413,1013,1531,319,145,353,765,1942,74,1324,196,738,1801,9,156,887,565,77,210,1642,2241,421,1155,1521
participant_6_LEVEL,1,1,2,2,3,4,5,5,5,6,6,7,8,8,9,10,10,10,11,12,12,13,13,14,15,15,15
participant_6_MINIONSKILLED,0,0,0,0,0,1,1,1,1,1,3,3,7,7,9,9,9,9,12,12,14,14,17,17,28,34,38
participant_6_KILLS,0,0,0,0,0,0,0,0,0,0,0,0,0,0,0,0,1,1,1,1,1,1,2,2,2,3,3
participant_6_BUY,[],"[1055, 2003, 3340]",[2003],[],[],"[1036, 1036]",[],[],[],"[3134, 1036, 1036, 2003]",[],"[3133, 1001, 1036]",[],[],[],[],"[6691, 3006, 3134, 3363, 2003]",[],[1018],[],[],[],[],"[6676, 1018]",[1037],[],[]
participant_6_SOLD,[],[],[],[],[],[],[],[],"[2003, 2003]","[1036, 1036]",[],"[1036, 1036]",[],[],[2003],[],"[3134, 3133, 1001, 1036, 3340]",[],[],[],[],[],[],"[3134, 1018]",[2003],[],[]
participant_6_UNDO,[],[],[],[],[],[],[],[],[],[],[],[],[],[],[],[],[],[],[],[],[],[],[],[],[],[],[]
participant_7_GOLD,500,500,597,853,1109,1547,1841,2533,2871,3129,4751,5857,7255,8075,8222,8506,9019,9581,10677,10813,11607,11749,12205,12752,13525,14019,14338
participant_7_CURRENTGOLD,500,0,97,353,609,37,271,38,366,213,1836,842,40,860,1006,341,104,666,1762,58,852,644,1101,897,1671,544,663
participant_7_LEVEL,1,1,1,3,4,5,5,6,7,7,8,8,9,9,9,10,11,11,11,11,12,12,13,13,14,14,14
participant_7_MINIONSKILLED,0,0,4,11,19,22,30,31,41,46,46,51,51,57,59,62,68,68,68,69,75,77,78,78,78,79,80
participant_7_KILLS,0,0,0,0,0,0,0,1,1,1,2,5,6,7,7,7,8,9,11,11,12,12,12,13,14,15,15
participant_7_BUY,[],"[1054, 2003, 3340]",[],[],[],[3117],[2003],"[1036, 1036, 2031, 2055]",[],[3134],[],[6691],"[3134, 1036, 3364, 3133]",[],[],"[3179, 1036]",[3134],[],[],[3142],[],[1036],[],[3134],[],[3814],[]
participant_7_SOLD,[],[],[],[],[2003],[],[2003],[3400],[],"[1036, 1036, 2055]",[3400],[3134],"[3400, 3340, 1036]",[],[],"[3134, 3133]",[1036],[],[],"[2031, 3134]",[3400],[],[],[1036],[],"[1054, 3134]",[]
participant_7_UNDO,[],[],[],[],[],[],[],[],[],[],[],[],[],[],[],[],[],[],[],[],[],[],[],[],[],[],[]
participant_8_GOLD,500,500,637,795,1272,1415,1839,2195,2388,2638,3384,3694,4159,4344,4631,5448,6244,6515,6687,7084,7510,7932,8841,9187,9686,10726,11087
participant_8_CURRENTGOLD,500,0,87,245,722,165,589,945,1138,238,984,244,709,894,1181,1998,194,465,37,434,860,1282,2191,637,281,1321,1662
participant_8_LEVEL,1,1,1,2,3,3,4,5,5,5,6,7,7,7,8,9,9,10,10,10,11,11,12,12,13,14,14
participant_8_MINIONSKILLED,0,0,2,4,18,19,33,43,47,51,60,65,75,79,85,98,102,110,110,121,137,150,152,158,163,166,169
participant_8_KILLS,0,0,0,0,1,2,2,2,2,2,3,3,4,5,6,8,9,9,10,10,11,11,14,14,14,15,16
participant_8_BUY,[],"[1039, 2031, 3340]",[],[],[],[],"[3145, 1028, 2055, 3364]",[1026],[],[],[],"[4636, 3020]",[],"[3057, 1026]",[],[],"[3100, 1043]",[],[],[1026],[3115],[2055],[],[],[3165],[],[]
participant_8_SOLD,[],[],[],[],[],[],[3340],"[3400, 1028]",[1039],[],[],"[3145, 1026, 2031, 2422]",[3400],[],[],[],"[3057, 1026]",[],[],[],"[1043, 1026]",[],[2055],[],[],[],[]
participant_8_UNDO,[],[],[],[],[],[],[],[],[],[],[],[],[],[],[],[],[],[],[],[],[],[],[],[],[],[],[]
participant_9_GOLD,500,500,522,692,1033,1168,1386,1621,1756,2053,3091,3472,4153,4384,4716,5305,6049,6536,6916,7057,7329,7499,7690,8033,8473,9108,9343
participant_9_CURRENTGOLD,500,0,22,192,533,193,411,646,781,378,1416,297,968,300,631,1220,414,901,1281,522,794,964,405,748,89,723,218
participant_9_LEVEL,1,1,1,2,3,3,4,5,5,6,7,7,8,8,9,9,10,10,11,11,11,11,12,12,13,13,13
participant_9_MINIONSKILLED,0,0,0,2,6,6,8,11,11,17,18,18,21,26,27,32,36,42,42,42,45,46,46,51,51,53,53
participant_9_KILLS,0,0,1,1,1,2,2,2,2,2,3,3,3,3,3,3,3,3,4,4,4,4,4,4,4,4,4
participant_9_BUY,[],"[3070, 2003, 2003]",[1001],[],[],[],[3802],[],[1052],[],[],[3108],[],[],"[6653, 1027]",[3020],[],[],[],[1058],[],[3003],[],[],"[1026, 1028]",[],[]
participant_9_SOLD,[],[],[],[],[],"[2003, 2003]",[],[],[],[],[],[1052],[],[],"[3802, 3108]",[1001],[],[],[],[],[],"[3070, 1058, 1027, 3003]",[],[],[],[],[]
participant_9_UNDO,[],[],[],[],[],[],[],[],[],[],[],[],[],[],[],[],[],[],[],[],[],[],[],[],[],[],[]
team0_KILLS,0,2,3,4,4,4,4,6,10,10,11,11,13,14,14,15,17,17,18,19,19,19,20,20,21,22,22
team0_CURRENTGOLD,2500,912,1066,3070,2272,2435,2606,4448,7558,5011,5213,2541,2505,2728,3894,4016,5971,2265,2227,2820,3443,4733,3077,2446,2976,3091,2182
team0_TOTALGOLD,2500,3412,4266,6270,7397,8770,10151,12353,15473,16826,18888,20731,23196,24848,27274,28771,30776,32571,33972,35840,37913,39203,40697,41966,44235,45450,45832
team0_LEVEL,5,5,6,13,16,20,23,29,32,34,37,38,41,42,44,47,50,51,52,54,55,58,59,60,61,64,64
team0_SBIRES,0,0,11,43,51,87,112,139,163,182,203,229,252,268,298,319,337,356,363,383,409,430,441,455,491,498,498
team1_KILLS,0,0,1,1,2,4,4,5,5,5,9,12,14,16,17,19,23,24,28,28,30,30,34,35,36,40,41
team1_CURRENTGOLD,2500,0,331,1468,3535,3146,1657,2047,2850,2197,7733,2733,4658,4160,4151,5567,1100,2884,5748,2243,3655,3295,5973,6111,3277,5190,5826
team1_TOTALGOLD,2500,2500,3181,4318,6385,8181,9577,11462,12710,14318,19853,22008,26143,28094,29637,32802,35685,37469,40933,42268,44830,45894,49322,52109,54980,58514,60451
team1_LEVEL,5,5,6,11,17,20,23,26,28,31,35,37,41,41,45,48,51,52,55,56,59,60,63,65,69,71,71
team1_SBIRES,0,0,6,23,62,75,100,118,148,175,199,213,241,257,275,309,326,347,367,379,419,435,451,470,487,507,517
delta_KILLS,0,2,2,3,2,0,0,1,5,5,2,-1,-1,-2,-3,-4,-6,-7,-10,-9,-11,-11,-14,-15,-15,-18,-19
delta_CURRENTGOLD,0,912,735,1602,-1263,-711,949,2401,4708,2814,-2520,-192,-2153,-1432,-257,-1551,4871,-619,-3521,577,-212,1438,-2896,-3665,-301,-2099,-3644
delta_TOTALGOLD,0,912,1085,1952,1012,589,574,891,2763,2508,-965,-1277,-2947,-3246,-2363,-4031,-4909,-4898,-6961,-6428,-6917,-6691,-8625,-10143,-10745,-13064,-14619
delta_LEVEL,0,0,0,2,-1,0,0,3,4,3,2,1,0,1,-1,-1,-1,-1,-3,-2,-4,-2,-4,-5,-8,-7,-7
delta_SBIRES,0,0,5,20,-11,12,12,21,15,7,4,16,11,11,23,10,11,9,-4,4,-10,-5,-10,-15,4,-9,-19
