name,frame_0,frame_1,frame_2,frame_3,frame_4,frame_5,frame_6,frame_7,frame_8,frame_9,frame_10,frame_11,frame_12,frame_13,frame_14,frame_15,frame_16,frame_17,frame_18,frame_19,frame_20,frame_21
nameStamp,Tstart,Tearly,Tearly,Tearly,Tearly,Tearly,Tearly,Tearly,Tearly,Tearly,Tearly,Tearly,Tearly,Tmid,Tmid,Tmid,Tmid,Tmid,Tmid,Tmid,Tmid,Tmid
timestamp,0,60015,120019,180043,240073,300102,360122,420140,480159,540180,600197,660229,720251,780274,840298,900319,960335,1020337,1080355,1140379,1200399,1260399
participant_0_GOLD,1400,1400,1884,2395,2999,4036,4893,5733,6235,7848,8408,9814,10463,11339,13072,14104,14464,15291,15807,16673,17937,18132
participant_0_CURRENTGOLD,1400,100,584,1095,1699,2736,943,1783,2285,3898,4458,5864,3163,739,2472,3504,264,1091,1607,2473,3737,3932
participant_0_LEVEL,1,3,4,5,6,7,8,9,10,11,11,12,13,14,15,16,16,17,17,18,18,18
participant_0_MINIONSKILLED,0,0,4,7,13,20,21,21,24,33,41,46,51,51,57,57,57,61,61,63,69,69
participant_0_KILLS,0,0,0,0,0,2,3,5,5,9,9,13,13,15,20,22,22,23,23,25,27,27
participant_0_BUY,[],[4635],[],[],[],[],"[4633, 1001, 1001, 1033]",[],[],[],[],[],"[3111, 4637]","[3077, 1053, 1036, 3133, 3074]",[],[],"[3135, 3133]",[],[],[],[],[]
participant_0_SOLD,[],[2052],[],[],[],[],[4635],[],[],[],[],[],"[1001, 1033]","[1036, 3077, 1053, 3133]",[],[],[],[],[],[],[],[]
participant_0_UNDO,[],[],[],[],[],[],"[[0, 1001]]",[],[],[],[],[],[],[],[],[],[],[],[],[],[],[]
participant_1_GOLD,1400,1400,1832,2285,2987,3437,4054,4761,5145,5834,6313,6984,7494,7926,8916,9583,9943,10452,10968,11508,12063,12218
participant_1_CURRENTGOLD,1400,200,632,1085,537,987,404,1111,395,1084,1563,34,544,76,1066,498,858,502,1018,308,863,1018
participant_1_LEVEL,1,3,4,5,6,6,7,8,9,10,11,12,12,13,14,15,15,15,16,16,17,17
participant_1_MINIONSKILLED,0,0,0,0,0,0,2,3,3,5,5,9,9,9,12,13,13,14,14,21,22,22
participant_1_KILLS,0,0,0,0,1,1,2,2,2,2,2,2,2,2,3,3,3,3,3,3,3,3
participant_1_BUY,[],"[3145, 2003, 2003, 2003]",[],[],"[1026, 1028]",[],"[4636, 1001]",[],"[3020, 1029]",[],[],[3157],[],[3108],[],"[3067, 1052]",[],[4629],[],[4630],[],[]
participant_1_SOLD,[],[],[],[2003],[2003],[],"[3145, 1028, 1026]",[],[1001],[2003],[],[1029],[],[],[],[],[],"[3108, 3067, 1052]",[],[],[],[]
participant_1_UNDO,[],[],[],[],[],[],[],[],[],[],[],[],[],[],[],[],[],[],[],[],[],[]
participant_2_GOLD,1400,1400,1832,2299,2755,3204,3626,4028,4388,4760,5304,5817,6333,6984,7757,8431,8879,9441,10195,10600,11464,11569
participant_2_CURRENTGOLD,1400,0,432,899,1355,1804,2226,528,888,1260,1804,2317,333,984,1757,2431,2879,3441,4195,300,1164,1269
participant_2_LEVEL,1,3,4,5,6,6,7,8,8,9,10,11,11,12,13,14,15,16,16,17,18,18
participant_2_MINIONSKILLED,0,0,0,1,1,2,3,3,3,3,6,6,6,16,20,22,23,24,25,25,32,32
participant_2_KILLS,0,0,0,0,0,0,0,0,0,0,0,0,0,0,0,0,0,0,1,1,2,2
participant_2_BUY,[],"[3802, 2003, 2003]",[],[],[],[],[],[6655],[],[],[],[],"[1058, 1058]",[],[],[],[],[],[],"[3089, 3100]",[],[]
participant_2_SOLD,[],[],[],[],"[2003, 2003]",[],[],[3802],[],[],[],[],[],[],[],[],[],[],[],"[1058, 1058]",[],[]
participant_2_UNDO,[],[],[],[],[],[],[],[],[],[],[],[],[],[],[],[],[],[],[],[],[],[]
participant_3_GOLD,1400,1400,1836,2289,2811,3294,3732,4297,5118,5565,6209,6825,7560,8923,9559,10279,10752,11685,12336,12990,13517,13802
participant_3_CURRENTGOLD,1400,0,436,889,1411,594,632,1197,1168,365,1009,825,860,1873,659,279,752,1685,36,370,897,902
participant_3_LEVEL,1,3,4,5,6,6,7,8,10,10,11,12,12,13,14,14,15,16,17,17,18,18
participant_3_MINIONSKILLED,0,0,1,1,2,2,2,5,6,6,7,10,12,18,18,18,22,26,30,30,32,32
participant_3_KILLS,0,0,0,0,0,0,0,0,2,2,3,3,4,6,6,7,7,9,9,10,10,11
participant_3_BUY,[],"[3112, 3070, 2003]",[],[],[],[3802],"[1001, 2003, 2003]",[],[1026],[6655],[],[3020],[3057],[1036],"[3051, 3508]","[1036, 3133]",[],[],[6675],[1018],[],[]
participant_3_SOLD,[],[],[],[2003],[],[],"[2003, 2003]",[],[],"[3802, 1026]",[],[1001],[],[],"[1036, 1036, 3057]",[1036],[],[],[3133],[3070],[],[]
participant_3_UNDO,[],[],[],[],[],[],[],[],[],[],[],[],[],[],"[[0, 3051]]",[],[],[],[],[],[],[]
participant_4_GOLD,1400,1400,1867,2356,2873,3412,3875,4774,5375,5882,6491,7392,8071,8703,9416,9926,10440,11624,12269,12721,13464,13658
participant_4_CURRENTGOLD,1400,150,617,1106,1623,2162,425,1324,1925,232,841,1742,121,753,1466,1976,490,1674,2319,371,1114,1308
participant_4_LEVEL,1,3,4,5,6,7,7,8,9,10,11,12,12,13,14,15,15,16,17,18,18,18
participant_4_MINIONSKILLED,0,0,3,6,6,9,11,17,24,24,24,29,31,34,40,40,46,50,53,57,61,65
participant_4_KILLS,0,0,0,0,0,0,0,2,2,2,3,4,4,4,4,4,4,6,6,6,7,7
participant_4_BUY,[],"[1053, 1042, 1053, 1042, 2003]",[],[],[],[],[6673],[],[],"[1018, 1001, 1038]",[],[],"[3006, 3031]",[],[],[],"[3086, 3123]",[],[],"[3033, 3076, 1011]",[],[]
participant_4_SOLD,[],[],[],[2003],[],[],"[1042, 1053]",[],[],[],[],[],"[1001, 1038, 1018]",[],[],[],[],[],[],"[3123, 3086]",[],[]
participant_4_UNDO,[],"[[0, 1042], [0, 1053]]",[],[],[],[],[],[],[],[],[],[],[],[],[],[],[],[],[],[],[],[]
participant_5_GOLD,1400,1400,1874,2369,2866,3451,3924,4511,5000,5420,5977,6488,7077,7623,8055,8616,9103,9620,10139,10559,10948,11104
participant_5_CURRENTGOLD,1400,0,474,969,1466,2051,2524,3111,350,420,977,188,777,823,355,516,1003,720,1239,1159,248,404
participant_5_LEVEL,1,3,4,5,6,7,8,9,9,10,11,11,12,13,13,14,15,16,16,17,17,17
participant_5_MINIONSKILLED,0,0,2,5,7,10,11,12,13,13,16,19,23,23,23,25,29,31,33,33,34,34
participant_5_KILLS,0,0,0,0,0,0,0,0,0,0,0,0,0,0,0,0,0,0,0,0,0,0
participant_5_BUY,[],"[2051, 1028, 2003]",[],[],[],[],[],[],"[3068, 1033]",[3111],[],"[1057, 1028]",[],[1011],[3001],[1028],[],[3916],[],[2138],[3165],[]
participant_5_SOLD,[],[],[],[],[2003],[],[],[],[1028],"[1033, 2422]",[],[],[],[1028],"[1011, 1057]",[],[],[],[],[2138],"[3916, 1028]",[]
participant_5_UNDO,[],[],[],[],[],[],[],[],[],[],[],[],[],[],[],[],[],[],[],[],[],[]
participant_6_GOLD,1400,1400,1863,2381,3010,3777,4185,4756,5122,5634,6088,6731,8266,9002,9575,10058,10430,10919,11333,12082,12494,12575
participant_6_CURRENTGOLD,1400,300,763,1281,1910,477,435,1006,272,384,438,1081,1316,152,325,408,780,619,583,1332,244,325
participant_6_LEVEL,1,3,4,5,6,7,7,8,9,9,10,11,12,12,13,14,14,15,15,16,17,17
participant_6_MINIONSKILLED,0,0,1,4,5,11,11,15,15,18,19,20,21,22,27,27,27,27,27,30,31,31
participant_6_KILLS,0,0,0,0,1,2,2,2,2,2,2,3,5,6,6,6,6,6,6,7,7,7
participant_6_BUY,[],"[6660, 2003, 2003]",[],[],[],[3068],[1033],[],"[3211, 1001]",[1028],[3067],[],"[3065, 1033]","[3111, 1011, 3801]",[1028],[3067],[],[3083],[1033],[],"[3105, 1033]",[]
participant_6_SOLD,[],[],[],[],[2003],[6660],[2003],[],[1033],[],[1028],[],"[3211, 3067]","[1001, 1033]",[],[1028],[],"[1011, 3067, 3801]",[],[],[1033],[]
participant_6_UNDO,[],[],[],[],[],[],[],[],[],[],[],[],[],[],[],[],[],[],[],[],[],[]
participant_7_GOLD,1400,1400,1832,2322,2792,3508,3943,4588,5034,5418,5883,6367,6904,7450,8116,8616,9012,9574,10614,11010,11398,11509
participant_7_CURRENTGOLD,1400,0,432,922,1392,2108,143,188,634,583,648,1132,819,50,716,166,562,324,914,110,498,609
participant_7_LEVEL,1,3,4,5,6,7,7,8,9,9,10,11,11,12,13,13,14,14,16,16,17,17
participant_7_MINIONSKILLED,0,0,0,2,5,8,8,9,12,12,13,14,17,17,20,24,24,27,29,29,30,30
participant_7_KILLS,0,0,0,0,0,0,0,1,1,1,1,1,1,1,1,2,2,3,4,6,6,8
participant_7_BUY,[],"[6670, 2003, 2003]",[],[],[],[],"[6673, 2031]","[1001, 1042]",[3006],[],"[1042, 2015, 1042]",[3086],[],[3094],[],[1037],[],[3031],[],[],"[3035, 3133]",[]
participant_7_SOLD,[],[],[],[2003],[2003],[],[6670],[],"[1001, 1042]",[],[1042],[1042],[2031],"[3086, 2015]",[],[],[],[1037],[],[],[],[]
participant_7_UNDO,[],[],[],[],[],[],[],[],[],[],[],[],[],[],[],[],[],[],[],[],[],[]
participant_8_GOLD,1400,1400,1966,2461,3046,3525,3963,4679,5229,5757,6220,6728,7325,7835,8237,9601,10253,11014,11975,12994,13433,14269
participant_8_CURRENTGOLD,1400,0,566,1061,1646,2125,313,429,479,1007,470,78,735,445,847,1336,1988,224,1185,2204,93,869
participant_8_LEVEL,1,3,4,5,6,7,7,8,9,10,10,11,12,12,13,14,14,15,16,17,17,17
participant_8_MINIONSKILLED,0,0,9,12,18,19,21,28,32,35,38,41,44,44,44,48,58,62,71,79,83,83
participant_8_KILLS,0,0,0,0,0,1,1,2,2,2,2,2,2,2,3,3,3,3,4,4,4,4
participant_8_BUY,[],"[3802, 2003, 2003]",[],[],[],[],"[6653, 1001]",[3158],[],[1052],[1028],[],[1026],"[1011, 4637]",[],"[1052, 1004, 3916]",[],[4642],[3011],[4632],[],[]
participant_8_SOLD,[],[],[],[],[],[],"[2003, 3802]",[1001],[2003],[],[2052],[],[],"[1028, 1026, 1011, 1052]",[],"[2052, 1052]",[],[1004],"[3916, 4642]",[],[],[]
participant_8_UNDO,[],[],[],[],[],[],[],[],[],[],[],[],[],[],[],[],[],[],[],[],[],[]
participant_9_GOLD,1400,1400,1860,2313,2739,3343,4286,4727,5583,6485,7273,7928,8894,9563,10367,11386,11782,12527,13115,13743,14103,14259
participant_9_CURRENTGOLD,1400,100,560,1013,139,743,211,27,883,235,1023,278,1244,1313,1217,2236,132,877,1465,2093,1153,1309
participant_9_LEVEL,1,3,4,5,6,7,7,8,9,10,11,11,13,13,14,15,15,16,17,17,18,18
participant_9_MINIONSKILLED,0,0,1,1,1,5,7,8,13,13,23,25,32,35,38,48,48,52,57,61,61,61
participant_9_KILLS,0,0,0,0,0,0,2,2,3,5,6,7,9,9,10,12,12,13,13,13,13,13
participant_9_BUY,[],"[3070, 1001, 2003, 2003, 2003, 2003, 2003, 1036]",[],[],[1038],[],"[1037, 1018]",[3031],[],"[3133, 1028, 1036, 3067]",[],[3071],[],[3158],[1053],[],"[1038, 3072]",[],[],[],"[3123, 2140]",[]
participant_9_SOLD,[],[2052],[],"[2003, 2003, 2003]",[2003],[],[2003],"[1038, 1037, 1018]",[],"[1036, 1028]",[],"[3133, 3067]",[],[1001],[],[],"[1038, 1053]",[],[],[],[2140],[]
participant_9_UNDO,[],[],[],[],[],[],[],[],[],"[[0, 1036]]",[],[],[],[],[],[],[],[],[],[],[],[]
team0_KILLS,0,0,0,0,1,3,5,9,11,15,17,22,23,27,33,36,36,41,42,45,49,50
team0_CURRENTGOLD,7000,450,2701,5074,6625,8283,4630,5943,6661,6839,9675,10782,5021,4425,7420,8688,5243,8393,9175,3822,7775,8429
team0_TOTALGOLD,7000,7000,9251,11624,14425,17383,20180,23593,26261,29889,32725,36832,39921,43875,48720,52323,54478,58493,61575,64492,68445,69379
team0_LEVEL,5,15,20,25,30,32,36,41,46,50,54,59,60,65,70,74,76,80,83,86,89,89
team0_SBIRES,0,0,8,15,22,33,39,49,60,71,83,100,109,128,147,150,161,175,183,196,216,220
team1_KILLS,0,0,0,0,1,3,5,7,8,10,11,13,17,18,20,23,23,25,27,30,30,32
team1_CURRENTGOLD,7000,400,2795,5246,6553,7504,3626,4761,2618,2629,3556,2757,4891,2783,3460,4662,4465,2764,5386,6898,2236,3516
team1_TOTALGOLD,7000,7000,9395,11846,14453,17604,20301,23261,25968,28714,31441,34242,38466,41473,44350,48277,50580,53654,57176,60388,62376,63716
team1_LEVEL,5,15,20,25,30,35,36,41,45,48,52,55,60,62,66,70,72,76,80,83,86,86
team1_SBIRES,0,0,13,24,36,53,58,72,85,91,109,119,137,141,152,172,186,199,217,232,239,239
delta_KILLS,0,0,0,0,0,0,0,2,3,5,6,9,6,9,13,13,13,16,15,15,19,18
delta_CURRENTGOLD,0,50,-94,-172,72,779,1004,1182,4043,4210,6119,8025,130,1642,3960,4026,778,5629,3789,-3076,5539,4913
delta_TOTALGOLD,0,0,-144,-222,-28,-221,-121,332,293,1175,1284,2590,1455,2402,4370,4046,3898,4839,4399,4104,6069,5663
delta_LEVEL,0,0,0,0,0,-3,0,0,1,2,2,4,0,3,4,4,4,4,3,3,3,3
delta_SBIRES,0,0,-5,-9,-14,-20,-19,-23,-25,-20,-26,-19,-28,-13,-5,-22,-25,-24,-34,-36,-23,-19
