name,team0,team1
win,Fail,Win
firstBlood,False,True
firstTower,True,False
firstInhibitor,True,False
firstBaron,False,True
firstDragon,False,True
firstRiftHerald,True,False
towerKills,6,2
inhibitorKills,1,0
baronKills,0,1
dragonKills,0,3
riftHeraldKills,2,0
