name,team0,team1
win,Fail,Win
firstBlood,False,True
firstTower,False,True
firstInhibitor,False,True
firstBaron,False,False
firstDragon,False,True
firstRiftHerald,False,False
towerKills,0,10
inhibitorKills,0,4
baronKills,0,0
dragonKills,0,4
riftHeraldKills,0,0
