name,team0,team1
win,Win,Fail
firstBlood,True,False
firstTower,True,False
firstInhibitor,True,False
firstBaron,False,False
firstDragon,False,False
firstRiftHerald,False,True
towerKills,3,2
inhibitorKills,1,0
baronKills,0,0
dragonKills,0,0
riftHeraldKills,1,1
