name,frame_0,frame_1,frame_2,frame_3,frame_4,frame_5,frame_6,frame_7,frame_8,frame_9,frame_10,frame_11,frame_12,frame_13,frame_14,frame_15,frame_16,frame_17,frame_18,frame_19,frame_20,frame_21
nameStamp,Tstart,Tearly,Tearly,Tearly,Tearly,Tearly,Tearly,Tearly,Tearly,Tearly,Tearly,Tearly,Tearly,Tearly,Tearly,Tmid,Tmid,Tmid,Tmid,Tmid,Tmid,Tmid
timestamp,0,60011,120037,180064,240095,300131,360160,420188,480205,540223,600252,660275,720298,780331,840355,900378,960393,1020422,1080450,1140469,1200494,1260494
participant_0_GOLD,500,500,588,915,1155,1778,1962,2390,2574,3079,4042,4226,4930,5542,6294,6723,7089,7373,7635,8182,8529,8809
participant_0_CURRENTGOLD,500,200,288,615,855,1478,862,1290,224,729,1692,226,930,1542,2294,2723,140,423,685,1232,1579,1859
participant_0_LEVEL,1,1,1,3,4,6,6,7,7,7,8,8,9,9,10,10,11,11,11,12,12,12
participant_0_MINIONSKILLED,0,0,3,9,12,17,17,23,23,24,31,31,42,45,49,59,60,60,62,63,67,72
participant_0_KILLS,0,0,0,0,0,1,1,1,1,2,4,4,5,6,7,7,8,8,8,8,8,8
participant_0_BUY,[],[1001],[],[],[],[],[3006],[],"[1053, 1036]",[],[],"[1038, 1036]",[],[],[],[],"[3072, 2003, 1053, 3086]",[],[],[],[],[]
participant_0_SOLD,[],[],[],[],[],[],[1001],[],[],[],[],[],[],[],[],[],"[1038, 1036, 1053, 1036]",[],[],[],[],[]
participant_0_UNDO,[],[],[],[],[],[],[],[],[],[],[],[],[],[],[],[],[],[],[],[],[],[]
participant_1_GOLD,500,500,532,789,1085,1613,2220,2613,2930,3489,4098,4383,4841,5353,5705,6378,6807,7564,7965,8387,8620,8838
participant_1_CURRENTGOLD,500,150,182,439,735,1263,1870,2263,2580,3139,3748,1083,1541,2053,2406,3078,3507,4264,4665,5087,370,588
participant_1_LEVEL,1,1,1,3,4,5,6,6,7,8,9,9,9,10,11,11,12,12,13,13,13,13
participant_1_MINIONSKILLED,0,0,0,2,8,15,20,21,28,31,37,38,40,47,53,60,63,67,69,76,76,77
participant_1_KILLS,0,0,0,0,0,0,0,1,1,2,3,3,4,5,5,7,8,9,10,10,10,10
participant_1_BUY,[],[1027],[],[],[],[],[],[],[],[],[],"[3802, 3108, 3020]",[],[],[],[],[],[],[],[],"[3165, 3010, 1026]",[]
participant_1_SOLD,[],[],[],[],[],[],[],[],[],[],[],[1027],[],[],[],[],[],[],[],[],[],[]
participant_1_UNDO,[],[],[],[],[],[],[],[],[],[],[],[],[],[],[],[],[],[],[],[],[],[]
participant_2_GOLD,500,500,602,897,1830,2316,2809,2992,3176,3683,4337,4842,5593,6040,6438,6846,7496,8372,9524,10867,11992,12722
participant_2_CURRENTGOLD,500,0,102,397,1330,1816,2309,442,626,1133,1787,1142,1893,2340,588,996,1646,2522,3674,5017,6142,6872
participant_2_LEVEL,1,1,1,3,4,5,6,6,6,6,7,7,9,9,9,10,10,11,12,13,14,15
participant_2_MINIONSKILLED,0,0,4,11,14,16,18,18,18,21,26,27,31,38,44,54,65,74,79,84,93,94
participant_2_KILLS,0,0,0,0,2,3,4,4,4,5,6,7,9,9,9,9,9,11,15,20,23,27
participant_2_BUY,[],"[1055, 2003, 3340]",[],[],[],[],[],"[3044, 3067]",[],[],[],"[2003, 3047]",[],[],"[3071, 3211]",[],[],[],[],[],[],[]
participant_2_SOLD,[],[],[],[],[],[2003],[],[],[],[],[],[],[],[],"[3044, 3067]",[],[],[2003],[],[],[],[]
participant_2_UNDO,[],[],[],[],[],[],[],[],[],[],[],[],[],[],[],[],[],[],[],[],[],[]
participant_3_GOLD,500,500,532,757,941,1282,1507,1691,1874,2215,2571,2952,3331,3823,4057,4255,4940,5557,6150,6383,7300,7807
participant_3_CURRENTGOLD,500,500,532,757,941,1282,1507,1691,174,515,871,1252,181,673,907,1105,1790,2407,2550,2784,3701,4207
participant_3_LEVEL,1,1,1,3,4,5,6,6,6,6,7,7,7,8,8,8,9,10,10,10,11,12
participant_3_MINIONSKILLED,0,0,0,2,2,2,4,4,4,4,7,9,9,10,10,11,12,12,13,13,15,17
participant_3_KILLS,0,0,0,0,0,0,0,0,0,0,0,0,1,2,2,2,3,3,4,4,6,6
participant_3_BUY,[],[],[],[],[],[],[],[],"[2003, 1055, 1036, 1053, 1001]",[],[],[],"[2003, 1055, 1042, 3006, 2003, 2003, 2003]",[],[],[],[],[],[1055],[],[],[]
participant_3_SOLD,[],[],[],[],[],[],[],[],[1036],[],[],[],"[1001, 1042]",[],[],[],[],[],[],[],[],[]
participant_3_UNDO,[],[],[],[],[],[],[],[],[],[],[],[],[],[],[],[],[],[],[],[],[],[]
participant_4_GOLD,500,500,574,820,1032,1563,2546,2730,3327,3819,4132,4541,4725,5254,6012,6356,6590,6978,7287,7521,7754,7951
participant_4_CURRENTGOLD,500,50,124,370,582,1113,2096,280,877,1369,1682,2091,625,1154,1912,207,440,828,1138,1371,1605,1801
participant_4_LEVEL,1,1,1,3,4,5,6,6,7,8,8,8,8,9,9,10,10,10,10,10,10,10
participant_4_MINIONSKILLED,0,0,2,6,8,10,16,16,23,28,28,33,33,36,40,40,40,42,42,42,42,42
participant_4_KILLS,0,0,0,0,0,1,3,3,4,4,4,4,4,4,4,5,5,5,5,5,5,5
participant_4_BUY,[],[1055],[],[],[],[],[],"[1053, 3006]",[],[],[],[],"[1038, 1036]",[],[],"[3072, 1018, 1042]",[],[],[],[],[],[]
participant_4_SOLD,[],[],[],[],[],[],[],[],[],[],[],[],[],[],[],"[1038, 1036, 1053]",[],[],[],[],[],[]
participant_4_UNDO,[],[],[],[],[],[],[],[],[],[],[],[],[],[],[],[],[],[],[],[],[],[]
participant_5_GOLD,500,500,521,643,766,888,1109,1367,1503,1626,1769,2016,2239,2361,2505,2627,2750,2872,2994,3117,3239,3303
participant_5_CURRENTGOLD,500,300,321,443,566,688,909,1167,1303,1426,1569,1816,2039,2161,2305,2427,2550,2672,2794,2917,3039,3103
participant_5_LEVEL,1,1,1,1,2,2,3,4,4,5,5,6,7,7,7,7,7,8,8,8,8,8
participant_5_MINIONSKILLED,0,0,0,0,0,0,5,8,9,9,10,14,15,15,16,16,16,16,16,16,16,16
participant_5_KILLS,0,0,0,0,0,0,0,0,0,0,0,0,0,0,0,0,0,0,0,0,0,0
participant_5_BUY,[],"[2003, 2003, 2003, 2003, 3340]",[],[],[],[],[],[],[],[],[],[],[],[],[],[],[],[],[],[],[],[]
participant_5_SOLD,[],[],[],[],[],[],[],[2003],[],[],[],[2003],[],[2003],[2003],[],[],[],[],[],[],[]
participant_5_UNDO,[],[],[],[],[],[],[],[],[],[],[],[],[],[],[],[],[],[],[],[],[],[]
participant_6_GOLD,500,500,521,643,766,923,1346,1545,1778,1936,2858,3044,3166,3288,3460,3582,3705,3827,3949,4093,4215,4279
participant_6_CURRENTGOLD,500,300,321,443,566,723,1146,1345,1578,1736,2658,2844,2966,3088,3260,3382,3505,3627,3749,3893,4015,4079
participant_6_LEVEL,1,1,1,1,1,2,3,5,5,5,6,6,7,7,7,8,8,8,8,8,8,8
participant_6_MINIONSKILLED,0,0,0,0,0,2,2,7,10,12,12,15,15,15,18,18,18,18,18,19,19,19
participant_6_KILLS,0,0,0,0,0,0,1,1,1,1,2,2,2,2,2,2,2,2,2,2,2,2
participant_6_BUY,[],"[2003, 2003, 2003, 2003, 3340]",[],[],[],[],[],[],[],[],[],[],[],[],[],[],[],[],[],[],[],[]
participant_6_SOLD,[],[],[],[],[],[],[],[],[],[],[],[],[],[],[],[2003],[],[2003],[2003],[2003],[],[]
participant_6_UNDO,[],[],[],[],[],[],[],[],[],[],[],[],[],[],[],[],[],[],[],[],[],[]
participant_7_GOLD,500,500,521,643,766,888,1011,1133,1605,1728,1850,1994,2116,2238,2442,2564,3687,4230,4502,4625,4747,4811
participant_7_CURRENTGOLD,500,300,321,443,566,688,811,933,1405,1528,1650,1794,1916,2038,2242,2364,3487,4030,4302,4425,4547,4611
participant_7_LEVEL,1,1,1,1,2,2,2,3,5,5,5,6,6,7,7,7,8,10,10,10,10,10
participant_7_MINIONSKILLED,0,0,0,0,0,0,0,0,0,0,0,1,1,1,2,2,2,3,3,3,3,3
participant_7_KILLS,0,0,0,0,0,0,0,0,1,1,1,1,1,1,1,1,2,3,3,3,3,3
participant_7_BUY,[],"[2003, 2003, 2003, 2003, 3340]",[],[],[],[],[],[],[],[],[],[],[],[],[],[],[],[],[],[],[],[]
participant_7_SOLD,[],[],[],[],[],[2003],[2003],[2003],[2003],[],[],[],[],[],[],[],[],[],[],[],[],[]
participant_7_UNDO,[],[],[],[],[],[],[],[],[],[],[],[],[],[],[],[],[],[],[],[],[],[]
participant_8_GOLD,500,500,521,643,815,972,1130,1346,1468,1591,1727,1899,2101,2223,2367,2510,2633,2755,2877,3000,3136,3200
participant_8_CURRENTGOLD,500,300,321,443,615,772,930,1146,1268,1391,1527,1699,1901,2023,2167,2310,2433,2555,2677,2800,2936,3000
participant_8_LEVEL,1,1,1,1,2,2,3,4,4,4,5,6,6,6,7,7,8,8,8,9,9,9
participant_8_MINIONSKILLED,0,0,0,0,3,5,7,8,8,8,9,12,12,12,13,14,14,14,14,14,15,15
participant_8_KILLS,0,0,0,0,0,0,0,0,0,0,0,0,0,0,0,0,0,0,0,0,0,0
participant_8_BUY,[],"[2003, 2003, 2003, 2003, 3340]",[],[],[],[],[],[],[],[],[],[],[],[],[],[],[],[],[],[],[],[]
participant_8_SOLD,[],[],[],[],[2003],[],[],[2003],[],[],[2003],[],[],[2003],[],[],[],[],[],[],[],[]
participant_8_UNDO,[],[],[],[],[],[],[],[],[],[],[],[],[],[],[],[],[],[],[],[],[],[]
participant_9_GOLD,500,500,521,643,766,888,1175,1297,1461,1619,1741,1864,1986,2108,2231,2388,2553,2675,3397,3569,3705,3769
participant_9_CURRENTGOLD,500,300,321,443,566,688,975,1097,1261,1419,1541,1664,1786,1908,2031,2188,2353,2475,3197,3369,3505,3569
participant_9_LEVEL,1,1,1,1,2,3,3,3,4,5,6,6,7,7,7,8,8,8,9,9,10,10
participant_9_MINIONSKILLED,0,0,0,0,0,0,1,1,3,5,5,5,5,5,5,7,9,9,9,12,13,13
participant_9_KILLS,0,0,0,0,0,0,0,0,0,0,0,0,0,0,0,0,0,0,1,1,1,1
participant_9_BUY,[],"[2003, 2003, 2003, 2003, 3340]",[],[],[],[],[],[],[],[],[],[],[],[],[],[],[],[],[],[],[],[]
participant_9_SOLD,[],[],[],[],[],[],"[2003, 2003]",[],[],[],[],[],[],[],[],"[2003, 2003]",[],[],[],[],[],[]
participant_9_UNDO,[],[],[],[],[],[],[],[],[],[],[],[],[],[],[],[],[],[],[],[],[],[]
team0_KILLS,0,0,0,0,2,5,8,9,10,13,17,18,23,26,27,30,33,36,42,47,52,56
team0_CURRENTGOLD,2500,900,1228,2578,4443,6952,8644,5966,4481,6885,9780,5794,5170,7762,8107,8109,7523,10444,12712,15491,13397,15327
team0_TOTALGOLD,2500,2500,2828,4178,6043,8552,11044,12416,13881,16285,19180,20944,23420,26012,28506,30558,32922,35844,38561,41340,44195,46127
team0_LEVEL,5,5,5,15,20,26,30,31,33,35,39,39,42,45,47,49,52,54,56,58,60,62
team0_SBIRES,0,0,9,30,44,60,75,82,96,108,129,138,155,176,196,224,240,255,265,278,293,302
team1_KILLS,0,0,0,0,0,0,1,1,2,2,3,3,3,3,3,3,4,5,6,6,6,6
team1_CURRENTGOLD,2500,1500,1605,2215,2879,3559,4771,5688,6815,7500,8945,9817,10608,11218,12005,12671,14328,15359,16719,17404,18042,18362
team1_TOTALGOLD,2500,2500,2605,3215,3879,4559,5771,6688,7815,8500,9945,10817,11608,12218,13005,13671,15328,16359,17719,18404,19042,19362
team1_LEVEL,5,5,5,5,9,11,14,19,22,24,27,30,33,34,35,37,39,42,43,44,45,45
team1_SBIRES,0,0,0,0,3,7,15,24,30,34,36,47,48,48,54,57,59,60,60,64,66,66
delta_KILLS,0,0,0,0,2,5,7,8,8,11,14,15,20,23,24,27,29,31,36,41,46,50
delta_CURRENTGOLD,0,-600,-377,363,1564,3393,3873,278,-2334,-615,835,-4023,-5438,-3456,-3898,-4562,-6805,-4915,-4007,-1913,-4645,-3035
delta_TOTALGOLD,0,0,223,963,2164,3993,5273,5728,6066,7785,9235,10127,11812,13794,15501,16887,17594,19485,20842,22936,25153,26765
delta_LEVEL,0,0,0,10,11,15,16,12,11,11,12,9,9,11,12,12,13,12,13,14,15,17
delta_SBIRES,0,0,9,30,41,53,60,58,66,74,93,91,107,128,142,167,181,195,205,214,227,236
