name,team0,team1
win,Fail,Win
firstBlood,True,False
firstTower,False,True
firstInhibitor,False,True
firstBaron,False,True
firstDragon,False,True
firstRiftHerald,True,False
towerKills,1,10
inhibitorKills,0,3
baronKills,0,1
dragonKills,0,3
riftHeraldKills,1,0
