name,frame_0,frame_1,frame_2,frame_3,frame_4,frame_5,frame_6,frame_7,frame_8,frame_9,frame_10,frame_11,frame_12,frame_13,frame_14,frame_15,frame_16,frame_17,frame_18,frame_19,frame_20,frame_21,frame_22,frame_23,frame_24,frame_25,frame_26,frame_27,frame_28,frame_29,frame_30,frame_31,frame_32,frame_33,frame_34,frame_35,frame_36,frame_37,frame_38,frame_39,frame_40
nameStamp,Tstart,Tearly,Tearly,Tearly,Tearly,Tearly,Tearly,Tearly,Tearly,Tearly,Tearly,Tearly,Tearly,Tearly,Tearly,Tearly,Tmid,Tmid,Tmid,Tmid,Tmid,Tmid,Tmid,Tmid,Tmid,Tmid,Tmid,Tmid,Tmid,Tmid,Tmid,Tmid,Tmid,Tmid,Tmid,Tmid,Tmid,Tend,Tend,Tend,Tend
timestamp,0,60024,120038,180056,240056,300074,360102,420126,480152,540184,600209,660232,720251,780266,840290,900306,960328,1020345,1080367,1140369,1200396,1260422,1320450,1380480,1440502,1500515,1560542,1620558,1680561,1740569,1800576,1860598,1920613,1980636,2040646,2100657,2160687,2220693,2280699,2340724,2400726
participant_0_GOLD,500,500,542,699,1049,1329,1645,1849,2426,2779,3100,3285,3463,3715,4037,4362,4608,4759,5388,5582,6025,6147,6420,6684,7322,7481,7655,7994,8312,8455,9994,10357,11043,11594,12272,12436,13101,13412,13834,14305,15541
participant_0_CURRENTGOLD,500,500,42,199,549,129,445,349,926,179,500,385,563,815,236,562,408,559,488,681,775,897,70,334,971,331,505,844,1162,255,919,657,668,495,1172,1336,2002,212,635,406,1641
participant_0_LEVEL,1,1,1,1,3,4,5,5,6,7,7,7,8,8,9,9,10,10,10,10,11,11,12,12,12,13,13,13,14,14,15,15,16,16,16,16,17,17,18,18,18
participant_0_MINIONSKILLED,0,0,1,3,13,22,30,34,43,53,57,60,63,69,77,85,88,90,90,91,103,103,103,103,109,109,109,114,121,121,136,139,150,157,157,159,167,172,172,186,191
participant_0_KILLS,0,0,0,0,0,0,0,0,0,0,0,0,1,1,1,1,2,2,4,4,4,4,4,4,4,5,6,6,6,6,9,9,9,9,9,9,9,9,12,12,13
participant_0_BUY,[],"[1055, 2003, 3340]",[],[],[],[],[],[1038],[],[],"[1036, 1036, 1036]",[],[],[],"[6670, 1053]",[1018],[1001],[],[],"[6673, 3031]",[1042],[],[],[3006],[],[3086],[],[2015],[],"[3094, 1018]",[],[3036],[],[3086],[],[],[],[3085],[],[],[]
participant_0_SOLD,[],[],[],[],[],[2003],[],[],[],[],[],[],[],[],"[1036, 1036, 1036]",[],[],[],[],"[6670, 1018, 1053, 1038]",[],[],[],"[1001, 1042]",[],[],[],[],[],"[3086, 2015]",[],[1018],[],[1055],[],[],[],[3086],[],[],[]
participant_0_UNDO,[],[],[],[],[],[],[],[],[],[],[],[],[],[],[],[],[],[],[],[],[],[],[],[],[],[],[],[],[],[],[],[],[],[],[],[],[],[],[],[],[]
participant_1_GOLD,500,500,706,1347,1547,1754,2012,2219,2616,2937,3159,3557,3679,3886,4039,4266,4489,4660,4972,5382,5504,5894,6736,6858,7401,7843,8232,8355,8712,8890,9013,9295,9668,9885,10159,10373,10945,11095,12364,12691,13113
participant_1_CURRENTGOLD,500,0,206,847,1047,254,512,719,1116,1437,559,957,679,886,39,266,489,660,272,682,104,94,936,183,726,143,532,305,662,490,213,496,268,485,760,973,246,46,1314,492,914
participant_1_LEVEL,1,1,2,3,4,4,5,5,6,6,6,7,7,8,8,8,8,8,9,9,9,10,10,10,11,11,12,12,12,12,12,13,13,14,14,14,15,15,16,16,16
participant_1_MINIONSKILLED,0,0,0,1,1,1,1,1,1,1,1,1,1,1,2,2,2,2,2,12,12,17,17,17,18,18,21,21,21,24,24,24,24,24,24,30,30,32,35,35,35
participant_1_KILLS,0,0,0,0,1,1,1,1,1,2,2,2,3,3,3,4,4,4,5,5,5,5,5,5,5,5,5,5,5,5,5,5,5,5,5,5,6,6,6,6,6
participant_1_BUY,[],"[3850, 3340, 2003, 2003]",[],[],[],[],[],"[1052, 1052, 1001]",[],[3802],"[2055, 3364]",[],[],[],[],"[6655, 3020]",[],[],"[3191, 2055]",[],[],[],[],[3108],[3157],[1033],[1052],[],[],[4632],[3108],[],[3102],[],[],[1052],[],[4630],[],[3135],[]
participant_1_SOLD,[],[],[],[],[2003],[],[],[],[2003],"[3850, 1052, 1052]",[3340],[2419],[],[2055],[2423],"[3802, 1001]",[],[],[3851],[],[],[],[],[2055],"[3191, 3108, 2424]",[],[],[],[],"[1033, 1052]",[],[],"[3108, 4632]",[],[],[],[],[1052],[],[4630],[]
participant_1_UNDO,[],[],[],[],[],[],[],[],[],[],[],[],[],[],[],[],[],[],[],[],[],[],[],[],[],[],[],[],[],[],[],[],[],[],[],[],[],[],[],[],[]
participant_2_GOLD,500,500,577,846,1060,1210,1574,1731,2076,2311,2653,2990,3217,3501,4031,4523,4770,4892,5245,5488,5749,5977,6099,6221,6447,6772,7251,7627,8269,9391,9903,10047,10419,11242,11440,11562,12284,12464,13066,13279,14394
participant_2_CURRENTGOLD,500,0,77,346,560,360,714,1,336,491,398,725,387,671,1191,483,730,437,790,1033,1294,176,299,421,646,571,1051,491,1133,1440,703,846,129,952,1149,1272,694,439,1041,439,1554
participant_2_LEVEL,1,1,1,3,4,5,6,6,7,7,7,8,8,9,9,10,10,10,11,11,11,11,11,11,12,12,12,13,13,13,14,14,15,15,15,15,16,16,17,17,18
participant_2_MINIONSKILLED,0,0,3,12,17,19,30,32,42,48,48,57,63,72,78,82,85,85,91,95,99,105,105,105,107,108,111,115,115,115,116,117,117,128,128,128,128,132,133,139,151
participant_2_KILLS,0,0,0,0,0,0,0,0,0,0,1,1,1,1,2,3,3,3,3,3,3,3,3,3,3,3,4,4,6,7,7,7,7,8,8,8,9,9,9,9,10
participant_2_BUY,[],"[1056, 2003, 2003]",[],[],[],[1027],[],"[1052, 1052]",[],[3802],[1052],[],"[3108, 2003, 2003]",[],[],[6653],[],[1052],[],[],[],"[3020, 1026]",[],[],[],[1028],[],"[1011, 1052]",[],[4637],[1058],[],[1058],[],[],[],[3089],[1052],[],[4630],[]
participant_2_SOLD,[],[],[],"[2003, 2003]",[],[],[],[],[],"[1052, 1027, 1052]",[],[],"[1052, 2003]",[],[],"[3802, 3108]",[],[2003],[],[],[],"[2422, 1052]",[],[],[],[],[],[1028],[],"[1026, 1011, 1052]",[],[],[1056],[],[],[],"[1058, 1058]",[],[],[1052],[]
participant_2_UNDO,[],[],[],[],[],[],[],[],[],[],[],[],[],[],[],[],[],[],[],[],[],[],[],[],[],[],[],[],[],[],[],[],[],[],[],[],[],[],[],[],[]
participant_3_GOLD,500,500,598,881,1301,1465,1906,2063,2478,2885,3112,3380,4108,4471,4594,4866,5289,5683,7322,7850,7993,8395,8659,8802,8975,9834,10456,10816,11418,11840,13931,14398,15014,15211,15642,16225,17088,17415,19830,20531,21515
participant_3_CURRENTGOLD,500,0,98,381,801,965,1406,263,678,1085,262,530,1258,1621,594,266,389,783,2422,250,93,495,759,402,575,235,856,516,1118,141,2232,399,1014,192,622,1206,2069,195,2611,3312,4297
participant_3_LEVEL,1,1,1,2,3,3,4,4,5,6,6,6,7,8,8,8,8,9,10,10,10,11,11,11,12,12,12,13,13,14,15,16,16,16,17,17,18,18,18,18,18
participant_3_MINIONSKILLED,0,0,4,14,22,24,40,42,55,64,70,75,84,94,94,94,94,105,116,122,123,135,138,139,139,139,145,155,171,184,199,209,210,210,216,229,234,241,246,249,252
participant_3_KILLS,0,0,0,1,1,1,1,1,1,1,1,1,1,1,1,1,1,1,1,1,1,1,2,2,3,4,4,4,4,4,4,5,5,5,5,5,5,5,6,6,6
participant_3_BUY,[],"[1039, 2031, 2003, 2003, 2003, 3340]",[],[],[],"[3117, 1036, 1036, 1036, 1001]",[],[],[],[],"[3134, 1036, 1036]",[],[3133],[],[6691],[],[],[],[3117],[],"[1036, 1036]",[3134],[],[1037],[],[3142],[],[1036],[],[1036],[3134],[],[1018],[],[],[],[6676],[1036],[],"[3134, 1028]",[]
participant_3_SOLD,[],[],[],[2003],[],[],[],[],[2003],[2003],"[1036, 1036]",[],"[1036, 1036]",[],"[3134, 3133]",[],[],[],[1001],[],[],"[1039, 1036, 1036]",[],[],[],"[3134, 1037]",[],[],[],[],"[1036, 1036]",[],[],[],[],[],"[3134, 1018]",[],[],[1036],[]
participant_3_UNDO,[],"[[0, 2031]]",[],[],[],"[[0, 3117], [0, 1036]]",[],[],[],[],[],[],[],[],[],[],[],[],[],[],[],[],[],[],[],[],[],[],[],[],[],[],[],[],[],[],[],[],[],[],[]
participant_4_GOLD,500,500,523,758,1293,1487,1702,1899,2073,2565,2735,3070,3687,3957,4326,5108,5353,5563,6248,6448,6589,6952,7107,7429,7726,7979,8307,8594,8844,9134,9493,9873,10263,10403,10587,10737,11478,11660,12325,12508,13111
participant_4_CURRENTGOLD,500,0,23,258,793,987,1202,229,403,465,560,895,1512,1782,2151,33,278,488,198,398,539,902,1057,509,356,159,52,339,589,564,24,403,393,534,717,432,1173,540,1206,138,741
participant_4_LEVEL,1,1,1,2,3,3,4,4,5,6,6,6,7,7,8,8,9,9,10,10,10,11,11,11,11,12,12,12,13,13,14,14,15,15,15,15,16,16,17,17,17
participant_4_MINIONSKILLED,0,0,0,1,1,1,1,5,5,5,6,7,9,10,11,12,19,20,20,21,21,31,31,38,43,43,46,51,51,51,55,64,64,64,67,68,68,71,71,74,74
participant_4_KILLS,0,0,0,0,0,0,0,0,1,1,1,1,1,1,1,1,1,1,2,2,2,2,2,2,3,3,3,3,3,3,4,4,4,4,5,5,5,5,5,5,7
participant_4_BUY,[],[],"[2033, 3340]",[],[],[3057],[],[1029],[],[3044],[],[1001],[],[],"[3047, 1028]",[],[3067],[],[6632],[],[1036],[],"[3133, 1036]",[],[],[3067],[],[],[],[3071],[1037],"[3044, 1028]",[1037],[3053],[],[],[],"[1038, 1031]",[],[3026],[]
participant_4_SOLD,[],[],[],[],[],[],[],[],[],[],[],[],[],[],"[1001, 1029]",[],[1028],[],"[3044, 3057, 3067]",[],[],[],[1036],[],[],[],[],[],[],"[3133, 3067, 1036]",[],[],[2033],"[1037, 3044, 1028]",[],[],[],[],[],"[1038, 1031]",[]
participant_4_UNDO,[],[],[],[],[],[],[],[],[],[],[],[],[],[],[],[],[],[],[],[],[],[],[],[],[],[],[],[],[],[],[],"[[0, 1037]]",[],[],[],[],[],[],[],[],[]
participant_5_GOLD,500,500,542,1266,1389,1966,2311,2650,2787,3549,3749,3991,5058,5282,5523,6595,7222,8318,8440,8991,9836,10401,10807,11188,11352,12077,12500,13216,13755,15503,15625,16288,16755,17586,17751,18005,18294,19580,19702,19970,20093
participant_5_CURRENTGOLD,500,0,42,766,189,766,61,400,187,949,1149,1391,2458,1282,373,1445,2072,3168,341,891,1736,2301,733,693,433,1158,1580,2297,2835,4584,431,1093,1561,2392,2557,286,575,1861,53,322,444
participant_5_LEVEL,1,1,1,3,3,5,5,6,6,7,7,8,9,10,10,11,11,12,12,12,12,13,13,14,14,14,15,15,15,16,16,17,17,18,18,18,18,18,18,18,18
participant_5_MINIONSKILLED,0,0,1,11,11,16,20,33,34,34,39,42,56,61,68,83,83,84,84,88,93,97,102,112,115,116,125,138,144,151,151,155,155,156,159,162,167,183,183,188,188
participant_5_KILLS,0,0,0,1,1,2,2,2,2,3,3,3,5,5,5,5,6,8,8,9,10,11,11,11,11,12,12,12,12,16,16,17,18,19,19,19,19,20,20,20,20
participant_5_BUY,[],"[1055, 2003, 3340, 1054, 2003, 3340]",[],[],"[1036, 1036]",[],"[3134, 1036, 1001]",[],[1036],[],[],[],[],[6692],"[3111, 1036]",[],[],[],[3074],[],[],[],"[3134, 1037]",[1018],[6676],[],[],[],[],[],"[6333, 3072, 1037]",[],[],[],[],[3031],[],[],[3046],[],[]
participant_5_SOLD,[],[],[],[2003],[],[],"[1036, 1036]",[],[],[],[],[],[],"[3134, 1036, 1036]",[1001],[],[],[],[1036],[],[],[],[1054],[1054],"[3134, 1037, 1018]",[],[],[],[],[],[],[],[3111],[],[],[1037],[],[],[3111],[],[]
participant_5_UNDO,[],"[[3340, 0], [0, 2003], [0, 1055]]",[],[],[],[],[],[],[],[],[],[],[],[],[],[],[],[],[],[],[],[],"[[1054, 0]]",[],[],[],[],[],[],[],"[[0, 6333]]",[],"[[3111, 0]]",[],[],[],[],[],[],[],[]
participant_6_GOLD,500,500,621,949,1241,1440,1648,1960,2207,2613,2850,3222,3592,3913,4665,4937,5516,5808,6230,6787,7288,7639,8483,8676,8913,9110,9854,10041,10688,10911,11307,11430,12013,12460,13000,13137,13360,13532,13759,14182,14304
participant_6_CURRENTGOLD,500,0,121,449,741,940,373,685,107,513,750,1122,1492,63,815,312,91,383,330,887,1388,1739,2583,176,413,135,879,191,839,161,558,680,1264,411,136,273,496,668,95,518,290
participant_6_LEVEL,1,1,2,3,3,4,4,5,5,6,6,7,8,8,8,9,9,10,10,10,11,11,12,12,13,13,13,13,14,14,15,15,15,15,16,16,16,16,16,17,17
participant_6_MINIONSKILLED,0,0,0,0,0,0,0,0,0,2,2,4,4,6,7,7,7,7,7,8,11,11,13,13,15,15,15,15,15,15,15,15,15,15,15,15,16,16,16,16,16
participant_6_KILLS,0,0,0,0,0,0,0,0,0,0,0,0,0,0,0,1,1,1,1,1,1,1,1,1,1,1,1,1,1,1,1,1,1,1,1,1,1,1,1,1,1
participant_6_BUY,[],"[3854, 2003, 2003]",[],[],[1001],[],"[2055, 2055]",[],[],"[1029, 3117, 2055]",[],[],[1029],[2055],[1033],"[2055, 3364]",[],[],"[3105, 1028]",[],[],"[3190, 1029]",[],"[2055, 1027]",[],"[3024, 1028, 2055]",[],[],[],[],[],[],[],[],[],[],[],[],[],[],[]
participant_6_SOLD,[],[],[],[],"[2003, 2003]",[],[],[2055],[],[1001],[],[],[2055],[2055],[3854],[3340],[],[],"[1033, 1029]",[2055],[],"[1028, 3105, 3855]",[],[],[2055],"[1027, 1029]",[],[2055],[],[],[],[],[],[],[],[],[],[],[],[],[]
participant_6_UNDO,[],[],[],[],[],[],[],[],[],"[[0, 1029]]",[],[],[],[],[],[],[],[],[],[],[],[],[],[],[],[],[],[],[],[],[],[],[],[],[],[],[],[],[],[],[]
participant_7_GOLD,500,500,605,915,1248,1887,2180,2925,3306,4157,4488,4854,5404,5624,6126,6598,7453,8429,8727,9545,10271,10886,12054,12407,12714,13977,14604,14972,15406,15678,16260,16382,16504,17354,17482,17830,18226,18483,18606,18728,18850
participant_7_CURRENTGOLD,500,0,105,415,748,2,285,1030,176,1027,108,464,1004,424,916,138,993,1969,517,1335,161,776,1944,2298,54,1317,1945,462,897,529,1110,1233,1355,2205,133,481,877,634,757,379,502
participant_7_LEVEL,1,1,1,3,4,6,6,7,8,9,9,10,10,11,11,11,12,13,13,14,14,14,15,15,15,16,16,16,16,17,17,17,17,17,17,18,18,18,18,18,18
participant_7_MINIONSKILLED,0,0,5,15,27,37,44,55,67,78,81,92,104,110,115,115,131,137,143,148,150,166,166,172,177,183,190,197,201,201,206,206,206,217,217,224,231,231,231,231,231
participant_7_KILLS,0,0,0,0,0,1,1,2,2,4,4,4,4,4,4,5,6,7,7,8,9,10,12,12,12,15,16,16,16,16,17,17,17,18,18,18,18,18,18,18,18
participant_7_BUY,[],"[1056, 2003, 2003, 3340]",[],[],[],"[3802, 2055]",[],[],"[1026, 1001, 2055]",[],[6655],[],[],[3020],[],[1058],[],[],[4628],[],"[2420, 1058]",[],[],[],[3089],[],[],[3157],[],[3916],[],[3363],[],[],"[3165, 2139]",[],[],[2139],[],[2139],[]
participant_7_SOLD,[],[],[],[],[],[],[2055],[2003],[],[2003],"[3802, 1026]",[],[],[1001],[2055],[],[],[],[1058],[],[],[],[],[],[1058],[],[],[2420],[],[1056],[],[3340],[],[],"[3916, 2139]",[],[],[2139],[],[2139],[]
participant_7_UNDO,[],[],[],[],[],[],[],[],[],[],[],[],[],[],[],[],[],[],[],[],[],[],[],[],[],[],[],[],[],[],[],[],[],[],[],[],[],[],[],[],[]
participant_8_GOLD,500,500,584,832,1148,1431,1554,1837,2154,2909,3187,3574,3773,3930,4491,4663,5114,5516,5713,6013,6886,7086,7576,7788,8035,8158,8302,8475,8820,9067,9190,9657,9803,10250,10462,10737,11351,11565,11820,11942,12064
participant_8_CURRENTGOLD,500,0,84,332,648,931,54,337,654,1409,37,424,623,780,1341,63,514,916,13,313,1186,1386,1876,2088,435,558,102,275,620,867,115,582,729,1175,267,543,1157,146,100,223,175
participant_8_LEVEL,1,1,1,2,3,4,4,5,5,6,7,7,8,8,9,9,9,10,10,10,11,11,12,12,12,12,13,13,13,13,13,14,14,14,14,14,15,15,15,15,15
participant_8_MINIONSKILLED,0,0,3,10,19,28,28,38,46,56,62,74,78,80,84,84,95,104,104,114,121,123,130,131,134,134,135,135,140,143,143,150,150,156,157,162,165,168,172,172,172
participant_8_KILLS,0,0,0,0,0,0,0,0,0,0,0,0,0,0,2,2,3,3,4,5,5,5,7,7,7,7,8,8,9,9,10,10,11,11,12,12,12,12,12,13,13
participant_8_BUY,[],"[1039, 2031, 3340]",[3364],[],[],[],"[1036, 1036, 2055, 3340]",[],"[3134, 1036, 2055]",[],[],[],[],"[6692, 3340, 3364]",[],"[1036, 1036, 2055]","[3134, 3047]",[],"[3134, 2055]",[],[],[],[],"[3142, 1036, 1036]",[],"[3134, 2055]",[],[1037],[],"[6695, 2055]",[],[],[],[3140],[1037],[],[],[],"[3139, 2055]",[],[1036]
participant_8_SOLD,[],[],[3340],[2010],[],[2010],[3364],[2010],"[2055, 1039, 1036, 1036]",[],[],[2055],[],"[3134, 1036, 3364, 3340]",[],[],"[1036, 1036, 2422]",[],"[2055, 1036, 1036]",[2055],[],[],[],[3134],[],"[1036, 1036]",[2055],[],[],"[3134, 1037]",[],[],[2055],[],[2031],[],[],[],"[3140, 1037]",[2055],[]
participant_8_UNDO,[],[],[],[],[],[],"[[3340, 0]]",[],[],[],[],[],[],[],[],[],"[[0, 3134]]",[],[],[],[],[],[],[],[],[],[],[],[],[],[],[],[],[],[],[],[],[],[],[],[]
participant_9_GOLD,500,500,544,699,894,1070,1205,1395,1619,1775,1909,2119,2253,2436,2726,3231,3639,3941,4156,4425,4841,5106,5383,5524,5684,6200,6341,6557,6747,6887,7028,7168,7308,7449,7589,7730,7870,8060,8201,8341,8482
participant_9_CURRENTGOLD,500,0,44,199,94,270,255,445,669,50,184,394,228,336,176,606,1014,1316,381,650,1066,232,508,224,384,175,316,532,722,862,1003,1143,1284,1424,1564,1705,1845,2036,2176,2316,2457
participant_9_LEVEL,1,1,1,2,2,3,3,4,4,5,5,6,6,7,7,8,8,9,9,9,10,10,10,10,10,11,11,11,12,12,12,12,12,12,12,12,12,12,12,12,12
participant_9_MINIONSKILLED,0,0,1,2,3,5,5,8,10,11,11,12,12,15,15,16,19,21,21,23,25,26,26,26,27,27,27,27,27,27,27,27,27,27,27,27,27,27,27,27,27
participant_9_KILLS,0,0,0,0,0,0,0,0,0,1,1,1,1,1,2,2,2,2,2,2,2,2,2,2,2,2,2,2,2,2,2,2,2,2,2,2,3,3,3,3,3
participant_9_BUY,[],"[1055, 2003]",[],[],[],[],"[1036, 1036, 1001]",[],[],[],"[3134, 1036, 1053, 1036]",[],[],[],[],"[6692, 3009]",[],[],"[1036, 1036, 3134]",[],[],[],[],[],[6676],[],[1018],[],[],[],[1037],[],[],[],[1038],[],[],"[3031, 1018]",[1042],[],[3006]
participant_9_SOLD,[],[],[],[],[2003],[],[],[],[],[],"[1036, 1036, 1036]",[],[],[],[],"[3134, 1036, 1053, 1001]",[],[],"[1036, 1036]",[],[],[],[],[],[3134],[],[],[],[],[],[],[],[],[],[1055],[],[],"[1038, 1037, 1018]",[],[],"[3009, 1042]"
participant_9_UNDO,[],[],[],[],[],[],[],[],[],[],[],[],[],[],[],[],[],[],[],[],[],[],[],[],[],[],[],[],[],[],[],[],[],[],[],[],[],[],[],[],[]
team0_KILLS,0,0,0,1,2,2,2,2,3,4,5,5,7,7,8,10,11,11,15,15,15,15,16,16,18,20,22,22,24,25,29,30,30,31,32,32,34,34,38,38,42
team0_CURRENTGOLD,2500,500,446,2031,3750,2695,4279,1561,3459,3657,2279,3492,4399,5775,4211,1610,2294,2927,4170,3044,2805,2564,3121,1849,3274,1439,2996,2495,4664,2890,4091,2801,2472,2658,4420,5219,6184,1432,6807,4787,9147
team0_TOTALGOLD,2500,2500,2946,4531,6250,7245,8839,9761,11669,13477,14759,16282,18154,19530,21027,23125,24509,25557,29175,30750,31860,33365,35021,35994,37871,39909,41901,43386,45555,47710,52334,53970,56407,58335,60100,61333,64896,66046,71419,73314,77674
team0_LEVEL,5,5,6,11,17,19,24,24,29,32,32,34,37,40,42,43,45,46,50,50,51,54,55,55,58,60,61,63,65,66,70,72,75,76,77,77,82,82,86,86,87
team0_SBIRES,0,0,8,31,54,67,102,114,146,171,182,200,220,246,262,275,288,302,319,341,358,391,394,402,416,417,432,456,479,495,530,553,565,583,592,614,627,648,657,683,703
team1_KILLS,0,0,0,1,1,3,3,4,4,8,8,8,10,10,13,15,18,21,22,25,27,29,33,33,33,37,39,39,40,44,46,47,49,51,52,52,53,54,54,55,55
team1_CURRENTGOLD,2500,0,396,2161,2420,2909,1028,2897,1793,3948,2228,3795,5805,2885,3621,2564,4684,7752,1582,4076,5537,6434,7644,5479,1719,3343,4822,3757,5913,7003,3217,4731,6193,7607,4657,3288,4950,5345,3181,3758,3868
team1_TOTALGOLD,2500,2500,2896,4661,5920,7794,8898,10767,12073,15003,16183,17760,20080,21185,23531,26024,28944,32012,33266,35761,39122,41118,44303,45583,46698,49522,51601,53261,55416,58046,59410,60925,62383,65099,66284,67439,69101,71220,72088,73163,73793
team1_LEVEL,5,5,6,13,15,22,22,27,28,33,34,38,41,44,45,48,49,54,54,55,58,59,62,63,64,66,68,68,70,72,73,75,75,76,77,78,79,79,79,80,80
team1_SBIRES,0,0,10,38,60,86,97,134,157,181,195,224,254,272,289,305,335,353,359,381,400,423,437,454,468,475,492,512,527,537,542,553,553,571,575,590,606,625,629,634,634
delta_KILLS,0,0,0,0,1,-1,-1,-2,-1,-4,-3,-3,-3,-3,-5,-5,-7,-10,-7,-10,-12,-14,-17,-17,-15,-17,-17,-17,-16,-19,-17,-17,-19,-20,-20,-20,-19,-20,-16,-17,-13
delta_CURRENTGOLD,0,500,50,-130,1330,-214,3251,-1336,1666,-291,51,-303,-1406,2890,590,-954,-2390,-4825,2588,-1032,-2732,-3870,-4523,-3630,1555,-1904,-1826,-1262,-1249,-4113,874,-1930,-3721,-4949,-237,1931,1234,-3913,3626,1029,5279
delta_TOTALGOLD,0,0,50,-130,330,-549,-59,-1006,-404,-1526,-1424,-1478,-1926,-1655,-2504,-2899,-4435,-6455,-4091,-5011,-7262,-7753,-9282,-9589,-8827,-9613,-9700,-9875,-9861,-10336,-7076,-6955,-5976,-6764,-6184,-6106,-4205,-5174,-669,151,3881
delta_LEVEL,0,0,0,-2,2,-3,2,-3,1,-1,-2,-4,-4,-4,-3,-5,-4,-8,-4,-5,-7,-5,-7,-8,-6,-6,-7,-5,-5,-6,-3,-3,0,0,0,-1,3,3,7,6,7
delta_SBIRES,0,0,-2,-7,-6,-19,5,-20,-11,-10,-13,-24,-34,-26,-27,-30,-47,-51,-40,-40,-42,-32,-43,-52,-52,-58,-60,-56,-48,-42,-12,0,12,12,17,24,21,23,28,49,69
