name,frame_0,frame_1,frame_2,frame_3,frame_4,frame_5,frame_6,frame_7,frame_8,frame_9,frame_10,frame_11,frame_12,frame_13,frame_14,frame_15,frame_16,frame_17,frame_18,frame_19,frame_20,frame_21,frame_22,frame_23
nameStamp,Tstart,Tearly,Tearly,Tearly,Tearly,Tearly,Tearly,Tearly,Tearly,Tearly,Tearly,Tearly,Tmid,Tmid,Tmid,Tmid,Tmid,Tmid,Tmid,Tmid,Tmid,Tmid,Tmid,Tmid
timestamp,0,60004,120032,180062,240093,300120,360121,420123,480154,540168,600174,660174,720199,780216,840228,900240,960245,1020270,1080277,1140300,1200330,1260356,1320363,1380390
participant_0_GOLD,500,500,562,892,1057,1494,2401,2656,3365,4036,4243,4415,4943,5307,5429,5946,6270,6616,6990,7697,8141,8605,9097,9524
participant_0_CURRENTGOLD,500,0,62,392,157,594,1501,256,965,1636,493,665,1193,1557,79,146,470,116,490,1197,341,805,97,524
participant_0_LEVEL,1,1,1,3,3,5,5,6,7,8,8,8,9,9,9,10,10,11,11,12,12,12,12,13
participant_0_MINIONSKILLED,0,0,2,12,15,30,37,45,49,59,64,64,75,85,85,91,95,104,114,118,123,124,124,128
participant_0_KILLS,0,0,0,0,0,0,0,0,0,0,0,0,1,1,2,2,2,2,2,2,3,4,4,5
participant_0_BUY,[],"[1039, 2031]",[],[],[1041],[],[3715],"[1036, 1036, 2055]",[],[],[1412],[],[],"[3134, 3111, 1036, 1036]",[],[3147],[],"[1036, 2055, 2055]",[],"[1036, 2055, 2055]","[3134, 1028, 2055]",[],[],[]
participant_0_SOLD,[],[],[],[],[],[],"[1039, 1041]",[],[],[2055],"[1036, 1036, 3715]","[3340, 3513]",[],"[2422, 2031]",[],"[3134, 1036, 1036]",[],[],"[2055, 2055]",[],"[2055, 1036, 1036]",[],[],"[2055, 2055]"
participant_0_UNDO,[],[],[],[],[],[],[],[],[],[],[],[],[],[],[],[],[],[],[],[],[],[],[],[]
participant_1_GOLD,500,500,660,1013,1167,1508,1943,2200,2645,2792,3279,4352,5071,5610,6241,6619,6958,7166,7448,7735,8436,8967,9164,9678
participant_1_CURRENTGOLD,500,0,160,513,317,658,793,275,720,867,429,1502,2221,220,851,129,468,176,458,244,71,602,799,1313
participant_1_LEVEL,1,1,2,3,3,4,5,5,6,6,7,7,8,8,9,10,10,10,11,11,12,12,12,13
participant_1_MINIONSKILLED,0,0,0,0,0,0,0,0,0,0,0,0,3,4,10,10,11,11,11,12,12,13,14,16
participant_1_KILLS,0,0,0,0,0,0,0,0,0,2,3,4,5,5,6,7,10,11,15,18,18,19,20,23
participant_1_BUY,[],"[1056, 2003, 3340, 2003]",[],[],"[1056, 2031]",[],"[1052, 2055]","[1054, 1052]",[],[],"[3152, 1001]",[],[],"[3174, 3115]",[],"[3020, 2055]",[],"[1058, 1058, 1058, 3041]",[],[1058],"[3089, 2140, 2139]",[],[3108],[]
participant_1_SOLD,[],[],[2003],[2003],[],[],[],[2055],[],[],"[1052, 1052, 2031]",[],[],[],[],[1001],[2055],[1056],[],[1056],"[3340, 1058, 1058]","[2139, 3513]",[],[]
participant_1_UNDO,[],[],[],[],[],[],[],"[[0, 1054]]",[],[],[],[],[],"[[0, 3174]]",[],[],[],"[[0, 1058], [0, 1058]]",[],[],"[[0, 2140]]",[],[],[]
participant_2_GOLD,500,500,520,934,1103,1554,1752,2056,2311,3564,4170,5243,6527,6996,7872,8524,9982,10425,12020,13106,13468,14261,14733,15931
participant_2_CURRENTGOLD,500,0,20,434,53,504,192,61,316,1569,305,1378,2662,131,1007,784,2242,195,1790,1786,549,1341,914,2112
participant_2_LEVEL,1,1,1,3,3,5,5,6,6,8,8,9,10,10,11,12,12,12,13,13,13,14,14,14
participant_2_MINIONSKILLED,0,0,0,14,16,33,33,45,53,63,75,83,93,99,115,119,126,127,129,130,131,141,141,145
participant_2_KILLS,0,0,0,1,1,1,1,1,1,1,3,3,4,4,4,4,5,5,5,6,6,6,6,6
participant_2_BUY,[],"[3854, 3340, 2003, 2003]",[],"[1028, 2003, 2003]",[],[],[],"[3751, 2055, 2055, 2003]",[],"[1028, 2003]",[],[],"[3105, 1033, 2003, 2003, 3364]",[],[],[],[],"[3190, 3009]",[],[],"[3211, 1006]",[],[],[]
participant_2_SOLD,[],[],[],[2003],"[2003, 2010, 2003]",[],"[2003, 2010]","[1028, 2055]",[],[],[3854],"[2055, 2010]","[2003, 3340]",[],[],[2003],"[2003, 2003]","[3105, 1033]",[],[],[1028],[],[],[]
participant_2_UNDO,[],[],[],[],[],[],[],[],[],[],[],[],[],[],[],[],[],[],[],[],[],[],[],[]
participant_3_GOLD,500,500,583,850,1214,1581,1917,2137,2518,2731,3306,3570,3908,4220,4420,4895,5193,5649,6076,6352,6737,7110,7432,8242
participant_3_CURRENTGOLD,500,0,83,-150,214,581,917,37,418,631,1206,20,358,670,870,1345,118,574,1001,1277,62,85,107,917
participant_3_LEVEL,1,1,1,1,2,3,4,4,5,5,7,7,7,8,8,8,9,10,10,11,11,11,11,12
participant_3_MINIONSKILLED,0,0,3,4,15,26,36,41,54,59,69,75,78,86,91,92,100,111,120,122,122,126,126,129
participant_3_KILLS,0,0,0,0,0,0,0,0,0,0,0,0,0,0,0,0,0,0,0,0,0,0,0,2
participant_3_BUY,[],"[1055, 2003, 3340]",[],[1055],[],[],[],"[1037, 2003, 2055, 2003]",[],[],[],"[1038, 2003, 2003]",[],[],[],[],"[3031, 1029]",[],[],[],"[3047, 1018, 1042]",[3086],"[1042, 3363]",[]
participant_3_SOLD,[],[],[],[2003],[],[],[],[],[2055],"[2003, 2003]",[],[2003],[],[],[],[],"[1038, 1037]",[],[2003],[],"[1029, 2422]","[1018, 1042]",[3340],[]
participant_3_UNDO,[],[],[],[],[],[],[],[],[],[],[],[],[],[],[],[],[],[],[],[],[],[],[],[]
participant_4_GOLD,500,500,522,1057,1294,1491,1713,1868,2102,2237,3184,3506,3936,4127,4267,4609,5253,5489,5629,6254,6458,6939,7280,8011
participant_4_CURRENTGOLD,500,0,22,57,294,491,713,168,402,87,1034,1356,136,327,467,809,1453,139,279,904,159,639,980,1711
participant_4_LEVEL,1,1,1,1,3,3,4,4,5,5,6,7,7,7,7,8,9,9,9,9,10,10,10,11
participant_4_MINIONSKILLED,0,0,0,0,3,4,6,7,10,10,14,18,19,19,19,21,21,22,22,23,24,28,28,30
participant_4_KILLS,0,0,0,0,0,0,1,1,2,2,2,2,2,2,2,3,3,3,3,3,3,3,4,4
participant_4_BUY,[],"[1054, 3340, 2003]",[],[],"[1036, 2003]",[],[],"[3044, 1001, 1029]",[],[],"[3047, 3067, 2003]",[],[],[],"[3071, 1029, 1036, 3364]",[1033],[],"[3105, 1036]",[],[],"[1053, 3133]",[],"[3812, 1028, 1029]",[]
participant_4_SOLD,[],[],[],[],[2003],[],[2003],[1036],[],[],"[1001, 1029]",[],[2003],[],"[3044, 3067, 3340]",[],[],"[1033, 1029]",[],[],"[1036, 1036]",[],"[3105, 1053, 3133]",[]
participant_4_UNDO,[],[],[],[],[],[],[],[],[],[],[],[],[],[],[],[],[],[],[],[],[],[],[],[]
participant_5_GOLD,500,500,520,769,1869,2166,2310,2921,3085,3364,3654,3880,4565,4883,5744,6362,6665,6827,7043,7465,7612,8071,9206,9329
participant_5_CURRENTGOLD,500,0,20,269,1369,291,135,746,160,439,729,155,210,528,164,707,210,372,233,55,202,61,321,124
participant_5_LEVEL,1,1,1,2,4,4,4,6,6,6,7,7,7,8,9,9,10,10,10,10,10,11,12,12
participant_5_MINIONSKILLED,0,0,0,7,12,19,20,32,35,41,51,54,57,68,78,85,86,86,89,89,89,99,106,106
participant_5_KILLS,0,0,0,0,0,0,0,0,0,0,0,0,0,0,0,0,1,1,1,1,2,2,2,2
participant_5_BUY,[],"[2031, 3862, 2003, 2003]",[],[2031],[],[],[],"[1001, 1036]",[],[1036],[],[],"[3134, 1036]",[],[3133],[],[],"[3142, 3364, 1036]",[1036],[],[3134],[1036],[],[]
participant_5_SOLD,[],[],[2003],[2003],[],[],[],[],[],[],[],[],"[1036, 1036]",[3862],[1036],[],[],"[3133, 3134, 3340]",[],[],"[1036, 1036]",[],[],[3863]
participant_5_UNDO,[],"[[0, 2031]]",[],[],[],[],[],[],[],[],[],[],[],[],[],[],[],[],[],[],[],[],[],[]
participant_6_GOLD,500,500,620,1488,2047,2334,2647,3020,3327,3800,4057,4789,5081,5296,5824,6166,6560,6795,7080,7272,7456,7734,10202,10340
participant_6_CURRENTGOLD,500,0,120,988,1547,109,422,795,177,650,507,1239,381,596,1124,416,810,245,530,722,166,111,2230,192
participant_6_LEVEL,1,1,2,2,3,4,5,5,6,6,6,7,8,8,9,9,9,10,10,10,10,11,12,12
participant_6_MINIONSKILLED,0,0,0,0,0,0,0,1,1,2,2,7,7,12,12,12,18,20,20,20,20,21,27,28
participant_6_KILLS,0,0,0,0,3,3,3,4,4,4,4,4,5,5,6,7,7,7,7,8,8,8,9,9
participant_6_BUY,[],"[1055, 2003]",[],[],[],"[1038, 2055]",[1001],[],"[1036, 1036, 2003]",[],[],[1018],[1037],[],"[3031, 1018]","[3006, 2055, 3363]",[1018],[],"[3086, 3086]","[1042, 1042]",[],[3085],"[1018, 2055]",[2140]
participant_6_SOLD,[],[],[2003],[],[],[2055],[],[],[2003],[],[],[],[1036],[],"[1038, 1037, 1018]","[1001, 3340]",[2055],[],"[1036, 1018, 1018]",[],[],"[1042, 3086, 1042]",[1055],"[1055, 2140]"
participant_6_UNDO,[],[],[],[],[],[],[],[],[],[],[],[],[],[],[],"[[0, 1018]]",[],[],"[[0, 3086]]",[],[],[],"[[1055, 0]]",[]
participant_7_GOLD,500,500,625,969,1313,1498,1792,2052,2415,2743,2886,3381,3928,4191,4598,4776,4899,5167,5397,5679,6113,6312,6899,7230
participant_7_CURRENTGOLD,500,0,125,469,813,128,422,252,615,943,236,731,228,491,23,201,324,592,822,254,253,452,1039,305
participant_7_LEVEL,1,1,1,3,3,4,5,5,6,7,7,8,8,9,9,9,9,9,10,10,11,11,12,12
participant_7_MINIONSKILLED,0,0,6,16,16,19,26,30,39,48,49,59,65,70,75,79,79,83,87,93,103,107,108,116
participant_7_KILLS,0,0,0,0,0,0,0,0,0,1,1,2,2,2,2,2,2,2,3,3,3,3,3,3
participant_7_BUY,[],"[2033, 3340]",[],[],[],[],"[1052, 1052]",[],[],[],"[3802, 1052, 1052, 3145]",[],"[3030, 1052]",[],"[1052, 3108]",[],[3113],[],[3020],[],[],[],[],[]
participant_7_SOLD,[],[],[],[2010],[],[2010],[],[],[],[2010],"[1052, 1052, 1052, 1052]",[],"[3802, 3145]",[],[1052],[],[1052],[],[2422],[],[],[],[],[]
participant_7_UNDO,[],[],[],[],[],[],[],[],[],[],[],[],[],[],[],[],[],[],[],[],[],[],[],[]
participant_8_GOLD,500,500,562,920,1229,1603,1796,2145,2455,2969,3140,3907,4104,4394,4661,4933,5189,5534,5956,6332,6664,6891,7097,7421
participant_8_CURRENTGOLD,500,0,62,420,729,1103,426,775,1085,1599,290,1057,369,659,26,298,139,484,106,482,814,1041,1247,1571
participant_8_LEVEL,1,1,1,2,3,4,4,5,6,6,7,7,7,8,8,9,9,9,10,10,11,11,11,11
participant_8_MINIONSKILLED,0,0,2,9,17,29,33,43,51,56,59,70,70,80,85,85,93,102,102,114,126,128,134,142
participant_8_KILLS,0,0,0,0,0,0,0,0,0,0,0,0,0,0,0,0,0,0,0,0,0,0,1,1
participant_8_BUY,[],"[1056, 2003, 2003, 3340]",[],[],[],"[1052, 1052]",[],[3802],[],[],[1026],[],[3285],[],"[3020, 2055]",[],[],[],[],[1026],[1052],[],[],[3136]
participant_8_SOLD,[],[],[],[],[2003],[],[2003],"[1052, 1052]",[],[],[],[],"[3802, 1026]",[],[2422],[2055],[],[],[],[],[],[],[],[1052]
participant_8_UNDO,[],[],[],[],[],[],[],[],[],[],[],[],[],[],[],[],[],[],[],[],[],[],[],[]
participant_9_GOLD,500,545,597,747,942,1076,1256,1404,1761,1896,2030,2496,2750,2987,3257,3482,4137,4323,4596,4816,5301,5457,5605,5775
participant_9_CURRENTGOLD,500,45,97,97,292,426,606,104,461,246,380,846,350,587,107,332,987,123,46,266,351,157,305,476
participant_9_LEVEL,1,1,1,1,2,3,4,4,5,5,5,6,6,7,7,8,8,8,8,9,9,9,10,10
participant_9_MINIONSKILLED,0,0,0,0,0,0,0,1,3,3,3,4,4,8,8,13,13,13,13,13,13,13,13,13
participant_9_KILLS,0,0,0,2,2,2,2,2,2,3,3,4,4,4,5,5,5,5,5,5,5,5,8,8
participant_9_BUY,[],"[1041, 2031, 3340]",[],[],[],"[3706, 1036, 1036, 1001, 2055]",[],[],"[3117, 1400]",[],[1028],[],"[3044, 3047, 1036]",[],[],[3057],[],"[3044, 1042]",[],[],[3101],[3078],[1036],"[3077, 3052]"
participant_9_SOLD,[],[],[],[],[],[1041],[2055],[],"[1001, 1036, 1036, 3706]",[],[],[],"[1028, 1001]",[],[],[],[],"[1028, 1036]",[],[],"[2031, 1042]","[3101, 3057, 3044]",[],[1036]
participant_9_UNDO,[],[],[],[],[],[],[],[],"[[0, 3117]]",[],[],[],"[[0, 3044]]",[],[],[],[],[],[],[],[],[],[],[]
team0_KILLS,0,0,0,1,1,1,2,2,3,5,8,9,12,12,14,16,20,21,25,29,30,32,34,40
team0_CURRENTGOLD,2500,0,347,1246,1035,2828,4116,797,2821,4790,3467,4921,6570,2905,3274,3213,4751,1200,4018,5408,1182,3472,2897,6577
team0_TOTALGOLD,2500,2500,2847,4746,5835,7628,9726,10917,12941,15360,18182,21086,24385,26260,28229,30593,33656,35345,38163,41144,43240,45882,47706,51386
team0_LEVEL,5,5,6,11,14,20,23,25,29,32,36,38,41,42,44,48,50,52,54,56,58,59,59,63
team0_SBIRES,0,0,5,30,49,93,112,138,166,191,222,240,268,293,320,333,353,375,396,405,412,432,433,448
team1_KILLS,0,0,0,2,5,5,5,6,6,8,8,10,11,11,13,14,15,15,16,17,18,18,23,23
team1_CURRENTGOLD,2500,45,424,2243,4750,2057,2011,2672,2498,3877,2142,4028,1538,2861,1444,1954,2470,1816,1737,1779,1786,1822,5142,2668
team1_TOTALGOLD,2500,2545,2924,4893,7400,8677,9801,11542,13043,14772,15767,18453,20428,21751,24084,25719,27450,28646,30072,31564,33146,34465,39009,40095
team1_LEVEL,5,5,6,10,15,19,22,25,29,30,32,35,36,40,42,44,45,46,48,49,51,53,57,57
team1_SBIRES,0,0,8,32,45,67,79,107,129,150,164,194,203,238,258,274,289,304,311,329,351,368,388,405
delta_KILLS,0,0,0,-1,-4,-4,-3,-4,-3,-3,0,-1,1,1,1,2,5,6,9,12,12,14,11,17
delta_CURRENTGOLD,0,-45,-77,-997,-3715,771,2105,-1875,323,913,1325,893,5032,44,1830,1259,2281,-616,2281,3629,-604,1650,-2245,3909
delta_TOTALGOLD,0,-45,-77,-147,-1565,-1049,-75,-625,-102,588,2415,2633,3957,4509,4145,4874,6206,6699,8091,9580,10094,11417,8697,11291
delta_LEVEL,0,0,0,1,-1,1,1,0,0,2,4,3,5,2,2,4,5,6,6,7,7,6,2,6
delta_SBIRES,0,0,-3,-2,4,26,33,31,37,41,58,46,65,55,62,59,64,71,85,76,61,64,45,43
