name,frame_0,frame_1,frame_2,frame_3,frame_4,frame_5,frame_6,frame_7,frame_8,frame_9,frame_10,frame_11,frame_12,frame_13,frame_14,frame_15,frame_16,frame_17,frame_18,frame_19,frame_20,frame_21,frame_22,frame_23,frame_24,frame_25,frame_26,frame_27,frame_28,frame_29,frame_30
nameStamp,Tstart,Tearly,Tearly,Tearly,Tearly,Tearly,Tearly,Tearly,Tearly,Tearly,Tearly,Tearly,Tearly,Tearly,Tearly,Tearly,Tmid,Tmid,Tmid,Tmid,Tmid,Tmid,Tmid,Tmid,Tmid,Tmid,Tmid,Tmid,Tmid,Tend,Tend
timestamp,0,60013,120039,180042,240053,300063,360074,420100,480102,540131,600152,660161,720176,780180,840193,900195,960201,1020207,1080229,1140231,1200237,1260244,1320252,1380272,1440279,1500293,1560293,1620294,1680301,1740312,1800344
participant_0_GOLD,500,500,563,804,1085,1298,1526,1882,2328,2556,3380,3682,4389,4511,4939,5244,5992,6451,6818,6941,7617,7740,8509,8719,9017,9140,9707,10115,10858,11190,11444
participant_0_CURRENTGOLD,500,0,63,304,135,48,276,282,728,56,880,82,789,171,599,204,952,1411,78,201,877,180,949,109,407,80,97,506,598,930,265
participant_0_LEVEL,1,1,1,3,4,4,5,6,7,7,8,8,9,9,10,10,11,12,12,12,12,12,12,13,13,13,13,13,14,14,14
participant_0_MINIONSKILLED,0,0,2,8,14,19,25,30,40,46,57,64,78,78,92,96,111,117,117,117,122,122,124,124,124,124,124,131,131,134,138
participant_0_KILLS,0,0,0,0,0,0,0,0,1,1,1,2,2,2,2,2,2,3,3,3,3,3,3,3,3,3,3,3,3,3,3
participant_0_BUY,[],"[1036, 2031, 3340]",[],[],"[1036, 1001]",[],[],[],"[3155, 1036, 2055]",[],[],"[3134, 1036, 3111]",[],[1036],[],[],[],[3142],[],"[3134, 1036]",[],"[3364, 1036, 3133]",[2055],[],[3147],[],[1036],[],[1036],[3035],[2055]
participant_0_SOLD,[],[],[],[],[],[],[],[],[1036],[],[],"[1036, 1036, 1001]",[],[],[],[],[],"[1036, 3134]",[2055],[],[],"[3340, 2031, 1036, 1036]",[],[],"[3134, 3133]",[2055],[],[],[],"[1036, 1036]",[]
participant_0_UNDO,[],[],[],[],[],[],[],[],[],[],[],"[[0, 1036]]",[],[],[],[],[],[],[],[],[],[],[],[],[],[],[],[],[],[],[]
participant_1_GOLD,500,500,645,1013,1241,1575,1923,2874,3231,3729,4078,4549,4995,5518,5947,6120,6477,6844,7215,7766,8339,8546,9174,10159,10582,10912,11759,11922,12119,12613,13029
participant_1_CURRENTGOLD,500,0,145,513,91,425,773,1724,206,704,1053,1524,1970,43,472,645,1002,1369,140,691,1264,471,1099,2084,457,787,1695,607,804,1299,464
participant_1_LEVEL,1,1,2,3,3,4,5,6,6,7,8,8,9,10,10,10,10,11,11,12,13,13,13,14,14,14,14,15,15,15,16
participant_1_MINIONSKILLED,0,0,0,0,0,0,0,0,0,0,2,4,4,4,4,4,4,12,16,18,18,18,19,24,25,31,31,31,31,41,48
participant_1_KILLS,0,0,0,0,0,0,0,0,0,0,1,1,1,1,1,1,1,1,1,1,2,2,3,3,3,3,4,4,5,5,5
participant_1_BUY,[],"[1055, 2003, 3340]",[],[],[1055],[1029],[],[1036],[],[3044],[],"[3067, 1001]",[],[3071],[],"[1036, 1036]",[],[],"[3144, 3047]",[],[],[1043],[],"[3153, 1036]",[],[1033],[1053],[],"[3105, 1036]",[],[3133]
participant_1_SOLD,[],[],[],[2003],[],[],[],[],[],[1036],[],[],[],"[1029, 3044, 3067]",[],[],[],[],"[1036, 1036, 1001]",[],[],[1055],[],"[3144, 1043]",[],[],[1036],[],"[1033, 1055]",[],[1055]
participant_1_UNDO,[],[],[],[],[],[],[],[],[],[],[],[],[],[],[],[],[],[],[],[],[],[],[],[],[],[],[],[],"[[0, 1036], [1055, 0]]",[],[]
participant_2_GOLD,500,500,598,839,1158,1392,1756,2150,2794,3115,3502,4009,4537,4659,5073,5696,5869,6497,7049,7172,7632,7785,7971,8131,8846,8979,9165,9452,9575,9961,10083
participant_2_CURRENTGOLD,500,0,98,339,8,242,606,1000,269,590,977,284,812,584,998,1621,1794,972,1524,197,657,120,231,391,406,539,375,662,435,71,119
participant_2_LEVEL,1,1,1,3,4,5,6,6,7,8,8,9,10,10,10,10,10,11,11,11,12,12,12,12,13,13,13,13,13,14,14
participant_2_MINIONSKILLED,0,0,4,11,22,26,38,45,52,61,67,72,83,83,97,99,99,102,112,112,119,120,121,121,134,135,136,143,143,150,150
participant_2_KILLS,0,0,0,0,0,0,0,1,1,1,1,1,2,3,3,3,3,3,3,3,4,4,5,6,6,6,8,8,8,8,8
participant_2_BUY,[],"[1039, 2031, 3340]",[],[],[3706],[],[],[],"[1402, 1001, 2055]",[],[],[],[],"[3111, 3136, 2055, 2055]",[],[],[],[],"[3151, 3364]",[],[],[1011],[],[],"[3742, 2055, 2055]",[],[],[1058],[],[],[1058]
participant_2_SOLD,[],[],[],[],[1039],[],[],[],[3706],[],[],[2055],[],"[3340, 1001]",[],[2055],[],"[3513, 2055]","[3136, 3340]",[],[],[],[],[],[1011],[2055],[2031],[2055],[],[],[]
participant_2_UNDO,[],[],[],[],[],[],[],[],[],[],[],[],[],[],[],[],[],[],[],[],[],[],[],[],[],[],[],[],[],[],[]
participant_3_GOLD,500,500,584,846,1218,1564,1869,2047,2413,2662,2826,3314,3520,3684,3904,4139,4312,5441,5697,6029,6350,6710,7155,8426,8864,9028,9150,9612,9809,10439,10604
participant_3_CURRENTGOLD,500,0,84,346,718,1064,1369,197,563,812,176,664,70,234,454,689,562,1691,347,679,500,860,505,76,514,678,101,562,139,770,934
participant_3_LEVEL,1,1,1,2,3,4,4,5,5,6,6,7,7,7,7,8,8,9,9,9,10,10,11,11,12,12,12,12,12,13,13
participant_3_MINIONSKILLED,0,0,3,11,23,33,43,46,56,64,66,80,85,88,93,97,97,111,116,124,137,146,155,160,171,173,173,177,177,194,196
participant_3_KILLS,0,0,0,0,0,0,0,0,0,0,0,0,0,0,0,0,0,1,1,1,1,1,1,3,3,3,3,3,3,3,3
participant_3_BUY,[],"[1055, 2003, 3340]",[],[],[],[],[],"[1038, 2003]",[],[],[1018],[],"[2015, 2003, 2003]",[],[],[],[1001],[],"[3031, 1042]",[],[3006],[],[1018],[3095],[],[],[2015],[],[1018],[],[]
participant_3_SOLD,[],[],[],[2003],[],[],[],[],[2003],[],[],[],[],[2003],[],[],[],[],"[1038, 1018]",[],"[1001, 1042]",[2003],[],"[1018, 2015]",[],[],[],[],[1055],[],[]
participant_3_UNDO,[],[],[],[],[],[],[],[],[],[],[],[],[],[],[],[],[],[],[],[],[],[],[],[],[],[],[],[],[],[],[]
participant_4_GOLD,500,500,523,657,792,986,1151,1285,1434,1569,1795,2025,2159,2338,2518,2717,2947,3291,3495,3666,3806,3996,4303,4621,4826,5011,5367,5507,5648,5788,5973
participant_4_CURRENTGOLD,500,0,23,157,292,486,651,100,249,384,610,840,424,603,318,517,747,1091,95,266,406,596,468,371,576,761,67,207,98,238,423
participant_4_LEVEL,1,1,1,2,3,4,4,4,5,5,6,6,6,7,7,7,7,8,8,8,9,9,10,11,11,11,12,12,12,12,12
participant_4_MINIONSKILLED,0,0,0,0,0,0,0,0,0,0,4,4,4,4,5,5,5,5,5,6,6,8,9,9,9,9,9,9,9,9,9
participant_4_KILLS,0,0,0,0,0,0,0,0,0,0,0,0,0,0,0,0,0,0,0,0,0,0,0,0,0,0,0,0,0,0,0
participant_4_BUY,[],"[3850, 2003, 2003, 3340]",[],[],[],[],[],"[1004, 1004, 1052]",[],[],[],[],[3028],[],[3108],[],[],[],"[3174, 3114]",[],[],[],[1052],[3113],[3364],[],"[3504, 1028]",[],[3801],[],[]
participant_4_SOLD,[],[],[],[2003],[],[],[],[],[],[],[],[],"[1004, 1004]",[],[1052],[],[],[2003],"[3850, 3108, 3028]",[],[],[],[],[1052],[3340],[],"[3114, 3113]",[],[1028],[],[]
participant_4_UNDO,[],[],[],[],[],[],[],[],[],[],[],[],[],[],[],[],[],[],[],[],[],[],[],[],[],[],[],[],[],[],[]
participant_5_GOLD,500,500,598,934,1848,2462,3054,3240,3557,3850,4160,4373,4580,5191,5440,6317,6604,7069,7275,7976,8148,8361,9098,9220,9447,10119,10507,10730,11239,11574,12240
participant_5_CURRENTGOLD,500,0,98,434,1348,592,1184,120,437,730,290,203,10,621,870,947,1234,299,505,556,328,541,1278,200,427,1099,287,510,370,704,1371
participant_5_LEVEL,1,1,1,3,4,6,7,7,7,8,8,9,9,10,10,11,11,11,12,12,12,13,13,13,13,13,14,14,15,15,15
participant_5_MINIONSKILLED,0,0,4,14,19,29,34,37,46,53,55,60,65,76,83,83,88,91,96,103,103,108,109,109,111,111,116,119,119,123,124
participant_5_KILLS,0,0,0,0,0,0,1,1,1,1,1,1,1,3,3,3,4,4,4,4,5,6,6,6,6,6,8,8,9,9,9
participant_5_BUY,[],"[2003, 3340, 1055]",[],[],[],[],[],"[3006, 1036, 2031, 2055]",[],[],[1053],[],[],[],"[3144, 1043, 2055]",[],[],[3153],[],[],[],"[1037, 1043]",[],[3124],[],[],[3046],[],[],"[2420, 1038, 3363]",[]
participant_5_SOLD,[],[],[],[2003],[],[],[],[],[],[],[1036],[],[],[2055],[1053],[2055],[],"[3144, 1043]",[],[],[],[],[],"[1043, 1037]",[],[],[],[],[],"[2031, 1055, 3340]",[]
participant_5_UNDO,[],[],[],[],[],[],[],[],[],[],[],[],[],[],[],[],[],[],[],[],[],[],[],[],[],[],[],[],[],[],[]
participant_6_GOLD,500,500,621,1033,1368,1710,1833,2079,2336,3082,3229,3807,3950,4414,4777,5092,5464,5936,6130,6861,7208,7394,7861,8023,8746,9263,9638,10351,11442,11935,12283
participant_6_CURRENTGOLD,500,0,121,533,868,1210,33,279,536,1282,1429,2007,150,614,977,1292,1664,2136,40,771,1118,604,721,133,856,1373,1749,661,1752,245,593
participant_6_LEVEL,1,1,2,3,4,4,4,5,6,7,7,8,8,9,9,9,10,11,11,11,12,12,13,13,13,14,14,15,15,16,16
participant_6_MINIONSKILLED,0,0,0,0,0,0,0,4,4,4,4,4,5,5,5,5,6,15,19,19,23,26,28,28,35,35,35,35,42,42,43
participant_6_KILLS,0,0,0,0,0,0,0,0,0,1,1,2,2,2,2,2,2,2,2,3,3,3,3,3,4,5,5,6,7,7,7
participant_6_BUY,[],"[1041, 2031, 3340]",[],[],[],[],"[3706, 1036, 1001]",[],[],[],[],[],"[1400, 1029, 1036, 2055]",[],[],[],[],[],"[3047, 3134, 1036, 1036, 3133]",[],[],[3147],[1036],[3134],[],[],[],[3142],[],"[3105, 1053]",[]
participant_6_SOLD,[],[],[],[],[],[],[1041],[],[],[],[],[],"[1036, 3706]",[2055],[],[],[],[],"[1001, 1029, 1036, 2031, 1036, 1036]",[],[],"[3134, 3133]",[],[1036],[],[],[],[3134],[],[],[]
participant_6_UNDO,[],[],[],[],[],[],[],[],[],[],[],[],[],[],[],[],[],[],[],[],[],[],[],[],[],[],[],[],[],[],[]
participant_7_GOLD,500,500,612,860,1137,1343,1541,1719,1911,2467,2759,2980,3203,3645,4269,4649,4923,5270,5392,6161,6283,6509,6891,7055,7416,7613,7773,8528,9215,9836,10263
participant_7_CURRENTGOLD,500,0,112,360,637,193,391,569,261,817,1109,230,453,95,719,409,683,380,67,836,58,283,666,365,726,923,183,938,341,961,1388
participant_7_LEVEL,1,1,1,3,4,5,5,5,6,7,7,8,8,8,9,9,10,10,10,11,11,11,12,12,12,12,13,13,14,15,15
participant_7_MINIONSKILLED,0,0,5,12,22,27,27,31,36,50,58,64,70,75,85,85,90,96,96,106,106,108,110,113,127,127,127,135,139,149,149
participant_7_KILLS,0,0,0,0,0,0,0,0,0,1,1,1,1,2,2,2,2,2,2,3,3,3,3,3,3,3,3,3,4,4,7
participant_7_BUY,[],"[3854, 2003, 2003, 3340]",[],[],[],[],[],"[1001, 1029, 2031, 2055]",[],[],"[3117, 2055, 1006]",[],[],[],"[3024, 3801, 1029, 2055, 2055, 1029]",[],[],[],"[3800, 3364]",[],[],"[3067, 1031, 2055, 2055]",[],[],[],[],"[3109, 1028, 2055]",[],[],"[3114, 3801]",[]
participant_7_SOLD,[],[],[],[2003],[],[],[2003],[2055],[],[],[1001],[],[2055],[],"[1029, 1006, 2031, 3854]",[],[2055],[],"[3024, 3801, 3340]",[2055],[],[1029],[2055],[3855],[],[],"[3067, 1031]",[2055],[],"[2055, 1028]",[]
participant_7_UNDO,[],[],[],[],[],[],[],[],[],[],[],[],[],[],"[[0, 1029]]",[],[],[],[],[],[],[],[],[],[],[],[],[],[],[],[]
participant_8_GOLD,500,500,584,895,1102,1504,2017,2293,2520,2815,3035,3326,3659,4573,4696,5096,5765,5979,6369,7249,7945,8573,8821,9033,9549,9981,11143,11488,13102,13337,14289
participant_8_CURRENTGOLD,500,0,84,395,602,1004,1517,118,345,640,310,601,934,1848,196,596,1265,779,1169,2049,2745,1498,1746,733,1249,1681,244,589,2202,727,1679
participant_8_LEVEL,1,1,1,2,3,4,4,5,5,6,6,7,7,8,8,9,9,9,10,11,11,11,12,12,13,13,13,14,15,15,16
participant_8_MINIONSKILLED,0,0,3,14,18,31,35,44,50,54,59,68,77,83,83,90,99,101,112,122,131,136,143,144,155,160,160,160,169,173,186
participant_8_KILLS,0,0,0,0,0,0,0,0,0,0,0,0,0,0,1,2,2,2,2,3,3,3,3,3,3,3,3,4,4,4,4
participant_8_BUY,[],"[2033, 1056, 2003, 2003, 3340]",[],[],[],"[1082, 1001]",[],[],[2033],[],[],[3010],[],[3020],[],[1026],[],[3027],[1052],[],"[3191, 1052]",[],[],[3108],[],[],[3157],[],"[1026, 1052]",[],[]
participant_8_SOLD,[],[],[],[2003],[2003],[],[],[],[],[],[],[],[],[1001],[],[1056],[],"[3010, 1026]",[],[],"[1052, 2033]",[],[],[1052],[],[],"[3191, 3108]",[],[],[],[]
participant_8_UNDO,[],"[[0, 2033]]",[],[],[],[],[],[],[],[],[],[],[],[],[],[],[],[],[],[],[],[],[],[],[],[],[],[],[],[],[]
participant_9_GOLD,500,500,544,713,848,1024,1269,1424,1579,2084,2291,2631,2810,3706,3899,4203,4516,4873,5014,5860,6051,6308,6574,6714,7004,7250,7478,7806,8700,9041,10227
participant_9_CURRENTGOLD,500,0,44,213,348,524,769,99,254,759,41,381,560,1456,159,463,776,1133,174,1020,1211,18,284,424,714,960,113,441,1335,656,1842
participant_9_LEVEL,1,1,1,2,3,4,4,5,5,6,6,7,7,8,8,9,9,10,10,10,10,11,11,11,12,12,12,13,14,14,14
participant_9_MINIONSKILLED,0,0,1,3,3,5,7,8,9,10,11,14,16,17,20,23,24,29,29,32,32,34,38,38,38,39,39,39,40,40,41
participant_9_KILLS,0,0,0,0,2,3,4,4,4,4,4,4,4,5,5,6,6,6,6,6,6,6,8,8,8,9,9,9,9,9,10
participant_9_BUY,[],"[1054, 2003, 3340]",[],[],[],"[3145, 1036]",[],[3144],[],[],[3146],[1029],[1028],[],[],"[3047, 1029]",[],"[3751, 1031, 1028]",[],[3068],[1028],[],[],"[3211, 1028]",[],[],[3065],[],"[1028, 3801]",[],[]
participant_9_SOLD,[],[],[],[],"[2003, 2010]",[2010],[],"[2010, 1036]",[],[],"[3144, 3145]",[],[],[],[],"[1029, 2422]",[],"[1028, 1029]",[],"[1031, 1028, 3751]",[],[],[],[1028],[],[],"[3211, 1028]",[],[1028],[],[]
participant_9_UNDO,[],[],[],[],[],[],[],[],[],[],[],[],[],[],[],[],[],[],[],[],[],[],[],[],[],[],[],[],[],[],[]
team0_KILLS,0,0,0,0,0,0,0,1,2,2,3,4,5,6,6,6,6,8,8,8,10,10,12,15,15,15,18,18,19,19,19
team0_CURRENTGOLD,2500,0,413,1659,1244,2265,3675,3303,2015,2546,3696,3394,4065,1635,2841,3676,5057,6534,2184,2034,3704,2227,3252,3031,2360,2845,2335,2544,2074,3308,2205
team0_TOTALGOLD,2500,2500,2913,4159,5494,6815,8225,10238,12200,13631,15581,17579,19600,20710,22381,23916,25597,28524,30274,31574,33744,34777,37112,40056,42135,43070,45148,46608,48009,49991,51133
team0_LEVEL,5,5,6,13,17,21,24,27,30,33,36,38,41,43,44,45,46,51,51,52,56,56,58,61,63,63,64,65,66,68,69
team0_SBIRES,0,0,9,30,59,78,106,121,148,171,196,224,254,257,291,301,316,347,366,377,402,414,428,438,463,472,473,491,491,528,541
team1_KILLS,0,0,0,0,2,3,5,5,5,7,7,8,8,12,13,15,16,16,16,19,20,21,23,23,24,26,28,30,33,33,37
team1_CURRENTGOLD,2500,0,459,1935,3803,3523,3894,1185,1833,4228,3179,3422,2107,4634,2921,3707,5622,4727,1955,5232,5460,2944,4695,1855,3972,6036,2576,3139,6000,3293,6873
team1_TOTALGOLD,2500,2500,2959,4435,6303,8043,9714,10755,11903,14298,15474,17117,18202,21529,23081,25357,27272,29127,30180,34107,35635,37145,39245,40045,42162,44226,46539,48903,53698,55723,59302
team1_LEVEL,5,5,6,13,18,23,24,27,29,34,34,39,39,43,44,47,49,51,53,55,56,58,61,61,63,64,66,69,73,75,76
team1_SBIRES,0,0,13,43,62,92,103,124,145,171,187,210,233,256,276,286,307,332,352,382,395,412,428,432,466,472,477,488,509,527,543
delta_KILLS,0,0,0,0,-2,-3,-5,-4,-3,-5,-4,-4,-3,-6,-7,-9,-10,-8,-8,-11,-10,-11,-11,-8,-9,-11,-10,-12,-14,-14,-18
delta_CURRENTGOLD,0,0,-46,-276,-2559,-1258,-219,2118,182,-1682,517,-28,1958,-2999,-80,-31,-565,1807,229,-3198,-1756,-717,-1443,1176,-1612,-3191,-241,-595,-3926,15,-4668
delta_TOTALGOLD,0,0,-46,-276,-809,-1228,-1489,-517,297,-667,107,462,1398,-819,-700,-1441,-1675,-603,94,-2533,-1891,-2368,-2133,11,-27,-1156,-1391,-2295,-5689,-5732,-8169
delta_LEVEL,0,0,0,0,-1,-2,0,0,1,-1,2,-1,2,0,0,-2,-3,0,-2,-3,0,-2,-3,0,0,-1,-2,-4,-7,-7,-7
delta_SBIRES,0,0,-4,-13,-3,-14,3,-3,3,0,9,14,21,1,15,15,9,15,14,-5,7,2,0,6,-3,0,-4,3,-18,1,-2
