name,frame_0,frame_1,frame_2,frame_3,frame_4,frame_5,frame_6,frame_7,frame_8,frame_9,frame_10,frame_11,frame_12,frame_13,frame_14,frame_15,frame_16,frame_17,frame_18,frame_19,frame_20,frame_21,frame_22,frame_23,frame_24,frame_25,frame_26,frame_27,frame_28,frame_29,frame_30,frame_31,frame_32,frame_33,frame_34,frame_35,frame_36,frame_37,frame_38,frame_39,frame_40,frame_41,frame_42
nameStamp,Tstart,Tearly,Tearly,Tearly,Tearly,Tearly,Tearly,Tearly,Tearly,Tearly,Tearly,Tearly,Tearly,Tearly,Tearly,Tearly,Tearly,Tearly,Tmid,Tmid,Tmid,Tmid,Tmid,Tmid,Tmid,Tmid,Tmid,Tmid,Tmid,Tmid,Tmid,Tmid,Tmid,Tmid,Tmid,Tmid,Tmid,Tmid,Tmid,Tmid,Tmid,Tmid,Tmid
timestamp,0,60027,120044,180076,240079,300091,360093,420101,480126,540159,600162,660182,720183,780195,840204,900214,960225,1020236,1080267,1140278,1200284,1260290,1320300,1380319,1440327,1500338,1560346,1620367,1680389,1740393,1800403,1860422,1920422,1980437,2040443,2100452,2160482,2220486,2280516,2340546,2400550,2460559,2520559
participant_0_GOLD,500,500,617,850,1099,1433,1689,2026,2578,2944,3258,3441,3842,4759,5326,5546,6211,6657,7253,7662,8035,8264,8644,9971,10122,10728,11386,11894,12348,12766,12980,13358,14013,14156,14432,15149,15497,15873,16411,16711,17400,17683,17760
participant_0_CURRENTGOLD,500,0,117,350,299,633,54,391,943,1309,108,291,692,1609,2176,411,676,1122,1718,2127,2500,714,1094,72,222,828,1487,889,794,361,576,953,1609,437,278,995,1343,1219,1757,2057,2747,314,210
participant_0_LEVEL,1,1,1,3,4,5,5,6,7,7,8,8,9,9,10,10,11,11,11,12,12,13,13,14,14,14,15,15,16,16,16,16,17,17,17,18,18,18,18,18,18,18,18
participant_0_MINIONSKILLED,0,0,5,11,18,27,34,46,58,68,78,82,94,105,118,124,130,136,145,153,163,164,176,182,184,197,209,218,225,232,232,232,246,247,252,267,267,267,281,285,296,302,302
participant_0_KILLS,0,0,0,0,0,0,0,0,0,0,0,0,0,1,1,1,1,1,1,2,2,2,2,2,2,3,5,5,5,5,6,7,7,7,8,9,9,9,9,12,13,15,17
participant_0_BUY,[],"[1055, 2003, 3340]",[],[],[],[],"[1038, 2003]",[],[],"[1001, 2003, 1042]",[],[],[],"[3006, 1037]",[],[],[],"[3031, 1042, 2003]",[],[],"[3086, 1042]",[2003],[],[1042],[],[3085],[],"[3140, 1037, 1053]",[],[1037],[],[],[],"[3139, 1038, 1036]",[],[],[],[],"[3072, 1018]",[],[3046],[2140],[]
participant_0_SOLD,[],[],[],[],[],[2003],[],[],[],[],[],[],[],"[1001, 1042]",[],[],[2003],"[1038, 1037]",[2003],[2003],[1042],[],[],[2003],[],"[1042, 3086, 1042]",[],[],[],[1055],[],[],[],"[3140, 1037, 1053]",[],[],[],[],"[1038, 1036]",[],[1018],[2140],[]
participant_0_UNDO,[],[],[],[],[],[],[],[],[],[],[],[],[],[],[],[],[],[],[],[],[],[],[],[],[],[],[],"[[0, 1037]]",[],[],[],[],[],[],[],[],[],[],[],[],[],[],[]
participant_1_GOLD,500,500,621,843,1248,1540,2168,2381,2773,3001,3407,3720,3992,4139,4552,4780,5189,5669,6465,6794,7042,7314,7436,7629,7967,8403,8988,9161,9451,9574,10826,11073,11345,11614,11791,11988,12290,12581,12724,12916,13328,13754,13931
participant_1_CURRENTGOLD,500,0,121,343,748,1040,1668,1881,2273,201,607,120,392,139,552,780,1189,1669,2465,419,667,939,1061,229,567,1003,1589,211,501,334,1586,233,506,374,552,299,601,892,160,352,764,1189,1306
participant_1_LEVEL,1,1,2,2,3,4,4,5,6,6,7,7,8,8,8,9,9,10,10,11,11,11,11,11,12,13,13,13,13,13,14,14,14,14,14,15,15,15,15,16,16,17,17
participant_1_MINIONSKILLED,0,0,0,0,0,0,0,0,0,0,8,8,8,8,8,9,13,18,24,25,25,33,33,34,34,38,42,42,44,44,44,44,44,48,48,48,51,54,55,55,55,62,62
participant_1_KILLS,0,0,0,0,0,0,1,1,1,1,1,1,1,1,1,1,1,1,2,2,2,2,2,2,2,2,2,2,2,2,3,3,3,3,3,3,3,3,3,3,3,3,3
participant_1_BUY,[],"[1041, 2031, 3340]",[],[],[],[],[],[],[],"[1401, 1006]",[],[3111],[],[1028],[],[],[],[],[],"[3077, 3052, 1028]",[],[],[],"[3748, 1033]",[],[],[],"[3105, 1053]",[],[1036],[],"[3812, 1036]",[],[1028],[],[3052],[],[],[1037],[],[],[],[]
participant_1_SOLD,[],[],[],[],[],[],[],[],[],[1041],[],[2422],[],[],[],[],[],[],[],"[1006, 1028]",[],[],[],"[3077, 1028, 3052]",[],[],[],[1033],[],[2031],[],"[3105, 1053, 1036]",[],[],[],"[1036, 1028]",[],[],[],[],[],[],[]
participant_1_UNDO,[],[],[],[],[],[],[],[],[],[],[],[],[],[],[],[],[],[],[],[],[],[],[],[],[],[],[],[],[],[],[],[],[],[],[],[],[],[],[],[],[],[],[]
participant_2_GOLD,500,500,584,818,1050,1298,1568,1711,2072,2258,2380,2803,3016,3272,3579,3813,3978,4248,4641,4813,5214,5518,5689,5875,6145,6267,6565,6767,7274,7446,7826,8067,8276,8399,8604,8776,9970,10142,10402,10526,10874,11431,11572
participant_2_CURRENTGOLD,500,0,84,318,115,363,633,161,522,708,480,353,566,122,429,663,78,348,741,178,579,883,254,140,410,167,465,667,1174,446,176,167,376,499,704,876,1220,1392,1653,136,484,1041,1022
participant_2_LEVEL,1,1,1,2,4,4,5,5,6,7,7,7,7,8,8,9,9,9,10,10,11,11,11,11,11,11,12,12,12,12,13,13,13,13,13,14,14,14,14,14,14,15,15
participant_2_MINIONSKILLED,0,0,4,10,14,19,27,28,38,42,42,42,48,53,63,69,72,78,79,82,88,95,98,99,100,100,100,100,100,100,100,100,101,101,103,103,104,104,104,104,104,106,107
participant_2_KILLS,0,0,0,0,0,0,0,0,0,0,0,0,0,0,0,0,1,1,1,1,1,1,1,1,1,1,1,1,1,1,1,1,1,1,1,1,1,1,1,1,1,1,1
participant_2_BUY,[],"[3854, 2003, 2003, 3340]",[],[],[],[],"[2055, 1029, 1027]",[],[],[],[],[],[],[],"[3024, 3117, 1029, 3364, 2003]",[],[],[3105],[],[],[],"[3050, 1029]",[],"[1031, 1033]",[3105],[],[],[1033],[3190],[],[1029],[],[3067],"[1033, 1028, 3211]",[],[1028],[],[],[3067],[],"[3065, 1006]",[],[]
participant_2_SOLD,[],[],[],[],[2010],[],[],[2055],[],[2010],[],[3854],[2010],"[2003, 2003]","[1027, 1029, 3340]",[],[2003],[1029],[],[],[],"[3105, 3024]",[],"[3855, 1029]","[1033, 1029]",[],[],[],"[3105, 1033]",[],[],[],[],"[1028, 1033]",[],[],[],[],[1028],[],"[3211, 3067]",[],[]
participant_2_UNDO,[],[],[],[],[],[],[],[],[],[],[],[],[],[],[],[],[],[],[],[],[],[],[],"[[0, 1031]]",[],[],[],[],[],[],"[[0, 1029]]",[],"[[0, 3067]]",[],[],[],[],[],[],[],[],[],[]
participant_3_GOLD,500,500,542,885,1197,1529,1871,2154,2443,2629,2998,3408,3727,4149,4430,4650,5049,5534,6089,6689,6896,7046,7433,7641,8021,8793,10088,10260,10691,10876,11336,12540,12740,13016,13827,14333,14877,15170,15487,16959,18081,18968,19646
participant_3_CURRENTGOLD,500,0,42,385,697,1029,21,304,593,129,498,908,1227,274,555,775,1174,84,639,1239,46,146,533,461,841,1013,2308,280,711,201,661,1866,2065,366,1177,1684,2228,2520,188,1660,982,1369,1846
participant_3_LEVEL,1,1,1,2,3,4,4,5,5,5,6,6,7,7,8,8,9,9,9,10,10,10,11,11,11,12,12,12,13,13,14,14,14,14,15,15,16,16,16,17,17,17,18
participant_3_MINIONSKILLED,0,0,1,11,22,31,38,48,55,58,70,82,90,90,95,101,113,117,131,142,147,149,160,162,173,176,186,186,195,198,198,214,215,224,231,236,240,242,246,252,252,259,259
participant_3_KILLS,0,0,0,0,0,0,0,0,0,0,0,1,1,1,1,1,1,1,1,1,1,1,1,1,1,1,1,1,2,2,3,3,3,3,3,3,5,5,5,5,5,6,6
participant_3_BUY,[],"[2003, 3340, 1056, 2003]",[],[],[1052],[],[],[3145],[],[],[1036],[1053],[],[3144],[],[],[3146],[],[],"[1001, 1052]",[],[],[3020],[1029],[],[3191],[],[],[],[3108],[2420],[3157],[],[],[],[],[1026],[],[],[3135],[],[],[]
participant_3_SOLD,[],[],[],"[2003, 2003]",[],[],[],[1052],[],[],[],[1036],[],[1053],[],[],"[3144, 3145]",[],[],[],[],[],[1001],[],[],"[1029, 1052]",[],[],[],[],[],"[3191, 3108, 2420]",[],[],[],[],[],[],[],"[1056, 1026]",[],[],[]
participant_3_UNDO,[],[],[],[],[],[],[],[],[],[],[],[],[],[],[],[],[],[],[],[],[],[],[],[],[],[],[],[],[],[],[],[],[],[],[],[],[],[],[],[],[],[],[]
participant_4_GOLD,500,500,523,752,908,1105,1361,1523,1726,1896,2116,2349,2533,2749,2889,3060,3612,3831,4070,4341,4496,4636,4776,4967,5107,5323,5884,6074,6215,6355,6608,7044,7235,7435,7575,7791,7941,8142,8282,8792,9083,9455,9736
participant_4_CURRENTGOLD,500,0,23,252,408,605,136,298,501,671,891,1124,1308,1524,64,235,787,206,445,716,871,461,602,342,132,348,909,650,140,280,533,970,1160,160,301,116,267,467,207,718,58,430,711
participant_4_LEVEL,1,1,1,2,3,4,4,5,5,6,6,7,7,7,7,8,8,8,9,9,9,9,9,9,10,10,11,11,11,11,11,12,12,12,12,12,12,13,13,14,14,15,15
participant_4_MINIONSKILLED,0,0,0,3,4,5,6,8,9,11,13,15,17,17,17,18,21,23,26,27,28,28,28,28,28,28,29,29,29,29,29,30,30,32,32,32,33,34,34,34,34,36,36
participant_4_KILLS,0,0,0,0,0,0,0,0,0,0,0,0,0,0,0,0,1,1,1,1,1,1,1,2,2,2,2,2,2,2,2,2,2,2,2,2,3,3,3,3,3,3,3
participant_4_BUY,[],"[1083, 2003]",[],[],[1001],[],"[1028, 1052]",[],[],[],"[3136, 1026]",[],[],[],[],"[3151, 3020, 1052]",[1028],[1028],[],[],[],"[3916, 1058]",[],[3089],[],[],[],"[1026, 1052]",[3165],[1026],[],[],[],[3116],[1052],[],[],[2139],[],[],[],"[3135, 2139]",[]
participant_4_SOLD,[],[],[],[],[],[],[2003],[],[],[],"[1028, 1052]",[],[],[],[],"[3136, 1026, 1001]",[],[],[],[],[],"[1028, 1052]",[],[1058],[],[],[],[1083],"[3916, 1026]",[],[],[],[],"[1026, 1052]",[],[],[],[2139],[],[],[],"[1052, 2139]",[]
participant_4_UNDO,[],[],[],[],[],[],[],[],[],[],[],[],[],[],[],[],[],"[[0, 1028]]",[],[],[],[],[],[],[],[],[],[],[],[],[],[],[],[],[],[],[],[],[],[],[],[],[]
participant_5_GOLD,500,500,542,864,1085,1228,1470,1878,2112,2375,2980,3225,3605,4091,4277,4637,5300,5956,6078,6403,6894,7129,7286,8485,9034,9309,10158,10796,11729,12490,13396,13547,14335,14765,14972,15227,15551,15674,15963,16298,16516,16938,16966
participant_5_CURRENTGOLD,500,0,42,364,585,218,460,868,487,750,180,425,805,1291,27,387,1050,206,328,653,544,779,236,785,584,860,1008,296,1229,440,112,262,1051,1481,522,778,1102,1225,114,449,167,589,416
participant_5_LEVEL,1,1,1,3,4,4,5,6,7,7,8,9,9,10,10,10,11,11,11,12,12,13,13,14,14,14,15,15,15,15,16,16,16,17,17,17,17,17,17,18,18,18,18
participant_5_MINIONSKILLED,0,0,1,11,17,18,24,31,37,46,52,56,62,70,74,84,93,98,98,106,109,115,117,121,124,128,134,141,146,146,150,152,162,165,170,174,182,182,188,191,191,191,191
participant_5_KILLS,0,0,0,0,0,0,0,0,0,1,1,1,1,1,1,1,1,1,1,1,1,1,1,2,2,3,3,3,3,3,4,4,4,4,4,4,4,4,4,4,4,4,4
participant_5_BUY,[],"[3850, 2003, 2003, 3340]",[],[],[],[],"[1001, 1027]",[],[],[],[],"[3802, 2055]",[],[],"[3020, 2055, 3364]",[],[],[],[],[],[1026],[],[],[],"[3285, 1052, 3108]",[],[],[3191],[],[],[3157],[1028],[],[],[3801],[],[3114],[],[3107],[],[],[1028],[]
participant_5_SOLD,[],[],[],[],[2010],"[2010, 2003]",[2003],[],[],[2010],[],[1027],[2055],"[2419, 2423, 3850]","[1001, 3340, 2055]",[],[],[],[],[],[],[3851],[],[],"[3802, 1026, 1052]",[],[],[],[],[],"[3191, 3108, 2424]",[],[],[],[1028],[],[],[],"[3114, 3801]",[],[],[],[]
participant_5_UNDO,[],[],[],[],[],[],[],[],[],[],[],[],[],[],[],[],[],[],[],[],[],[],[],[],[],[],[],[],[],[],[],[],[],[],[],[],[],[],[],[],[],[],[]
participant_6_GOLD,500,500,621,848,1078,1439,1598,1745,2152,2360,2926,3203,3425,4293,4615,4766,5036,5422,5619,5946,6359,6581,6703,7437,7721,8240,8479,8715,8986,9158,9305,9547,9926,10491,10614,10736,10858,11169,11468,11666,12858,13197,13245
participant_6_CURRENTGOLD,500,0,121,348,578,939,148,295,702,110,676,253,475,1343,340,491,761,297,494,821,1234,106,228,962,113,632,471,357,178,350,498,339,718,1284,1406,1529,1651,1962,661,859,950,1290,1337
participant_6_LEVEL,1,1,2,2,3,4,4,4,5,5,6,6,7,7,8,8,8,9,9,9,10,10,10,11,11,12,12,13,13,13,13,14,14,15,15,15,15,15,15,16,16,16,16
participant_6_MINIONSKILLED,0,0,0,0,0,0,0,0,0,0,1,1,1,2,2,4,5,5,8,12,12,12,12,19,19,23,25,28,32,32,32,40,47,56,56,56,56,58,63,63,66,72,73
participant_6_KILLS,0,0,0,0,0,0,1,1,1,1,1,2,2,3,3,3,3,3,3,3,4,4,4,5,5,5,5,5,5,5,6,6,7,8,8,10,10,10,11,12,12,12,12
participant_6_BUY,[],"[3340, 2033]",[],[],[],[1027],[],[],"[3010, 2055, 3364]",[],[],[],[],[],"[3027, 3020, 1052]",[],[],[],[1026],[],[],[3135],[],"[1026, 1028]",[],[],[],[],[],[],"[3116, 1058]",[],[],[1058],[],"[3089, 3145]",[],[],[3152],[],"[3165, 3363]",[],[]
participant_6_SOLD,[],[],[],[],[],[],[],"[2010, 2010, 2010]","[1027, 3340]",[2055],[],[],[],[],"[3010, 2422]",[],[],[],[],[],[],"[1026, 1052]",[],[],[],[],[],[],[],[],"[1026, 1028]",[],[],[2033],[],"[1058, 1058]",[],[],[3145],[],"[3152, 3364]",[],[]
participant_6_UNDO,[],[],[],[],[],[],[],[],[],[],[],[],[],[],[],[],[],[],[],[],[],[],[],[],[],[],[],[],[],[],[],[],[],[],[],[],[],[],[],[],[],[],[]
participant_7_GOLD,500,500,563,741,1043,1256,1770,2042,2227,2476,2896,3411,3768,4336,4602,4839,5011,5406,5661,6020,6506,6734,7177,7903,8225,8431,8554,8967,9479,10162,10785,10921,11498,12299,12665,13848,14493,15014,15802,16491,16689,17164,17192
participant_7_CURRENTGOLD,500,0,63,241,543,406,920,1192,552,801,1221,1736,2093,2661,192,429,601,996,401,760,1246,109,552,28,350,557,679,1092,1604,2288,310,446,1024,774,1141,174,818,1339,678,1367,315,790,-1133
participant_7_LEVEL,1,1,1,2,3,4,6,6,7,7,8,8,9,9,10,10,10,11,11,11,12,12,12,13,13,14,14,14,14,15,15,15,16,16,17,17,18,18,18,18,18,18,18
participant_7_MINIONSKILLED,0,0,2,5,13,18,23,29,33,40,49,52,63,64,69,77,80,89,93,103,104,110,125,127,131,137,137,146,152,162,162,163,170,178,188,199,218,226,235,242,242,247,247
participant_7_KILLS,0,0,0,0,0,0,0,0,0,0,1,1,1,1,1,1,2,2,2,2,3,3,3,5,6,6,8,9,10,12,13,13,14,14,14,14,14,14,14,14,14,14,14
participant_7_BUY,[],"[2033, 3340]",[],[],[],"[1052, 2055]",[],[],[3145],[],"[3067, 1001, 2055]",[],[],[],"[3152, 1033, 3111]",[],[],[3136],[],[],"[1029, 1029]",[],"[3076, 1029]",[1026],[3151],[],[3082],"[3075, 1033]",[],"[3211, 3067]","[3065, 1052]",[],[],[],"[3916, 3364]",[],[],[],[3165],[],[2138],[],[]
participant_7_SOLD,[],[],[],[],[],[],[2055],[],[1052],[],[],[2055],[],[],"[3145, 3067, 1001, 1033]",[],[],[],[],[],[],[],"[1029, 1029]",[2033],"[3136, 1026]",[],[1029],"[3076, 3082]",[],[1033],"[3211, 3067]",[],[],[],"[1052, 3340]",[],[],[],[3916],[],[2138],[],[]
participant_7_UNDO,[],[],[],[],[],[],[],[],[],[],[],[],[],[],[],[],[],[],[],[],[],[],[],[],[],[],[],[],[],[],[],[],[],[],[],[],[],[],[],[],[],[],[]
participant_8_GOLD,500,500,580,789,1079,1333,1567,1891,2260,2637,2929,3260,3475,3650,3848,4162,4285,4610,4823,5144,5266,5389,5511,5633,5756,5878,6001,6123,6245,6516,6924,7255,7584,8364,8577,8749,8920,9654,9793,10217,10339,11324,11351
participant_8_CURRENTGOLD,500,0,80,289,579,833,1067,66,435,812,1104,1435,1650,275,473,787,160,485,698,1019,1141,1264,1386,1508,1631,1753,1876,1998,2120,591,999,730,1059,539,302,304,476,1209,49,472,595,1579,126
participant_8_LEVEL,1,1,1,2,3,4,4,5,5,6,6,7,7,8,8,8,8,9,9,9,9,9,9,9,9,9,9,9,9,9,10,11,11,13,13,13,13,14,14,14,14,15,15
participant_8_MINIONSKILLED,0,0,3,8,15,22,28,37,49,55,62,68,73,73,77,84,84,89,94,101,101,101,101,101,101,101,101,101,101,102,102,109,113,121,122,122,124,126,127,127,127,132,132
participant_8_KILLS,0,0,0,0,0,0,0,0,0,0,0,0,0,0,0,0,0,0,0,0,0,0,0,0,0,0,0,0,0,0,0,0,0,1,1,1,1,3,3,4,4,5,5
participant_8_BUY,[],"[1055, 2003, 3340]",[],[],[],[],[],"[3070, 1036, 2003, 2055]",[],[],[],[],[],[3004],[],[],[3134],[],[],[],[],[],[],[],[],[],[],[],[],[3147],[],[3009],[],[1038],[1033],[1036],[],[],"[3155, 1018]",[],[],[],[3031]
participant_8_SOLD,[],[],[],[],"[2003, 2010]",[],[2010],[2010],[],[2055],[],[],[2003],[3070],[],[],[1036],[],[],[],[],[],[],[],[],[],[],[],[],[3134],[],[2422],[],[],[],[1055],[3004],[],"[1036, 1033]",[],[],[],"[1038, 1018]"
participant_8_UNDO,[],[],[],[],[],[],[],[],[],[],[],[],[],[],[],[],[],[],[],[],[],[],[],[],[],[],[],[],[],[],[],[],[],[],[],[],[],[],[],[],[],[],[]
participant_9_GOLD,500,500,523,717,927,1136,1271,1435,1614,2150,2313,2448,2637,3065,3235,3434,3678,3924,4110,4265,4615,4786,4989,5793,5962,6405,6806,7035,7295,7485,7981,8122,8408,8815,8970,9313,9454,9661,9901,10053,10249,10440,10471
participant_9_CURRENTGOLD,500,0,23,217,427,636,121,285,464,1000,1163,273,462,890,185,384,628,874,1060,1215,715,886,1089,1894,112,555,956,85,345,535,382,122,408,816,720,1063,404,611,201,353,549,340,371
participant_9_LEVEL,1,1,1,2,2,3,4,4,5,6,6,6,6,7,7,7,7,8,8,8,9,9,10,10,10,11,12,12,12,12,13,13,13,14,14,14,14,14,15,15,15,15,15
participant_9_MINIONSKILLED,0,0,0,0,0,0,0,0,0,1,2,2,3,3,4,5,7,11,11,11,11,11,15,16,18,20,24,25,32,32,35,35,36,39,40,40,40,41,45,46,50,50,50
participant_9_KILLS,0,0,0,0,0,0,0,0,0,0,1,1,1,3,3,3,3,3,3,3,3,3,3,4,4,4,4,4,4,4,4,4,4,4,4,4,4,4,4,4,5,5,5
participant_9_BUY,[],"[1041, 2031, 3340]",[],[],[],[],"[3706, 1001]",[],[],[3111],[],"[1036, 1036]",[],[],"[1400, 1028]",[],[],[3044],[],[],[],"[3057, 1042]",[],[],[3078],[],[1028],[1036],[3052],[],[],[1028],[],[],[],[],[],[],[3053],[],[3105],[],[]
participant_9_SOLD,[],[],[],[],[],[],[1041],[],[],[1001],[],[],[3340],[],"[1036, 1036, 3706]",[3513],[],[1028],[],[],[],[],[],[],"[1042, 3057, 3044]",[],[],[],"[1036, 1028]",[],[],[],[],[],[],[],[],[],"[3052, 1028]",[],[],[],[]
participant_9_UNDO,[],[],[],[],[],[],[],[],[],[],[],[],[],[],[],[],[],[],[],[],[],[],[],[],[],[],[],[],[],[],[],[],[],[],[],[],[],[],[],[],[],[],[]
team0_KILLS,0,0,0,0,0,0,1,1,1,1,1,2,2,3,3,3,5,5,6,7,7,7,7,8,8,9,11,11,12,12,15,16,16,16,17,18,21,21,21,24,25,28,30
team0_CURRENTGOLD,2500,0,387,1648,2267,3670,2512,3035,4832,3018,2584,2796,4185,3668,3776,2864,3904,3429,6008,4679,4663,3143,3544,1244,2172,3359,6758,2697,3320,1622,3532,4189,5716,1836,3012,3970,5659,6490,3965,4923,5035,4343,5095
team0_TOTALGOLD,2500,2500,2887,4148,5502,6905,8657,9795,11592,12728,14159,15721,17110,19068,20776,21849,24039,25939,28518,30299,31683,32778,33978,36083,37362,39514,42911,44156,45979,47017,49576,52082,53609,54620,56229,58037,60575,61908,63306,65904,68766,71291,72645
team0_LEVEL,5,5,6,11,17,21,22,26,29,31,34,35,38,39,41,44,46,47,49,52,53,54,55,56,58,60,63,63,65,65,68,69,70,70,71,74,75,76,76,79,79,82,83
team0_SBIRES,0,0,10,35,58,82,105,130,160,179,211,229,257,273,301,321,349,372,405,429,451,469,495,505,519,539,566,575,593,603,603,620,636,652,666,686,695,701,720,730,741,765,766
team1_KILLS,0,0,0,0,0,0,1,1,1,2,4,5,5,8,8,8,9,9,9,9,11,11,11,16,17,18,20,21,22,24,27,27,29,31,31,33,33,35,36,38,39,40,40
team1_CURRENTGOLD,2500,0,329,1459,2712,3032,2716,2706,2640,3473,4344,4122,5485,6460,1217,2478,3200,2858,2981,4468,4880,3144,3491,5177,2790,4357,4990,3828,5476,4204,2301,1899,4260,4894,4091,3848,4451,6346,1703,3500,2576,4588,1117
team1_TOTALGOLD,2500,2500,2829,3959,5212,6392,7676,8991,10365,11998,14044,15547,16910,19435,20577,21838,23310,25318,26291,27778,29640,30619,31666,35251,36698,38263,39998,41636,43734,45811,48391,49392,51751,54734,55798,57873,59276,61172,62927,64725,66651,69063,69225
team1_LEVEL,5,5,6,11,15,19,23,25,29,31,34,36,38,41,43,43,44,48,48,49,52,53,54,57,57,60,62,63,63,64,67,69,70,75,76,76,77,78,79,81,81,82,82
team1_SBIRES,0,0,6,24,45,58,75,97,119,142,166,179,202,212,226,254,269,292,304,333,337,349,370,384,393,409,421,441,463,474,481,499,528,559,576,591,620,633,658,669,676,692,693
delta_KILLS,0,0,0,0,0,0,0,0,0,-1,-3,-3,-3,-5,-5,-5,-4,-4,-3,-2,-4,-4,-4,-8,-9,-9,-9,-10,-10,-12,-12,-11,-13,-15,-14,-15,-12,-14,-15,-14,-14,-12,-10
delta_CURRENTGOLD,0,0,58,189,-445,638,-204,329,2192,-455,-1760,-1326,-1300,-2792,2559,386,704,571,3027,211,-217,-1,53,-3933,-618,-998,1768,-1131,-2156,-2582,1231,2290,1456,-3058,-1079,122,1208,144,2262,1423,2459,-245,3978
delta_TOTALGOLD,0,0,58,189,290,513,981,804,1227,730,115,174,200,-367,199,11,729,621,2227,2521,2043,2159,2312,832,664,1251,2913,2520,2245,1206,1185,2690,1858,-114,431,164,1299,736,379,1179,2115,2228,3420
delta_LEVEL,0,0,0,0,2,2,-1,1,0,0,0,-1,0,-2,-2,1,2,-1,1,3,1,1,1,-1,1,0,1,0,2,1,1,0,0,-5,-5,-2,-2,-2,-3,-2,-2,0,1
delta_SBIRES,0,0,4,11,13,24,30,33,41,37,45,50,55,61,75,67,80,80,101,96,114,120,125,121,126,130,145,134,130,129,122,121,108,93,90,95,75,68,62,61,65,73,73
