name,frame_0,frame_1,frame_2,frame_3,frame_4,frame_5,frame_6,frame_7,frame_8,frame_9,frame_10,frame_11,frame_12,frame_13,frame_14,frame_15,frame_16,frame_17,frame_18,frame_19,frame_20,frame_21,frame_22,frame_23,frame_24,frame_25,frame_26,frame_27,frame_28,frame_29,frame_30,frame_31,frame_32,frame_33,frame_34
nameStamp,Tstart,Tearly,Tearly,Tearly,Tearly,Tearly,Tearly,Tearly,Tearly,Tearly,Tearly,Tearly,Tearly,Tearly,Tearly,Tearly,Tmid,Tmid,Tmid,Tmid,Tmid,Tmid,Tmid,Tmid,Tmid,Tmid,Tmid,Tmid,Tmid,Tmid,Tend,Tend,Tend,Tend,Tend
timestamp,0,60003,120014,180036,240069,300087,360087,420115,480140,540162,600167,660186,720215,780237,840239,900246,960254,1020264,1080289,1140300,1200315,1260348,1320373,1380399,1440403,1500435,1560460,1620471,1680483,1740515,1800530,1860557,1920560,1980586,2040618
participant_0_GOLD,500,500,562,881,1571,1910,2180,2396,2778,3034,3261,3694,3999,4275,4654,4881,5088,5536,6046,6417,6669,6869,8018,8405,8681,9054,9413,9653,9833,10255,10923,11493,12260,12599,13159
participant_0_CURRENTGOLD,500,0,62,381,1071,1410,480,346,728,984,236,669,274,550,929,206,413,861,496,867,319,519,868,80,6,379,739,228,408,181,848,1419,386,324,884
participant_0_LEVEL,1,1,1,3,4,5,6,6,7,8,8,9,9,9,10,10,11,11,11,12,12,12,13,13,14,14,14,14,15,15,15,16,17,17,17
participant_0_MINIONSKILLED,0,0,2,13,26,36,44,47,58,65,71,85,92,100,111,117,122,132,137,147,154,159,173,184,189,200,209,213,216,216,223,233,237,246,246
participant_0_KILLS,0,0,0,1,1,1,1,1,2,2,2,3,3,4,5,5,5,6,6,6,6,6,6,6,7,9,9,10,13,13,14,14,14,14,16
participant_0_BUY,[],"[1041, 2031]",[3364],[],[],"[3715, 1036, 2055]",[],[],"[3133, 2055]",[],[],[],"[1412, 3006, 1038]",[1042],[],"[3006, 1037, 2055]",[],[1018],[],"[3031, 3031, 2055]",[1042],[],[],[1018],[],[3046],[3123],[],[],"[3033, 1031]",[],[],[],[3026],[]
participant_0_SOLD,[],[],[3340],[],[],[1041],[],[2055],[1036],[],[2055],[],"[3133, 3715, 2422]",[],[],"[1042, 2422]",[2055],[],[],"[1038, 1037, 1018, 1038, 1037, 1018]",[2055],[],[],[],[],"[1042, 1018]",[],[],[],"[3123, 2031]",[],[],[],[1031],[]
participant_0_UNDO,[],[],[],[],[],[],[],[],[],[],[],[],"[[0, 3006]]",[],[],[],[],[],[],"[[0, 3031]]",[],[],[],[],[],[],[],[],[],[],[],[],[],[],[]
participant_1_GOLD,500,500,620,1253,1376,1710,2023,2170,2712,3105,3412,4087,4314,4881,5836,6057,6485,6927,7205,7328,7640,7916,8508,8630,9269,10728,10850,11843,13127,13679,14390,14679,15182,15655,17186
participant_1_CURRENTGOLD,500,0,120,753,876,135,448,595,312,705,1012,1687,89,356,1311,82,510,152,430,53,65,341,933,255,894,853,176,1168,2452,265,976,1265,1768,240,1771
participant_1_LEVEL,1,1,2,3,3,4,4,5,5,6,7,7,7,7,8,8,9,9,10,10,10,10,11,11,12,13,13,14,15,16,16,16,17,17,18
participant_1_MINIONSKILLED,0,0,0,0,0,0,0,0,0,1,1,4,4,5,5,5,5,5,6,6,6,6,6,6,8,9,9,9,12,12,12,14,14,15,23
participant_1_KILLS,0,0,0,0,1,1,1,1,1,1,1,1,1,1,1,1,1,1,2,2,2,2,3,3,3,3,3,3,3,3,4,4,5,5,6
participant_1_BUY,[],"[3340, 2033]",[],[],[],[],"[3067, 1028]",[1036],[],[],"[3044, 1033, 1028, 2055]",[],"[1028, 1001]",[],[],[3071],[],[],[1037],[],[3052],[3047],[3052],"[3053, 1033]",[1036],[],[],[3133],[],[3105],[],[],"[3812, 1028]",[3067],[]
participant_1_SOLD,[],[],[],[],[],[],[],[],[],[],"[1028, 1036]",[2055],[],[],[],"[3044, 3067]",[],[],[],[],[1028],[1001],[1028],"[3052, 1037, 1028]",[],[],[],[1036],[],[1033],[],[],"[3105, 3133]",[1028],[]
participant_1_UNDO,[],[],[],[],[],[],[],[],[],[],"[[0, 1033]]",[],[],[],[],[],[],[],[],[],[],"[[0, 3052]]",[],[],[],[],[],[],[],[],[],[],[],[],[]
participant_2_GOLD,500,500,576,969,1176,1538,1895,2150,2405,2769,3240,3703,3931,4723,5245,5796,6065,6445,7361,7755,8059,9081,9890,10208,10756,11478,11601,12047,12504,13150,13359,13980,14834,15099,15358
participant_2_CURRENTGOLD,500,0,76,469,146,508,865,1120,1375,239,710,673,601,1393,65,616,185,565,541,935,339,61,180,498,1046,719,41,487,385,1030,260,880,1735,499,509
participant_2_LEVEL,1,1,1,3,4,5,6,6,7,7,8,8,9,9,10,11,11,12,12,12,13,13,14,14,14,15,15,15,16,17,17,17,17,18,18
participant_2_MINIONSKILLED,0,0,3,16,21,31,41,49,57,62,73,80,83,95,106,112,121,132,132,144,151,151,161,168,176,189,189,195,197,206,206,210,214,216,216
participant_2_KILLS,0,0,0,0,0,0,0,0,0,0,0,0,0,1,1,2,2,2,3,3,3,4,5,5,6,7,7,7,8,8,8,8,9,9,9
participant_2_BUY,[],"[2033, 1056, 2003, 2003]",[],[],"[1056, 2031]",[],[],[],[],"[3020, 1028]",[],[3751],[1029],[],"[3068, 1029]",[],[3076],[],[3082],[],[3075],"[1058, 3802]",[1026],[],[],[3285],"[1029, 1031]",[],[1057],[],[3193],[],[],[3136],[3140]
participant_2_SOLD,[],[],[],[2003],[2003],[],[],[],[],[],[],[1028],[],[],"[1029, 3751]",[],[1029],[],[2031],[],"[3076, 3082]",[],[1056],[],[],"[3802, 1026]",[1029],[],[1056],[],"[1031, 1057]",[],[],[],[3136]
participant_2_UNDO,[],"[[0, 2033]]",[],[],[],[],[],[],[],[],[],[],[],[],[],[],[],[],[],[],[],"[[0, 1058]]",[],[],[],[],[],[],[],[],[],[],[],[],[]
participant_3_GOLD,500,500,583,1051,1435,1726,2019,2504,2870,3095,3358,3599,3756,4026,4379,4637,4811,5169,5367,5771,6211,6541,6819,7263,7566,7710,7990,8271,8568,9132,9405,10261,10484,10834,11839
participant_3_CURRENTGOLD,500,0,83,551,935,1226,1519,2004,645,195,458,324,481,51,404,662,36,394,192,596,511,841,1119,563,866,110,390,671,68,232,505,1362,234,584,1589
participant_3_LEVEL,1,1,1,2,3,4,5,5,6,6,6,7,7,7,8,8,8,9,9,10,10,11,11,12,12,13,13,13,14,15,15,16,16,16,17
participant_3_MINIONSKILLED,0,0,3,6,18,25,34,46,52,55,63,70,72,77,87,94,97,106,106,118,118,126,126,127,131,132,141,142,143,147,147,148,148,156,160
participant_3_KILLS,0,0,0,0,0,0,0,0,0,0,0,0,0,0,0,0,0,0,0,0,1,1,1,2,2,2,2,2,2,2,2,3,3,3,4
participant_3_BUY,[],"[1055, 2003, 3340]",[],[],[],[],[],[],"[3070, 1037]",[3004],[],"[1001, 2055]",[],"[1036, 1036]",[],[],"[1028, 3047]",[],"[1028, 3363]",[],"[3052, 2055]",[],[],[1011],[],[3022],[],[],"[3052, 3044]",[1028],[],[],[3071],[],[]
participant_3_SOLD,[],[],[],[2003],[],[],[],[],[],"[3070, 1037]",[],[],[2055],[],[],[],[1001],[],[3340],[],"[1036, 1028]",[2055],[],[3004],[],"[3052, 1011]",[],[],"[1036, 1036]",[],[],[],"[3044, 1028]",[],[]
participant_3_UNDO,[],[],[],[],[],[],[],[],[],[],[],[],[],[],[],[],"[[0, 1028]]",[],[],[],[],[],[],[],[],[],[],[],"[[0, 3052]]",[],[],[],[],[],[]
participant_4_GOLD,500,530,582,1227,1362,1556,1802,2295,2539,3090,3321,3656,3869,4190,4390,4546,4923,5213,5504,5644,6006,6177,6347,6552,6693,6983,7153,7536,7676,8147,8404,9497,9738,9893,10509
participant_4_CURRENTGOLD,500,30,82,727,212,406,652,410,654,1205,1436,571,784,1105,565,721,1098,538,79,219,581,317,87,292,433,723,894,1276,1416,122,380,1473,163,318,934
participant_4_LEVEL,1,1,1,2,2,3,4,4,4,6,6,6,6,7,7,7,8,8,8,8,9,9,9,10,10,11,11,11,11,12,12,13,13,13,14
participant_4_MINIONSKILLED,0,0,0,2,2,2,3,4,4,7,7,7,9,9,9,9,16,16,16,16,20,21,22,25,25,25,26,29,29,31,32,33,33,34,35
participant_4_KILLS,0,0,0,1,1,1,1,2,2,3,3,3,3,3,3,3,3,3,3,3,3,3,3,3,3,3,3,3,3,3,3,5,5,5,6
participant_4_BUY,[],"[3850, 2003, 2003, 3340]",[],[],"[2033, 2055, 2055]",[],[],"[1001, 1052]",[],[],[],"[3136, 3020, 1028, 3364]",[],[],"[3136, 2055]",[],[],[1026],[3151],[],[],[1052],[1028],[],[],[],[],[],[],[3116],[],[],"[2420, 3191]",[],[]
participant_4_SOLD,[],[],[],"[2003, 2003]",[2055],[],[],[],[],[3850],[],"[1052, 1001, 3340]",[],[],"[1028, 1052]",[],"[3851, 2055]",[],"[3136, 1026]",[],[2055],[],[],[],[],[],[],[],[],"[1052, 1028]",[],[],[2033],[],[2420]
participant_4_UNDO,[],[],[],[],[],[],[],[],[],[],[],"[[0, 3136]]",[],[],[],[],[],[],[],[],[],[],[],[],[],[],[],[],[],[],[],[],[],[],[]
participant_5_GOLD,500,500,562,913,1106,1415,1759,2168,2290,2994,3486,3644,4430,4679,5056,5780,6499,6622,6939,7616,7912,8034,8221,8601,8799,8952,9234,9502,10178,10300,10646,11689,12066,12354,13017
participant_5_CURRENTGOLD,500,0,62,413,606,315,659,1068,90,794,486,124,910,1159,1536,2260,1379,402,719,1396,42,164,351,731,930,1082,1365,282,58,181,526,670,1047,334,98
participant_5_LEVEL,1,1,1,3,4,5,6,6,6,8,8,8,9,10,10,11,12,12,12,13,13,13,13,14,14,14,14,14,15,15,15,16,16,16,17
participant_5_MINIONSKILLED,0,0,2,12,16,24,33,40,40,51,63,65,76,84,94,105,118,118,125,130,136,136,137,148,149,149,150,150,154,154,163,163,171,171,172
participant_5_KILLS,0,0,0,0,0,0,0,1,1,1,1,1,1,4,4,5,5,7,8,9,10,10,11,11,12,12,12,13,14,14,14,15,15,15,15
participant_5_BUY,[],"[1039, 2031, 3340, 3364]",[],[],[],"[3715, 1036, 2055]",[],[],"[3133, 2055, 2055]",[],[],[],"[1412, 3047, 2055, 2055]",[],"[3134, 1036, 1036, 2055, 2055]",[],"[3133, 2055, 2055]",[],[],"[3147, 3134, 1036, 2055]",[],[3133],[],"[3142, 2420]",[],[3067],[],[],[],[],[3071],[],[3105],[],[]
participant_5_SOLD,[],[3340],[],[],[],[1039],[],[2055],"[1036, 2055]",[],[2055],[3364],"[3133, 3715, 2422]","[2055, 2055]","[3513, 2031]","[2055, 2055]","[1036, 1036]",[2055],[],"[3134, 3133]",[],[1036],[],"[3133, 3134]",[2055],[2055],[],[],[2420],[],[3067],[],[2421],[],[]
participant_5_UNDO,[],[],[],[],[],[],[],[],[],[],[],[],[],[],[],[],[],[],[],[],[],[],[],[],[],[],[],[],[],[],[],[],[],[],[]
participant_6_GOLD,500,510,661,973,1273,1610,1903,2447,2719,3232,3649,3877,4221,5453,5950,6608,7055,7851,8471,8916,9638,9835,10921,11044,11664,12167,12290,13037,13494,13776,14064,14487,14610,15116,15391
participant_6_CURRENTGOLD,500,10,161,473,773,35,328,872,244,757,1174,1402,271,1503,110,768,665,1461,2081,301,1023,470,1557,329,949,683,805,1553,2010,2291,380,803,86,592,867
participant_6_LEVEL,1,1,2,3,3,4,5,5,6,7,7,8,8,9,9,10,10,11,12,12,13,13,14,14,14,15,15,16,16,16,16,16,16,17,17
participant_6_MINIONSKILLED,0,0,0,0,0,1,1,2,2,2,2,2,2,2,2,2,2,2,3,3,3,3,8,8,12,18,18,18,20,20,20,20,20,29,31
participant_6_KILLS,0,0,0,0,0,0,0,0,1,1,2,2,2,2,2,3,3,4,5,5,6,6,6,8,9,10,11,12,12,12,12,13,13,13,14
participant_6_BUY,[],"[3340, 1036, 2003, 2003, 2003]",[],[],"[3134, 2055]",[],[],[],[],[],"[3142, 1001, 2055]",[1036],[],[],"[3134, 1036, 2055, 3364]",[],[],"[3147, 3158, 2055]","[1036, 1036]",[],[3134],[],[],[],"[3814, 2055]",[1036],[],[],[3035],[],[1037],[3036],[1036],[],[3133]
participant_6_SOLD,[],[],[],[],[1036],[2055],[2003],[],[],[2003],"[3134, 2055]",[2003],[],[],"[1036, 3340, 2055]",[],[],"[3134, 1036, 1001]",[],[],"[1036, 1036]",[],[2055],[],[3134],[],[2055],[],[1036],[],[],"[3035, 1037]",[],[],[1036]
participant_6_UNDO,[],[],[],[],[],[],[],[],[],[],[],[],[],[],[],[],[],[],[],[],[],[],[],[],[],[],[],[],[],[],[],[],[],[],[]
participant_7_GOLD,500,500,583,902,1337,1662,1970,2211,2979,3509,3945,4124,4438,5083,5380,6292,6793,7293,7870,8254,8759,8881,9490,10316,10813,11106,11369,12263,12385,12559,12947,13465,13587,13773,14195
participant_7_CURRENTGOLD,500,0,83,402,12,337,645,886,1654,2184,445,274,588,1233,355,1267,1768,143,20,404,509,631,1240,2066,689,631,894,1788,811,985,497,541,313,499,171
participant_7_LEVEL,1,1,1,3,4,5,6,6,7,8,8,8,9,9,10,10,11,11,11,12,12,12,13,14,14,14,14,15,15,15,15,15,15,16,16
participant_7_MINIONSKILLED,0,0,3,14,30,39,46,53,64,76,77,81,88,94,104,107,126,128,134,143,152,152,159,170,170,171,171,184,184,188,200,201,201,205,205
participant_7_KILLS,0,0,0,0,0,0,0,0,0,0,0,0,0,0,0,0,0,0,0,0,1,2,2,2,2,3,3,3,3,3,3,3,3,3,4
participant_7_BUY,[],"[1055, 2003, 3340]",[],[],[],[],[],"[1053, 1036, 2031]",[],[],[],"[3144, 1001, 1042, 1004]",[],[1042],[],[1043],[3153],[],[],"[3006, 1036, 2055, 3363, 2055]",[],"[1038, 1036, 2055]",[],[3133],[],[],"[3508, 1042]",[],[3086],[],[],[1057],[1042],[3123],[]
participant_7_SOLD,[],[],[],[],[],[],[],[2003],[],[],[],"[1053, 1036]",[],[1004],[],"[1042, 1042]","[2031, 3144, 1043]",[],[],"[1001, 3340]",[2055],[],[],"[1055, 1036]",[],[],"[1038, 3133]",[2055],[1042],[],[],[3086],[],[],[]
participant_7_UNDO,[],[],[],[],[],[],[],[],[],[],[],[],[],[],[],[],[],[],[],"[[0, 2055], [0, 1036]]",[],[],[],[],[],[],[],[],[],[],[],[],"[[3086, 0], [0, 1057]]",[],[]
participant_8_GOLD,500,500,555,748,962,1294,1843,1965,2324,2594,2994,3152,3386,3508,3923,4195,4539,4815,5257,5680,6395,7041,7436,7868,8078,8642,9044,9495,9713,10116,10628,10751,11348,11675,12358
participant_8_CURRENTGOLD,500,0,55,248,462,794,1343,65,424,694,1094,177,411,321,735,608,311,587,1030,577,1293,213,608,471,680,1245,446,897,16,418,931,1314,1350,878,1561
participant_8_LEVEL,1,1,1,2,2,3,4,4,5,6,6,7,7,7,8,8,8,9,10,10,11,12,12,13,13,13,14,14,14,15,15,15,15,16,16
participant_8_MINIONSKILLED,0,0,2,6,11,21,34,34,45,53,57,59,66,66,80,85,91,100,114,114,126,135,140,153,158,160,172,178,179,186,200,200,213,214,216
participant_8_KILLS,0,0,0,0,0,0,0,0,0,1,1,1,2,2,2,3,3,3,3,4,4,4,4,4,4,4,4,4,5,5,5,6,6,6,7
participant_8_BUY,[],"[1054, 2003, 3340]",[],[],[],"[1029, 1029]",[],[],"[3191, 1001, 1029]",[],[3111],[3136],[],[],[],[],[3151],"[3111, 1029]",[],[],"[3076, 1026, 1028]",[],[],[],[],[],[],[3116],[3108],[],[],[3157],[],[3082],[3075]
participant_8_SOLD,[],[],[],[],[2003],[],[],[],"[1029, 1029]",[],[1001],[1054],[],[],[],[],[3136],[1001],[],[3340],"[1029, 1029]",[],[3513],[],[],[],[],"[1026, 1028]",[],[],[],"[3191, 3108]",[],[],"[3076, 3082]"
participant_8_UNDO,[],[],[],[],[],[],[],[],[],[],[],"[[0, 3111]]",[],[],[],[],[],[],[],[],[],[],[],[],[],[],[],[],[],[],[],[],[],[],[]
participant_9_GOLD,500,510,532,757,892,1071,1611,1745,1954,2119,3020,3204,3434,3635,3879,4326,4658,4942,5740,6100,6395,6610,7102,7263,7564,8109,8280,8571,8889,9029,9170,9475,9616,9756,10270
participant_9_CURRENTGOLD,500,10,32,257,242,421,961,120,329,194,1095,179,409,610,854,1301,208,492,440,725,1020,861,1352,348,649,59,231,521,839,130,270,576,716,856,1370
participant_9_LEVEL,1,1,1,2,2,3,4,4,5,5,6,6,6,6,7,7,8,8,9,9,10,10,10,10,11,12,12,12,13,13,13,14,14,14,15
participant_9_MINIONSKILLED,0,1,1,1,1,1,1,1,1,1,6,6,6,6,9,10,13,13,16,18,18,18,19,20,20,20,22,24,26,26,26,27,27,27,33
participant_9_KILLS,0,0,0,0,0,0,1,1,1,1,2,2,2,2,2,2,2,2,3,3,3,3,4,4,4,5,5,5,5,5,5,5,5,5,5
participant_9_BUY,[],"[3850, 2003, 2003, 3340]",[],[],[2031],[],[],"[3108, 2055]",[],[1001],[],[3191],[],[3364],[],[],"[3157, 3117, 2055]",[],[1026],[2055],[],[1052],[],[3916],[],"[3165, 1052, 2055, 2055]",[],[],[],[1026],[],[],[],[],[]
participant_9_SOLD,[],[],[],"[2010, 2003, 2003]",[],[],[2010],[2010],[2055],[],[2419],"[2423, 3850]",[],[3340],[],[],"[3191, 3108, 2424, 1001]",[3851],[],[],[],"[2031, 2055]",[],[1052],[2055],"[3916, 1026]",[2055],[2055],[],[],[],[],[],[],[]
participant_9_UNDO,[],[],[],[],[],[],[],[],[],[],[],[],[],[],[],[],[],[],[],[],[],[],[],[],[],[],[],[],[],[],[],[],[],[],[]
team0_KILLS,0,0,0,2,3,3,3,4,5,6,6,7,7,9,10,11,11,12,14,14,15,16,18,19,21,24,24,25,29,29,31,34,36,36,41
team0_CURRENTGOLD,2500,30,423,2881,3240,3685,3964,4475,3714,3328,3852,3924,2229,3455,3274,2287,2242,2510,1738,2670,1815,2079,3187,1688,3245,2784,2240,3830,4729,1830,2969,6399,4286,1965,5687
team0_TOTALGOLD,2500,2530,2923,5381,6920,8440,9919,11515,13304,15093,16592,18739,19869,22095,24504,25917,27372,29290,31483,32915,34585,36584,39582,41058,42965,45953,47007,49350,51708,54363,56481,59910,62498,64080,68051
team0_LEVEL,5,5,6,13,16,21,25,26,29,33,35,37,38,39,43,44,47,49,50,52,54,55,58,60,62,66,66,67,71,75,75,78,80,81,84
team0_SBIRES,0,0,8,37,67,94,122,146,171,190,215,246,260,286,318,337,361,391,397,431,449,463,488,510,529,555,574,588,597,612,620,638,646,667,680
team1_KILLS,0,0,0,0,0,0,1,2,3,4,6,6,7,10,10,13,13,16,19,21,24,25,27,29,31,34,35,37,39,39,39,42,42,42,45
team1_CURRENTGOLD,2500,20,393,1793,2095,1902,3936,3011,2741,4623,4294,2156,2589,4826,3590,6204,4331,3085,4290,3403,3887,2339,5108,3945,3897,3700,3741,5041,3734,4005,2604,3904,3512,3159,4067
team1_TOTALGOLD,2500,2520,2893,4293,5570,7052,9086,10536,12266,14448,17094,18001,19909,22358,24188,27201,29544,31523,34277,36566,39099,40401,43170,45092,46918,48976,50217,52868,54659,55780,57455,59867,61227,62674,65231
team1_LEVEL,5,5,6,13,15,20,25,25,29,34,35,37,39,41,44,46,49,51,54,56,59,60,62,65,66,68,69,71,73,74,74,76,76,79,81
team1_SBIRES,0,1,8,33,58,86,115,130,152,183,205,213,238,252,289,309,350,361,392,408,435,444,463,499,509,518,533,554,563,574,609,611,632,646,657
delta_KILLS,0,0,0,2,3,3,2,2,2,2,0,1,0,-1,0,-2,-2,-4,-5,-7,-9,-9,-9,-10,-10,-10,-11,-12,-10,-10,-8,-8,-6,-6,-4
delta_CURRENTGOLD,0,10,30,1088,1145,1783,28,1464,973,-1295,-442,1768,-360,-1371,-316,-3917,-2089,-575,-2552,-733,-2072,-260,-1921,-2257,-652,-916,-1501,-1211,995,-2175,365,2495,774,-1194,1620
delta_TOTALGOLD,0,10,30,1088,1350,1388,833,979,1038,645,-502,738,-40,-263,316,-1284,-2172,-2233,-2794,-3651,-4514,-3817,-3588,-4034,-3953,-3023,-3210,-3518,-2951,-1417,-974,43,1271,1406,2820
delta_LEVEL,0,0,0,0,1,1,0,1,0,-1,0,0,-1,-2,-1,-2,-2,-2,-4,-4,-5,-5,-4,-5,-4,-2,-3,-4,-2,1,1,2,4,2,3
delta_SBIRES,0,-1,0,4,9,8,7,16,19,7,10,33,22,34,29,28,11,30,5,23,14,19,25,11,20,37,41,34,34,38,11,27,14,21,23
