name,frame_0,frame_1,frame_2,frame_3,frame_4,frame_5,frame_6,frame_7,frame_8,frame_9,frame_10,frame_11,frame_12,frame_13,frame_14,frame_15,frame_16,frame_17,frame_18,frame_19,frame_20,frame_21
nameStamp,Tstart,Tearly,Tearly,Tearly,Tearly,Tearly,Tearly,Tearly,Tearly,Tearly,Tearly,Tearly,Tearly,Tearly,Tearly,Tmid,Tmid,Tmid,Tmid,Tmid,Tmid,Tmid
timestamp,0,60025,120045,180077,240090,300109,360126,420149,480175,540190,600201,660226,720249,780270,840282,900294,960306,1020326,1080339,1140353,1200367,1260367
participant_0_GOLD,500,500,563,804,1391,1639,1888,2264,2435,2763,3125,3247,3432,4281,4495,5010,5224,5473,5673,6055,6800,6819
participant_0_CURRENTGOLD,500,0,63,304,891,239,488,864,235,563,925,147,332,1181,995,1510,1724,540,740,247,992,1011
participant_0_LEVEL,1,1,1,3,4,5,6,6,6,7,7,7,8,9,10,10,10,11,11,11,12,12
participant_0_MINIONSKILLED,0,0,2,9,14,19,27,32,35,44,44,44,48,59,62,68,70,78,80,85,89,89
participant_0_KILLS,0,0,0,0,0,0,0,0,0,0,0,0,0,0,0,0,0,0,1,1,1,1
participant_0_BUY,[],"[1082, 2003, 2003, 2003, 3340]",[],[],[],"[1052, 2003, 2055]",[],[],[],[],[],"[3802, 1001]",[],[],[],[],[1026],[],[],[6655],[],[]
participant_0_SOLD,[],[],[],[],[2003],[],[2003],[],[2055],[],[],[1052],[],[],[],[2003],[],[],[2003],"[3802, 1026]",[],[]
participant_0_UNDO,[],[],[],[],[],[],[],[],[],[],[],[],[],[],[],[],[],[],[],[],[],[]
participant_1_GOLD,500,500,663,955,1205,1489,1831,2388,2510,2969,3116,3239,3361,3484,3656,3988,4260,4603,4987,5490,5662,5680
participant_1_CURRENTGOLD,500,0,163,455,705,989,1331,1888,260,719,866,989,1111,1234,356,688,960,1303,1687,2190,162,180
participant_1_LEVEL,1,1,2,3,4,4,5,5,5,6,6,6,6,6,6,7,7,8,8,9,9,9
participant_1_MINIONSKILLED,0,0,0,0,3,3,4,4,4,5,5,5,5,5,5,6,6,6,6,12,12,12
participant_1_KILLS,0,0,0,0,0,0,0,1,1,1,1,1,1,1,1,1,1,1,1,1,1,1
participant_1_BUY,[],"[1039, 2031, 3340]",[],[],[],[],[],[],"[6660, 1001, 1033]",[],[],[],[],[],[3105],[],[],[],[],[],"[3068, 3111, 1028, 1029]",[]
participant_1_SOLD,[],[],[],[],[],[],[],[],[],[],[1039],[],[],[],[1033],[],[],[],[3340],[],"[6660, 3105, 1001]",[]
participant_1_UNDO,[],[],[],[],[],[],[],[],[],[],[],[],[],[],[],[],[],[],[],[],[],[]
participant_2_GOLD,500,500,626,899,1022,1270,1557,1756,1906,2071,2249,2372,2536,2867,3145,3327,3499,3692,4285,4457,5008,5026
participant_2_CURRENTGOLD,500,0,126,389,512,190,467,666,816,981,1159,117,281,612,890,1072,394,587,1180,102,653,701
participant_2_LEVEL,1,1,1,3,4,4,5,6,6,6,7,7,7,8,8,9,9,10,10,10,11,11
participant_2_MINIONSKILLED,0,0,6,12,12,17,24,28,30,33,36,36,38,41,47,48,48,52,55,55,59,59
participant_2_KILLS,0,0,0,0,1,1,1,1,1,1,2,2,2,3,3,3,3,3,4,4,6,6
participant_2_BUY,[],"[3850, 2003, 2003]",[],[],[],[],[],"[3145, 1028]",[],[],[],[4636],[],[],[],[],[3135],[],[],"[1026, 1001]",[],[]
participant_2_SOLD,[],[],[],[],[2003],[2003],[],[],[3850],[],[],"[3145, 1028]",[],[],[3851],[],[],[],[],[],[],[]
participant_2_UNDO,[],[],[],[],[],[],[],[],[],[],[],[],[],[],[],[],[],[],[],[],[],[]
participant_3_GOLD,500,500,598,885,1403,1749,1942,2064,2900,3495,4179,4397,4723,5402,5900,6502,6720,7058,7831,8122,8875,8893
participant_3_CURRENTGOLD,500,0,98,385,903,1249,1442,139,975,1570,2254,72,398,1077,100,702,920,1258,2031,522,1275,1293
participant_3_LEVEL,1,1,1,2,3,4,4,4,5,6,7,7,7,8,8,9,9,9,10,10,11,11
participant_3_MINIONSKILLED,0,0,4,11,18,28,32,32,46,54,60,62,71,81,88,92,93,102,109,112,117,117
participant_3_KILLS,0,0,0,0,1,1,1,1,1,1,2,2,2,3,3,4,4,4,4,4,6,6
participant_3_BUY,[],"[1054, 2003, 3340]",[],[],[],"[1001, 1029, 1042]",[],[],[3051],[],[],"[3047, 1028]",[],[],[3067],[],[],[3078],[],[1037],[],[]
participant_3_SOLD,[],[],[],[],[],[],[],[],[1042],[],[],"[1001, 1029]",[],[],[1028],[],[],"[3051, 3067]",[],[],[],[]
participant_3_UNDO,[],[],[],[],[],[],[],[],[],[],[],[],[],[],[],[],[],[],[],[],[],[]
participant_4_GOLD,500,500,523,757,1506,1734,1970,2152,2560,2715,3520,3750,3939,4565,5481,5825,6507,6648,7195,7386,8108,8129
participant_4_CURRENTGOLD,500,0,23,257,1006,1234,1470,202,610,765,1570,50,239,865,1781,2125,307,448,996,36,759,779
participant_4_LEVEL,1,1,1,2,3,4,4,5,6,6,7,7,7,8,9,9,10,10,10,10,11,11
participant_4_MINIONSKILLED,0,0,0,0,1,2,3,5,6,7,9,13,15,15,18,26,34,34,37,37,40,40
participant_4_KILLS,0,0,0,0,0,0,0,0,1,2,3,3,3,4,5,6,6,6,7,7,8,8
participant_4_BUY,[],"[1055, 2003, 3340]",[],[],[],[],[],"[6670, 2055, 2003]",[],[],[],"[6672, 1001]",[],[],"[3006, 1018, 2055]",[],[],[],[],"[3133, 3057]",[],[]
participant_4_SOLD,[],[],[],[],[2003],[],[],[],[2055],[],[],[6670],[],[],[1001],[2055],[2003],[],[],[],[],[]
participant_4_UNDO,[],[],[],[],[],[],[],[],[],[],[],[],[],[],[],[],[],[],[],[],[],[]
participant_5_GOLD,500,500,563,804,1008,1263,1421,1641,2060,2204,2580,2986,3178,3314,3839,4059,4269,4454,4597,4762,5002,5021
participant_5_CURRENTGOLD,500,0,63,304,108,63,221,441,860,404,780,386,578,714,1239,1459,469,654,97,262,202,41
participant_5_LEVEL,1,1,1,2,3,4,4,5,6,6,7,8,8,8,9,9,9,10,10,10,10,10
participant_5_MINIONSKILLED,0,0,2,9,11,16,18,24,32,33,45,47,51,52,62,68,69,73,74,76,79,79
participant_5_KILLS,0,0,0,0,0,0,0,0,0,0,0,0,0,0,0,0,0,0,0,0,0,0
participant_5_BUY,[],[2033],[],[],[],[],[],[],[3009],[],[],[],[],[],[],[],[],[],[],[],[],[]
participant_5_SOLD,[],[],[],[],[],[],[],[],[],[],[],[],[],[],[],[],[],[],[],[],[],[]
participant_5_UNDO,[],[],[],[],[],[],[],[],[],[],[],[],[],[],[],[],[],[],[],[],[],[]
participant_6_GOLD,500,500,576,828,951,1178,1386,1608,1772,1925,2047,2170,2292,2414,2537,2659,2782,2904,3026,3149,3271,3290
participant_6_CURRENTGOLD,500,0,76,328,451,678,886,1108,372,525,647,770,892,1014,1137,1259,1382,1504,1626,1749,1871,1890
participant_6_LEVEL,1,1,1,1,1,2,2,2,3,3,3,3,3,3,3,3,3,3,3,3,3,3
participant_6_MINIONSKILLED,0,0,0,0,0,0,0,0,2,3,3,3,3,3,3,3,3,3,3,3,3,3
participant_6_KILLS,0,0,0,0,0,0,0,0,1,1,1,1,1,1,1,1,1,1,1,1,1,1
participant_6_BUY,[],"[3850, 2003, 2003]",[],[],[],[],[1052],[],[],"[4642, 1028]","[2055, 2055, 3364]",[],[],[3067],[],[1082],[],[],[],[],[],[]
participant_6_SOLD,[],[],[],[],[],[],[],[],[],[1052],[3340],[],[],[1028],[],[],[3850],[],[],[],[],[]
participant_6_UNDO,[],[],[],[],[],[],[],[],[],[],[],[],[],[],[],[],[],[],[],[],[],[]
participant_7_GOLD,500,500,577,811,976,1175,1469,1724,2224,2754,3002,3445,3693,3955,4344,4543,4708,5057,5256,6062,6219,6238
participant_7_CURRENTGOLD,500,0,77,311,476,575,859,1114,1614,2134,2382,55,303,565,944,243,408,757,956,62,219,88
participant_7_LEVEL,1,1,1,3,4,4,5,6,6,7,8,8,9,9,10,10,10,10,11,11,11,11
participant_7_MINIONSKILLED,0,0,3,9,12,17,24,32,35,47,54,54,62,71,78,82,85,94,98,102,104,104
participant_7_KILLS,0,0,0,0,0,0,0,0,0,0,0,0,0,0,0,0,0,0,0,0,0,0
participant_7_BUY,[],[],"[2003, 3340, 1054]",[],[1042],[],[],[],[3086],[],[1042],[],[],[1042],[],[],[3046],[],[1036],[],[],[]
participant_7_SOLD,[],[],[],[],[2003],[],[],[],[1042],[],[],[],[],[1054],[],[],"[1042, 3086, 1042]",[],[],[],[],[]
participant_7_UNDO,[],[],[],[],[],[],[],[],[],[],[],[],[],[],[],[],[],[],[],[],[],[]
participant_8_GOLD,500,500,521,734,938,1186,1337,1630,1752,1917,2060,2342,2520,2663,2786,2950,3108,3286,3422,3649,3771,3790
participant_8_CURRENTGOLD,500,500,21,234,138,386,537,830,52,217,60,342,520,543,666,830,88,266,52,279,401,240
participant_8_LEVEL,1,1,1,3,3,4,5,5,6,6,6,7,7,7,7,8,8,8,8,9,9,9
participant_8_MINIONSKILLED,0,0,0,5,7,12,14,21,21,23,24,30,33,34,34,37,39,43,44,46,46,46
participant_8_KILLS,0,0,0,0,0,0,0,0,0,0,0,0,0,0,0,0,0,0,0,0,0,0
participant_8_BUY,[],"[1054, 2003, 3340]",[],[],[1028],[1029],[],[],[],[6660],[],"[1031, 1029]",[],[],[],[],[3105],[],[3068],[],[1029],[]
participant_8_SOLD,[],[],[],[],[2003],[],[],[],[],[1028],[],[1029],[],[],[],[],[1029],[],"[6660, 3105, 1054]",[],[],[]
participant_8_UNDO,[],[],[],[],[],[],[],[],[],[],[],[],[],[],[],[],[],[],"[[1054, 0]]",[],[],[]
participant_9_GOLD,500,500,523,657,792,926,1121,1315,1830,2014,2188,2323,2517,2671,2886,3060,3239,3399,3539,3680,3840,3861
participant_9_CURRENTGOLD,500,0,23,157,292,426,186,380,895,64,88,223,417,171,386,210,389,549,689,830,990,1011
participant_9_LEVEL,1,1,1,1,1,1,1,2,3,4,4,5,5,5,6,6,6,7,7,7,8,8
participant_9_MINIONSKILLED,0,0,0,0,0,0,0,0,1,4,4,4,4,4,4,4,4,4,4,4,4,4
participant_9_KILLS,0,0,0,0,0,0,0,0,1,1,1,2,2,2,2,2,2,2,2,3,3,3
participant_9_BUY,[],"[1055, 2003, 3340]",[],[],[],"[2003, 2003]",[],[],[],[],[],"[6670, 1053, 1018, 2003, 2003, 2003]",[],[],[],"[6673, 1042]",[],[],[],"[1038, 2015]",[],[]
participant_9_SOLD,[],[],[],[],[2003],[],[2003],[],[],[],[2003],[1055],[],[],[],"[6670, 1018, 1053]",[],[],"[2003, 2003]",[1042],[],[]
participant_9_UNDO,[],[],[],[],[],[],[],[],[],[],[],[],[],[],[],[],[],[],[],[],[],[]
team0_KILLS,0,0,0,0,2,2,2,3,4,5,8,8,8,11,12,14,14,14,17,17,22,22
team0_CURRENTGOLD,2500,0,473,1790,4017,3901,5198,3759,2896,4598,6774,1375,2361,4969,4122,6097,4305,4136,6634,3097,3841,3964
team0_TOTALGOLD,2500,2500,2973,4300,6527,7881,9188,10624,12311,14013,16189,17005,17991,20599,22677,24652,26210,27474,29971,31510,34453,34547
team0_LEVEL,5,5,6,13,18,21,24,26,28,31,34,34,35,39,41,44,45,48,49,50,54,54
team0_SBIRES,0,0,12,32,48,69,90,101,121,143,154,160,177,201,220,240,251,272,287,301,317,317
team1_KILLS,0,0,0,0,0,0,0,0,2,2,2,3,3,3,3,3,3,3,3,4,4,4
team1_CURRENTGOLD,2500,500,260,1334,1465,2128,2689,3873,3793,3344,3957,1776,2710,3007,4372,4001,2736,3730,3420,3182,3683,3270
team1_TOTALGOLD,2500,2500,2760,3834,4665,5728,6734,7918,9638,10814,11877,13266,14200,15017,16392,17271,18106,19100,19840,21302,22103,22200
team1_LEVEL,5,5,5,10,12,15,17,20,24,26,28,31,32,32,35,36,36,38,39,40,41,41
team1_SBIRES,0,0,5,23,30,45,56,77,91,110,130,138,153,164,181,194,200,217,223,231,236,236
delta_KILLS,0,0,0,0,2,2,2,3,2,3,6,5,5,8,9,11,11,11,14,13,18,18
delta_CURRENTGOLD,0,-500,213,456,2552,1773,2509,-114,-897,1254,2817,-401,-349,1962,-250,2096,1569,406,3214,-85,158,694
delta_TOTALGOLD,0,0,213,466,1862,2153,2454,2706,2673,3199,4312,3739,3791,5582,6285,7381,8104,8374,10131,10208,12350,12347
delta_LEVEL,0,0,1,3,6,6,7,6,4,5,6,3,3,7,6,8,9,10,10,10,13,13
delta_SBIRES,0,0,7,9,18,24,34,24,30,33,24,22,24,37,39,46,51,55,64,70,81,81
