name,frame_0,frame_1,frame_2,frame_3,frame_4,frame_5,frame_6,frame_7,frame_8,frame_9,frame_10,frame_11,frame_12,frame_13,frame_14,frame_15,frame_16,frame_17,frame_18,frame_19,frame_20,frame_21,frame_22,frame_23,frame_24,frame_25,frame_26,frame_27,frame_28,frame_29,frame_30,frame_31,frame_32,frame_33,frame_34
nameStamp,Tstart,Tearly,Tearly,Tearly,Tearly,Tearly,Tearly,Tearly,Tearly,Tearly,Tearly,Tearly,Tearly,Tearly,Tearly,Tmid,Tmid,Tmid,Tmid,Tmid,Tmid,Tmid,Tmid,Tmid,Tmid,Tmid,Tmid,Tmid,Tmid,Tmid,Tmid,Tmid,Tmid,Tend,Tend
timestamp,0,60031,120050,180081,240105,300107,360120,420153,480154,540170,600197,660201,720232,780258,840288,900314,960332,1020363,1080383,1140411,1200414,1260435,1320456,1380460,1440483,1500500,1560522,1620532,1680548,1740577,1800597,1860625,1920651,1980655,2040655
participant_0_GOLD,500,500,556,843,1071,1242,1529,2069,2331,2615,3148,3642,4085,4438,5624,5872,5994,6117,6479,6673,7090,7262,7823,9071,9682,9805,9927,10107,10230,10353,10684,12016,12468,12611,12669
participant_0_CURRENTGOLD,500,0,56,343,571,742,429,969,1231,1515,2048,742,1185,38,1224,1472,194,317,679,873,390,562,23,1271,1882,505,627,807,931,1053,1384,2717,3168,217,94
participant_0_LEVEL,1,1,1,3,4,5,6,7,7,8,8,9,10,10,11,11,11,11,12,12,12,12,12,13,13,13,13,13,13,13,14,14,15,15,15
participant_0_MINIONSKILLED,0,0,2,9,15,18,25,31,39,48,53,57,66,70,79,87,87,87,87,91,91,91,92,98,98,98,98,98,98,98,101,101,105,106,106
participant_0_KILLS,0,0,0,0,0,0,0,0,0,0,0,0,0,0,0,0,0,0,0,0,0,0,0,0,0,0,0,0,0,0,0,0,0,0,0
participant_0_BUY,[],"[3850, 2003, 2003, 3340]",[],[],[],"[1052, 1027]",[],[],[3802],[],[],"[2003, 1026, 2003]",[],[],[],[],[],[],[],[],[],"[2003, 6656, 2003, 2003]",[],[3020],[],[1028],[],[],[],[],[],[],[3916],[],[]
participant_0_SOLD,[],[],[],[],[],[],[],[],"[1052, 1027]",[2003],"[2003, 3850]",[],[],[],[2003],[],[],[2003],[],[],[3851],"[3802, 1026]",[],[2422],[],[],[],[],[],[],[],[],[],[],[]
participant_0_UNDO,[],[],[],[],[],[],[],[],[],[],[],[],[],[],[],[],[],[],[],[],[],[],[],[],[],[],[],[],[],[],[],[],[],[],[]
participant_1_GOLD,500,500,606,1013,1318,1440,1733,2252,2504,2712,3019,3404,3734,4019,4191,4503,4775,4897,5740,5862,5984,6342,6644,6850,7778,7985,8469,8649,8787,8958,9155,10057,10264,10386,10445
participant_1_CURRENTGOLD,500,0,106,513,818,940,1233,1752,2004,162,469,854,1184,1469,316,628,900,422,1265,887,659,1017,369,575,403,670,454,634,772,143,341,1242,1449,472,470
participant_1_LEVEL,1,1,2,3,4,4,5,5,6,6,6,7,8,8,8,8,9,9,10,10,10,10,10,11,11,11,12,12,12,12,13,13,13,13,13
participant_1_MINIONSKILLED,0,0,0,0,0,0,0,0,1,1,1,1,2,2,2,2,2,2,2,2,2,2,2,8,8,8,11,11,12,15,15,16,16,16,16
participant_1_KILLS,0,0,0,0,0,0,0,1,1,1,1,2,2,2,3,3,3,3,4,4,5,5,6,7,8,8,8,8,8,8,8,10,10,10,10
participant_1_BUY,[],"[1055, 2003, 3340]",[],[],[],[],"[1042, 1001]",[],[],[],[],"[3006, 6670]",[],"[1053, 1018]",[],[],"[6673, 1042, 6677]",[],[],[],"[1018, 1042]",[],[3124],[],[],"[3086, 1042]",[],[],[],[],[],[],[],"[3046, 3086, 1037]",[]
participant_1_SOLD,[],[],[],[],[2003],[],[],[],[],[],[],"[1001, 1042]",[],[],[],[],"[6670, 1018, 1053, 1042]",[],[],[],[],[],"[6677, 1018, 1042]",[],[],[],[],[],[],[],[],[],[],"[1042, 3086, 1055]",[]
participant_1_UNDO,[],[],[],[],[],[],[],[],[],[],[],[],[],[],[],[],[],[],[],[],[],[],[],[],[],[],[],[],[],[],[],[],[],[],[]
participant_2_GOLD,500,500,612,832,1032,1364,1627,1882,2206,2868,3283,3427,3943,4149,4322,4640,4948,5209,5436,5719,5841,6188,6395,6517,6819,6984,7120,7419,7591,7867,7989,8162,8475,8597,8656
participant_2_CURRENTGOLD,500,0,112,332,532,854,1117,472,486,1138,553,697,1203,1409,282,600,908,1169,296,579,701,348,555,277,179,344,480,779,951,1227,316,489,302,424,523
participant_2_LEVEL,1,1,1,3,4,5,6,6,7,8,8,8,9,9,9,10,10,11,11,11,11,12,12,12,12,12,12,12,13,13,13,13,14,14,14
participant_2_MINIONSKILLED,0,0,5,10,14,23,31,38,47,57,65,66,76,81,81,89,96,100,106,111,111,117,119,119,124,126,127,134,137,142,142,142,153,153,153
participant_2_KILLS,0,0,0,0,0,0,0,0,0,1,1,1,1,1,1,1,1,1,1,1,1,1,1,1,1,1,1,1,1,1,1,1,1,1,1
participant_2_BUY,[],"[2033, 3340]",[],[],[],[],[],[1053],[1001],[],[1043],[],[],[],"[1037, 3153]",[],[],[],[3051],[],[],[3057],[],[1028],[3067],[],[],[],[],[],"[3078, 1029]",[],[3047],[],[]
participant_2_SOLD,[],[],[],[2010],[],[2010],[],[2010],[],[],[],[],[],[],"[1053, 1043, 1037]",[],[],[],[],[],[],[],[],[],[1028],[],[],[],[],[],"[3057, 3051, 3067]",[],"[1001, 1029]",[],[]
participant_2_UNDO,[],[],[],[],[],[],[],[],[],[],[],[],[],[],[],[],[],[],[],[],[],[],[],[],[],[],[],[],[],[],[],[],[],[],[]
participant_3_GOLD,500,500,598,867,1390,1596,1901,2250,2672,2851,3064,3229,3632,3880,4211,4410,4575,5157,5514,6316,6556,6791,7322,7474,7671,7794,8066,8919,9042,9178,9796,10374,10622,10745,10803
participant_3_CURRENTGOLD,500,0,98,367,890,196,501,850,22,201,414,579,982,1230,1561,35,200,782,1139,1941,2181,216,747,899,396,259,531,284,407,543,1161,1739,788,10,28
participant_3_LEVEL,1,1,1,2,3,3,4,5,5,6,6,6,7,7,8,8,8,9,10,10,10,11,11,11,12,12,12,12,12,12,13,14,14,14,14
participant_3_MINIONSKILLED,0,0,4,12,12,17,27,37,37,40,45,48,61,68,73,78,81,86,95,98,101,105,113,114,114,114,114,115,115,116,123,127,127,127,127
participant_3_KILLS,0,0,0,0,0,0,0,1,1,1,1,1,1,1,1,1,1,1,2,2,2,2,2,2,3,3,4,4,4,4,4,5,5,5,5
participant_3_BUY,[],"[1035, 2031, 3340]",[],[],[],[],[],[],[],"[3044, 1037, 2055]",[],[],[],[],[6630],[],[],"[1001, 1029]",[],[3047],[1036],[],[3155],[],[3133],[],[3156],[],[],[1031],[],[],[],[3133],[]
participant_3_SOLD,[],[],[],[],[],[],[],[],[1035],[],[],[],[],[],"[1037, 3044]",[],[],[],[],"[1001, 1029]",[],[],[1036],[],[],"[2031, 2055]","[3155, 3133]",[],[],[],[],[],[],[],[]
participant_3_UNDO,[],[],[],[],[],[],[],[],[],[],[],[],[],[],[],[],[],[],[],[],[],[],[],[],[],[],[],[],[],[],[],[],[],[],[]
participant_4_GOLD,500,500,523,737,1144,1279,1493,1688,1863,2160,2477,2712,2852,2992,3223,3363,3578,3738,3898,4279,4548,4738,5064,5204,5455,5595,5736,5921,6063,6224,6365,6830,6971,7111,7178
participant_4_CURRENTGOLD,500,0,23,237,644,-56,158,353,-37,260,577,-138,-48,92,323,463,678,838,999,1379,1648,438,764,104,355,95,236,422,563,725,865,1330,671,811,1028
participant_4_LEVEL,1,1,1,2,3,3,3,4,4,5,6,6,6,7,7,7,7,8,8,9,9,9,9,9,10,10,11,11,11,11,11,12,12,12,12
participant_4_MINIONSKILLED,0,0,0,0,0,0,0,0,1,3,3,4,4,4,4,4,5,5,5,6,6,6,7,7,10,10,10,10,10,11,11,11,11,11,11
participant_4_KILLS,0,0,0,0,1,1,1,1,2,2,2,2,2,2,2,2,2,3,3,4,4,4,4,4,4,4,4,5,5,5,6,7,7,7,7
participant_4_BUY,[],"[1055, 2003, 3340]",[],[],[],[1053],[],[],"[1018, 1036, 1001]",[],[],[],[],[],[],"[6673, 2055, 2003, 2003]",[],[],[],[],[],"[3006, 1038, 2003, 2003]",[],[],[2015],[1042],[],"[3095, 2015]",[],[],[],[],[3086],"[3094, 2003, 2003]",[]
participant_4_SOLD,[],[],[],[2003],[],[],[],[],[],[],[],[],[],[],[],"[1036, 1018, 1053]",[],[2003],[2055],[],[2003],[1001],[],[],[],"[2003, 2003]",[],"[1038, 2015, 1042]",[],[],[],[],[],"[3086, 2015]",[]
participant_4_UNDO,[],[],[],[],[],[],[],[],[],[],[],[],[],[],[],[],[],[],[],[],[],[],[],[],[],[],[],[],[],[],[],[],[],[],[]
participant_5_GOLD,500,500,542,755,934,1105,1326,1462,1674,1846,1989,2389,2553,2766,2931,3067,3473,3679,3892,4134,4779,5071,5193,5603,5905,6112,7000,7123,7336,7480,7894,8040,8546,9096,9554
participant_5_CURRENTGOLD,500,0,42,255,434,605,126,262,474,646,139,89,253,466,631,767,173,379,192,434,1079,1371,325,735,1037,344,1232,1355,1568,1712,2126,607,763,1313,1771
participant_5_LEVEL,1,1,1,3,3,4,5,5,6,6,7,7,7,8,8,8,9,10,10,11,11,11,11,12,12,12,13,13,13,14,14,14,15,15,15
participant_5_MINIONSKILLED,0,0,1,6,9,12,17,18,20,23,24,28,30,35,37,38,42,47,52,60,69,76,76,80,83,83,86,86,87,88,97,97,103,115,115
participant_5_KILLS,0,0,0,0,0,0,0,0,0,0,0,0,0,0,0,0,0,0,0,0,0,0,0,0,0,0,0,0,0,0,0,1,1,1,1
participant_5_BUY,[],"[3858, 2003, 3340, 2003]",[],[],[],[1001],[2055],[],[3009],[],[],[1028],[1028],[],[],"[6660, 1033, 2055]",[],[1057],[],[],[1029],[],[],[],[6664],[],[],[],"[3801, 1006, 1028]",[],[],[3067],[],[],[]
participant_5_SOLD,[],[],[],[],"[2003, 2010]","[2003, 2010]",[],"[2010, 2055]",[1001],[],[],[],[],[],[3858],"[1028, 1028]",[2055],[1033],[],[],[],[],[],[],"[6660, 1029, 1057]",[3859],[],[],[],[],[],[1028],[],[],[]
participant_5_UNDO,[],[],[],[],[],[],[],[],[],[],[],[],[],[],[],[],[],[],[],[],[],[],[],[],[],[],[],[],[],[],[],[],[],[],[]
participant_6_GOLD,500,500,621,948,1071,1342,1571,1798,2125,2273,2578,2957,3258,3464,4034,4262,5104,5665,6487,6665,7652,8098,8757,9307,10390,11170,11517,11640,11763,12301,12743,12865,13570,14216,14604
participant_6_CURRENTGOLD,500,0,121,448,221,492,721,948,1275,198,503,882,408,614,1184,237,1079,1640,2462,265,1177,548,1207,132,1215,395,743,125,248,786,129,251,955,1601,1929
participant_6_LEVEL,1,1,2,3,3,4,4,5,5,6,6,7,7,7,8,9,9,10,11,11,12,12,13,13,13,14,14,14,14,15,15,15,16,16,17
participant_6_MINIONSKILLED,0,0,0,0,0,1,2,8,8,8,9,10,10,11,11,11,12,13,13,16,16,19,26,28,28,35,35,35,35,36,36,36,40,41,47
participant_6_KILLS,0,0,0,0,0,0,0,0,2,2,2,3,3,3,3,3,3,3,3,3,3,3,3,4,5,5,6,6,6,6,6,6,6,7,9
participant_6_BUY,[],"[1055, 2003, 3340]",[],[],[],"[1042, 1036, 2003, 2055]",[],[],[],[],"[3006, 1053]",[],"[1018, 1036, 2003, 2003]",[],[],"[6670, 2055]",[],[],[],[],"[6673, 1018]",[2015],[],[],[],[3095],[],[],[],[3086],[],[2015],[],[],[]
participant_6_SOLD,[],[],[],[],[],[],[],[2055],[2003],[2003],"[1042, 1036]",[],[],[],[],"[1055, 1036]",[],[2055],[2003],[],"[6670, 1018, 1053]",[],[],[],[2003],"[1018, 2015]",[],[],[],[],[],[],[],[],[]
participant_6_UNDO,[],[],[],[],[],[],[],[],[],[],[],[],[],[],[],[],[],[],[],[],[],[],[],[],[],[],[],[],[],[],[],[],[],[],[]
participant_7_GOLD,500,500,598,909,1172,1399,1662,1784,2143,2566,2828,3475,3697,4133,5203,5431,5588,6148,6683,6945,8017,8215,8787,9185,9382,9729,10352,10774,10988,11769,12177,12322,12819,14537,15170
participant_7_CURRENTGOLD,500,0,98,409,672,889,1152,74,423,71,333,980,352,788,1858,436,593,1153,543,805,1877,275,847,1245,192,539,1162,1584,1799,2579,2987,148,644,2363,2910
participant_7_LEVEL,1,1,1,3,4,5,6,6,7,7,7,8,8,8,9,9,10,10,11,11,12,12,13,13,13,14,14,14,14,15,15,15,16,16,17
participant_7_MINIONSKILLED,0,0,4,15,23,26,34,34,45,45,54,57,58,67,69,75,77,77,84,88,88,88,88,88,88,91,91,91,96,100,102,102,105,115,118
participant_7_KILLS,0,0,0,0,0,0,0,0,0,1,1,2,2,2,4,4,4,5,5,5,7,7,8,9,9,10,11,12,12,13,14,14,14,17,18
participant_7_BUY,[],"[1056, 2003, 3340, 2003]",[],[],[],[],[],"[3145, 1006]",[],"[1001, 1028, 2055]",[],[],[1026],[],[],"[4636, 3070, 1027]",[],[],[1058],[],[],"[3003, 3020]",[],[],[1058],[],[],[],[],[],[],"[3089, 1052]",[],[],[]
participant_7_SOLD,[],[],[],[],[],[],[2003],[],[],[2003],[2055],[],[],[],[],"[3145, 1028, 1026]",[],[],[1006],[],[],"[3070, 1058, 1027, 1001]",[],[],[],[],[],[3003],[],[],[],[1058],[],[],[]
participant_7_UNDO,[],[],[],[],[],[],[],[],[],[],[],[],[],[],[],[],[],[],[],[],[],[],[],[],[],[],[],[],[],[],[],[],[],[],[]
participant_8_GOLD,500,500,563,776,1067,1322,1501,1738,2528,2651,2922,3571,3742,4005,4383,4555,4932,5201,5598,5769,6046,6573,6709,7315,7733,8025,8870,9001,9284,9500,9840,10005,10449,11221,12001
participant_8_CURRENTGOLD,500,0,63,276,567,47,226,463,1253,1376,297,946,67,330,708,35,412,681,1078,1249,326,153,289,895,1313,205,1050,1181,1464,481,820,286,729,1501,2101
participant_8_LEVEL,1,1,1,2,3,3,4,5,6,6,7,7,7,8,8,8,9,9,10,10,10,10,10,11,11,12,12,13,13,13,13,14,14,15,15
participant_8_MINIONSKILLED,0,0,2,7,17,22,25,29,31,31,37,43,46,54,65,68,79,87,98,101,103,109,110,113,116,116,124,124,129,132,133,133,134,136,136
participant_8_KILLS,0,0,0,0,0,0,0,0,0,0,0,0,0,0,0,0,1,2,4,4,6,6,7,7,10,11,11,11,11,12,13,13,13,14,14
participant_8_BUY,[],"[1035, 2031]",[],[],[1036],[],[],[],[],"[3044, 1028, 2055]",[],[],"[3057, 2055]",[],[],"[6632, 2055]",[],[],[],"[3044, 1037, 1028]",[2055],"[3053, 1036]",[],"[3133, 1031, 2055]",[],"[6333, 1028]",[],[3123],[],[],"[3133, 3047]",[],[],[],[]
participant_8_SOLD,[],[],[],[],[],[],[2403],[],[],"[1035, 1036]",[],[2055],[],[],[],"[3044, 3057, 1028]",[2055],"[2403, 2055]",[],[2403],[],"[1037, 3044, 1028]",[2055],[1036],[],"[1031, 3133]",[],"[2055, 2031]",[],[],[],[],[],[],[]
participant_8_UNDO,[],[],[],[],[],[],[],[],[],[],[],[],[],[],[],[],[],[],[],[],[],[],[],[],[],[],[],[],[],[],"[[0, 3133]]",[],[],[],[]
participant_9_GOLD,500,500,544,713,869,1066,1215,1349,1783,1918,2101,2356,2491,2688,2925,3065,3314,3468,3699,3839,4029,4220,4381,4897,5092,5232,5678,5867,6009,6286,6447,6728,7280,7707,7951
participant_9_CURRENTGOLD,500,0,44,213,369,266,340,474,308,443,626,481,216,413,650,65,314,18,249,389,279,470,631,1147,342,482,928,1117,59,336,498,378,930,1357,1601
participant_9_LEVEL,1,1,1,2,3,3,4,4,5,5,6,6,6,7,7,7,8,8,8,9,9,9,10,10,10,10,11,11,11,12,12,12,13,14,14
participant_9_MINIONSKILLED,0,0,1,3,4,5,6,6,6,6,9,10,10,14,16,16,18,19,20,20,20,20,21,21,21,21,22,22,22,22,23,23,25,26,26
participant_9_KILLS,0,0,0,0,0,0,0,0,0,0,0,0,0,0,0,0,0,0,0,0,0,0,0,0,0,0,1,1,1,1,1,1,1,1,1
participant_9_BUY,[],"[1056, 3340, 2003, 2003]",[],[],[],[],[3057],[],[],[],"[1036, 1042]",[3051],[],[],[],[],"[3009, 1028]",[],[3067],[],[],[],"[3078, 1052]",[],[],[1011],[],[],[],[],[],[3116],[1082],[],[]
participant_9_SOLD,[],[],[],[],"[2003, 2003]",[],[],[],[],[],[],"[1042, 1036]",[],[],[],[],[2422],[],[1028],[],[],[],"[3057, 3051, 3067]",[],[],[],[],[],[],[],[],"[1011, 1052]",[],[],[]
participant_9_UNDO,[],[],[],[],[],[],[],[],[],[],[],[],[],[],[],[],[],[],[],[],[],[],[],[],[],[],[],[],[],[],[],[],[],[],[]
team0_KILLS,0,0,0,0,1,1,1,3,4,5,5,6,6,6,7,7,7,8,10,11,12,12,13,14,16,16,17,18,18,18,19,23,23,23,23
team0_CURRENTGOLD,2500,0,395,1792,3455,2676,3438,4396,3706,3276,4061,2734,4506,4238,3706,3198,2880,3528,4378,5659,5579,2581,2458,3126,3215,1873,2328,2926,3624,3691,4067,7517,6378,1934,2143
team0_TOTALGOLD,2500,2500,2895,4292,5955,6921,8283,10141,11576,13206,14991,16414,18246,19478,21571,22788,23870,25118,27067,28849,30019,31321,33248,35116,37405,38163,39318,41015,41713,42580,43989,47439,48800,49450,49751
team0_LEVEL,5,5,6,13,18,20,24,27,29,33,34,36,40,41,43,44,45,48,51,52,52,54,54,56,58,58,60,60,61,61,64,66,68,68,68
team0_SBIRES,0,0,11,31,41,58,83,106,125,149,167,176,209,225,239,260,271,280,295,308,311,321,333,346,354,356,360,368,372,382,392,397,412,413,413
team1_KILLS,0,0,0,0,0,0,0,0,2,3,3,5,5,5,7,7,8,10,12,12,16,16,18,20,24,26,29,30,30,32,34,35,35,40,43
team1_CURRENTGOLD,2500,0,368,1601,2263,2299,2565,2221,3733,2734,1898,3378,1296,2611,5031,1540,2571,3871,4524,3142,4738,2817,3299,4154,4099,1965,5115,5362,5138,5894,6560,1670,4021,8135,10312
team1_TOTALGOLD,2500,2500,2868,4101,5113,6234,7275,8131,10253,11254,12418,14748,15741,17056,19476,20380,22411,24161,26359,27352,30523,32177,33827,36307,38502,40268,43417,44405,45380,47336,49101,49960,52664,56777,59280
team1_LEVEL,5,5,6,13,16,19,23,25,29,30,33,35,35,38,40,41,45,47,50,52,54,54,57,59,59,62,64,65,65,69,69,70,74,76,78
team1_SBIRES,0,0,8,31,53,66,84,95,110,113,133,148,154,181,198,208,228,243,267,285,296,312,321,330,336,346,358,358,369,378,391,391,407,433,442
delta_KILLS,0,0,0,0,1,1,1,3,2,2,2,1,1,1,0,0,-1,-2,-2,-1,-4,-4,-5,-6,-8,-10,-12,-12,-12,-14,-15,-12,-12,-17,-20
delta_CURRENTGOLD,0,0,27,191,1192,377,873,2175,-27,542,2163,-644,3210,1627,-1325,1658,309,-343,-146,2517,841,-236,-841,-1028,-884,-92,-2787,-2436,-1514,-2203,-2493,5847,2357,-6201,-8169
delta_TOTALGOLD,0,0,27,191,842,687,1008,2010,1323,1952,2573,1666,2505,2422,2095,2408,1459,957,708,1497,-504,-856,-579,-1191,-1097,-2105,-4099,-3390,-3667,-4756,-5112,-2521,-3864,-7327,-9529
delta_LEVEL,0,0,0,0,2,1,1,2,0,3,1,1,5,3,3,3,0,1,1,0,-2,0,-3,-3,-1,-4,-4,-5,-4,-8,-5,-4,-6,-8,-10
delta_SBIRES,0,0,3,0,-12,-8,-1,11,15,36,34,28,55,44,41,52,43,37,28,23,15,9,12,16,18,10,2,10,3,4,1,6,5,-20,-29
