name,team0,team1
win,Fail,Win
firstBlood,True,False
firstTower,False,True
firstInhibitor,True,False
firstBaron,False,True
firstDragon,False,True
firstRiftHerald,False,False
towerKills,9,11
inhibitorKills,4,2
baronKills,0,1
dragonKills,3,4
riftHeraldKills,0,0
