name,frame_0,frame_1,frame_2,frame_3,frame_4,frame_5,frame_6,frame_7,frame_8,frame_9,frame_10,frame_11,frame_12,frame_13,frame_14,frame_15,frame_16,frame_17,frame_18,frame_19,frame_20,frame_21,frame_22,frame_23,frame_24,frame_25,frame_26,frame_27,frame_28,frame_29,frame_30,frame_31,frame_32,frame_33,frame_34,frame_35,frame_36,frame_37,frame_38,frame_39,frame_40,frame_41
nameStamp,Tstart,Tearly,Tearly,Tearly,Tearly,Tearly,Tearly,Tearly,Tearly,Tearly,Tearly,Tearly,Tearly,Tearly,Tearly,Tearly,Tearly,Tmid,Tmid,Tmid,Tmid,Tmid,Tmid,Tmid,Tmid,Tmid,Tmid,Tmid,Tmid,Tmid,Tmid,Tmid,Tmid,Tmid,Tmid,Tmid,Tend,Tend,Tend,Tend,Tend,Tend
timestamp,0,60030,120031,180048,240059,300074,360082,420106,480129,540168,600190,660226,720250,780259,840261,900269,960276,1020278,1080284,1140294,1200323,1260352,1320369,1380390,1440420,1500436,1560469,1620481,1680511,1740535,1800539,1860561,1920594,1980625,2040651,2100664,2160691,2220709,2280733,2340760,2400784,2460808
participant_0_GOLD,500,500,576,755,934,1077,1563,1814,1957,2080,2291,2414,2683,3223,3346,3768,4087,4308,4999,5556,5762,6367,7034,7798,8200,8432,8625,8897,9104,9559,9682,9804,10206,10964,11365,11487,11895,12307,12429,12740,12876,13083
participant_0_CURRENTGOLD,500,0,76,255,434,77,563,814,957,255,466,589,108,648,771,43,362,583,1274,1831,212,817,384,98,500,399,292,65,271,726,849,221,624,1381,1782,635,1042,55,177,487,624,481
participant_0_LEVEL,1,1,1,3,4,4,6,6,7,7,8,8,8,9,9,10,10,10,11,11,12,12,13,13,14,14,14,14,14,15,15,15,16,16,16,16,17,17,17,17,17,18
participant_0_MINIONSKILLED,0,0,3,6,9,10,14,19,20,20,27,27,35,41,41,41,46,49,53,57,62,70,77,82,94,95,96,96,101,108,108,108,117,117,129,129,138,138,138,145,146,147
participant_0_KILLS,0,0,0,0,0,0,0,0,0,1,1,3,3,3,3,3,4,4,4,4,4,4,4,5,5,6,6,7,7,9,9,9,9,10,10,10,10,11,12,12,12,13
participant_0_BUY,[],"[1041, 1006, 3340, 3364]",[],[],"[1001, 2055]",[],[],[],"[3706, 2055]",[],[],[3077],[],"[3751, 3047, 3111]",[],[],[],[],[],"[1401, 1400, 1036, 1028]",[],[3052],[],[],[],[],[3748],[3211],[1028],[],[],[],"[3065, 1029, 2055, 2055]",[],[],[3076],"[1029, 1028]",[],[],[3075],[],[1006]
participant_0_SOLD,[],[3340],[],[],[],[],[2055],[],[1041],[2055],[],[1006],[],"[1001, 1001]",[],[],[],[],[],"[3706, 3706]",[],"[1036, 1028]",[],[],[],[],"[3077, 3052]",[],[],[],[],[],"[3211, 1028]",[],[],"[1029, 2055, 2055]",[],[],[],"[3076, 1028]",[],[]
participant_0_UNDO,[],[],[],[],[],[],[],[],[],[],[],[],[],"[[0, 3751], [0, 3047]]",[],[],[],[],[],"[[0, 1401]]",[],[],[],[],[],[],[],[],[],[],[],[],[],[],[],[],"[[0, 1029]]",[],[],[],[],[]
participant_1_GOLD,500,500,638,838,961,1228,1456,1613,1835,2515,2777,3540,3662,3794,4112,4376,5121,5543,5934,6057,6264,6500,6802,7329,7676,8356,8590,9032,9155,9939,10336,10616,10788,11590,11869,12041,12187,12701,13143,13350,13473,13915
participant_1_CURRENTGOLD,500,0,138,338,86,353,581,738,235,915,1177,765,887,219,537,801,1546,1968,2359,107,314,100,402,929,1276,1956,1215,457,180,964,1361,1641,163,966,1244,777,523,1036,1479,186,309,601
participant_1_LEVEL,1,1,2,2,2,3,3,4,4,6,6,7,7,7,7,8,8,9,9,9,10,10,10,11,11,12,12,12,12,13,13,14,14,14,15,15,15,15,16,16,16,16
participant_1_MINIONSKILLED,0,0,1,1,1,2,2,3,3,7,8,8,8,9,9,13,16,17,20,20,20,24,31,32,33,34,34,34,34,35,35,35,35,35,36,36,36,37,37,37,37,37
participant_1_KILLS,0,0,0,0,0,0,0,0,0,0,0,0,0,0,0,0,2,2,2,2,2,2,2,2,2,2,2,2,2,3,3,3,3,3,3,3,3,3,3,3,3,3
participant_1_BUY,[],"[1055, 2003, 3340]",[],[],[1055],[2031],[],[],[],[],[1038],[],[],[],[],"[1018, 1037]",[],[],[],"[3031, 3009, 1018]",[],[],[],[],[],[],"[1038, 3031]",[],[],[],[],[3094],[],[],[],[1038],[],[],[],[1037],[],[]
participant_1_SOLD,[],[],[],[],[],[2003],[],[],[],[],[],[],[],[],[],[],[],[],[],"[1038, 1037, 1018]",[],[1055],[],[],[],[],"[1055, 1038, 1018]",[],[],[],[],[],[],[2031],[],[],[],[],[],[],[],[]
participant_1_UNDO,[],[],[],[],[],[],[],[],[],[],[],[],[],[],[],[],[],[],[],[],[],[],[],[],[],[],[],[],[],[],[],[],[],[],[],[],[],[],[],[],[],[]
participant_2_GOLD,500,500,555,829,1057,1403,1760,2001,2137,2386,2599,3106,3389,3683,4405,4639,5544,5820,6106,6684,6869,7042,7864,8342,8479,9514,9987,10509,10680,10954,11176,11564,11983,12260,13156,13946,14082,14355,14477,14658,14781,15174
participant_2_CURRENTGOLD,500,0,55,329,47,393,750,991,187,436,649,1156,1439,733,30,264,1169,495,781,1359,144,317,1139,1617,354,1390,612,1134,1306,189,412,799,1218,146,966,907,608,880,1003,1184,1307,335
participant_2_LEVEL,1,1,1,3,4,5,6,6,7,7,8,9,9,10,11,11,12,12,12,13,13,13,13,14,14,14,15,15,15,15,16,16,16,16,17,17,17,17,17,17,17,18
participant_2_MINIONSKILLED,0,0,2,8,14,25,36,43,44,51,57,62,71,84,95,98,107,108,108,115,119,119,119,132,133,146,146,152,155,155,155,167,176,182,182,182,183,183,183,187,187,195
participant_2_KILLS,0,0,0,0,0,0,1,1,1,1,1,1,1,1,1,2,2,2,3,4,4,4,5,6,6,6,6,6,6,6,6,6,6,7,7,7,7,7,7,7,7,7
participant_2_BUY,[],"[1055, 2003, 3340]",[],[],[],"[1006, 1036]",[],[],[],"[3077, 3364]",[],[],"[1028, 1036]",[],[],"[3044, 1036, 1001]",[],[],[],[],[3074],[],[3101],[3057],[],[3078],[1042],[3006],[],[],[],"[1033, 1029]",[],[],[],"[3105, 3133]",[],[3812],[],[],[],[1036]
participant_2_SOLD,[],[],[],[2003],[],[],[],[],[],"[1036, 1006, 3340]",[],[],[],[],[],"[1028, 1036]",[],[],[],[],"[3077, 1036]",[],[],[],[],"[3101, 3057, 3044]",[],"[1001, 1042]",[],[],[],[],[],[],[],"[1033, 1029, 1055]",[],"[3105, 3133]",[],[],[],[]
participant_2_UNDO,[],[],[],[],[],[],[],[],[],[],[],[],[],[],[],[],[],[],[],[],[],[],[],[],[],[],[],[],[],[],[],[],[],[],[],[],[],[],[],[],[],[]
participant_3_GOLD,500,500,562,874,1067,1224,1581,1951,2184,2482,2646,3235,3476,3858,4216,4492,5410,5850,6227,6391,6569,6763,6885,7520,7781,8200,8543,9156,9410,10500,10929,11051,11434,11646,12189,12673,12795,12927,13412,13625,13893,14016
participant_3_CURRENTGOLD,500,0,62,374,117,144,501,871,1104,1402,266,855,1096,1478,1836,437,1355,1795,2172,211,389,763,885,1520,1781,2200,123,736,990,2081,2509,32,414,686,1230,413,536,668,1152,491,759,882
participant_3_LEVEL,1,1,1,3,3,3,4,5,5,6,6,7,7,8,8,9,9,10,10,10,10,10,10,11,12,12,12,13,13,14,14,14,14,15,15,16,16,16,16,17,17,17
participant_3_MINIONSKILLED,0,0,2,13,17,19,28,39,42,53,56,65,72,84,90,95,101,107,114,117,120,121,121,137,144,148,149,159,162,166,176,176,177,178,189,198,198,199,212,217,221,221
participant_3_KILLS,0,0,0,0,0,0,0,0,0,0,0,0,1,1,2,2,2,2,2,2,2,2,2,3,3,4,4,4,4,4,4,4,5,5,5,5,5,5,5,5,5,5
participant_3_BUY,[],"[3850, 2003, 2003]",[],[],[],[],[],[],"[3133, 2031]",[],[],[],[],[],[],[3508],[3009],[],[],"[3086, 1042]",[],"[2015, 3364]",[],[],[],[],"[3094, 3086]",[],[],[1042],[3085],[],[],[1037],[],[],[],[],[],[],[],[3814]
participant_3_SOLD,[],[],[],[],[2003],[],[2003],[],[],[],[],[3850],[],[],[],[3133],[2422],[],[3851],[],[],"[1042, 3340]",[],[],[],[],"[3086, 2015]",[],[],[2031],"[1042, 3086]",[],[],[],[],[],[],[],[],[],[],[1037]
participant_3_UNDO,[],[],[],[],[],[],[],[],[],[],[],[],[],[],[],[],[],[],[],[],[],[],[],[],[],[],[],[],[],[],[],[],[],[],[],[],[],[],[],[],[],[]
participant_4_GOLD,500,500,555,762,957,1293,1598,1780,1959,2252,2407,2686,3357,3614,4145,4414,5235,5728,6084,6299,6453,6644,6859,7380,7704,8415,8787,8977,9168,9309,9639,9780,10432,10573,10742,11026,11368,11548,12023,12223,12383,12657
participant_4_CURRENTGOLD,500,0,55,262,457,793,1098,1280,209,502,657,936,1607,1864,2395,464,635,1128,1484,-51,103,-156,59,581,904,1615,87,277,468,369,-200,-110,542,-192,-73,212,553,733,1208,1408,1569,-183
participant_4_LEVEL,1,1,1,2,2,4,4,5,5,5,6,6,8,8,8,9,10,10,10,11,11,11,11,11,12,12,13,13,13,13,13,13,13,13,14,14,15,15,15,16,16,16
participant_4_MINIONSKILLED,0,0,0,0,0,8,10,12,12,14,15,15,15,16,17,24,26,32,34,34,35,35,35,35,41,43,45,48,50,50,56,56,56,56,58,58,65,68,74,76,77,80
participant_4_KILLS,0,0,0,0,0,0,0,0,0,0,0,1,1,1,2,2,3,3,3,4,4,4,6,6,6,7,8,9,9,9,9,9,9,9,10,12,12,12,12,12,12,12
participant_4_BUY,[],"[1056, 2003, 2003, 3340]",[],[],"[1052, 2055]",[],[],[],"[3802, 2055]",[],[],[],[],"[1026, 3363, 2055, 2055]","[3285, 1001, 2055]",[],[],"[3020, 2055, 2055]",[],[],"[1058, 2055, 2055]",[],[],[],"[1058, 2055, 2055]",[],"[3089, 2055, 2055]",[],[],"[2420, 3108]",[],[],[],[3157],[2055],[1026],[1052],[3364],[],[],[3363],[3135]
participant_4_SOLD,[],[],[],[2010],[2003],"[2003, 2010]",[2055],[2010],"[1052, 2055]",[],[],[],[],"[3340, 2055]","[3802, 1026]",[],[2055],"[2055, 1001]",[2055],[],[2055],[],[],"[2055, 2055]",[],[2055],"[2055, 1058, 1058]",[2055],[],[1056],[],[2055],[],"[2420, 3108, 2421]",[],[],[2055],[3363],[],[],[3364],"[1026, 1052]"
participant_4_UNDO,[],[],[],[],[],[],[],[],[],[],[],[],[],[],[],[],[],[],[],[],[],[],[],[],[],[],[],[],[],[],[],[],[],[],[],[],[],[],[],[],[],[]
participant_5_GOLD,500,500,541,867,1109,1748,2080,2335,2617,3194,3616,3914,4715,4837,5348,5850,6080,6488,6716,6986,7130,8344,9200,9386,9550,9722,10926,11546,12268,12592,13194,14613,14814,15336,15458,15895,17016,17187,17460,17632,17979,18994
participant_5_CURRENTGOLD,500,0,41,367,609,1248,5,260,542,1119,441,739,1540,127,638,675,905,1313,541,811,105,134,990,326,490,663,1866,2486,644,967,1570,1189,1389,822,944,1381,2502,2673,2946,3118,616,1630
participant_5_LEVEL,1,1,1,3,4,5,6,6,7,8,8,9,10,10,11,11,11,12,12,12,12,13,14,14,14,14,14,15,15,15,16,16,16,17,17,17,18,18,18,18,18,18
participant_5_MINIONSKILLED,0,0,1,12,19,29,32,40,46,55,55,65,77,77,87,93,95,108,114,120,121,123,139,143,146,146,152,158,158,158,174,176,179,179,179,180,192,195,195,195,195,201
participant_5_KILLS,0,0,0,0,0,0,0,0,1,1,1,1,1,1,1,1,1,1,1,1,1,1,2,2,2,2,2,2,2,2,2,2,2,2,2,3,3,4,4,4,4,4
participant_5_BUY,[],"[3850, 2003, 2003, 3340]",[],[],[],"[1001, 1028, 2003]",[],[],[],[],"[1026, 1052]",[],[],[],[],[],"[3116, 2055]",[3364],[],[],[3020],[],[],"[3108, 1052]",[3113],[],[],[],[3905],[],[],[1026],[],[1028],[],[],[3165],[2055],[],[],[],[]
participant_5_SOLD,[],[],[2003],[],[2003],[],[2003],[],[],[],[],[],[],[],[],[],"[1026, 1052, 1028]","[3850, 3340]",[],[],[1001],[],[],[],[1052],[3851],[],[],"[3108, 3113]",[],[],[],[2055],[],[],[],"[1028, 1026]",[],[],[],[],[]
participant_5_UNDO,[],[],[],[],[],[],[],[],[],[],[],[],[],[],[],[],[],[],[],[],[],[],[],[],[],[],[],[],[],[],[],[],[],[],[],[],[],[],[],[],[],[]
participant_6_GOLD,500,500,620,943,1676,1952,2120,2282,2654,3045,3302,3425,3547,4040,4826,5048,5192,5504,5797,5970,6277,6795,7137,7259,7382,7554,8263,8780,9002,10204,10759,10910,11057,11693,12016,12758,13137,14032,14271,14913,15736,16795
participant_6_CURRENTGOLD,500,0,120,443,1176,1452,370,532,904,1295,1552,350,472,965,951,423,567,879,1172,245,552,1070,562,684,167,339,1048,132,354,1556,2112,262,409,146,468,211,590,1484,1724,866,1689,2748
participant_6_LEVEL,1,1,2,3,3,4,5,5,5,6,7,7,7,7,9,9,9,10,10,10,10,11,11,11,11,11,12,12,13,13,14,14,14,15,15,16,16,17,17,18,18,18
participant_6_MINIONSKILLED,0,0,0,0,0,0,0,0,0,0,1,1,1,3,4,4,5,5,7,7,7,7,7,7,7,7,12,13,13,18,22,24,24,27,28,28,34,37,39,39,48,53
participant_6_KILLS,0,0,0,0,0,1,1,1,1,2,3,3,4,4,4,5,5,5,5,5,5,7,7,7,7,7,9,10,12,12,12,15,15,16,16,16,17,17,17,17,17,18
participant_6_BUY,[],"[1056, 2003, 2003, 3340]",[],[],[],[],"[3136, 2055]",[],[],[],[3020],[],[],"[3101, 1052]",[],[3108],[],[],[3115],[],[1026],"[3151, 1052]",[],[1026],[],[],[],[],"[3165, 1026]",[],[],[3135],[],[1058],[],[],[],[],[],[],"[3089, 2139]",[]
participant_6_SOLD,[],[],[],[2003],[2003],[],[],[2055],[],[],[],[],[],[],[],[1052],[],[],"[3101, 3108]",[],[],"[3136, 1026]",[],[],[],[],[],[],"[1052, 1026]",[],[],[1026],[],[1056],[],[],[],[],[],[],"[1058, 2139]",[]
participant_6_UNDO,[],[],[],[],[],[],[],[],[],[],[],[],[],[],[],[],[],[],[],[],[],[],[],[],[],[],[],[],[],[],[],[],[],[],[],[],[],[],[],[],[],[]
participant_7_GOLD,500,500,611,955,1218,1424,1617,1900,2530,2899,3189,3492,3698,4058,4250,4540,4663,5134,5515,6350,6660,7629,7801,8321,8743,9495,10418,10804,11106,11451,11747,12182,12479,12911,13291,14084,14236,14875,15291,15463,16171,17390
participant_7_CURRENTGOLD,500,0,111,455,718,924,107,390,1020,1389,14,317,523,883,300,590,48,519,900,135,445,1414,236,756,1178,1930,828,1214,1517,946,392,828,1124,1557,1937,579,732,1371,537,709,1417,2636
participant_7_LEVEL,1,1,1,3,4,5,5,6,7,7,8,8,9,9,9,10,10,11,11,11,12,12,12,13,13,14,15,15,15,15,16,16,16,16,17,17,17,18,18,18,18,18
participant_7_MINIONSKILLED,0,0,5,16,23,28,32,42,47,58,68,76,81,86,90,101,101,118,129,132,139,147,147,162,176,189,189,196,203,204,210,220,226,232,243,247,248,261,267,267,273,276
participant_7_KILLS,0,0,0,0,1,1,1,1,1,1,1,1,1,1,1,1,1,1,1,1,1,1,1,1,1,1,1,1,1,1,1,1,1,2,2,2,2,2,2,2,2,2
participant_7_BUY,[],"[1055, 2003, 3340]",[],[],[],[],[],[1018],"[1042, 1001, 2055]",[],[],"[3006, 3086, 1042]",[],[],[],"[3085, 2055]",[],[],[],[],"[3006, 1052, 2055]",[],[],"[1043, 2055]",[],[],[],[],[],[3124],[],[3123],[],[],[],[],[1038],[],[],[1037],[3031],[]
participant_7_SOLD,[],[],[],[],[2003],[3599],[],[],[],[],[],"[1001, 1018]",[2055],[],[],"[1042, 3086]",[2055],[],[],[],[1001],[],[2055],[],[],[],[],[],[],"[1052, 1043]",[],[],[],[],"[1055, 2055]",[],[],[],[],[1055],"[1038, 1037]",[]
participant_7_UNDO,[],[],[],[],[],[],[],[],"[[0, 1042]]",[],[],"[[0, 3006]]",[],[],[],[],[],[],[],[],[],[],[],[],[],[],[],[],[],[],[],[],[],[],"[[1055, 0]]",[],[],[],[],[],[],[]
participant_8_GOLD,500,500,541,664,1122,1384,1542,1727,1960,2146,2457,2594,2878,3089,3391,3618,3846,4149,4466,4953,5075,5348,5938,6060,6364,6592,6819,7088,7385,7820,8074,8625,8789,9211,9334,10006,10218,10549,11195,11422,11769,12559
participant_8_CURRENTGOLD,500,0,41,164,622,884,1042,427,285,471,782,19,303,514,816,68,296,599,916,1403,215,488,1078,125,429,657,884,1153,1450,220,474,225,389,811,934,1606,519,849,1495,1028,149,940
participant_8_LEVEL,1,1,1,1,2,3,4,4,5,5,6,6,7,7,7,8,8,8,9,9,9,10,11,11,11,11,12,12,13,13,13,13,14,14,14,15,15,15,16,16,16,16
participant_8_MINIONSKILLED,0,0,1,1,3,8,10,14,18,21,31,32,38,43,50,56,62,68,75,86,86,86,103,103,110,113,115,119,119,121,124,131,133,133,133,133,134,138,144,144,150,166
participant_8_KILLS,0,0,0,0,0,0,0,0,1,1,1,1,1,1,1,1,1,1,1,2,2,2,2,2,2,2,3,3,3,3,3,3,3,3,3,4,4,4,4,4,5,7
participant_8_BUY,[],"[1056, 2003, 2003, 3340]",[],[],[],[],"[1052, 1027, 2031, 2055]",[],[],[],"[3802, 1026, 1001]",[],[],[],"[1052, 1028]",[],[3136],[],[],"[3151, 1026]",[],[],"[3285, 1029]",[],[],[],"[3047, 1026, 1052, 1028]",[],[],[3116],[1026],[],[],[],[],[3165],[],[],[1058],[],[],[]
participant_8_SOLD,[],[],[],[2010],[],"[2010, 2003, 2003]",[],[2055],[2010],[],"[1052, 1027]",[],[],[],[2031],[],"[1028, 1052]",[],[],"[3136, 1026]",[],[],"[3802, 1026]",[],[],[],"[1001, 1029, 1056]",[],[],"[1026, 1052, 1028]",[],[],[],[],[],[1026],[],[],[],[],[],[]
participant_8_UNDO,[],[],[],[],[],[],[],[],[],[],[],[],[],[],[],[],[],[],[],[],[],[],[],[],[],[],[],[],[],[],[],[],[],[],[],[],[],[],[],[],[],[]
participant_9_GOLD,500,515,537,728,1174,1308,1487,1651,2270,2484,2619,2876,3039,3174,3322,3520,3777,3917,4103,4508,4664,5180,5715,6001,6141,6391,6771,6911,7231,7465,7605,8046,8186,8582,8722,9752,9893,10333,10523,10846,11222,11579
participant_9_CURRENTGOLD,500,15,37,228,674,58,237,401,1020,1234,84,341,504,639,787,985,252,392,578,983,339,855,1390,341,66,316,696,836,506,740,880,471,611,607,747,1777,168,533,723,1046,1422,1779
participant_9_LEVEL,1,1,1,2,3,3,4,5,6,6,6,6,7,7,7,8,8,8,9,9,9,10,10,10,11,11,11,11,12,12,12,13,13,14,14,15,15,16,16,16,16,17
participant_9_MINIONSKILLED,0,0,0,3,8,8,9,10,10,12,12,16,17,17,18,22,26,26,26,26,26,30,30,34,34,34,35,35,35,38,38,38,38,44,44,45,45,45,45,49,51,51
participant_9_KILLS,0,0,0,0,1,1,1,1,1,1,1,1,1,1,2,2,2,2,2,2,2,3,3,3,3,3,4,4,4,5,6,6,6,7,7,8,8,10,10,11,12,13
participant_9_BUY,[],"[2031, 1041]",[],[],[],[],"[3706, 1001, 1042]",[],[],[],[],"[1043, 1416]",[],[],[3111],"[1028, 1036]",[],[],[],"[3044, 1042, 1042]",[],[],"[3101, 1027]",[],[3057],[],[],"[3078, 3105]",[],[],[],"[1053, 3133]",[],"[3812, 1028]",[],[3082],[],[],[],[3143],[],[]
participant_9_SOLD,[],[],[],[],[],[],[1041],[],[],[],[],"[1042, 1043, 3706]",[],"[3340, 3513]",[1001],[],[],[],[],"[1028, 1036]",[],[],"[1042, 1042]",[],"[1027, 2031]",[],[],"[3101, 3057, 3044]",[],[],[],[],[],"[3105, 1053, 3133]",[],[],[],[],[],"[3082, 1028]",[],[]
participant_9_UNDO,[],[],[],[],[],[],[],[],[],[],[],[],[],[],[],[],[],[],[],[],[],[],[],[],[],[],[],[],[],[],[],[],[],[],[],[],[],[],[],[],[],[]
team0_KILLS,0,0,0,0,0,0,1,1,1,2,2,5,6,6,8,9,13,13,14,16,16,16,19,22,22,25,26,28,28,31,31,31,32,34,35,37,37,38,39,39,39,40
team0_CURRENTGOLD,2500,0,386,1558,1141,1760,3493,4694,2692,3510,3215,4301,5137,4942,5569,2009,5067,5969,8070,3457,1162,1841,2869,4745,4815,7560,2329,2669,3215,4329,4931,2583,2961,2987,5149,2944,3262,3372,5019,3756,4568,2116
team0_TOTALGOLD,2500,2500,2886,4058,4976,6225,7958,9159,10072,11715,12720,14981,16567,18172,20224,21689,25397,27249,29350,30987,31917,33316,35444,38369,39840,42917,44532,46571,47517,50261,51762,52815,54843,57033,59321,61173,62327,63838,65484,66596,67406,68845
team0_LEVEL,5,5,6,13,15,19,23,26,28,31,34,37,39,42,43,47,49,51,52,54,56,56,57,60,63,64,66,67,67,70,71,72,73,74,77,78,80,80,81,83,83,85
team0_SBIRES,0,0,8,28,41,64,90,116,121,145,163,177,201,234,252,271,296,313,329,343,356,369,383,418,445,466,470,489,502,514,530,542,561,568,594,603,620,625,644,662,668,680
team1_KILLS,0,0,0,0,2,3,3,3,5,6,7,7,8,8,9,10,10,10,10,11,11,14,15,15,15,15,19,20,22,23,24,27,27,30,30,33,34,37,37,38,40,44
team1_CURRENTGOLD,2500,15,350,1657,3799,4566,1761,2010,3771,5508,2873,1766,3342,3128,3492,2741,2068,3702,4107,3577,1656,3961,4256,2232,2330,3905,5322,5821,4471,4429,5428,2975,3922,3943,5030,5554,4511,6910,7425,6767,5293,9733
team1_TOTALGOLD,2500,2515,2850,4157,6299,7816,8846,9895,12031,13768,15183,16301,17877,19198,21137,22576,23558,25192,26597,28767,29806,33296,35791,37027,38180,39754,43197,45129,46992,49532,51379,54376,55325,57733,58821,62495,64500,66976,68740,70276,72877,77317
team1_LEVEL,5,5,6,12,16,20,24,26,30,32,35,36,40,40,43,46,46,49,51,51,52,56,58,59,60,61,64,65,68,68,71,72,73,76,77,80,81,84,85,86,86,87
team1_SBIRES,0,0,7,32,53,73,83,106,121,146,167,190,214,226,249,276,289,325,351,371,379,393,426,449,473,489,503,521,528,539,568,589,600,615,627,633,653,676,690,694,717,747
delta_KILLS,0,0,0,0,-2,-3,-2,-2,-4,-4,-5,-2,-2,-2,-1,-1,3,3,4,5,5,2,4,7,7,10,7,8,6,8,7,4,5,4,5,4,3,1,2,1,-1,-4
delta_CURRENTGOLD,0,-15,36,-99,-2658,-2806,1732,2684,-1079,-1998,342,2535,1795,1814,2077,-732,2999,2267,3963,-120,-494,-2120,-1387,2513,2485,3655,-2993,-3152,-1256,-100,-497,-392,-961,-956,119,-2610,-1249,-3538,-2406,-3011,-725,-7617
delta_TOTALGOLD,0,-15,36,-99,-1323,-1591,-888,-736,-1959,-2053,-2463,-1320,-1310,-1026,-913,-887,1839,2057,2753,2220,2111,20,-347,1342,1660,3163,1335,1442,525,729,383,-1561,-482,-700,500,-1322,-2173,-3138,-3256,-3680,-5471,-8472
delta_LEVEL,0,0,0,1,-1,-1,-1,0,-2,-1,-1,1,-1,2,0,1,3,2,1,3,4,0,-1,1,3,3,2,2,-1,2,0,0,0,-2,0,-2,-1,-4,-4,-3,-3,-2
delta_SBIRES,0,0,1,-4,-12,-9,7,10,0,-1,-4,-13,-13,8,3,-5,7,-12,-22,-28,-23,-24,-43,-31,-28,-23,-33,-32,-26,-25,-38,-47,-39,-47,-33,-30,-33,-51,-46,-32,-49,-67
