name,team0,team1
win,Fail,Win
firstBlood,False,True
firstTower,False,True
firstInhibitor,False,False
firstBaron,False,False
firstDragon,False,True
firstRiftHerald,False,False
towerKills,2,7
inhibitorKills,0,0
baronKills,0,0
dragonKills,0,4
riftHeraldKills,0,0
