name,frame_0,frame_1,frame_2,frame_3,frame_4,frame_5,frame_6,frame_7,frame_8,frame_9,frame_10,frame_11,frame_12,frame_13,frame_14,frame_15,frame_16,frame_17,frame_18,frame_19,frame_20,frame_21,frame_22,frame_23,frame_24,frame_25,frame_26,frame_27,frame_28,frame_29,frame_30,frame_31,frame_32,frame_33,frame_34,frame_35,frame_36,frame_37,frame_38,frame_39,frame_40,frame_41,frame_42,frame_43
nameStamp,Tstart,Tearly,Tearly,Tearly,Tearly,Tearly,Tearly,Tearly,Tearly,Tearly,Tearly,Tearly,Tearly,Tearly,Tmid,Tmid,Tmid,Tmid,Tmid,Tmid,Tmid,Tmid,Tmid,Tmid,Tmid,Tmid,Tmid,Tmid,Tmid,Tmid,Tend,Tend,Tend,Tend,Tend,Tend,Tend,Tend,Tend,Tend,Tend,Tend,Tend,Tend
timestamp,0,60003,120015,180020,240049,300071,360076,420099,480100,540120,600129,660138,720141,780158,840177,900219,960245,1020257,1080258,1140269,1200294,1260301,1320305,1380321,1440351,1500369,1560392,1620406,1680432,1740450,1800482,1860512,1920527,1980540,2040571,2100586,2160611,2220618,2280630,2340632,2400650,2460653,2520677,2580688
participant_0_GOLD,500,500,541,726,1057,1633,1756,2046,2259,2487,3292,3492,3860,4179,4332,4629,5036,5242,6290,6462,6585,7091,7648,8007,8349,8521,8720,9008,9175,9297,9945,10271,10707,10830,11036,11286,11408,11530,11869,12179,12426,12743,12934,13576
participant_0_CURRENTGOLD,500,0,41,226,557,1133,206,496,409,637,142,342,710,1029,1182,1479,1886,342,1390,1562,185,691,748,1107,1449,721,920,308,75,198,845,772,1207,131,337,586,709,31,370,680,927,1244,715,1357
participant_0_LEVEL,1,1,1,2,4,5,5,6,7,7,8,8,8,9,9,10,10,10,11,11,11,12,12,13,13,13,13,14,14,14,14,15,15,15,15,15,15,15,16,16,16,17,17,18
participant_0_MINIONSKILLED,0,0,1,5,15,24,24,34,40,46,50,55,66,74,75,85,94,99,107,107,107,125,127,137,144,144,149,152,152,152,153,159,169,169,174,176,176,176,184,184,187,194,194,202
participant_0_KILLS,0,0,0,0,0,0,0,0,0,0,1,1,1,1,1,1,2,2,4,4,4,4,4,4,5,5,5,5,6,6,7,7,7,7,7,7,7,7,7,7,7,7,7,8
participant_0_BUY,[],"[2003, 3340, 3850, 2003]",[],[],[],"[1001, 1052]",[],[],[],"[3802, 3364, 2055]",[],[],[],[],"[3108, 6653, 2055]",[],[],"[3020, 1052]",[],"[3916, 1026, 2055]",[],[],"[3165, 1052]",[2055],[],[],[1026],[],[],[],[],[],"[4637, 1058]",[],[1052],[],[4630],[],[],[],[3135],[],[2139],[]
participant_0_SOLD,[],[],[],[2003],[],[],[2003],[],[3850],"[1052, 3340]",[2055],[],[],[],"[3851, 3802, 3108]",[],[],[1001],[2055],[1052],[2055],[],"[1026, 3916]",[],[],[2055],[],[],[],[],[],[],"[1026, 1052]",[],[1058],[],[1052],[],[],[],[4630],[],[2139],[]
participant_0_UNDO,[],[],[],[],[],[],[],[],[],[],[],[],[],[],[],[],[],[],[],[],[],[],[],[],[],[],[],[],[],[],[],[],[],[],[],[],[],[],[],[],[],[],[],[]
participant_1_GOLD,500,500,620,1257,1590,2176,2599,3056,3578,3801,4301,4734,4956,6176,6848,7245,8025,8289,9336,9808,10153,10563,11096,11218,11491,12063,12643,13272,13746,13868,14183,14518,15056,15179,15312,15566,15688,16272,16633,18040,20092,20357,21370,22259
participant_1_CURRENTGOLD,500,0,120,757,1090,1676,674,1131,1653,326,826,1259,1481,2701,3373,485,1265,214,1261,1733,379,788,1321,194,466,1039,1619,2248,171,294,609,1004,1542,415,548,802,925,258,119,1526,3578,3344,4357,5245
participant_1_LEVEL,1,1,2,3,4,5,5,5,6,6,7,8,8,9,9,10,10,10,11,11,12,12,13,13,13,13,14,15,15,15,16,16,17,17,17,17,17,17,17,18,18,18,18,18
participant_1_MINIONSKILLED,0,0,0,1,1,2,2,2,2,2,6,8,8,11,12,12,14,16,16,16,16,16,16,16,16,16,20,21,30,30,31,31,31,31,32,36,36,50,54,65,73,76,93,96
participant_1_KILLS,0,0,0,0,0,1,1,1,1,1,2,2,2,2,2,2,2,2,3,3,3,3,4,4,4,4,4,4,4,4,5,5,5,5,5,5,5,5,5,5,5,5,5,5
participant_1_BUY,[],"[1054, 2003, 3340]",[],[],[],[],"[6660, 2003]",[],[1029],[],"[1031, 1033, 1001, 2003]",[],[],[],[],[],[],"[6662, 3111]",[],[],"[3066, 1028, 1029]",[],[1031],[],[],[3742],[],[1057],[1028],[],[],[3066],[],[4401],[],[],[],[3076],[],[],[],[],[1011],[]
participant_1_SOLD,[],[],[],[2003],[],[],[],[],[],[2003],[1029],[],[2003],[],[],[],[],"[6660, 1033, 1031, 1001]",[],[],[],[],[1029],[],[],"[3066, 1028, 1031]",[],[],[],[],[],[1028],[],"[1057, 3066]",[],[],[],[],[],[],[],[],[1054],[]
participant_1_UNDO,[],[],[],[],[],[],[],[],[],[],[],[],[],[],[],[],[],[],[],[],[],[],[],[],[],[],[],[],[],[],[],[],[],[],[],[],[],[],[],[],[],[],[],[]
participant_2_GOLD,500,500,569,912,1141,1480,1844,2078,2270,2498,2620,3294,3591,4559,4832,5143,5454,5893,6514,6762,7944,8338,8909,9031,10074,10566,11149,11508,11764,11887,12164,12763,12927,13051,13187,13462,13717,13965,14429,14589,14871,14993,15672,16227
participant_2_CURRENTGOLD,500,0,69,402,631,960,1314,1548,65,293,415,1089,311,1279,302,613,924,563,1184,231,1414,1808,1079,301,1344,236,819,1179,245,367,644,1244,318,441,578,853,1108,56,520,245,527,649,1328,1884
participant_2_LEVEL,1,1,1,3,4,5,6,6,7,8,8,9,9,10,10,11,11,12,12,12,13,13,14,14,15,15,15,16,16,16,16,17,17,17,17,17,17,17,18,18,18,18,18,18
participant_2_MINIONSKILLED,0,0,3,13,19,29,40,47,51,58,58,64,75,82,82,90,94,105,116,116,121,126,131,131,143,143,145,155,156,156,159,162,165,165,166,171,175,183,186,186,192,192,196,199
participant_2_KILLS,0,0,0,0,0,0,0,0,0,0,0,1,1,1,1,1,1,1,1,1,4,4,4,4,6,7,8,8,8,8,8,9,9,9,9,9,9,9,10,10,10,10,11,11
participant_2_BUY,[],"[1056, 3340, 2003, 2003]",[],[],[],[],[],[],"[3802, 1001, 2055]",[],[],[],"[1026, 2055, 2031]",[],[6655],[],[],[3020],[],"[3916, 1028]",[],[],[3165],[3191],[],[3157],[],[],[1058],[],[],[],[1058],[],[],[],[],[3089],[],[1052],[],[],[],[]
participant_2_SOLD,[],[],[],[],"[2003, 2003]",[],[],[],[],[2055],[],[],[],[],"[3802, 1026]",[2055],[],[1001],[],[],[],[],"[3916, 1028]",[],[],[3191],[],[],[2031],[],[],[],[1056],[],[],[],[],"[1058, 1058]",[],[],[],[],[],[]
participant_2_UNDO,[],[],[],[],[],[],[],[],[],[],[],[],[],[],[],[],[],[],[],[],[],[],[],[],[],[],[],[],[],[],[],[],[],[],[],[],[],[],[],[],[],[],[],[]
participant_3_GOLD,500,500,562,912,1113,1510,1784,2107,2251,2879,3421,3599,4079,4359,4552,4855,5369,5596,6104,6722,6969,7170,7570,7888,8040,8526,8948,9070,9236,9470,10125,10779,11097,11220,12011,12133,12304,12552,12851,13572,14025,14444,14755,15457
participant_3_CURRENTGOLD,500,0,62,412,613,410,684,1007,451,229,771,514,994,559,751,1054,269,496,1004,1622,1019,1220,1620,888,240,726,1148,135,302,535,1190,1845,297,421,1211,228,35,282,582,453,906,1325,736,1438
participant_3_LEVEL,1,1,1,2,3,3,4,4,5,6,6,7,7,7,8,9,9,9,10,10,11,11,11,12,12,12,12,12,12,13,13,14,14,14,15,15,15,15,16,16,17,17,17,18
participant_3_MINIONSKILLED,0,0,2,12,17,17,22,29,30,33,40,43,49,51,55,62,64,70,85,89,92,96,100,107,108,112,112,112,112,114,121,128,135,135,158,158,161,164,167,169,176,180,187,193
participant_3_KILLS,0,0,0,0,0,1,1,1,1,2,3,3,4,4,4,4,5,5,5,5,5,5,5,5,5,6,7,7,7,7,8,9,9,9,9,9,9,9,9,10,10,10,10,11
participant_3_BUY,[],"[1055, 3340, 2003]",[],[],[],"[1042, 1042]",[],[],"[1043, 1001]",[1026],[],[1052],[],[3115],[],[],[4635],[],[],[],[1026],[],[],[4633],[3006],[],[],"[3057, 1052]",[],[],[],[],[3100],[],[],"[1026, 1052]",[3916],[],[],[3165],[],[],[1011],[]
participant_3_SOLD,[],[],[],[],[2003],[],[],[],"[1042, 1042]",[],[],[],[],"[1043, 1026, 1052]",[],[],[],[],[],[],[],[],[],"[4635, 1026]",[1001],[],[],[],[],[],[],[],"[3057, 1052]",[],[],[1055],[1052],[],[],"[1026, 3916]",[],[],[],[]
participant_3_UNDO,[],[],[],[],[],[],[],[],[],[],[],[],[],[],[],[],[],[],[],[],[],[],[],[],[],[],[],[],[],[],[],[],[],[],[],[],[],[],[],[],[],[],[],[]
participant_4_GOLD,500,500,562,796,1052,1323,1709,1928,2426,2628,3360,3701,4108,4359,4579,4788,5781,5963,6882,7147,7705,7908,8330,8500,9332,9552,9842,10013,10406,10546,11424,11903,12196,12348,12551,12797,12937,13179,13472,13713,14078,14240,14444,15083
participant_4_CURRENTGOLD,500,0,62,296,552,88,474,693,1191,453,1185,1526,1933,2184,229,438,1431,378,1297,272,830,1033,170,265,1097,1317,758,928,1321,1461,2339,2818,146,298,942,1187,513,754,1047,1288,404,565,269,908
participant_4_LEVEL,1,1,1,2,3,3,4,4,5,5,7,7,7,8,8,8,9,9,10,11,12,12,12,12,13,13,14,14,14,14,14,15,15,15,15,15,15,16,16,17,17,17,17,17
participant_4_MINIONSKILLED,0,0,0,0,0,0,3,4,8,10,12,12,13,13,13,13,18,21,23,23,26,30,30,31,39,40,40,41,45,45,45,56,61,62,66,66,66,72,77,81,81,82,85,86
participant_4_KILLS,0,0,0,1,1,2,3,4,5,5,5,5,5,6,7,8,9,9,11,12,12,12,13,13,13,14,15,15,15,15,15,15,15,15,15,15,15,15,15,16,19,19,20,21
participant_4_BUY,[],"[1035, 2031, 3340, 3364]",[],[],[],[],"[3145, 1001, 2055]",[],[],"[1026, 3117]",[],[],[],[],[],"[4636, 3191, 2420, 1052]",[],"[3157, 3916]",[],[],[3165],[],[],[1058],[],[],[],[],[3089],[],[],[],[],"[3057, 4630]",[],[],[],[3135],[2139],[],[],[2139],[],[]
participant_4_SOLD,[],[3340],[],[],[],[],[],[2055],[],"[1001, 1035]",[],[],[3364],[3513],[],"[3145, 1026, 2420]",[],"[3191, 1052, 2421]",[],[],[3916],[],[],[],[],[],[],[],[1058],[],[],[2031],[],[],[],[],[],[4630],[2139],[],[],[2139],[],[]
participant_4_UNDO,[],[],[],[],[],[],[],[],[],[],[],[],[],[],[],[],[],[],[],[],[],[],[],[],[],[],[],[],[],[],[],[],[],"[[0, 3057]]",[],[],[],[],[],[],[],[],[],[]
participant_5_GOLD,500,920,1031,1346,1645,1830,2208,2421,3135,3373,3500,3834,4075,4471,4636,5031,5444,5850,5972,6749,7055,7283,8679,9081,9617,9877,10117,10668,11989,13187,13430,13805,14615,15807,16144,17192,18138,18546,19330,19452,19718,19865,20464,20747
participant_5_CURRENTGOLD,500,420,181,496,795,155,233,446,1160,1398,600,934,1175,1571,36,431,844,1250,272,1049,1355,183,1579,581,317,577,418,968,2289,688,930,416,1226,2418,954,2002,2949,3357,1640,1263,1399,1546,2145,428
participant_5_LEVEL,1,1,1,3,4,4,5,6,7,7,7,8,8,9,9,10,11,11,11,12,12,12,13,13,13,14,14,14,15,16,16,16,17,17,17,18,18,18,18,18,18,18,18,18
participant_5_MINIONSKILLED,0,0,5,14,24,27,33,38,45,52,52,62,68,81,84,96,109,121,121,131,136,142,145,151,154,158,161,172,181,188,192,202,207,218,223,230,242,247,254,254,257,257,264,267
participant_5_KILLS,0,0,0,0,0,0,0,0,2,3,3,3,3,3,4,4,4,4,4,4,4,4,4,4,4,4,4,4,4,4,4,4,4,4,4,4,4,4,4,4,4,4,4,4
participant_5_BUY,[],"[3850, 2003, 2003, 3340]",[],[],[],[],[],"[3114, 2055]",[],"[3222, 3364]","[1004, 2055]",[],[],[],[],[],"[3114, 3067]",[1004],"[2055, 2055]",[],"[3107, 1052]",[],[],"[4642, 1028, 2055]",[],[],[],[],[6617],"[1004, 2055, 2055]",[],[2055],[],[],"[4641, 2055, 2055]",[],[],[],"[4643, 2055, 3114]",[2055],[],[],[],"[2055, 2055]"
participant_5_SOLD,[],[],[],[],[],[],[],[],[],"[3850, 3114, 3340]",[2003],[],[2055],[2055],[],[],"[3851, 1004]",[],[2003],[],"[3067, 3114]",[2055],[],"[1004, 1052, 2055]",[2055],[],[],[],"[1028, 4642]",[],[2055],[],[2055],[],"[2055, 4641, 2055, 2055]",[],[],[],"[4638, 2055]",[2055],[],[],[],"[2055, 2055]"
participant_5_UNDO,[],[],[],[],[],[],[],[],[],[],[],[],[],[],[],[],[],[],[],[],[],[],[],[],[],[],[],[],[],"[[0, 1004]]",[],[],[],[],[],[],[],[],[],[],[],[],[],[]
participant_6_GOLD,500,570,763,1062,1196,1478,2297,2609,2926,3379,3586,3847,3969,4211,4494,4821,4969,5326,5458,6636,6783,6906,7092,7584,8137,8259,8486,8805,9432,10175,10492,10614,10957,11920,12042,12335,12590,13083,13820,14531,14768,14890,15257,15400
participant_6_CURRENTGOLD,500,70,263,562,271,178,997,559,876,1329,661,922,94,336,154,31,179,536,318,121,268,41,227,719,522,644,172,490,1117,85,402,185,527,690,793,235,491,983,571,1281,769,891,1258,1401
participant_6_LEVEL,1,1,2,3,3,3,5,5,6,6,6,7,7,7,8,8,8,9,9,10,10,10,10,11,11,11,11,12,13,13,14,14,14,15,15,15,15,16,17,17,18,18,18,18
participant_6_MINIONSKILLED,0,0,0,0,1,1,7,7,7,7,7,7,7,7,7,7,7,7,7,7,7,7,8,9,11,11,12,18,19,19,20,20,20,20,20,20,20,21,21,26,26,26,28,29
participant_6_KILLS,0,0,0,0,0,0,1,1,1,2,2,2,2,2,2,2,2,2,2,4,4,4,4,4,5,5,5,5,5,6,6,6,6,8,8,8,8,9,9,9,9,9,9,9
participant_6_BUY,[],"[1035, 2031, 3364]",[],[],"[1036, 2055]","[1001, 2055]",[],[3044],[],[],"[3067, 2055]",[],"[1037, 2055]",[],"[6029, 6630]",[1033],[],[],[3111],"[3155, 2055]",[],[1036],[],[],[3133],[],[3156],[],[],"[1057, 3066, 2055]",[],[1028],[],[4401],"[3211, 3067]",[3065],[],[],"[3067, 1036]",[],[3133],[],[],[]
participant_6_SOLD,[],[3340],[],[],[],[2055],[],[1036],[],[],"[1035, 2055]",[],[2055],[],"[1037, 2031, 6029, 3044, 3067]",[],[],[],"[1001, 1033]",[],[],[],[],[],[1036],[],"[3155, 3133]",[],[2055],[],[],"[2055, 2055]",[],"[1057, 1028, 3066]",[4401],"[3211, 3067]",[],[],[],[],[1036],[],[],[]
participant_6_UNDO,[],[],[],[],[],[],[],[],[],[],[],[],[],[],[],[],[],[],[],[],[],[],[],[],[],[],[],[],[],[],[],[],[],[],[],[],[],[],[],[],[],[],[],[]
participant_7_GOLD,500,550,626,927,1142,1453,1730,2072,2340,2624,3237,3390,3640,3853,4197,4362,4600,4959,5130,6363,6527,6852,7623,7879,8157,8879,9616,9739,10136,10644,11157,11279,11757,12494,12786,13299,14497,14749,15340,16057,16480,16679,17017,17140
participant_7_CURRENTGOLD,500,50,126,417,632,933,1210,1542,175,459,1062,265,515,728,1062,327,265,624,795,1228,57,382,1153,244,522,344,1082,24,421,94,607,730,1207,1945,2236,685,1883,1045,1635,2353,226,425,763,886
participant_7_LEVEL,1,1,1,3,4,5,6,7,7,8,9,9,9,9,10,10,10,11,11,11,12,12,13,13,13,13,14,14,14,15,16,16,16,17,17,17,18,18,18,18,18,18,18,18
participant_7_MINIONSKILLED,0,0,3,11,16,24,32,42,48,57,65,66,73,79,87,89,92,102,105,107,110,118,121,126,132,132,132,132,135,135,143,143,156,161,162,168,182,184,187,188,188,193,202,202
participant_7_KILLS,0,1,1,1,1,1,1,1,2,2,2,2,2,2,2,2,2,2,2,3,3,3,6,6,6,6,6,6,9,10,10,10,11,12,12,14,15,15,15,15,15,15,15,15
participant_7_BUY,[],"[1055, 2003, 3340]",[1036],[],[],"[3044, 2055]",[1001],[],[],[],"[3067, 2003, 2055]",[],[],[],"[6632, 1029]",[],[],[],[3133],[],[],"[3111, 1028, 3067]",[],[3071],[3123],[],[1028],[],[],"[6609, 3155]",[],[3133],[],[],"[3156, 3133]",[],[],[],"[6333, 2138]",[2138],[1057],[],[],[4401]
participant_7_SOLD,[],[],[],[],[],"[2003, 1036]",[],[],[],[],[],[2055],[],[],"[2055, 3044, 3067]",[],[],[],[],[],[3340],"[1001, 2003, 1055, 1028]",[],"[3133, 3067, 3513]",[],[],[],[],[],"[3123, 1028]",[],[1029],[],[],"[3155, 3133]",[],[],[],"[3133, 2138]",[2138],[3111],[],[],[1057]
participant_7_UNDO,[],[],[],[],[],[],[],[],[],[],[],[],[],[],[],[],[],[],[],[],[],[],[],[],[],[],[],[],[],[],[],[],[],[],[],[],[],[],[],[],[],[],[],[]
participant_8_GOLD,500,500,597,803,1127,1759,2022,2214,2680,2915,3037,3335,3457,4235,4626,4832,5381,5734,5946,6257,6463,6740,7058,7551,7766,7980,8103,8532,8668,9494,10054,10176,10515,11065,11550,12031,12463,12672,13434,13556,13678,14215,14612,14824
participant_8_CURRENTGOLD,500,0,97,303,627,1259,1522,264,180,415,237,535,307,1085,1476,1682,81,434,246,557,763,1040,483,976,166,380,503,482,618,844,1404,677,1015,1565,2050,232,663,873,939,1062,1184,1721,2118,405
participant_8_LEVEL,1,1,1,2,3,4,4,5,5,6,6,7,7,8,8,8,9,9,9,10,10,11,11,12,12,12,12,13,13,14,14,14,14,15,16,16,16,16,17,17,17,17,18,18
participant_8_MINIONSKILLED,0,0,4,9,18,27,35,39,46,53,53,64,64,68,83,88,91,105,106,114,119,128,133,145,148,151,151,165,166,178,182,182,190,191,199,207,211,211,212,212,212,221,236,237
participant_8_KILLS,0,0,0,0,0,0,0,0,0,0,1,1,1,1,1,1,1,1,1,2,2,2,3,3,3,4,6,6,6,6,6,6,6,7,7,8,9,9,9,11,12,12,12,12
participant_8_BUY,[],"[1056, 2003, 2003, 3340]",[],[],[],[],[],[],"[3145, 1028, 2003, 2003, 2055]",[],[],"[1026, 2003, 2003]",[],[],[],[4636],[1001],[],[],[3020],"[3108, 1052]",[],[],[3157],[],[3108],[],[4632],[],"[3102, 1052]",[],[],[],[],[],[3135],[],[1058],[],[],[3089],[],[],[]
participant_8_SOLD,[],[],[],[],"[2003, 2003]",[],[],[],[],"[2003, 2003]",[2055],[],[],[2003],[],"[3145, 1028, 1026]",[],[],[],[1001],[],[],[],"[1052, 3108]",[],[],[],[2003],[],"[3108, 4632]",[],[],[],[],[],[1052],[],[1056],[],[],[1058],[],[],[]
participant_8_UNDO,[],[],[],[],[],[],[],[],[],[],[],[],[],[],[],[],[],[],[],[],[],[],[],[],[],[],[],[],[],[],[],[],[],[],[],[],[],[],[],[],[],[],[],[]
participant_9_GOLD,500,500,542,776,992,1221,1416,1570,2524,3203,3343,3504,3754,4019,4540,4720,5070,5241,5381,6047,6187,6327,6914,7104,7454,7645,8040,8190,8406,8921,9162,9332,9652,10221,10372,10787,11339,11597,12047,12188,12328,12469,12639,12779
participant_9_CURRENTGOLD,500,0,42,276,492,721,916,195,1149,78,143,304,554,819,1340,1520,521,441,451,1117,122,262,849,199,549,740,1135,1286,251,616,857,952,1273,1842,742,1157,1710,1967,343,408,549,689,859,850
participant_9_LEVEL,1,1,1,2,3,4,4,5,5,6,6,7,7,7,8,8,9,9,9,10,10,10,11,12,12,12,13,13,13,14,14,14,14,15,15,16,17,17,17,17,17,18,18,18
participant_9_MINIONSKILLED,0,0,0,0,0,0,0,0,0,2,2,2,3,4,4,4,4,5,5,5,5,5,6,6,6,6,6,6,6,6,6,6,7,7,7,7,7,8,8,8,8,8,8,8
participant_9_KILLS,0,0,0,0,0,1,1,1,1,1,1,1,1,2,2,2,3,3,3,3,3,3,3,3,3,3,3,3,3,3,4,4,4,4,4,4,4,4,5,5,5,5,5,5
participant_9_BUY,[],"[1055, 2003, 3340]",[],[],[],[],[],"[3134, 1036]",[1053],[],[1001],[],[1036],[],[],[],"[6692, 3009, 1036, 1036]",[],[3134],[],[],[],[1037],[],[6676],[],[],[1033],[],[1018],[],[3140],[],[],[],"[3139, 1038]",[],[],[1037],[],[],[],[],"[3031, 2015]"
participant_9_SOLD,[],[],[],[],[2003],[],[],[],[1036],[],[],[],[],[],[],[],"[3134, 1036, 1053, 1001]",[],"[1036, 1036]",[],[],[],[],[],"[3134, 1037]",[],[],[],[],[],[],[1033],[],[],[],"[3140, 1018]",[],[],[1055],[],[],[],[],"[1038, 1037]"
participant_9_UNDO,[],[],[],[],[],[],[],[],[],[],[],[],[],[],[],[],[],[],[],[],[],[],[],[],[],[],[],[],[],[],[],[],[],[],[],[],[],[],[],[],[],[],[],[]
team0_KILLS,0,0,0,1,1,4,5,6,7,8,11,12,13,14,15,16,19,19,24,25,28,28,30,30,33,36,39,39,40,40,43,45,45,45,45,45,45,45,46,48,51,51,53,56
team0_CURRENTGOLD,2500,0,354,2093,3443,4267,3352,4875,3769,1938,3339,4730,5429,7752,5837,4069,5775,1993,6136,5420,3827,5540,4938,2755,4596,4039,5264,4798,2114,2855,5627,7683,3510,1706,3616,3656,3290,1381,2638,4192,6342,7127,7405,10832
team0_TOTALGOLD,2500,2500,2854,4603,5953,8122,9692,11215,12784,14293,16994,18820,20594,23632,25143,26660,29665,30983,35126,36901,39356,41070,43553,44644,47286,49228,51302,52871,54327,55068,57841,60234,61983,62628,64097,65244,66054,67498,69254,72093,75492,76777,79175,82602
team0_LEVEL,5,5,6,12,18,21,24,25,30,32,36,39,39,43,44,48,49,50,54,55,59,60,62,64,66,66,68,71,71,72,73,77,78,78,79,79,79,80,83,85,86,87,87,89
team0_SBIRES,0,0,6,31,52,72,91,116,131,149,166,182,211,231,237,262,284,311,347,351,362,393,404,422,450,455,466,481,495,497,509,536,561,562,596,607,614,645,668,685,709,724,755,776
team1_KILLS,0,1,1,1,1,2,3,3,6,8,9,9,9,10,11,11,12,12,12,16,16,16,20,20,21,22,24,24,27,29,30,30,31,35,35,38,40,41,42,44,45,45,45,45
team1_CURRENTGOLD,2500,540,709,2054,2817,3246,4878,3006,3540,3679,2703,2960,2645,4539,4068,3991,1890,3285,2082,4072,2565,1908,4291,2719,2076,2685,3310,3250,4696,2327,4200,2960,5248,8460,6775,4311,7696,8225,5128,6367,4127,5272,7143,3970
team1_TOTALGOLD,2500,3040,3559,4914,6102,7741,9673,10886,13605,15494,16703,17910,18895,20789,22493,23766,25464,27110,27887,32052,33015,34108,37366,39199,41131,42640,44362,45934,48631,52421,54295,55206,57496,61507,62894,65644,69027,70647,73971,75784,76972,78118,79989,80890
team1_LEVEL,5,5,6,13,17,20,24,28,30,33,34,38,38,40,43,44,47,49,49,53,54,55,58,61,61,62,64,66,68,72,74,74,75,79,80,82,84,85,87,87,88,89,90,90
team1_SBIRES,0,0,12,34,59,79,107,126,146,171,179,201,215,239,265,284,303,340,344,364,377,400,413,437,451,458,462,493,507,526,543,553,580,597,611,632,662,671,682,688,691,705,738,743
delta_KILLS,0,-1,-1,0,0,2,2,3,1,0,2,3,4,4,4,5,7,7,12,9,12,12,10,10,12,14,15,15,13,11,13,15,14,10,10,7,5,4,4,4,6,6,8,11
delta_CURRENTGOLD,0,-540,-355,39,626,1021,-1526,1869,229,-1741,636,1770,2784,3213,1769,78,3885,-1292,4054,1348,1262,3632,647,36,2520,1354,1954,1548,-2582,528,1427,4723,-1738,-6754,-3159,-655,-4406,-6844,-2490,-2175,2215,1855,262,6862
delta_TOTALGOLD,0,-540,-705,-311,-149,381,19,329,-821,-1201,291,910,1699,2843,2650,2894,4201,3873,7239,4849,6341,6962,6187,5445,6155,6588,6940,6937,5696,2647,3546,5028,4487,1121,1203,-400,-2973,-3149,-4717,-3691,-1480,-1341,-814,1712
delta_LEVEL,0,0,0,-1,1,1,0,-3,0,-1,2,1,1,3,1,4,2,1,5,2,5,5,4,3,5,4,4,5,3,0,-1,3,3,-1,-1,-3,-5,-5,-4,-2,-2,-2,-3,-1
delta_SBIRES,0,0,-6,-3,-7,-7,-16,-10,-15,-22,-13,-19,-4,-8,-28,-22,-19,-29,3,-13,-15,-7,-9,-15,-1,-3,4,-12,-12,-29,-34,-17,-19,-35,-15,-25,-48,-26,-14,-3,18,19,17,33
