name,team0,team1
win,Fail,Win
firstBlood,True,False
firstTower,False,True
firstInhibitor,False,True
firstBaron,False,True
firstDragon,True,False
firstRiftHerald,False,False
towerKills,0,10
inhibitorKills,0,3
baronKills,0,1
dragonKills,1,3
riftHeraldKills,0,0
