name,team0,team1
win,Win,Fail
firstBlood,False,True
firstTower,True,False
firstInhibitor,True,False
firstBaron,False,False
firstDragon,True,False
firstRiftHerald,False,False
towerKills,9,0
inhibitorKills,1,0
baronKills,0,0
dragonKills,1,0
riftHeraldKills,0,0
