name,frame_0,frame_1,frame_2,frame_3,frame_4,frame_5,frame_6,frame_7,frame_8,frame_9,frame_10,frame_11,frame_12,frame_13,frame_14,frame_15,frame_16,frame_17,frame_18,frame_19,frame_20,frame_21,frame_22,frame_23,frame_24,frame_25,frame_26
nameStamp,Tstart,Tearly,Tearly,Tearly,Tearly,Tearly,Tearly,Tearly,Tearly,Tearly,Tearly,Tearly,Tearly,Tearly,Tmid,Tmid,Tmid,Tmid,Tmid,Tmid,Tmid,Tmid,Tmid,Tmid,Tmid,Tmid,Tmid
timestamp,0,60022,120046,180073,240089,300119,360134,420156,480173,540194,600224,660242,720252,780276,840292,900317,960332,1020356,1080377,1140381,1200394,1260423,1320437,1380466,1440479,1500502,1560502
participant_0_GOLD,500,500,584,839,1518,1675,1980,2527,2739,3009,3428,3815,4188,4415,4808,5049,5410,5694,5837,6162,6793,7489,7686,8613,8892,9306,9367
participant_0_CURRENTGOLD,500,0,84,214,893,50,355,902,489,759,678,665,1038,65,458,699,360,644,487,812,643,931,1128,2055,259,673,-66
participant_0_LEVEL,1,1,1,2,4,4,5,6,6,7,8,8,9,9,10,11,11,12,12,12,13,13,14,14,15,15,15
participant_0_MINIONSKILLED,0,0,3,11,23,25,35,37,39,48,57,70,77,83,95,102,112,119,120,127,135,142,142,156,163,171,171
participant_0_KILLS,0,0,0,0,1,1,1,1,1,1,1,1,1,1,1,1,1,1,1,1,2,3,3,4,4,4,4
participant_0_BUY,[],"[1055, 2003, 3340]",[],"[2055, 2003]",[],"[1029, 1036, 1036]",[],[],[3077],[],[3047],[1028],[],"[3044, 1027]",[],[],[3057],[],[1042],[],[3101],"[3078, 2055]",[],[],"[3052, 1037]",[],[3123]
participant_0_SOLD,[],[],[],"[2003, 2010]",[],[2010],[],"[2003, 2010]","[1036, 1036]",[],"[1029, 2422]",[2055],[],[1028],[],[],[1027],[],[],[],[1042],"[3101, 3057, 3044]",[],[2055],[],[],[1055]
participant_0_UNDO,[],[],[],[],[],[],[],[],[],[],[],[],[],[],[],[],[],[],[],[],[],[],[],[],[],[],[]
participant_1_GOLD,500,500,653,1013,1367,1807,2137,2743,3049,3271,3479,3972,4770,5143,5526,5734,6056,6208,6479,7099,7645,7902,8198,8489,9091,9571,9633
participant_1_CURRENTGOLD,500,0,153,513,867,1307,287,893,1199,121,29,522,70,443,826,459,781,133,329,949,545,102,398,289,891,157,158
participant_1_LEVEL,1,1,2,3,4,5,5,6,6,7,7,8,8,9,9,9,10,10,10,10,11,11,12,12,12,13,13
participant_1_MINIONSKILLED,0,0,0,0,0,2,2,7,7,7,7,14,17,17,19,19,19,19,23,25,40,40,46,56,61,71,71
participant_1_KILLS,0,0,0,0,0,0,0,0,0,0,1,1,1,1,1,1,1,2,2,3,3,3,3,3,4,4,4
participant_1_BUY,[],"[1036, 2003, 2003, 2003]",[],[],[],[],[],[],[],"[3134, 1001, 1036, 1036, 2055, 2031]","[3133, 1029]",[2055],[3047],[],[3142],[],"[1036, 1028]",[],"[3044, 1028]",[],[3067],[3071],[],"[1036, 1036, 2055]",[3133],[],[1036]
participant_1_SOLD,[],[],[],[],[],[2003],"[2003, 2003]",[],[],[1036],"[2055, 1036, 1036]",[],"[1001, 1029]",[],"[3133, 3134]",[],[],[],"[1028, 1036]",[],"[2055, 1028, 2031]","[3044, 3067]",[],[],"[1036, 1036]",[],[]
participant_1_UNDO,[],[],[],[],[],[],[],[],[],[],[],[],[],[],[],[],[],[],[],[],[],[],[],[],[],[],[]
participant_2_GOLD,500,500,598,990,1288,1571,1921,2218,2535,2849,3426,3654,3881,4211,4534,4852,5216,6268,6425,7003,7365,7488,7783,8236,8745,8958,9019
participant_2_CURRENTGOLD,500,0,98,490,788,1071,1421,1718,2035,374,251,404,131,461,84,402,16,1068,325,903,925,98,393,71,180,393,44
participant_2_LEVEL,1,1,1,3,4,5,6,7,7,8,8,8,9,9,10,10,11,11,11,12,12,12,13,13,14,14,14
participant_2_MINIONSKILLED,0,0,4,17,27,37,47,57,65,73,79,85,86,91,99,107,117,126,128,135,136,136,142,149,152,153,153
participant_2_KILLS,0,0,0,0,0,1,1,1,1,1,1,1,1,2,2,2,2,2,2,2,3,3,3,4,4,5,5
participant_2_BUY,[],"[1056, 2003, 2003, 3340, 1056, 2003, 2003, 3340]",[],[],[],[],"[1027, 1052, 1001, 2055]",[],[],[],"[3802, 1052, 2055]",[],[3145],[],[],"[3030, 3020, 2055]",[],"[1052, 3363]",[],[3108],"[3113, 2055]",[],[3905],[],[],[1058],[1058]
participant_2_SOLD,[],[],[],[2003],"[2010, 2003]",[2010],[],[],[2010],[],"[1052, 1027]",[],"[2055, 1052]",[2055],[],"[3802, 3145, 1001, 2055]",[],[3340],[],[1052],[],[],"[1056, 3108, 3113, 2055]",[],[],[],[]
participant_2_UNDO,[],"[[3340, 0], [0, 2003], [0, 2003], [0, 1056]]",[],[],[],[],[],[],[],[],[],[],[],[],[],[],[],[],[],[],[],[],[],[],[],[],[]
participant_3_GOLD,500,500,584,846,1155,1640,1826,2182,2457,2783,2926,3355,3592,4196,4596,4895,5177,5402,5824,5947,6793,7021,7422,7865,8420,9690,9751
participant_3_CURRENTGOLD,500,0,84,346,655,1140,166,522,797,1123,241,670,292,896,1296,270,552,342,764,422,343,571,482,925,1480,1500,151
participant_3_LEVEL,1,1,1,2,3,4,4,5,5,6,6,7,7,8,8,8,9,9,10,10,11,11,11,12,13,13,13
participant_3_MINIONSKILLED,0,0,3,11,19,23,26,37,43,55,56,71,77,87,100,105,110,116,130,130,136,142,155,156,166,175,175
participant_3_KILLS,0,0,0,0,0,0,0,0,0,0,0,0,0,0,0,0,1,1,1,1,1,1,2,2,2,2,2
participant_3_BUY,[],"[3850, 2003, 2003, 3340]",[],[],[],[],"[1001, 1004, 1004, 2055, 2003]",[],[],[3028],"[2055, 2055, 2003]",[],[],"[1052, 2055]",[],[3108],"[3174, 1004, 1004, 1004]",[2003],"[3364, 3114]",[],[1052],[],[3113],[],[3504],[],[1029]
participant_3_SOLD,[],[],[],"[2003, 2003]",[],[],[],"[2055, 2003]",[],"[1004, 1004]",[2055],[2003],[],[],[3850],[1052],"[3108, 3028]",[],"[2003, 3340, 1004, 1004]",[],[],[],[1052],[],"[3114, 3113]",[],[3851]
participant_3_UNDO,[],[],[],[],[],[],[],[],[],[],"[[0, 2055]]",[],[],"[[0, 2055]]",[],[],"[[0, 1004]]",[],[],[],[],[],[],[],[],[],[]
participant_4_GOLD,500,500,553,717,903,1172,1307,1515,1700,1910,2044,2209,2398,2689,2854,3025,3626,3877,4017,4387,4633,4832,5272,5533,5786,6076,6146
participant_4_CURRENTGOLD,500,0,53,217,403,672,132,340,525,185,194,359,548,404,569,275,226,427,17,387,198,397,423,683,286,576,346
participant_4_LEVEL,1,1,1,2,3,4,4,5,5,5,6,6,6,7,7,8,8,9,9,9,10,10,10,11,11,12,12
participant_4_MINIONSKILLED,0,0,0,0,1,2,2,3,4,5,5,5,6,11,11,12,14,15,15,17,17,18,18,18,18,18,18
participant_4_KILLS,0,0,0,0,0,0,0,1,1,1,1,1,2,2,2,2,2,2,2,3,3,3,3,3,4,4,4
participant_4_BUY,[],"[2031, 1041, 3340]",[3364],[],[],[],"[3715, 1036, 1036]",[],[],"[1412, 1001, 2055]",[1029],[],"[3047, 1036, 1036, 1028]",[],[],"[3044, 2055]",[],[3067],[2055],[],[3071],"[1036, 1036]",[],[3134],[],"[1037, 1028]",[]
participant_4_SOLD,[],[],[3340],[],[],[],[1041],[],[],"[1036, 1036, 3715]",[],[],"[1001, 1029]",[2055],[],"[1028, 1036]",[2055],[],[2055],[],"[3044, 3067]",[],[],"[1036, 1036]",[],[2031],[]
participant_4_UNDO,[],[],[],[],[],[],[],[],[],[],[],[],"[[0, 1036]]",[],[],[],[],[],[],[],[],[],[],[],[],[],[]
participant_5_GOLD,500,500,584,1202,1346,1790,1934,2077,2408,2792,3364,3723,4815,5757,6258,6541,6898,7464,7844,8862,9214,9914,10112,10713,10835,12177,12542
participant_5_CURRENTGOLD,500,0,84,702,146,590,109,252,583,967,639,123,1215,257,758,191,548,1114,1494,2512,381,1082,629,130,253,1595,1759
participant_5_LEVEL,1,1,1,3,4,5,5,5,6,7,7,8,9,9,10,10,11,11,12,12,13,13,13,14,14,14,15
participant_5_MINIONSKILLED,0,0,3,14,15,32,33,34,43,55,55,65,81,93,103,109,119,129,140,147,147,156,156,158,158,162,167
participant_5_KILLS,0,0,0,1,1,1,1,1,1,1,2,2,2,2,2,2,2,2,2,3,3,4,4,5,5,8,8
participant_5_BUY,[],"[3340, 2033]",[],[],"[1036, 1036]",[],[3077],[],[],[],[1053],[1037],[],"[3074, 3047, 1028]",[],[3044],[],[],[],[],[3078],[],[2420],[1038],[],[],[]
participant_5_SOLD,[],[],[],[],[],[],"[1036, 1036]",[],[],[],[],[],[],"[3077, 1053, 1037]",[],[1028],[],[],[],[],[3044],[],[],[2033],[],[],[2420]
participant_5_UNDO,[],[],[],[],[],[],[],[],[],[],[],[],[],[],[],[],[],[],[],[],[],[],[],[],[],[],[]
participant_6_GOLD,500,500,621,1018,1376,1603,2031,2208,2750,3148,3681,4014,5011,5429,6132,6459,7338,8006,8444,8879,9536,9659,10585,11475,11984,12494,12655
participant_6_CURRENTGOLD,500,0,121,518,876,453,881,158,700,1098,56,389,1386,1804,2507,84,963,1631,2069,429,1087,219,1145,2036,2544,3054,595
participant_6_LEVEL,1,1,2,3,4,4,5,5,6,7,8,8,9,10,10,11,12,13,13,13,14,14,14,15,15,16,16
participant_6_MINIONSKILLED,0,0,0,0,0,0,0,1,3,3,5,5,13,13,20,20,33,37,37,41,41,41,48,55,67,74,74
participant_6_KILLS,0,1,1,1,1,1,1,1,1,1,1,1,1,1,1,1,1,1,2,2,2,2,2,2,2,2,2
participant_6_BUY,[],"[3850, 2003, 2003, 3340]","[1082, 2055]",[],[],[],"[1052, 1004, 2055]",[],[],[],"[3108, 1004]",[],[],"[3174, 3364, 2055]",[],"[1004, 1004]",[],[],[],"[3041, 3114, 3028]",[],[],"[3222, 2055, 1004]",[],[],[],[]
participant_6_SOLD,[],[],[],[],[2055],[],[],[2055],[],[],[1052],[3850],[],"[3108, 1004, 1004, 3340]",[],[2055],[2003],[],[],"[3851, 1082, 1004, 1004]",[],[],"[2003, 3028, 3114]",[2055],[],[],[]
participant_6_UNDO,[],[],[],[],[],[],[],[],[],[],[],[],[],[],[],[],[],[],[],[],[],[],[],[],[],[],[]
participant_7_GOLD,500,570,696,1039,1316,1690,1974,2285,2532,2816,4115,4629,5148,5370,6087,6547,7623,8155,8536,9333,9999,10437,10985,11723,12165,12337,12660
participant_7_CURRENTGOLD,500,70,196,539,816,1190,1474,1785,207,491,1790,229,323,545,712,1172,1373,605,986,1783,49,487,1036,23,466,638,960
participant_7_LEVEL,1,1,1,3,4,5,6,7,7,8,9,9,10,10,10,11,11,12,12,12,13,13,14,14,14,14,15
participant_7_MINIONSKILLED,0,0,6,16,25,37,46,57,61,70,79,90,94,97,103,118,119,122,133,139,145,153,168,174,174,174,183
participant_7_KILLS,0,0,0,0,0,0,0,0,1,1,1,1,3,3,4,4,5,5,5,5,6,6,8,8,8,8,8
participant_7_BUY,[],"[1039, 2031, 3340]",[3364],[],[],[3706],[],[3108],[],[],"[1402, 3108, 2055]",[],[],[],[],"[3115, 2420]",[],[],[],"[3020, 3020, 3108, 1052]",[],"[3157, 2055]",[],[],[],[],"[1058, 1058]"
participant_7_SOLD,[],[],[3340],[],[],[1039],[],[],[],[],"[3108, 3706]",[],[],[],[],"[3364, 3108]",[],"[3513, 2055]",[],"[2031, 2422, 2422, 2031]",[2420],"[1052, 3108, 2421, 2055]",[],[],[],[],[]
participant_7_UNDO,[],[],[],[],[],[],[],[],[],[],[],[],[],[],[],[],[],[],[],"[[0, 3020], [2031, 0]]",[],[],[],[],[],[],[]
participant_8_GOLD,500,550,637,1057,1387,1524,2067,2369,2783,2906,3330,3760,4770,4991,5377,5772,6066,6729,7517,7933,8510,8758,8891,9223,9513,9735,10002
participant_8_CURRENTGOLD,500,50,87,507,837,99,642,944,1358,31,455,885,1895,291,677,197,91,754,1542,838,1415,464,221,553,103,325,352
participant_8_LEVEL,1,1,1,2,3,3,5,5,6,6,7,7,8,8,8,9,9,9,10,11,11,11,11,11,12,12,12
participant_8_MINIONSKILLED,0,0,3,17,28,29,47,57,70,70,84,97,106,109,120,132,133,146,154,159,165,165,166,171,177,177,180
participant_8_KILLS,0,0,0,0,0,0,0,0,0,0,3,3,3,3,4,4,7,7,7,8,9,9,9,9,10,10,10
participant_8_BUY,[],"[1055, 2003, 3340]",[],[],[],[],[],[],"[3006, 1042, 1042, 2055, 2003]",[],[],"[3046, 2055]","[1036, 2055]",[],[1053],[],"[1018, 2055]",[1038],[],[],"[3031, 3105]",[],[],"[3812, 2055, 2055, 3364]",[],[],[]
participant_8_SOLD,[],[],[],[],[2003],[],[],[],[],[2055],[2003],"[1042, 1042, 2055]",[],[2055],[1036],[],[2055],[],[],[],"[1038, 1018]",[],[],"[3105, 1053, 3340]",[],[],"[2055, 2055]"
participant_8_UNDO,[],[],[],[],[],[],[],[],[],[],[],[],[],[],[],[],[],[],[],[],[],[],[],[],[],[],[]
participant_9_GOLD,500,945,983,1162,1372,1593,1728,1917,2256,2451,2752,2908,3271,3462,3647,3877,4392,4857,5514,5994,6259,6550,6765,6955,7171,7634,7804
participant_9_CURRENTGOLD,500,445,58,237,447,668,168,357,696,891,602,758,1121,287,472,452,967,1432,2089,169,434,725,240,431,646,1109,1279
participant_9_LEVEL,1,1,1,2,3,3,4,5,5,6,6,7,7,7,8,8,9,9,10,11,11,11,12,12,13,13,14
participant_9_MINIONSKILLED,0,0,0,0,0,2,2,2,2,2,2,2,4,4,4,5,6,9,10,10,10,10,10,10,10,13,13
participant_9_KILLS,0,0,0,0,0,0,0,0,0,0,0,0,1,1,1,1,1,1,2,2,3,3,3,3,3,3,3
participant_9_BUY,[],"[1083, 2003, 3340]",[2003],[],[],[1037],[],[],[],"[1038, 2031]",[],[],[],"[3031, 1001, 1042]",[],"[3006, 1042, 3363, 2055]",[2015],[],[],[1038],[],[3095],"[1042, 2055]",[],[1018],[],[]
participant_9_SOLD,[],[],[],[2003],[],[2003],[],[],[],[],[],[],[],"[1038, 1037]",[],"[1001, 1042, 3340]",[1042],[],[],[1083],[],"[2055, 1038, 2015]",[],[],[2031],[],[]
participant_9_UNDO,[],[],[],[],[],[],[],[],[],[],[],[],[],[],[],[],[],[],[],[],[],[],[],[],[],[],[]
team0_KILLS,0,0,0,0,1,2,2,3,3,3,4,4,5,6,6,6,7,8,8,10,12,13,14,16,18,19,19
team0_CURRENTGOLD,2500,0,472,1780,3606,4240,2361,4375,5045,2562,1393,2620,2079,2269,3233,2105,1935,2614,1922,3473,2654,2099,2824,4023,3096,3299,633
team0_TOTALGOLD,2500,2500,2972,4405,6231,7865,9171,11185,12480,13822,15303,17005,18829,20654,22318,23555,25485,27449,28582,30598,33229,34732,36361,38736,40934,43601,43916
team0_LEVEL,5,5,6,12,18,22,24,29,29,33,35,37,39,42,44,46,49,51,52,53,57,57,60,62,65,67,67
team0_SBIRES,0,0,10,39,70,89,112,141,158,188,204,245,263,289,324,345,372,395,416,434,464,478,503,535,560,588,588
team1_KILLS,0,1,1,2,2,2,2,2,3,3,7,7,10,10,12,12,16,16,18,20,23,24,26,27,28,31,31
team1_CURRENTGOLD,2500,565,546,2503,3122,3000,3274,3496,3544,3478,3542,2384,5940,3184,5126,2096,3942,5536,8180,5731,3366,2977,3271,3173,4012,6721,4945
team1_TOTALGOLD,2500,3065,3521,5478,6797,8200,9734,10856,12729,14113,17242,19034,23015,25009,27501,29196,32317,35211,37855,41001,43518,45318,47338,50089,51668,54377,55663
team1_LEVEL,5,5,6,13,18,20,25,27,30,34,37,39,43,44,46,49,52,54,57,59,62,62,64,66,68,69,72
team1_SBIRES,0,0,12,47,68,100,128,151,179,200,225,259,298,316,350,384,410,443,474,496,508,525,548,568,586,600,617
delta_KILLS,0,-1,-1,-2,-1,0,0,1,0,0,-3,-3,-5,-4,-6,-6,-9,-8,-10,-10,-11,-11,-12,-11,-10,-12,-12
delta_CURRENTGOLD,0,-565,-74,-723,484,1240,-913,879,1501,-916,-2149,236,-3861,-915,-1893,9,-2007,-2922,-6258,-2258,-712,-878,-447,850,-916,-3422,-4312
delta_TOTALGOLD,0,-565,-549,-1073,-566,-335,-563,329,-249,-291,-1939,-2029,-4186,-4355,-5183,-5641,-6832,-7762,-9273,-10403,-10289,-10586,-10977,-11353,-10734,-10776,-11747
delta_LEVEL,0,0,0,-1,0,2,-1,2,-1,-1,-2,-2,-4,-2,-2,-3,-3,-3,-5,-6,-5,-5,-4,-4,-3,-2,-5
delta_SBIRES,0,0,-2,-8,2,-11,-16,-10,-21,-12,-21,-14,-35,-27,-26,-39,-38,-48,-58,-62,-44,-47,-45,-33,-26,-12,-29
