name,frame_0,frame_1,frame_2,frame_3,frame_4,frame_5,frame_6,frame_7,frame_8,frame_9,frame_10,frame_11,frame_12,frame_13,frame_14,frame_15,frame_16,frame_17,frame_18,frame_19,frame_20,frame_21,frame_22,frame_23,frame_24,frame_25,frame_26,frame_27,frame_28,frame_29,frame_30,frame_31,frame_32,frame_33,frame_34,frame_35,frame_36,frame_37,frame_38
nameStamp,Tstart,Tearly,Tearly,Tearly,Tearly,Tearly,Tearly,Tearly,Tearly,Tearly,Tearly,Tearly,Tearly,Tmid,Tmid,Tmid,Tmid,Tmid,Tmid,Tmid,Tmid,Tmid,Tmid,Tend,Tend,Tend,Tend,Tend,Tend,Tend,Tend,Tend,Tend,Tend,Tend,Tend,Tend,Tend,Tend
timestamp,0,60023,120052,180082,240109,300139,360166,420185,480210,540232,600248,660277,720299,780323,840350,900377,960402,1020424,1080449,1140473,1200495,1260515,1320532,1380560,1440583,1500605,1560633,1620660,1680689,1740689,1800710,1860733,1920758,1980782,2040798,2100828,2160854,2220887,2280887
participant_0_GOLD,500,500,521,664,1191,1418,1632,1904,2089,2838,3037,3270,3812,4220,5058,5236,6118,6582,7422,7614,8207,8329,8451,8980,9220,9466,9588,10185,10582,10899,11116,11567,11689,12286,13025,13506,14069,14295,15392
participant_0_CURRENTGOLD,500,0,21,164,291,218,432,404,189,938,237,470,1012,520,1358,36,918,382,1222,64,257,379,151,680,520,766,888,1486,282,599,367,717,90,287,1025,1507,370,196,1092
participant_0_LEVEL,1,1,1,2,3,4,4,5,5,7,7,8,9,9,10,10,10,11,12,12,12,12,12,13,13,13,13,14,14,14,14,15,15,16,17,17,17,17,18
participant_0_MINIONSKILLED,0,0,0,1,6,9,14,20,24,32,37,40,52,59,69,72,72,74,79,83,83,83,83,87,90,90,90,94,96,100,100,115,115,118,122,126,126,128,132
participant_0_KILLS,0,0,0,1,1,1,1,1,1,1,1,1,1,2,2,2,2,2,2,2,2,2,2,2,2,2,2,2,2,2,2,2,2,2,3,3,3,3,4
participant_0_BUY,[],"[3858, 2003, 2003, 3340]",[],[],[],[],[],"[3066, 1004, 2003, 2003]",[],[],[],"[3067, 2003, 2003, 2003]","[2003, 2003]",[],[2065],[],[],[1033],[3111],[],[],"[1028, 2003, 2003, 2003]",[],[3067],[1027],[],[],[3024],[],[],[],"[3050, 1028]",[],[1011],[],[],[1057],[],[3001]
participant_0_SOLD,[],[],[2003],[],[],"[2010, 2010]",[],[],"[2003, 2010]",[2003],[],[],[2003],"[3858, 2003]","[3067, 1004, 3066]",[],[2003],[],"[1033, 2422]",[2003],[],[],[],[1028],"[2003, 2003]",[],[3859],[1027],[2003],[],[],"[3067, 3024]","[2003, 2003]",[1028],[],[],[],[],"[1011, 1057]"
participant_0_UNDO,[],[],[],[],[],[],[],[],[],[],[],[],[],[],[],[],[],[],[],[],[],[],[],[],[],[],[],[],[],[],[],[],[],[],[],[],[],[],[]
participant_1_GOLD,500,500,621,933,1317,1659,1884,2106,2518,2989,3427,4059,5411,6110,6232,6645,7878,8271,8927,9123,9358,9984,10532,12236,12458,12913,13280,13626,14754,15843,17446,17672,19707,20311,20503,21576,21798,22211,23750
participant_1_CURRENTGOLD,500,0,121,433,817,1159,1384,306,718,1189,152,784,2136,2835,32,445,1678,2071,27,223,8,635,332,1336,269,173,540,887,2014,1304,2906,333,2368,5142,2234,3307,3529,3942,3250
participant_1_LEVEL,1,1,2,3,4,4,5,5,6,7,7,8,9,9,9,10,11,11,12,12,12,13,13,13,13,14,14,14,15,15,16,16,17,18,18,18,18,18,18
participant_1_MINIONSKILLED,0,0,0,0,6,6,6,6,6,7,8,8,10,11,11,11,19,19,19,22,22,28,34,35,35,35,40,46,58,63,63,65,70,77,77,83,83,83,96
participant_1_KILLS,0,0,0,0,1,1,1,1,1,2,2,2,2,2,3,3,5,5,7,7,8,8,8,8,8,8,8,8,8,8,8,8,8,8,9,9,9,9,11
participant_1_BUY,[],"[3340, 2033]",[],[],[1028],[1001],[],[1029],[3066],[],"[1031, 1028]",[],[],[3742],[],"[3047, 1028, 1029]",[],"[3076, 1011]",[],"[3075, 1036]",[1028],[],[3044],[],[1028],[],[],[],[3053],[],[1033],[1029],[3105],[1028],[],[],"[3068, 1028]",[3067],[]
participant_1_SOLD,[],[],[],[],[],[],[],[],[1028],[],[1029],[],[],"[3066, 1028, 1031]",[],[1001],[],"[1029, 1028]",[],"[3076, 1011]",[],[],"[1028, 1036]",[],[],[],[],[],"[3044, 1028]",[],[],[2033],"[1033, 1029]",[],[],[],"[1028, 3105]",[1028],[]
participant_1_UNDO,[],[],[],[],[],[],[],[],[],[],[],[],[],[],[],[],[],[],[],[],[],[],[],[],[],[],[],[],[],[],[],[],[],[],[],[],[],[],[]
participant_2_GOLD,500,500,577,790,913,1091,1298,1546,1835,2114,2306,2520,3112,3353,3567,3752,4268,4490,4799,5006,5186,5357,5950,6287,6409,6918,7117,7636,7909,8184,8642,8764,8886,9334,9456,9628,10566,10688,11031
participant_2_CURRENTGOLD,500,0,77,290,13,191,398,246,525,794,986,1200,1792,2033,2247,542,1058,329,38,246,126,222,815,652,174,13,212,731,1004,259,717,439,261,709,831,204,1141,543,356
participant_2_LEVEL,1,1,1,3,3,4,5,5,6,7,7,8,9,9,10,10,10,10,11,11,11,11,12,12,12,12,13,13,13,13,14,14,14,15,15,15,15,15,16
participant_2_MINIONSKILLED,0,0,3,8,8,11,16,24,31,37,41,46,54,61,67,71,73,76,78,78,78,81,81,84,84,84,89,94,94,96,96,96,96,96,96,96,99,99,103
participant_2_KILLS,0,0,0,0,0,1,1,1,1,1,1,1,1,1,2,2,3,3,3,3,4,4,4,4,4,4,4,6,7,7,7,7,7,7,8,8,9,9,9
participant_2_BUY,[],"[1055, 2003, 3340]",[],[],[],[],[1038],[],[],[],[],[],"[2015, 1001, 1042]",[],[],"[3095, 3006]",[],"[1036, 1042, 1036, 6670]",[],[],[1037],[],[1018],"[6672, 3134]",[],[1037],[],"[6676, 1036, 1036]",[],[],"[3133, 3057, 1018]",[],[],"[3508, 3123]",[1042],[],[3086],[3033],[]
participant_2_SOLD,[],[],[2003],[],[],[],[],[],[],[],[],[],[],[],[],"[1038, 2015, 1001, 1042]",[],"[1055, 1036, 1042, 1036]",[],[],[],[],[],"[3095, 6670, 1018, 1037]",[],[6672],[],"[3134, 1037]",[],[],"[1036, 1036]",[],[],"[3133, 3057, 1018]",[],[],[1042],"[3123, 3086]",[]
participant_2_UNDO,[],[],[],[],[],[],[],[],[],[],[],[],[],[],[],[],[],[],[],[],[],[],[],[],[],"[[6672, 0]]",[],[],[],[],[],[],[],[],[],[],[],[],[]
participant_3_GOLD,500,500,521,818,1098,1715,1838,1995,2362,2710,2902,3053,3345,3913,4492,4691,5390,5577,5948,6279,6759,7007,7130,7253,7529,7753,8023,9590,10245,10916,11088,11358,12035,12457,13137,13634,14152,14274,14699
participant_3_CURRENTGOLD,500,0,21,318,598,1215,38,195,562,910,1102,1253,245,813,1392,391,1090,157,528,859,464,712,235,523,799,148,418,260,915,1586,58,328,1005,128,507,1005,622,45,-3981
participant_3_LEVEL,1,1,1,1,3,4,4,4,5,5,6,6,6,7,8,8,8,8,9,9,9,9,9,9,10,10,11,11,12,12,12,13,14,14,15,15,15,15,16
participant_3_MINIONSKILLED,0,0,0,3,9,17,17,19,30,40,45,47,47,53,57,62,62,63,63,71,71,71,71,71,76,76,85,91,96,108,108,117,125,125,127,130,130,130,132
participant_3_KILLS,0,0,0,0,0,0,0,0,0,0,0,0,0,0,0,0,0,0,0,0,0,0,1,1,1,2,2,3,3,3,3,3,3,3,3,3,5,5,5
participant_3_BUY,[],"[1055, 2003, 3340]",[],[],"[1036, 2003]",[],[],[1028],[],[],[],[],[],[],[],"[1053, 1018, 1036, 2003, 2003, 2003, 1001]",[],[6670],[6673],[],[1042],[2055],[],[3006],[1018],[2015],[],[],[],[1038],[],"[3095, 1042]",[1042],[],[],[3051],[],[1057],[]
participant_3_SOLD,[],[],[],[2003],[],[],[],[],[],[],[],[2003],[],[],[],"[1036, 2003, 2003, 2003]",[],[1036],"[6670, 1018, 1053]",[],[],[],[],"[1001, 1042]",[],[2055],[],[],[],[1028],[],"[1038, 1018, 2015]",[],[],[],[1042],[],[1055],[]
participant_3_UNDO,[],[],[],[],[],[],[],[],[],[],[],[],[],[],[],[],[],[],[],[],[],[],[],[],[],[],[],[],[],[],[],[],[],[],[],[],[],[],[]
participant_4_GOLD,500,500,523,957,1215,1499,1634,1768,2027,2255,2540,2675,2823,3328,3699,3860,4134,4324,4543,4773,5026,5166,5307,5526,5667,5890,6052,6406,6696,6990,7330,7470,7782,8222,8863,9116,9356,9496,10192
participant_4_CURRENTGOLD,500,0,23,457,715,999,1134,118,377,605,890,75,123,628,149,310,584,324,193,423,676,266,407,226,57,280,442,246,537,830,1170,211,522,462,1103,1356,696,837,592
participant_4_LEVEL,1,1,1,1,2,3,3,3,4,5,5,6,6,7,7,8,8,8,9,9,9,9,9,10,10,10,11,12,12,12,13,13,13,14,15,15,15,15,16
participant_4_MINIONSKILLED,0,0,0,0,4,4,4,4,8,10,11,11,12,14,15,16,16,16,18,19,19,19,19,21,21,21,22,23,23,25,25,25,26,26,26,26,26,26,27
participant_4_KILLS,0,0,0,0,0,0,0,0,0,0,1,2,4,5,5,5,7,7,9,9,9,10,11,14,14,15,15,15,15,17,21,21,26,26,26,28,28,28,30
participant_4_BUY,[],"[1035, 2003, 2003, 2003, 1035, 2031, 3340]",[],[],[],[],[],[6670],[],[],"[1018, 1037]",[],[],[],"[6672, 3006, 1018, 1042, 1042]",[],[],[],"[3124, 3133]",[],[1033],[],[3155],[3156],"[1043, 1036]",[1053],[],[],[],"[3153, 1018]",[],[3072],[],[],"[1038, 3156]",[],[],[],[]
participant_4_SOLD,[],[],[],[],[],[],[],[],[1035],[],[],[],[],[],"[6670, 1018, 1037]",[],[],[],"[1042, 1042, 1018]",[],[],[],[1033],"[3155, 3133]",[2031],[1036],[],[],[],"[1053, 1043]",[],[1018],[],[3156],[],[],[],[],[]
participant_4_UNDO,[],"[[0, 2003], [0, 2003], [0, 2003], [0, 1035]]",[],[],[],[],[],[],[],[],[],[],[],[],[],[],[],[],[],[],[],[],[],[],[],[],[],[],[],[],[],[],[],[],"[[0, 1038]]",[],[],[],[]
participant_5_GOLD,500,500,521,769,1331,1565,2127,2465,2879,3044,3306,3567,4299,4421,4544,4750,4873,5127,5579,5970,6438,6783,7281,7805,7968,8203,8392,8677,8799,8997,9396,9519,9657,10123,10373,10601,10723,10940,11047
participant_5_CURRENTGOLD,500,500,21,269,531,765,152,490,904,169,431,692,1124,246,69,275,398,652,304,695,1163,208,306,830,273,157,347,632,404,202,602,424,562,528,779,131,254,471,72
participant_5_LEVEL,1,1,1,3,4,5,5,6,7,7,8,8,8,8,8,9,9,9,10,10,11,11,12,12,12,12,12,12,13,13,13,13,13,14,14,14,14,15,15
participant_5_MINIONSKILLED,0,0,0,7,14,20,27,38,43,45,53,58,58,58,58,63,63,67,69,77,80,81,81,87,87,87,87,90,90,90,90,90,90,92,94,100,100,104,104
participant_5_KILLS,0,0,0,0,1,1,2,2,2,2,2,2,3,3,3,3,3,3,3,3,3,3,3,3,3,3,3,3,3,3,3,3,3,3,3,3,3,3,3
participant_5_BUY,[],[],"[1055, 2003, 3340]",[],"[2003, 1001]",[],"[6660, 2003, 2003, 2055]",[],[],[1057],[],[],[1029],[6664],[1029],[],[],[],"[3047, 1029]",[],[],"[3066, 1031]",[1028],[],[3742],[1036],[],[],[1036],[3133],[],[1029],[],[1031],[],[1037],[],[],[6333]
participant_5_SOLD,[],[],[],[2003],[],[],[],"[2003, 2003, 2055]",[],[],[],[],[],"[6660, 1029, 1057]",[],[],[],[],"[1001, 1029]",[],[],[1029],[],[],"[1055, 3066, 1028, 1031]",[],[],[],[],"[1036, 1036]",[],[],[],[1029],[],[],[],[],"[1031, 3133, 1037]"
participant_5_UNDO,[],[],[],[],"[[0, 2003]]",[],[],[],[],[],[],[],[],[],[],[],[],[],[],[],[],[],[],[],[],[],[],[],[],[],[],[],[],[],[],[],[],[],[]
participant_6_GOLD,500,500,1021,1256,1563,1876,2262,2819,3131,3439,3851,4470,5199,5362,6157,6464,6787,6994,7841,8068,9078,9498,10117,11578,11914,13013,13682,13854,14322,15145,16042,16164,16549,16721,16943,17141,18147,18685,18824
participant_6_CURRENTGOLD,500,0,521,21,328,641,1027,1574,121,429,841,1460,2189,302,1097,1404,1727,599,631,423,268,688,457,1578,1914,3014,3682,905,1373,2195,3093,665,1050,1222,1444,392,1398,1936,2024
participant_6_LEVEL,1,1,2,2,3,3,4,5,6,6,7,7,8,8,9,9,10,10,10,10,11,11,12,13,14,14,15,15,15,16,16,16,16,16,16,17,18,18,18
participant_6_MINIONSKILLED,0,0,0,0,0,0,2,11,11,11,11,15,27,27,33,33,33,33,36,36,36,40,42,42,46,46,57,57,62,69,69,69,72,72,72,72,86,87,87
participant_6_KILLS,0,0,0,0,0,0,0,0,0,0,0,0,0,0,0,0,0,0,0,0,0,0,0,0,0,1,1,1,2,2,3,3,3,3,3,4,5,5,5
participant_6_BUY,[],"[1055, 2003, 3340]",[],[],[],"[1036, 1042]",[],[],[],[1037],[1036],[],[1018],[],[6670],[],[],[],"[6672, 1001]",[],[],[3006],[],[1037],[],[],[],[],[],"[1031, 3133]",[],[],[],"[6333, 1018, 1042]","[3086, 1042]",[],[],[],[]
participant_6_SOLD,[],[],[],[],[],[2003],[],[2010],"[2010, 2010]",[],[],[],[],[],"[1036, 1042, 1036]",[],[],[],"[6670, 1018, 1037]",[],[],[1001],[],[],[],[],[],[],[],[],[],[],[],"[1031, 3133, 1037]","[1018, 1042]",[],[],[],[]
participant_6_UNDO,[],[],[],[],[],[],[],[],[],[],[],[],[],[],[],[],[],[],[],[],[],[],[],[],[],[],[],[],[],[],[],[],[],[],[],[],[],[],[]
participant_7_GOLD,500,500,584,804,1318,1629,2138,2595,2958,3185,3413,3701,3992,4192,5013,5346,5468,5604,6340,6462,8349,8718,9820,10443,10566,11063,11426,11626,11899,12021,12231,12353,12476,14068,14191,14313,15524,15647,16054
participant_7_CURRENTGOLD,500,0,84,304,818,1119,1628,110,463,690,918,1196,187,387,1208,1541,1663,514,350,472,2359,413,1515,38,161,658,1021,1222,244,367,576,699,821,2414,2536,339,1550,1673,1929
participant_7_LEVEL,1,1,1,3,4,5,6,6,7,7,8,8,9,9,10,10,10,10,11,11,12,12,13,13,13,14,14,14,14,14,14,14,14,15,15,15,16,16,16
participant_7_MINIONSKILLED,0,0,3,9,15,23,29,31,42,48,54,60,67,72,75,80,80,81,84,84,88,89,96,96,96,96,103,105,105,105,105,105,105,110,110,110,111,111,111
participant_7_KILLS,0,0,0,0,1,1,2,3,3,3,3,3,3,3,4,4,4,4,5,5,8,8,10,11,11,12,12,12,12,12,12,12,12,14,14,14,16,16,17
participant_7_BUY,[],"[1054, 2003, 3340]",[],[],[],[],[],"[3145, 1026, 2055]",[],[],[],[],[4636],[],[],[],[],"[1026, 1052]",[1011],[],[],"[4637, 3020, 1028]",[],[3165],[],[],[],[],[4630],[],[],[],[],[],[],"[3135, 1058]",[],[],[]
participant_7_SOLD,[],[],[],[2003],[],[],[],[],[2055],[],[],[],"[3145, 1026]",[],[],[],[],[],[],[],[],"[1026, 1011, 1052]",[],[1028],[],[],[],[],[],[],[],[],[],[],[],"[4630, 1054]",[],[],[]
participant_7_UNDO,[],[],[],[],[],[],[],[],[],[],[],[],[],[],[],[],[],[],[],[],[],[],[],[],[],[],[],[],[],[],[],[],[],[],[],[],[],[],[]
participant_8_GOLD,500,500,580,896,1088,1211,1487,1780,2029,2200,2580,2952,3175,3416,3553,3780,3916,4137,4355,4668,5019,5275,5766,6104,6226,6852,7125,7513,7986,8122,8810,8932,9124,9511,9765,10208,10831,11016,11123
participant_8_CURRENTGOLD,500,0,80,396,588,61,337,630,879,175,205,577,200,441,278,505,641,862,155,468,819,275,766,229,351,977,1250,1638,2111,347,1035,1157,1349,511,165,609,1231,1416,1523
participant_8_LEVEL,1,1,1,2,3,3,4,4,5,5,5,6,6,7,7,7,7,8,8,9,10,10,11,11,11,12,12,12,13,13,13,13,13,14,14,14,15,15,15
participant_8_MINIONSKILLED,0,0,0,9,13,13,22,27,35,38,41,43,43,50,51,51,52,58,59,65,68,68,68,69,69,69,73,74,74,75,77,77,77,81,84,85,85,89,89
participant_8_KILLS,0,0,0,1,1,1,1,1,1,1,2,2,2,2,3,3,3,3,4,4,4,4,4,5,5,6,6,6,6,6,6,7,7,7,7,7,7,7,7
participant_8_BUY,[],"[3850, 2003, 2003]",[],[],"[3070, 1082]",[],[],[],[],[],[],[],[],"[6617, 1052]",[],[],[],[3114],[],[],[6616],[],[],[],[],[],[],[3003],[],[],[],[],[],[],[],[],[],[],[]
participant_8_SOLD,[],[],[],[],[2003],[],[],[],[],[3850],[],[],[],[],[3851],[],[],[2003],[],[],[3114],[],[],[],[],[],[],[3070],[],[3003],[],[],[],[],[],[],[],[],[]
participant_8_UNDO,[],[],[],[],[],[],[],[],[],[],[],[],[],[],[],[],[],[],[],[],[],[],[],[],[],[],[],[],[],[],[],[],[],[],[],[],[],[],[]
participant_9_GOLD,500,500,642,1191,1325,1680,1828,2142,2377,2682,3274,3704,4305,4445,5096,5299,5439,5580,6295,6436,6738,7041,7481,8397,8643,9308,9793,9984,10194,10409,10637,11078,11218,11409,11549,11778,11969,12158,12392
participant_9_CURRENTGOLD,500,0,142,691,95,450,598,912,1147,1452,2044,2474,3075,80,731,934,1074,435,1150,1291,94,396,836,1752,1998,2663,3148,739,949,1165,1393,1833,1973,2164,2304,2534,2724,2913,3107
participant_9_LEVEL,1,1,1,2,2,3,4,4,5,5,6,7,7,7,8,8,8,8,9,9,10,10,10,12,12,12,13,13,13,14,14,14,14,14,14,15,15,15,15
participant_9_MINIONSKILLED,0,0,0,1,1,6,7,7,7,13,18,21,21,21,21,25,25,25,25,25,25,31,31,31,31,31,32,32,32,32,32,32,32,32,32,33,33,36,38
participant_9_KILLS,0,0,1,1,1,1,1,1,1,1,1,2,2,2,3,3,3,3,5,5,7,7,7,10,10,12,13,13,13,14,16,16,16,16,16,16,17,17,17
participant_9_BUY,[],"[1039, 2003, 2031, 3340]",[],"[1052, 1001]",[],[],[],[],"[3802, 3108]",[],[],[],[],"[6653, 1026]",[],[],[],"[1011, 1052]",[4637],[1052],"[3020, 3916]",[],[1026],"[1052, 1028]",[],[],[],"[3165, 1058, 1058]",[],[],[],"[3089, 4630]",[],[],[],[3135],[],[],[]
participant_9_SOLD,[],[],[],[],[],[],[],[],[1052],[],[1039],[],[],"[3802, 3108]",[],[],[],[],"[1026, 1011, 1052]",[],"[1001, 1052]",[],[],[2031],[],[],[],"[1026, 3916, 1028]",[],[],[],"[1058, 1058]",[],[],[],[4630],[],[],[]
participant_9_UNDO,[],"[[0, 2003]]",[],[],[],[],[],[],[],[],[],[],[],[],[],[],[],[],[],[],[],[],[],"[[0, 1052]]",[],[],[],[],[],[],[],[],[],[],[],[],[],[],[]
team0_KILLS,0,0,0,1,2,3,3,3,3,4,5,6,8,10,12,12,17,17,21,21,23,24,26,29,29,31,31,34,35,37,41,41,46,46,49,51,54,54,59
team0_CURRENTGOLD,2500,0,263,1662,2434,3782,3386,1269,2371,4436,3367,3782,5308,6829,5178,1724,5328,3263,2008,1815,1531,2214,1940,3417,1819,1380,2500,3610,4752,4578,5218,2028,4246,6728,5700,7379,6358,5563,1309
team0_TOTALGOLD,2500,2500,2763,4162,5734,7382,8286,9319,10831,12906,14212,15577,18503,20924,23048,24184,27788,29244,31639,32795,34536,35843,37370,40282,41283,42940,44060,47443,50186,52832,55622,56831,60099,62610,64984,67460,69941,70964,75064
team0_LEVEL,5,5,6,10,15,19,21,22,26,31,32,36,39,41,44,46,47,48,53,53,53,54,55,57,58,59,62,64,66,66,69,71,73,77,80,80,80,80,84
team0_SBIRES,0,0,3,12,33,47,57,73,99,126,142,152,175,198,219,232,242,248,257,273,273,282,288,298,306,306,326,348,367,392,392,418,432,442,448,461,464,466,490
team1_KILLS,0,0,1,2,4,4,6,7,7,7,8,9,10,10,13,13,13,13,17,17,22,22,24,29,29,34,35,35,36,37,40,41,41,43,43,44,48,48,49
team1_CURRENTGOLD,2500,500,848,1681,2360,3036,3742,3716,3514,2915,4439,6399,6775,1456,3383,4659,5503,3062,2590,3349,4703,1980,3880,4427,4697,7469,9448,5136,5081,4276,6699,4778,5755,6839,7228,4005,7157,8409,8655
team1_TOTALGOLD,2500,2500,3348,4916,6625,7961,9842,11801,13374,14550,16424,18394,20970,21836,24363,25639,26483,27442,30410,31604,35622,37315,40465,44327,45317,48439,50418,51654,53200,54694,57116,58046,59024,61832,62821,64041,67194,68446,69440
team1_LEVEL,5,5,6,12,16,19,23,25,30,30,34,36,38,39,42,43,44,45,48,49,54,54,58,61,62,64,66,66,68,70,70,70,70,73,73,75,78,79,79
team1_SBIRES,0,0,3,26,43,62,87,114,138,155,177,197,216,228,238,252,253,264,273,287,297,309,318,325,329,329,352,358,363,371,373,373,376,387,392,400,415,427,429
delta_KILLS,0,0,-1,-1,-2,-1,-3,-4,-4,-3,-3,-3,-2,0,-1,-1,4,4,4,4,1,2,2,0,0,-3,-4,-1,-1,0,1,0,5,3,6,7,6,6,10
delta_CURRENTGOLD,0,-500,-585,-19,74,746,-356,-2447,-1143,1521,-1072,-2617,-1467,5373,1795,-2935,-175,201,-582,-1534,-3172,234,-1940,-1010,-2878,-6089,-6948,-1526,-329,302,-1481,-2750,-1509,-111,-1528,3374,-799,-2846,-7346
delta_TOTALGOLD,0,0,-585,-754,-891,-579,-1556,-2482,-2543,-1644,-2212,-2817,-2467,-912,-1315,-1455,1305,1802,1229,1191,-1086,-1472,-3095,-4045,-4034,-5499,-6358,-4211,-3014,-1862,-1494,-1215,1075,778,2163,3419,2747,2518,5624
delta_LEVEL,0,0,0,-2,-1,0,-2,-3,-4,1,-2,0,1,2,2,3,3,3,5,4,-1,0,-3,-4,-4,-5,-4,-2,-2,-4,-1,1,3,4,7,5,2,1,5
delta_SBIRES,0,0,0,-14,-10,-15,-30,-41,-39,-29,-35,-45,-41,-30,-19,-20,-11,-16,-16,-14,-24,-27,-30,-27,-23,-23,-26,-10,4,21,19,45,56,55,56,61,49,39,61
