name,frame_0,frame_1,frame_2,frame_3,frame_4,frame_5,frame_6,frame_7,frame_8,frame_9,frame_10,frame_11,frame_12,frame_13,frame_14,frame_15,frame_16,frame_17,frame_18,frame_19,frame_20,frame_21,frame_22,frame_23,frame_24,frame_25,frame_26,frame_27,frame_28,frame_29,frame_30,frame_31,frame_32,frame_33,frame_34,frame_35,frame_36,frame_37
nameStamp,Tstart,Tearly,Tearly,Tearly,Tearly,Tearly,Tearly,Tearly,Tearly,Tearly,Tearly,Tearly,Tearly,Tearly,Tearly,Tearly,Tearly,Tmid,Tmid,Tmid,Tmid,Tmid,Tmid,Tmid,Tmid,Tmid,Tmid,Tmid,Tend,Tend,Tend,Tend,Tend,Tend,Tend,Tend,Tend,Tend
timestamp,0,60025,120036,180056,240068,300101,360101,420102,480117,540144,600169,660195,720215,780247,840266,900272,960295,1020300,1080323,1140335,1200364,1260396,1320422,1380422,1440451,1500457,1560459,1620464,1680465,1740479,1800506,1860510,1920530,1980534,2040553,2100586,2160604,2220604
participant_0_GOLD,500,500,575,915,1202,1485,1776,2153,2513,2635,2948,3244,3556,3833,4032,4521,4750,5102,5225,5461,5770,6067,6231,6418,7215,7387,8046,8496,8647,9038,9175,9564,9904,10071,10256,10421,10543,10614
participant_0_CURRENTGOLD,500,0,75,415,702,985,101,478,838,90,403,69,381,658,207,696,275,627,15,251,560,357,306,493,140,311,971,171,322,714,850,139,480,646,242,406,528,139
participant_0_LEVEL,1,1,1,3,4,5,5,6,7,7,8,8,9,9,10,10,11,11,11,11,12,12,13,13,13,14,14,14,15,15,15,15,15,16,16,16,16,16
participant_0_MINIONSKILLED,0,0,1,14,21,30,40,52,62,62,73,80,88,96,100,108,111,120,120,127,134,140,143,144,144,147,157,159,161,161,162,165,168,170,174,177,177,177
participant_0_KILLS,0,0,1,1,1,1,1,1,1,2,2,2,2,3,4,4,4,4,4,4,5,5,5,5,5,5,5,5,5,6,6,6,7,7,7,7,7,7
participant_0_BUY,[],"[3850, 2003, 2003, 3340]",[],[],[],[],[],[],[],[],"[3113, 3504, 2055]",[],[],[],"[1001, 1026, 2055]",[],[],[3020],[],[1052],"[3802, 2055, 3364]",[],[],[],"[3285, 1028]",[],[],[3136],[],[],[],[],[1026],[],[3151],[],[],[]
participant_0_SOLD,[],[],[],[],[],[],[],[],"[2003, 2003]",[],"[3113, 3850]",[],[2055],[],[],[],[],[1001],[2055],[],"[1052, 3340]",[2055],[3851],[],"[3802, 1026]",[],[],[1028],[],[],[],[],[],[],"[3136, 1026]",[],[],[]
participant_0_UNDO,[],[],[],[],[],[],[],[],[],[],[],[],[],[],[],[],[],[],[],[],[],[],[],[],[],[],[],[],[],[],[],[],[],[],[],[],[],[]
participant_1_GOLD,500,500,654,947,1246,1550,1758,1880,2178,2400,2720,3230,3537,3788,4054,5013,5214,5661,5875,6122,6518,6956,7782,8115,8614,9443,10016,10479,10716,11002,11224,11781,12086,12298,12420,12589,12739,13110
participant_1_CURRENTGOLD,500,0,154,447,746,50,258,380,328,550,870,455,762,138,404,1363,1564,211,25,272,668,56,882,65,564,1393,1966,130,366,652,874,1432,696,909,1031,1199,1350,60
participant_1_LEVEL,1,1,2,3,3,4,4,4,5,5,6,6,7,7,8,9,9,9,10,10,11,11,12,12,13,14,14,15,15,15,15,16,16,16,16,16,16,16
participant_1_MINIONSKILLED,0,0,0,0,0,0,0,0,0,0,0,1,1,3,5,9,11,11,16,18,23,24,28,28,33,36,38,38,41,42,43,45,49,50,50,51,53,53
participant_1_KILLS,0,0,0,0,1,1,1,1,1,1,1,1,1,1,1,1,1,1,1,1,1,1,1,1,2,2,2,2,2,2,2,2,2,2,2,2,2,2
participant_1_BUY,[],"[1056, 2003, 2003, 3340]",[],[],[],"[1026, 1052, 1052, 2003, 2003]",[],"[3802, 2003]",[],[],"[1026, 2055, 2003]",[],[],"[3285, 2055]",[],[2055],[],[],"[3191, 3020, 2055]",[],[],"[3145, 2055]",[],[],[],"[3067, 1052]",[],"[3030, 2055]",[],[],[],[],[1058],[],[],[],[],[]
participant_1_SOLD,[],[],[],[],"[2003, 2003]",[],[2003],"[1052, 1052]",[2003],[2003],[2055],[2003],[],"[3802, 1026]",[2055],[],[2055],[],[2422],[2055],[],[],[],[2055],[],[3067],[],"[1052, 3145]",[2055],[],[],[],[],[],[],[],[],[]
participant_1_UNDO,[],[],[],[],[],"[[0, 1026]]",[],[],[],[],[],[],[],[],[],[],[],[],[],[],[],[],[],[],[],[],[],[],[],[],[],[],[],[],[],[],[],[]
participant_2_GOLD,500,500,617,898,1523,1687,2044,2299,2638,2958,3115,3774,4274,4411,4719,5016,5830,6189,6326,6702,7136,7359,7530,7834,8406,8678,9130,9656,9793,10023,10355,11042,11355,11590,11907,12223,12416,12637
participant_2_CURRENTGOLD,500,0,117,398,1023,217,574,349,688,1008,190,849,1349,361,669,891,1705,2064,226,602,1036,134,305,609,1181,778,1230,366,504,734,1065,1752,816,1050,1368,1684,1876,1537
participant_2_LEVEL,1,1,1,3,4,5,6,6,7,7,8,9,9,9,10,10,11,11,11,12,12,12,12,13,13,14,14,15,15,15,15,16,16,16,17,17,17,17
participant_2_MINIONSKILLED,0,0,3,10,22,25,36,44,54,62,64,76,85,86,93,100,110,115,116,127,137,137,140,146,146,146,159,161,162,163,171,182,187,189,196,199,204,204
participant_2_KILLS,0,0,0,0,0,0,0,0,0,0,0,0,0,0,0,0,0,0,0,0,0,0,0,0,1,1,1,1,1,2,2,2,2,2,2,2,2,2
participant_2_BUY,[],"[1056, 2003, 3340, 2003]",[],[],[],[],"[1001, 3067, 2055]",[],[],"[1052, 1052]",[],"[3145, 1033]",[],[],"[3111, 1029]",[],"[3191, 3152]",[],"[1052, 1029]",[],[],"[3191, 1052]",[2420],[],[3157],[],[],"[1028, 1026]",[],[],[],[3136],[],[],[3151],[],[],[1029]
participant_2_SOLD,[],[],[],[2003],[2003],[],[],[],[2055],[],[],"[1052, 1052]",[],[],"[1001, 1033]",[],"[1029, 3145, 3067]",[],[],[],[],"[1029, 1052, 1029]",[],[],"[2420, 3191, 2421]",[],[],[],[],[],[],[1028],[],[],"[1056, 3136, 1026]",[],[],[]
participant_2_UNDO,[],[],[],[],[],[],[],[],[],[],[],[],[],[],[],[],"[[0, 3191]]",[],[],[],[],[],"[[0, 1052]]",[],[],[],[],[],[],[],[],[],[],[],[],[],[],[]
participant_3_GOLD,500,500,577,846,1085,1424,1750,2127,2772,3170,3460,3833,4102,4706,5020,5345,6399,7000,7324,7733,8113,8236,8508,9187,10025,10147,10812,11513,11866,12210,12746,13658,14150,14907,15245,15541,15965,16036
participant_3_CURRENTGOLD,500,0,77,346,185,524,850,1227,1872,45,335,708,977,1581,1090,315,1369,535,859,1268,1648,106,108,787,125,247,912,1614,1966,391,926,189,681,1437,726,1022,1446,1166
participant_3_LEVEL,1,1,1,2,3,3,4,5,6,6,7,7,8,8,8,9,10,10,11,11,11,11,12,12,13,13,13,14,14,14,15,15,15,15,16,16,16,16
participant_3_MINIONSKILLED,0,0,3,12,16,26,38,44,55,61,71,82,90,100,101,109,119,124,132,144,155,155,155,165,165,165,170,182,190,196,206,207,207,216,224,230,238,238
participant_3_KILLS,0,0,0,0,0,0,0,0,1,1,1,1,1,1,1,1,3,4,4,4,4,4,4,5,6,6,7,7,7,7,7,9,10,11,11,11,11,11
participant_3_BUY,[],"[1055, 2003, 3340]",[],[],"[1027, 2003]",[],[],[],[],"[3070, 3004, 2003, 2003, 2055]",[],[],[],[],"[3006, 1037]",[3006],[],"[1043, 1052]",[],[],[],"[3124, 1018, 2055]",[1042],[],[3085],[],[],[],[],"[1038, 1018]",[],"[3031, 1036]",[],[],"[1053, 2140]",[],[],[]
participant_3_SOLD,[],[],[],[],[2003],[],[],[2003],[],"[1027, 3070]",[],[],[],[],"[2003, 2003, 2055, 2003, 2003, 2055]",[],[],[],[],[],[],"[1052, 1043, 1037]",[2055],[3004],"[1042, 1018]",[],[],[],[],[1055],[],"[1038, 1018]",[],[],"[1036, 2140]",[],[],[]
participant_3_UNDO,[],[],[],[],[],[],[],[],[],[],[],[],[],[],"[[2055, 0], [2003, 0], [2003, 0], [0, 3006]]",[],[],[],[],[],[],[],[],[],[],[],[],[],[],[],[],[],[],[],[],[],[],[]
participant_4_GOLD,500,545,983,1162,1356,1535,1715,1894,2163,2658,2794,2934,3075,3714,4154,4309,4844,5155,5489,5644,6629,6814,7020,7232,7672,7951,8327,8768,8953,9421,9561,9941,10402,10619,10849,11050,11190,11272
participant_4_CURRENTGOLD,500,45,483,662,856,1035,1215,1394,1663,2158,-131,9,150,789,-46,109,644,156,489,209,255,439,645,857,-153,77,453,-257,-72,396,537,916,527,744,224,425,565,847
participant_4_LEVEL,1,1,1,2,3,4,4,5,5,6,6,7,7,7,8,8,9,9,9,10,10,10,10,11,11,12,12,13,13,13,13,14,14,14,15,15,15,15
participant_4_MINIONSKILLED,0,0,0,0,1,1,1,1,1,1,1,1,1,2,2,3,3,4,8,8,8,10,11,12,12,16,18,18,18,18,18,19,20,20,21,23,23,23
participant_4_KILLS,0,0,0,0,0,0,0,0,0,0,0,1,1,1,1,2,2,3,3,3,3,4,5,5,6,7,8,8,8,8,8,9,9,9,9,9,9,10
participant_4_BUY,[],"[1039, 2031, 3340, 3364, 3340]",[],[],[],"[3706, 1036, 3364]",[],[],[1036],[],[],[1400],[],"[3047, 3111, 2055]",[],[],[],"[3134, 1036, 1036]",[3133],[],[],"[3147, 1036]",[],"[3134, 1036, 1028]",[],[],[],"[3814, 1053]",[],[],[],[],[3105],[],[],[],[],[3812]
participant_4_SOLD,[],"[3340, 3364]",[],[],[],"[1039, 3340]",[],[],[],[],[],"[1036, 1036, 3706]",[],"[3364, 2422, 2422]",[2055],[],[3513],[],"[1036, 1036]",[],[],"[3134, 3133]",[],[1036],[],[],[],"[3134, 1028]",[],[],[],[],[2031],[],[],[],[],"[3105, 1053]"
participant_4_UNDO,[],[],[],[],[],[],[],[],[],[],[],[],[],"[[0, 3047]]",[],[],[],[],[],[],[],[],[],"[[0, 1036]]",[],[],[],[],[],[],[],[],[],[],[],[],[],[]
participant_5_GOLD,500,500,584,874,1151,1469,1788,2172,2489,3017,3330,4019,4239,4643,5174,5493,5664,6889,7179,7945,8884,9179,9352,9697,9925,10048,10170,10293,10525,10786,11563,11723,11845,12119,12541,12663,12849,13584
participant_5_CURRENTGOLD,500,0,84,374,651,969,1288,1672,1989,142,455,1144,264,668,1199,443,264,1489,429,1195,684,110,282,627,391,513,636,93,325,97,874,784,56,330,317,439,625,1199
participant_5_LEVEL,1,1,1,3,4,5,6,6,7,8,8,9,10,10,11,11,11,12,13,13,14,14,14,15,15,15,15,15,15,15,16,16,16,16,17,17,17,17
participant_5_MINIONSKILLED,0,0,3,13,22,31,42,54,63,69,79,93,99,112,123,134,137,151,157,167,176,182,182,186,189,189,189,189,189,193,199,199,199,199,199,199,203,207
participant_5_KILLS,0,0,0,0,1,1,1,1,2,2,2,2,2,2,2,3,4,4,5,5,5,6,6,6,7,7,7,7,7,8,8,10,10,11,11,11,12,12
participant_5_BUY,[],"[1055, 2003, 3340]",[],[],[],[],[],[],[],"[1038, 3006]",[],[],[],[1037],[],[],[],"[3031, 1018, 1042]",[],[],"[3094, 3363, 2055]",[],[3123],[1036],[],[1038],[2015],[],[],[],"[3095, 1036]",[],[],[],"[3033, 1031]",[],[],[]
participant_5_SOLD,[],[],[],[],[],[],[],[],[],[],[],[],[],[],[],[],[],"[1038, 1037]",[2003],[],"[1018, 1042, 3340]",[2055],[],[],[],[],[1055],[],[],[],"[1038, 2015]",[],[],[],"[1036, 3123]",[],[],[]
participant_5_UNDO,[],[],[],[],[],[],[],[],[],[],[],[],[],[],[],[],[],[],[],[],[],[],[],"[[0, 1036]]",[],[],[],[],[],[],[],[],[],[],[],[],[],[]
participant_6_GOLD,500,500,621,933,1200,1423,1638,1760,1988,2260,2383,2630,2901,3184,3906,4194,4677,4934,5478,6073,6535,6658,6920,7518,7841,8183,8404,8746,8889,9427,9733,10028,10175,10307,11117,11277,11625,12120
participant_6_CURRENTGOLD,500,0,121,433,700,23,238,360,588,860,258,505,776,159,81,369,852,234,778,1373,1835,543,805,1403,1726,493,714,1056,124,662,968,13,161,292,1102,1263,1610,2045
participant_6_LEVEL,1,1,2,3,3,4,4,4,5,5,5,6,6,7,7,7,8,8,9,10,10,10,10,11,11,12,12,12,13,13,14,14,14,14,15,15,15,16
participant_6_MINIONSKILLED,0,0,0,0,0,0,0,0,1,1,1,1,3,3,3,5,5,5,8,9,9,9,10,11,11,11,17,24,25,27,32,32,32,32,36,36,38,41
participant_6_KILLS,0,0,0,0,0,0,0,0,0,0,0,0,0,0,1,1,1,1,1,1,1,1,1,2,2,2,2,2,2,2,2,2,2,2,2,2,2,2
participant_6_BUY,[],"[1039, 2031, 3340]",[],[],[],"[3364, 3751]",[],[],[],[],"[3706, 2055]",[],[],"[1401, 1001]",[3111],[],[],"[1031, 2055]",[],[],[],"[1011, 3076, 1028, 2055]",[],[],[],"[3075, 2055]",[],[],"[1011, 2055]",[],[],"[3742, 2055, 2055]",[],[],[],[],[],[]
participant_6_SOLD,[],[],[],[],[],[3340],[],[],[],[],"[1039, 2055]",[],[],"[3751, 3706]",[1001],[],[],[],[2055],"[3364, 3513]",[],[2031],[],[],[],"[3076, 1028]","[2055, 2055]",[],[],[2055],[],"[1031, 1011]",[],[],[2055],[2055],[],[]
participant_6_UNDO,[],[],[],[],[],[],[],[],[],[],[],[],[],[],[],[],[],[],[],[],[],"[[0, 1011]]",[],[],[],[],[],[],[],[],[],[],[],[],[],[],[],[]
participant_7_GOLD,500,500,612,909,1137,1441,1833,2060,2335,2661,3104,3435,3719,4675,5051,5369,6050,6667,7809,8302,8929,9204,10046,10337,11870,12387,12805,13194,13657,15331,15881,16235,16457,17013,17520,17765,18155,19138
participant_7_CURRENTGOLD,500,0,112,409,37,291,683,60,335,661,4,35,319,1275,1651,269,950,267,109,602,1229,405,146,437,1970,1268,385,774,1238,2911,661,1016,1238,1794,101,346,736,1538
participant_7_LEVEL,1,1,1,3,4,4,5,6,7,7,8,8,9,10,10,11,12,12,13,14,14,14,15,15,16,16,16,17,17,17,18,18,18,18,18,18,18,18
participant_7_MINIONSKILLED,0,0,5,15,21,28,42,48,54,65,74,83,89,97,107,115,128,136,145,159,163,168,174,184,192,193,200,204,207,213,219,219,219,225,225,231,235,236
participant_7_KILLS,0,0,0,0,0,0,0,0,0,0,0,0,0,1,1,1,1,1,1,1,1,1,1,1,1,1,1,1,1,1,1,1,1,1,1,1,1,1
participant_7_BUY,[],"[3858, 2003, 2003, 3340]",[],[],[],[],[],[],"[3024, 1028]",[],[],[],[],[],"[3117, 1033, 1029]",[],"[3050, 3364]",[2055],[],[],"[3067, 1029, 2055]",[],"[1031, 2055]",[3109],[],[1028],[],[1033],[],[3211],[],[1028],[],[3067],[],[],[],[]
participant_7_SOLD,[],[],[],[],[2003],[],[],"[2003, 2010, 2010]",[],[],[],[3858],[],[2010],[2422],[],"[1033, 1029, 3024, 3340]",[],[],[2055],[1028],[],"[3859, 2055, 1029]","[3067, 1031]",[],[],[],[2055],[],"[1028, 1033]",[],[],[],[1028],[],[],[],[]
participant_7_UNDO,[],[],[],[],[],[],[],[],[],[],[],[],[],[],[],[],[],[],[],[],[],[],[],[],[],[],[],[],[],[],[],[],[],[],[],[],[],[]
participant_8_GOLD,500,500,521,913,1503,1842,2119,2360,2955,3220,3705,4071,4425,4547,5044,5696,6230,6402,7154,7701,7978,8499,8878,9232,9808,10114,10396,10518,10877,12126,12520,13408,13631,14074,14681,15316,16251,16809
participant_8_CURRENTGOLD,500,0,21,413,1003,1342,1619,1860,2455,320,805,1171,1525,772,1269,1921,2455,302,1054,1601,303,824,403,757,1334,339,101,224,582,1832,676,1564,1786,2230,387,1022,1957,2334
participant_8_LEVEL,1,1,1,2,3,4,4,5,5,6,6,7,7,7,8,9,9,9,10,10,11,11,11,12,12,12,13,13,13,14,14,14,15,15,16,16,16,17
participant_8_MINIONSKILLED,0,0,0,13,21,31,39,46,52,57,69,79,89,89,98,107,112,112,127,131,133,139,141,145,150,155,155,155,161,172,172,172,172,172,172,186,193,197
participant_8_KILLS,0,0,0,0,0,0,0,0,0,0,0,0,0,1,1,1,2,2,4,4,5,5,7,7,9,10,10,10,10,14,14,14,14,14,14,14,14,16
participant_8_BUY,[],"[1055, 2003, 3340]",[],[],"[1001, 1042]",[2003],[],"[3006, 1042, 2003]",[],[],[3086],[1042],[],[],[],"[3046, 1018]",[],[1038],[3031],[],[],[3105],[3133],[],[],[3812],[1038],[],[],[],"[3026, 1038]",[],[],[],[3072],[],[],[]
participant_8_SOLD,[],[],[],[2003],[],[],[2003],"[1001, 1042]",[],[2003],[1042],[],[],[],[],"[1042, 3086]",[],[],"[1038, 1018]",[],[],[],[],[],[],"[3105, 3133, 1055]",[],[],[],[],[1038],[],[],[],[1038],[],[],[]
participant_8_UNDO,[],[],[],[],[],[],[],[],[],[],[],[],[],[],[],[],[],[],[],[],[],[],[],[],[],[],[],[],[],[],[],[],[],[],[],[],[],[]
participant_9_GOLD,500,500,523,752,975,1173,1349,1505,1810,2058,2381,2593,2748,3280,3451,3790,3930,4121,4448,4963,5243,5482,5743,5958,6299,6439,6593,6734,6888,7179,7419,7647,7787,7929,8532,8694,8854,9186
participant_9_CURRENTGOLD,500,0,23,252,475,673,849,1005,10,258,581,793,948,1480,201,540,80,196,523,1038,544,783,468,83,424,164,319,39,193,134,374,202,342,84,687,849,1009,1311
participant_9_LEVEL,1,1,1,2,3,4,4,4,5,6,6,7,7,8,8,8,8,9,9,9,9,10,10,10,11,12,12,12,12,13,13,13,13,13,14,15,15,15
participant_9_MINIONSKILLED,0,0,0,3,4,5,7,8,9,13,15,16,17,19,20,23,23,23,26,26,27,28,30,30,30,30,31,31,32,32,32,32,32,32,38,39,40,40
participant_9_KILLS,0,0,0,0,0,0,0,0,0,1,1,2,2,2,2,2,2,3,3,4,5,5,5,5,5,5,5,5,5,5,5,5,5,5,5,5,5,6
participant_9_BUY,[],"[1056, 2003, 2003, 3340]",[],[],[],[],[],[],[],"[3145, 1001, 3108, 2055, 2003]",[],[],[3101],[],[],"[3115, 2055]",[1036],[],"[3020, 1053]",[],[3146],"[1052, 1052]",[],[],[3108],[],[],[3191],[],[2420],[],[3157],[1026],[],[1052],[],[],[]
participant_9_SOLD,[],[],[],[],[],[2003],[],[2003],[],[],[2055],[2003],[],[],[],"[3101, 3108]",[],[2055],"[1001, 1036]",[],"[1053, 3145]",[],[],[],[1052],[],[],[1052],[],"[1056, 2420]",[],"[3191, 3108, 2421]",[],[],[],[],[],[]
participant_9_UNDO,[],[],[],[],[],[],[],[],[],[],[],[],[],[],[],[],[],[],[],[],[],[],[],[],[],[],[],[],[],[],[],[],[],[],[],[],[],[]
team0_KILLS,0,0,1,1,2,2,2,2,3,4,4,5,5,6,7,8,10,12,12,12,13,14,15,16,20,21,23,23,23,25,25,28,30,31,31,31,31,32
team0_CURRENTGOLD,2500,45,906,2268,3512,2811,2998,3828,5389,3851,1667,2090,3619,3527,2324,3374,5557,3593,1614,2602,4167,1092,2246,2811,1857,2806,5532,2024,3086,2887,4252,4428,3200,4786,3591,4736,5765,3749
team0_TOTALGOLD,2500,2545,3406,4768,6412,7681,9043,10353,12264,13821,15037,17015,18544,20452,21979,24204,27037,29107,30239,31662,34166,35432,37071,38786,41932,43606,46331,48912,49975,51694,53061,55986,57897,59485,60677,61824,62853,63669
team0_LEVEL,5,5,6,13,17,21,23,26,30,31,35,37,40,40,44,46,50,50,52,54,56,56,59,61,63,67,67,71,72,72,73,76,76,77,80,80,80,80
team0_SBIRES,0,0,7,36,60,82,115,141,172,186,209,240,265,287,301,329,354,374,392,424,457,466,477,495,500,510,542,558,572,580,600,618,631,645,665,680,695,695
team1_KILLS,0,0,0,0,1,1,1,1,2,3,3,4,4,6,7,8,10,11,14,15,17,18,20,21,24,25,25,25,25,30,30,32,32,33,33,33,34,37
team1_CURRENTGOLD,2500,0,361,1881,2866,3298,4677,4957,5377,2241,2103,3648,3832,4354,4401,3542,4601,2488,2893,5809,4595,2665,2104,3307,5845,2777,2155,2186,2462,5636,3553,3579,3583,4730,2594,3919,5937,8427
team1_TOTALGOLD,2500,2500,2861,4381,5966,7348,8727,9857,11577,13216,14903,16748,18032,20329,22626,24542,26551,29013,32068,34984,37569,39022,40939,42742,45743,47171,48368,49485,50836,54849,57116,59041,59895,61442,64391,65715,67734,70837
team1_LEVEL,5,5,6,13,17,21,23,25,29,32,33,37,39,42,44,46,48,50,54,56,58,59,60,63,65,67,68,69,70,72,75,75,76,76,80,81,81,83
team1_SBIRES,0,0,8,44,68,95,130,156,179,205,238,272,297,320,351,384,405,427,463,492,508,526,537,556,572,578,592,603,614,637,654,654,654,660,670,691,709,721
delta_KILLS,0,0,1,1,1,1,1,1,1,1,1,1,1,0,0,0,0,1,-2,-3,-4,-4,-5,-5,-4,-4,-2,-2,-2,-5,-5,-4,-2,-2,-2,-2,-3,-5
delta_CURRENTGOLD,0,45,545,387,646,-487,-1679,-1129,12,1610,-436,-1558,-213,-827,-2077,-168,956,1105,-1279,-3207,-428,-1573,142,-496,-3988,29,3377,-162,624,-2749,699,849,-383,56,997,817,-172,-4678
delta_TOTALGOLD,0,45,545,387,446,333,316,496,687,605,134,267,512,123,-647,-338,486,94,-1829,-3322,-3403,-3590,-3868,-3956,-3811,-3565,-2037,-573,-861,-3155,-4055,-3055,-1998,-1957,-3714,-3891,-4881,-7168
delta_LEVEL,0,0,0,0,0,0,0,1,1,-1,2,0,1,-2,0,0,2,0,-2,-2,-2,-3,-1,-2,-2,0,-1,2,2,0,-2,1,0,1,0,-1,-1,-3
delta_SBIRES,0,0,-1,-8,-8,-13,-15,-15,-7,-19,-29,-32,-32,-33,-50,-55,-51,-53,-71,-68,-51,-60,-60,-61,-72,-68,-50,-45,-42,-57,-54,-36,-23,-15,-5,-11,-14,-26
