name,frame_0,frame_1,frame_2,frame_3,frame_4,frame_5,frame_6,frame_7,frame_8,frame_9,frame_10,frame_11,frame_12,frame_13,frame_14,frame_15,frame_16,frame_17,frame_18,frame_19,frame_20,frame_21
nameStamp,Tstart,Tearly,Tearly,Tearly,Tearly,Tearly,Tearly,Tearly,Tearly,Tearly,Tearly,Tearly,Tmid,Tmid,Tmid,Tmid,Tmid,Tmid,Tmid,Tmid,Tmid,Tmid
timestamp,0,60016,120043,180065,240087,300110,360135,420161,480185,540214,600233,660257,720280,780311,840331,900354,960385,1020415,1080442,1140475,1200500,1260500
participant_0_GOLD,500,500,621,948,1233,1953,2211,2718,2996,3258,3571,4697,5892,6229,7248,7660,8894,9423,9672,9969,10691,10783
participant_0_CURRENTGOLD,500,0,121,448,733,1453,311,818,1096,33,346,672,1217,1554,547,960,2194,133,382,679,1402,208
participant_0_LEVEL,1,1,2,3,3,4,4,5,6,6,6,7,9,9,10,11,12,12,12,13,13,13
participant_0_MINIONSKILLED,0,0,0,0,0,1,1,1,2,2,2,7,10,10,13,13,24,27,27,27,32,32
participant_0_KILLS,0,0,0,0,0,1,1,2,2,2,2,3,6,6,9,9,12,14,14,14,14,14
participant_0_BUY,[],"[3340, 2031, 1041]",[],[],[],[],"[3715, 1042, 1001, 2055, 3364, 2055]",[],[],[1419],[],[3006],"[1036, 1042]",[],"[3144, 1043, 2055]",[],[],"[3153, 1043, 1037, 2055]",[],[],[],[3124]
participant_0_SOLD,[],[],[],[],[],[],"[1041, 3340]",[2055],[],"[1042, 3715]",[],"[3364, 3513, 1001]",[],[],"[2055, 1036, 1042]",[],[],"[3144, 1043, 2031]",[],[],[],"[1043, 1037]"
participant_0_UNDO,[],[],[],[],[],[],[],[],[],[],[],[],[],[],[],[],[],[],[],[],[],[]
participant_1_GOLD,500,500,556,895,1253,1571,1886,2304,2503,2625,3002,3438,3753,3875,4460,4837,5151,5533,5676,6562,6812,7004
participant_1_CURRENTGOLD,500,0,56,395,753,1071,1386,1804,2003,175,552,988,733,55,640,117,431,13,156,167,417,429
participant_1_LEVEL,1,1,1,2,3,4,5,5,6,6,7,7,8,8,9,9,9,10,10,11,11,11
participant_1_MINIONSKILLED,0,0,2,14,25,34,42,49,54,54,65,77,79,79,82,88,95,100,101,101,103,103
participant_1_KILLS,0,0,0,0,0,0,0,0,0,0,0,0,0,0,0,0,0,0,0,2,2,2
participant_1_BUY,[],"[1055, 2003, 3340]",[],[],[],[],[],[],[],"[1038, 1001, 1036]",[],[],[3133],[1018],[],"[3508, 3006]",[],[1031],[],[1037],[],[]
participant_1_SOLD,[],[],[],[],[],[],[],[],[],[],[],[],"[2003, 1036, 1055]",[],[],"[1038, 3133, 1018, 1001]",[],[],[],[],[],[]
participant_1_UNDO,[],[],[],[],[],[],[],[],[],[],[],[],[],[],[],[],[],[],[],[],[],[]
participant_2_GOLD,500,500,523,692,901,1110,1346,1638,1772,1906,2090,2288,2501,2645,2987,3127,3328,3812,4064,4653,5193,5391
participant_2_CURRENTGOLD,500,0,23,192,401,610,846,1138,97,231,415,613,176,320,662,227,428,912,1164,153,693,891
participant_2_LEVEL,1,1,1,2,3,3,4,4,4,4,5,6,6,6,7,7,7,7,8,9,9,9
participant_2_MINIONSKILLED,0,0,0,2,4,4,7,8,8,8,11,12,13,14,17,17,19,24,26,27,27,27
participant_2_KILLS,0,0,0,0,0,0,0,0,0,0,0,0,0,0,0,0,0,0,0,1,2,2
participant_2_BUY,[],"[3854, 2003, 2003, 3340]",[],[],[],[],[],[],"[3105, 2055, 3364]",[],[],[],"[1029, 1027]",[],[],"[3050, 2055]",[],[],[],"[3067, 1031]",[],[]
participant_2_SOLD,[],[],[],[],"[2010, 2003, 2003]",[],[2010],[2010],[3340],[2055],[],[],[],[],[3854],"[3105, 1027, 1029]",[2055],[],[],[],[],[]
participant_2_UNDO,[],[],[],[],[],[],[],[],[],[],[],[],[],[],[],[],[],[],[],[],[],[]
participant_3_GOLD,500,500,563,776,1050,1319,1676,2489,2612,3197,3952,4843,5021,5818,5940,6537,7531,7704,8016,8879,10163,10494
participant_3_CURRENTGOLD,500,0,63,276,550,819,1176,1989,312,897,1652,2543,321,1118,390,987,1981,104,416,1279,2563,2894
participant_3_LEVEL,1,1,1,3,4,5,6,7,7,8,9,10,10,11,11,11,12,12,12,13,14,14
participant_3_MINIONSKILLED,0,0,2,7,13,18,29,33,33,43,53,58,61,68,68,73,77,77,78,92,103,103
participant_3_KILLS,0,0,0,0,0,0,0,2,2,3,4,4,4,6,6,7,9,9,9,9,12,13
participant_3_BUY,[],"[1054, 2003, 3340]",[],[],[],[],[],[],"[3136, 1029]",[],[],[],"[3151, 3047]",[],[1026],[],[],"[3116, 1029]",[],[],[],[]
participant_3_SOLD,[],[],[],[],[],[],[],[],[],[2003],[],[],"[3136, 1029]",[],[],[],[],[1026],[3340],[3513],[],[]
participant_3_UNDO,[],[],[],[],[],[],[],[],[],[],[],[],[],[],[],[],[],[],[],[],[],[]
participant_4_GOLD,500,500,591,755,1053,1752,1976,2447,2657,3159,3473,4016,4489,4915,5345,5873,6340,6596,6844,7573,8231,8423
participant_4_CURRENTGOLD,500,0,91,255,553,1252,426,897,1107,1609,323,866,1339,715,1145,138,605,496,744,1473,2131,2323
participant_4_LEVEL,1,1,1,3,4,5,5,6,6,7,8,9,10,10,11,11,12,12,12,13,13,13
participant_4_MINIONSKILLED,0,0,4,6,16,20,23,26,30,36,44,49,56,61,71,77,84,88,96,101,111,111
participant_4_KILLS,0,0,0,0,0,1,1,2,2,3,3,4,4,5,5,6,6,6,6,7,7,7
participant_4_BUY,[],"[1054, 2003, 3340]",[],[],[],[],[3145],[],[],[],[3144],[],[],"[3146, 1001]",[],"[3020, 1052, 1029]",[],[3191],[],[],[],[]
participant_4_SOLD,[],[],[],[],[],[],[],[],[],[],[],[],[],"[3144, 3145]",[],[1001],[],"[1029, 1052]",[],[],[2003],[]
participant_4_UNDO,[],[],[],[],[],[],[],[],[],[],[],[],[],[],[],[],[],[],[],[],[],[]
participant_5_GOLD,500,500,584,892,1162,1487,1837,2029,2151,2372,2585,2909,3283,3497,3769,4073,4196,5318,5455,5919,6062,6104
participant_5_CURRENTGOLD,500,0,84,392,662,987,1337,1529,101,322,235,559,183,397,669,973,96,718,855,219,362,404
participant_5_LEVEL,1,1,1,2,3,4,4,5,5,6,6,6,7,7,7,8,8,9,9,9,10,10
participant_5_MINIONSKILLED,0,0,3,11,20,29,39,43,43,49,54,62,65,71,75,82,82,82,83,85,86,86
participant_5_KILLS,0,0,0,0,0,0,0,0,0,0,0,0,0,0,0,0,0,1,1,2,2,2
participant_5_BUY,[],"[1055, 2003, 3340]",[],[],[],[],[],[],"[1053, 1042, 1036]",[],[1042],[],"[3144, 1043]",[],[],[],"[3153, 1042]",[3006],[],"[1018, 1042]",[],[]
participant_5_SOLD,[],[],[],[],[],[],[],[2003],[],[],[],[],"[1053, 1036, 1042, 1042]",[],[],[],"[3144, 1043]","[1042, 2422]",[],[],[],[]
participant_5_UNDO,[],[],[],[],[],[],[],[],[],[],[],[],[],[],[],[],[],[],[],[],[],[]
participant_6_GOLD,500,500,544,759,908,1119,1341,1510,1644,1828,2039,2195,2804,2965,3288,3533,3722,3863,4003,4645,4921,4969
participant_6_CURRENTGOLD,500,0,44,259,408,619,841,1010,269,453,664,820,129,290,313,558,747,288,428,1070,546,594
participant_6_LEVEL,1,1,1,2,3,4,4,5,5,5,6,7,7,7,8,8,8,8,8,9,10,10
participant_6_MINIONSKILLED,0,0,1,3,4,6,8,10,10,13,17,18,20,21,23,25,28,28,28,29,35,35
participant_6_KILLS,0,0,0,0,0,0,0,0,0,0,0,0,1,1,1,1,1,1,1,2,2,2
participant_6_BUY,[],"[3858, 2003, 2003, 3340]",[],[],[],[],[],[],"[3028, 2055]",[],[],[],[],[3174],[1001],[3364],[],[3009],[],[],[3114],[]
participant_6_SOLD,[],[],[],[],[],[],[],[],[],[],[2055],[],[3858],[3028],[],[3340],[],[1001],[],[2003],[],[]
participant_6_UNDO,[],[],[],[],[],[],[],[],[],[],[],[],[],[],[],[],[],[],[],[],[],[]
participant_7_GOLD,500,500,584,892,1169,1424,1652,1966,2241,2490,2738,2999,3163,4034,4343,4507,4658,4829,5084,5328,5451,5492
participant_7_CURRENTGOLD,500,500,84,392,669,224,452,766,141,390,638,899,193,884,1193,307,458,629,884,1128,51,92
participant_7_LEVEL,1,1,1,3,4,5,6,6,7,7,8,8,9,9,10,10,10,10,10,10,11,11
participant_7_MINIONSKILLED,0,0,3,11,20,26,33,41,47,54,62,67,70,73,81,83,85,88,96,101,101,101
participant_7_KILLS,0,0,0,0,0,0,0,0,0,0,0,0,0,1,1,1,1,1,1,1,1,1
participant_7_BUY,[],[],"[1054, 2003, 3340]",[],[],"[1036, 1036]",[],[],[3144],[],[],[],"[1052, 1052]",[3145],[],"[3146, 1001]",[],[],[],[],"[3020, 1028]",[]
participant_7_SOLD,[],[],[],[],[],[2003],[],[],"[1036, 1036]",[],[],[],[],"[1052, 1052]",[],"[3144, 3145]",[],[],[],[],[1001],[]
participant_7_UNDO,[],[],[],[],[],[],[],[],[],[],[],[],[],[],[],[],[],[],[],[],[],[]
participant_8_GOLD,500,500,682,1013,1318,1456,1684,1891,2211,2456,2763,3156,3781,4152,4374,5251,5429,5737,6096,6286,6471,6513
participant_8_CURRENTGOLD,500,0,182,513,818,56,284,141,461,706,713,1106,331,702,234,211,389,297,656,846,81,63
participant_8_LEVEL,1,1,2,3,4,4,4,4,5,5,6,7,7,8,8,9,9,9,10,10,10,10
participant_8_MINIONSKILLED,0,0,0,0,0,0,0,0,0,0,0,2,4,4,4,5,8,8,11,12,16,16
participant_8_KILLS,0,0,0,0,0,0,0,0,0,0,0,0,1,1,1,3,3,3,3,3,3,3
participant_8_BUY,[],"[1041, 2031, 3340]",[],[],[],[3751],[],[1039],[],[],[3706],[],"[1401, 3111]",[],"[1028, 1036]","[3044, 1028]",[],[3067],[],[],[3071],[]
participant_8_SOLD,[],[],[],[],[],[],[],[],[],[],"[1039, 1041]",[],"[3751, 3706, 2422]",[],[2031],"[1028, 1036]",[],[1028],[],[],"[3044, 3067]",[]
participant_8_UNDO,[],[],[],[],[],[],[],[],[],[],[],[],[],[],[],[],[],[],[],[],[],[]
participant_9_GOLD,500,500,584,804,1011,1343,1522,1644,1843,2071,2249,2393,2718,2931,3054,3288,3425,3711,4056,4216,4450,4561
participant_9_CURRENTGOLD,500,0,84,304,511,843,1022,94,293,521,699,93,418,631,754,588,325,611,956,316,550,661
participant_9_LEVEL,1,1,1,3,3,5,5,6,6,7,7,7,8,8,8,9,9,10,10,10,11,11
participant_9_MINIONSKILLED,0,0,3,9,14,26,29,29,33,39,42,43,55,61,61,68,69,70,80,80,82,87
participant_9_KILLS,0,0,0,0,0,0,0,0,0,0,0,0,0,0,0,0,0,0,0,0,0,0
participant_9_BUY,[],"[1054, 2003, 3340]",[],[],[],[],[],"[1033, 1033, 2031]",[],[],[],"[1031, 3211]",[],[],[],[1028],[3067],[],[],[3065],[],[]
participant_9_SOLD,[],[],[],[2003],[],[],[],[],[],[],[],[1033],[],[],[],[],[1028],[],[],"[3211, 3067]",[],[]
participant_9_UNDO,[],[],[],[],[],[],[],[],[],[],[],"[[0, 1031]]",[],[],[],[],[],[],[],[],[],[]
team0_KILLS,0,0,0,0,0,2,2,6,6,8,9,11,14,17,20,22,27,29,29,33,37,38
team0_CURRENTGOLD,2500,0,354,1566,2990,5205,4145,6646,4615,2945,3288,5682,3786,3762,3384,2429,5639,1658,2862,3751,7206,6745
team0_TOTALGOLD,2500,2500,2854,4066,5490,7705,9095,11596,12540,14145,16088,19282,21656,23482,25980,28034,31244,33068,34272,37636,41090,42095
team0_LEVEL,5,5,6,13,17,21,24,27,29,31,35,39,43,44,48,49,52,53,54,59,60,60
team0_SBIRES,0,0,8,29,58,77,102,117,127,143,175,203,219,232,251,268,299,316,328,348,376,376
team1_KILLS,0,0,0,0,0,0,0,0,0,0,0,0,2,3,3,5,5,6,6,8,8,8
team1_CURRENTGOLD,2500,500,478,1860,3068,2729,3936,3540,1265,2392,2949,3477,1254,2904,3163,2637,2015,2543,3779,3579,1590,1814
team1_TOTALGOLD,2500,2500,2978,4360,5568,6829,8036,9040,10090,11217,12374,13652,15749,17579,18828,20652,21430,23458,24694,26394,27355,27639
team1_LEVEL,5,5,6,13,17,22,23,26,28,30,33,35,38,39,41,44,44,46,47,48,52,52
team1_SBIRES,0,0,10,34,58,87,109,123,133,155,175,192,214,230,244,263,272,276,298,307,320,325
delta_KILLS,0,0,0,0,0,2,2,6,6,8,9,11,12,14,17,17,22,23,23,25,29,30
delta_CURRENTGOLD,0,-500,-124,-294,-78,2476,209,3106,3350,553,339,2205,2532,858,221,-208,3624,-885,-917,172,5616,4931
delta_TOTALGOLD,0,0,-124,-294,-78,876,1059,2556,2450,2928,3714,5630,5907,5903,7152,7382,9814,9610,9578,11242,13735,14456
delta_LEVEL,0,0,0,0,0,-1,1,1,1,1,2,4,5,5,7,5,8,7,7,11,8,8
delta_SBIRES,0,0,-2,-5,0,-10,-7,-6,-6,-12,0,11,5,2,7,5,27,40,30,41,56,51
