name,frame_0,frame_1,frame_2,frame_3,frame_4,frame_5,frame_6,frame_7,frame_8,frame_9,frame_10,frame_11,frame_12,frame_13,frame_14,frame_15,frame_16,frame_17,frame_18,frame_19,frame_20,frame_21,frame_22,frame_23,frame_24,frame_25,frame_26,frame_27,frame_28,frame_29,frame_30,frame_31,frame_32,frame_33,frame_34,frame_35
nameStamp,Tstart,Tearly,Tearly,Tearly,Tearly,Tearly,Tearly,Tearly,Tearly,Tearly,Tearly,Tearly,Tearly,Tearly,Tearly,Tearly,Tmid,Tmid,Tmid,Tmid,Tmid,Tmid,Tmid,Tmid,Tmid,Tmid,Tmid,Tend,Tend,Tend,Tend,Tend,Tend,Tend,Tend,Tend
timestamp,0,60012,120045,180071,240092,300119,360139,420163,480177,540204,600219,660241,720271,780297,840317,900349,960375,1020400,1080422,1140453,1200472,1260494,1320512,1380541,1440564,1500595,1560614,1620641,1680650,1740659,1800681,1860699,1920711,1980728,2040743,2100743
participant_0_GOLD,500,500,584,885,1134,1354,2038,2366,3025,3329,3568,4025,4266,4578,4756,5026,5199,5518,5705,5876,6123,6711,6993,7166,7590,8090,8513,8799,9222,9394,9517,9667,9839,10677,10983,10996
participant_0_CURRENTGOLD,500,0,84,385,634,254,938,1266,75,304,543,1000,1241,1553,131,401,174,493,680,51,298,885,368,541,965,325,398,684,1107,430,552,702,175,1012,1318,1271
participant_0_LEVEL,1,1,1,3,4,4,6,6,7,8,8,8,9,9,10,10,10,11,11,11,11,12,12,12,12,12,13,13,14,14,14,14,14,15,16,16
participant_0_MINIONSKILLED,0,0,3,11,14,17,28,31,41,52,56,57,64,69,72,78,78,85,86,89,89,94,94,94,104,106,106,107,111,111,111,113,113,113,114,114
participant_0_KILLS,0,0,0,1,1,1,2,3,3,3,3,3,3,4,4,4,6,6,9,9,11,12,14,14,14,14,18,19,20,20,20,20,20,20,20,20
participant_0_BUY,[],"[1055, 2003, 3340]",[],[3070],[],[],[1037],[],[],"[3004, 1001, 1042, 2003, 2003]",[],[],[3006],[],[],"[1037, 1042, 1042]","[1043, 1052]","[3124, 2055]",[],"[3101, 1052, 1055, 2055, 2055]",[],[],[],"[3115, 1018]",[],[],[],"[3085, 3802]",[],[],[],[3285],[],[],[2140],[]
participant_0_SOLD,[],[],[],[2003],[],[],[],[],[],"[3070, 1037]",[2003],[2003],"[1001, 1042]",[],[],[],"[1042, 1042]","[1055, 1055, 1052, 1043, 1037]",[2055],[],[],[3004],[],"[3101, 2055, 2055]",[],[],[],"[1018, 1055]",[],[],[],[3802],[],[],[2140],[]
participant_0_UNDO,[],[],[],[],[],[],[],[],[],[],[],[],[],[],[],[],[],"[[1055, 0]]",[],"[[0, 1052]]",[],[],[],[],[],[],[],[],[],[],[],[],[],[],[],[]
participant_1_GOLD,500,500,621,928,1456,1633,2186,2792,3100,3577,3890,4321,4578,4942,5544,5738,5910,6202,6475,6902,7224,7886,8297,8707,9697,10074,10617,10789,10911,11193,11315,11744,12167,12589,13172,13185
participant_1_CURRENTGOLD,500,0,121,428,956,183,36,642,950,1427,215,646,403,767,1369,1563,185,477,750,1177,649,1311,399,459,149,527,1069,141,264,545,168,597,1019,592,1175,1127
participant_1_LEVEL,1,1,2,2,3,4,4,5,6,6,7,7,8,8,9,9,9,9,10,10,11,12,12,13,13,14,15,15,15,15,15,15,16,16,17,17
participant_1_MINIONSKILLED,0,0,0,0,0,0,1,1,1,1,1,1,1,2,2,3,3,3,3,3,3,7,10,10,12,12,12,12,12,17,17,21,21,21,25,25
participant_1_KILLS,0,0,0,1,1,1,1,1,1,1,1,2,2,2,2,2,3,3,3,3,3,4,4,4,4,5,5,5,5,5,5,5,5,6,6,6
participant_1_BUY,[],"[3850, 2003, 2003, 3340]",[],[],[],[],"[3108, 1004, 1004, 1004]",[],[],[],"[3174, 2055]",[],"[1004, 1052, 2055]",[],[],[3114],[3504],"[1004, 1004]",[],"[3114, 1006]",[],[],[],[3107],"[1052, 2055]",[],[],"[3108, 3113]",[],[3905],[],[],[1052],[],[],[]
participant_1_SOLD,[],[],[],[],[2003],[],[],[],[],[2003],"[3108, 1004, 1004]",[],[],[3850],[],"[1004, 1004]","[3114, 1052]",[],[],"[1004, 1004]",[2055],[],[3851],"[3114, 1006]",[],[2055],[],"[1052, 2055]",[],"[3108, 3113]",[],[],[],[],[],[]
participant_1_UNDO,[],[],[],[],[],[],[],[],[],[],[],[],[],[],[],[],[],[],[],[],[],[],[],[],[],[],[],[],[],[],[],[],[],[],[],[]
participant_2_GOLD,500,500,598,839,1357,1479,1810,2101,2377,2898,3174,3685,4005,4804,5215,6004,6450,6930,7402,7707,8640,8945,9289,9978,10927,11099,11904,12502,12925,13654,13776,14073,14819,15241,17418,17431
participant_2_CURRENTGOLD,500,0,98,339,857,129,460,751,1027,198,474,385,705,1504,365,1154,1600,2080,2552,2857,3790,162,506,1196,94,266,1072,700,1122,1852,324,620,67,489,2666,2498
participant_2_LEVEL,1,1,1,3,4,4,4,5,6,7,7,8,8,9,10,10,11,11,12,12,13,13,13,14,14,14,15,15,16,16,16,16,17,17,18,18
participant_2_MINIONSKILLED,0,0,4,11,23,23,26,36,45,51,61,62,70,82,87,96,105,110,113,116,128,136,143,151,158,158,162,162,162,168,168,174,180,180,182,182
participant_2_KILLS,0,0,0,0,0,0,0,0,0,1,1,2,2,3,3,3,3,4,4,4,5,5,5,5,6,6,6,8,9,10,10,10,11,11,16,16
participant_2_BUY,[],"[1055, 2003, 3340]",[],[],[],[3070],[],[],[],"[3057, 1001]",[],[3158],[],[],[3004],[],[],[],[],[],[],"[3078, 1053, 1036]",[],[],[3153],[],[],"[3123, 1036]",[],[],[3033],[],[3140],[],[],[]
participant_2_SOLD,[],[],[],[2003],[],[],[],[],[],[],[],[1001],[],[],[3070],[],[],[],[],[],[3004],[3057],[],[],"[1053, 1036]",[],[],[1055],[],[],"[1036, 3123]",[],[],[],[],[]
participant_2_UNDO,[],[],[],[],[],[],[],[],[],[],[],[],[],[],[],[],[],[],[],[],[],[],[],[],[],[],[],[],[],[],[],[],[],[],[],[]
participant_3_GOLD,500,500,584,1374,1693,1885,2364,3068,3448,3620,3889,4232,4445,5134,5592,5849,7082,7406,8788,9103,9948,10590,11429,11881,12109,12788,14528,15184,15778,16083,16205,16328,16521,17189,17692,17705
participant_3_CURRENTGOLD,500,0,84,24,343,535,138,843,1223,20,289,631,345,1034,1492,274,672,311,1693,308,1154,1795,2634,447,674,1354,3093,830,1424,1728,1851,73,267,935,938,350
participant_3_LEVEL,1,1,1,2,3,3,3,4,5,5,6,6,7,7,7,8,9,9,10,10,11,11,12,12,12,13,14,14,15,15,15,15,15,16,16,16
participant_3_MINIONSKILLED,0,0,3,9,20,24,27,40,52,55,64,68,73,81,92,97,103,111,120,120,125,127,133,142,142,152,155,155,159,163,163,163,164,164,167,167
participant_3_KILLS,0,0,0,0,1,1,2,3,3,3,3,3,3,3,4,4,4,4,4,4,4,5,6,6,8,8,8,8,8,8,8,8,8,8,8,8
participant_3_BUY,[],"[1041, 2031, 3340]",[],[],[],"[3706, 1001]","[1036, 1036]",[],[],[],"[1400, 1029, 1042]",[],[3047],[],[],[],"[3101, 1028, 1036]",[],[],[],"[3044, 1027]",[],"[3078, 1036]",[1036],"[3133, 1053]",[],[],[3105],[],[],[3812],[],[],"[1033, 1028]",[],[]
participant_3_SOLD,[],[],[],[],[],[1041],[],[],[],[],"[1036, 1036, 3706]",[],"[1001, 1029]",[],[],[],[1042],[],[],[3340],"[1028, 1036]",[3513],"[3101, 1027, 3044, 2031]",[],"[1036, 1036]",[],[],[],[],[],"[3105, 1053, 3133]",[],[],[],[],[]
participant_3_UNDO,[],[],[],[],[],[],[],[],[],[],[],[],[],[],[],[],[],[],[],[],[],[],[],[],[],[],[],[],[],[],[],[],[],[],[],[]
participant_4_GOLD,500,500,553,1258,1466,1631,1915,2229,2409,2603,2873,3381,3531,3969,4220,4425,5418,5558,6128,6269,6529,7119,7479,7685,7884,8424,9152,9342,9633,9973,10113,10270,10460,11201,11654,11669
participant_4_CURRENTGOLD,500,0,53,758,966,1131,140,454,634,828,73,581,95,534,785,440,368,258,828,269,529,1119,1479,535,224,764,1492,397,688,378,519,675,430,1171,1624,1609
participant_4_LEVEL,1,1,1,2,3,4,4,5,6,6,6,7,7,8,8,8,9,10,10,10,11,11,11,12,12,12,14,14,14,14,14,15,15,15,16,16
participant_4_MINIONSKILLED,0,0,0,2,4,4,4,4,4,4,8,9,9,9,9,9,9,9,9,9,9,9,10,11,11,11,11,11,11,11,11,11,11,11,11,11
participant_4_KILLS,0,0,0,0,0,0,1,1,1,1,1,2,2,2,2,2,2,2,2,2,2,2,2,2,2,2,2,2,2,2,2,2,2,3,3,3
participant_4_BUY,[],"[1054, 2003]",[],[],[],"[1033, 2055, 2031]",[],[],"[3211, 3111]",[2055],[],[],[],[],[3194],[],[1028],[],[],"[3067, 1028]",[],[],[3211],[],[],"[3065, 1028]",[1036],[],[],"[3044, 1027]",[],[],[3057],[],[],[]
participant_4_SOLD,[],[],[],[2003],[],[],[],[],[1033],[],[2055],[],[],[],[3211],[],[],[],[],[1028],[],[],[1028],[],[],"[3211, 3067, 2031]",[],[],[],"[1028, 1036]",[],[],[1027],[],[],[]
participant_4_UNDO,[],[],[],[],[],"[[0, 2055]]",[],[],[],[],[],[],[],[],[],[],[],[],[],[],[],[],[],[],[],[],[],[],[],[],[],[],[],[],[],[]
participant_5_GOLD,500,500,584,783,990,1322,1466,1794,1993,2235,2604,2983,3217,3529,4040,4375,4690,4917,5276,5733,6505,6884,7269,8587,10246,10689,10943,11162,11762,12280,14062,14332,14906,15398,15694,15707
participant_5_CURRENTGOLD,500,0,84,283,340,672,381,709,208,450,819,1198,1432,204,715,1050,265,492,851,1308,45,424,809,1662,2321,534,239,157,757,576,457,727,1302,543,839,632
participant_5_LEVEL,1,1,1,3,4,5,5,6,6,7,8,8,9,9,10,10,11,11,11,12,12,13,14,14,15,16,16,16,16,17,18,18,18,18,18,18
participant_5_MINIONSKILLED,0,0,3,7,12,24,25,34,39,46,57,58,65,73,83,87,94,100,110,121,121,139,146,153,166,181,185,186,201,212,232,237,241,254,260,260
participant_5_KILLS,0,0,0,1,1,1,1,1,1,1,1,1,1,1,1,1,1,1,1,1,1,1,1,1,2,2,2,3,3,3,3,3,4,4,4,5
participant_5_BUY,[],"[3858, 2003, 3340, 2003, 3854, 2003, 2003, 3340]",[],"[1001, 2003]","[2003, 2055]",[],"[1029, 1028]",[],[],[],"[1031, 2003, 2055]",[],[],[],[3109],[],[],[1029],[1031],[],[],[1057],[],[],"[2420, 3193]",[3117],[],[1029],[3024],[],[1029],[],[3082],[],[],[]
participant_5_SOLD,[],[],[],"[2010, 2003, 2003]",[2055],"[2010, 2003, 2003]",[],[2010],[],[],"[1029, 2055]",[],[2003],[],"[1028, 1031]",[3854],[],[],[1029],[],[],[],[],[],"[3855, 1031, 1057, 2420]",[1001],[],[],[1029],[],[],[],[1029],[],[],[]
participant_5_UNDO,[],"[[0, 2003], [3340, 0], [0, 2003], [0, 3858]]",[],[],[],[],[],[],[],[],[],[],[],[],[],[],[],[],[],[],[],[],[],[],[],[],[],[],[],[],[],[],[],[],[],[]
participant_6_GOLD,500,500,606,928,1318,1715,2183,2495,2802,3130,3336,3609,3841,4111,4519,5343,5659,5866,5988,6536,6808,7091,7213,7441,7614,8345,8553,8689,9060,9357,9770,10168,10481,10603,11045,11059
participant_6_CURRENTGOLD,500,0,106,428,818,1215,1683,245,552,880,1086,184,416,336,744,1568,1884,2091,13,561,833,366,488,216,389,1120,528,664,1035,32,446,293,606,729,1171,1184
participant_6_LEVEL,1,1,2,2,4,4,4,5,5,6,6,7,7,7,8,9,9,10,10,10,10,11,11,11,11,12,12,13,13,14,14,15,15,15,16,16
participant_6_MINIONSKILLED,0,0,0,0,0,5,5,5,5,6,12,12,12,17,17,22,30,30,30,30,30,36,36,42,42,44,44,45,54,60,63,63,66,66,66,66
participant_6_KILLS,0,0,0,0,0,0,1,1,1,1,1,1,1,1,1,2,2,2,2,3,3,3,3,3,3,4,4,4,4,4,4,4,4,4,5,5
participant_6_BUY,[],"[1039, 2031, 3340]",[],[],[],[],[],"[3133, 3706]",[],[],[],"[1400, 1001, 1036]",[],[1036],[],[],[],[],"[3133, 3134, 3142]",[],[],"[1036, 1028]",[],[3044],[],[],[3067],[],[],"[3071, 1036]",[],[1053],[],[],[],[]
participant_6_SOLD,[],[],[],[],[],[],[],[1039],[],[],[],"[3133, 3706]",[],[],[],[],[],[],"[1036, 1036, 3133, 3134]",[],[],[],[],"[1028, 1036]",[],[],[],[],[],"[3044, 3067]",[],[1036],[],[],[],[]
participant_6_UNDO,[],[],[],[],[],[],[],[],[],[],[],[],[],[],[],[],[],[],[],[],[],[],[],[],[],[],[],[],[],[],[],[],[],[],[],[]
participant_7_GOLD,500,500,626,941,1141,1617,1834,2103,2455,2627,2814,3264,3421,3627,3964,4233,5490,5612,5764,6104,6318,6441,6947,7070,7285,7567,7822,8740,10029,10452,11231,11614,12431,12553,12819,12832
participant_7_CURRENTGOLD,500,0,126,441,66,542,409,678,1030,177,364,414,571,777,1114,333,1590,427,579,919,218,341,847,970,1185,632,222,1140,429,447,1227,844,261,384,650,572
participant_7_LEVEL,1,1,1,3,3,4,4,5,6,6,7,7,7,7,8,8,9,9,9,10,10,10,10,11,11,11,11,13,13,13,14,14,15,15,15,15
participant_7_MINIONSKILLED,0,0,6,15,19,20,23,31,42,45,48,48,50,55,64,69,74,74,75,87,90,90,95,95,98,103,106,114,120,120,130,130,138,138,138,138
participant_7_KILLS,0,0,0,0,0,1,1,1,1,1,1,2,2,2,2,2,4,4,4,4,4,4,5,5,5,5,5,6,7,8,9,9,10,10,10,10
participant_7_BUY,[],"[1027, 2031, 3340]",[],[],"[3070, 2055]",[],[1027],[],[],"[3802, 2055]",[],[1028],[],[],[],[3003],[],"[1026, 1052]",[],[],[3116],[],[],[],[],"[1028, 1052]",[3136],[],"[1026, 3151, 1028]",[1052],[],[3916],[3165],[],[],[]
participant_7_SOLD,[],[],[],[],[1027],[],[],[],[],[1027],[],[],[],[],[],"[3070, 3802]",[],[],[],[],"[1026, 1052, 1028]",[],[3003],[2055],[],[],"[1028, 1052]",[],"[3136, 1026]","[2055, 2031]",[],"[1028, 1052]",[3916],[],[],[]
participant_7_UNDO,[],[],[],[],[],[],[],[],[],[],[],[],[],[],[],[],[],[],[],[],[],[],[],[],[],[],[],[],[],"[[2031, 0]]",[],[],[],[],[],[]
participant_8_GOLD,500,500,521,865,1149,1729,1967,2167,2533,3310,3850,4386,4529,4673,4963,5169,5292,5456,5663,5785,6333,6456,6653,7014,7576,7963,8134,8960,9276,9531,10213,10782,12074,12196,12945,12958
participant_8_CURRENTGOLD,500,100,121,65,349,929,1167,267,633,1410,650,1186,829,173,463,269,92,256,463,185,433,556,753,314,576,462,84,910,1226,1481,2163,132,1424,1547,845,858
participant_8_LEVEL,1,1,1,1,3,3,4,4,5,6,6,6,7,7,7,8,8,8,8,8,9,9,9,10,11,11,11,11,12,13,14,14,15,15,16,16
participant_8_MINIONSKILLED,0,0,0,6,15,21,22,27,38,46,52,59,60,61,71,76,76,79,85,85,96,96,96,106,119,126,129,131,134,141,148,159,170,170,177,177
participant_8_KILLS,0,0,0,0,0,0,0,0,0,0,0,0,0,0,0,0,0,0,0,0,1,1,1,2,3,3,3,3,3,3,5,5,6,6,6,6
participant_8_BUY,[],"[1056, 2003, 2003, 3340]",[],[],[2031],[],[1052],[],"[1028, 1001]",[],[],[],[],"[3136, 3020, 2055]",[],[],[3101],[],[],[],"[3151, 3364, 1052]",[],[],[3108],[3115],"[3916, 1026]",[3165],[1042],[],[1043],[3091],[],[],[1058],[],[]
participant_8_SOLD,[],[],[],[2003],[2003],[],[],[],[],[],[],[],[],"[1028, 1052, 1001]",[],[2055],[],[],[],[],"[3136, 3340]",[],[],[1052],"[3101, 3108]","[2031, 1056]","[3916, 1026]",[],[],[1042],[1043],[],[],[],[],[]
participant_8_UNDO,[],[],[],[],[],[],[],[],[],[],[],[],[],[],[],[],[],[],[],[],[],[],[],[],[],[],[],[],[],[],[],[],[],[],[],[]
participant_9_GOLD,500,500,565,1020,1155,1495,1705,1909,2092,2377,2546,2839,3050,3284,3432,3626,3865,4005,4145,4520,4849,5080,5255,5507,6548,6688,6843,7433,7573,7714,8041,8253,8794,8934,9075,9990
participant_9_CURRENTGOLD,500,0,65,170,180,520,30,234,417,702,246,539,750,984,132,326,565,405,45,420,749,260,435,687,748,188,343,633,173,314,341,553,394,535,675,1590
participant_9_LEVEL,1,1,1,2,2,3,3,4,5,5,6,7,7,7,8,8,8,8,8,9,9,9,10,10,11,11,11,12,12,13,13,13,14,14,14,15
participant_9_MINIONSKILLED,0,0,2,3,3,6,6,10,13,13,15,16,21,23,24,27,29,29,29,33,34,35,37,39,39,39,40,40,40,40,40,41,43,43,43,43
participant_9_KILLS,0,0,0,0,0,1,1,1,1,2,3,4,4,4,4,4,4,4,4,4,4,4,4,4,4,4,4,5,5,5,6,6,8,8,9,9
participant_9_BUY,[],"[1036, 2003, 3340]",[],"[1001, 2003, 2003]",[],[],[],"[2015, 1042, 2003, 2003]",[],[],[1038],[],[3006],[1018],[],[3095],[1042],[],[],[2015],[1042],[],[],[1018],[3086],[3094],[1053],[],[],[],[],[3072],[],[],[3035],[]
participant_9_SOLD,[],[],[],[2003],[],[2003],[],[2003],[2003],[2003],[],[],"[1001, 1042]",[],[],"[1038, 1018, 2015]",[],[],[],[1042],[],[],[],[],"[1018, 1042]","[3086, 2015]",[1036],[],[],[],[],[1053],[],[],[],[]
participant_9_UNDO,[],[],[],[],[],[],[],[],[],[],[],[],[],[],[],[],[],[],[],[],[],[],[],[],[],[],[],[],[],[],[],[],[],[],[],[]
team0_KILLS,0,0,0,2,3,3,6,8,8,9,9,12,12,14,15,15,18,19,22,22,25,28,31,31,34,35,39,42,44,45,45,45,46,48,53,53
team0_CURRENTGOLD,2500,0,440,1934,3756,2232,1712,3956,3909,2777,1594,3243,2789,5392,4142,3832,2999,3619,6503,4662,6420,5272,5386,3178,2106,3236,7124,2752,4605,4933,3414,2667,1958,4199,7721,6855
team0_TOTALGOLD,2500,2500,2940,5284,7106,7982,10313,12556,14359,16027,17394,19644,20825,23427,25327,27042,30059,31614,34498,35857,38464,41251,43487,45417,48207,50475,54714,56616,58469,60297,60926,62082,63806,66897,70919,70986
team0_LEVEL,5,5,6,12,17,19,21,25,30,32,34,36,39,41,44,45,48,50,53,53,57,59,60,63,63,65,71,71,74,74,74,75,77,79,83,83
team0_SBIRES,0,0,10,33,61,68,86,112,143,163,190,197,217,243,262,283,298,318,331,337,354,373,390,408,427,439,446,447,455,470,470,482,489,489,499,499
team1_KILLS,0,0,0,1,1,3,4,4,4,5,6,8,8,8,8,9,11,11,11,12,13,13,14,15,17,18,18,21,22,23,27,27,32,32,34,35
team1_CURRENTGOLD,2500,100,502,1387,1753,3878,3670,2133,2840,3619,3165,3521,3998,2474,3168,3546,4396,3671,1951,3393,2278,1947,3332,3849,5219,2936,1416,3504,3620,2850,4634,2549,3987,3738,4180,4836
team1_TOTALGOLD,2500,2500,2902,4537,5753,7878,9155,10468,11875,13679,15150,17081,18058,19224,20918,22746,24996,25856,26836,28678,30813,31952,33337,35619,39269,41252,42295,44984,47700,49334,53317,55149,58686,59684,61578,62546
team1_LEVEL,5,5,6,11,16,19,20,24,27,30,33,35,37,37,41,43,45,46,46,49,50,52,54,56,59,61,61,65,66,70,73,74,77,77,79,80
team1_SBIRES,0,0,11,31,49,76,81,107,137,156,184,193,208,229,259,281,303,312,329,356,371,396,410,435,464,493,504,516,549,573,613,630,658,671,684,684
delta_KILLS,0,0,0,1,2,0,2,4,4,4,3,4,4,6,7,6,7,8,11,10,12,15,17,16,17,17,21,21,22,22,18,18,14,16,19,18
delta_CURRENTGOLD,0,-100,-62,547,2003,-1646,-1958,1823,1069,-842,-1571,-278,-1209,2918,974,286,-1397,-52,4552,1269,4142,3325,2054,-671,-3113,300,5708,-752,985,2083,-1220,118,-2029,461,3541,2019
delta_TOTALGOLD,0,0,38,747,1353,104,1158,2088,2484,2348,2244,2563,2767,4203,4409,4296,5063,5758,7662,7179,7651,9299,10150,9798,8938,9223,12419,11632,10769,10963,7609,6933,5120,7213,9341,8440
delta_LEVEL,0,0,0,1,1,0,1,1,3,2,1,1,2,4,3,2,3,4,7,4,7,7,6,7,4,4,10,6,8,4,1,1,0,2,4,3
delta_SBIRES,0,0,-1,2,12,-8,5,5,6,7,6,4,9,14,3,2,-5,6,2,-19,-17,-23,-20,-27,-37,-54,-58,-69,-94,-103,-143,-148,-169,-182,-185,-185
