name,frame_0,frame_1,frame_2,frame_3,frame_4,frame_5,frame_6,frame_7,frame_8,frame_9,frame_10,frame_11,frame_12,frame_13,frame_14,frame_15,frame_16,frame_17,frame_18,frame_19,frame_20,frame_21,frame_22,frame_23,frame_24,frame_25,frame_26,frame_27,frame_28,frame_29
nameStamp,Tstart,Tearly,Tearly,Tearly,Tearly,Tearly,Tearly,Tearly,Tearly,Tearly,Tearly,Tearly,Tearly,Tearly,Tmid,Tmid,Tmid,Tmid,Tmid,Tmid,Tmid,Tmid,Tmid,Tmid,Tmid,Tmid,Tmid,Tmid,Tend,Tend
timestamp,0,60018,120022,180049,240073,300077,360089,420131,480139,540148,600159,660159,720190,780191,840192,900200,960204,1020224,1080236,1140261,1200279,1260295,1320317,1380332,1440363,1500367,1560369,1620377,1680381,1740381
participant_0_GOLD,500,500,520,720,871,993,1436,1572,1805,1927,2691,2894,3817,4110,4489,4611,5000,5780,5923,6236,6528,6884,7030,7897,8019,8436,8618,9111,9233,9296
participant_0_CURRENTGOLD,500,0,20,220,371,493,936,272,505,192,956,24,947,260,639,361,750,1530,188,501,378,734,90,72,194,146,328,221,343,346
participant_0_LEVEL,1,1,1,2,3,4,5,5,6,6,7,7,8,9,9,9,10,10,10,10,11,11,11,12,12,13,13,13,13,13
participant_0_MINIONSKILLED,0,0,0,4,6,6,6,7,9,9,16,16,23,24,30,30,36,40,41,43,43,47,48,48,48,48,50,50,50,50
participant_0_KILLS,0,0,0,0,0,0,1,1,1,1,2,2,4,4,4,4,4,5,5,5,5,5,5,7,7,8,8,9,9,9
participant_0_BUY,[],"[1056, 2003, 2003, 3340]",[],[],[],[],[],"[1027, 1001, 2031]",[],[1052],[],"[3057, 1052]",[],"[3145, 3020]",[],[1028],[],[],"[3152, 1052]",[],[3113],[],[1026],"[3100, 1052]",[],[3108],[],[2420],[],[]
participant_0_SOLD,[],[],[],[],"[2003, 2003]",[],[],[],[],[],[],[1027],[],"[1052, 1052, 1001]",[],[],[],[],"[3145, 1028]",[],[1052],[],[2031],"[3057, 3113, 1026]",[],[1052],[],[],[2420],[]
participant_0_UNDO,[],[],[],[],[],[],[],[],[],[],[],[],[],[],[],[],[],[],[],[],[],[],[],[],[],[],[],[],[],[]
participant_1_GOLD,500,500,632,1015,1315,1793,2264,2595,2906,3519,3928,4560,4889,5482,5879,6002,6763,7248,7489,7924,8159,8961,9215,9353,9853,10086,10577,10779,11034,11097
participant_1_CURRENTGOLD,500,0,132,515,815,1293,1764,45,356,144,553,1185,1514,357,754,876,1638,2123,2364,2799,584,1386,1640,278,778,1011,452,655,909,972
participant_1_LEVEL,1,1,2,3,3,4,5,5,6,6,7,8,9,9,10,10,11,11,11,12,12,13,13,13,13,13,14,14,14,14
participant_1_MINIONSKILLED,0,0,0,0,0,0,1,4,4,5,5,6,15,15,16,16,22,23,24,29,29,30,30,30,35,35,42,43,44,44
participant_1_KILLS,0,0,0,0,0,0,0,0,0,1,1,1,1,2,2,2,3,3,3,3,3,4,4,4,4,4,4,4,4,4
participant_1_BUY,[],"[1039, 2031, 3340]",[],[],[],[],[],"[3706, 1001, 3133, 3364]",[],"[1400, 1029]",[],[],[],"[3047, 3044]",[],[],[],[],[],[],"[3071, 1036, 1036]",[],[],"[3133, 3134]",[],[],"[3142, 1036]",[],[],[]
participant_1_SOLD,[],[],[],[],[],[],[],"[1039, 3340]",[],"[3133, 3706]",[],[],[],"[1001, 1029]",[],[],[],[],[],[],[3044],[],[],"[1036, 1036]",[],[],"[3133, 3134]",[],[],[]
participant_1_UNDO,[],[],[],[],[],[],[],[],[],[],[],[],[],[],[],[],[],[],[],[],[],[],[],[],[],[],[],[],[],[]
participant_2_GOLD,500,500,562,755,1043,1709,1853,2258,3093,3215,3562,4268,4482,4871,5368,5895,6045,6855,7137,7548,7840,8314,8465,8629,8863,8986,9542,9714,10178,10241
participant_2_CURRENTGOLD,500,0,62,255,543,1209,153,558,1393,115,462,1168,132,521,1018,1212,212,1022,1304,1715,282,756,907,6,241,63,269,92,555,378
participant_2_LEVEL,1,1,1,2,3,4,5,6,7,7,8,9,9,9,10,11,11,11,11,12,12,13,13,13,13,13,14,14,14,14
participant_2_MINIONSKILLED,0,0,2,6,13,23,24,37,49,49,60,66,71,83,92,98,100,109,114,122,122,133,135,137,137,137,138,138,149,149
participant_2_KILLS,0,0,0,0,0,1,1,1,2,2,2,3,3,3,3,4,4,4,4,4,4,4,4,4,4,4,5,5,5,5
participant_2_BUY,[],"[1055, 2003, 3340]",[],[],[],[],"[3057, 2031]",[],[],"[1001, 3101]",[],[],[3044],[],[],[],"[3078, 3047, 1036]",[],[],[],"[3052, 1037]",[],[],"[3053, 1028, 3053]",[],[1042],[1036],"[1042, 1043]",[],[]
participant_2_SOLD,[],[],[],[2003],[],[],[],[],[],[],[],[],[],[],[],[],"[3101, 3057, 3044, 1001]",[],[3340],[],[1036],[],[3513],"[1055, 3052, 1037, 2031, 3052, 1037, 1028]",[],[],[],"[1042, 1042]",[],[]
participant_2_UNDO,[],[],[],[],[],[],[],[],[],[],[],[],[],[],[],[],[],[],[],[],[],[],[],"[[0, 3053], [1055, 0]]",[],[],[],"[[0, 1036]]",[],[]
participant_3_GOLD,500,500,583,741,1053,1294,1529,1693,2396,2804,3631,4048,4511,4633,5176,5432,6617,7322,7479,7923,8666,9160,9568,9902,10248,10484,10981,11801,11951,12015
participant_3_CURRENTGOLD,500,0,83,141,453,694,929,43,746,719,1121,1538,36,158,701,457,1642,2347,304,748,91,585,94,427,353,590,1086,1107,457,340
participant_3_LEVEL,1,1,1,1,2,3,4,4,5,6,6,7,7,7,8,8,9,9,10,10,10,11,11,12,12,13,13,14,14,14
participant_3_MINIONSKILLED,0,0,3,5,15,22,29,31,45,52,56,65,65,65,76,80,84,93,95,100,100,112,124,126,139,140,153,165,167,167
participant_3_KILLS,0,0,0,0,0,0,0,0,1,1,2,2,2,2,2,2,3,3,3,3,5,5,5,5,5,5,5,5,5,5
participant_3_BUY,[],"[1055, 2003, 3340]",[],"[2003, 2003]",[],[],[],"[1043, 2003]",[],[1052],"[1001, 2055, 2003]",[],"[3124, 1042]",[],[],[3006],[],[],"[3144, 1042, 1042]",[],"[3153, 1042]",[],[3086],[],"[1042, 1042]",[],[],[3085],[1018],[]
participant_3_SOLD,[],[],[],[2003],[],[],"[2003, 2003]",[],[],[],[],"[2003, 2055, 2003]","[1052, 1043]",[],[],"[1001, 1042]",[],[],[],[],"[3144, 1042, 1042]",[],[1042],[],[1055],[],[],"[1042, 3086, 1042]",[],[]
participant_3_UNDO,[],[],[],[],[],[],[],[],[],[],[],[],[],[],[],[],[],[],[],[],[],[],[],[],[],[],[],[],[],[]
participant_4_GOLD,500,500,611,1166,1415,1656,1905,2188,2373,2721,3062,3353,3552,4190,4499,4705,5130,5813,5963,6549,6809,8022,8220,8662,8785,8928,9050,9606,9728,9791
participant_4_CURRENTGOLD,500,0,111,666,915,256,5,288,73,121,62,353,102,740,479,685,1110,913,188,774,1034,1227,200,292,415,208,331,336,458,241
participant_4_LEVEL,1,1,1,3,4,4,5,6,6,7,7,8,8,9,9,9,10,10,11,11,11,12,12,12,12,13,13,14,14,14
participant_4_MINIONSKILLED,0,0,5,11,18,25,32,42,46,51,61,71,75,86,94,99,112,117,119,124,132,132,135,135,135,136,136,140,140,140
participant_4_KILLS,0,0,0,1,1,1,1,1,1,1,1,1,1,1,1,1,1,1,1,1,1,3,3,4,4,4,4,5,5,5
participant_4_BUY,[],"[1055, 2003, 3340]",[],[],[],"[1001, 1042, 1042]",[3006],[],[1051],[1042],[1043],[],"[1042, 1033]",[],"[1057, 1042]",[],[],[3091],[1037],[],[],[1038],[3031],[1036],[],[1036],[],[1053],[],[]
participant_4_SOLD,[],[],[],[2003],[],[],"[1001, 1042]",[],[],[],"[1042, 1042]",[],[],[],[1033],[],[],"[1043, 1057, 1042]",[],[],[],[1051],"[1038, 1037]",[],[],[],[],[1036],[],[]
participant_4_UNDO,[],[],[],[],[],[],[],[],[],[],[],[],"[[0, 1042]]",[],[],[],[],[],[],[],[],[],[],[],[],[],[],[],[],[]
participant_5_GOLD,500,500,555,903,1128,1303,1460,1594,1728,2013,2293,2600,2968,3785,4017,4553,4687,4843,5242,5442,5723,5880,6014,6149,6454,6685,6820,7468,7800,8273
participant_5_CURRENTGOLD,500,0,55,403,628,803,960,244,378,663,393,700,143,960,1192,1728,212,368,767,167,198,355,489,623,279,110,245,73,404,538
participant_5_LEVEL,1,1,1,2,3,4,4,4,5,5,5,6,7,7,8,8,9,9,9,10,10,10,10,11,11,11,11,12,13,13
participant_5_MINIONSKILLED,0,0,0,0,0,1,1,1,1,1,1,1,1,4,4,5,5,6,7,7,7,7,7,7,8,8,8,9,9,11
participant_5_KILLS,0,0,0,0,0,0,0,0,0,0,0,0,0,0,0,1,1,1,1,1,1,1,1,1,1,1,1,1,1,1
participant_5_BUY,[],"[3303, 2003, 2003, 3340]",[],[],[],[],[],"[3098, 1004, 1004, 2031]",[],[],[3114],[],"[3113, 2055]",[],[],[],"[3504, 3158, 1028, 3364]",[],[],[3114],[3801],[],[],[],[3107],"[1028, 1028]",[],[3105],[],[]
participant_5_SOLD,[],[],[],[],[2010],[2003],[2003],[3303],[],[],"[1004, 1004]",[],"[2010, 2010]",[2055],[],[],"[3114, 3113, 2422, 3340]",[],[2010],[],[1028],[],[],[],"[2031, 3114, 3801]",[],[],[1028],[],[]
participant_5_UNDO,[],[],[],[],[],[],[],[],[],[],[],[],[],[],[],[],[],[],[],[],[],[],[],[],"[[2031, 0]]","[[0, 1028]]",[],[],[],[]
participant_6_GOLD,500,500,590,748,1296,1572,2071,2368,3064,3454,4091,4504,4823,5466,5837,6286,6444,6601,6823,7091,7903,8040,8813,9697,10031,10435,10621,11878,12586,13367
participant_6_CURRENTGOLD,500,0,90,148,696,272,771,168,864,204,841,54,373,216,587,1036,144,301,223,491,163,300,818,1702,321,725,476,68,777,1317
participant_6_LEVEL,1,1,1,2,4,5,6,7,8,8,9,9,10,10,11,11,11,11,12,12,12,12,13,14,14,15,15,16,16,17
participant_6_MINIONSKILLED,0,0,4,6,12,19,28,38,51,53,66,70,78,78,89,95,97,99,102,106,106,107,114,123,130,133,137,137,150,152
participant_6_KILLS,0,0,0,0,1,1,1,1,2,3,4,4,4,5,5,5,5,5,5,5,7,7,8,10,10,11,11,13,13,15
participant_6_BUY,[],"[1054, 2003, 3340]",[],"[2003, 2003]",[],"[1036, 1036]",[],[3144],[],[3145],[],"[3146, 1001, 2031]",[],[3020],[],[],[3057],[],[1029],[],"[3191, 1028]",[],[1052],[],[3100],[],[1052],"[3916, 3108]",[],[]
participant_6_SOLD,[],[],[],[2003],[2003],[],[2003],"[1036, 1036]",[],[],[],"[3144, 3145]",[],[1001],[],[],[],[],[],[],"[1029, 2031]",[],[1054],[],"[3057, 1052]",[],[],"[1028, 1052]",[],[]
participant_6_UNDO,[],[],[],[],[],[],[],[],[],[],[],[],[],[],[],[],[],[],[],[],[],[],[],[],[],[],[],[],[],[]
participant_7_GOLD,500,500,562,1312,1669,2008,2236,2662,2909,3471,3822,4113,4595,5034,5736,6262,6598,6880,7555,8004,8821,9437,9730,10372,11300,12024,12327,13309,14460,15092
participant_7_CURRENTGOLD,500,0,62,812,1169,1508,1736,2162,234,796,247,538,195,634,1336,1862,2198,280,955,304,1121,837,860,1502,1030,1754,857,240,1390,1842
participant_7_LEVEL,1,1,1,2,3,4,4,5,6,7,7,7,8,8,9,9,10,10,10,10,12,12,13,13,13,14,14,15,16,16
participant_7_MINIONSKILLED,0,0,2,12,20,30,36,51,55,63,68,78,83,83,86,91,99,105,114,125,133,139,139,145,151,153,159,159,166,169
participant_7_KILLS,0,0,0,1,1,1,1,1,1,2,2,2,3,3,4,5,5,5,6,6,8,9,9,10,11,12,12,13,15,16
participant_7_BUY,[],"[2003, 1054, 3340]",[],[],[],[],[],[],"[1038, 1037]",[],"[1018, 2003, 2003]",[],"[3031, 1051]",[],[],[],[],[3046],[],"[3006, 1042]",[],[3086],[1033],[],"[3155, 3094]",[],"[3155, 1036]",[3156],[],[]
participant_7_SOLD,[],[],[],[],[2010],[2003],[],[2010],[],[],[],[],"[1038, 1037, 1018]",[],[],[],[2010],[1051],[2010],[2422],[],[1042],[1054],[2003],"[1033, 3086, 2003]",[],[1033],"[3155, 1036]",[],[]
participant_7_UNDO,[],[],[],[],[],[],[],[],[],[],[],[],[],[],[],[],[],[],[],[],[],[],[],[],"[[0, 3155]]",[],[],[],[],[]
participant_8_GOLD,500,500,562,902,1116,1329,1693,1949,2127,2560,2787,2966,3313,3597,3776,4133,4312,4546,4893,5092,5341,5707,5851,5973,6165,6685,7149,7676,8118,8455
participant_8_CURRENTGOLD,500,0,62,402,616,179,543,799,77,510,737,266,613,397,576,933,112,346,693,892,441,807,951,73,265,785,749,876,618,955
participant_8_LEVEL,1,1,1,3,4,4,5,6,6,7,8,8,8,9,9,10,10,11,11,11,12,12,12,12,12,13,13,14,15,15
participant_8_MINIONSKILLED,0,0,2,15,20,26,37,45,49,64,69,73,83,89,92,100,103,110,112,116,123,133,134,134,138,142,144,146,152,154
participant_8_KILLS,0,0,0,0,0,0,0,0,0,0,0,0,0,0,0,0,0,0,0,0,0,0,0,0,0,1,2,2,2,2
participant_8_BUY,[],"[1055, 3340, 2003]",[],[],[],"[1036, 1001]",[],[],"[1053, 1036]",[],[],"[3144, 1042]",[],[3006],[],[],"[1043, 3363]",[],[],[],[3153],[],[],"[1051, 1042, 1042]",[],[],[3086],[1051],[3046],[]
participant_8_SOLD,[],[],[],[],[2003],[],[],[],[1036],[],[],"[1053, 1036]",[],"[1001, 1042]",[],[],[3340],[],[],[],"[3144, 1043]",[],[],[],[],[],"[1051, 1042]",[],"[1042, 3086, 1051]",[]
participant_8_UNDO,[],[],[],[],[],[],[],[],[],[],[],[],[],[],[],[],[],[],[],[],[],[],[],[],[],[],[],[],[],[]
participant_9_GOLD,500,500,620,903,1138,1462,2066,2348,2682,3237,3489,4268,4602,5828,6231,6938,7272,7581,7902,8188,8906,9319,10232,10599,10721,11023,11322,11919,12190,12303
participant_9_CURRENTGOLD,500,0,120,403,638,962,1566,23,357,912,1164,18,352,1578,1981,2688,172,481,802,1088,1806,2219,1117,359,482,783,1082,380,350,403
participant_9_LEVEL,1,1,2,2,3,3,4,5,6,6,7,8,8,9,9,10,10,10,11,11,12,13,13,13,13,14,14,15,15,15
participant_9_MINIONSKILLED,0,0,0,0,0,0,0,0,0,0,0,0,0,9,9,9,9,9,9,10,15,16,16,16,16,21,26,26,28,28
participant_9_KILLS,0,0,0,0,0,0,1,1,1,2,2,3,3,5,5,6,6,6,6,6,6,6,7,7,7,7,7,7,7,7
participant_9_BUY,[],"[1041, 2031, 3340]",[],[],[],[],[],"[3706, 3133, 2055]",[],[],[],"[1400, 3044, 2055, 2055]",[],[],[],[],"[3071, 3111]",[],[],[],[],[],"[3052, 1037]",[3053],[],[],[],[1038],[1029],[]
participant_9_SOLD,[],[],[],[],[],[],[],[1041],[2055],[],[],"[3133, 3706]",[],[2055],[],[],[3044],[],[],[],[],[],[2031],"[2055, 3052, 1037]",[],[],[],[],[],[]
participant_9_UNDO,[],[],[],[],[],[],[],[],[],[],[],[],[],[],[],[],[],[],[],[],[],[],[],[],[],[],[],[],[],[]
team0_KILLS,0,0,0,1,1,2,3,3,5,6,8,9,11,12,12,13,15,16,16,16,18,21,21,24,24,25,26,28,28,28
team0_CURRENTGOLD,2500,0,408,1797,3097,3945,3787,1206,3073,1291,3154,4268,2731,2036,3591,3591,5352,7935,4348,6537,2369,4688,2931,1075,1981,2018,2466,2411,2722,2277
team0_TOTALGOLD,2500,2500,2908,4397,5697,7445,8987,10306,12573,14186,16874,19123,21251,23286,25411,26645,29555,33018,33991,36180,38002,41341,42498,44443,45768,46920,48768,51011,52124,52440
team0_LEVEL,5,5,6,11,15,19,24,26,30,32,35,39,41,43,46,47,51,51,53,55,56,60,60,62,62,65,67,69,69,69
team0_SBIRES,0,0,10,26,52,76,92,121,153,166,198,224,249,273,308,323,354,382,393,418,426,454,472,476,494,496,519,536,550,550
team1_KILLS,0,0,0,1,2,2,3,3,4,7,8,9,10,13,14,17,17,17,18,18,22,23,25,28,29,32,33,36,38,41
team1_CURRENTGOLD,2500,0,389,2168,3747,3724,5576,3396,1910,3085,3382,1576,1676,3785,5672,8247,2838,1776,3440,2942,3729,4518,4235,4259,2377,4157,3409,1637,3539,5055
team1_TOTALGOLD,2500,2500,2889,4768,6347,7674,9526,10921,12510,14735,16482,18451,20301,23710,25597,28172,29313,30451,32415,33817,36694,38383,40640,42790,44671,46852,48239,52250,55154,57490
team1_LEVEL,5,5,6,11,17,20,23,27,31,33,36,38,41,43,46,48,50,51,53,54,58,59,61,63,63,67,67,72,75,76
team1_SBIRES,0,0,8,33,52,76,102,135,156,181,204,222,245,263,280,300,313,329,344,364,384,402,410,425,443,457,474,477,505,514
delta_KILLS,0,0,0,0,-1,0,0,0,1,-1,0,0,1,-1,-2,-4,-2,-1,-2,-2,-4,-2,-4,-4,-5,-7,-7,-8,-10,-13
delta_CURRENTGOLD,0,0,19,-371,-650,221,-1789,-2190,1163,-1794,-228,2692,1055,-1749,-2081,-4656,2514,6159,908,3595,-1360,170,-1304,-3184,-396,-2139,-943,774,-817,-2778
delta_TOTALGOLD,0,0,19,-371,-650,-229,-539,-615,63,-549,392,672,950,-424,-186,-1527,242,2567,1576,2363,1308,2958,1858,1653,1097,68,529,-1239,-3030,-5050
delta_LEVEL,0,0,0,0,-2,-1,1,-1,-1,-1,-1,1,0,0,0,-1,1,0,0,1,-2,1,-1,-1,-1,-2,0,-3,-6,-7
delta_SBIRES,0,0,2,-7,0,0,-10,-14,-3,-15,-6,2,4,10,28,23,41,53,49,54,42,52,62,51,51,39,45,59,45,36
