name,frame_0,frame_1,frame_2,frame_3,frame_4,frame_5,frame_6,frame_7,frame_8,frame_9,frame_10,frame_11,frame_12,frame_13,frame_14,frame_15,frame_16,frame_17,frame_18,frame_19,frame_20,frame_21,frame_22,frame_23,frame_24,frame_25,frame_26,frame_27,frame_28,frame_29,frame_30,frame_31
nameStamp,Tstart,Tearly,Tearly,Tearly,Tearly,Tearly,Tearly,Tearly,Tearly,Tearly,Tearly,Tearly,Tearly,Tearly,Tearly,Tmid,Tmid,Tmid,Tmid,Tmid,Tmid,Tmid,Tmid,Tmid,Tmid,Tmid,Tmid,Tmid,Tmid,Tmid,Tmid,Tend
timestamp,0,60013,120035,180055,240069,300087,360105,420123,480135,540161,600176,660193,720211,780236,840253,900269,960287,1020309,1080324,1140351,1200371,1260393,1320408,1380428,1440449,1500452,1560472,1620496,1680509,1740539,1800559,1860559
participant_0_GOLD,500,500,626,874,1183,1438,1921,2490,3121,3359,3630,3914,4427,4605,5742,6032,6518,7148,7634,8109,8365,8837,9023,9606,9728,10107,10341,10757,11140,11666,12089,12210
participant_0_CURRENTGOLD,500,0,126,374,683,103,586,1155,1786,334,605,889,1402,530,1667,1957,153,783,419,894,175,213,398,981,1104,632,867,1282,416,942,549,510
participant_0_LEVEL,1,1,1,3,4,5,6,6,7,8,8,9,10,10,10,10,11,12,12,13,13,13,13,14,14,14,14,14,15,15,15,16
participant_0_MINIONSKILLED,0,0,6,13,21,26,44,52,61,63,69,79,84,87,92,102,106,121,122,130,135,135,138,140,140,143,149,155,156,156,156,156
participant_0_KILLS,0,0,0,0,0,0,1,1,1,1,2,2,3,4,4,5,6,6,7,8,8,9,9,12,12,13,13,13,15,15,15,15
participant_0_BUY,[],"[1039, 2031]",[],[],[],[1043],[],[],[],"[1026, 1052, 1001]",[],"[3115, 1082]",[],[],"[3145, 3020]",[],[],[],[4636],[],[],[],[],"[3089, 3364]",[],[3057],[],[],[],[3041],[],[]
participant_0_SOLD,[],[],[],[],[],[],[],[],[],[],[1039],"[1043, 1026, 1052]",[],[3340],"[3513, 1001]",[],[],[],[3145],[],"[3340, 3513]",[],[],[3340],[],[2031],[],[],[],[1082],[],[]
participant_0_UNDO,[],[],[],[],[],[],[],[],[],[],[],[],[],[],[],[],[],[],[],[],[],[],[],[],[],[],[],[],[],[],[],[]
participant_1_GOLD,500,500,694,1036,1346,1658,2181,2563,2954,3326,3953,4311,4938,5524,6358,6970,7666,8220,8851,9449,10168,10820,11021,12043,12370,12902,13024,13353,14071,14244,14807,15103
participant_1_CURRENTGOLD,500,0,194,536,846,158,681,1063,1454,241,868,161,788,1374,358,970,1666,2220,701,1299,2018,2671,2871,93,421,313,435,763,1482,405,968,1203
participant_1_LEVEL,1,1,2,3,4,4,4,5,6,7,7,8,8,9,10,10,11,12,12,13,13,13,14,14,14,15,15,15,15,15,16,16
participant_1_MINIONSKILLED,0,0,0,0,0,0,0,0,1,6,6,6,6,7,10,10,10,10,10,10,11,11,11,11,11,11,11,12,13,13,14,17
participant_1_KILLS,0,0,0,0,0,0,0,0,0,0,0,0,1,1,1,1,1,1,2,2,2,2,2,2,2,2,2,2,2,2,2,3
participant_1_BUY,[],"[3850, 2003, 2003, 3340]",[],[],[],[],[],"[1027, 1052, 2055]",[],[],"[3802, 2055, 2031]",[],[],"[3108, 2055, 3364]","[3020, 2055]",[],[],[],[6653],[],[],[],"[3145, 2055, 2055]",[],[],[],[],[],"[1058, 2055, 2055]",[],[],[]
participant_1_SOLD,[],[],[],[],"[2003, 2003]",[],[],[2055],[],[3850],"[1052, 1027]",[2055],[],[3340],[2422],[],[],[3851],"[3802, 3108]",[],"[2055, 2055]",[],[2055],[],[],[],[],[2055],[2031],[2055],[],[]
participant_1_UNDO,[],[],[],[],[],[],[],[],[],[],[],[],[],[],[],[],[],[],[],[],[],[],[],[],[],[],[],[],[],[],[],[]
participant_2_GOLD,500,500,598,867,1154,1465,1843,2255,2503,2887,3264,3478,3851,4468,4911,5379,5682,6496,6987,7221,7499,7756,8073,8545,8667,8999,9191,9363,9775,10130,10652,10802
participant_2_CURRENTGOLD,500,0,98,367,654,955,1323,435,283,657,1034,273,646,63,496,964,167,981,1472,1706,1984,2241,368,840,962,1294,236,408,820,1175,448,477
participant_2_LEVEL,1,1,1,3,4,5,6,7,7,8,8,8,9,10,10,11,12,12,13,13,13,14,14,14,14,15,15,15,15,16,16,16
participant_2_MINIONSKILLED,0,0,4,13,23,32,44,52,60,72,78,84,90,101,113,125,131,147,154,161,168,169,177,180,180,189,193,193,196,196,196,198
participant_2_KILLS,0,0,0,0,0,0,0,0,0,0,0,1,2,3,3,3,5,7,7,7,7,7,7,7,7,9,9,10,11,11,11,11
participant_2_BUY,[],"[1055, 2003, 3340]",[],[],[],[],[],"[6670, 1001, 2055]","[2003, 2003]",[],[3006],[],[1037],[1018],[],"[6672, 2055, 2003, 2003]",[],[],"[1043, 1053, 3363]",[],[],[],"[3153, 6677, 1042]",[],[],[3124],[3123],[],[],"[3033, 2420]",[],[]
participant_2_SOLD,[],[],[],[2003],[],[],[],[],[],"[2055, 2003, 2003]",[1001],[],[],[],[],"[6670, 1018, 1037]","[2055, 2003]",[2003],[3340],[],[],[],"[1053, 1043]",[],[],"[6677, 1042]",[1055],[],[],[3123],[2420],[]
participant_2_UNDO,[],[],[],[],[],[],[],[],[],[],[],[],[],[],[],[],[],[],[],[],[],[],[],[],[],[],[],[],[],[],[],[]
participant_3_GOLD,500,500,563,881,1260,1571,2169,2417,2616,3032,3154,3870,4553,5016,5273,5619,6739,7845,8274,8606,9208,9856,10299,10695,11114,12109,12345,13442,14186,14555,15336,15565
participant_3_CURRENTGOLD,500,0,63,381,760,1071,1669,242,341,757,79,795,603,466,723,269,1389,2495,1024,1356,1958,2606,649,1046,1464,759,376,1473,2217,35,817,865
participant_3_LEVEL,1,1,1,2,3,4,5,5,5,6,6,6,7,7,8,8,9,10,11,11,11,12,12,13,13,14,14,15,16,16,17,17
participant_3_MINIONSKILLED,0,0,2,13,25,33,46,53,57,65,65,77,82,83,88,97,114,121,127,139,158,167,182,185,185,193,194,207,217,224,230,230
participant_3_KILLS,0,0,0,0,0,0,0,0,0,0,0,0,0,0,0,0,0,0,0,0,0,0,0,0,0,0,0,0,0,0,0,0
participant_3_BUY,[],"[1056, 2003, 2003]",[],[],[],[],[],[3802],"[1056, 1082, 2003]",[],[],"[3108, 2055]",[],[6653],[],[],"[3916, 1001, 3363]",[],[],[],[],[],"[3158, 1026, 1011]",[],[],[],[4637],[],[],[],[1058],[]
participant_3_SOLD,[],[],[],[],[],[2003],[],[],[],[],[2003],[2055],[],"[3802, 3108]",[],[2003],[3340],[],[],[],[],[],"[1001, 1056]",[],[],[],"[1026, 1011]",[],[],[],[],[]
participant_3_UNDO,[],[],[],[],[],[],[],[],"[[0, 1056]]",[],[],[],[],[],[],[],[],[],[],[],[],[],[],[],[],[],[],[],[],[],[],[]
participant_4_GOLD,500,500,523,737,972,1246,1381,1549,1765,2002,2182,2399,3310,3694,4095,4266,4555,5260,5739,5879,6130,6545,6685,6901,7232,7472,7670,7860,8126,8317,8758,9093
participant_4_CURRENTGOLD,500,0,23,237,472,746,881,189,405,642,82,299,1210,619,145,316,605,1311,589,729,980,1395,336,551,882,1122,1320,1511,436,628,1068,1343
participant_4_LEVEL,1,1,1,2,3,4,4,5,5,6,6,7,8,8,8,9,9,10,10,10,11,11,11,12,12,12,13,13,13,13,13,14
participant_4_MINIONSKILLED,0,0,0,0,0,0,0,1,4,5,5,8,13,14,14,16,16,16,16,16,17,17,17,17,24,27,30,30,30,30,30,32
participant_4_KILLS,0,0,0,0,0,0,0,1,2,2,2,2,3,3,4,4,5,5,5,5,5,6,6,7,7,7,7,7,7,8,8,8
participant_4_BUY,[],"[1056, 2003, 2003]",[],[],[],"[1052, 1028]",[],[],[],"[4635, 1026, 1001, 2055]",[],[],[],[4633],[],[],"[3020, 3916, 1026]",[],[3165],[],"[1011, 2055, 3363]",[1052],[],[],[],[1026],[],[],"[4637, 1052]",[],"[4630, 1026, 4630]",[]
participant_4_SOLD,[],[],[],[],[],[],[],[],[],"[1028, 1052]",[2003],[2055],[],"[4635, 1026]",[],[],"[1001, 1056]",[],"[1026, 3916]",[2003],[3340],[2055],[],[],[],[],[],[],"[1026, 1011, 1052]",[],"[1052, 1052]",[]
participant_4_UNDO,[],[],[],[],[],[],[],[],[],[],[],[],[],[],[],[],[],[],[],[],[],[],[],[],[],[],[],[],[],[],"[[0, 4630], [0, 1026]]",[]
participant_5_GOLD,500,500,563,832,1099,1431,1610,1966,2290,2497,3329,3578,4132,4757,5126,5486,6149,6369,7070,7640,7762,8205,8622,9229,9437,9764,9976,10099,10604,10825,11122,11268
participant_5_CURRENTGOLD,500,0,63,332,599,346,225,581,40,247,1079,478,1032,172,541,901,64,284,985,350,472,315,732,89,297,224,437,159,664,886,332,-17
participant_5_LEVEL,1,1,1,3,4,5,5,6,7,7,8,9,9,10,10,11,11,12,12,13,13,13,14,14,14,14,14,14,15,15,15,15
participant_5_MINIONSKILLED,0,0,2,10,16,26,29,40,49,54,64,71,78,86,99,109,113,119,127,136,136,136,144,145,145,145,146,146,160,166,172,172
participant_5_KILLS,0,0,0,0,0,0,0,0,0,0,0,1,1,1,2,2,2,2,2,2,2,3,3,3,3,3,3,3,3,3,3,3
participant_5_BUY,[],"[1035, 2031, 3364]",[],[1028],[],"[6660, 1029]",[],[2055],[],[],[],"[3105, 3068]",[],[1028],[],"[3211, 3009, 2055]",[],[],[],[3067],[],[3065],[1033],[1028],[],[1057],[1029],[],[3076],[],[],[]
participant_5_SOLD,[],[],[],[],[],[1028],[],[],[],"[1035, 2055]",[],"[1029, 2031, 6660, 3105]",[],[],[],"[1028, 2422]",[],[],[],[],[2055],"[3211, 3067]",[],[],[],[1033],[],[],[1029],[],[],[]
participant_5_UNDO,[],[],[],[],[],[],[],[],[],[],[],[],[],[],[],[],[],[],[],[],[],[],[],[],[],[],[],[],[],[],[],[]
participant_6_GOLD,500,500,706,1033,1453,1805,2128,2250,2615,3058,3330,3773,4102,4343,5261,5703,5826,5948,6375,6562,7187,7735,7937,8209,8618,8919,9264,9577,9699,9927,10618,10884
participant_6_CURRENTGOLD,500,0,206,133,553,5,328,375,740,1183,1455,58,387,228,1146,63,186,308,735,122,747,445,197,69,478,329,375,687,309,538,1228,1434
participant_6_LEVEL,1,1,2,3,4,5,5,5,6,7,7,8,8,8,9,10,10,10,11,11,12,12,12,12,13,13,14,14,14,14,15,15
participant_6_MINIONSKILLED,0,0,0,0,0,1,2,2,2,3,4,4,7,7,9,9,9,9,9,10,15,21,21,21,33,38,47,47,47,53,61,68
participant_6_KILLS,0,0,0,0,0,0,0,0,0,0,2,2,3,3,3,3,3,3,3,3,3,3,3,4,5,5,5,5,6,7,7,8
participant_6_BUY,[],"[1055, 2003]",[],[],[],[],"[3057, 1036]",[],[],"[3070, 1036]",[],"[3133, 1027, 1001]",[3004],[],[3158],[],"[1036, 1028]",[],[],"[3044, 1028]",[],[],[6632],[3133],[1036],[],[],[],[3035],"[6694, 3123]","[1036, 1033]",[3155]
participant_6_SOLD,[],[],[],[],[2003],[],[],[],[],[],[],"[1036, 1036]","[3070, 3133, 1027]",[],[1001],[],[],[],[],"[1028, 1036]",[],[],"[3044, 3057, 1028]",[3004],[],[],[],[],"[1036, 1055]","[3133, 3035, 1055]",[],"[1036, 1033]"
participant_6_UNDO,[],[],[],[],[],[],[],[],[],[],[],[],[],[],[],[],[],[],[],[],[],[],[],[],[],[],[],[],"[[1055, 0]]",[],"[[0, 3123]]",[]
participant_7_GOLD,500,500,605,962,1274,1655,1998,2260,2529,2934,3566,3902,4279,4527,4843,5112,5434,5751,6230,6466,6721,6957,7348,7624,8288,9535,9757,9985,10142,10875,11318,11575
participant_7_CURRENTGOLD,500,0,105,452,764,1135,1468,1730,399,794,1426,902,29,277,583,52,374,241,720,206,461,697,653,929,293,325,548,775,82,816,1258,325
participant_7_LEVEL,1,1,1,3,4,5,6,6,7,8,8,9,9,10,10,10,11,11,12,12,12,12,13,13,14,14,14,14,15,15,16,16
participant_7_MINIONSKILLED,0,0,5,16,27,39,48,56,65,78,90,95,101,108,116,124,132,139,153,157,165,168,178,188,194,197,202,208,210,229,239,241
participant_7_KILLS,0,0,0,0,0,0,0,0,0,0,0,0,0,0,0,0,0,0,0,0,0,0,0,0,0,0,0,0,0,0,0,0
participant_7_BUY,[],"[3858, 2003, 2003, 3340]",[],[],[],[],"[1082, 1001, 2031, 2055]",[],[1052],[1001],[],[4642],"[3364, 3158]",[],[],[],[],[3067],[],[4005],[],[],[1004],[],[3114],[],[],[],[],[],[],[]
participant_7_SOLD,[],[],[],"[2003, 2003]",[2010],[2010],[],[],[],[2010],[],[1052],"[3858, 3340, 1001]",[],[],[],[],[2031],[2055],"[3067, 4642]",[3859],[],[],[],[1004],[],[],[],[],[],[],[]
participant_7_UNDO,[],[],[],[],[],[],"[[0, 1001]]",[],[],[],[],[],[],[],[],[],[],[],[],[],[],[],[],[],[],[],[],[],[],[],[],[]
participant_8_GOLD,500,500,584,962,1225,1578,1715,2085,2524,2668,3616,3891,4418,4631,5008,5347,5491,5808,6349,6682,7038,7406,7688,8595,9300,9525,9796,10039,10461,11549,11818,12839
participant_8_CURRENTGOLD,500,0,84,462,725,1078,165,535,974,368,1316,541,318,531,308,647,41,358,899,482,838,1206,388,195,550,775,1047,1289,611,230,498,659
participant_8_LEVEL,1,1,1,2,3,4,4,5,5,6,6,7,7,7,8,8,8,9,9,9,10,11,11,11,12,13,13,13,14,14,14,15
participant_8_MINIONSKILLED,0,0,3,15,23,34,35,47,58,59,70,75,81,86,93,102,103,110,119,124,136,143,149,151,154,156,164,166,166,167,171,171
participant_8_KILLS,0,0,0,0,0,0,0,0,0,0,1,1,1,1,1,1,1,1,1,1,1,1,1,1,2,3,3,3,3,3,3,3
participant_8_BUY,[],"[1056, 2003, 2003]",[],[],[],[],[],[],"[3802, 1001]",[],[],"[1026, 2033]",[6655],[],[],"[3020, 3111]",[],[1033],[],[4632],[],[],[1052],[],"[3102, 1052]","[3916, 1026]",[],[],[3165],[],[],[1058]
participant_8_SOLD,[],[],[],[],"[2010, 2003]","[2010, 2003]",[],[],[],[],[],[2010],"[3802, 1026]",[],[],"[1001, 1001]",[],[],[],[1033],[],[],[],[],"[1052, 4632]",[1052],[],[],"[1026, 3916]",[],[],[]
participant_8_UNDO,[],[],[],[],[],[],[],[],[],[],[],"[[0, 2033]]",[],[],[],"[[0, 3020]]",[],[],[],[],[],[],[],[],[],[],[],[],[],[],[],[]
participant_9_GOLD,500,500,523,720,876,1129,1264,1454,1758,1893,2402,2722,3025,3186,3444,3759,3921,4165,4566,4861,5022,5255,5441,5692,5833,5973,6173,6329,6469,6611,6751,6833
participant_9_CURRENTGOLD,500,0,23,220,376,629,189,379,248,113,622,327,30,191,449,764,926,430,831,276,437,671,606,857,448,588,788,944,1084,1226,1366,1358
participant_9_LEVEL,1,1,1,2,3,4,4,5,5,6,6,7,7,7,8,8,8,9,9,9,9,10,10,11,11,11,11,11,11,11,11,11
participant_9_MINIONSKILLED,0,0,0,3,4,8,8,11,13,13,13,16,17,18,20,26,27,29,33,35,36,39,41,43,43,43,43,44,44,44,44,44
participant_9_KILLS,0,0,0,0,0,0,0,0,0,0,1,1,2,2,2,2,3,3,4,4,4,5,5,6,6,6,6,6,6,6,6,6
participant_9_BUY,[],"[1054, 2003, 3340]",[],[],[],"[1052, 2031]",[1001],[],[4635],[],[],[1026],[],"[4633, 1052]",[1052],[],"[3057, 3111]",[],[],"[3113, 1026]",[],[3100],[],[3211],[],[1028],[],[3067],[],[],[3065],[1052]
participant_9_SOLD,[],[],[],[],[2003],[],[],[],[1052],[],[],[],[],"[4635, 1026]",[],[],[1001],[],[],"[1052, 2031]",[],"[3057, 3113, 1026]",[],[],[],[],[],[1028],[],[],"[3211, 3067]",[]
participant_9_UNDO,[],[],[],[],[],[],[],[],[],[],[],[],[],[],"[[0, 1052]]",[],[],[],[],[],[],[],[],[],[],[],[],[],[],[],[],[]
team0_KILLS,0,0,0,0,0,0,1,2,3,3,4,5,9,11,12,13,17,19,21,22,22,24,24,28,28,31,31,32,35,36,36,37
team0_CURRENTGOLD,2500,0,504,1895,3415,3033,5140,3084,4269,2631,2668,2417,4649,3052,3389,4476,3980,7790,4205,5984,7115,9126,4622,3511,4833,4120,3234,5437,5371,3185,3850,4398
team0_TOTALGOLD,2500,2500,3004,4395,5915,7378,9495,11274,12959,14606,16183,17972,21079,23307,26379,28266,31160,34969,37485,39264,41370,43814,45101,47790,49111,51589,52571,54775,57298,58912,61642,62773
team0_LEVEL,5,5,6,13,18,22,25,28,30,35,35,38,42,44,46,48,52,56,58,60,61,63,64,67,67,70,71,72,74,75,77,79
team0_SBIRES,0,0,12,39,69,91,134,158,183,211,223,254,275,292,317,350,377,415,429,456,489,499,525,533,540,563,577,597,612,619,626,633
team1_KILLS,0,0,0,0,0,0,0,0,0,0,4,5,7,7,8,8,9,9,10,10,10,12,12,14,16,17,17,17,18,19,19,20
team1_CURRENTGOLD,2500,0,481,1599,3017,3193,2375,3600,2401,2705,5898,2306,1796,1399,3027,2427,1591,1621,4170,1436,2955,3334,2576,2139,2066,2241,3195,3854,2750,3696,4682,3759
team1_TOTALGOLD,2500,2500,2981,4509,5927,7598,8715,10015,11716,13050,16243,17866,19956,21444,23682,25407,26821,28041,30590,32211,33730,35558,37036,39349,41476,43716,44966,46029,47375,49787,51627,53399
team1_LEVEL,5,5,6,13,18,23,24,27,30,34,35,40,40,42,45,47,48,51,53,54,56,58,60,61,64,65,66,66,69,69,71,72
team1_SBIRES,0,0,10,44,70,108,122,156,187,207,241,261,284,305,337,370,384,406,441,462,488,507,533,548,569,579,602,611,627,659,687,696
delta_KILLS,0,0,0,0,0,0,1,2,3,3,0,0,2,4,4,5,8,10,11,12,12,12,12,14,12,14,14,15,17,17,17,17
delta_CURRENTGOLD,0,0,23,296,398,-160,2765,-516,1868,-74,-3230,111,2853,1653,362,2049,2389,6169,35,4548,4160,5792,2046,1372,2767,1879,39,1583,2621,-511,-832,639
delta_TOTALGOLD,0,0,23,-114,-12,-220,780,1259,1243,1556,-60,106,1123,1863,2697,2859,4339,6928,6895,7053,7640,8256,8065,8441,7635,7873,7605,8746,9923,9125,10015,9374
delta_LEVEL,0,0,0,0,0,-1,1,1,0,1,0,-2,2,2,1,1,4,5,5,6,5,5,4,6,3,5,5,6,5,6,6,7
delta_SBIRES,0,0,2,-5,-1,-17,12,2,-4,4,-18,-7,-9,-13,-20,-20,-7,9,-12,-6,1,-8,-8,-15,-29,-16,-25,-14,-15,-40,-61,-63
