name,frame_0,frame_1,frame_2,frame_3,frame_4,frame_5,frame_6,frame_7,frame_8,frame_9,frame_10,frame_11,frame_12,frame_13,frame_14,frame_15,frame_16,frame_17,frame_18,frame_19,frame_20,frame_21,frame_22,frame_23,frame_24,frame_25,frame_26,frame_27,frame_28,frame_29
nameStamp,Tstart,Tearly,Tearly,Tearly,Tearly,Tearly,Tearly,Tearly,Tearly,Tearly,Tearly,Tearly,Tmid,Tmid,Tmid,Tmid,Tmid,Tmid,Tmid,Tmid,Tmid,Tmid,Tmid,Tmid,Tmid,Tmid,Tmid,Tmid,Tend,Tend
timestamp,0,60005,120029,180052,240085,300112,360143,420145,480169,540170,600193,660209,720234,780265,840272,900299,960331,1020337,1080369,1140390,1200393,1260399,1320401,1380424,1440453,1500469,1560498,1620510,1680513,1740524
participant_0_GOLD,500,500,583,906,1197,1529,2127,2465,2706,3169,3811,4576,5348,6261,6408,6544,6789,7462,7788,8961,9176,10372,11060,11467,12039,12462,12584,12866,13430,14524
participant_0_CURRENTGOLD,500,0,83,406,697,1029,1627,140,381,844,1486,51,323,886,1033,569,214,12,338,286,201,1398,2085,2492,465,887,1010,372,935,130
participant_0_LEVEL,1,1,1,3,4,5,6,7,7,8,9,9,9,10,10,10,10,11,12,12,12,13,14,14,14,14,14,14,15,15
participant_0_MINIONSKILLED,0,0,3,13,23,33,43,46,53,64,72,77,77,82,84,85,88,99,101,101,105,111,122,125,125,125,125,130,140,145
participant_0_KILLS,0,0,0,0,0,0,0,1,1,1,1,1,1,1,1,1,1,1,1,1,1,2,2,2,2,2,2,2,2,3
participant_0_BUY,[],"[3340, 2033]",[],[],[],[1052],[],[3802],[],[],[1052],[3108],[],[],[],[],"[6653, 1001]",[],[1029],[],[],"[3047, 1028]",[],[],"[3067, 1052]",[3108],[],[],[],"[1052, 4629]"
participant_0_SOLD,[],[],[],[],[],[],[],[1052],[],[],[],[1052],[],[],[],[],"[3802, 3108]",[],[],[],[],"[1001, 1029]",[],[],[1028],[1052],[],[],[],"[3108, 3067, 1052]"
participant_0_UNDO,[],[],[],[],[],[],[],[],[],[],[],[],[],[],[],[],[],[],[],[],[],[],[],[],[],[],[],[],[],[]
participant_1_GOLD,500,500,693,993,1348,1575,1833,1980,2372,2900,3202,4481,4688,4960,5343,6150,6723,7798,8116,8537,8774,8946,9504,9900,10188,10728,10865,11288,11466,11713
participant_1_CURRENTGOLD,500,0,193,493,848,725,233,380,772,1300,502,1781,338,85,468,1275,2163,1373,1691,237,474,222,779,426,343,883,1021,393,147,394
participant_1_LEVEL,1,1,2,3,4,4,4,5,6,6,7,7,8,8,9,9,10,10,11,11,12,12,12,12,13,13,13,13,13,14
participant_1_MINIONSKILLED,0,0,0,0,0,0,0,0,0,0,0,1,1,1,1,1,1,1,2,8,9,9,11,12,13,25,25,35,38,38
participant_1_KILLS,0,0,0,0,0,0,0,0,0,0,0,0,0,0,0,0,0,0,2,2,2,2,2,2,2,3,3,3,3,3
participant_1_BUY,[],"[3850, 2003, 2003]",[],[],[1001],[],[],[],[3117],[],[1082],[1052],"[3916, 2055]",[1052],[],"[1052, 3364]",[],[3802],[1026],[],[6656],[],[],[],[3114],[],[],[1026],[],[3504]
participant_1_SOLD,[],[],[],[],[],[],[2003],[],[1001],[2003],[],[],"[3850, 1052, 2055]",[],[],[3340],[],"[1052, 1052]",[3851],[],"[3802, 1026]",[],[],[],[],[],[],[1082],[],"[3114, 1026]"
participant_1_UNDO,[],[],[],[],[],[],[],[],[],[],[],[],[],[],[],[],[],[],[],[],[],[],[],[],[],[],[],[],[],[]
participant_2_GOLD,500,500,548,836,1001,1228,1508,2021,2359,2609,2808,3023,3364,3575,3849,4242,4386,4508,4743,5102,5371,5794,6189,6481,6604,6801,6966,7234,7495,8068
participant_2_CURRENTGOLD,500,0,48,326,491,283,553,201,529,779,543,293,624,835,1099,1492,136,258,193,552,821,344,739,1031,319,51,216,484,745,18
participant_2_LEVEL,1,1,1,3,4,5,6,6,7,7,8,8,8,9,9,10,10,10,10,10,11,11,12,12,12,12,12,12,13,13
participant_2_MINIONSKILLED,0,0,2,9,11,17,23,28,37,41,45,48,54,55,60,68,69,69,73,78,87,87,99,100,100,100,102,107,111,111
participant_2_KILLS,0,0,0,0,0,0,0,0,0,0,0,0,0,2,2,2,2,2,2,2,2,2,2,2,3,3,3,3,3,3
participant_2_BUY,[],"[1054, 2003, 3340]",[],[],[],"[1001, 1029, 2055]",[],[],"[3009, 3117, 2055]",[],[],[1033],[1028],[],"[1057, 1028]",[6660],[],[],[],[],[6664],[],[1036],[],[1037],[1036],[],[3134],[],[]
participant_2_SOLD,[],[],[],[2003],[],[2055],[],[],"[1001, 1001]",[],[2055],[],[],[],[1033],"[1028, 1028]",[],[],[],[],"[6660, 1029, 1057]",[],[],[],[],[],[],"[1036, 1036]",[],[]
participant_2_UNDO,[],[],[],[],[],[],[],[],"[[0, 3009]]",[],[],[],[],[],[],[],[],[],[],[],[],[],[],[],[],[],[],[],[],[]
participant_3_GOLD,500,500,562,811,1148,1270,1620,1875,2150,2407,2578,2751,2937,3722,3845,3967,4303,4425,4597,4798,5024,5260,5522,5916,6413,6611,6733,7008,7161,7408
participant_3_CURRENTGOLD,500,0,62,311,648,95,445,700,200,457,628,351,137,922,195,117,453,575,747,948,174,410,322,716,338,185,308,183,336,583
participant_3_LEVEL,1,1,1,2,3,3,4,5,5,6,6,6,6,8,8,8,8,8,9,10,10,10,11,11,11,12,12,12,12,13
participant_3_MINIONSKILLED,0,0,2,9,20,20,30,38,44,49,52,52,53,57,57,57,61,61,61,63,65,69,70,72,72,72,72,77,78,78
participant_3_KILLS,0,0,0,0,0,0,0,0,0,1,1,2,2,2,2,3,4,6,6,6,6,6,7,7,7,7,7,7,7,7
participant_3_BUY,[],"[1035, 2031, 3340]",[],[],[],[1036],"[1036, 3134]",[],[],[],[3133],[],"[6693, 1001, 1036]","[1033, 2055, 3364]",[],[],[],"[3134, 1037, 1029]",[],"[6676, 3047, 1036]",[],"[1036, 2055]",[],"[3134, 1036]",[1028],[],[],[3814],"[1036, 2055]",[]
participant_3_SOLD,[],[],[],[],[],[],"[1036, 1036]",[],[],[3340],[1035],[3513],"[3134, 3133]",[3340],[],[],[1033],"[1036, 2031]",[],"[3134, 1037, 1001, 1029]",[2055],[],[],"[1036, 1036]",[2055],[],[],"[1036, 3134, 1028]",[],[]
participant_3_UNDO,[],[],[],[],[],[],[],[],[],[],[],[],[],[],[],[],[],[],[],[],[],[],[],[],[],[],[],[],[],[]
participant_4_GOLD,500,500,522,797,953,1108,1303,1437,1592,1866,2128,2503,2811,3216,3437,3700,4016,4237,5747,5938,6183,6373,6739,7122,7352,7942,8083,8223,8398,8539
participant_4_CURRENTGOLD,500,0,22,297,153,308,503,637,92,366,278,168,-14,-94,127,-95,221,-38,622,813,-242,-52,314,698,77,667,808,238,414,-96
participant_4_LEVEL,1,1,1,2,3,3,4,4,5,5,6,7,7,8,8,8,9,9,9,10,10,11,11,11,12,12,12,12,13,13
participant_4_MINIONSKILLED,0,0,0,0,1,2,2,2,3,6,8,8,8,8,8,10,17,18,19,19,26,26,26,26,27,27,27,27,29,29
participant_4_KILLS,0,0,0,0,0,0,1,1,1,1,2,2,3,5,5,5,5,5,5,7,7,9,10,10,11,12,12,12,12,13
participant_4_BUY,[],"[1055, 2003]",[],[],[],[],[],"[3134, 1036, 1001, 2055]",[],[],[],"[3181, 1042, 1036]",[3006],[1036],[],[6670],[1018],[1037],[],"[6672, 1018]",[1042],[],[],[],"[3095, 3123]",[],[],[3134],[],[6676]
participant_4_SOLD,[],[],[],[],[],[],[2003],[],[],[],[],"[3134, 1036]","[1001, 1042]",[],[2055],"[1036, 1036]",[],[],[],"[3340, 6670, 1018, 1037]",[],[],[3513],[],"[1018, 1042]",[1055],[],[1055],[],[3134]
participant_4_UNDO,[],[],[],[],[],[],[],[],[],[],[],[],[],[],[],[],[],[],[],[],[],[],[],[],[],"[[1055, 0]]",[],[],[],[]
participant_5_GOLD,500,500,583,776,1071,1382,1652,1872,2572,2779,3043,3476,4214,4601,5809,6818,7461,7981,8453,8710,8832,9463,9624,10039,10629,11330,11626,12182,12602,13549
participant_5_CURRENTGOLD,500,0,83,276,571,882,52,272,972,179,443,876,1614,351,1559,185,828,1348,20,277,324,956,1116,1531,2121,722,619,1175,1594,2542
participant_5_LEVEL,1,1,1,2,4,5,5,6,7,8,8,9,10,10,11,12,12,13,13,13,13,13,13,14,14,14,14,15,15,16
participant_5_MINIONSKILLED,0,0,3,7,15,23,31,37,49,54,59,76,87,93,103,116,121,140,140,145,145,158,161,170,170,170,176,181,191,193
participant_5_KILLS,0,0,0,0,0,0,0,0,0,0,2,3,3,3,3,3,3,3,3,3,3,4,4,4,4,5,6,6,6,8
participant_5_BUY,[],"[1039, 2031, 3340]",[],[],[],[],"[3145, 1001]",[],[],[],[],[],"[4636, 1082]",[],"[1028, 1052, 2055, 3364]",[],[],"[3108, 3191]",[3157],[2055],[],[],[3020],[],[1058],[],[],[],[3089],[]
participant_5_SOLD,[],[],[],[],[],[],[],[],[],[1039],[],[],[3145],[],[3340],[],[2055],[1052],"[3191, 3108]",[],[2055],[],"[1001, 2031]",[],[],[],[],[],[1058],[]
participant_5_UNDO,[],[],[],[],[],[],[],[],[],[],[],[],[],[],"[[0, 1028]]",[],[],[],[],[],[],[],"[[2031, 0]]",[],[],[],[],[],[],[]
participant_6_GOLD,500,500,620,963,1368,1710,1918,2131,2488,2833,3879,4605,4760,5046,5276,6092,6424,6837,7114,7286,7680,8667,8789,9147,9319,9921,10803,11360,11844,12856
participant_6_CURRENTGOLD,500,0,120,463,868,1210,68,281,638,983,2029,2755,410,696,416,1232,1564,612,189,286,680,1667,990,1347,269,871,1753,2311,244,1256
participant_6_LEVEL,1,1,2,3,4,4,5,5,6,6,7,8,8,9,9,10,10,11,11,11,12,12,12,13,13,14,15,15,16,16
participant_6_MINIONSKILLED,0,0,0,0,0,0,0,0,0,0,5,6,6,7,7,8,9,9,10,10,11,11,11,11,11,17,22,22,23,24
participant_6_KILLS,0,0,0,0,0,0,0,0,0,2,3,3,3,6,6,6,6,7,9,9,10,10,10,10,10,10,11,11,12,12
participant_6_BUY,[],"[1055, 2003]",[],[],[],"[1036, 1036]",[],[6670],[],[],"[1053, 1018]","[6673, 1001, 1042]",[],"[3006, 3086]",[],[1042],[],[],[],"[3046, 1018, 1037, 1038]",[1018],[1037],[],[],[],"[3031, 1029]",[],[],[],"[3133, 1031]"
participant_6_SOLD,[],[],[],[],[2003],[],[],"[1036, 1036]",[],[],[],"[6670, 1018, 1053]",[],"[1001, 1042]",[],[],[],[],[],"[1042, 3086, 1055, 1055]",[],[],[],[],[],"[1038, 1037, 1018]",[],[],[],[1029]
participant_6_UNDO,[],[],[],[],[],[],[],[],[],[],[],[],[],[],[],[],[],[],[],"[[0, 1037], [0, 1018], [1055, 0]]",[],[],[],[],[],[],[],[],[],[]
participant_7_GOLD,500,500,590,927,1204,1382,1711,1938,2179,3163,3819,4657,4920,6269,6549,6835,7534,8363,9323,9675,10249,10572,10925,11047,11466,11589,12223,12887,13556,14117
participant_7_CURRENTGOLD,500,0,90,417,694,172,491,118,359,1333,489,117,370,19,289,275,974,1803,2763,595,570,17,370,493,912,109,743,1408,2076,1038
participant_7_LEVEL,1,1,1,3,4,4,5,6,7,7,8,9,9,10,10,10,11,11,12,12,12,13,13,13,13,13,14,15,15,16
participant_7_MINIONSKILLED,0,0,4,14,23,27,36,42,49,60,64,74,79,82,88,92,99,105,113,113,117,117,121,121,125,125,128,132,140,143
participant_7_KILLS,0,0,0,1,1,1,1,1,1,1,1,1,1,1,1,2,2,4,4,5,5,7,7,8,8,10,12,12,12,12
participant_7_BUY,[],"[1055, 2003]",[],[],"[3070, 1036]",[],[],"[3133, 1001]",[1042],[],[],[3004],"[1036, 2031]",[3123],[],[],"[3006, 2015]",[1038],[],[],"[3095, 1037]",[3134],[],[],[],"[6676, 6670]",[],[],[],[]
participant_7_SOLD,[],[],[],[],[],[],[2003],[1036],[],[],[],"[3070, 3133]",[],[1036],[],[],"[1001, 1042]",[2031],[],[],"[1038, 2015]",[1055],[],[],[],"[3134, 1037]",[],[],[3004],[]
participant_7_UNDO,[],[],[],[],[],[],[],[],[],[],[],[],[],[],[],[],[],[],[],[],[],[],[],[],[],[],[],[],[],[]
participant_8_GOLD,500,500,625,1273,1547,1984,2221,2612,2992,3304,3766,4247,4532,5036,5221,6177,6503,7486,7802,8469,8777,9747,9918,10361,10760,12031,13142,13565,13803,14489
participant_8_CURRENTGOLD,500,0,125,773,297,734,971,312,392,704,1166,547,332,386,571,1527,653,396,712,1379,112,162,334,776,1175,122,1233,1655,1893,2579
participant_8_LEVEL,1,1,1,2,3,4,4,5,5,6,6,7,7,8,8,9,9,10,10,10,10,11,11,11,12,13,13,14,14,15
participant_8_MINIONSKILLED,0,0,6,12,19,35,40,53,65,76,81,93,99,101,104,113,122,125,128,128,128,132,135,135,142,142,146,146,149,163
participant_8_KILLS,0,0,0,0,0,0,0,0,1,1,1,1,2,2,3,4,5,5,5,5,5,5,5,5,6,7,7,7,7,9
participant_8_BUY,[],"[1054, 2003, 3340]",[],[],[],[],"[3076, 1042]",[],[],"[3057, 1001]",[1042],[],[],"[3006, 3067, 1036]",[],"[3078, 1011]",[],[],"[3075, 1028, 3066]",[],"[2055, 3363]",[],[],[],[],[3742],[1028],[],[],[]
participant_8_SOLD,[],[],[],[],[],[2003],[],[],[],[],[],[],[],"[1001, 1042]",[],"[3057, 1036, 3067]",[],[],"[3076, 1011, 1028]",[],[3340],[2055],[],[],[],[3066],[],[],[],[]
participant_8_UNDO,[],[],[],[],[],[],[],[],[],[],"[[0, 1042]]",[],[],[],[],[],[],[],[],[],[],[],[],[],[],[],[],[],[],[]
participant_9_GOLD,500,500,522,950,1085,1239,1414,1568,1702,1857,2415,2624,2820,3001,3316,3852,4042,4508,4888,5373,5514,5884,6025,6215,6418,6558,7033,7474,7681,8185
participant_9_CURRENTGOLD,500,0,22,450,25,179,354,73,132,287,845,289,410,191,506,1042,132,48,428,913,129,499,640,830,1033,123,598,1039,1246,1750
participant_9_LEVEL,1,1,1,2,3,3,4,4,5,6,6,7,7,7,7,8,8,9,9,10,10,10,10,11,11,11,12,12,13,14
participant_9_MINIONSKILLED,0,0,0,0,0,0,0,0,0,0,2,2,2,3,5,5,5,5,5,6,6,6,6,6,6,6,7,7,7,8
participant_9_KILLS,0,0,0,0,0,0,0,0,0,0,0,0,0,0,0,0,0,0,0,0,0,0,0,0,0,0,0,0,0,0
participant_9_BUY,[],"[3850, 2003, 2003]",[],[],"[1004, 1082]",[],[],[1052],[2055],[],[],"[4642, 1028]",[2055],"[3364, 3067]",[],[],"[6617, 1004]",[3114],[],[],"[1026, 2055]",[],[],[],[],"[6616, 1004, 2055, 2055]",[],[],[],[]
participant_9_SOLD,[],[],[],[],"[2003, 2003]",[],[],[],[],[],[],"[1004, 1052]",[3850],"[3340, 1028]",[],[],"[3067, 4642]",[1004],[],"[2055, 2055]",[3851],[],[2055],[],[],"[3114, 1026]",[2055],[2055],[],[]
participant_9_UNDO,[],[],[],[],[],[],[],[],[],[],[],[],[],[],[],[],[],[],[],[],[],[],[],[],[],[],[],[],[],[]
team0_KILLS,0,0,0,0,0,0,1,2,2,3,4,5,6,10,10,11,12,14,16,18,18,21,23,23,25,27,27,27,27,29
team0_CURRENTGOLD,2500,0,408,1833,2837,2440,3361,2058,1974,3746,3437,2644,1408,2634,2922,3358,3187,2180,3591,2836,1428,2322,4239,5363,1542,2673,3363,1670,2577,1029
team0_TOTALGOLD,2500,2500,2908,4343,5647,6710,8391,9778,11179,12951,14527,17334,19148,21734,22882,24603,26217,28430,30991,33336,34528,36745,39014,40886,42596,44544,45231,46619,47950,50252
team0_LEVEL,5,5,6,13,18,20,24,27,30,32,36,37,38,43,44,45,47,48,51,53,55,57,60,60,62,63,63,63,66,68
team0_SBIRES,0,0,7,31,55,72,98,114,137,160,177,186,193,203,210,221,236,248,256,269,292,302,328,335,337,349,351,376,396,401
team1_KILLS,0,0,0,1,1,1,1,1,2,4,7,8,9,12,13,15,16,19,21,22,23,26,26,27,28,32,36,36,37,41
team1_CURRENTGOLD,2500,0,440,2379,2455,3177,1936,1056,2493,3486,4972,4584,3136,1643,3341,4261,4151,4207,4112,3450,1815,3301,3450,4977,5510,1947,4946,7588,7053,9165
team1_TOTALGOLD,2500,2500,2940,4889,6275,7697,8916,10121,11933,13936,16922,19609,21246,23953,26171,29774,31964,35175,37580,39513,41052,44333,45281,46809,48592,51429,54827,57468,59486,63196
team1_LEVEL,5,5,6,12,18,20,23,26,30,33,35,40,41,44,45,49,50,54,55,56,57,59,59,62,63,65,68,71,73,77
team1_SBIRES,0,0,13,33,57,85,107,132,163,190,211,251,273,286,307,334,356,384,396,402,407,424,434,443,454,460,479,488,510,531
delta_KILLS,0,0,0,-1,-1,-1,0,1,0,-1,-3,-3,-3,-2,-3,-4,-4,-5,-5,-4,-5,-5,-3,-4,-3,-5,-9,-9,-10,-12
delta_CURRENTGOLD,0,0,-32,-546,382,-737,1425,1002,-519,260,-1535,-1940,-1728,991,-419,-903,-964,-2027,-521,-614,-387,-979,789,386,-3968,726,-1583,-5918,-4476,-8136
delta_TOTALGOLD,0,0,-32,-546,-628,-987,-525,-343,-754,-985,-2395,-2275,-2098,-2219,-3289,-5171,-5747,-6745,-6589,-6177,-6524,-7588,-6267,-5923,-5996,-6885,-9596,-10849,-11536,-12944
delta_LEVEL,0,0,0,1,0,0,1,1,0,-1,1,-3,-3,-1,-1,-4,-3,-6,-4,-3,-2,-2,1,-2,-1,-2,-5,-8,-7,-9
delta_SBIRES,0,0,-6,-2,-2,-13,-9,-18,-26,-30,-34,-65,-80,-83,-97,-113,-120,-136,-140,-133,-115,-122,-106,-108,-117,-111,-128,-112,-114,-130
