name,frame_0,frame_1,frame_2,frame_3,frame_4,frame_5,frame_6,frame_7,frame_8,frame_9,frame_10,frame_11,frame_12,frame_13,frame_14,frame_15,frame_16,frame_17,frame_18,frame_19,frame_20,frame_21,frame_22,frame_23,frame_24,frame_25,frame_26,frame_27,frame_28,frame_29,frame_30,frame_31,frame_32,frame_33,frame_34,frame_35,frame_36,frame_37
nameStamp,Tstart,Tearly,Tearly,Tearly,Tearly,Tearly,Tearly,Tearly,Tearly,Tearly,Tearly,Tearly,Tearly,Tearly,Tearly,Tearly,Tmid,Tmid,Tmid,Tmid,Tmid,Tmid,Tmid,Tmid,Tmid,Tmid,Tmid,Tmid,Tmid,Tmid,Tmid,Tmid,Tmid,Tmid,Tmid,Tmid,Tend,Tend
timestamp,0,60011,120022,180028,240046,300053,360076,420086,480108,540119,600145,660158,720165,780189,840217,900223,960244,1020255,1080266,1140277,1200283,1260296,1320305,1380323,1440332,1500343,1560357,1620370,1680387,1740407,1800421,1860437,1920455,1980467,2040488,2100500,2160525,2220525
participant_0_GOLD,500,500,555,796,1039,1224,1459,1630,1920,2234,2440,2799,3535,3776,4550,4686,5123,5545,5872,6030,6236,6708,6990,7472,7783,7990,8201,8668,8818,9409,9559,9681,9909,10031,10287,10494,10930,11032
participant_0_CURRENTGOLD,500,50,105,346,589,774,224,395,685,989,180,529,1265,1506,2280,166,3,425,752,125,331,368,650,442,753,960,1171,1638,998,789,89,212,39,161,418,174,611,-703
participant_0_LEVEL,1,1,1,3,4,5,6,6,7,8,8,9,9,10,10,10,11,11,12,12,12,12,12,13,13,14,14,14,14,15,15,15,16,16,16,17,17,17
participant_0_MINIONSKILLED,0,0,2,9,16,19,26,29,39,47,52,63,64,71,77,78,79,79,86,88,93,93,98,98,110,116,117,121,123,133,135,135,142,142,148,154,155,155
participant_0_KILLS,0,0,0,0,0,0,0,0,0,0,0,0,1,1,2,2,3,4,4,4,4,5,5,5,5,5,5,6,6,7,7,7,7,7,7,7,8,8
participant_0_BUY,[],"[1056, 3340, 2003]",[],[],[],[],"[1052, 1001, 2003]",[],[],[],"[3802, 2003, 2003, 2003]",[],[],[],[],"[6655, 2003, 2003, 2003]",[3009],[],[],"[1027, 1052]",[],[1052],[],[1026],[],[],[],[],"[3157, 1026]",[3916],[1026],[],[1028],[],[],[3165],[],[1052]
participant_0_SOLD,[],[],[],[],[2003],[],[2003],[],[],[],[1052],[],"[2003, 2003, 2003]",[],[],[3802],"[2003, 2003, 2003, 1001]",[],[],[],[],[],[],[1056],[],[],[],[],"[1052, 1052, 1027, 1026]",[],[],[],[],[],[],"[1026, 3916, 1028]",[],[]
participant_0_UNDO,[],[],[],[],[],[],[],[],[],[],[],[],[],[],[],[],[],[],[],[],[],[],[],[],[],[],[],[],"[[0, 1026]]",[],[],[],[],[],[],[],[],[]
participant_1_GOLD,500,500,576,782,1376,1589,1747,1953,2594,2766,2993,3416,3777,3899,4022,4144,4267,4389,5259,5452,5644,5877,6000,6462,6606,6839,7439,7743,7976,8280,8477,8961,9129,9251,9938,10211,10606,12158
participant_1_CURRENTGOLD,500,0,76,282,876,1089,1247,1453,2094,66,293,116,477,599,722,844,967,1089,1959,452,344,577,400,862,106,339,939,1243,276,580,777,1261,129,251,339,611,1006,2558
participant_1_LEVEL,1,1,1,2,3,3,4,4,5,5,5,6,6,6,6,6,6,7,8,8,9,9,10,11,11,11,11,12,12,12,12,13,13,13,13,14,14,15
participant_1_MINIONSKILLED,0,0,3,7,11,14,16,21,30,33,39,39,49,49,49,49,49,49,58,62,64,67,67,71,72,74,76,82,84,90,90,102,102,102,112,112,121,121
participant_1_KILLS,0,0,0,0,1,1,1,1,1,1,1,1,1,1,1,1,1,1,1,1,1,1,1,1,1,1,2,2,2,2,2,2,2,2,3,3,3,5
participant_1_BUY,[],"[1055, 3340, 2003]",[],[],[],[],[],[],[],"[6670, 1053]",[],[1018],[],[],[],[],[],[],[],"[6673, 3006]",[1042],[],[1042],[],[3086],[],[],[],[3046],[],[],[],[1038],[],[1018],[],[],[]
participant_1_SOLD,[],[],[],[2003],[],[],[],[],[],[],[],[3400],[],[],[],[],[],[],[3400],"[6670, 1018, 1053]",[],[],[],[],[1042],[],[],[],"[1042, 3086]",[],[],[],[],[],[],[],[],[]
participant_1_UNDO,[],[],[],[],[],[],[],[],[],[],[],[],[],[],[],[],[],[],[],[],[],[],[],[],[],[],[],[],[],[],[],[],[],[],[],[],[],[]
participant_2_GOLD,500,500,578,733,1085,1220,1396,1587,2465,2655,2825,3928,4105,4610,4832,4972,5224,5477,6287,6727,6868,7083,7342,7657,7887,8028,8168,8309,8449,8793,9029,9183,9495,9656,9866,10007,11272,11539
participant_2_CURRENTGOLD,500,100,178,333,685,120,296,487,1365,1555,1725,28,205,710,231,372,624,877,1687,327,468,283,542,257,487,278,418,259,399,743,979,383,195,356,566,707,1972,639
participant_2_LEVEL,1,1,1,2,3,4,4,5,6,6,7,7,7,8,8,8,9,10,10,10,10,10,11,11,12,12,12,12,12,12,13,13,13,14,14,14,15,15
participant_2_MINIONSKILLED,0,0,3,4,5,5,7,10,13,16,18,21,23,26,27,27,34,41,44,44,44,44,52,52,53,53,53,53,53,56,56,57,58,59,59,59,60,60
participant_2_KILLS,0,0,0,0,0,0,0,0,2,2,2,4,4,5,5,5,5,5,6,6,6,6,6,6,6,6,6,6,6,6,6,6,6,6,6,6,7,7
participant_2_BUY,[],[3854],[],[],[],"[1036, 1036]",[],[],[],[],[],"[3134, 3133, 6691, 1001]",[],[],[3117],[],[],[],[],"[3134, 1036, 1036]",[],[3133],[],[3179],[],[1036],[],[1029],[],[],[],[3133],[1031],[],[],[],[],"[6333, 1028]"
participant_2_SOLD,[],[],[],[],[],[],[],[],[],[],[],"[1036, 1036, 3400, 3134, 3133]",[],[3854],[1001],[],[],[],[],[3400],[],"[1036, 1036]",[],"[3134, 3133]",[],[],[],[],[3855],[],[],[1036],[1029],[],[],[],[],"[1031, 3133]"
participant_2_UNDO,[],[],[],[],[],[],[],[],[],[],[],[],[],[],[],[],[],[],[],[],[],[],[],[],[],[],[],[],[],[],[],[],[],[],[],[],[],[]
participant_3_GOLD,500,500,520,842,1066,1342,1570,1692,1826,2134,2256,2592,2739,3032,3419,3841,4585,4763,5010,5133,5255,5801,5924,6644,7157,7293,7415,7675,8128,8265,8701,8824,8946,9068,9241,9463,9635,9737
participant_3_CURRENTGOLD,500,0,20,342,566,842,1070,1192,226,534,656,117,264,557,944,266,1010,1188,1435,233,355,901,524,1244,1107,1243,1365,275,728,115,261,384,106,228,401,623,446,487
participant_3_LEVEL,1,1,1,2,3,3,4,4,4,5,5,5,6,6,7,8,8,9,9,9,9,10,10,11,11,11,12,12,13,13,13,13,13,13,13,14,14,14
participant_3_MINIONSKILLED,0,0,0,0,0,0,6,6,6,6,6,10,10,11,12,12,13,16,16,16,16,16,16,17,18,19,19,19,19,20,21,21,21,21,21,21,21,21
participant_3_KILLS,0,0,0,0,0,0,0,0,0,0,0,0,0,0,0,1,2,2,2,2,2,2,2,3,4,4,4,4,4,4,5,5,5,5,5,5,5,5
participant_3_BUY,[],"[3340, 2031, 1035]",[],[],[],[],[],[],[3111],[],[],[1037],[],[],[],[3134],[],[],[],"[3142, 1029]",[],[],[1031],[],[2420],[],[],[3026],[],"[1028, 1036]",[1036],[],[3134],[],[],[],[1036],[]
participant_3_SOLD,[],[],[],[],[],[],[],[],[],[],[],[],[1035],[],[],[],[],[],[],"[3134, 1037]",[],[],[1029],[],[],[],[],"[1031, 2420]",[],[],[2031],[],"[1036, 1036]",[],[],[],[],[]
participant_3_UNDO,[],[],[],[],[],[],[],[],[],[],[],[],[],[],[],[],[],[],[],[],[],[],[],[],[],[],[],[],[],[],[],[],[],[],[],[],[],[]
participant_4_GOLD,500,500,541,793,1279,1436,1678,1880,2528,2867,3309,3474,3673,3823,4037,4874,5039,5245,6290,6777,6945,7857,8070,10694,11071,11236,11767,12829,12980,13102,13544,13667,14847,14970,15092,15834,16372,16474
participant_4_CURRENTGOLD,500,50,91,343,829,986,1228,330,978,447,489,654,853,153,367,1204,469,675,1720,2207,2375,187,400,3024,3402,166,697,1760,1910,2033,2475,297,1478,1600,123,865,1402,1324
participant_4_LEVEL,1,1,1,3,4,5,6,6,7,8,8,8,9,9,9,11,11,11,12,13,13,13,13,14,14,14,15,16,16,16,16,16,16,16,16,17,17,17
participant_4_MINIONSKILLED,0,0,1,6,9,11,18,20,23,26,26,28,32,34,39,50,53,58,70,74,74,74,79,85,91,93,94,94,96,96,96,96,103,103,103,103,103,103
participant_4_KILLS,0,0,0,0,1,1,1,1,2,2,3,3,3,3,3,4,4,4,5,6,6,8,8,12,12,12,13,15,15,15,16,16,17,17,17,18,18,18
participant_4_BUY,[],[1054],[],[],[],[],[],[3006],[],[3145],[1028],[],[],[1026],[],[],[3152],[],[],[],[],[3091],[],[],[],[6694],[],[],[],[],[],[3109],[],[],[3041],[],[],[]
participant_4_SOLD,[],[],[],[],[],[],[],[],[],[1054],[],[],[],[],[],[],"[3145, 1028, 1026]",[],[],[],[],[],[],[],[],[],[],[],[],[],[],[],[],[],[],[],[],[]
participant_4_UNDO,[],[],[],[],[],[],[],[],[],[],[],[],[],[],[],[],[],[],[],[],[],[],[],[],[],[],[],[],[],[],[],[],[],[],[],[],[],[]
participant_5_GOLD,500,500,520,726,850,1324,1496,1980,2102,2486,2755,3958,4240,4419,5033,6113,6604,6890,7013,8132,8751,8874,9154,9326,9748,10214,10946,11278,11525,11867,12886,13306,13920,14351,15038,16002,16533,17312
participant_5_CURRENTGOLD,500,0,20,226,350,824,996,1480,252,636,905,2108,290,469,1083,2163,654,940,43,1162,1781,404,684,257,678,1145,1876,2208,256,598,1616,2036,1020,701,1389,2352,1933,1762
participant_5_LEVEL,1,1,1,2,2,4,4,4,5,5,6,7,7,7,8,9,9,10,10,11,11,11,11,12,12,12,13,13,13,14,14,15,15,15,16,17,17,18
participant_5_MINIONSKILLED,0,0,0,5,5,13,16,18,18,30,38,44,44,48,58,67,70,71,71,76,76,76,80,80,80,86,92,93,96,99,106,115,118,119,126,126,126,131
participant_5_KILLS,0,0,0,0,0,0,0,1,1,1,1,3,3,3,3,4,5,5,5,6,7,7,7,7,8,8,9,10,10,10,12,12,13,14,15,16,17,18
participant_5_BUY,[],"[1055, 2003, 3340]",[],[],[],[],[],[],"[6670, 2003]",[],[],[],[6673],[],[],[],"[3006, 1053]",[],"[1018, 1042, 1042]",[],[],[3046],[],[1018],[],[],[],[],"[3072, 1042]",[],[],[],[3033],"[1001, 1033]",[],[],"[3111, 1018]",[]
participant_5_SOLD,[],[],[],[2003],[],[],[],[],[],[],[2003],[],[6670],[],[],[],[],[],[1055],[],[],"[1042, 1018, 1042]",[],[],[],[],[],[],"[1018, 1053]",[],[],[],"[1042, 3006]",[],[],[],"[1001, 1033]",[]
participant_5_UNDO,[],[],[],[],[],[],[],[],[],[],[],[],[],[],[],[],[],[],[],[],[],[],[],[],[],[],[],[],[],[],[],[],[],[],[],[],[],[]
participant_6_GOLD,500,500,597,831,1039,1614,1751,2107,2334,2578,3079,3278,3576,3748,4404,4605,4825,5060,5601,6320,6920,7084,7596,7890,9425,9701,10249,10456,10578,11042,11334,11456,12030,12723,12934,13970,14402,14654
participant_6_CURRENTGOLD,500,50,147,381,589,1154,441,787,1014,1248,449,648,936,1108,1754,705,125,360,901,1620,2220,1134,1646,690,2225,2501,3049,1956,444,42,334,457,1031,1723,1034,2071,403,704
participant_6_LEVEL,1,1,1,3,4,5,6,6,7,8,9,9,10,10,11,11,11,11,12,13,13,13,14,14,14,15,15,15,15,15,15,15,16,16,17,17,18,18
participant_6_MINIONSKILLED,0,0,4,10,15,20,21,32,38,42,47,52,58,61,70,72,78,82,88,89,89,92,92,93,98,104,109,110,110,111,111,111,113,121,121,121,127,127
participant_6_KILLS,0,0,0,0,0,1,1,1,1,1,2,2,2,2,2,2,2,2,3,4,5,5,6,6,8,8,9,9,9,10,10,10,11,12,12,14,14,14
participant_6_BUY,[],"[2003, 3340, 1056]",[],[],[],[],[1026],[],[],[],[3802],[],[],[],[],[6655],[3020],[],[],[],[],[1058],[],[1058],[],[],[],[3089],"[4632, 1052]","[3108, 3102]",[],[],[],[],[3108],[],[4629],[]
participant_6_SOLD,[],[],[],[2010],[2003],[2010],[],[2010],[],[],[],[],[],[],[],"[3802, 1026]",[2422],[],[],[],[],[],[],[],[],[],[],"[1058, 1058]",[],"[1052, 3108, 4632]",[],[],[],[],[],[],[3108],[]
participant_6_UNDO,[],[],[],[],[],[],[],[],[],[],[],[],[],[],[],[],[],[],[],[],[],[],[],[],[],[],[],[],[],[],[],[],[],[],[],[],[],[]
participant_7_GOLD,500,500,620,932,1191,1353,1577,1808,2348,2570,2896,3113,3504,3662,4260,4433,4733,5302,5460,6148,6764,6886,7454,8266,8921,9406,10257,10380,10832,11322,12099,12442,13197,13600,13825,14751,15529,16031
participant_7_CURRENTGOLD,500,0,120,432,691,503,727,958,1498,270,596,13,404,562,1160,333,633,1202,210,898,1514,761,1329,266,921,1406,607,730,1182,1673,2449,542,1298,1700,1925,2851,1440,1881
participant_7_LEVEL,1,1,2,3,3,3,4,4,5,5,6,6,7,7,8,8,9,10,10,10,11,11,11,12,13,13,13,13,14,14,15,15,16,16,17,17,18,18
participant_7_MINIONSKILLED,0,0,0,0,0,0,3,4,4,4,4,4,5,7,8,8,8,8,10,14,14,14,17,17,19,21,22,22,27,30,30,33,43,43,44,44,46,50
participant_7_KILLS,0,0,0,0,0,0,0,0,1,1,1,1,1,1,2,2,2,3,3,4,5,5,6,8,9,9,11,11,11,11,12,12,13,13,13,14,16,16
participant_7_BUY,[],"[1035, 2031, 3340]",[],[],[],[1036],[],[],[],"[3044, 3057]",[],[3067],[],[],[],"[6632, 1001]",[],[],"[3111, 1036]",[],[],[1037],[],[6333],[],[],"[3155, 1036]",[],[],[],[],"[3156, 3123]",[],[],[],[],"[6609, 1036]",[]
participant_7_SOLD,[],[],[],[],[],[],[],[],[],[1036],[],[],[],[],[],"[3044, 3057, 3067]",[],[],[1001],[],[],[],[],"[1036, 1037]",[],[1035],[],[],[],[],[],"[3155, 1036]",[],[],[],[],"[3123, 2031]",[]
participant_7_UNDO,[],[],[],[],[],[],[],[],[],[],[],[],[],[],[],[],[],[],[],[],[],[],[],[],[],[],[],[],[],[],[],[],[],[],[],[],[],[]
participant_8_GOLD,500,500,534,800,1259,1514,1672,2285,2511,3017,3508,3931,4144,4837,5118,5290,5661,6257,6379,6637,6794,6917,7088,7301,7629,7922,8194,8317,8439,9039,9503,9996,10230,10352,10474,11165,11487,11739
participant_8_CURRENTGOLD,500,0,34,300,459,364,522,1135,11,517,1008,81,294,987,1268,190,561,1157,79,337,494,617,788,1001,1329,372,344,67,189,789,1253,1747,1980,102,225,266,588,839
participant_8_LEVEL,1,1,1,3,4,5,6,7,7,8,9,9,10,11,11,11,12,12,12,12,12,13,13,13,13,14,14,14,14,14,15,15,15,15,15,16,17,17
participant_8_MINIONSKILLED,0,0,1,6,8,13,15,22,25,29,32,32,37,42,48,48,58,64,64,66,68,68,71,72,75,75,75,75,75,75,76,80,82,82,82,82,84,84
participant_8_KILLS,0,0,0,0,1,1,1,2,2,3,3,4,4,5,5,5,5,5,5,5,5,5,5,5,5,5,5,5,5,6,7,8,8,8,8,8,8,8
participant_8_BUY,[],"[1054, 2003, 3364]",[],[],[1001],"[1029, 2003]",[],[],"[3047, 1026]",[],[],"[4630, 2003, 2003]",[],[],[],"[3135, 1026]",[],[],"[1011, 1042]",[],[],[],[],[],[],[4637],[1042],[1043],[],[],[],[],[],[3115],[],[2420],[],[]
participant_8_SOLD,[],[],[2003],[],[],[],[],[],"[2003, 1001, 1029]",[],[],[],[2003],[],[],"[2003, 4630, 1026]",[],[],[],[],[],[],[],[],[],"[1026, 1011]",[],"[1042, 1042]",[],[],[],[],[],[1043],[],[],[2420],[]
participant_8_UNDO,[],[],[],[],[],[],[],[],[],[],[],[],[],[],[],[],[],[],[],[],[],[],[],[],[],[],[],[],[],[],[],[],[],[],[],[],[],[]
participant_9_GOLD,500,500,520,677,829,1286,1451,1739,1889,2068,2204,2900,3351,3473,4175,5032,5259,5532,5654,6540,6662,7085,7392,7815,8075,8247,8637,8887,9400,9657,9779,9986,10475,11110,11233,11655,12205,12952
participant_9_CURRENTGOLD,500,15,35,192,144,601,766,1054,39,218,354,50,451,88,789,1647,74,247,69,955,77,35,342,65,325,347,737,37,550,807,244,452,940,1576,23,446,996,1422
participant_9_LEVEL,1,1,1,2,3,4,4,5,5,6,6,7,7,7,8,9,9,9,9,10,10,10,10,11,12,12,12,12,13,13,14,14,14,15,15,15,16,16
participant_9_MINIONSKILLED,0,0,0,2,4,6,8,14,16,20,21,22,24,24,27,29,35,35,35,36,36,36,36,36,39,39,45,50,56,58,58,58,58,60,60,60,60,62
participant_9_KILLS,0,0,0,0,0,1,1,1,1,1,1,2,3,3,4,5,5,5,5,6,6,7,7,8,8,8,8,8,9,9,9,9,9,10,10,10,11,12
participant_9_BUY,[],"[1052, 2003]",[],[],"[2003, 2003, 2003, 2003]",[],[],[],"[3145, 1028, 2003, 2003, 2003]",[],[],"[1026, 2003, 2003, 2003]",[2003],"[1052, 2003]",[],[],"[4636, 3191, 1052]","[2003, 2003]",[1001],[],"[3111, 2003, 2003, 2003, 2003]",[3108],[],[3157],[],"[2003, 2003, 2003]",[],"[1026, 2003, 2003]",[],[],"[1052, 1028, 2003, 2003, 2003, 2003, 2003]",[],[],[],[4637],[],[],[]
participant_9_SOLD,[],[],[],[2003],[],[2003],[2003],[2003],[1052],[],"[2003, 2003, 2003, 2003]",[],[],[],"[2003, 2003, 2003, 2003, 2003]",[],"[3145, 1028, 1026, 1052]",[2003],[2003],[],"[1001, 2003]",[1052],[],"[3191, 3108]",[2003],[],[2003],[2003],[2003],"[2003, 2003, 2003, 2003]",[1028],[],[2003],"[2003, 2003]","[2003, 2003, 1026, 1052]",[],[],[]
participant_9_UNDO,[],[],[],[],[],[],[],[],[],[],[],[],[],[],[],[],[],[],[],[],[],[],[],[],[],[],[],[],[],[],"[[1028, 0], [0, 1028]]",[],[],[],[],[],[],[]
team0_KILLS,0,0,0,0,2,2,2,2,5,5,6,8,9,10,11,13,15,16,18,19,19,22,22,27,28,28,30,33,33,34,36,36,37,37,38,39,41,43
team0_CURRENTGOLD,2500,200,470,1646,3545,3811,4065,3857,5348,3591,3343,1444,3064,3525,4544,2852,3073,4254,7553,3344,3873,2316,2516,5829,5855,2986,4590,5175,4311,4260,4581,2537,1947,2596,1847,2980,5437,4305
team0_TOTALGOLD,2500,2500,2770,3946,5845,6811,7850,8742,11333,12656,13823,16209,17829,19140,20860,22517,24238,25419,28718,30119,30948,33326,34326,38929,40504,41386,42990,45224,46351,47849,49310,50316,52326,52976,54424,56009,58815,60940
team0_LEVEL,5,5,5,12,17,20,24,25,29,32,33,35,37,39,40,43,45,48,51,52,53,54,56,60,61,62,64,66,67,68,69,70,71,72,72,76,77,78
team0_SBIRES,0,0,9,26,41,49,73,86,111,128,141,161,178,191,204,216,228,243,274,284,291,294,312,323,344,355,359,369,375,395,398,411,426,427,443,449,460,460
team1_KILLS,0,0,0,0,1,3,3,5,6,7,8,12,13,14,16,18,19,20,21,25,28,29,31,34,38,38,42,43,44,46,50,51,54,57,58,62,66,68
team1_CURRENTGOLD,2500,65,356,1531,2233,3446,3452,5414,2814,2889,3312,2900,2375,3214,6054,5038,2047,3906,1302,4972,6086,2951,4789,2279,5478,5771,6613,4998,2621,3909,5896,5234,6269,5802,4596,7986,5360,6608
team1_TOTALGOLD,2500,2500,2791,3966,5168,7091,7947,9919,11184,12719,14442,17180,18815,20139,22990,25473,27082,29041,30107,33777,35891,36846,38684,40598,43798,45490,48283,49318,50774,52927,55601,57186,59852,62136,63504,67543,70156,72688
team1_LEVEL,5,5,6,13,16,21,24,26,29,32,36,38,41,42,46,48,50,52,53,56,57,58,59,62,64,66,67,67,69,70,73,74,76,77,80,82,86,87
team1_SBIRES,0,0,5,23,32,52,63,90,101,125,142,154,168,182,211,224,249,260,268,281,283,286,296,298,311,325,343,350,364,373,381,397,414,425,433,433,443,454
delta_KILLS,0,0,0,0,1,-1,-1,-3,-1,-2,-2,-4,-4,-4,-5,-5,-4,-4,-3,-6,-9,-7,-9,-7,-10,-10,-12,-10,-11,-12,-14,-15,-17,-20,-20,-23,-25,-25
delta_CURRENTGOLD,0,135,114,115,1312,365,613,-1557,2534,702,31,-1456,689,311,-1510,-2186,1026,348,6251,-1628,-2213,-635,-2273,3550,377,-2785,-2023,177,1690,351,-1315,-2697,-4322,-3206,-2749,-5006,77,-2303
delta_TOTALGOLD,0,0,-21,-20,677,-280,-97,-1177,149,-63,-619,-971,-986,-999,-2130,-2956,-2844,-3622,-1389,-3658,-4943,-3520,-4358,-1669,-3294,-4104,-5293,-4094,-4423,-5078,-6291,-6870,-7526,-9160,-9080,-11534,-11341,-11748
delta_LEVEL,0,0,-1,-1,1,-1,0,-1,0,0,-3,-3,-4,-3,-6,-5,-5,-4,-2,-4,-4,-4,-3,-2,-3,-4,-3,-1,-2,-2,-4,-4,-5,-5,-8,-6,-9,-9
delta_SBIRES,0,0,4,3,9,-3,10,-4,10,3,-1,7,10,9,-7,-8,-21,-17,6,3,8,8,16,25,33,30,16,19,11,22,17,14,12,2,10,16,17,6
