name,team0,team1
win,Win,Fail
firstBlood,False,True
firstTower,False,True
firstInhibitor,True,False
firstBaron,True,False
firstDragon,True,False
firstRiftHerald,True,False
towerKills,10,2
inhibitorKills,2,0
baronKills,1,0
dragonKills,4,1
riftHeraldKills,1,0
