name,frame_0,frame_1,frame_2,frame_3,frame_4,frame_5,frame_6,frame_7,frame_8,frame_9,frame_10,frame_11,frame_12,frame_13,frame_14,frame_15,frame_16,frame_17,frame_18,frame_19,frame_20,frame_21,frame_22,frame_23
nameStamp,Tstart,Tearly,Tearly,Tearly,Tearly,Tearly,Tearly,Tearly,Tearly,Tearly,Tmid,Tmid,Tmid,Tmid,Tmid,Tmid,Tmid,Tmid,Tmid,Tmid,Tmid,Tmid,Tmid,Tmid
timestamp,0,60031,120061,180081,240088,300106,360133,420166,480194,540225,600254,660254,720259,780275,840289,900296,960316,1020336,1080359,1140375,1200399,1260425,1320439,1380439
participant_0_GOLD,1400,1400,1873,2428,3188,4584,5194,6023,6522,7479,8360,8943,9375,10011,10610,11738,12222,12857,13444,14300,14753,15119,15544,15625
participant_0_CURRENTGOLD,1400,0,473,1028,1788,1384,1994,123,622,79,960,643,175,811,810,1938,1522,907,1494,500,653,19,444,525
participant_0_LEVEL,1,3,4,5,6,7,8,9,9,11,11,12,13,14,14,15,16,16,17,18,18,18,18,18
participant_0_MINIONSKILLED,0,0,3,7,14,18,25,26,29,37,42,48,50,55,57,65,69,73,82,85,88,88,89,89
participant_0_KILLS,0,0,0,0,1,3,3,4,4,5,7,7,7,7,7,9,9,9,9,11,11,11,11,11
participant_0_BUY,[],"[6670, 2003, 2003]",[],[],[],"[1018, 1053, 1001]",[],"[6673, 3111, 1038]",[],"[1053, 1018]",[],"[3072, 1042]",[3086],[],"[1042, 1042]",[],[3046],"[1057, 1036]",[],[3091],[1042],"[6677, 2140]",[],[]
participant_0_SOLD,[],[],[2003],[2003],[],[],[],"[6670, 1018, 1053, 1001]",[],[],[],"[1038, 1018, 1053]",[1042],[],[],[],"[1042, 3086, 1042]",[],[],"[1036, 1057]",[],"[1042, 2140]",[],[]
participant_0_UNDO,[],[],[],[],[],[],[],[],[],[],[],[],[],[],[],[],[],[],[],[],[],[],[],[]
participant_1_GOLD,1400,1400,2160,2642,3050,3570,4047,4593,5187,6209,6719,7079,7815,8370,9251,9961,10723,11335,11767,12381,12788,13202,13609,13690
participant_1_CURRENTGOLD,1400,0,760,92,500,1020,247,793,587,1609,2119,429,715,1270,2151,2861,3623,585,1017,731,1138,1552,1009,1090
participant_1_LEVEL,1,3,4,5,6,7,8,8,9,10,11,11,12,13,14,15,16,16,17,18,18,18,18,18
participant_1_MINIONSKILLED,0,0,1,1,1,2,2,2,2,2,2,2,5,5,6,6,6,6,6,7,8,8,9,9
participant_1_KILLS,0,0,1,1,1,1,1,2,3,5,5,5,6,6,7,8,9,9,9,9,9,9,9,9
participant_1_BUY,[],"[3802, 2003, 2003]",[],"[1026, 1001]",[],[],[6655],[],[3020],[],[],"[1026, 3916, 1028]",[3165],[],[],[],[],"[4637, 2420]",[],[3191],[],[],[3157],[]
participant_1_SOLD,[],[],"[2003, 2003]",[],[],[],"[3802, 1026]",[],[1001],[],[],[],"[1026, 3916, 1028]",[],[],[],[],[],[],[2420],[],[],"[3191, 2421]",[]
participant_1_UNDO,[],[],[],[],[],[],[],[],[],[],[],[],[],[],[],[],[],[],[],[],[],[],[],[]
participant_2_GOLD,1400,1400,2045,2488,3349,3793,4165,4657,5191,5893,6422,6788,7238,8231,9023,9556,10130,11198,11647,12007,12391,12757,13774,13855
participant_2_CURRENTGOLD,1400,0,645,338,1199,243,615,407,941,493,1022,338,338,1331,673,1206,405,1473,897,457,491,857,624,705
participant_2_LEVEL,1,3,4,5,6,7,7,8,9,10,11,11,11,12,13,14,14,16,16,17,17,17,18,18
participant_2_MINIONSKILLED,0,0,0,0,0,0,0,3,5,7,8,8,8,12,15,15,15,15,16,16,16,16,17,17
participant_2_KILLS,0,0,1,1,3,3,3,3,3,3,3,3,3,5,6,6,7,9,9,9,9,9,10,10
participant_2_BUY,[],"[3134, 2003, 2003, 1001]",[],"[1036, 1036, 2003]",[],"[3133, 6691]",[],"[1036, 1036]",[],"[3134, 1028, 1036]",[],[3814],[1033],[],"[3111, 3134]",[],"[1037, 2140]",[],[3142],[3067],[1036],[],"[3133, 2140]",[]
participant_2_SOLD,[],[],[],[],[2003],"[1036, 1036, 3134, 3133]",[],[],[],"[1036, 1036]",[],"[1036, 3134, 1028]",[],[],"[1001, 1033]",[],[2140],[],"[3134, 1037]",[],[],[],"[1036, 2140]",[]
participant_2_UNDO,[],"[[0, 2003], [0, 2003]]",[],[],[],[],[],[],[],[],[],[],[],[],[],[],[],[],[],[],[],[],[],[]
participant_3_GOLD,1400,1400,1836,2567,3192,3570,4245,5397,6032,6916,7518,8517,9944,10510,11226,11638,12172,13028,13459,14506,15041,15589,16291,16372
participant_3_CURRENTGOLD,1400,0,436,1167,1792,70,745,162,797,1681,2283,1417,2844,3410,326,738,472,128,559,106,641,1189,191,272
participant_3_LEVEL,1,3,4,5,6,7,7,9,10,10,11,12,14,15,15,16,16,17,17,18,18,18,18,18
participant_3_MINIONSKILLED,0,0,1,5,6,6,9,11,18,23,30,32,40,43,47,47,50,55,57,64,69,75,75,75
participant_3_KILLS,0,0,0,1,1,1,2,4,4,5,5,7,9,9,9,9,9,10,10,11,11,11,12,12
participant_3_BUY,[],"[3802, 2003, 2003]",[],[],[],"[3108, 6653]",[],"[3158, 3057, 1052]",[],[],[],[3100],[],[],[3089],[],[3916],[3086],[],[3094],[],[],[3165],[]
participant_3_SOLD,[],[],[2003],[2003],[],"[3802, 3108]",[],[2422],[],[],[],"[3057, 1052]",[],[],[],[],[],[],[],[3086],[],[],[3916],[]
participant_3_UNDO,[],[],[],[],[],[],[],[],[],[],[],[],[],[],[],[],[],[],[],[],[],[],[],[]
participant_4_GOLD,1400,1400,1895,2517,3061,3581,3941,4680,5111,5793,6334,6694,7502,8300,9225,9735,10335,10845,11235,11762,12122,12517,12900,12981
participant_4_CURRENTGOLD,1400,0,495,1117,1661,331,241,980,311,993,1534,144,952,850,1775,2285,1785,320,710,1237,472,467,850,931
participant_4_LEVEL,1,3,4,5,6,7,7,9,9,10,11,11,12,13,14,15,15,16,16,17,17,17,18,18
participant_4_MINIONSKILLED,0,0,2,11,15,16,16,21,22,24,25,25,29,31,34,35,35,35,35,39,39,40,41,41
participant_4_KILLS,0,0,0,0,0,0,0,1,1,1,1,1,2,4,5,5,6,6,6,6,6,6,6,6
participant_4_BUY,[],"[2051, 1036, 2003, 2003]",[],[],[],"[3067, 3051, 1001]",[1033],[],[3044],[],[],"[6630, 3111]",[],[1057],[],[],[3091],"[3133, 1037]",[],[],[6333],[1028],[],[]
participant_4_SOLD,[],[2003],[2003],[],[],[1036],[],[],[],[],[],"[3044, 3067, 1001, 1033]",[],[],[],[],"[3051, 1057]",[],[],[],"[3133, 1037]",[],[],[]
participant_4_UNDO,[],[],[],[],[],[],[],[],[],[],[],[],[],[],[],[],[],[],[],[],[],[],[],[]
participant_5_GOLD,1400,1400,1827,2359,2933,3681,4220,4792,5368,6095,6723,7544,8034,8428,9065,9569,10205,10595,11121,11555,12151,12747,14105,14186
participant_5_CURRENTGOLD,1400,100,227,759,1333,2081,520,292,868,695,1323,44,99,493,365,869,205,195,721,305,901,1497,1105,1186
participant_5_LEVEL,1,3,4,5,6,7,8,9,9,10,11,12,13,13,14,14,15,15,16,16,17,17,18,18
participant_5_MINIONSKILLED,0,0,0,4,13,14,16,17,22,29,31,39,43,44,47,49,49,49,49,52,57,61,61,61
participant_5_KILLS,0,0,0,0,0,1,1,2,2,3,4,4,4,4,5,5,6,6,6,6,6,6,8,8
participant_5_BUY,[],[3802],[1001],[],[],[],[6656],[3020],[],[1011],[],"[1026, 1052, 3116]",[1052],[],"[3916, 1028]",[],"[1026, 3165]",[1028],[],[1026],[],[],[4637],[3191]
participant_5_SOLD,[],[],[],[],[],[],[3802],[1001],[],[],[],"[1026, 1011, 1052]",[],[],[1052],[],"[1026, 3916, 1028]",[],[],[],[],[],"[1026, 1028]",[]
participant_5_UNDO,[],[],[],[],[],[],[],[],[],[],[],[],[],[],[],[],[],[],[],[],[],[],[],"[[0, 3191]]"
participant_6_GOLD,1400,1400,1823,2238,2664,3192,3711,4731,5220,5610,6088,6704,7314,7802,8238,8708,9452,10006,10577,11328,12216,12788,14133,14240
participant_6_CURRENTGOLD,1400,0,423,838,364,892,1411,81,570,310,788,504,1114,1602,188,658,202,756,1327,2078,2966,3538,4883,4990
participant_6_LEVEL,1,3,4,5,6,7,8,8,9,10,11,11,12,13,13,14,15,16,17,18,18,18,18,18
participant_6_MINIONSKILLED,0,0,0,0,0,0,0,0,1,1,5,7,9,13,14,16,16,22,24,25,27,31,34,34
participant_6_KILLS,0,0,0,0,0,0,0,2,2,2,2,2,3,3,3,3,4,4,4,5,7,7,9,9
participant_6_BUY,[],"[3802, 2003, 2003]",[],[],"[1026, 2003]",[],[],"[6655, 1001, 3020]",[],[2420],[],"[1052, 1029, 3191]",[],[],"[3157, 1052, 3108]",[],[4632],[],[],[],[],[],[],[]
participant_6_SOLD,[],[2003],[2003],[],[],[2003],[],"[3802, 1026, 1001]",[],[],[],"[2420, 1052, 1029]",[],[],"[3191, 2421, 1052]",[],[],[],[],[],[],[],[],[]
participant_6_UNDO,[],[],[],[],[],[],[],[],[],[],[],[],[],[],[],[],[],[],[],[],[],[],[],[]
participant_7_GOLD,1400,1400,2065,2555,3068,3843,4288,5158,5661,6021,6525,7605,8079,8457,8883,9323,10365,10749,11313,12555,13176,14133,15013,15094
participant_7_CURRENTGOLD,1400,0,665,1155,1668,2443,688,458,961,221,725,1805,179,557,283,323,1365,874,1438,2680,3301,4258,4113,794
participant_7_LEVEL,1,3,4,5,6,7,8,8,9,9,10,11,12,12,13,13,14,15,15,17,18,18,18,18
participant_7_MINIONSKILLED,0,0,3,4,6,7,9,9,12,12,14,16,16,16,16,19,20,20,23,23,25,29,30,30
participant_7_KILLS,0,0,1,1,1,2,2,3,3,3,3,5,5,5,5,5,6,6,6,9,9,11,11,11
participant_7_BUY,[],"[3184, 3070, 2003]",[],[],[],[],[3004],[3111],[],[3134],[],[],[6691],[],"[1036, 1036]",[3134],[],[1037],[],[],[],[],[6676],[3072]
participant_7_SOLD,[],[],[],[],[2003],[],[3070],[],[],[],[],[3004],[3134],[],[],"[1036, 1036]",[],[],[],[],[],[],"[3134, 1037]",[]
participant_7_UNDO,[],[],[],[],[],[],[],[],[],[],[],[],[],[],[],[],[],[],[],[],[],[],[],[]
participant_8_GOLD,1400,1400,1869,2518,2924,4349,4875,5424,6110,6582,7072,8741,9311,9812,11384,11856,12899,13427,14687,15149,15993,16756,18117,18350
participant_8_CURRENTGOLD,1400,0,469,1118,224,149,675,424,1110,332,822,2491,461,962,1684,421,1464,327,1587,799,1643,2406,3767,4000
participant_8_LEVEL,1,3,4,5,6,7,8,9,10,10,11,12,13,13,14,15,16,17,17,18,18,18,18,18
participant_8_MINIONSKILLED,0,0,0,0,1,7,12,20,24,25,29,32,39,43,49,54,69,76,85,87,103,108,121,121
participant_8_KILLS,0,0,0,1,1,5,5,5,6,6,6,9,9,9,11,11,12,12,14,14,14,15,16,17
participant_8_BUY,[],"[3070, 3108, 2003, 2003]",[],[],[3802],"[6653, 1001]",[],[3020],[],[1058],[],[],"[3003, 4630]",[],[1026],"[3135, 1011, 1052]",[],[4637],[],[1058],[],[],[],[]
participant_8_SOLD,[],[],[],"[2003, 2003]",[],"[3802, 3108]",[],[1001],[],[],[],[],"[3070, 1058, 3003]",[],[],"[4630, 1026]",[],"[1011, 1052]",[],[],[],[],[],[]
participant_8_UNDO,[],[],[],[],[],[],[],[],[],[],[],[],[],[],[],[],[],[],[],[],[],[],[],[]
participant_9_GOLD,1400,1400,1893,2530,2967,3613,4491,5093,5604,6077,6575,7193,7763,8205,8872,9330,10392,10861,11449,11884,12313,13007,14220,14326
participant_9_CURRENTGOLD,1400,0,493,1130,267,913,1791,293,804,477,975,343,563,1005,672,330,542,1011,1599,1184,363,1057,2270,2376
participant_9_LEVEL,1,3,4,5,6,7,8,9,9,10,11,12,12,13,14,14,15,16,16,17,17,18,18,18
participant_9_MINIONSKILLED,0,0,4,6,7,10,15,16,18,19,20,20,20,21,22,24,24,26,28,29,29,32,36,36
participant_9_KILLS,0,0,0,1,1,1,3,3,3,3,3,3,4,4,4,4,5,5,5,5,5,5,5,5
participant_9_BUY,[],"[3112, 3070, 2003]",[],[],[3802],[],[],[6655],[],[3020],[],[1058],[1027],[],[3003],[3916],[1026],[],[],[3165],[1058],[],[],[]
participant_9_SOLD,[],[],[2003],[],[],[],[],[3802],[],[2422],[],[],[],[],"[3070, 1058, 1027, 3003]",[],[],[],[],"[1026, 3916]",[],[],[],[]
participant_9_UNDO,[],[],[],[],[],[],[],[],[],[],[],[],[],[],[],[],[],[],[],[],[],[],[],[]
team0_KILLS,0,0,2,3,6,8,9,14,15,19,21,23,27,31,34,37,40,43,43,46,46,46,48,48
team0_CURRENTGOLD,7000,0,2809,3742,6940,3048,3842,2465,3258,4855,7918,2971,5024,7672,5735,9028,7807,3413,4677,3031,3395,4084,3118,3523
team0_TOTALGOLD,7000,7000,9809,12642,15840,19098,21592,25350,28043,32290,35353,38021,41874,45422,49335,52628,55582,59263,61552,64956,67095,69184,72118,72523
team0_LEVEL,5,15,20,25,30,35,37,43,46,51,55,57,62,67,70,75,77,81,83,88,88,88,90,90
team0_SBIRES,0,0,7,24,36,42,52,63,76,93,107,115,132,146,159,168,175,184,196,211,220,227,231,231
team1_KILLS,0,0,1,3,3,9,11,15,16,17,18,23,25,25,28,28,33,33,35,39,41,44,49,50
team1_CURRENTGOLD,7000,100,2277,5000,3856,6478,5085,1548,4313,2035,4633,5187,2416,4619,3192,2601,3778,3163,6672,7046,9174,12756,16138,13346
team1_TOTALGOLD,7000,7000,9477,12200,14556,18678,21585,25198,27963,30385,32983,37787,40501,42704,46442,48786,53313,55638,59147,62471,65849,69431,75588,76196
team1_LEVEL,5,15,20,25,30,35,40,43,46,49,54,58,62,64,68,70,75,79,81,86,88,89,90,90
team1_SBIRES,0,0,7,14,27,38,52,62,77,86,99,114,127,137,148,162,178,193,209,216,241,261,282,282
delta_KILLS,0,0,1,0,3,-1,-2,-1,-1,2,3,0,2,6,6,9,7,10,8,7,5,2,-1,-2
delta_CURRENTGOLD,0,-100,532,-1258,3084,-3430,-1243,917,-1055,2820,3285,-2216,2608,3053,2543,6427,4029,250,-1995,-4015,-5779,-8672,-13020,-9823
delta_TOTALGOLD,0,0,332,442,1284,420,7,152,80,1905,2370,234,1373,2718,2893,3842,2269,3625,2405,2485,1246,-247,-3470,-3673
delta_LEVEL,0,0,0,0,0,0,-3,0,0,2,1,-1,0,3,2,5,2,2,2,2,0,-1,0,0
delta_SBIRES,0,0,0,10,9,4,0,1,-1,7,8,1,5,9,11,6,-3,-9,-13,-5,-21,-34,-51,-51
