name,team0,team1
win,Fail,Win
firstBlood,True,False
firstTower,False,True
firstInhibitor,False,True
firstBaron,False,False
firstDragon,False,False
firstRiftHerald,False,False
towerKills,1,4
inhibitorKills,0,2
baronKills,0,0
dragonKills,0,0
riftHeraldKills,0,0
