name,frame_0,frame_1,frame_2,frame_3,frame_4,frame_5,frame_6,frame_7,frame_8,frame_9,frame_10,frame_11,frame_12,frame_13,frame_14,frame_15,frame_16,frame_17,frame_18,frame_19,frame_20,frame_21,frame_22,frame_23,frame_24,frame_25,frame_26,frame_27,frame_28,frame_29,frame_30,frame_31,frame_32
nameStamp,Tstart,Tearly,Tearly,Tearly,Tearly,Tearly,Tearly,Tearly,Tearly,Tearly,Tearly,Tearly,Tearly,Tearly,Tmid,Tmid,Tmid,Tmid,Tmid,Tmid,Tmid,Tmid,Tend,Tend,Tend,Tend,Tend,Tend,Tend,Tend,Tend,Tend,Tend
timestamp,0,60026,120039,180065,240068,300076,360089,420116,480130,540138,600140,660148,720176,780204,840235,900250,960275,1020299,1080329,1140350,1200366,1260386,1320392,1380394,1440427,1500435,1560450,1620468,1680469,1740489,1800513,1860544,1920544
participant_0_GOLD,500,533,554,1019,1211,1829,2008,2130,2471,2993,3699,4150,5181,6095,6538,7510,7907,8566,9638,10102,10346,11359,11632,12378,12850,13998,14958,15800,15964,16387,16509,16887,17124
participant_0_CURRENTGOLD,500,33,54,519,86,704,883,130,471,593,1299,50,1081,255,638,1210,467,1126,2198,63,307,1320,1592,2338,1011,2159,148,991,1030,1452,1575,1953,1014
participant_0_LEVEL,1,1,1,3,4,5,5,6,6,7,7,8,9,9,10,10,10,11,12,12,12,13,13,14,14,15,15,16,16,16,16,17,17
participant_0_MINIONSKILLED,0,0,0,2,6,14,17,17,21,21,28,30,36,39,40,40,41,51,60,62,62,71,71,81,81,95,105,115,117,117,117,119,120
participant_0_KILLS,0,0,0,2,2,2,3,3,3,3,3,3,3,3,3,3,3,3,4,4,4,4,4,5,5,6,6,6,6,6,6,6,6
participant_0_BUY,[],"[1055, 3340, 2003]",[],[],"[1036, 1042, 1042, 1037]",[1001],"[1036, 2055, 2003]",[],[],"[1036, 2003]","[6670, 2055]",[],[],[],[],[6671],[],"[3009, 2055]",[],[1037],[],"[1018, 3363]",[],[],[1038],[],"[3031, 2055]",[],[],[3140],"[3086, 2015]",[],[]
participant_0_SOLD,[],[],[],[2003],[],[],[],[2055],[],[],"[2003, 1036, 1036]",[],[],[2055],[],"[2003, 6670, 1037]",[],[1001],[2055],[],[],[3340],[],[],[],[],"[1038, 1037, 1018]",[],[],[],[1055],[],[]
participant_0_UNDO,[],[],[],[],"[[0, 1042], [0, 1042], [0, 1036]]",[],[],[],[],[],[],[],[],[],[],[],[],[],[],[],[],[],[],[],[],[],[],[],[],"[[0, 3140]]",[],[],[]
participant_1_GOLD,500,553,674,963,1303,1784,2105,2626,3692,4235,4695,5067,5619,6993,7436,7822,7960,8422,9079,9371,9973,11023,11466,11668,12256,12756,13002,13449,13697,14145,14745,16417,16558
participant_1_CURRENTGOLD,500,53,174,463,803,1284,205,726,1792,2335,2795,259,811,2185,78,464,252,714,1371,493,1095,2146,113,315,904,1403,449,1736,585,1032,1633,3305,500
participant_1_LEVEL,1,1,2,2,3,4,5,5,6,6,7,8,8,9,9,10,10,11,11,12,12,13,13,13,14,14,14,15,15,16,16,17,17
participant_1_MINIONSKILLED,0,0,0,1,1,3,3,3,4,4,8,8,9,17,17,17,17,20,21,21,21,22,22,23,23,25,25,25,25,25,32,45,45
participant_1_KILLS,0,0,0,0,0,1,1,2,4,5,5,5,6,7,8,8,8,8,9,9,10,12,13,13,13,13,13,13,13,13,13,16,16
participant_1_BUY,[],"[1039, 2031, 3340]",[],[],[],[],"[3051, 1001]",[],[],[],[],"[3078, 3057, 1018, 2055]",[],[],"[3124, 1036]",[],[1036],[],[],"[1018, 1037]",[],[],"[3153, 1028, 3158]",[],[],[],"[3044, 3077]",[],"[1011, 2138]",[],[],[],[3075]
participant_1_SOLD,[],[],[],[],[],[],[],[],[],[1039],[],[3051],[2055],"[3340, 3513]",[1018],[],[],[],[],"[2031, 1036]",[3340],[3513],"[1036, 1037, 1001]",[],[],[],[],[3077],[2138],[],[],[],[1011]
participant_1_UNDO,[],[],[],[],[],[],[],[],[],[],[],"[[0, 3057]]",[],[],[],[],[],[],[],[],[],[],"[[0, 1028]]",[],[],[],"[[0, 3044]]",[],[],[],[],[],[]
participant_2_GOLD,500,900,984,1257,1576,1834,2372,2613,2979,3499,3754,4050,4399,4747,5253,5492,6357,6674,6918,7105,7359,8077,8458,9214,9571,9907,10114,10966,11109,11837,12071,12569,13302
participant_2_CURRENTGOLD,500,400,484,747,1066,274,402,643,999,1509,614,910,359,707,1213,217,182,559,803,990,1244,797,1178,1934,1042,127,334,1326,169,898,281,780,1352
participant_2_LEVEL,1,1,1,3,4,5,5,6,7,8,8,8,9,9,10,10,11,11,11,11,12,13,13,13,13,14,14,14,14,15,15,15,15
participant_2_MINIONSKILLED,0,0,3,9,20,25,29,36,47,58,66,72,77,85,91,93,96,103,108,111,119,125,131,132,137,140,140,140,141,151,153,159,162
participant_2_KILLS,0,0,0,0,0,1,1,1,1,1,1,1,1,1,1,1,1,1,1,1,1,1,1,1,1,1,1,1,1,1,1,2,2
participant_2_BUY,[],"[3340, 2003, 2003, 2003, 3854]",[],[],"[1001, 2031]",[],"[3117, 2055, 2055]",[],[],[1028],[3067],[],"[1033, 1029, 3364]",[],[],[],[3105],"[2055, 3190]",[],"[1028, 2055]",[],[],"[3067, 2055, 2055]",[],[3114],[],"[3107, 1028]",[],[3067],[3801],[],[],"[3109, 1028]"
participant_2_SOLD,[],[],[],"[2003, 2003]",[],[],"[2419, 1001, 2055]",[],[2423],[],"[1028, 2055]",[],"[2424, 3340]",[],[3854],[],"[1033, 1029]","[2055, 3067, 3105]",[],[],[2055],[],[1028],"[2055, 3855]",[2055],[],"[3067, 3114]",[],[1028],[2031],[],[],"[3801, 3067]"
participant_2_UNDO,[],"[[0, 2003]]",[],[],[],[],[],[],[],[],[],[],[],[],[],[],[],[],[],[],[],[],[],[],[],[],[],[],[],[],[],[],[]
participant_3_GOLD,500,500,563,1400,1543,1757,2228,2574,2923,3129,3301,3687,3872,4228,4856,4979,5382,5525,5998,6120,6403,6972,7204,7951,8222,8819,9027,9477,9937,10359,10656,11156,11339
participant_3_CURRENTGOLD,500,0,63,900,168,82,78,424,773,579,76,462,647,1003,1631,529,932,400,873,120,403,372,604,1351,322,919,427,878,1337,1759,336,837,839
participant_3_LEVEL,1,1,1,2,3,3,4,5,5,6,6,6,7,7,8,8,8,8,9,9,9,10,10,11,11,12,12,12,13,13,14,14,14
participant_3_MINIONSKILLED,0,0,2,10,11,16,19,32,39,44,47,59,62,70,77,77,87,88,88,88,93,93,94,100,106,108,108,113,123,123,129,137,140
participant_3_KILLS,0,0,0,1,1,2,2,2,2,3,4,5,6,6,7,8,8,9,10,11,11,12,12,12,12,14,16,16,16,16,16,16,16
participant_3_BUY,[],"[1054, 2003, 3340]",[],[],"[1028, 2031, 2055]",[],[],"[3123, 2055]",[],[1028],[],"[6660, 3105]",[],"[3068, 1033, 1001, 1033, 3111]","[3068, 3111]",[1028],[3077],[],[],"[3748, 1028, 1011]",[],[],[],[],[3001],[],"[6609, 3211]",[],[3082],[],[],[],[]
participant_3_SOLD,[],[],[],[2003],[],[2055],[],[],[],[],[],"[1028, 1028]",[],"[6660, 3105, 2031, 1001, 1033]","[6660, 3105, 2055]",[],[2031],[],[],"[3077, 1028, 1028]",[],[],[],[],[1011],[],"[3123, 1054]",[],[3211],[],[],[],[]
participant_3_UNDO,[],[],[],[],[],[],[],[],[],[],[],[],[],"[[0, 1033]]","[[0, 3111], [0, 1033], [2031, 0], [0, 1001], [0, 3068]]",[],[],[],[],[],[],[],[],[],[],[],[],[],[],[],[],[],[]
participant_4_GOLD,500,533,577,912,1046,1585,1898,2259,2494,2778,2957,3216,3350,3598,3891,4031,4327,4567,4910,5093,5302,5864,6139,6612,6802,7306,7671,7911,8052,8495,8636,9486,9707
participant_4_CURRENTGOLD,500,33,77,412,96,635,98,459,694,578,357,616,40,288,571,711,257,22,365,73,282,844,569,1042,462,966,231,471,212,65,206,1056,-93
participant_4_LEVEL,1,1,1,2,3,4,4,5,5,6,6,7,7,7,7,8,8,8,9,9,9,11,11,11,12,12,12,13,13,13,13,14,14
participant_4_MINIONSKILLED,0,0,1,3,3,6,8,12,12,12,15,19,19,20,21,21,22,24,25,27,27,27,30,33,33,36,36,36,36,37,37,40,40
participant_4_KILLS,0,1,1,1,1,1,2,2,2,2,2,2,2,2,2,2,4,4,4,4,4,4,4,6,6,6,6,8,8,8,8,8,9
participant_4_BUY,[],"[1082, 2031, 3340]",[],[],[],[3145],[1028],[],[],[],"[1026, 1001]",[],[3152],[],[],"[3020, 1052]","[3191, 1052]",[],[],[],[],[3157],[],[],[1058],[1058],[],[],[3089],[],[1026],[],[]
participant_4_SOLD,[],[],[],[],[],[],[],[],[],[],[],[],"[3145, 1028, 1026]",[],[],[1001],[1052],[2031],[],[],[],"[3191, 1052]",[],[],[],[],[],[1082],"[1058, 1058]",[],[],[],[]
participant_4_UNDO,[],[],[],[],[],[],[],[],[],[],[],[],[],[],[],[],[],[],[],[],[],[],[],[],[],[],[],[],[],[],[],[],[]
participant_5_GOLD,500,500,563,818,1346,1800,2064,2904,3084,3651,3773,4067,4189,4361,4599,4991,5577,5721,5918,6041,6243,6415,6638,6760,7018,7215,7337,7687,7810,8432,8652,8776,8817
participant_5_CURRENTGOLD,500,0,63,318,846,450,279,1119,134,701,523,317,439,611,849,191,342,486,683,405,608,280,503,625,882,1080,352,67,190,812,132,256,117
participant_5_LEVEL,1,1,1,3,4,4,5,6,7,8,8,8,8,8,8,9,9,10,10,10,10,10,10,10,11,11,11,12,12,13,13,13,13
participant_5_MINIONSKILLED,0,0,2,10,16,16,17,23,26,43,43,44,44,44,44,44,45,46,46,46,47,47,47,47,54,54,54,55,55,55,56,56,56
participant_5_KILLS,0,0,0,0,1,2,2,3,3,3,3,3,3,3,3,3,4,4,4,4,4,4,4,4,4,4,4,4,4,5,5,5,5
participant_5_BUY,[],"[1054, 2003]",[],[],[],[1026],[1052],[],"[4635, 1001]",[],[1029],[3047],[],[],[],[4633],[1052],[],[],[1028],[],[1011],[],[],[],[],[1026],[4637],[],[],[3191],[],[]
participant_5_SOLD,[],[],[],[2003],[],[],[],[],[1052],[],[],"[1001, 1029]",[],[],[],"[4635, 1026]",[],[],[],[],[],[1028],[],[],[],[],[],"[1054, 1026, 1011, 1052]",[],[],[],[],[]
participant_5_UNDO,[],[],[],[],[],[],[],[],[],[],[],[],[],[],[],[],[],[],[],[],[],[],[],[],[],[],[],[],[],[],[],[],[]
participant_6_GOLD,500,500,621,958,1341,1615,1848,2190,2747,3270,3477,3870,4228,4425,5055,5832,6180,6577,7009,7282,7782,7980,8182,8359,8787,9547,9699,10069,11023,11605,12004,12662,13003
participant_6_CURRENTGOLD,500,0,121,458,841,415,648,165,722,495,702,1095,1443,640,1270,72,420,817,1249,647,1147,320,172,349,427,787,249,619,173,756,1154,713,1003
participant_6_LEVEL,1,1,2,3,4,4,5,5,6,6,6,7,8,8,8,9,9,10,10,11,11,11,11,12,12,12,12,13,14,14,14,15,15
participant_6_MINIONSKILLED,0,0,0,0,0,0,2,2,3,3,3,7,11,11,14,14,14,14,15,15,22,26,26,26,34,34,34,34,38,38,40,40,40
participant_6_KILLS,0,0,0,0,0,1,1,1,1,1,1,1,1,1,1,1,2,2,2,2,2,2,3,3,3,3,3,3,3,3,3,3,3
participant_6_BUY,[],"[3854, 2003, 2003]",[],[],[],[],[],"[3067, 3801, 1006, 2055]",[],"[1001, 2003]",[],[3109],[],"[3111, 1028]",[],"[3364, 2055]",[],"[3067, 1027]",[3024],[],[],[3050],[],"[3067, 1004]","[3340, 1028]",[],[],[6660],[],[],[3114],[],[]
participant_6_SOLD,[],[],[],"[2003, 2010]",[],[],"[2003, 2010]",[2010],[2055],[],[2003],"[3801, 1006, 3067]",[],[1001],[3854],[3340],[],[1028],"[2055, 1027]",[],[],"[3067, 3024]",[],[],"[3364, 3855]",[],[],[1028],[],[],[1004],[],[]
participant_6_UNDO,[],[],[],[],[],[],[],[],[],[],[],[],[],[],[],[],[],[],[],[],[],[],[],[],[],[],[],[],[],[],[],[],[]
participant_7_GOLD,500,500,612,955,1162,1560,2220,2562,2866,3038,3251,4939,5166,5464,5747,5869,6490,6806,6970,7093,7496,7669,8916,9128,9474,10321,10617,11453,11886,12607,12790,13018,13209
participant_7_CURRENTGOLD,500,0,112,445,167,45,705,1037,1331,173,236,1924,601,464,282,404,1025,106,270,153,156,329,711,923,1269,866,1163,1998,2431,1963,845,564,574
participant_7_LEVEL,1,1,1,3,4,4,5,6,7,7,8,9,9,9,10,10,11,11,11,11,12,12,12,13,13,14,14,14,15,15,16,16,16
participant_7_MINIONSKILLED,0,0,5,15,20,25,29,40,48,51,56,62,68,76,80,80,89,94,97,97,111,111,124,125,134,134,140,144,153,156,156,162,162
participant_7_KILLS,0,0,0,0,0,0,2,2,2,2,3,3,5,5,6,7,9,10,10,11,11,11,11,11,11,12,12,13,13,14,14,14,14
participant_7_BUY,[],"[1055, 2003, 3340]",[],[],[],[],"[1053, 1001, 1036]",[],[1018],[],[],[6670],[],"[6673, 3133, 3057, 1018]",[],[],[3508],[1038],[],[],[3006],[1037],[],[3031],[],[],[3086],[],[3123],[],"[3033, 3086]",[],[]
participant_7_SOLD,[],[],[],[2003],[],[],[],[],[],[],[],[1036],[],"[6670, 1018, 1053]",[],[],"[3057, 1018]",[],[],[],[1001],[],[],"[1038, 1037]",[],[],[],[],[1055],[],"[3123, 3086]",[],[]
participant_7_UNDO,[],[],[],[],[],[],[],[],[],[],[],[],[],"[[0, 3133]]",[],[],[],[],[],[],[],[],[],[],[],[],[],[],[],[],[],[],[]
participant_8_GOLD,500,500,584,762,1088,1425,2148,2396,2795,3200,3842,4194,5278,5835,6593,7093,8128,8470,8781,9406,9759,10489,11234,11439,11690,12559,12714,13511,13712,14836,15229,15645,15686
participant_8_CURRENTGOLD,500,0,84,262,588,925,98,346,145,550,1192,594,1678,335,1092,1593,1028,70,381,1006,559,415,1159,139,391,1260,214,1012,592,1717,210,626,486
participant_8_LEVEL,1,1,1,2,3,3,4,4,5,6,7,7,8,8,8,9,10,10,10,11,11,12,13,13,13,14,14,14,14,15,15,16,16
participant_8_MINIONSKILLED,0,0,3,6,18,24,24,31,40,54,62,72,83,89,93,98,101,101,107,115,121,132,146,147,155,163,163,163,168,177,182,186,186
participant_8_KILLS,0,0,0,0,0,0,1,1,1,1,1,3,3,3,3,3,3,3,3,3,3,3,4,4,4,5,5,7,7,8,8,8,8
participant_8_BUY,[],"[1056, 2003, 2003]",[],[],"[1052, 2003]","[1052, 2055]",[],[],[],"[3802, 1026, 2003]",[2031],[],"[6656, 1001]",[1052],[3108],[],[],"[3067, 3020, 1052]",[],[1028],[3067],[],[4629],[],[],[1058],[],[],[],[1058],[3089],"[1052, 2055, 3363]",[]
participant_8_SOLD,[],[],[],[],[],[2003],[2055],[],"[2003, 2003]","[1052, 1052, 2003]",[],[],"[3802, 1026]",[],[1052],[],[],[1001],[],[1056],[1028],[],"[3108, 3067, 1052]",[],[],[],[],[],[],[2031],"[1058, 1058]",[3340],[]
participant_8_UNDO,[],[],[],[],[],[],[],[],[],[],[],[],[],[],[],[],[],"[[0, 3067]]",[],[],[],[],[],[],[],[],[],[],[],[],[],[],[]
participant_9_GOLD,500,500,565,699,925,1537,2143,2277,2521,2763,3199,3383,3993,4458,4659,4862,5631,5771,5912,6112,6436,6627,7559,7699,7842,8250,8372,8610,8732,9079,9261,9459,9500
participant_9_CURRENTGOLD,500,0,65,199,425,1037,1643,102,346,238,674,158,768,33,234,362,1131,521,112,312,636,127,1059,149,52,460,582,220,343,689,321,520,400
participant_9_LEVEL,1,1,1,1,3,4,5,5,5,6,6,7,7,8,8,8,9,9,9,9,10,10,10,10,11,11,11,12,12,13,13,14,14
participant_9_MINIONSKILLED,0,0,2,2,7,9,16,16,18,21,24,27,29,29,30,34,37,37,37,39,41,41,45,45,45,51,51,53,53,56,56,56,56
participant_9_KILLS,0,0,0,0,0,0,0,0,1,2,2,2,2,2,3,4,4,4,5,5,5,5,5,5,5,7,7,7,8,9,9,10,11
participant_9_BUY,[],"[1039, 2031, 3340]",[],[],[],"[1036, 1036]",[],"[3134, 1036, 2055]",[],[3133],[],[],[],"[6691, 3364]",[],"[3047, 3134, 2055]",[],[],[],[1037],[],[3142],[1036],[],[1036],[3134],"[1028, 1036]",[],"[3814, 1036]",[],[],[3035],[]
participant_9_SOLD,[],[],[],[],[],[],[],"[1036, 1036]",[1039],"[1036, 2055]",[],[],[],"[3134, 3133, 3340]",[],[2422],[],[],[],[],[2055],"[3134, 1037]",[],[],[],"[1036, 1036]",[2031],[],"[1036, 3134, 1028]",[],[],[1036],[]
participant_9_UNDO,[],[],[],[],[],[],[],[],[],[],[],[],[],[],[],[],[],[],[],[],[],[],[],[],[],[],[],[],[],[],[],[],[]
team0_KILLS,0,1,1,4,4,7,9,10,12,14,15,16,18,19,21,22,24,25,28,29,30,33,34,37,37,40,42,44,44,44,44,48,49
team0_CURRENTGOLD,2500,519,852,3041,2219,2979,1666,2382,4729,5594,5141,2297,2938,4438,4131,3131,2090,2821,5610,1739,3331,5479,4056,6980,3741,5574,1589,5402,3333,5206,4031,7931,3612
team0_TOTALGOLD,2500,3019,3352,5551,6679,8789,10611,12202,14559,16634,18406,20170,22421,25661,27974,29834,31933,33754,36543,37791,39383,43295,44899,47823,49701,52786,54772,57603,58759,61223,62617,66515,68030
team0_LEVEL,5,5,6,12,17,21,23,27,29,33,34,37,40,41,44,46,47,49,52,53,54,60,60,62,64,67,67,70,71,73,74,77,77
team0_SBIRES,0,0,6,25,41,64,76,100,123,139,164,188,203,231,246,248,263,286,302,309,322,338,348,369,380,404,414,429,442,453,468,500,507
team1_KILLS,0,0,0,0,1,3,6,7,8,9,10,12,14,14,16,18,22,23,24,25,25,25,27,27,27,31,31,34,35,39,39,40,41
team1_CURRENTGOLD,2500,0,445,1682,2867,2872,3373,2769,2678,2157,3327,4088,4929,2083,3727,2622,3946,2000,2695,2523,3106,1471,3604,2185,3021,4453,2560,3916,3729,5937,2662,2679,2580
team1_TOTALGOLD,2500,2500,2945,4192,5862,7937,10423,12329,14013,15922,17542,20453,22854,24543,26653,28647,32006,33345,34590,35934,37716,39180,42529,43385,44811,47892,48739,51330,53163,56559,57936,59560,60215
team1_LEVEL,5,5,6,12,18,19,24,26,30,33,35,38,40,41,42,45,48,50,50,52,54,55,56,58,60,62,62,65,67,70,71,74,74
team1_SBIRES,0,0,12,33,61,74,88,112,135,172,188,212,235,249,261,270,286,292,302,312,342,357,388,390,422,436,442,449,467,482,490,500,500
delta_KILLS,0,1,1,4,3,4,3,3,4,5,5,4,4,5,5,4,2,2,4,4,5,8,7,10,10,9,11,10,9,5,5,8,8
delta_CURRENTGOLD,0,519,407,1359,-648,107,-1707,-387,2051,3437,1814,-1791,-1991,2355,404,509,-1856,821,2915,-784,225,4008,452,4795,720,1121,-971,1486,-396,-731,1369,5252,1032
delta_TOTALGOLD,0,519,407,1359,817,852,188,-127,546,712,864,-283,-433,1118,1321,1187,-73,409,1953,1857,1667,4115,2370,4438,4890,4894,6033,6273,5596,4664,4681,6955,7815
delta_LEVEL,0,0,0,0,-1,2,-1,1,-1,0,-1,-1,0,0,2,1,-1,-1,2,1,0,5,4,4,4,5,5,5,4,3,3,3,3
delta_SBIRES,0,0,-6,-8,-20,-10,-12,-12,-12,-33,-24,-24,-32,-18,-15,-22,-23,-6,0,-3,-20,-19,-40,-21,-42,-32,-28,-20,-25,-29,-22,0,7
