name,team0,team1
win,Win,Fail
firstBlood,False,True
firstTower,True,False
firstInhibitor,True,False
firstBaron,True,False
firstDragon,False,True
firstRiftHerald,True,False
towerKills,11,1
inhibitorKills,3,0
baronKills,1,0
dragonKills,2,2
riftHeraldKills,1,0
