name,frame_0,frame_1,frame_2,frame_3,frame_4,frame_5,frame_6,frame_7,frame_8,frame_9,frame_10,frame_11,frame_12,frame_13,frame_14,frame_15,frame_16,frame_17,frame_18,frame_19,frame_20,frame_21
nameStamp,Tstart,Tearly,Tearly,Tearly,Tearly,Tearly,Tearly,Tearly,Tearly,Tearly,Tearly,Tearly,Tearly,Tearly,Tearly,Tearly,Tmid,Tmid,Tmid,Tmid,Tmid,Tmid
timestamp,0,60015,120031,180053,240068,300089,360108,420134,480152,540176,600202,660234,720253,780278,840291,900311,960331,1020344,1080361,1140376,1200390,1260390
participant_0_GOLD,500,500,583,818,1315,1556,1805,2297,2509,2667,3027,3285,3512,3753,4026,4268,4765,5100,5318,5854,6288,6349
participant_0_CURRENTGOLD,500,0,83,318,65,306,555,1047,209,67,427,685,612,853,376,618,1115,1450,568,1104,1538,1599
participant_0_LEVEL,1,1,1,3,3,4,5,6,6,7,7,8,8,9,9,9,10,11,11,11,12,12
participant_0_MINIONSKILLED,0,0,3,9,11,17,25,35,37,39,53,53,59,65,65,69,83,86,87,97,97,98
participant_0_KILLS,0,0,0,0,0,0,0,0,0,0,0,1,1,1,1,1,1,1,1,1,2,2
participant_0_BUY,[],"[3850, 2003, 2003, 3340]",[],[],[],[],"[1001, 1004, 2055]",[],[],[1052],[],[],"[4642, 3067, 2055]",[],"[4005, 2055, 3364]",[],[],[],"[3158, 2055]",[],[3114],[]
participant_0_SOLD,[],[],[],[],[],"[2003, 2003]",[],[],[],[2055],[],[],"[1004, 1052]",[2055],"[3850, 3067, 4642, 3340]",[],[],[],[1001],[],[],[]
participant_0_UNDO,[],[],[],[],[],[],[],[],[],[],[],[],[],[],[],[],[],[],[],[],[],[]
participant_1_GOLD,500,500,669,1113,1250,1534,1791,2379,2684,2907,3204,4180,4437,4764,5206,5754,6246,6870,7237,7536,8660,8690
participant_1_CURRENTGOLD,500,0,169,238,375,659,216,804,1109,82,379,1355,1612,331,73,621,1113,537,904,1203,2327,207
participant_1_LEVEL,1,1,2,3,3,4,4,5,5,6,6,7,7,8,8,9,10,10,11,11,12,12
participant_1_MINIONSKILLED,0,0,0,0,1,1,1,3,3,3,3,4,4,4,4,4,6,10,13,14,21,21
participant_1_KILLS,0,0,0,1,1,1,2,2,3,3,3,3,3,4,5,6,7,8,8,9,10,10
participant_1_BUY,[],"[1056, 2003, 2003]",[],[],"[1052, 1052, 2003]",[],[],"[3145, 1026, 2031]",[],"[1028, 1001]",[],[],"[3152, 1052]",[],"[4630, 3020, 4630]",[],[],"[3135, 1052]",[],[],"[1058, 1058]",[]
participant_1_SOLD,[],[],[],[2003],[],[],[2003],"[2003, 1052, 1052]",[],[],[],[],"[3145, 1028, 1026]",[],"[1052, 1001, 1056, 2031, 1052]",[],[],[4630],[],[],[1052],[]
participant_1_UNDO,[],[],[],[],[],[],[],[],[],[],[],[],[],[],"[[0, 4630]]",[],[],[],[],[],[],[]
participant_2_GOLD,500,500,541,1232,1562,1922,2593,2827,3453,3639,3866,4413,4781,5311,6122,6830,7481,7954,8350,9220,9995,10026
participant_2_CURRENTGOLD,500,0,41,732,132,482,1143,197,813,299,526,1063,86,616,32,740,1391,179,575,1445,25,-409
participant_2_LEVEL,1,1,1,3,4,5,6,7,7,8,8,9,9,10,10,11,11,11,12,13,13,13
participant_2_MINIONSKILLED,0,0,1,11,21,32,43,50,58,62,68,80,91,99,108,119,127,127,137,153,157,157
participant_2_KILLS,0,0,0,0,1,1,1,1,1,1,1,1,1,1,1,1,1,1,1,1,1,1
participant_2_BUY,[],[2033],[],[],"[1028, 1027]",[],[],[],"[6660, 1033]",[1001],[],[],[1029],[],[3105],[],[],[],"[3068, 1028]",[],[],[]
participant_2_SOLD,[],[],[],[],[2010],[],[2010],[2010],[1028],[],[],[],[],[],"[1033, 1029]",[],[],[],"[6660, 3105]",[],[],[]
participant_2_UNDO,[],[],[],[],[],[],[],[],[],[],[],[],[],[],[],[],[],[],[],[],[],[]
participant_3_GOLD,500,500,520,867,1239,1801,2053,2350,2610,2852,3109,3798,3945,4473,5017,5890,6172,6644,7158,7693,8193,8223
participant_3_CURRENTGOLD,500,0,20,367,739,1301,378,675,235,477,734,1423,70,598,42,915,1197,269,783,1318,1818,148
participant_3_LEVEL,1,1,1,2,3,4,4,5,5,6,6,7,7,8,8,9,9,10,10,10,11,11
participant_3_MINIONSKILLED,0,0,0,12,24,30,34,45,49,55,62,64,64,80,81,94,99,113,118,131,138,138
participant_3_KILLS,0,0,0,0,0,1,1,1,1,1,1,2,2,2,3,3,3,3,4,4,4,4
participant_3_BUY,[],"[3070, 2003, 2003]",[],[],[],[],"[3057, 1028, 2055]",[],[3044],[],[],[],[6632],[],[3133],[],[],"[3004, 1001, 3363]",[],[],[],"[3134, 3158]"
participant_3_SOLD,[],[],[],[],[],"[2003, 2003]",[],[2055],[1028],[],[],[],"[3044, 3057]",[],[],[],[],"[3070, 3133, 3004, 3340]",[],[],[],[1001]
participant_3_UNDO,[],[],[],[],[],[],[],[],[],[],[],[],[],[],[],[],[],[],[],[],[],[]
participant_4_GOLD,500,500,522,657,832,1216,1351,1485,1754,1919,2114,2917,3052,3305,3789,4144,4305,4505,4646,4928,5684,5719
participant_4_CURRENTGOLD,500,0,22,157,332,716,226,360,629,359,554,1357,252,505,64,419,580,780,246,528,484,519
participant_4_LEVEL,1,1,1,2,3,4,4,5,5,5,5,6,6,7,8,8,8,9,9,9,10,10
participant_4_MINIONSKILLED,0,0,0,0,0,0,0,0,0,1,2,2,2,3,3,5,5,6,6,7,9,9
participant_4_KILLS,0,0,0,0,0,0,0,1,1,1,1,3,3,3,4,4,4,5,5,5,7,7
participant_4_BUY,[],"[1039, 2031, 3340, 3364]",[],"[1001, 2055]",[],[],[3057],[],[],"[3051, 2055, 2055]",[],[],[],"[3078, 2055]","[1036, 1036]",[],[],"[3047, 3133]",[],[],[],"[6333, 2055, 2055]"
participant_4_SOLD,[],[3340],[],[],[],[],[],[2055],[],[],[1039],[2055],[],"[3057, 3051]",[],[],[2055],"[1001, 1036, 1036]",[2055],[],[],[3133]
participant_4_UNDO,[],[],[],[],[],[],[],[],[],[],[],[],[],[],[],[],[],[],[],[],[],[]
participant_5_GOLD,500,500,583,895,1169,1494,1764,2015,2467,3289,3432,3784,3906,4280,4703,5133,5490,5717,5839,6352,6474,6505
participant_5_CURRENTGOLD,500,0,83,395,244,569,839,145,597,1419,232,584,256,630,403,833,1190,217,339,852,74,105
participant_5_LEVEL,1,1,1,3,4,5,6,6,7,8,8,9,9,10,10,11,11,12,12,12,12,12
participant_5_MINIONSKILLED,0,0,3,14,20,32,40,44,60,69,70,80,80,95,95,110,120,126,126,140,140,140
participant_5_KILLS,0,0,0,0,0,0,0,0,1,1,1,1,1,1,1,1,1,1,1,1,1,1
participant_5_BUY,[],"[3850, 3340, 2003, 2003]",[],[],[],[],"[1004, 2055, 1001]",[],"[1052, 2055]",[],[],[],"[4642, 3158, 2055, 3364]",[],"[1028, 2055]",[],[],"[3067, 2055]",[],[],[6617],[]
participant_5_SOLD,[],[],[],[],[],"[2003, 2003]",[],[],[],[2055],[],[],"[3850, 1004, 1052, 1001, 3340, 2055]",[],[],[],[2055],[1028],[],[],"[2055, 3067, 4642]",[]
participant_5_UNDO,[],[],[],[],[],[],"[[0, 2055]]",[],[],[],[],[],[],[],[],[],[],[],[],[],[],[]
participant_6_GOLD,500,500,662,963,1186,1485,1819,2076,2809,3037,3258,3586,3708,4105,5118,5340,5823,5945,6128,6511,6725,6764
participant_6_CURRENTGOLD,500,0,162,463,36,335,669,926,859,1087,1308,1636,118,515,1528,250,733,255,238,621,385,364
participant_6_LEVEL,1,1,2,3,3,4,4,5,6,6,7,7,7,8,8,9,10,10,10,10,10,10
participant_6_MINIONSKILLED,0,0,0,0,0,0,1,1,2,2,3,3,3,3,3,3,3,3,5,5,5,5
participant_6_KILLS,0,0,0,0,0,0,0,0,0,0,0,0,0,0,0,0,1,1,1,1,1,1
participant_6_BUY,[],"[1083, 2003, 3340]",[],[],"[1036, 2055, 2003]","[2003, 2003]",[],[],"[6670, 2055]",[],[],[3006],[],[],[1037],[1018],[],"[6672, 1036, 3363]",[],[],[1037],[]
participant_6_SOLD,[],[],[],[],[],"[2055, 2003, 2003]",[],[],"[2003, 2003, 1036]",[],[2055],[],[],[],[],[1083],[],"[6670, 1018, 1037, 3340]",[],[],[],[]
participant_6_UNDO,[],[],[],[],[],[],[],[],[],[],[],[],[],[],[],[],[],[],[],[],[],[]
participant_7_GOLD,500,500,611,1163,1496,1758,1979,2318,3255,3782,4023,4160,4563,4853,5374,5826,6316,6543,6813,7054,7204,7330
participant_7_CURRENTGOLD,500,0,111,213,546,798,144,133,1060,212,453,590,983,273,444,896,1386,173,443,84,234,85
participant_7_LEVEL,1,1,1,3,4,5,5,6,7,7,8,8,8,9,9,10,10,11,11,11,11,11
participant_7_MINIONSKILLED,0,0,5,11,23,28,34,47,56,61,68,69,81,91,97,107,120,126,130,133,135,137
participant_7_KILLS,0,0,0,1,1,1,1,1,2,3,3,3,3,3,4,4,4,4,4,4,4,4
participant_7_BUY,[],"[1036, 2031]",[],[1055],[],[],"[3133, 1037]",[1036],[],"[3133, 3077, 1036, 1001]",[],[],[],"[3074, 1036]",[1036],[],[],"[3133, 3134]",[],[3009],[],[]
participant_7_SOLD,[],[],[],[],[],[],[1036],[],[],"[1036, 1036, 1037]",[],[1036],[],"[3077, 1036, 3133]",[],[],[],"[1036, 1036, 2031]",[],[1001],[],[]
participant_7_UNDO,[],[],[],[],[],[],"[[0, 3133]]",[],[],[],[],"[[1036, 0]]",[],[],[],[],[],[],[],[],[],[]
participant_8_GOLD,500,500,631,1015,1204,1378,1724,2001,2273,2858,3084,3409,3810,4203,4817,4960,5614,5931,6074,6455,6633,6692
participant_8_CURRENTGOLD,500,0,131,515,229,303,649,926,173,758,984,209,610,1003,742,465,1119,461,604,985,288,167
participant_8_LEVEL,1,1,1,2,3,3,4,5,5,6,7,7,7,8,8,8,9,9,9,10,10,10
participant_8_MINIONSKILLED,0,0,6,18,21,24,37,45,45,65,71,79,91,97,101,102,112,119,120,131,134,136
participant_8_KILLS,0,0,0,0,0,0,0,0,0,1,1,1,1,1,1,1,1,1,1,1,1,1
participant_8_BUY,[],"[2033, 3340]",[],[],"[1082, 2055]",[],[],"[1033, 1052, 1052, 2055]",[],[],"[3802, 3108]",[],[1033],[],[3111],[],[],[6653],[],[],[3108],[]
participant_8_SOLD,[],[],[],[2010],[],"[2010, 2055]",[],[2010],[],[],"[1052, 1052]",[],[],[2055],[1033],[],[],"[3802, 3108]",[],[],[],[]
participant_8_UNDO,[],[],[],[],[],[],[],"[[0, 1033]]",[],[],[],[],[],[],[],[],[],[],[],[],[],[]
participant_9_GOLD,500,500,522,677,812,1067,1223,1357,1871,2256,2450,2665,2835,2995,3345,3516,3766,3927,4067,4267,4428,4463
participant_9_CURRENTGOLD,500,0,22,177,312,567,173,307,311,696,890,1105,235,395,270,441,691,377,517,717,28,63
participant_9_LEVEL,1,1,1,2,3,3,4,4,4,5,5,6,6,6,6,6,7,7,8,8,8,8
participant_9_MINIONSKILLED,0,0,0,0,0,1,2,2,2,4,4,4,5,5,7,8,8,8,8,8,8,8
participant_9_KILLS,0,0,0,0,0,0,0,0,1,1,1,1,1,1,3,3,3,3,3,3,3,3
participant_9_BUY,[],"[1039, 2031]",[],[],"[1082, 1001]",[],[],[],"[1028, 1028]",[],[],[],"[6660, 1029, 1033, 3105]",[],[],"[3068, 3111]",[],"[1029, 1029]",[3076],[],[1033],[]
participant_9_SOLD,[],[],[],[],[],[],[],[],[1039],[],[],[],"[1028, 1028, 2031, 1033, 1029]",[],[],"[3340, 6660, 3105, 1001]",[],[3513],"[1029, 1029]",[],[],[]
participant_9_UNDO,[],[],[],[],[],[],[],[],[],[],[],[],[],[],[],[],[],[],[],[],[],[]
team0_KILLS,0,0,0,1,2,3,4,5,6,6,6,10,10,11,14,15,16,18,19,20,24,24
team0_CURRENTGOLD,2500,0,335,1812,1643,3464,2518,3083,2995,1284,2620,5883,2632,2903,587,3313,5396,3215,3076,5598,6192,2064
team0_TOTALGOLD,2500,2500,2835,4687,6198,8029,9593,11338,13010,13984,15320,18593,19727,21606,24160,26886,28969,31073,32709,35231,38820,39007
team0_LEVEL,5,5,6,13,16,21,23,28,28,32,32,37,37,42,43,46,48,51,53,54,58,58
team0_SBIRES,0,0,4,32,57,80,103,133,147,160,188,203,220,251,261,291,320,342,361,402,422,423
team1_KILLS,0,0,0,1,1,1,1,1,4,6,6,6,6,6,9,9,10,10,10,10,10,10
team1_CURRENTGOLD,2500,0,509,1763,1367,2572,2474,2437,3000,4172,3867,4124,2202,2816,3387,2885,5119,1483,2141,3259,1009,784
team1_TOTALGOLD,2500,2500,3009,4713,5867,7182,8509,9767,12675,15222,16247,17604,18822,20436,23357,24775,27009,28063,28921,30639,31464,31754
team1_LEVEL,5,5,6,13,17,20,23,26,29,32,35,37,37,41,41,44,47,49,50,51,51,51
team1_SBIRES,0,0,14,43,64,85,114,139,165,201,216,235,260,291,303,330,363,382,389,417,422,426
delta_KILLS,0,0,0,0,1,2,3,4,2,0,0,4,4,5,5,6,6,8,9,10,14,14
delta_CURRENTGOLD,0,0,-174,49,276,892,44,646,-5,-2888,-1247,1759,430,87,-2800,428,277,1732,935,2339,5183,1280
delta_TOTALGOLD,0,0,-174,-26,331,847,1084,1571,335,-1238,-927,989,905,1170,803,2111,1960,3010,3788,4592,7356,7253
delta_LEVEL,0,0,0,0,-1,1,0,2,-1,0,-3,0,0,1,2,2,1,2,3,3,7,7
delta_SBIRES,0,0,-10,-11,-7,-5,-11,-6,-18,-41,-28,-32,-40,-40,-42,-39,-43,-40,-28,-15,0,-3
