name,team0,team1
win,Fail,Win
firstBlood,True,False
firstTower,True,False
firstInhibitor,False,True
firstBaron,False,True
firstDragon,True,False
firstRiftHerald,True,False
towerKills,4,6
inhibitorKills,0,1
baronKills,0,1
dragonKills,3,2
riftHeraldKills,2,0
