name,frame_0,frame_1,frame_2,frame_3,frame_4,frame_5,frame_6,frame_7,frame_8,frame_9,frame_10,frame_11,frame_12,frame_13,frame_14,frame_15,frame_16,frame_17,frame_18,frame_19,frame_20,frame_21,frame_22,frame_23,frame_24,frame_25,frame_26,frame_27,frame_28,frame_29
nameStamp,Tstart,Tearly,Tearly,Tearly,Tearly,Tearly,Tearly,Tearly,Tearly,Tearly,Tearly,Tearly,Tearly,Tearly,Tearly,Tmid,Tmid,Tmid,Tmid,Tmid,Tmid,Tmid,Tmid,Tmid,Tmid,Tmid,Tmid,Tend,Tend,Tend
timestamp,0,60023,120042,180060,240089,300121,360136,420153,480167,540183,600202,660227,720244,780265,840283,900294,960310,1020332,1080355,1140376,1200391,1260414,1320432,1380448,1440470,1500485,1560506,1620528,1680539,1740539
participant_0_GOLD,500,500,584,920,1134,1347,1690,1903,2206,2329,2841,3126,3248,3546,4187,4414,4537,4736,5055,6436,6558,6751,6873,7187,7410,7600,7761,7932,8216,8275
participant_0_CURRENTGOLD,500,500,84,420,634,847,305,518,821,179,691,976,63,361,37,264,387,586,470,286,408,601,53,367,590,30,191,362,646,165
participant_0_LEVEL,1,1,1,3,4,5,6,6,7,7,8,9,9,9,10,10,10,11,11,12,12,12,12,13,13,13,13,14,14,14
participant_0_MINIONSKILLED,0,0,3,13,18,23,33,39,46,46,50,55,55,62,64,70,70,75,78,81,81,81,81,84,84,84,85,88,93,93
participant_0_KILLS,0,0,0,0,0,0,0,0,0,0,0,0,0,0,0,0,0,0,2,4,4,4,4,4,5,5,5,5,5,6
participant_0_BUY,[],"[3850, 2003, 3340, 2003]",[],[],[],[],[],[],[],[],"[3802, 1001, 2003, 2055, 2003]",[],[],[],[],"[1026, 3158]",[],[],"[3285, 2003]",[],[2420],[],[],[],[3108],[],[],[3157],[],[]
participant_0_SOLD,[],[],[],[],[],[],[],[],[],[],[],"[3850, 2055]",[],[],[2003],[1001],[],[2003],"[2003, 3802, 1026]",[],"[2003, 3851]",[],[],[2420],[],[],[],"[3108, 2421]",[],[]
participant_0_UNDO,[],[],[],[],[],[],[],[],[],[],[],[],[],[],[],[],[],[],[],[],[],[],[],[],[],[],[],[],[],[]
participant_1_GOLD,500,500,621,928,1653,2313,2521,2728,2950,3573,3795,4088,4226,4438,4881,5373,5496,5618,6010,6303,6551,7303,7715,8458,8669,8975,9313,9805,9929,9988
participant_1_CURRENTGOLD,500,0,121,428,1153,1813,71,278,500,1123,720,263,101,313,756,1248,171,293,685,78,326,28,440,850,361,117,105,598,721,780
participant_1_LEVEL,1,1,2,2,3,4,4,5,5,6,6,6,6,7,7,8,8,8,9,9,10,10,10,11,11,12,12,13,13,13
participant_1_MINIONSKILLED,0,0,0,0,0,2,3,3,3,3,3,3,3,4,4,4,4,4,4,4,4,4,4,4,4,4,12,12,12,12
participant_1_KILLS,0,0,0,0,0,2,2,2,2,2,2,2,2,2,4,4,4,4,4,4,4,5,5,6,6,6,6,6,6,6
participant_1_BUY,[],"[1054, 2003, 3340]",[],[],[],[],"[3006, 1042, 2003]",[],[],[],[],"[1038, 2003, 2003]",[],[2015],[],"[3095, 2031]",[],[],"[2015, 1042]",[],[3086],[3087],[],[],[],[1038],[],[],[],[]
participant_1_SOLD,[],[],[],[2003],[],[],[],[],[2003],[],[],[],[2003],[1042],[],"[2003, 1038, 2015]",[],[],[],[],[1042],"[3086, 2015]",[],[],[],[],[],[],[],[]
participant_1_UNDO,[],[],[],[],[],[],[],[],[],[],[],[],[],[],[],[],[],[],[],[],[],[],[],[],[],[],[],[],[],[]
participant_2_GOLD,500,500,535,897,1319,1511,1793,1983,2218,2586,2781,3552,3723,3908,4484,4800,5132,5617,6206,6650,6870,7780,7965,8115,8306,8878,9000,9123,9337,9546
participant_2_CURRENTGOLD,500,0,35,397,819,176,458,648,268,636,226,997,1168,403,979,1295,442,127,716,80,300,1210,545,145,336,473,596,253,467,336
participant_2_LEVEL,1,1,1,3,4,5,5,6,7,7,8,8,8,9,9,10,10,11,11,12,12,12,13,13,13,13,13,13,14,14
participant_2_MINIONSKILLED,0,0,1,12,17,21,30,33,39,50,54,56,59,63,71,82,90,94,100,101,107,111,115,117,121,121,121,121,127,127
participant_2_KILLS,0,0,0,0,0,0,0,0,0,0,0,1,1,1,1,1,1,2,2,3,3,4,4,4,4,5,5,5,5,5
participant_2_BUY,[],"[1056, 2003, 3340, 2003]",[],[],[],"[1052, 1027, 2003]",[],[],[3145],[],"[1056, 2031, 2055]",[],[],[3802],[],[],"[3030, 1001, 1052]",[3020],[],"[3916, 2055]",[],[],[1026],[3165],[],"[1029, 1052]",[],[3108],[],[]
participant_2_SOLD,[],[],[],[],[],[],[],"[2003, 2003]",[1052],[],[2003],[],[],"[1027, 1056]",[],[2055],"[3802, 3145]",[1001],[],"[1056, 1052]",[],[2055],[],"[3916, 1026]",[],[],[],[1052],[],[]
participant_2_UNDO,[],[],[],[],[],[],[],[],[],[],[],[],[],"[[1056, 0]]",[],[],[],[],[],[],[],[],[],[],[],"[[0, 1029]]",[],[],[],[]
participant_3_GOLD,500,500,563,797,997,1836,2022,2336,2619,3152,3407,3544,3671,3828,5088,5378,5735,6011,6504,7136,7368,7886,8085,8841,9331,9536,9801,9923,10268,10327
participant_3_CURRENTGOLD,500,0,63,297,497,1336,72,386,669,1202,1457,194,321,78,1338,278,635,911,404,1036,168,186,385,1141,1631,536,801,923,1269,1327
participant_3_LEVEL,1,1,1,2,3,4,4,5,5,6,6,7,7,7,8,8,9,9,9,10,10,11,11,11,12,12,12,12,13,13
participant_3_MINIONSKILLED,0,0,2,8,13,18,22,31,40,52,59,60,60,62,68,74,83,92,93,101,102,102,106,107,119,120,128,128,133,133
participant_3_KILLS,0,0,0,0,1,2,2,2,2,3,3,3,3,3,4,4,4,4,4,4,4,6,6,7,7,7,7,8,8,8
participant_3_BUY,[],"[1041, 2031, 3340]",[],[],[],[],"[3706, 1001, 1042, 1043]",[],[],[],[1416],"[1033, 1042]",[1042],[],[],[],"[3101, 3111, 1036]",[],[],[3044],[],[3057],[],[3078],"[1036, 1036]",[1053],[3144],[],[],[]
participant_3_SOLD,[],[],[],[],[],[],"[1041, 1042]",[],[],[],"[1043, 3706]",[],[],[],[],[],"[1042, 1042, 1001, 1033]",[],[],[1036],[],[],[],"[3101, 3057, 3044]",[],[1036],"[1053, 1036]",[],[],[]
participant_3_UNDO,[],[],[],[],[],[],[],[],[],[],[],[],[],[],[],[],[],[],[],[],[],[],[],[],[],[],[],[],[],[]
participant_4_GOLD,500,500,523,747,927,1301,1544,1678,1871,2262,2411,2748,3217,3508,3720,3925,4130,4447,5311,6101,6347,6693,6875,7029,7444,7622,7866,8007,8315,9425
participant_4_CURRENTGOLD,500,0,23,247,427,801,1044,1178,1371,1762,136,473,942,1233,1445,200,406,722,486,1276,873,1218,1400,1555,1069,1247,1492,282,591,1700
participant_4_LEVEL,1,1,1,2,3,4,4,5,5,6,6,7,8,8,9,9,9,10,10,11,11,12,12,12,12,12,13,13,13,14
participant_4_MINIONSKILLED,0,0,0,0,0,0,3,3,4,5,5,14,24,32,34,37,40,44,45,45,51,51,54,55,55,55,57,57,63,65
participant_4_KILLS,0,0,0,0,0,0,0,0,0,0,1,1,1,1,2,2,2,2,2,4,4,4,4,4,4,4,4,4,4,4
participant_4_BUY,[],[],"[1054, 2003, 3340]",[],[],[],"[1028, 1052, 2003]",[],[],"[3191, 2003, 2003]",[],[],"[1001, 1029, 1052]",[],"[3108, 3047, 3108]",[],[],[],[1052],"[3157, 3136]",[],[],[1026],[],[],[3151],[],[],[],[]
participant_4_SOLD,[],[],[],[],[2003],[],[],[],[2003],[1052],[2003],[2003],[],[],"[1052, 1001, 1029, 1052]",[],[],[],[],"[3191, 3108, 1028, 1052]",[],[1054],"[1054, 1054]",[],[],"[3136, 1026]",[],[],[],[]
participant_4_UNDO,[],[],[],[],[],[],[],[],[],[],[],[],[],[],"[[0, 3108]]",[],[],[],[],[],[],"[[1054, 0]]","[[1054, 0]]",[],[],[],[],[],[],[]
participant_5_GOLD,500,500,521,727,1008,1263,1505,1760,2140,3036,3158,3503,4415,4797,6025,6252,7127,8304,8490,9017,9189,9312,10105,11407,11580,12732,13287,14137,14524,14697
participant_5_CURRENTGOLD,500,0,21,227,508,763,155,410,790,1686,8,353,1265,1647,2875,352,1227,2404,366,892,264,387,1180,2483,90,1242,1798,2648,3035,3147
participant_5_LEVEL,1,1,1,2,4,4,5,6,7,8,8,9,9,10,10,11,11,13,13,13,13,13,14,14,14,15,15,16,16,16
participant_5_MINIONSKILLED,0,0,0,5,12,17,24,32,44,52,52,62,62,74,84,90,101,112,113,118,118,118,129,133,133,133,135,135,139,140
participant_5_KILLS,0,0,0,0,0,0,0,0,0,0,0,0,1,1,1,1,1,1,1,1,1,1,1,1,1,1,1,1,1,1
participant_5_BUY,[],"[3858, 2003, 2003, 3340]",[],[],[],[],"[1028, 2003]",[],[],"[1001, 2003, 2003, 2055]",[],[],"[3117, 2055, 2055]",[],"[1029, 2003]",[],[],[],[3067],[],[1031],[3109],[],"[1004, 1004]",[],[1028],"[3801, 1004]",[3114],[],[]
participant_5_SOLD,[],[],[],[2003],[],[2003],[],[],[],[],[2055],[2003],[1001],"[2055, 2003]",[],[2055],[],"[2003, 2003]","[3858, 1028]",[],[1029],"[3067, 1031]",[],[],[],[],"[1004, 1028]","[1004, 1004]",[],[]
participant_5_UNDO,[],[],[],[],[],[],[],[],[],[],[],[],[],[],[],[],[],[],[],[],[],[],[],[],[],[],[],[],[],[]
participant_6_GOLD,500,500,645,963,1263,1504,1712,2714,2952,3304,3942,4165,4472,5263,5436,5997,6729,7145,7503,8095,8368,8640,9117,10492,10749,11286,12028,12970,13633,14107
participant_6_CURRENTGOLD,500,0,145,463,763,54,262,1264,1502,229,867,1090,297,1088,146,707,1439,230,588,160,433,5,482,677,184,722,763,1705,2368,2782
participant_6_LEVEL,1,1,2,3,3,4,4,5,6,6,7,8,8,8,9,9,10,11,11,11,11,12,12,13,13,14,15,15,15,16
participant_6_MINIONSKILLED,0,0,0,0,0,1,1,1,1,1,1,1,1,6,6,6,7,7,7,7,7,7,7,10,10,10,10,15,16,17
participant_6_KILLS,0,0,0,0,0,0,0,1,1,1,2,2,2,3,3,3,4,5,5,6,6,6,6,8,8,8,9,10,11,12
participant_6_BUY,[],"[1041, 2031, 3340]",[],[],[],"[3715, 1001]",[],[],[],[1419],[],[],"[3006, 1042]",[],"[1037, 1042]",[],[],[3124],[],"[1057, 1042]",[],"[1042, 1043]",[],[3091],"[1033, 1029]",[],"[3105, 1036]",[],[],[]
participant_6_SOLD,[],[],[],[],[],[1041],[],[],[],[3715],[],[3340],[1001],[3513],[2031],[],[],"[1042, 1042, 1037]",[3340],[],[],"[1042, 1042]",[3513],"[1043, 1057]",[],[],"[1033, 1029]",[],[],[]
participant_6_UNDO,[],[],[],[],[],[],[],[],[],[],[],[],[],[],[],[],[],[],[],[],[],[],[],[],[],[],[],[],[],[]
participant_7_GOLD,500,500,535,780,1008,1263,1536,2241,2537,2837,3078,3529,3853,4010,4504,4745,5036,5374,5859,6132,7014,7637,8036,8459,8932,9304,10265,11040,11213,11436
participant_7_CURRENTGOLD,500,0,35,280,73,328,601,1306,1602,252,493,944,1268,110,604,845,1136,1474,1959,232,1114,1737,2136,2559,232,154,1115,240,414,636
participant_7_LEVEL,1,1,1,3,4,4,5,6,7,7,8,8,9,9,9,10,10,11,11,11,12,13,13,13,13,14,15,16,16,16
participant_7_MINIONSKILLED,0,0,1,6,12,17,23,30,37,44,51,53,57,59,60,63,72,80,84,84,89,89,96,107,107,107,114,119,119,123
participant_7_KILLS,0,0,0,0,0,0,0,1,1,1,1,2,2,2,3,3,3,3,3,3,4,5,5,5,5,5,6,7,7,7
participant_7_BUY,[],"[1056, 2003, 2003, 3340]",[],[],[1052],[],[],[],[],"[3108, 1052, 1027, 1001, 2003, 2003]",[],[],[],"[3802, 3020]",[],[],[],[],[],[3157],[],[],[],[],"[3285, 3108]",[1033],[],[3102],[],[]
participant_7_SOLD,[],[],[],[],[],[],[],[2003],[2003],[1052],[],[],"[2003, 2003]","[1052, 1027, 1001]",[],[],[],[],[],[3108],[],[],[],[],[3802],[],[],"[3108, 1033]",[],[]
participant_7_UNDO,[],[],[],[],[],[],[],[],[],[],[],[],[],[],[],[],[],[],[],[],[],[],[],[],[],[],[],[],[],[]
participant_8_GOLD,500,500,563,899,1176,1382,1669,1917,2276,2541,2817,3080,3335,3741,4064,4490,4818,5184,5706,5934,6106,7084,7645,8252,8683,9709,10369,11474,12072,12299
participant_8_CURRENTGOLD,500,0,63,399,676,32,319,567,926,241,517,780,60,466,289,715,1043,1409,331,559,311,1289,750,1357,1788,139,799,1905,2502,374
participant_8_LEVEL,1,1,1,2,3,3,4,5,5,6,6,7,7,8,8,8,9,9,9,10,10,10,10,11,12,12,13,14,15,15
participant_8_MINIONSKILLED,0,0,2,12,21,23,30,37,48,53,62,64,72,75,75,89,100,110,110,116,116,117,121,134,145,147,147,165,169,169
participant_8_KILLS,0,0,0,0,0,0,0,0,0,0,0,0,0,0,0,0,0,0,1,1,1,3,4,4,4,6,6,7,8,8
participant_8_BUY,[],"[1055, 2003]",[],[],[],[3070],[],[],[],"[1037, 2055]",[],[],"[3004, 1042]",[],[3006],[],[],[],[3144],[],"[1042, 1042]",[3153],[3086],[],[],"[3085, 3153, 2055]",[],[],[],"[1038, 1037]"
participant_8_SOLD,[],[],[],[2003],[],[],[],[],[],[],[],[],"[3070, 1037]",[],"[1042, 2422]",[],[],[],[],[],[1055],"[3144, 1042, 1042]",[1042],[],[3004],"[1042, 3086, 3144]","[2055, 2055]",[],[],[]
participant_8_UNDO,[],[],[],[],[],[],[],[],[],[],[],[],[],[],[],[],[],[],[],[],[],"[[0, 3153]]",[],[],[],[],[],[],[],[]
participant_9_GOLD,500,500,523,692,827,961,1096,1230,1364,1585,1771,1906,2415,2652,2837,3065,3235,3369,3706,3860,4050,4241,4456,4646,4851,4991,5432,6035,6263,6499
participant_9_CURRENTGOLD,500,0,23,192,327,461,146,280,414,160,346,481,140,377,212,440,610,744,680,835,525,116,331,271,476,216,369,422,650,799
participant_9_LEVEL,1,1,1,2,3,3,4,4,5,5,6,6,7,7,8,8,9,9,9,9,9,10,10,10,10,10,11,12,13,13
participant_9_MINIONSKILLED,0,0,0,2,2,2,2,2,2,4,8,8,8,10,10,11,13,13,13,14,14,14,14,14,15,15,15,15,15,15
participant_9_KILLS,0,0,0,0,0,0,0,0,0,1,1,1,3,3,3,3,4,6,6,7,7,7,8,10,10,13,13,14,14,14
participant_9_BUY,[],"[1054, 2003]",[],[],[],[],"[2031, 1036, 1036]",[],[],[],"[3144, 1042, 1042, 1001]",[],[],[],[],"[3153, 3044, 1028]",[],[],"[3071, 1036, 1037]",[],[3111],[],[],[],"[3053, 1029]",[],[],[],[],[]
participant_9_SOLD,[],[],[],[],[2003],[],[],[],[],[],"[1036, 1036]",[],[],[],[],"[3144, 1042, 1042]",[],[],"[3044, 1028]",[],[1001],[],[],[],"[1037, 2031]",[],[],[],[],[]
participant_9_UNDO,[],[],[],[],[],[],[],[],[],[],[],[],[],[],[],[],[],[],"[[0, 1036]]",[],[],[],[],[],[],[],[],[],[],[]
team0_KILLS,0,0,0,0,1,4,4,4,4,5,6,7,7,7,11,11,11,12,14,19,19,23,23,25,26,27,27,28,28,29
team0_CURRENTGOLD,2500,500,326,1789,3530,4973,1950,3008,3629,4902,3230,2903,2595,2388,4555,3285,2041,2639,2761,2756,2075,3243,2823,4058,3987,2403,3185,2418,3694,4308
team0_TOTALGOLD,2500,2500,2826,4289,6030,8308,9570,10628,11864,13902,15235,17058,18085,19228,22360,23890,25030,26429,29086,32626,33694,36413,37513,39630,41160,42611,43741,44790,46065,47561
team0_LEVEL,5,5,6,12,17,22,23,27,29,32,34,37,38,40,43,45,46,49,50,54,55,57,58,60,61,62,63,65,67,68
team0_SBIRES,0,0,6,33,48,64,91,109,132,156,171,188,201,223,241,267,287,309,320,332,345,349,360,367,383,384,403,406,428,430
team1_KILLS,0,0,0,0,0,0,0,2,2,3,4,5,8,9,10,10,12,15,16,18,19,22,24,28,28,33,35,39,41,42
team1_CURRENTGOLD,2500,0,287,1561,2347,1638,1483,3827,5234,2568,2231,3648,3030,3688,4126,3059,5455,6261,3924,2678,2647,3534,4879,7347,2770,2473,4844,6920,8969,7738
team1_TOTALGOLD,2500,2500,2787,4061,5282,6373,7518,9862,11269,13303,14766,16183,18490,20463,22866,24549,26945,29376,31264,33038,34727,36914,39359,43256,44795,48022,51381,55656,57705,59038
team1_LEVEL,5,5,6,12,17,18,22,26,30,32,35,38,40,42,44,46,49,53,53,54,55,58,59,61,62,65,69,73,75,76
team1_SBIRES,0,0,3,25,47,60,80,102,132,154,174,188,200,224,235,259,293,322,327,339,344,345,367,398,410,412,421,449,458,464
delta_KILLS,0,0,0,0,1,4,4,2,2,2,2,2,-1,-2,1,1,-1,-3,-2,1,0,1,-1,-3,-2,-6,-8,-11,-13,-13
delta_CURRENTGOLD,0,500,39,228,1183,3335,467,-819,-1605,2334,999,-745,-435,-1300,429,226,-3414,-3622,-1163,78,-572,-291,-2056,-3289,1217,-70,-1659,-4502,-5275,-3430
delta_TOTALGOLD,0,0,39,228,748,1935,2052,766,595,599,469,875,-405,-1235,-506,-659,-1915,-2947,-2178,-412,-1033,-501,-1846,-3626,-3635,-5411,-7640,-10866,-11640,-11477
delta_LEVEL,0,0,0,0,0,4,1,1,-1,0,-1,-1,-2,-2,-1,-1,-3,-4,-3,0,0,-1,-1,-1,-1,-3,-6,-8,-8,-8
delta_SBIRES,0,0,3,8,1,4,11,7,0,2,-3,0,1,-1,6,8,-6,-13,-7,-7,1,4,-7,-31,-27,-28,-18,-43,-30,-34
