name,team0,team1
win,Win,Fail
firstBlood,False,True
firstTower,True,False
firstInhibitor,False,True
firstBaron,False,True
firstDragon,False,True
firstRiftHerald,True,False
towerKills,8,8
inhibitorKills,1,1
baronKills,0,1
dragonKills,3,2
riftHeraldKills,1,0
