name,frame_0,frame_1,frame_2,frame_3,frame_4,frame_5,frame_6,frame_7,frame_8,frame_9,frame_10,frame_11,frame_12,frame_13,frame_14,frame_15,frame_16,frame_17,frame_18,frame_19,frame_20,frame_21,frame_22,frame_23,frame_24,frame_25,frame_26,frame_27,frame_28,frame_29,frame_30,frame_31,frame_32
nameStamp,Tstart,Tearly,Tearly,Tearly,Tearly,Tearly,Tearly,Tearly,Tearly,Tearly,Tearly,Tearly,Tearly,Tearly,Tearly,Tearly,Tearly,Tmid,Tmid,Tmid,Tmid,Tmid,Tmid,Tmid,Tmid,Tmid,Tmid,Tmid,Tmid,Tmid,Tmid,Tmid,Tmid
timestamp,0,60025,120055,180080,240089,300120,360146,420150,480174,540207,600233,660251,720254,780266,840282,900287,960290,1020297,1080322,1140340,1200361,1260385,1320390,1380422,1440448,1500470,1560478,1620479,1680508,1740518,1800520,1860523,1920523
participant_0_GOLD,500,500,521,787,910,1486,1780,2153,3012,3375,3693,4073,4460,5003,5153,5549,6183,6305,6628,7358,7615,7889,8097,8804,8927,9662,10772,11169,12032,12275,12725,12848,13945
participant_0_CURRENTGOLD,500,0,21,287,110,686,280,653,12,375,693,1073,1460,2003,320,716,1350,222,545,1275,332,606,814,1521,844,1579,2689,3086,3949,4192,443,565,1662
participant_0_LEVEL,1,1,1,3,3,5,5,6,7,8,8,9,10,10,10,11,11,11,11,12,12,12,12,13,13,14,14,15,15,16,16,16,17
participant_0_MINIONSKILLED,0,0,0,6,6,15,22,27,30,42,47,59,65,72,74,86,86,86,93,104,109,109,109,116,116,124,130,133,133,133,133,133,139
participant_0_KILLS,0,0,0,0,0,0,0,0,0,0,0,0,0,0,0,0,1,1,1,1,1,1,1,1,1,1,2,2,2,2,4,4,5
participant_0_BUY,[],"[3070, 2003, 2003]",[],[1001],[],[],"[1052, 2003, 2003]",[],[],[3802],[],"[1033, 2003, 2003]",[],[],[1026],[],[],"[6655, 3111]",[],[1027],[],[1058],[],[],[1052],[],[],"[3003, 1028]",[],[],"[1026, 1011]",[],[4637]
participant_0_SOLD,[],[],[],"[2003, 2003]",[],[],[],[2003],[],[1052],[],[2003],[],[],[2003],[],[],"[2003, 3802, 1026, 1001, 1033]",[],[],[],[],[],[],[],[],[],"[3070, 1058, 1027, 3003]",[],[],[1028],[],"[1026, 1011, 1052]"
participant_0_UNDO,[],[],[],[],[],[],[],[],[],[],[],[],[],[],[],[],[],[],[],[],[],[],[],[],[],[],[],[],[],[],[],[],[]
participant_1_GOLD,500,500,621,1163,1391,1513,1826,1983,2210,2384,2506,2814,3036,3671,4083,5430,6272,6785,6949,7221,7684,8651,9123,9315,9875,10401,11737,11934,12597,12830,13002,13440,13667
participant_1_CURRENTGOLD,500,150,271,463,691,413,726,883,235,409,206,514,736,21,433,1780,2622,35,199,121,584,1551,73,265,825,1351,2687,384,1048,1280,253,691,917
participant_1_LEVEL,1,1,2,2,3,3,4,4,4,5,5,6,6,7,7,9,9,10,10,10,11,11,11,12,12,13,13,13,14,14,14,15,15
participant_1_MINIONSKILLED,0,0,0,0,0,0,0,2,2,4,4,4,4,6,6,6,8,12,15,15,15,16,19,19,22,27,33,33,40,42,42,42,42
participant_1_KILLS,0,0,0,0,0,0,0,0,0,0,0,0,0,0,0,1,1,1,1,2,2,4,4,5,6,6,6,6,6,6,6,6,7
participant_1_BUY,[],"[3854, 2003, 2003, 3340]",[],[],[],[1036],[2031],[],[],[3134],[],[1036],[],[],[1053],[],[6692],[],[1036],[1036],"[1037, 3134]",[],[3142],[1036],"[1037, 1001]",[],[],[3117],[],[],[3133],[],[]
participant_1_SOLD,[],[],[],[],"[2003, 2003]",[],[],[],[],[1036],[],[],[],[],[1036],"[3400, 3854]","[3134, 1053]",[],[],[],"[3400, 1036, 1036]",[],"[3400, 3134, 1037]",[],"[3400, 2031]",[],[],"[3855, 1001]",[],[],[1036],[],[]
participant_1_UNDO,[],[],[],[],[],[],[],[],[],[],[],[],[],[],[],[],[],[],[],[],[],[],[],[],[],[],[],[],[],[],[],[],[]
participant_2_GOLD,500,500,626,804,1060,1343,1529,1721,2205,2419,2583,2914,3113,3445,3879,4298,5224,5368,5622,5830,6469,6880,7002,7275,7578,8043,8727,8993,9407,9589,10534,10671,11313
participant_2_CURRENTGOLD,500,0,126,4,260,533,184,376,850,199,363,134,333,665,239,658,1584,128,382,239,879,40,162,435,303,768,1452,318,732,915,510,646,513
participant_2_LEVEL,1,1,1,3,4,5,5,6,7,7,7,8,8,9,9,10,11,11,11,11,11,12,12,12,12,13,13,14,14,14,15,15,15
participant_2_MINIONSKILLED,0,0,6,9,17,24,28,32,41,46,49,58,63,75,80,89,96,97,100,102,107,107,107,107,113,126,128,128,134,135,137,138,140
participant_2_KILLS,0,0,0,1,1,1,1,1,1,1,1,1,1,1,1,3,4,5,5,5,5,7,7,7,8,8,10,10,10,10,10,10,10
participant_2_BUY,[],[1035],[],[1036],[],[1028],[],[],[1037],[],[6029],[],[],[6631],[],[],[],[3153],[],[1036],[],[],"[3077, 3133]",[],[],[],[],"[6609, 1011]",[],[],[3748],[],[]
participant_2_SOLD,[],[],[],[],[],[],[],[],[],[],[1037],[],"[1035, 3340]","[3513, 6029, 1036, 1028]",[],[],[],[],[],[],[],[],"[3400, 1036]",[],[],[],[],[3133],[],[],"[3077, 1011]",[],[]
participant_2_UNDO,[],[],[],[],[],[],[],[],[],[],[],[],[],[],[],[],[],[],[],[],[],[],[],[],[],[],[],[],[],[],[],[],[]
participant_3_GOLD,500,500,563,1256,1379,1725,1848,2316,2741,2955,3697,3951,4242,5405,5528,6187,6944,7300,7557,8570,8742,9317,9770,9893,10730,10947,11379,12408,13340,13769,14439,14696,15865
participant_3_CURRENTGOLD,500,0,63,756,79,425,248,716,1141,480,572,226,517,1055,278,937,494,850,867,1880,152,727,1180,103,240,458,890,618,1551,1979,550,806,1735
participant_3_LEVEL,1,1,1,3,3,4,4,5,5,6,6,7,7,8,8,8,9,9,9,10,10,11,12,12,12,12,13,13,14,14,15,15,15
participant_3_MINIONSKILLED,0,0,2,8,8,18,18,35,45,51,51,55,61,66,66,75,80,83,83,87,87,87,91,91,91,91,96,104,104,110,111,114,117
participant_3_KILLS,0,0,0,1,1,1,1,1,1,1,2,2,2,4,4,5,5,5,5,6,6,6,6,6,7,7,7,9,11,11,12,12,13
participant_3_BUY,[],"[1055, 2003]",[],[],"[1036, 1001, 2031]",[],[1042],[],[],[1037],[6670],[1018],[],[6672],"[3009, 1042]",[],"[3086, 1042]",[],[1042],[],"[3046, 3123]",[],[],[3086],[3033],[],[],[1038],[],[],[3031],[],[]
participant_3_SOLD,[],[],[],[2003],[],[],[],[],[],[],"[1036, 1042]",[],[],"[6670, 1018, 1037]",[1001],[],[1042],[],[2031],[],"[1042, 3086, 1042]",[],[],[],"[3123, 3086]",[],[],[1055],[],[],[1038],[],[]
participant_3_UNDO,[],[],[],[],[],[],[],[],[],[],[],[],[],[],[],[],[],[],[],[],[],[],[],[],[],[],[],"[[1055, 0]]",[],[],[],[],[]
participant_4_GOLD,500,500,523,734,946,1115,1264,1468,1745,1901,2140,2289,2543,2855,2990,3938,4228,4519,4659,5399,6029,6869,7309,7750,8640,8852,9232,9372,9563,9753,9944,10216,11340
participant_4_CURRENTGOLD,500,0,23,234,446,265,264,468,745,151,390,189,443,755,340,1288,378,668,459,849,204,1044,459,550,325,537,917,357,548,738,179,451,1515
participant_4_LEVEL,1,1,1,2,2,3,3,4,5,5,6,6,7,7,7,8,8,9,9,9,9,10,10,10,11,11,12,12,12,12,12,12,13
participant_4_MINIONSKILLED,0,0,0,4,8,10,11,15,18,19,25,26,29,31,31,34,34,34,34,34,38,38,38,38,38,39,40,40,40,40,40,43,43
participant_4_KILLS,0,0,0,0,0,1,1,1,3,3,3,3,3,4,4,4,4,4,4,4,4,4,4,5,5,5,6,6,7,7,7,7,9
participant_4_BUY,[],"[1055, 2003, 3340]",[],[],[1042],[],"[1036, 1036]",[],"[3057, 3051, 1001, 2003]",[],[],[],[],[],"[3078, 1042]",[],[],"[1043, 1053]",[],[],[3153],[],[],[],[3047],[],[],[],[],[],"[3091, 3133]",[],[]
participant_4_SOLD,[],[],[],[],[],[2003],[],[],"[1042, 1036]",[],[],[],[],[],"[3057, 3051]",[],[2003],"[1042, 1036]",[],"[3340, 3513]","[1053, 1043]",[],[],[],[1001],[],[],[],[],[],[],[],[]
participant_4_UNDO,[],[],[],[],[],[],[],[],[],[],[],[],[],[],[],[],[],[],[],[],[],[],[],[],[],[],[],[],[],[],[],[],[]
participant_5_GOLD,500,500,521,741,1205,1713,1835,2055,2227,2419,2747,2918,3075,3198,3798,3977,4281,4453,4576,5184,5822,5944,6167,6535,6977,7100,7286,7483,7777,7969,8092,8353,8725
participant_5_CURRENTGOLD,500,0,21,241,305,813,35,255,427,619,947,1118,375,498,1098,1277,1581,153,276,184,822,144,367,235,677,800,86,283,577,769,92,353,25
participant_5_LEVEL,1,1,1,3,4,5,5,6,6,7,8,8,8,9,9,9,10,10,10,11,11,11,11,12,12,12,12,13,13,13,13,13,14
participant_5_MINIONSKILLED,0,0,0,6,7,12,12,19,22,26,36,39,41,41,46,49,56,56,56,61,68,68,74,74,74,74,75,75,76,76,76,80,80
participant_5_KILLS,0,0,0,0,1,2,2,2,2,2,2,2,2,2,2,2,2,2,2,3,4,4,4,4,5,5,5,5,5,5,5,5,5
participant_5_BUY,[],"[1054, 2003]",[],[],[1028],[],"[6660, 1029, 1028, 1001]",[],[],[],[],[],[1057],[],[],[],[],[6664],[],"[1029, 1028]",[],"[3066, 1028]",[],[1031],[],[],[3742],[],[],[],[1031],[],[]
participant_5_SOLD,[],[],[2003],[],[],[],"[1028, 6660]",[],[],[],[],[],[],[],[],[],[],"[1028, 1029, 1057]",[],[],[],[1028],[],[1029],[],[],"[3066, 1028, 1031]",[],[],[],[],[],[]
participant_5_UNDO,[],[],[],[],[],[],[],[],[],[],[],[],[],[],[],[],[],[],[],[],[],[],[],[],[],[],[],[],[],[],[],[],[]
participant_6_GOLD,500,500,621,1043,1343,1615,1873,2157,2379,2687,3019,3246,3383,3558,3816,4038,4335,4958,5185,5537,5911,6333,6456,6578,6776,7114,7699,8143,8616,8788,8911,9325,9657
participant_6_CURRENTGOLD,500,0,121,243,543,15,273,557,379,687,1019,1246,1383,1558,1815,138,435,158,385,736,1111,1533,756,878,75,414,199,193,666,839,511,925,1257
participant_6_LEVEL,1,1,2,2,3,3,3,4,4,5,5,6,6,7,7,8,8,9,9,10,10,11,11,11,11,11,12,13,13,13,13,14,14
participant_6_MINIONSKILLED,0,0,0,0,0,0,0,0,0,0,0,0,1,7,7,7,7,7,7,9,14,14,14,14,14,23,27,28,37,37,37,46,46
participant_6_KILLS,0,0,0,0,0,1,1,1,1,1,1,2,2,2,2,3,3,6,6,7,7,7,7,8,8,8,8,12,12,12,14,14,14
participant_6_BUY,[],"[2003, 3340, 1055]",[],"[2003, 2003]",[],[],[],[],"[3133, 1001, 2003, 2003]",[],[],[1018],[],"[3057, 2003]",[],[],"[3508, 1036, 2003]",[],[],[],"[1038, 1053, 3072]",[],[1042],[3006],[1036],[],[],"[6670, 1053]",[6673],[],[],[],[3031]
participant_6_SOLD,[],[],[],[2003],[],"[2003, 2003]",[],[],[],[],[],[],[],[2003],[],[2003],"[3133, 3057, 1018]",[],[],[2003],"[1036, 1038, 1053]",[],[],"[1001, 1042]",[],[],[],"[2003, 1036]","[6670, 1053]",[],[],[],[]
participant_6_UNDO,[],[],[],[],[],[],[],[],[],[],[],[],[],[],[],[],[],[],[],[],[],[],[],[],[],[],[],[],[],[],[],[],[]
participant_7_GOLD,500,500,612,1199,1350,1612,2073,2525,2648,3177,3544,3962,4210,4717,5142,5278,5401,6023,6293,6999,7252,7577,7699,8600,9534,9774,9961,10158,10294,10417,11239,11570,11741
participant_7_CURRENTGOLD,500,0,112,689,55,307,758,1210,68,587,954,72,320,827,1252,438,561,1183,1453,1309,312,637,24,925,1859,1299,236,433,570,692,424,756,806
participant_7_LEVEL,1,1,1,3,4,5,6,6,6,7,7,8,9,9,10,10,10,11,11,11,12,12,12,12,13,13,13,13,13,13,14,14,14
participant_7_MINIONSKILLED,0,0,5,12,14,20,28,31,31,42,42,43,51,56,65,66,66,66,75,80,83,91,91,93,100,103,104,104,105,105,105,113,114
participant_7_KILLS,0,0,0,0,1,2,2,2,2,3,3,4,4,4,4,4,5,5,5,6,6,6,6,6,6,6,6,6,7,8,8,8,12
participant_7_BUY,[],"[3850, 2003, 2003, 3340]",[],[],"[1004, 1052]",[],[],[],"[3067, 1001, 2055, 3364]",[],"[4642, 1028, 2055]",[],[],[4005],"[3020, 2055]",[],[],[],[],[],"[4637, 1028]",[],[],[],"[1011, 1052]",[],[],[],[],[3116],[],[],[1058]
participant_7_SOLD,[],[],[],[2003],[2003],[],[],[],[3340],"[3850, 2055]","[1004, 1052]",[2055],[],"[3851, 3067, 4642]",[1001],[],[],[],[],[2055],[1028],[],[],[],[1028],[],[],[],[],"[1011, 1052]",[],[],[]
participant_7_UNDO,[],[],[],[],[],[],[],[],[],[],[],[],[],[],[],[],[],[],[],[],[],[],[],[],[],[],[],[],[],[],[],[],[]
participant_8_GOLD,500,500,598,720,941,1502,1821,2013,2191,2513,2684,3197,3469,3662,4014,4477,4695,6323,6576,7383,7540,7877,8089,8722,8844,9217,9432,11491,12107,12489,14521,14783,15117
participant_8_CURRENTGOLD,500,0,98,120,341,902,1221,1413,91,413,584,497,769,212,564,1027,345,1973,2226,3033,140,477,389,522,294,667,882,1091,508,889,2921,3184,117
participant_8_LEVEL,1,1,1,1,3,3,4,4,5,5,6,6,7,7,8,8,9,9,10,10,11,11,11,12,12,12,12,13,14,14,15,16,16
participant_8_MINIONSKILLED,0,0,4,4,10,14,25,29,33,35,38,42,46,50,54,55,55,56,62,62,64,71,72,72,72,81,83,89,105,116,132,140,144
participant_8_KILLS,0,0,0,1,1,1,1,1,1,1,1,1,1,1,1,1,1,1,1,1,1,2,2,2,2,2,2,2,2,2,2,2,2
participant_8_BUY,[],"[1035, 2031, 3340]",[],[1001],[],[3076],[],[],[1028],[],[],[],[],[],[],"[3075, 1028]",[],"[6660, 1029]",[],[],[],[],"[1057, 3117]",[],[6664],[],[3047],[1033],[],[],[1057],[],[]
participant_8_SOLD,[],[],[],[],[],[],[],[],[],[1035],[],[],[],[],[],"[3076, 1028]",[],[1028],[],[],[],[],[1001],[],"[6660, 1029, 1057]",[],[1001],[],[],[],[1033],[],[]
participant_8_UNDO,[],[],[],[],[],[],[],[],[],[],[],[],[],[],[],[],[],[],[],[],[],[],"[[0, 3117]]",[],[],[],[],[],[],[],[],[],[]
participant_9_GOLD,500,500,523,717,1253,2045,2240,2474,2648,3213,3427,4196,4537,4922,5100,5304,6300,6733,6909,7864,8004,8240,8390,8666,9162,9344,9593,10077,10512,11000,11573,11824,13241
participant_9_CURRENTGOLD,500,0,23,217,68,860,1055,1289,288,853,227,996,1337,872,175,379,1375,1808,1984,2939,80,315,465,741,302,485,733,1217,1652,476,1048,1299,1466
participant_9_LEVEL,1,1,1,1,3,3,4,5,5,5,6,7,7,7,7,8,8,9,9,10,10,10,11,11,12,12,12,13,13,13,14,15,15
participant_9_MINIONSKILLED,0,0,0,0,1,3,3,3,3,6,7,13,14,15,17,21,26,29,31,33,33,33,33,33,35,38,41,48,48,50,59,61,61
participant_9_KILLS,0,0,0,1,1,1,1,2,2,2,3,4,4,5,5,5,5,6,6,7,7,7,7,9,10,10,10,10,10,10,11,11,11
participant_9_BUY,[],"[1056, 2003, 2003, 3340]",[],[],"[1052, 1027]",[],[],[],"[1026, 3113]",[],[],[3100],[],[],[],[3802],[],[],[],[1026],[6656],[],"[1052, 1001]",[],[],[3020],[1058],[],[],[],[1058],[],[]
participant_9_SOLD,[],[],[2003],[2003],[],[],[],[],[1052],[],[],"[3113, 1026]",[],[],[],[1027],[],[],[],[],"[3802, 1026]",[],[],[],[],[1001],[],[],[],[],[1056],[],[]
participant_9_UNDO,[],[],[],[],[],[],[],[],[],[],[],[],[],[],[],[],[],[],[],[],[],[],[],[],[],[],[],[],[],[],[],[],[]
team0_KILLS,0,0,0,2,2,3,3,3,5,5,6,6,6,9,9,13,15,16,16,18,18,22,22,24,27,27,31,33,36,36,39,39,44
team0_CURRENTGOLD,2500,150,504,1744,1586,2322,1702,3096,2983,1614,2224,2136,3489,4499,1610,5379,6428,1903,2452,4364,2151,3968,2688,2874,2537,4693,8635,4763,7828,9104,1935,3159,6342
team0_TOTALGOLD,2500,2500,2854,4744,5686,7182,8247,9641,11913,13034,14619,16041,17394,20379,21633,25402,28851,30277,31415,34378,36539,39606,41301,43037,45750,47905,51847,53876,56939,58216,60644,61871,66130
team0_LEVEL,5,5,6,13,15,20,21,25,28,31,32,36,38,41,41,46,48,50,50,52,53,56,57,59,60,63,65,67,69,70,72,73,75
team0_SBIRES,0,0,8,27,39,67,79,111,136,162,176,202,222,250,257,290,304,312,325,342,356,357,364,371,380,407,427,438,451,460,463,470,481
team1_KILLS,0,0,0,2,4,7,7,8,8,9,10,13,13,14,14,15,16,20,20,24,25,26,26,29,31,31,31,35,36,37,40,40,44
team1_CURRENTGOLD,2500,0,375,1510,1312,2897,3342,4724,1253,3159,3731,3929,4184,3967,4904,3259,4297,5275,6324,8201,2465,3106,2001,3301,3207,3665,2136,3217,3973,3665,4996,6517,3671
team1_TOTALGOLD,2500,2500,2875,4420,6092,8487,9842,11224,12093,14009,15421,17519,18674,20057,21870,23074,25012,28490,29539,32967,34529,35971,36801,39101,41293,42549,43971,47352,49306,50663,54336,55855,58481
team1_LEVEL,5,5,6,10,17,19,22,25,26,29,32,35,37,39,41,43,45,48,49,52,54,55,56,58,60,60,61,65,66,66,69,72,73
team1_SBIRES,0,0,9,22,32,49,68,82,89,109,123,137,153,169,189,198,210,214,231,245,262,277,284,286,295,319,330,344,371,384,409,440,445
delta_KILLS,0,0,0,0,-2,-4,-4,-5,-3,-4,-4,-7,-7,-5,-5,-2,-1,-4,-4,-6,-7,-4,-4,-5,-4,-4,0,-2,0,-1,-1,-1,0
delta_CURRENTGOLD,0,150,129,234,274,-575,-1640,-1628,1730,-1545,-1507,-1793,-695,532,-3294,2120,2131,-3372,-3872,-3837,-314,862,687,-427,-670,1028,6499,1546,3855,5439,-3061,-3358,2671
delta_TOTALGOLD,0,0,-21,324,-406,-1305,-1595,-1583,-180,-975,-802,-1478,-1280,322,-237,2328,3839,1787,1876,1411,2010,3635,4500,3936,4457,5356,7876,6524,7633,7553,6308,6016,7649
delta_LEVEL,0,0,0,3,-2,1,-1,0,2,2,0,1,1,2,0,3,3,2,1,0,-1,1,1,1,0,3,4,2,3,4,3,1,2
delta_SBIRES,0,0,-1,5,7,18,11,29,47,53,53,65,69,81,68,92,94,98,94,97,94,80,80,85,85,88,97,94,80,76,54,30,36
