name,frame_0,frame_1,frame_2,frame_3,frame_4,frame_5,frame_6,frame_7,frame_8,frame_9,frame_10,frame_11,frame_12,frame_13,frame_14,frame_15,frame_16,frame_17,frame_18,frame_19,frame_20,frame_21,frame_22,frame_23,frame_24,frame_25,frame_26,frame_27,frame_28,frame_29
nameStamp,Tstart,Tearly,Tearly,Tearly,Tearly,Tearly,Tearly,Tearly,Tearly,Tearly,Tearly,Tearly,Tearly,Tearly,Tearly,Tearly,Tearly,Tmid,Tmid,Tmid,Tmid,Tmid,Tmid,Tmid,Tmid,Tmid,Tend,Tend,Tend,Tend
timestamp,0,60029,120052,180072,240104,300136,360145,420158,480181,540196,600206,660225,720256,780259,840291,900299,960326,1020337,1080339,1140351,1200378,1260384,1320388,1380397,1440415,1500435,1560450,1620457,1680465,1740477
participant_0_GOLD,500,500,563,769,994,1270,1428,2018,2349,2535,3232,3514,3972,4345,4626,4923,5631,6049,6516,6659,6830,7044,7355,7478,7955,8301,8424,8546,8668,8791
participant_0_CURRENTGOLD,500,0,63,269,494,270,428,1018,149,335,1032,339,797,370,651,948,256,674,1141,84,255,69,380,503,480,826,949,71,194,316
participant_0_LEVEL,1,1,1,3,4,5,5,6,7,7,8,9,9,10,10,11,11,12,12,12,13,13,13,13,14,14,14,14,14,14
participant_0_MINIONSKILLED,0,0,2,7,10,17,19,29,38,42,55,61,67,72,77,87,93,103,111,112,115,120,127,127,140,153,153,153,153,153
participant_0_KILLS,0,0,0,0,1,1,1,1,1,1,1,3,3,4,4,4,4,5,5,5,5,7,7,8,9,10,10,11,11,11
participant_0_BUY,[],"[1055, 2003, 3340]",[],[],[],"[1036, 1042, 1036, 1001]",[],[],[],[],"[3134, 3009, 1053]",[],"[6692, 1036]",[],[1036],[1037],[3363],[6676],[],[1018],[],[1038],[],[3031],"[1018, 1018, 1053]",[],[1018],[],[],[]
participant_0_SOLD,[],[],[],[],[2003],[],[],[],[],[],"[1036, 1036, 1001]",[],"[3134, 1053]",[],[],[],[3340],"[1036, 1036, 1037]",[],[],[],[],[],"[1038, 1018]",[1055],[],[1055],[],[],[]
participant_0_UNDO,[],[],[],[],[],"[[0, 1042]]",[],[],[],[],[],[],[],[],[],[],[],[],[],[],[],[],[],[],"[[1055, 0], [0, 1018], [0, 1018]]",[],[],[],[],[]
participant_1_GOLD,500,500,628,963,1271,1466,1766,2069,2302,2634,3261,3657,3804,4061,4369,4703,5406,5619,5985,6142,6465,6757,6879,7103,7504,7970,8227,8655,8919,9216
participant_1_CURRENTGOLD,500,0,128,463,771,191,491,794,327,659,1286,1672,1819,2076,2384,318,1021,244,610,167,490,232,354,578,379,845,2,430,694,116
participant_1_LEVEL,1,1,2,3,3,4,4,5,6,6,7,8,8,8,9,9,10,10,11,11,11,11,11,12,13,13,13,14,14,14
participant_1_MINIONSKILLED,0,0,0,0,0,0,0,1,1,1,1,8,8,8,8,8,8,8,8,10,10,10,10,12,13,24,26,35,42,42
participant_1_KILLS,0,0,0,0,0,0,0,0,0,0,0,0,0,0,0,0,0,0,0,0,0,0,0,0,0,0,0,0,0,0
participant_1_BUY,[],"[3858, 2003, 2003, 3340]",[],[],[],"[1029, 1028]",[],[],[],[],"[1033, 3067, 2003, 2003]",[],[],[3105],[],"[1001, 2003]",[],[3190],[1029],[],[3047],[],[1028],[1027],[],[1029],[],[],[3024],[3067]
participant_1_SOLD,[],[],[],[],[],[],[],[2003],[2403],"[2003, 2403, 3858]",[1028],[2403],"[2003, 2003]","[1033, 1029]",[],[],[],"[2003, 3067, 3105]",[],[],"[1001, 1029]",[],[],[],[3859],[],[],[],"[1027, 1029]",[1028]
participant_1_UNDO,[],[],[],[],[],[],[],[],[],[],[],[],[],[],[],[],[],[],[],[],[],[],[],[],[],[],[],[],[],[]
participant_2_GOLD,500,500,598,1039,1316,1452,1788,2106,2458,2842,3048,3262,3489,3709,3976,4301,4524,4646,5434,5627,5833,6130,6448,6823,7070,7248,7671,7946,8068,8191
participant_2_CURRENTGOLD,500,0,98,529,806,72,398,716,1058,1432,1638,422,649,869,226,551,774,96,884,177,383,680,98,473,720,198,621,461,118,241
participant_2_LEVEL,1,1,1,3,4,5,6,6,7,8,8,8,9,9,9,10,10,10,10,10,11,11,11,12,12,12,13,13,13,13
participant_2_MINIONSKILLED,0,0,4,20,29,30,40,51,61,73,78,83,89,95,100,108,108,108,117,121,127,133,141,147,150,153,153,158,158,158
participant_2_KILLS,0,0,0,0,0,0,0,0,0,0,0,0,0,0,0,0,0,0,1,1,1,1,1,1,1,1,2,2,2,2
participant_2_BUY,[],"[1082, 2031, 3340]",[],[],[],"[1052, 1052]",[],[],[],[],[],"[3145, 1026, 1028]",[],[],[3152],[],[],[3020],[],[3108],[],[],[3191],[],[],[3157],[],[1052],[3108],[]
participant_2_SOLD,[],[],[],[],[],[],[],[],[],[],[],"[1052, 1052]",[],[],"[3145, 1028, 1026]",[],[],[2422],[],[],[],[],[],[],[],"[3191, 3108]",[],[],[1052],[]
participant_2_UNDO,[],[],[],[],[],[],[],[],[],[],[],[],[],[],[],[],[],[],[],[],[],[],[],[],[],[],[],[],[],[]
participant_3_GOLD,500,500,563,895,1674,1873,2206,2583,2949,3458,3622,4628,5015,5606,5819,6201,6587,7764,8306,8546,9009,10646,10992,11439,12190,12662,12951,13818,14121,14244
participant_3_CURRENTGOLD,500,0,63,395,1174,373,706,1083,1449,1958,222,1228,65,656,519,26,412,164,706,346,810,1146,1492,440,290,763,632,1498,1802,1924
participant_3_LEVEL,1,1,1,2,3,4,4,5,5,6,6,7,7,8,8,9,9,10,11,11,11,13,13,13,14,14,14,15,15,15
participant_3_MINIONSKILLED,0,0,2,15,27,31,44,56,67,77,79,89,95,105,111,122,128,139,147,150,162,174,182,182,187,188,194,205,212,212
participant_3_KILLS,0,0,0,0,0,0,0,0,0,0,1,1,1,1,1,1,2,2,2,2,2,2,2,2,2,2,2,2,2,2
participant_3_BUY,[],"[1039, 2003, 2031, 3340]",[],[],[],"[3057, 2055]",[],[],"[1036, 1036]",[],[],[],[],[],[],"[3508, 1001, 1018]",[],"[1036, 1036, 1036]",[],[6670],[],[1053],[],[],[6673],[],[3044],[],[],[1037]
participant_3_SOLD,[],[],[],[],[],[],[],[2055],[],[],[1039],[],[],[],[],"[1036, 1036, 3057]",[],[2031],[],"[1036, 1036]",[],[1036],[],[],"[6670, 1018, 1053]",[],[],[],[],[]
participant_3_UNDO,[],"[[0, 2003]]",[],[],[],[],[],[],[],[],[],[],[],[],[],[],[],[],[],[],[],[],[],[],[],[],[],[],[],[]
participant_4_GOLD,500,500,523,699,1125,1260,1450,1665,1882,2124,2286,2783,2924,3064,3205,3345,3669,3920,4135,4365,4505,4838,5003,5233,5492,5632,5773,6063,6218,6359
participant_4_CURRENTGOLD,500,0,23,199,625,60,250,465,682,924,136,633,774,164,305,95,419,270,185,415,56,388,153,34,292,132,273,563,469,209
participant_4_LEVEL,1,1,1,2,3,3,4,5,5,6,6,7,7,7,7,7,8,8,8,9,9,9,10,10,10,11,11,12,12,12
participant_4_MINIONSKILLED,0,0,0,2,5,5,8,10,12,15,16,20,20,20,20,20,25,27,27,28,28,31,35,36,39,39,39,39,40,40
participant_4_KILLS,0,0,0,0,0,0,0,1,1,1,1,1,1,1,1,1,1,1,1,1,1,1,1,1,1,1,1,1,1,1
participant_4_BUY,[],"[1055, 2003, 3340]",[],[],[],[2033],[],[],"[1031, 1028]",[],[],"[6660, 1001, 2055]",[],[3047],[],[],[6662],[],[],"[1037, 3077]",[],[1028],[],[],[1011],[],[],[3748],[],[]
participant_4_SOLD,[],[],[],[2003],[],[],[],[],[],[],[],"[1028, 2055]",[],[1001],[],[],"[6660, 1031]",[],[],[1037],[],[],[],[],[1028],[],[],"[2033, 3077, 1011]",[],[]
participant_4_UNDO,[],[],[],[],[],[],[],[],[],[],[],[],[],[],[],[],[],[],[],[],[],[],[],[],[],[],[],[],[],[]
participant_5_GOLD,500,500,563,837,1452,1782,2102,2470,2728,3054,3195,3540,3721,4118,4521,4786,4944,5247,5543,6623,7041,7760,7959,8529,8651,9384,9597,9861,9983,10926
participant_5_CURRENTGOLD,500,0,63,337,952,182,502,70,328,654,195,540,721,618,1021,1286,44,347,293,1373,241,610,809,1379,101,834,297,561,283,1227
participant_5_LEVEL,1,1,1,2,4,5,6,7,7,8,8,8,9,9,10,10,10,11,11,12,12,13,13,14,14,14,15,15,15,15
participant_5_MINIONSKILLED,0,0,2,11,18,28,38,49,57,65,66,76,79,85,97,105,107,114,120,132,135,145,150,152,152,161,161,163,163,173
participant_5_KILLS,0,0,0,0,0,0,0,0,0,0,0,0,0,0,0,1,1,1,1,3,3,3,3,4,4,4,4,4,4,4
participant_5_BUY,[],"[1056, 2003, 2003, 3340]",[],[],[],"[1052, 1001]",[],[],[],"[3802, 2055]",[],"[1052, 1042]",[],[],[3108],"[3006, 2055, 2055]",[],[],"[6653, 2055]","[1043, 1052, 3363]",[],[1026],[],[],"[3115, 2055, 2055]",[],"[4630, 2055]",[],[],[]
participant_5_SOLD,[],[],[],[],[],[],[],[2003],[],[1052],[],"[2003, 2055]",[],[],[1052],"[1001, 1042]",[2055],[],"[3802, 3108]",[3340],[],"[2055, 2055]",[],[],"[1043, 1026, 1052]",[2055],[1056],[],[],[]
participant_5_UNDO,[],[],[],[],[],[],[],[],[],[],[],[],[],[],[],[],[],[],[],[],[],[],[],[],[],[],[],[],[],[]
participant_6_GOLD,500,500,726,1033,1291,1915,2140,2367,2759,3117,3474,3767,3889,4593,5955,6166,6843,7386,7823,8705,9112,9574,10207,10770,11311,12288,13425,13697,14034,14736
participant_6_CURRENTGOLD,500,0,226,533,791,1415,1640,1867,2259,2617,2974,3267,114,818,2180,41,718,1261,1698,2580,2987,3449,1082,1645,2186,3163,4300,73,410,1112
participant_6_LEVEL,1,1,2,3,3,4,5,5,6,6,7,7,7,8,9,9,10,10,11,12,12,13,13,14,14,15,16,16,16,17
participant_6_MINIONSKILLED,0,0,0,0,0,0,0,0,0,1,1,1,1,1,8,8,8,8,8,8,13,16,20,20,25,27,34,34,34,36
participant_6_KILLS,0,0,0,0,0,0,0,0,0,0,0,0,0,0,0,0,0,2,2,2,2,2,3,3,3,3,3,3,3,3
participant_6_BUY,[],"[3850, 3340]","[2003, 2003]",[],"[1004, 2055]",[],[],[],[],"[4642, 2055]",[],[1028],[],"[3158, 3364]",[],[4005],[],[],"[1026, 1004, 2055]",[],[],[],[],[3504],[1004],[1026],[3114],[],"[6616, 2055, 2055]",[]
participant_6_SOLD,[],[],[],[],[2003],[2055],[],[],[],[1004],[],[],"[2055, 3850]","[2422, 3340]",[2003],"[1028, 4642]",[],[],[3851],[],[],[],[2055],"[1004, 1026]",[],[],[1004],[],"[3114, 1026]",[]
participant_6_UNDO,[],[],[],[],[],[],[],[],[],[],[],[],[],[],[],[],[],[],[],[],[],[],[],[],[],[],[],[],[],[]
participant_7_GOLD,500,500,584,818,1141,1574,1903,2179,2580,2766,3181,3840,4341,4569,5139,5443,5996,6596,6893,7748,8324,9031,9925,10649,11203,12074,12666,13490,13814,15031
participant_7_CURRENTGOLD,500,0,84,318,631,1064,1383,1659,2050,336,751,1400,1901,529,39,343,896,646,943,348,924,381,1275,999,753,1625,217,1040,315,1531
participant_7_LEVEL,1,1,1,3,4,5,6,7,7,8,8,9,10,10,11,11,12,12,13,13,14,14,15,15,15,16,16,17,17,18
participant_7_MINIONSKILLED,0,0,4,10,19,28,37,46,59,63,71,81,87,93,102,109,120,120,126,134,143,145,155,160,177,183,184,188,196,203
participant_7_KILLS,0,0,0,0,0,0,0,0,0,0,0,1,2,2,3,3,4,5,5,6,7,9,10,11,11,12,13,15,15,18
participant_7_BUY,[],"[1056, 2033, 3340]",[],[],[],[],[],[],[],"[3145, 1026]",[],[],[],"[4636, 1001, 3363]","[3057, 1082]",[],[],[3113],[],[3100],[],[3041],[],[1043],[3020],[],[3115],[],[1058],[]
participant_7_SOLD,[],[],[],[],[],[],[],[],[],[],[],[],[],"[3145, 1026, 3340]",[],[],[],[],[],"[3057, 3113]",[],"[1082, 2033]",[],[],[1001],[],[1043],[],[2033],[]
participant_7_UNDO,[],"[[0, 1056]]",[],[],[],[],[],[],[],[],[],[],[],[],[],[],[],[],[],[],[],"[[2033, 0]]",[],[],[],[],[],[],[],[]
participant_8_GOLD,500,500,584,839,1165,1301,1515,1868,2081,2332,2650,2890,3143,3490,3687,4188,4528,5181,5413,6853,7410,7617,7739,8360,8482,9134,9552,10118,10616,11247
participant_8_CURRENTGOLD,500,0,84,339,665,66,280,633,846,157,475,10,263,610,342,193,533,1186,143,148,705,122,244,865,122,774,27,593,1092,1722
participant_8_LEVEL,1,1,1,2,3,3,4,5,5,5,6,7,7,8,8,8,9,9,10,11,11,11,12,12,12,13,14,14,14,15
participant_8_MINIONSKILLED,0,0,3,10,20,21,26,39,44,48,60,64,67,77,77,82,91,105,111,114,125,130,130,132,132,136,137,142,157,168
participant_8_KILLS,0,0,0,0,1,1,1,1,1,1,1,1,1,1,1,1,1,1,1,2,3,4,4,5,5,5,5,5,5,5
participant_8_BUY,[],"[1055, 3340, 2003]",[],[],[],[3051],[],[3067],[],[],"[1001, 1029]",[],[],[3047],[],[],[6631],[],[1036],[],"[3133, 3067]",[1036],[],[],"[3071, 1036]",[],[3044],[],[1028],[]
participant_8_SOLD,[],[],[],[],[],[],[],[],[],[2003],[],[],[],"[1001, 1029]",[],[],"[3051, 3067]",[],[],[],[1036],[],[],[],"[3133, 3067, 1036]",[],[1036],[],[],[]
participant_8_UNDO,[],[],[],[],[],[],[],[],[],[],[],[],[],[],[],[],[],[],[],[],[],[],[],[],[],[],[],[],[],[]
participant_9_GOLD,500,500,543,757,892,1208,1377,1551,1745,1989,2153,2366,2699,3060,3785,4034,4184,5352,5493,5733,5958,6250,6641,7069,7290,7799,8217,8615,8823,9218
participant_9_CURRENTGOLD,500,100,43,257,67,383,552,726,920,289,453,266,599,360,1085,84,234,1402,368,608,834,1125,1516,744,715,374,242,641,48,443
participant_9_LEVEL,1,1,1,2,2,4,4,5,5,6,6,6,6,7,7,8,8,9,9,9,10,11,12,12,12,13,13,14,14,14
participant_9_MINIONSKILLED,0,0,0,0,0,7,8,8,8,11,12,15,16,17,21,21,22,26,26,26,27,28,30,30,31,31,36,37,41,41
participant_9_KILLS,0,0,0,0,0,1,1,1,1,1,1,1,1,2,3,3,4,5,5,6,6,6,7,7,8,10,12,12,12,13
participant_9_BUY,[],"[1035, 2031, 3340]",[],[],[],[],[],[],[],[],[],[],"[6691, 2055]",[],[],"[3047, 3134, 2055, 2055, 3364]",[],[],[],[],[],[],"[3142, 3134]",[],[],[],[],"[3814, 6609]",[],[]
participant_9_SOLD,[],[],[],[],[],[],[],[],[],[],"[3340, 1035]",[],[],[],[3513],"[2055, 3340]",[],[],[],[],[3364],[],"[3134, 3513]",[],[2055],[],[],"[2055, 3134]",[],[]
participant_9_UNDO,[],[],[],[],[],[],[],[],[],[],[],[],[],[],[],[],[],[],[],[],[],[],[],[],[],[],[],[],[],[]
team0_KILLS,0,0,0,0,1,1,1,2,2,2,3,5,5,6,6,6,7,8,9,9,9,11,11,12,13,14,15,16,16,16
team0_CURRENTGOLD,2500,0,375,1855,3870,966,2273,4076,3665,5308,4314,4294,4104,4135,4085,1938,2882,1448,3526,1189,1994,2515,2477,2028,2161,2764,2477,3023,3277,2806
team0_TOTALGOLD,2500,2500,2875,4365,6380,7321,8638,10441,11940,13593,15449,17844,19204,20785,21995,23473,25817,27998,30376,31339,32642,35415,36677,38076,40211,41813,43046,45028,45994,46801
team0_LEVEL,5,5,6,13,17,21,23,27,30,33,35,39,40,42,43,46,48,50,52,53,55,57,58,60,63,64,65,68,68,68
team0_SBIRES,0,0,8,44,71,83,111,147,179,208,229,261,279,300,316,345,362,385,410,421,442,468,495,504,529,557,565,590,605,605
team1_KILLS,0,0,0,0,1,2,2,2,2,2,2,3,4,5,7,8,10,14,14,19,21,24,27,30,31,34,37,39,39,43
team1_CURRENTGOLD,2500,100,500,1784,3106,3110,4357,4955,6403,4053,4848,5483,3598,2935,4667,1947,2425,4842,3445,5057,5691,5687,4926,5632,3877,6770,5083,2908,2148,6035
team1_TOTALGOLD,2500,2500,3000,4284,5941,7780,9037,10435,11893,13258,14653,16403,17793,19830,23087,24617,26495,29762,31165,35662,37845,40232,42471,45377,46937,50679,53457,55781,57270,61158
team1_LEVEL,5,5,6,12,16,21,25,29,30,33,35,37,39,42,45,46,49,51,54,57,59,62,65,67,67,71,74,76,76,79
team1_SBIRES,0,0,9,31,57,84,109,142,168,188,210,237,250,273,305,325,348,373,391,414,443,464,485,494,517,538,552,564,591,621
delta_KILLS,0,0,0,0,0,-1,-1,0,0,0,1,2,1,1,-1,-2,-3,-6,-5,-10,-12,-13,-16,-18,-18,-20,-22,-23,-23,-27
delta_CURRENTGOLD,0,-100,-125,71,764,-2144,-2084,-879,-2738,1255,-534,-1189,506,1200,-582,-9,457,-3394,81,-3868,-3697,-3172,-2449,-3604,-1716,-4006,-2606,115,1129,-3229
delta_TOTALGOLD,0,0,-125,81,439,-459,-399,6,47,335,796,1441,1411,955,-1092,-1144,-678,-1764,-789,-4323,-5203,-4817,-5794,-7301,-6726,-8866,-10411,-10753,-11276,-14357
delta_LEVEL,0,0,0,1,1,0,-2,-2,0,0,0,2,1,0,-2,0,-1,-1,-2,-4,-4,-5,-7,-7,-4,-7,-9,-8,-8,-11
delta_SBIRES,0,0,-1,13,14,-1,2,5,11,20,19,24,29,27,11,20,14,12,19,7,-1,4,10,10,12,19,13,26,14,-16
