name,frame_0,frame_1,frame_2,frame_3,frame_4,frame_5,frame_6,frame_7,frame_8,frame_9,frame_10,frame_11,frame_12,frame_13,frame_14,frame_15,frame_16,frame_17,frame_18,frame_19,frame_20,frame_21,frame_22,frame_23,frame_24
nameStamp,Tstart,Tearly,Tearly,Tearly,Tearly,Tearly,Tearly,Tmid,Tmid,Tmid,Tmid,Tmid,Tmid,Tmid,Tmid,Tmid,Tmid,Tmid,Tmid,Tmid,Tmid,Tmid,Tmid,Tmid,Tend
timestamp,0,60011,120015,180041,240048,300056,360076,420084,480107,540113,600128,660139,720140,780164,840184,900209,960219,1020251,1080271,1140281,1200307,1260311,1320317,1380344,1440344
participant_0_GOLD,950,1570,1670,2058,3162,3615,3985,4836,5369,6247,6676,7027,7363,7579,8516,8810,9123,9376,9664,10537,11273,12417,12678,13228,14189
participant_0_CURRENTGOLD,950,720,195,583,1687,90,460,1311,1844,2722,3151,227,563,229,417,310,274,526,415,1287,223,1367,428,979,1939
participant_0_LEVEL,3,3,3,4,5,6,7,8,8,9,10,10,10,11,11,12,12,12,13,14,14,15,15,16,17
participant_0_MINIONSKILLED,0,0,4,8,13,17,17,17,18,19,19,19,19,19,19,20,20,22,25,26,26,31,31,31,34
participant_0_KILLS,0,1,1,1,2,2,2,3,3,4,4,4,4,4,5,5,5,5,5,6,7,8,8,8,9
participant_0_BUY,[],"[1036, 1036, 2003, 2003, 2003, 3340]",[3077],[],[],"[3044, 3067]",[],[],[],[],[],"[3071, 3047, 1037, 1036]",[],[1053],"[3074, 1036]",[1028],[1036],[],[3134],[],"[3814, 1028]",[],"[3052, 1028]",[],[]
participant_0_SOLD,[],[],"[2003, 1036, 1036]",[],[2003],[2003],[],[],[],[],[],"[3044, 3067]",[],[1036],"[3077, 1053, 1037]",[],[],[],"[1036, 1036]",[],"[3134, 1028]",[],[1028],[],[]
participant_0_UNDO,[],[],[],[],[],[],[],[],[],[],[],[],[],[],[],[],[],[],[],[],[],[],[],[],[]
participant_1_GOLD,950,1090,1108,1426,2502,2800,3615,5110,5692,6017,6233,6720,7086,7758,8424,9192,9718,9934,10636,11110,11421,11637,12946,14112,14974
participant_1_CURRENTGOLD,950,140,158,476,1552,275,1090,1710,2292,517,383,870,1236,1908,2575,3343,3868,834,1537,2010,221,437,1746,1012,1874
participant_1_LEVEL,3,3,3,4,6,7,8,9,9,10,10,11,11,12,13,13,14,14,15,15,16,16,17,18,18
participant_1_MINIONSKILLED,0,0,1,5,8,12,22,27,29,30,30,38,38,40,46,50,55,55,57,63,63,63,63,67,70
participant_1_KILLS,0,0,0,0,1,1,1,2,2,2,2,2,2,2,2,3,3,3,4,4,4,4,6,7,8
participant_1_BUY,[],"[1036, 1036, 1006, 2003, 2003, 3340]",[],[],[],"[3077, 3133]",[],"[1053, 1037]",[],"[3074, 3047]",[1036],[],[],[],[],[],[],"[3147, 1031, 1011, 1031, 1011]",[],[],"[3742, 3082]",[],[],[3143],[]
participant_1_SOLD,[],[],[],[],"[2003, 2003]","[1036, 1006, 1036]",[],[],[],"[3077, 1037, 2422]",[],[],[],[],[],[],[],"[1036, 3133]",[],[],"[1031, 1011]",[],[],[3082],[]
participant_1_UNDO,[],[],[],[],[],[],[],"[[0, 1053]]",[],[],[],[],[],[],[],[],[],"[[0, 1011], [0, 1031]]",[],[],[],[],[],[],[]
participant_2_GOLD,950,950,950,1399,1976,2613,3620,4730,5216,5813,6174,6743,7309,9442,10129,10661,11084,11770,11986,12861,14507,15143,16397,16963,17955
participant_2_CURRENTGOLD,950,25,25,474,151,788,1795,1180,1666,2263,475,1043,9,2142,2829,886,1309,695,111,986,2633,548,1802,2368,3000
participant_2_LEVEL,3,3,3,4,5,7,7,8,9,10,11,11,12,13,13,14,15,15,15,16,17,18,18,18,18
participant_2_MINIONSKILLED,0,0,0,6,10,15,16,16,18,29,36,49,49,51,55,64,69,69,69,74,80,85,85,85,94
participant_2_KILLS,0,0,0,0,0,0,1,3,3,3,3,3,3,7,7,7,7,8,8,9,11,11,13,13,14
participant_2_BUY,[],"[1055, 2003, 3340, 1036, 2055]",[],[],[3044],[],[],"[3071, 3077, 1036, 1028]",[],[],"[3071, 3047]",[],"[1011, 1029, 3052, 1028]",[],[],"[3053, 1037]",[],[3074],[1031],[],[],"[3742, 1031]",[],[],[]
participant_2_SOLD,[],[],[],[],[1036],[],"[2003, 2055]",[3044],[],[],"[3044, 1028, 2422]",[],[],[],[],"[3052, 1028]",[1055],"[3077, 1037]",[],[],[],"[1031, 1055]",[],[3340],[3513]
participant_2_UNDO,[],[],[],[],[],[],[],"[[0, 3071], [0, 1036]]",[],[],[],[],"[[0, 1029], [0, 1011]]",[],[],[],"[[1055, 0]]",[],[],[],[],[],[],[],[]
participant_3_GOLD,950,950,1031,1349,2543,2900,3243,3584,4090,4342,4662,4988,5399,5858,6580,6846,7177,7728,7944,8571,9012,9246,9462,10014,10915
participant_3_CURRENTGOLD,950,0,81,99,1293,150,493,784,1290,392,712,1038,149,609,330,596,927,1479,195,821,162,396,612,1164,1965
participant_3_LEVEL,3,3,3,4,5,6,7,8,8,9,9,10,11,12,12,13,13,14,14,14,15,15,15,16,17
participant_3_MINIONSKILLED,0,0,3,7,9,12,13,14,14,16,17,17,17,24,26,26,26,32,32,32,32,33,33,35,40
participant_3_KILLS,0,0,0,0,1,1,1,1,1,1,1,1,1,1,2,2,2,2,2,3,3,3,3,3,4
participant_3_BUY,[],"[1036, 1036, 2003, 3340, 2003, 2003, 2003, 2003]",[],[1001],[],"[3134, 3133]",[],"[2055, 2055]",[],"[3147, 1029, 2055, 2055]",[],[],"[3047, 1031]",[],[1011],[],[],[],"[3742, 1028]",[],[3134],[],[],[],[]
participant_3_SOLD,[],[],[],[],[],"[1036, 1036]",[],"[2003, 2003, 2003, 2003, 2003, 2055]",[],"[2055, 3134, 3133]",[],[2055],"[3340, 1001, 1029]",[],[3513],[2055],[],[],"[1031, 1011]",[],[],[],[],[],[]
participant_3_UNDO,[],[],[],[],[],[],[],[],[],[],[],[],[],[],[],[],[],[],[],[],[],[],[],[],[]
participant_4_GOLD,950,950,1086,1508,2259,3480,4346,5184,6195,7106,7946,9266,9678,10344,10928,11219,11833,12049,12428,12728,13492,13926,14232,15007,15595
participant_4_CURRENTGOLD,950,950,136,558,234,1455,2321,984,245,1156,246,1566,378,744,1328,1619,633,849,229,529,592,1027,133,907,1495
participant_4_LEVEL,3,3,3,4,5,6,7,8,9,9,10,11,11,12,12,13,14,14,14,14,15,15,16,17,17
participant_4_MINIONSKILLED,0,0,6,10,10,17,25,27,32,38,44,51,56,56,61,61,75,75,75,75,76,76,76,79,84
participant_4_KILLS,0,0,0,0,1,2,2,3,4,5,6,8,8,9,9,9,9,9,9,9,10,10,10,10,10
participant_4_BUY,[],[],"[1036, 1036, 1006, 2003, 2003, 3340]",[],"[3077, 1001, 1029]",[],[],[3074],"[3047, 3044]",[],[3071],[],"[3052, 1028]",[1029],[],[],[3053],[],"[3076, 1029]",[],[3082],[],"[3075, 1029]",[],[]
participant_4_SOLD,[],[],[],[],"[1036, 1006, 1036]",[],[],[3077],"[1001, 1029]",[],[3044],"[2003, 2003]",[],[],[],[],"[3052, 1028]",[],[1029],[],[1029],[],"[3076, 3082]",[],[]
participant_4_UNDO,[],[],[],[],[],[],[],[],[],[],[],[],[],[],[],[],[],[],[],[],[],[],[],[],[]
participant_5_GOLD,950,950,1013,1258,1492,1754,2020,2308,2547,2865,3153,3445,3752,3968,4241,4578,4824,5076,5361,5678,6020,6504,6840,7066,7277
participant_5_CURRENTGOLD,950,50,113,358,192,453,719,1008,627,945,333,625,931,1147,121,458,304,556,541,858,400,734,195,421,452
participant_5_LEVEL,3,3,3,4,5,6,6,7,7,8,9,9,10,10,11,12,12,12,13,13,13,14,14,15,15
participant_5_MINIONSKILLED,0,0,1,2,3,5,5,8,8,8,12,14,16,16,17,21,22,24,24,24,26,30,30,30,30
participant_5_KILLS,0,0,0,0,0,0,0,0,0,0,0,0,0,0,0,0,0,0,0,0,0,0,0,0,0
participant_5_BUY,[],"[1055, 2003, 2003, 3340, 2003, 1042]",[],[],[2015],[],[],[],[1018],[],[3009],[],[],[],[1038],[],[3095],[],[1042],[],[1018],"[3364, 2055, 2055]",[1037],[],[]
participant_5_SOLD,[],[],[],[],"[2003, 1042]",[],"[2003, 2003]",[],[1055],[],[],[],[],[],[],[],"[1038, 1018, 2015]",[],[],[],[],[3340],[],[],[]
participant_5_UNDO,[],[],[],[],[],[],[],[],[],[],[],[],[],[],[],[],[],[],[],[],[],[],[],[],[]
participant_6_GOLD,950,950,950,1222,1837,2099,2599,2815,3074,3381,3633,4061,4546,4800,5700,5916,6197,6693,7636,8000,8686,8974,9860,10274,10485
participant_6_CURRENTGOLD,950,0,0,272,887,648,69,285,544,850,1103,581,466,720,320,536,467,963,231,595,106,395,1281,394,585
participant_6_LEVEL,3,3,3,4,6,6,7,7,8,8,9,9,10,11,12,12,12,13,14,14,15,15,16,16,16
participant_6_MINIONSKILLED,0,0,0,3,11,13,16,16,16,17,19,22,23,24,33,33,33,41,42,42,42,45,45,47,47
participant_6_KILLS,0,0,0,0,0,0,0,0,0,0,0,0,0,0,1,1,1,1,2,2,3,3,4,4,4
participant_6_BUY,[],"[1036, 1028, 2003, 2003, 2003, 2003]",[],[],[],[3044],"[3067, 1001]",[],[],[],[],[3071],[3009],[],[1038],[],[1036],[],"[1037, 1018]",[],"[3031, 3133]",[],[],[1038],[]
participant_6_SOLD,[],[],[],[],[],"[1028, 1036]",[2003],"[2003, 2003]",[2003],[],[],"[3044, 3067]",[1001],[],[],[],[],[],[],[],"[1038, 1037, 1018, 1036]",[],[],[],[]
participant_6_UNDO,[],[],[],[],[],[],[],[],[],[],[],[],[],[],[],[],[],[],[],[],[],[],[],[],[]
participant_7_GOLD,950,950,1087,1507,1741,2057,2348,2683,3783,4605,4821,5206,5671,5952,6244,6619,7207,7451,8447,9226,9497,9713,10399,10661,10953
participant_7_CURRENTGOLD,950,100,237,656,191,507,198,533,1633,2455,171,557,621,102,94,469,1057,501,1497,2277,547,688,174,437,728
participant_7_LEVEL,3,3,3,4,5,6,6,7,7,9,9,10,11,11,11,12,13,13,14,15,15,15,16,16,16
participant_7_MINIONSKILLED,0,0,3,9,10,15,15,17,20,24,24,30,35,37,39,44,55,56,56,68,71,71,71,74,76
participant_7_KILLS,0,0,0,0,0,0,0,0,1,2,2,2,2,2,2,2,2,2,3,3,3,3,4,4,4
participant_7_BUY,[],"[1055, 1036, 1036, 3340, 2003, 2003, 2003]",[],[],"[3133, 1001]",[],[3009],[],[],[],"[1038, 2015, 3508, 1042]",[],[2015],[1018],[1042],[],[],[3094],[],[],"[1038, 2015]",[2055],[3095],[],[]
participant_7_SOLD,[],[],[],[],"[1036, 1036]",[],"[2003, 2003, 1001]",[],[2003],[],"[1038, 3133]",[],[1042],[],[],[],[],"[1018, 1042, 2015]",[],[],[],[],"[1038, 2015]",[],[]
participant_7_UNDO,[],"[[0, 1055]]",[],[],[],[],[],[],[],[],"[[0, 2015]]",[],[],[],[],[],[],[],[],[],[],[],[],[],[]
participant_8_GOLD,950,1040,1158,2061,2426,2847,3862,4169,4535,5642,5931,6165,8140,8447,8873,9702,11064,11371,13060,13326,14982,15502,15883,16144,16805
participant_8_CURRENTGOLD,950,140,258,1161,226,647,1662,69,435,1542,1831,465,2440,272,698,1527,2889,671,2361,207,563,1083,1463,225,705
participant_8_LEVEL,3,3,3,5,5,6,7,8,8,9,10,10,11,11,12,13,13,14,15,15,16,16,17,17,17
participant_8_MINIONSKILLED,0,0,5,6,8,12,16,17,23,28,31,32,38,42,46,50,62,66,78,78,78,80,82,84,84
participant_8_KILLS,0,0,0,1,1,1,2,2,2,3,3,3,5,5,5,6,7,7,9,9,12,12,12,12,13
participant_8_BUY,[],"[1055, 2003, 2003, 1042, 3340, 2003, 2003]",[],[],[1038],[],[],"[3095, 1001]",[],[],[],"[3009, 2015, 1042]",[],"[3094, 1037]",[],[],[],[3031],[],"[3086, 3087]",[1038],[],[],[3026],[]
participant_8_SOLD,[],[],[],[],[],[],[2003],"[2003, 1038, 1042]",[],[],[],[1001],[],"[1042, 2015]",[],[],[],[1037],[],"[2003, 1055, 3086]",[],[],[],[1038],[]
participant_8_UNDO,[],"[[0, 2003]]",[],[],[],[],[],[],[],[],[],[],[],[],[],[],[],[],[],[],[],[],[],[],[]
participant_9_GOLD,950,1400,1935,2580,2991,3429,4022,4790,5028,5323,5761,7111,8151,8451,8822,9286,9600,9961,11073,11528,12088,12894,13110,13326,13581
participant_9_CURRENTGOLD,950,600,285,930,41,479,372,140,378,673,11,1361,2401,2701,397,861,1175,1537,2648,578,339,1144,260,476,81
participant_9_LEVEL,3,3,3,4,5,6,7,7,8,8,9,10,11,11,12,12,13,13,14,15,16,16,16,16,17
participant_9_MINIONSKILLED,0,0,2,7,11,16,19,23,23,25,31,37,44,47,54,58,58,65,67,71,74,80,80,80,80
participant_9_KILLS,0,1,2,2,2,2,2,3,3,3,3,4,5,5,5,5,5,5,6,6,6,7,7,7,7
participant_9_BUY,[],"[1055, 2003, 2003, 2015, 2003, 3340, 2003, 2003, 3340]","[1018, 2003]",[],[1038],[],"[3095, 1001]","[2015, 1042]",[],[],[3086],[],[],[],"[3094, 1038, 1037]",[],[],[],[],"[3031, 3009, 2015]",[1018],[],[3087],[1029],[2420]
participant_9_SOLD,[],[],[],[],[],[],"[1038, 1018, 2015]",[],[],[],[1042],[],[2003],[],"[3086, 2015]",[],[],"[2003, 2003]",[],"[1038, 1037, 1001]",[],[],"[1018, 2015]",[],[]
participant_9_UNDO,[],"[[0, 2003], [0, 2003], [0, 1055], [3340, 0], [0, 2003]]",[],[],[],[],[],[],[],[],[],[],[],[],[],[],[],[],[],[],[],[],[],"[[0, 1029]]",[]
team0_KILLS,0,1,1,1,5,6,7,12,13,15,16,18,18,23,25,26,26,27,28,31,35,36,40,41,45
team0_CURRENTGOLD,4750,1835,595,2190,4917,2758,6159,5969,7337,7050,4967,4744,2335,5632,7479,6754,7011,4383,2487,5633,3831,3775,4721,6430,10273
team0_TOTALGOLD,4750,5510,5845,7740,12442,15408,18809,23444,26562,29525,31691,34744,36835,40981,44577,46728,48935,50857,52658,55807,59705,62369,65715,69324,73628
team0_LEVEL,15,15,15,20,26,32,36,41,43,47,50,53,55,60,61,65,68,69,71,73,77,79,81,85,87
team0_SBIRES,0,0,14,36,50,73,93,101,111,132,146,174,179,190,207,221,245,253,258,270,277,288,288,297,322
team1_KILLS,0,1,2,3,3,3,4,5,6,8,8,9,12,12,13,14,15,15,20,20,24,25,27,27,28
team1_CURRENTGOLD,4750,890,893,3377,1537,2734,3020,2035,3617,6465,3449,3589,6859,4942,1630,3851,5892,4228,7278,4515,1955,4044,3373,1953,2551
team1_TOTALGOLD,4750,5290,6143,8628,10487,12186,14851,16765,18967,21816,23299,25988,30260,31618,33880,36101,38892,40552,45577,47758,51273,53587,56092,57471,59101
team1_LEVEL,15,15,15,21,26,30,33,36,38,42,46,48,53,54,58,61,63,65,70,72,75,76,79,80,81
team1_SBIRES,0,0,11,27,43,61,71,81,90,102,117,135,156,166,189,206,230,252,267,283,291,306,308,315,317
delta_KILLS,0,0,-1,-2,2,3,3,7,7,7,8,9,6,11,12,12,11,12,8,11,11,11,13,14,17
delta_CURRENTGOLD,0,945,-298,-1187,3380,24,3139,3934,3720,585,1518,1155,-4524,690,5849,2903,1119,155,-4791,1118,1876,-269,1348,4477,7722
delta_TOTALGOLD,0,220,-298,-888,1955,3222,3958,6679,7595,7709,8392,8756,6575,9363,10697,10627,10043,10305,7081,8049,8432,8782,9623,11853,14527
delta_LEVEL,0,0,0,-1,0,2,3,5,5,5,4,5,2,6,3,4,5,4,1,1,2,3,2,5,6
delta_SBIRES,0,0,3,9,7,12,22,20,21,30,29,39,23,24,18,15,15,1,-9,-13,-14,-18,-20,-18,5
