name,frame_0,frame_1,frame_2,frame_3,frame_4,frame_5,frame_6,frame_7,frame_8,frame_9,frame_10,frame_11,frame_12,frame_13,frame_14,frame_15,frame_16,frame_17,frame_18,frame_19,frame_20,frame_21,frame_22,frame_23,frame_24,frame_25,frame_26,frame_27,frame_28
nameStamp,Tstart,Tearly,Tearly,Tearly,Tearly,Tearly,Tearly,Tearly,Tearly,Tearly,Tearly,Tearly,Tearly,Tearly,Tearly,Tearly,Tmid,Tmid,Tmid,Tmid,Tmid,Tmid,Tmid,Tmid,Tmid,Tmid,Tend,Tend,Tend
timestamp,0,60008,120010,180011,240043,300065,360069,420098,480125,540128,600132,660164,720189,780217,840241,900247,960267,1020294,1080312,1140330,1200362,1260392,1320421,1380449,1440480,1500483,1560484,1620513,1680513
participant_0_GOLD,500,500,597,789,1278,1555,1761,2117,2338,2760,3168,3410,3630,4053,5034,5380,5845,6817,7044,7166,7288,7516,7688,7976,8398,8520,8781,8987,9096
participant_0_CURRENTGOLD,500,0,97,289,778,1055,111,467,688,275,683,925,1145,153,1134,1480,45,117,344,466,588,816,988,276,698,385,646,852,111
participant_0_LEVEL,1,1,1,3,4,5,5,6,7,7,8,9,9,10,10,11,11,12,12,12,12,12,12,13,13,13,14,14,14
participant_0_MINIONSKILLED,0,0,4,8,13,19,24,34,40,40,49,55,61,61,64,73,75,75,77,77,77,84,84,85,98,98,102,107,107
participant_0_KILLS,0,0,1,1,1,2,2,3,4,4,5,5,5,5,7,8,8,8,9,9,9,9,10,11,11,11,11,11,11
participant_0_BUY,[],"[1039, 2031, 3340, 3364]",[],[],[],[],[],"[3047, 3706]",[],[3751],"[1401, 1042]",[],[1042],[],"[3101, 1036, 1028]",[3044],[],[1027],[],[],"[3078, 1029]",[],[1031],[],[1011],[],[],[],"[3742, 1006]"
participant_0_SOLD,[],[3340],[],[],[],[],[],[1039],[],[],"[3751, 3706]",[],[],[],"[1042, 1042]","[1028, 1036]",[],[],[],[],"[3101, 1027, 3044]",[],[1029],[],[],[],[],[],"[1031, 1011, 2031]"
participant_0_UNDO,[],[],[],[],[],[],[],[],[],[],[],[],[],[],[],[],[],[],[],[],[],[],[],[],[],[],[],[],"[[2031, 0]]"
participant_1_GOLD,500,500,820,1127,1513,2045,2358,2699,3344,3651,4134,4367,4637,4834,5749,6334,6507,6629,7361,7754,7976,8099,8521,9559,9832,9954,10326,10575,10705
participant_1_CURRENTGOLD,500,0,320,627,1013,1545,1858,449,1094,501,84,317,287,484,149,234,407,179,911,1304,193,316,238,1276,549,671,1044,1292,112
participant_1_LEVEL,1,1,1,2,3,4,5,5,5,6,7,7,7,7,9,9,9,9,10,11,11,11,11,11,12,12,12,12,12
participant_1_MINIONSKILLED,0,0,0,0,0,1,1,1,5,5,5,9,11,11,14,18,18,18,23,23,23,23,23,23,23,23,23,23,24
participant_1_KILLS,0,0,0,0,0,0,0,0,0,0,1,1,2,3,3,4,5,5,6,6,6,6,6,6,6,6,7,7,7
participant_1_BUY,[],"[1055, 2003, 3340]",[2003],[],[],[],[],[1038],[],"[1001, 1036]",[],[],[],"[3508, 1042, 1042]",[],[1053],[],[],[],[],"[3006, 1038]",[],[],[],[],[],[3072],[],[]
participant_1_SOLD,[],[],[],[],[2003],[2003],[],[],[],[],[],[],[],"[1038, 1036]",[],[],[],[],[],[],"[1001, 1042, 1055]",[],[],[],[],[],"[1038, 1053]",[],[]
participant_1_UNDO,[],[],[],[],[],[],[],[],[],[],[],[],[],[],[],[],[],[],[],[],[],[],[],[],[],[],[],[],[]
participant_2_GOLD,500,500,840,1106,1293,1534,1814,2136,2328,2450,2741,2959,3300,3569,3915,4226,4489,4946,5082,5456,5578,5937,6970,7292,7735,8826,9303,9551,9660
participant_2_CURRENTGOLD,500,0,40,306,58,299,579,901,1093,350,641,59,400,669,1014,1326,1589,146,282,655,343,702,1735,2057,484,1026,653,901,575
participant_2_LEVEL,1,1,1,2,3,4,5,6,6,6,7,7,8,8,9,10,10,11,11,11,11,11,12,12,12,13,13,13,13
participant_2_MINIONSKILLED,0,0,0,6,9,17,23,27,31,31,41,43,52,60,64,72,77,78,79,89,89,99,99,105,105,108,110,113,113
participant_2_KILLS,0,0,0,0,0,2,2,2,3,3,3,3,3,3,3,3,3,3,3,3,3,3,3,3,3,3,3,3,3
participant_2_BUY,[],"[2003, 3858, 3340, 2003]",[],[],[],[],[],"[3105, 1001, 2055]",[],"[1033, 1029]",[],[1031],[],"[1027, 3364]",[],[3117],[],[3024],[],[],"[3050, 1028]",[],[],[3067],[],[3109],[],[],[]
participant_2_SOLD,[],[2003],[2003],[],[],"[2010, 2010]",[],"[2055, 2010]",[],[],[],[1029],[3858],[3340],[],[1001],[],[1027],[],[],"[3105, 3024]",[3859],[],[1028],[],"[3067, 1031]",[],[],[]
participant_2_UNDO,[],[],[],[],[],[],[],[],[],[],[],[],[],[],[],[],[],[],[],[],[],[],[],[],[],[],[],[],[]
participant_3_GOLD,500,500,599,897,1111,1576,1855,1999,2425,2547,3346,3669,4310,4875,5239,5720,6193,6468,7029,7194,7316,7634,7906,8268,8516,8823,9349,10001,10110
participant_3_CURRENTGOLD,500,0,49,347,561,1026,1305,149,575,47,846,1169,1810,125,489,70,543,818,1379,1544,46,364,636,998,1246,1553,780,1431,1360
participant_3_LEVEL,1,1,1,2,2,3,4,4,5,5,6,6,7,7,8,8,8,9,9,9,9,10,10,10,11,11,11,12,12
participant_3_MINIONSKILLED,0,0,0,8,13,15,22,23,33,33,43,51,60,64,74,79,79,83,87,89,89,96,96,102,105,105,107,120,120
participant_3_KILLS,0,0,1,1,1,1,1,1,1,1,1,1,1,1,1,1,1,2,2,2,2,2,4,4,5,6,7,7,7
participant_3_BUY,[],"[2003, 1056, 2003, 2003]",[1001],[],[1052],[],[],[],[],[3802],[],[3020],[],[],[],[],[],[3285],[],[],[1052],[],[],[],"[3916, 1026]",[3165],[1026],[],[1052]
participant_3_SOLD,[],[],[],[],[],[],[],"[2003, 2003]",[],[1052],[],[1001],[],[],[],[],[],[3802],[],[],[],[],[],[],[1052],"[3916, 1026]",[],[],[]
participant_3_UNDO,[],"[[0, 2003]]",[],[],[],[],[],[],[],[],[],[],[],[],[],[],[],[],[],[],[],[],[],[],[],[],[],[],[]
participant_4_GOLD,500,500,522,744,901,1770,2097,2252,2700,2835,3247,3403,3630,3947,4189,4481,4821,5093,5351,5491,5632,5835,6025,6217,6357,6497,6723,6863,6988
participant_4_CURRENTGOLD,500,0,22,244,401,1270,1597,277,725,110,522,178,405,372,614,206,546,268,526,666,157,360,550,342,482,22,248,388,513
participant_4_LEVEL,1,1,1,1,2,3,4,4,5,5,6,7,7,7,8,8,8,9,9,9,9,10,10,10,11,11,11,12,12
participant_4_MINIONSKILLED,0,0,0,3,4,6,14,15,16,16,20,21,22,23,25,26,26,29,31,31,31,34,34,36,36,36,37,37,37
participant_4_KILLS,0,0,0,0,1,1,1,1,1,2,2,2,2,3,4,4,4,5,5,5,5,5,5,5,5,5,5,5,5
participant_4_BUY,[],"[1056, 2003, 3340, 2003]",[],[],[],[],"[1026, 1001]",[],[],"[1052, 1028]",[],[],[],"[3136, 3151]",[],[],"[3020, 3101]",[3108],[],[],[],[],[],[3115],[],[1052],[],[],[1026]
participant_4_SOLD,[],[],[],[2003],[],[2003],[],[],[],[],[],[],[],"[1028, 1052, 3136, 1026]",[],[],[1001],[],[],[],[],[],[],"[3101, 3108]",[],[],[],[],[]
participant_4_UNDO,[],[],[],[],[],[],[],[],[],[],[],[],[],[],[],[],[],[],[],[],[],[],[],[],[],[],[],[],[]
participant_5_GOLD,500,500,597,775,933,1147,1496,1668,1894,2226,2762,3092,3438,3560,3782,4997,5284,5444,5566,5798,6046,6268,7319,7582,7704,8227,8411,8548,9732
participant_5_CURRENTGOLD,500,0,97,275,283,497,846,318,544,876,112,442,788,460,332,1547,1834,194,316,548,346,568,1619,1482,339,862,71,208,1332
participant_5_LEVEL,1,1,1,2,3,4,5,6,6,7,8,8,9,9,9,10,10,10,10,11,11,11,12,12,12,13,13,13,14
participant_5_MINIONSKILLED,0,0,2,5,7,12,23,26,29,41,45,54,59,59,59,61,62,62,62,64,64,64,66,71,71,71,75,76,77
participant_5_KILLS,0,0,0,0,0,0,0,0,0,2,2,3,3,3,4,4,4,4,4,4,5,6,7,7,8,9,9,9,11
participant_5_BUY,[],"[3340, 1056, 2003, 2003]",[],[],[],"[1001, 1052]",[],[],[3020],"[3802, 1026]",[],[],[3285],[],[1058],[],[],[],[],[],[1058],[],"[3089, 2420]",[],[],[3191],[],[],[]
participant_5_SOLD,[],[],[],[],"[2003, 2003]",[],[],[],[1001],[1052],[],[],"[3802, 1026]",[],[],[],[],[],[],[],[],[],"[1058, 1058]",[],[],[2420],[],[],[]
participant_5_UNDO,[],[],[],[],[],[],[],[],[],[],[],[],[],[],[],[],[],[],[],[],[],[],[],[],[],[],[],[],[]
participant_6_GOLD,500,500,565,788,1413,1535,1743,2089,2402,2524,2929,3258,4205,4510,4632,5965,6726,7006,7438,7773,8791,9238,9510,10483,11450,12309,12583,12831,13605
participant_6_CURRENTGOLD,500,0,65,288,913,85,293,639,952,74,479,808,1755,2060,757,2090,2851,231,663,998,2016,2463,735,1708,2675,3534,3809,256,1030
participant_6_LEVEL,1,1,1,2,3,3,3,4,5,5,6,6,8,8,8,9,9,10,10,11,11,12,12,13,14,15,15,15,16
participant_6_MINIONSKILLED,0,0,0,0,0,0,0,2,2,2,2,5,7,11,11,15,15,15,21,23,23,29,29,38,40,40,43,46,48
participant_6_KILLS,0,0,2,2,2,2,2,2,2,4,4,4,4,4,4,4,4,5,5,5,5,5,5,5,5,6,6,6,6
participant_6_BUY,[],"[1055, 2003]",[],[],"[1001, 1042, 1042]",[1042],[],[],[2015],[],[1038],[],[],[3009],[],[],[3095],[],[2015],[],[1018],[],[3086],[],"[3094, 1036]",[],"[3133, 1038]",[],[]
participant_6_SOLD,[],[],[2003],[],[],[],[],[],[1042],[],[],[],[],[1001],[],[],"[1038, 2015]",[],[1042],[],[],[],"[1018, 1042]",[],"[3086, 2015]",[],[1036],[],[]
participant_6_UNDO,[],[],[],[],[],[],[],[],[],[],[],[],[],[],[],[],[],[],[],[],[],[],[],[],[],[],"[[0, 3133]]",[],[]
participant_7_GOLD,500,500,600,827,1266,1479,1727,2049,2255,3903,4244,4821,5119,5459,6202,6437,6766,7093,7424,7589,8086,8660,9243,9457,10281,11140,11262,11440,12761
participant_7_CURRENTGOLD,500,0,100,327,766,244,492,814,220,153,494,1071,319,659,152,387,716,1043,1374,1539,786,1360,193,407,1231,990,1112,1291,2611
participant_7_LEVEL,1,1,1,2,4,4,5,6,6,7,8,9,9,10,10,10,11,11,12,12,12,12,13,13,13,14,14,15,15
participant_7_MINIONSKILLED,0,0,0,6,14,17,24,32,37,37,47,54,61,74,75,79,87,93,101,104,104,108,110,113,114,114,114,117,125
participant_7_KILLS,0,0,0,0,1,1,1,1,1,1,1,1,2,2,2,4,6,6,6,6,8,8,8,9,11,12,12,12,13
participant_7_BUY,[],"[1041, 2031, 3340]",[],[],[],"[3706, 1001]",[],[],[],[1043],[],[],[],[],"[1416, 3111]",[],[],[3147],[],[],[],[],"[1053, 3134, 3364]",[],[],[],[],"[3181, 3026]",[]
participant_7_SOLD,[],[],[],[],[],[1041],[],[],[],[],[],[],[],[],"[1043, 3706, 1001]",[],[],[],[],[],[],[],[3340],[],[],[],[],"[3134, 1053]",[]
participant_7_UNDO,[],[],[],[],[],[],[],[],[],[],[],[],[],[],[],[],[],[],[],[],[],[],[],[],[],[],[],[],[]
participant_8_GOLD,500,500,1260,1403,1562,1775,1975,2331,2474,3523,3645,4018,4280,4465,4809,5142,5265,5764,5887,6299,6492,6809,6981,7655,7826,8928,9050,9284,9898
participant_8_CURRENTGOLD,500,0,760,903,162,75,275,631,374,1423,245,618,880,465,809,1142,65,564,287,699,92,409,281,955,276,1378,200,434,1048
participant_8_LEVEL,1,1,1,1,1,2,3,4,4,5,5,6,7,7,7,8,8,8,8,9,9,10,10,11,11,12,12,12,13
participant_8_MINIONSKILLED,0,0,0,1,3,8,12,24,25,33,33,44,52,56,65,71,71,71,71,79,79,79,79,90,93,93,93,95,97
participant_8_KILLS,0,0,0,0,0,0,0,0,0,0,1,1,1,1,1,2,2,2,2,2,2,2,5,5,5,5,5,5,7
participant_8_BUY,[],"[1054, 2003, 3340]",[],[],[2031],[],[],"[1001, 1028, 3364]",[],[],"[3751, 1031]",[],[],[1033],[3111],[],[],"[3068, 1028, 1036]",[],[],[3052],[],[],[1028],[3077],[],"[3748, 1028]",[],[]
participant_8_SOLD,[],[],[2003],[],[],[],[],[3340],[],[],[1028],[],[],[],"[3364, 1001, 1033]",[3513],[],"[1031, 3751]",[],[],"[1036, 1028]",[],[],[],[2031],[],"[3077, 1028, 3052]",[],[]
participant_8_UNDO,[],[],[],[],[],[],[],[],[],[],[],[],[],[],[],[],[],[],[],[],[],[],[],[],[],[],[],[],[]
participant_9_GOLD,500,545,662,796,1003,1528,1662,1842,2021,2370,2624,2821,3065,3205,3418,3794,4123,4781,4967,5741,5946,6298,6563,6753,7044,8121,8449,8794,9644
participant_9_CURRENTGOLD,500,45,162,296,503,1028,177,357,21,370,624,821,1065,105,318,694,48,706,117,891,46,398,63,253,544,1621,199,545,1394
participant_9_LEVEL,1,1,1,1,3,4,4,4,5,5,5,6,7,7,7,7,8,8,8,9,9,10,10,10,11,12,12,13,13
participant_9_MINIONSKILLED,0,0,0,0,3,3,3,3,3,5,7,10,12,12,15,15,15,18,18,25,25,27,27,27,27,27,35,44,45
participant_9_KILLS,0,0,0,0,0,1,1,1,1,1,1,1,1,1,1,1,1,2,2,3,3,3,3,3,3,5,5,5,5
participant_9_BUY,[],"[3850, 2003, 2003, 3340]",[],[],[],[],"[1001, 1052, 2055, 2055, 2003, 2003]",[],"[3108, 2003]",[],[],[],[],[3191],[],[],"[3157, 2055]",[],"[3117, 2055]",[],"[3024, 2055, 2055]",[],"[1033, 2055, 2055, 3364]",[],[],[],"[3050, 3113]",[],[]
participant_9_SOLD,[],[],[2003],"[2003, 2010]",[],[2010],[2055],[],"[2003, 2003, 2010, 1052]",[2055],"[2003, 3850]",[],[],[],[],[],"[3191, 3108]",[2055],[1001],[2055],[3851],"[2055, 2055]",[3340],[],[],[],"[1033, 3024]",[2055],[]
participant_9_UNDO,[],[],[],[],[],[],[],[],[],[],[],[],[],[],[],[],[],[],[],[],[],[],[],[],[],[],[],[],[]
team0_KILLS,0,0,2,2,3,6,6,7,9,10,12,12,13,15,18,20,21,23,25,25,25,25,28,29,30,31,33,33,33
team0_CURRENTGOLD,2500,0,528,1813,2811,5195,5450,2243,4175,1283,2776,2648,4047,1803,3400,3316,3130,1528,3442,4635,1327,2558,4147,4949,3459,3657,3371,4864,2671
team0_TOTALGOLD,2500,2500,3378,4663,6096,8480,9885,11203,13135,14243,16636,17808,19507,21278,24126,26141,27855,29953,31867,33061,33790,35021,37110,39312,40838,42620,44482,45977,46559
team0_LEVEL,5,5,5,10,14,19,23,25,28,29,34,36,38,39,44,46,46,50,51,52,52,54,55,56,59,60,61,63,63
team0_SBIRES,0,0,4,25,39,58,84,100,125,125,158,179,206,219,241,268,275,283,297,309,309,336,336,351,367,370,379,400,401
team1_KILLS,0,0,2,2,3,4,4,4,4,8,9,10,11,11,12,15,17,19,19,20,23,24,28,29,32,37,37,37,42
team1_CURRENTGOLD,2500,45,1184,2089,2627,1929,2083,2759,2111,2896,1954,3760,4807,3749,2368,5860,5514,2738,2757,4675,3286,5198,2891,4805,5065,8385,5391,2734,7415
team1_TOTALGOLD,2500,2545,3684,4589,6177,7464,8603,9979,11046,14546,16204,18010,20107,21199,22843,26335,28164,30088,31282,33200,35361,37273,39616,41930,44305,48725,49755,50897,55640
team1_LEVEL,5,5,5,8,14,17,20,24,26,29,32,35,40,41,41,44,46,47,48,52,52,55,57,59,61,66,66,68,71
team1_SBIRES,0,0,2,12,27,40,62,87,96,118,134,167,191,212,225,241,250,259,273,295,295,307,311,339,345,345,360,378,392
delta_KILLS,0,0,0,0,0,2,2,3,5,2,3,2,2,4,6,5,4,4,6,5,2,1,0,0,-2,-6,-4,-4,-9
delta_CURRENTGOLD,0,-45,-656,-276,184,3266,3367,-516,2064,-1613,822,-1112,-760,-1946,1032,-2544,-2384,-1210,685,-40,-1959,-2640,1256,144,-1606,-4728,-2020,2130,-4744
delta_TOTALGOLD,0,-45,-306,74,-81,1016,1282,1224,2089,-303,432,-202,-600,79,1283,-194,-309,-135,585,-139,-1571,-2252,-2506,-2618,-3467,-6105,-5273,-4920,-9081
delta_LEVEL,0,0,0,2,0,2,3,1,2,0,2,1,-2,-2,3,2,0,3,3,0,0,-1,-2,-3,-2,-6,-5,-5,-8
delta_SBIRES,0,0,2,13,12,18,22,13,29,7,24,12,15,7,16,27,25,24,24,14,14,29,25,12,22,25,19,22,9
