name,team0,team1
win,Win,Fail
firstBlood,True,False
firstTower,True,False
firstInhibitor,True,False
firstBaron,True,False
firstDragon,True,False
firstRiftHerald,True,False
towerKills,9,1
inhibitorKills,1,0
baronKills,1,0
dragonKills,3,1
riftHeraldKills,1,0
