name,frame_0,frame_1,frame_2,frame_3,frame_4,frame_5,frame_6,frame_7,frame_8,frame_9,frame_10,frame_11,frame_12,frame_13,frame_14,frame_15,frame_16,frame_17,frame_18,frame_19,frame_20,frame_21,frame_22,frame_23,frame_24,frame_25,frame_26,frame_27,frame_28
nameStamp,Tstart,Tearly,Tearly,Tearly,Tearly,Tearly,Tearly,Tearly,Tearly,Tearly,Tearly,Tearly,Tearly,Tearly,Tearly,Tearly,Tmid,Tmid,Tmid,Tmid,Tmid,Tmid,Tmid,Tmid,Tmid,Tmid,Tend,Tend,Tend
timestamp,0,60031,120060,180090,240103,300127,360151,420159,480174,540201,600205,660238,720264,780265,840297,900307,960330,1020352,1080371,1140376,1200402,1260431,1320436,1380463,1440478,1500484,1560495,1620522,1680522
participant_0_GOLD,500,500,584,832,1169,1431,1736,2050,2311,2604,2843,2966,3289,3425,3769,4038,4465,4830,4983,5566,5748,5871,6706,7128,7750,8172,8650,9308,9786
participant_0_CURRENTGOLD,500,0,84,332,669,931,1236,1550,1811,279,518,641,964,350,694,963,1390,1755,108,691,873,146,981,1403,155,577,1055,1713,2011
participant_0_LEVEL,1,1,1,2,4,5,6,6,7,8,8,8,8,9,9,10,10,11,11,11,11,11,12,12,13,13,14,14,15
participant_0_MINIONSKILLED,0,0,3,10,20,27,37,45,50,57,59,59,61,62,72,80,90,93,94,103,103,103,107,113,113,113,126,138,138
participant_0_KILLS,0,0,0,0,0,0,0,0,0,0,0,0,0,0,0,0,0,0,0,0,0,0,0,0,0,0,0,0,0
participant_0_BUY,[],"[3850, 3340, 2003, 2003]",[],[],[],[],"[1001, 1052, 2055]",[],[],[],"[4642, 2055, 2055]",[],[],[],[],"[3067, 3364]",[],[],[],[],[4005],[],[3117],[],[],"[3114, 1026]",[2055],[],[]
participant_0_SOLD,[],[],[],[],[],[],"[2003, 2003]",[2055],[],[],[1052],[],[],[2055],[],"[3850, 3340]",[],[],[],[],"[3067, 4642]",[],[1001],[],[],"[3851, 2055]",[],[2055],[]
participant_0_UNDO,[],[],[],[],[],[],[],[],[],[],[],[],[],[],[],[],[],[],[],[],[],[],[],[],[],[],[],[],[]
participant_1_GOLD,500,500,690,913,1318,1440,1983,2190,2823,2946,3368,3591,4374,4946,5114,5853,6139,6655,7202,7491,7669,7791,7913,8479,9429,9876,10646,11152,11616
participant_1_CURRENTGOLD,500,0,190,413,818,940,83,290,923,96,518,741,1524,521,689,1428,1714,2230,2777,2333,236,268,390,956,1906,1528,798,1304,1708
participant_1_LEVEL,1,1,2,3,4,4,4,4,5,5,6,6,7,7,7,8,9,9,9,10,10,10,10,11,11,12,12,13,13
participant_1_MINIONSKILLED,0,0,0,0,0,0,0,0,0,0,0,0,1,1,1,3,6,9,9,11,11,11,11,22,22,22,23,34,37
participant_1_KILLS,0,0,0,0,0,0,1,1,2,2,2,2,3,4,4,5,5,6,7,7,7,7,7,7,8,8,10,10,10
participant_1_BUY,[],"[1035, 2031, 3364]",[],[],[],[],"[3047, 1042]",[],[],"[3051, 2055, 2055]",[],[],[],"[3067, 3057, 2055]",[],[],[],[],[],[3078],"[3133, 1031, 1037, 1029]","[2055, 2055]",[],[],[],[6333],"[3044, 1028]",[],[]
participant_1_SOLD,[],[],[],[],[],[],[],[],[],[1042],"[1035, 2055]",[3364],[3513],[],[2055],[],[],[],[],"[2055, 3057, 3051, 3067]",[],[2031],[],[2055],[],"[1029, 3133, 1037]",[],[],[]
participant_1_UNDO,[],[],[],[],[],[],[],[],[],[],[],[],[],[],[],[],[],[],[],[],"[[0, 1031]]",[],[],[],[],[],[],[],[]
participant_2_GOLD,500,500,563,850,1064,1291,1606,1875,2451,2602,3164,3495,3739,4346,4499,5165,5413,5815,5987,6834,7406,7549,8307,8759,10042,10564,10931,11839,12229
participant_2_CURRENTGOLD,500,0,63,340,554,771,291,560,1136,397,959,1280,1524,2131,184,850,298,700,872,1719,996,224,982,184,217,739,1106,2014,2404
participant_2_LEVEL,1,1,1,3,4,5,6,6,7,7,8,8,9,10,10,10,11,11,11,11,11,12,12,12,13,13,14,14,14
participant_2_MINIONSKILLED,0,0,2,9,14,17,26,34,43,45,53,62,69,71,72,80,88,94,97,103,103,104,110,116,116,116,130,136,136
participant_2_KILLS,0,0,0,0,0,0,0,0,0,0,0,0,0,0,0,0,0,0,0,0,0,0,2,2,3,3,3,3,3
participant_2_BUY,[],"[1054, 2003, 3340]",[],[],[],[],[],[],[],"[6660, 1033, 1001, 2055]",[],[],[],"[1057, 1029]",[],[],[],[],"[6664, 3111]",[],[],"[1033, 1028]",[],[],[3065],[],[],[],[]
participant_2_SOLD,[],[],[],[],[2003],[],[],[],[],[],[],[2055],[],[1033],[],[],[],[],"[6660, 1029, 1057, 1001]",[],[],[],[],[],"[1054, 1028, 1033]",[],[],[],[]
participant_2_UNDO,[],[],[],[],[],[],[],[],[],[],[],[],[],[],[],[],[],[],[],[],[],[],[],[],[],[],[],[],[]
participant_3_GOLD,500,500,521,762,1057,1382,1711,1952,2213,2462,2626,2992,3548,3859,4075,4260,4509,4806,5031,5334,5566,5688,6057,6404,7304,7900,8255,8712,10158
participant_3_CURRENTGOLD,500,0,21,262,557,882,1211,1452,1713,1962,226,592,1148,1459,1675,360,609,31,256,209,441,213,582,929,1829,100,455,912,2358
participant_3_LEVEL,1,1,1,2,3,4,5,5,6,6,7,7,8,8,9,9,9,9,9,10,10,10,11,11,12,12,13,13,14
participant_3_MINIONSKILLED,0,0,0,7,15,24,33,40,45,52,54,65,77,88,93,97,104,104,106,106,112,112,116,121,125,131,133,140,143
participant_3_KILLS,0,0,0,0,0,0,0,0,0,0,0,0,0,0,0,0,0,0,0,0,0,0,0,0,2,2,2,2,6
participant_3_BUY,[],"[1055, 2003]",[],[],[],[],[],[],[],[],"[6670, 1018]",[],[],[],[],[6671],[],[1037],[],[1036],[],[1036],[],[],[],"[6676, 3009]",[],[],[]
participant_3_SOLD,[],[],[],[2003],[],[],[],[],[],[],[],[],[],[],[],"[6670, 1018]",[],[],[],[],[],[],[],[],[],"[1036, 1036, 1037]",[],[],[]
participant_3_UNDO,[],[],[],[],[],[],[],[],[],[],[],[],[],[],[],[],[],[],[],[],[],[],[],[],[],[],[],[],[]
participant_4_GOLD,500,500,523,677,832,1026,1361,1495,1859,2014,2188,2323,2477,2821,2956,3155,3295,3655,3871,4156,4407,4547,4882,5229,5718,6158,6427,6703,7060
participant_4_CURRENTGOLD,500,0,23,177,332,526,51,185,549,704,113,248,402,746,881,280,420,780,996,1281,682,822,457,804,1293,83,277,553,910
participant_4_LEVEL,1,1,1,2,3,3,3,4,4,5,5,5,6,6,6,7,7,7,7,8,8,8,9,9,9,10,11,11,11
participant_4_MINIONSKILLED,0,0,0,0,0,0,0,0,0,0,0,0,0,0,0,0,0,1,1,1,1,1,1,2,2,2,2,4,4
participant_4_KILLS,0,0,0,0,0,0,0,0,1,1,2,2,2,3,3,4,4,4,4,6,7,7,8,8,9,9,9,10,10
participant_4_BUY,[],"[1056, 2003, 2003, 3340]",[],[],[],[],"[1052, 1027]",[],[],"[3802, 1001, 2055]",[],[],[],[],[6656],[],[3020],[],[],[],"[3191, 1052]",[3157],[],[1058],[1058],[],[],[],[]
participant_4_SOLD,[],[],[],[],[],[],[],[],[],"[1052, 1027]",[],[2419],[],[],"[2055, 3802]",[2423],[1001],[],[],[],"[2003, 2003]","[3191, 1052, 2424]",[],[],[],[],[],[],[]
participant_4_UNDO,[],[],[],[],[],[],[],[],[],[],[],[],[],[],[],[],[],[],[],[],[],[],[],[],[],[],[],[],[]
participant_5_GOLD,500,500,542,885,1176,1543,1827,2183,2431,2945,3363,3619,3776,4249,4767,5191,5462,5786,6104,6365,6815,8420,8758,9006,9363,9666,10125,10339,10452
participant_5_CURRENTGOLD,500,0,42,385,676,1043,1327,1683,1931,45,463,719,876,1349,1867,316,587,911,1229,1490,1140,1895,1383,1631,738,1041,1501,1714,1827
participant_5_LEVEL,1,1,1,3,4,5,6,7,7,8,9,9,9,10,11,11,11,12,12,12,13,13,14,14,14,14,15,15,15
participant_5_MINIONSKILLED,0,0,1,12,22,34,43,54,61,66,80,84,86,104,114,124,130,137,149,153,168,172,181,189,194,200,208,213,216
participant_5_KILLS,0,0,0,0,0,0,0,0,0,1,1,1,1,1,1,1,1,1,1,1,1,3,3,3,3,3,3,3,3
participant_5_BUY,[],"[1082, 2031]",[],[],[],[],[],[],[],"[4635, 3020]",[],[],[],[],[],"[4633, 2055]",[],[],[],[],[3916],[1026],[3165],[],[1058],[],[],[],[]
participant_5_SOLD,[],[],[],[],[],[],[],[],[],[],[],[],[],[],[],[4635],[2055],[],[],[],[],[],"[1026, 3916]",[],[],[],[],[],[]
participant_5_UNDO,[],[],[],[],[],[],[],[],[],[],[],[],[],[],[],[],[],[],[],[],[],[],[],[],[],[],[],[],[]
participant_6_GOLD,500,500,629,928,1303,1440,1888,2010,2277,2755,2983,3218,3340,3462,3685,4053,4326,4874,4996,5419,5821,6019,6208,6430,6881,7035,7241,7363,7434
participant_6_CURRENTGOLD,500,0,129,428,803,940,1388,1510,177,655,33,268,90,212,435,803,176,724,846,469,871,199,208,430,881,1035,1241,113,184
participant_6_LEVEL,1,1,2,2,4,4,4,4,5,5,6,6,6,6,6,7,7,8,8,9,9,9,10,10,10,10,11,11,11
participant_6_MINIONSKILLED,0,0,0,0,0,0,0,0,0,0,2,2,2,2,2,7,7,15,15,15,15,15,18,18,20,20,21,21,21
participant_6_KILLS,0,0,0,0,0,0,0,0,0,0,0,0,0,0,0,0,0,0,0,0,0,0,0,0,0,0,0,0,0
participant_6_BUY,[],"[1055, 2003, 3340]",[],[],[],[],[],"[1036, 1036, 1042, 1001, 2003]",[],"[6670, 2055]",[],[],[],[],"[3006, 1053, 1042]",[],[],"[6673, 2003]",[],[],[1042],[],[],"[3086, 3363, 2003]",[],[],[],[],[]
participant_6_SOLD,[],[],[],[],[2003],[],[],[],[],"[1036, 1042, 1036]",[],[],[],[2055],[1001],[],[],"[6670, 1053]",[],[],[],"[2003, 2003]",[],"[1042, 3340]",[],[],[],[],[]
participant_6_UNDO,[],[],[],[],[],[],[],[],[],[],[],[],[],[],[],[],[],[],[],[],[],[],[],[],[],[],[],[],[]
participant_7_GOLD,500,500,591,885,1134,1466,2081,2378,2577,3128,3385,3716,4438,4595,5150,5722,6047,6169,6423,6724,7701,8174,8396,8653,8839,9093,9215,9513,10034
participant_7_CURRENTGOLD,500,0,91,375,624,146,751,1048,-53,488,745,1066,538,-55,450,147,472,-196,58,359,1336,84,-94,113,299,203,-74,173,914
participant_7_LEVEL,1,1,1,3,4,5,5,6,6,7,8,8,9,9,9,9,10,10,10,10,11,11,11,11,11,12,12,12,12
participant_7_MINIONSKILLED,0,0,4,11,18,28,37,47,51,64,64,72,72,74,81,81,81,81,81,84,88,88,88,89,93,97,97,98,98
participant_7_KILLS,0,0,0,0,0,0,1,1,1,1,1,1,1,1,1,1,1,2,2,3,3,3,3,3,4,4,4,4,4
participant_7_BUY,[],"[1039, 2003, 2003, 2031, 3340]",[],[],[],[],[],[],"[3145, 1028, 2055, 2055]",[],[1026],[],[1001],[],[],[],[4636],[],[],[3020],[],"[1052, 1052]",[3145],[],[],[],[],[1058],[]
participant_7_SOLD,[],[],[],[],[],[],[],[],[],"[1039, 2055]",[],[],[2055],[],[],[],"[3145, 1028, 1026]",[],[3340],[1001],[],[],"[3513, 1052, 1052]",[],[],[],[],[],[]
participant_7_UNDO,[],"[[0, 2003], [0, 2003]]",[],[],[],[],[],[],[],[],[],[],[],[],[],[],[],[],[],[],[],[],[],[],[],[],[],[],[]
participant_8_GOLD,500,500,521,822,1036,1193,1686,1951,2247,2538,3004,3356,3750,4012,4261,4601,5330,5515,5637,5863,6060,6358,6633,6776,7033,7197,7397,7825,8046
participant_8_CURRENTGOLD,500,0,21,322,536,693,1186,101,397,313,779,1131,1525,1787,36,376,1105,40,162,388,285,583,858,51,308,472,672,1100,1321
participant_8_LEVEL,1,1,1,2,3,3,4,4,5,5,6,7,7,8,8,9,9,9,10,10,10,11,11,11,11,11,11,12,12
participant_8_MINIONSKILLED,0,0,0,8,13,15,19,25,32,42,53,63,71,79,87,93,106,110,110,112,112,112,116,117,117,120,125,135,135
participant_8_KILLS,0,0,0,0,0,0,0,0,0,1,2,2,2,2,2,2,2,2,2,2,2,2,2,2,2,2,2,2,2
participant_8_BUY,[],"[3850, 3340, 2003, 2003]",[],[],[],[],"[1033, 1029]",[],[],[],[],"[3105, 3158, 2055]",[],[],[3067],[1004],[],[],[],"[4642, 2055]",[],[],[],"[6617, 3190, 1004]",[],[],[3114],[],[]
participant_8_SOLD,[],[],[],"[2003, 2003]",[],[],[],[],[],[3850],[],"[1033, 1029]",[],[2055],[],[],[],[3851],[],[1004],[2055],[],[],"[3067, 4642, 3067, 3105]",[],[],[1004],[],[]
participant_8_UNDO,[],[],[],[],[],[],[],[],[],[],[],[],[],[],[],[],[],[],[],[],[],[],[],"[[0, 6617]]",[],[],[],[],[]
participant_9_GOLD,500,540,623,837,1032,1246,1381,1515,1729,2418,3018,3158,3691,3871,4042,4232,4422,4773,4913,5053,5320,5560,5701,5841,6009,6150,6290,6431,6512
participant_9_CURRENTGOLD,500,40,123,337,532,746,131,265,479,1168,1768,183,716,896,267,207,397,748,888,154,420,660,801,291,460,600,190,331,412
participant_9_LEVEL,1,1,1,2,3,3,4,4,5,5,6,6,7,7,7,7,8,8,8,8,9,9,10,10,10,10,10,10,10
participant_9_MINIONSKILLED,0,0,0,0,0,0,0,0,0,0,0,0,7,7,8,8,8,8,8,8,8,8,8,8,10,10,10,10,10
participant_9_KILLS,0,0,0,0,0,0,1,1,1,1,1,1,3,3,3,3,3,3,3,3,4,5,5,5,5,5,5,5,6
participant_9_BUY,[],"[2031, 1036]",[],[],[],[3134],[],[],"[1053, 1036]",[],[],[],"[6692, 1036]",[3134],[],[1037],[],"[1033, 3111]",[],[],[],"[3142, 1036, 1036]",[3134],[],[],[1036],[1028],[],[]
participant_9_SOLD,[],[],[],[],[],[1036],[],[],[],[],[],[],"[3134, 1036, 1053]",[1036],[],[2031],[2031],"[2031, 1033, 2422]",[],[],[],"[3134, 1037]","[1036, 1036]",[],[],[],[],[],[]
participant_9_UNDO,[],[],[],[],[],[],[],[],[],[],[],[],[],[],[],"[[2031, 0]]","[[2031, 0]]",[],[],[],[],[],[],[],[],[],[],[],[]
team0_KILLS,0,0,0,0,0,0,1,1,3,3,4,4,5,7,7,9,9,10,11,13,14,14,17,17,22,22,24,25,29
team0_CURRENTGOLD,2500,0,381,1524,2930,4050,2872,4037,6132,3438,2334,3502,5562,5207,4123,3881,4431,5496,5009,6233,3228,1673,3392,4276,5400,3027,3691,6496,9391
team0_TOTALGOLD,2500,2500,2881,4034,5440,6570,8397,9562,11657,12628,14189,15367,17427,19397,20413,22471,23821,25761,27074,29381,30796,31446,33865,35999,40243,42670,44909,47714,50849
team0_LEVEL,5,5,6,12,18,21,24,25,29,31,34,34,38,40,41,44,46,47,47,50,50,51,54,55,58,60,64,65,67
team0_SBIRES,0,0,5,26,49,68,96,119,138,154,166,186,208,222,238,260,288,301,307,324,330,331,345,374,378,384,414,452,458
team1_KILLS,0,0,0,0,0,0,2,2,2,4,5,5,7,7,7,7,7,8,8,9,10,13,13,13,14,14,14,14,15
team1_CURRENTGOLD,2500,40,406,1847,3171,3568,4783,4607,2931,2669,3788,3367,3745,4189,3055,1849,2737,2227,3183,2860,4052,3421,3156,2516,2686,3351,3530,3431,4658
team1_TOTALGOLD,2500,2540,2906,4357,5681,6888,8863,10037,11261,13784,15753,17067,18995,20189,21905,23799,25587,27117,28073,29424,31717,34531,35696,36706,38125,39141,40268,41471,42478
team1_LEVEL,5,5,6,12,18,20,23,25,28,30,35,36,38,40,41,43,45,47,48,49,52,53,56,56,56,57,59,60,60
team1_SBIRES,0,0,5,31,53,77,99,126,144,172,199,221,238,266,292,313,332,351,363,372,391,395,411,421,434,447,461,477,480
delta_KILLS,0,0,0,0,0,0,-1,-1,1,-1,-1,-1,-2,0,0,2,2,2,3,4,4,1,4,4,8,8,10,11,14
delta_CURRENTGOLD,0,-40,-25,-323,-241,482,-1911,-570,3201,769,-1454,135,1817,1018,1068,2032,1694,3269,1826,3373,-824,-1748,236,1760,2714,-324,161,3065,4733
delta_TOTALGOLD,0,-40,-25,-323,-241,-318,-466,-475,396,-1156,-1564,-1700,-1568,-792,-1492,-1328,-1766,-1356,-999,-43,-921,-3085,-1831,-707,2118,3529,4641,6243,8371
delta_LEVEL,0,0,0,0,0,1,1,0,1,1,-1,-2,0,0,0,1,1,0,-1,1,-2,-2,-2,-1,2,3,5,5,7
delta_SBIRES,0,0,0,-5,-4,-9,-3,-7,-6,-18,-33,-35,-30,-44,-54,-53,-44,-50,-56,-48,-61,-64,-66,-47,-56,-63,-47,-25,-22
