name,frame_0,frame_1,frame_2,frame_3,frame_4,frame_5,frame_6,frame_7,frame_8,frame_9,frame_10,frame_11,frame_12,frame_13,frame_14,frame_15,frame_16,frame_17,frame_18,frame_19,frame_20,frame_21,frame_22,frame_23,frame_24
nameStamp,Tstart,Tearly,Tearly,Tearly,Tearly,Tearly,Tearly,Tearly,Tearly,Tearly,Tearly,Tearly,Tearly,Tearly,Tearly,Tearly,Tearly,Tearly,Tmid,Tmid,Tmid,Tmid,Tmid,Tmid,Tmid
timestamp,0,60019,120038,180052,240072,300085,360107,420122,480154,540174,600195,660224,720250,780274,840302,900319,960338,1020358,1080390,1140409,1200429,1260456,1320473,1380497,1440497
participant_0_GOLD,500,500,577,825,948,1259,1522,1794,1951,2199,2435,2677,3103,3274,3478,3817,3940,4196,4542,4859,4995,5198,5607,6196,6258
participant_0_CURRENTGOLD,500,0,77,325,98,409,672,144,301,549,335,577,1003,24,228,567,340,596,942,1259,195,398,807,1396,1258
participant_0_LEVEL,1,1,1,3,3,4,5,6,6,7,7,8,9,9,9,10,10,10,11,11,11,12,12,13,13
participant_0_MINIONSKILLED,0,0,3,10,10,18,26,32,34,38,41,48,53,56,57,66,66,71,77,80,81,82,92,101,101
participant_0_KILLS,0,0,0,0,1,2,2,2,3,4,5,5,6,6,6,6,7,7,8,8,8,9,9,9,9
participant_0_BUY,[],"[1035, 3340, 2031]",[],[],[],[],[],[],"[3134, 1036, 1036, 1001, 1001, 2055, 2033]",[],[],[],[],"[6691, 1033]",[3111],[],[],[],[],"[3134, 1028, 1036]",[],[],"[3814, 1028]",[],[]
participant_0_SOLD,[],[],[],[],[],[],[],[],[2031],"[1035, 2055]",[],[],[],"[3134, 1036]","[1001, 1033]",[],[],[],[],[],[],[],"[1036, 3134, 1028]",[],[]
participant_0_UNDO,[],[],[],[],[],[],[],[],"[[0, 1001], [0, 1036]]",[],[],[],[],[],[],[],[],[],[],[],[],[],[],[],[]
participant_1_GOLD,500,500,621,928,1553,2080,2338,2650,3092,3609,4272,4564,5036,5159,5281,5589,6166,6608,7186,7581,7712,8278,8648,8956,9017
participant_1_CURRENTGOLD,500,0,121,428,1053,1580,1838,2150,417,934,1597,1889,2361,284,56,364,941,1383,1961,506,637,1203,123,431,492
participant_1_LEVEL,1,1,2,2,4,5,5,6,6,6,7,8,8,8,8,8,9,10,10,11,11,11,12,12,12
participant_1_MINIONSKILLED,0,0,0,0,0,0,0,0,0,0,0,4,5,5,5,5,5,5,5,7,7,10,12,12,12
participant_1_KILLS,0,0,0,0,0,0,0,0,0,0,1,1,1,1,1,2,2,2,2,2,2,3,3,3,3
participant_1_BUY,[],"[3854, 2003, 2003, 3340]",[],[],[],"[1001, 1036]",[],[],"[3117, 2003, 2003, 2055, 3364]",[],[1036],[],[],[],"[3134, 1036, 1036]",[],[3133],[],[],"[6691, 1036, 1036]",[],"[3134, 1037]",[],[],[]
participant_1_SOLD,[],[],[],"[2003, 2003]",[],[],[],[],"[1001, 3340]","[2003, 2055, 2003]",[],[3400],[],[3854],"[1036, 1036]",[],"[1036, 1036]",[],[],"[3134, 3133]",[],"[3400, 1036, 1036]",[],[],[3855]
participant_1_UNDO,[],[],[],[],[],[],[],[],[],[],[],[],[],[],[],[],[],[],[],[],[],[],[],[],[]
participant_2_GOLD,500,500,584,934,1225,1550,1855,2131,2386,2698,3231,3689,3916,4220,4571,5444,5805,6361,6749,7396,7769,7942,8996,9481,9648
participant_2_CURRENTGOLD,500,0,84,424,715,105,410,686,941,1253,1776,784,1011,1315,1656,2529,2890,496,884,281,654,827,1881,2366,2573
participant_2_LEVEL,1,1,1,3,4,5,6,6,7,8,9,9,9,10,10,11,12,12,13,13,13,13,14,14,14
participant_2_MINIONSKILLED,0,0,3,14,23,32,42,51,58,69,81,83,89,100,109,123,137,142,145,145,151,151,157,165,166
participant_2_KILLS,0,0,0,0,0,0,0,0,0,0,0,0,0,0,0,0,0,0,0,0,0,0,0,1,1
participant_2_BUY,[],"[1055, 3340, 2003]",[],[],[1036],[],[],"[3044, 2003]",[],[],"[1028, 2003]",[],[],"[3067, 1001, 1033]",[],[],[3111],[],[],[],[6029],[],[],[],[6630]
participant_2_SOLD,[],[],[],[],[2003],[],[],[1036],[2003],[],[],[],[],[1028],[2003],[],"[1001, 1033]",[],[],[],[],[],[],[],"[6029, 3044, 3067]"
participant_2_UNDO,[],[],[],[],[],[],[],[],[],[],[],[],[],[],[],[],[],[],[],[],[],[],[],[],[]
participant_3_GOLD,500,500,563,1306,1618,1810,2555,3082,3392,3802,3925,4454,4640,5010,5318,5885,6049,7058,7383,8697,9364,10065,11180,11302,11695
participant_3_CURRENTGOLD,500,0,63,806,1118,160,905,1432,307,717,125,654,190,560,368,935,249,8,333,992,1529,930,2045,517,-825
participant_3_LEVEL,1,1,1,2,3,3,4,5,5,6,6,7,7,8,8,9,9,10,10,11,12,12,13,13,13
participant_3_MINIONSKILLED,0,0,2,12,23,27,43,49,57,67,67,83,86,96,103,116,118,135,139,147,154,166,172,172,176
participant_3_KILLS,0,0,0,1,1,1,2,3,3,3,3,3,3,3,3,3,3,3,3,6,7,7,9,9,10
participant_3_BUY,[],"[1056, 3340, 2003, 2003]",[],[],[],"[1026, 1001]",[],[],"[1043, 1052]",[],[3115],[],"[1082, 1042]",[],[3006],[],[1026],[1058],[],[1058],[3158],[3089],[],"[3041, 1028]",[]
participant_3_SOLD,[],[],[],[2003],[2003],[],[],[],[],[],"[1043, 1026, 1052, 1001]",[],[],[],"[1001, 1042]",[],[1056],[],[],[1026],[3006],"[1058, 1058]",[],[1082],[]
participant_3_UNDO,[],[],[],[],[],[],[],[],[],[],"[[1001, 0]]",[],[],[],[],[],"[[1056, 0]]",[],[],[],[],[],[],[],[]
participant_4_GOLD,500,500,544,906,1075,1210,1592,1876,2115,2318,2752,3280,3487,3777,3918,4721,4882,5160,5614,5829,6029,7000,7380,7520,7591
participant_4_CURRENTGOLD,500,0,44,406,575,60,442,726,90,293,377,905,1112,1402,443,1246,1007,1285,1739,254,454,150,530,670,741
participant_4_LEVEL,1,1,1,2,3,3,4,5,5,6,6,6,7,7,7,8,8,8,9,9,9,10,10,10,10
participant_4_MINIONSKILLED,0,0,1,3,5,5,8,8,11,11,11,12,15,18,18,21,22,23,24,24,26,27,28,28,28
participant_4_KILLS,0,0,0,0,0,0,0,0,0,0,0,0,0,0,0,1,1,2,2,3,3,3,4,4,4
participant_4_BUY,[],"[1082, 2031, 3340]",[],[],[],"[1026, 2055]",[],[],[],[],[],"[3145, 1028, 3363]",[],[],[],[],[],"[3152, 3041, 3020]",[],[1058],[],[],[],[],[]
participant_4_SOLD,[],[],[],[],[],[],[],[],[],[],[],"[3400, 3340]",[],[],[],[],[],"[3145, 1028, 1026, 1082, 2422]",[],[],[],[],[],[],[]
participant_4_UNDO,[],[],[],[],[],[],[],[],[],[],[],[],[],[],[],[],[],[],[],[],[],[],[],[],[]
participant_5_GOLD,500,500,563,874,1053,1273,1571,1759,2062,2297,2875,3087,3265,3799,4059,4342,4955,5251,5583,5844,6298,6524,6668,7103,7178
participant_5_CURRENTGOLD,500,0,63,374,553,338,636,59,362,597,1175,287,65,599,859,1142,1755,301,633,894,448,674,168,603,678
participant_5_LEVEL,1,1,1,3,3,4,5,5,6,7,8,8,9,10,10,10,11,12,12,12,13,13,13,14,14
participant_5_MINIONSKILLED,0,0,2,13,16,21,31,32,39,45,51,53,57,64,68,77,90,96,104,108,114,116,117,128,129
participant_5_KILLS,0,0,0,0,0,0,0,0,0,0,1,1,1,1,2,2,2,2,2,2,2,2,2,2,2
participant_5_BUY,[],"[1056, 3340, 2003, 2003]",[],[],[],[1026],[],[],"[1052, 1001]",[],[],"[3802, 2055]",[],[],[],[],"[6655, 3363]",[],[],"[3020, 2055]",[],[],[3916],[],[]
participant_5_SOLD,[],[],[],[2003],[2003],[],[],[],[],[],[],[1052],[2055],[],[],[],"[3802, 1026, 3340]",[],[],[1001],[2055],[],[],[],[]
participant_5_UNDO,[],[],[],[],[],[],[],[],[],[],[],[],[],[],[],[],[],[],[],[],[],[],[],[],[]
participant_6_GOLD,500,500,621,933,1156,1355,1700,1917,2339,2567,3083,3306,3428,3803,4151,4456,4853,5160,5325,5918,6546,6780,7028,7297,7428
participant_6_CURRENTGOLD,500,0,121,433,306,205,550,332,754,467,983,406,528,903,401,706,1103,1410,325,68,696,930,278,547,678
participant_6_LEVEL,1,1,2,3,3,3,4,5,5,5,6,6,6,7,7,8,8,9,9,9,10,10,11,11,11
participant_6_MINIONSKILLED,0,0,0,0,0,0,0,3,3,3,5,5,5,9,9,9,9,9,12,13,13,20,20,21,25
participant_6_KILLS,0,0,0,0,0,0,0,0,1,1,2,2,2,2,2,2,3,3,3,4,5,5,5,5,5
participant_6_BUY,[],"[1039, 2031, 3340]",[],[],[1027],[1001],[],[1052],[],[3802],[],"[1026, 3020]",[],[],[1026],[],[],[],[6655],"[1011, 1026]",[],[],[1011],[],[]
participant_6_SOLD,[],[],[],[],[],[],[],[],[1039],"[1052, 1027]",[],[1001],[],[],[],[],[],[],"[3802, 1026]",[],[],[],[],[],[]
participant_6_UNDO,[],[],[],[],[],[],[],[],[],[],[],"[[0, 1026]]",[],[],[],[],[],[],[],"[[0, 1011]]",[],[],[],[],[]
participant_7_GOLD,500,500,605,881,1239,1403,1708,1970,2134,2355,3020,3178,3371,3570,4057,4256,4508,4804,4940,5255,5654,5875,6053,6238,6300
participant_7_CURRENTGOLD,500,0,105,381,729,43,348,610,39,260,925,143,336,535,1022,1221,223,519,655,95,494,715,93,278,350
participant_7_LEVEL,1,1,1,3,4,4,6,6,7,7,8,8,8,9,9,10,10,10,11,11,11,12,12,12,12
participant_7_MINIONSKILLED,0,0,5,14,25,27,38,46,48,54,59,61,66,70,71,75,79,85,86,89,100,106,109,112,112
participant_7_KILLS,0,0,0,0,0,0,0,0,0,0,1,1,1,2,2,2,2,2,2,2,3,3,3,3,3
participant_7_BUY,[],"[1056, 3340, 2003, 2003, 1056, 2003, 2003, 3340]",[],[],[],[1052],[],"[3145, 2031]",[],[],[],[3020],[1028],[],[],[],[],[3152],[],[],[3191],[],[2420],[],[]
participant_7_SOLD,[],[],[],[],[],[2003],[],"[2003, 1052]",[],[],[],[],[],[],[],[],[],"[3145, 1028]",[],[],[],[],[],[],[]
participant_7_UNDO,[],"[[0, 2003], [0, 2003], [3340, 0], [0, 1056]]",[],[],[],[],[],[],[],[],[],[],[],[],[],[],[],[],[],[],[],[],[],[],[]
participant_8_GOLD,500,500,542,713,892,1709,1853,1989,2279,2423,3271,3609,4213,4436,5651,5801,6095,6336,6715,7684,7995,8418,8770,8976,9037
participant_8_CURRENTGOLD,500,0,42,213,392,1209,228,364,654,148,996,1324,1928,71,1286,36,280,521,900,769,1080,403,405,311,362
participant_8_LEVEL,1,1,1,1,2,3,3,4,4,5,5,6,7,7,7,8,8,8,9,9,10,10,11,11,11
participant_8_MINIONSKILLED,0,0,1,4,7,19,20,21,31,32,43,53,64,65,72,74,80,87,94,95,99,99,109,114,114
participant_8_KILLS,0,0,0,0,0,1,1,1,1,1,2,2,3,3,4,4,4,4,4,6,6,7,7,7,7
participant_8_BUY,[],"[1055, 2003, 3340]",[],[],[],[],"[1001, 1042, 1036, 2055, 2003, 2003]",[],[],[6670],[],[],[],"[1018, 1037, 6672]",[],"[3006, 1042, 1042]",[2003],[],[],"[6677, 1018, 1042]",[],[3124],[1036],[1042],[]
participant_8_SOLD,[],[],[],[],[2003],[],[],[],[],"[2055, 1036, 1042]",[],[],[],"[2003, 6670, 1018, 1037]",[],"[2003, 1001]",[],[],[2003],"[1042, 1042]",[],"[6677, 1018, 1042]",[],[],[]
participant_8_UNDO,[],[],[],[],[],[],[],[],[],[],[],[],[],[],[],[],[],[],[],[],[],[],[],[],[]
participant_9_GOLD,500,500,523,751,1007,1631,1826,2120,2404,2559,2893,3028,3395,3676,4156,4376,4517,4697,4899,5264,5455,5596,5736,5877,5947
participant_9_CURRENTGOLD,500,0,23,251,507,1131,201,495,779,159,493,628,995,101,581,801,92,272,474,514,705,296,436,577,647
participant_9_LEVEL,1,1,1,2,3,4,4,5,6,6,7,7,8,8,8,9,9,9,9,10,10,10,10,11,11
participant_9_MINIONSKILLED,0,0,0,1,2,2,2,4,4,4,4,4,5,5,7,7,7,7,8,8,9,9,9,9,9
participant_9_KILLS,0,0,0,0,0,1,1,1,1,1,1,1,1,1,1,1,1,1,1,1,1,1,1,1,1
participant_9_BUY,[],"[3850, 2003, 2003, 3340]",[],[],[],[],"[3067, 1004, 1052, 4642, 2055]",[],[],"[1001, 2055, 1028]",[],[],[],"[3067, 3158, 3117, 2055, 3364]",[],[],[4005],[],[],"[1004, 2055]",[],[3114],[],[],[]
participant_9_SOLD,[],[],[],[],[2003],[2003],"[1004, 1052]",[2055],[],[],[],[2055],[3850],"[1028, 1001, 1001, 3340]",[2055],[],"[3067, 4642]",[],[3851],[],[2055],[1004],[],[],[]
participant_9_UNDO,[],[],[],[],[],[],"[[0, 3067]]",[],[],[],[],[],[],"[[0, 3158]]",[],[],[],[],[],[],[],[],[],[],[]
team0_KILLS,0,0,0,1,2,3,4,5,6,7,9,9,10,10,10,12,13,14,15,19,20,22,25,26,27
team0_CURRENTGOLD,2500,0,389,2389,3559,2314,4267,5138,2056,3746,4210,4809,5677,3585,2751,5641,5427,3768,5859,3292,3469,3508,5386,5380,4239
team0_TOTALGOLD,2500,2500,2889,4899,6419,7909,9862,11533,12936,14626,16615,18664,20182,21440,22566,25456,26842,29383,31474,34362,35869,38483,41811,43455,44209
team0_LEVEL,5,5,6,12,17,20,24,28,29,33,35,38,40,42,42,46,48,50,53,55,56,58,61,62,62
team0_SBIRES,0,0,9,39,61,82,119,140,160,185,200,230,248,275,292,331,348,376,390,403,419,436,461,478,483
team1_KILLS,0,0,0,0,0,2,2,2,3,3,7,7,8,9,11,11,12,12,12,15,17,18,18,18,18
team1_CURRENTGOLD,2500,0,354,1652,2487,2926,1963,1860,2588,1631,4572,2788,3852,2209,4149,3906,3453,3023,2987,2340,3423,3018,1380,2316,2715
team1_TOTALGOLD,2500,2500,2854,4152,5347,7371,8658,9755,11218,12201,15142,16208,17672,19284,22074,23231,24928,26248,27462,29965,31948,33193,34255,35491,35890
team1_LEVEL,5,5,6,12,15,18,22,25,28,30,34,35,38,41,41,45,46,48,50,51,54,55,57,59,59
team1_SBIRES,0,0,8,32,50,69,91,106,125,138,162,176,197,213,227,242,265,284,304,313,335,350,364,384,389
delta_KILLS,0,0,0,1,2,1,2,3,3,4,2,2,2,1,-1,1,1,2,3,4,3,4,7,8,9
delta_CURRENTGOLD,0,0,35,737,1072,-612,2304,3278,-532,2115,-362,2021,1825,1376,-1398,1735,1974,745,2872,952,46,490,4006,3064,1524
delta_TOTALGOLD,0,0,35,747,1072,538,1204,1778,1718,2425,1473,2456,2510,2156,492,2225,1914,3135,4012,4397,3921,5290,7556,7964,8319
delta_LEVEL,0,0,0,0,2,2,2,3,1,3,1,3,2,1,1,1,2,2,3,4,2,3,4,3,3
delta_SBIRES,0,0,1,7,11,13,28,34,35,47,38,54,51,62,65,89,83,92,86,90,84,86,97,94,94
