name,team0,team1
win,Fail,Win
firstBlood,True,False
firstTower,False,True
firstInhibitor,False,True
firstBaron,False,True
firstDragon,True,False
firstRiftHerald,False,True
towerKills,5,10
inhibitorKills,0,4
baronKills,0,2
dragonKills,2,4
riftHeraldKills,0,1
