name,frame_0,frame_1,frame_2,frame_3,frame_4,frame_5,frame_6,frame_7,frame_8,frame_9,frame_10,frame_11,frame_12,frame_13,frame_14,frame_15,frame_16,frame_17,frame_18,frame_19,frame_20,frame_21,frame_22,frame_23
nameStamp,Tstart,Tearly,Tearly,Tearly,Tearly,Tearly,Tearly,Tearly,Tearly,Tearly,Tearly,Tearly,Tearly,Tearly,Tearly,Tearly,Tmid,Tmid,Tmid,Tmid,Tmid,Tmid,Tmid,Tmid
timestamp,0,60012,120024,180035,240055,300069,360081,420093,480108,540120,600147,660161,720177,780189,840195,900209,960220,1020228,1080256,1140273,1200285,1260308,1320328,1380328
participant_0_GOLD,500,500,583,804,1394,2036,2221,2634,3249,3469,3818,4225,4530,4939,5275,6343,6465,7352,8024,8349,9463,9946,10654,10733
participant_0_CURRENTGOLD,500,0,83,304,894,1536,121,534,1149,1369,1718,2125,405,814,1150,2218,240,1127,249,574,1688,621,1329,1408
participant_0_LEVEL,1,1,1,2,4,4,5,6,7,7,8,8,9,9,9,10,10,11,11,11,12,12,13,13
participant_0_MINIONSKILLED,0,0,3,9,18,29,32,46,56,61,71,84,91,99,108,112,112,120,120,128,131,133,137,137
participant_0_KILLS,0,0,1,1,1,1,1,1,2,2,2,2,2,3,3,4,5,5,5,5,7,9,9,9
participant_0_BUY,[],"[3340, 3850, 2003, 2003]",[],[],"[3009, 3364]",[],"[1004, 2055, 2055]",[1028],[],"[4642, 2055]",[],[],"[3067, 2055]",[4005],[],[1043],[],[],"[1026, 2055, 2055]",[],"[3115, 2055]",[],[3916],[]
participant_0_SOLD,[],[],[],"[2003, 2003]",[3340],[],[],[2055],[],[1004],"[3850, 2055]",[],[1028],"[3067, 4642]",[],[2055],[2055],[3851],[],[],"[2055, 1043, 1026]",[],[],[]
participant_0_UNDO,[],[],[],[],[],[],[],[],[],[],[],[],[],[],[],[],[],[],[],[],[],[],[],[]
participant_1_GOLD,500,500,620,1248,1585,1857,2265,2585,3153,3383,3662,3974,4287,4821,5042,5445,6187,6784,7606,8229,8706,9517,9814,9944
participant_1_CURRENTGOLD,500,0,120,748,1085,307,290,610,1178,1408,187,489,367,111,332,735,1477,2074,806,9,486,322,344,394
participant_1_LEVEL,1,1,2,3,3,3,4,5,6,6,6,7,7,8,8,9,10,10,11,12,12,13,13,13
participant_1_MINIONSKILLED,0,0,0,0,0,0,0,2,3,3,6,9,9,9,10,10,10,11,11,11,15,16,16,16
participant_1_KILLS,0,0,0,0,1,2,2,2,2,2,2,2,2,2,2,4,4,5,6,6,8,8,8,8
participant_1_BUY,[],"[1055, 2003, 3340]",[],[],[],[],"[3044, 1028, 2003, 2003]",[],[],[],[],[],"[6632, 2031, 2055]",[],[],[],"[3077, 1053]",[],"[3074, 1036]",[],[],"[3133, 3111]",[],[]
participant_1_SOLD,[],[],[],[2003],[2010],[2010],[2003],[2003],[2010],[],[],[],"[3044, 1028]",[2055],[],[],[],[],"[3077, 1053]",[],[],"[1036, 2422]",[],[]
participant_1_UNDO,[],[],[],[],[],[],[],[],[],[],[],[],[],[],[],[],[],[],[],[],[],[],[],[]
participant_2_GOLD,500,500,591,925,1101,1394,2095,2265,2564,3170,3408,4438,4796,5417,5699,6399,7064,7422,8293,8836,9370,10425,11178,11257
participant_2_CURRENTGOLD,500,0,91,425,251,534,1235,280,579,1175,188,1218,296,917,314,89,754,472,1343,1886,535,1126,1878,1907
participant_2_LEVEL,1,1,1,3,4,5,6,6,7,8,8,8,9,9,10,10,11,11,12,13,13,13,14,14
participant_2_MINIONSKILLED,0,0,3,13,16,22,35,38,47,59,65,71,80,89,93,98,110,114,130,146,146,152,157,157
participant_2_KILLS,0,0,0,0,0,0,1,1,1,1,1,3,3,3,3,3,3,3,3,3,3,4,5,5
participant_2_BUY,[],"[2033, 3364, 3340]",[],[],[1082],[],[],"[3145, 2055]",[],[],"[1026, 1001, 2055]",[],[3152],[],"[3020, 2055]","[3113, 2055, 3364, 3363]",[],[3057],[],[],"[3100, 1052]",[3108],[],[]
participant_2_SOLD,[],[3364],[],[],"[2403, 2403]",[2403],[],[],[2055],[],[],[],"[2055, 3145, 1026]",[],[1001],"[3340, 3364]",[],"[2055, 2055]",[],[],"[3057, 3113]",[1052],[],[]
participant_2_UNDO,[],[],[],[],[],[],[],[],[],[],[],[],[],[],[],[],[],[],[],[],[],[],[],[]
participant_3_GOLD,500,500,583,755,1004,1559,2310,2540,3345,3509,3653,4072,4461,4846,5140,5778,6464,7295,7668,7890,9045,9357,10347,10468
participant_3_CURRENTGOLD,500,0,83,105,354,909,35,265,1070,284,428,847,1236,1621,1915,53,739,1570,503,725,1880,292,1282,1343
participant_3_LEVEL,1,1,1,2,3,4,5,6,6,7,7,7,8,9,9,9,10,11,11,11,12,12,13,13
participant_3_MINIONSKILLED,0,0,3,6,13,18,20,27,39,41,42,52,64,71,78,80,93,99,99,99,104,105,107,109
participant_3_KILLS,0,0,0,0,0,1,3,3,4,4,4,4,4,4,4,5,6,7,7,7,9,9,12,12
participant_3_BUY,[],"[1055, 2003, 3340]",[],[2031],[],[],"[6670, 1053, 1036, 1001, 2055]",[],[],[6670],[],[],[],[],[],"[6673, 1038, 3363]",[],[],"[1053, 1018]",[],[],"[3072, 1038]",[],[]
participant_3_SOLD,[],[],[],[2003],[],[],[],[2055],[],[1036],[],[],[],[],[],"[6670, 1053, 3340]",[],[],[2031],[],[],"[1038, 1018, 1053]",[],[]
participant_3_UNDO,[],[],[],[],[],[],"[[0, 6670]]",[],[],[],[],[],[],[],[],[],[],[],[],[],[],[],[],[]
participant_4_GOLD,500,540,1067,1302,1511,1852,2207,2362,3034,3268,3469,4044,4185,4685,4845,5476,6071,6522,6763,6903,7885,8659,9000,9084
participant_4_CURRENTGOLD,500,40,567,802,111,452,407,162,834,193,394,969,635,285,445,76,671,1122,363,503,261,1034,575,659
participant_4_LEVEL,1,1,2,2,3,4,5,5,6,6,6,7,7,8,8,8,9,9,9,10,10,11,12,12
participant_4_MINIONSKILLED,0,0,0,0,2,3,4,5,5,5,8,9,9,9,11,11,11,15,15,15,18,19,19,19
participant_4_KILLS,0,0,0,1,1,1,1,1,2,2,2,2,2,3,3,3,4,5,7,7,7,9,9,9
participant_4_BUY,[],"[1039, 3340, 2031, 3364]",[],[],[],[3145],"[1082, 2055]",[],[],[],"[3020, 1028]",[],[1052],[1026],[],[],[],[],"[4636, 3057, 3113, 2055]",[3100],[],"[3191, 3108, 2055]",[3041],[]
participant_4_SOLD,[],[3340],[],[],[],[],[],[2055],[],"[3364, 1039]",[],[3513],[],[2031],[],[],[],[],"[3145, 1028, 1026, 1052]","[3364, 2055, 3057, 3113]",[3513],[],[1082],[]
participant_4_UNDO,[],[],[],[],[],[],[],[],[],[],[],[],[],[],[],[],[],[],[],[],[],"[[0, 3191]]","[[0, 2055], [0, 3108]]",[]
participant_5_GOLD,500,500,611,853,1120,1312,1634,1910,2060,2402,2694,3018,3168,3444,3651,3990,4267,4389,5533,5775,5947,6170,6473,6503
participant_5_CURRENTGOLD,500,0,111,3,270,12,334,610,60,402,694,1018,468,744,951,540,817,239,1383,350,522,745,178,128
participant_5_LEVEL,1,1,1,2,3,4,5,5,6,6,7,8,8,8,9,9,10,10,11,11,11,12,12,12
participant_5_MINIONSKILLED,0,0,5,12,17,22,31,39,41,51,53,62,64,73,78,87,92,92,106,113,113,113,120,120
participant_5_KILLS,0,0,0,0,0,0,0,0,0,0,0,0,0,1,1,1,1,1,1,1,2,4,5,5
participant_5_BUY,[],"[1035, 2031, 3340, 3364]",[],[2055],[1052],[],[],[],"[3802, 2055]",[],[],[3111],[],"[3108, 2055]",[],[],[],[],[6653],[],"[1026, 1028]","[1052, 1011]","[4637, 1052, 1029]",[]
participant_5_SOLD,[],[3340],[],[2010],[2055],[],[],"[2010, 2010, 1035]",[1052],[2055],[],[],[],[],[],[],[2055],[2031],"[3802, 3108]",[],[],[1028],"[1026, 1011, 1052]",[]
participant_5_UNDO,[],[],[],[],[],[],[],[],[],[],[],[],[],[],[],[],[],[],[],[],[],[],[],[]
participant_6_GOLD,500,500,620,828,1096,1367,1730,1950,2182,2720,3032,3240,3682,4153,4465,4587,5009,5141,5406,6030,6502,7965,8919,8949
participant_6_CURRENTGOLD,500,0,120,253,86,357,720,940,232,770,1082,190,632,128,440,562,984,1176,241,865,87,615,19,-11
participant_6_LEVEL,1,1,2,2,3,3,4,5,5,6,7,7,8,8,9,9,9,9,10,11,11,12,12,12
participant_6_MINIONSKILLED,0,0,0,0,0,3,5,6,6,8,8,8,8,11,12,12,15,15,19,26,26,36,40,40
participant_6_KILLS,0,0,0,0,0,0,0,0,0,0,0,0,0,0,0,0,0,0,1,1,1,1,1,1
participant_6_BUY,[],"[1056, 2003, 2003, 3340]",[],[1082],[],"[1028, 2003]",[],[],"[6660, 2003, 2003]",[],[],[],"[1029, 1033]",[],[],[3105],[],[3068],[],"[3077, 2055]",[],[],[1011],[]
participant_6_SOLD,[],[],[],"[2003, 2003, 2010]",[],[2010],[],[2003],[1028],[],[],[2003],"[2003, 2010]",[],[],"[1033, 1029]",[],"[6660, 3105]",[],[],[],[],[2055],[]
participant_6_UNDO,[],[],[],[],[],[],[],[],[],[],[],[],[],[],[],[],[],[],[],[],[],[],[],[]
participant_7_GOLD,500,500,611,878,1490,1738,2231,2500,2866,3845,4337,4574,4942,5214,5526,5648,6619,6762,6984,7107,7229,7537,7673,7703
participant_7_CURRENTGOLD,500,0,111,368,110,308,71,340,696,1665,2157,2394,302,124,436,208,1179,122,344,467,589,297,433,503
participant_7_LEVEL,1,1,1,3,4,5,6,6,7,8,8,9,9,9,10,10,10,10,11,11,11,11,11,11
participant_7_MINIONSKILLED,0,0,5,10,22,30,34,43,54,60,72,77,87,87,98,98,108,109,109,109,109,109,110,110
participant_7_KILLS,0,0,0,0,0,0,0,0,0,0,1,2,2,3,3,3,3,3,5,5,5,6,6,6
participant_7_BUY,[],"[1055, 2003]",[],[],"[1036, 2031]",[],"[1036, 2055]",[],[6670],[],[1037],[],[],"[6672, 1001]",[],[1042],[3006],[],"[1037, 6677, 1018, 3363]",[],[],[3124],"[1033, 1033, 2055]",[]
participant_7_SOLD,[],[],[],[2003],[],[],[],[],"[1036, 1036]",[],[],[],[],"[6670, 1037]",[],[],"[1001, 1042]",[],"[2031, 3340]",[],"[1055, 1055, 2055]","[6677, 1018]",[],[]
participant_7_UNDO,[],[],[],[],[],[],[],[],[],[],[],[],[],[],[],[],[],[],"[[0, 1037]]",[],"[[1055, 0]]",[],"[[0, 1033]]",[]
participant_8_GOLD,500,500,583,1020,1163,1397,1651,1864,2113,2503,3110,3727,4003,4632,4878,5000,5242,5496,7193,7519,7747,8727,8849,8879
participant_8_CURRENTGOLD,500,0,83,520,163,397,226,439,88,478,210,827,1103,207,453,275,17,271,628,954,1392,972,569,149
participant_8_LEVEL,1,1,1,2,3,4,4,4,5,6,6,7,7,8,8,8,8,9,9,10,10,11,11,11
participant_8_MINIONSKILLED,0,0,3,12,13,20,23,28,36,48,54,62,71,74,81,81,88,92,95,102,105,109,109,109
participant_8_KILLS,0,0,0,0,1,1,2,2,2,3,3,3,3,3,3,3,4,4,4,4,4,4,4,4
participant_8_BUY,[],"[1056, 2003, 2003]",[],[],"[1052, 1052]",[2003],"[3802, 1001]",[],[],[],[],[],"[6653, 1082]",[1033],[],[3111],[],"[3108, 1029]",[],[],[],[3191],[],[]
participant_8_SOLD,[],[],[],[2003],"[2010, 2003]",[],"[2003, 1052, 1052]",[2010],[],[],[],[2010],[3802],[],[],"[1001, 1033]",[],[],[],[],[],[1029],[],[]
participant_8_UNDO,[],[],[],[],[],[],[],[],[],[],[],[],[],[],[],[],[],[],[],[],[],[],[],[]
participant_9_GOLD,500,500,522,1057,1252,1486,1716,1851,2045,2200,2627,2943,3083,3454,3709,3849,4080,4260,4686,4826,5030,5171,5311,5345
participant_9_CURRENTGOLD,500,0,22,557,102,336,131,266,460,215,47,363,503,474,729,229,460,340,766,906,310,451,591,395
participant_9_LEVEL,1,1,1,2,2,3,3,3,4,5,5,6,6,7,7,7,7,8,9,9,9,9,9,9
participant_9_MINIONSKILLED,0,0,0,0,0,0,0,1,1,1,1,1,1,1,3,3,3,3,3,3,4,4,4,4
participant_9_KILLS,0,0,0,1,1,1,1,1,1,1,1,1,1,1,1,1,1,1,1,1,1,1,1,1
participant_9_BUY,[],"[3850, 2003, 2003]",[],[],"[1001, 1082]",[],[1052],[],[],[1028],"[4642, 3364]",[],[],[3067],[],[4005],[],[1001],[],[],[3916],[],[],[]
participant_9_SOLD,[],[],[],[],[],[],[2003],[],[],[],"[3850, 2003, 1052, 3340]",[],[],[1028],[],"[1001, 3067, 4642]",[],[],[3851],[],[],[],[],[]
participant_9_UNDO,[],[],[],[],[],[],[],[],[],[],[],[],[],[],[],[],[],[],[],[],[],[],[],[]
team0_KILLS,0,0,1,2,3,5,8,8,11,11,11,13,13,15,15,19,22,25,28,28,34,39,43,43
team0_CURRENTGOLD,2500,40,944,2384,2695,3738,2088,1851,4810,4429,2915,5648,2939,3748,4156,3171,3881,6365,3264,3697,4850,3395,5408,5711
team0_TOTALGOLD,2500,2540,3444,5034,6595,8698,11098,12386,15345,16799,18010,20753,22259,24708,26001,29441,32251,35375,38354,40207,44469,47904,50993,51486
team0_LEVEL,5,5,7,12,17,20,25,28,32,34,35,37,40,43,44,46,50,52,54,57,59,61,65,65
team0_SBIRES,0,0,9,28,49,72,91,118,150,169,192,225,253,277,300,311,336,359,375,399,414,425,436,438
team1_KILLS,0,0,0,1,2,2,3,3,3,4,5,6,6,8,8,8,9,9,12,12,13,16,17,17
team1_CURRENTGOLD,2500,0,447,1701,731,1410,1482,2595,1536,3530,4190,4792,3008,1677,3009,1814,3457,2148,3362,3542,2900,3080,1790,1164
team1_TOTALGOLD,2500,2500,2947,4636,6121,7300,8962,10075,11266,13670,15800,17502,18878,20897,22229,23074,25217,26048,29802,31257,32455,35570,37225,37379
team1_LEVEL,5,5,6,11,15,19,22,23,27,31,33,37,38,40,43,43,44,46,50,52,52,55,55,55
team1_SBIRES,0,0,13,34,52,75,93,117,138,168,188,210,231,246,272,281,306,311,332,353,357,371,383,383
delta_KILLS,0,0,1,1,1,3,5,5,8,7,6,7,7,7,7,11,13,16,16,16,21,23,26,26
delta_CURRENTGOLD,0,40,497,683,1964,2328,606,-744,3274,899,-1275,856,-69,2071,1147,1357,424,4217,-98,155,1950,315,3618,4547
delta_TOTALGOLD,0,40,497,398,474,1398,2136,2311,4079,3129,2210,3251,3381,3811,3772,6367,7034,9327,8552,8950,12014,12334,13768,14107
delta_LEVEL,0,0,1,1,2,1,3,5,5,3,2,0,2,3,1,3,6,6,4,5,7,6,10,10
delta_SBIRES,0,0,-4,-6,-3,-3,-2,1,12,1,4,15,22,31,28,30,30,48,43,46,57,54,53,55
