name,team0,team1
win,Win,Fail
firstBlood,True,False
firstTower,False,True
firstInhibitor,False,False
firstBaron,False,False
firstDragon,True,False
firstRiftHerald,True,False
towerKills,5,2
inhibitorKills,0,0
baronKills,0,0
dragonKills,3,1
riftHeraldKills,1,0
