name,team0,team1
win,Win,Fail
firstBlood,False,True
firstTower,True,False
firstInhibitor,True,False
firstBaron,False,False
firstDragon,True,False
firstRiftHerald,True,False
towerKills,10,2
inhibitorKills,3,0
baronKills,0,0
dragonKills,3,1
riftHeraldKills,1,0
