name,frame_0,frame_1,frame_2,frame_3,frame_4,frame_5,frame_6,frame_7,frame_8,frame_9,frame_10,frame_11,frame_12,frame_13,frame_14,frame_15,frame_16,frame_17,frame_18,frame_19,frame_20,frame_21,frame_22,frame_23,frame_24,frame_25,frame_26,frame_27,frame_28,frame_29,frame_30,frame_31,frame_32
nameStamp,Tstart,Tearly,Tearly,Tearly,Tearly,Tearly,Tearly,Tearly,Tearly,Tearly,Tearly,Tearly,Tearly,Tearly,Tearly,Tearly,Tearly,Tearly,Tearly,Tmid,Tmid,Tmid,Tmid,Tmid,Tmid,Tmid,Tend,Tend,Tend,Tend,Tend,Tend,Tend
timestamp,0,60022,120055,180079,240100,300104,360123,420152,480171,540173,600197,660200,720222,780224,840249,900250,960270,1020294,1080317,1140319,1200347,1260375,1320392,1380420,1440445,1500449,1560452,1620472,1680503,1740513,1800538,1860568,1920568
participant_0_GOLD,500,500,592,868,1149,1481,1737,1915,2218,2732,2973,3311,3637,3899,4243,4468,5237,5739,6249,6580,6961,7405,7827,8244,8842,9530,10245,10817,11213,11760,12099,12240,12634
participant_0_CURRENTGOLD,500,0,92,368,649,981,1237,165,468,982,1223,511,837,1099,1443,1668,404,906,216,547,928,1372,1794,311,909,347,1063,84,480,1028,366,507,901
participant_0_LEVEL,1,1,1,3,4,5,6,6,7,8,8,9,10,10,11,11,11,12,13,13,13,14,14,14,14,15,16,16,16,16,17,17,17
participant_0_MINIONSKILLED,0,0,1,10,17,26,33,36,43,48,55,64,72,80,89,91,98,104,107,115,125,136,149,156,156,165,171,174,180,183,183,183,190
participant_0_KILLS,0,0,1,1,1,1,1,1,2,2,2,3,3,3,3,3,3,3,3,3,4,4,6,6,7,7,8,8,8,8,8,8,8
participant_0_BUY,[],"[1039, 2031, 3340]",[],[],[],[],"[3706, 1001, 1028, 2055, 3364]",[],[],[],"[1401, 2055]",[],"[1029, 1028]",[],[],[],"[3047, 1011, 1029, 2055]",[],[1031],[],[],[],"[3742, 3067]",[],[],[],"[3065, 1029]",[3082],[],[],[3076],[],[]
participant_0_SOLD,[],[],[],[],[],[],"[1039, 3340]",[2055],[],[],"[1028, 3706]",[],[],[2055],[],"[3364, 3513]","[1001, 1029, 1028]",[],[1029],[],[2055],[],"[1031, 1011]",[],[],[],"[3067, 2031]",[1029],[],[],[],[],[]
participant_0_UNDO,[],[],[],[],[],[],[],[],[],[],[],[],[],[],[],[],[],[],[],[],[],[],[],[],[],[],[],[],[],[],[],[],[]
participant_1_GOLD,500,500,1041,1406,1747,1918,2118,2240,2682,3090,3212,3790,3922,4248,4685,5212,5493,5851,6214,6621,7172,7635,8372,8854,9360,10047,10582,10889,11280,11919,12278,12426,12781
participant_1_CURRENTGOLD,500,0,541,906,1247,1418,193,315,757,1165,112,690,122,448,885,1412,218,576,439,846,1397,1860,697,1179,1685,2373,667,274,666,1304,664,811,1106
participant_1_LEVEL,1,1,2,3,4,4,4,4,5,5,5,6,6,7,8,8,9,9,9,10,11,11,12,12,13,14,14,14,14,15,15,15,15
participant_1_MINIONSKILLED,0,0,0,0,0,0,0,0,0,0,0,0,1,2,2,10,10,10,11,11,11,11,11,14,14,14,16,16,16,16,17,17,17
participant_1_KILLS,0,0,0,0,0,1,1,1,2,2,2,2,2,3,3,3,3,3,4,7,7,7,8,8,8,8,8,12,13,13,13,13,14
participant_1_BUY,[],"[3862, 2003, 2003, 3340]",[],[],[],[],[3134],[2055],[],"[1036, 1036]",[],[],[],[3179],"[3009, 3134]","[1036, 3364]",[],[],[],[],[],"[3147, 3134, 2055]",[],[],[3133],[],[],[],"[3142, 3134]",[],[3814],[],[]
participant_1_SOLD,[],[],[],[],[2010],[],[2003],[],[2055],[],[],"[2003, 3862]",[],"[3134, 1036, 1036]",[2422],[3340],[],[],[],[],[3863],"[3134, 1036, 2010, 2010]",[],[2055],[],[],[],[],"[3133, 3134]",[],[3134],[],[]
participant_1_UNDO,[],[],[],[],[],[],[],[],[],[],[],[],[],[],[],[],[],[],[],[],[],[],[],[],[],[],[],[],[],[],[],[],[]
participant_2_GOLD,500,500,648,970,1212,1334,2130,2315,2472,3016,3188,3758,4097,4219,5398,5856,6097,6393,6705,7145,7462,7920,8117,8554,8780,9252,9439,10392,10635,10924,11262,11403,11505
participant_2_CURRENTGOLD,500,0,148,470,712,134,930,415,572,1116,138,708,197,369,1548,2006,447,43,355,795,1112,1570,217,654,880,1353,799,1752,596,884,222,364,405
participant_2_LEVEL,1,1,1,3,4,4,6,6,7,8,8,9,9,10,10,11,11,11,11,12,12,13,13,13,13,14,14,15,15,15,15,15,15
participant_2_MINIONSKILLED,0,0,4,13,20,20,29,33,35,43,46,56,59,59,63,65,65,71,75,78,85,87,87,91,91,91,92,96,97,103,103,103,104
participant_2_KILLS,0,0,0,0,0,0,0,0,0,1,1,1,1,1,1,1,3,4,5,5,5,5,5,5,7,7,7,7,7,8,8,8,8
participant_2_BUY,[],"[1054, 2003, 3340]",[],[],[],[],[],[3044],[],[],[],[3057],[],[],[],[],"[3078, 1029, 1029]",[],"[3076, 1028, 3047]",[],[],[],[],[3075],[],"[3067, 1033]",[],"[3211, 3065]",[],[],[1011],[],[]
participant_2_SOLD,[],[],[],[],[],[],[],[],[],[2003],[],[],[],[],[],[],"[3057, 3044]",[],"[1029, 1029, 2422]",[],[],[],[],[3076],[],[],[],"[1033, 3211, 3067]",[],[],[],[],[]
participant_2_UNDO,[],[],[],[],[],[],[],[],[],[],[],[],[],[],[],[],[],[],"[[0, 1028]]",[],[],[],[],[],[],[],[],[],[],[],[],[],[]
participant_3_GOLD,500,500,584,797,948,1482,1640,1825,2250,2429,2663,2786,3114,3513,3671,3975,4740,4883,5478,5754,5994,6403,6868,7451,7888,8660,8916,9145,9891,10152,11116,11351,11445
participant_3_CURRENTGOLD,500,0,84,297,148,682,840,225,650,829,1063,386,714,1113,396,700,165,308,178,454,694,1103,168,751,1188,260,516,745,1491,453,417,651,745
participant_3_LEVEL,1,1,1,2,3,4,4,5,5,6,6,6,7,7,8,8,9,9,9,10,10,10,11,11,12,12,13,13,13,13,14,14,14
participant_3_MINIONSKILLED,0,0,3,8,10,14,16,20,26,30,37,37,44,48,50,57,59,60,68,73,77,87,89,105,119,119,124,127,133,137,137,137,138
participant_3_KILLS,0,0,0,0,0,0,1,1,1,2,2,3,3,3,5,6,6,6,6,6,6,6,6,6,6,6,6,7,7,7,7,7,7
participant_3_BUY,[],"[1054, 2003, 3340]",[],[],[],"[1029, 1028]",[],[3076],[],[],"[3082, 2031]",[],"[3075, 2033]",[1029],[],[],"[3047, 1011, 1029]",[3082],[],[],[],[],"[3143, 3801]",[],[],[],[3067],[],[3083],[],[1011],[],[]
participant_3_SOLD,[],[],[],[],[2003],[],[],[1029],[],[],[],[],"[3076, 1028, 3082, 2031]",[],[],[],"[1029, 2422]",[1029],[],[],[],[],"[3082, 1011]",[],[],[],[2031],[],"[3067, 3801]",[],[],[],[]
participant_3_UNDO,[],[],[],[],[],[],[],[],[],[],[],[],[],"[[0, 2033]]",[],[],[],[],[],[],[],[],[],[],[],[],[],[],[],[],[],[],[]
participant_4_GOLD,500,500,568,762,936,1751,1919,2068,2578,2713,2979,3360,3653,4724,5049,5190,5353,5561,6543,7556,7820,8026,8890,9108,9281,9771,10152,11667,12142,12481,12840,13121,13517
participant_4_CURRENTGOLD,500,0,68,262,436,1251,319,393,903,338,604,985,1278,1749,374,165,328,536,1518,2531,2795,436,1301,1518,591,1081,1462,2977,1652,1991,550,831,1167
participant_4_LEVEL,1,1,1,1,2,4,4,5,5,5,5,6,7,7,8,8,8,8,9,10,10,10,12,12,12,13,13,14,14,15,15,15,15
participant_4_MINIONSKILLED,0,0,0,0,0,0,0,0,0,0,3,4,5,7,7,7,8,10,14,15,15,16,18,20,20,20,22,23,23,25,25,26,26
participant_4_KILLS,0,0,0,0,0,1,1,1,1,1,1,1,1,1,1,1,2,2,2,2,2,2,3,3,3,3,3,3,3,3,6,7,7
participant_4_BUY,[],"[3340, 1055, 2003]",[],[],[1042],[],[],[3006],[],[],[],"[1018, 1042]",[],[],[1037],[],[1038],[],"[3031, 1042]",[],[],[],"[3086, 1042]",[],[],"[3094, 1031]",[],[],[],[1038],"[3026, 1042]",[],[]
participant_4_SOLD,[],[],[],[],[],[2003],[],[1042],[],[],[],[],[],[],[],[],[],[],"[1038, 1037, 1018]",[],[],[],[1042],[],[],"[3086, 1042]",[],[],[],[],"[1038, 1031]",[],[]
participant_4_UNDO,[],[],[],[],[],[],[],[],[],[],[],"[[0, 1042]]",[],[],[],[],[],[],[],[],[],[],[],[],[],[],[],[],[],[],[],[],[]
participant_5_GOLD,500,500,521,808,1029,1347,1641,2181,2380,2678,2828,3175,3430,3749,4065,4306,4520,4719,5526,5733,6134,6586,6924,7304,7905,8232,8738,9804,9955,10342,11710,11986,12171
participant_5_CURRENTGOLD,500,0,21,308,529,847,1141,1681,150,298,448,795,1050,1369,1685,31,245,444,151,358,759,1211,1549,1929,230,557,1063,1096,147,534,803,778,838
participant_5_LEVEL,1,1,1,3,4,5,6,7,7,8,8,9,9,10,10,10,11,11,12,12,13,13,14,14,14,15,15,15,15,16,16,17,17
participant_5_MINIONSKILLED,0,0,0,7,12,21,28,34,39,49,51,64,72,80,88,95,101,106,108,113,125,137,146,156,167,174,174,180,182,193,210,215,221
participant_5_KILLS,0,0,0,0,0,0,0,1,1,2,2,3,4,4,4,4,4,4,4,4,4,4,4,4,4,4,4,4,4,4,4,4,4
participant_5_BUY,[],"[1041, 2031, 3340]",[],[],[],[],"[3715, 1001]",[],[],[],[],"[1412, 3006]",[],[],"[1028, 1036]",[],[3044],[],[1028],[],[3067],[],[],[3071],[],[],[],[1042],[],[1036],[1036],[],[]
participant_5_SOLD,[],[],[],[],[],[],[1041],[],[],[],[],"[3715, 1001]",[],[],[3400],[],"[1028, 1036]",[],[],[],[1028],[],[],"[3044, 3067]",[],[],[],[],[],[],[2031],[],[]
participant_5_UNDO,[],[],[],[],[],[],[],[],[],[],[],[],[],[],[],[],[],[],[],[],[],[],[],[],[],[],[],[],[],[],[],[],[]
participant_6_GOLD,500,500,621,878,1283,1530,1698,2154,2466,3114,3351,3942,4384,4551,4976,5124,5246,5553,5676,5996,6119,6501,6866,6989,7171,7294,7633,7756,7878,8057,8215,8499,8580
participant_6_CURRENTGOLD,500,0,121,378,783,1030,248,704,1016,1664,1901,67,509,676,351,499,121,428,151,471,194,576,941,114,296,419,758,581,703,531,400,684,705
participant_6_LEVEL,1,1,2,2,3,4,4,5,6,6,7,7,7,8,8,8,8,9,9,9,10,10,11,11,11,11,11,11,11,12,12,12,12
participant_6_MINIONSKILLED,0,0,0,0,0,0,0,1,1,1,2,2,2,2,4,8,8,8,8,11,11,12,14,14,14,14,15,15,15,18,20,24,24
participant_6_KILLS,0,0,0,0,0,0,0,1,1,1,1,1,1,1,1,1,1,1,2,2,2,2,2,2,2,2,2,3,3,3,4,4,4
participant_6_BUY,[],"[1054, 2003, 3340]",[],[],[],[],[],[],"[3006, 1042, 1042, 2003]",[1006],[],[],[],[],[],"[3086, 3046]",[],[],[3101],[],[],[],[],[],"[3044, 3057]",[],[],"[3078, 1029, 1028]","[1031, 1011]",[],[3742],[1029],[]
participant_6_SOLD,[],[],[],[],[],[],[],[2003],[2003],[],[],[],[],[],[],"[1042, 1006, 1042, 3086]",[],[],[],[],[],[],[],[],[],[],[],"[3101, 3057, 3044]","[1029, 1028]",[],"[1031, 1011]",[],[]
participant_6_UNDO,[],[],[],[],[],[],[],[],[],[],[],[],[],[],[],[],[],[],[],[],[],[],[],[],[],[],[],[],[],[],[],[],[]
participant_7_GOLD,500,500,584,864,1043,1368,1491,1868,2289,2412,2767,2988,3260,3605,3728,3850,3973,4440,4778,4901,5058,5342,5867,5989,6162,6284,7378,7550,7895,8157,8355,8506,8607
participant_7_CURRENTGOLD,500,0,84,364,543,868,241,268,339,62,417,638,910,1255,328,450,173,640,978,226,383,667,442,99,272,394,238,10,355,617,415,566,607
participant_7_LEVEL,1,1,1,3,4,5,5,6,6,7,7,8,8,9,9,9,9,9,10,10,10,10,11,11,11,11,12,12,13,13,13,14,14
participant_7_MINIONSKILLED,0,0,4,11,15,24,24,30,35,35,45,50,50,54,54,54,54,61,69,69,71,73,75,75,75,75,76,76,86,90,90,92,93
participant_7_KILLS,0,0,0,2,2,2,4,4,5,6,6,7,7,7,8,8,9,9,9,9,9,9,10,10,11,11,12,12,12,12,13,13,13
participant_7_BUY,[],"[2003, 1055]",[],[],[],"[1053, 1042, 1042]",[],"[3144, 1001, 3006]",[],[1043],[],[],[3086],[1042],[1042],[],[],"[3085, 1038]",[],[],[1018],[],[],[3031],"[3153, 1036]",[],[],[3035],[],[1037],[],[],[]
participant_7_SOLD,[],[],[],[2003],[],[],[],"[1053, 1055, 1001, 1042]",[],[1042],[],[],[],[3400],[],[],[],"[1042, 3086, 1042]",[],[],[],[],[],"[1038, 1018]","[3144, 1043]",[],[],[1036],[],[],[],[],[]
participant_7_UNDO,[],[],[],[],[],[],[],[],[],[],[],[],[],[],[],[],[],[],[],[],[],[],[],[],[],[],[],[],[],[],[],[],[]
participant_8_GOLD,500,500,521,1616,1932,2075,3061,3473,3957,4442,4739,5438,5694,6152,6706,7097,7967,8292,8609,8731,9091,9636,10176,10399,11391,11741,12561,12733,13203,13325,14745,14903,14983
participant_8_CURRENTGOLD,500,0,21,1116,1432,75,1061,153,637,422,719,1418,274,432,686,1077,1947,372,689,811,371,916,1457,379,321,672,1492,564,1033,281,1701,1859,1758
participant_8_LEVEL,1,1,1,2,3,3,4,5,5,6,7,7,8,8,9,9,10,10,10,10,11,11,12,12,12,12,13,13,13,13,14,14,14
participant_8_MINIONSKILLED,0,0,0,12,20,21,35,40,43,46,56,64,68,70,77,89,97,105,112,112,122,133,138,138,138,142,148,148,156,156,172,174,174
participant_8_KILLS,0,0,0,0,0,0,0,0,0,0,0,0,0,0,0,0,0,0,0,0,0,0,0,0,0,0,1,1,1,1,1,1,1
participant_8_BUY,[],"[1036, 2031, 3340]",[],[],[],[],[3134],[1036],[1036],[3133],[],[],[],[],"[3142, 1036]",[],[1028],[],[],[1037],[],[],[3134],[3814],[],[],[3044],[1028],[],[],[3067],[],[]
participant_8_SOLD,[],[],[],[],[],[],[1036],[],[],"[1036, 1036]",[],[],[],[],"[3133, 3134]",[],[],[],[],[],[],[],"[3400, 1036]","[2031, 1037, 3134, 1028]",[],[],[],[],[],[],[1028],[],[]
participant_8_UNDO,[],[],[],[],[],[],[],[],[],[],[],[],[],[],[],[],[],[],[],[],[],[],[],[],[],[],[],[],[],[],[],[],[]
participant_9_GOLD,500,500,523,1216,1364,1562,2045,2340,2682,2966,3101,3578,3854,4863,5464,5643,6503,7143,7395,7535,7814,8461,8922,9187,9378,9548,10414,10604,10779,10920,11661,11802,11894
participant_9_CURRENTGOLD,500,0,23,716,864,362,845,15,357,566,701,228,504,1512,314,493,253,893,445,235,514,1161,327,592,783,953,1819,2009,2184,475,466,607,-106
participant_9_LEVEL,1,1,1,2,3,3,5,5,5,6,6,7,7,8,8,9,9,10,10,10,10,11,11,11,11,12,12,12,13,13,13,13,13
participant_9_MINIONSKILLED,0,0,0,3,4,5,8,8,11,11,11,15,20,20,22,24,25,25,27,27,31,32,33,36,36,37,37,37,39,39,39,39,39
participant_9_KILLS,0,0,0,1,1,1,1,1,1,1,1,1,1,3,3,3,4,5,5,5,5,6,6,6,6,6,6,6,6,6,7,7,7
participant_9_BUY,[],"[3854, 2003, 2003, 3340]",[],[],[],"[1036, 1036]",[],"[3134, 1001, 1036, 2055]",[],[2055],[],[3179],[],[],"[3117, 3134]",[],[3133],[],[3142],[1036],[],[],"[1031, 1038]",[],[],[],[],[],[],"[3026, 1036]",[3134],[],[]
participant_9_SOLD,[],[],[],"[2003, 2003]",[],[],[],"[1036, 1036]",[2055],[2055],[],"[3134, 1036]",[],[3400],"[3400, 1001, 3854]",[],[3400],[],"[3133, 3134]",[],[],[],"[3400, 1036, 1031]",[3855],[],[],[3400],[],[],[1038],[1036],[],[]
participant_9_UNDO,[],[],[],[],[],[],[],[],[],[],[],[],[],[],[],[],[],[],[],[],[],[],[],[],[],[],[],[],[],[],[],[],[]
team0_KILLS,0,0,1,1,1,3,4,4,6,8,8,10,10,11,13,14,17,18,20,23,24,24,28,28,31,31,32,37,38,39,42,43,44
team0_CURRENTGOLD,2500,0,933,2303,3192,4466,3519,1513,3350,4430,3140,3280,3148,4778,4646,5951,1562,2369,2706,5173,6926,6341,4177,4413,5253,5414,4507,5832,4885,5660,2219,3164,4324
team0_TOTALGOLD,2500,2500,3433,4803,5992,7966,9544,10363,12200,13980,15015,17005,18423,20603,23046,24701,26920,28427,31189,33656,35409,37389,40074,42211,44151,47260,49334,52910,55161,57236,59595,60541,61882
team0_LEVEL,5,5,6,12,17,21,24,26,29,32,32,36,39,41,45,46,48,49,51,55,56,58,62,62,64,68,70,72,72,74,76,76,76
team0_SBIRES,0,0,8,31,47,60,78,89,104,121,141,161,181,196,211,230,240,255,275,292,313,337,354,386,400,409,425,436,449,464,465,466,475
team1_KILLS,0,0,0,3,3,3,5,7,8,10,10,12,13,15,16,16,18,19,20,20,20,21,22,22,23,23,25,26,26,26,29,29,29
team1_CURRENTGOLD,2500,0,270,2882,4151,3182,3536,2821,2499,3012,4186,3146,3247,5244,3364,2550,2739,2777,2414,2101,2221,4531,4716,3113,1902,2995,5370,4260,4422,2438,3785,4494,3802
team1_TOTALGOLD,2500,2500,2770,5382,6651,7882,9936,12016,13774,15612,16786,19121,20622,22920,24939,26020,28209,30147,31984,32896,34216,36526,38755,39868,42007,43099,46724,48447,49710,50801,54686,55696,56235
team1_LEVEL,5,5,6,12,17,20,24,28,29,33,35,38,39,43,44,45,47,49,51,51,54,55,59,59,59,61,63,63,65,67,68,70,70
team1_SBIRES,0,0,4,33,51,71,95,113,129,142,165,195,212,226,245,270,285,305,324,332,360,387,406,419,430,442,450,456,478,496,531,544,551
delta_KILLS,0,0,1,-2,-2,0,-1,-3,-2,-2,-2,-2,-3,-4,-3,-2,-1,-1,0,3,4,3,6,6,8,8,7,11,12,13,13,14,15
delta_CURRENTGOLD,0,0,663,-579,-959,1284,-17,-1308,851,1418,-1046,134,-99,-466,1282,3401,-1177,-408,292,3072,4705,1810,-539,1300,3351,2419,-863,1572,463,3222,-1566,-1330,522
delta_TOTALGOLD,0,0,663,-579,-659,84,-392,-1653,-1574,-1632,-1771,-2116,-2199,-2317,-1893,-1319,-1289,-1720,-795,760,1193,863,1319,2343,2144,4161,2610,4463,5451,6435,4909,4845,5647
delta_LEVEL,0,0,0,0,0,1,0,-2,0,-1,-3,-2,0,-2,1,1,1,0,0,4,2,3,3,3,5,7,7,9,7,7,8,6,6
delta_SBIRES,0,0,4,-2,-4,-11,-17,-24,-25,-21,-24,-34,-31,-30,-34,-40,-45,-50,-49,-40,-47,-50,-52,-33,-30,-33,-25,-20,-29,-32,-66,-78,-76
