name,frame_0,frame_1,frame_2,frame_3,frame_4,frame_5,frame_6,frame_7,frame_8,frame_9,frame_10,frame_11,frame_12,frame_13,frame_14,frame_15,frame_16,frame_17,frame_18,frame_19,frame_20,frame_21,frame_22
nameStamp,Tstart,Tearly,Tearly,Tearly,Tearly,Tearly,Tearly,Tearly,Tearly,Tearly,Tearly,Tearly,Tearly,Tearly,Tmid,Tmid,Tmid,Tmid,Tmid,Tmid,Tmid,Tmid,Tmid
timestamp,0,60011,120041,180072,240084,300113,360127,420146,480161,540164,600186,660205,720230,780262,840278,900308,960320,1020347,1080362,1140383,1200395,1260420,1320420
participant_0_GOLD,500,500,584,783,1134,1361,1582,2294,2491,3232,3509,3927,4384,5159,5428,5727,6189,6535,6908,7407,7645,7969,8960
participant_0_CURRENTGOLD,500,0,84,283,634,161,382,1094,241,982,1259,477,934,1709,478,777,39,385,758,1257,595,579,1510
participant_0_LEVEL,1,1,1,3,4,4,5,7,7,8,8,9,9,9,10,10,11,11,11,12,12,13,13
participant_0_MINIONSKILLED,0,0,3,7,17,23,29,43,43,51,60,63,65,67,76,83,88,97,108,118,125,133,140
participant_0_KILLS,0,0,0,0,0,0,0,1,1,1,3,3,3,4,4,4,6,6,6,6,6,6,7
participant_0_BUY,[],"[1035, 3340, 2031]",[],[],[],"[1028, 1036]",[],[],[],[],[],"[6630, 1001]","[1029, 1036]",[],[],"[3047, 1037, 2055]",[],[],"[6333, 2055]",[],[],[],[]
participant_0_SOLD,[],[],[],[],[],[],[],[],[1035],[],[3340],"[3513, 1028, 1036]",[],[],[],"[1001, 1029, 2055]",[],[],"[3340, 1036, 1037]",[],[2055],[],[3513]
participant_0_UNDO,[],[],[],[],[],[],[],[],[],[],[],[],[],[],[],[],[],[],[],[],[],[],[]
participant_1_GOLD,500,500,732,1078,1256,1513,1921,2597,3040,3410,4242,4773,5058,5669,6267,6574,7646,7883,8211,8650,9374,9868,10862
participant_1_CURRENTGOLD,500,0,232,578,756,263,671,1347,1790,2160,2992,673,308,919,1517,374,1446,1683,61,500,1224,1718,2712
participant_1_LEVEL,1,1,2,3,3,4,5,6,7,7,8,9,9,9,10,11,12,12,12,13,13,14,14
participant_1_MINIONSKILLED,0,0,0,0,0,0,0,4,4,9,9,12,14,14,14,14,26,27,27,27,27,34,38
participant_1_KILLS,0,0,0,0,0,0,0,0,0,1,1,1,1,1,1,1,2,2,2,2,2,2,2
participant_1_BUY,[],"[3850, 2003, 2003, 3340]",[],[],[],[],"[1042, 1042]",[1001],[],[1043],"[3020, 2055, 3364]",[],[],"[1052, 2055]",[],[],[1026],"[3115, 2055, 2055]",[],[],[1052],[],[3191]
participant_1_SOLD,[],[],[],"[2003, 2003]",[],[],[],[],[],"[1042, 1042]","[3850, 1001, 3340]",[],[2055],[],[],[2055],[],"[3851, 1043, 1026, 1052]",[],[2055],[2055],[],[1052]
participant_1_UNDO,[],[],[],[],[],[],[],[],[],[],[],[],[],[],[],[],[],[],[],[],[],[],[]
participant_2_GOLD,500,500,605,853,997,1671,2014,2227,2586,2877,3566,3931,4313,4871,5696,5932,6522,6912,7035,7507,7930,8393,9259
participant_2_CURRENTGOLD,500,0,105,353,97,761,1094,62,411,702,1391,466,48,606,1421,332,922,1312,185,657,1079,1543,2459
participant_2_LEVEL,1,1,1,3,3,5,6,6,7,8,8,9,9,10,11,11,12,12,13,13,13,14,14
participant_2_MINIONSKILLED,0,0,5,12,13,26,36,41,52,62,71,82,87,99,109,113,123,133,133,133,146,160,168
participant_2_KILLS,0,0,0,0,0,0,0,1,1,2,2,2,3,3,3,3,3,3,3,3,3,3,4
participant_2_BUY,[],"[1054, 2003]",[],[],[],"[1028, 1001]",[],[],"[1028, 6660, 1029, 2031]",[],[],[3105],[],[],"[3068, 3047]",[],[3077],[],[],[],[1011],[1028],[]
participant_2_SOLD,[],[],[],[2003],[],[],[],[],"[1028, 1028]",[],[],[1029],[],[],"[6660, 3105, 1001]",[],[],[],[],[],[],[2031],[]
participant_2_UNDO,[],[],[],[],[],[],[],[],[],[],[],[],[],[],[],[],[],[],[],[],[],[],[]
participant_3_GOLD,500,500,598,902,1211,1655,1848,2148,2837,3072,4021,4394,5017,5787,6368,7401,7699,7995,8313,9497,9999,10402,11800
participant_3_CURRENTGOLD,500,0,98,402,711,1155,198,498,62,297,46,419,1042,1812,918,51,349,45,288,1472,134,537,1875
participant_3_LEVEL,1,1,1,2,3,4,4,5,5,6,7,7,8,9,9,10,10,10,10,11,12,12,13
participant_3_MINIONSKILLED,0,0,4,14,22,38,42,49,56,62,71,82,89,102,108,123,123,129,136,143,151,159,163
participant_3_KILLS,0,0,0,0,0,0,0,0,1,1,3,3,4,4,5,6,6,6,6,8,9,10,12
participant_3_BUY,[],"[1055, 2003, 3340]",[],[],[],[],"[3134, 2003]",[],"[1053, 2031, 2055]",[],[6692],[],[],[],"[3134, 1001, 2055, 3363]",[6676],[],[3009],[2055],[],"[3086, 2015]",[],[]
participant_3_SOLD,[],[],[],[],[2003],[],[],[2003],[],[2055],"[3134, 1053]",[],[],[],[3340],[3134],[],"[2055, 1001]",[],[2055],[2031],[],[]
participant_3_UNDO,[],[],[],[],[],[],[],[],[],[],[],[],[],[],[],[],[],[],[],[],[],[],[]
participant_4_GOLD,500,500,563,797,932,1066,1221,1415,1744,2239,2759,2979,3435,3625,4020,4428,4791,4966,5137,5357,5542,5713,6077
participant_4_CURRENTGOLD,500,0,63,297,432,566,121,15,344,439,84,304,760,440,835,1243,756,66,237,457,207,378,277
participant_4_LEVEL,1,1,1,2,3,4,4,4,5,6,6,7,7,7,8,8,8,9,9,9,10,10,10
participant_4_MINIONSKILLED,0,0,0,0,0,0,0,0,0,0,3,5,6,6,6,8,8,9,10,11,13,14,14
participant_4_KILLS,0,0,0,0,0,1,1,1,1,1,1,1,2,3,4,4,4,5,5,6,6,6,7
participant_4_BUY,[],"[1056, 2003, 2003, 3340]",[],[],"[1082, 2003]",[],[],"[1052, 1052, 1001, 2055]",[],[],[],"[3802, 1026]",[3020],[],[],"[6655, 2055]",[],[],"[1026, 1028]",[],[],[],[]
participant_4_SOLD,[],[],[],[2003],[2003],[2003],[],[],[2055],[],[],"[1052, 1052]",[1001],[],[],"[3802, 1026]",[],[2055],[],[],[],[],[]
participant_4_UNDO,[],[],[],[],[],[],[],[],[],[],[],[],[],[],[],[],[],[],[],[],[],[],[]
participant_5_GOLD,500,500,584,839,1046,1336,1669,1791,2136,2491,2767,3758,4145,4555,5087,5440,5643,5960,6215,6745,7459,8140,8300
participant_5_CURRENTGOLD,500,0,84,339,146,436,769,191,536,291,567,1558,295,705,37,390,243,560,65,595,1309,15,175
participant_5_LEVEL,1,1,1,3,4,4,5,6,6,6,7,8,9,9,10,10,10,11,11,12,12,13,13
participant_5_MINIONSKILLED,0,0,3,11,16,25,35,35,45,46,56,58,64,78,89,99,99,108,116,128,139,150,155
participant_5_KILLS,0,0,0,0,0,1,1,2,2,2,2,2,3,3,3,3,3,5,5,5,5,5,5
participant_5_BUY,[],"[1055, 2003, 3340]",[],[],[],"[1036, 1036, 1042, 2003]",[],[],"[6670, 1037, 2055, 2003]",[],[1001],[],[6672],[],[],[1037],[],"[1042, 3363]",[],[3085],[],"[3006, 1042]",[]
participant_5_SOLD,[],[],[],[2003],[],[],[],[2003],"[1036, 1042, 1036]","[2055, 2003]",[],[],"[6670, 1037]",[],[],[],[],[3340],[],"[1037, 1042]",[],[1001],[]
participant_5_UNDO,[],[],[],[],[],[],[],[],[],[],[],[],[],[],[],[],[],[],[],[],[],[],[]
participant_6_GOLD,500,500,621,933,1056,1475,1818,2207,2744,3392,3684,4655,4912,5191,5549,6594,7007,7469,7968,8411,8698,9005,9447
participant_6_CURRENTGOLD,500,0,121,433,556,975,243,632,1169,317,209,1030,237,166,524,1569,1532,444,943,96,383,691,1072
participant_6_LEVEL,1,1,2,3,3,3,4,5,6,6,7,8,8,9,9,10,11,11,12,12,13,13,13
participant_6_MINIONSKILLED,0,0,0,0,0,0,0,0,4,4,4,14,14,18,18,23,23,23,32,32,33,33,33
participant_6_KILLS,0,0,0,0,0,0,0,0,0,0,0,0,0,0,0,0,0,0,0,0,0,0,0
participant_6_BUY,[],"[1056, 3364, 2003, 3340, 2003]",[],[],[],"[1052, 2003, 2003, 2055]",[],[],"[3145, 2003, 2003]",[],[],[1026],[1001],[],[],[1028],[],[],[],[3152],[],[3020],[]
participant_6_SOLD,[],[3364],[],[],[],"[2003, 2003]","[2003, 2003]",[],"[1052, 2003]",[2003],[],[],[],[],[],[],[],[],[2055],"[3145, 1028, 1026]",[],[1001],[]
participant_6_UNDO,[],[],[],[],[],[],[],[],[],[],[],[],[],[],[],[],[],[],[],[],[],[],[]
participant_7_GOLD,500,500,563,797,983,1273,1616,1955,2182,2531,2681,2867,3059,3321,3500,3769,3892,4091,4403,4728,5076,5249,5370
participant_7_CURRENTGOLD,500,0,63,297,483,153,486,825,337,676,826,162,54,316,495,364,487,686,998,423,771,144,295
participant_7_LEVEL,1,1,1,3,3,4,5,6,7,7,8,8,8,8,9,9,9,9,10,10,10,11,11
participant_7_MINIONSKILLED,0,0,2,8,12,19,28,41,47,57,59,63,67,76,79,84,84,89,95,103,112,112,112
participant_7_KILLS,0,0,0,0,0,0,0,0,0,0,0,0,0,0,0,0,0,0,0,0,0,0,0
participant_7_BUY,[],"[3850, 3364, 3340, 2003, 2003]",[],[],[],"[1001, 2003]",[],[],[],"[3158, 1082, 3364, 2003, 2055]",[],[],[],"[1052, 1028, 2055]",[],[4642],[],"[3067, 2055]",[],[],[],[],"[4005, 2055]"
participant_7_SOLD,[],[3364],[],"[2003, 2003]",[],[],[],[],[2003],"[1001, 3340]",[2003],"[2055, 3850]",[],[2055],[],[1052],[],[1028],[2055],[3851],[],[],"[3067, 4642]"
participant_7_UNDO,[],[],[],[],[],[],[],[],[],[],[],[],[],[],[],[],[],[],[],[],[],[],[]
participant_8_GOLD,500,500,584,832,1088,1735,2075,2755,2940,3231,3474,3957,4553,4759,5239,5550,5778,7295,7654,7852,8520,8959,9102
participant_8_CURRENTGOLD,500,0,84,332,588,185,525,1205,90,381,324,807,178,384,864,300,528,1745,2104,77,745,85,227
participant_8_LEVEL,1,1,1,2,3,3,4,5,5,6,6,7,7,7,8,8,9,9,10,10,11,11,11
participant_8_MINIONSKILLED,0,0,3,10,18,21,34,48,51,60,64,76,85,90,102,109,115,126,136,136,153,164,165
participant_8_KILLS,0,0,0,0,0,0,0,0,0,0,0,1,1,1,1,1,1,1,1,1,2,2,2
participant_8_BUY,[],"[1054, 2003, 3340]",[],[],"[1036, 2003]",[],[],"[1036, 1036]",[],"[1001, 1042]",[],[],"[3006, 6670, 1053]",[],[6673],[],[1036],[],"[1036, 3133]",[],[],"[3134, 1037]",[]
participant_8_SOLD,[],[],[],[2003],[],[],[2003],[],[],[],[],[],"[1001, 1042, 1036, 1036, 1036]",[],"[6670, 1053]",[],[],[],"[1036, 1036]",[],[],[],[]
participant_8_UNDO,[],[],[],[],[],[],[],[],[],[],[],[],[],[],[],[],[],[],[],[],[],[],[]
participant_9_GOLD,500,500,523,737,892,1026,1181,1585,1799,2084,2278,2595,2925,3096,3416,3596,3787,3991,4172,4447,4717,4908,5061
participant_9_CURRENTGOLD,500,0,23,237,392,176,331,735,949,159,353,670,1000,261,581,146,337,66,247,522,792,983,211
participant_9_LEVEL,1,1,1,2,3,3,4,5,5,5,6,6,7,7,7,7,8,8,9,9,10,10,10
participant_9_MINIONSKILLED,0,0,0,0,0,0,0,0,0,0,0,2,2,3,3,3,4,5,7,7,9,9,10
participant_9_KILLS,0,0,0,0,0,0,0,0,1,2,2,3,3,3,3,4,4,4,4,5,5,5,6
participant_9_BUY,[],"[1039, 2031, 3340]",[],[],[],[],"[3057, 1001, 2055, 3364]",[],[],"[3044, 1028]",[3067],"[2055, 2055]","[6632, 1036]",[1036],[],[],[3123],"[3047, 3133]",[],"[3077, 2055, 2055]",[],[],[]
participant_9_SOLD,[],[],[],[],[],[],[3340],[],[2055],[1039],[1028],[],"[3044, 3057, 3067]",[],[],[2055],[1036],"[1001, 1036]",[2055],[2031],[2055],[],[]
participant_9_UNDO,[],[],[],[],[],[],[],[],[],[],[],[],[],[],[],[],[],[],[],[],[],[],[]
team0_KILLS,0,0,0,0,0,1,1,3,4,6,10,10,13,15,17,18,21,22,22,25,26,27,32
team0_CURRENTGOLD,2500,0,582,1913,2630,2906,2466,3016,2848,4580,5772,2339,3092,5486,5169,2777,3512,3491,1529,4343,3239,4755,8833
team0_TOTALGOLD,2500,2500,3082,4413,5530,7266,8586,10681,12698,14830,18097,20004,22207,25111,27779,30062,32847,34291,35604,38418,40490,42345,46958
team0_LEVEL,5,5,6,13,16,21,24,28,31,35,37,41,42,44,48,50,53,54,55,58,60,63,64
team0_SBIRES,0,0,12,33,52,87,107,137,155,184,214,244,261,288,313,341,368,395,414,432,462,500,523
team1_KILLS,0,0,0,0,0,1,1,2,3,4,4,6,7,7,7,8,8,10,10,11,12,12,13
team1_CURRENTGOLD,2500,0,375,1638,2165,1925,2354,3588,3081,1824,2279,4227,1764,1832,2501,2769,3127,3501,4357,1713,4000,1918,1980
team1_TOTALGOLD,2500,2500,2875,4138,5065,6845,8359,10293,11801,13729,14884,17832,19594,20922,22791,24949,26107,28806,30412,32183,34470,36261,37280
team1_LEVEL,5,5,6,13,16,17,22,27,29,30,34,37,39,40,43,44,47,48,52,53,56,58,58
team1_SBIRES,0,0,8,29,46,65,97,124,147,167,183,213,232,265,291,318,325,351,386,406,446,468,475
delta_KILLS,0,0,0,0,0,0,0,1,1,2,6,4,6,8,10,10,13,12,12,14,14,15,19
delta_CURRENTGOLD,0,0,207,275,465,981,112,-572,-233,2756,3493,-1888,1328,3654,2668,8,385,-10,-2828,2630,-761,2837,6853
delta_TOTALGOLD,0,0,207,275,465,421,227,388,897,1101,3213,2172,2613,4189,4988,5113,6740,5485,5192,6235,6020,6084,9678
delta_LEVEL,0,0,0,0,0,4,2,1,2,5,3,4,3,4,5,6,6,6,3,5,4,5,6
delta_SBIRES,0,0,4,4,6,22,10,13,8,17,31,31,29,23,22,23,43,44,28,26,16,32,48
