name,team0,team1
win,Win,Fail
firstBlood,True,False
firstTower,True,False
firstInhibitor,True,False
firstBaron,True,False
firstDragon,True,False
firstRiftHerald,True,False
towerKills,10,6
inhibitorKills,3,1
baronKills,1,1
dragonKills,3,2
riftHeraldKills,1,1
