name,frame_0,frame_1,frame_2,frame_3,frame_4,frame_5,frame_6,frame_7,frame_8,frame_9,frame_10,frame_11,frame_12,frame_13,frame_14,frame_15,frame_16,frame_17,frame_18,frame_19,frame_20,frame_21,frame_22
nameStamp,Tstart,Tearly,Tearly,Tearly,Tearly,Tearly,Tearly,Tearly,Tearly,Tearly,Tearly,Tearly,Tearly,Tearly,Tmid,Tmid,Tmid,Tmid,Tmid,Tmid,Tmid,Tmid,Tmid
timestamp,0,60012,120020,180049,240076,300105,360138,420170,480201,540208,600218,660219,720252,780256,840258,900263,960292,1020309,1080313,1140323,1200337,1260373,1320373
participant_0_GOLD,500,500,562,769,1586,1750,2013,2554,3055,3373,3847,4142,4933,5409,5662,6015,6440,6563,6908,7136,7258,7550,7571
participant_0_CURRENTGOLD,500,0,62,269,1086,150,63,604,130,448,922,392,33,109,362,715,1140,413,758,986,233,525,346
participant_0_LEVEL,1,1,1,2,4,5,5,6,7,8,8,9,9,10,11,11,11,11,12,12,12,13,13
participant_0_MINIONSKILLED,0,0,2,6,20,22,31,44,49,60,68,75,89,98,102,112,125,125,134,140,140,140,140
participant_0_KILLS,0,0,0,0,0,0,0,0,0,0,1,1,1,1,1,1,1,1,1,1,1,1,1
participant_0_BUY,[],"[1055, 2003, 3340]",[],[],[],[],"[1001, 1042, 1042, 2003, 2003]",[],[],"[3006, 1018]","[3086, 2031]",[],"[1042, 2055]",[],[],[3046],[],[1018],[],[],[],[1037],[]
participant_0_SOLD,[],[],[],[2003],[],[],[],[],[2003],"[1001, 1042]","[2003, 1018, 1042]",[],[],[],[],"[1042, 3086]",[],[],[],[],[],[2031],[]
participant_0_UNDO,[],[],[],[],[],[],[],[],[],[],[],[],[],[],[],[],[],[],[],[],[],[],[]
participant_1_GOLD,500,500,620,1033,1310,1622,1745,2239,2746,2994,3137,3450,3602,3843,4181,4303,4511,5038,5160,5283,5523,5646,6666
participant_1_CURRENTGOLD,500,0,120,533,810,97,220,714,1221,1469,172,410,562,68,406,528,271,13,135,258,498,621,1581
participant_1_LEVEL,1,1,2,3,4,5,5,5,6,7,7,7,8,8,8,8,9,9,9,9,9,9,10
participant_1_MINIONSKILLED,0,0,0,0,0,0,0,0,0,1,2,2,3,3,4,4,4,4,4,4,7,7,7
participant_1_KILLS,0,0,0,0,0,0,0,1,1,1,1,1,1,1,1,1,1,2,2,2,2,2,3
participant_1_BUY,[],"[1041, 2031, 3340, 3364]",[],[],[],"[3706, 1001, 2055]",[],[],[],[],[1402],[2055],[],"[1052, 1029]",[],[],[3108],"[1082, 1052]",[],[],[],[],[]
participant_1_SOLD,[],[3340],[],[],[],[1041],[2055],[],[],[],"[2031, 3706]",[],[2055],[],[],[],[1052],[],[],[],[],[],[]
participant_1_UNDO,[],[],[],[],[],[],[],[],[],[],[],[],[],[],[],[],[],[],[],[],[],[],[]
participant_2_GOLD,500,500,597,885,1162,1508,1760,2064,2444,2853,3303,3503,3794,3997,4441,4605,5032,5381,5531,5940,6111,6234,6254
participant_2_CURRENTGOLD,500,0,97,385,662,1008,260,564,944,53,53,253,169,372,816,80,507,56,206,615,786,94,54
participant_2_LEVEL,1,1,1,3,4,5,5,6,7,7,8,8,9,9,9,10,10,11,11,11,11,11,11
participant_2_MINIONSKILLED,0,0,4,11,20,30,35,45,57,64,66,70,77,84,98,100,114,118,120,133,136,136,136
participant_2_KILLS,0,0,0,0,1,1,1,1,2,2,2,2,3,4,4,4,4,4,4,4,4,4,4
participant_2_BUY,[],"[2033, 3340]",[],[],[],"[3067, 1001]",[1036],[],"[3044, 2055]",[],[],"[3111, 3071, 2055]","[3111, 1036]",[1028],[],[],[],"[3052, 1028]",[],[],[1037],[],[]
participant_2_SOLD,[],[],[],[],[],[],[],[],[1036],[2055],[],"[1001, 2033, 3044, 3067]",[1001],[],[],[],[2055],"[1036, 1028]",[],[],[],[],[]
participant_2_UNDO,[],[],[],[],[],[],[],[],[],[],[],"[[0, 3111]]",[],[],[],[],[],[],[],[],[],[],[]
participant_3_GOLD,500,500,611,969,1253,1578,1855,2113,2521,2644,3062,3248,3738,3944,4358,4615,4888,5184,5411,5534,5740,6534,6554
participant_3_CURRENTGOLD,500,0,111,469,753,1078,1355,263,671,69,487,673,1163,94,508,65,338,284,511,84,290,334,354
participant_3_LEVEL,1,1,1,2,3,4,4,5,5,5,6,6,7,7,8,8,8,9,9,9,9,10,10
participant_3_MINIONSKILLED,0,0,5,16,25,33,43,48,62,62,76,80,93,98,111,118,123,129,135,135,140,141,141
participant_3_KILLS,0,0,0,0,0,0,0,0,0,0,0,0,0,0,0,0,0,0,0,0,0,0,0
participant_3_BUY,[],"[3858, 2003, 2003]",[],[],[],[],[],"[1001, 1029, 2055, 2031, 2055]",[],"[1029, 2055]",[],"[3364, 2055]",[],[3158],[],[],"[3024, 2055]","[2055, 2055]",[],[],[],[],[]
participant_3_SOLD,[],[],[2003],[],[2003],[],[],[2055],[2055],[],[3858],[3340],[],[1001],[],"[2055, 2055]","[1029, 2055]",[],[2055],[],[2055],[3859],[]
participant_3_UNDO,[],[],[],[],[],[],[],[],[],[],[],[],[],[],[],[],[],[],[],[],[],[],[]
participant_4_GOLD,500,500,522,759,915,1133,1268,1468,1702,1837,2069,2240,2560,2700,2943,3113,3268,3409,3570,3710,3879,4019,4042
participant_4_CURRENTGOLD,500,0,22,259,415,633,768,68,302,62,294,390,710,250,493,663,143,134,295,435,604,744,767
participant_4_LEVEL,1,1,1,2,3,4,4,4,5,5,6,6,7,7,7,7,7,7,8,8,8,8,9
participant_4_MINIONSKILLED,0,0,0,3,4,6,6,7,10,10,12,14,16,16,18,18,19,19,20,20,22,22,22
participant_4_KILLS,0,0,0,0,0,0,0,0,0,0,0,0,0,0,0,0,0,0,0,0,0,1,1
participant_4_BUY,[],"[1055, 2003, 3340]",[],[],[],[],[],"[1037, 1027, 1004]",[],"[3070, 1027]",[],[],[],"[3004, 3158]",[],[3057],[],[1027],[],[3024],[],[3025],[]
participant_4_SOLD,[],[],[],[],[2003],[],[],[],[],"[1027, 1004]",[],[],[],"[3070, 1037, 2422]",[],[1027],[],[],[],[1027],[],"[3057, 3024]",[]
participant_4_UNDO,[],[],[],[],[],[],[],[],[],[],[],[],[],[],[],[],[],[],[],[],[],[],[]
participant_5_GOLD,500,500,562,848,1053,1460,1724,1898,2060,2319,2467,2791,2948,3422,3844,4378,4968,5457,6076,6593,7319,7776,7796
participant_5_CURRENTGOLD,500,0,62,348,103,510,774,248,110,369,167,491,98,222,644,478,1068,857,626,1143,1019,606,446
participant_5_LEVEL,1,1,1,3,4,5,6,6,6,7,7,8,8,9,10,10,11,11,12,13,13,13,13
participant_5_MINIONSKILLED,0,0,2,9,13,26,34,36,38,45,46,54,56,64,71,72,88,90,98,103,111,115,115
participant_5_KILLS,0,0,0,0,0,0,0,0,0,0,0,0,0,2,2,2,2,3,3,3,3,6,7
participant_5_BUY,[],"[1055, 2003, 3340]",[],[],[],[],[],"[3133, 1001]",[],[],"[3006, 2055, 2003, 2055]",[],[],[],"[3508, 1042, 3363]",[],[],"[3086, 1042, 1042]",[],"[3085, 2055, 2055, 2031]",[],[],[]
participant_5_SOLD,[],[],[],[2003],[],[],[],[],[],[],[1001],[2003],[],[],"[3133, 3340]",[],[],"[2055, 1042, 2055]",[],"[1042, 3086, 1042]",[],[],[]
participant_5_UNDO,[],[],[],[],[],[],[],[],[],[],[],[],[],[],[],[],[],[],[],[],[],[],[]
participant_6_GOLD,500,500,662,1039,1367,1709,2227,2484,2966,3907,4637,5223,5515,6312,6963,7914,8269,8804,9586,10049,10764,11618,11675
participant_6_CURRENTGOLD,500,0,162,539,142,484,1002,359,241,1182,1912,148,440,1237,88,1039,204,739,1521,499,1214,2068,2065
participant_6_LEVEL,1,1,2,3,4,4,5,6,7,8,9,9,10,10,11,11,12,13,13,13,14,14,14
participant_6_MINIONSKILLED,0,0,0,0,0,0,1,1,3,11,13,18,18,18,22,23,24,24,25,25,35,40,40
participant_6_KILLS,0,0,0,0,0,1,2,2,2,5,7,7,7,8,9,9,9,10,10,10,11,12,12
participant_6_BUY,[],"[3340, 2033]",[],[],[],"[1082, 1001, 2055]",[],[],"[3020, 1052, 1029]",[],[],"[3152, 3191]",[],[],[],"[3157, 1052]",[],[],[],[],[],[3165],[]
participant_6_SOLD,[],[],[],[],[],[],[],[],"[1001, 2055]",[],[],"[1052, 1029]",[],[],[],[3191],[],[],[],[],[],[1052],[]
participant_6_UNDO,[],[],[],[],[],[],[],[],[],[],[],[],[],[],[],[],[],[],[],[],[],[],[]
participant_7_GOLD,500,500,597,888,1218,1878,2418,2774,2987,4094,5176,5666,5992,6660,7520,8045,8230,8701,9133,9542,10098,10824,10881
participant_7_CURRENTGOLD,500,0,97,388,718,653,1193,1549,227,1334,2416,41,367,1035,1895,185,370,841,1273,1682,2238,399,456
participant_7_LEVEL,1,1,1,3,4,5,6,7,7,8,8,9,9,10,11,11,12,12,12,13,13,14,14
participant_7_MINIONSKILLED,0,0,4,14,24,35,42,52,57,62,68,77,86,94,103,114,118,123,135,145,150,150,150
participant_7_KILLS,0,0,0,0,0,0,0,0,0,0,0,0,0,0,0,1,1,2,3,3,3,3,3
participant_7_BUY,[],"[3850, 2003, 2003, 3340]",[],[],[],[],[],[3028],[],[],"[1001, 1082, 2055, 2003]",[],[],[3158],"[3108, 2055, 3364]",[],"[3174, 2055, 1006]","[3801, 2055]",[],[],[],[],[]
participant_7_SOLD,[],[],[],[2003],[2003],[],[],[],[],[],[],[2055],[],"[1001, 3850]","[2003, 3340]",[2055],"[3108, 3028, 2055]",[1006],[2055],[],[],[3851],[]
participant_7_UNDO,[],[],[],[],[],[],[],[],[],[],[],[],[],[],[],[],[],[],[],[],[],[],[]
participant_8_GOLD,500,500,562,797,1190,1557,1900,2064,2472,3037,3250,3902,4150,5109,5672,6105,6604,7175,7948,8270,8646,10215,10455
participant_8_CURRENTGOLD,500,0,62,297,690,1057,1400,164,572,1137,350,1002,1250,2209,272,705,1204,105,878,300,676,2245,2455
participant_8_LEVEL,1,1,1,2,3,4,4,5,5,6,7,7,8,9,9,10,10,11,11,11,12,12,12
participant_8_MINIONSKILLED,0,0,2,8,21,33,43,45,59,68,73,78,85,97,104,113,124,127,140,140,141,155,155
participant_8_KILLS,0,0,0,0,0,0,0,0,0,1,2,3,3,3,3,5,5,5,6,6,6,7,7
participant_8_BUY,[],"[1039, 2031, 3340, 3364]",[],[],"[3706, 2055]",[],[],[3108],[1402],[],[],"[3108, 3101, 1082]",[],[],"[3115, 3020]",[],[1058],[],[],"[3916, 3041, 1052]",[],[],[]
participant_8_SOLD,[],[3340],[],[],[1039],[],[2055],[],"[3108, 3706]",[],[],[],[],"[3364, 3513]","[3101, 3108, 2422]",[],[2031],[],[],"[3364, 1082]",[3513],[],[]
participant_8_UNDO,[],[],[],[],[],[],[],[],[],[],[],[],[],[],[],[],[],[],[],"[[0, 3916]]",[],[],[]
participant_9_GOLD,500,500,567,732,918,1111,1306,1454,1706,2116,2554,2688,2824,3416,3842,4375,4529,4980,5665,6080,6370,7027,7087
participant_9_CURRENTGOLD,500,0,67,232,418,611,806,154,406,816,479,613,749,741,192,725,254,130,815,1230,1520,2177,2237
participant_9_LEVEL,1,1,1,2,3,4,4,5,5,6,7,7,7,8,8,9,9,9,10,10,11,11,12
participant_9_MINIONSKILLED,0,0,0,0,1,2,2,3,5,5,6,6,7,8,8,9,9,10,12,13,13,14,14
participant_9_KILLS,0,0,0,0,0,0,0,0,0,0,0,0,0,0,0,1,1,2,3,3,4,4,4
participant_9_BUY,[],[2033],[],[],[1055],[],[],"[1036, 1036]",[1042],[],[1036],[],[1053],[3144],[],[1043],[],[3153],"[3123, 1036, 1028]",[],[3044],[3057],[]
participant_9_SOLD,[],[],[],[],[],[],[],[],[],[],[],[],[1036],"[1053, 1036]",[],[1042],[],"[3144, 1043]",[1036],[],[1028],[1055],[]
participant_9_UNDO,[],[],[],[],[],[],[],[],[],[],[],[],[],[],[],[],[],[],"[[0, 1036]]",[],[],[],[]
team0_KILLS,0,0,0,0,1,1,1,2,3,3,4,4,5,6,6,6,6,7,7,7,7,8,9
team0_CURRENTGOLD,2500,0,412,1915,3726,2966,2666,2213,3268,2101,1928,2118,2637,893,2585,2051,2399,900,1905,2378,2411,2318,3102
team0_TOTALGOLD,2500,2500,2912,4415,6226,7591,8641,10438,12468,13701,15418,16583,18627,19893,21585,22651,24139,25575,26580,27603,28511,29983,31087
team0_LEVEL,5,5,6,12,18,23,23,26,30,32,35,36,40,41,43,44,45,47,49,49,49,51,53
team0_SBIRES,0,0,11,36,69,91,115,144,178,197,224,241,278,299,333,352,385,395,413,432,445,446,446
team1_KILLS,0,0,0,0,0,1,2,2,2,6,9,10,10,13,14,18,18,22,25,25,27,32,33
team1_CURRENTGOLD,2500,0,450,1804,2071,3315,5175,2474,1556,4838,5324,2295,2904,5444,3091,3132,3100,2672,5113,4854,6667,7495,7659
team1_TOTALGOLD,2500,2500,2950,4304,5746,7715,9575,10674,12191,15473,18084,20270,21429,24919,27841,30817,32600,35117,38408,40534,43197,47460,47894
team1_LEVEL,5,5,6,13,18,22,25,29,30,35,38,40,42,46,49,51,54,56,58,60,63,64,65
team1_SBIRES,0,0,8,31,59,96,122,137,162,191,206,233,252,281,308,331,363,374,410,426,450,474,474
delta_KILLS,0,0,0,0,1,0,-1,0,1,-3,-5,-6,-5,-7,-8,-12,-12,-15,-18,-18,-20,-24,-24
delta_CURRENTGOLD,0,0,-38,111,1655,-349,-2509,-261,1712,-2737,-3396,-177,-267,-4551,-506,-1081,-701,-1772,-3208,-2476,-4256,-5177,-4557
delta_TOTALGOLD,0,0,-38,111,480,-124,-934,-236,277,-1772,-2666,-3687,-2802,-5026,-6256,-8166,-8461,-9542,-11828,-12931,-14686,-17477,-16807
delta_LEVEL,0,0,0,-1,0,1,-2,-3,0,-3,-3,-4,-2,-5,-6,-7,-9,-9,-9,-11,-14,-13,-12
delta_SBIRES,0,0,3,5,10,-5,-7,7,16,6,18,8,26,18,25,21,22,21,3,6,-5,-28,-28
