name,frame_0,frame_1,frame_2,frame_3,frame_4,frame_5,frame_6,frame_7,frame_8,frame_9,frame_10,frame_11,frame_12,frame_13,frame_14,frame_15,frame_16,frame_17,frame_18,frame_19,frame_20,frame_21,frame_22,frame_23,frame_24,frame_25,frame_26
nameStamp,Tstart,Tearly,Tearly,Tearly,Tearly,Tearly,Tearly,Tearly,Tearly,Tearly,Tearly,Tearly,Tearly,Tearly,Tearly,Tmid,Tmid,Tmid,Tmid,Tmid,Tmid,Tmid,Tmid,Tmid,Tmid,Tmid,Tend
timestamp,0,60001,120024,180055,240071,300074,360075,420094,480095,540107,600126,660163,720195,780197,840222,900222,960239,1020255,1080261,1140292,1200294,1260304,1320309,1380317,1440347,1500356,1560356
participant_0_GOLD,500,500,541,1236,1380,1598,1976,2818,3108,3690,4133,4688,5405,5668,6837,7422,8490,9176,9599,10470,11521,11891,12243,12782,13812,14509,14816
participant_0_CURRENTGOLD,500,0,41,736,880,1098,1476,2318,333,915,1358,1913,2630,518,1687,2272,3340,591,1014,1885,2936,3306,793,1333,2362,859,1166
participant_0_LEVEL,1,1,1,3,4,5,6,7,7,8,9,10,11,11,12,12,13,13,13,14,14,14,14,15,15,16,16
participant_0_MINIONSKILLED,0,0,1,9,10,15,27,34,41,52,61,73,82,82,94,101,106,107,107,112,114,116,117,119,121,121,125
participant_0_KILLS,0,0,0,0,0,0,0,1,1,1,1,1,1,1,1,1,1,2,2,4,6,6,6,6,8,8,9
participant_0_BUY,[],"[1055, 1036, 2003, 2003, 3340, 2003]",[],[],[],[3134],"[2055, 2003, 2003]",[],[3133],[],"[1001, 2031, 2055]",[],[1033],[],[],"[3111, 2055, 3363]",[],[],"[6691, 1037]",[],[3142],[2055],[],[],[],"[3134, 1053]",[]
participant_0_SOLD,[],[],[],"[2003, 2003]",[2003],[1036],[],"[2003, 2055]",[],[2003],[],[],[],[],[2055],"[1001, 1033, 3340]",[2055],[],"[3134, 3133]",[],[1037],[2055],[],[],[],[],[]
participant_0_UNDO,[],"[[0, 1055]]",[],[],[],[],[],[],[],[],[],[],[],[],[],[],[],[],[],[],[],[],[],[],[],[],[]
participant_1_GOLD,500,500,620,933,1241,1468,1612,1869,2091,2319,2626,2749,3006,3240,3413,3585,3808,4088,4287,4517,4810,4957,5393,5804,6096,6649,7079
participant_1_CURRENTGOLD,500,0,120,433,741,968,1112,1369,1591,1819,2126,674,931,1165,138,310,533,813,1012,1242,1535,1682,2118,129,421,974,1404
participant_1_LEVEL,1,1,2,3,3,4,4,4,5,5,5,5,6,6,6,6,7,7,7,8,9,9,10,10,10,11,11
participant_1_MINIONSKILLED,0,0,0,0,0,0,1,1,1,1,1,1,1,1,1,1,1,1,1,1,1,1,1,1,1,1,1
participant_1_KILLS,0,0,0,0,0,0,0,0,0,0,0,0,0,0,0,0,0,0,0,0,0,0,0,0,0,0,0
participant_1_BUY,[],"[3850, 3340, 2003, 2003]",[],[],[],[],[2055],[1033],[],[],[],[3105],[],[1001],[],[],[],[],[],[],"[3190, 3009, 1004, 2055, 3364]",[],[],"[3114, 2055]",[],[],[]
participant_1_SOLD,[],[],[],[],[],[],[],[2055],[],[],[],[1033],[],[],[3850],[2003],[],[2003],[],[],"[3851, 3105, 1001, 3340]",[2055],[],[1004],[],[2055],[]
participant_1_UNDO,[],[],[],[],[],[],[],[],[],[],[],[],[],[],[],[],[],[],[],[],[],[],[],[],[],[],[]
participant_2_GOLD,500,500,625,860,1218,1473,1837,2357,2668,3066,3188,3388,3615,3793,4048,4299,4613,5785,5937,7099,8064,8481,9109,9446,10269,10692,11070
participant_2_CURRENTGOLD,500,0,125,360,708,213,392,912,123,511,108,308,85,263,518,344,658,1830,107,1269,109,451,1079,1416,2239,662,1070
participant_2_LEVEL,1,1,1,3,4,5,6,7,7,8,8,8,9,9,9,9,10,11,11,11,12,12,13,13,13,14,14
participant_2_MINIONSKILLED,0,0,6,12,23,31,42,47,58,71,71,76,82,86,91,94,101,114,115,122,128,136,142,151,156,156,157
participant_2_KILLS,0,0,0,0,0,0,0,0,0,0,0,0,0,0,0,0,0,0,0,0,0,0,0,0,0,0,1
participant_2_BUY,[],"[1035, 2031, 3340]",[],[],[],[],[],[],[],[],[],"[3077, 1001, 2055]",[],[],"[3047, 1028]",[],[],[],[],[],[],[],[],"[3748, 1029, 1028]",[],[],[]
participant_2_SOLD,[],[],[],[],[],[],[],[],[],[],[],[],[],[],[1001],[],[],[1035],[],[],[],[],[],"[3077, 1028]",[],[2055],[]
participant_2_UNDO,[],[],[],[],[],[],[],[],[],[],[],[],[],[],[],[],[],[],[],[],[],[],[],[],[],[],[]
participant_3_GOLD,500,500,576,839,1116,1462,1606,1997,2251,2563,2820,3132,3920,4042,4659,5092,5344,5760,6090,6460,7104,7259,8248,8876,9676,10148,10597
participant_3_CURRENTGOLD,500,0,76,339,616,962,81,472,26,338,595,907,1695,42,659,417,669,1085,1415,385,229,384,1373,2001,2801,473,922
participant_3_LEVEL,1,1,1,2,3,4,4,5,5,6,6,7,7,7,8,8,8,9,9,9,10,10,11,11,12,12,13
participant_3_MINIONSKILLED,0,0,3,11,19,29,30,41,46,57,61,72,81,81,85,96,99,109,116,121,123,125,127,133,138,138,140
participant_3_KILLS,0,0,0,1,1,1,1,2,2,3,3,4,6,7,7,7,8,9,10,11,13,14,14,15,18,19,19
participant_3_BUY,[],"[1056, 2003, 3340, 2003]",[],[],[],[],[],[],"[3802, 3108, 2055]",[],[],[],[],"[6653, 3020, 2055]",[],[],[],"[4637, 1052]",[],[],[],[],"[3135, 3916]",[],[],"[3165, 2139]",[]
participant_3_SOLD,[],[],[],[2003],[2003],[],[],[],[],[],[2055],[],[],"[3802, 3108, 2055]",[],[],[],[],[],[],[],[],[1052],[],[],"[3916, 2139]",[]
participant_3_UNDO,[],[],[],[],[],[],[],[],[],[],[],[],[],[],[],[],[],[],[],[],[],[],[],[],[],[],[]
participant_4_GOLD,500,500,522,705,914,1048,1278,1512,1686,1855,2009,2164,2358,2506,2916,3167,3407,3637,3933,4474,4729,4870,5434,5693,5879,6319,6559
participant_4_CURRENTGOLD,500,0,22,205,414,548,703,487,661,830,984,89,283,131,541,792,1032,1262,1558,2099,229,370,934,568,754,1194,1434
participant_4_LEVEL,1,1,1,2,3,4,4,5,5,5,6,6,6,7,7,8,8,8,9,10,10,10,10,10,11,12,12
participant_4_MINIONSKILLED,0,0,0,2,3,3,5,5,5,6,6,6,6,7,8,8,8,8,8,8,8,8,8,8,8,8,8
participant_4_KILLS,0,0,0,0,0,0,0,0,0,0,0,0,1,1,2,2,2,2,2,2,3,3,5,6,6,6,7
participant_4_BUY,[],"[1055, 2003, 3340]",[],[],[],[],"[1001, 1053, 2055, 2003]",[],"[1036, 1036]",[],[],[],[],"[6692, 2003, 2003, 2055]",[],"[1018, 2055]",[],[],[],"[3134, 1001]",[3006],[],[],[],[],"[6676, 3134, 1028]",[]
participant_4_SOLD,[],[],[],[],[],[],[],[2055],[2003],[],[],[2003],[],"[1036, 1036, 1053]",[2055],[],"[2055, 2003]",[2003],[],[],[1001],[],[],[],[],"[3134, 1018]",[]
participant_4_UNDO,[],[],[],[],[],[],"[[0, 1001]]",[],[],[],[],[],[],[],[],[],[],[],[],[],[],[],[],[],[],[],[]
participant_5_GOLD,500,500,583,755,1071,1431,1554,1770,2052,2203,2409,2567,2731,3094,3217,3364,3819,4962,5323,5446,5868,6228,6405,6584,6742,7052,7116
participant_5_CURRENTGOLD,500,0,83,255,571,931,354,570,852,203,409,217,81,444,117,264,719,29,390,63,135,495,172,351,509,469,533
participant_5_LEVEL,1,1,1,2,4,5,5,5,6,6,7,7,7,8,8,8,8,9,10,10,10,10,10,11,11,11,11
participant_5_MINIONSKILLED,0,0,3,6,14,25,25,28,34,36,42,44,47,57,57,57,69,70,79,79,79,89,89,92,94,101,101
participant_5_KILLS,0,0,0,0,0,0,0,0,0,0,0,0,0,0,0,0,0,1,1,1,2,2,2,2,2,2,2
participant_5_BUY,[],"[2033, 3340]",[],[],[],[],[3057],[],[],[3067],[],[1036],[1042],[],[3051],[],[],"[3078, 1001, 1033, 3111]",[],[1033],[1036],[],[3155],[],[],[1036],[]
participant_5_SOLD,[],[],[],[],[],[],[],[],[],[],[],[],[],[],"[1042, 1036]",[],[],"[3057, 3051, 3067, 1001, 1033]",[],[],[],[],"[1036, 1033]",[],[],[],[]
participant_5_UNDO,[],[],[],[],[],[],[],[],[],[],[],[],[],[],[],[],[],[],[],[],[],[],[],[],[],[],[]
participant_6_GOLD,500,500,627,963,1163,1370,1775,1922,2236,2517,3094,3517,3998,4498,4706,5267,5494,5743,6061,6183,6306,6428,6816,7293,7415,7538,7602
participant_6_CURRENTGOLD,500,0,127,463,663,870,1275,22,336,617,1194,717,48,548,756,1317,589,488,806,178,301,423,811,1288,110,233,52
participant_6_LEVEL,1,1,2,3,3,3,4,5,5,6,6,6,7,8,8,9,9,9,10,10,10,10,11,11,11,11,11
participant_6_MINIONSKILLED,0,0,0,0,0,0,0,0,0,1,1,1,1,2,2,2,2,2,6,6,6,6,6,6,6,6,6
participant_6_KILLS,0,0,0,0,0,0,0,0,0,0,1,2,3,4,4,5,5,5,5,5,5,5,5,6,6,6,6
participant_6_BUY,[],"[1039, 2003, 2003, 2003, 3340]",[],[],[],[],[],"[3134, 1001]",[],[],[],[1053],"[3047, 1036]",[],[],[],"[6692, 1036]",[1036],[],[3133],[],[],[],[],[3155],[],[]
participant_6_SOLD,[],[],[],[2003],[2003],[2003],[],[],[],[],[],[],[1001],[],[],[],"[3134, 1036, 1053, 1036]",[],[],[1036],[],[],[],[],[],[],[]
participant_6_UNDO,[],[],[],[],[],[],[],[],[],[],[],[],[],[],[],[],[],[],[],[],[],[],[],[],[],[],[]
participant_7_GOLD,500,500,562,871,1134,1361,1683,1980,2186,2400,2875,3361,3483,4038,4479,4874,5031,5304,5902,6045,6168,6632,6929,7100,7640,7853,8007
participant_7_CURRENTGOLD,500,0,62,361,624,316,628,925,216,430,905,1391,263,818,1249,344,501,204,802,95,218,682,179,350,190,403,-293
participant_7_LEVEL,1,1,1,3,4,5,5,6,7,7,8,9,9,9,10,10,10,11,11,12,12,12,13,13,13,13,13
participant_7_MINIONSKILLED,0,0,2,10,18,25,33,43,48,53,65,69,69,72,77,79,81,81,88,89,89,105,111,114,117,118,119
participant_7_KILLS,0,0,0,0,0,0,0,0,0,0,0,1,1,2,2,3,3,3,4,4,4,4,4,4,5,5,5
participant_7_BUY,[],"[1056, 2003, 3340, 2003]",[],[],[],"[1052, 2003, 2003]",[],[],"[3145, 1001]",[],[],[],"[1026, 1028]",[],[],"[1028, 4636]",[],"[1052, 3113]",[],[1026],[],[],"[3057, 3020]",[],[3057],[],[3100]
participant_7_SOLD,[],[],[2003],[2003],[],[],[],[],[1052],"[2003, 2003]",[],[],[],[],[],"[3145, 1028, 1026]",[],"[1028, 1052]",[],[],[],[],[1001],[],[],[],"[1056, 3057, 3113, 1026]"
participant_7_UNDO,[],[],[],[],[],[],[],[],[],[],[],[],[],[],[],[],[],[],[],[],[],[],"[[0, 3057]]",[],[],[],[]
participant_8_GOLD,500,500,562,741,899,1021,1583,1705,2275,2516,2872,3412,3809,3931,4348,4470,4744,4867,5038,5175,5475,5621,5744,5956,6210,6479,6585
participant_8_CURRENTGOLD,500,50,112,291,449,66,628,50,620,861,1217,1757,2154,176,142,265,539,62,233,270,220,366,139,351,4,274,135
participant_8_LEVEL,1,1,1,2,3,3,3,4,4,5,6,6,7,7,7,7,8,8,8,8,9,9,9,9,9,10,10
participant_8_MINIONSKILLED,0,0,2,6,8,8,15,15,21,28,38,44,44,44,48,48,52,52,55,56,58,60,60,61,64,73,76
participant_8_KILLS,0,0,0,0,0,0,0,0,0,0,0,0,0,1,2,2,2,2,2,2,2,2,2,2,2,2,2
participant_8_BUY,[],"[3858, 2003, 3340, 2003]",[],[],[],[],[3117],[],[],[3067],[],[],"[1033, 1029]",[1033],[],"[3190, 3364, 2055, 2055]",[],[1028],[],"[3801, 1028]",[],[],[3067],[],[],[],[]
participant_8_SOLD,[],[],[],[],"[2003, 2003]",[],[2010],[],[],[],[],"[2010, 2010]",[],[],[3858],"[3067, 1033, 1029, 3340]",[2055],[],[],[1028],[],[],[1028],[3859],[],[],[]
participant_8_UNDO,[],[],[],[],[],[],[],[],[],[],[],[],"[[0, 1033]]",[],[],[],[],[],[],[],[],[],[],[],[],[],[]
participant_9_GOLD,500,500,585,748,904,1185,1519,1739,2229,2380,2571,2855,3127,3667,4218,4502,4809,4998,5414,5554,5694,5949,6193,6334,6549,6710,6784
participant_9_CURRENTGOLD,500,0,85,248,404,685,19,239,729,80,271,555,527,617,1168,151,459,248,664,154,294,549,393,534,749,910,984
participant_9_LEVEL,1,1,1,2,3,4,5,5,6,6,7,7,8,8,9,9,9,10,10,10,10,10,11,11,11,11,11
participant_9_MINIONSKILLED,0,0,3,5,6,11,14,18,27,29,32,32,32,35,37,37,42,45,48,48,48,50,52,52,52,53,53
participant_9_KILLS,0,0,0,0,0,0,1,1,2,2,2,3,4,4,4,4,4,4,4,4,4,4,4,4,4,4,4
participant_9_BUY,[],"[3340, 2003, 2003, 1036]",[],[],[],"[1055, 1001]",[],"[1042, 2015]",[],[],[],[],[],"[3006, 1038]",[1054],[],[],[1018],[],[3095],[1036],[],[1036],[],[6670],[],[]
participant_9_SOLD,[],[],[],[2003],[2003],[1036],[],[1042],[],[],[],[],[],[1001],[],[],[],[],[],"[1038, 1018, 2015]",[],[],[],[],"[1036, 1036]",[],[]
participant_9_UNDO,[],[],[],[],[],[],[],[],[],[],[],[],[],[],[],[],[],[],[],[],[],[],[],[],[],[],[]
team0_KILLS,0,0,0,1,1,1,1,3,3,4,4,5,8,9,10,10,11,13,14,17,22,23,25,27,32,33,36
team0_CURRENTGOLD,2500,0,384,2073,3359,3789,3764,5558,2734,4413,5171,3891,5624,2119,3543,4135,6232,5581,5106,6880,5038,6193,6297,5447,8577,4162,5996
team0_TOTALGOLD,2500,2500,2884,4573,5869,7049,8309,10553,11804,13493,14776,16121,18304,19249,21873,23565,25662,28446,29846,33020,36228,37458,40427,42601,45732,48317,50121
team0_LEVEL,5,5,6,13,17,22,24,28,29,32,34,36,39,40,42,43,46,48,49,52,55,55,58,59,61,65,66
team0_SBIRES,0,0,10,34,55,78,105,128,151,187,200,228,252,257,279,300,315,339,347,364,374,386,395,412,424,424,431
team1_KILLS,0,0,0,0,0,0,1,1,2,2,3,6,8,11,12,14,14,15,16,16,17,17,17,18,19,19,19
team1_CURRENTGOLD,2500,50,469,1618,2711,2868,2904,1806,2753,2191,3996,4637,3073,2603,3432,2341,2807,1031,2895,760,1168,2515,1694,2874,1562,2289,1411
team1_TOTALGOLD,2500,2500,2919,4078,5171,6368,8114,9116,10978,12016,13821,15712,17148,19228,20968,22477,23897,25874,27738,28403,29511,30858,32087,33267,34556,35632,36094
team1_LEVEL,5,5,6,12,17,20,22,25,28,30,34,35,38,40,42,43,44,47,49,50,51,51,54,55,55,56,56
team1_SBIRES,0,0,10,27,46,69,87,104,130,147,178,190,193,210,221,223,246,250,276,278,280,310,318,325,333,351,355
delta_KILLS,0,0,0,1,1,1,0,2,1,2,1,-1,0,-2,-2,-4,-3,-2,-2,1,5,6,8,9,13,14,17
delta_CURRENTGOLD,0,-50,-85,455,648,921,860,3752,-19,2222,1175,-746,2551,-484,111,1794,3425,4550,2211,6120,3870,3678,4603,2573,7015,1873,4585
delta_TOTALGOLD,0,0,-35,495,698,681,195,1437,826,1477,955,409,1156,21,905,1088,1765,2572,2108,4617,6717,6600,8340,9334,11176,12685,14027
delta_LEVEL,0,0,0,1,0,2,2,3,1,2,0,1,1,0,0,0,2,1,0,2,4,4,4,4,6,9,10
delta_SBIRES,0,0,0,7,9,9,18,24,21,40,22,38,59,47,58,77,69,89,71,86,94,76,77,87,91,73,76
