name,frame_0,frame_1,frame_2,frame_3,frame_4,frame_5,frame_6,frame_7,frame_8,frame_9,frame_10,frame_11,frame_12,frame_13,frame_14,frame_15,frame_16,frame_17,frame_18,frame_19,frame_20,frame_21,frame_22,frame_23,frame_24,frame_25,frame_26,frame_27
nameStamp,Tstart,Tearly,Tearly,Tearly,Tearly,Tearly,Tearly,Tearly,Tearly,Tearly,Tearly,Tearly,Tearly,Tearly,Tmid,Tmid,Tmid,Tmid,Tmid,Tmid,Tmid,Tmid,Tmid,Tmid,Tend,Tend,Tend,Tend
timestamp,0,60004,120005,180026,240028,300048,360058,420080,480096,540120,600145,660170,720172,780201,840219,900235,960266,1020291,1080320,1140337,1200355,1260372,1320399,1380418,1440443,1500469,1560494,1620515
participant_0_GOLD,500,500,562,859,1175,1529,1729,2019,2315,2459,2856,3168,3451,3854,4637,4948,5387,5685,6044,6710,6923,7655,7778,8284,8737,9116,9378,9718
participant_0_CURRENTGOLD,500,0,62,359,675,1029,79,369,665,259,656,968,201,604,37,348,787,185,544,1210,323,1055,78,584,1037,16,278,619
participant_0_LEVEL,1,1,1,3,4,5,5,6,7,7,8,8,9,9,10,10,11,11,12,12,12,13,13,13,14,14,14,15
participant_0_MINIONSKILLED,0,0,2,12,21,31,35,44,51,52,65,71,81,94,102,109,115,125,134,144,145,147,147,152,155,158,162,162
participant_0_KILLS,0,0,0,1,1,1,1,1,1,1,1,1,2,2,2,2,3,3,3,4,4,7,7,7,7,7,7,8
participant_0_BUY,[],"[1041, 1006]",[],[],[3077],[2055],[],[],[],[],[],"[1413, 2055, 2055]",[],[],"[3047, 1028, 2055, 2055]","[3364, 1029]",[],[],"[1011, 1031, 2055]",[],[3742],[],[],[],"[3748, 2055]",[],[1057],[]
participant_0_SOLD,[],[],[],[],[1006],[],[],[],[2055],[],[],[1041],"[2055, 2055]",[],[],"[2055, 3340]",[2055],[],"[1028, 1029]",[3364],"[1031, 1011, 2055]",[3513],[],[],[3077],[],[],[2055]
participant_0_UNDO,[],[],[],[],[],[],[],[],[],[],[],[],[],[],[],[],[],[],[],[],[],[],[],[],[],[],[],[]
participant_1_GOLD,500,500,725,1412,1749,2062,2505,2848,3245,3633,3945,4288,4930,5376,5797,6004,6688,7285,7543,8243,8408,9756,9983,10546,11065,11475,11854,12531
participant_1_CURRENTGOLD,500,0,225,912,74,312,755,1098,1495,1883,2195,238,880,1326,97,4,688,1285,368,1068,133,1481,1708,2271,540,951,609,1287
participant_1_LEVEL,1,1,2,3,4,4,5,6,7,7,8,8,9,10,10,10,11,11,12,12,12,13,13,14,14,15,15,15
participant_1_MINIONSKILLED,0,0,0,0,0,0,0,1,1,1,1,1,1,2,4,4,4,4,4,4,7,10,10,11,19,24,24,25
participant_1_KILLS,0,0,0,0,0,0,0,0,0,0,0,0,1,1,2,2,2,2,2,3,3,3,4,4,4,4,4,6
participant_1_BUY,[],"[1056, 2003, 2003, 3340]",[],[],[],"[1056, 1052, 2055, 2003]",[],[],[],[],"[3101, 3108, 1082, 2031]",[],[],"[3115, 3020, 3364]",[],[1058],[],[],[],[3089],[],[],[3191],[],[],[3157],[],[]
participant_1_SOLD,[],[],[],[2003],[2003],[],[2055],[],[],[2003],[1052],[],[],"[3101, 3108, 3340]",[],[2031],[],[],[],[1058],[],[],[1082],[],[],[3191],[],[]
participant_1_UNDO,[],[],[],[],[],[],[],[],[],[],[],[],[],[],[],[],[],[],[],[],[],[],[],[],[],[],[],[]
participant_2_GOLD,500,500,583,940,1299,1611,1996,2307,2708,3398,3688,3914,4540,5781,6719,6841,7781,8440,8856,9555,9809,10490,10998,11520,11777,12127,12291,13819
participant_2_CURRENTGOLD,500,0,83,440,799,151,536,847,1248,1938,163,389,1015,156,1094,26,966,1625,2041,390,644,1325,873,1395,1653,202,366,1894
participant_2_LEVEL,1,1,1,3,4,5,6,6,7,8,8,9,9,10,10,10,11,12,13,13,13,14,14,15,15,15,15,16
participant_2_MINIONSKILLED,0,0,3,14,23,31,44,55,68,79,89,92,101,112,125,125,148,159,172,173,177,182,182,182,189,194,196,212
participant_2_KILLS,0,0,0,0,0,0,0,0,0,0,0,0,0,0,0,0,0,0,0,1,1,2,2,2,2,2,2,3
participant_2_BUY,[],"[3858, 3340, 2003, 2003]",[],[],[],[],[],"[1001, 1029, 2055]",[],[],[],"[3047, 1029, 3364]",[],[1031],[],"[1057, 2055]",[],[],[2420],[],"[3193, 1028]",[],"[3067, 1029, 2055]",[1031],[],[3109],[],[]
participant_2_SOLD,[],[],[],[],[],[],[],[],"[2010, 2003]",[2055],[2010],"[3858, 1001, 1029, 3340]",[],[1029],"[2003, 2010]",[],[],[],[],[],"[1031, 1057, 2420]",[2055],[1028],"[2055, 1029]",[],"[3859, 3067, 1031]",[],[]
participant_2_UNDO,[],[],[],[],[],[],[],[],[],[],[],[],[],[],[],[],[],[],[],[],[],[],[],[],[],[],[],[]
participant_3_GOLD,500,500,625,968,1496,1906,2298,2734,3051,3493,3783,4128,4619,4854,5861,6007,6639,7558,7900,8147,8269,8706,8828,9571,9694,9962,10169,10619
participant_3_CURRENTGOLD,500,0,125,468,996,1406,1798,2234,526,968,1258,603,1094,279,1286,197,829,1748,75,322,444,881,1003,1747,229,497,555,1004
participant_3_LEVEL,1,1,1,2,3,4,4,5,5,6,7,7,8,8,9,9,10,11,11,11,11,12,12,13,13,13,13,14
participant_3_MINIONSKILLED,0,0,6,16,22,36,49,58,66,80,89,99,109,113,121,123,130,145,145,145,145,151,151,166,166,167,167,171
participant_3_KILLS,0,0,0,0,1,1,1,1,1,1,1,1,1,1,3,3,4,5,6,6,6,6,6,6,6,6,6,6
participant_3_BUY,[],"[2003, 2003, 1056, 3340]",[],[],[],[],[],[],"[3802, 1082, 1001, 2055]",[],[],"[1026, 2055, 2055]",[],[3285],[],"[3020, 1052]",[],[],"[3916, 1026]",[],[3363],[],[],[],"[3136, 3135]",[],"[2055, 2055]",[]
participant_3_SOLD,[],[],[],[],[],[],[],[],[2055],[],"[2003, 2003]",[],[],"[3802, 1026]",[],"[1001, 2055]",[],[2055],[1052],[],[3340],[],[],[],"[1056, 1026]",[],[],[2055]
participant_3_UNDO,[],[],[],[],[],[],[],[],[],[],[],[],[],[],[],[],[],[],[],[],[],[],[],[],"[[0, 3136]]",[],[],[]
participant_4_GOLD,500,500,543,758,914,1122,1344,1499,1702,1867,2064,2217,2454,2698,3227,3367,3688,3850,4100,4640,4811,5401,5542,6012,6173,6580,6780,7420
participant_4_CURRENTGOLD,500,0,43,258,414,622,844,324,527,692,889,242,479,223,752,97,418,580,180,720,161,751,117,87,248,55,255,896
participant_4_LEVEL,1,1,1,2,3,4,4,5,5,6,6,6,7,7,8,8,9,9,9,10,10,10,10,11,11,11,11,12
participant_4_MINIONSKILLED,0,0,1,3,4,6,8,9,10,11,14,15,16,19,20,20,22,23,23,23,24,24,24,25,26,28,30,30
participant_4_KILLS,0,0,0,0,0,0,0,0,0,0,0,0,0,0,1,1,1,1,1,1,1,1,1,1,2,2,2,2
participant_4_BUY,[],"[1054, 2003, 3340]",[],[],[],[],"[3057, 3067, 1027]",[],[],[3024],[],[],[3057],[],"[3025, 1001, 1029]",[],[],"[3047, 1028, 3363]",[],[],"[3211, 1029]",[],"[3065, 1029]",[],[],"[3076, 3082]",[],[]
participant_4_SOLD,[],[],[],[],[2403],[],[2003],[],[2403],[1027],[2403],[],[],[],"[3057, 3024]",[],[],"[1001, 1029, 3340]",[],[],[1028],[],"[3211, 3067]",[],[],"[1029, 1029]",[],[]
participant_4_UNDO,[],[],[],[],[],[],"[[0, 3057]]",[],[],[],[],[],[],[],[],[],[],[],[],[],[],[],[],[],[],[],[],[]
participant_5_GOLD,500,500,562,838,1252,1571,1792,2148,2444,2742,3048,3442,4151,4406,4613,5055,5178,5474,5884,7261,7620,8093,8327,8703,9115,9371,9845,10531
participant_5_CURRENTGOLD,500,0,62,338,752,1071,167,523,819,1117,173,567,1276,1531,1738,130,253,549,959,1536,445,168,402,778,1190,227,225,911
participant_5_LEVEL,1,1,1,3,4,5,6,6,7,8,8,9,10,10,10,10,10,11,11,12,12,12,12,13,13,14,14,15
participant_5_MINIONSKILLED,0,0,2,11,26,34,40,51,58,68,76,88,100,107,112,113,113,119,125,129,139,140,142,149,159,163,173,182
participant_5_KILLS,0,0,0,0,0,0,0,0,0,0,0,0,0,0,0,1,1,1,1,1,1,1,1,1,1,1,1,1
participant_5_BUY,[],"[3858, 2003, 2003, 3340]",[],[],[],[],"[1001, 1004, 1004, 2055, 2055]",[],[],[],[],[],"[3111, 3364, 1004, 1004]",[],[3028],[],"[3114, 2055]",[],[],[],"[3222, 1052, 2055, 2055]","[2055, 2055]",[],"[3113, 2055, 2055]",[2055],[2055],[],[]
participant_5_SOLD,[],[],[],[],[],[],[],[2055],[],[2055],"[2003, 2003]",[3858],"[1001, 3340]",[],"[1004, 1004]",[],"[1004, 1004]",[2055],[],[],"[3028, 3114, 2055]",[2055],"[2055, 3859]","[2055, 1052, 2055]",[],[2055],[2055],[2055]
participant_5_UNDO,[],[],[],[],[],[],[],[],[],[],[],[],[],[],[],[],[],[],[],[],[],[],[],[],[],[],[],[]
participant_6_GOLD,500,500,725,932,1432,1626,1939,2208,2533,2946,3203,3739,3961,4178,4406,4701,4824,5010,5203,5536,5848,6008,6331,6743,6935,7144,7441,7863
participant_6_CURRENTGOLD,500,0,225,82,582,776,14,283,608,21,278,814,1036,203,491,286,409,595,388,721,1033,393,716,1128,20,229,126,398
participant_6_LEVEL,1,1,2,3,3,3,4,4,5,6,6,7,7,7,8,8,8,8,8,9,9,10,10,11,11,11,12,12
participant_6_MINIONSKILLED,0,0,0,0,0,0,0,1,1,1,1,3,3,3,3,5,5,5,5,11,11,11,13,18,22,25,31,31
participant_6_KILLS,0,0,0,0,0,0,0,0,0,0,0,0,0,0,0,0,0,0,0,0,0,0,2,2,2,3,3,4
participant_6_BUY,[],"[1083, 2003, 3340]",[],[],[],[],"[1038, 2055]",[],[],[],[],[],"[3031, 1001, 2055]",[],"[3006, 1042]",[],"[1042, 1042, 2055]",[],[],[],"[3086, 3363]",[],[],"[3085, 1036, 1036]",[3035],"[1036, 1033]",[],[3155]
participant_6_SOLD,[],[],[],[],[],[],[],[2055],[],[],[2003],[1083],"[1038, 2055]",[],[1001],[],[],[],[],[2055],"[1042, 3340]",[],[],"[1042, 3086, 1042]","[1036, 1036]",[],[],"[1036, 1033]"
participant_6_UNDO,[],[],[],[],[],[],[],[],[],[],[],[],[],[],[],[],[],[],[],[],[],[],[],[],[],[],[],[]
participant_7_GOLD,500,500,625,915,1325,1749,2127,2459,2777,3091,3411,3878,4063,4375,5183,6151,6421,6651,8031,8633,8755,8915,9304,9643,9968,10624,10762,10884
participant_7_CURRENTGOLD,500,0,125,415,40,464,842,1174,207,521,841,128,313,275,1083,2051,386,151,1531,483,605,765,1154,243,568,1225,312,434
participant_7_LEVEL,1,1,1,3,4,5,6,7,7,8,8,9,9,10,10,11,11,11,12,13,13,13,13,13,13,14,14,14
participant_7_MINIONSKILLED,0,0,6,15,21,36,48,60,71,79,90,98,102,108,118,126,135,137,148,150,150,150,155,163,167,172,173,173
participant_7_KILLS,0,0,0,0,1,1,1,1,1,1,1,2,2,2,2,2,2,2,2,2,2,2,2,2,2,2,2,3
participant_7_BUY,[],"[1041, 3340, 2031, 3364]",[],[1039],[],[],"[3715, 1036, 1036, 2055]",[],[],"[1412, 2055]",[],[],[],"[1001, 1042, 1042, 2055, 2055]",[],[3006],[],[],[2015],[],[],[1018],[],[],[1038],[],[3095],"[2055, 2055]"
participant_7_SOLD,[],[3340],[],[],[],[],"[1039, 1041]",[2055],[],"[1036, 1036, 3715]",[2055],[],[3364],"[2055, 3513]",[2031],"[1001, 1042, 2055]",[],[],[1042],[],[],[],[],[],[],[],"[1038, 1018, 2015]",[]
participant_7_UNDO,[],[],[],[],[],[],[],[],[],[],[],[],[],[],[],[],[],[],[],[],[],[],[],[],[],[],[],[]
participant_8_GOLD,500,500,586,907,1262,1708,1927,2286,2713,3065,3497,4220,4727,5177,5370,5846,6011,6521,6824,6997,7372,7588,8705,8988,9416,9936,10373,11205
participant_8_CURRENTGOLD,500,0,86,407,762,1208,52,411,838,1190,1622,2525,557,1007,100,576,66,576,879,1082,357,573,1690,673,351,72,508,840
participant_8_LEVEL,1,1,1,2,3,4,4,5,5,6,7,7,7,8,8,9,9,10,10,10,11,11,11,12,12,13,13,14
participant_8_MINIONSKILLED,0,0,3,14,24,39,44,57,66,78,92,102,112,122,126,141,143,157,164,164,174,178,185,190,199,205,213,216
participant_8_KILLS,0,0,0,0,0,0,0,0,0,0,0,0,0,0,0,0,0,0,0,2,2,3,3,3,3,3,3,3
participant_8_BUY,[],"[1055, 2003, 3340]",[],[],[],[],"[3076, 2055, 2003]",[],[],[],[3044],[],[],[],[],"[3071, 1001]",[],[],[],"[3111, 3364]","[3105, 1036]",[3133],[],[],[],[3812],"[1028, 2055]",[]
participant_8_SOLD,[],[],[],[],[],[2003],[],[2055],[],[],[],[2003],[],[],[],[3044],[],[],[],"[1001, 3340]",[],[1036],[],[],[],"[1055, 3105, 3133]",[2055],[]
participant_8_UNDO,[],[],[],[],[],[],[],[],[],[],[],[],[],[],[],[],[],[],[],[],[],[],[],[],[],[],[],[]
participant_9_GOLD,500,500,564,698,914,1112,1268,1458,1741,1918,2083,2284,2533,2864,3026,3594,3734,3885,4196,4491,4773,4976,5283,5423,5578,5786,5956,6096
participant_9_CURRENTGOLD,500,0,64,198,414,612,68,258,541,718,883,1084,283,614,226,794,309,460,771,1067,263,316,623,199,278,411,581,722
participant_9_LEVEL,1,1,1,2,3,4,4,5,5,6,6,7,7,7,8,8,8,8,9,10,10,10,11,11,11,12,12,12
participant_9_MINIONSKILLED,0,0,2,2,4,5,6,9,10,12,14,18,20,22,23,25,25,25,26,27,30,34,36,36,37,38,39,39
participant_9_KILLS,0,0,0,0,0,0,0,0,0,0,0,0,0,0,1,2,2,2,4,5,5,5,5,5,5,6,6,6
participant_9_BUY,[],"[2033, 3340]",[],[],"[1082, 1052]",[],[],[],"[3070, 1052]",[],[],"[3802, 1001, 1033]",[],[3111],[],[],"[3003, 1033, 1052]",[3108],[],"[3102, 1052]",[],[],[],[1058],[],[],[1058],[]
participant_9_SOLD,[],[],[],[],[],[],[],[2010],[],[],[],"[2010, 2010, 1052, 1052]",[],"[1001, 1033]",[],[],"[3070, 3802]",[1052],[],"[3108, 1033]",[],[],[3003],[],[],[],[2033],[]
participant_9_UNDO,[],[],[],[],[],[],[],[],[],[],[],[],[],[],[],[],[],[],[],"[[0, 1052]]",[],[],[],[],[],[],[],[]
team0_KILLS,0,0,0,1,2,2,2,2,2,2,2,2,4,4,8,8,10,11,12,15,15,19,20,20,21,21,21,25
team0_CURRENTGOLD,2500,0,538,2437,2958,3520,4012,4872,4461,5740,5161,2440,3669,2588,3266,672,3688,5423,3208,3710,1705,5493,3779,6084,3707,1721,2063,5700
team0_TOTALGOLD,2500,2500,3038,4937,6633,8230,9872,11407,13021,14850,16336,17715,19994,22563,26241,27167,30183,32818,34443,37295,38220,42008,43129,45933,47446,49260,50472,54107
team0_LEVEL,5,5,6,13,18,22,24,28,31,34,37,38,42,44,47,47,52,54,57,58,58,62,62,66,67,68,68,72
team0_SBIRES,0,0,12,45,70,104,136,167,196,223,258,278,308,340,372,381,419,456,478,489,498,514,514,536,555,571,579,600
team1_KILLS,0,0,0,0,1,1,1,1,1,1,1,2,2,2,3,5,5,5,7,10,10,11,13,13,13,15,15,17
team1_CURRENTGOLD,2500,0,562,1440,2550,4131,1143,2649,3013,3567,3797,5118,3465,3630,3638,3837,1423,2331,4528,4889,2703,2215,4585,3021,2407,2164,1752,3305
team1_TOTALGOLD,2500,2500,3062,4290,6185,7766,9053,10559,12208,13762,15242,17563,19435,21000,22598,25347,26168,27541,30138,32918,34368,35580,37950,39500,41012,42861,44377,46579
team1_LEVEL,5,5,6,13,17,21,24,27,29,34,35,39,40,42,44,46,46,48,50,54,55,56,57,60,60,64,65,67
team1_SBIRES,0,0,13,42,75,114,138,178,206,238,273,309,337,362,382,410,421,443,468,481,504,513,531,556,584,603,629,641
delta_KILLS,0,0,0,1,1,1,1,1,1,1,1,0,2,2,5,3,5,6,5,5,5,8,7,7,8,6,6,8
delta_CURRENTGOLD,0,0,-24,997,408,-611,2869,2223,1448,2173,1364,-2678,204,-1042,-372,-3165,2265,3092,-1320,-1179,-998,3278,-806,3063,1300,-443,311,2395
delta_TOTALGOLD,0,0,-24,647,448,464,819,848,813,1088,1094,152,559,1563,3643,1820,4015,5277,4305,4377,3852,6428,5179,6433,6434,6399,6095,7528
delta_LEVEL,0,0,0,0,1,1,0,1,2,0,2,-1,2,2,3,1,6,6,7,4,3,6,5,6,7,4,3,5
delta_SBIRES,0,0,-1,3,-5,-10,-2,-11,-10,-15,-15,-31,-29,-22,-10,-29,-2,13,10,8,-6,1,-17,-20,-29,-32,-50,-41
