name,team0,team1
win,Win,Fail
firstBlood,False,True
firstTower,True,False
firstInhibitor,False,False
firstBaron,False,False
firstDragon,False,True
firstRiftHerald,False,True
towerKills,2,1
inhibitorKills,0,0
baronKills,0,0
dragonKills,2,1
riftHeraldKills,1,1
