name,frame_0,frame_1,frame_2,frame_3,frame_4,frame_5,frame_6,frame_7,frame_8,frame_9,frame_10,frame_11,frame_12,frame_13,frame_14,frame_15,frame_16,frame_17,frame_18,frame_19,frame_20,frame_21,frame_22,frame_23,frame_24,frame_25,frame_26,frame_27,frame_28,frame_29,frame_30,frame_31,frame_32,frame_33,frame_34,frame_35
nameStamp,Tstart,Tearly,Tearly,Tearly,Tearly,Tearly,Tearly,Tearly,Tearly,Tearly,Tearly,Tearly,Tmid,Tmid,Tmid,Tmid,Tmid,Tmid,Tmid,Tmid,Tmid,Tmid,Tmid,Tmid,Tmid,Tmid,Tmid,Tmid,Tmid,Tmid,Tmid,Tmid,Tend,Tend,Tend,Tend
timestamp,0,60029,120061,180084,240104,300131,360156,420181,480203,540229,600242,660263,720287,780320,840338,900370,960389,1020404,1080416,1140438,1200452,1260482,1320512,1380541,1440562,1500585,1560606,1620613,1680636,1740642,1800666,1860690,1920708,1980729,2040757,2100757
participant_0_GOLD,500,500,584,839,990,1378,1606,1815,2153,2325,2701,3214,3636,4061,4356,4744,4895,5282,5551,6169,6661,7084,7430,7793,8181,8574,9129,9530,9763,10109,10440,11155,11278,12016,12238,12405
participant_0_CURRENTGOLD,500,0,84,339,285,673,901,275,613,350,726,1239,81,506,801,1189,290,677,946,329,821,579,925,1288,1676,469,1024,1425,409,754,1085,611,733,1472,1694,1780
participant_0_LEVEL,1,1,1,3,3,4,5,6,7,7,8,8,9,9,10,10,10,11,11,12,12,13,13,13,13,14,15,15,15,15,16,16,16,17,17,17
participant_0_MINIONSKILLED,0,0,3,11,13,25,31,33,43,46,58,65,65,82,88,100,102,113,121,128,132,145,152,153,165,172,189,201,203,212,220,226,226,241,241,242
participant_0_KILLS,0,0,0,0,0,0,0,0,0,0,0,0,1,1,1,1,1,1,1,1,2,2,2,2,2,2,2,2,2,2,2,2,2,2,2,2
participant_0_BUY,[],"[1056, 2003, 2003, 3340]",[],[],"[1001, 2031, 2055]",[],[],"[1028, 1052]",[],[1052],[],[],"[3802, 1026, 1001]",[],[],[],[3285],[],[],"[3020, 1052]",[],[3136],[],[],[],[3151],[],[],[1058],[],[],[1058],[],[],[],[]
participant_0_SOLD,[],[],[],[],"[2003, 2003]",[],[],[],[],[2055],[],[],"[1052, 1052]",[],[],[],"[3802, 1026]",[],[],[1001],[],"[1028, 1052]",[],[],[],[3136],[],[],[],[],[],[2031],[],[],[],[]
participant_0_UNDO,[],[],[],[],"[[0, 1001]]",[],[],[],[],[],[],[],[],[],[],[],[],[],[],[],[],[],[],[],[],[],[],[],[],[],[],[],[],[],[],[]
participant_1_GOLD,500,500,636,1023,1263,1470,1678,1905,2412,2740,2962,3135,3492,3758,4000,4412,4682,5113,5236,5622,6079,6491,6797,6971,7192,7411,8471,9009,9131,9797,9920,11762,12154,12663,12785,12890
participant_1_CURRENTGOLD,500,0,136,523,763,195,403,80,587,915,1137,60,417,683,25,437,707,1138,161,147,604,616,122,296,517,736,1146,1684,106,72,195,537,629,638,761,865
participant_1_LEVEL,1,1,2,3,3,4,4,4,5,5,6,6,7,7,8,8,9,9,9,10,11,11,12,12,12,12,13,13,13,14,14,15,16,16,16,16
participant_1_MINIONSKILLED,0,0,0,0,0,0,0,0,0,0,0,0,0,0,8,8,9,9,9,9,10,10,10,10,11,11,16,16,16,16,16,16,16,17,17,19
participant_1_KILLS,0,0,0,0,2,2,2,3,3,3,3,3,4,4,4,4,4,4,4,5,5,5,5,5,5,6,6,7,7,7,7,7,7,8,8,10
participant_1_BUY,[],"[1055, 2003, 3340]",[],[],[],[],"[1038, 1001]",[],[],[],[],"[3031, 1042]",[],[],"[3006, 1042, 1018]",[3086],[],"[1042, 1042]",[],"[3085, 2420, 1029]",[],[],[1031],[],[],"[3026, 1042, 1018]",[],[],"[3086, 2015]","[3094, 1036]",[],[1053],[],[],[3072],[]
participant_1_SOLD,[],[],[],[2003],[],[],[],[],[],[],[],[1038],[],[],"[1001, 1042]","[1018, 1042]",[],[],[],"[1042, 3086, 1042]",[],[],"[1029, 2420]",[],[],"[1031, 2421, 1055]",[],[],"[1018, 1042]","[3086, 2015]",[],[1036],[],[],[1053],[]
participant_1_UNDO,[],[],[],[],[],[],[],[],[],[],[],[],[],[],[],[],[],[],[],[],[],[],[],[],[],[],[],[],[],[],[],[],[],[],[],[]
participant_2_GOLD,500,500,591,899,1483,1759,1917,2273,2719,2998,3410,3917,4039,4362,4889,5011,5260,6024,6196,6452,8345,8579,9239,9534,9951,10387,10510,10812,10934,11504,11849,12616,12748,13061,13184,13260
participant_2_CURRENTGOLD,500,0,91,399,983,1259,317,673,1119,258,670,327,449,772,1299,371,620,1384,721,212,2105,89,750,609,1027,1463,220,522,644,1214,310,1077,1209,1522,434,270
participant_2_LEVEL,1,1,1,3,4,5,6,6,7,8,8,9,9,9,10,10,11,11,11,11,12,13,13,13,13,13,13,14,14,14,15,15,15,16,16,16
participant_2_MINIONSKILLED,0,0,4,12,21,28,30,41,48,54,58,60,60,69,73,73,81,83,86,91,92,94,99,100,101,111,111,114,114,119,128,128,129,131,131,131
participant_2_KILLS,0,0,0,0,0,0,0,0,1,1,1,1,1,1,1,1,1,2,2,2,2,2,2,2,2,2,3,3,3,4,4,6,6,6,6,6
participant_2_BUY,[],"[1041, 1006, 3340]",[],[],[],"[1036, 1036, 2055, 3364]",[],"[3077, 2055]",[],[],[],"[3706, 1001, 1029]",[],[],[3751],[],[],[],"[1401, 3047]",[1028],[],[1028],[3052],[],[],[],"[3748, 2055]",[],"[3076, 1028, 1029]",[3082],[],"[3075, 1011]",[1029],[1031],[],[]
participant_2_SOLD,[],[],[],[],[],[3340],[],"[1036, 1006, 1036]",[2055],[],[],[1041],[],[],[],[],[],[],"[3751, 3706, 1001, 1029]",[],[],[],"[2055, 1028]",[],[],[],"[3077, 1028, 3052, 2055]",[],[],[1029],[],"[3076, 1028, 3082]",[],[1029],[],[]
participant_2_UNDO,[],[],[],[],[],[],[],[],[],[],[],[],[],[],[],[],[],[],[],[],[],[],[],[],[],[],[],[],[],[],[],[],[],[],[],[]
participant_3_GOLD,500,500,521,871,1760,2217,2368,2931,3413,3768,4198,4783,5815,6148,6511,6668,7049,7367,7792,8684,9078,9507,9979,10371,10924,11511,11934,12593,12987,13352,13607,14495,15086,16263,16671,17397
participant_3_CURRENTGOLD,500,0,21,371,1260,1717,268,831,1313,1668,2098,283,1315,1648,411,268,649,367,792,134,528,957,929,1322,1874,191,614,1274,667,183,437,776,1367,2544,351,897
participant_3_LEVEL,1,1,1,2,3,4,4,5,5,6,6,7,8,8,8,8,9,9,10,10,11,11,11,12,12,13,13,14,14,14,15,16,16,16,17,17
participant_3_MINIONSKILLED,0,0,0,11,18,25,27,36,49,59,68,76,84,84,88,90,102,105,116,118,129,143,147,152,159,163,171,179,187,187,191,191,204,221,229,236
participant_3_KILLS,0,0,0,0,1,1,1,1,1,1,2,3,3,3,4,4,4,5,5,5,8,8,9,9,10,10,10,10,10,11,11,12,12,12,12,12
participant_3_BUY,[],"[1056, 2003, 2003, 3340]",[],[],[],[],[3020],[],[],"[1052, 1052, 3802]",[],[1026],[],[],[],[3285],[],[],"[1028, 1052]",[3916],[],"[3165, 1026]",[],[1052],[],[],[3135],[],[],[],[1058],[3363],[],[],[1058],[]
participant_3_SOLD,[],[],[],[2003],[],[2403],"[2003, 2403]",[2403],[],"[1056, 1052, 1052]",[2419],[2423],[],[],[],"[3802, 1026]",[],[],[],"[1028, 1052]",[],[3916],[],[],[],[],"[1026, 1052]",[],[],[],[],[3340],[2424],[],[2424],[]
participant_3_UNDO,[],[],[],[],[],[],[],[],[],[],[],[],[],[],[],[],[],[],[],[],[],[],[],[],[],[],[],[],[],[],[],[],"[[2424, 0]]",[],[],[]
participant_4_GOLD,500,500,523,752,1194,1391,1547,1874,2103,2309,2638,3117,3274,3743,3883,4155,4338,4638,4778,5158,5309,5470,5922,6303,6484,7018,7323,7807,7947,8417,8557,9136,9287,9840,9981,10289
participant_4_CURRENTGOLD,500,0,23,252,694,216,372,699,928,1134,1463,167,324,792,158,430,613,913,303,683,234,395,847,1228,334,869,1173,1657,422,892,157,737,387,940,311,589
participant_4_LEVEL,1,1,1,2,3,4,4,5,5,6,7,7,8,8,8,8,8,9,9,9,10,10,10,10,11,11,12,12,12,13,13,14,14,15,15,15
participant_4_MINIONSKILLED,0,0,0,3,4,5,6,9,10,11,13,14,15,15,15,20,22,22,22,23,24,25,27,28,30,32,33,34,34,34,34,35,35,35,35,35
participant_4_KILLS,0,0,0,0,0,0,0,0,0,0,0,0,0,1,1,1,1,1,1,2,2,2,2,2,2,3,3,4,4,5,5,5,5,6,6,6
participant_4_BUY,[],"[3858, 2003, 3340, 2003]",[],[],[],"[1001, 1029, 2055]",[],[],[],[],[],"[3024, 3105, 2055]",[],[],"[3050, 1033, 2055, 3364]",[],[],[],"[3111, 1028]",[],[1011],[],[],[],"[3082, 2055]",[],[],[],"[3143, 1028, 2055]",[],"[3211, 2055]",[],[2138],[],[3067],[]
participant_4_SOLD,[],[],[],[2010],[2003],[],[2055],[],[],"[2010, 2003, 2010]",[],[1029],[3858],[2055],"[3105, 3024, 3340]",[],[],[],"[1001, 1033]",[],[1028],[],[],[2055],[],"[2055, 3859]",[],[],"[3082, 1011]",[2055],[1028],[],[2138],[],[2055],[]
participant_4_UNDO,[],[],[],[],[],[],[],[],[],[],[],[],[],[],[],[],[],[],[],[],[],[],[],[],[],[],[],[],[],[],[],[],[],[],[],[]
participant_5_GOLD,500,500,584,790,1445,1686,1900,2806,2999,3403,3567,3806,4677,4884,5069,5360,5616,5849,6187,6687,6809,6931,7054,7227,7468,7640,8071,8500,8622,8845,9067,9443,10088,10224,10346,10423
participant_5_CURRENTGOLD,500,0,84,290,90,331,545,1451,444,848,1012,1251,2122,629,814,1105,411,294,632,157,279,401,524,697,938,310,740,195,317,540,312,688,1333,719,222,98
participant_5_LEVEL,1,1,1,3,4,4,5,6,7,7,8,8,9,9,10,10,10,11,11,11,11,11,12,12,12,12,13,13,13,14,14,14,15,15,15,15
participant_5_MINIONSKILLED,0,0,3,8,15,19,24,35,40,53,55,56,60,62,66,76,77,79,88,94,94,94,94,97,100,100,109,115,115,115,115,121,138,139,139,139
participant_5_KILLS,0,0,0,0,0,0,1,1,2,2,2,3,4,5,5,6,6,6,6,7,7,7,7,7,7,7,7,8,9,11,11,11,11,12,12,12
participant_5_BUY,[],"[1056, 2003, 2003, 3340]",[],[],[],[1027],[],[],"[3802, 1001]",[3020],[],[],"[1026, 2420]",[],[3285],[],[],[3191],[],[3157],[],[],[],[1058],[],[],[],[1058],[3089],[],[],[],[3136],[],[],[3151]
participant_5_SOLD,[],[],[],[],"[2003, 2003]",[],[],[],[1027],[1001],[],[],[],[2420],"[3802, 1026]",[],[],[],[],"[3191, 2421]",[3400],[],[],[],[],[],[],[],"[1058, 1058]",[],[],[],[],[],[],[3136]
participant_5_UNDO,[],[],[],[],[],[],[],[],[],[],[],[],[],[],[],[],[],[],[],[],[],[],[],[],[],[],[],[],[],[],[],[],[],[],[],[]
participant_6_GOLD,500,500,621,1018,1376,1575,1904,2230,2557,2950,3305,3908,4255,5666,6439,6966,7825,8768,9555,10359,10654,11093,11666,11870,12118,12558,12931,13227,13919,15231,15453,16107,16229,17132,17506,17582
participant_6_CURRENTGOLD,500,150,271,668,1026,275,604,230,557,950,1305,1908,230,1641,2414,2941,3800,1143,1930,2734,179,619,1191,1395,1644,2083,807,1103,1794,3107,404,1058,1180,2083,282,357
participant_6_LEVEL,1,1,2,3,4,4,5,5,6,7,7,8,8,9,10,10,11,11,12,13,13,13,14,14,14,14,15,15,16,16,16,16,16,17,17,17
participant_6_MINIONSKILLED,0,0,0,0,0,0,0,0,0,0,0,1,5,15,19,19,29,35,36,36,42,46,47,50,50,54,64,69,80,80,80,80,80,81,81,81
participant_6_KILLS,0,0,0,0,0,0,0,0,0,0,0,1,1,1,2,2,3,5,6,7,7,7,8,8,8,8,8,8,8,10,10,11,11,13,13,13
participant_6_BUY,[],"[1041, 3340]",[],[],[],"[3715, 1042]",[],[1043],[],[],[],[],"[1419, 3006, 1042]",[],[],[],[],"[3153, 1042, 1042]",[],[],"[3124, 1036]",[],[],[],[],[],"[3133, 1053]",[],[],[],"[3812, 3077]",[],[],[],[3074],[]
participant_6_SOLD,[],[],[],[],[],[1041],[],[1042],[],[],[3340],[],"[1043, 3715]",[3513],[],[],[],[1042],[],[],"[1042, 1042]",[],[],[],[],[],[1036],[],[],[],"[1053, 3133]",[],[],[],[3077],[]
participant_6_UNDO,[],[],[],[],[],[],[],[],[],[],[],[],[],[],[],[],[],[],[],[],[],[],[],[],[],[],[],[],[],[],[],[],[],[],[],[]
participant_7_GOLD,500,500,570,895,1074,1308,1920,2213,2753,2981,3308,4103,4588,5460,5601,6317,6647,6872,7092,7803,8225,8634,9029,9153,9666,10138,10526,11112,11776,12632,13377,13499,13664,14692,15086,15177
participant_7_CURRENTGOLD,500,0,70,395,574,458,1070,1363,653,81,408,1203,188,1060,151,867,1197,322,542,103,525,934,1329,203,716,1188,1576,912,477,1332,2078,2200,864,1893,2287,777
participant_7_LEVEL,1,1,1,3,4,4,5,6,7,7,8,9,10,10,10,11,11,11,11,12,12,12,13,13,14,14,14,14,15,15,16,16,16,17,17,17
participant_7_MINIONSKILLED,0,0,3,14,17,23,34,41,45,51,60,69,73,73,73,87,92,94,100,106,106,119,135,135,154,154,165,166,169,177,186,186,189,199,211,212
participant_7_KILLS,0,0,0,0,0,0,0,0,0,0,0,0,0,0,0,0,0,0,0,0,0,0,0,0,0,1,1,1,1,1,1,2,2,2,2,2
participant_7_BUY,[],"[1055, 2003, 3340]",[],[],[1055],[2003],[],"[1036, 1036]",[],[],[3134],[],[],[],[3158],"[1036, 1036]",[],[],[3179],"[2055, 3363]",[],[1036],[],[3134],[],[],[3133],[],[],"[3142, 1036]",[3134],[],[],[],[3814],[]
participant_7_SOLD,[],[],[],[2003],[2010],[],[],[],[2003],"[2010, 2010]",[1036],[],[],[],[2422],[],[],[],"[3134, 1036, 1036]",[3340],[],[],[],[1036],[],[],[2055],[],[],"[3133, 3134]",[1036],[],[],[],[3134],[]
participant_7_UNDO,[],[],[],[],[],[],[],"[[0, 1036]]",[],[],[],[],[],[],[],[],[],[],[],"[[3363, 0]]",[],[],[],[],[],[],[],[],[],[],[],[],[],[],[],[]
participant_8_GOLD,500,500,542,804,1001,1305,1589,1711,1980,2166,2381,2726,3010,3285,3450,3600,3850,3972,4094,4449,4771,4943,5219,5509,5702,6862,7015,7306,7681,7939,8467,9048,9373,9845,10330,10420
participant_8_CURRENTGOLD,500,0,42,304,51,305,589,361,630,816,281,626,910,1185,750,200,450,572,94,374,696,518,794,334,527,1687,770,1061,1436,644,422,1003,1328,1800,485,545
participant_8_LEVEL,1,1,1,2,3,4,5,5,6,7,7,7,8,8,8,9,9,9,9,9,10,10,10,10,11,11,11,12,12,12,13,14,14,15,15,15
participant_8_MINIONSKILLED,0,0,1,9,11,19,28,28,37,41,43,52,58,60,62,64,69,69,69,69,78,81,90,96,100,107,108,116,121,123,133,140,143,146,160,161
participant_8_KILLS,0,0,0,0,1,1,1,2,2,2,2,2,3,3,3,3,3,3,3,3,3,3,3,3,3,3,3,3,3,3,3,3,3,3,3,3
participant_8_BUY,[],"[1054, 3340, 2003]",[],[],"[1001, 1036, 2031, 2055]",[],[],[],"[3111, 1028]",[],[],[],[],"[3044, 3067, 1028]",[],[],[3071],[1036],[],[3077],[],[],[],[],[],[3052],[],[3748],[],[],[1033],[],[],[3211],[3067],[]
participant_8_SOLD,[],[],[],[],[2003],[2055],[],[],[1001],[],[],[],[],"[1028, 1036]",[],[],"[3044, 3067]",[],[],[1036],[],[],[],[],[],[1028],[],"[3077, 3052]",[],[],[],[],[],[1033],[1054],[]
participant_8_UNDO,[],[],[],[],[],[],[],[],[],[],[],[],[],[],[],[],[],[],[],[],[],[],[],[],[],[],[],[],[],[],[],[],[],[],[],[]
participant_9_GOLD,500,500,523,699,894,1091,1397,1913,2198,2332,2567,2701,2972,3262,3436,3613,4137,4436,4730,5048,5483,5923,6064,6215,6377,6835,7005,7217,7357,7582,7823,7963,8223,8364,8504,8592
participant_9_CURRENTGOLD,500,0,23,199,94,291,247,763,348,132,367,101,372,312,486,313,437,735,330,648,1083,223,364,165,326,385,555,767,407,632,473,213,473,614,754,842
participant_9_LEVEL,1,1,1,1,2,3,3,4,5,5,5,5,6,6,6,6,7,8,9,9,10,10,10,10,10,11,11,11,11,12,12,12,13,13,14,14
participant_9_MINIONSKILLED,0,0,0,2,3,6,7,9,9,9,9,9,9,10,12,14,17,18,19,19,19,19,19,19,20,23,24,25,25,27,27,27,29,29,29,29
participant_9_KILLS,0,0,0,0,0,0,0,1,1,1,1,1,1,1,1,1,1,1,1,1,2,2,2,2,2,2,2,2,2,2,2,2,2,2,2,2
participant_9_BUY,[],"[3340, 2003, 2003, 3854]",[],[],[1001],[],[1036],[],[3117],[1036],[],[3133],[3364],[1036],[],[1036],[3134],[],[3147],[],[],[3140],[],[1036],[],[1028],[],[],[3044],[],[1028],[3067],[],[],[],[]
participant_9_SOLD,[],[],[2003],[2003],[],[],[],[],[1001],[],[],"[1036, 1036]",[3340],[],[],[],"[1036, 1036]",[],"[3134, 3133]",[],[3854],[3400],[],[],[],[],[],[],"[1028, 1036]",[],[],[1028],[],[],[3855],[]
participant_9_UNDO,[],[],[],[],[],[],[],[],[],[],[],[],[],[],[],[],[],[],[],[],[],[],[],[],[],[],[],[],[],[],[],[],[],[],[],[]
team0_KILLS,0,0,0,0,3,3,3,4,5,5,6,7,9,10,11,11,11,13,13,15,19,19,20,20,21,23,24,26,26,29,29,32,32,34,34,36
team0_CURRENTGOLD,2500,0,355,1884,3985,4060,2261,2558,4560,4325,6094,2076,2586,4401,2694,2695,2879,4479,2923,1505,4292,2636,3573,4743,5428,3728,4177,6562,2248,3115,2184,3738,4325,7116,3551,4401
team0_TOTALGOLD,2500,2500,2855,4384,6690,8215,9116,10798,12800,14140,15909,18166,20256,22072,23639,24990,26224,28424,29553,32085,35472,37131,39367,40972,42732,44901,47367,49751,50762,53179,54373,59164,60553,63843,64859,66241
team0_LEVEL,5,5,6,13,16,21,23,26,29,32,35,37,41,41,44,44,47,49,50,52,56,58,59,60,61,63,66,68,68,70,73,76,77,80,81,81
team0_SBIRES,0,0,7,37,56,83,94,119,150,170,197,215,224,250,272,291,316,332,354,369,387,417,435,443,466,489,520,544,554,568,589,596,610,645,653,663
team1_KILLS,0,0,0,0,1,1,2,4,5,5,5,7,9,10,11,12,13,15,16,18,19,19,20,20,20,21,21,22,23,27,27,29,29,32,32,32
team1_CURRENTGOLD,2500,150,490,1856,1835,1660,3055,4168,2632,2827,3373,5089,3822,4827,4615,5426,6295,3066,3528,4016,2762,2695,4202,2794,4151,5653,4448,4038,4431,6255,3689,5162,5178,7109,4030,2619
team1_TOTALGOLD,2500,2500,2840,4206,5790,6965,8710,10873,12487,13832,15128,17244,19502,22557,23995,25856,28075,29897,31658,34346,35942,37524,39032,39974,41331,44033,45548,47362,49355,52229,54187,56060,57577,60257,61772,62194
team1_LEVEL,5,5,6,12,17,19,23,26,31,33,35,37,41,42,44,46,48,50,52,54,56,56,59,59,61,62,64,65,67,69,71,72,74,77,78,78
team1_SBIRES,0,0,7,33,46,67,93,113,131,154,167,187,205,220,232,260,284,295,312,324,339,359,385,397,424,438,470,491,510,522,541,554,579,594,620,622
delta_KILLS,0,0,0,0,2,2,1,0,0,0,1,0,0,0,0,-1,-2,-2,-3,-3,0,0,0,0,1,2,3,4,3,2,2,3,3,2,2,4
delta_CURRENTGOLD,0,-150,-135,28,2150,2400,-794,-1610,1928,1498,2721,-3013,-1236,-426,-1921,-2731,-3416,1413,-605,-2511,1530,-59,-629,1949,1277,-1925,-271,2524,-2183,-3140,-1505,-1424,-853,7,-479,1782
delta_TOTALGOLD,0,0,15,178,900,1250,406,-75,313,308,781,922,754,-485,-356,-866,-1851,-1473,-2105,-2261,-470,-393,335,998,1401,868,1819,2389,1407,950,186,3104,2976,3586,3087,4047
delta_LEVEL,0,0,0,1,-1,2,0,0,-2,-1,0,0,0,-1,0,-2,-1,-1,-2,-2,0,2,0,1,0,1,2,3,1,1,2,4,3,3,3,3
delta_SBIRES,0,0,0,4,10,16,1,6,19,16,30,28,19,30,40,31,32,37,42,45,48,58,50,46,42,51,50,53,44,46,48,42,31,51,33,41
