name,frame_0,frame_1,frame_2,frame_3,frame_4,frame_5,frame_6,frame_7,frame_8,frame_9,frame_10,frame_11,frame_12,frame_13,frame_14,frame_15,frame_16,frame_17,frame_18,frame_19,frame_20,frame_21,frame_22,frame_23,frame_24,frame_25,frame_26,frame_27
nameStamp,Tstart,Tearly,Tearly,Tearly,Tearly,Tearly,Tearly,Tearly,Tearly,Tearly,Tearly,Tearly,Tearly,Tearly,Tearly,Tmid,Tmid,Tmid,Tmid,Tmid,Tmid,Tmid,Tmid,Tmid,Tmid,Tmid,Tmid,Tmid
timestamp,0,60025,120051,180072,240091,300116,360134,420164,480180,540203,600220,660235,720251,780271,840285,900304,960329,1020350,1080369,1140381,1200399,1260424,1320439,1380456,1440476,1500494,1560510,1620537
participant_0_GOLD,500,500,542,1291,1526,1853,2263,2507,2797,3046,3626,3958,4380,5151,5428,5719,6348,7336,7821,8166,8518,9161,10172,10294,11495,12049,12646,13813
participant_0_CURRENTGOLD,500,0,42,791,1026,1353,1763,32,322,571,51,383,305,1076,303,594,1223,2211,1263,508,860,283,1294,317,1517,571,1169,2335
participant_0_LEVEL,1,1,1,3,4,5,6,6,7,8,8,9,9,10,11,11,12,12,13,13,13,14,14,14,15,15,15,16
participant_0_MINIONSKILLED,0,0,1,10,16,18,32,37,47,54,60,69,69,79,85,95,104,111,118,127,127,127,131,131,145,149,150,154
participant_0_KILLS,0,0,0,1,1,1,1,1,1,1,2,2,3,4,4,4,5,6,7,7,7,8,10,10,12,12,13,15
participant_0_BUY,[],"[1054, 2003, 3340]",[],[],[],[],[],"[3047, 1036, 1028, 2055, 2003]",[],[],"[3044, 1042, 1042]",[],[3101],[],[3057],[],[],[],"[3078, 3134]",[3133],[],"[3142, 1036, 1036]",[],"[3134, 1036, 1036]",[],"[3147, 1028]",[],[]
participant_0_SOLD,[],[],[],[2003],[],[],[],[],[2055],[],"[1028, 1036]",[],"[2003, 1042, 1042]",[],[],[],[],[],"[3101, 3057, 3044]",[],[],"[3133, 3134, 1054]",[],"[1036, 1036]",[],"[3134, 1036, 1036]",[],[]
participant_0_UNDO,[],[],[],[],[],[],[],[],[],[],[],[],[],[],[],[],[],[],[],[],[],[],[],[],[],[],[],[]
participant_1_GOLD,500,500,606,963,1271,1798,2141,2682,3094,3352,3764,4071,4697,5053,5428,5948,6361,6918,7174,7770,8687,9464,9952,10159,11075,11439,11756,12841
participant_1_CURRENTGOLD,500,0,106,463,771,1298,341,882,1294,1552,689,996,822,1178,303,823,1236,43,299,895,1812,2589,3137,144,1060,1424,291,1377
participant_1_LEVEL,1,1,2,3,3,4,5,5,6,6,7,7,9,9,9,10,10,11,11,12,12,13,13,13,14,14,15,15
participant_1_MINIONSKILLED,0,0,0,0,0,0,0,1,1,1,1,1,6,7,7,7,7,7,10,13,13,19,19,19,21,26,26,30
participant_1_KILLS,0,0,0,0,0,0,0,0,0,1,2,3,3,4,5,5,5,6,6,8,8,9,9,9,9,10,10,11
participant_1_BUY,[],"[1055, 2003, 3340]",[],[],[],"[1036, 1042]",[],[],[],"[1038, 1001]",[],"[3006, 1053]",[],[],[],"[3031, 1042, 1042]",[],[],[],[3087],"[1038, 1038]",[],[],[],[],"[3072, 1018]",[],[]
participant_1_SOLD,[],[],[],[2003],[],[],[],[],[],[],[],"[1001, 1042, 1036]",[],[],[],[1038],[],[],[],"[1042, 1042, 1055]",[1055],[],[],[],[],"[1038, 1053]",[],[]
participant_1_UNDO,[],[],[],[],[],[],[],[],[],[],[],[],[],[],[],[],[],[],[],"[[1055, 0]]","[[0, 1038]]",[],[],[],[],[],[],[]
participant_2_GOLD,500,500,563,801,1314,1478,1751,2135,2438,2701,3061,3480,3693,3915,4193,4511,4789,5941,6091,6214,7305,8513,8971,9115,10102,10374,11347,12071
participant_2_CURRENTGOLD,500,0,63,301,814,153,426,160,463,726,1086,1505,143,365,643,961,1239,2391,2541,364,1455,2663,3121,215,1202,125,1097,1821
participant_2_LEVEL,1,1,1,3,4,5,6,6,7,8,8,9,9,10,10,11,11,12,12,12,13,14,14,14,15,15,15,16
participant_2_MINIONSKILLED,0,0,2,7,11,14,20,26,34,42,50,58,63,68,74,82,91,107,109,109,122,130,130,131,131,131,142,155
participant_2_KILLS,0,0,0,0,0,0,0,0,0,0,0,0,0,0,1,1,1,1,1,2,2,2,2,2,2,2,2,2
participant_2_BUY,[],"[3858, 2003, 2003, 3340]",[],[],[],[],[],[],[],[],[],[],"[3028, 3009, 2003, 2003]",[],[],[3174],[],[],[],"[3114, 1028]",[],[],[],[3107],[],[],[],[]
participant_2_SOLD,[],[],[],[],[2003],[2003],[],[],[],[],[],[],[],[],"[2003, 2003]",[3028],[],[],[],[],[],[],[],"[3114, 1028]",[],[],[],[]
participant_2_UNDO,[],[],[],[],[],[],[],[],[],[],[],[],[],[],[],[],[],[],[],[],[],[],[],[],[],[],[],[]
participant_3_GOLD,500,500,584,957,1167,1373,1772,2016,2375,2828,3649,4092,4551,5373,6511,6634,6948,7887,8496,9502,9750,10483,10605,10925,11297,12009,12131,12723
participant_3_CURRENTGOLD,500,0,84,457,667,223,622,866,1225,78,899,292,751,1573,2711,134,448,1387,1996,1002,130,863,985,1306,1677,289,412,1003
participant_3_LEVEL,1,1,1,2,3,3,4,5,6,6,6,7,7,8,9,9,9,10,11,11,12,12,12,13,13,13,13,14
participant_3_MINIONSKILLED,0,0,3,13,17,19,33,39,50,50,60,60,76,88,96,96,103,120,130,137,137,139,139,145,148,152,152,158
participant_3_KILLS,0,0,0,0,1,1,1,1,1,1,1,1,1,1,1,1,1,2,2,2,4,5,5,5,7,7,8,8
participant_3_BUY,[],"[3340, 1056, 2003, 2003]",[],[],[],"[1027, 1028, 2055]",[],"[1001, 3010]",[],[],[],[],"[3027, 2055]",[],[],[],[],[],[],"[3020, 3108, 1042, 1042]",[],[],[],"[3115, 2420, 3108]",[],[3157],[],[]
participant_3_SOLD,[],[],[],[2003],[2003],[],[2055],"[1028, 1027]",[],[],[],[],[3010],[2055],[],[],[],[],[],[1001],[],[],[],"[1042, 1042, 3108]",[],"[3108, 2420]",[],[]
participant_3_UNDO,[],[],[],[],[],[],[],[],[],[],[],[],[],[],[],[],[],[],[],[],[],[],[],[],[],[],[],[]
participant_4_GOLD,500,500,523,657,802,1041,1176,1340,1474,1665,1970,2297,2441,2885,3787,3921,4096,4340,4505,4859,5118,5569,5878,6013,6607,6941,7225,7666
participant_4_CURRENTGOLD,500,0,23,157,302,541,676,840,974,1165,1470,1797,141,585,1487,321,496,740,905,59,318,769,1078,313,907,1240,1525,1965
participant_4_LEVEL,1,1,1,2,3,4,4,5,5,6,7,7,7,8,9,9,9,10,10,11,11,11,12,12,13,13,13,14
participant_4_MINIONSKILLED,0,0,0,0,0,3,3,4,4,7,8,11,11,11,11,11,12,12,13,13,13,13,14,14,14,17,17,19
participant_4_KILLS,0,0,0,0,0,1,1,2,2,2,2,2,3,3,3,4,4,4,4,4,5,6,7,7,8,8,8,9
participant_4_BUY,[],"[1039, 2031, 3340]",[],[],[],[],"[3706, 1001, 1036]",[],[],[],[1400],[],[3111],[],[3044],[],[],[3071],[],[],[],[],[],[3053],[],[],"[3105, 1036]",[]
participant_4_SOLD,[],[],[],[],[],[],[1039],[],[],[],"[1036, 3706]",[],[1001],[],[],[],[],[3044],[],[],[],[],[2031],[],[],[],[],[]
participant_4_UNDO,[],[],[],[],[],[],[],[],[],[],[],[],[],[],[],[],[],[],[],[],[],[],[],[],[],[],[],[]
participant_5_GOLD,500,500,584,811,1071,1354,1624,1889,2053,2312,2839,3156,3881,4038,4217,4528,4728,4864,5896,6619,6804,7331,8198,8320,8600,9409,9726,9850
participant_5_CURRENTGOLD,500,0,84,311,571,854,1124,1389,128,387,164,481,706,263,442,753,120,256,1288,2011,196,323,790,112,92,901,119,242
participant_5_LEVEL,1,1,1,2,4,5,5,6,6,7,8,8,9,9,9,10,10,11,11,12,12,12,13,13,13,14,14,14
participant_5_MINIONSKILLED,0,0,3,9,14,21,29,35,37,46,52,60,67,69,72,79,84,85,97,110,114,116,120,120,125,135,142,142
participant_5_KILLS,0,0,0,0,0,0,0,0,0,0,1,1,1,1,1,1,1,1,2,2,2,3,4,4,4,5,5,5
participant_5_BUY,[],"[1054, 2003, 3340]",[],[],[],[],[],[],"[3057, 1001, 2055]",[],"[1028, 1036]",[],[3044],"[1042, 1042]",[],[],[3078],[],[],[],"[3047, 3211]",[1028],[3067],[3065],[1029],[],"[3082, 1028]",[]
participant_5_SOLD,[],[],[],"[2003, 2010]",[],[2010],[],[2010],[],[2055],[],[],"[1028, 1036]",[],[],[],"[1042, 1042, 3057, 3044]",[],[],[],[1001],[],[1028],"[3211, 3067]",[],[],[1029],[]
participant_5_UNDO,[],[],[],[],[],[],[],[],[],[],[],[],[],[],[],[],[],[],[],[],[],[],[],[],[],[],[],[]
participant_6_GOLD,500,500,621,1033,1368,1490,1880,2352,2599,2997,3552,3775,4217,4488,5031,5578,5787,6878,7320,7493,7715,7933,8525,9042,9297,9739,9861,9985
participant_6_CURRENTGOLD,500,0,121,533,868,40,430,202,449,847,1402,1625,117,388,631,378,587,295,737,510,732,210,802,1319,724,1166,489,612
participant_6_LEVEL,1,1,2,3,4,4,5,5,6,6,7,8,8,8,9,9,9,10,11,11,11,11,12,12,13,13,13,13
participant_6_MINIONSKILLED,0,0,0,0,0,0,0,1,1,1,3,3,3,4,4,4,4,4,4,4,4,4,4,7,7,7,7,7
participant_6_KILLS,0,0,0,0,0,0,0,1,1,1,1,1,2,2,2,3,3,4,5,5,5,5,6,6,6,7,7,7
participant_6_BUY,[],"[1041, 2031, 3340]",[],[],[],"[3706, 1042]",[],[1043],[],[],[],[],"[1416, 3044, 2055]",[],[1042],[3101],[],[3078],[],[1028],[],"[3067, 1028]",[],[],[3044],[],[3047],[]
participant_6_SOLD,[],[],[],[],[],[1041],[],[1042],[],[],[],[3340],"[1043, 3706]",[],[3513],[1042],[],"[3101, 3044]",[],[],[],"[1028, 2031]",[],[],[1028],[],[2422],[]
participant_6_UNDO,[],[],[],[],[],[],[],[],[],[],[],[],[],[],[],[],[],[],[],[],[],[],[],[],[],[],[],[]
participant_7_GOLD,500,500,591,839,1074,1378,1714,2063,2338,2694,2991,3280,3528,3734,4050,4172,4476,4598,4825,5314,5568,5766,6207,6483,6606,6928,7219,7551
participant_7_CURRENTGOLD,500,0,91,339,39,343,679,1028,288,644,566,855,178,384,700,747,1051,123,350,839,218,41,482,358,481,38,254,586
participant_7_LEVEL,1,1,1,3,4,4,5,6,7,8,8,9,9,9,10,10,10,10,11,11,12,12,13,13,13,14,14,14
participant_7_MINIONSKILLED,0,0,4,11,18,26,36,41,47,57,67,74,81,86,93,93,100,100,106,111,115,115,126,136,136,136,146,155
participant_7_KILLS,0,0,0,0,0,0,0,0,0,0,0,0,0,0,0,0,0,0,0,0,0,0,0,0,0,0,0,0
participant_7_BUY,[],"[1056, 2003, 2003, 3340]",[],[],"[1052, 2003, 2003]",[],[],[],"[3802, 2031]",[],"[1001, 2055]",[],"[1026, 3363, 2055]",[],[],[2055],[],[3285],[],[],"[3020, 2055]",[1052],[],[1028],[],[3916],[2055],[]
participant_7_SOLD,[],[],[],[2003],[2003],[2003],[],[2003],[1052],[],[],[2055],[3340],[2055],[],[2055],[],"[3802, 1026]",[],[],[1001],"[2055, 2031]",[],[],[],"[1028, 1052]",[2055],[]
participant_7_UNDO,[],[],[],[],[],[],[],[],[],[],[],[],[],[],[],[],[],[],[],[],[],[],[],[],[],[],[],[]
participant_8_GOLD,500,500,563,783,1092,1626,1798,2210,2506,3239,3417,4130,4477,4683,4806,5124,5495,5638,5899,6161,6304,6876,7109,7489,7766,8698,9112,9236
participant_8_CURRENTGOLD,500,0,63,283,592,1126,148,560,856,1589,217,930,1277,1483,256,574,945,288,549,461,354,576,809,1189,233,1165,1580,803
participant_8_LEVEL,1,1,1,2,3,4,4,5,6,7,7,8,8,9,9,9,10,10,10,11,11,11,11,12,12,13,13,13
participant_8_MINIONSKILLED,0,0,2,8,17,24,27,41,48,63,66,74,83,88,88,96,106,107,111,112,113,116,118,129,131,136,144,144
participant_8_KILLS,0,0,0,0,0,0,0,0,0,0,0,0,0,0,0,0,0,0,0,2,2,2,2,2,3,3,3,3
participant_8_BUY,[],"[3850, 2003, 2003, 3340]",[],[],[],[],"[1001, 1027, 3364, 2055]",[],[],"[1052, 2055, 2055]",[],[3802],[],"[2055, 2055]",[1052],[],[],[],"[3145, 2055]",[],[3152],[],[3020],[],[],[1026],[],[3285]
participant_8_SOLD,[],[],[],[],"[2003, 2003, 2010]",[2010],"[3340, 2055]",[2010],[],[],[],"[1052, 1027, 2055]",[2055],[],[],[3850],[2055],[],[1052],[],[3145],[],[1001],[],[3851],[],[],"[3802, 1026]"
participant_8_UNDO,[],[],[],[],[],[],[],[],[],[],[],[],[],[],[],[],[],[],[],[],[],[],[],[],[],[],[],[]
participant_9_GOLD,500,500,523,717,894,1193,1338,1517,1651,1951,2145,2445,2609,2788,2953,3119,3274,3530,3865,5400,5601,5963,6163,6582,7412,7603,7907,8048
participant_9_CURRENTGOLD,500,0,23,217,394,693,113,292,426,141,335,120,284,313,43,209,364,620,265,1800,551,913,313,732,1562,903,1207,298
participant_9_LEVEL,1,1,1,2,3,4,4,4,4,5,5,6,6,6,6,7,7,8,8,9,9,10,10,11,11,12,12,12
participant_9_MINIONSKILLED,0,0,0,0,2,2,3,3,3,3,3,3,3,3,3,3,3,7,7,7,7,9,10,22,23,23,30,30
participant_9_KILLS,0,0,0,0,0,1,1,1,1,2,2,3,3,3,3,3,3,3,3,3,3,4,4,4,4,5,5,5
participant_9_BUY,[],"[1055, 2003, 3340]",[],[],[],[],"[3070, 1001]",[],[],[],[3004],[],[],[],"[3057, 1042]",[],[],[3101],[],[1036],[3158],[1036],[],[],[3078],[],[],[1053]
participant_9_SOLD,[],[],[],[],[2003],"[2010, 2010]",[],[],[],[],"[2010, 3070]",[],[],[],[],[],[],[1042],[],[],"[1001, 3004]",[],[],[],"[3101, 3057, 1036]",[],[],[]
participant_9_UNDO,[],[],[],[],[],[],[],[],[],[],[],[],[],[],[],[],[],[],[],[],"[[0, 1036]]",[],[],[],[],[],[],[]
team0_KILLS,0,0,0,1,2,3,3,4,4,5,7,8,10,12,14,15,16,19,20,23,26,30,33,33,38,39,41,45
team0_CURRENTGOLD,2500,0,318,2169,3580,3568,3828,2780,4278,4092,4195,4973,2162,4777,5447,2833,4642,6772,7004,2828,4575,7167,9615,2295,6363,3649,4494,8501
team0_TOTALGOLD,2500,2500,2818,4669,6080,7543,9103,10680,12178,13592,16070,17898,19762,22377,25347,26733,28542,32422,34087,36511,39378,43190,45578,46506,50576,52812,55105,59114
team0_LEVEL,5,5,6,13,17,21,25,27,31,34,36,39,41,45,48,50,51,55,57,59,61,64,65,66,70,70,71,75
team0_SBIRES,0,0,6,30,44,54,88,107,136,154,179,199,225,253,273,291,317,357,380,399,412,428,433,440,459,475,487,516
team1_KILLS,0,0,0,0,0,1,1,2,2,3,4,5,6,6,6,7,7,8,10,12,12,14,16,16,17,20,20,20
team1_CURRENTGOLD,2500,0,382,1683,2464,3056,2494,3471,2147,3608,2684,4011,2562,2831,2072,2661,3067,1582,3189,5621,2051,2063,3196,3710,3092,4173,3649,2541
team1_TOTALGOLD,2500,2500,2882,4183,5499,7041,8354,10031,11147,13193,14944,16786,18712,19731,21057,22521,23760,25508,27805,30987,31992,33869,36202,37916,39681,42377,43825,44670
team1_LEVEL,5,5,6,12,18,21,23,26,29,33,35,39,40,41,43,45,46,49,51,54,55,56,59,61,62,66,66,66
team1_SBIRES,0,0,9,28,51,73,95,121,136,170,191,214,237,250,260,275,297,303,325,344,353,360,378,414,422,437,469,478
delta_KILLS,0,0,0,1,2,2,2,2,2,2,3,3,4,6,8,8,9,11,10,11,14,16,17,17,21,19,21,25
delta_CURRENTGOLD,0,0,-64,486,1116,512,1334,-691,2131,484,1511,962,-400,1946,3375,172,1575,5190,3815,-2793,2524,5104,6419,-1415,3271,-524,845,5960
delta_TOTALGOLD,0,0,-64,486,581,502,749,649,1031,399,1126,1112,1050,2646,4290,4212,4782,6914,6282,5524,7386,9321,9376,8590,10895,10435,11280,14444
delta_LEVEL,0,0,0,1,-1,0,2,1,2,1,1,0,1,4,5,5,5,6,6,5,6,8,6,5,8,4,5,9
delta_SBIRES,0,0,-3,2,-7,-19,-7,-14,0,-16,-12,-15,-12,3,13,16,20,54,55,55,59,68,55,26,37,38,18,38
