name,frame_0,frame_1,frame_2,frame_3,frame_4,frame_5,frame_6,frame_7,frame_8,frame_9,frame_10,frame_11,frame_12,frame_13,frame_14,frame_15,frame_16,frame_17,frame_18,frame_19,frame_20,frame_21,frame_22,frame_23,frame_24,frame_25,frame_26
nameStamp,Tstart,Tearly,Tearly,Tearly,Tearly,Tearly,Tearly,Tearly,Tearly,Tearly,Tmid,Tmid,Tmid,Tmid,Tmid,Tmid,Tmid,Tmid,Tmid,Tmid,Tmid,Tmid,Tmid,Tmid,Tmid,Tmid,Tmid
timestamp,0,60027,120029,180058,240068,300100,360100,420110,480137,540143,600161,660174,720207,780239,840240,900270,960302,1020334,1080340,1140343,1200346,1260376,1320409,1380428,1440459,1500463,1560463
participant_0_GOLD,950,950,1086,1551,1903,2406,2785,3192,3722,4885,5314,6326,6676,7521,7819,8929,9225,9721,11633,11912,12128,12389,13030,13600,14114,14360,14466
participant_0_CURRENTGOLD,950,30,166,631,253,605,985,92,622,300,729,1742,36,881,379,1489,535,1031,2943,437,253,514,1155,1725,625,871,366
participant_0_LEVEL,3,3,3,5,6,7,8,9,10,11,12,13,13,14,14,15,16,16,17,18,18,18,18,18,18,18,18
participant_0_MINIONSKILLED,0,0,6,14,20,29,36,45,56,68,74,80,80,96,100,103,103,113,119,120,120,120,129,136,146,146,146
participant_0_KILLS,0,0,0,0,0,0,0,0,0,1,1,2,2,2,2,3,3,3,5,5,5,5,5,5,5,5,5
participant_0_BUY,[],"[1052, 1052, 2003, 3340]",[],[],"[3802, 1001]",[2031],[],"[1026, 1033]",[],"[3285, 1052]",[],[],"[3108, 1026, 3102]",[],[3020],[],[1058],[],[],"[3089, 1052]",[1028],[],[],[],"[3916, 1026]",[],[3165]
participant_0_SOLD,[],[],[],[2003],"[1052, 1052]",[],[],[],[],"[3802, 1026]",[],[],"[1052, 2031, 3108, 1033, 1026]",[],[1001],[],[],[],[],[1058],[],[],[],[],"[1028, 1052]",[],"[3916, 1026]"
participant_0_UNDO,[],[],[],[],[],[],[],[],[],[],[],[],[],[],[],[],[],[],[],[],[],[],[],[],[],[],[]
participant_1_GOLD,950,950,1570,2007,2957,3237,3579,3945,4488,5154,5594,7940,8290,9446,10241,10572,11467,11708,12034,12785,13206,13638,14577,15663,16708,16924,17031
participant_1_CURRENTGOLD,950,50,670,1107,2057,162,504,70,613,254,694,3040,90,506,1301,532,1427,268,174,475,896,478,217,1303,249,465,331
participant_1_LEVEL,3,3,3,4,6,6,7,8,9,9,10,11,11,12,13,13,14,14,15,15,16,16,17,17,18,18,18
participant_1_MINIONSKILLED,0,0,0,5,7,10,12,14,16,16,21,25,25,25,30,30,35,35,35,35,36,42,50,50,59,59,59
participant_1_KILLS,0,0,1,1,2,2,2,2,2,2,2,5,5,7,8,8,9,9,9,10,10,10,11,12,13,13,13
participant_1_BUY,[],"[1055, 3340, 1001, 2031]",[],[],[],"[1038, 1037]",[],[1018],[],"[3031, 1042, 1042]",[],[],"[3094, 1038]",[1018],[],[3095],[],[3086],[3009],[1033],[],[3140],"[3363, 3046]",[],[3139],[],[]
participant_1_SOLD,[],[],[],[],[],[],[],[],[],"[1038, 1037, 1018]",[],[],"[1042, 1042]",[2031],[],"[1038, 1018]",[],[],"[1055, 1001]",[],[],[1033],"[3340, 3086]",[],[3140],[],[]
participant_1_UNDO,[],[],[],[],[],[],[],[],[],[],[],[],[],[],[],[],[],[],[],[],[],[],[],[],[],[],[]
participant_2_GOLD,950,950,977,1672,1970,2186,2511,3177,3538,3912,4368,4704,5015,5275,5682,6025,6398,6632,7020,7936,8180,8440,8927,9237,9516,10212,10318
participant_2_CURRENTGOLD,950,15,42,302,600,86,411,227,588,962,398,734,245,505,477,420,793,262,650,1566,410,236,723,182,461,1157,1233
participant_2_LEVEL,3,3,3,4,5,5,6,7,8,9,10,10,11,11,12,13,13,13,14,15,15,16,16,17,17,18,18
participant_2_MINIONSKILLED,0,0,1,2,6,6,11,11,14,15,23,23,23,24,33,39,40,41,45,50,51,51,61,62,65,65,65
participant_2_KILLS,0,0,0,1,1,1,1,2,2,2,2,2,2,2,2,2,2,2,2,3,3,3,3,3,3,4,4
participant_2_BUY,[],"[1056, 1052, 2003, 2003, 3340]",[],[1052],[],"[3802, 1001]",[],[1026],[],[],[3285],[],"[1052, 3020]",[],[1052],[1028],[],[3916],[],[],[3165],[1052],[],[1026],[],[],[]
participant_2_SOLD,[],[],[],[2003],"[2003, 2010]","[2010, 1052, 1052]",[],[],[],[],"[2010, 3802, 1026]",[],[1001],[],[],[],[],"[1028, 1052]",[],[],[3916],[],[],[],[],[],[]
participant_2_UNDO,[],[],[],[],[],[],[],[],[],[],[],[],"[[0, 1052]]",[],[],[],[],[],[],[],[],[],[],[],[],[],[]
participant_3_GOLD,950,950,1070,1911,2731,3097,3781,4119,5035,5437,5995,6829,8162,8504,8945,9161,10115,10385,10792,11576,11838,12504,12719,14015,14420,14878,14984
participant_3_CURRENTGOLD,950,30,50,891,81,447,121,459,1375,77,635,169,1502,194,635,451,1405,475,333,1116,128,794,1010,2306,361,819,-6
participant_3_LEVEL,3,3,3,4,5,6,7,7,8,9,10,11,12,12,13,13,14,14,15,15,16,16,16,17,18,18,18
participant_3_MINIONSKILLED,0,0,0,6,9,13,14,15,22,28,37,37,49,51,57,57,72,74,83,84,84,84,84,94,99,102,102
participant_3_KILLS,0,0,0,1,2,2,3,3,4,4,4,5,7,7,7,7,7,7,7,8,8,9,9,10,10,10,10
participant_3_BUY,[],"[1056, 2003, 2003, 1052, 1052, 2003]","[2003, 2003]",[],"[3802, 1026, 1001, 2003]",[],[3285],[],[],"[3020, 3108]",[],"[1033, 1026]",[],"[3102, 1026]",[],[1028],[],[3916],[3165],[],[1058],[],[],[],[3089],[],[1026]
participant_3_SOLD,[],[],[2003],[2010],"[2003, 1052, 1052]",[],"[2010, 2003, 2003, 2003, 2003, 3802, 1026]",[],[2010],[1001],[],[],[],"[3108, 1033, 1026]",[],[],[],[1028],"[3916, 1026]",[],[],[],[],[],[1058],[],[]
participant_3_UNDO,[],"[[0, 2003], [0, 2003], [0, 1056]]",[],[],[],[],"[[2003, 0], [2003, 0]]",[],[],[],[],[],[],[],[],[],[],[],[],[],[],[],[],[],[],[],[]
participant_4_GOLD,950,950,977,1277,1694,1910,2181,2614,3325,4569,4785,5161,5610,5916,6348,6564,7682,7898,8196,8521,8952,10118,10334,11030,11506,12325,12432
participant_4_CURRENTGOLD,950,0,27,326,744,40,310,744,625,1869,185,561,175,481,913,364,1482,298,596,921,1353,319,535,1231,906,476,582
participant_4_LEVEL,3,3,3,4,5,5,6,7,8,9,9,10,11,12,12,12,13,14,14,14,15,16,16,16,17,18,18
participant_4_MINIONSKILLED,0,0,1,5,11,11,14,20,22,29,29,34,34,34,40,40,44,44,48,53,61,61,61,61,64,67,67
participant_4_KILLS,0,0,0,0,0,0,0,0,1,2,2,2,2,2,2,2,3,3,3,3,3,4,4,5,5,6,6
participant_4_BUY,[],"[1026, 2003, 2003, 3340]",[],[],[],"[1052, 1052, 2003]",[],[],"[3802, 1001, 2003, 2003]",[],"[3285, 3020, 2003]",[],"[1052, 1028]",[],[],[3916],[],[3165],[],[],[],"[1033, 3108, 1026]",[],[],[3102],[1058],[]
participant_4_SOLD,[],[],[],[],"[2010, 2003, 2003]",[2010],[],"[2003, 2010]","[1052, 1052]",[2003],"[2003, 3802, 1026, 1001]",[],[2003],[],[],"[1028, 1052]",[],[3916],[],[],[],[],[],[],"[3108, 1033, 1026]",[],[]
participant_4_UNDO,[],[],[],[],[],[],[],[],[],[],[],[],[],[],[],[],[],[],[],[],[],[],[],[],[],[],[]
participant_5_GOLD,950,950,1427,1980,2251,2925,3159,3917,4301,5300,6125,6458,7442,8055,8844,9744,10042,10258,10803,11082,11348,12014,12275,12491,12707,13528,13634
participant_5_CURRENTGOLD,950,50,527,1080,566,1240,659,7,391,1390,515,848,333,945,1734,24,322,538,373,377,178,844,1105,1321,1537,358,34
participant_5_LEVEL,3,3,3,4,5,6,7,8,8,10,11,11,12,13,14,14,14,14,15,15,15,16,16,17,17,17,17
participant_5_MINIONSKILLED,0,0,1,7,9,13,14,15,15,20,25,26,27,34,37,39,43,43,43,44,44,44,44,44,44,50,50
participant_5_KILLS,0,0,1,1,1,1,1,2,2,3,4,4,5,5,6,7,7,7,7,7,7,8,8,8,8,9,9
participant_5_BUY,[],"[1056, 1082, 3340, 2031]",[],[],"[1027, 1052]",[],"[3802, 1001]",[3030],[],[],"[3108, 3020]",[],[3905],[],[],[3135],[],[],[1026],[1052],[3108],[],[],[],[],[3157],[]
participant_5_SOLD,[],[],[],[2010],[],[],"[1052, 1027, 2010]","[2419, 2031, 2010, 3802]",[2423],[],[1001],[],[3108],[],[],[2424],[],[],[1082],[1056],[1052],[],[],[],[],[3108],[]
participant_5_UNDO,[],[],[],[],[],[],[],[],[],[],[],[],[],[],[],[],[],[],[],[],[],[],[],[],[],[],[]
participant_6_GOLD,950,950,1060,1277,1603,3102,3500,3990,5372,6047,6263,6479,7275,7491,8043,8787,9241,10614,11761,11977,12243,13171,13773,14151,15129,16286,16418
participant_6_CURRENTGOLD,950,0,110,327,652,2152,375,865,1447,1697,213,129,925,241,793,1537,71,1444,2592,908,254,1181,684,361,1340,2497,2268
participant_6_LEVEL,3,3,3,3,5,6,7,8,9,10,10,10,12,12,13,14,14,15,16,16,16,17,18,18,18,18,18
participant_6_MINIONSKILLED,0,0,0,0,5,11,19,26,36,41,41,41,41,41,43,49,49,66,71,71,71,83,88,92,93,99,99
participant_6_KILLS,0,0,0,0,0,2,2,2,4,4,4,4,5,5,5,5,5,6,6,6,6,6,6,6,7,8,8
participant_6_BUY,[],"[1055, 1055, 2003]",[],[],[],[],"[1038, 1037]",[],[1018],[3031],"[3095, 1018, 3031, 3086, 1001]",[1042],[],"[3085, 3094]",[],[],"[1038, 1018]",[],[],"[3095, 3111]","[1036, 1036, 3134]",[],[3133],[3142],[],[],[]
participant_6_SOLD,[],[],[],[],[2003],[],[],[],[],"[1038, 1037, 1018]","[1038, 1018, 1038, 1037, 1018]",[],[],"[1042, 3086, 3086, 1042]",[],[],[1055],[],[],"[1038, 1018, 1001]","[1055, 1036, 1036]",[],[],"[3133, 3134]",[],[],[]
participant_6_UNDO,[],[],[],[],[],[],[],[],[],[],"[[0, 3031], [0, 1018], [0, 3095]]",[],[],"[[0, 3085]]",[],[],[],[],[],[],[],[],[],[],[],[],[]
participant_7_GOLD,950,950,1490,1707,1942,2944,3250,3924,4140,4581,4976,5328,5608,6472,7142,8270,8486,8983,9631,9955,10258,11059,11402,11859,12075,12399,12505
participant_7_CURRENTGOLD,950,115,220,87,241,1244,750,1424,790,1231,576,78,358,1222,992,871,237,733,946,1271,208,1009,1352,1809,775,1099,1205
participant_7_LEVEL,3,3,3,3,4,6,6,8,8,9,9,10,10,11,12,13,13,14,14,15,15,16,17,17,17,18,18
participant_7_MINIONSKILLED,0,0,0,0,1,12,12,17,17,17,20,26,29,35,40,41,41,49,58,61,63,65,67,70,70,71,71
participant_7_KILLS,0,0,1,1,1,2,2,2,2,2,2,2,2,3,3,5,5,5,5,5,5,6,6,6,6,6,6
participant_7_BUY,[],"[1052, 1001, 1001, 1052, 3340, 2003, 2003]",[1052],[1027],[3802],[],[3020],[],[1026],[],[3285],[1026],[],[],[3108],[3102],[1026],[],[1052],[],[3135],[],[],[],[1058],[],[3363]
participant_7_SOLD,[],[],[],[],"[2003, 2003, 1052, 1027, 1052]",[],[1001],[],[],[],"[3802, 1026]",[],[],[],[],"[3108, 1026]",[],[],[],[],"[1026, 1052]",[],[],[],[],[],[3340]
participant_7_UNDO,[],"[[0, 1001], [0, 1052]]",[],[],[],[],[],[],[],[],[],[],[],[],[],[],[],[],[],[],[],[],[],[],[],[],[]
participant_8_GOLD,950,950,1535,1853,2592,3011,4202,5650,6070,7731,8206,8485,8863,9079,10050,10564,11056,11985,13241,14385,14869,15625,16972,17550,17991,19386,19572
participant_8_CURRENTGOLD,950,30,615,103,842,411,552,2000,20,1681,906,1185,313,529,400,914,557,1486,92,1235,1170,1026,2373,350,791,1686,1872
participant_8_LEVEL,3,3,3,4,6,7,7,9,9,11,11,12,12,12,13,14,14,16,16,17,17,18,18,18,18,18,18
participant_8_MINIONSKILLED,0,0,2,6,9,11,16,26,32,43,46,49,52,52,59,69,73,81,81,82,82,82,83,96,98,102,102
participant_8_KILLS,0,0,1,1,2,2,3,5,5,7,7,7,7,7,8,8,8,9,11,13,13,14,16,16,16,18,18
participant_8_BUY,[],"[1052, 1052, 2003, 3340]",[],"[3802, 1001, 2003, 2003]",[],[1026],[3285],[],"[3020, 3916]",[],[1058],[],[1058],[],[3089],[],[1026],[],"[3135, 1026]",[],[3165],[3108],[],"[3102, 2139]",[],[2139],[]
participant_8_SOLD,[],[],[2003],"[1052, 1052]","[2003, 2003]",[],"[3802, 1026]",[],[1001],[],[],[],[],[],"[1058, 1058]",[],[],[],[1026],[],"[3916, 1026]",[],[],"[3108, 2139]",[],[2139],[]
participant_8_UNDO,[],[],[],[],[],[],[],[],[],[],[],[],[],[],[],[],[],[],[],[],[],[],[],[],[],[],[]
participant_9_GOLD,950,950,1068,1459,1811,2168,2612,2983,3549,3974,4595,5288,5793,6609,7604,8173,8815,9652,10107,11409,12112,13318,13696,14264,14480,15174,15731
participant_9_CURRENTGOLD,950,100,218,608,126,483,927,383,949,524,1144,788,1293,409,1404,1973,415,1252,457,1760,2462,1318,646,1215,541,1235,1631
participant_9_LEVEL,3,3,3,5,6,7,8,9,10,10,11,12,12,13,14,15,16,16,16,18,18,18,18,18,18,18,18
participant_9_MINIONSKILLED,0,0,5,13,19,23,30,37,49,54,69,70,80,80,85,97,99,103,103,109,115,115,119,131,131,146,146
participant_9_KILLS,0,0,0,0,0,0,0,0,0,0,0,1,1,2,3,3,4,5,5,7,7,9,9,9,9,9,10
participant_9_BUY,[],"[1056, 1056, 1082, 2003, 2003, 3340]",[],[],"[1027, 1052, 2003]",[],[],"[3802, 1001, 2003, 2003]",[],[1026],[],[3285],[],"[3916, 2003, 2003]",[],[],"[3165, 3020]",[],[1058],[],[],[3089],[3041],[],[3145],[],[]
participant_9_SOLD,[],[],[2003],[2003],[],[2003],[],"[1052, 1027]","[2003, 2003]",[],[],"[3802, 1026]",[],[],"[2003, 2003]",[],"[3916, 1001]",[],[],[],[],[1058],[1082],[],[1056],[],[]
participant_9_UNDO,[],"[[0, 1056]]",[],[],[],[],[],[],[],[],[],[],[],[],[],[],[],[],[],[],[],[],[],[],[],[],[]
team0_KILLS,0,0,1,3,5,5,6,7,9,11,11,16,18,20,21,22,24,24,26,29,29,31,32,35,36,38,38
team0_CURRENTGOLD,4750,125,955,3257,3735,1340,2331,1592,3823,3462,2641,6246,2048,2567,3705,3256,5642,2334,4696,4515,3040,2341,3640,6747,2602,3788,2506
team0_TOTALGOLD,4750,4750,5680,8418,11255,12836,14837,17047,20108,23957,26056,30960,33753,36662,39035,41251,44887,46344,49675,52730,54304,57089,59587,63545,66264,68699,69231
team0_LEVEL,15,15,15,21,27,29,34,38,43,47,51,55,58,61,64,66,70,71,75,77,80,82,83,85,88,90,90
team0_SBIRES,0,0,8,32,53,69,87,105,130,156,184,199,211,230,260,269,294,307,330,342,352,358,385,403,433,439,439
team1_KILLS,0,0,3,3,4,7,8,11,13,16,17,18,20,22,25,28,29,32,34,38,38,43,45,45,46,50,51
team1_CURRENTGOLD,4750,295,1690,2205,2427,5530,3263,4679,3597,6523,3354,3028,3222,3346,5323,5319,1602,5453,4460,5551,4272,5378,6160,5056,4984,6875,7010
team1_TOTALGOLD,4750,4750,6580,8276,10199,14150,16723,20464,23432,27633,30165,32038,34981,37706,41683,45538,47640,51492,55543,58808,60830,65187,68118,70315,72382,76773,77860
team1_LEVEL,15,15,15,19,26,32,35,42,44,50,52,55,58,61,66,70,71,75,77,81,81,85,87,88,88,89,89
team1_SBIRES,0,0,8,26,43,70,91,121,149,175,201,212,229,242,264,295,305,342,356,367,375,389,401,433,436,468,468
delta_KILLS,0,0,-2,0,1,-2,-2,-4,-4,-5,-6,-2,-2,-2,-4,-6,-5,-8,-8,-9,-9,-12,-13,-10,-10,-12,-13
delta_CURRENTGOLD,0,-170,-735,1052,1308,-4190,-932,-3087,226,-3061,-713,3218,-1174,-779,-1618,-2063,4040,-3119,236,-1036,-1232,-3037,-2520,1691,-2382,-3087,-4504
delta_TOTALGOLD,0,0,-900,142,1056,-1314,-1886,-3417,-3324,-3676,-4109,-1078,-1228,-1044,-2648,-4287,-2753,-5148,-5868,-6078,-6526,-8098,-8531,-6770,-6118,-8074,-8629
delta_LEVEL,0,0,0,2,1,-3,-1,-4,-1,-3,-1,0,0,0,-2,-4,-1,-4,-2,-4,-1,-3,-4,-3,0,1,1
delta_SBIRES,0,0,0,6,10,-1,-4,-16,-19,-19,-17,-13,-18,-12,-4,-26,-11,-35,-26,-25,-23,-31,-16,-30,-3,-29,-29
