name,frame_0,frame_1,frame_2,frame_3,frame_4,frame_5,frame_6,frame_7,frame_8,frame_9,frame_10,frame_11,frame_12,frame_13,frame_14,frame_15,frame_16,frame_17,frame_18,frame_19,frame_20,frame_21,frame_22,frame_23,frame_24,frame_25,frame_26,frame_27
nameStamp,Tstart,Tearly,Tearly,Tearly,Tearly,Tearly,Tearly,Tearly,Tearly,Tearly,Tearly,Tearly,Tearly,Tearly,Tearly,Tearly,Tmid,Tmid,Tmid,Tmid,Tmid,Tmid,Tend,Tend,Tend,Tend,Tend,Tend
timestamp,0,60029,120056,180078,240080,300104,360129,420135,480145,540156,600167,660168,720182,780200,840225,900225,960225,1020238,1080257,1140284,1200289,1260292,1320296,1380300,1440300,1500315,1560326,1620348
participant_0_GOLD,500,500,542,790,1112,1465,2307,2729,2872,3170,3592,4057,4193,4440,4639,4937,5210,5466,5860,6125,6261,6748,7371,8097,8234,8377,8808,9322
participant_0_CURRENTGOLD,500,0,42,290,612,390,1232,79,172,470,492,957,193,290,489,487,460,216,610,75,211,698,721,1447,384,527,958,1472
participant_0_LEVEL,1,1,1,2,4,5,6,6,6,7,7,8,8,8,9,9,9,10,10,11,11,12,12,13,13,13,14,14
participant_0_MINIONSKILLED,0,0,1,8,16,26,33,33,34,44,44,46,47,53,56,60,65,70,82,88,89,90,94,97,98,99,110,110
participant_0_KILLS,0,0,0,0,0,0,2,3,3,3,4,5,5,5,5,5,5,5,5,5,5,5,6,7,7,7,7,7
participant_0_BUY,[],"[1054, 2003, 3340]",[],[],[],"[1028, 2055, 2003, 2003]",[],"[3105, 2055]",[2003],[],[1028],[],[3068],"[3068, 2055, 2055]",[],[1001],[1029],"[3047, 3076]",[],[3047],[],[],"[1029, 1029]",[],"[3082, 3067]",[],[],[]
participant_0_SOLD,[],[],[],[2003],[],[],"[2003, 2003]",[],[],[2055],[2055],[2003],"[1028, 1028, 3105]","[1028, 1028, 3105]",[],[],[2055],"[1001, 1029, 1029]",[],[1001],[2055],[],[],[],"[1029, 1029]",[],[],[]
participant_0_UNDO,[],[],[],[],[],[],[],[],[],[],[],[],[],"[[0, 3068]]",[],[],[],"[[0, 3047]]",[],[],[],[],[],[],[],[],[],[]
participant_1_GOLD,500,500,621,1018,1376,1508,1997,2315,2565,2763,3181,3550,3877,4233,4701,5462,5770,6427,6812,7524,7806,8304,8997,9797,9975,10288,11610,12062
participant_1_CURRENTGOLD,500,0,121,518,876,1008,1497,1815,590,788,1206,315,642,998,1466,2227,310,967,1352,139,421,504,1197,1997,326,638,1960,1162
participant_1_LEVEL,1,1,2,3,4,4,5,5,6,6,7,7,8,9,9,10,10,11,11,12,12,13,13,14,14,14,15,16
participant_1_MINIONSKILLED,0,0,0,0,0,1,4,4,5,5,5,7,7,8,8,10,10,10,10,10,10,10,10,12,16,16,17,17
participant_1_KILLS,0,0,0,1,1,1,1,1,1,2,3,3,3,5,5,7,8,9,9,11,12,12,12,14,14,14,17,20
participant_1_BUY,[],"[1055, 2003]",[],[],[],"[1036, 1053, 2003, 2055]",[],[3134],[],[],[],"[6692, 3009]",[1036],[],[],"[3363, 6676]",[],[3086],[],[],[3094],[],"[1038, 1037]",[],"[3031, 3123]",[],[],[]
participant_1_SOLD,[],[],[],[],[2003],[1036],[],[2003],[],[],[],"[3134, 1053]",[],[],[],"[3340, 1036]",[],[],[2055],[],[3086],[],[1055],[],"[1038, 1037]",[],[],[]
participant_1_UNDO,[],[],[],[],[],[],[],[],[],[],[],[],[],[],[],[],[],[],[],[],[],[],[],[],[],[],[],[]
participant_2_GOLD,500,500,577,853,1102,1455,1819,2067,2482,2887,3079,4086,4475,4766,5319,5917,6329,7039,7448,8025,8420,9427,9920,10223,10692,10814,11271,12579
participant_2_CURRENTGOLD,500,0,77,353,152,495,849,287,692,1087,64,1071,1460,1751,2294,717,329,1039,1448,2025,470,1478,1280,133,602,724,532,1839
participant_2_LEVEL,1,1,1,3,4,5,6,6,7,8,8,9,9,10,10,11,11,12,12,13,13,14,14,14,15,15,15,16
participant_2_MINIONSKILLED,0,0,3,12,19,30,41,48,62,75,79,91,103,103,115,123,130,142,150,156,165,174,183,184,184,184,193,205
participant_2_KILLS,0,0,0,0,0,0,0,0,0,0,0,1,1,1,1,2,2,2,2,2,2,3,3,3,3,3,3,4
participant_2_BUY,[],"[1056, 2003, 2003]",[],[],"[1056, 2003]",[],[],"[1052, 1001, 2055]",[],[],"[3802, 1082]",[],[],[],[],"[6653, 2055, 3363]",[3020],[],[],[],"[3041, 3057]",[],[3113],[3100],[],[],[2420],[]
participant_2_SOLD,[],[],[2003],[],[],[2003],[],[],[2055],[],"[2003, 1052]",[],[],[],[],"[3802, 3340, 2055]",[1001],[],[],[],[1082],[],[1056],"[3057, 3113]",[],[],[],[]
participant_2_UNDO,[],[],[],[],[],[],[],[],[],[],[],[],[],[],[],[],[],[],[],[],[],[],[],[],[],[],[],[]
participant_3_GOLD,500,500,563,1327,1520,1866,2471,2712,3204,3867,4774,5014,5164,6521,6935,8331,9154,9717,10216,11094,11736,12591,13044,14511,14683,14861,16468,18245
participant_3_CURRENTGOLD,500,0,63,827,1020,341,946,87,579,1242,2149,289,89,1446,1860,606,1430,792,1291,2169,1311,2167,624,2091,239,417,2024,3800
participant_3_LEVEL,1,1,1,2,3,3,5,5,6,6,7,8,8,9,9,10,10,11,11,12,12,13,14,14,14,14,15,16
participant_3_MINIONSKILLED,0,0,2,13,17,27,38,40,58,68,78,81,83,94,107,116,128,129,145,146,154,161,175,186,186,189,204,223
participant_3_KILLS,0,0,0,0,0,0,0,0,0,0,0,0,0,0,0,1,1,2,2,3,3,3,4,4,4,4,6,6
participant_3_BUY,[],"[1039, 3340, 2031, 3364]",[],[],[],[],[],[],"[3145, 1082, 2055]",[],[],"[1026, 1028]",[],[],[],[],"[3152, 3041, 2055]",[],[],"[1026, 1026, 3057, 1052]",[],[3113],[],[],"[3100, 1058]",[],[],[1058]
participant_3_SOLD,[],[3340],[],[],[],[],[],[],[],[],[1039],[2055],[3364],[],[3513],[],"[3145, 1028, 1026, 1082]",[2055],[],[2031],[],[1052],[],[],"[3057, 3113, 1026]",[],[],[]
participant_3_UNDO,[],[],[],[],[],[],[],[],[],[],[],[],[],[],[],[],[],[],[],"[[0, 1026]]",[],[],[],[],[],[],[],[]
participant_4_GOLD,500,500,523,927,1082,1300,1906,2135,2402,2763,3074,3405,3546,3911,4153,4385,4803,5144,5332,5472,5638,6298,6636,7506,7647,7817,8287,8682
participant_4_CURRENTGOLD,500,0,23,427,582,275,56,285,552,913,174,505,346,711,953,135,553,894,1082,373,538,98,436,1306,647,817,1287,482
participant_4_LEVEL,1,1,1,2,3,3,4,4,5,6,6,6,6,7,7,8,9,9,10,10,10,11,11,12,12,12,13,14
participant_4_MINIONSKILLED,0,0,0,3,4,6,7,7,11,14,15,16,16,16,17,19,21,21,23,23,23,23,24,27,27,28,29,29
participant_4_KILLS,0,0,0,0,0,0,1,1,1,1,1,1,1,1,1,1,1,1,1,1,1,1,1,2,2,2,2,2
participant_4_BUY,[],"[3854, 2003, 2003, 3340]",[],[],[],"[1036, 2003, 2055, 2003]","[3134, 2055]",[],[],[],"[1053, 2055, 2055, 3364]",[],[1001],[],[],"[1036, 3117]",[],[],[],[6692],[],[3133],[],[],[1031],[],[],[6333]
participant_4_SOLD,[],[],[],[2003],[2003],[],[1036],"[2003, 2003]",[2055],[2055],"[3854, 3340]",[2055],[],[2055],[],[1001],[],[],[],"[3134, 1036, 1053]",[3855],[],[],[],[],[],[],"[1031, 3133]"
participant_4_UNDO,[],[],[],[],[],[],[],[],[],[],[],[],[],[],[],[],[],[],[],[],[],[],[],[],[],[],[],[]
participant_5_GOLD,500,500,598,804,1248,1480,1603,2319,2791,3061,4309,4683,5058,5426,6063,7007,7180,7817,7939,8449,8935,9173,9574,9874,10012,10296,10439,11007
participant_5_CURRENTGOLD,500,0,98,304,748,205,328,1044,1516,311,1559,400,775,1143,1780,2724,997,1634,281,791,852,490,891,91,229,513,657,549
participant_5_LEVEL,1,1,1,3,4,5,5,6,7,7,8,8,9,9,10,11,11,12,12,13,13,13,13,13,14,14,14,14
participant_5_MINIONSKILLED,0,0,4,9,10,16,16,36,43,50,65,71,82,90,97,109,109,127,127,136,147,148,158,160,161,163,164,177
participant_5_KILLS,0,0,0,0,1,1,1,1,1,1,2,2,2,2,3,3,3,3,3,4,4,4,4,4,4,4,4,4
participant_5_BUY,[],[2033],[],[],[],"[3057, 2055]",[],[],[],"[3051, 2055, 1001]",[],[3078],[],[],[],[],"[3047, 3134]",[],"[1018, 1037]",[],[6676],[1018],[],[3133],[],[],[],[1037]
participant_5_SOLD,[],[],[],[],[],[],[2010],[2055],[],[],[],"[3057, 3051]",[2055],[],"[2010, 2010]",[],[1001],[],[],[],"[3134, 1037, 1018]",[],[],[],[],[],[],[2033]
participant_5_UNDO,[],[],[],[],[],[],[],[],[],[],[],[],[],[],[],[],[],[],[],[],[],[],[],[],[],[],[],[]
participant_6_GOLD,500,500,621,1033,1383,1637,1790,1940,2292,2610,3124,3247,4271,4552,4674,5197,5617,5866,6037,6639,7017,7324,7561,7783,9253,9541,9663,10349
participant_6_CURRENTGOLD,500,0,121,533,883,1137,115,265,617,935,1449,122,1146,1427,699,247,667,46,217,639,1017,74,311,533,2003,71,193,880
participant_6_LEVEL,1,1,2,3,4,4,5,5,5,6,7,7,8,8,8,8,9,9,10,10,11,11,11,11,13,13,13,14
participant_6_MINIONSKILLED,0,0,0,0,0,0,0,2,2,3,4,4,5,5,5,5,9,9,12,14,15,15,16,16,25,26,26,33
participant_6_KILLS,0,0,0,0,0,0,0,0,0,0,0,0,2,2,2,3,3,3,3,4,4,4,4,4,5,5,5,6
participant_6_BUY,[],"[1039, 2031, 3340]",[],[],[],[],"[3020, 2055]",[],[],[],[],"[3145, 1028]",[],[],[1026],"[4636, 2055]",[],"[1052, 1052]",[],[3145],[],[1058],[],[],[],"[4628, 3191, 2420]",[],[]
participant_6_SOLD,[],[],[],[],[],[],[],[],[2055],[],[1039],[],[],[],[],"[3145, 1028, 1026]",[],[],[],"[1052, 1052]",[],[],[],[],[],"[1058, 3145, 2055]",[],[2420]
participant_6_UNDO,[],[],[],[],[],[],[],[],[],[],[],[],[],[],[],[],[],[],[],[],[],[],[],[],[],[],[],[]
participant_7_GOLD,500,500,612,878,1455,1724,2137,2476,2751,3117,3588,3912,4238,4760,5041,5807,6021,6269,6593,6791,7145,7801,7923,8959,9678,9962,10105,10339
participant_7_CURRENTGOLD,500,0,112,368,595,54,457,796,86,442,913,137,453,975,246,1012,236,484,393,591,945,1601,198,44,763,1047,121,354
participant_7_LEVEL,1,1,1,3,4,4,6,6,7,8,8,9,9,10,10,10,11,11,11,11,12,12,12,12,13,13,14,14
participant_7_MINIONSKILLED,0,0,5,11,20,26,41,53,59,69,80,89,98,111,117,130,135,143,151,151,158,166,166,167,171,178,179,181
participant_7_KILLS,0,0,0,0,2,2,3,4,4,4,5,5,6,6,6,6,7,9,9,9,9,9,9,9,11,11,11,11
participant_7_BUY,[],"[1055, 2003]",[],[],[],"[6670, 1053, 1001, 1042]","[1036, 2003]",[],[],[],"[6670, 1018]",[],[],"[6673, 3111, 1036, 2003]",[],"[1053, 3363]",[],"[1038, 1018]",[3072],[],[],[],[1038],[],[],[3031],[],[1033]
participant_7_SOLD,[],[],[],[],[2003],[],[],[],[],[],"[1036, 1042]",[2003],[],"[6670, 1018, 1053, 1001]",[2003],"[1036, 3340]",[],[],"[1038, 1018, 1053]",[],[],[],[],[],[],[1038],[],[]
participant_7_UNDO,[],[],[],[],[],"[[0, 6670]]",[],[],[],[],[],[],[],[],[],[],[],[],[],[],[],[],[],[],[],[],[],[]
participant_8_GOLD,500,500,563,818,1790,2073,2533,2990,3218,3473,3959,4505,5389,5564,5912,6230,6989,8277,8569,8766,9446,10005,10227,10363,11772,11958,12357,12687
participant_8_CURRENTGOLD,500,0,63,318,1290,73,133,590,818,1073,309,855,1739,114,462,230,989,377,69,266,947,1505,427,564,1972,59,458,337
participant_8_LEVEL,1,1,1,2,3,4,4,5,5,6,6,7,8,8,8,9,9,10,10,11,11,12,12,12,13,13,13,14
participant_8_MINIONSKILLED,0,0,2,10,22,28,31,33,39,47,50,62,69,69,81,82,92,94,99,99,110,119,119,120,131,132,141,145
participant_8_KILLS,0,0,0,0,0,0,0,0,0,0,0,0,0,0,0,0,0,0,0,1,1,1,1,1,1,2,2,3
participant_8_BUY,[],"[3858, 2003, 2003]",[],[2031],[],"[1028, 1001, 2055]",[],[],"[3009, 2055, 3364]",[1004],[],[],[],"[3067, 3066]",[],[],[],[],"[2065, 1052]",[3108],[1029],[],[],[3157],[],[],"[3067, 2055, 2055]",[]
participant_8_SOLD,[],[],[],"[2003, 2003]",[],[],[],"[2055, 2419]","[1001, 3340]","[2055, 2423]",[],[],[],"[3858, 1028, 2031]",[],[],[],[],"[3067, 1004, 3066]",[1052],[],[],[],"[1029, 3108, 2424]",[3859],[],[],[]
participant_8_UNDO,[],[],[],[],[],[],[],[],[],[],[],[],[],[],[],[],[],[],[],[],[],[],[],[],[],[],[],[]
participant_9_GOLD,500,500,544,699,1215,1433,1705,2050,2185,2361,2645,2876,3388,3580,3721,4036,4301,4702,4902,5567,5867,6250,6484,6645,7194,7746,7898,8638
participant_9_CURRENTGOLD,500,0,44,69,585,28,300,645,105,31,315,536,1047,100,241,556,821,1222,137,337,337,720,954,65,614,1166,368,1109
participant_9_LEVEL,1,1,1,1,3,3,4,5,5,5,6,6,7,7,8,8,8,9,10,10,10,11,11,12,13,13,13,14
participant_9_MINIONSKILLED,0,0,1,2,4,6,6,12,12,14,14,16,18,18,18,18,21,23,25,25,30,37,42,43,46,48,48,48
participant_9_KILLS,0,0,0,0,1,1,1,1,1,1,1,1,1,1,1,1,1,1,1,1,1,1,1,2,3,3,3,3
participant_9_BUY,[],"[1055, 2003]",[],[],[1036],"[3070, 1036, 2003]",[],[],"[3133, 1027, 2031, 2055]",[],[],"[3004, 1027]",[],[],"[3057, 1052, 1001]",[],"[3113, 3158, 3020, 1052]",[],[3113],[],[],[],"[3100, 2055]",[1058],[],[],[1058],[]
participant_9_SOLD,[],[],[],[2003],[],[],[2003],[],"[1036, 1036, 2055]",[],[],"[3070, 3133, 1027]",[],[],[],[],"[1027, 1001, 1001]",[],[1052],[],[],[3004],"[3057, 3113]","[2055, 2031]",[],[],[1055],[]
participant_9_UNDO,[],[],[],[],[],[],[],[],[],[],[],[],[],[],"[[0, 1052]]",[],"[[0, 3113], [0, 3158]]",[],[],[],[],[],[],[],[],[],[],[]
team0_KILLS,0,0,0,1,1,1,4,5,5,6,8,10,10,12,12,16,17,19,19,22,23,24,26,30,30,30,35,39
team0_CURRENTGOLD,2500,0,326,2415,3242,2509,4580,2553,2585,4500,4085,3137,2730,5196,7062,4172,3082,3908,5783,4781,2951,4945,4258,6974,2198,3123,6761,8755
team0_TOTALGOLD,2500,2500,2826,4915,6192,7594,10500,11958,13525,15450,17700,20112,21255,23871,25747,29032,31266,33793,35668,38240,39861,43368,45968,50134,51231,52157,56444,60890
team0_LEVEL,5,5,6,12,18,20,26,26,30,33,35,38,39,43,44,48,49,53,54,58,58,63,64,67,68,68,72,76
team0_SBIRES,0,0,6,36,56,90,123,132,170,206,221,241,256,274,303,328,354,372,410,423,441,458,486,506,511,516,553,584
team1_KILLS,0,0,0,0,4,4,5,6,6,6,8,8,11,11,12,13,14,16,16,19,19,19,19,20,24,25,25,27
team1_CURRENTGOLD,2500,0,438,1592,4101,1497,1333,3340,3142,2792,4545,2050,5160,3759,3428,4769,3710,3763,1097,2624,4098,4390,2781,1297,5581,2856,1797,3229
team1_TOTALGOLD,2500,2500,2938,4232,7091,8347,9768,11775,13237,14622,17625,19223,22344,23882,25411,28277,30108,32931,34040,36212,38410,40553,41769,43624,47909,49503,50462,53020
team1_LEVEL,5,5,6,12,18,20,24,27,29,32,35,37,41,42,44,46,48,51,53,55,57,59,59,60,66,66,67,70
team1_SBIRES,0,0,12,32,56,76,94,136,155,183,213,242,272,293,318,344,366,396,414,425,460,485,501,506,534,547,558,584
delta_KILLS,0,0,0,1,-3,-3,-1,-1,-1,0,0,2,-1,1,0,3,3,3,3,3,4,5,7,10,6,5,10,12
delta_CURRENTGOLD,0,0,-112,823,-859,1012,3247,-787,-557,1708,-460,1087,-2430,1437,3634,-597,-628,145,4686,2157,-1147,555,1477,5677,-3383,267,4964,5526
delta_TOTALGOLD,0,0,-112,683,-899,-753,732,183,288,828,75,889,-1089,-11,336,755,1158,862,1628,2028,1451,2815,4199,6510,3322,2654,5982,7870
delta_LEVEL,0,0,0,0,0,0,2,-1,1,1,0,1,-2,1,0,2,1,2,1,3,1,4,5,7,2,2,5,6
delta_SBIRES,0,0,-6,4,0,14,29,-4,15,23,8,-1,-16,-19,-15,-16,-12,-24,-4,-2,-19,-27,-15,0,-23,-31,-5,0
