name,frame_0,frame_1,frame_2,frame_3,frame_4,frame_5,frame_6,frame_7,frame_8,frame_9,frame_10,frame_11,frame_12,frame_13,frame_14,frame_15,frame_16,frame_17,frame_18,frame_19,frame_20,frame_21,frame_22,frame_23,frame_24,frame_25,frame_26,frame_27,frame_28,frame_29,frame_30,frame_31,frame_32,frame_33,frame_34,frame_35
nameStamp,Tstart,Tearly,Tearly,Tearly,Tearly,Tearly,Tearly,Tearly,Tearly,Tearly,Tearly,Tearly,Tearly,Tearly,Tmid,Tmid,Tmid,Tmid,Tmid,Tmid,Tmid,Tmid,Tmid,Tmid,Tmid,Tmid,Tmid,Tmid,Tmid,Tmid,Tend,Tend,Tend,Tend,Tend,Tend
timestamp,0,60014,120045,180074,240106,300130,360133,420154,480166,540177,600184,660192,720216,780238,840252,900281,960301,1020305,1080327,1140333,1200361,1260381,1320383,1380402,1440425,1500434,1560449,1620480,1680489,1740489,1800512,1860538,1920558,1980586,2040587,2100587
participant_0_GOLD,500,500,626,881,1155,1389,1540,2039,2370,2712,2911,3779,4114,4314,4658,5562,5905,6277,6400,6648,6820,7056,7628,7751,8173,8491,9423,9616,9739,9876,10332,10786,10908,11526,11686,11731
participant_0_CURRENTGOLD,500,0,126,381,655,889,305,369,350,692,811,229,564,764,1108,962,20,392,515,763,935,1171,1743,66,488,341,1273,366,489,626,183,636,323,941,411,296
participant_0_LEVEL,1,1,1,3,4,5,5,6,7,7,8,8,9,9,10,10,11,11,11,11,11,12,12,12,12,12,13,13,13,13,14,15,15,15,15,15
participant_0_MINIONSKILLED,0,0,6,13,19,25,27,31,40,49,53,58,61,63,72,79,83,92,92,93,96,102,102,102,102,109,121,122,122,123,131,137,137,150,150,150
participant_0_KILLS,0,0,0,0,0,0,0,1,1,1,1,2,2,2,2,3,3,3,3,3,3,3,4,4,5,5,6,6,6,6,6,6,6,6,6,6
participant_0_BUY,[],"[1056, 2003, 2003, 3340]",[],[],[],[],"[1052, 1001]",[1052],[1027],[],[3802],"[1026, 3158]",[],[],[],[3285],"[1026, 1052]",[],[],[],[],[],[],"[3135, 1052]",[],[3108],[],[3191],[],[],[3157],[],[1052],[],[1026],[]
participant_0_SOLD,[],[],[],"[2003, 2003]",[],[],[],[],[],[],"[1052, 1027, 1052]",[1001],[],[],[],"[3802, 1026]",[],[],[],[],[],[],[],"[1026, 1052]",[],[1052],[],[],[],[],"[3191, 3108]",[],[],[],[1056],[]
participant_0_UNDO,[],[],[],[],[],[],[],[],[],[],[],[],[],[],[],[],[],[],[],[],[],[],[],[],[],[],[],[],[],[],[],[],[],[],[],[]
participant_1_GOLD,500,500,548,682,881,1090,1269,1404,1559,1889,2047,2226,2406,2740,3338,4089,4733,5008,5188,5397,5531,5708,5842,6022,6443,6743,7213,8797,8932,9066,9295,9906,10040,10224,10396,10446
participant_1_CURRENTGOLD,500,0,48,182,381,590,219,354,209,64,222,151,331,665,13,764,1408,1683,413,622,456,633,317,147,118,417,888,1822,757,91,70,681,165,350,522,571
participant_1_LEVEL,1,1,1,2,3,4,4,4,4,5,5,5,6,7,7,8,9,9,10,10,10,10,10,11,11,11,12,13,13,13,13,14,14,14,14,14
participant_1_MINIONSKILLED,0,0,0,0,1,1,1,1,2,2,4,4,4,10,11,12,12,15,15,15,15,17,17,17,17,19,24,24,24,24,24,24,24,24,24,24
participant_1_KILLS,0,0,0,0,0,0,0,0,0,0,0,0,0,0,1,2,3,3,3,3,3,3,3,3,3,3,3,5,5,5,5,6,6,6,6,6
participant_1_BUY,[],"[3301, 3340, 2003, 2003]",[],[],[],[],"[3096, 2003, 2003]",[],"[1001, 3364]","[1028, 2055]",[],[3069],[],[],"[3801, 3117]",[],[],[],[3107],[],[1029],[],[1033],[3105],[1033],[],[],[3190],"[3024, 1029]",[3105],[3050],[],[3801],[],[],[]
participant_1_SOLD,[],[],[],"[2003, 2003]",[2010],[],[3301],[2003],"[2003, 3340]",[2010],[2055],"[2010, 3096, 1028]",[],[],"[2010, 1001]",[],[],[],[3801],[],[],[],[],"[1033, 1029]",[],[],[],"[3105, 1033]",[],[1029],"[3105, 3024]",[],[],[],[],[]
participant_1_UNDO,[],[],[],[],[],[],[],[],[],[],[],[],[],[],[],[],[],[],[],[],[],[],[],[],[],[],[],[],[],[],[],[],[],[],[],[]
participant_2_GOLD,500,500,563,783,1227,1594,1902,2066,2839,3004,3617,3990,4496,5448,5864,6070,6616,7101,7223,7982,9451,9984,10257,10741,10912,11410,11582,11755,12163,12285,12610,12803,13375,13715,14287,14333
participant_2_CURRENTGOLD,500,500,63,283,27,394,702,366,1139,104,717,1090,571,173,589,345,891,626,748,57,806,1340,1612,2096,2268,985,1158,1330,1738,1861,285,479,1051,1391,1963,2008
participant_2_LEVEL,1,1,1,2,4,5,6,6,7,7,8,8,9,10,10,11,11,12,12,12,13,14,14,14,14,15,15,15,16,16,16,16,17,17,17,17
participant_2_MINIONSKILLED,0,0,2,8,9,21,29,31,39,41,58,69,74,86,95,100,116,120,120,134,143,159,159,172,175,189,189,189,202,202,210,214,214,219,219,219
participant_2_KILLS,0,0,0,0,1,1,1,1,1,1,1,1,2,2,2,2,2,3,3,4,7,7,7,7,7,7,7,7,7,7,7,7,8,8,9,9
participant_2_BUY,[],[],[2033],[],"[1028, 1029]",[],[],[3751],[],"[1031, 1028, 1029]",[],[],"[3068, 1029, 2055]","[3111, 3076, 1006]",[],"[1033, 3363]",[],[3211],[],[3194],[1057],[],[],[],[],[3193],[],[],[],[],[3075],[],[],[],[],[]
participant_2_SOLD,[],[],[],[],[],[],[],[1028],[],[1029],[],[],"[1031, 1028, 3751]","[2422, 1029, 1029]",[2055],[3340],[],[1033],[],"[3211, 1006]",[],[],[],[],[],[1057],[],[],[],[],[3076],[],[],[],[],[]
participant_2_UNDO,[],[],[],[],[],[],[],[],[],[],[],[],[],[],[],[],[],[],[],[],[],[],[],[],[],[],[],[],[],[],[],[],[],[],[],[]
participant_3_GOLD,500,500,584,839,1004,1371,1515,2167,2310,2972,3185,3586,3813,3985,4429,4747,5431,5861,6173,6388,6511,6981,7273,7439,7868,8527,8741,9479,9776,10093,10818,11144,11436,11718,11898,11944
participant_3_CURRENTGOLD,500,0,84,339,504,871,265,917,210,872,335,736,963,35,479,397,1081,1511,1823,188,311,781,1073,139,568,877,291,529,826,1143,299,624,566,449,129,-6
participant_3_LEVEL,1,1,1,2,3,4,4,6,6,7,7,8,8,8,9,9,10,10,10,11,11,11,12,12,13,13,13,14,14,14,15,15,15,15,16,16
participant_3_MINIONSKILLED,0,0,3,11,14,25,26,39,40,52,57,70,76,76,81,89,99,109,116,121,121,133,133,136,150,159,161,169,175,182,195,203,203,204,204,204
participant_3_KILLS,0,0,0,0,0,0,0,1,1,2,2,2,2,2,2,2,3,3,3,3,3,3,3,3,3,4,4,5,5,5,5,5,5,5,5,5
participant_3_BUY,[],"[3340, 1055, 2003]",[],[],[],[],"[1036, 1036, 1001, 2003, 2003]",[],"[3134, 2003, 2003]",[],"[1036, 1036, 2003]",[],[],"[3133, 3142]",[],"[1036, 2003]",[],[],[],"[3134, 3133]",[],[],[],"[3147, 1028]",[],[1036],"[3044, 1042]",[3006],[],[],"[3067, 3071]",[],[1036],[1028],[3044],[]
participant_3_SOLD,[],"[3340, 3520, 3340, 3520, 3340]",[3520],[2003],[],[],[],"[2003, 2003]",[1036],[2003],[],"[2003, 2003]",[],"[1036, 1036, 3133, 3134]",[],[],[],[],"[2003, 3340, 3520]",[1036],[],[],[],"[3134, 3133]",[],[],"[1028, 1036]","[3340, 3520, 1001, 1042]",[],[],"[1055, 3044, 3067]",[],[],"[3340, 3520]","[3340, 3520, 1028, 1036]",[]
participant_3_UNDO,[],[],[],[],[],[],"[[0, 1036]]",[],[],[],[],[],[],[],[],[],[],[],[],[],[],[],[],[],[],[],[],[],[],[],[],[],[],[],[],[]
participant_4_GOLD,500,500,621,999,1334,1556,2205,2487,3195,3430,3732,3935,4581,4899,5122,5516,5814,5973,6475,6858,7141,7383,8057,8280,8837,9142,9600,9973,10255,10507,11476,12239,12521,13028,13288,13334
participant_4_CURRENTGOLD,500,0,121,499,834,1056,1705,437,1145,1380,657,860,1506,1824,397,791,1089,373,875,458,741,983,1657,1880,2437,567,1025,398,680,33,1001,1764,847,1354,1614,1659
participant_4_LEVEL,1,1,2,3,3,4,5,5,6,7,7,7,8,9,9,10,10,10,11,11,12,13,13,13,14,14,14,15,15,15,16,16,16,17,17,17
participant_4_MINIONSKILLED,0,0,0,0,0,0,3,3,3,3,3,3,3,8,8,8,8,8,13,13,13,13,19,19,19,21,21,21,21,22,23,23,28,32,32,32
participant_4_KILLS,0,0,0,0,0,0,1,1,2,2,2,2,3,3,3,3,3,3,3,3,3,3,4,4,5,5,5,5,5,5,7,8,8,8,8,8
participant_4_BUY,[],"[1041, 2031, 3340]",[],[],[],[],[],"[3706, 1001, 1042, 1042]",[],[],[1416],[],[],[],"[3111, 1036, 1036, 1006]",[],[],"[3077, 1028]",[],[3052],[],[],[],[],[],"[3748, 3052]",[],[1011],[],[3022],[],[],[3211],[],[],[]
participant_4_SOLD,[],[],[],[],[],[],[],[1041],[],[],"[1042, 1042, 3706]",[],[],[],[1001],[],[],"[1036, 1006, 1036]",[],[1028],[],[],[],[],[],"[3077, 3052]",[],[],[],"[3052, 1011]",[],[],[],[],[],[]
participant_4_UNDO,[],[],[],[],[],[],[],[],[],[],[],[],[],[],[],[],[],[],[],[],[],[],[],[],[],[],[],[],[],[],[],[],[],[],[],[]
participant_5_GOLD,500,500,533,707,872,1026,1191,1585,2114,2388,2743,3251,4057,4582,4795,5219,5413,5548,6112,6726,6901,7207,7451,7805,8185,8369,8938,9073,9457,10011,10511,10809,11036,11280,11502,11703
participant_5_CURRENTGOLD,500,0,33,207,372,51,216,110,639,63,418,926,1732,132,345,769,163,223,352,966,75,381,626,980,510,694,1263,648,1032,326,826,274,502,195,417,278
participant_5_LEVEL,1,1,1,2,3,3,4,5,5,6,6,7,7,8,8,9,9,9,9,10,10,10,10,11,11,11,12,12,13,13,14,14,15,15,15,15
participant_5_MINIONSKILLED,0,0,0,0,0,0,0,0,0,0,0,0,1,2,5,7,7,7,7,7,7,7,7,7,7,7,9,9,9,9,19,19,26,27,27,33
participant_5_KILLS,0,0,0,0,0,0,0,0,1,1,1,2,3,3,3,3,3,3,4,5,5,5,5,5,5,5,6,6,6,6,6,6,6,6,6,6
participant_5_BUY,[],"[3303, 2003, 2003, 3340]",[],[],[],"[1082, 1004]",[],"[3098, 2055, 2003, 2003]",[],[1026],[],[],[],"[3116, 1001, 2055, 3364]",[],[],[3020],[2055],[1052],[],[3136],[],[],[],[1026],[],[],[3151],[],[3916],[],[1026],[],[3165],[],[]
participant_5_SOLD,[],[],[],[2003],[],[],[],"[3303, 1004]",[2055],[2003],[],"[2003, 2003]",[],"[1026, 3340]",[],[],[1001],[],[],[],"[2055, 1052]",[],[],[2055],[],[],[],"[3136, 1026]",[],[3098],[],[],[],"[3916, 1026]",[],[]
participant_5_UNDO,[],[],[],[],[],[],[],[],[],[],[],[],[],[],[],[],[],[],[],[],[],[],[],[],[],[],[],[],[],[],[],[],[],[],[],[]
participant_6_GOLD,500,500,598,955,1225,1480,1865,2444,2775,3260,3487,3978,4540,5056,5727,6094,6479,6793,7041,8214,8420,8919,9328,9908,11311,11549,11866,11988,12899,13826,14264,14686,15163,15776,17113,17563
participant_6_CURRENTGOLD,500,0,98,455,725,30,415,19,350,835,762,1253,1815,81,752,44,429,743,191,1364,450,949,1358,1938,1642,240,556,389,1300,2226,415,836,1224,537,1874,513
participant_6_LEVEL,1,1,1,2,3,4,5,5,6,6,7,7,8,8,9,9,10,10,10,11,11,12,12,12,13,13,13,13,14,15,15,16,16,17,17,17
participant_6_MINIONSKILLED,0,0,4,15,24,29,42,46,55,68,74,88,100,104,115,119,130,136,136,147,152,163,173,184,192,195,202,202,211,213,230,234,247,259,261,269
participant_6_KILLS,0,0,0,0,0,0,0,1,1,1,1,1,1,1,2,2,2,2,2,4,4,4,4,4,7,7,7,7,8,9,9,9,9,9,12,12
participant_6_BUY,[],"[1055, 2003, 3340]",[],[],[],"[1001, 1036, 1042]",[],"[1036, 3006, 2055, 2003]",[],[],[1042],[],[],"[3095, 1042, 2031]",[],"[3086, 2055]",[3363],[],[2015],[],[1038],[],[],[],[3508],"[3046, 3123]",[],[1036],[],[],"[3033, 2420]",[],[3111],[1038],[],[]
participant_6_SOLD,[],[],[],[],[],[],[],"[2003, 1001, 1042]",[],[2055],[],[2003],[],"[1036, 1036, 1042]",[],[1042],[3340],[2055],[],[],[1055],[],[],[],[1038],"[3086, 2015]",[],[2031],[],[],"[1036, 3123]",[],"[3006, 2420]",[],[],[]
participant_6_UNDO,[],[],[],[],[],[],[],[],[],[],[],[],[],[],[],[],[],[],[],[],[],[],[],[],[],[],[],[],[],[],[],[],[],[],[],[]
participant_7_GOLD,500,500,584,946,1388,1690,2210,2525,2661,3073,3322,3693,3920,4204,4560,4977,5222,5731,6453,6670,7147,7419,9337,10136,10306,10570,10968,11339,11562,12098,12346,13339,13572,13694,14836,15092
participant_7_CURRENTGOLD,500,0,84,446,138,440,960,1275,211,623,872,1243,270,554,910,1327,472,981,1703,270,747,1019,2937,3736,473,737,1135,407,629,1166,913,1907,39,162,1304,1559
participant_7_LEVEL,1,1,1,2,3,4,5,6,6,7,8,8,9,9,9,10,10,11,12,12,12,13,13,14,14,14,15,15,15,16,16,16,16,16,17,17
participant_7_MINIONSKILLED,0,0,3,11,14,21,26,31,32,46,52,62,68,75,84,90,96,110,123,124,136,143,143,153,155,157,163,169,169,171,171,177,177,177,182,187
participant_7_KILLS,0,0,0,0,0,0,1,1,1,1,1,1,1,1,1,1,1,1,1,1,1,1,4,5,5,5,5,5,5,5,5,7,7,7,9,9
participant_7_BUY,[],"[1054, 2003, 3340]",[],[],"[1027, 1029, 2003, 2003]",[],[],[],"[3024, 1027, 1029, 1029]",[],[],[],[3110],[],[],[],"[3057, 1028]",[],[],"[3044, 3111]",[],[],[],[],"[3078, 1031, 1011, 3211, 3067]",[],[],"[3065, 1029]",[],[],[1031],[],[3742],[],[],[]
participant_7_SOLD,[],[],[],"[2004, 2003, 2319]","[2010, 2061, 2319, 2056]",[2003],"[2003, 2004]","[2010, 2319]","[1027, 1029]",[],[],[],"[1029, 1029, 3024]",[],[],"[2010, 2010, 2319]",[1027],[],[],"[2319, 1028, 2422]",[],[],"[2060, 2062, 2013]",[2319],"[3057, 3044]",[],[],"[3211, 3067]",[],[],[1029],[],[1031],[],[],[]
participant_7_UNDO,[],[],[],[],[],[],[],[],[],[],[],[],[],[],[],[],[],[],[],[],[],[],[],[],"[[0, 1011], [0, 1031]]",[],[],[],[],[],[],[],[],[],[],[]
participant_8_GOLD,500,500,621,899,1522,1665,1938,2060,2182,2753,3061,3536,3758,4042,4179,4580,4924,5388,5756,6163,6307,6515,6981,7454,7815,8004,8236,8666,9355,9954,10338,10592,10867,11129,11639,11756
participant_8_CURRENTGOLD,500,0,121,399,1022,1165,1438,1560,132,703,1011,1486,1708,1992,129,530,874,1338,1706,2113,87,295,761,1234,1595,64,296,726,1415,2014,599,852,27,290,799,856
participant_8_LEVEL,1,1,2,2,4,4,4,4,4,6,7,7,8,8,8,9,9,10,10,11,11,11,12,12,13,13,13,14,14,15,15,15,16,16,16,17
participant_8_MINIONSKILLED,0,0,0,0,0,1,1,1,1,1,1,5,5,12,13,14,21,21,23,29,30,30,30,31,37,37,38,44,46,50,50,50,55,57,57,58
participant_8_KILLS,0,0,0,0,1,1,1,1,1,1,1,2,2,2,2,2,2,2,2,2,2,2,2,2,2,2,2,2,3,3,3,3,3,3,3,3
participant_8_BUY,[],"[1039, 2031, 3364]",[],[],[],[],[],[],"[3751, 3715]",[],[],[],[],[],"[1413, 1011, 1028]",[],[],[],[],[],"[3083, 1057]",[],[],[],[],"[1031, 3193]",[],[],[],[],"[1011, 1031]",[],[3742],[],[],[]
participant_8_SOLD,[],[],[],[],[],[],[],[],[1039],[],[],[],[3364],[3513],"[3751, 3715]",[],[],[],[],[],"[1011, 1028]",[],[],[],[],"[2031, 1031, 1057]",[],[],[],[],[],[],"[1031, 1011]",[],[],[]
participant_8_UNDO,[],[],[],[],[],[],[],[],[],[],[],[],[],[],[],[],[],[],[],[],[],[],[],[],[],[],[],[],[],[],[],[],[],[],[],[]
participant_9_GOLD,500,500,584,874,1116,1315,1494,2028,2192,3055,3526,3747,4533,4755,5134,5348,5771,5998,6344,6740,6862,7709,7956,8240,8660,8965,9485,9670,10104,10591,11173,11646,11789,11912,12084,12180
participant_9_CURRENTGOLD,500,0,84,374,616,815,209,228,392,1255,801,132,918,290,669,883,471,698,1044,1440,212,1059,1306,450,870,325,845,280,714,1202,533,1007,1150,22,195,130
participant_9_LEVEL,1,1,1,3,4,5,5,6,6,7,8,8,9,9,10,10,10,11,11,12,12,12,12,13,13,13,13,14,14,15,15,15,15,15,15,15
participant_9_MINIONSKILLED,0,0,4,14,21,25,29,35,38,46,49,55,64,65,76,79,79,85,91,100,100,107,107,109,115,119,129,132,138,140,145,146,147,147,147,147
participant_9_KILLS,0,0,0,0,0,0,0,1,1,2,3,3,4,4,4,4,5,5,5,5,5,7,7,7,7,7,7,7,7,7,8,9,9,9,9,9
participant_9_BUY,[],"[1056, 2003, 2003, 3340]",[],[],[],[],"[1027, 1004, 3070, 1052]",[3802],[],[],"[1026, 2055]",[3285],[],[1026],[],[],"[1052, 1028]",[],[],[],"[3116, 1052]",[],[],"[3136, 2055]",[],[1026],[],[3151],[],[],[1058],[],[],[1058],[],[]
participant_9_SOLD,[],[],[],"[2003, 2003]",[],[],"[1027, 1004]","[1052, 1027]",[],[],[],"[1056, 3802, 1026]",[],[],[2055],[],[],[],[],[],"[1026, 1052, 1028]",[],[],[1052],[2055],[],[],"[3136, 1026]",[],[],[],[],[],[],[],[]
participant_9_UNDO,[],[],[],[],[],[],"[[0, 3070], [0, 1004]]",[],[],[],[],[],[],[],[],[],[],[],[],[],[],[],[],[],[],[],[],[],[],[],[],[],[],[],[],[]
team0_KILLS,0,0,0,0,1,1,2,4,5,6,6,7,9,9,10,12,14,15,15,16,19,19,21,21,23,24,25,28,28,28,30,32,33,33,34,34
team0_CURRENTGOLD,2500,500,442,1684,2401,3800,3196,2443,3053,3112,2742,3066,3935,3461,2586,3259,4489,4585,4374,2088,3249,4908,6402,4328,5879,3187,4635,4445,4490,3754,1838,4184,2952,4485,4639,4528
team0_TOTALGOLD,2500,2500,2942,4184,5601,7000,8431,10163,12273,14007,15492,17516,19410,21386,23411,25984,28499,30220,31459,33273,35454,37112,39057,40233,42233,44313,46559,49620,50865,51827,54531,56878,58280,60211,61555,61788
team0_LEVEL,5,5,6,12,17,22,24,27,30,33,35,36,40,43,45,48,51,52,54,55,57,60,61,62,64,65,67,70,71,71,74,76,77,78,79,79
team0_SBIRES,0,0,11,32,43,72,86,105,124,147,175,204,218,243,267,288,318,344,356,376,388,424,430,446,463,497,516,525,544,553,583,601,606,629,629,629
team1_KILLS,0,0,0,0,1,1,2,4,5,6,7,9,11,11,12,12,13,13,14,17,17,19,22,23,26,26,27,27,29,30,31,34,34,34,39,39
team1_CURRENTGOLD,2500,0,420,1881,2873,2501,3238,3192,1724,3479,3864,5040,6443,3049,2805,3553,2409,3983,4996,6153,1571,3703,6988,8338,5090,2060,4095,2450,5090,6934,3286,4876,2942,1206,4589,3336
team1_TOTALGOLD,2500,2500,2920,4381,6123,7176,8698,10642,11924,14529,16139,18205,20808,22639,24395,26218,27809,29458,31706,34513,35637,37769,41053,43543,46277,47457,49493,50736,53377,56480,58632,61072,62427,63791,67174,68294
team1_LEVEL,5,5,6,11,17,20,23,26,27,32,36,37,41,42,44,47,48,51,52,56,56,58,59,62,64,64,66,68,70,74,75,76,78,79,80,81
team1_SBIRES,0,0,11,40,59,76,98,113,126,161,176,210,238,258,293,309,333,359,380,407,425,450,460,484,506,515,541,556,573,583,615,626,652,667,674,694
delta_KILLS,0,0,0,0,0,0,0,0,0,0,-1,-2,-2,-2,-2,0,1,2,1,-1,2,0,-1,-2,-3,-2,-2,1,-1,-2,-1,-2,-1,-1,-5,-5
delta_CURRENTGOLD,0,500,22,-197,-472,1299,-42,-749,1329,-367,-1122,-1974,-2508,412,-219,-294,2080,602,-622,-4065,1678,1205,-586,-4010,789,1127,540,1995,-600,-3180,-1448,-692,10,3279,50,1192
delta_TOTALGOLD,0,0,22,-197,-522,-176,-267,-479,349,-522,-647,-689,-1398,-1253,-984,-234,690,762,-247,-1240,-183,-657,-1996,-3310,-4044,-3144,-2934,-1116,-2512,-4653,-4101,-4194,-4147,-3580,-5619,-6506
delta_LEVEL,0,0,0,1,0,2,1,1,3,1,-1,-1,-1,1,1,1,3,1,2,-1,1,2,2,0,0,1,1,2,1,-3,-1,0,-1,-1,-1,-2
delta_SBIRES,0,0,0,-8,-16,-4,-12,-8,-2,-14,-1,-6,-20,-15,-26,-21,-15,-15,-24,-31,-37,-26,-30,-38,-43,-18,-25,-31,-29,-30,-32,-25,-46,-38,-45,-65
