name,team0,team1
win,Fail,Win
firstBlood,True,False
firstTower,False,True
firstInhibitor,False,True
firstBaron,False,False
firstDragon,True,False
firstRiftHerald,True,False
towerKills,0,9
inhibitorKills,0,2
baronKills,0,0
dragonKills,1,3
riftHeraldKills,1,0
