name,team0,team1
win,Fail,Win
firstBlood,True,False
firstTower,False,True
firstInhibitor,False,True
firstBaron,True,False
firstDragon,True,False
firstRiftHerald,True,False
towerKills,3,10
inhibitorKills,0,1
baronKills,1,1
dragonKills,3,3
riftHeraldKills,1,0
