name,frame_0,frame_1,frame_2,frame_3,frame_4,frame_5,frame_6,frame_7,frame_8,frame_9,frame_10,frame_11,frame_12,frame_13,frame_14,frame_15,frame_16,frame_17,frame_18,frame_19,frame_20,frame_21,frame_22,frame_23,frame_24,frame_25
nameStamp,Tstart,Tearly,Tearly,Tearly,Tearly,Tearly,Tearly,Tearly,Tearly,Tearly,Tearly,Tearly,Tearly,Tearly,Tearly,Tmid,Tmid,Tmid,Tmid,Tmid,Tmid,Tmid,Tmid,Tmid,Tmid,Tmid
timestamp,0,60015,120034,180036,240052,300054,360083,420098,480113,540118,600136,660164,720182,780208,840229,900253,960285,1020302,1080329,1140330,1200332,1260341,1320343,1380352,1440355,1500355
participant_0_GOLD,500,500,921,1099,1566,1885,2171,2377,3018,3405,3591,3713,3975,4647,4861,5197,5546,5682,6770,6893,7646,7844,8086,8809,9240,9629
participant_0_CURRENTGOLD,500,0,421,599,1066,485,771,1607,648,35,221,43,305,977,271,607,956,242,1330,403,1156,253,496,1219,517,96
participant_0_LEVEL,1,1,1,1,3,4,5,6,7,7,8,8,9,9,9,10,10,10,11,12,12,12,13,13,13,14
participant_0_MINIONSKILLED,0,0,0,3,7,18,24,29,39,45,49,49,58,64,66,70,79,80,91,91,101,101,101,111,122,128
participant_0_KILLS,0,0,0,0,0,1,1,1,1,1,2,2,2,3,3,4,4,4,4,4,4,4,6,6,6,6
participant_0_BUY,[],"[1056, 3850, 2003, 2003, 3340]",[],[],[],[],"[1027, 1052, 2003]",[],[],"[3802, 2003]",[],[],[],[3285],[],[],"[3020, 3145]",[],[],[],[3030],[],[],[1058],[],[]
participant_0_SOLD,[],[],[],[2010],"[2003, 2003]",[2010],[],[],"[2010, 2003]","[1052, 1027]",[],[2003],[],"[3850, 3802]",[],[],[2422],[],[],[3851],[3145],[],[],[],[],[]
participant_0_UNDO,[],"[[0, 1056]]",[],[],[],[],[],[],[],[],[],[],[],[],[],[],[],[],[],[],[],[],[],[],[],[]
participant_1_GOLD,500,500,646,768,998,1283,1580,1703,1925,2237,2535,2757,2965,3394,3566,4089,4211,4588,4994,5316,6174,6322,7113,7774,8031,8419
participant_1_CURRENTGOLD,500,0,146,268,498,783,1080,1203,100,412,710,932,90,219,391,614,736,1113,1519,1841,2699,197,988,1649,256,644
participant_1_LEVEL,1,1,1,1,2,2,3,3,4,4,5,5,5,7,7,7,7,8,8,8,9,9,10,11,11,12
participant_1_MINIONSKILLED,0,0,0,0,0,0,0,0,0,0,0,0,0,4,4,4,4,5,7,7,8,8,8,8,8,11
participant_1_KILLS,0,0,0,0,0,0,0,0,0,0,0,0,0,0,0,1,1,1,1,1,2,2,4,5,5,5
participant_1_BUY,[],"[1039, 2031, 3340]",[],[],[],[],[],[],"[3751, 1041, 2055]",[],[],[],[3057],[1001],[],[3715],[],[],[],[],[],"[3068, 3047]",[],[],[3025],[]
participant_1_SOLD,[],[],[],[],[],[],[],[],[],[2055],[],[],[],[],[],"[1039, 1041]",[],[],[],[3340],[3513],"[3751, 1001]",[],[],[3057],[]
participant_1_UNDO,[],[],[],[],[],[],[],[],[],[],[],[],[],[],[],[],[],[],[],[],[],[],[],[],[],[]
participant_2_GOLD,500,500,577,906,1162,1682,2032,2266,2583,2748,2954,3382,3722,3921,4561,4957,5101,5223,5796,6307,7396,7662,8756,9202,9833,10347
participant_2_CURRENTGOLD,500,500,77,406,12,532,447,681,998,1163,24,452,792,991,1631,2027,1121,393,966,1477,2566,2832,3926,372,1003,1497
participant_2_LEVEL,1,1,1,3,4,5,6,6,7,7,8,8,9,9,10,10,10,11,11,12,12,12,13,13,14,14
participant_2_MINIONSKILLED,0,0,3,13,21,27,38,45,54,57,62,68,77,82,91,97,98,98,104,105,112,112,114,114,117,121
participant_2_KILLS,0,0,1,1,2,2,2,2,3,3,3,3,3,4,4,4,4,4,5,5,5,5,5,5,5,5
participant_2_BUY,[],"[1055, 2003, 3340]",[],[],[],[1053],[],[],[3144],[1043],[],[1001],[],[],"[3153, 1028]",[],[],[3044],[],[3057],[],[3101],[],[],"[3078, 3047]",[]
participant_2_SOLD,[],[],[],[2003],[],[],[],[1053],[],[],[],[],[],[],"[3144, 1043, 1055]",[],[],[1028],[],[],[],[],[],[],"[3101, 3057, 3044, 1001]",[]
participant_2_UNDO,[],[],[],[],[],[],[],[],[],[],[],[],[],[],[],[],[],[],[],[],[],[],[],[],[],[]
participant_3_GOLD,500,500,542,860,1085,1413,2119,2321,3256,3918,4439,5024,5217,5924,6768,7479,7711,7990,9151,10100,10558,11087,11339,11837,12480,13739
participant_3_CURRENTGOLD,500,0,42,360,235,563,1269,71,1006,742,1264,1849,217,924,1768,2479,2711,590,1751,2700,259,787,419,217,860,1939
participant_3_LEVEL,1,1,1,2,3,3,5,5,6,7,7,8,8,8,9,10,10,10,11,11,12,12,12,13,13,14
participant_3_MINIONSKILLED,0,0,1,12,16,19,33,33,47,53,59,64,68,78,92,94,99,104,118,123,123,129,129,129,131,136
participant_3_KILLS,0,0,0,0,0,0,1,1,3,4,5,6,6,7,8,9,9,9,11,13,14,15,15,16,17,21
participant_3_BUY,[],"[1055, 2003, 3340]",[],[],"[1001, 2003]",[],[],"[1038, 2003, 2003]",[],"[1037, 2003]",[],[],"[3031, 3009]",[],[],[],[],"[1038, 3133]",[],[],"[3508, 1038, 2015]",[],[1018],"[3095, 1042]",[],[]
participant_3_SOLD,[],[],[],[2003],[],[],[2003],[],[],[2003],[],"[2003, 2003]","[1038, 1037, 1001]",[],[],[],[],[],[],[],"[1038, 3133]",[],[1055],"[1038, 1018, 2015]",[],[]
participant_3_UNDO,[],[],[],[],[],[],[],[],[],[],[],[],[],[],[],[],[],[],[],[],[],[],[],[],[],[]
participant_4_GOLD,500,500,538,753,1010,1504,1639,1868,2365,2499,3087,3505,3712,4157,4773,5353,5658,6080,6479,7129,7591,7731,8837,9027,9449,9935
participant_4_CURRENTGOLD,500,0,38,253,510,1004,304,533,1030,599,1187,1605,1812,357,973,1553,8,430,829,1479,191,331,1437,377,799,1285
participant_4_LEVEL,1,1,1,2,3,4,4,4,5,5,6,7,7,8,8,9,9,10,10,11,11,11,12,12,13,13
participant_4_MINIONSKILLED,0,0,0,1,5,5,5,5,5,5,6,9,11,11,11,14,14,24,25,32,32,32,39,39,44,52
participant_4_KILLS,0,0,0,0,0,1,1,1,1,1,1,1,1,1,1,1,1,1,1,2,4,4,6,7,8,8
participant_4_BUY,[],[],"[1056, 2003, 2003, 3340]",[],"[1001, 1027]",[],[1052],[],[],[],"[3802, 1026, 3802]",[],[],[],[],[],[3285],[1026],[],[],[],[],[],"[3089, 1028]",[],[]
participant_4_SOLD,[],[],[],[],[],[],[],[],[],[],"[1052, 1027, 2003, 1052, 1027]",[],[],[],[],[2003],"[3802, 1026]",[],[],[],[],[],[],[],[],[]
participant_4_UNDO,[],[],[],[],[],[],[],[],[],[],"[[0, 3802]]",[],[],[],[],[],[],[],[],[],[],[],[],[],[],[]
participant_5_GOLD,500,500,521,706,1284,1511,1732,2394,2829,3115,3502,4498,4761,4883,5645,5767,5940,6180,6414,6558,6694,6887,7104,7226,7349,7541
participant_5_CURRENTGOLD,500,0,21,206,784,261,482,1144,779,315,702,1698,291,63,825,947,220,460,344,88,224,417,634,456,129,141
participant_5_LEVEL,1,1,1,1,3,4,5,6,7,7,8,9,10,10,10,10,10,10,11,11,11,11,11,11,11,12
participant_5_MINIONSKILLED,0,0,0,3,9,12,18,29,34,40,46,56,61,61,68,68,68,71,78,79,80,84,84,84,84,89
participant_5_KILLS,0,0,0,0,0,0,0,0,0,0,0,0,0,0,0,0,0,1,1,1,2,2,2,2,2,2
participant_5_BUY,[],"[2003, 1055]",[],[],[],[],"[1001, 1042]",[],[],[3006],[],[],[],[],[],[1038],[],[],[2015],[],[],[],"[3095, 1042]",[2015],[],[1042]
participant_5_SOLD,[],[],[],[],[],[2003],[],[],[],"[1001, 1042]",[],[],[],[],[],[],[],[],[],[],[],[],"[1038, 2015]",[1042],[],[]
participant_5_UNDO,[],[],[],[],[],[],[],[],[],[],[],[],[],[],[],[],[],[],[],[],[],[],[],[],[],[]
participant_6_GOLD,500,500,621,1063,1286,1618,1901,2065,2187,2310,2462,2690,2924,3635,4202,4485,4768,5209,5551,5773,6000,6450,7593,7715,7837,7953
participant_6_CURRENTGOLD,500,0,121,563,136,468,751,915,265,88,240,468,702,1413,1980,488,271,712,1054,176,403,503,163,15,137,253
participant_6_LEVEL,1,1,2,2,2,3,4,5,5,5,5,5,5,7,7,8,8,9,9,10,10,11,11,11,11,11
participant_6_MINIONSKILLED,0,0,0,0,0,1,1,4,4,4,5,5,5,10,10,10,12,14,14,14,16,16,16,16,16,16
participant_6_KILLS,0,0,0,0,0,0,0,0,0,0,0,0,0,0,0,0,0,0,0,0,0,0,0,0,0,0
participant_6_BUY,[],"[1056, 2003, 2003, 3340]",[],[],[1052],[],[],[],[],[],[3802],[],[],[],[1026],[],"[1026, 3020]",[],[],[],[],[],[3285],[],[],[]
participant_6_SOLD,[],[],[],[],"[2003, 2003]",[2403],[2403],[],[2403],[],[1052],[],[],[],[],[],[2422],[],[],[],[],[],"[3802, 1026]",[],[],[]
participant_6_UNDO,[],[],[],[],[],[],[],[],[],[],[],[],[],[],[],[],"[[0, 1026]]",[],[],[],[],[],[],[],[],[]
participant_7_GOLD,500,500,570,931,1089,1246,1462,1760,2035,2321,2471,2656,2849,3006,3179,3376,3591,3755,3968,4133,4255,4392,4542,4748,5017,5146
participant_7_CURRENTGOLD,500,0,70,431,154,311,527,825,1100,1386,671,856,1049,1206,529,726,140,305,518,683,805,941,42,248,517,646
participant_7_LEVEL,1,1,1,3,4,4,5,6,6,7,7,8,8,9,9,10,10,10,10,10,10,11,11,11,11,12
participant_7_MINIONSKILLED,0,0,3,8,10,12,15,25,31,37,39,43,47,49,49,49,51,54,59,62,62,63,65,70,74,75
participant_7_KILLS,0,0,0,0,0,0,0,0,0,0,0,0,0,0,0,1,1,1,1,1,1,1,1,1,1,1
participant_7_BUY,[],"[3862, 2003, 3340]",[],[],[],[],[],"[1036, 1036]",[3134],[],[],[1036],[],[1036],[],[],[],[],"[3179, 3067]",[],[1028],[],[3044],[],[],[]
participant_7_SOLD,[],[],[],"[2010, 2003]",[],[2010],[],[],"[2010, 1036, 1036]",[],[],[],[],[3862],[],[],[],[],"[3134, 1036, 1036]",[],[],[],"[3863, 1028]",[],[],[]
participant_7_UNDO,[],[],[],[],[],[],[],[],[],[],[],[],[],[],[],[],[],[],[],[],[],[],[],[],[],[]
participant_8_GOLD,500,500,598,818,1032,1231,1375,1584,1762,1920,2154,2298,2504,2725,2898,3062,3392,3911,4034,4191,5163,5384,5610,5824,6092,6228
participant_8_CURRENTGOLD,500,0,98,318,532,731,275,484,662,320,554,698,904,1125,1298,162,492,1011,434,591,1563,1784,510,324,592,428
participant_8_LEVEL,1,1,1,2,3,4,4,5,5,6,6,6,7,7,7,7,8,8,8,9,10,10,10,11,11,11
participant_8_MINIONSKILLED,0,0,4,9,14,18,19,25,28,30,36,37,42,44,44,46,50,55,55,57,68,74,76,82,87,88
participant_8_KILLS,0,0,0,0,1,1,1,2,2,2,2,3,3,3,3,3,3,3,3,3,3,3,3,3,3,3
participant_8_BUY,[],"[3340, 1055, 2003]",[],[],[],"[1001, 1028, 2003]",[],[],[3006],"[1036, 3067]",[],[],"[3044, 3071, 3071]",[1036],[],[],"[1053, 1036]",[],[1036],[3133],[],[],[],[1029],[1033],[]
participant_8_SOLD,[],[],[2003],[],[],[2003],[],[],[1001],[1028],[],[],"[1036, 1055, 3044, 3067, 3044, 3067]",[],[],[],[1036],[],[],"[1036, 1036]",[],[],[],[],[],[]
participant_8_UNDO,[],[],[],[],[],[],[],[],[],[],[],[],"[[0, 3071]]",[],[],[],[],[],[],[],[],[],[],[],[],[]
participant_9_GOLD,500,500,582,784,987,1217,1352,1486,1679,1866,2051,2200,2401,2587,2792,3281,3677,3868,4068,4245,4619,4809,5111,5251,5607,5760
participant_9_CURRENTGOLD,500,50,132,334,537,767,902,336,129,316,501,300,501,337,542,1031,1427,1618,418,595,569,759,211,351,707,860
participant_9_LEVEL,1,1,1,2,3,4,4,4,4,4,4,5,6,6,6,6,7,8,8,8,9,9,10,10,10,11
participant_9_MINIONSKILLED,0,0,1,3,4,4,4,4,5,8,8,9,11,11,11,11,14,15,15,16,16,18,20,20,28,29
participant_9_KILLS,0,0,0,1,1,1,1,1,1,1,1,1,1,2,3,3,3,3,3,3,3,4,5,5,5,5
participant_9_BUY,[],"[1041, 2031, 3340]",[],[],[3706],[],[],[],"[3715, 1001, 1042]",[1042],[],[],[],[],[],"[1419, 1028, 1036]",[3044],[],[],[3101],[],[1027],"[3078, 1033]",[1057],[],[]
participant_9_SOLD,[],[],[],[],[1041],[],[],[],[3706],[],[],[],[],[],[],"[1042, 1042, 3715]","[1028, 1036]",[],[],[],[],[],"[3101, 1027, 3044]",[1033],[],[]
participant_9_UNDO,[],[],[],[],[],[],[],[],[],[],[],[],[],[],[],[],[],[],[],[],[],[],[],[],[],[]
team0_KILLS,0,0,1,1,2,4,5,5,8,9,11,12,12,15,16,19,19,19,22,25,29,30,36,39,41,45
team0_CURRENTGOLD,2500,500,724,1886,2321,3367,3871,4095,3782,2951,3406,4881,3216,3468,5034,7280,5532,2768,6395,7900,6871,4400,7266,3834,3435,5461
team0_TOTALGOLD,2500,2500,3224,4386,5821,7767,9541,10535,13147,14807,16606,18381,19591,22043,24529,27075,28227,29563,33190,35745,39365,40646,44131,46649,49033,52069
team0_LEVEL,5,5,5,9,15,18,23,24,29,30,34,36,38,41,43,46,46,49,51,54,56,56,60,62,64,67
team0_SBIRES,0,0,4,29,49,69,100,112,145,160,176,190,214,239,264,279,294,311,345,358,376,382,391,401,422,448
team1_KILLS,0,0,0,1,2,2,2,3,3,3,3,4,4,5,6,7,7,8,8,8,9,10,11,11,11,11
team1_CURRENTGOLD,2500,50,442,1852,2143,2538,2937,3704,2935,2425,2668,4020,3447,4144,5174,3354,2550,4106,2768,2133,3564,4404,1560,1394,2082,2328
team1_TOTALGOLD,2500,2500,2892,4302,5678,6823,7822,9289,10492,11532,12640,14342,15439,16836,18716,19971,21368,22923,24035,24900,26731,27922,29960,30764,31902,32628
team1_LEVEL,5,5,6,10,15,19,22,26,27,29,30,33,36,39,39,41,43,45,46,48,50,52,53,54,54,57
team1_SBIRES,0,0,8,23,37,47,57,87,102,119,134,150,166,175,182,184,195,209,221,228,242,255,261,272,289,297
delta_KILLS,0,0,1,0,0,2,3,2,5,6,8,8,8,10,10,12,12,11,14,17,20,20,25,28,30,34
delta_CURRENTGOLD,0,450,282,34,178,829,934,391,847,526,738,861,-231,-676,-140,3926,2982,-1338,3627,5767,3307,-4,5706,2440,1353,3133
delta_TOTALGOLD,0,0,332,84,143,944,1719,1246,2655,3275,3966,4039,4152,5207,5813,7104,6859,6640,9155,10845,12634,12724,14171,15885,17131,19441
delta_LEVEL,0,0,-1,-1,0,-1,1,-2,2,1,4,3,2,2,4,5,3,4,5,6,6,4,7,8,10,10
delta_SBIRES,0,0,-4,6,12,22,43,25,43,41,42,40,48,64,82,95,99,102,124,130,134,127,130,129,133,151
