name,frame_0,frame_1,frame_2,frame_3,frame_4,frame_5,frame_6,frame_7,frame_8,frame_9,frame_10,frame_11,frame_12,frame_13,frame_14,frame_15,frame_16,frame_17,frame_18,frame_19,frame_20,frame_21,frame_22,frame_23,frame_24,frame_25,frame_26,frame_27,frame_28,frame_29,frame_30,frame_31,frame_32,frame_33,frame_34,frame_35,frame_36,frame_37,frame_38
nameStamp,Tstart,Tearly,Tearly,Tearly,Tearly,Tearly,Tearly,Tearly,Tearly,Tearly,Tearly,Tearly,Tearly,Tearly,Tearly,Tmid,Tmid,Tmid,Tmid,Tmid,Tmid,Tmid,Tmid,Tmid,Tmid,Tmid,Tmid,Tmid,Tmid,Tmid,Tmid,Tend,Tend,Tend,Tend,Tend,Tend,Tend,Tend
timestamp,0,60014,120028,180041,240057,300069,360095,420106,480115,540132,600157,660168,720179,780196,840209,900219,960222,1020244,1080252,1140264,1200292,1260315,1320340,1380359,1440388,1500418,1560418,1620444,1680474,1740495,1800514,1860546,1920553,1980568,2040584,2100605,2160636,2220654,2280654
participant_0_GOLD,500,500,562,1538,1660,2242,2631,2815,3447,3820,4304,4445,4974,5097,6392,6529,7239,7700,8668,9148,10173,10685,11523,11687,12045,12740,13416,13538,13950,14205,14432,15209,15465,16670,18405,18812,19760,19932,20019
participant_0_CURRENTGOLD,500,0,62,1038,60,642,1031,215,847,1220,1704,312,841,164,1459,96,806,392,235,715,1740,1053,190,354,712,1408,2084,736,1147,152,380,1157,1013,2218,3953,2260,2708,2380,2286
participant_0_LEVEL,1,1,1,3,3,5,6,6,7,7,8,8,9,9,10,10,11,11,11,12,13,13,14,14,14,15,15,15,15,15,15,16,16,17,17,18,18,18,18
participant_0_MINIONSKILLED,0,0,2,10,10,19,31,34,51,61,68,69,80,80,90,91,95,101,105,121,132,134,134,137,143,154,155,155,158,161,165,166,169,178,187,189,191,191,191
participant_0_KILLS,0,0,0,2,2,3,3,3,3,3,4,4,4,4,4,4,5,5,6,6,8,8,10,10,10,11,13,13,13,13,13,15,15,17,21,21,23,23,23
participant_0_BUY,[],"[1055, 2003, 3340]",[],[],[3051],[],[],"[3057, 1001]",[],[],[],[3078],[],[3111],[],"[3044, 1028]",[],[1037],"[3053, 1028]",[],[],"[3066, 1031]","[3742, 1028]",[],[],[],[],"[3211, 3067]",[],"[3065, 1028]",[],[],[3066],[],[],[4401],[2138],[2138],[]
participant_0_SOLD,[],[],[2003],[],[],[],[],[],[],[],[],"[3057, 3051]",[],[1001],[],[],[],"[3340, 3513]","[1037, 3044, 1028]",[],[],[1028],"[3066, 1031]",[],[],[],[],"[1028, 1055]",[],"[3211, 3067]",[],[],[1028],[],[],[3066],[2138],[2138],[]
participant_0_UNDO,[],[],[],[],[],[],[],[],[],[],[],[],[],[],[],[],[],[],[],[],[],[],[],[],[],[],[],[],[],[],[],[],[],[],[],[],[],[],[]
participant_1_GOLD,500,500,620,913,1318,1525,1725,1982,2104,2412,2619,3032,3154,3276,4089,4242,4619,5049,5370,5663,6158,6550,6977,7365,7609,7851,8274,8396,9151,9445,9658,9952,10088,10560,11146,11693,11955,12212,12299
participant_1_CURRENTGOLD,500,0,120,413,818,1025,1225,1482,304,612,819,1232,1354,101,914,1067,1444,1874,395,688,1183,1575,602,990,1234,576,999,271,1026,1320,1533,1827,764,1235,1821,19,280,538,624
participant_1_LEVEL,1,1,2,2,4,4,4,5,5,5,5,6,6,6,7,8,8,9,9,9,10,10,11,12,12,12,13,13,14,14,14,15,15,16,16,17,17,17,17
participant_1_MINIONSKILLED,0,0,0,0,0,0,0,0,0,0,0,0,0,0,0,0,0,0,0,0,6,6,6,8,8,8,14,14,15,15,15,15,16,17,19,20,21,21,21
participant_1_KILLS,0,0,0,0,0,0,0,0,0,1,1,1,1,1,1,1,2,3,3,3,3,3,3,3,3,3,3,3,3,3,3,3,3,3,3,3,3,3,3
participant_1_BUY,[],"[3850, 2003, 2003, 3340]",[],[],[],[1052],[],[],[4642],[],"[1001, 1028, 2031]",[],[3067],[],[],[],[],[],"[3009, 4005]",[],[],[],[3191],[],[],[],[3108],[3157],[1028],[1052],[],[],[1026],[],[3364],[],[],[3165],[]
participant_1_SOLD,[],[],[],"[2003, 2003]",[2010],[2010],[],[2010],[1052],[],[3850],[],[1028],[2419],[],[],[],[],"[1001, 3067, 4642, 3851]",[],[],[2423],[],[],[],[],[2031],"[3191, 3108, 2424]",[],[],[],[],[],[],[3340],[],[],"[1026, 1052]",[]
participant_1_UNDO,[],[],[],[],[],[],[],[],[],[],[],[],[],[],[],[],[],[],[],[],[],[],[],[],[],[],[],[],[],"[[0, 1028]]",[],[],[],[],[],[],[],[],[]
participant_2_GOLD,500,500,597,1004,1316,1571,1970,2546,2787,3359,3481,3882,4681,4909,5379,5972,6328,6833,7616,7940,8687,9109,9685,9837,10374,10559,11024,11160,11507,11889,12032,12340,12498,13043,13623,14218,14818,16128,16215
participant_2_CURRENTGOLD,500,0,97,494,806,401,790,1366,357,919,81,472,1271,264,724,67,423,928,321,645,107,529,1105,42,579,765,794,466,378,759,903,346,504,1049,429,1024,1624,1684,1790
participant_2_LEVEL,1,1,1,3,4,5,6,7,7,8,8,9,10,10,10,11,11,12,12,12,13,13,13,13,14,14,14,14,15,15,15,15,15,16,16,17,17,18,18
participant_2_MINIONSKILLED,0,0,4,18,29,34,47,56,63,76,76,88,100,106,119,123,133,139,141,149,149,156,161,162,169,173,175,176,176,184,185,187,189,197,197,206,211,218,218
participant_2_KILLS,0,0,0,0,0,0,0,0,0,0,0,0,0,0,1,1,1,1,1,1,1,2,2,2,2,2,2,2,3,3,3,3,3,3,3,3,3,3,3
participant_2_BUY,[],"[1039, 2031, 3340]",[],[],[],[],[],[],"[6660, 1029]",[],[],[],[],"[1031, 3111, 2055]",[],[],[],[],"[6662, 1028]",[],[],[],"[3082, 3067]",[],[],[3143],[],"[1033, 1028]",[],[],[],[],"[3211, 3067]",[],[],"[3065, 3105]",[],[],[]
participant_2_SOLD,[],[],[],[],[],[],[],[],[],[1039],[],[],[],"[1029, 2422]",[],[],[],[],"[6660, 1031]",[],[],[],[1028],[2055],[],"[3082, 3067]",[],[],[],[],[],[],"[1028, 1033]",[],[],"[3211, 3067]",[],[],[]
participant_2_UNDO,[],[],[],[],[],[],[],[],[],[],[],[],[],[],[],[],[],[],[],[],[],[],[],[],[],[],[],[],[],[],[],[],[],[],[],[],[],[],[]
participant_3_GOLD,500,500,562,790,1399,1591,1833,2112,2339,2703,3125,3325,3934,4205,4908,5240,5377,5654,6657,6935,7605,8191,8313,8656,9134,9842,10304,10527,11996,12317,12639,12922,13135,14047,14526,15099,15388,16868,17279
participant_3_CURRENTGOLD,500,0,62,290,899,1091,1333,1612,239,603,225,425,134,405,1108,1440,77,354,1357,335,1005,1591,839,1181,1659,2367,405,627,2096,617,939,1223,315,1228,1707,679,969,2449,2679
participant_3_LEVEL,1,1,1,2,3,3,4,5,5,6,6,6,7,7,8,9,9,9,10,11,12,12,12,13,13,14,14,14,15,15,15,15,15,16,17,17,17,18,18
participant_3_MINIONSKILLED,0,0,2,7,15,19,26,32,38,43,43,47,47,50,59,67,68,74,83,86,102,114,114,114,125,127,127,127,131,132,132,138,139,147,153,153,155,165,165
participant_3_KILLS,0,0,0,0,0,0,0,1,1,1,1,1,2,2,2,3,3,3,4,4,6,6,7,7,8,8,9,9,9,9,9,9,9,9,10,10,11,13,13
participant_3_BUY,[],"[3070, 2003, 2003]",[],[],[],"[1027, 1001]",[],[],[1058],[],[3003],[],[],"[3020, 1052]",[],"[1026, 1028]",[],[],"[3116, 2055]",[],"[1026, 1052]",[],[],"[3916, 1028, 3165]",[],[],[1052],[3108],[1052],[],[],[3802],[],[],[6653],[],[],[1058],[]
participant_3_SOLD,[],[],[],[],[],[],[],[],[],[],"[2003, 2003, 3070, 1058, 1027]",[],[],[1001],[],[3003],[],[],"[1026, 1028, 1052]",[2055],[],[],[],"[1052, 1026, 3916, 1028]",[],[],[],[1052],[],[],[],[1052],[],[],"[3802, 3108]",[],[],[],[]
participant_3_UNDO,[],[],[],[],[],[],[],[],[],[],[],[],[],[],[],[],[],[],[],[],[],[],[],[],[],[],[],[],[],[],[],[],[],[],[],[],[],[],[]
participant_4_GOLD,500,500,542,717,892,1026,1235,1537,1671,2254,2434,2614,2825,3033,3223,3384,3912,4513,4753,4921,5130,5406,5546,5716,5893,6235,6640,6780,7114,7305,7537,7679,7824,8178,8473,8953,9337,9527,9619
participant_4_CURRENTGOLD,500,0,42,217,392,91,300,602,121,704,34,214,25,233,423,584,1112,1713,503,671,880,1156,396,567,744,1085,650,340,274,430,662,804,99,454,748,1228,1612,587,619
participant_4_LEVEL,1,1,1,2,3,3,4,4,5,5,5,6,6,6,7,7,8,8,8,8,8,9,9,9,10,10,11,11,12,12,12,12,12,13,13,14,14,14,14
participant_4_MINIONSKILLED,0,0,0,0,0,0,1,3,3,5,5,5,6,8,8,8,10,11,11,13,13,14,14,15,15,17,17,17,17,17,21,21,21,22,22,23,29,29,29
participant_4_KILLS,0,0,0,0,1,1,1,1,1,1,2,2,3,3,3,3,3,3,4,4,5,5,5,5,5,7,7,7,11,11,11,11,11,12,12,12,12,15,16
participant_4_BUY,[],"[1055, 2003, 3340]",[],[],[],[],[],[],"[6670, 1001]",[],[3006],[],[1053],[],[],[],"[6673, 1042]",[],[],[1038],[],[],[1037],[],[],[],"[3031, 3086, 1042]",[],[],"[3046, 1018]",[],[],[3140],[],[],"[3139, 1018]",[],[],[]
participant_4_SOLD,[],[],[],[],[],[],[2003],[],[],[],[1001],[],[],[],[],[],"[6670, 1053]",[],[],[],[],[],[],[],[],[],"[1038, 1037, 1042]",[],[],"[1042, 3086]",[],[],[1055],[],[],"[3140, 1018]",[],[],[]
participant_4_UNDO,[],[],[],[],[],[],[],[],[],[],[],[],[],[],[],[],[],[],[],[],[],[],[],[],[],[],[],[],[],[],[],[],[],[],[],[],[],[],[]
participant_5_GOLD,500,500,620,933,1314,1498,1706,1933,2155,2401,2805,3063,3270,3692,4035,4242,4390,4562,4859,5294,5418,5604,5793,6046,6198,6321,6618,6840,7138,7388,7899,8872,9189,9361,9540,9818,10083,10282,10319
participant_5_CURRENTGOLD,500,0,120,433,814,998,206,433,655,901,1305,438,645,1067,1410,167,315,412,409,844,168,354,543,296,448,171,468,190,488,738,249,1222,1539,12,190,468,733,933,969
participant_5_LEVEL,1,1,2,3,3,4,4,5,5,6,6,7,7,8,8,8,9,9,9,10,10,10,10,10,10,10,11,11,12,12,13,13,14,14,14,14,15,15,15
participant_5_MINIONSKILLED,0,0,0,0,0,0,0,0,0,0,2,2,2,2,2,2,2,2,6,6,6,10,11,11,12,12,12,12,12,15,18,18,18,18,21,22,22,22,22
participant_5_KILLS,0,0,0,0,0,0,0,0,0,0,0,0,0,2,2,3,3,3,3,3,3,3,3,3,3,3,3,3,3,3,3,3,3,3,3,3,3,4,4
participant_5_BUY,[],"[2033, 3340]",[],[2055],[],[],"[1028, 1001]",[],"[1028, 6660]",[],[],[3047],"[1029, 2055]",[],"[1031, 3076]",[],[6662],[],[],"[3133, 2031, 2055]",[1029],[],"[1031, 1031]",[1031],[2055],[],[6333],"[1028, 2055]",[3067],[],[1028],[],[],[3211],[],[],"[3065, 2055, 1028]",[1011],[2140]
participant_5_SOLD,[],[],[],[2010],[],[2010],[],[],"[2010, 1028, 1028]",[],[2055],[1001],[],[],"[1029, 2055]",[],"[2033, 6660, 1031]",[],[],[],[2031],[],"[2055, 1029, 1029]",[1029],[],[],"[2055, 1031, 3133]",[],"[2055, 1028]",[],[],[],[],[1028],[],[],"[3211, 3067, 2055]",[1028],[2140]
participant_5_UNDO,[],[],[],[],[],[],[],[],[],[],[],[],[],[],[],[],[],[],[],[],[],[],"[[0, 1031]]","[[0, 1031]]",[],[],[],[],[],[],[],[],[],[],[],[],[],[],[]
participant_6_GOLD,500,500,562,748,962,1298,1421,1833,2073,2305,2611,2942,3141,4635,4758,5431,5554,6203,6620,6989,7285,7572,7731,8126,8373,8720,9145,9367,9718,9840,10262,10581,11004,11176,11558,12008,12238,13279,13316
participant_6_CURRENTGOLD,500,0,62,173,387,723,146,558,228,460,796,327,151,1645,498,1171,94,743,1160,204,260,547,206,601,773,1120,345,92,43,165,188,506,929,252,634,1083,18,560,-284
participant_6_LEVEL,1,1,1,2,3,4,4,5,6,7,7,8,8,9,9,10,10,11,12,12,12,12,12,13,13,14,14,14,14,14,15,15,15,15,16,16,16,17,17
participant_6_MINIONSKILLED,0,0,2,5,11,19,19,33,37,43,51,60,64,76,76,85,85,94,101,105,109,112,112,122,126,140,140,140,140,140,140,147,156,156,158,169,169,176,176
participant_6_KILLS,0,0,0,0,0,0,0,1,1,1,3,3,5,5,5,5,5,5,5,5,5,5,7,7,7,7,8,8,9,9,9,10,10,10,11,11,13,13,13
participant_6_BUY,[],"[1055, 2003, 3340]",[],[],"[1036, 2055, 2003]",[],[],[],"[6670, 1001, 2055]",[],[],[],"[6671, 2003]",[],[3009],[],[],[],[1038],[],[1018],[1042],[],"[3095, 3086]",[],[2015],[3094],[1036],"[3123, 1042]",[],[3086],[3033],[],[],[1038],[],[3031],[],[]
participant_6_SOLD,[],[],[],[],[],[],[2003],[2003],[1036],[],[],[2055],[6670],[2003],[1001],[],[],[2055],[1055],[],[],[],[],"[1038, 1018, 1042]",[],[],"[3086, 2015]",[],[1036],[],[1042],"[3123, 3086]",[],[],[],[],[1038],[],[]
participant_6_UNDO,[],[],[],[],[],[],[],[],[],[],[],[],[],[],[],[],[],[],[],[],[],[],[],[],[],[],[],[],[],[],[],[],[],[],[],[],[],[],[]
participant_7_GOLD,500,500,625,909,1242,1603,1970,2228,2527,2721,3272,3559,3925,4557,4890,5322,5621,6060,6507,6903,7026,7270,7432,7728,7900,8045,8580,9277,9701,9887,10497,11007,11180,11620,11742,12436,13731,14380,14417
participant_7_CURRENTGOLD,500,0,125,399,732,1083,1440,-152,87,281,832,259,225,857,1180,-88,161,600,247,643,76,320,82,378,550,-155,330,1027,-199,-63,547,208,120,560,183,-24,21,-230,-133
participant_7_LEVEL,1,1,1,3,4,5,6,6,7,7,8,8,9,9,10,10,10,11,11,12,12,12,12,12,12,12,13,13,14,14,14,15,15,15,15,16,16,17,17
participant_7_MINIONSKILLED,0,0,6,12,23,34,44,51,58,62,66,72,77,87,95,100,106,117,118,127,127,129,129,135,138,139,146,151,151,155,162,172,172,178,178,200,200,214,214
participant_7_KILLS,0,0,0,0,0,0,0,0,0,0,1,1,1,1,1,2,2,2,3,3,3,3,3,3,3,3,3,4,5,5,5,5,5,5,5,5,6,6,6
participant_7_BUY,[],"[1056, 2003, 2003, 3340]",[],[],[],[],[],"[3145, 1028, 1001, 2003, 2003]",[],[],[],[1026],[1082],[],[],"[3152, 3020]",[],[],[3067],[],"[1028, 1033]",[],[3211],[],[],[3065],[],[],"[3916, 1026]",[],[],[3165],[1028],[],[1011],[1026],[3116],[3191],[]
participant_7_SOLD,[],[],[],[],[2003],[],[2003],[],[],"[2003, 2003]",[],[],[],[],[],"[3145, 1028, 1026, 1001]",[],[],[],[],[1056],[],"[1028, 1033]",[],[],"[3211, 3067]",[],[],[],[],[],"[1026, 3916]",[1082],[],[1028],[],"[1026, 1011]",[],[]
participant_7_UNDO,[],[],[],[],[],[],[],[],[],[],[],[],[],[],[],[],[],[],[],[],[],[],[],[],[],[],[],[],[],[],[],[],[],[],[],[],[],[],[]
participant_8_GOLD,500,500,583,881,1046,1378,1693,2185,2412,2647,3369,3796,4580,4870,5151,5315,5522,6028,6200,6881,7205,7363,8937,9275,9623,9745,10557,11064,11552,11936,12476,13160,13507,14588,15026,15374,16402,16539,16575
participant_8_CURRENTGOLD,500,0,83,381,71,403,718,1210,112,347,1069,1496,130,420,101,265,472,978,30,711,435,293,1867,506,853,275,287,444,183,566,206,191,537,1619,757,1104,33,170,25
participant_8_LEVEL,1,1,1,2,3,3,4,5,5,5,6,6,8,8,8,9,9,9,9,10,10,10,11,12,12,12,13,13,14,14,14,15,15,16,16,16,17,17,17
participant_8_MINIONSKILLED,0,0,3,13,15,25,33,37,43,50,50,63,66,76,77,80,81,88,91,106,114,116,121,130,133,133,137,145,145,156,159,161,167,186,187,190,194,195,195
participant_8_KILLS,0,0,0,0,0,0,0,0,0,0,0,0,0,0,0,0,0,0,0,0,0,0,0,0,0,0,0,0,0,0,0,1,1,1,1,1,1,1,1
participant_8_BUY,[],"[1039, 2031, 3340]",[],[],[],[],[6660],[],[],[],[],"[1029, 1001, 1033, 2055]",[],[],[],[3068],[],"[2055, 3364, 2055, 2055]","[3009, 1029]",[],[3111],[],[],[3076],[],[1028],[],[1011],[],[],[3075],[],[],"[1057, 3066]",[],[],[],[],[]
participant_8_SOLD,[],[],[],[],[],[],[],[],[1039],[],[],[],[2055],[],[],"[6660, 1033, 1029]",[],[3340],[1001],[],[1001],[],[],[1029],[],[],[],[1028],[],[2055],"[3076, 1011]",[],[],[],[],[],[],[],[]
participant_8_UNDO,[],[],[],[],[],[],[],[],[],[],[],[],[],[],[],[],[],"[[0, 2055], [0, 2055]]","[[0, 3009]]",[],[],[],[],[],[],[],[],[],[],[],[],[],[],[],[],[],[],[],[]
participant_9_GOLD,500,520,582,757,1013,1167,1382,1746,1935,2194,2374,2654,2869,3077,3606,3862,4065,4734,5145,5340,5480,6019,6372,6663,6958,8128,9523,10064,10254,10395,10835,11293,11718,11908,12205,12446,12865,13011,13095
participant_9_CURRENTGOLD,500,20,82,257,513,667,882,1246,165,424,99,379,594,802,501,757,960,1629,715,910,250,789,342,633,928,2099,1794,2334,274,415,855,1313,1738,678,976,1216,1635,1782,970
participant_9_LEVEL,1,1,1,2,3,4,4,5,5,5,6,6,6,7,7,8,8,9,9,10,10,10,11,11,11,12,13,13,13,13,14,14,15,15,15,15,16,16,16
participant_9_MINIONSKILLED,0,0,0,0,1,1,1,1,3,3,3,3,4,6,7,7,11,13,24,24,24,29,32,41,50,54,64,68,68,68,68,68,77,77,82,84,90,90,92
participant_9_KILLS,0,0,0,0,0,0,0,0,0,0,0,0,0,0,1,1,1,2,2,2,2,3,3,3,3,4,6,6,6,6,6,7,7,7,7,7,7,7,7
participant_9_BUY,[],"[3850, 2003, 3340, 2003]",[],[],[],[],[],[],"[1052, 1052, 1027, 2003]",[],"[3802, 1001, 2055, 2003]",[],[],[],[1026],[],[],[],"[6655, 3364, 2055]",[],[3020],[],[3916],[],[],[],[3165],[],[3157],[],[],[],[],[1058],[],[],[],[],[]
participant_9_SOLD,[],[],[],[2003],[2003],[],"[2010, 2010]",[2010],[],"[3850, 2003]","[1052, 1027, 1052]",[],[],[2419],[2003],[3851],[2055],[],"[3802, 1026, 3340]",[],[1001],[],[2055],[],[],[],[3916],[],[2423],[],[],[],[],[],[],[],[],[1058],[]
participant_9_UNDO,[],[],[],[],[],[],[],[],[],[],[],[],[],[],[],[],[],[],[],[],[],[],[],[],[],[],[],[],[],[],[],[],[],[],[],[],[],"[[1058, 0]]",[]
team0_KILLS,0,0,0,2,3,4,4,5,5,6,8,8,10,10,11,12,14,15,18,18,23,24,27,27,28,31,34,34,39,39,39,41,41,44,49,49,52,57,58
team0_CURRENTGOLD,2500,0,383,2452,2975,3250,4679,5277,1868,4058,2863,2655,3625,1167,4628,3254,3862,5261,2811,3054,4915,5904,3132,3134,4928,6201,4932,2440,4921,3278,4417,5357,2695,6184,8658,5210,7193,7638,7998
team0_TOTALGOLD,2500,2500,2883,4962,6585,7955,9394,10992,12348,14548,15963,17298,19568,20520,23991,25367,27475,29749,33064,34607,37753,39941,42044,43261,45055,47227,49658,50401,53718,55161,56298,58102,59010,62498,66173,68775,71258,74667,75431
team0_LEVEL,5,5,6,12,17,20,24,27,29,31,32,35,38,38,42,45,47,49,50,52,56,57,59,61,63,65,67,67,71,71,71,73,73,78,79,83,83,85,85
team0_SBIRES,0,0,8,35,54,72,105,125,155,185,192,209,233,244,276,289,306,325,340,369,402,424,429,436,460,479,488,489,497,509,518,527,534,561,578,591,607,624,624
team1_KILLS,0,0,0,0,0,0,0,1,1,1,4,4,6,8,9,11,11,12,13,13,13,14,16,16,16,17,20,21,23,23,23,26,26,26,27,27,30,31,31
team1_CURRENTGOLD,2500,20,472,1643,2517,3874,3392,3295,1247,2413,4101,2899,1745,4791,3690,2272,2002,4362,2561,3312,1189,2303,3040,2414,3552,3510,3224,4087,789,1821,2045,3440,4863,3121,2740,3847,2440,3215,1547
team1_TOTALGOLD,2500,2520,2972,4228,5577,6944,8172,9925,11102,12268,14431,16014,17785,20831,22440,24172,25152,27587,29331,31407,32414,33828,36265,37838,39052,40959,44423,46612,48363,49446,51969,54913,56598,58653,60071,62082,65319,67491,67722
team1_LEVEL,5,5,6,12,16,20,22,26,28,30,33,35,38,41,42,45,46,49,50,54,54,54,56,58,58,60,64,64,67,67,70,72,74,75,76,77,80,82,82
team1_SBIRES,0,0,11,30,50,79,97,122,141,158,172,200,213,247,257,274,285,314,340,368,380,396,405,439,459,478,499,516,516,534,547,566,590,615,626,665,675,697,699
delta_KILLS,0,0,0,2,3,4,4,4,4,5,4,4,4,2,2,1,3,3,5,5,10,10,11,11,12,14,14,13,16,16,16,15,15,18,22,22,22,26,27
delta_CURRENTGOLD,0,-20,-89,809,458,-624,1287,1982,621,1645,-1238,-244,1880,-3624,938,982,1860,899,250,-258,3726,3601,92,720,1376,2691,1708,-1647,4132,1457,2372,1917,-2168,3063,5918,1363,4753,4423,6451
delta_TOTALGOLD,0,-20,-89,734,1008,1011,1222,1067,1246,2280,1532,1284,1783,-311,1551,1195,2323,2162,3733,3200,5339,6113,5779,5423,6003,6268,5235,3789,5355,5715,4329,3189,2412,3845,6102,6693,5939,7176,7709
delta_LEVEL,0,0,0,0,1,0,2,1,1,1,-1,0,0,-3,0,0,1,0,0,-2,2,3,3,3,5,5,3,3,4,4,1,1,-1,3,3,6,3,3,3
delta_SBIRES,0,0,-3,5,4,-7,8,3,14,27,20,9,20,-3,19,15,21,11,0,1,22,28,24,-3,1,1,-11,-27,-19,-25,-29,-39,-56,-54,-48,-74,-68,-73,-75
