name,team0,team1
win,Win,Fail
firstBlood,True,False
firstTower,True,False
firstInhibitor,True,False
firstBaron,False,False
firstDragon,True,False
firstRiftHerald,True,False
towerKills,7,0
inhibitorKills,1,0
baronKills,0,0
dragonKills,3,0
riftHeraldKills,2,0
