name,frame_0,frame_1,frame_2,frame_3,frame_4,frame_5,frame_6,frame_7,frame_8,frame_9,frame_10,frame_11,frame_12,frame_13,frame_14,frame_15,frame_16,frame_17,frame_18,frame_19,frame_20,frame_21,frame_22,frame_23,frame_24,frame_25,frame_26,frame_27,frame_28
nameStamp,Tstart,Tearly,Tearly,Tearly,Tearly,Tearly,Tearly,Tearly,Tearly,Tearly,Tearly,Tearly,Tmid,Tmid,Tmid,Tmid,Tmid,Tmid,Tmid,Tmid,Tmid,Tmid,Tmid,Tmid,Tmid,Tend,Tend,Tend,Tend
timestamp,0,60009,120023,180024,240052,300056,360065,420071,480078,540079,600101,660111,720128,780140,840149,900168,960180,1020192,1080201,1140211,1200223,1260226,1320243,1380257,1440279,1500295,1560316,1620324,1680331
participant_0_GOLD,500,500,655,931,1215,1485,1859,2244,2631,3515,3903,4920,5257,5652,6013,6407,7027,7295,7664,8270,8392,8899,9216,9423,10061,10424,10616,10754,11208
participant_0_CURRENTGOLD,500,0,155,431,715,85,459,69,456,1340,428,295,632,1027,1388,107,652,120,489,1095,147,654,971,229,516,429,222,359,813
participant_0_LEVEL,1,1,1,2,3,4,5,6,7,8,8,9,9,10,10,10,11,11,11,12,12,13,13,13,14,14,14,14,15
participant_0_MINIONSKILLED,0,0,0,9,18,24,38,51,63,76,82,96,106,121,131,132,138,138,149,164,164,182,189,189,189,193,193,194,195
participant_0_KILLS,0,0,0,0,2,2,2,2,2,3,3,3,3,3,3,3,3,4,4,6,6,6,6,6,7,7,8,8,8
participant_0_BUY,[],"[1055, 2003, 3340]",[],[],[],"[1037, 1001, 2003]",[],[],[],[1038],[],[],[],[],"[3031, 3009, 1042]",[],[1018],"[3086, 2015]",[],[],"[3094, 1038, 3363]",[],[],[1018],[],"[3095, 1033]","[3140, 3155]",[],[]
participant_0_SOLD,[],[],[],[2003],[],[],[2003],[],[],[],[],[],[],[],"[1038, 1037, 1001]",[],[],"[1018, 1042]",[],[],"[3086, 2015, 1055, 3340]",[],[],[],[],"[1038, 1018]","[1033, 1033]",[],[]
participant_0_UNDO,[],[],[],[],[],[],[],[],[],[],[],[],[],[],[],[],[],[],[],[],[],[],[],[],[],[],"[[0, 3140]]",[],[]
participant_1_GOLD,500,500,1082,1334,1833,2168,2487,2609,2865,3193,3768,4296,4762,5171,5548,6074,6467,7320,7857,8372,8495,8937,9275,9719,10286,10873,11152,11444,12907
participant_1_CURRENTGOLD,500,0,582,834,1333,1668,1987,59,315,343,918,1446,512,921,1298,124,517,1370,132,647,30,472,810,379,946,159,12,304,1767
participant_1_LEVEL,1,1,2,3,3,4,5,5,5,6,7,8,8,9,9,9,10,11,11,11,11,12,12,13,14,14,14,15,15
participant_1_MINIONSKILLED,0,0,0,0,0,2,3,3,6,6,8,8,10,14,16,21,21,22,22,26,26,27,29,30,31,38,39,39,44
participant_1_KILLS,0,0,1,1,2,2,2,2,2,2,2,2,3,3,3,3,3,4,5,5,5,5,5,5,5,5,5,5,7
participant_1_BUY,[],"[1041, 3340, 2031]",[],[],[],[],[],"[3715, 3133, 1001, 3364]",[],[1042],[],[],"[1412, 1018, 2055]",[],[],"[1038, 2015]",[],[],"[3095, 1038, 2055]",[],[1018],[],[],"[3111, 2055]",[],"[3031, 2055]","[1036, 2055]",[],[]
participant_1_SOLD,[],[],[],[],[],[],[],"[1041, 3340]",[],[],[],[],"[3133, 3715]",[2055],"[3364, 3513]",[1042],[],[],"[1038, 1018, 2015]",[2055],[2031],[],[],[1001],[2055],"[1038, 1018]",[],[2055],[2055]
participant_1_UNDO,[],[],[],[],[],[],[],[],[],[],[],[],[],[],[],[],[],[],[],[],[],[],[],[],[],[],[],[],[]
participant_2_GOLD,500,500,611,947,1361,1679,2056,2256,2448,2666,3491,4191,4645,4767,5090,5564,5749,6054,7096,7361,7525,7996,8119,8499,10182,10899,11831,12280,14357
participant_2_CURRENTGOLD,500,0,111,447,51,19,396,596,173,391,1216,1916,2370,57,380,854,239,544,86,350,515,986,1109,1489,3172,574,1506,156,2233
participant_2_LEVEL,1,1,1,3,3,4,5,6,6,6,7,7,8,8,9,9,9,10,11,11,11,11,12,12,13,13,14,14,15
participant_2_MINIONSKILLED,0,0,5,15,17,26,38,42,46,46,50,57,66,66,74,85,89,92,104,106,109,125,125,136,143,153,153,164,173
participant_2_KILLS,0,0,0,0,0,0,0,0,0,0,0,0,0,0,0,0,1,1,1,1,1,1,1,1,1,1,1,1,1
participant_2_BUY,[],"[1055, 2003, 3340]",[],[],[],[1053],[],"[3144, 2055]",[],[],"[1043, 1001]","[3153, 1033]",[],[],[],"[3077, 3111]",[2055],[3067],[],[],[3044],[],[],[3071],[1036],[3123],[1028],[],[]
participant_2_SOLD,[],[],[],[],[],[2003],[],[1053],[],[],[],"[3144, 1043]",[2055],[],[],"[1001, 1033]",[],[],[],[],[1055],[],[],"[3044, 3067]",[],"[1036, 2055]",[],[],[]
participant_2_UNDO,[],[],[],[],[],[],[],[],[],[],[],[],[],[],[],[],[],[],[],[],[],[],[],[],[],[],[],[],[]
participant_3_GOLD,500,500,583,810,1720,2003,2352,2694,3053,3496,4032,4442,4834,5202,5388,6042,6406,7283,7595,8575,8697,9079,9454,9576,10839,11180,11792,11915,12554
participant_3_CURRENTGOLD,500,0,83,310,1220,278,627,969,1328,471,1007,1417,1809,2177,238,892,456,333,645,1625,127,509,884,206,1469,260,23,145,785
participant_3_LEVEL,1,1,1,2,4,4,5,5,6,6,7,7,8,8,8,9,9,10,10,11,11,11,11,11,13,13,13,13,14
participant_3_MINIONSKILLED,0,0,3,10,15,22,33,45,56,56,68,78,89,100,104,115,124,135,135,141,141,147,152,152,152,157,157,157,157
participant_3_KILLS,0,0,0,0,0,0,0,0,0,0,2,3,3,3,3,3,3,3,5,5,5,5,5,5,8,8,10,10,13
participant_3_BUY,[],"[1082, 2031]",[],[],"[1052, 1001, 2055]",[1036],[],[],[3145],[],[],[],[],"[3146, 1052]",[],[],[3020],[],"[3136, 1052]",[],[],[],[],[],[],"[3151, 3041, 3191]",[],[3157],[]
participant_3_SOLD,[],[],[],[],[],[],[2055],[],[1052],[],[],[],[],"[1036, 3145]",[],[],[1001],[],[1052],[],[],[],[],[],[],"[3136, 1082, 1052]",[],[3191],[]
participant_3_UNDO,[],[],[],[],[],[],[],[],[],[],[],[],[],[],[],[],[],[],[],[],[],[],[],[],[],[],[],[],[]
participant_4_GOLD,500,500,567,791,1063,1198,1347,1497,1721,1945,2101,2515,2794,3024,3303,3713,3989,4367,4943,5321,5461,5630,5771,5911,6651,6902,7092,7257,8072
participant_4_CURRENTGOLD,500,0,67,291,238,373,147,297,521,195,351,765,119,349,628,388,664,1042,118,496,201,370,361,36,776,192,382,547,897
participant_4_LEVEL,1,1,1,2,2,3,3,4,5,5,5,6,6,7,7,7,8,9,9,10,10,10,10,10,11,11,12,12,12
participant_4_MINIONSKILLED,0,0,0,0,0,0,0,0,0,0,1,1,1,2,5,5,5,5,5,5,5,7,7,7,10,12,12,14,14
participant_4_KILLS,0,0,0,0,0,0,0,0,0,0,0,0,0,0,0,0,0,0,0,0,0,0,0,0,0,0,0,0,1
participant_4_BUY,[],"[3850, 2003, 2003, 3340]",[],[],"[1004, 1004, 2055]",[],"[1001, 2055]",[],[],[3114],[],[],"[3113, 2055, 3364]",[],[],[3504],[],[],"[3117, 3028]",[],[1052],[],"[2055, 2055]",[3108],[],"[3174, 1052]",[],[],[3108]
participant_4_SOLD,[],[],[],[2010],[2055],[2003],[2003],[],[2010],"[1004, 1004]",[2055],[2010],"[3850, 3340]",[],[],"[3114, 3113]",[],[],[1001],[],[3851],[2055],[],[1052],[],"[3108, 3028]",[],[2055],[1052]
participant_4_UNDO,[],[],[],[],[],[],[],[],[],[],[],[],[],[],[],[],[],[],[],[],[],[],[],[],[],[],[],[],[]
participant_5_GOLD,500,500,520,663,1064,1417,1666,1875,2608,3005,3128,3628,3841,4217,4504,4677,5016,5210,5758,6043,6166,6511,7025,7169,7341,7527,7699,7956,8379
participant_5_CURRENTGOLD,500,0,20,163,564,917,216,75,808,1205,93,593,806,1182,304,302,641,835,298,583,241,336,850,994,316,427,599,856,94
participant_5_LEVEL,1,1,1,1,3,4,5,5,6,6,6,7,8,8,9,9,10,10,10,11,11,11,11,12,12,12,13,13,13
participant_5_MINIONSKILLED,0,0,0,1,15,26,33,35,44,44,44,55,60,72,78,78,87,90,90,93,93,102,105,106,106,110,110,110,110
participant_5_KILLS,0,0,0,0,0,0,0,0,1,1,1,1,2,2,3,3,4,4,4,6,6,6,6,6,6,6,8,8,8
participant_5_BUY,[],"[1056, 2003, 2003, 3340]",[],[],[],[],"[3108, 1001, 2055, 2031]",[],[3158],[1052],[3113],[],[],[1058],[],[3907],[],[1058],[],[1058],[3089],[],[],[3916],[],"[1026, 3191]",[],"[3157, 3165]",[]
participant_5_SOLD,[],[],[],[2003],[],[2003],[],[],[1001],[],[1052],[],[],[],[],"[1058, 3113]",[],[],[],[2031],"[1058, 1058]",[],[],[],[],[1056],[],"[3191, 3108, 3916]",[]
participant_5_UNDO,[],[],[],[],[],[],"[[0, 2055]]",[],[],[],[],[],[],[],[],[],[],[],[],[],[],[],[],[],[],"[[0, 1026]]",[],[],[]
participant_6_GOLD,500,500,520,742,896,1150,1389,1626,1848,2157,2465,2672,2900,3107,3522,3809,4206,4339,4831,5189,5969,6281,6454,6723,6916,7228,7550,7758,7918
participant_6_CURRENTGOLD,500,0,20,242,96,350,89,326,173,482,790,297,25,232,647,934,156,289,81,439,1219,556,129,398,591,903,125,333,43
participant_6_LEVEL,1,1,1,2,2,3,3,4,4,4,5,5,6,6,6,7,8,8,8,9,10,10,10,11,11,11,12,12,12
participant_6_MINIONSKILLED,0,0,0,0,0,0,0,1,1,1,1,1,1,1,2,2,2,3,3,3,5,5,5,6,6,6,6,9,9
participant_6_KILLS,0,0,0,0,0,0,0,0,0,0,0,0,0,0,0,0,0,0,1,1,2,2,2,2,2,2,2,2,2
participant_6_BUY,[],"[1041, 2031, 3340]",[],[],"[1001, 1001]",[],"[1036, 1039, 2055, 2055, 3364]",[],"[3715, 2055]",[],[],"[1028, 1029]",[3751],[],[],[],"[3047, 1413, 2055]",[],"[1029, 1028]",[],[],"[1031, 3067, 2055]",[3109],[],[],[],[3105],[],[1033]
participant_6_SOLD,[],[],[],[],[],[],[3340],[2055],"[1039, 1041]",[],[],[],[1028],[],[2055],[],"[1001, 1029, 3751, 3715]",[],[2055],[],[],"[1029, 1028, 2031]","[3067, 1031]",[2055],[],[],[],[2055],[]
participant_6_UNDO,[],[],[],[],"[[0, 1001]]",[],"[[0, 1036]]",[],[],[],[],[],[],[],[],[],[],[],[],[],[],"[[2031, 0]]",[],[],[],[],[],[],[]
participant_7_GOLD,500,500,597,824,1236,1484,1966,2288,2556,2919,3146,3441,3991,4281,4537,5247,5788,5911,6485,6820,7297,7562,8153,9759,10066,10661,11133,11514,11674
participant_7_CURRENTGOLD,500,0,97,324,736,159,641,188,456,819,1046,41,591,881,237,947,113,236,510,345,822,212,803,2409,391,386,138,519,329
participant_7_LEVEL,1,1,1,2,3,4,5,5,5,6,7,7,8,8,8,9,9,9,10,11,11,12,12,13,13,13,14,14,14
participant_7_MINIONSKILLED,0,0,4,11,21,25,37,46,52,63,69,76,80,90,98,107,114,114,125,132,145,149,165,176,176,191,194,202,202
participant_7_KILLS,0,0,0,0,0,0,0,0,0,0,0,0,1,1,1,2,2,2,2,2,2,2,2,4,4,4,4,4,4
participant_7_BUY,[],"[1055, 2003, 3340]",[],[],[],"[1036, 1036, 2003, 2055]",[],"[3133, 1001, 2055]",[],[],[],[1038],[],[],[3508],[],"[1038, 2055]",[],[1042],[3006],[],[1037],[],[],"[3031, 1018, 1042]","[3086, 1042]","[2015, 3094]",[],[1036]
participant_7_SOLD,[],[],[2003],[],[],[],[2003],"[1036, 1036]",[],[2055],[],[2055],[],[],"[1038, 3133]",[],[3400],[],[],"[1001, 1042]",[],[],[],[2055],"[1038, 1037]","[1018, 1042]","[1042, 1055, 3086, 2015]",[],[]
participant_7_UNDO,[],[],[],[],[],[],[],[],[],[],[],[],[],[],[],[],[],[],[],[],[],[],[],[],[],[],[],[],[]
participant_8_GOLD,500,500,597,908,1330,1627,1855,2145,2884,3386,3578,3909,4870,5202,5994,6369,7025,7279,7990,9099,9360,9748,10397,10919,11092,11493,13413,13867,14027
participant_8_CURRENTGOLD,500,0,97,408,830,1127,-45,245,384,401,178,509,1470,552,1344,919,1575,579,1290,1209,371,758,1407,330,502,-86,1833,-63,97
participant_8_LEVEL,1,1,1,3,4,5,5,6,7,8,8,9,10,10,11,11,12,12,13,13,13,14,14,14,14,15,16,16,16
participant_8_MINIONSKILLED,0,0,4,15,30,38,44,54,61,71,75,84,94,106,116,127,137,141,159,170,174,185,193,200,200,212,225,229,229
participant_8_KILLS,0,0,0,0,0,0,0,0,1,2,2,2,2,2,2,2,2,2,3,3,3,3,4,4,4,4,4,4,4
participant_8_BUY,[],"[1029, 2003, 2003, 2003, 2003]",[],[],[],[],"[3191, 2003, 2003, 2003]","[1001, 2003]",[],[],"[1052, 3020]",[],[],[],"[3136, 2003, 2003]","[2003, 2055, 2003, 3363]",[],[],"[2420, 1052]",[],[3108],[3157],[],[],[1026],[2055],[],[],"[3151, 1052]"
participant_8_SOLD,[],[],[],[2003],[],[2003],"[1029, 2003, 2003]",[2003],[],[2003],[1001],[2003],[2003],[],"[1052, 2003, 2003]",[3340],[],"[2003, 2003]",[],[2420],[1052],"[3191, 3108, 2421]",[],[2055],[],[],[],[],"[3400, 3136, 1026]"
participant_8_UNDO,[],[],[],[],[],[],[],[],[],[],[],[],[],[],[],[],[],[],[],[],[],[],[],[],[],[],[],[],[]
participant_9_GOLD,500,500,564,698,1154,1351,1841,2062,2286,2509,2654,2802,3170,3339,3500,4481,4621,4772,5101,5311,5492,5692,6028,6359,6799,7137,9812,10172,10933
participant_9_CURRENTGOLD,500,0,64,198,79,276,766,47,271,69,64,212,580,749,160,116,256,407,386,276,57,257,593,924,264,602,3277,97,58
participant_9_LEVEL,1,1,1,2,2,3,3,4,4,5,5,5,6,6,6,7,7,7,8,9,9,9,9,10,10,11,12,12,12
participant_9_MINIONSKILLED,0,0,2,2,2,3,5,7,9,9,10,11,14,16,17,17,17,18,22,22,24,26,27,29,29,35,39,40,40
participant_9_KILLS,0,0,0,0,1,1,2,2,2,2,2,2,2,2,2,3,3,3,3,3,3,3,3,3,4,4,7,7,8
participant_9_BUY,[],"[3854, 2003, 3340, 2003]",[],[],"[1036, 2055, 2031]",[],[],[3117],[],"[1036, 2055]",[2031],[],[],[],"[3134, 1036, 3364]","[3179, 2055]",[],[],[1036],[1036],[3134],[],[],[],[3133],[],[],"[3147, 3134, 3142]",[1031]
participant_9_SOLD,[],[],[],"[2003, 2003]",[],[2055],[],[2031],[],[],[2055],[],[],[3854],"[1036, 1036, 3340]","[3400, 3134, 1036]",[],[],[],[2055],"[1036, 1036]",[],[],[],[],[],[3855],"[3134, 3133, 2031, 3134]",[3400]
participant_9_UNDO,[],[],[],[],[],[],[],[],[],[],[],[],[],[],[],[],[],[],[],[],[],[],[],[],[],[],[],[],[]
team0_KILLS,0,0,1,1,4,4,4,4,4,5,7,8,9,9,9,9,10,12,15,17,17,17,17,17,21,21,24,24,30
team0_CURRENTGOLD,2500,0,998,2313,3557,2423,3616,1990,2793,2740,3920,5839,5442,4531,3932,2365,2528,3409,1470,4213,1020,2991,4135,2339,6879,1614,2145,1511,6495
team0_TOTALGOLD,2500,2500,3498,4813,7192,8533,10101,11300,12718,14815,17295,20364,22292,23816,25342,27800,29638,32319,35155,37899,38570,40541,41835,43128,48019,50278,52483,53650,59098
team0_LEVEL,5,5,6,12,15,19,23,26,29,31,34,37,39,42,43,44,47,51,52,55,55,57,58,59,65,65,67,68,71
team0_SBIRES,0,0,8,34,50,74,112,141,171,184,209,240,272,303,330,358,377,392,415,442,445,488,502,514,525,553,554,568,583
team1_KILLS,0,0,0,0,1,1,2,2,4,5,5,5,7,7,8,10,11,11,13,15,16,16,17,19,20,20,25,25,26
team1_CURRENTGOLD,2500,0,298,1335,2305,2829,1667,881,2092,2976,2171,1652,3472,3596,2692,3218,2741,2346,2565,2852,2710,2119,3782,5055,2064,2232,5972,1742,621
team1_TOTALGOLD,2500,2500,2798,3835,5680,7029,8717,9996,12182,13976,14971,16452,18772,20146,22057,24583,26656,27511,30165,32462,34284,35794,38057,40929,42214,44046,49607,51267,52931
team1_LEVEL,5,5,5,10,14,19,21,24,26,29,31,33,38,38,40,43,46,46,49,53,54,56,56,60,60,62,67,67,67
team1_SBIRES,0,0,10,29,68,92,119,143,167,188,199,227,249,285,311,331,357,366,399,420,441,467,495,517,517,554,574,590,590
delta_KILLS,0,0,1,1,3,3,2,2,0,0,2,3,2,2,1,-1,-1,1,2,2,1,1,0,-2,1,1,-1,-1,4
delta_CURRENTGOLD,0,0,700,978,1252,-406,1949,1109,701,-236,1749,4187,1970,935,1240,-853,-213,1063,-1095,1361,-1690,872,353,-2716,4815,-618,-3827,-231,5874
delta_TOTALGOLD,0,0,700,978,1512,1504,1384,1304,536,839,2324,3912,3520,3670,3285,3217,2982,4808,4990,5437,4286,4747,3778,2199,5805,6232,2876,2383,6167
delta_LEVEL,0,0,1,2,1,0,2,2,3,2,3,4,1,4,3,1,1,5,3,2,1,1,2,-1,5,3,0,1,4
delta_SBIRES,0,0,-2,5,-18,-18,-7,-2,4,-4,10,13,23,18,19,27,20,26,16,22,4,21,7,-3,8,-1,-20,-22,-7
