name,frame_0,frame_1,frame_2,frame_3,frame_4,frame_5,frame_6,frame_7,frame_8,frame_9,frame_10,frame_11,frame_12,frame_13,frame_14,frame_15,frame_16,frame_17,frame_18,frame_19,frame_20,frame_21,frame_22,frame_23,frame_24,frame_25,frame_26,frame_27,frame_28,frame_29,frame_30,frame_31,frame_32
nameStamp,Tstart,Tearly,Tearly,Tearly,Tearly,Tearly,Tearly,Tearly,Tearly,Tearly,Tearly,Tearly,Tearly,Tearly,Tearly,Tearly,Tmid,Tmid,Tmid,Tmid,Tmid,Tmid,Tmid,Tmid,Tmid,Tmid,Tmid,Tmid,Tmid,Tmid,Tmid,Tmid,Tmid
timestamp,0,60028,120060,180107,240132,300150,360181,420182,480207,540214,600244,660263,720291,780311,840313,900325,960330,1020334,1080367,1140391,1200420,1260433,1320463,1380474,1440476,1500486,1560487,1620508,1680533,1740536,1800547,1860551,1920551
participant_0_GOLD,500,500,584,899,1141,1424,1669,2056,2401,2708,2921,3343,3465,3861,4421,4753,5002,5403,5693,5816,6092,6377,6499,7249,7617,7990,8113,8458,8581,9004,9726,10007,10082
participant_0_CURRENTGOLD,500,0,84,399,641,124,369,56,401,708,921,1343,165,561,71,403,652,1053,1343,166,442,727,349,1099,367,740,263,608,331,454,476,758,-68
participant_0_LEVEL,1,1,1,3,4,5,5,6,7,8,8,9,9,9,10,10,11,11,12,12,12,12,13,13,13,14,14,14,14,15,15,15,15
participant_0_MINIONSKILLED,0,0,3,12,18,27,31,37,47,55,60,74,74,87,91,100,107,119,129,129,138,144,144,159,166,176,176,185,185,199,199,204,204
participant_0_KILLS,0,0,0,0,0,0,0,0,1,1,1,1,1,1,1,1,1,1,1,1,1,1,1,1,1,1,1,1,1,1,1,2,2
participant_0_BUY,[],"[3850, 2003, 2003, 3340]",[],[],[],"[2055, 1001]",[],[],[3108],[],[],[1052],"[2055, 2055]",[],[],[],[3191],[],[],[3157],[],[],[],[],"[3117, 1052, 2055, 2055, 3364]",[],[],[3108],[],[],[],[1052],[]
participant_0_SOLD,[],[],[],[],[],[],[2055],[],[],[],"[2003, 2003]",[],[],"[2419, 2423]",[3850],[],[1052],[2055],[],"[3191, 3108, 2424]",[2055],[],[],[],"[1001, 3340]",[],[3851],[1052],[],[],[],[],[]
participant_0_UNDO,[],[],[],[],[],[],[],[],[],[],[],[],[],[],[],[],[],[],[],[],[],[],[],[],[],[],[],[],[],[],[],[],[]
participant_1_GOLD,500,500,682,1013,1318,1440,1688,1946,2153,2376,2613,3171,3493,3715,3937,4390,4628,4970,5108,5245,5502,5791,5955,6700,7758,8101,8287,8527,9034,9185,9357,9650,9725
participant_1_CURRENTGOLD,500,0,182,513,818,215,463,286,493,176,63,621,943,1165,262,715,953,195,333,470,652,141,305,1050,1018,1361,222,387,894,970,1142,186,200
participant_1_LEVEL,1,1,2,3,4,4,4,5,5,5,6,7,7,7,8,8,9,9,9,10,10,10,10,11,11,12,12,12,12,12,13,13,13
participant_1_MINIONSKILLED,0,0,0,0,0,0,0,0,0,0,1,1,2,2,3,3,4,4,4,5,5,7,7,8,10,12,15,18,23,25,25,26,26
participant_1_KILLS,0,0,0,0,0,0,0,0,0,0,0,0,0,0,1,1,1,1,1,1,1,1,1,1,1,1,1,1,1,1,2,2,2
participant_1_BUY,[],"[2033, 3340]",[],[],[],[1031],[],"[1028, 1001]",[],[],[],[],"[3751, 1028, 3047]",[],[3068],[],[],[],[],"[1011, 1029]",[],[],[1031],[],[3742],[],"[1029, 1029]",[],[3076],[1029],[3082],[],[3075]
participant_1_SOLD,[],[],[],[],[],[],[],[],[],[],[],[],"[1028, 1001]",[],"[1031, 3751]",[],[],[],[],[],[],[],[1029],[],"[1031, 1011]",[],[],[],"[1029, 1029]",[],[1029],[],"[2033, 3076, 3082]"
participant_1_UNDO,[],[],[],[],[],[],[],[],[],[],[],[],"[[0, 1028]]",[],[],[],[],[],[],[],[],[],[],[],[],[],[],[],[],[],[],[],[]
participant_2_GOLD,500,500,626,899,1113,1354,1676,1931,2423,2751,3041,3597,3930,4150,4780,5286,5538,6347,6769,7249,7413,8762,8975,9222,9639,10145,10309,10532,10787,10909,11666,12816,12890
participant_2_CURRENTGOLD,500,0,126,399,213,19,341,596,1088,251,541,172,505,725,305,811,263,1072,244,724,888,2237,260,72,489,995,310,532,787,910,1666,202,115
participant_2_LEVEL,1,1,1,3,4,4,5,6,6,7,8,9,9,10,10,11,11,12,12,12,12,13,13,13,14,14,14,15,15,15,15,16,16
participant_2_MINIONSKILLED,0,0,6,12,18,22,31,39,44,53,63,71,80,86,94,99,103,113,113,116,119,128,134,134,145,150,153,153,157,157,169,171,171
participant_2_KILLS,0,0,0,0,0,0,0,0,0,0,0,0,0,0,0,0,0,0,0,0,0,0,0,0,0,0,0,0,0,0,0,0,0
participant_2_BUY,[],"[2003, 1055, 3340]",[],[],[],"[1083, 2031, 2055]",[],[],[],"[1037, 3070]",[],[],[3004],[],[3009],[],[],"[1036, 3363]",[],"[3134, 1036]",[],[],[3142],[1036],[],[],[3133],[],[],[],[3134],[3147],[]
participant_2_SOLD,[],[],[],[],"[2010, 2003]",[],[],[],[2010],[2010],[],[],"[3070, 1037]",[],[2422],[],[],"[2031, 3340]",[],"[1036, 1083]",[],[],"[1036, 3134]",[],[],[],"[1055, 1036]",[3004],[],[],[],"[3134, 3133]",[]
participant_2_UNDO,[],[],[],[],[],[],[],[],[],[],[],[],[],[],[],[],[],[],[],[],[],[],[],[],[],[],[],[],[],[],[],[],[]
participant_3_GOLD,500,500,563,905,1189,1403,1692,2076,2726,2907,3236,3556,3770,4030,4217,4472,4910,5197,5870,5993,6473,6751,6977,7401,7547,7672,7795,8194,8873,9284,9573,9695,9773
participant_3_CURRENTGOLD,500,0,63,405,689,228,517,901,1551,37,366,686,225,485,72,327,765,762,1435,638,1118,1396,172,246,392,517,70,469,1148,1559,748,171,-202
participant_3_LEVEL,1,1,1,2,3,3,4,5,6,6,7,7,8,8,8,9,9,10,10,10,11,11,11,12,12,12,12,13,13,13,14,14,14
participant_3_MINIONSKILLED,0,0,2,14,21,26,35,46,56,59,68,78,83,87,90,97,111,120,127,127,139,145,151,157,158,158,158,169,180,188,190,190,190
participant_3_KILLS,0,0,0,0,0,0,0,0,1,1,1,2,2,2,3,4,4,5,6,7,7,9,9,9,9,10,10,10,10,10,11,12,12
participant_3_BUY,[],"[1056, 2003, 2003, 3340]",[],[],[1056],[1052],[],[],[],"[3802, 1001]",[],"[1026, 2055]",[],[],[3285],[],[3020],[],[1058],[],[],[],[3089],[1052],[],[],[1026],[],[],[],[],"[3135, 1058]",[]
participant_3_SOLD,[],[],[],[2003],[],[2003],[],[],[],[1052],[],[],[2055],[],"[3802, 1026]",[],[1001],[],[],[],[],[],"[1056, 1058]",[],[],[],[],[],[],[],[],"[1026, 1052]",[]
participant_3_UNDO,[],[],[],[],[],[],[],[],[],[],[],[],[],[],[],[],[],[],[],[],[],[],[],[],[],[],[],[],[],[],[],[],[]
participant_4_GOLD,500,500,523,672,882,1016,1166,1360,1839,2040,2243,2393,2557,2766,3113,3256,3427,3567,3707,3923,4073,4280,4420,4688,4984,5272,5443,5736,5877,6018,6208,7315,7401
participant_4_CURRENTGOLD,500,0,23,172,382,141,291,485,64,265,468,183,197,406,753,896,402,542,682,248,398,605,745,1013,24,312,483,311,453,593,783,1456,1541
participant_4_LEVEL,1,1,1,2,3,3,4,4,5,5,6,6,6,7,7,8,8,8,8,8,8,8,9,9,10,11,11,11,11,12,12,13,13
participant_4_MINIONSKILLED,0,0,0,0,0,0,0,0,0,2,3,3,4,4,5,5,5,5,5,5,6,6,6,10,11,14,14,19,19,19,19,21,21
participant_4_KILLS,0,0,0,0,0,0,0,0,0,0,0,1,1,1,1,1,1,1,1,1,1,1,1,2,3,3,3,3,4,4,4,4,4
participant_4_BUY,[],"[1039, 2031, 3340]",[],[],[],"[3706, 2055, 3364]",[],"[1052, 2055]",[],"[3108, 2055]",[1027],[],[],[],"[1402, 3020, 2055]",[],[],[3191],[],[],[2055],"[2420, 2055, 2055]",[],[],[3157],[],"[1058, 2055]",[2055],[],[2055],[],[1058],[]
participant_4_SOLD,[],[],[],[],[],"[1039, 3340]",[],[2055],[],"[1052, 2055]",[],[],[],[],"[3108, 1027, 3706, 2422]",[2055],[],[],[],[],[],[2055],[],"[2055, 2420]","[2031, 3191, 2421]",[2055],[],[],"[2055, 2055]",[],[],[],[]
participant_4_UNDO,[],[],[],[],[],[],[],"[[0, 2055]]",[],[],[],[],[],[],[],[],[],[],[],[],[],[],[],[],[],[],[],[],[],[],[],[],[]
participant_5_GOLD,500,500,598,962,1225,1452,1774,2099,2519,2924,3479,3862,4404,4962,5464,6142,7062,7185,7781,8649,9029,9694,9941,11002,11188,11868,12467,13005,13510,13783,14962,16339,16513
participant_5_CURRENTGOLD,500,0,98,462,725,77,399,724,244,649,1204,137,679,1237,1739,92,1012,135,731,1599,1979,2644,451,1513,1698,2378,2977,3515,401,674,1852,3230,3163
participant_5_LEVEL,1,1,1,2,3,3,4,5,5,6,6,7,7,8,8,8,9,9,10,10,11,11,12,12,12,13,14,14,14,15,15,16,16
participant_5_MINIONSKILLED,0,0,4,16,24,30,38,50,54,67,75,82,94,103,107,113,121,121,127,135,145,151,151,160,164,175,178,180,184,188,197,204,204
participant_5_KILLS,0,0,0,0,1,1,1,1,2,2,2,2,2,2,3,3,3,3,3,4,4,6,7,7,8,8,11,11,11,11,11,11,11
participant_5_BUY,[],"[1055, 1054, 3340, 2003]",[],[],"[1036, 1001, 1042, 1042, 2031]",[],"[3006, 2055]",[],[1018],[],[],"[3086, 1042]",[],[],[3046],[1037],[],[],[],"[1038, 1018]","[3031, 3364]",[],[1053],[3105],[],[],[],[3812],[],[],[3035],[],[]
participant_5_SOLD,[],[],[],[2003],[],[],"[1001, 1042]",[2055],[],[],[],"[1018, 1042]",[],[],"[1042, 3086]",[],[],[],[],[2031],"[1038, 1037, 1018, 3340]",[],[],[],[],[],[],"[3105, 1053]",[],[],[],[],[]
participant_5_UNDO,[],"[[0, 1055]]",[],[],"[[0, 1036]]",[],[],[],[],[],[],[],[],[],[],[],[],[],[],[],[],[],[],[],[],[],[],[],[],[],[],[],[]
participant_6_GOLD,500,500,674,928,1233,1442,1785,2083,2505,2713,3420,3803,3995,4328,4903,5346,5752,6220,6649,7361,7774,8127,8910,9393,9666,10456,11055,11468,11848,12268,12757,13331,13812
participant_6_CURRENTGOLD,500,0,174,428,733,942,1285,383,805,363,1070,1453,245,578,1153,396,802,1270,1699,2411,424,777,1560,2043,476,1266,1866,78,459,879,317,891,1312
participant_6_LEVEL,1,1,2,3,3,4,5,5,6,6,7,8,8,9,9,10,10,11,12,12,13,13,14,14,15,15,16,16,16,17,17,18,18
participant_6_MINIONSKILLED,0,0,0,0,0,0,0,0,0,0,0,1,5,10,12,12,16,16,16,18,18,18,19,19,20,29,31,31,32,33,33,37,39
participant_6_KILLS,0,0,0,0,0,0,0,0,0,0,1,1,1,2,2,2,3,3,4,6,6,7,7,9,9,10,10,10,10,10,12,15,15
participant_6_BUY,[],"[2003, 1055, 3340]",[],[],[],[1037],[],[],[3009],[],[],"[1038, 2031]",[],[],[],"[3031, 1018, 1042]",[],"[3086, 2015]",[],[],[],[],"[3046, 1038]",[],[],[],[],[],"[3095, 3094]",[],[],[],[]
participant_6_SOLD,[],[],[],[],[2003],[],[],[],[],[],[],[],[],[],[],"[1038, 1037]",[],"[1018, 1042]",[],[],[],[],"[3086, 2031]",[],[],[],[],[],"[1038, 2015, 1055]",[],[],[],[]
participant_6_UNDO,[],[],[],[],[],[],[],[],[],[],[],[],[],[],[],[],[],[],[],[],[],[],[],[],[],[],[],[],[],[],[],[],[]
participant_7_GOLD,500,500,577,895,1610,2054,2268,2596,3068,3540,3987,4180,4555,4834,5501,5757,6143,6628,7014,7506,7865,8759,9729,9966,10349,10556,11653,11893,12314,12658,13030,13490,14125
participant_7_CURRENTGOLD,500,0,77,395,60,504,143,471,143,615,1062,655,1030,1309,1076,457,843,1328,1714,166,100,994,1064,201,584,791,1888,529,949,1293,216,676,1250
participant_7_LEVEL,1,1,1,3,4,5,5,6,6,7,8,8,9,9,10,10,11,12,12,13,13,13,14,14,14,14,15,15,15,16,16,16,17
participant_7_MINIONSKILLED,0,0,3,14,22,38,43,53,54,66,76,80,91,100,110,115,124,141,151,151,161,172,183,184,184,184,189,192,199,203,203,208,215
participant_7_KILLS,0,0,0,0,0,0,0,0,0,0,1,1,1,1,2,2,2,2,2,2,2,2,2,2,2,3,3,3,4,4,4,4,4
participant_7_BUY,[],"[1039, 2031, 3340]",[],[],[],[],[],"[3751, 1001]",[],[3706],[],[],"[1401, 3111, 3364]",[],[],[3211],[],[],[],[],"[3194, 3067]",[],[],[],"[3136, 1028]",[],[],"[3151, 1011]",[],[],[3083],[],[]
participant_7_SOLD,[],[],[],[],[],[],[],[],[],[1039],[],[],"[3751, 3706, 1001, 3340]",[],[],[],[],[],[],[],[3211],[],[],[],[2031],[],[],"[3136, 1028]",[],[],"[1011, 3067]",[],[]
participant_7_UNDO,[],[],[],[],[],[],[],[],[],[],[],[],[],[],[],[],[],[],[],[],[],[],[],[],[],[],[],[],[],[],[],[],[]
participant_8_GOLD,500,500,542,783,1099,1368,1659,1896,2206,2712,3053,3335,3620,3896,4667,4888,5173,5525,5933,6877,7104,7344,7796,8313,8931,9384,9863,10164,10955,11552,12144,13335,13509
participant_8_CURRENTGOLD,500,0,42,283,599,118,409,246,556,1062,1403,35,320,596,1367,288,573,925,1333,527,754,644,1096,23,641,244,724,274,1065,1663,2254,3445,-6641
participant_8_LEVEL,1,1,1,2,4,5,5,6,6,7,8,8,9,9,10,10,10,11,12,12,12,12,13,13,14,14,15,15,15,16,16,17,17
participant_8_MINIONSKILLED,0,0,1,7,17,23,33,37,45,48,58,64,73,83,93,96,103,113,125,132,138,141,153,154,168,174,180,186,188,198,203,208,208
participant_8_KILLS,0,0,0,0,0,0,0,0,0,0,0,0,0,0,0,0,1,1,1,1,1,1,1,1,1,1,1,1,1,1,3,3,6
participant_8_BUY,[],"[3850, 2003, 2003, 3340]",[],[],[],"[1052, 2055]",[],[],"[1028, 2055, 2003]",[],[],[],"[3136, 2003, 2003, 2055]",[],[],[],[],"[1001, 1026, 3364]",[3151],[],[],[3020],[],[],[],[],[1026],[1052],[],[],[3135],[],[]
participant_8_SOLD,[],[],[],[2003],[2003],[],[],[2055],[],[2055],[],"[2003, 3850]","[1028, 1052, 2055]",[2003],[2003],[],[],[3340],"[3136, 1026]",[],[],"[3851, 1001]",[],[],[],[],[],[],[],[],"[1026, 1052]",[],[]
participant_8_UNDO,[],[],[],[],[],[],[],[],[],[],[],[],[],[],[],[],[],[],[],[],[],[],[],[],[],[],[],[],[],[],[],[],[]
participant_9_GOLD,500,500,523,687,927,1076,1284,1428,1607,1756,2140,2415,2565,2846,3016,3281,4028,4198,4339,4729,4869,5292,5483,5773,5914,6178,6382,6544,6685,6876,7766,8006,9172
participant_9_CURRENTGOLD,500,0,23,187,427,66,274,418,72,221,605,880,190,471,641,906,1653,673,64,454,594,218,408,698,839,1103,458,184,326,516,41,281,1447
participant_9_LEVEL,1,1,1,2,3,3,4,5,5,6,6,7,7,7,7,8,8,8,9,9,9,10,10,10,11,12,12,12,12,12,13,13,14
participant_9_MINIONSKILLED,0,0,0,0,0,0,2,3,3,4,5,5,6,8,8,9,10,11,11,12,12,12,12,12,12,15,16,17,17,17,18,18,21
participant_9_KILLS,0,0,0,0,0,0,0,0,0,1,1,1,1,1,1,1,1,1,1,2,2,2,2,3,3,3,3,3,5,5,5,6,6
participant_9_BUY,[],"[1036, 2031]",[],[],[],[3133],[],"[1033, 1028]",[],[],[],"[3155, 1036]",[],[],[],"[3067, 3044]",[],[],[],"[3071, 3111]",[],[1036],[],"[1053, 3105]",[],"[3812, 1036]",[],[3133],[],[],[],[],"[3285, 3003, 3030, 3117]"
participant_9_SOLD,[],[],[],[],[],[1036],[],[],[],[],[],[],[],[],[],"[1028, 1036]",[],[],[],"[3044, 3067, 2422]",[],[],[],"[1036, 2031]",[],"[3105, 1053, 3133]",[],[1036],[],[],[],[],"[3071, 3133, 3155, 3812, 3111]"
participant_9_UNDO,[],[],[],[],[],[],[],"[[0, 1033]]",[],[],[],[],[],[],[],[],[],[],[],[],[],[],[],[],[],[],[],[],[],[],[],[],[]
team0_KILLS,0,0,0,0,0,0,0,0,2,2,2,4,4,4,6,7,7,8,9,10,10,12,12,13,14,15,15,15,16,16,18,20,20
team0_CURRENTGOLD,2500,0,478,1888,2743,727,1981,2324,3597,1437,2359,3005,2035,3342,1463,3152,3035,3624,4037,2246,3498,5106,1831,3480,2290,3925,1348,2307,3613,4486,4815,2773,1586
team0_TOTALGOLD,2500,2500,2978,4388,5643,6637,7891,9369,11542,12782,14054,16060,17215,18522,20468,22157,23505,25484,27147,28226,29553,31961,32826,35260,37545,39180,39947,41447,43152,44400,46530,49483,49871
team0_LEVEL,5,5,6,13,18,19,22,26,29,31,35,38,39,41,43,46,48,50,51,52,53,54,56,58,60,63,63,65,65,67,69,71,71
team0_SBIRES,0,0,11,38,57,75,97,122,147,169,195,227,243,266,283,304,330,361,378,382,407,430,442,468,490,510,516,544,564,588,602,612,612
team1_KILLS,0,0,0,0,1,1,1,1,2,3,5,5,5,6,8,8,10,10,11,15,15,18,19,22,23,25,28,28,31,31,35,39,42
team1_CURRENTGOLD,2500,0,414,1755,2544,1707,2510,2242,1820,2910,5344,3160,2464,4191,5976,2139,4883,4331,5541,5157,3851,5277,4579,4478,4238,5782,7913,4580,3200,5025,4680,8523,531
team1_TOTALGOLD,2500,2500,2914,4255,6094,7392,8770,10102,11905,13645,16079,17595,19139,20866,23551,25414,28158,29756,31716,35122,36641,39216,41859,44447,46048,48442,51420,53074,55312,57137,60659,64501,67131
team1_LEVEL,5,5,6,12,17,20,23,27,28,32,35,38,40,42,44,46,48,51,55,56,58,59,63,63,66,68,72,72,72,76,77,80,82
team1_SBIRES,0,0,8,37,63,91,116,143,156,185,214,232,269,304,330,345,374,402,430,448,474,494,518,529,548,577,594,606,620,639,654,675,687
delta_KILLS,0,0,0,0,-1,-1,-1,-1,0,-1,-3,-1,-1,-2,-2,-1,-3,-2,-2,-5,-5,-6,-7,-9,-9,-10,-13,-13,-15,-15,-17,-19,-22
delta_CURRENTGOLD,0,0,64,133,199,-980,-529,82,1777,-1473,-2985,-155,-429,-849,-4513,1013,-1848,-707,-1504,-2911,-353,-171,-2748,-998,-1948,-1857,-6565,-2273,413,-539,135,-5750,1055
delta_TOTALGOLD,0,0,64,133,-451,-755,-879,-733,-363,-863,-2025,-1535,-1924,-2344,-3083,-3257,-4653,-4272,-4569,-6896,-7088,-7255,-9033,-9187,-8503,-9262,-11473,-11627,-12160,-12737,-14129,-15018,-17260
delta_LEVEL,0,0,0,1,1,-1,-1,-1,1,-1,0,0,-1,-1,-1,0,0,-1,-4,-4,-5,-5,-7,-5,-6,-5,-9,-7,-7,-9,-8,-9,-11
delta_SBIRES,0,0,3,1,-6,-16,-19,-21,-9,-16,-19,-5,-26,-38,-47,-41,-44,-41,-52,-66,-67,-64,-76,-61,-58,-67,-78,-62,-56,-51,-52,-63,-75
