name,frame_0,frame_1,frame_2,frame_3,frame_4,frame_5,frame_6,frame_7,frame_8,frame_9,frame_10,frame_11,frame_12,frame_13,frame_14,frame_15,frame_16,frame_17,frame_18,frame_19,frame_20,frame_21,frame_22,frame_23,frame_24,frame_25,frame_26,frame_27,frame_28,frame_29,frame_30,frame_31,frame_32,frame_33,frame_34,frame_35,frame_36
nameStamp,Tstart,Tearly,Tearly,Tearly,Tearly,Tearly,Tearly,Tearly,Tearly,Tmid,Tmid,Tmid,Tmid,Tmid,Tmid,Tmid,Tmid,Tmid,Tmid,Tmid,Tmid,Tmid,Tmid,Tmid,Tmid,Tmid,Tmid,Tmid,Tmid,Tmid,Tmid,Tmid,Tmid,Tmid,Tmid,Tmid,Tmid
timestamp,0,60000,120006,180019,240046,300052,360066,420072,480077,540107,600114,660146,720169,780185,840211,900223,960249,1020280,1080306,1140336,1200345,1260374,1320379,1380391,1440421,1500422,1560424,1620453,1680460,1740477,1800484,1860505,1920534,1980566,2040583,2100598,2160598
participant_0_GOLD,1400,1400,1892,2479,3200,3680,4425,4879,6328,7588,8027,8771,9529,10508,11272,12041,12635,13080,13530,14715,15391,16860,17437,17827,18416,19239,20078,20905,21377,22461,23357,23867,24327,24980,25667,26027,26427
participant_0_CURRENTGOLD,1400,0,492,1079,1800,380,775,229,1678,2938,27,71,829,108,872,191,785,480,330,1165,741,2210,2787,727,1316,2139,2978,1075,1547,2631,3527,3207,3167,3820,3587,3447,-1473
participant_0_LEVEL,1,3,4,5,6,6,7,8,9,10,11,12,12,13,14,15,16,16,17,18,18,18,18,18,18,18,18,18,18,18,18,18,18,18,18,18,18
participant_0_MINIONSKILLED,0,0,4,10,13,13,15,19,23,29,29,32,32,37,39,44,51,51,51,52,54,56,61,61,68,75,81,83,85,87,102,102,104,111,116,116,116
participant_0_KILLS,0,0,0,0,1,1,2,2,4,8,8,9,11,13,14,14,14,14,14,17,18,20,20,20,20,21,22,23,23,24,24,24,24,24,24,24,24
participant_0_BUY,[],"[3134, 1001]",[],[],[],"[3133, 3111]",[1036],[6691],[],[],"[3142, 1036, 1036]","[3133, 1029]",[],"[1037, 1031, 6333]",[],"[3134, 1036]",[],[3133],[3179],[1036],[3035],[],[],"[6694, 2140]",[],[],[],"[3181, 2140]",[],[],[],[6676],[2140],[],"[6695, 2140]",[2140],[]
participant_0_SOLD,[],[2052],[],[],[],[1001],[],"[3134, 3133]",[],[],[1036],"[1036, 1036]",[2052],"[1029, 1031, 3133, 1037]",[],[],[],[1036],"[3134, 3133]",[],[1036],[],[],"[3035, 2140]",[],[],[],"[3111, 2140]",[],[],[],[6333],[2140],[],"[6694, 2140]",[2140],[]
participant_0_UNDO,[],[],[],[],[],[],[],[],[],[],[],[],[],[],[],[],[],[],[],[],[],[],[],[],[],[],[],[],[],[],[],[],[],[],[],[],[]
participant_1_GOLD,1400,1400,1832,2372,2849,3333,3885,4291,4858,5428,5878,6557,7119,7993,8571,9237,9730,10415,10775,11495,11997,12421,12855,13492,14001,14554,15229,15821,16295,17382,18174,18774,19424,20106,20999,21751,22078
participant_1_CURRENTGOLD,1400,0,432,972,1449,1933,2485,391,528,1098,313,992,1554,563,1141,1107,700,1385,205,925,1427,601,1035,1672,2181,2734,3409,2751,3225,4312,5104,2604,3254,3936,4329,5081,4828
participant_1_LEVEL,1,3,4,5,6,7,8,8,9,10,11,12,12,14,14,15,16,17,17,18,18,18,18,18,18,18,18,18,18,18,18,18,18,18,18,18,18
participant_1_MINIONSKILLED,0,0,0,3,5,6,6,6,6,9,9,15,21,23,27,29,32,35,35,46,48,50,53,61,65,66,74,74,75,82,83,83,94,98,106,112,112
participant_1_KILLS,0,0,0,0,0,0,0,0,0,0,0,0,0,1,1,1,1,1,1,1,1,1,1,1,1,1,1,1,1,3,4,4,4,4,4,4,4
participant_1_BUY,[],"[3802, 2003, 2003]",[],[],[],[],[],"[3070, 6653]","[1001, 2031]",[],"[3020, 1052]",[],[],"[3145, 1058]",[],[4628],[3108],[],[3102],[],[],[4630],[],[],[],[],[],[3135],[],[],[],"[3003, 2139]",[],[],[2139],[],[2139]
participant_1_SOLD,[],[],[],[],[],[],[2003],[3802],[2003],[],[1001],[],[],[1052],[],"[1058, 3145]",[],[],"[2031, 3108]",[],[],[],[],[],[],[],[],[4630],[],[],[],"[3070, 3003, 2139]",[],[],[2139],[],[2139]
participant_1_UNDO,[],[],[],[],[],[],[],[],[],[],[],[],[],[],[],[],[],[],[],[],[],[],[],[],[],[],[],[],[],[],[],[],[],[],[],[],[]
participant_2_GOLD,1400,1400,1820,2303,3007,3524,4267,4669,5768,6243,7036,8579,9084,9623,10507,11231,11796,13342,13702,14643,15235,16166,16804,17572,17972,19015,19466,20666,21276,21746,23330,25111,25668,27101,27909,28870,29197
participant_2_CURRENTGOLD,1400,0,420,903,1607,2124,2867,569,1668,443,536,2079,2584,323,1207,31,596,2142,452,1393,1135,766,1404,2172,472,1515,1466,2666,3276,616,2200,3981,4038,5471,5779,6740,6297
participant_2_LEVEL,1,3,4,5,6,7,8,8,10,10,11,12,12,13,14,15,15,17,17,18,18,18,18,18,18,18,18,18,18,18,18,18,18,18,18,18,18
participant_2_MINIONSKILLED,0,0,0,3,9,11,14,14,16,16,21,25,27,28,29,33,39,47,47,54,60,66,75,81,83,92,92,105,114,116,132,154,157,164,169,190,190
participant_2_KILLS,0,0,0,0,0,0,1,1,3,3,5,8,8,8,10,10,10,12,12,12,12,14,14,15,15,16,16,17,17,17,19,22,22,24,25,25,25
participant_2_BUY,[],"[6670, 2003, 2003]",[],[],[],[],[],"[6672, 1001, 1042]",[],"[3006, 1053, 1042, 2031]",[1043],[],[],"[3153, 3086, 1042]",[],[3085],[],[],"[3035, 1018]",[],[3036],[1038],[],[],[3031],[],[2140],[],[],"[3072, 2140]",[],[],[2140],[],[2140],[],[]
participant_2_SOLD,[],[],[],[],[],[],"[2003, 2003]",[6670],[],"[1001, 1042]",[1042],[],[],"[1053, 1043]",[],"[3086, 1042]",[],[],[],[],"[3035, 1018]",[],[],[],[1038],[],[2140],[],[],"[3006, 2140]",[],[],[2140],[],[2140],[],[]
participant_2_UNDO,[],[],[],[],[],[],[],[],[],"[[0, 2031]]",[],[],[],[],[],[],[],[],[],[],[],[],[],[],[],[],[],[],[],[],[],[],[],[],[],[],[]
participant_3_GOLD,1400,1400,1845,2347,2728,3196,3839,4437,5280,5640,6101,6627,7063,7463,8059,8569,8965,9400,9760,10298,10944,11364,11789,12493,12943,13659,14307,15181,15625,16206,16566,17283,17694,18325,18808,19420,19829
participant_3_CURRENTGOLD,1400,0,445,947,428,896,439,1037,1880,440,251,777,263,363,159,669,565,300,360,898,1544,464,889,1593,2043,2759,3407,4281,1325,1906,1766,2483,2394,3025,3508,4120,4529
participant_3_LEVEL,1,3,4,5,6,7,7,8,10,10,11,12,12,13,14,14,14,15,15,16,17,17,18,18,18,18,18,18,18,18,18,18,18,18,18,18,18
participant_3_MINIONSKILLED,0,0,1,3,3,3,6,9,11,11,12,13,13,14,17,17,17,17,17,17,19,19,20,21,21,22,22,23,23,23,23,23,23,24,25,25,26
participant_3_KILLS,0,0,0,0,0,0,1,1,1,1,1,1,1,1,1,1,1,1,1,1,2,2,2,3,3,4,5,6,6,6,6,6,6,6,6,6,6
participant_3_BUY,[],"[6660, 2003, 1001, 2003]",[],[],[1057],[],"[1029, 3111]",[],[],"[6664, 3067]","[1029, 1027]",[],[3050],"[1006, 1006]",[3067],[],[3801],[3109],[1029],[],[],"[3082, 3067]",[],[],[],[],[],[],"[3143, 3157]",[],[2139],[],[2139],[],[],[],[]
participant_3_SOLD,[],[],[],[],[],[],[1001],"[2003, 2003]",[],"[6660, 1029, 1057]",[],[],"[3067, 1027, 1029]",[],[],[],[1006],"[3801, 1006, 3067]",[],[],[],[1029],[],[],[],[],[],[],"[3082, 3067]",[],[2139],[],[2139],[],[],[],[]
participant_3_UNDO,[],[],[],[],[],[],[],[],[],[],[],[],[],[],[],[],[],[],[],[],[],[],[],[],[],[],[],[],[],[],[],[],[],[],[],[],[]
participant_4_GOLD,1400,1400,1846,2388,3031,4206,4683,5264,6298,6934,7398,8016,8487,8913,9997,10929,11451,12766,13306,13911,14271,14787,15212,15676,16136,16669,17029,18047,18526,19539,19929,20768,21296,22020,23419,24161,24716
participant_4_CURRENTGOLD,1400,0,146,688,1331,2506,83,664,1698,2334,498,1116,237,663,1747,829,451,1766,706,61,421,937,1362,1826,2286,2819,129,1147,376,1389,1279,2118,2146,2870,3769,4511,-584
participant_4_LEVEL,1,3,4,5,6,7,8,8,10,11,11,12,13,13,14,15,15,16,17,17,18,18,18,18,18,18,18,18,18,18,18,18,18,18,18,18,18
participant_4_MINIONSKILLED,0,0,3,7,8,14,15,15,24,25,26,29,31,34,38,38,41,48,48,48,48,53,54,55,56,57,57,61,63,72,72,75,78,81,84,91,93
participant_4_KILLS,0,0,0,0,1,3,3,4,5,5,5,5,5,5,6,8,8,11,12,13,13,13,13,13,13,13,13,14,14,15,15,15,15,15,18,18,19
participant_4_BUY,[],"[3802, 2003, 2003]",[1001],[],[],[],"[6655, 3020]",[],[],[],"[1058, 3145]",[],"[4628, 2420]",[],[],[3157],[3108],[],[3102],[1058],[],[],[],[],[],[],"[3089, 2139]",[],"[3135, 2139]",[],[2139],[],[2139],[],[2139],[],"[6653, 2139]"
participant_4_SOLD,[],[],[],[],[],"[2003, 2003]","[3802, 1001]",[],[],[],[],[],"[1058, 3145]",[],[2420],[2421],[],[],[3108],[],[],[],[],[],[],[],"[1058, 2139]",[],"[3102, 2139]",[],[2139],[],[2139],[],[2139],[],"[6655, 2139]"
participant_4_UNDO,[],[],[],[],[],[],[],[],[],[],[],[],[],[],[],[],[],[],[],[],[],[],[],[],[],[],[],[],[],[],[],[],[],[],[],[],[]
participant_5_GOLD,1400,1400,1891,2339,3054,3550,4280,4799,5507,5985,6657,7259,7835,8375,8944,9434,10121,10630,11678,12367,12739,13555,14082,14617,15686,16359,16848,17893,18435,19548,19980,20611,21257,22110,23021,24158,24935
participant_5_CURRENTGOLD,1400,0,491,939,1654,1000,480,564,472,550,1222,474,1050,340,909,499,1186,530,1578,2267,139,955,1482,2017,3086,3759,448,993,1535,2648,3080,3711,3857,4710,5621,6258,4935
participant_5_LEVEL,1,3,4,5,6,7,8,8,9,10,11,12,12,13,14,14,15,15,17,17,17,18,18,18,18,18,18,18,18,18,18,18,18,18,18,18,18
participant_5_MINIONSKILLED,0,0,2,4,7,10,12,16,22,24,28,30,37,37,43,47,51,53,58,63,63,68,69,74,81,89,94,100,104,116,117,126,134,143,150,160,162
participant_5_KILLS,0,0,0,0,1,1,2,2,3,3,3,3,3,3,3,3,3,3,4,5,5,6,6,6,7,7,7,8,8,10,10,10,10,10,10,11,11
participant_5_BUY,[],"[3802, 2003, 2003]",[],[],[],"[1026, 1001]",[6655],[1052],[3020],[1028],[],"[1011, 1026]",[],"[4637, 1052]",[],"[3191, 1052]",[],[3157],[],[],"[1058, 1058]",[],[],[],[],[],"[3089, 3165]",[2139],[],[],[],[],[2139],[],[],[2139],[]
participant_5_SOLD,[],[],[2003],[2003],[],[],"[3802, 1026]",[],[1001],[],[],[1028],[],"[1026, 1011, 1052]",[],[1052],[],"[3191, 1052]",[],[],[],[],[],[],[],[],"[1058, 1058]",[2139],[],[],[],[],"[2139, 4637]",[],[],[2139],[]
participant_5_UNDO,[],[],[],[],[],[],[],[],[],[],[],[],[],[],[],[],[],[],[],[],[],[],[],[],[],[],[],[],[],[],[],[],"[[4637, 0]]",[],[],[],[]
participant_6_GOLD,1400,1400,1863,2325,2885,3391,3851,4383,4842,5294,5748,6438,7043,8007,8488,9028,9580,10073,10695,11145,11588,12001,12532,13069,13477,14185,14754,15258,15979,16665,17186,17694,18550,19256,20246,20738,21808
participant_6_CURRENTGOLD,1400,50,513,975,1535,2041,2501,3033,392,494,948,683,1288,302,33,573,1125,393,1015,140,133,546,1077,1614,2022,1130,599,1103,1824,710,1231,439,1295,2001,2181,2173,-1692
participant_6_LEVEL,1,3,4,5,6,7,8,8,9,10,11,11,12,13,14,14,14,15,16,16,17,17,18,18,18,18,18,18,18,18,18,18,18,18,18,18,18
participant_6_MINIONSKILLED,0,0,1,4,6,7,9,13,14,16,17,17,23,25,27,27,27,30,30,30,31,32,35,38,38,40,45,47,53,56,60,62,72,75,86,89,100
participant_6_KILLS,0,0,0,0,0,0,0,0,0,0,0,1,1,2,2,3,3,3,4,4,4,4,4,4,4,5,5,5,5,5,5,5,5,6,6,6,7
participant_6_BUY,[],"[3134, 2003, 2003, 2003, 2003, 2003]",[],[],[],[],[],[],"[6691, 1043]",[1036],[1053],"[3086, 1042, 2015]",[],"[3094, 3006, 1036]",[3134],[],[],"[1037, 1036]",[],"[3142, 1042]",[3123],[],[],[],[],[3033],[3134],[],[],[3814],[],[3031],[],[],[3046],[2140],[]
participant_6_SOLD,[],[],[2003],"[2003, 2010]","[2003, 2003, 2003]",[2010],[2052],[2010],[3134],[],[1036],"[1043, 1036, 1042]",[],"[3086, 2015, 2422]",[1036],[],[],[],[],"[3134, 1037]",[1036],[],[],[],[],"[3123, 1042]",[],[],[],[3134],[],[3142],[],[],[3094],[2140],[]
participant_6_UNDO,[],[],[],[],[],[],[],[],[],[],"[[0, 1053]]",[],[],[],[],[],[],[],[],[],[],[],[],[],[],[],[],[],[],[],[],[],[],[],[],[],[]
participant_7_GOLD,1400,1400,2318,2744,3462,3864,4874,5858,6356,7140,8495,9057,9804,11120,11737,13094,13748,14341,15400,15808,16999,17729,18338,19568,19958,20508,21095,22057,22764,23576,24498,25891,26697,27586,28096,28739,29709
participant_7_CURRENTGOLD,1400,0,918,1344,2062,364,224,1208,956,865,2220,657,529,1845,2462,1794,2448,941,2000,2408,3599,4329,1138,2368,2758,3308,2355,3317,4024,4836,2628,4801,5607,6496,6506,7149,3009
participant_7_LEVEL,1,3,4,5,6,7,7,9,9,10,11,12,13,14,14,15,16,16,18,18,18,18,18,18,18,18,18,18,18,18,18,18,18,18,18,18,18
participant_7_MINIONSKILLED,0,0,1,1,3,3,4,4,5,6,12,13,16,21,21,22,26,26,34,34,35,36,45,49,49,53,53,54,60,61,62,64,73,73,73,73,82
participant_7_KILLS,0,0,2,2,3,3,4,7,7,8,11,11,12,14,15,18,18,19,21,21,23,24,24,26,26,26,27,29,29,30,31,33,33,35,35,36,36
participant_7_BUY,[],"[3134, 1001]",[],[],[],[6691],"[3111, 1036]",[],[3134],[1037],[],"[6676, 3134]",[1037],[],[],"[6695, 3077]",[],[3074],[],[],[],[],"[3071, 2140]",[],[],[],"[3142, 2140]",[],[],[],"[6694, 2140]","[3111, 2140]",[],[],[2140],[],[]
participant_7_SOLD,[],[],[],[],[],[3134],[1001],[],[1036],[],[],"[3134, 1037]",[],[],[],"[3134, 1037]",[],[3077],[],[],[],[],[2140],[],[],[],"[6695, 2140]",[],[],[],"[3111, 2140]","[6694, 2140]",[],[],[2140],[],[]
participant_7_UNDO,[],[],[],[],[],[],[],[],[],[],[],[],[],[],[],[],[],[],[],[],[],[],[],[],[],[],[],[],[],[],[],[],[],[],[],[],[]
participant_8_GOLD,1400,1400,1920,2360,2935,3573,4111,4577,5038,5506,6040,6580,7040,7581,8071,8695,9338,9812,11055,11463,11983,12343,12850,13310,13730,14501,14997,15487,16124,16791,17256,18069,18773,19133,19888,20351,21185
participant_8_CURRENTGOLD,1400,100,620,1060,1635,773,611,627,288,356,90,230,690,381,71,695,1338,912,2155,63,283,643,1150,110,530,1301,1797,1387,2024,591,556,1369,2073,1933,2688,2651,3485
participant_8_LEVEL,1,3,4,5,6,7,7,8,9,9,11,11,12,12,13,14,15,15,16,16,17,17,18,18,18,18,18,18,18,18,18,18,18,18,18,18,18
participant_8_MINIONSKILLED,0,0,2,3,4,6,6,6,7,9,10,10,10,15,18,20,24,26,31,31,32,32,34,36,37,41,43,46,56,61,61,62,66,66,68,69,74
participant_8_KILLS,0,0,0,0,0,1,1,1,1,1,1,1,1,1,1,1,1,1,2,2,2,2,2,2,2,3,3,3,3,3,3,4,4,4,4,4,4
participant_8_BUY,[],"[6660, 1029]",[],[],[],"[3105, 1001]",[3068],[1033],"[3111, 1033]",[1028],"[3211, 1028]",[3067],[],[3065],[3076],[],[],[1011],[],"[3075, 3105]",[1029],[],[],[3193],[],[],[],[1011],[],[3083],[2138],[],[],[2138],[],[2138],[]
participant_8_SOLD,[],[],[],[],[],[1029],"[6660, 3105]",[],"[1001, 1033]",[],"[1028, 1033]",[1028],[],"[3211, 3067]",[],[],[],[],[],"[3076, 1011]",[],[],[],"[1029, 3105]",[],[],[],[],[],[1011],[2138],[],[],[2138],[],[2138],[]
participant_8_UNDO,[],[],[],[],[],[],[],[],[],[],[],[],[],[],[],[],[],[],[],[],[],[],[],[],[],[],[],[],[],[],[],[],[],[],[],[],[]
participant_9_GOLD,1400,1400,1925,2365,2834,3326,4049,4671,5150,5617,7190,7822,8457,8983,9467,10258,10923,11526,12403,12811,13397,14314,14728,15194,15607,16177,16703,17769,18325,18721,19476,20035,20604,21695,22799,23236,24102
participant_9_CURRENTGOLD,1400,0,525,965,1434,526,1249,1021,700,367,1940,2572,557,533,917,958,1623,276,1153,461,897,964,578,1044,1457,2027,453,1019,1575,401,1156,1215,1784,2875,3979,1286,-648
participant_9_LEVEL,1,3,4,5,6,7,7,8,9,10,11,11,12,13,13,14,15,15,16,17,18,18,18,18,18,18,18,18,18,18,18,18,18,18,18,18,18
participant_9_MINIONSKILLED,0,0,3,4,4,6,11,16,18,19,22,24,26,29,31,34,38,38,45,45,50,54,54,56,57,59,64,68,72,72,76,80,83,88,96,99,107
participant_9_KILLS,0,0,0,0,0,0,1,1,1,1,3,3,4,4,4,5,5,6,6,6,6,7,7,7,7,7,7,8,8,8,9,9,9,11,12,12,12
participant_9_BUY,[],"[3134, 1053, 1036, 2003, 2003, 2003]",[],[],[],"[3134, 1036, 1001]",[],[6692],[3111],[3123],[],[],"[3077, 3133, 1036]",[1053],[3074],"[1028, 1036]",[],"[6609, 3067]",[],[3133],[3211],[3065],"[1037, 1031]",[],[],[],[3742],[2140],[],"[6333, 2140]",[],[2140],[],[],[],"[3072, 2140]",[]
participant_9_SOLD,[],[],"[2003, 2003]",[2003],[],[1036],[],"[3134, 1036, 1053]",[1001],[],[],[],[],[1036],"[3077, 1053, 3133]",[],[],"[3123, 1028, 1036]",[],[],[],"[3211, 3067]",[],[],[],[],[1031],[2140],[],"[3742, 2140]",[],[2140],[],[],[],"[3111, 2140]",[]
participant_9_UNDO,[],"[[0, 3134]]",[],[],[],[],[],[],[],[],[],[],[],[],[],[],[],[],[],[],"[[0, 3133]]",[],"[[0, 1037]]",[],[],[],[],[],[],[],[],[],[],[],[],[],[]
team0_KILLS,0,0,0,0,2,4,7,8,13,17,19,23,25,28,32,34,34,39,40,44,46,50,50,52,52,55,57,61,61,65,68,71,71,73,77,77,78
team0_CURRENTGOLD,7000,0,1935,4589,6615,7839,6649,2890,7452,7253,1625,5035,5467,2020,5126,2827,3097,6073,2053,4442,5268,4978,7477,7990,8298,11966,11389,11920,9749,10854,13876,14393,14999,19122,20972,23899,13597
team0_TOTALGOLD,7000,7000,9235,11889,14815,17939,21099,23540,28532,31833,34440,38550,41282,44500,48406,52007,54577,59003,61073,65062,67838,71598,74097,77060,79468,83136,86109,90620,93099,97334,101356,105803,108409,112532,116802,120229,122247
team0_LEVEL,5,15,20,25,30,34,38,40,48,51,55,60,61,66,70,74,76,81,83,87,89,89,90,90,90,90,90,90,90,90,90,90,90,90,90,90,90
team0_SBIRES,0,0,8,26,38,47,56,63,80,90,97,114,124,136,150,161,180,198,198,217,229,244,263,279,293,312,326,346,360,380,412,437,456,478,500,534,537
team1_KILLS,0,0,2,2,4,5,8,11,12,13,18,19,21,24,25,30,30,32,37,38,40,43,43,45,46,48,49,53,53,56,58,61,61,66,67,69,70
team1_CURRENTGOLD,7000,150,3067,5283,8320,4704,5065,6453,2808,2632,6420,4616,4114,3401,4392,4519,7720,3052,7901,5339,5051,7437,5425,7153,9853,11525,5652,7819,10982,9186,8651,11535,14616,18015,20975,19517,9089
team1_TOTALGOLD,7000,7000,9917,12133,15170,17704,21165,24288,26893,29542,34130,37156,40179,44066,46707,50509,53710,56382,61231,63594,66706,69942,72530,75758,78458,81730,84397,88464,91627,95301,98396,102300,105881,109780,114050,117222,121739
team1_LEVEL,5,15,20,25,30,35,37,41,45,49,55,57,61,65,68,71,75,76,83,84,87,88,90,90,90,90,90,90,90,90,90,90,90,90,90,90,90
team1_SBIRES,0,0,9,16,24,32,42,55,66,74,89,94,112,127,140,150,166,173,198,203,211,222,237,253,262,282,299,315,345,366,376,394,428,445,473,490,525
delta_KILLS,0,0,-2,-2,-2,-1,-1,-3,1,4,1,4,4,4,7,4,4,7,3,6,6,7,7,7,6,7,8,8,8,9,10,10,10,7,10,8,8
delta_CURRENTGOLD,0,-150,-1132,-694,-1705,3135,1584,-3563,4644,4621,-4795,419,1353,-1381,734,-1692,-4623,3021,-5848,-897,217,-2459,2052,837,-1555,441,5737,4101,-1233,1668,5225,2858,383,1107,-3,4382,4508
delta_TOTALGOLD,0,0,-682,-244,-355,235,-66,-748,1639,2291,310,1394,1103,434,1699,1498,867,2621,-158,1468,1132,1656,1567,1302,1010,1406,1712,2156,1472,2033,2960,3503,2528,2752,2752,3007,508
delta_LEVEL,0,0,0,0,0,-1,1,-1,3,2,0,3,0,1,2,3,1,5,0,3,2,1,0,0,0,0,0,0,0,0,0,0,0,0,0,0,0
delta_SBIRES,0,0,-1,10,14,15,14,8,14,16,8,20,12,9,10,11,14,25,0,14,18,22,26,26,31,30,27,31,15,14,36,43,28,33,27,44,12
