name,team0,team1
win,Win,Fail
firstBlood,False,True
firstTower,True,False
firstInhibitor,True,False
firstBaron,True,False
firstDragon,False,True
firstRiftHerald,True,False
towerKills,8,5
inhibitorKills,2,0
baronKills,2,0
dragonKills,3,2
riftHeraldKills,2,0
