name,team0,team1
win,Win,Fail
firstBlood,True,False
firstTower,True,False
firstInhibitor,True,False
firstBaron,True,False
firstDragon,True,False
firstRiftHerald,False,False
towerKills,11,0
inhibitorKills,3,0
baronKills,1,0
dragonKills,4,0
riftHeraldKills,0,0
