name,team0,team1
win,Win,Fail
firstBlood,False,True
firstTower,True,False
firstInhibitor,False,True
firstBaron,True,False
firstDragon,False,True
firstRiftHerald,True,False
towerKills,11,6
inhibitorKills,3,1
baronKills,2,0
dragonKills,3,3
riftHeraldKills,1,0
