name,frame_0,frame_1,frame_2,frame_3,frame_4,frame_5,frame_6,frame_7,frame_8,frame_9,frame_10,frame_11,frame_12,frame_13,frame_14,frame_15,frame_16,frame_17,frame_18,frame_19,frame_20,frame_21,frame_22,frame_23,frame_24,frame_25,frame_26,frame_27,frame_28,frame_29,frame_30,frame_31,frame_32,frame_33,frame_34,frame_35,frame_36,frame_37,frame_38,frame_39,frame_40,frame_41,frame_42,frame_43,frame_44,frame_45,frame_46,frame_47,frame_48
nameStamp,Tstart,Tearly,Tearly,Tearly,Tearly,Tearly,Tearly,Tearly,Tearly,Tearly,Tearly,Tearly,Tearly,Tearly,Tearly,Tearly,Tearly,Tearly,Tearly,Tmid,Tmid,Tmid,Tmid,Tmid,Tmid,Tmid,Tmid,Tmid,Tmid,Tmid,Tmid,Tmid,Tmid,Tmid,Tmid,Tmid,Tmid,Tmid,Tmid,Tmid,Tend,Tend,Tend,Tend,Tend,Tend,Tend,Tend,Tend
timestamp,0,60030,120055,180094,240114,300126,360148,420164,480193,540202,600228,660232,720262,780264,840283,900293,960322,1020323,1080351,1140351,1200378,1260400,1320414,1380447,1440467,1500494,1560519,1620524,1680545,1740550,1800563,1860590,1920607,1980616,2040645,2100652,2160680,2220692,2280702,2340718,2400743,2460771,2520780,2580781,2640782,2700798,2760818,2820820,2880820
participant_0_GOLD,500,500,563,839,1099,1340,1596,2231,2353,2644,3152,3275,3523,3729,3887,4151,4557,4850,5190,5452,5688,5967,6579,6701,6909,7233,7545,7752,7875,7998,8370,9288,9410,9863,10112,10834,11420,11710,11882,12304,12615,12787,13309,13517,13911,14033,14291,14413,14780
participant_0_CURRENTGOLD,500,0,63,339,164,305,561,1196,53,344,852,75,323,179,237,501,907,375,715,977,1213,1492,204,326,534,858,1170,477,600,73,445,1113,110,563,812,169,756,1045,367,790,1100,1273,295,502,897,269,527,649,855
participant_0_LEVEL,1,1,1,3,3,4,5,6,6,7,8,8,8,8,9,9,10,10,10,11,11,12,12,12,12,13,13,13,13,13,14,14,14,14,15,15,16,16,16,16,17,17,17,17,18,18,18,18,18
participant_0_MINIONSKILLED,0,0,2,11,16,23,31,41,41,51,55,55,63,68,70,77,81,87,90,94,100,108,109,109,109,117,128,128,128,128,134,141,141,142,143,143,144,146,146,146,153,153,153,153,159,159,159,159,159
participant_0_KILLS,0,0,0,0,0,0,0,0,0,0,0,0,0,0,0,0,0,0,1,1,1,1,2,2,2,3,3,3,3,3,4,4,5,5,6,6,6,6,8,8,8,8,10,10,10,10,11,11,13
participant_0_BUY,[],"[1055, 2003]",[],[],[],[],[],"[1037, 1001, 2003]",[],[],"[1027, 1004, 2003]",[],[],[],"[3004, 1042]",[],[],"[3006, 1042, 1042]",[],[],"[3086, 1042]",[],[],"[3085, 1037]",[],[1018],[],[],[],[],[],[3031],[],[],[],[3086],[],[],[],[3046],"[3035, 3033]",[],[],[],[],[],[],[],[]
participant_0_SOLD,[],[],[],[],[],[2003],[],[],[],[2003],[],[],[],[2003],"[1027, 1004, 1037]",[],[],"[1001, 1042]",[],[],[1042],[],[],"[1042, 3086, 1042]",[],[],[],[],[],[],[],"[3004, 1037, 1018]",[],[],[],[],[],[],[],[3086],"[1055, 3035]",[],[],[],[],[],[],[],[]
participant_0_UNDO,[],[],[],[],[],[],[],[],[],[],[],[],[],[],[],[],[],[],[],[],[],[],[],[],[],[],[],[],[],[],[],[],[],[],[],[],[],[],[],[],[],[],[],[],[],[],[],[],[]
participant_1_GOLD,500,500,521,1243,1548,1840,2190,2487,2884,3107,3667,4165,4447,5402,5680,6102,6581,6728,7222,8159,8356,8710,9348,9470,9777,10360,11110,11459,11982,12404,12688,12860,13282,13573,14121,14243,14900,15642,15814,16397,17078,17960,18821,19407,19898,20021,20635,21282,21950
participant_1_CURRENTGOLD,500,0,21,743,398,315,665,962,1359,1582,2142,2640,2922,3877,422,394,523,370,864,1801,498,853,390,112,370,952,1703,561,284,707,590,263,85,375,924,646,1303,2045,1417,2000,181,1064,1924,2010,2502,974,1589,2236,-658
participant_1_LEVEL,1,1,1,2,3,4,4,5,6,7,7,8,9,9,10,10,11,11,12,12,12,13,14,14,14,14,15,15,15,15,16,16,16,16,17,17,18,18,18,18,18,18,18,18,18,18,18,18,18
participant_1_MINIONSKILLED,0,0,0,0,0,0,0,0,0,0,0,0,0,1,1,1,4,4,5,6,6,10,16,16,16,21,24,24,24,24,24,24,24,27,31,31,32,39,39,39,52,64,69,77,90,90,93,102,105
participant_1_KILLS,0,0,0,0,0,0,0,1,1,1,2,2,2,2,2,2,2,2,2,2,2,2,3,3,3,3,3,3,3,3,3,4,4,4,4,6,7,7,7,7,7,7,7,7,7,7,7,7,7
participant_1_BUY,[],"[1056, 2003, 2003, 3340]",[],[],[1052],"[2003, 2003]",[],[],"[3145, 1001, 1036]",[],[],"[1053, 1036]",[],[3144],"[2003, 2003]",[],[],"[3146, 2055]",[],[],[],[],"[3020, 3191]",[],[],[],[],[3108],[],[2420],[],[3157],"[1026, 1052]",[],[],[3135],[],[],[1026],[],[],[],[3136],[],[],[3151],[],[],[]
participant_1_SOLD,[],[],[],[2003],[2003],[],"[2003, 2003]",[],[1052],[],[],[1036],[],"[1053, 1036]",[],[],"[2003, 2003]","[3144, 3145]",[],[],[2055],[],[1001],[],[],[],[],[],[],[],[],"[2420, 3191, 3108, 2421]",[1056],[],[],"[1026, 1052]",[],[],[],[],[],[],[],[],[],"[3136, 1026]",[],[],[]
participant_1_UNDO,[],[],[],[],[],[],[],[],[],[],[],[],[],[],[],[],[],[],[],[],[],[],[],[],[],[],[],[],[],[],[],[],[],[],[],[],[],[],[],[],[],[],[],[],[],[],[],[],[]
participant_2_GOLD,500,500,573,853,1144,1490,1718,2060,2231,2438,3028,3666,3788,4420,4913,5084,5586,6189,6872,7360,7811,8409,9300,9443,9656,9779,10367,10489,10683,10908,11281,11649,12933,13355,13631,13753,14028,15589,15761,16234,16551,16779,17689,18103,18538,18976,19248,19370,20522
participant_2_CURRENTGOLD,500,0,73,353,644,990,1218,1560,431,338,928,1566,403,235,728,899,1401,2004,387,875,561,609,1500,1643,607,729,1317,190,383,609,982,1349,684,1106,1382,1504,1779,3340,1712,2185,2502,2730,900,1314,1750,2187,2460,2582,3572
participant_2_LEVEL,1,1,1,3,4,5,6,6,7,7,8,9,9,10,11,11,11,12,12,13,13,14,14,14,14,14,15,15,15,16,16,17,17,17,17,17,18,18,18,18,18,18,18,18,18,18,18,18,18
participant_2_MINIONSKILLED,0,0,3,10,20,30,36,46,49,54,64,73,73,85,89,92,98,104,110,119,121,129,132,133,139,139,145,145,150,152,159,166,173,173,178,178,183,187,187,187,194,197,197,206,216,217,217,217,222
participant_2_KILLS,0,0,0,1,1,1,1,1,1,1,1,1,1,2,2,3,4,4,4,6,6,6,6,6,6,7,8,8,9,10,10,10,11,11,11,11,11,12,12,12,12,12,12,12,12,12,13,13,13
participant_2_BUY,[],"[1039, 2031, 3340]",[],[],[3706],"[1001, 2055]",[],[],[],[],[],[],[],[],[3078],"[1028, 1033]",[3111],[1029],[],[],"[1031, 1011]",[],[3742],[1028],[1033],[],[],"[3211, 3067]",[3065],[],[1028],[3751],[1401],[1401],[],[1028],[],[],[3052],[],"[3053, 2138]",[],[],[2138],[],"[3075, 2138]",[],[],[]
participant_2_SOLD,[],[],[],[],[1039],[],[],[],[],[],[],[],[2055],[3400],[],[],"[1001, 1033]",[],[],[],[1029],[],"[1031, 1011]",[],[],[],[],"[1033, 2031]","[3211, 3067]",[],[],[1028],"[3751, 3706]","[3751, 3706]",[],[],[],[],[1028],[],"[3052, 2138]",[],[],"[2138, 1401]",[],"[1401, 2138]",[],[],[]
participant_2_UNDO,[],[],[],[],[],[],[],[],[],[],[],[],[],[],[],"[[0, 1028]]",[],[],[],[],[],[],[],[],"[[0, 1028]]",[],[],[],[],[],[],[],[],"[[0, 1401]]",[],[],[],[],[],[],[],[],[],"[[1401, 0]]",[],[],[],[],[]
participant_3_GOLD,500,500,577,934,1204,1508,1715,1837,2050,2257,2379,2710,2994,3606,3942,4316,4631,4837,5715,6116,6314,6519,7547,7669,8021,8472,8684,9155,9403,9525,9990,10176,10598,11001,11541,11813,12287,12739,14284,15202,15324,15586,16783,16905,17028,17300,17872,18332,19928
participant_3_CURRENTGOLD,500,0,77,434,704,1008,1215,112,325,532,129,460,744,1356,342,716,1031,137,1015,1416,214,419,1447,94,446,97,309,780,1028,1150,1615,76,499,901,1441,314,787,1240,2785,2502,5,267,1464,1586,1709,1981,2554,3013,4428
participant_3_LEVEL,1,1,1,2,3,4,5,5,5,6,6,6,7,7,8,9,9,9,10,11,11,11,12,12,12,13,13,13,14,14,14,14,15,15,15,16,16,17,18,18,18,18,18,18,18,18,18,18,18
participant_3_MINIONSKILLED,0,0,3,14,22,31,36,36,41,46,46,55,61,67,71,82,89,94,100,112,112,113,119,119,128,130,131,144,149,149,152,153,153,162,165,165,174,181,188,195,195,196,196,196,196,196,196,200,202
participant_3_KILLS,0,0,0,0,0,0,0,0,0,0,1,2,2,3,4,4,5,6,6,6,7,8,9,9,9,9,9,9,9,9,9,9,10,11,11,11,11,13,13,13,13,13,13,13,13,14,14,14,15
participant_3_BUY,[],"[1056, 2003, 2003, 3340]",[],[],[],[],[],[],[3802],[1001],[],[],"[1026, 1052]",[3020],[],[],[],[],"[3285, 1026, 1028]",[],[3916],[3165],[],[],[1058],[],[],[1058],[],[],[],[],"[3089, 1026]",[],[],[],[],[],[3135],[],[],[],[3157],[],[],[],[],[],[]
participant_3_SOLD,[],[],[],[],[2003],[],[2003],[],[],[],[],[],[],[1001],[],[],[],[],"[3802, 1026]",[],"[1028, 1052]","[3916, 1026]",[],[],[],[],[3400],[],[],[],[],[],"[1058, 1058]",[],[],[],[],[],[1026],[],[],[],[1056],[],[],[],[],[],[]
participant_3_UNDO,[],[],[],[],[],[],[],[],[],[],[],[],[],[],[],[],[],[],[],[],[],[],[],[],[],[],[],[],[],[],[],[],[],[],[],[],[],[],[],[],[],[],[],[],[],[],[],[],[]
participant_4_GOLD,500,500,544,759,915,1112,1697,1831,1993,2177,2409,2651,2905,4572,5034,5788,6174,6464,7304,7816,7956,8338,8734,9475,9615,9756,10742,10882,11024,11239,11639,11779,12180,13110,13343,13634,13879,14154,14495,15761,15916,16145,16685,16875,17016,17156,17797,17958,19592
participant_4_CURRENTGOLD,500,0,44,259,415,612,1197,181,43,127,359,601,855,2522,484,263,649,389,1229,116,256,638,1034,325,465,606,292,132,274,489,389,529,931,1860,2093,384,129,405,245,1511,1667,1895,3135,426,66,206,847,1008,1942
participant_4_LEVEL,1,1,1,2,3,4,4,4,4,5,5,6,6,7,8,8,9,9,10,10,10,10,11,11,11,12,12,12,12,13,13,13,14,14,15,15,15,16,16,17,17,17,17,17,17,17,18,18,18
participant_4_MINIONSKILLED,0,0,1,3,4,5,5,5,7,10,16,22,25,26,27,28,30,30,31,32,32,34,37,37,37,37,38,38,38,38,45,45,47,51,53,53,53,54,54,54,55,58,58,61,61,61,61,62,62
participant_4_KILLS,0,0,0,0,0,0,1,1,1,1,1,1,1,3,4,5,5,5,6,7,7,7,7,8,8,8,9,9,9,9,9,9,9,9,9,9,9,9,9,10,10,10,10,10,10,10,11,11,13
participant_4_BUY,[],"[3340, 2003, 2003, 3854]",[],[],[],[],[],"[3134, 2003]",[1001],"[2003, 2003]",[],[],[],[],"[3147, 1036, 1036]","[3077, 1036]",[],[1053],[],"[3074, 1036]",[],[],[],"[3134, 3117]",[],[],[3179],[1029],[],[],[1031],[],[],[],[],[3026],[2140],[],[2140],[],[],[],[],[3142],[2140],[],[],[],[]
participant_4_SOLD,[],[],[],[],[2003],[],[2003],[],[],[2003],[],[],[],"[3400, 3854]",[3134],"[1036, 1036]",[],[1036],[],"[3077, 1053]",[],[],[3855],"[1036, 1001]",[2003],[2003],"[3400, 3134]",[],[],[],[1029],[],[],[],[],[1031],[2140],[],[2140],[],[],[],[3117],[],[2140],[],[],[],[]
participant_4_UNDO,[],[],[],[],[],[],[],[],[],[],[],[],[],[],[],[],[],[],[],[],[],[],[],[],[],[],[],[],[],[],[],[],[],[],[],[],[],[],[],[],[],[],[],[],[],[],[],[],[]
participant_5_GOLD,500,500,542,836,1392,1612,1798,2126,2429,2723,2922,3491,3794,4405,4929,5198,5485,5733,6702,6825,7322,7746,7868,8112,8534,8817,8939,9620,9897,10593,10856,11293,11769,12149,12271,12644,12883,13909,14032,14403,14525,14676,14798,15635,15833,16405,16662,16975,17092
participant_5_CURRENTGOLD,500,0,42,336,892,137,323,351,304,473,672,1241,44,655,1179,348,60,308,1277,680,17,441,88,332,754,437,159,840,247,544,431,94,569,949,102,474,714,1740,242,614,736,887,1009,1846,264,336,594,406,292
participant_5_LEVEL,1,1,1,3,4,5,5,6,7,7,8,8,9,10,10,11,11,11,12,12,12,13,13,13,14,14,14,15,15,15,16,16,17,17,17,17,18,18,18,18,18,18,18,18,18,18,18,18,18
participant_5_MINIONSKILLED,0,0,1,9,17,23,27,36,44,45,50,59,60,71,76,81,82,89,98,98,98,108,108,113,126,127,127,135,140,140,148,150,155,166,166,166,171,173,173,179,179,181,181,192,192,192,192,199,199
participant_5_KILLS,0,0,0,0,0,0,0,0,0,1,1,2,2,2,2,3,3,4,4,4,6,6,6,6,6,6,6,6,6,6,6,6,7,7,7,7,7,7,7,8,8,8,8,8,8,8,8,8,8
participant_5_BUY,[],"[1056, 2003, 2003, 3340]",[],[],[],[],[],[],[3802],[],[1026],[],[3285],[1001],[],[],"[3020, 1052]",[3916],[],[],[],[],[3165],[],[1058],[],[],[],[1058],[],[],[],"[3089, 1052]",[],[],[],[],[],[1026],[],[],"[3135, 1033]",[],[],[3108],[],[],[],[]
participant_5_SOLD,[],[],[],[2003],[],[],[2003],[],[],[],[],[],"[3802, 1026]",[],[],[],[1001],[1052],[],[],[],[],[3916],[],[],[],[],[],[1056],[],[],[],"[1058, 1058]",[],[],[],[],[],[],[],[],"[1026, 1052]",[],[],[1033],[],[],[],[]
participant_5_UNDO,[],[],[],[],[],[],[],[],[],[],[],[],[],[],[],[],[],[],[],[],[],[],[],[],[],[],[],[],[],[],[],[],[],[],[],[],[],[],[],[],[],[],[],[],[],[],[],[],[]
participant_6_GOLD,500,500,606,813,1749,2056,2284,2437,2848,3255,3413,4047,4273,4395,5138,5433,6259,6607,7629,7752,8549,9065,9216,9771,10403,10756,10975,11447,11765,12267,12504,13738,14331,14822,15264,16527,16869,17294,17447,17909,18346,18907,19029,19304,19805,20717,20889,21363,21480
participant_6_CURRENTGOLD,500,0,106,313,1249,1556,134,287,698,1105,263,897,73,195,188,433,1259,1607,2629,202,999,1516,766,1321,1953,2307,287,759,1078,130,367,1601,2193,495,937,2199,2542,267,420,882,1319,1880,1502,1778,2278,2320,463,937,-2553
participant_6_LEVEL,1,1,2,2,3,4,4,4,5,6,6,6,7,7,7,8,9,9,10,10,11,11,12,13,13,14,14,14,15,15,15,16,16,17,17,17,18,18,18,18,18,18,18,18,18,18,18,18,18
participant_6_MINIONSKILLED,0,0,0,0,0,0,0,0,0,0,0,1,1,1,1,1,7,7,14,14,16,16,18,19,19,19,20,20,27,27,28,33,33,36,36,36,36,41,41,42,47,50,50,55,61,61,61,68,68
participant_6_KILLS,0,0,0,0,0,0,0,0,0,0,0,0,0,1,1,1,1,1,1,1,2,2,2,2,2,2,2,3,3,5,5,5,5,5,5,5,5,7,7,7,7,7,7,8,8,9,9,9,9
participant_6_BUY,[],"[1054, 2003, 3340]",[],[],[],"[3024, 2055]",[],[1029],[1027],"[2003, 2055]",[],[],"[3025, 2003]",[],[],[3010],"[3047, 2055]",[],[],[1057],[3001],[],"[1028, 2055]",[],[],[1011],[1028],[],"[3067, 3801]",[3083],"[1029, 2003, 2055]","[3076, 2055]",[],[],[3082],[],[],[],"[3075, 1057]",[],[],[],[],[],[3193],[2138],[],[2138],[]
participant_6_SOLD,[],[],[],[],[2010],[],[],"[2010, 2003, 2010]",[],[2055],[],[2055],"[2003, 1027, 3024]",[],[],[],"[1029, 2422]",[2055],[],[],"[2003, 3010, 1057]",[],[],[],[],"[1028, 2055]",[],[],"[1028, 1054]","[1011, 3067, 3801]",[2055],[1029],[],[],[2055],[],[],[],"[3076, 3082]",[],[],[],[],[],[1057],[2138],[],[2138],[]
participant_6_UNDO,[],[],[],[],[],[],[],[],[],[],[],[],[],[],[],[],[],[],[],[],[],[],[],[],[],[],[],[],[],[],"[[0, 2003]]",[],[],[],[],[],[],[],[],[],[],[],[],[],[],[],[],[],[]
participant_7_GOLD,500,500,584,878,1148,1396,1669,1889,2171,2980,3123,3672,3900,4113,4390,5301,5609,6445,7072,7227,8450,8778,8900,9210,9485,9657,9821,10092,10216,10597,10761,10884,11719,11841,12208,12580,12748,13075,13197,14168,14344,14466,14858,15187,15523,15869,16299,16421,16539
participant_7_CURRENTGOLD,500,0,84,378,648,896,1169,1389,371,1180,473,1022,200,113,390,1301,374,45,672,827,2050,2378,1100,1410,436,607,771,1043,76,458,622,744,45,167,534,906,1073,1401,673,1644,1820,127,519,848,600,945,1376,1498,1139
participant_7_LEVEL,1,1,1,3,4,5,6,7,7,8,8,9,9,10,10,11,11,12,12,12,13,13,13,13,13,14,14,14,14,15,15,15,16,16,16,17,17,17,17,18,18,18,18,18,18,18,18,18,18
participant_7_MINIONSKILLED,0,0,4,12,20,27,33,38,45,55,56,64,67,72,81,88,96,97,103,103,103,107,107,107,112,115,118,119,119,124,127,127,131,131,138,138,138,144,144,148,149,149,153,157,161,170,181,181,181
participant_7_KILLS,0,0,0,0,2,2,2,2,2,2,2,3,3,3,4,4,5,5,6,6,7,7,7,8,8,8,8,8,8,9,9,12,13,13,14,16,16,16,16,16,16,16,16,16,16,17,17,18,18
participant_7_BUY,[],"[3340, 2031, 1039]",[],[],[],[],"[3706, 1001, 1036, 1036]",[],[],[],"[1400, 2055]",[],"[1036, 1036, 1036]",[],"[3134, 1036]",[3111],[],[],[],"[3142, 1036, 1036]",[],[],[3044],[],[],[],[3078],[],[],[3035],[],[],[],"[3036, 1053]",[],[],[],[3812],[],[],[],[],[2140],[],[],[3147],[3026],[],[2138]
participant_7_SOLD,[],[],[],[],[],[],[1039],[],[],[],"[1036, 1036, 3706, 2055]",[],[],[],"[1036, 1036]",[1001],[],[3340],[3513],"[1036, 1036, 1036]",[],[],[1036],[],[],[],"[1036, 3044]",[],[],[],[],[],[],"[3035, 2031]",[],[],[],[1053],[],[],[],[],[2140],[],[],[3142],[3111],[],[2138]
participant_7_UNDO,[],[],[],[],[],[],[],[],[],[],[],[],[],[],[],"[[0, 1036], [0, 3134]]",[],[],[],[],[],[],[],[],[],[],[],[],[],[],[],[],[],[],[],[],[],[],[],[],[],[],[],[],[],[],[],[],[]
participant_8_GOLD,500,500,584,832,1109,1315,1564,2098,2544,2881,3187,3504,3914,4037,4250,4393,4684,4806,5149,5613,5906,6377,6541,7703,8034,8513,8794,9326,9520,10666,11088,11607,11879,12377,12982,13729,14095,14568,15317,15439,15613,16167,17045,17299,17567,18052,18266,18666,18784
participant_8_CURRENTGOLD,500,0,84,332,609,815,164,698,1144,1481,137,454,864,287,500,643,934,356,99,163,456,927,191,1353,251,730,1011,1543,137,1283,1705,524,446,945,1099,576,393,415,315,437,610,1165,2043,347,615,1100,1314,1715,1151
participant_8_LEVEL,1,1,1,2,3,3,4,5,6,6,6,7,7,7,8,8,8,8,8,9,10,10,10,11,12,12,12,13,13,14,14,14,14,15,15,16,16,17,17,17,17,17,18,18,18,18,18,18,18
participant_8_MINIONSKILLED,0,0,3,10,18,23,30,37,44,49,57,65,78,78,83,84,90,90,94,97,98,102,104,108,116,119,125,128,132,135,141,142,142,156,159,159,169,169,180,180,183,186,193,196,201,213,216,224,224
participant_8_KILLS,0,0,0,0,0,0,0,1,1,1,1,1,1,1,1,1,1,1,1,2,2,2,2,5,5,6,6,6,6,7,7,8,8,8,9,10,10,11,12,12,12,13,15,15,15,15,15,15,15
participant_8_BUY,[],"[1054, 2003, 3340]",[],[],[],[],"[3070, 2003]",[],[],[],"[3004, 2003, 2003]",[],[],"[1027, 1001, 2003]",[],[],[],[3057],[3158],[1028],[],[],"[3044, 2003]",[],[3078],[],[],[],"[3144, 3363]",[],[],[3153],[1036],[],[3123],[3035],[3033],[1033],[3155],[],[],[],[],[3156],[],[],[],[],[2140]
participant_8_SOLD,[],[],[],[],[],[],[],[],[2003],[2003],[3070],[],[],[2003],[],[],[],[1027],[1001],[],[2003],[2003],[1028],"[3004, 2003]","[3057, 3044]",[],[],[],[3340],[],[],[3144],[],[],[1036],[1054],"[3035, 3123]",[],[1033],[],[],[],[],[3155],[],[],[],[],[2140]
participant_8_UNDO,[],[],[],[],[],[],[],[],[],[],[],[],[],[],[],[],[],[],[],[],[],[],[],[],[],[],[],[],[],[],[],[],[],[],[],[],[],[],[],[],[],[],[],[],[],[],[],[],[]
participant_9_GOLD,500,530,583,732,882,1061,1211,1525,2019,2488,2623,2801,2935,3099,3292,3447,3698,4131,4503,4687,4992,5458,5626,5984,6242,6383,6973,7457,7599,7918,8100,8336,8627,8866,9202,9817,10096,10456,10746,10887,11027,11167,11308,11523,12006,12341,12531,12727,12861
participant_9_CURRENTGOLD,500,30,83,232,382,561,711,100,594,1063,483,661,795,94,287,442,693,1126,448,632,337,403,136,494,752,128,718,1202,244,563,745,982,1272,1511,297,912,1192,1551,441,582,722,863,103,318,801,1136,1327,1522,1636
participant_9_LEVEL,1,1,1,2,3,3,4,4,5,5,6,6,7,7,7,8,8,9,9,9,9,10,10,11,11,11,11,11,11,12,12,13,13,13,14,15,15,16,17,17,17,17,17,18,18,18,18,18,18
participant_9_MINIONSKILLED,0,0,0,0,0,0,0,0,0,0,0,1,1,2,4,4,6,17,18,19,19,25,27,27,30,30,30,31,31,33,36,37,37,42,42,42,46,47,47,47,47,47,47,47,49,56,56,56,56
participant_9_KILLS,0,0,0,0,0,0,0,0,1,2,2,2,2,2,2,2,2,2,2,2,2,2,2,2,2,2,3,4,4,4,4,4,4,4,4,4,4,4,4,4,4,4,4,4,5,5,5,5,5
participant_9_BUY,[],"[3850, 2003, 2003, 3340]",[],[],[],[],[],"[1026, 3364, 2055, 3340]",[],[],"[1052, 1052, 1001]",[],[],[3802],[],[],[],[],[3285],[],[3158],[1028],[1052],[],[],[3916],[],[],[3191],[],[],[],[],[],[3157],[],[],[],[3165],[],[],[],[3108],[],[],[],[],[],[]
participant_9_SOLD,[],[],[],[],[],"[2003, 2010]",[],"[3340, 3364]",[],"[2055, 2419]","[2010, 2003]",[],[],[1052],[3850],[],[2010],[],"[3802, 1026]",[],[1001],[],[],[3851],[2423],"[1028, 1052]",[],[],[],[],[],[],[],[],"[3191, 2424]",[],[],[],[3916],[],[],[],[],[],[],[],[],[],[]
participant_9_UNDO,[],[],[],[],[],[],[],[],[],[],"[[0, 1052]]",[],[],[],[],[],[],[],[],[],[],[],[],[],[],[],[],[],[],[],[],[],[],[],[],[],[],[],[],[],[],[],[],[],[],[],[],[],[]
team0_KILLS,0,0,0,1,1,1,2,3,3,3,5,6,6,10,12,14,16,17,19,22,23,24,27,28,28,30,32,32,33,34,35,36,39,40,41,43,44,47,49,50,50,50,52,52,52,53,56,56,61
team0_CURRENTGOLD,2500,0,278,2128,2325,3230,4856,4011,2211,2923,4410,5342,5247,8169,2213,2773,4511,3275,4210,5185,2742,4011,4575,2500,2422,3242,4791,2140,2569,3028,4021,3330,2309,4805,6652,3017,4754,8075,6526,8988,5455,7229,7718,5838,6924,5617,7977,9488,10139
team0_TOTALGOLD,2500,2500,2778,4628,5910,7290,8916,10446,11511,12623,14635,16467,17657,21729,23456,25441,27529,29068,32303,34903,36125,37943,41508,42758,43978,45600,48448,49737,50967,52074,53968,55752,58403,60902,62748,64277,66514,69834,72236,75898,77484,79257,83287,84807,86391,87486,89843,91355,96772
team0_LEVEL,5,5,5,12,16,21,24,26,28,32,34,37,39,41,46,47,50,51,54,57,57,60,63,63,63,66,68,68,69,71,73,74,76,76,79,80,83,85,86,87,88,88,88,88,89,89,90,90,90
team0_SBIRES,0,0,9,38,62,89,108,128,138,161,181,205,222,247,258,280,302,319,336,363,371,394,413,414,429,444,466,479,489,491,514,529,538,555,570,570,586,607,614,621,649,668,673,693,722,723,726,740,750
team1_KILLS,0,0,0,0,2,2,2,3,4,6,6,8,8,9,10,11,12,13,14,15,19,19,19,23,23,24,25,27,27,31,31,35,37,37,39,42,42,45,46,47,47,48,50,51,52,54,54,55,55
team1_CURRENTGOLD,2500,30,399,1591,3780,3965,2501,2825,3111,5302,2028,4275,1976,1344,2544,3167,3320,3442,5125,2504,3859,5665,2281,4910,4146,4209,2946,5387,1782,2978,3870,3945,4525,4067,2969,5067,5914,5374,2091,4159,5207,4922,5176,5137,4558,5837,5074,6078,1665
team1_TOTALGOLD,2500,2530,2899,4091,6280,7440,8526,10075,12011,14327,15268,17515,18816,20049,21999,23772,25735,27722,31055,32104,35219,37424,38151,40780,42698,44126,45502,47942,48997,52041,53309,55858,58325,60055,61927,65297,66691,69302,70739,72806,73855,75383,77038,78948,80734,83384,84647,86152,86756
team1_LEVEL,5,5,6,12,17,20,23,26,30,32,34,36,39,41,42,46,47,49,51,52,55,57,58,61,63,65,65,67,68,71,72,74,76,78,79,82,84,86,87,88,88,88,89,90,90,90,90,90,90
team1_SBIRES,0,0,8,31,55,73,90,111,133,149,163,190,207,224,245,258,281,300,327,331,334,358,364,374,403,410,420,433,449,459,480,489,498,531,541,541,560,574,585,596,605,613,624,647,664,692,706,728,728
delta_KILLS,0,0,0,1,-1,-1,0,0,-1,-3,-1,-2,-2,1,2,3,4,4,5,7,4,5,8,5,5,6,7,5,6,3,4,1,2,3,2,1,2,2,3,3,3,2,2,1,0,-1,2,1,6
delta_CURRENTGOLD,0,-30,-121,537,-1455,-735,2355,1186,-900,-2379,2382,1067,3271,6825,-331,-394,1191,-167,-915,2681,-1117,-1654,2294,-2410,-1724,-967,1845,-3247,787,50,151,-615,-2216,738,3683,-2050,-1160,2701,4435,4829,248,2307,2542,701,2366,-220,2903,3410,8474
delta_TOTALGOLD,0,-30,-121,537,-370,-150,390,371,-500,-1704,-633,-1048,-1159,1680,1457,1669,1794,1346,1248,2799,906,519,3357,1978,1280,1474,2946,1795,1970,33,659,-106,78,847,821,-1020,-177,532,1497,3092,3629,3874,6249,5859,5657,4102,5196,5203,10016
delta_LEVEL,0,0,-1,0,-1,1,1,0,-2,0,0,1,0,0,4,1,3,2,3,5,2,3,5,2,0,1,3,1,1,0,1,0,0,-2,0,-2,-1,-1,-1,-1,0,0,-1,-2,-1,-1,0,0,0
delta_SBIRES,0,0,1,7,7,16,18,17,5,12,18,15,15,23,13,22,21,19,9,32,37,36,49,40,26,34,46,46,40,32,34,40,40,24,29,29,26,33,29,25,44,55,49,46,58,31,20,12,22
