name,team0,team1
win,Win,Fail
firstBlood,False,True
firstTower,True,False
firstInhibitor,True,False
firstBaron,True,False
firstDragon,True,False
firstRiftHerald,False,False
towerKills,10,0
inhibitorKills,1,0
baronKills,1,0
dragonKills,3,1
riftHeraldKills,0,0
