name,team0,team1
win,Win,Fail
firstBlood,True,False
firstTower,True,False
firstInhibitor,True,False
firstBaron,True,False
firstDragon,True,False
firstRiftHerald,False,True
towerKills,11,3
inhibitorKills,4,0
baronKills,2,0
dragonKills,4,0
riftHeraldKills,0,1
